1962
-0.392054, 1, 1, 500, 375
-0.4783, 1, 65, 500, 320
-0.503018, 257, 1, 500, 375
-0.512109, 97, 1, 352, 375
-0.574917, 1, 1, 256, 375
-0.644783, 257, 1, 500, 256
-0.659772, 1, 129, 256, 375
-0.680284, 97, 65, 352, 320
-0.708211, 1, 33, 256, 288
-0.851425, 353, 1, 480, 256
-0.853733, 81, 65, 208, 320
-0.858395, 129, 65, 256, 320
-0.863889, 113, 1, 240, 375
-0.870449, 353, 1, 480, 375
-0.870451, 33, 129, 160, 375
-0.870882, 161, 1, 288, 375
-0.879277, 305, 1, 432, 256
-0.881006, 33, 1, 160, 375
-0.886513, 257, 1, 384, 375
-0.889657, 177, 65, 304, 320
-0.896238, 1, 49, 500, 176
-0.903987, 305, 1, 432, 375
-0.906402, 33, 33, 160, 288
-0.907818, 209, 1, 336, 375
-0.910482, 257, 33, 384, 288
-0.914416, 1, 209, 500, 336
-0.914681, 353, 97, 480, 352
-0.915786, 1, 97, 500, 224
-0.919566, 1, 129, 256, 256
-0.923109, 1, 1, 500, 128
-0.923593, 257, 33, 500, 160
-0.927355, 1, 161, 500, 288
-0.928935, 193, 97, 448, 352
-0.935526, 161, 65, 416, 192
-0.936611, 81, 241, 208, 368
-0.937764, 1, 177, 256, 304
-0.937975, 97, 113, 352, 240
-0.938585, 1, 241, 256, 368
-0.941556, 81, 145, 208, 272
-0.942764, 1, 241, 128, 368
-0.943398, 273, 129, 400, 375
-0.944654, 33, 161, 160, 288
-0.944869, 137, 49, 200, 176
-0.944891, 81, 193, 208, 320
-0.944966, 129, 49, 256, 176
-0.945231, 113, 81, 176, 208
-0.947341, 33, 33, 288, 160
-0.947955, 81, 97, 208, 224
-0.948147, 137, 161, 200, 288
-0.948166, 321, 17, 448, 144
-0.949571, 129, 113, 256, 240
-0.950323, 97, 241, 160, 368
-0.950606, 57, 209, 120, 336
-0.951063, 369, 17, 496, 144
-0.951159, 417, 17, 480, 144
-0.952226, 129, 1, 384, 128
-0.952408, 49, 289, 112, 352
-0.952474, 161, 49, 224, 176
-0.95343, 81, 49, 208, 176
-0.954742, 97, 145, 160, 272
-0.955269, 121, 225, 184, 352
-0.95619, 137, 97, 200, 224
-0.956491, 129, 161, 256, 288
-0.956903, 97, 225, 352, 352
-0.957032, 377, 17, 440, 144
-0.957092, 97, 177, 352, 304
-0.95882, 369, 65, 496, 192
-0.959529, 193, 161, 448, 288
-0.959849, 145, 201, 208, 264
-0.960005, 129, 209, 256, 336
-0.960109, 17, 281, 80, 344
-0.960252, 113, 33, 176, 160
-0.960436, 41, 161, 104, 288
-0.960755, 241, 49, 368, 176
-0.960795, 121, 153, 184, 216
-0.960985, 1, 113, 128, 240
-0.961367, 17, 241, 80, 368
-0.962403, 57, 265, 120, 328
-0.962409, 113, 73, 176, 136
-0.962591, 137, 57, 200, 120
-0.963151, 105, 265, 168, 328
-0.963198, 121, 129, 184, 192
-0.964391, 193, 1, 320, 128
-0.964445, 369, 113, 496, 240
-0.964618, 161, 97, 224, 224
-0.964702, 433, 65, 496, 192
-0.965254, 369, 25, 432, 88
-0.965314, 25, 113, 88, 240
-0.965363, 1, 161, 64, 288
-0.965495, 417, 113, 480, 240
-0.965869, 89, 289, 152, 352
-0.966791, 417, 129, 480, 192
-0.968029, 393, 81, 456, 208
-0.968061, 137, 97, 200, 160
-0.9682, 145, 121, 208, 184
-0.968443, 129, 1, 256, 128
-0.968509, 1, 81, 256, 208
-0.968725, 121, 241, 184, 304
-0.968725, 9, 305, 72, 368
-0.969403, 185, 33, 248, 160
-0.96954, 377, 145, 440, 208
-0.96996, 249, 1, 312, 128
-0.970034, 225, 201, 288, 264
-0.970428, 113, 97, 176, 160
-0.970538, 337, 153, 400, 216
-0.97067, 409, 17, 472, 80
-0.97087, 225, 129, 352, 375
-0.970886, 153, 241, 216, 368
-0.971055, 149, 113, 180, 240
-0.971217, 425, 89, 488, 152
-0.971266, 129, 97, 192, 352
-0.971673, 265, 185, 328, 248
-0.97191, 89, 129, 152, 375
-0.972044, 81, 193, 144, 320
-0.972139, 137, 1, 200, 128
-0.972156, 177, 81, 304, 208
-0.972223, 73, 113, 136, 240
-0.972237, 297, 49, 360, 176
-0.972314, 1, 97, 64, 224
-0.972355, 145, 161, 208, 224
-0.972407, 305, 145, 432, 272
-0.972564, 337, 33, 400, 160
-0.972672, 17, 65, 144, 192
-0.972731, 97, 241, 160, 304
-0.972773, 289, 177, 352, 240
-0.972838, 149, 121, 180, 184
-0.972955, 161, 89, 224, 152
-0.97297, 145, 65, 176, 192
-0.973181, 241, 161, 368, 288
-0.973311, 393, 113, 456, 176
-0.973376, 201, 209, 264, 272
-0.97353, 49, 217, 112, 280
-0.973595, 417, 57, 480, 120
-0.973763, 89, 65, 152, 192
-0.973984, 1, 281, 128, 344
-0.974024, 129, 73, 256, 136
-0.97403, 241, 1, 368, 128
-0.974135, 65, 289, 192, 352
-0.974159, 49, 113, 112, 240
-0.974367, 161, 65, 224, 128
-0.974614, 377, 129, 440, 256
-0.974924, 193, 193, 320, 320
-0.975117, 57, 241, 120, 304
-0.97514, 17, 257, 80, 320
-0.975267, 321, 33, 448, 96
-0.975295, 1, 49, 64, 176
-0.975447, 49, 1, 176, 128
-0.975469, 153, 33, 216, 288
-0.975527, 81, 265, 144, 328
-0.975615, 241, 177, 304, 304
-0.976373, 113, 49, 176, 112
-0.976385, 177, 225, 240, 288
-0.976568, 321, 97, 448, 224
-0.97662, 281, 161, 344, 288
-0.976824, 329, 41, 392, 104
-0.976863, 1, 305, 128, 368
-0.976889, 129, 105, 256, 168
-0.9769, 25, 161, 88, 224
-0.976918, 41, 193, 104, 256
-0.97705, 33, 249, 160, 312
-0.977099, 313, 145, 376, 272
-0.977316, 105, 281, 136, 344
-0.977352, 49, 281, 80, 344
-0.977395, 361, 1, 424, 256
-0.977486, 209, 17, 272, 144
-0.977606, 217, 89, 280, 152
-0.977621, 353, 129, 416, 256
-0.977652, 33, 225, 160, 288
-0.977691, 153, 161, 184, 288
-0.977735, 81, 313, 144, 375
-0.977815, 97, 153, 160, 216
-0.977989, 313, 169, 376, 232
-0.978061, 257, 81, 500, 208
-0.978252, 149, 73, 180, 136
-0.97834, 137, 113, 168, 240
-0.978479, 41, 129, 104, 375
-0.978527, 81, 209, 208, 272
-0.978557, 161, 145, 224, 272
-0.978575, 133, 65, 164, 192
-0.978663, 265, 65, 328, 128
-0.978685, 81, 153, 208, 216
-0.978696, 257, 65, 320, 192
-0.978754, 81, 313, 208, 375
-0.978821, 153, 129, 216, 375
-0.978993, 201, 81, 264, 208
-0.979006, 105, 33, 168, 288
-0.979007, 153, 145, 184, 208
-0.979041, 161, 113, 192, 240
-0.979129, 185, 65, 248, 128
-0.979149, 81, 73, 208, 136
-0.979283, 105, 217, 168, 280
-0.979306, 81, 97, 208, 160
-0.979357, 161, 41, 224, 104
-0.97937, 121, 249, 152, 312
-0.979381, 49, 121, 176, 184
-0.979427, 297, 49, 360, 112
-0.97943, 89, 225, 120, 352
-0.979513, 353, 9, 480, 72
-0.979602, 233, 65, 296, 192
-0.979723, 353, 137, 480, 200
-0.979902, 177, 113, 240, 176
-0.979921, 1, 97, 64, 160
-0.979978, 153, 169, 184, 232
-0.980043, 165, 49, 196, 176
-0.980104, 385, 1, 448, 256
-0.980121, 161, 105, 192, 168
-0.980221, 81, 257, 208, 320
-0.980369, 241, 185, 368, 248
-0.980383, 417, 1, 480, 256
-0.980609, 421, 113, 452, 176
-0.980653, 57, 129, 120, 192
-0.980796, 129, 1, 192, 256
-0.98088, 241, 81, 304, 144
-0.980968, 153, 313, 216, 375
-0.981084, 57, 169, 120, 232
-0.981135, 153, 193, 184, 256
-0.981196, 137, 33, 200, 96
-0.981354, 129, 185, 256, 248
-0.981394, 129, 49, 256, 112
-0.981403, 89, 17, 152, 144
-0.981404, 149, 97, 180, 160
-0.981486, 201, 193, 264, 320
-0.981523, 9, 297, 40, 360
-0.981652, 153, 225, 216, 288
-0.981705, 393, 17, 424, 80
-0.981748, 137, 65, 168, 128
-0.981757, 165, 161, 196, 288
-0.981831, 385, 81, 448, 144
-0.982044, 125, 225, 156, 352
-0.98207, 305, 97, 368, 224
-0.982086, 65, 65, 128, 192
-0.982107, 69, 297, 100, 360
-0.982131, 121, 177, 184, 240
-0.9822, 289, 1, 352, 128
-0.98226, 169, 193, 232, 256
-0.982306, 33, 313, 96, 375
-0.98231, 361, 1, 424, 64
-0.982313, 1, 177, 64, 240
-0.982318, 149, 49, 180, 112
-0.982318, 337, 1, 400, 256
-0.982367, 1, 1, 128, 128
-0.982397, 29, 281, 60, 344
-0.98249, 137, 193, 168, 320
-0.982491, 1, 129, 64, 375
-0.982517, 89, 65, 152, 128
-0.98252, 33, 201, 160, 264
-0.982573, 241, 177, 304, 240
-0.982591, 17, 137, 80, 200
-0.982801, 165, 201, 196, 264
-0.982822, 161, 217, 288, 280
-0.982907, 289, 161, 416, 224
-0.982913, 9, 233, 72, 296
-0.982937, 81, 233, 208, 296
-0.982944, 377, 49, 440, 112
-0.98313, 369, 89, 496, 152
-0.983317, 385, 145, 416, 208
-0.983378, 129, 1, 192, 375
-0.983445, 113, 313, 176, 375
-0.983456, 405, 137, 436, 200
-0.983505, 85, 281, 116, 344
-0.983531, 97, 129, 160, 192
-0.983549, 145, 313, 272, 375
-0.983619, 161, 193, 224, 320
-0.983626, 161, 1, 224, 128
-0.983734, 349, 161, 380, 224
-0.983775, 133, 225, 164, 288
-0.98385, 65, 129, 128, 375
-0.983907, 45, 257, 76, 320
-0.984003, 101, 249, 132, 312
-0.98401, 425, 81, 456, 208
-0.984015, 177, 65, 240, 320
-0.984106, 113, 289, 176, 352
-0.98412, 97, 129, 224, 192
-0.984272, 369, 57, 496, 120
-0.984302, 185, 145, 248, 272
-0.984395, 17, 161, 144, 224
-0.984598, 217, 49, 280, 112
-0.984794, 65, 177, 192, 240
-0.984812, 385, 1, 448, 64
-0.984848, 141, 17, 172, 144
-0.984849, 105, 1, 168, 375
-0.984875, 257, 57, 384, 120
-0.984894, 37, 209, 68, 336
-0.984959, 177, 145, 304, 272
-0.98496, 337, 81, 400, 208
-0.984977, 369, 1, 432, 375
-0.98503, 369, 121, 432, 184
-0.985068, 305, 33, 368, 288
-0.985139, 369, 153, 400, 216
-0.985155, 329, 169, 360, 232
-0.985165, 425, 1, 488, 375
-0.985252, 169, 81, 200, 144
-0.985272, 241, 49, 304, 112
-0.985352, 417, 97, 480, 352
-0.985373, 293, 185, 324, 248
-0.985393, 137, 113, 168, 176
-0.985441, 161, 161, 288, 224
-0.985454, 337, 9, 400, 72
-0.985531, 433, 129, 464, 192
-0.985542, 141, 201, 172, 264
-0.985543, 113, 241, 144, 368
-0.985627, 169, 129, 200, 192
-0.985629, 177, 65, 208, 192
-0.985644, 125, 49, 156, 112
-0.985688, 177, 313, 240, 375
-0.985695, 217, 177, 280, 240
-0.985894, 369, 33, 496, 96
-0.986021, 85, 313, 116, 375
-0.986034, 121, 73, 152, 136
-0.986084, 97, 193, 160, 256
-0.986109, 209, 313, 272, 375
-0.986164, 165, 153, 196, 216
-0.98619, 185, 25, 248, 88
-0.986198, 193, 185, 256, 248
-0.98627, 209, 73, 336, 136
-0.986282, 81, 33, 144, 288
-0.986361, 313, 177, 344, 240
-0.986366, 169, 169, 232, 232
-0.986413, 81, 49, 208, 112
-0.986444, 89, 89, 152, 152
-0.98645, 57, 313, 120, 375
-0.986481, 321, 57, 448, 120
-0.986511, 121, 65, 152, 192
-0.986525, 133, 153, 164, 216
-0.986641, 225, 65, 288, 320
-0.986663, 125, 145, 156, 272
-0.986676, 265, 41, 328, 104
-0.986676, 69, 241, 100, 368
-0.986734, 441, 1, 472, 64
-0.9868, 165, 49, 196, 112
-0.986835, 65, 1, 128, 128
-0.98689, 397, 1, 428, 128
-0.98699, 101, 241, 132, 368
-0.987045, 265, 113, 328, 240
-0.987071, 209, 209, 336, 272
-0.987136, 225, 129, 288, 256
-0.987219, 169, 145, 232, 208
-0.987252, 369, 113, 496, 176
-0.98733, 81, 217, 144, 280
-0.987347, 1, 201, 64, 264
-0.987368, 445, 129, 476, 192
-0.987399, 417, 89, 448, 152
-0.98742, 393, 1, 456, 375
-0.987427, 153, 1, 216, 375
-0.987431, 201, 1, 264, 375
-0.987432, 265, 33, 328, 288
-0.987457, 117, 273, 148, 336
-0.987512, 297, 145, 360, 208
-0.987559, 461, 49, 492, 176
-0.987573, 37, 305, 68, 368
-0.987598, 185, 225, 216, 288
-0.987709, 81, 161, 112, 288
-0.987729, 97, 25, 160, 88
-0.987764, 409, 49, 440, 176
-0.987789, 9, 289, 72, 320
-0.987832, 25, 89, 88, 152
-0.98784, 1, 1, 64, 375
-0.987878, 17, 73, 144, 136
-0.987887, 273, 97, 400, 224
-0.987911, 313, 1, 376, 128
-0.987931, 193, 41, 320, 104
-0.988014, 437, 49, 468, 176
-0.988056, 137, 41, 168, 104
-0.988077, 441, 113, 472, 240
-0.988094, 273, 193, 304, 256
-0.988128, 225, 113, 352, 240
-0.988193, 49, 241, 80, 368
-0.988246, 193, 89, 256, 152
-0.988254, 41, 65, 104, 192
-0.988286, 137, 89, 168, 152
-0.988311, 297, 25, 360, 88
-0.988357, 253, 201, 284, 264
-0.988415, 229, 209, 260, 272
-0.98846, 181, 81, 212, 144
-0.988472, 1, 41, 64, 104
-0.988551, 1, 137, 128, 200
-0.988566, 421, 1, 452, 128
-0.988599, 305, 1, 368, 375
-0.988612, 137, 73, 200, 104
-0.988639, 145, 249, 208, 312
-0.988671, 153, 17, 184, 144
-0.988682, 321, 105, 448, 168
-0.988692, 193, 225, 448, 352
-0.988722, 33, 289, 96, 320
-0.988724, 21, 177, 52, 304
-0.988774, 129, 241, 256, 304
-0.988802, 145, 129, 272, 192
-0.988805, 337, 129, 400, 192
-0.988846, 433, 25, 496, 88
-0.988873, 49, 301, 112, 332
-0.988875, 173, 113, 204, 240
-0.988898, 149, 305, 180, 368
-0.988939, 173, 225, 204, 352
-0.989037, 329, 1, 392, 375
-0.989049, 49, 313, 80, 375
-0.989086, 265, 161, 328, 224
-0.989114, 1, 301, 64, 332
-0.989193, 161, 313, 192, 375
-0.989207, 377, 149, 440, 180
-0.989232, 153, 289, 216, 352
-0.989239, 17, 65, 80, 128
-0.989299, 17, 1, 80, 128
-0.989405, 57, 289, 120, 320
-0.989418, 257, 1, 320, 375
-0.989441, 33, 33, 96, 288
-0.989449, 225, 1, 288, 64
-0.989457, 345, 161, 408, 192
-0.989504, 313, 177, 376, 208
-0.989532, 25, 309, 88, 340
-0.989545, 241, 205, 304, 236
-0.989566, 401, 137, 464, 168
-0.989589, 193, 97, 320, 160
-0.989592, 5, 169, 36, 232
-0.989608, 281, 189, 344, 220
-0.989662, 417, 17, 448, 80
-0.9897, 1, 33, 64, 288
-0.989759, 1, 317, 64, 348
-0.989769, 441, 97, 472, 160
-0.989788, 65, 25, 192, 88
-0.989802, 137, 225, 200, 256
-0.989813, 369, 29, 432, 60
-0.989815, 65, 265, 96, 328
-0.989847, 97, 145, 128, 272
-0.989867, 25, 193, 56, 256
-0.989873, 217, 213, 280, 244
-0.989875, 57, 193, 88, 320
-0.989928, 41, 277, 104, 308
-0.989932, 281, 1, 344, 375
-0.989951, 425, 129, 488, 160
-0.989997, 169, 177, 200, 240
-0.990014, 105, 277, 168, 308
-0.990043, 89, 257, 120, 320
-0.990051, 85, 169, 116, 232
-0.990082, 193, 225, 256, 256
-0.990128, 81, 113, 112, 240
-0.990144, 113, 77, 176, 108
-0.990155, 1, 305, 256, 368
-0.990159, 33, 217, 64, 280
-0.99016, 209, 33, 240, 160
-0.990164, 241, 25, 368, 88
-0.990175, 113, 289, 240, 352
-0.990178, 97, 305, 128, 368
-0.990178, 149, 241, 180, 368
-0.990211, 129, 57, 192, 88
-0.990213, 433, 1, 496, 64
-0.990259, 1, 81, 32, 208
-0.990293, 1, 97, 128, 160
-0.990303, 5, 161, 36, 288
-0.990315, 409, 65, 440, 128
-0.990332, 177, 1, 240, 375
-0.990352, 273, 1, 304, 128
-0.990363, 137, 101, 200, 132
-0.990384, 181, 161, 212, 288
-0.990434, 425, 113, 488, 144
-0.990442, 113, 193, 144, 320
-0.990444, 5, 33, 36, 160
-0.990467, 145, 265, 272, 328
-0.990469, 129, 113, 192, 144
-0.990508, 65, 113, 96, 240
-0.990527, 33, 49, 160, 112
-0.990528, 81, 257, 144, 288
-0.990532, 373, 25, 404, 88
-0.990534, 161, 225, 192, 288
-0.990562, 137, 213, 200, 244
-0.990562, 81, 1, 144, 375
-0.990579, 121, 253, 184, 284
-0.99058, 469, 89, 500, 152
-0.990587, 25, 129, 56, 256
-0.990599, 209, 25, 272, 88
-0.990632, 121, 149, 184, 180
-0.990674, 257, 193, 320, 224
-0.990681, 333, 33, 364, 160
-0.990683, 249, 1, 280, 128
-0.990693, 21, 313, 52, 375
-0.99071, 73, 41, 136, 104
-0.99072, 349, 33, 380, 160
-0.990738, 53, 145, 84, 272
-0.990748, 57, 1, 120, 375
-0.990755, 153, 125, 216, 156
-0.99076, 81, 281, 144, 312
-0.990791, 161, 101, 224, 132
-0.990824, 65, 65, 128, 128
-0.990828, 113, 265, 176, 296
-0.990832, 161, 61, 224, 92
-0.990837, 201, 1, 264, 256
-0.990845, 337, 161, 464, 224
-0.99085, 113, 101, 176, 132
-0.990856, 129, 241, 192, 272
-0.990858, 401, 41, 432, 104
-0.99088, 313, 161, 344, 288
-0.990887, 129, 25, 256, 88
-0.990908, 229, 97, 260, 160
-0.990913, 49, 201, 80, 264
-0.990954, 289, 177, 352, 208
-0.990957, 105, 61, 168, 92
-0.990984, 41, 145, 72, 272
-0.990988, 25, 113, 88, 176
-0.99099, 145, 193, 208, 224
-0.991007, 209, 153, 336, 216
-0.991012, 81, 293, 144, 324
-0.991025, 121, 137, 184, 168
-0.991053, 161, 9, 224, 72
-0.991059, 161, 73, 224, 104
-0.991074, 425, 101, 488, 132
-0.991078, 421, 137, 452, 200
-0.991085, 161, 225, 224, 256
-0.991088, 409, 33, 472, 64
-0.991093, 25, 81, 56, 208
-0.991114, 177, 241, 240, 368
-0.991115, 321, 165, 384, 196
-0.991135, 209, 333, 272, 364
-0.99114, 233, 341, 296, 372
-0.99114, 273, 1, 400, 64
-0.991142, 121, 125, 184, 156
-0.991144, 137, 85, 200, 116
-0.991146, 145, 169, 208, 200
-0.991162, 109, 97, 140, 224
-0.991166, 309, 49, 340, 176
-0.991172, 289, 61, 352, 92
-0.991185, 129, 17, 160, 144
-0.991185, 145, 157, 208, 188
-0.991187, 409, 61, 472, 92
-0.991218, 401, 17, 464, 48
-0.991225, 177, 209, 240, 240
-0.991228, 417, 85, 480, 116
-0.991231, 361, 33, 392, 96
-0.991263, 105, 161, 168, 192
-0.991369, 189, 49, 220, 176
-0.991379, 105, 89, 168, 120
-0.99139, 113, 1, 240, 64
-0.991392, 201, 73, 232, 136
-0.991399, 461, 97, 492, 224
-0.991401, 461, 121, 492, 184
-0.991405, 417, 73, 480, 104
-0.991406, 49, 237, 112, 268
-0.991408, 385, 121, 416, 184
-0.99144, 153, 113, 216, 144
-0.991445, 89, 313, 152, 344
-0.991451, 329, 45, 392, 76
-0.991468, 69, 161, 100, 288
-0.991487, 145, 181, 208, 212
-0.991502, 229, 185, 260, 248
-0.991506, 273, 65, 304, 128
-0.991512, 105, 289, 168, 320
-0.991525, 209, 209, 240, 272
-0.991526, 353, 149, 416, 180
-0.991535, 33, 1, 96, 375
-0.99154, 449, 49, 480, 176
-0.991566, 65, 169, 96, 232
-0.991577, 89, 233, 152, 264
-0.991577, 297, 157, 360, 188
-0.991579, 261, 1, 292, 128
-0.991611, 409, 45, 472, 76
-0.991636, 177, 113, 240, 144
-0.991637, 257, 81, 288, 144
-0.991655, 181, 201, 212, 264
-0.991682, 265, 69, 328, 100
-0.991694, 273, 129, 400, 192
-0.991702, 49, 89, 112, 152
-0.991707, 329, 113, 360, 240
-0.991713, 209, 97, 272, 128
-0.991733, 401, 125, 464, 156
-0.99175, 145, 225, 176, 288
-0.991771, 201, 109, 264, 140
-0.991776, 225, 1, 288, 375
-0.991794, 41, 213, 104, 244
-0.991807, 145, 145, 208, 176
-0.991812, 377, 137, 440, 168
-0.99182, 385, 17, 416, 144
-0.991825, 73, 325, 136, 356
-0.991831, 365, 17, 396, 144
-0.991834, 425, 1, 488, 32
-0.991836, 169, 49, 232, 80
-0.991862, 241, 81, 304, 112
-0.991863, 217, 201, 280, 232
-0.991875, 17, 277, 80, 308
-0.991888, 113, 145, 144, 272
-0.991901, 369, 41, 432, 72
-0.99192, 57, 249, 120, 280
-0.991967, 37, 97, 68, 224
-0.991968, 33, 197, 96, 228
-0.991984, 385, 105, 448, 136
-0.991984, 65, 337, 128, 368
-0.992002, 153, 329, 216, 360
-0.992003, 153, 237, 216, 268
-0.992009, 309, 153, 340, 216
-0.992011, 193, 17, 320, 80
-0.992024, 45, 285, 76, 316
-0.99203, 241, 193, 272, 256
-0.992047, 169, 185, 232, 216
-0.992049, 245, 81, 276, 144
-0.992051, 121, 185, 184, 216
-0.992051, 321, 33, 352, 160
-0.992057, 65, 173, 128, 204
-0.992069, 105, 113, 168, 144
-0.992073, 1, 177, 64, 208
-0.992092, 65, 269, 128, 300
-0.992092, 97, 245, 160, 276
-0.992094, 49, 225, 112, 256
-0.992094, 369, 161, 432, 192
-0.992095, 109, 129, 140, 192
-0.992103, 25, 173, 88, 204
-0.992125, 305, 49, 368, 80
-0.992127, 345, 33, 408, 64
-0.99213, 201, 113, 264, 176
-0.992137, 41, 345, 104, 375
-0.992167, 233, 185, 296, 216
-0.992169, 81, 73, 144, 104
-0.992178, 121, 173, 184, 204
-0.992181, 185, 1, 248, 64
-0.992184, 121, 121, 152, 184
-0.992184, 133, 249, 164, 312
-0.992195, 17, 257, 80, 288
-0.9922, 193, 53, 256, 84
-0.992219, 321, 149, 384, 180
-0.992245, 1, 281, 256, 344
-0.99225, 29, 293, 60, 324
-0.992259, 185, 65, 248, 96
-0.992262, 229, 81, 260, 208
-0.992264, 161, 85, 224, 116
-0.992266, 173, 105, 204, 168
-0.992275, 429, 57, 460, 120
-0.992284, 345, 41, 376, 104
-0.992296, 17, 297, 48, 328
-0.992299, 113, 321, 176, 352
-0.992299, 265, 173, 328, 204
-0.992308, 89, 221, 152, 252
-0.992315, 241, 61, 304, 92
-0.992329, 25, 185, 88, 216
-0.992343, 1, 109, 64, 140
-0.992354, 113, 229, 176, 260
-0.992359, 121, 301, 184, 332
-0.992372, 377, 77, 440, 108
-0.992386, 401, 5, 464, 36
-0.992388, 233, 93, 296, 124
-0.992391, 385, 129, 416, 256
-0.992393, 113, 337, 176, 368
-0.992411, 9, 241, 72, 272
-0.992413, 113, 213, 176, 244
-0.992414, 177, 237, 240, 268
-0.992427, 1, 305, 32, 336
-0.992428, 177, 41, 208, 104
-0.992429, 385, 93, 448, 124
-0.992432, 53, 153, 84, 216
-0.992473, 249, 209, 312, 272
-0.992492, 1, 89, 32, 152
-0.992497, 217, 97, 248, 160
-0.992505, 141, 73, 172, 104
-0.992505, 329, 145, 360, 208
-0.992509, 45, 129, 76, 192
-0.992534, 109, 257, 140, 288
-0.992536, 365, 129, 396, 192
-0.992546, 41, 17, 104, 144
-0.992553, 321, 81, 448, 144
-0.992572, 165, 73, 196, 104
-0.99258, 57, 289, 88, 320
-0.99258, 89, 289, 120, 320
-0.992583, 421, 129, 452, 160
-0.992637, 145, 97, 176, 128
-0.992637, 241, 241, 304, 368
-0.992642, 153, 69, 184, 100
-0.992646, 357, 157, 388, 188
-0.992649, 65, 161, 320, 224
-0.992652, 385, 145, 416, 176
-0.992654, 325, 49, 356, 112
-0.992658, 153, 149, 184, 180
-0.992666, 45, 297, 76, 328
-0.992684, 117, 217, 148, 280
-0.992686, 29, 313, 60, 344
-0.992694, 277, 197, 308, 228
-0.992707, 289, 193, 320, 224
-0.992707, 405, 141, 436, 172
-0.992711, 293, 49, 324, 176
-0.992711, 13, 113, 44, 240
-0.992718, 9, 321, 40, 352
-0.99272, 221, 217, 252, 248
-0.992721, 349, 169, 380, 200
-0.992722, 117, 273, 148, 304
-0.992728, 337, 165, 368, 196
-0.992728, 213, 97, 244, 224
-0.992738, 201, 225, 232, 256
-0.99274, 309, 181, 340, 212
-0.992743, 57, 301, 88, 332
-0.992744, 245, 201, 276, 232
-0.992744, 141, 229, 172, 260
-0.992746, 297, 181, 328, 212
-0.992752, 329, 177, 360, 208
-0.992763, 393, 25, 424, 56
-0.992769, 165, 225, 196, 256
-0.992773, 369, 157, 400, 188
-0.992778, 261, 201, 292, 232
-0.99279, 149, 109, 180, 140
-0.992791, 41, 309, 72, 340
-0.992796, 137, 85, 168, 116
-0.992807, 149, 137, 180, 168
-0.992812, 101, 285, 132, 316
-0.99282, 125, 261, 156, 292
-0.992821, 181, 225, 212, 256
-0.992838, 237, 213, 268, 244
-0.992848, 161, 129, 192, 160
-0.992849, 189, 49, 220, 112
-0.992849, 153, 57, 184, 88
-0.992852, 253, 341, 284, 372
-0.992867, 149, 205, 180, 236
-0.992874, 157, 193, 188, 224
-0.992874, 1, 301, 128, 332
-0.992874, 433, 133, 464, 164
-0.992881, 437, 121, 468, 152
-0.992891, 121, 69, 152, 100
-0.992911, 141, 61, 172, 92
-0.992913, 117, 153, 148, 216
-0.992915, 457, 97, 488, 160
-0.992917, 165, 289, 196, 352
-0.992937, 77, 297, 108, 328
-0.99294, 5, 293, 36, 324
-0.992942, 137, 9, 200, 72
-0.992951, 17, 309, 48, 340
-0.992952, 149, 125, 180, 156
-0.99296, 129, 249, 160, 280
-0.992968, 45, 273, 76, 304
-0.992971, 293, 161, 324, 224
-0.992977, 149, 85, 180, 116
-0.992992, 417, 141, 448, 172
-0.993001, 161, 117, 192, 148
-0.993008, 165, 61, 196, 92
-0.993018, 33, 281, 64, 312
-0.993019, 157, 173, 188, 204
-0.993021, 213, 73, 244, 136
-0.993037, 209, 213, 240, 244
-0.993048, 125, 81, 156, 112
-0.99305, 145, 217, 176, 248
-0.99305, 165, 105, 196, 136
-0.993055, 57, 33, 120, 288
-0.993059, 229, 193, 260, 320
-0.993069, 161, 329, 192, 360
-0.993075, 221, 101, 252, 132
-0.993076, 153, 161, 184, 192
-0.993076, 165, 93, 196, 124
-0.993079, 413, 97, 444, 224
-0.993081, 381, 157, 412, 188
-0.993087, 129, 57, 160, 88
-0.993091, 401, 113, 432, 176
-0.993105, 237, 333, 268, 364
-0.993112, 69, 285, 100, 316
-0.993115, 461, 125, 492, 156
-0.993117, 165, 145, 196, 176
-0.993124, 129, 153, 160, 184
-0.993125, 265, 345, 296, 375
-0.993125, 97, 305, 128, 336
-0.993131, 97, 273, 128, 304
-0.993138, 417, 109, 448, 140
-0.993141, 165, 209, 196, 240
-0.993141, 149, 341, 180, 372
-0.993143, 273, 177, 304, 304
-0.99317, 81, 325, 112, 356
-0.993172, 169, 157, 200, 188
-0.993173, 65, 341, 96, 372
-0.993177, 137, 109, 168, 140
-0.993179, 209, 109, 240, 140
-0.993182, 113, 285, 144, 316
-0.993182, 445, 133, 476, 164
-0.993184, 37, 169, 68, 232
-0.99319, 177, 77, 208, 108
-0.993195, 177, 241, 304, 368
-0.993201, 61, 233, 92, 296
-0.993206, 301, 65, 332, 96
-0.993208, 453, 1, 484, 32
-0.993208, 177, 65, 208, 96
-0.993213, 321, 53, 352, 84
-0.993214, 289, 69, 320, 100
-0.993215, 149, 313, 180, 344
-0.993226, 373, 145, 404, 176
-0.993226, 313, 165, 344, 196
-0.99324, 249, 213, 280, 244
-0.993242, 5, 177, 36, 208
-0.993243, 209, 49, 240, 80
-0.993244, 145, 293, 176, 324
-0.993248, 141, 49, 172, 80
-0.993248, 233, 97, 264, 128
-0.993251, 301, 193, 332, 224
-0.993257, 1, 185, 256, 248
-0.99326, 181, 237, 212, 268
-0.993262, 373, 33, 404, 64
-0.993262, 185, 213, 216, 244
-0.993263, 269, 169, 300, 232
-0.993267, 225, 205, 256, 236
-0.99327, 17, 285, 48, 316
-0.993274, 393, 129, 424, 160
-0.993275, 337, 45, 368, 76
-0.99328, 161, 341, 192, 372
-0.993284, 277, 185, 308, 216
-0.993284, 357, 41, 388, 72
-0.993288, 1, 289, 128, 320
-0.993292, 141, 241, 172, 272
-0.993298, 169, 189, 200, 220
-0.9933, 357, 145, 388, 176
-0.99331, 93, 317, 124, 348
-0.993312, 161, 289, 288, 352
-0.993313, 169, 173, 200, 204
-0.993314, 337, 153, 368, 184
-0.993321, 193, 105, 224, 136
-0.993322, 277, 73, 308, 104
-0.993334, 117, 93, 148, 124
-0.993335, 253, 85, 284, 116
-0.993336, 1, 9, 128, 72
-0.993336, 217, 329, 248, 360
-0.993348, 173, 233, 204, 296
-0.993369, 49, 33, 112, 96
-0.993416, 65, 129, 96, 192
-0.993452, 161, 241, 192, 368
-0.99347, 193, 185, 320, 248
-0.993471, 201, 105, 232, 168
-0.993514, 177, 17, 208, 144
-0.993548, 201, 97, 264, 352
-0.993593, 1, 257, 256, 320
-0.993612, 453, 1, 484, 64
-0.993655, 301, 57, 332, 120
-0.993655, 97, 161, 128, 224
-0.993655, 81, 217, 112, 280
-0.993664, 269, 49, 300, 176
-0.993673, 33, 73, 288, 136
-0.993687, 9, 17, 72, 80
-0.993701, 225, 49, 480, 112
-0.993713, 349, 145, 380, 272
-0.993722, 313, 57, 344, 120
-0.993722, 197, 225, 228, 288
-0.99375, 33, 277, 160, 308
-0.993752, 225, 313, 352, 375
-0.993753, 93, 81, 124, 208
-0.993765, 357, 9, 388, 72
-0.993773, 345, 137, 376, 200
-0.993785, 393, 97, 456, 352
-0.993794, 21, 81, 52, 144
-0.993813, 1, 313, 128, 344
-0.993869, 221, 17, 252, 144
-0.993876, 257, 1, 320, 64
-0.993913, 17, 273, 48, 336
-0.993915, 97, 41, 352, 104
-0.993944, 185, 225, 216, 352
-0.993988, 253, 169, 284, 232
-0.994014, 285, 65, 316, 128
-0.994015, 281, 49, 312, 176
-0.994021, 225, 65, 256, 128
-0.994052, 289, 185, 416, 248
-0.994064, 253, 65, 284, 192
-0.994115, 285, 1, 316, 128
-0.994131, 145, 265, 176, 328
-0.994138, 233, 313, 296, 375
-0.994198, 137, 241, 168, 368
-0.994232, 165, 1, 196, 128
-0.994241, 225, 73, 480, 136
-0.994306, 129, 109, 256, 140
-0.994309, 25, 41, 88, 104
-0.994321, 49, 289, 176, 320
-0.994406, 425, 129, 456, 256
-0.994457, 33, 137, 288, 200
-0.994472, 49, 81, 80, 208
-0.994491, 237, 17, 268, 144
-0.994523, 185, 113, 216, 240
-0.99458, 33, 253, 160, 284
-0.994584, 41, 65, 104, 128
-0.994689, 33, 237, 160, 268
-0.994694, 321, 41, 448, 72
-0.994705, 1, 97, 256, 160
-0.994708, 49, 1, 112, 64
-0.994726, 13, 241, 44, 368
-0.994751, 1, 65, 500, 128
-0.99476, 129, 113, 384, 176
-0.99477, 257, 1, 500, 64
-0.994788, 65, 217, 320, 280
-0.994812, 445, 1, 476, 128
-0.994835, 353, 161, 480, 288
-0.994844, 41, 33, 72, 160
-0.994928, 101, 193, 132, 320
-0.994963, 129, 137, 384, 200
-0.994985, 117, 17, 148, 144
-0.99499, 161, 185, 416, 248
-0.995016, 129, 73, 256, 104
-0.995026, 163, 105, 178, 168
-0.995044, 129, 201, 256, 232
-0.995056, 373, 113, 404, 240
-0.995067, 157, 129, 172, 192
-0.995086, 129, 93, 256, 124
-0.995103, 81, 157, 208, 188
-0.99517, 153, 65, 168, 128
-0.995185, 81, 73, 208, 104
-0.995201, 81, 313, 208, 344
-0.995208, 129, 73, 384, 136
-0.995211, 337, 161, 464, 192
-0.995234, 65, 301, 192, 332
-0.995238, 33, 265, 160, 296
-0.995254, 161, 61, 288, 92
-0.995264, 353, 29, 480, 60
-0.995281, 163, 305, 178, 368
-0.995312, 257, 153, 500, 216
-0.995323, 167, 129, 182, 192
-0.995359, 113, 57, 240, 88
-0.995434, 225, 205, 352, 236
-0.995453, 209, 241, 272, 368
-0.995453, 297, 1, 328, 128
-0.995456, 161, 333, 288, 364
-0.995467, 161, 189, 288, 220
-0.995471, 81, 221, 208, 252
-0.995508, 73, 17, 136, 80
-0.995512, 201, 81, 232, 208
-0.995515, 435, 113, 450, 176
-0.995521, 337, 177, 400, 240
-0.995526, 113, 233, 240, 264
-0.995537, 289, 181, 416, 212
-0.995543, 113, 281, 128, 344
-0.995546, 257, 193, 384, 224
-0.99559, 429, 97, 444, 160
-0.995596, 369, 145, 496, 176
-0.995598, 129, 121, 256, 152
-0.9956, 241, 241, 368, 368
-0.995638, 57, 265, 72, 328
-0.995645, 145, 65, 160, 128
-0.995674, 49, 1, 176, 64
-0.995684, 369, 65, 432, 192
-0.995685, 33, 225, 160, 256
-0.995691, 117, 257, 132, 320
-0.995695, 241, 81, 272, 208
-0.9957, 17, 1, 48, 128
-0.995713, 81, 105, 208, 136
-0.995716, 65, 329, 192, 360
-0.99573, 149, 161, 164, 224
-0.995746, 97, 281, 112, 344
-0.995796, 81, 169, 208, 200
-0.995807, 129, 213, 256, 244
-0.995813, 257, 177, 500, 240
-0.995838, 81, 269, 208, 300
-0.995866, 369, 113, 496, 144
-0.995873, 161, 17, 416, 80
-0.995914, 149, 201, 164, 264
-0.995925, 25, 225, 56, 352
-0.995943, 321, 53, 448, 84
-0.995972, 1, 145, 500, 208
-0.995979, 129, 281, 384, 344
-0.99599, 105, 1, 168, 64
-0.996012, 153, 97, 184, 352
-0.996018, 139, 49, 154, 112
-0.996029, 91, 289, 106, 352
-0.99604, 103, 289, 118, 352
-0.996046, 161, 153, 176, 216
-0.99606, 169, 105, 184, 168
-0.99606, 225, 97, 480, 160
-0.996062, 85, 297, 100, 360
-0.996087, 407, 17, 422, 80
-0.996093, 401, 153, 464, 216
-0.996097, 1, 105, 500, 168
-0.996105, 123, 265, 138, 328
-0.99611, 143, 217, 158, 280
-0.996132, 61, 65, 92, 192
-0.996142, 49, 133, 176, 164
-0.996154, 309, 1, 340, 128
-0.996172, 135, 241, 150, 304
-0.996173, 241, 25, 304, 88
-0.996178, 177, 221, 304, 252
-0.996192, 111, 257, 126, 320
-0.996195, 75, 297, 90, 360
-0.996206, 81, 249, 208, 280
-0.99623, 1, 33, 500, 96
-0.996231, 321, 129, 384, 375
-0.996235, 155, 193, 170, 256
-0.996237, 21, 289, 36, 352
-0.996258, 149, 41, 164, 104
-0.996267, 81, 1, 112, 128
-0.996267, 177, 209, 304, 240
-0.996286, 81, 65, 112, 192
-0.996288, 97, 305, 352, 368
-0.996307, 209, 53, 336, 84
-0.996309, 129, 257, 144, 320
-0.996312, 61, 289, 76, 352
-0.996324, 369, 101, 496, 132
-0.996344, 101, 17, 132, 144
-0.996352, 49, 61, 176, 92
-0.996374, 41, 281, 56, 344
-0.996376, 53, 241, 68, 304
-0.996388, 81, 117, 208, 148
-0.996393, 169, 249, 232, 312
-0.996398, 159, 49, 174, 112
-0.996401, 289, 169, 416, 200
-0.996411, 73, 193, 136, 256
-0.996431, 189, 1, 220, 128
-0.996433, 161, 161, 416, 224
-0.996486, 1, 313, 16, 375
-0.996492, 49, 341, 176, 372
-0.996496, 173, 145, 188, 208
-0.996512, 139, 73, 154, 136
-0.996512, 175, 217, 190, 280
-0.996515, 13, 297, 28, 360
-0.99657, 157, 97, 172, 160
-0.996572, 67, 297, 82, 360
-0.996578, 123, 241, 138, 304
-0.996588, 425, 121, 440, 184
-0.996595, 241, 153, 304, 216
-0.996596, 161, 209, 416, 272
-0.996603, 129, 45, 256, 76
-0.99662, 1, 217, 500, 280
-0.99663, 147, 89, 162, 152
-0.996633, 301, 145, 332, 272
-0.996633, 49, 85, 176, 116
-0.996634, 449, 129, 464, 192
-0.996635, 51, 273, 66, 336
-0.996644, 1, 49, 256, 112
-0.996658, 417, 49, 432, 112
-0.996666, 151, 129, 166, 192
-0.996677, 177, 345, 304, 375
-0.996691, 369, 133, 496, 164
-0.996705, 159, 73, 174, 136
-0.996707, 369, 73, 496, 104
-0.996709, 97, 305, 112, 368
-0.996714, 49, 181, 176, 212
-0.996718, 33, 289, 48, 352
-0.996719, 451, 1, 466, 64
-0.996739, 361, 169, 424, 232
-0.996752, 121, 129, 152, 375
-0.996772, 369, 17, 496, 48
-0.996787, 165, 33, 196, 288
-0.996808, 361, 97, 392, 224
-0.996829, 289, 149, 416, 180
-0.996833, 29, 33, 60, 160
-0.996837, 81, 193, 208, 224
-0.996846, 1, 325, 128, 356
-0.996849, 167, 201, 182, 264
-0.996859, 337, 161, 368, 288
-0.996867, 65, 209, 192, 240
-0.996872, 349, 97, 380, 224
-0.996905, 393, 137, 408, 200
-0.996941, 351, 153, 366, 216
-0.996941, 63, 265, 78, 328
-0.996969, 105, 249, 120, 312
-0.996969, 313, 169, 328, 232
-0.996983, 371, 145, 386, 208
-0.997008, 129, 133, 256, 164
-0.997019, 257, 65, 384, 96
-0.997028, 97, 289, 224, 320
-0.997032, 383, 153, 398, 216
-0.997035, 369, 1, 496, 32
-0.997035, 443, 129, 458, 192
-0.997042, 209, 289, 336, 352
-0.997042, 129, 177, 256, 208
-0.99705, 185, 217, 200, 280
-0.997052, 3, 289, 18, 352
-0.997067, 1, 173, 128, 204
-0.997069, 295, 177, 310, 240
-0.997072, 41, 209, 56, 272
-0.997081, 253, 193, 268, 256
-0.99709, 419, 137, 434, 200
-0.997092, 423, 73, 438, 136
-0.997099, 407, 129, 422, 192
-0.997108, 145, 113, 160, 176
-0.997112, 45, 305, 60, 368
-0.997116, 47, 233, 62, 296
-0.997117, 401, 1, 416, 64
-0.997129, 121, 257, 136, 288
-0.997131, 161, 177, 176, 240
-0.997132, 409, 1, 440, 128
-0.997132, 27, 289, 42, 352
-0.997139, 305, 185, 320, 248
-0.997149, 1, 257, 500, 320
-0.99716, 129, 241, 384, 304
-0.997166, 335, 161, 350, 224
-0.997193, 369, 53, 496, 84
-0.997199, 1, 25, 256, 88
-0.997205, 141, 129, 172, 375
-0.997221, 365, 161, 380, 224
-0.997224, 357, 153, 372, 216
-0.99723, 343, 169, 358, 232
-0.997268, 113, 325, 240, 356
-0.997283, 153, 1, 184, 256
-0.997284, 231, 201, 246, 264
-0.997289, 369, 265, 496, 328
-0.997292, 155, 169, 170, 232
-0.997298, 257, 313, 320, 375
-0.997308, 91, 313, 106, 375
-0.997308, 209, 185, 336, 216
-0.997314, 61, 289, 76, 320
-0.997319, 461, 121, 476, 184
-0.997322, 433, 1, 464, 128
-0.997324, 259, 193, 274, 256
-0.997327, 97, 341, 224, 372
-0.997333, 313, 113, 344, 240
-0.997338, 195, 81, 210, 144
-0.99734, 175, 121, 190, 184
-0.997341, 51, 313, 66, 375
-0.997342, 231, 97, 246, 160
-0.997346, 177, 105, 304, 136
-0.997351, 401, 145, 416, 208
-0.997354, 129, 165, 256, 196
-0.997355, 165, 49, 180, 112
-0.997358, 173, 193, 188, 256
-0.997363, 139, 145, 154, 208
-0.997365, 369, 89, 496, 120
-0.997367, 169, 81, 184, 144
-0.997367, 209, 209, 224, 272
-0.997368, 181, 65, 212, 320
-0.997373, 169, 313, 184, 375
-0.997381, 177, 241, 304, 304
-0.997382, 455, 129, 470, 192
-0.997392, 319, 169, 334, 232
-0.997401, 257, 25, 500, 88
-0.997409, 69, 273, 84, 336
-0.997418, 127, 57, 142, 120
-0.997418, 369, 41, 496, 72
-0.997443, 129, 149, 256, 180
-0.997444, 81, 145, 208, 176
-0.997449, 413, 129, 428, 192
-0.997467, 245, 209, 260, 272
-0.997479, 33, 193, 48, 256
-0.997482, 219, 209, 234, 272
-0.997484, 133, 57, 148, 120
-0.997492, 275, 185, 290, 248
-0.997507, 449, 1, 480, 256
-0.997514, 197, 225, 228, 352
-0.997524, 305, 29, 432, 60
-0.99753, 141, 241, 156, 304
-0.997542, 43, 289, 58, 320
-0.997543, 161, 233, 288, 264
-0.997546, 457, 1, 472, 64
-0.997552, 11, 301, 26, 332
-0.997556, 365, 1, 396, 256
-0.997562, 225, 121, 352, 184
-0.997568, 189, 73, 204, 136
-0.99757, 321, 133, 448, 164
-0.997571, 33, 293, 48, 324
-0.997573, 225, 209, 240, 272
-0.997582, 17, 205, 144, 236
-0.997591, 401, 1, 432, 256
-0.997595, 239, 201, 254, 264
-0.997596, 53, 285, 68, 316
-0.997596, 85, 169, 100, 232
-0.9976, 1, 169, 500, 232
-0.997601, 395, 25, 410, 88
-0.997602, 241, 169, 368, 200
-0.997619, 151, 73, 166, 104
-0.997627, 433, 129, 448, 160
-0.997636, 369, 33, 384, 96
-0.997643, 193, 217, 208, 280
-0.997644, 165, 129, 196, 375
-0.997646, 333, 49, 348, 112
-0.99765, 225, 121, 480, 184
-0.997656, 157, 289, 172, 352
-0.997658, 325, 169, 340, 232
-0.997658, 375, 33, 390, 96
-0.997662, 437, 1, 468, 256
-0.997663, 145, 137, 160, 200
-0.997669, 241, 157, 368, 188
-0.997669, 93, 169, 108, 232
-0.997671, 417, 65, 448, 320
-0.997671, 411, 41, 426, 104
-0.997673, 103, 161, 118, 224
-0.997677, 171, 169, 186, 232
-0.997678, 239, 89, 254, 152
-0.997689, 357, 41, 372, 104
-0.997697, 437, 137, 452, 200
-0.997702, 93, 129, 124, 375
-0.997702, 441, 105, 456, 168
-0.997704, 289, 193, 304, 256
-0.997712, 225, 97, 240, 160
-0.997713, 349, 165, 364, 196
-0.997714, 413, 137, 428, 168
-0.997719, 225, 77, 352, 108
-0.997725, 17, 73, 144, 104
-0.997746, 145, 73, 160, 104
-0.997748, 165, 133, 180, 164
-0.997754, 55, 297, 70, 328
-0.997769, 21, 297, 36, 328
-0.99777, 121, 277, 136, 308
-0.997774, 27, 301, 42, 332
-0.997775, 1, 1, 500, 64
-0.997776, 257, 81, 384, 144
-0.997783, 321, 65, 448, 96
-0.997785, 141, 33, 172, 288
-0.997786, 17, 193, 144, 224
-0.99779, 3, 305, 18, 336
-0.997794, 425, 133, 440, 164
-0.997795, 273, 53, 400, 84
-0.997803, 109, 129, 140, 375
-0.997803, 353, 1, 384, 256
-0.997804, 193, 313, 448, 375
-0.997806, 151, 61, 166, 92
-0.997811, 357, 161, 372, 192
-0.997815, 61, 301, 76, 332
-0.997829, 1, 153, 128, 184
-0.997833, 139, 77, 154, 108
-0.997836, 67, 289, 82, 320
-0.99784, 339, 169, 354, 200
-0.997845, 237, 213, 252, 244
-0.997846, 187, 229, 202, 260
-0.997847, 405, 25, 420, 56
-0.997851, 403, 141, 418, 172
-0.997854, 225, 41, 352, 72
-0.997855, 385, 149, 400, 180
-0.99787, 177, 69, 192, 100
-0.997872, 309, 181, 324, 212
-0.997872, 225, 345, 352, 375
-0.997876, 17, 317, 32, 348
-0.997878, 35, 313, 50, 344
-0.997886, 225, 93, 352, 124
-0.997888, 393, 145, 408, 176
-0.99789, 161, 333, 176, 364
-0.997894, 375, 157, 390, 188
-0.997894, 27, 313, 42, 344
-0.9979, 161, 121, 176, 152
-0.997902, 321, 121, 448, 152
-0.997907, 367, 157, 382, 188
-0.997911, 225, 213, 240, 244
-0.997912, 129, 261, 144, 292
-0.997914, 1, 321, 16, 352
-0.997916, 291, 193, 306, 224
-0.997926, 297, 189, 312, 220
-0.997937, 115, 285, 130, 316
-0.997938, 247, 205, 262, 236
-0.997941, 329, 177, 344, 208
-0.997942, 49, 301, 64, 332
-0.997953, 157, 73, 172, 104
-0.997955, 419, 137, 434, 168
-0.997956, 59, 277, 74, 308
-0.997957, 439, 125, 454, 156
-0.997958, 285, 193, 300, 224
-0.997963, 323, 177, 338, 208
-0.997967, 165, 73, 180, 104
-0.997972, 231, 213, 246, 244
-0.997982, 209, 65, 336, 96
-0.997985, 7, 321, 22, 352
-0.99799, 135, 249, 150, 280
-0.997991, 37, 97, 68, 352
-0.997991, 129, 313, 256, 344
-0.997992, 277, 197, 292, 228
-0.997994, 129, 245, 256, 276
-0.997998, 115, 265, 130, 296
-0.998, 171, 69, 186, 100
-0.998006, 101, 289, 116, 320
-0.998016, 271, 197, 286, 228
-0.998019, 41, 305, 56, 336
-0.998027, 151, 205, 166, 236
-0.998034, 289, 129, 320, 256
-0.998037, 257, 205, 272, 236
-0.998038, 159, 53, 174, 84
-0.998041, 219, 217, 234, 248
-0.998042, 213, 221, 228, 252
-0.998055, 169, 117, 184, 148
-0.998066, 397, 129, 428, 256
-0.998066, 179, 221, 194, 252
-0.998068, 257, 209, 384, 272
-0.998068, 159, 109, 174, 140
-0.998071, 129, 33, 256, 64
-0.998072, 369, 297, 496, 360
-0.998075, 315, 177, 330, 208
-0.99808, 321, 109, 448, 140
-0.998081, 107, 281, 122, 312
-0.998093, 169, 145, 184, 176
-0.998094, 105, 301, 120, 332
-0.998098, 201, 225, 216, 256
-0.998102, 127, 249, 142, 280
-0.998116, 265, 205, 280, 236
-0.998121, 303, 185, 318, 216
-0.998132, 95, 317, 110, 348
-0.998135, 145, 61, 160, 92
-0.998138, 177, 85, 304, 116
-0.99814, 433, 97, 464, 352
-0.998154, 161, 313, 176, 344
-0.998154, 113, 1, 144, 256
-0.998154, 129, 257, 256, 288
-0.998167, 195, 229, 210, 260
-0.998169, 33, 1, 288, 64
-0.998169, 1, 1, 32, 256
-0.99817, 129, 277, 256, 308
-0.998175, 207, 221, 222, 252
-0.998206, 159, 97, 174, 128
-0.998209, 25, 129, 56, 375
-0.998211, 57, 265, 72, 296
-0.998241, 169, 101, 184, 132
-0.998246, 145, 89, 160, 120
-0.998249, 165, 225, 180, 256
-0.998257, 265, 341, 280, 372
-0.998263, 329, 33, 360, 288
-0.998265, 369, 241, 496, 304
-0.998271, 145, 225, 160, 256
-0.998274, 95, 293, 110, 324
-0.998275, 161, 297, 176, 328
-0.998282, 457, 1, 472, 32
-0.998283, 33, 105, 160, 136
-0.998285, 173, 213, 188, 244
-0.998292, 175, 81, 190, 112
-0.998293, 165, 61, 180, 92
-0.998295, 433, 117, 448, 148
-0.998296, 67, 301, 82, 332
-0.998296, 155, 337, 170, 368
-0.998297, 159, 193, 174, 224
-0.998301, 1, 17, 128, 48
-0.998303, 443, 137, 458, 168
-0.998318, 153, 85, 168, 116
-0.998323, 153, 97, 168, 128
-0.998325, 113, 301, 240, 332
-0.998335, 171, 329, 186, 360
-0.998336, 273, 65, 304, 320
-0.998352, 149, 333, 180, 348
-0.998352, 89, 325, 104, 356
-0.998352, 1, 333, 32, 348
-0.998353, 245, 177, 276, 304
-0.998355, 197, 233, 228, 248
-0.998356, 153, 67, 184, 82
-0.998356, 437, 133, 468, 148
-0.998358, 181, 77, 212, 92
-0.998358, 101, 313, 132, 328
-0.998359, 233, 333, 264, 348
-0.99836, 465, 123, 496, 138
-0.99836, 389, 155, 420, 170
-0.998361, 125, 71, 156, 86
-0.998362, 137, 107, 168, 122
-0.998363, 275, 345, 290, 375
-0.998363, 161, 331, 192, 346
-0.998363, 105, 289, 136, 304
-0.998364, 45, 313, 76, 328
-0.998364, 217, 109, 248, 124
-0.998365, 101, 257, 132, 272
-0.998365, 401, 149, 432, 164
-0.998365, 373, 165, 404, 180
-0.998366, 129, 261, 160, 276
-0.998366, 161, 139, 192, 154
-0.998367, 261, 361, 292, 375
-0.998367, 149, 305, 180, 320
-0.998368, 137, 247, 168, 262
-0.998369, 53, 129, 84, 375
-0.998369, 13, 97, 44, 352
-0.99837, 225, 223, 256, 238
-0.99837, 349, 173, 380, 188
-0.99837, 149, 215, 180, 230
-0.998371, 165, 115, 196, 130
-0.998372, 161, 181, 176, 212
-0.998372, 253, 343, 284, 358
-0.998374, 153, 357, 184, 372
-0.998375, 249, 211, 280, 226
-0.998376, 165, 109, 196, 124
-0.998377, 165, 151, 196, 166
-0.998379, 25, 301, 56, 316
-0.998379, 145, 149, 176, 164
-0.998379, 125, 33, 156, 288
-0.998379, 421, 145, 452, 160
-0.99838, 165, 101, 196, 116
-0.99838, 261, 207, 292, 222
-0.998382, 365, 155, 396, 170
-0.998382, 1, 327, 32, 342
-0.998382, 69, 291, 100, 306
-0.998382, 321, 187, 352, 202
-0.998382, 121, 77, 152, 92
-0.998383, 149, 95, 180, 110
-0.998384, 377, 159, 408, 174
-0.998384, 209, 231, 240, 246
-0.998386, 149, 133, 180, 148
-0.998386, 233, 217, 264, 232
-0.998386, 297, 195, 328, 210
-0.998387, 141, 233, 172, 248
-0.998387, 349, 167, 380, 182
-0.998387, 29, 317, 60, 332
-0.998388, 449, 133, 480, 148
-0.998391, 429, 139, 460, 154
-0.998391, 161, 125, 192, 140
-0.998392, 153, 163, 184, 178
-0.998393, 145, 101, 160, 132
-0.998394, 273, 203, 304, 218
-0.998396, 65, 37, 192, 68
-0.998397, 185, 237, 216, 252
-0.998397, 49, 307, 80, 322
-0.998397, 157, 179, 188, 194
-0.9984, 69, 301, 100, 316
-0.9984, 173, 231, 204, 246
-0.9984, 337, 177, 368, 192
-0.998401, 437, 127, 468, 142
-0.998403, 165, 345, 180, 375
-0.998404, 45, 281, 76, 296
-0.998404, 325, 181, 356, 196
-0.998404, 157, 189, 188, 204
-0.998406, 141, 85, 172, 100
-0.998408, 305, 189, 336, 204
-0.998409, 241, 325, 368, 356
-0.99841, 145, 55, 176, 70
-0.99841, 259, 341, 274, 372
-0.998412, 75, 301, 90, 332
-0.998412, 5, 307, 36, 322
-0.998413, 155, 125, 170, 156
-0.998414, 145, 225, 176, 240
-0.998415, 153, 203, 184, 218
-0.998415, 125, 83, 156, 98
-0.998417, 257, 161, 288, 288
-0.998417, 149, 209, 180, 224
-0.998417, 141, 239, 172, 254
-0.99842, 149, 157, 180, 172
-0.99842, 1, 299, 32, 314
-0.99842, 161, 133, 192, 148
-0.99842, 153, 169, 184, 184
-0.998422, 57, 295, 88, 310
-0.998422, 13, 323, 44, 338
-0.998423, 129, 269, 160, 284
-0.998423, 285, 197, 316, 212
-0.998424, 25, 293, 88, 308
-0.998425, 151, 49, 166, 80
-0.998426, 169, 201, 184, 232
-0.998429, 125, 253, 156, 268
-0.998432, 117, 277, 148, 292
-0.998433, 165, 225, 196, 240
-0.998438, 17, 293, 48, 308
-0.99844, 33, 287, 64, 302
-0.99844, 1, 61, 128, 92
-0.998441, 13, 301, 44, 316
-0.998441, 41, 293, 72, 308
-0.998441, 27, 289, 42, 320
-0.998443, 165, 73, 196, 88
-0.998444, 57, 299, 120, 314
-0.998444, 449, 133, 464, 164
-0.998445, 141, 241, 156, 272
-0.998446, 105, 283, 136, 298
-0.998448, 257, 29, 384, 60
-0.998448, 133, 81, 148, 112
-0.99845, 161, 81, 192, 96
-0.99845, 147, 157, 162, 188
-0.998452, 153, 73, 184, 88
-0.998453, 427, 97, 442, 128
-0.998453, 273, 197, 304, 212
-0.998453, 111, 297, 126, 328
-0.998453, 1, 301, 64, 316
-0.998453, 137, 79, 200, 94
-0.998456, 221, 217, 252, 232
-0.998456, 321, 89, 448, 120
-0.998457, 165, 85, 180, 116
-0.998459, 89, 295, 120, 310
-0.99846, 17, 315, 48, 330
-0.998463, 17, 117, 144, 148
-0.998464, 385, 81, 416, 208
-0.998465, 149, 117, 180, 132
-0.998467, 127, 273, 142, 304
-0.998469, 425, 133, 456, 148
-0.998471, 97, 1, 128, 256
-0.998471, 385, 161, 400, 192
-0.998472, 193, 173, 320, 204
-0.998472, 149, 127, 180, 142
-0.998472, 149, 109, 180, 124
-0.998472, 197, 225, 228, 240
-0.998473, 393, 29, 424, 44
-0.998474, 157, 197, 188, 212
-0.998475, 1, 321, 32, 336
-0.998477, 139, 65, 154, 96
-0.99848, 145, 101, 176, 116
-0.99848, 93, 289, 124, 304
-0.998481, 341, 33, 372, 288
-0.998482, 101, 313, 116, 344
-0.998482, 233, 211, 264, 226
-0.998483, 65, 291, 128, 306
-0.998484, 389, 1, 420, 256
-0.998486, 249, 205, 280, 220
-0.998487, 1, 309, 64, 324
-0.998488, 29, 295, 60, 310
-0.998488, 209, 221, 240, 236
-0.998491, 261, 201, 292, 216
-0.998492, 25, 299, 88, 314
-0.998493, 305, 183, 336, 198
-0.998493, 415, 53, 430, 84
-0.998495, 261, 193, 276, 224
-0.998497, 113, 255, 144, 270
-0.998498, 49, 301, 80, 316
-0.998498, 401, 143, 432, 158
-0.998499, 285, 191, 316, 206
-0.9985, 337, 169, 368, 184
-0.998501, 377, 153, 408, 168
-0.998502, 161, 227, 224, 242
-0.998503, 289, 33, 320, 288
-0.998503, 29, 309, 60, 324
-0.998506, 41, 287, 104, 302
-0.998507, 137, 73, 200, 88
-0.998508, 177, 117, 304, 148
-0.998512, 57, 305, 120, 320
-0.998514, 325, 175, 356, 190
-0.998514, 357, 161, 388, 176
-0.998515, 413, 137, 444, 152
-0.998516, 113, 261, 144, 276
-0.998517, 257, 65, 288, 320
-0.998519, 369, 35, 432, 50
-0.998527, 97, 285, 160, 300
-0.998527, 389, 147, 420, 162
-0.99853, 297, 187, 360, 202
-0.998531, 225, 217, 288, 232
-0.998531, 425, 117, 488, 132
-0.998531, 393, 147, 456, 162
-0.998535, 185, 229, 216, 244
-0.998536, 409, 139, 472, 154
-0.998538, 113, 77, 176, 92
-0.998538, 25, 313, 88, 328
-0.99854, 281, 195, 344, 210
-0.998541, 201, 225, 264, 240
-0.998542, 177, 41, 304, 72
-0.998543, 1, 295, 64, 310
-0.998544, 81, 129, 112, 375
-0.998544, 1, 319, 64, 334
-0.998544, 129, 85, 192, 100
-0.998546, 353, 161, 416, 176
-0.998546, 137, 229, 200, 244
-0.998546, 141, 77, 172, 92
-0.998549, 377, 153, 440, 168
-0.998551, 265, 201, 328, 216
-0.998552, 321, 173, 384, 188
-0.998552, 313, 181, 376, 196
-0.998553, 417, 133, 480, 148
-0.998553, 137, 101, 200, 116
-0.998553, 337, 173, 464, 204
-0.998554, 337, 167, 400, 182
-0.998555, 57, 279, 120, 294
-0.998555, 1, 85, 128, 116
-0.998555, 81, 297, 144, 312
-0.998556, 45, 287, 76, 302
-0.998558, 33, 305, 96, 320
-0.998559, 321, 77, 448, 108
-0.998565, 249, 207, 312, 222
-0.998565, 89, 291, 152, 306
-0.998566, 313, 167, 376, 182
-0.998569, 177, 221, 240, 236
-0.998569, 121, 155, 184, 170
-0.99857, 425, 127, 488, 142
-0.998571, 81, 261, 144, 276
-0.998572, 17, 287, 80, 302
-0.998573, 145, 125, 208, 140
-0.998573, 161, 111, 224, 126
-0.998573, 129, 235, 192, 250
-0.998576, 137, 221, 200, 236
-0.998576, 129, 243, 192, 258
-0.998577, 297, 173, 360, 188
-0.998577, 225, 211, 288, 226
-0.998579, 113, 251, 176, 266
-0.99858, 201, 219, 264, 234
-0.998581, 81, 267, 144, 282
-0.998582, 145, 117, 208, 132
-0.998582, 145, 205, 208, 220
-0.998582, 433, 111, 496, 126
-0.998583, 113, 279, 176, 294
-0.998584, 121, 125, 184, 140
-0.998584, 113, 257, 176, 272
-0.998585, 369, 29, 432, 44
-0.998585, 1, 325, 64, 340
-0.998586, 145, 197, 208, 212
-0.998587, 105, 271, 168, 286
-0.99859, 121, 117, 184, 132
-0.99859, 113, 107, 176, 122
-0.998591, 145, 177, 208, 192
-0.998591, 265, 187, 328, 202
-0.998594, 409, 47, 472, 62
-0.998594, 217, 177, 248, 304
-0.998596, 369, 41, 432, 56
-0.998597, 145, 191, 208, 206
-0.998598, 49, 49, 176, 80
-0.998598, 369, 185, 496, 248
-0.998598, 105, 263, 168, 278
-0.998599, 69, 129, 100, 375
-0.9986, 145, 183, 208, 198
-0.998601, 137, 55, 200, 70
-0.998603, 377, 139, 440, 154
-0.998604, 145, 289, 272, 320
-0.998604, 185, 231, 248, 246
-0.998604, 409, 31, 472, 46
-0.998605, 225, 203, 288, 218
-0.998606, 417, 79, 480, 94
-0.998607, 49, 313, 112, 328
-0.998607, 97, 243, 160, 258
-0.998608, 241, 197, 304, 212
-0.998608, 393, 133, 456, 148
-0.998608, 233, 345, 296, 360
-0.998609, 81, 275, 144, 290
-0.998609, 401, 25, 464, 40
-0.998609, 329, 159, 392, 174
-0.998611, 137, 213, 200, 228
-0.998611, 417, 85, 480, 100
-0.998611, 81, 255, 144, 270
-0.998612, 161, 77, 224, 92
-0.998612, 97, 303, 160, 318
-0.998613, 409, 65, 472, 80
-0.998615, 65, 285, 128, 300
-0.998616, 345, 153, 408, 168
-0.998616, 161, 65, 224, 80
-0.998617, 121, 161, 184, 176
-0.998617, 409, 39, 472, 54
-0.998618, 409, 57, 472, 72
-0.998619, 145, 157, 208, 172
-0.998619, 201, 333, 264, 348
-0.99862, 281, 181, 344, 196
-0.99862, 105, 297, 168, 312
-0.998623, 417, 73, 480, 88
-0.998623, 417, 97, 480, 112
-0.998626, 89, 77, 152, 92
-0.998626, 105, 101, 168, 116
-0.998627, 145, 171, 208, 186
-0.998627, 97, 309, 160, 324
-0.998627, 57, 273, 120, 288
-0.998628, 113, 71, 176, 86
-0.998628, 97, 237, 160, 252
-0.998629, 425, 103, 488, 118
-0.998631, 361, 145, 424, 160
-0.998633, 153, 239, 216, 254
-0.998635, 121, 65, 184, 80
-0.998635, 193, 97, 224, 352
-0.998636, 89, 315, 152, 330
-0.998636, 201, 213, 264, 228
-0.998637, 49, 245, 112, 260
-0.998637, 153, 141, 216, 156
-0.998637, 1, 181, 64, 196
-0.998637, 137, 109, 200, 124
-0.998637, 129, 263, 192, 278
-0.998637, 137, 149, 200, 164
-0.998639, 105, 83, 168, 98
-0.998639, 89, 321, 152, 336
-0.998641, 177, 213, 240, 228
-0.998643, 193, 355, 256, 370
-0.998643, 49, 251, 112, 266
-0.998647, 321, 17, 448, 48
-0.998672, 377, 1, 408, 256
-0.998685, 157, 65, 172, 192
-0.998721, 129, 13, 256, 44
-0.998726, 1, 225, 32, 352
-0.998749, 147, 65, 162, 192
-0.99875, 53, 1, 84, 128
-0.998751, 1, 281, 500, 344
-0.99877, 445, 97, 476, 352
-0.998786, 225, 217, 352, 248
-0.998795, 273, 41, 400, 72
-0.998802, 201, 1, 232, 256
-0.998803, 205, 97, 236, 352
-0.998806, 161, 113, 176, 240
-0.998818, 225, 1, 256, 256
-0.998821, 225, 9, 352, 40
-0.998823, 241, 265, 368, 328
-0.998841, 241, 1, 272, 256
-0.998913, 205, 161, 236, 288
-0.998919, 1, 129, 32, 375
-0.998932, 349, 129, 380, 375
-0.99894, 1, 345, 128, 375
-0.99894, 171, 129, 186, 256
-0.998946, 147, 145, 162, 272
-0.998971, 1, 141, 128, 172
-0.998983, 141, 65, 156, 192
-0.998985, 321, 1, 448, 32
-0.999012, 1, 33, 128, 64
-0.999032, 429, 81, 444, 208
-0.999049, 49, 17, 176, 48
-0.999052, 167, 81, 182, 208
-0.999065, 155, 113, 170, 240
-0.99907, 423, 65, 438, 192
-0.999092, 1, 193, 500, 256
-0.999135, 101, 225, 116, 352
-0.999138, 135, 225, 150, 352
-0.999139, 147, 193, 162, 320
-0.999151, 81, 33, 112, 288
-0.999157, 177, 1, 304, 32
-0.999159, 177, 321, 304, 352
-0.999159, 25, 33, 56, 288
-0.999161, 273, 77, 400, 108
-0.999167, 229, 145, 260, 272
-0.999173, 153, 161, 168, 288
-0.999175, 1, 129, 128, 160
-0.999189, 173, 81, 188, 208
-0.999191, 461, 33, 492, 288
-0.999194, 309, 33, 340, 288
-0.9992, 157, 17, 172, 144
-0.999204, 151, 17, 166, 144
-0.999214, 361, 145, 392, 272
-0.999232, 321, 209, 448, 272
-0.999233, 141, 209, 156, 336
-0.999242, 163, 33, 178, 160
-0.999245, 177, 145, 192, 272
-0.999246, 93, 225, 108, 352
-0.999264, 407, 1, 422, 128
-0.999264, 417, 49, 432, 176
-0.999272, 345, 97, 408, 352
-0.999273, 141, 145, 156, 272
-0.999279, 45, 209, 60, 336
-0.999285, 37, 1, 68, 256
-0.999294, 183, 49, 198, 176
-0.999296, 169, 177, 184, 304
-0.999299, 129, 241, 144, 368
-0.999308, 57, 241, 72, 368
-0.999312, 321, 273, 448, 336
-0.999313, 145, 17, 160, 144
-0.999313, 257, 201, 500, 264
-0.999316, 87, 241, 102, 368
-0.999322, 135, 65, 150, 192
-0.999323, 179, 97, 194, 224
-0.99933, 465, 33, 480, 160
-0.999334, 49, 33, 80, 288
-0.999338, 103, 145, 118, 272
-0.999341, 213, 1, 244, 256
-0.999351, 51, 225, 66, 352
-0.999356, 451, 113, 466, 240
-0.999372, 79, 241, 94, 368
-0.99938, 277, 1, 292, 128
-0.999382, 183, 161, 198, 288
-0.999385, 1, 97, 16, 224
-0.999387, 441, 129, 456, 256
-0.999391, 73, 241, 88, 368
-0.999394, 115, 113, 130, 240
-0.999399, 175, 193, 190, 320
-0.999399, 459, 33, 474, 160
-0.9994, 83, 161, 98, 288
-0.999403, 93, 145, 108, 272
-0.999404, 121, 241, 136, 368
-0.999406, 435, 97, 450, 224
-0.999414, 1, 313, 500, 375
-0.999418, 321, 233, 448, 296
-0.999422, 249, 241, 280, 368
-0.999428, 465, 113, 480, 240
-0.999429, 37, 193, 52, 320
-0.999441, 359, 129, 374, 256
-0.999443, 337, 33, 352, 160
-0.999445, 111, 225, 126, 352
-0.999457, 47, 161, 62, 288
-0.999457, 133, 145, 148, 272
-0.999459, 401, 1, 416, 128
-0.999469, 317, 145, 332, 272
-0.999472, 457, 97, 472, 224
-0.999472, 165, 225, 180, 352
-0.999473, 425, 1, 440, 128
-0.999474, 125, 145, 140, 272
-0.999475, 41, 145, 56, 272
-0.999478, 211, 33, 226, 160
-0.999478, 383, 17, 398, 144
-0.999479, 473, 65, 488, 192
-0.999486, 291, 1, 306, 128
-0.999487, 81, 113, 96, 240
-0.999488, 255, 1, 270, 128
-0.99949, 391, 113, 406, 240
-0.99949, 203, 49, 218, 176
-0.999496, 63, 241, 78, 368
-0.999506, 277, 161, 292, 288
-0.999507, 451, 65, 466, 192
-0.999509, 343, 33, 358, 160
-0.99951, 331, 49, 346, 176
-0.99951, 197, 33, 212, 160
-0.99951, 191, 33, 206, 160
-0.999511, 353, 129, 368, 256
-0.999515, 169, 33, 184, 160
-0.99952, 177, 241, 192, 368
-0.999521, 109, 113, 124, 240
-0.999523, 125, 65, 140, 192
-0.999524, 283, 1, 298, 128
-0.999526, 53, 177, 68, 304
-0.999527, 441, 49, 456, 176
-0.999529, 365, 33, 380, 160
-0.999531, 139, 17, 154, 144
-0.999531, 183, 225, 198, 352
-0.999533, 159, 161, 174, 288
-0.999536, 397, 113, 412, 240
-0.999536, 19, 225, 34, 352
-0.999537, 273, 241, 400, 304
-0.999537, 31, 177, 46, 304
-0.999548, 325, 49, 340, 176
-0.99955, 263, 1, 278, 128
-0.99955, 77, 161, 92, 288
-0.99955, 177, 33, 192, 160
-0.999551, 35, 129, 50, 256
-0.999552, 87, 113, 102, 240
-0.999552, 297, 1, 312, 128
-0.999553, 73, 113, 88, 240
-0.999556, 1, 17, 16, 144
-0.999558, 125, 193, 140, 320
-0.99956, 359, 1, 374, 128
-0.999561, 235, 177, 250, 304
-0.999562, 47, 315, 62, 330
-0.999562, 21, 161, 36, 288
-0.999562, 327, 187, 342, 202
-0.999562, 291, 201, 306, 216
-0.999563, 161, 195, 176, 210
-0.999563, 103, 291, 118, 306
-0.999563, 27, 113, 42, 240
-0.999564, 435, 141, 450, 156
-0.999564, 53, 291, 68, 306
-0.999564, 359, 173, 374, 188
-0.999564, 285, 49, 300, 176
-0.999565, 143, 71, 158, 86
-0.999565, 157, 225, 172, 352
-0.999567, 135, 85, 150, 100
-0.999567, 179, 77, 194, 92
-0.999567, 377, 17, 392, 144
-0.999567, 31, 321, 46, 336
-0.999567, 159, 123, 174, 138
-0.999567, 105, 309, 120, 324
-0.999568, 217, 33, 232, 160
-0.999569, 39, 297, 54, 312
-0.999569, 9, 331, 24, 346
-0.999569, 117, 273, 132, 288
-0.999569, 227, 227, 242, 242
-0.999569, 117, 289, 132, 304
-0.999571, 173, 73, 188, 88
-0.999571, 29, 301, 44, 316
-0.999572, 369, 169, 384, 184
-0.999573, 155, 355, 170, 370
-0.999573, 377, 165, 392, 180
-0.999573, 411, 151, 426, 166
-0.999573, 225, 17, 240, 144
-0.999573, 55, 311, 70, 326
-0.999573, 349, 33, 364, 160
-0.999574, 165, 333, 180, 348
-0.999575, 419, 147, 434, 162
-0.999575, 161, 343, 176, 358
-0.999575, 127, 273, 142, 288
-0.999577, 393, 159, 408, 174
-0.999577, 17, 327, 32, 342
-0.999577, 171, 331, 186, 346
-0.999578, 429, 143, 444, 158
-0.999578, 405, 153, 420, 168
-0.99958, 63, 307, 78, 322
-0.99958, 79, 301, 94, 316
-0.999581, 67, 113, 82, 240
-0.999581, 325, 161, 356, 288
-0.999582, 159, 115, 174, 130
-0.999582, 297, 49, 312, 176
-0.999583, 7, 145, 22, 272
-0.999583, 71, 305, 86, 320
-0.999586, 439, 133, 454, 148
-0.999586, 419, 1, 434, 128
-0.999587, 457, 133, 472, 148
-0.999587, 47, 293, 62, 308
-0.999587, 113, 259, 128, 274
-0.999587, 147, 229, 162, 244
-0.999589, 53, 129, 68, 256
-0.999589, 61, 281, 76, 296
-0.999589, 121, 279, 136, 294
-0.99959, 291, 49, 306, 176
-0.99959, 161, 305, 176, 320
-0.999591, 447, 137, 462, 152
-0.999591, 167, 149, 182, 164
-0.999591, 189, 81, 204, 208
-0.999591, 129, 261, 144, 276
-0.999593, 179, 85, 194, 100
-0.999593, 165, 73, 180, 88
-0.999594, 181, 227, 196, 242
-0.999596, 41, 97, 56, 224
-0.999596, 223, 97, 238, 224
-0.999596, 189, 193, 204, 320
-0.999597, 85, 299, 100, 314
-0.999597, 271, 1, 286, 128
-0.999597, 323, 145, 338, 272
-0.999597, 157, 203, 172, 218
-0.999598, 165, 141, 180, 156
-0.999598, 21, 113, 36, 240
-0.999599, 441, 139, 456, 154
-0.9996, 159, 337, 174, 352
-0.9996, 161, 129, 176, 144
-0.999601, 13, 81, 28, 208
-0.999601, 169, 121, 184, 136
-0.999601, 145, 101, 160, 116
-0.999604, 71, 161, 86, 288
-0.999605, 15, 145, 30, 272
-0.999605, 163, 135, 178, 150
-0.999606, 381, 157, 396, 172
-0.999606, 155, 67, 170, 82
-0.999609, 155, 75, 170, 90
-0.99961, 319, 183, 334, 198
-0.999611, 153, 211, 168, 226
-0.999611, 67, 299, 82, 314
-0.999613, 133, 251, 148, 266
-0.999615, 113, 279, 128, 294
-0.999618, 29, 293, 44, 308
-0.999619, 15, 321, 30, 336
-0.99962, 253, 209, 268, 224
-0.99962, 189, 231, 204, 246
-0.99962, 49, 305, 64, 320
-0.999622, 361, 165, 376, 180
-0.999623, 201, 227, 216, 242
-0.999623, 241, 213, 256, 228
-0.999624, 247, 211, 262, 226
-0.999626, 405, 27, 420, 42
-0.999628, 367, 161, 382, 176
-0.999628, 419, 139, 434, 154
-0.999629, 395, 149, 410, 164
-0.99963, 5, 325, 20, 340
-0.99963, 149, 77, 164, 92
-0.999633, 37, 311, 52, 326
-0.999633, 15, 299, 30, 314
-0.999635, 407, 145, 422, 160
-0.999636, 119, 257, 134, 272
-0.999636, 209, 225, 224, 240
-0.999637, 215, 223, 230, 238
-0.999637, 227, 219, 242, 234
-0.999638, 61, 287, 76, 302
-0.99964, 265, 205, 280, 220
-0.99964, 235, 215, 250, 230
-0.999641, 107, 285, 122, 300
-0.999642, 333, 177, 348, 192
-0.999642, 349, 169, 364, 184
-0.999643, 1, 305, 16, 320
-0.999643, 341, 173, 356, 188
-0.999643, 355, 167, 370, 182
-0.999644, 21, 297, 36, 312
-0.999645, 45, 287, 60, 302
-0.999645, 413, 143, 428, 158
-0.999648, 27, 315, 42, 330
-0.999649, 55, 303, 70, 318
-0.99965, 195, 229, 210, 244
-0.999651, 387, 153, 402, 168
-0.999651, 61, 301, 76, 316
-0.999652, 43, 309, 58, 324
-0.999652, 373, 159, 388, 174
-0.999654, 259, 207, 274, 222
-0.999654, 9, 301, 24, 316
-0.999654, 425, 137, 440, 152
-0.999655, 325, 181, 340, 196
-0.999655, 221, 221, 236, 236
-0.999657, 283, 197, 298, 212
-0.999658, 313, 185, 328, 200
-0.99966, 401, 147, 416, 162
-0.999661, 295, 193, 310, 208
-0.999661, 21, 319, 36, 334
-0.999664, 303, 189, 318, 204
-0.999665, 433, 133, 448, 148
-0.999666, 273, 201, 288, 216
-0.999668, 289, 195, 304, 210
-0.999668, 123, 263, 138, 278
-0.999673, 55, 283, 70, 298
-0.999675, 35, 291, 50, 306
-0.999675, 141, 81, 156, 96
-0.999692, 127, 255, 142, 270
-0.999712, 13, 1, 44, 256
-0.999717, 345, 177, 408, 304
-0.999743, 273, 105, 400, 168
-0.999747, 321, 297, 448, 360
-0.999931, 193, 265, 320, 328
-0.99997, 225, 241, 256, 368
-0.999985, 61, 33, 92, 288
-1.00002, 273, 313, 400, 375
-1.0001, 221, 97, 252, 352
-1.00013, 225, 233, 352, 296
-1.00013, 305, 193, 368, 320
-1.00016, 405, 97, 436, 352
-1.00019, 281, 129, 344, 375
-1.00024, 285, 129, 316, 375
-1.00026, 361, 97, 392, 352
-1.00026, 337, 129, 368, 375
-1.00029, 457, 129, 488, 375
-1.0004, 225, 241, 480, 304
-1.00041, 369, 217, 496, 280
-1.00047, 265, 241, 328, 368
-1.00049, 337, 225, 464, 352
-1.00053, 469, 129, 500, 375
-1.00054, 417, 225, 480, 352
-1.00054, 245, 97, 276, 352
-1.00055, 225, 265, 480, 328
-1.00076, 325, 129, 356, 375
-1.0008, 225, 289, 480, 352
-1.00083, 309, 129, 340, 375
-1.00085, 233, 97, 264, 352
-1.00095, 373, 97, 404, 352
-1.00096, 393, 97, 424, 352
-1.00098, 297, 129, 328, 375
-1.00116, 409, 177, 472, 304
-1.00118, 257, 289, 384, 352
-1.00133, 377, 225, 440, 352
-1.003, 369, 97, 432, 352
-1.0031, 289, 193, 416, 320
-1.00341, 257, 129, 320, 375
-1.00432, 369, 177, 432, 304
-1.00513, 433, 161, 496, 288
-1.00613, 289, 241, 416, 368
-1.00643, 305, 241, 368, 368
-1.00812, 329, 225, 392, 352
-1.00977, 353, 225, 416, 352
