1957
-0.270993, 1, 1, 500, 375
-0.34963, 161, 1, 416, 375
-0.36631, 1, 1, 500, 256
-0.392981, 257, 1, 500, 375
-0.410662, 1, 129, 500, 375
-0.469894, 33, 1, 288, 375
-0.517304, 257, 65, 500, 320
-0.563565, 161, 33, 416, 288
-0.56443, 33, 65, 288, 320
-0.661149, 161, 129, 416, 375
-0.827382, 209, 1, 336, 375
-0.828104, 273, 97, 400, 352
-0.843437, 209, 1, 336, 256
-0.845211, 289, 1, 416, 375
-0.845391, 113, 1, 240, 256
-0.854508, 129, 1, 256, 375
-0.858064, 65, 1, 192, 256
-0.858951, 305, 1, 432, 256
-0.859829, 81, 1, 208, 375
-0.87179, 337, 1, 464, 375
-0.872304, 225, 129, 352, 375
-0.876485, 1, 1, 128, 256
-0.876547, 177, 129, 304, 375
-0.877381, 353, 129, 480, 375
-0.879825, 257, 1, 384, 256
-0.881991, 353, 1, 480, 256
-0.882979, 65, 129, 192, 375
-0.884825, 1, 1, 128, 375
-0.885271, 1, 1, 500, 128
-0.886031, 161, 33, 288, 288
-0.887223, 1, 49, 500, 176
-0.896005, 1, 209, 500, 336
-0.897721, 113, 97, 240, 352
-0.900428, 1, 97, 500, 224
-0.903108, 97, 33, 352, 160
-0.9034, 129, 81, 384, 208
-0.905493, 1, 161, 500, 288
-0.907035, 257, 1, 500, 128
-0.908916, 17, 97, 144, 352
-0.910215, 257, 209, 500, 336
-0.912526, 1, 33, 256, 160
-0.919137, 193, 145, 448, 272
-0.920234, 257, 49, 500, 176
-0.923545, 337, 193, 464, 320
-0.925346, 161, 241, 416, 368
-0.925759, 129, 33, 256, 160
-0.926409, 257, 97, 500, 224
-0.926468, 273, 177, 400, 304
-0.926876, 289, 241, 416, 368
-0.928477, 177, 1, 240, 128
-0.929724, 273, 113, 400, 240
-0.93034, 193, 49, 320, 176
-0.931009, 33, 81, 288, 208
-0.932377, 225, 241, 352, 368
-0.932378, 233, 1, 296, 128
-0.932798, 369, 177, 432, 304
-0.933656, 321, 161, 384, 288
-0.933696, 273, 177, 336, 304
-0.93407, 193, 97, 320, 224
-0.934681, 33, 145, 288, 272
-0.936586, 305, 113, 368, 240
-0.936903, 177, 225, 240, 352
-0.937041, 161, 193, 416, 320
-0.938601, 345, 193, 408, 320
-0.939104, 273, 1, 400, 128
-0.939117, 401, 33, 464, 160
-0.939245, 337, 241, 464, 368
-0.939611, 393, 177, 456, 304
-0.93963, 81, 81, 208, 208
-0.939888, 161, 225, 288, 352
-0.940134, 1, 81, 128, 208
-0.940779, 193, 1, 320, 128
-0.941457, 281, 129, 344, 256
-0.941494, 81, 33, 208, 160
-0.941945, 225, 177, 352, 304
-0.942397, 97, 49, 160, 176
-0.942733, 209, 1, 272, 128
-0.942763, 57, 1, 120, 128
-0.943246, 65, 225, 320, 352
-0.943406, 33, 17, 160, 144
-0.943859, 305, 225, 368, 352
-0.944239, 121, 97, 184, 224
-0.945341, 145, 81, 208, 208
-0.94555, 337, 145, 464, 272
-0.946477, 233, 209, 296, 336
-0.946488, 257, 97, 320, 224
-0.946798, 177, 177, 304, 304
-0.947017, 273, 49, 400, 176
-0.947141, 129, 81, 256, 208
-0.947433, 121, 49, 184, 176
-0.947895, 257, 241, 320, 368
-0.948091, 145, 145, 208, 272
-0.948264, 289, 33, 352, 160
-0.948435, 217, 17, 280, 80
-0.949152, 345, 145, 408, 272
-0.949176, 81, 1, 144, 128
-0.949268, 353, 1, 480, 128
-0.949269, 329, 209, 392, 272
-0.949432, 57, 81, 120, 208
-0.949449, 369, 1, 432, 128
-0.950249, 337, 33, 400, 160
-0.950458, 369, 209, 432, 272
-0.951159, 177, 113, 240, 240
-0.951292, 177, 25, 240, 88
-0.951842, 145, 17, 208, 144
-0.95236, 329, 81, 392, 208
-0.952473, 97, 129, 224, 256
-0.952547, 369, 113, 432, 240
-0.95262, 321, 97, 448, 224
-0.953291, 313, 129, 376, 192
-0.953354, 257, 17, 320, 144
-0.953419, 369, 225, 432, 352
-0.953838, 129, 121, 192, 184
-0.953934, 97, 57, 160, 120
-0.953951, 217, 297, 280, 360
-0.954445, 201, 193, 264, 320
-0.955409, 329, 241, 392, 368
-0.95553, 289, 105, 352, 168
-0.95589, 321, 49, 448, 176
-0.956048, 369, 97, 496, 224
-0.956125, 249, 145, 312, 272
-0.956291, 201, 113, 264, 240
-0.956344, 33, 81, 96, 208
-0.956541, 241, 1, 304, 64
-0.956686, 257, 25, 320, 88
-0.9567, 305, 241, 368, 304
-0.95685, 289, 185, 352, 248
-0.956906, 393, 225, 456, 352
-0.957258, 265, 129, 328, 192
-0.957515, 97, 97, 160, 224
-0.957802, 201, 49, 264, 176
-0.957914, 209, 241, 272, 368
-0.958075, 241, 57, 304, 120
-0.958111, 265, 209, 328, 272
-0.958133, 97, 89, 160, 152
-0.958219, 393, 1, 456, 64
-0.95839, 345, 233, 408, 296
-0.958507, 105, 33, 168, 96
-0.958656, 161, 1, 224, 64
-0.959099, 145, 129, 272, 256
-0.959147, 305, 161, 368, 224
-0.95939, 345, 177, 408, 240
-0.959577, 369, 65, 432, 192
-0.95996, 33, 1, 96, 128
-0.9601, 281, 225, 344, 352
-0.960105, 225, 161, 288, 288
-0.960288, 353, 153, 416, 216
-0.960456, 105, 129, 168, 192
-0.960461, 289, 137, 352, 200
-0.961002, 129, 65, 192, 128
-0.96137, 265, 153, 328, 216
-0.961538, 193, 305, 256, 368
-0.961553, 241, 281, 304, 344
-0.96167, 185, 1, 248, 64
-0.961735, 393, 201, 456, 264
-0.961749, 169, 65, 232, 192
-0.962202, 297, 177, 360, 304
-0.962356, 249, 97, 312, 160
-0.962452, 369, 233, 432, 296
-0.962538, 113, 241, 240, 368
-0.962629, 169, 161, 232, 288
-0.962696, 313, 185, 376, 248
-0.962732, 369, 185, 432, 248
-0.962894, 409, 81, 472, 208
-0.963171, 289, 129, 352, 375
-0.963413, 145, 313, 208, 375
-0.963738, 137, 33, 200, 96
-0.963798, 169, 233, 232, 296
-0.963801, 409, 73, 472, 136
-0.963862, 385, 265, 448, 328
-0.963958, 49, 161, 112, 288
-0.964023, 73, 129, 136, 256
-0.964063, 169, 153, 232, 216
-0.964648, 249, 1, 312, 256
-0.96483, 145, 97, 208, 160
-0.964835, 289, 81, 352, 144
-0.964944, 329, 97, 392, 160
-0.964954, 417, 193, 480, 320
-0.965034, 209, 81, 272, 144
-0.965198, 65, 89, 128, 152
-0.965262, 361, 1, 424, 64
-0.965556, 241, 177, 304, 240
-0.965711, 225, 257, 288, 320
-0.965736, 105, 1, 168, 128
-0.965757, 281, 81, 344, 208
-0.965958, 393, 241, 456, 304
-0.966061, 81, 145, 144, 208
-0.966072, 329, 153, 392, 216
-0.96615, 289, 297, 352, 360
-0.966373, 193, 9, 320, 72
-0.966802, 265, 185, 328, 248
-0.966816, 1, 1, 64, 128
-0.966873, 177, 129, 240, 192
-0.966964, 145, 169, 208, 232
-0.967047, 177, 81, 240, 144
-0.967077, 289, 185, 416, 248
-0.967154, 209, 209, 272, 272
-0.967166, 25, 209, 88, 336
-0.96739, 265, 65, 328, 128
-0.967393, 241, 233, 304, 296
-0.967474, 1, 65, 64, 192
-0.967479, 113, 313, 176, 375
-0.967653, 289, 241, 416, 304
-0.967739, 377, 97, 440, 160
-0.967779, 369, 49, 496, 176
-0.967819, 417, 241, 480, 368
-0.968107, 273, 265, 336, 328
-0.968444, 225, 49, 288, 176
-0.968593, 353, 257, 416, 320
-0.968605, 153, 1, 216, 256
-0.969022, 393, 33, 456, 96
-0.969067, 193, 97, 320, 160
-0.969089, 353, 209, 480, 272
-0.9691, 129, 145, 192, 208
-0.969239, 313, 305, 376, 368
-0.969319, 313, 17, 376, 144
-0.96941, 417, 145, 480, 272
-0.969532, 305, 217, 368, 280
-0.969606, 425, 1, 488, 128
-0.969671, 337, 129, 400, 192
-0.969711, 57, 1, 120, 64
-0.96979, 313, 97, 376, 352
-0.969795, 265, 305, 328, 368
-0.969815, 169, 1, 200, 64
-0.969903, 417, 9, 480, 72
-0.969925, 241, 129, 304, 192
-0.970164, 297, 161, 328, 288
-0.970271, 73, 113, 136, 176
-0.970281, 209, 105, 272, 168
-0.970382, 217, 57, 280, 120
-0.970407, 337, 25, 400, 88
-0.970431, 265, 97, 328, 352
-0.970468, 97, 313, 224, 375
-0.970509, 273, 161, 400, 224
-0.970632, 353, 145, 384, 272
-0.970646, 273, 137, 400, 200
-0.970654, 329, 1, 392, 256
-0.970713, 169, 201, 232, 264
-0.970753, 273, 1, 304, 64
-0.970756, 293, 113, 324, 240
-0.970945, 9, 17, 72, 80
-0.971016, 209, 217, 336, 280
-0.971097, 273, 209, 400, 272
-0.971115, 369, 193, 400, 320
-0.971134, 153, 225, 216, 352
-0.971199, 201, 257, 264, 320
-0.971217, 41, 89, 104, 152
-0.97122, 369, 33, 432, 96
-0.971229, 121, 97, 184, 160
-0.971272, 81, 1, 144, 256
-0.971492, 265, 1, 328, 64
-0.971556, 409, 97, 472, 352
-0.971643, 97, 9, 160, 72
-0.971658, 345, 129, 408, 375
-0.971757, 1, 241, 128, 368
-0.971875, 137, 9, 200, 72
-0.971916, 193, 65, 320, 128
-0.97194, 417, 1, 448, 64
-0.971964, 49, 145, 176, 272
-0.972062, 345, 289, 408, 352
-0.972208, 81, 49, 208, 112
-0.972478, 153, 65, 216, 128
-0.972536, 317, 225, 348, 352
-0.972548, 113, 81, 240, 144
-0.972686, 369, 97, 432, 352
-0.97275, 209, 289, 336, 352
-0.972784, 73, 57, 136, 120
-0.9728, 377, 209, 408, 272
-0.972844, 137, 65, 168, 192
-0.972888, 113, 177, 240, 304
-0.972969, 361, 241, 392, 304
-0.973043, 289, 57, 352, 120
-0.973084, 241, 209, 304, 272
-0.973108, 297, 169, 328, 232
-0.973124, 141, 129, 172, 192
-0.973196, 257, 1, 288, 64
-0.973218, 121, 1, 184, 256
-0.973222, 413, 177, 444, 304
-0.973223, 193, 41, 320, 104
-0.973231, 81, 81, 112, 208
-0.973254, 265, 41, 296, 104
-0.97328, 317, 225, 348, 288
-0.973295, 201, 129, 264, 192
-0.973632, 357, 217, 388, 280
-0.973719, 385, 1, 448, 256
-0.973795, 129, 25, 256, 88
-0.973802, 237, 1, 268, 128
-0.973891, 81, 145, 208, 208
-0.973907, 397, 201, 428, 264
-0.973926, 49, 89, 176, 152
-0.973953, 177, 281, 240, 344
-0.9741, 397, 193, 428, 320
-0.974183, 361, 153, 392, 216
-0.974189, 189, 1, 220, 64
-0.974236, 173, 161, 204, 288
-0.974312, 129, 97, 192, 352
-0.97436, 433, 81, 496, 208
-0.974363, 217, 233, 280, 296
-0.974423, 409, 1, 440, 128
-0.974618, 129, 49, 256, 112
-0.974619, 265, 1, 296, 128
-0.974656, 153, 65, 184, 192
-0.97466, 205, 1, 236, 128
-0.974968, 153, 113, 184, 240
-0.975122, 281, 241, 344, 304
-0.975245, 337, 1, 464, 64
-0.975266, 257, 9, 384, 72
-0.975301, 365, 145, 396, 272
-0.975386, 393, 129, 456, 256
-0.97545, 417, 265, 480, 328
-0.975548, 337, 161, 464, 224
-0.975551, 369, 121, 432, 184
-0.975598, 193, 49, 256, 112
-0.975598, 369, 65, 432, 128
-0.975626, 401, 97, 464, 160
-0.975643, 189, 129, 220, 256
-0.97569, 177, 1, 240, 256
-0.975742, 345, 225, 376, 352
-0.975754, 157, 137, 188, 200
-0.975783, 285, 113, 316, 176
-0.975808, 241, 185, 368, 248
-0.975822, 221, 1, 252, 64
-0.975934, 169, 305, 232, 368
-0.975939, 433, 73, 496, 136
-0.976011, 281, 81, 312, 208
-0.976015, 385, 289, 448, 352
-0.976117, 113, 121, 240, 184
-0.976126, 337, 1, 400, 64
-0.976184, 309, 129, 340, 256
-0.976184, 249, 257, 312, 320
-0.976199, 333, 161, 364, 288
-0.976208, 177, 1, 208, 128
-0.97626, 273, 105, 400, 168
-0.976281, 241, 241, 368, 304
-0.976283, 57, 33, 120, 288
-0.976284, 329, 73, 392, 136
-0.976383, 417, 217, 480, 280
-0.976456, 297, 121, 328, 184
-0.97646, 337, 161, 368, 224
-0.97646, 241, 65, 368, 128
-0.976468, 373, 185, 404, 248
-0.9765, 285, 33, 316, 160
-0.976504, 209, 153, 272, 216
-0.976587, 329, 257, 392, 320
-0.976612, 265, 209, 296, 336
-0.976621, 177, 129, 240, 375
-0.976694, 321, 113, 352, 240
-0.976702, 221, 297, 252, 360
-0.976864, 413, 193, 444, 256
-0.976887, 281, 25, 344, 88
-0.976941, 129, 1, 256, 64
-0.977031, 161, 297, 288, 360
-0.977111, 85, 1, 116, 128
-0.977168, 417, 185, 480, 248
-0.977183, 145, 33, 176, 96
-0.977198, 273, 89, 304, 152
-0.977199, 425, 33, 456, 160
-0.977216, 281, 33, 312, 96
-0.977292, 177, 193, 304, 256
-0.97737, 209, 25, 240, 88
-0.977379, 81, 25, 208, 88
-0.977407, 65, 25, 128, 88
-0.977448, 285, 65, 316, 128
-0.977453, 425, 33, 488, 96
-0.977468, 233, 97, 296, 352
-0.977474, 165, 65, 196, 192
-0.977475, 185, 105, 248, 168
-0.977501, 381, 209, 412, 336
-0.977527, 205, 1, 236, 64
-0.977582, 373, 257, 404, 320
-0.977603, 245, 241, 276, 368
-0.977603, 257, 1, 320, 375
-0.977647, 317, 137, 348, 200
-0.977656, 269, 49, 300, 176
-0.977703, 241, 265, 368, 328
-0.977721, 225, 145, 352, 208
-0.977769, 1, 1, 128, 64
-0.977772, 209, 1, 272, 256
-0.977772, 397, 17, 428, 144
-0.977854, 201, 185, 264, 248
-0.977861, 357, 193, 388, 320
-0.977876, 97, 49, 128, 176
-0.977958, 149, 17, 180, 144
-0.977985, 33, 65, 96, 320
-0.978069, 377, 145, 408, 272
-0.978085, 233, 97, 296, 224
-0.978111, 337, 233, 464, 296
-0.978329, 137, 65, 168, 128
-0.978335, 121, 145, 184, 272
-0.978385, 1, 25, 128, 88
-0.978439, 33, 1, 96, 64
-0.978479, 169, 177, 232, 240
-0.978481, 333, 225, 364, 352
-0.97853, 65, 81, 96, 208
-0.978578, 201, 313, 232, 375
-0.978635, 337, 185, 464, 248
-0.978644, 349, 185, 380, 248
-0.978767, 117, 129, 148, 192
-0.978814, 109, 33, 140, 160
-0.97883, 361, 1, 424, 256
-0.978872, 241, 1, 272, 64
-0.978888, 41, 177, 104, 240
-0.978892, 241, 41, 368, 104
-0.978971, 145, 289, 208, 352
-0.979052, 345, 129, 376, 192
-0.979063, 117, 81, 148, 208
-0.979095, 137, 105, 168, 168
-0.979128, 417, 1, 480, 256
-0.97914, 241, 153, 304, 216
-0.979164, 269, 177, 300, 240
-0.979164, 257, 241, 288, 304
-0.979212, 269, 65, 300, 128
-0.979229, 305, 145, 336, 208
-0.979258, 177, 257, 240, 320
-0.97927, 105, 57, 136, 120
-0.979293, 281, 193, 312, 256
-0.979317, 289, 1, 352, 64
-0.979356, 193, 121, 320, 184
-0.979497, 161, 249, 288, 312
-0.979499, 337, 33, 464, 96
-0.979583, 429, 1, 460, 64
-0.979607, 149, 105, 180, 168
-0.979607, 241, 313, 368, 375
-0.979622, 221, 241, 252, 368
-0.979681, 129, 137, 160, 200
-0.979776, 29, 1, 60, 64
-0.979839, 321, 281, 384, 344
-0.979857, 161, 161, 288, 224
-0.97988, 1, 57, 128, 120
-0.979885, 337, 257, 464, 320
-0.979894, 329, 217, 360, 280
-0.979934, 305, 241, 336, 368
-0.980024, 301, 193, 332, 256
-0.980068, 397, 9, 428, 72
-0.980071, 1, 1, 64, 256
-0.980075, 385, 313, 448, 375
-0.980097, 185, 217, 216, 280
-0.980121, 125, 105, 156, 168
-0.980124, 321, 1, 384, 375
-0.980176, 245, 265, 276, 328
-0.980184, 181, 209, 212, 336
-0.980279, 365, 129, 396, 192
-0.980312, 85, 81, 116, 144
-0.980358, 161, 217, 288, 280
-0.980421, 145, 193, 208, 256
-0.980445, 209, 97, 272, 352
-0.980482, 445, 33, 476, 160
-0.980532, 49, 121, 176, 184
-0.980567, 1, 129, 64, 256
-0.9806, 17, 169, 80, 232
-0.980603, 349, 1, 380, 128
-0.980606, 49, 129, 112, 192
-0.980606, 417, 241, 480, 304
-0.980671, 81, 1, 208, 64
-0.980739, 381, 233, 412, 296
-0.980744, 221, 17, 252, 144
-0.980764, 377, 1, 440, 375
-0.980822, 253, 49, 284, 112
-0.980892, 173, 145, 204, 208
-0.980939, 289, 297, 416, 360
-0.981075, 377, 161, 440, 224
-0.981114, 189, 1, 220, 128
-0.981135, 417, 241, 448, 368
-0.981163, 277, 193, 308, 320
-0.98118, 425, 193, 456, 320
-0.98122, 1, 209, 64, 336
-0.981249, 257, 201, 288, 264
-0.981269, 1, 129, 128, 256
-0.981315, 241, 297, 272, 360
-0.981332, 125, 49, 156, 112
-0.98136, 133, 113, 164, 240
-0.981442, 341, 81, 372, 208
-0.98151, 421, 33, 452, 96
-0.981513, 9, 1, 40, 128
-0.981545, 349, 161, 380, 224
-0.981578, 433, 97, 464, 224
-0.981612, 209, 49, 240, 176
-0.981651, 253, 25, 284, 88
-0.981686, 417, 257, 448, 320
-0.98175, 129, 241, 192, 368
-0.981768, 185, 1, 248, 375
-0.981841, 249, 1, 280, 128
-0.981933, 269, 217, 300, 280
-0.981956, 313, 177, 344, 304
-0.981957, 285, 89, 316, 152
-0.982011, 329, 297, 360, 360
-0.982014, 1, 121, 128, 184
-0.982054, 273, 1, 336, 256
-0.982058, 321, 113, 448, 176
-0.982063, 313, 177, 344, 240
-0.982064, 377, 97, 408, 224
-0.982101, 365, 81, 396, 208
-0.982154, 385, 177, 416, 240
-0.982226, 153, 129, 216, 375
-0.982237, 197, 73, 228, 136
-0.982264, 165, 1, 196, 128
-0.98229, 321, 73, 448, 136
-0.982295, 285, 161, 316, 224
-0.982296, 25, 129, 88, 256
-0.982342, 377, 113, 408, 176
-0.982361, 185, 153, 216, 216
-0.982367, 321, 137, 448, 200
-0.98243, 201, 113, 232, 240
-0.982452, 161, 57, 192, 120
-0.982468, 65, 241, 192, 368
-0.982531, 409, 25, 440, 88
-0.982569, 217, 97, 248, 160
-0.982606, 341, 89, 372, 152
-0.982606, 177, 313, 208, 375
-0.982613, 297, 65, 328, 192
-0.982622, 349, 241, 380, 304
-0.982648, 281, 1, 344, 375
-0.982676, 397, 241, 428, 368
-0.982692, 317, 201, 348, 264
-0.982716, 345, 1, 408, 375
-0.982724, 441, 73, 472, 136
-0.982771, 1, 177, 128, 304
-0.982809, 285, 137, 316, 200
-0.982813, 225, 25, 256, 88
-0.982828, 333, 241, 364, 304
-0.982879, 245, 49, 276, 176
-0.9829, 253, 129, 284, 256
-0.982921, 337, 281, 464, 344
-0.982928, 165, 113, 196, 240
-0.982998, 249, 177, 280, 240
-0.983002, 17, 9, 48, 72
-0.983016, 65, 89, 96, 152
-0.983092, 361, 193, 392, 256
-0.983168, 369, 137, 496, 200
-0.983188, 1, 89, 128, 152
-0.983285, 225, 1, 288, 375
-0.983349, 145, 273, 272, 336
-0.983383, 157, 9, 188, 72
-0.983433, 297, 65, 328, 128
-0.983441, 221, 65, 252, 192
-0.983445, 205, 113, 236, 176
-0.983493, 213, 49, 244, 112
-0.983553, 105, 97, 168, 352
-0.983555, 97, 1, 160, 375
-0.98361, 1, 161, 128, 224
-0.983644, 169, 225, 200, 352
-0.98365, 285, 241, 316, 368
-0.983657, 161, 161, 192, 224
-0.983661, 249, 81, 280, 144
-0.983774, 385, 1, 416, 128
-0.983778, 329, 129, 360, 192
-0.983806, 281, 129, 312, 256
-0.983843, 193, 177, 224, 304
-0.983889, 409, 1, 472, 375
-0.983945, 173, 201, 204, 264
-0.984007, 209, 73, 240, 136
-0.984046, 305, 1, 368, 256
-0.984105, 233, 241, 264, 368
-0.984125, 109, 33, 140, 96
-0.984139, 97, 289, 224, 352
-0.984152, 93, 145, 124, 208
-0.984154, 285, 9, 316, 72
-0.984154, 185, 25, 216, 88
-0.984154, 73, 1, 104, 128
-0.984191, 397, 33, 428, 96
-0.984237, 401, 257, 432, 320
-0.984336, 197, 25, 228, 88
-0.984381, 361, 1, 392, 128
-0.984394, 25, 1, 56, 128
-0.984407, 353, 25, 384, 88
-0.984477, 433, 25, 464, 88
-0.984517, 173, 41, 204, 104
-0.984518, 341, 209, 372, 272
-0.984564, 149, 65, 180, 128
-0.984582, 369, 113, 496, 176
-0.984591, 197, 217, 228, 280
-0.984599, 9, 97, 72, 352
-0.98462, 37, 1, 68, 128
-0.98467, 361, 241, 392, 368
-0.984759, 377, 145, 408, 208
-0.984768, 417, 281, 448, 344
-0.984772, 353, 97, 384, 224
-0.984787, 433, 97, 496, 352
-0.984838, 269, 129, 300, 256
-0.984839, 65, 169, 192, 232
-0.984848, 253, 193, 284, 320
-0.985031, 389, 273, 420, 336
-0.985039, 241, 57, 272, 120
-0.98504, 257, 49, 288, 176
-0.985062, 177, 81, 208, 208
-0.985163, 209, 193, 240, 320
-0.985182, 105, 121, 136, 184
-0.985203, 241, 193, 272, 320
-0.985206, 137, 17, 168, 144
-0.985219, 289, 265, 416, 328
-0.985223, 393, 145, 424, 272
-0.985242, 421, 233, 452, 296
-0.98528, 41, 1, 72, 64
-0.98528, 125, 17, 156, 144
-0.98529, 293, 305, 324, 368
-0.985329, 233, 257, 264, 320
-0.985352, 305, 233, 336, 296
-0.985366, 173, 169, 204, 232
-0.985373, 225, 145, 256, 272
-0.985387, 97, 145, 160, 272
-0.98542, 137, 1, 200, 375
-0.985426, 197, 225, 228, 352
-0.985472, 401, 225, 432, 288
-0.985569, 121, 313, 152, 375
-0.985574, 73, 169, 104, 232
-0.985627, 97, 81, 128, 144
-0.985658, 221, 73, 252, 136
-0.985664, 161, 161, 192, 288
-0.985711, 169, 289, 200, 352
-0.985762, 85, 105, 116, 168
-0.985807, 245, 209, 276, 272
-0.985814, 369, 57, 496, 120
-0.985909, 161, 1, 224, 375
-0.985928, 157, 225, 188, 352
-0.986005, 53, 81, 84, 208
-0.986115, 73, 1, 136, 375
-0.986139, 17, 297, 144, 360
-0.986268, 21, 65, 52, 192
-0.986484, 377, 49, 408, 176
-0.986765, 81, 97, 144, 352
-0.986819, 241, 129, 272, 256
-0.986843, 93, 97, 124, 224
-0.986851, 437, 177, 468, 304
-0.986863, 113, 169, 240, 232
-0.987134, 369, 89, 496, 152
-0.987345, 193, 65, 224, 192
-0.987362, 373, 1, 404, 128
-0.987547, 1, 1, 64, 375
-0.987585, 337, 305, 464, 368
-0.987715, 445, 81, 476, 208
-0.987725, 41, 1, 104, 375
-0.987727, 209, 241, 240, 368
-0.987779, 413, 129, 444, 256
-0.98782, 73, 161, 104, 288
-0.988007, 433, 1, 496, 375
-0.988037, 229, 193, 260, 320
-0.988093, 213, 113, 244, 240
-0.988149, 113, 233, 240, 296
-0.988175, 121, 133, 184, 164
-0.9882, 41, 49, 72, 176
-0.988521, 33, 65, 288, 128
-0.988542, 9, 49, 40, 176
-0.988631, 137, 153, 200, 184
-0.988648, 249, 5, 312, 36
-0.988672, 289, 49, 416, 112
-0.988721, 105, 145, 168, 176
-0.988755, 309, 81, 340, 208
-0.988813, 433, 241, 464, 368
-0.988833, 305, 241, 368, 272
-0.98884, 289, 117, 352, 148
-0.988862, 97, 61, 160, 92
-0.988875, 233, 65, 264, 192
-0.988877, 361, 213, 424, 244
-0.989058, 305, 165, 368, 196
-0.98906, 209, 17, 272, 48
-0.989089, 61, 33, 92, 160
-0.98913, 369, 245, 432, 276
-0.98914, 289, 193, 352, 224
-0.989144, 129, 89, 384, 152
-0.989158, 249, 61, 312, 92
-0.989182, 177, 37, 240, 68
-0.989223, 329, 17, 360, 144
-0.989353, 233, 21, 296, 52
-0.989375, 369, 233, 432, 264
-0.989391, 329, 229, 392, 260
-0.989394, 337, 153, 400, 184
-0.989469, 305, 177, 368, 208
-0.989511, 97, 33, 352, 96
-0.989512, 97, 1, 128, 128
-0.989521, 281, 181, 344, 212
-0.989523, 257, 1, 500, 64
-0.989535, 385, 205, 448, 236
-0.989539, 401, 25, 464, 56
-0.989558, 337, 253, 400, 284
-0.989577, 289, 141, 352, 172
-0.989585, 345, 1, 408, 32
-0.989594, 401, 13, 464, 44
-0.989673, 217, 33, 280, 64
-0.989705, 97, 49, 160, 80
-0.989802, 193, 325, 256, 356
-0.989811, 185, 25, 248, 56
-0.989816, 361, 153, 424, 184
-0.989818, 377, 21, 440, 52
-0.989849, 321, 213, 384, 244
-0.989859, 377, 1, 440, 32
-0.989859, 401, 1, 464, 32
-0.989862, 217, 301, 280, 332
-0.989964, 265, 133, 328, 164
-0.990012, 193, 1, 256, 32
-0.99002, 361, 201, 424, 232
-0.990047, 161, 149, 224, 180
-0.990072, 113, 193, 240, 256
-0.99009, 161, 65, 416, 128
-0.990103, 241, 49, 304, 80
-0.990111, 105, 121, 168, 152
-0.990133, 161, 9, 416, 72
-0.990136, 265, 169, 328, 200
-0.990145, 145, 137, 208, 168
-0.990146, 313, 137, 376, 168
-0.990149, 329, 125, 392, 156
-0.990149, 97, 133, 160, 164
-0.990155, 329, 241, 392, 272
-0.99021, 337, 165, 400, 196
-0.990226, 161, 21, 224, 52
-0.990229, 257, 25, 320, 56
-0.990242, 409, 41, 472, 72
-0.990247, 257, 217, 500, 280
-0.990257, 137, 45, 200, 76
-0.990262, 249, 101, 312, 132
-0.990264, 329, 189, 392, 220
-0.990276, 161, 9, 224, 40
-0.990316, 13, 225, 44, 352
-0.990316, 385, 41, 448, 72
-0.990321, 241, 37, 304, 68
-0.990338, 137, 65, 200, 96
-0.990342, 313, 149, 376, 180
-0.990344, 193, 341, 256, 372
-0.990348, 185, 77, 248, 108
-0.990353, 105, 321, 168, 352
-0.990354, 145, 313, 208, 344
-0.990364, 273, 205, 336, 236
-0.990367, 225, 61, 288, 92
-0.990374, 273, 153, 336, 184
-0.990374, 233, 257, 296, 288
-0.990377, 273, 69, 336, 100
-0.990379, 97, 93, 160, 124
-0.99038, 217, 1, 280, 32
-0.990382, 161, 229, 224, 260
-0.990421, 385, 217, 448, 248
-0.990443, 265, 217, 328, 248
-0.990467, 97, 29, 160, 60
-0.990471, 305, 253, 368, 284
-0.990476, 129, 113, 384, 176
-0.990495, 177, 89, 240, 120
-0.990512, 241, 289, 304, 320
-0.990523, 385, 261, 448, 292
-0.990536, 9, 17, 72, 48
-0.990542, 233, 77, 296, 108
-0.990617, 281, 85, 344, 116
-0.990627, 241, 201, 304, 232
-0.990628, 257, 185, 320, 216
-0.990638, 97, 157, 160, 188
-0.990638, 105, 113, 136, 240
-0.990647, 217, 277, 280, 308
-0.990691, 257, 117, 320, 148
-0.990699, 289, 105, 352, 136
-0.9907, 169, 173, 232, 204
-0.990702, 185, 225, 248, 256
-0.990709, 93, 145, 124, 272
-0.990751, 225, 41, 480, 104
-0.990757, 409, 205, 472, 236
-0.990762, 329, 101, 392, 132
-0.990762, 329, 29, 392, 60
-0.99077, 289, 301, 352, 332
-0.990824, 65, 93, 128, 124
-0.990826, 313, 201, 376, 232
-0.990826, 329, 177, 392, 208
-0.99083, 185, 305, 248, 336
-0.990832, 137, 101, 200, 132
-0.990836, 73, 81, 136, 112
-0.990838, 169, 241, 232, 272
-0.99084, 97, 73, 160, 104
-0.99084, 385, 289, 448, 320
-0.990842, 145, 165, 208, 196
-0.990843, 177, 161, 240, 192
-0.990855, 425, 5, 488, 36
-0.990871, 433, 21, 496, 52
-0.990879, 409, 85, 472, 116
-0.990895, 305, 313, 368, 344
-0.990901, 329, 113, 392, 144
-0.990904, 353, 189, 416, 220
-0.990916, 73, 1, 136, 32
-0.990917, 9, 29, 72, 60
-0.990924, 33, 97, 288, 160
-0.990928, 337, 201, 400, 232
-0.990944, 241, 269, 304, 300
-0.990966, 241, 245, 304, 276
-0.990972, 25, 209, 56, 336
-0.990976, 409, 217, 472, 248
-0.990977, 353, 13, 416, 44
-0.990997, 345, 309, 408, 340
-0.991, 217, 101, 280, 132
-0.991008, 137, 33, 200, 64
-0.991067, 377, 273, 440, 304
-0.991067, 225, 257, 480, 320
-0.991072, 65, 313, 320, 375
-0.991079, 409, 289, 472, 320
-0.991091, 13, 177, 44, 304
-0.991094, 409, 245, 472, 276
-0.991106, 329, 65, 360, 192
-0.99111, 273, 265, 336, 296
-0.991122, 353, 133, 416, 164
-0.991124, 209, 313, 272, 344
-0.991126, 33, 1, 96, 32
-0.991127, 393, 97, 456, 128
-0.991136, 81, 145, 144, 176
-0.991155, 225, 281, 480, 344
-0.991188, 257, 65, 500, 128
-0.991241, 1, 97, 32, 224
-0.991312, 193, 137, 448, 200
-0.991497, 61, 161, 92, 288
-0.991535, 425, 145, 456, 272
-0.99157, 1, 33, 256, 96
-0.99161, 401, 97, 432, 224
-0.991632, 65, 241, 128, 368
-0.991714, 1, 185, 128, 248
-0.991734, 257, 193, 500, 256
-0.991734, 193, 313, 448, 375
-0.99174, 257, 97, 500, 160
-0.99201, 37, 193, 68, 320
-0.992065, 33, 97, 64, 224
-0.992171, 285, 65, 316, 96
-0.992178, 361, 249, 392, 280
-0.992184, 153, 141, 184, 172
-0.992187, 389, 65, 420, 192
-0.99219, 317, 237, 348, 268
-0.992242, 161, 157, 192, 188
-0.992291, 141, 129, 172, 160
-0.9923, 373, 217, 404, 248
-0.992305, 65, 1, 320, 64
-0.992327, 121, 133, 152, 164
-0.992363, 289, 113, 320, 144
-0.992392, 269, 17, 300, 48
-0.992397, 225, 169, 480, 232
-0.992398, 65, 137, 320, 200
-0.992412, 161, 193, 416, 256
-0.992419, 193, 21, 224, 52
-0.992423, 305, 145, 336, 176
-0.992438, 417, 29, 448, 60
-0.992456, 265, 49, 296, 80
-0.992463, 269, 33, 300, 64
-0.992475, 273, 5, 304, 36
-0.992477, 297, 181, 328, 212
-0.992502, 393, 33, 424, 64
-0.992503, 273, 101, 304, 132
-0.992513, 257, 25, 288, 56
-0.992523, 129, 145, 160, 176
-0.992525, 129, 121, 160, 152
-0.992549, 353, 153, 384, 184
-0.992552, 293, 137, 324, 168
-0.99256, 89, 93, 120, 124
-0.992566, 285, 93, 316, 124
-0.992569, 405, 21, 436, 52
-0.992576, 257, 1, 288, 32
-0.992578, 17, 273, 144, 336
-0.992597, 413, 205, 444, 236
-0.992598, 381, 237, 412, 268
-0.992601, 129, 289, 384, 352
-0.992601, 353, 49, 384, 176
-0.992603, 173, 229, 204, 260
-0.992609, 393, 217, 424, 248
-0.99261, 397, 201, 428, 232
-0.992615, 161, 225, 416, 288
-0.992622, 237, 285, 268, 316
-0.992622, 209, 29, 240, 60
-0.992626, 93, 81, 124, 112
-0.992631, 317, 33, 348, 160
-0.992637, 189, 229, 220, 260
-0.992639, 285, 125, 316, 156
-0.992646, 173, 153, 204, 184
-0.992651, 269, 61, 300, 92
-0.992651, 385, 205, 416, 236
-0.992652, 369, 157, 400, 188
-0.992653, 169, 5, 200, 36
-0.992655, 221, 297, 252, 328
-0.992659, 293, 165, 324, 196
-0.992661, 445, 1, 476, 32
-0.992661, 313, 197, 344, 228
-0.992664, 285, 53, 316, 84
-0.992665, 49, 193, 176, 256
-0.992667, 353, 169, 384, 200
-0.992674, 105, 61, 136, 92
-0.992677, 357, 1, 388, 32
-0.992679, 313, 173, 344, 204
-0.99268, 373, 205, 404, 236
-0.992689, 265, 73, 296, 104
-0.992689, 361, 237, 392, 268
-0.9927, 141, 101, 172, 132
-0.992701, 173, 169, 204, 200
-0.992709, 125, 49, 156, 80
-0.992715, 225, 25, 256, 56
-0.992719, 425, 1, 456, 32
-0.992719, 333, 249, 364, 280
-0.992724, 429, 29, 460, 60
-0.992727, 105, 77, 136, 108
-0.99274, 109, 137, 140, 168
-0.992743, 273, 125, 304, 156
-0.992745, 305, 157, 336, 188
-0.992746, 245, 5, 276, 36
-0.992751, 21, 9, 52, 40
-0.992751, 329, 297, 360, 328
-0.992752, 421, 13, 452, 44
-0.992754, 341, 161, 372, 192
-0.992754, 181, 1, 212, 32
-0.992757, 441, 77, 472, 108
-0.99276, 205, 93, 236, 124
-0.992764, 81, 81, 112, 112
-0.992764, 317, 141, 348, 172
-0.992767, 149, 153, 180, 184
-0.992771, 321, 221, 352, 252
-0.992772, 405, 37, 436, 68
-0.992775, 253, 197, 284, 228
-0.992776, 1, 89, 500, 152
-0.992778, 385, 249, 416, 280
-0.992787, 249, 245, 280, 276
-0.992789, 393, 21, 424, 52
-0.992799, 405, 5, 436, 36
-0.9928, 197, 77, 228, 108
-0.992802, 165, 17, 196, 48
-0.992803, 209, 1, 240, 32
-0.992803, 89, 69, 120, 100
-0.992804, 201, 321, 232, 352
-0.992805, 417, 289, 448, 320
-0.992805, 201, 337, 232, 368
-0.992806, 225, 1, 256, 32
-0.992808, 413, 217, 444, 248
-0.992813, 265, 209, 296, 240
-0.992813, 373, 261, 404, 292
-0.992816, 329, 237, 360, 268
-0.992821, 249, 185, 280, 216
-0.992824, 73, 93, 104, 124
-0.992828, 385, 1, 416, 32
-0.992842, 361, 141, 392, 172
-0.992843, 345, 205, 376, 236
-0.992845, 181, 241, 212, 272
-0.992851, 273, 89, 304, 120
-0.992854, 233, 73, 264, 104
-0.992859, 137, 61, 168, 92
-0.99286, 245, 69, 276, 100
-0.99286, 253, 53, 284, 84
-0.99286, 333, 177, 364, 208
-0.992867, 301, 313, 332, 344
-0.992871, 213, 81, 244, 112
-0.992872, 285, 153, 316, 184
-0.992879, 217, 13, 248, 44
-0.992879, 341, 93, 372, 124
-0.992887, 245, 17, 276, 48
-0.99289, 417, 41, 448, 72
-0.99289, 169, 309, 200, 340
-0.992891, 241, 301, 272, 332
-0.992892, 281, 197, 312, 228
-0.992892, 229, 37, 260, 68
-0.992892, 265, 197, 296, 228
-0.992894, 341, 237, 372, 268
-0.992895, 349, 249, 380, 280
-0.9929, 17, 21, 48, 52
-0.9929, 281, 25, 312, 56
-0.992906, 257, 13, 288, 44
-0.992907, 165, 241, 196, 272
-0.992907, 49, 201, 80, 232
-0.992907, 157, 61, 188, 92
-0.99291, 181, 37, 212, 68
-0.992913, 277, 185, 308, 216
-0.993045, 289, 245, 416, 276
-0.993051, 81, 65, 208, 96
-0.99312, 425, 1, 440, 64
-0.993204, 193, 13, 320, 44
-0.993234, 369, 209, 384, 272
-0.993266, 65, 193, 192, 320
-0.993289, 1, 33, 500, 96
-0.993299, 193, 97, 320, 128
-0.993308, 1, 249, 128, 312
-0.993387, 81, 257, 208, 320
-0.993438, 57, 129, 120, 375
-0.993457, 273, 165, 400, 196
-0.993473, 1, 209, 128, 272
-0.993506, 377, 209, 392, 272
-0.993508, 1, 185, 500, 248
-0.993517, 273, 149, 400, 180
-0.993583, 337, 205, 464, 236
-0.993613, 273, 137, 400, 168
-0.993646, 257, 177, 384, 208
-0.993672, 289, 97, 304, 160
-0.993708, 105, 241, 168, 368
-0.993743, 1, 233, 500, 296
-0.99375, 1, 65, 500, 128
-0.993806, 275, 33, 290, 96
-0.993813, 289, 257, 416, 288
-0.993819, 273, 217, 400, 248
-0.993886, 273, 109, 400, 140
-0.993887, 193, 25, 320, 56
-0.993924, 81, 157, 208, 188
-0.993984, 337, 217, 464, 248
-0.994014, 81, 41, 208, 72
-0.994017, 97, 317, 224, 348
-0.994033, 307, 177, 322, 240
-0.994096, 323, 217, 338, 280
-0.994128, 149, 129, 164, 192
-0.994155, 439, 1, 454, 64
-0.994181, 207, 1, 222, 64
-0.994197, 299, 65, 314, 128
-0.994216, 193, 129, 320, 160
-0.994238, 173, 145, 188, 208
-0.994266, 97, 249, 352, 312
-0.994268, 285, 9, 300, 72
-0.994269, 289, 33, 304, 96
-0.994277, 99, 81, 114, 144
-0.994292, 383, 217, 398, 280
-0.994303, 431, 1, 446, 64
-0.994305, 33, 177, 288, 240
-0.994307, 81, 145, 208, 176
-0.994333, 307, 137, 322, 200
-0.994336, 177, 1, 192, 64
-0.994338, 129, 169, 384, 232
-0.994346, 113, 133, 240, 164
-0.994348, 1, 289, 500, 352
-0.994354, 193, 37, 320, 68
-0.994372, 271, 9, 286, 72
-0.994398, 179, 161, 194, 224
-0.994399, 129, 41, 256, 72
-0.994414, 299, 113, 314, 176
-0.994423, 241, 245, 368, 276
-0.99443, 197, 1, 212, 64
-0.994468, 1, 121, 500, 184
-0.994472, 129, 53, 256, 84
-0.99448, 375, 241, 390, 304
-0.994484, 177, 1, 304, 32
-0.994517, 103, 57, 118, 120
-0.994538, 193, 73, 320, 104
-0.994544, 145, 25, 272, 56
-0.994579, 225, 153, 352, 184
-0.994613, 401, 201, 416, 264
-0.994637, 81, 53, 208, 84
-0.99464, 187, 1, 202, 64
-0.994649, 273, 193, 400, 224
-0.994665, 307, 113, 322, 176
-0.994678, 143, 121, 158, 184
-0.994687, 317, 145, 332, 208
-0.99469, 227, 1, 242, 64
-0.994724, 321, 157, 448, 188
-0.994745, 113, 93, 240, 124
-0.994759, 407, 17, 422, 80
-0.994762, 273, 121, 400, 152
-0.994766, 81, 81, 208, 112
-0.994766, 273, 177, 288, 240
-0.994767, 137, 113, 152, 176
-0.994776, 193, 117, 320, 148
-0.994788, 281, 33, 296, 96
-0.99479, 305, 229, 432, 260
-0.994797, 145, 41, 160, 104
-0.994798, 161, 137, 176, 200
-0.994801, 161, 305, 288, 336
-0.994804, 257, 85, 384, 116
-0.99483, 233, 1, 248, 64
-0.994832, 375, 185, 390, 248
-0.994853, 261, 105, 276, 168
-0.994862, 273, 17, 400, 48
-0.994894, 383, 249, 398, 312
-0.994903, 129, 81, 256, 112
-0.994921, 329, 217, 344, 280
-0.994941, 177, 321, 304, 352
-0.994984, 353, 249, 480, 280
-0.99501, 317, 225, 332, 288
-0.995028, 355, 169, 370, 232
-0.99505, 353, 229, 480, 260
-0.995061, 301, 169, 316, 232
-0.995086, 209, 305, 336, 336
-0.995095, 225, 165, 352, 196
-0.995097, 363, 241, 378, 304
-0.995099, 129, 157, 256, 188
-0.995103, 225, 229, 352, 260
-0.995104, 257, 37, 384, 68
-0.995104, 349, 161, 364, 224
-0.995119, 337, 1, 464, 32
-0.99513, 131, 129, 146, 192
-0.995152, 241, 205, 368, 236
-0.995166, 193, 209, 208, 272
-0.995169, 193, 85, 320, 116
-0.995171, 193, 61, 320, 92
-0.995177, 301, 305, 316, 368
-0.995179, 215, 81, 230, 144
-0.995189, 299, 89, 314, 152
-0.995201, 241, 97, 368, 128
-0.995207, 225, 257, 352, 288
-0.995208, 243, 297, 258, 360
-0.995229, 113, 1, 240, 32
-0.995256, 289, 269, 416, 300
-0.995261, 191, 313, 206, 375
-0.995265, 401, 9, 416, 72
-0.99527, 81, 29, 208, 60
-0.995278, 177, 217, 304, 248
-0.995279, 289, 73, 304, 136
-0.995279, 179, 137, 194, 200
-0.99528, 159, 113, 174, 176
-0.995298, 255, 81, 270, 144
-0.995301, 97, 341, 224, 372
-0.995354, 289, 317, 416, 348
-0.995359, 337, 169, 464, 200
-0.995364, 395, 201, 410, 264
-0.995367, 65, 225, 192, 288
-0.995368, 219, 1, 234, 64
-0.995368, 171, 1, 186, 64
-0.995369, 279, 1, 294, 64
-0.99537, 177, 341, 304, 372
-0.995387, 161, 169, 288, 200
-0.995415, 309, 129, 340, 375
-0.995415, 377, 145, 392, 208
-0.995416, 113, 113, 240, 144
-0.995417, 1, 45, 128, 76
-0.99542, 289, 97, 320, 352
-0.995429, 273, 73, 400, 104
-0.995439, 257, 1, 384, 32
-0.995439, 425, 265, 440, 328
-0.995441, 261, 17, 276, 80
-0.995443, 49, 101, 176, 132
-0.995452, 369, 233, 384, 296
-0.995453, 321, 29, 448, 60
-0.995457, 291, 9, 306, 72
-0.995464, 49, 129, 176, 160
-0.995524, 257, 57, 384, 88
-0.995531, 129, 145, 256, 176
-0.995549, 33, 77, 160, 108
-0.995561, 221, 33, 236, 96
-0.995566, 193, 49, 320, 80
-0.995568, 271, 201, 286, 264
-0.995575, 283, 65, 298, 128
-0.995591, 149, 1, 180, 256
-0.995597, 339, 217, 354, 280
-0.995613, 265, 41, 280, 104
-0.995614, 305, 181, 432, 212
-0.995617, 1, 209, 500, 272
-0.995627, 225, 325, 352, 356
-0.995643, 435, 33, 450, 96
-0.995645, 299, 137, 314, 200
-0.995657, 249, 265, 264, 328
-0.99566, 279, 193, 294, 256
-0.995661, 1, 17, 128, 48
-0.995671, 257, 41, 272, 104
-0.995676, 243, 1, 258, 64
-0.995678, 423, 193, 438, 256
-0.995685, 1, 9, 500, 72
-0.9957, 209, 189, 336, 220
-0.995709, 415, 33, 430, 96
-0.995714, 369, 153, 496, 184
-0.995732, 213, 9, 228, 72
-0.995738, 313, 177, 328, 240
-0.995738, 153, 105, 168, 168
-0.995747, 225, 141, 352, 172
-0.995751, 1, 257, 500, 320
-0.995752, 281, 169, 296, 232
-0.995757, 311, 305, 326, 368
-0.995761, 65, 169, 192, 200
-0.995761, 97, 329, 224, 360
-0.995782, 269, 1, 300, 256
-0.995786, 283, 97, 298, 160
-0.995786, 293, 121, 308, 184
-0.995791, 445, 73, 460, 136
-0.995793, 321, 193, 448, 224
-0.995796, 161, 237, 288, 268
-0.995801, 151, 33, 166, 96
-0.995808, 395, 241, 410, 304
-0.995819, 187, 153, 202, 216
-0.995822, 1, 201, 256, 264
-0.995825, 137, 137, 152, 200
-0.995827, 167, 145, 182, 208
-0.995833, 73, 177, 136, 304
-0.995835, 223, 297, 238, 360
-0.995868, 97, 57, 112, 120
-0.995869, 327, 193, 342, 256
-0.995873, 271, 233, 286, 296
-0.995879, 89, 89, 104, 152
-0.995884, 361, 161, 376, 224
-0.995887, 407, 201, 422, 264
-0.995898, 289, 205, 416, 236
-0.995909, 381, 185, 396, 248
-0.995918, 109, 57, 124, 120
-0.995918, 209, 293, 336, 324
-0.995935, 241, 269, 368, 300
-0.995936, 363, 185, 378, 248
-0.99594, 237, 273, 252, 336
-0.995946, 187, 201, 202, 264
-0.995949, 155, 137, 170, 200
-0.995949, 369, 261, 496, 292
-0.995954, 415, 9, 430, 72
-0.995957, 193, 201, 320, 232
-0.995962, 261, 81, 276, 144
-0.995967, 225, 217, 352, 248
-0.995971, 129, 69, 256, 100
-0.995978, 199, 217, 214, 280
-0.995981, 369, 169, 384, 232
-0.995996, 321, 93, 448, 124
-0.996003, 165, 65, 180, 128
-0.996004, 281, 1, 312, 256
-0.996005, 165, 105, 180, 168
-0.996011, 47, 1, 62, 64
-0.996015, 209, 73, 224, 136
-0.996022, 331, 241, 346, 304
-0.996031, 383, 145, 398, 208
-0.996035, 1, 161, 500, 224
-0.996035, 131, 89, 146, 152
-0.996046, 215, 121, 230, 184
-0.996057, 139, 49, 154, 112
-0.996057, 349, 241, 364, 304
-0.996058, 101, 1, 116, 64
-0.996064, 161, 181, 288, 212
-0.996065, 41, 1, 56, 64
-0.996066, 333, 129, 364, 375
-0.996074, 363, 209, 378, 272
-0.996079, 389, 193, 404, 256
-0.996088, 233, 25, 248, 88
-0.996098, 337, 13, 464, 44
-0.996102, 321, 129, 352, 375
-0.996108, 321, 121, 448, 152
-0.996112, 33, 1, 160, 32
-0.996122, 337, 273, 464, 304
-0.996125, 255, 265, 270, 328
-0.996148, 71, 89, 86, 152
-0.996151, 221, 97, 236, 160
-0.996156, 225, 73, 240, 136
-0.996186, 209, 177, 336, 208
-0.996187, 369, 37, 496, 68
-0.996209, 321, 53, 448, 84
-0.996227, 165, 1, 196, 256
-0.99623, 369, 141, 496, 172
-0.996263, 33, 89, 160, 120
-0.99629, 273, 329, 400, 360
-0.996296, 257, 281, 384, 312
-0.99635, 1, 313, 500, 375
-0.996377, 1, 29, 128, 60
-0.996389, 369, 193, 496, 224
-0.996407, 1, 157, 128, 188
-0.996435, 1, 57, 128, 88
-0.996455, 17, 341, 144, 372
-0.996456, 369, 181, 496, 212
-0.996464, 153, 129, 184, 375
-0.996475, 137, 33, 168, 288
-0.996518, 321, 41, 448, 72
-0.996525, 161, 257, 288, 288
-0.996549, 113, 305, 240, 336
-0.996567, 349, 129, 380, 375
-0.996593, 161, 281, 288, 312
-0.996632, 433, 65, 464, 320
-0.99665, 373, 129, 404, 375
-0.996657, 321, 145, 448, 176
-0.996665, 321, 105, 448, 136
-0.996675, 321, 81, 448, 112
-0.9967, 145, 13, 272, 44
-0.996765, 273, 305, 400, 336
-0.996774, 341, 1, 372, 256
-0.996778, 81, 13, 208, 44
-0.996791, 361, 129, 392, 375
-0.996826, 293, 117, 308, 148
-0.996836, 133, 133, 148, 164
-0.996843, 197, 1, 228, 256
-0.996849, 369, 61, 496, 92
-0.996864, 65, 225, 320, 288
-0.996874, 217, 1, 248, 256
-0.996907, 33, 273, 288, 336
-0.996908, 409, 33, 440, 288
-0.99691, 177, 269, 304, 300
-0.996916, 337, 285, 464, 316
-0.996925, 257, 1, 288, 256
-0.996934, 337, 313, 464, 344
-0.996936, 1, 177, 128, 208
-0.996936, 17, 329, 144, 360
-0.996962, 145, 293, 272, 324
-0.996983, 321, 65, 448, 96
-0.996994, 353, 33, 384, 288
-0.997003, 29, 1, 60, 256
-0.99703, 289, 61, 304, 92
-0.997047, 369, 301, 496, 332
-0.997048, 189, 129, 220, 375
-0.997051, 177, 153, 192, 184
-0.997063, 307, 181, 322, 212
-0.997081, 177, 145, 304, 176
-0.997092, 209, 97, 240, 352
-0.997096, 321, 233, 336, 264
-0.997126, 421, 1, 452, 256
-0.997166, 89, 1, 120, 256
-0.997169, 283, 33, 298, 64
-0.99717, 409, 129, 440, 375
-0.997171, 307, 161, 322, 192
-0.997185, 277, 97, 308, 352
-0.997206, 327, 221, 342, 252
-0.997221, 377, 217, 392, 248
-0.997227, 169, 129, 200, 375
-0.997228, 53, 97, 84, 352
-0.997229, 185, 1, 216, 256
-0.99724, 421, 129, 452, 375
-0.997246, 275, 41, 290, 72
-0.997247, 97, 81, 112, 112
-0.99725, 397, 129, 428, 375
-0.997265, 151, 153, 166, 184
-0.997275, 109, 1, 140, 256
-0.997277, 265, 1, 280, 32
-0.997309, 261, 21, 276, 52
-0.99731, 303, 129, 318, 160
-0.997314, 143, 61, 158, 92
-0.997317, 385, 97, 416, 352
-0.997328, 289, 105, 304, 136
-0.997336, 299, 117, 314, 148
-0.997357, 139, 145, 154, 176
-0.997357, 155, 137, 170, 168
-0.997376, 365, 1, 396, 256
-0.997381, 425, 13, 440, 44
-0.997396, 171, 161, 186, 192
-0.997397, 171, 149, 186, 180
-0.997397, 329, 237, 344, 268
-0.997401, 307, 149, 322, 180
-0.997426, 283, 45, 298, 76
-0.997428, 413, 25, 428, 56
-0.997459, 189, 229, 204, 260
-0.997468, 375, 241, 390, 272
-0.997471, 423, 1, 438, 32
-0.997475, 263, 113, 278, 144
-0.997476, 301, 65, 316, 96
-0.997483, 407, 29, 422, 60
-0.997484, 271, 29, 286, 60
-0.997484, 299, 105, 314, 136
-0.997503, 371, 213, 386, 244
-0.997507, 245, 97, 276, 352
-0.997516, 381, 253, 396, 284
-0.997519, 363, 249, 378, 280
-0.997533, 397, 33, 428, 288
-0.997535, 105, 69, 120, 100
-0.997545, 243, 289, 258, 320
-0.997558, 145, 141, 160, 172
-0.997562, 265, 205, 280, 236
-0.997565, 371, 229, 386, 260
-0.997566, 123, 133, 138, 164
-0.997576, 211, 25, 226, 56
-0.997576, 257, 1, 272, 32
-0.997594, 165, 153, 180, 184
-0.997594, 265, 97, 296, 352
-0.9976, 261, 69, 276, 100
-0.997602, 351, 165, 366, 196
-0.997605, 57, 1, 88, 256
-0.997606, 329, 1, 360, 256
-0.997616, 73, 65, 104, 320
-0.997617, 177, 165, 192, 196
-0.997625, 245, 1, 276, 256
-0.997628, 391, 209, 406, 240
-0.997629, 445, 73, 460, 104
-0.997633, 139, 133, 154, 164
-0.997634, 145, 153, 160, 184
-0.997639, 291, 13, 306, 44
-0.997648, 217, 29, 232, 60
-0.997652, 41, 97, 72, 352
-0.997654, 183, 153, 198, 184
-0.997665, 285, 85, 300, 116
-0.997669, 161, 141, 176, 172
-0.997669, 145, 125, 160, 156
-0.997677, 221, 97, 252, 352
-0.997677, 449, 1, 480, 256
-0.997677, 385, 265, 400, 296
-0.997684, 277, 29, 292, 60
-0.997685, 423, 29, 438, 60
-0.997689, 399, 201, 414, 232
-0.997705, 417, 37, 432, 68
-0.997706, 295, 65, 310, 96
-0.997708, 349, 249, 364, 280
-0.99771, 229, 1, 260, 256
-0.997722, 181, 241, 196, 272
-0.997728, 87, 85, 102, 116
-0.997729, 139, 121, 154, 152
-0.997736, 291, 29, 306, 60
-0.997736, 401, 33, 416, 64
-0.997743, 315, 173, 330, 204
-0.997749, 269, 41, 284, 72
-0.997754, 279, 205, 294, 236
-0.997759, 255, 73, 270, 104
-0.997764, 321, 221, 336, 252
-0.99777, 305, 109, 320, 140
-0.997771, 5, 1, 36, 256
-0.99778, 391, 265, 406, 296
-0.997784, 221, 81, 236, 112
-0.997785, 317, 149, 332, 180
-0.997786, 279, 57, 294, 88
-0.997787, 283, 109, 298, 140
-0.99779, 441, 29, 456, 60
-0.997793, 273, 5, 288, 36
-0.997807, 375, 157, 390, 188
-0.997808, 271, 189, 286, 220
-0.997808, 259, 33, 274, 64
-0.997814, 259, 101, 274, 132
-0.997824, 265, 89, 280, 120
-0.997827, 133, 145, 148, 176
-0.997829, 301, 309, 316, 340
-0.997834, 205, 21, 220, 52
-0.997835, 327, 141, 342, 172
-0.997836, 297, 137, 312, 168
-0.99784, 305, 33, 336, 288
-0.997841, 183, 173, 198, 204
-0.997842, 269, 177, 284, 208
-0.997843, 285, 1, 300, 32
-0.997843, 217, 93, 232, 124
-0.997844, 271, 217, 286, 248
-0.997846, 441, 1, 456, 32
-0.997847, 243, 301, 258, 332
-0.997849, 345, 161, 360, 192
-0.997851, 381, 153, 396, 184
-0.997854, 275, 17, 290, 48
-0.997859, 169, 237, 184, 268
-0.997859, 255, 193, 270, 224
-0.997866, 57, 197, 72, 228
-0.997871, 433, 9, 448, 40
-0.997873, 267, 13, 282, 44
-0.997874, 263, 53, 278, 84
-0.997894, 299, 197, 314, 228
-0.997894, 447, 1, 462, 32
-0.997906, 249, 289, 264, 320
-0.99791, 195, 17, 210, 48
-0.997912, 41, 1, 72, 256
-0.997917, 309, 137, 324, 168
-0.997919, 177, 229, 192, 260
-0.997924, 301, 177, 316, 208
-0.997926, 237, 297, 252, 328
-0.997927, 431, 29, 446, 60
-0.99793, 365, 153, 380, 184
-0.997932, 189, 1, 204, 32
-0.997933, 225, 1, 240, 32
-0.997935, 223, 29, 238, 60
-0.997936, 17, 65, 48, 320
-0.997943, 235, 5, 250, 36
-0.997945, 335, 241, 350, 272
-0.997949, 125, 33, 156, 288
-0.997952, 93, 93, 108, 124
-0.997953, 143, 45, 158, 76
-0.997956, 133, 121, 148, 152
-0.998083, 445, 97, 476, 352
-0.998206, 377, 1, 408, 256
-0.998218, 293, 1, 324, 256
-0.998229, 29, 97, 60, 352
-0.998412, 281, 191, 344, 206
-0.998431, 113, 135, 176, 150
-0.998433, 305, 249, 368, 264
-0.998438, 329, 243, 392, 258
-0.99844, 321, 213, 384, 228
-0.99844, 97, 59, 160, 74
-0.998445, 329, 297, 360, 312
-0.998445, 373, 227, 404, 242
-0.998446, 21, 11, 52, 26
-0.998447, 197, 325, 228, 340
-0.998449, 309, 217, 340, 232
-0.998449, 253, 211, 284, 226
-0.99845, 329, 245, 360, 260
-0.998451, 289, 93, 320, 108
-0.998451, 105, 69, 136, 84
-0.998452, 437, 1, 468, 16
-0.998453, 321, 213, 352, 228
-0.998453, 289, 117, 352, 132
-0.998454, 265, 55, 296, 70
-0.998455, 249, 31, 280, 46
-0.998457, 249, 193, 280, 208
-0.998458, 385, 217, 416, 232
-0.998458, 105, 87, 136, 102
-0.998458, 349, 253, 380, 268
-0.998459, 361, 221, 424, 236
-0.998459, 93, 71, 124, 86
-0.998459, 349, 173, 380, 188
-0.99846, 421, 7, 452, 22
-0.99846, 73, 95, 104, 110
-0.99846, 297, 117, 328, 132
-0.99846, 193, 1, 224, 16
-0.998461, 289, 311, 320, 326
-0.998461, 289, 137, 320, 152
-0.998461, 193, 231, 224, 246
-0.998462, 385, 203, 448, 218
-0.998463, 405, 15, 436, 30
-0.998463, 225, 297, 256, 312
-0.998463, 261, 217, 292, 232
-0.998463, 357, 7, 388, 22
-0.998463, 85, 111, 116, 126
-0.998464, 169, 3, 200, 18
-0.998464, 317, 237, 348, 252
-0.998465, 173, 163, 204, 178
-0.998465, 125, 59, 156, 74
-0.998465, 233, 75, 264, 90
-0.998465, 305, 169, 336, 184
-0.998466, 261, 79, 292, 94
-0.998466, 409, 25, 440, 40
-0.998466, 173, 151, 204, 166
-0.998467, 249, 73, 280, 88
-0.998467, 85, 89, 116, 104
-0.998468, 277, 113, 308, 128
-0.998469, 305, 243, 368, 258
-0.99847, 137, 161, 200, 176
-0.99847, 365, 151, 396, 166
-0.99847, 157, 167, 188, 182
-0.998471, 85, 95, 116, 110
-0.998471, 301, 163, 332, 178
-0.998471, 293, 105, 324, 120
-0.998472, 269, 87, 300, 102
-0.998472, 405, 33, 436, 48
-0.998473, 297, 189, 328, 204
-0.998473, 361, 245, 392, 260
-0.998473, 109, 63, 140, 78
-0.998473, 285, 123, 316, 138
-0.998474, 233, 19, 296, 34
-0.998475, 413, 215, 444, 230
-0.998476, 353, 207, 416, 222
-0.998476, 369, 261, 400, 276
-0.998476, 281, 197, 344, 212
-0.998476, 353, 157, 384, 172
-0.998476, 217, 39, 280, 54
-0.998477, 173, 9, 204, 24
-0.998477, 153, 63, 184, 78
-0.998478, 397, 205, 428, 220
-0.998478, 305, 155, 336, 170
-0.998478, 209, 19, 272, 34
-0.998479, 281, 199, 312, 214
-0.998479, 401, 33, 464, 48
-0.99848, 121, 145, 184, 160
-0.99848, 421, 41, 452, 56
-0.998482, 329, 237, 392, 252
-0.998483, 397, 211, 428, 226
-0.998483, 257, 67, 320, 82
-0.998484, 209, 33, 240, 48
-0.998484, 261, 5, 292, 20
-0.998484, 257, 15, 320, 30
-0.998484, 257, 109, 320, 124
-0.998486, 273, 103, 304, 118
-0.998486, 145, 153, 208, 168
-0.998486, 145, 169, 208, 184
-0.998486, 149, 161, 180, 176
-0.998486, 165, 241, 196, 256
-0.998486, 329, 253, 392, 268
-0.998486, 193, 23, 224, 38
-0.998486, 413, 201, 444, 216
-0.998488, 73, 101, 104, 116
-0.998488, 305, 195, 336, 210
-0.998488, 237, 305, 268, 320
-0.998489, 105, 65, 168, 80
-0.998491, 313, 177, 344, 192
-0.998491, 129, 65, 160, 80
-0.998491, 341, 245, 372, 260
-0.998492, 361, 229, 424, 244
-0.998492, 393, 33, 424, 48
-0.998493, 249, 29, 312, 44
-0.998494, 393, 11, 456, 26
-0.998494, 385, 215, 448, 230
-0.998495, 229, 29, 260, 44
-0.998496, 297, 175, 360, 190
-0.998496, 317, 195, 348, 210
-0.998496, 269, 97, 300, 112
-0.998497, 321, 219, 352, 234
-0.998497, 241, 17, 272, 32
-0.998498, 277, 61, 308, 76
-0.998498, 269, 67, 300, 82
-0.998498, 401, 39, 464, 54
-0.998498, 221, 39, 252, 54
-0.998499, 421, 15, 452, 30
-0.998499, 97, 143, 160, 158
-0.998501, 375, 193, 390, 320
-0.998503, 177, 169, 208, 184
-0.998504, 173, 157, 204, 172
-0.998505, 193, 331, 256, 346
-0.998505, 305, 185, 368, 200
-0.998505, 281, 17, 312, 32
-0.998507, 109, 57, 140, 72
-0.998507, 273, 9, 304, 24
-0.998507, 329, 129, 392, 144
-0.998508, 345, 165, 376, 180
-0.998508, 429, 35, 460, 50
-0.998508, 297, 137, 360, 152
-0.998508, 261, 17, 292, 32
-0.998508, 249, 9, 312, 24
-0.998509, 305, 195, 368, 210
-0.99851, 249, 59, 312, 74
-0.998511, 277, 193, 308, 208
-0.998512, 177, 41, 240, 56
-0.998512, 97, 71, 160, 86
-0.998512, 273, 181, 336, 196
-0.998512, 289, 111, 352, 126
-0.998512, 313, 147, 376, 162
-0.998513, 221, 303, 252, 318
-0.998514, 369, 249, 432, 264
-0.998514, 97, 51, 160, 66
-0.998514, 265, 199, 296, 214
-0.998514, 377, 211, 408, 226
-0.998515, 129, 125, 160, 140
-0.998516, 165, 173, 196, 188
-0.998516, 185, 1, 248, 16
-0.998517, 89, 79, 120, 94
-0.998517, 269, 39, 300, 54
-0.998517, 173, 235, 204, 250
-0.998518, 273, 143, 336, 158
-0.998518, 193, 31, 256, 46
-0.998518, 401, 17, 464, 32
-0.99852, 145, 315, 208, 330
-0.99852, 249, 73, 312, 88
-0.99852, 265, 213, 328, 228
-0.998521, 125, 143, 156, 158
-0.998521, 105, 151, 168, 166
-0.998522, 261, 29, 292, 44
-0.998523, 273, 1, 304, 16
-0.998523, 353, 215, 416, 230
-0.998523, 265, 49, 296, 64
-0.998524, 369, 235, 432, 250
-0.998524, 137, 67, 200, 82
-0.998524, 273, 31, 304, 46
-0.998526, 257, 195, 320, 210
-0.998526, 353, 5, 416, 20
-0.998527, 97, 157, 160, 172
-0.998528, 401, 39, 432, 54
-0.998528, 305, 145, 336, 160
-0.998532, 241, 203, 304, 218
-0.998534, 169, 237, 232, 252
-0.998534, 225, 59, 288, 74
-0.998534, 97, 43, 160, 58
-0.998534, 285, 73, 316, 88
-0.998534, 241, 99, 304, 114
-0.998535, 329, 155, 392, 170
-0.998535, 377, 255, 440, 270
-0.998535, 289, 123, 352, 138
-0.998535, 369, 35, 432, 50
-0.998536, 273, 73, 336, 88
-0.998536, 217, 25, 280, 40
-0.998537, 153, 149, 184, 164
-0.998537, 269, 23, 300, 38
-0.998539, 113, 129, 176, 144
-0.998539, 337, 221, 400, 236
-0.99854, 161, 161, 192, 176
-0.99854, 217, 77, 280, 92
-0.99854, 401, 1, 464, 16
-0.998541, 265, 173, 328, 188
-0.998542, 329, 123, 392, 138
-0.998543, 345, 265, 408, 280
-0.998543, 377, 5, 440, 20
-0.998544, 305, 169, 368, 184
-0.998544, 169, 161, 232, 176
-0.998544, 385, 265, 448, 280
-0.998544, 185, 25, 248, 40
-0.998545, 217, 301, 280, 316
-0.998547, 177, 79, 240, 94
-0.998547, 425, 37, 488, 52
-0.998548, 289, 159, 352, 174
-0.998548, 105, 79, 136, 94
-0.998548, 329, 135, 392, 150
-0.998552, 193, 337, 256, 352
-0.998552, 337, 251, 368, 266
-0.998552, 249, 133, 312, 148
-0.998553, 417, 11, 480, 26
-0.998553, 293, 111, 324, 126
-0.998553, 369, 221, 400, 236
-0.998553, 97, 113, 160, 128
-0.998553, 409, 101, 472, 116
-0.998554, 377, 241, 440, 256
-0.998555, 281, 129, 344, 144
-0.998555, 145, 143, 176, 158
-0.998555, 193, 11, 256, 26
-0.998555, 129, 49, 192, 64
-0.998555, 249, 115, 312, 130
-0.998556, 137, 155, 168, 170
-0.998556, 201, 133, 264, 148
-0.998557, 393, 23, 456, 38
-0.998559, 141, 133, 172, 148
-0.998559, 193, 343, 256, 358
-0.99856, 97, 83, 160, 98
-0.99856, 241, 93, 304, 108
-0.998561, 329, 35, 392, 50
-0.998561, 241, 49, 304, 64
-0.998561, 273, 137, 336, 152
-0.998561, 417, 35, 448, 50
-0.998561, 409, 107, 472, 122
-0.998562, 365, 215, 396, 230
-0.998562, 177, 167, 240, 182
-0.998563, 257, 23, 320, 38
-0.998563, 241, 35, 304, 50
-0.998564, 97, 119, 160, 134
-0.998565, 329, 189, 392, 204
-0.998566, 241, 79, 304, 94
-0.998566, 241, 87, 304, 102
-0.998567, 209, 309, 272, 324
-0.998567, 361, 159, 424, 174
-0.998569, 217, 103, 280, 118
-0.99857, 145, 145, 208, 160
-0.99857, 161, 21, 224, 36
-0.99857, 153, 177, 216, 192
-0.998571, 217, 13, 280, 28
-0.998571, 329, 117, 392, 132
-0.998572, 105, 37, 168, 52
-0.998572, 233, 1, 296, 16
-0.998572, 233, 195, 296, 210
-0.998572, 153, 11, 216, 26
-0.998572, 137, 43, 200, 58
-0.998573, 377, 209, 440, 224
-0.998573, 217, 51, 280, 66
-0.998579, 157, 155, 188, 170
-0.998591, 121, 137, 152, 152
-0.998605, 361, 251, 392, 266
-0.998607, 125, 149, 156, 164
-0.99861, 305, 97, 320, 224
-0.99864, 299, 81, 314, 208
-0.998641, 285, 67, 316, 82
-0.998659, 293, 33, 308, 160
-0.998748, 317, 33, 348, 288
-0.998751, 373, 145, 388, 272
-0.998758, 317, 243, 348, 258
-0.998771, 437, 1, 452, 128
-0.998791, 141, 129, 172, 375
-0.998799, 425, 177, 440, 304
-0.998801, 159, 65, 174, 192
-0.998802, 93, 81, 108, 208
-0.99881, 233, 129, 264, 375
-0.99881, 379, 145, 394, 272
-0.998813, 329, 225, 344, 352
-0.998817, 305, 161, 320, 288
-0.998825, 291, 97, 306, 224
-0.998829, 381, 193, 396, 320
-0.998833, 103, 49, 118, 176
-0.99884, 279, 193, 294, 320
-0.998848, 261, 1, 276, 128
-0.998857, 281, 1, 296, 128
-0.998858, 417, 177, 432, 304
-0.998866, 221, 1, 236, 128
-0.998869, 367, 177, 382, 304
-0.998874, 87, 81, 102, 208
-0.998876, 323, 209, 338, 336
-0.998891, 423, 1, 438, 128
-0.998896, 161, 113, 176, 240
-0.998897, 445, 49, 460, 176
-0.998911, 299, 129, 314, 256
-0.998913, 235, 1, 250, 128
-0.998919, 155, 113, 170, 240
-0.998926, 365, 225, 380, 352
-0.998934, 101, 1, 116, 128
-0.998935, 311, 161, 326, 288
-0.998937, 335, 209, 350, 336
-0.998937, 451, 33, 466, 160
-0.99894, 349, 225, 364, 352
-0.998942, 147, 49, 162, 176
-0.998947, 275, 33, 290, 160
-0.998953, 317, 129, 332, 256
-0.998956, 183, 1, 198, 128
-0.998958, 257, 65, 272, 192
-0.998962, 193, 129, 208, 256
-0.998968, 153, 65, 168, 192
-0.998968, 413, 17, 428, 144
-0.998969, 271, 209, 286, 336
-0.998969, 227, 17, 242, 144
-0.99897, 425, 241, 440, 368
-0.998978, 219, 49, 234, 176
-0.998983, 395, 193, 410, 320
-0.998984, 407, 17, 422, 144
-0.998985, 389, 209, 404, 336
-0.998988, 345, 161, 360, 288
-0.998989, 211, 113, 226, 240
-0.99899, 431, 177, 446, 304
-0.99899, 203, 129, 218, 256
-0.998991, 177, 145, 192, 272
-0.999006, 323, 129, 338, 256
-0.999007, 109, 97, 140, 352
-0.99901, 169, 65, 184, 192
-0.999011, 183, 145, 198, 272
-0.999011, 265, 113, 280, 240
-0.999014, 253, 241, 268, 368
-0.999024, 311, 241, 326, 368
-0.999025, 351, 161, 366, 288
-0.999025, 443, 1, 458, 128
-0.999029, 287, 33, 302, 160
-0.99903, 159, 17, 174, 144
-0.99903, 251, 1, 266, 128
-0.999032, 281, 145, 296, 272
-0.999041, 95, 1, 110, 128
-0.999042, 285, 209, 300, 336
-0.999046, 329, 113, 344, 240
-0.999047, 297, 241, 312, 368
-0.999051, 153, 17, 168, 144
-0.999052, 359, 225, 374, 352
-0.999057, 139, 65, 154, 192
-0.999061, 359, 145, 374, 272
-0.999061, 285, 81, 300, 208
-0.999065, 263, 65, 278, 192
-0.999069, 271, 161, 286, 288
-0.999074, 207, 1, 222, 128
-0.999075, 269, 33, 284, 160
-0.999075, 169, 225, 184, 352
-0.999078, 401, 177, 416, 304
-0.99908, 81, 81, 96, 208
-0.999081, 167, 113, 182, 240
-0.999081, 107, 1, 122, 128
-0.999086, 409, 193, 424, 320
-0.999086, 299, 33, 314, 160
-0.999095, 1, 249, 256, 312
-0.999099, 183, 225, 198, 352
-0.9991, 401, 1, 416, 128
-0.999106, 289, 161, 304, 288
-0.999106, 223, 241, 238, 368
-0.999108, 83, 1, 98, 128
-0.999114, 215, 1, 230, 128
-0.999115, 311, 113, 326, 240
-0.999116, 67, 81, 82, 208
-0.999118, 317, 225, 332, 352
-0.999122, 129, 193, 192, 320
-0.999123, 129, 81, 144, 208
-0.999129, 265, 193, 280, 320
-0.999129, 235, 241, 250, 368
-0.999131, 291, 209, 306, 336
-0.999131, 147, 113, 162, 240
-0.999132, 329, 161, 344, 288
-0.999134, 25, 1, 40, 128
-0.999139, 85, 97, 116, 352
-0.99914, 243, 129, 258, 256
-0.999141, 341, 81, 356, 208
-0.999141, 89, 1, 104, 128
-0.999141, 211, 49, 226, 176
-0.999144, 175, 65, 190, 192
-0.999149, 343, 225, 358, 352
-0.99915, 203, 177, 218, 304
-0.999152, 447, 97, 462, 224
-0.999153, 217, 97, 232, 224
-0.999161, 189, 1, 204, 128
-0.999162, 75, 81, 90, 208
-0.999163, 169, 17, 184, 144
-0.999163, 353, 113, 368, 240
-0.999166, 377, 65, 392, 192
-0.999176, 429, 1, 444, 128
-0.999177, 245, 1, 260, 128
-0.999178, 363, 97, 378, 224
-0.999179, 385, 145, 400, 272
-0.999181, 419, 241, 434, 368
-0.999187, 393, 1, 408, 128
-0.999187, 201, 1, 216, 128
-0.999187, 99, 97, 114, 224
-0.999192, 31, 17, 46, 144
-0.999194, 305, 49, 320, 176
-0.999196, 123, 65, 138, 192
-0.999199, 317, 177, 332, 304
-0.999199, 39, 1, 54, 128
-0.999298, 129, 129, 160, 375
-0.999305, 1, 97, 32, 352
-0.999498, 97, 97, 128, 352
-0.999585, 469, 33, 500, 288
-0.999632, 105, 71, 120, 86
-0.999632, 401, 211, 416, 226
-0.999632, 275, 211, 290, 226
-0.999632, 193, 231, 208, 246
-0.999632, 237, 309, 252, 324
-0.999632, 289, 59, 304, 74
-0.999633, 389, 211, 404, 226
-0.999633, 241, 7, 256, 22
-0.999634, 443, 75, 458, 90
-0.999635, 305, 315, 320, 330
-0.999636, 263, 77, 278, 92
-0.999636, 299, 145, 314, 160
-0.999636, 189, 175, 204, 190
-0.999637, 445, 107, 460, 122
-0.999637, 299, 173, 314, 188
-0.999638, 181, 159, 196, 174
-0.999639, 151, 155, 166, 170
-0.999639, 383, 255, 398, 270
-0.999639, 283, 1, 298, 16
-0.99964, 285, 9, 300, 24
-0.99964, 425, 13, 440, 28
-0.99964, 341, 161, 356, 176
-0.999641, 385, 263, 400, 278
-0.999641, 305, 139, 320, 154
-0.999642, 391, 275, 406, 290
-0.999642, 257, 79, 272, 94
-0.999642, 259, 111, 274, 126
-0.999643, 173, 167, 188, 182
-0.999643, 243, 1, 258, 16
-0.999644, 259, 85, 274, 100
-0.999646, 121, 143, 136, 158
-0.999647, 275, 49, 290, 64
-0.999647, 373, 245, 388, 260
-0.999647, 283, 101, 298, 116
-0.999648, 271, 205, 286, 220
-0.999649, 417, 31, 432, 46
-0.999651, 139, 151, 154, 166
-0.999652, 267, 5, 282, 20
-0.999653, 261, 17, 276, 32
-0.999654, 325, 141, 340, 156
-0.999654, 279, 89, 294, 104
-0.999654, 123, 133, 138, 148
-0.999654, 371, 255, 386, 270
-0.999655, 157, 135, 172, 150
-0.999655, 323, 191, 338, 206
-0.999655, 181, 171, 196, 186
-0.999656, 265, 27, 280, 42
-0.999656, 435, 9, 450, 24
-0.999657, 269, 51, 284, 66
-0.999657, 289, 101, 304, 116
-0.999658, 359, 3, 374, 18
-0.999658, 151, 161, 166, 176
-0.999659, 423, 37, 438, 52
-0.99966, 291, 29, 306, 44
-0.99966, 261, 35, 276, 50
-0.99966, 267, 91, 282, 106
-0.999661, 301, 107, 316, 122
-0.999661, 449, 1, 464, 16
-0.999661, 247, 73, 262, 88
-0.999662, 293, 119, 308, 134
-0.999662, 283, 33, 298, 48
-0.999664, 265, 207, 280, 222
-0.999666, 95, 79, 110, 94
-0.999666, 297, 131, 312, 146
-0.999666, 401, 37, 416, 52
-0.999667, 301, 73, 316, 88
-0.999668, 413, 43, 428, 58
-0.999669, 317, 147, 332, 162
-0.99967, 257, 73, 272, 88
-0.99967, 87, 91, 102, 106
-0.99967, 141, 145, 156, 160
-0.999671, 143, 73, 158, 88
-0.999672, 141, 67, 156, 82
-0.999672, 307, 155, 322, 170
-0.999673, 235, 7, 250, 22
-0.999674, 329, 237, 344, 252
-0.999675, 269, 197, 284, 212
-0.999677, 313, 187, 328, 202
-0.999678, 289, 71, 304, 86
-0.999678, 293, 13, 308, 28
-0.99968, 387, 269, 402, 284
-0.99968, 307, 169, 322, 184
-0.999681, 379, 261, 394, 276
-0.999681, 249, 33, 264, 48
-0.999682, 445, 101, 460, 116
-0.999683, 411, 33, 426, 48
-0.999683, 431, 33, 446, 48
-0.999683, 175, 159, 190, 174
-0.999685, 303, 121, 318, 136
-0.999686, 347, 165, 362, 180
-0.999687, 349, 251, 364, 266
-0.999687, 325, 219, 340, 234
-0.999688, 443, 1, 458, 16
-0.999689, 377, 251, 392, 266
-0.999689, 425, 5, 440, 20
-0.999689, 371, 215, 386, 230
-0.99969, 171, 149, 186, 164
-0.999691, 187, 235, 202, 250
-0.999692, 131, 139, 146, 154
-0.999694, 303, 133, 318, 148
-0.999695, 309, 175, 324, 190
-0.999699, 281, 45, 296, 60
-0.999699, 281, 39, 296, 54
-0.999701, 163, 159, 178, 174
-0.999703, 307, 181, 322, 196
-0.999703, 365, 251, 380, 266
-0.999705, 275, 37, 290, 52
-0.999707, 457, 129, 488, 375
-0.999707, 243, 303, 258, 318
-0.999708, 283, 95, 298, 110
-0.999708, 281, 213, 296, 228
-0.999708, 179, 165, 194, 180
-0.999711, 291, 107, 306, 122
-0.999714, 277, 99, 292, 114
-0.999716, 299, 67, 314, 82
-0.999717, 145, 155, 160, 170
-0.999719, 307, 163, 322, 178
-0.99972, 321, 241, 336, 256
-0.999722, 269, 41, 284, 56
-0.999722, 299, 113, 314, 128
-0.999725, 169, 155, 184, 170
-0.999725, 147, 65, 162, 80
-0.999729, 331, 243, 346, 258
-0.999734, 407, 39, 422, 54
-0.999737, 417, 37, 432, 52
-0.999737, 105, 81, 120, 96
-0.999739, 295, 125, 310, 140
-0.999748, 291, 65, 306, 80
-0.999768, 99, 73, 114, 88
-0.999773, 169, 161, 184, 176
-0.999782, 275, 43, 290, 58
-1.00099, 469, 129, 500, 375
-1.00833, 105, 193, 168, 320
