2051
-0.516798, 1, 97, 449, 352
-0.51814, 193, 1, 448, 500
-0.616652, 1, 1, 449, 500
-0.625524, 1, 193, 449, 448
-0.630999, 1, 1, 449, 256
-0.665856, 33, 129, 288, 384
-0.669699, 193, 97, 448, 352
-0.671967, 97, 1, 352, 500
-0.730308, 33, 257, 288, 500
-0.782792, 1, 1, 256, 500
-0.787876, 33, 33, 288, 288
-0.815274, 161, 193, 416, 448
-0.872261, 273, 1, 400, 500
-0.884197, 209, 1, 336, 500
-0.887425, 209, 97, 336, 352
-0.894174, 209, 225, 336, 480
-0.897334, 321, 1, 448, 500
-0.909626, 65, 97, 192, 352
-0.913263, 1, 97, 449, 224
-0.914347, 193, 1, 448, 256
-0.917196, 113, 97, 240, 352
-0.921133, 113, 1, 240, 500
-0.922851, 305, 65, 432, 320
-0.924275, 113, 193, 240, 448
-0.924333, 257, 65, 384, 320
-0.926715, 33, 113, 288, 240
-0.92724, 161, 129, 288, 384
-0.930261, 161, 257, 288, 500
-0.930279, 1, 145, 449, 272
-0.931244, 161, 1, 288, 500
-0.932251, 113, 1, 240, 256
-0.93511, 33, 1, 160, 500
-0.937601, 209, 241, 272, 368
-0.938116, 193, 257, 320, 384
-0.938845, 33, 209, 288, 336
-0.939759, 193, 81, 448, 208
-0.940755, 1, 97, 128, 352
-0.940988, 193, 241, 448, 368
-0.941092, 33, 161, 288, 288
-0.942486, 33, 65, 288, 192
-0.943076, 273, 257, 400, 500
-0.943117, 97, 257, 352, 384
-0.944794, 1, 49, 449, 176
-0.945264, 1, 273, 449, 400
-0.945872, 209, 1, 336, 256
-0.947292, 33, 321, 288, 448
-0.9478, 257, 161, 384, 416
-0.948722, 65, 1, 192, 256
-0.950632, 193, 193, 448, 320
-0.951042, 321, 193, 448, 448
-0.951241, 1, 1, 128, 256
-0.951386, 1, 193, 449, 320
-0.952732, 33, 193, 160, 448
-0.95277, 209, 113, 272, 240
-0.953531, 33, 369, 288, 496
-0.955657, 201, 233, 264, 296
-0.955808, 209, 97, 336, 224
-0.956204, 81, 121, 144, 184
-0.957094, 209, 209, 336, 336
-0.958389, 161, 129, 416, 256
-0.959094, 161, 305, 416, 432
-0.95929, 225, 193, 288, 320
-0.960641, 193, 305, 320, 432
-0.961598, 1, 321, 449, 448
-0.961924, 161, 1, 288, 256
-0.962041, 201, 193, 264, 320
-0.962376, 161, 353, 416, 480
-0.963584, 105, 129, 168, 192
-0.963749, 273, 81, 400, 208
-0.963884, 97, 97, 160, 224
-0.964306, 201, 289, 264, 416
-0.964558, 161, 209, 288, 336
-0.965115, 73, 97, 136, 224
-0.965517, 81, 113, 208, 240
-0.965985, 233, 241, 296, 368
-0.966585, 321, 81, 448, 208
-0.966643, 241, 97, 304, 224
-0.966763, 209, 145, 336, 272
-0.967209, 97, 97, 160, 160
-0.968021, 201, 281, 264, 344
-0.968853, 1, 369, 449, 496
-0.969025, 385, 225, 448, 352
-0.969051, 201, 337, 264, 464
-0.969155, 121, 113, 184, 240
-0.969264, 209, 129, 272, 192
-0.969421, 129, 81, 256, 208
-0.970147, 249, 177, 312, 304
-0.970344, 73, 97, 136, 160
-0.97038, 57, 129, 120, 192
-0.970387, 385, 81, 448, 208
-0.970481, 225, 233, 288, 296
-0.970915, 33, 145, 160, 272
-0.971404, 97, 137, 128, 200
-0.971906, 201, 209, 264, 272
-0.971968, 113, 305, 240, 432
-0.972033, 113, 121, 144, 184
-0.97237, 93, 113, 124, 240
-0.972433, 193, 353, 320, 480
-0.97248, 257, 257, 320, 384
-0.972981, 209, 129, 272, 384
-0.973343, 281, 81, 344, 208
-0.973397, 201, 353, 264, 416
-0.973452, 201, 313, 264, 376
-0.973641, 241, 273, 368, 400
-0.974065, 233, 105, 296, 168
-0.974117, 113, 241, 240, 368
-0.974288, 97, 145, 160, 272
-0.974383, 201, 257, 264, 320
-0.974612, 121, 105, 184, 168
-0.974668, 81, 145, 144, 208
-0.974862, 85, 121, 116, 184
-0.974958, 233, 257, 296, 320
-0.975107, 265, 297, 328, 360
-0.975598, 233, 209, 296, 272
-0.975602, 1, 97, 128, 224
-0.975724, 193, 281, 320, 344
-0.975802, 209, 225, 272, 480
-0.975876, 129, 129, 256, 256
-0.975911, 105, 113, 136, 240
-0.976052, 49, 65, 176, 192
-0.976344, 101, 105, 132, 168
-0.976438, 125, 121, 156, 184
-0.976556, 1, 273, 256, 400
-0.977084, 217, 209, 248, 336
-0.977138, 169, 305, 232, 432
-0.977291, 113, 353, 240, 480
-0.977488, 257, 209, 384, 336
-0.977763, 257, 97, 320, 160
-0.977847, 73, 145, 136, 272
-0.977944, 233, 233, 264, 296
-0.977973, 49, 105, 176, 168
-0.978, 89, 65, 152, 320
-0.978022, 117, 97, 148, 224
-0.978118, 281, 289, 344, 416
-0.978155, 193, 249, 320, 312
-0.97833, 81, 161, 208, 288
-0.978361, 177, 209, 240, 336
-0.978653, 201, 153, 264, 216
-0.978712, 229, 225, 260, 352
-0.979494, 193, 305, 320, 368
-0.97968, 241, 209, 272, 336
-0.979746, 217, 257, 248, 384
-0.980005, 321, 241, 448, 368
-0.980063, 233, 289, 296, 416
-0.980124, 49, 105, 112, 168
-0.980164, 361, 257, 424, 384
-0.980517, 385, 89, 448, 152
-0.980538, 385, 225, 448, 288
-0.980748, 1, 1, 449, 128
-0.98077, 217, 225, 248, 288
-0.981133, 297, 89, 360, 152
-0.981157, 193, 329, 320, 392
-0.981277, 273, 209, 336, 336
-0.981367, 385, 265, 448, 328
-0.981656, 125, 97, 156, 160
-0.98192, 117, 145, 148, 208
-0.981965, 169, 257, 232, 384
-0.982015, 249, 161, 280, 288
-0.982198, 217, 249, 248, 312
-0.982233, 169, 337, 232, 400
-0.982531, 81, 129, 208, 192
-0.982772, 213, 281, 244, 344
-0.982851, 169, 313, 232, 376
-0.982855, 169, 289, 232, 352
-0.982893, 49, 113, 112, 240
-0.982941, 257, 145, 320, 208
-0.982996, 97, 49, 160, 176
-0.983033, 97, 161, 128, 224
-0.983105, 273, 321, 336, 384
-0.983302, 201, 177, 264, 240
-0.983394, 261, 241, 292, 368
-0.983403, 209, 121, 336, 184
-0.983556, 361, 265, 424, 328
-0.983584, 185, 145, 248, 272
-0.983628, 129, 137, 256, 200
-0.983676, 137, 121, 168, 184
-0.983677, 305, 81, 368, 208
-0.983683, 169, 257, 232, 320
-0.983708, 201, 377, 264, 440
-0.983716, 249, 65, 312, 320
-0.983728, 361, 81, 424, 208
-0.983773, 289, 281, 352, 344
-0.983776, 329, 81, 392, 144
-0.983788, 249, 233, 312, 296
-0.983798, 249, 321, 312, 384
-0.983819, 193, 225, 320, 288
-0.98392, 265, 273, 328, 336
-0.983998, 233, 169, 296, 232
-0.984044, 237, 209, 268, 272
-0.98406, 33, 129, 160, 192
-0.984078, 217, 129, 248, 256
-0.984172, 81, 81, 112, 208
-0.984176, 229, 113, 260, 240
-0.984311, 385, 145, 448, 272
-0.984345, 257, 89, 384, 152
-0.984348, 129, 129, 192, 192
-0.98453, 209, 193, 336, 256
-0.984561, 201, 401, 264, 464
-0.984594, 241, 49, 304, 176
-0.98461, 249, 257, 280, 384
-0.984665, 129, 33, 384, 160
-0.984697, 73, 105, 104, 168
-0.984725, 233, 345, 296, 408
-0.984993, 241, 97, 272, 224
-0.98502, 209, 49, 336, 176
-0.985043, 193, 161, 320, 224
-0.985136, 217, 129, 248, 192
-0.985137, 113, 97, 176, 352
-0.985216, 169, 353, 232, 480
-0.985232, 85, 145, 116, 208
-0.985246, 129, 97, 256, 160
-0.985327, 289, 289, 416, 416
-0.985348, 193, 369, 320, 432
-0.985358, 225, 321, 288, 384
-0.98543, 177, 217, 240, 280
-0.985488, 65, 97, 128, 352
-0.98559, 289, 33, 416, 160
-0.985652, 273, 249, 336, 312
-0.985659, 257, 97, 288, 224
-0.985711, 397, 273, 428, 336
-0.985715, 97, 369, 128, 496
-0.985758, 145, 105, 208, 168
-0.98577, 229, 121, 260, 184
-0.985854, 201, 425, 264, 488
-0.985872, 249, 209, 280, 272
-0.985872, 105, 153, 168, 216
-0.98594, 97, 353, 160, 480
-0.986079, 81, 153, 208, 216
-0.986131, 257, 305, 320, 432
-0.986157, 285, 81, 316, 208
-0.986172, 217, 353, 248, 416
-0.986188, 321, 265, 448, 328
-0.986206, 417, 281, 448, 344
-0.986216, 241, 321, 368, 448
-0.986221, 261, 193, 292, 320
-0.986227, 89, 97, 120, 160
-0.986395, 73, 169, 136, 232
-0.986415, 73, 129, 104, 192
-0.986463, 273, 273, 400, 336
-0.986465, 113, 297, 240, 360
-0.986513, 329, 65, 392, 192
-0.986542, 241, 249, 368, 312
-0.986627, 321, 129, 448, 256
-0.986632, 377, 305, 440, 432
-0.986819, 73, 369, 136, 496
-0.986846, 385, 289, 448, 352
-0.986925, 213, 353, 244, 480
-0.98694, 113, 97, 144, 160
-0.986972, 249, 241, 280, 304
-0.986994, 241, 297, 304, 360
-0.987019, 145, 225, 272, 288
-0.987028, 329, 1, 392, 500
-0.987053, 361, 89, 424, 152
-0.9871, 129, 81, 160, 208
-0.987111, 137, 65, 200, 192
-0.987283, 209, 97, 336, 160
-0.987307, 321, 265, 384, 328
-0.98732, 405, 225, 436, 352
-0.987331, 241, 113, 272, 176
-0.987393, 321, 257, 384, 384
-0.987413, 33, 153, 160, 216
-0.987495, 33, 337, 160, 464
-0.987508, 113, 321, 240, 384
-0.987577, 241, 305, 368, 368
-0.987685, 321, 89, 448, 152
-0.987752, 97, 361, 128, 424
-0.987758, 33, 193, 160, 320
-0.987761, 257, 177, 320, 240
-0.987767, 213, 201, 244, 264
-0.987819, 229, 177, 260, 304
-0.987852, 97, 161, 128, 288
-0.98788, 89, 133, 152, 164
-0.987903, 169, 361, 232, 424
-0.987975, 217, 321, 248, 384
-0.988131, 113, 401, 240, 464
-0.988144, 113, 345, 240, 408
-0.988195, 273, 281, 304, 344
-0.988213, 113, 425, 240, 488
-0.988226, 249, 153, 280, 216
-0.988307, 237, 329, 268, 392
-0.988307, 249, 161, 312, 416
-0.988342, 169, 393, 232, 456
-0.988381, 113, 377, 240, 440
-0.988382, 305, 193, 432, 320
-0.988446, 113, 265, 240, 328
-0.988465, 273, 65, 336, 320
-0.988491, 209, 1, 272, 500
-0.988565, 105, 65, 136, 192
-0.988702, 193, 393, 320, 456
-0.98876, 169, 145, 232, 208
-0.988781, 385, 193, 448, 256
-0.988781, 273, 217, 336, 280
-0.988837, 1, 105, 128, 168
-0.988849, 209, 245, 272, 276
-0.988881, 105, 417, 136, 480
-0.988891, 225, 337, 288, 464
-0.989003, 73, 49, 136, 176
-0.989039, 97, 385, 128, 448
-0.989056, 385, 137, 448, 200
-0.989074, 213, 305, 244, 432
-0.989143, 137, 97, 168, 160
-0.989173, 117, 145, 148, 272
-0.989218, 169, 161, 232, 416
-0.989281, 269, 97, 300, 224
-0.989299, 81, 129, 112, 256
-0.989331, 345, 241, 408, 304
-0.989343, 61, 105, 92, 168
-0.989422, 285, 305, 316, 368
-0.989474, 297, 321, 360, 384
-0.989507, 233, 145, 296, 208
-0.98956, 233, 257, 296, 500
-0.989581, 241, 217, 368, 280
-0.989605, 89, 105, 152, 136
-0.989635, 145, 201, 272, 264
-0.989707, 285, 273, 316, 336
-0.989716, 89, 117, 152, 148
-0.989745, 69, 97, 100, 224
-0.989827, 405, 81, 436, 208
-0.989832, 65, 105, 128, 136
-0.989844, 73, 145, 136, 176
-0.989914, 177, 257, 240, 500
-0.990021, 393, 81, 424, 208
-0.990072, 405, 129, 436, 256
-0.990101, 97, 329, 128, 392
-0.990142, 169, 417, 232, 480
-0.99016, 169, 193, 232, 256
-0.990174, 265, 249, 296, 312
-0.990207, 201, 233, 264, 264
-0.990214, 113, 109, 176, 140
-0.990235, 33, 257, 160, 384
-0.990253, 65, 117, 128, 148
-0.990298, 261, 105, 292, 168
-0.990326, 265, 1, 328, 500
-0.990379, 201, 65, 264, 192
-0.990384, 33, 177, 160, 240
-0.990388, 169, 81, 232, 208
-0.99039, 369, 65, 432, 320
-0.990421, 233, 241, 296, 272
-0.990428, 113, 177, 240, 240
-0.990453, 229, 177, 260, 240
-0.990509, 249, 185, 280, 248
-0.990547, 385, 273, 416, 336
-0.990547, 261, 305, 292, 368
-0.990562, 33, 129, 288, 192
-0.990576, 113, 141, 176, 172
-0.990607, 209, 257, 272, 288
-0.990629, 65, 133, 128, 164
-0.990641, 385, 225, 448, 480
-0.990658, 197, 305, 228, 432
-0.990684, 113, 121, 176, 152
-0.990702, 309, 281, 340, 344
-0.990755, 241, 1, 304, 500
-0.990761, 89, 161, 152, 192
-0.990781, 405, 137, 436, 200
-0.990792, 109, 337, 140, 464
-0.990831, 261, 289, 292, 416
-0.990838, 257, 145, 384, 272
-0.990841, 261, 177, 292, 240
-0.990906, 289, 33, 352, 160
-0.99097, 305, 1, 368, 500
-0.990992, 385, 433, 448, 496
-0.99102, 273, 65, 336, 128
-0.991049, 297, 89, 328, 152
-0.991057, 201, 349, 264, 380
-0.991092, 149, 113, 180, 176
-0.991109, 97, 297, 128, 360
-0.991117, 417, 241, 448, 368
-0.991158, 133, 129, 164, 256
-0.991161, 201, 285, 264, 316
-0.991172, 193, 417, 320, 480
-0.99118, 361, 201, 424, 264
-0.991241, 273, 97, 336, 128
-0.991242, 385, 269, 448, 300
-0.991314, 293, 289, 324, 416
-0.991332, 225, 229, 288, 260
-0.991336, 201, 273, 264, 304
-0.991341, 109, 345, 140, 408
-0.991363, 201, 337, 264, 368
-0.991394, 269, 217, 300, 280
-0.991404, 209, 361, 272, 392
-0.991421, 97, 289, 128, 416
-0.991438, 417, 97, 448, 224
-0.991449, 93, 65, 124, 192
-0.991458, 209, 141, 272, 172
-0.991458, 273, 193, 304, 320
-0.991477, 297, 89, 360, 120
-0.991502, 297, 281, 328, 344
-0.991512, 289, 297, 416, 360
-0.991517, 241, 253, 304, 284
-0.991518, 109, 321, 140, 384
-0.991533, 49, 81, 176, 144
-0.99156, 201, 221, 264, 252
-0.991567, 201, 325, 264, 356
-0.991602, 197, 313, 228, 376
-0.991636, 361, 209, 424, 336
-0.991643, 201, 313, 264, 344
-0.991644, 297, 65, 360, 128
-0.991692, 233, 273, 264, 400
-0.991727, 249, 73, 312, 136
-0.991736, 41, 113, 104, 144
-0.99174, 85, 169, 116, 232
-0.991745, 201, 185, 264, 216
-0.99175, 233, 353, 296, 384
-0.991767, 201, 301, 264, 332
-0.991773, 249, 105, 312, 136
-0.991776, 225, 117, 288, 148
-0.991781, 73, 305, 136, 432
-0.991802, 201, 153, 264, 184
-0.991817, 241, 329, 368, 392
-0.991833, 97, 369, 160, 432
-0.991835, 129, 33, 256, 160
-0.991842, 385, 233, 448, 264
-0.991875, 33, 385, 160, 448
-0.991895, 169, 169, 232, 232
-0.991903, 257, 313, 320, 344
-0.991941, 25, 105, 88, 168
-0.991943, 113, 153, 176, 184
-0.991971, 201, 165, 264, 196
-0.991983, 309, 81, 340, 208
-0.991984, 201, 197, 264, 228
-0.991999, 201, 209, 264, 240
-0.992012, 201, 89, 264, 152
-0.99202, 197, 337, 228, 400
-0.992052, 217, 129, 280, 160
-0.992063, 297, 241, 360, 368
-0.992075, 41, 125, 104, 156
-0.992096, 257, 301, 320, 332
-0.992106, 201, 373, 264, 404
-0.992134, 405, 193, 436, 256
-0.992152, 289, 293, 352, 324
-0.992159, 105, 137, 136, 168
-0.992164, 393, 225, 424, 352
-0.992175, 121, 125, 152, 156
-0.99218, 329, 89, 392, 120
-0.992195, 377, 1, 440, 500
-0.992196, 137, 125, 200, 156
-0.9922, 177, 237, 240, 268
-0.992203, 257, 189, 320, 220
-0.992212, 233, 269, 296, 300
-0.992215, 101, 125, 132, 156
-0.992232, 169, 353, 232, 384
-0.992235, 169, 301, 232, 332
-0.992242, 117, 137, 148, 168
-0.992251, 377, 309, 440, 340
-0.992255, 281, 325, 344, 356
-0.992257, 233, 213, 296, 244
-0.992258, 169, 313, 232, 344
-0.992258, 409, 257, 440, 320
-0.992267, 277, 97, 308, 160
-0.992269, 257, 289, 320, 320
-0.992279, 169, 341, 232, 372
-0.992283, 49, 145, 112, 176
-0.992291, 73, 353, 136, 416
-0.992291, 249, 153, 312, 184
-0.992293, 89, 137, 120, 168
-0.992297, 169, 289, 232, 320
-0.992312, 257, 345, 320, 408
-0.992322, 193, 249, 448, 312
-0.992323, 169, 329, 232, 360
-0.992327, 393, 209, 424, 272
-0.992348, 273, 273, 336, 304
-0.992349, 249, 313, 280, 376
-0.992356, 81, 201, 208, 264
-0.992365, 369, 93, 432, 124
-0.992411, 405, 233, 436, 296
-0.992436, 137, 109, 168, 140
-0.992439, 361, 269, 424, 300
-0.992445, 321, 241, 448, 304
-0.992451, 229, 245, 260, 276
-0.992453, 229, 257, 260, 320
-0.99246, 77, 129, 108, 160
-0.992477, 33, 105, 288, 168
-0.992479, 313, 273, 376, 304
-0.992489, 137, 109, 200, 140
-0.992497, 97, 273, 128, 336
-0.992499, 265, 241, 328, 272
-0.992519, 101, 153, 132, 184
-0.992524, 201, 453, 264, 484
-0.992527, 33, 225, 288, 288
-0.992531, 201, 401, 264, 432
-0.992536, 77, 105, 108, 136
-0.992538, 209, 33, 272, 288
-0.992544, 137, 137, 200, 168
-0.992557, 185, 249, 248, 280
-0.992564, 89, 117, 120, 148
-0.992588, 265, 257, 328, 288
-0.992593, 169, 273, 232, 304
-0.992598, 69, 117, 100, 148
-0.992606, 65, 157, 128, 188
-0.992608, 385, 289, 448, 320
-0.99261, 73, 173, 136, 204
-0.992614, 133, 137, 164, 168
-0.992616, 233, 337, 296, 368
-0.992621, 109, 105, 140, 136
-0.992628, 201, 385, 264, 416
-0.992635, 89, 105, 120, 136
-0.992638, 253, 245, 284, 276
-0.992651, 177, 73, 304, 136
-0.992651, 369, 221, 432, 252
-0.992659, 125, 113, 156, 144
-0.99266, 233, 193, 296, 224
-0.992667, 201, 413, 264, 444
-0.992682, 217, 241, 248, 272
-0.992683, 249, 225, 312, 256
-0.992683, 197, 289, 228, 352
-0.99269, 233, 169, 296, 200
-0.992692, 297, 257, 360, 320
-0.992713, 233, 233, 264, 264
-0.992728, 297, 81, 328, 208
-0.99273, 281, 337, 344, 464
-0.992745, 201, 465, 264, 496
-0.992747, 81, 241, 208, 304
-0.992748, 369, 161, 432, 224
-0.992789, 265, 329, 296, 392
-0.99279, 385, 257, 448, 288
-0.992792, 57, 93, 120, 124
-0.992798, 241, 249, 272, 280
-0.992816, 169, 105, 232, 168
-0.992817, 65, 105, 96, 136
-0.992822, 385, 469, 448, 500
-0.992825, 201, 441, 264, 472
-0.992828, 169, 365, 232, 396
-0.99284, 233, 181, 296, 212
-0.992862, 321, 137, 448, 200
-0.992867, 97, 93, 160, 124
-0.992872, 217, 229, 248, 260
-0.992875, 185, 141, 248, 172
-0.992876, 73, 365, 136, 396
-0.992877, 169, 401, 232, 432
-0.99288, 225, 153, 288, 184
-0.992893, 201, 425, 264, 456
-0.992894, 97, 377, 160, 408
-0.992911, 97, 249, 128, 312
-0.992919, 169, 381, 232, 412
-0.992921, 337, 269, 400, 300
-0.992924, 377, 457, 440, 488
-0.992925, 321, 433, 448, 496
-0.992934, 257, 177, 320, 208
-0.992945, 169, 413, 232, 444
-0.992949, 133, 125, 164, 156
-0.992965, 89, 149, 120, 180
-0.992971, 385, 209, 448, 240
-0.992978, 225, 281, 288, 312
-0.992979, 233, 293, 296, 324
-0.992981, 257, 205, 320, 236
-0.992985, 73, 453, 136, 484
-0.992991, 217, 361, 248, 392
-0.992993, 353, 1, 416, 500
-0.992995, 105, 165, 136, 196
-0.993001, 217, 133, 248, 164
-0.993004, 217, 253, 248, 284
-0.99301, 121, 153, 152, 184
-0.993023, 385, 141, 448, 172
-0.993037, 33, 321, 288, 384
-0.993037, 77, 141, 108, 172
-0.993044, 213, 289, 244, 320
-0.993044, 233, 365, 296, 396
-0.993047, 233, 121, 264, 152
-0.993048, 249, 265, 280, 328
-0.993048, 261, 145, 292, 272
-0.993052, 93, 173, 124, 204
-0.993053, 261, 189, 292, 220
-0.993055, 245, 233, 276, 264
-0.993065, 169, 165, 232, 196
-0.993071, 113, 165, 176, 196
-0.993078, 265, 33, 328, 160
-0.993078, 249, 177, 280, 208
-0.993083, 169, 181, 232, 212
-0.993088, 233, 325, 296, 356
-0.993088, 405, 273, 436, 304
-0.993088, 217, 341, 248, 372
-0.99309, 217, 277, 248, 308
-0.993091, 245, 113, 276, 144
-0.993091, 169, 153, 232, 184
-0.993096, 353, 281, 416, 312
-0.993117, 241, 189, 272, 220
-0.993117, 97, 369, 128, 400
-0.99312, 265, 105, 296, 136
-0.993125, 273, 337, 336, 368
-0.993135, 97, 185, 128, 216
-0.993137, 169, 225, 232, 256
-0.993138, 273, 65, 400, 128
-0.993139, 125, 101, 156, 132
-0.993139, 145, 129, 176, 160
-0.99314, 97, 389, 160, 420
-0.993143, 269, 253, 300, 284
-0.993143, 169, 205, 232, 236
-0.993145, 169, 449, 232, 480
-0.993148, 109, 145, 124, 208
-0.993148, 281, 97, 312, 128
-0.993157, 97, 385, 128, 416
-0.993159, 297, 93, 328, 124
-0.99316, 401, 461, 432, 492
-0.993162, 413, 97, 444, 160
-0.993166, 169, 429, 232, 460
-0.99317, 417, 301, 448, 332
-0.993171, 353, 257, 416, 288
-0.993172, 253, 157, 284, 188
-0.993174, 397, 293, 428, 324
-0.993181, 97, 453, 128, 484
-0.993182, 249, 201, 280, 232
-0.993184, 97, 401, 128, 432
-0.993187, 169, 193, 232, 224
-0.993188, 197, 209, 228, 336
-0.993191, 257, 165, 320, 196
-0.993192, 57, 117, 88, 148
-0.993192, 177, 121, 240, 152
-0.993193, 281, 329, 312, 392
-0.993195, 385, 197, 448, 228
-0.993195, 169, 461, 232, 492
-0.993201, 241, 161, 272, 192
-0.99321, 97, 413, 128, 444
-0.993219, 417, 469, 448, 500
-0.993232, 89, 161, 120, 192
-0.993233, 115, 121, 130, 184
-0.993237, 33, 201, 160, 264
-0.993241, 309, 93, 340, 124
-0.993242, 413, 433, 444, 496
-0.993243, 161, 273, 416, 336
-0.993246, 289, 273, 320, 304
-0.993252, 297, 65, 360, 320
-0.993252, 281, 189, 312, 220
-0.993262, 393, 221, 424, 252
-0.993272, 405, 297, 436, 360
-0.993273, 105, 357, 136, 388
-0.993278, 213, 309, 244, 340
-0.993282, 229, 65, 260, 192
-0.993291, 409, 233, 440, 264
-0.993292, 253, 257, 284, 288
-0.993293, 65, 133, 96, 164
-0.993294, 213, 325, 244, 356
-0.993298, 229, 257, 260, 288
-0.993298, 137, 97, 168, 128
-0.993304, 149, 113, 180, 144
-0.993316, 393, 277, 424, 308
-0.993322, 233, 209, 264, 240
-0.993325, 97, 281, 128, 312
-0.993328, 197, 345, 228, 376
-0.99333, 241, 353, 272, 384
-0.993331, 417, 449, 448, 480
-0.993333, 233, 221, 264, 252
-0.993334, 105, 469, 136, 500
-0.993336, 77, 153, 108, 184
-0.993339, 261, 213, 292, 244
-0.993339, 97, 333, 128, 364
-0.993341, 405, 209, 436, 240
-0.993344, 97, 321, 128, 352
-0.993344, 97, 441, 128, 472
-0.993353, 213, 213, 244, 244
-0.993355, 197, 297, 228, 328
-0.993355, 197, 309, 228, 340
-0.993356, 413, 141, 444, 172
-0.993356, 405, 309, 436, 340
-0.993357, 197, 325, 228, 356
-0.993357, 245, 213, 276, 244
-0.993358, 229, 181, 260, 212
-0.99336, 285, 285, 316, 316
-0.993362, 417, 285, 448, 316
-0.993369, 265, 165, 296, 196
-0.993371, 273, 177, 304, 208
-0.993374, 301, 321, 332, 352
-0.993382, 269, 237, 300, 268
-0.993384, 261, 177, 292, 208
-0.993385, 329, 89, 360, 120
-0.993385, 213, 265, 244, 296
-0.993386, 241, 337, 272, 368
-0.993386, 229, 269, 260, 300
-0.993388, 229, 169, 260, 200
-0.993388, 281, 257, 312, 384
-0.993395, 97, 345, 128, 376
-0.993398, 405, 197, 436, 228
-0.9934, 229, 193, 260, 224
-0.993402, 261, 201, 292, 232
-0.993403, 241, 153, 368, 216
-0.993406, 273, 289, 304, 320
-0.993409, 109, 377, 140, 408
-0.993414, 245, 321, 276, 448
-0.993415, 301, 333, 332, 364
-0.993416, 81, 173, 112, 204
-0.993423, 213, 145, 244, 176
-0.993424, 265, 153, 296, 184
-0.993429, 281, 333, 312, 364
-0.99343, 33, 17, 288, 144
-0.993437, 197, 357, 228, 388
-0.993438, 265, 337, 296, 368
-0.993438, 217, 373, 248, 404
-0.993441, 109, 333, 140, 364
-0.993443, 197, 285, 228, 316
-0.993445, 301, 293, 332, 324
-0.993447, 97, 297, 128, 328
-0.99345, 217, 197, 248, 228
-0.99345, 385, 93, 416, 124
-0.99345, 389, 265, 420, 296
-0.993466, 261, 153, 292, 216
-0.993468, 397, 89, 428, 152
-0.993489, 33, 337, 160, 400
-0.993499, 33, 425, 160, 488
-0.993502, 249, 337, 280, 400
-0.993512, 353, 305, 416, 368
-0.993536, 33, 353, 288, 416
-0.993567, 33, 281, 160, 344
-0.993607, 301, 313, 332, 376
-0.993619, 305, 289, 336, 416
-0.993622, 109, 289, 140, 352
-0.993624, 197, 265, 228, 328
-0.993679, 33, 265, 288, 328
-0.993684, 213, 153, 244, 216
-0.993726, 129, 145, 160, 208
-0.993756, 109, 369, 140, 432
-0.993765, 281, 153, 344, 216
-0.993792, 309, 81, 340, 144
-0.993795, 145, 97, 176, 224
-0.99381, 49, 109, 176, 140
-0.993818, 97, 425, 160, 488
-0.993822, 109, 289, 140, 416
-0.993844, 109, 121, 124, 184
-0.993866, 205, 241, 236, 304
-0.993873, 313, 289, 376, 352
-0.993891, 293, 337, 324, 400
-0.993893, 381, 81, 412, 208
-0.993914, 273, 153, 304, 216
-0.993937, 99, 121, 114, 184
-0.993942, 127, 121, 142, 184
-0.993942, 1, 113, 449, 176
-0.993944, 361, 57, 424, 120
-0.993957, 389, 233, 420, 296
-0.994014, 229, 353, 260, 416
-0.994039, 121, 129, 136, 192
-0.994048, 377, 33, 440, 160
-0.994065, 33, 129, 96, 192
-0.994084, 93, 433, 124, 496
-0.994086, 257, 257, 320, 500
-0.994096, 33, 161, 288, 224
-0.994098, 385, 113, 448, 176
-0.994152, 385, 89, 416, 152
-0.994158, 353, 33, 416, 160
-0.994174, 361, 161, 424, 288
-0.994181, 97, 297, 352, 360
-0.994208, 73, 385, 136, 448
-0.994211, 329, 65, 392, 320
-0.994212, 341, 81, 372, 144
-0.994237, 273, 177, 304, 240
-0.99424, 321, 65, 448, 128
-0.99426, 305, 161, 432, 224
-0.994319, 193, 89, 448, 152
-0.994322, 241, 369, 304, 432
-0.994342, 297, 257, 328, 320
-0.994344, 305, 305, 368, 432
-0.994353, 193, 193, 448, 256
-0.994363, 133, 121, 148, 184
-0.994387, 377, 225, 408, 352
-0.994414, 33, 201, 288, 264
-0.994419, 97, 305, 160, 432
-0.99443, 105, 193, 136, 256
-0.994453, 409, 289, 440, 416
-0.994457, 393, 177, 424, 304
-0.994459, 353, 81, 384, 144
-0.994475, 225, 201, 256, 264
-0.99451, 277, 321, 308, 448
-0.994522, 273, 161, 336, 288
-0.994528, 97, 241, 128, 368
-0.994532, 97, 337, 160, 400
-0.994547, 281, 345, 344, 408
-0.994568, 277, 145, 308, 272
-0.994666, 305, 217, 432, 280
-0.994671, 257, 177, 384, 240
-0.994695, 373, 89, 404, 152
-0.994705, 397, 289, 428, 416
-0.99471, 225, 65, 352, 128
-0.994761, 209, 277, 336, 308
-0.994767, 385, 273, 416, 400
-0.994778, 305, 185, 432, 248
-0.99478, 197, 257, 228, 384
-0.994796, 33, 313, 160, 376
-0.994808, 33, 225, 160, 288
-0.994834, 99, 145, 114, 208
-0.994844, 213, 393, 244, 456
-0.994849, 33, 249, 160, 312
-0.994875, 33, 385, 288, 448
-0.99489, 49, 1, 112, 256
-0.994895, 321, 113, 448, 176
-0.994942, 317, 273, 348, 400
-0.994949, 145, 105, 160, 168
-0.99497, 193, 297, 448, 360
-0.994981, 93, 409, 124, 472
-0.995008, 321, 369, 448, 496
-0.995033, 33, 361, 160, 424
-0.995063, 193, 225, 448, 288
-0.995076, 193, 113, 448, 176
-0.995082, 235, 233, 250, 296
-0.99511, 117, 169, 148, 232
-0.995111, 33, 409, 288, 472
-0.995128, 85, 105, 100, 168
-0.995151, 109, 265, 140, 328
-0.995167, 197, 353, 228, 480
-0.9952, 65, 133, 192, 164
-0.995205, 193, 253, 320, 284
-0.995224, 325, 89, 356, 152
-0.995237, 321, 57, 384, 120
-0.995246, 57, 97, 88, 224
-0.99525, 93, 121, 108, 184
-0.995315, 281, 369, 312, 432
-0.99535, 405, 177, 436, 304
-0.995359, 109, 313, 124, 376
-0.995379, 193, 305, 320, 336
-0.995419, 385, 65, 448, 128
-0.995446, 139, 113, 154, 176
-0.995449, 193, 289, 320, 320
-0.99546, 105, 97, 120, 160
-0.995492, 289, 321, 416, 384
-0.995497, 273, 161, 336, 416
-0.99552, 353, 305, 416, 432
-0.995526, 33, 433, 288, 496
-0.995533, 289, 257, 352, 500
-0.995544, 109, 353, 124, 416
-0.995551, 293, 337, 324, 464
-0.99558, 361, 225, 424, 480
-0.995581, 265, 49, 296, 176
-0.995584, 229, 153, 260, 216
-0.995593, 89, 1, 152, 500
-0.995654, 305, 345, 368, 408
-0.995664, 161, 169, 416, 232
-0.995676, 259, 217, 274, 280
-0.995677, 109, 177, 124, 240
-0.995684, 115, 145, 130, 208
-0.995732, 193, 337, 448, 400
-0.995747, 217, 177, 248, 240
-0.995757, 249, 217, 264, 280
-0.995763, 321, 81, 352, 208
-0.995775, 121, 105, 136, 168
-0.995781, 409, 169, 440, 232
-0.995788, 229, 225, 244, 288
-0.995804, 193, 341, 320, 372
-0.995818, 373, 273, 404, 336
-0.995818, 109, 193, 140, 320
-0.995824, 113, 145, 240, 176
-0.995829, 33, 81, 288, 144
-0.995833, 87, 129, 102, 192
-0.995848, 305, 89, 432, 120
-0.995861, 89, 161, 152, 416
-0.995879, 109, 393, 124, 456
-0.99588, 161, 145, 416, 208
-0.995895, 193, 317, 320, 348
-0.995902, 241, 353, 368, 416
-0.995917, 229, 249, 244, 312
-0.995926, 237, 281, 268, 344
-0.995938, 129, 129, 256, 160
-0.995954, 73, 433, 136, 496
-0.996, 79, 113, 94, 176
-0.996001, 161, 361, 416, 424
-0.996004, 109, 241, 140, 368
-0.996025, 193, 329, 320, 360
-0.996037, 137, 81, 200, 144
-0.996038, 285, 193, 316, 320
-0.996048, 193, 241, 320, 272
-0.996108, 427, 273, 442, 336
-0.996109, 101, 81, 132, 144
-0.99611, 243, 225, 258, 288
-0.996129, 399, 273, 414, 336
-0.996141, 417, 193, 448, 256
-0.996168, 73, 289, 136, 352
-0.996186, 385, 313, 448, 376
-0.996186, 193, 433, 448, 496
-0.996206, 213, 425, 244, 488
-0.996219, 49, 121, 176, 152
-0.996222, 109, 425, 124, 488
-0.996243, 127, 97, 142, 160
-0.996252, 99, 97, 114, 160
-0.996271, 293, 241, 324, 368
-0.996301, 273, 377, 400, 440
-0.996303, 97, 65, 128, 320
-0.996316, 161, 161, 224, 288
-0.996317, 65, 145, 192, 176
-0.996355, 313, 17, 376, 144
-0.996358, 225, 81, 288, 144
-0.996382, 115, 97, 130, 160
-0.996388, 113, 201, 128, 264
-0.996391, 73, 81, 104, 144
-0.99646, 369, 81, 400, 208
-0.996471, 209, 213, 336, 244
-0.996493, 193, 265, 320, 296
-0.996494, 237, 209, 252, 272
-0.996507, 193, 353, 320, 384
-0.99652, 129, 113, 256, 144
-0.996526, 321, 241, 384, 304
-0.996571, 257, 169, 272, 232
-0.996587, 73, 105, 88, 168
-0.996588, 161, 385, 416, 448
-0.99659, 169, 1, 232, 500
-0.996591, 97, 137, 112, 168
-0.996601, 289, 169, 320, 232
-0.996615, 251, 241, 266, 304
-0.996624, 261, 73, 292, 136
-0.996642, 267, 241, 282, 304
-0.99665, 73, 409, 136, 472
-0.996656, 109, 233, 140, 296
-0.99667, 293, 361, 324, 424
-0.996682, 65, 1, 128, 500
-0.996694, 133, 97, 148, 160
-0.996704, 193, 161, 320, 192
-0.996707, 217, 81, 248, 208
-0.996713, 117, 49, 148, 176
-0.996716, 217, 281, 232, 344
-0.996722, 25, 81, 88, 208
-0.996724, 417, 49, 448, 176
-0.996725, 219, 129, 234, 192
-0.996747, 313, 257, 344, 320
-0.996749, 197, 369, 228, 432
-0.996777, 109, 137, 124, 168
-0.996777, 257, 97, 384, 128
-0.99679, 393, 297, 424, 360
-0.996805, 223, 241, 238, 304
-0.996807, 93, 145, 108, 208
-0.99681, 81, 157, 208, 188
-0.996814, 145, 241, 272, 272
-0.996828, 121, 129, 136, 160
-0.99684, 421, 281, 436, 344
-0.996852, 109, 393, 140, 456
-0.996854, 197, 209, 228, 272
-0.996866, 109, 289, 124, 352
-0.99689, 273, 129, 400, 192
-0.996905, 139, 137, 154, 200
-0.996907, 413, 281, 428, 344
-0.996937, 151, 105, 166, 168
-0.996941, 225, 129, 240, 192
-0.996941, 235, 257, 250, 320
-0.996945, 193, 201, 320, 232
-0.996948, 85, 65, 116, 320
-0.996949, 357, 65, 388, 192
-0.996972, 209, 225, 336, 256
-0.996974, 91, 97, 106, 160
-0.99698, 113, 325, 240, 356
-0.996983, 293, 33, 324, 160
-0.996994, 121, 1, 184, 256
-0.997011, 281, 177, 344, 240
-0.997013, 261, 241, 276, 304
-0.997019, 87, 129, 102, 160
-0.997025, 17, 141, 144, 172
-0.997046, 257, 313, 272, 376
-0.997051, 115, 169, 130, 232
-0.997071, 135, 133, 150, 164
-0.997088, 235, 241, 250, 272
-0.997089, 197, 393, 228, 456
-0.997089, 417, 177, 448, 304
-0.997098, 193, 177, 320, 208
-0.997101, 235, 121, 250, 184
-0.997107, 97, 401, 160, 464
-0.99711, 269, 217, 284, 280
-0.99712, 113, 65, 144, 320
-0.997144, 49, 97, 176, 128
-0.99715, 333, 81, 364, 208
-0.997155, 147, 129, 162, 192
-0.997157, 213, 257, 244, 500
-0.997157, 241, 241, 368, 272
-0.99716, 421, 257, 436, 320
-0.997163, 115, 137, 130, 168
-0.997168, 193, 189, 320, 220
-0.997168, 217, 129, 248, 384
-0.99717, 125, 141, 140, 172
-0.99719, 241, 265, 368, 296
-0.997194, 235, 185, 250, 248
-0.9972, 309, 289, 324, 352
-0.997207, 247, 113, 262, 176
-0.997213, 289, 321, 304, 384
-0.997222, 145, 229, 272, 260
-0.997226, 313, 257, 376, 500
-0.997227, 103, 137, 118, 168
-0.997227, 285, 65, 316, 128
-0.99724, 1, 145, 449, 208
-0.997254, 193, 145, 320, 176
-0.99726, 337, 209, 400, 336
-0.997267, 127, 145, 142, 208
-0.997271, 279, 177, 294, 240
-0.997278, 251, 329, 266, 392
-0.997279, 127, 125, 142, 156
-0.997299, 109, 233, 124, 296
-0.997304, 33, 157, 160, 188
-0.997304, 113, 313, 240, 344
-0.99731, 109, 257, 124, 320
-0.997319, 147, 117, 162, 148
-0.997324, 113, 297, 240, 328
-0.997329, 241, 113, 256, 176
-0.997329, 217, 249, 232, 312
-0.99733, 209, 129, 336, 160
-0.997337, 113, 345, 240, 376
-0.997341, 257, 113, 272, 176
-0.997354, 285, 177, 300, 240
-0.997356, 113, 281, 240, 312
-0.997356, 263, 105, 278, 168
-0.997357, 1, 89, 449, 152
-0.99736, 67, 105, 82, 168
-0.997364, 97, 117, 112, 148
-0.997367, 421, 233, 436, 296
-0.997368, 423, 433, 438, 496
-0.997373, 103, 105, 118, 136
-0.997381, 97, 225, 128, 288
-0.997383, 251, 153, 266, 216
-0.997385, 297, 369, 360, 432
-0.997386, 289, 281, 304, 344
-0.997395, 393, 137, 424, 200
-0.997407, 121, 153, 136, 216
-0.997418, 301, 89, 316, 152
-0.997422, 241, 169, 256, 232
-0.997432, 97, 313, 160, 376
-0.997436, 225, 113, 352, 144
-0.997436, 389, 185, 420, 248
-0.997443, 83, 117, 98, 148
-0.997444, 267, 169, 282, 232
-0.99745, 217, 353, 232, 416
-0.997456, 303, 297, 318, 360
-0.997461, 113, 361, 240, 392
-0.997469, 1, 81, 128, 144
-0.997472, 103, 361, 118, 424
-0.997472, 249, 49, 280, 176
-0.997475, 267, 297, 282, 360
-0.997475, 73, 313, 136, 376
-0.997476, 99, 177, 114, 240
-0.997476, 137, 105, 152, 136
-0.997477, 115, 125, 130, 156
-0.997491, 257, 245, 272, 276
-0.997502, 241, 249, 256, 312
-0.997503, 73, 109, 88, 140
-0.997507, 333, 265, 364, 328
-0.997511, 409, 185, 424, 248
-0.99753, 275, 97, 290, 160
-0.997537, 91, 105, 106, 136
-0.997556, 299, 329, 314, 392
-0.997561, 81, 105, 96, 136
-0.997566, 237, 97, 268, 352
-0.997573, 259, 193, 274, 256
-0.997574, 73, 193, 136, 256
-0.997578, 405, 257, 420, 320
-0.99758, 257, 145, 272, 208
-0.997586, 111, 157, 126, 188
-0.997588, 281, 97, 296, 160
-0.997607, 245, 337, 260, 400
-0.997609, 133, 117, 148, 148
-0.997616, 233, 353, 248, 416
-0.997617, 145, 253, 272, 284
-0.997622, 49, 17, 176, 144
-0.997637, 49, 81, 112, 144
-0.997639, 421, 201, 436, 264
-0.997642, 243, 201, 258, 264
-0.997646, 113, 409, 240, 440
-0.997649, 105, 125, 120, 156
-0.99765, 229, 245, 244, 276
-0.997651, 129, 269, 256, 300
-0.997656, 273, 153, 288, 216
-0.997659, 109, 405, 124, 436
-0.997667, 97, 177, 160, 240
-0.997668, 1, 121, 128, 152
-0.997668, 129, 105, 144, 136
-0.997668, 193, 373, 320, 404
-0.997671, 281, 209, 312, 272
-0.997673, 81, 169, 208, 200
-0.997682, 91, 117, 106, 148
-0.997682, 291, 353, 306, 416
-0.997684, 113, 393, 240, 424
-0.997687, 1, 109, 128, 140
-0.997687, 105, 73, 168, 136
-0.997691, 139, 121, 154, 152
-0.997693, 1, 289, 256, 352
-0.997695, 241, 253, 368, 284
-0.997706, 113, 449, 240, 480
-0.997708, 295, 281, 310, 344
-0.997711, 247, 177, 262, 240
-0.997725, 49, 153, 112, 216
-0.997725, 113, 421, 240, 452
-0.997728, 109, 365, 124, 396
-0.997732, 253, 193, 268, 256
-0.997745, 217, 225, 232, 288
-0.997745, 425, 97, 440, 160
-0.997748, 257, 281, 384, 312
-0.997759, 265, 145, 280, 208
-0.997763, 297, 305, 312, 368
-0.997769, 89, 141, 104, 172
-0.997773, 113, 461, 240, 492
-0.997776, 389, 265, 404, 328
-0.997776, 113, 433, 240, 464
-0.99778, 77, 121, 92, 152
-0.997782, 407, 281, 422, 344
-0.997786, 305, 285, 432, 316
-0.997786, 271, 193, 286, 256
-0.997789, 113, 213, 240, 244
-0.997792, 73, 193, 136, 320
-0.997796, 257, 97, 288, 352
-0.997797, 99, 173, 114, 204
-0.997799, 147, 105, 162, 136
-0.997806, 169, 65, 232, 320
-0.997808, 205, 129, 236, 256
-0.997808, 113, 201, 240, 232
-0.997838, 249, 241, 264, 272
-0.99784, 193, 397, 320, 428
-0.997848, 275, 217, 290, 280
-0.997854, 99, 149, 114, 180
-0.997855, 419, 97, 434, 160
-0.997858, 145, 101, 272, 132
-0.997863, 161, 409, 416, 472
-0.997865, 97, 105, 112, 136
-0.997865, 109, 185, 124, 216
-0.997872, 121, 105, 136, 136
-0.997882, 413, 209, 428, 272
-0.997884, 305, 345, 432, 408
-0.997888, 117, 149, 132, 180
-0.997891, 117, 369, 132, 432
-0.997892, 241, 245, 256, 276
-0.997897, 265, 245, 280, 276
-0.997897, 105, 153, 120, 184
-0.997898, 307, 89, 322, 152
-0.997901, 79, 89, 94, 152
-0.997903, 433, 433, 448, 496
-0.997904, 79, 137, 94, 200
-0.997907, 261, 337, 276, 400
-0.997909, 257, 293, 384, 324
-0.997912, 235, 161, 250, 224
-0.997919, 321, 457, 448, 488
-0.997923, 415, 257, 430, 320
-0.997932, 147, 133, 162, 164
-0.997935, 377, 369, 440, 496
-0.997936, 275, 249, 290, 312
-0.997954, 315, 281, 330, 344
-0.99796, 129, 157, 256, 188
-0.997964, 291, 161, 306, 224
-0.997964, 121, 117, 136, 148
-0.997967, 139, 89, 154, 152
-0.997967, 99, 393, 114, 456
-0.997968, 393, 289, 408, 352
-0.997974, 405, 209, 420, 272
-0.997976, 141, 133, 156, 164
-0.997976, 115, 337, 130, 400
-0.997977, 109, 329, 124, 360
-0.997981, 153, 109, 168, 140
-0.997981, 81, 137, 96, 168
-0.997982, 33, 169, 160, 200
-0.997986, 423, 289, 438, 320
-0.997993, 115, 105, 130, 136
-0.997996, 113, 381, 240, 412
-0.998004, 109, 317, 124, 348
-0.998005, 193, 385, 320, 416
-0.998008, 125, 65, 156, 320
-0.998022, 233, 321, 264, 448
-0.99804, 161, 217, 288, 248
-0.998055, 135, 145, 150, 176
-0.998065, 67, 105, 82, 136
-0.998065, 337, 257, 400, 500
-0.998066, 97, 161, 112, 192
-0.998079, 271, 245, 286, 276
-0.998088, 321, 33, 352, 160
-0.998092, 241, 321, 368, 352
-0.998093, 97, 225, 160, 352
-0.998101, 109, 105, 124, 136
-0.99812, 241, 305, 368, 336
-0.998131, 91, 153, 106, 184
-0.998133, 193, 413, 320, 444
-0.998136, 113, 181, 240, 212
-0.998147, 249, 253, 264, 284
-0.99815, 309, 33, 340, 160
-0.998157, 97, 73, 224, 136
-0.998162, 273, 333, 400, 364
-0.998182, 109, 441, 124, 472
-0.998187, 113, 217, 128, 248
-0.998189, 321, 273, 448, 304
-0.998203, 423, 269, 438, 300
-0.998206, 219, 137, 234, 168
-0.998206, 233, 229, 248, 260
-0.998229, 109, 205, 124, 236
-0.998229, 235, 253, 250, 284
-0.998237, 109, 377, 124, 408
-0.998242, 97, 273, 160, 336
-0.998242, 109, 453, 124, 484
-0.998244, 123, 157, 138, 188
-0.998248, 257, 209, 272, 240
-0.998276, 267, 185, 282, 216
-0.998277, 129, 65, 384, 128
-0.99828, 209, 101, 336, 132
-0.998284, 243, 233, 258, 264
-0.99829, 405, 273, 420, 304
-0.998293, 109, 417, 124, 448
-0.9983, 257, 153, 272, 184
-0.9983, 105, 161, 136, 416
-0.998307, 257, 169, 272, 200
-0.998311, 257, 197, 272, 228
-0.998316, 109, 465, 124, 496
-0.998317, 75, 133, 90, 164
-0.99832, 277, 65, 308, 320
-0.998322, 57, 115, 88, 130
-0.998322, 257, 153, 288, 168
-0.998323, 393, 305, 424, 320
-0.998323, 241, 205, 272, 220
-0.998323, 261, 215, 292, 230
-0.998323, 197, 293, 228, 308
-0.998325, 405, 145, 436, 160
-0.998325, 217, 269, 248, 284
-0.998327, 105, 475, 136, 490
-0.998328, 249, 263, 280, 278
-0.998329, 281, 333, 312, 348
-0.998329, 293, 289, 324, 304
-0.99833, 217, 233, 248, 248
-0.998331, 217, 345, 248, 360
-0.998331, 281, 191, 312, 206
-0.998331, 405, 211, 436, 226
-0.998332, 393, 227, 424, 242
-0.998332, 261, 205, 292, 220
-0.998332, 97, 331, 128, 346
-0.998333, 269, 189, 300, 204
-0.998334, 247, 185, 262, 216
-0.998334, 229, 129, 244, 160
-0.998335, 197, 355, 228, 370
-0.998335, 89, 151, 120, 166
-0.998335, 213, 331, 244, 346
-0.998336, 409, 469, 440, 484
-0.998336, 121, 161, 152, 176
-0.998337, 241, 351, 272, 366
-0.998338, 213, 337, 244, 352
-0.998338, 273, 183, 304, 198
-0.998339, 241, 197, 272, 212
-0.99834, 241, 217, 272, 232
-0.99834, 401, 315, 432, 330
-0.99834, 153, 121, 168, 152
-0.998341, 249, 163, 280, 178
-0.998341, 97, 401, 128, 416
-0.998341, 213, 299, 244, 314
-0.998342, 397, 279, 428, 294
-0.998342, 269, 265, 300, 280
-0.998342, 213, 227, 244, 242
-0.998343, 241, 169, 272, 184
-0.998343, 213, 325, 244, 340
-0.998343, 81, 157, 112, 172
-0.998343, 213, 305, 244, 320
-0.998343, 213, 315, 244, 330
-0.998344, 217, 275, 248, 290
-0.998345, 149, 113, 180, 128
-0.998346, 269, 259, 300, 274
-0.998347, 97, 389, 128, 404
-0.998347, 257, 221, 288, 236
-0.998347, 261, 165, 292, 180
-0.998349, 229, 127, 260, 142
-0.998349, 97, 459, 128, 474
-0.99835, 85, 177, 116, 192
-0.998351, 217, 139, 248, 154
-0.998351, 261, 197, 292, 212
-0.998352, 97, 469, 128, 484
-0.998352, 217, 283, 248, 298
-0.998352, 97, 417, 128, 432
-0.998352, 263, 257, 278, 288
-0.998353, 413, 457, 444, 472
-0.998354, 105, 367, 136, 382
-0.998359, 413, 273, 444, 288
-0.998359, 253, 111, 284, 126
-0.99836, 305, 95, 336, 110
-0.99836, 97, 185, 128, 200
-0.998361, 249, 183, 280, 198
-0.998365, 109, 229, 124, 260
-0.998365, 69, 139, 100, 154
-0.998368, 97, 287, 128, 302
-0.998368, 405, 463, 436, 478
-0.998368, 217, 373, 248, 388
-0.99837, 85, 169, 116, 184
-0.998372, 413, 461, 428, 492
-0.998373, 217, 351, 248, 366
-0.998373, 213, 239, 244, 254
-0.998375, 245, 241, 276, 256
-0.998376, 121, 155, 152, 170
-0.998376, 97, 377, 128, 392
-0.998376, 97, 395, 128, 410
-0.998377, 245, 117, 276, 132
-0.998378, 193, 437, 320, 468
-0.99838, 217, 359, 248, 374
-0.998381, 97, 133, 160, 148
-0.998381, 137, 141, 168, 156
-0.998382, 65, 133, 96, 148
-0.998382, 97, 453, 128, 468
-0.998383, 225, 245, 288, 260
-0.998388, 217, 257, 248, 272
-0.99839, 81, 139, 144, 154
-0.998392, 251, 197, 266, 228
-0.998393, 213, 289, 244, 304
-0.998393, 101, 149, 132, 164
-0.998394, 265, 107, 296, 122
-0.998396, 429, 281, 444, 312
-0.998396, 265, 253, 296, 268
-0.998397, 89, 121, 120, 136
-0.998398, 249, 211, 280, 226
-0.998399, 289, 99, 320, 114
-0.998402, 97, 163, 128, 178
-0.998403, 289, 309, 416, 340
-0.998404, 401, 273, 432, 288
-0.998406, 97, 179, 128, 194
-0.998408, 277, 103, 308, 118
-0.998408, 109, 353, 124, 384
-0.99841, 81, 145, 112, 160
-0.99841, 113, 1, 176, 500
-0.998411, 395, 293, 410, 324
-0.998411, 261, 233, 276, 264
-0.998414, 345, 65, 376, 192
-0.998414, 385, 129, 416, 256
-0.998419, 73, 127, 104, 142
-0.998423, 217, 367, 248, 382
-0.998423, 65, 117, 80, 148
-0.998426, 137, 133, 168, 148
-0.998428, 69, 117, 100, 132
-0.998432, 193, 425, 320, 456
-0.998434, 225, 251, 288, 266
-0.998434, 109, 429, 124, 460
-0.998441, 273, 185, 288, 216
-0.998444, 419, 453, 434, 484
-0.998445, 257, 181, 272, 212
-0.998446, 133, 125, 164, 140
-0.998447, 101, 169, 132, 184
-0.998449, 97, 109, 160, 124
-0.998454, 201, 249, 264, 264
-0.998456, 73, 133, 136, 148
-0.998456, 109, 341, 124, 372
-0.998459, 101, 121, 132, 136
-0.998459, 117, 121, 148, 136
-0.99846, 105, 139, 168, 154
-0.99846, 57, 109, 120, 124
-0.99846, 105, 393, 120, 424
-0.998461, 121, 145, 152, 160
-0.998462, 217, 251, 248, 266
-0.998462, 425, 465, 440, 496
-0.998465, 233, 243, 264, 258
-0.998467, 89, 115, 120, 130
-0.998471, 237, 125, 252, 156
-0.998472, 109, 173, 124, 204
-0.998474, 137, 117, 168, 132
-0.99848, 253, 257, 284, 272
-0.99848, 261, 109, 276, 140
-0.998482, 121, 127, 152, 142
-0.998483, 121, 115, 152, 130
-0.998485, 65, 109, 96, 124
-0.99849, 93, 143, 124, 158
-0.998491, 1, 209, 449, 272
-0.998493, 89, 147, 152, 162
-0.998493, 101, 115, 132, 130
-0.998495, 285, 181, 300, 212
-0.998496, 241, 257, 256, 288
-0.998498, 261, 337, 292, 464
-0.998499, 233, 255, 264, 270
-0.9985, 245, 193, 276, 448
-0.998502, 413, 293, 428, 324
-0.998503, 89, 169, 104, 200
-0.998506, 209, 257, 272, 272
-0.998511, 221, 245, 252, 260
-0.998511, 399, 281, 414, 312
-0.998513, 97, 115, 160, 130
-0.998514, 209, 81, 336, 112
-0.998515, 89, 109, 120, 124
-0.998519, 263, 197, 278, 228
-0.998525, 251, 161, 266, 192
-0.998525, 125, 109, 156, 124
-0.998526, 81, 127, 144, 142
-0.998527, 297, 97, 312, 128
-0.998529, 109, 301, 124, 332
-0.998531, 271, 105, 286, 136
-0.998531, 77, 109, 108, 124
-0.998531, 109, 109, 140, 124
-0.998532, 33, 189, 160, 220
-0.998534, 121, 133, 184, 148
-0.998535, 105, 143, 136, 158
-0.998537, 253, 113, 268, 144
-0.99854, 255, 257, 270, 288
-0.998543, 81, 139, 112, 154
-0.998546, 201, 243, 264, 258
-0.998548, 263, 169, 278, 200
-0.998548, 277, 105, 292, 136
-0.99855, 421, 221, 436, 252
-0.99855, 229, 257, 244, 288
-0.998552, 279, 181, 294, 212
-0.998553, 289, 269, 304, 300
-0.998554, 137, 111, 168, 126
-0.998554, 89, 159, 152, 174
-0.998554, 101, 157, 132, 172
-0.998559, 385, 273, 448, 288
-0.998562, 1, 169, 449, 232
-0.998563, 89, 131, 120, 146
-0.998564, 267, 157, 282, 188
-0.998564, 373, 33, 404, 160
-0.998564, 293, 129, 324, 256
-0.998565, 85, 161, 116, 416
-0.998565, 253, 247, 284, 262
-0.998568, 419, 469, 434, 500
-0.998568, 401, 65, 432, 320
-0.998569, 121, 111, 184, 126
-0.998569, 287, 101, 302, 132
-0.998571, 419, 305, 434, 336
-0.998572, 245, 209, 260, 240
-0.998572, 269, 257, 284, 288
-0.998573, 109, 131, 140, 146
-0.998573, 417, 277, 432, 308
-0.998573, 65, 115, 128, 130
-0.998577, 225, 239, 288, 254
-0.998578, 141, 145, 156, 176
-0.998579, 49, 133, 112, 148
-0.99858, 201, 343, 264, 358
-0.998581, 267, 213, 282, 244
-0.998584, 249, 253, 312, 268
-0.998585, 329, 345, 392, 408
-0.998585, 57, 139, 120, 154
-0.998587, 201, 237, 264, 252
-0.998587, 209, 353, 272, 368
-0.998591, 277, 169, 292, 200
-0.998593, 227, 233, 242, 264
-0.998593, 125, 139, 156, 154
-0.998593, 311, 93, 326, 124
-0.998597, 113, 127, 176, 142
-0.998598, 201, 289, 264, 304
-0.998598, 249, 247, 312, 262
-0.9986, 281, 97, 344, 112
-0.998604, 233, 249, 264, 264
-0.998607, 121, 117, 184, 132
-0.998607, 77, 133, 108, 148
-0.99861, 201, 231, 264, 246
-0.99861, 81, 165, 144, 180
-0.998611, 201, 279, 264, 294
-0.998622, 377, 279, 440, 294
-0.998623, 201, 371, 264, 386
-0.998625, 305, 93, 368, 108
-0.998625, 201, 359, 264, 374
-0.998628, 201, 337, 264, 352
-0.998629, 201, 331, 264, 346
-0.99863, 193, 453, 320, 484
-0.998631, 81, 225, 208, 256
-0.998632, 201, 305, 264, 320
-0.998632, 201, 223, 264, 238
-0.998634, 201, 159, 264, 174
-0.998634, 65, 121, 128, 136
-0.998638, 81, 153, 144, 168
-0.998639, 201, 153, 264, 168
-0.99864, 201, 319, 264, 334
-0.998642, 201, 365, 264, 380
-0.998644, 113, 155, 176, 170
-0.998645, 73, 171, 136, 186
-0.998646, 125, 133, 156, 148
-0.998647, 257, 317, 320, 332
-0.998647, 257, 225, 288, 480
-0.998648, 201, 299, 264, 314
-0.998649, 145, 113, 208, 128
-0.99865, 33, 397, 160, 428
-0.998651, 241, 259, 304, 274
-0.998651, 201, 165, 264, 180
-0.998652, 201, 147, 264, 162
-0.998652, 369, 309, 432, 324
-0.998652, 209, 325, 272, 340
-0.998653, 201, 187, 264, 202
-0.998654, 201, 195, 264, 210
-0.998654, 201, 217, 264, 232
-0.998655, 201, 273, 264, 288
-0.998655, 201, 201, 264, 216
-0.998656, 33, 453, 160, 484
-0.998658, 113, 147, 176, 162
-0.99866, 265, 103, 328, 118
-0.998661, 265, 289, 328, 304
-0.998661, 201, 313, 264, 328
-0.998662, 233, 225, 296, 240
-0.998663, 169, 355, 232, 370
-0.998664, 385, 237, 448, 252
-0.998664, 97, 97, 224, 128
-0.998664, 129, 139, 192, 154
-0.998665, 201, 173, 264, 188
-0.998666, 93, 137, 124, 152
-0.998667, 249, 113, 312, 128
-0.998667, 209, 267, 272, 282
-0.998668, 169, 297, 232, 312
-0.998668, 169, 311, 232, 326
-0.998669, 169, 361, 232, 376
-0.998671, 169, 305, 232, 320
-0.998671, 201, 377, 264, 392
-0.998671, 233, 123, 296, 138
-0.998671, 117, 161, 148, 416
-0.998671, 361, 95, 424, 110
-0.998672, 377, 267, 440, 282
-0.998672, 257, 305, 320, 320
-0.998672, 201, 207, 264, 222
-0.998673, 233, 353, 296, 368
-0.998673, 329, 273, 360, 400
-0.998675, 57, 155, 120, 170
-0.998676, 201, 179, 264, 194
-0.998676, 97, 121, 160, 136
-0.998676, 249, 199, 312, 214
-0.998677, 169, 325, 232, 340
-0.998677, 385, 97, 448, 112
-0.998678, 65, 147, 128, 162
-0.998679, 169, 319, 232, 334
-0.998679, 169, 291, 232, 306
-0.998679, 241, 155, 304, 170
-0.998679, 169, 347, 232, 362
-0.99868, 209, 141, 272, 156
-0.99868, 249, 265, 312, 280
-0.998681, 329, 93, 392, 108
-0.998681, 169, 333, 232, 348
-0.998682, 185, 255, 248, 270
-0.998682, 177, 247, 240, 262
-0.998682, 257, 187, 320, 202
-0.998683, 225, 129, 288, 144
-0.998683, 169, 339, 232, 354
-0.998684, 241, 165, 304, 180
-0.998684, 281, 325, 344, 340
-0.998685, 265, 241, 328, 256
-0.998685, 169, 285, 232, 300
-0.998686, 113, 161, 176, 176
-0.998686, 273, 335, 336, 350
-0.998687, 233, 361, 296, 376
-0.998688, 201, 391, 264, 406
-0.998688, 233, 193, 296, 208
-0.998689, 97, 171, 160, 186
-0.99869, 233, 217, 296, 232
-0.99869, 233, 207, 296, 222
-0.99869, 345, 273, 408, 288
-0.998691, 201, 397, 264, 412
-0.998692, 257, 193, 320, 208
-0.998692, 81, 237, 208, 268
-0.998693, 233, 181, 296, 196
-0.998695, 265, 299, 328, 314
-0.998695, 289, 293, 352, 308
-0.998696, 57, 127, 120, 142
-0.998697, 217, 135, 280, 150
-0.998698, 201, 407, 264, 422
-0.998698, 201, 465, 264, 480
-0.998698, 201, 455, 264, 470
-0.998699, 89, 103, 152, 118
-0.998699, 201, 417, 264, 432
-0.998706, 105, 137, 136, 152
-0.998729, 305, 261, 432, 292
-0.998734, 241, 153, 368, 184
-0.998758, 177, 113, 304, 144
-0.998761, 33, 289, 160, 320
-0.998764, 361, 121, 424, 184
-0.998764, 329, 321, 392, 384
-0.99877, 109, 113, 124, 240
-0.998782, 273, 189, 400, 220
-0.998789, 193, 465, 320, 496
-0.998798, 249, 353, 312, 480
-0.998798, 73, 65, 104, 320
-0.99882, 321, 229, 448, 260
-0.998825, 33, 217, 160, 248
-0.998837, 413, 129, 444, 384
-0.998838, 321, 369, 384, 432
-0.99884, 49, 65, 112, 192
-0.998847, 33, 201, 160, 232
-0.998857, 33, 469, 160, 500
-0.998859, 289, 65, 320, 320
-0.998863, 33, 337, 160, 368
-0.998866, 273, 201, 400, 232
-0.99887, 305, 77, 432, 108
-0.998874, 103, 113, 118, 240
-0.998885, 333, 33, 364, 160
-0.998891, 389, 65, 420, 320
-0.998894, 321, 297, 448, 328
-0.998899, 321, 141, 448, 172
-0.998906, 313, 225, 344, 352
-0.998907, 273, 173, 400, 204
-0.998909, 121, 113, 136, 240
-0.998923, 115, 145, 130, 272
-0.998927, 81, 249, 208, 280
-0.998933, 33, 325, 160, 356
-0.998943, 1, 97, 128, 128
-0.998955, 33, 421, 160, 452
-0.998957, 225, 225, 256, 480
-0.998958, 233, 209, 248, 336
-0.998971, 261, 241, 276, 368
-0.998973, 87, 97, 102, 224
-0.998977, 33, 233, 160, 264
-0.998978, 321, 249, 448, 280
-0.99898, 109, 369, 124, 496
-0.998985, 321, 469, 448, 500
-0.998992, 241, 345, 368, 376
-0.998993, 81, 269, 208, 300
-0.998995, 145, 169, 272, 200
-0.999006, 105, 257, 136, 500
-0.999008, 109, 161, 124, 288
-0.999008, 97, 97, 112, 224
-0.999009, 261, 193, 276, 320
-0.999011, 297, 233, 360, 296
-0.999019, 33, 409, 160, 440
-0.999036, 373, 177, 404, 304
-0.999038, 33, 261, 160, 292
-0.999044, 109, 305, 124, 432
-0.999052, 1, 353, 449, 416
-0.999062, 115, 97, 130, 224
-0.999066, 33, 433, 160, 464
-0.999075, 197, 257, 228, 500
-0.999082, 247, 193, 262, 320
-0.999082, 255, 241, 270, 368
-0.999087, 129, 33, 160, 160
-0.999099, 321, 377, 448, 440
-0.999102, 197, 161, 228, 416
-0.999106, 227, 209, 242, 336
-0.999108, 33, 381, 160, 412
-0.999116, 289, 321, 416, 352
-0.999124, 33, 245, 160, 276
-0.999128, 309, 65, 340, 320
-0.999142, 267, 241, 282, 368
-0.999151, 305, 217, 432, 248
-0.999154, 321, 189, 448, 220
-0.999164, 321, 101, 448, 132
-0.999169, 33, 349, 160, 380
-0.999182, 239, 177, 254, 304
-0.999191, 239, 225, 254, 352
-0.999193, 1, 273, 449, 336
-0.999194, 269, 257, 300, 500
-0.9992, 217, 273, 232, 400
-0.999201, 245, 113, 260, 240
-0.999206, 273, 193, 288, 320
-0.999211, 269, 161, 300, 416
-0.999217, 257, 229, 384, 260
-0.99922, 77, 97, 92, 224
-0.999225, 127, 97, 142, 224
-0.999229, 141, 97, 156, 224
-0.999232, 33, 273, 160, 304
-0.999244, 255, 97, 270, 224
-0.999244, 291, 81, 306, 208
-0.999248, 33, 369, 160, 400
-0.999254, 109, 257, 124, 384
-0.999254, 109, 209, 124, 336
-0.999262, 393, 161, 424, 416
-0.999263, 305, 161, 432, 192
-0.99927, 235, 113, 250, 240
-0.999271, 413, 33, 444, 288
-0.999274, 353, 337, 416, 400
-0.999279, 321, 121, 448, 152
-0.999291, 217, 33, 248, 288
-0.999294, 321, 201, 448, 232
-0.999296, 269, 97, 284, 224
-0.999307, 133, 97, 148, 224
-0.999316, 145, 113, 208, 240
-0.999323, 253, 1, 284, 256
-0.999327, 273, 385, 400, 416
-0.999333, 219, 209, 234, 336
-0.99934, 397, 33, 428, 160
-0.999347, 425, 81, 440, 208
-0.999359, 413, 225, 428, 352
-0.999359, 33, 309, 160, 340
-0.999364, 273, 241, 288, 368
-0.999366, 283, 97, 298, 224
-0.99937, 273, 377, 336, 440
-0.999372, 257, 121, 320, 184
-0.999372, 253, 177, 268, 304
-0.999373, 413, 81, 428, 208
-0.999376, 267, 161, 282, 288
-0.999377, 407, 81, 422, 208
-0.999382, 219, 129, 234, 256
-0.999384, 69, 49, 100, 176
-0.999393, 231, 257, 246, 384
-0.999405, 261, 305, 276, 432
-0.999407, 409, 225, 440, 480
-0.999416, 301, 81, 316, 208
-0.999418, 1, 329, 449, 392
-0.999419, 229, 113, 244, 240
-0.999425, 103, 161, 118, 288
-0.999426, 365, 305, 396, 432
-0.999428, 361, 433, 424, 496
-0.99943, 419, 225, 434, 352
-0.999431, 97, 145, 112, 272
-0.999434, 247, 241, 262, 368
-0.99944, 263, 97, 278, 224
-0.999445, 115, 337, 130, 464
-0.999452, 377, 65, 408, 320
-0.999457, 419, 81, 434, 208
-0.99946, 233, 161, 248, 288
-0.99946, 289, 321, 304, 448
-0.999462, 105, 65, 120, 192
-0.999465, 269, 289, 284, 416
-0.999466, 311, 81, 326, 208
-0.999467, 305, 401, 432, 464
-0.999471, 277, 97, 292, 224
-0.999475, 147, 113, 162, 240
-0.999476, 407, 145, 422, 272
-0.999478, 419, 129, 434, 256
-0.99948, 93, 257, 124, 500
-0.999484, 407, 225, 422, 352
-0.999484, 255, 289, 270, 416
-0.999484, 413, 145, 428, 272
-0.999484, 259, 145, 274, 272
-0.999485, 217, 337, 232, 464
-0.999492, 425, 257, 440, 384
-0.999498, 225, 257, 240, 384
-0.999505, 113, 49, 128, 176
-0.999505, 121, 65, 136, 192
-0.999506, 281, 161, 312, 416
-0.999509, 279, 145, 294, 272
-0.999509, 81, 33, 112, 160
-0.999524, 71, 97, 86, 224
-0.999526, 279, 257, 294, 384
-0.99953, 85, 145, 100, 272
-0.999534, 97, 225, 160, 288
-0.999546, 431, 97, 446, 224
-0.999552, 97, 49, 112, 176
-0.999561, 397, 81, 412, 208
-0.999562, 365, 225, 396, 352
-0.999565, 257, 165, 272, 180
-0.999565, 257, 177, 272, 192
-0.999565, 115, 193, 130, 320
-0.999565, 293, 161, 324, 416
-0.999566, 143, 145, 158, 160
-0.999566, 261, 113, 276, 128
-0.999566, 85, 115, 100, 130
-0.999567, 279, 187, 294, 202
-0.999568, 419, 275, 434, 290
-0.999568, 249, 119, 264, 134
-0.99957, 389, 225, 404, 352
-0.99957, 423, 293, 438, 308
-0.99957, 259, 201, 274, 216
-0.999571, 257, 171, 272, 186
-0.999571, 119, 223, 134, 238
-0.999571, 279, 193, 294, 320
-0.999572, 253, 253, 268, 268
-0.999572, 109, 459, 124, 474
-0.999573, 113, 221, 128, 236
-0.999574, 227, 133, 242, 148
-0.999575, 97, 161, 112, 176
-0.999577, 285, 145, 300, 272
-0.999578, 109, 315, 124, 330
-0.999579, 225, 255, 240, 270
-0.99958, 109, 467, 124, 482
-0.99958, 109, 181, 124, 196
-0.999581, 109, 387, 124, 402
-0.999582, 255, 209, 270, 224
-0.999582, 109, 215, 124, 230
-0.999583, 305, 273, 320, 400
-0.999584, 317, 81, 332, 208
-0.999584, 99, 115, 114, 130
-0.999584, 259, 259, 274, 274
-0.999584, 233, 129, 248, 144
-0.999585, 239, 125, 254, 140
-0.999585, 419, 463, 434, 478
-0.999586, 259, 215, 274, 230
-0.999586, 91, 145, 106, 272
-0.999587, 125, 159, 140, 174
-0.999587, 131, 149, 146, 164
-0.999587, 239, 273, 254, 400
-0.999587, 103, 403, 118, 418
-0.999589, 83, 49, 98, 176
-0.99959, 219, 139, 234, 154
-0.999591, 93, 115, 108, 130
-0.999591, 103, 369, 118, 496
-0.999592, 131, 121, 146, 136
-0.999593, 109, 373, 124, 388
-0.999593, 113, 149, 128, 164
-0.999594, 225, 247, 240, 262
-0.999595, 109, 453, 124, 468
-0.999595, 401, 273, 416, 400
-0.999596, 425, 273, 440, 288
-0.999597, 137, 121, 152, 136
-0.999598, 145, 117, 160, 132
-0.999598, 109, 209, 124, 224
-0.999599, 271, 253, 286, 268
-0.999599, 129, 49, 144, 176
-0.999599, 109, 393, 124, 408
-0.9996, 109, 201, 124, 216
-0.9996, 115, 121, 130, 136
-0.9996, 301, 321, 316, 448
-0.9996, 249, 321, 264, 448
-0.9996, 83, 125, 98, 140
-0.999604, 249, 245, 264, 260
-0.999605, 79, 115, 94, 130
-0.999605, 265, 251, 280, 266
-0.999605, 397, 209, 412, 336
-0.999606, 273, 145, 288, 272
-0.999607, 109, 405, 124, 420
-0.999607, 137, 127, 152, 142
-0.999609, 259, 253, 274, 268
-0.999609, 425, 209, 440, 336
-0.999611, 243, 65, 258, 192
-0.999611, 153, 97, 168, 224
-0.999613, 385, 33, 416, 160
-0.999614, 131, 115, 146, 130
-0.999615, 109, 321, 124, 336
-0.999617, 109, 331, 124, 346
-0.999617, 105, 121, 120, 136
-0.999618, 89, 127, 104, 142
-0.999618, 97, 167, 112, 182
-0.999618, 109, 419, 124, 434
-0.999618, 121, 115, 136, 130
-0.999621, 239, 255, 254, 270
-0.999624, 73, 123, 88, 138
-0.999625, 73, 117, 88, 132
-0.999625, 109, 379, 124, 394
-0.999626, 119, 149, 134, 164
-0.999628, 121, 109, 136, 124
-0.99963, 105, 149, 120, 164
-0.99963, 103, 321, 118, 448
-0.99963, 115, 273, 130, 400
-0.999631, 143, 49, 158, 176
-0.999631, 101, 155, 116, 170
-0.999632, 419, 273, 434, 400
-0.999635, 265, 257, 280, 272
-0.999637, 125, 149, 140, 164
-0.999637, 143, 127, 158, 142
-0.999638, 407, 273, 422, 400
-0.999639, 311, 289, 326, 416
-0.999639, 121, 121, 136, 136
-0.99964, 289, 193, 304, 320
-0.999641, 109, 411, 124, 426
-0.999641, 99, 179, 114, 194
-0.999643, 91, 143, 106, 158
-0.999644, 77, 49, 92, 176
-0.999644, 109, 195, 124, 210
-0.999646, 97, 125, 112, 140
-0.999646, 109, 363, 124, 378
-0.999646, 95, 149, 110, 164
-0.999647, 319, 257, 334, 384
-0.999648, 209, 289, 224, 416
-0.999649, 237, 65, 252, 192
-0.99965, 285, 273, 300, 400
-0.99965, 87, 109, 102, 124
-0.99965, 109, 189, 124, 204
-0.999651, 321, 65, 352, 320
-0.999653, 115, 111, 130, 126
-0.999653, 425, 145, 440, 272
-0.999654, 147, 135, 162, 150
-0.999655, 75, 109, 90, 124
-0.999656, 115, 157, 130, 172
-0.999656, 81, 109, 96, 124
-0.999657, 25, 81, 88, 144
-0.999659, 107, 109, 122, 124
-0.99966, 153, 113, 168, 128
-0.999663, 323, 81, 338, 208
-0.999663, 419, 177, 434, 304
-0.999664, 313, 241, 328, 368
-0.999665, 67, 111, 82, 126
-0.999666, 83, 131, 98, 146
-0.999667, 129, 127, 144, 142
-0.999667, 431, 209, 446, 336
-0.999668, 101, 109, 116, 124
-0.999668, 381, 81, 396, 208
-0.999668, 325, 257, 340, 384
-0.999669, 257, 247, 272, 262
-0.999671, 213, 209, 228, 336
-0.999675, 121, 161, 136, 288
-0.999676, 413, 289, 428, 416
-0.999677, 95, 131, 110, 146
-0.999677, 127, 109, 142, 124
-0.999679, 141, 109, 156, 124
-0.999679, 85, 143, 100, 158
-0.99968, 231, 251, 246, 266
-0.99968, 391, 65, 406, 192
-0.99968, 135, 109, 150, 124
-0.99968, 297, 161, 312, 288
-0.99968, 295, 353, 310, 480
-0.999682, 265, 245, 280, 260
-0.999683, 279, 49, 294, 176
-0.999685, 137, 115, 152, 130
-0.999687, 147, 111, 162, 126
-0.999689, 231, 245, 246, 260
-0.99969, 277, 33, 308, 160
-0.999691, 291, 273, 306, 400
-0.999692, 95, 109, 110, 124
-0.999699, 247, 251, 262, 266
-0.9997, 299, 273, 314, 400
-0.999702, 373, 257, 404, 500
-0.999702, 69, 49, 84, 176
-0.999705, 111, 143, 126, 158
-0.999706, 99, 143, 114, 158
-0.999707, 77, 133, 92, 148
-0.999708, 1, 297, 449, 360
-0.999709, 105, 115, 120, 130
-0.999711, 331, 81, 346, 208
-0.999712, 113, 127, 128, 142
-0.999712, 305, 33, 320, 160
-0.999713, 295, 33, 310, 160
-0.999714, 133, 143, 148, 158
-0.999719, 207, 241, 222, 368
-0.999722, 105, 131, 120, 146
-0.999732, 105, 143, 120, 158
-0.999734, 119, 143, 134, 158
-0.999734, 127, 137, 142, 152
-0.999736, 125, 143, 140, 158
-0.999737, 83, 137, 98, 152
-0.999738, 139, 139, 154, 154
-0.999738, 141, 133, 156, 148
-0.999743, 353, 65, 384, 320
-0.999745, 133, 133, 148, 148
-0.999746, 123, 131, 138, 146
-0.999775, 1, 249, 449, 312
-0.999776, 89, 133, 104, 148
-0.999779, 97, 137, 112, 152
-0.99978, 237, 247, 252, 262
-0.999784, 1, 49, 128, 176
-0.999793, 111, 137, 126, 152
-0.999796, 333, 65, 364, 320
-0.999809, 113, 201, 176, 264
-0.999813, 121, 137, 136, 152
-0.999821, 105, 137, 120, 152
-0.999829, 309, 225, 340, 480
-0.999849, 365, 65, 396, 320
-0.999866, 229, 1, 260, 256
-0.999893, 61, 1, 92, 256
-0.999898, 149, 49, 180, 176
-0.99991, 85, 289, 116, 416
-0.99992, 329, 161, 392, 416
-0.999924, 1, 65, 449, 128
-0.999949, 317, 321, 348, 448
-0.999955, 241, 1, 272, 256
-0.999961, 293, 257, 324, 500
-0.999962, 297, 193, 328, 320
-0.99999, 137, 65, 168, 320
-0.999991, 57, 49, 88, 176
-1.00002, 281, 369, 312, 496
-1.00008, 397, 257, 428, 500
-1.00009, 377, 161, 408, 416
-1.00009, 413, 369, 444, 496
-1.00009, 41, 1, 104, 500
-1.0001, 265, 1, 296, 256
-1.00012, 73, 161, 104, 416
-1.00013, 241, 409, 368, 472
-1.00017, 209, 1, 336, 128
-1.00021, 197, 33, 228, 288
-1.00022, 257, 41, 384, 104
-1.00025, 361, 257, 392, 500
-1.00025, 117, 257, 148, 500
-1.00027, 49, 49, 176, 112
-1.00027, 281, 257, 312, 500
-1.00028, 321, 257, 352, 500
-1.00029, 385, 257, 416, 500
-1.0003, 337, 225, 368, 480
-1.00032, 1, 385, 449, 448
-1.00033, 321, 41, 448, 104
-1.0004, 197, 81, 228, 208
-1.00041, 365, 161, 396, 416
-1.00047, 345, 177, 408, 240
-1.00048, 61, 97, 92, 352
-1.00056, 1, 433, 449, 496
-1.00057, 349, 257, 380, 500
-1.00058, 241, 369, 368, 496
-1.00059, 73, 217, 136, 280
-1.00061, 149, 1, 180, 256
-1.00065, 1, 49, 256, 112
-1.00068, 137, 1, 200, 500
-1.00068, 329, 321, 392, 448
-1.00076, 129, 161, 160, 416
-1.0008, 297, 201, 360, 264
-1.00094, 97, 249, 160, 312
-1.00096, 69, 145, 100, 272
-1.00096, 353, 377, 416, 440
-1.00098, 1, 409, 449, 472
-1.00103, 321, 161, 352, 416
-1.00108, 353, 161, 384, 416
-1.00113, 273, 433, 400, 496
-1.0012, 73, 241, 136, 368
-1.0012, 41, 97, 104, 352
-1.00121, 85, 177, 116, 304
-1.00123, 129, 49, 256, 112
-1.00123, 181, 97, 212, 352
-1.00129, 49, 1, 80, 256
-1.0013, 357, 17, 388, 144
-1.00133, 149, 129, 180, 384
-1.00136, 165, 1, 196, 256
-1.00137, 165, 97, 196, 352
-1.00138, 37, 1, 68, 256
-1.0014, 97, 257, 160, 500
-1.0014, 25, 1, 56, 256
-1.00141, 345, 17, 376, 144
-1.00142, 129, 41, 384, 104
-1.00142, 165, 225, 196, 480
-1.00143, 185, 225, 216, 480
-1.00143, 177, 1, 208, 256
-1.00149, 305, 337, 336, 464
-1.00158, 73, 257, 136, 500
-1.00158, 49, 97, 80, 352
-1.00159, 9, 1, 40, 256
-1.00169, 129, 17, 384, 80
-1.0017, 21, 97, 52, 352
-1.0017, 37, 97, 68, 352
-1.00176, 9, 97, 40, 352
-1.00176, 373, 129, 404, 256
-1.00177, 305, 17, 432, 80
-1.0018, 81, 257, 112, 500
-1.0018, 145, 257, 176, 500
-1.0018, 1, 25, 256, 88
-1.00181, 53, 257, 84, 500
-1.00181, 9, 193, 40, 448
-1.00181, 37, 257, 68, 500
-1.00184, 21, 193, 52, 448
-1.00184, 1, 1, 256, 64
-1.00185, 305, 353, 368, 480
-1.00185, 129, 257, 160, 500
-1.00187, 69, 257, 100, 500
-1.00193, 305, 161, 368, 416
-1.00199, 401, 369, 432, 496
-1.00206, 1, 57, 128, 120
-1.00225, 209, 41, 336, 104
-1.00226, 225, 17, 352, 80
-1.00226, 137, 129, 200, 384
-1.00236, 145, 33, 208, 288
-1.00242, 297, 193, 360, 320
-1.00242, 17, 1, 80, 500
-1.00245, 1, 41, 449, 104
-1.00254, 49, 1, 176, 64
-1.00259, 325, 225, 356, 352
-1.00264, 341, 257, 372, 384
-1.00264, 1, 33, 128, 96
-1.00266, 1, 1, 128, 64
-1.00267, 145, 25, 272, 88
-1.00269, 97, 25, 224, 88
-1.00272, 49, 25, 176, 88
-1.00274, 129, 1, 256, 64
-1.00293, 225, 369, 256, 496
-1.00305, 177, 1, 304, 64
-1.0031, 353, 257, 384, 384
-1.00319, 1, 17, 449, 80
-1.0032, 297, 145, 360, 272
-1.00335, 193, 161, 224, 288
-1.00356, 105, 17, 136, 144
-1.0036, 329, 321, 360, 448
-1.0036, 249, 369, 280, 496
-1.00367, 85, 369, 116, 496
-1.00368, 305, 129, 336, 256
-1.00446, 209, 17, 272, 144
-1.00456, 25, 1, 88, 256
-1.00471, 49, 161, 112, 288
-1.00515, 353, 369, 416, 496
-1.00533, 121, 17, 184, 144
-1.00564, 25, 33, 88, 160
-1.00571, 1, 1, 128, 128
-1.00675, 329, 369, 392, 496
-1.00734, 49, 17, 112, 144
-1.00802, 1, 1, 64, 256
-1.00831, 153, 257, 216, 500
-1.00834, 337, 113, 400, 240
-1.00904, 337, 161, 400, 288
-1.00947, 49, 321, 112, 448
-1.00948, 129, 177, 192, 304
-1.00952, 49, 193, 112, 448
-1.00957, 17, 97, 80, 352
-1.00965, 121, 225, 184, 480
-1.00979, 177, 33, 240, 160
-1.01054, 121, 289, 184, 416
-1.01055, 137, 369, 200, 496
-1.0107, 25, 193, 88, 448
-1.01082, 1, 257, 64, 500
-1.01089, 145, 17, 208, 144
-1.01091, 241, 1, 304, 128
-1.01101, 1, 81, 64, 208
-1.01112, 73, 1, 136, 128
-1.01146, 137, 225, 200, 352
-1.0116, 1, 33, 64, 160
-1.01239, 49, 369, 112, 496
-1.01267, 145, 321, 208, 448
-1.01273, 145, 273, 208, 400
-1.01341, 25, 129, 88, 256
-1.01373, 49, 209, 112, 336
-1.01406, 25, 193, 88, 320
-1.01427, 97, 1, 160, 128
-1.01429, 9, 369, 72, 496
-1.01442, 1, 161, 64, 288
-1.01465, 41, 273, 104, 400
-1.01471, 25, 321, 88, 448
-1.01478, 17, 257, 80, 384
-1.01478, 1, 305, 64, 432
-1.01513, 1, 209, 64, 336
