1960
-0.40186, 129, 1, 384, 375
-0.422164, 1, 97, 500, 352
-0.489843, 1, 1, 500, 256
-0.501454, 1, 1, 500, 375
-0.516439, 65, 1, 320, 256
-0.518297, 225, 1, 480, 375
-0.523709, 65, 97, 320, 352
-0.532946, 33, 1, 288, 375
-0.57519, 193, 33, 448, 288
-0.715177, 257, 129, 500, 375
-0.759661, 161, 129, 416, 375
-0.855666, 33, 1, 160, 375
-0.858, 161, 1, 288, 375
-0.863168, 193, 1, 320, 256
-0.869053, 97, 97, 224, 352
-0.872224, 193, 129, 320, 375
-0.87262, 1, 145, 500, 272
-0.874602, 145, 97, 272, 352
-0.8781, 273, 65, 400, 320
-0.878863, 209, 1, 336, 375
-0.885171, 321, 97, 448, 352
-0.886259, 273, 1, 400, 375
-0.88656, 129, 1, 256, 256
-0.887844, 65, 1, 192, 256
-0.891618, 81, 1, 208, 375
-0.894708, 1, 129, 128, 375
-0.89806, 49, 129, 176, 375
-0.900078, 65, 129, 320, 256
-0.905714, 1, 209, 500, 336
-0.906483, 65, 1, 320, 128
-0.908166, 369, 129, 496, 375
-0.914289, 321, 1, 448, 256
-0.916136, 161, 193, 416, 320
-0.917794, 1, 97, 500, 224
-0.917887, 321, 1, 448, 375
-0.920133, 225, 113, 480, 240
-0.925351, 369, 113, 432, 240
-0.925582, 137, 1, 200, 128
-0.926378, 65, 209, 320, 336
-0.926624, 257, 161, 500, 288
-0.92799, 369, 1, 496, 375
-0.928479, 1, 33, 128, 288
-0.928738, 161, 1, 416, 128
-0.930721, 185, 33, 248, 160
-0.931769, 161, 129, 288, 256
-0.932951, 209, 193, 336, 320
-0.935242, 161, 65, 224, 192
-0.936241, 65, 65, 320, 192
-0.936301, 121, 97, 184, 224
-0.939106, 193, 49, 448, 176
-0.939821, 369, 1, 496, 256
-0.942154, 97, 81, 160, 208
-0.942238, 129, 33, 256, 160
-0.94251, 209, 1, 336, 128
-0.943312, 321, 161, 448, 288
-0.943785, 97, 1, 160, 128
-0.944039, 217, 129, 280, 256
-0.945027, 321, 113, 448, 240
-0.945767, 377, 161, 440, 288
-0.946282, 49, 113, 176, 240
-0.946369, 193, 41, 256, 104
-0.946483, 193, 241, 448, 368
-0.946703, 257, 177, 320, 304
-0.946705, 81, 145, 144, 272
-0.947085, 225, 193, 288, 320
-0.947438, 137, 49, 200, 176
-0.947516, 209, 145, 336, 272
-0.948044, 1, 1, 500, 128
-0.948228, 193, 17, 256, 80
-0.948712, 81, 1, 208, 128
-0.948792, 289, 209, 416, 336
-0.949264, 369, 65, 432, 192
-0.94929, 337, 81, 400, 208
-0.949418, 233, 17, 296, 144
-0.950581, 105, 97, 168, 160
-0.950904, 57, 145, 120, 272
-0.951243, 1, 145, 128, 272
-0.951491, 1, 49, 500, 176
-0.951598, 97, 145, 224, 272
-0.951628, 33, 1, 160, 128
-0.952625, 225, 49, 352, 176
-0.952819, 209, 81, 272, 208
-0.952827, 161, 81, 288, 208
-0.952839, 273, 129, 400, 256
-0.952894, 209, 17, 272, 144
-0.953069, 345, 161, 408, 288
-0.953548, 377, 137, 440, 200
-0.954026, 273, 81, 400, 208
-0.954413, 97, 81, 224, 208
-0.955153, 257, 1, 500, 128
-0.955161, 57, 193, 120, 320
-0.955203, 401, 145, 464, 272
-0.956578, 369, 145, 496, 272
-0.956662, 137, 65, 200, 128
-0.956972, 289, 1, 352, 128
-0.957047, 17, 193, 144, 320
-0.957819, 65, 97, 128, 224
-0.957964, 217, 25, 280, 88
-0.95804, 193, 241, 256, 368
-0.958374, 281, 193, 344, 320
-0.958454, 241, 17, 304, 80
-0.958542, 201, 121, 264, 184
-0.959269, 33, 161, 96, 288
-0.959525, 121, 121, 184, 184
-0.959731, 185, 129, 248, 256
-0.959745, 153, 33, 216, 96
-0.959832, 185, 81, 248, 208
-0.960027, 105, 145, 168, 272
-0.960132, 97, 193, 224, 320
-0.960601, 161, 193, 288, 320
-0.961272, 121, 1, 184, 64
-0.961753, 97, 33, 160, 96
-0.961818, 377, 169, 440, 232
-0.961967, 361, 105, 424, 168
-0.962069, 201, 193, 264, 320
-0.962461, 257, 225, 320, 352
-0.962491, 257, 1, 320, 128
-0.962641, 217, 201, 280, 264
-0.96282, 281, 1, 344, 64
-0.96305, 321, 65, 448, 192
-0.96312, 97, 73, 160, 136
-0.963397, 49, 65, 176, 192
-0.963433, 377, 193, 440, 256
-0.963458, 145, 121, 208, 184
-0.963683, 305, 209, 368, 336
-0.963779, 89, 129, 152, 192
-0.963818, 9, 113, 72, 240
-0.963846, 57, 145, 120, 208
-0.963932, 161, 241, 288, 368
-0.964063, 241, 121, 304, 184
-0.964363, 281, 209, 344, 272
-0.964444, 65, 121, 128, 184
-0.964929, 305, 225, 368, 288
-0.965123, 361, 81, 424, 144
-0.965198, 97, 1, 160, 64
-0.965597, 265, 185, 328, 248
-0.96571, 233, 241, 296, 368
-0.966183, 193, 1, 256, 256
-0.966265, 345, 209, 408, 272
-0.966369, 353, 129, 416, 192
-0.966467, 209, 145, 272, 208
-0.966685, 145, 113, 208, 240
-0.966757, 97, 201, 160, 264
-0.966774, 321, 161, 384, 288
-0.966843, 209, 265, 272, 328
-0.966865, 33, 113, 96, 240
-0.967179, 241, 241, 304, 304
-0.967331, 361, 209, 424, 336
-0.967389, 257, 1, 384, 128
-0.967424, 169, 57, 232, 120
-0.967535, 65, 33, 128, 96
-0.967649, 385, 209, 448, 336
-0.967692, 337, 209, 464, 336
-0.967887, 65, 49, 128, 176
-0.967966, 1, 65, 128, 192
-0.968185, 177, 121, 240, 184
-0.968186, 221, 17, 252, 80
-0.968201, 329, 209, 392, 336
-0.968798, 185, 49, 216, 112
-0.968874, 369, 81, 400, 208
-0.96893, 233, 1, 296, 256
-0.969052, 105, 65, 168, 320
-0.969109, 241, 169, 304, 232
-0.969154, 129, 41, 192, 104
-0.969156, 33, 25, 96, 88
-0.969196, 193, 65, 256, 128
-0.969524, 33, 17, 96, 144
-0.969727, 233, 65, 264, 192
-0.96987, 233, 57, 296, 120
-0.969959, 289, 25, 352, 88
-0.970127, 33, 169, 96, 232
-0.9702, 385, 113, 448, 176
-0.970226, 393, 217, 456, 280
-0.970345, 173, 49, 204, 176
-0.970482, 201, 97, 264, 352
-0.970635, 73, 1, 136, 128
-0.970667, 65, 1, 128, 64
-0.97067, 337, 89, 400, 152
-0.970786, 25, 241, 88, 368
-0.970856, 193, 241, 256, 304
-0.970898, 257, 113, 320, 240
-0.971047, 133, 81, 164, 208
-0.97146, 393, 81, 456, 208
-0.971595, 209, 241, 336, 368
-0.971656, 265, 241, 328, 304
-0.971702, 153, 89, 216, 152
-0.971711, 137, 1, 200, 256
-0.971737, 369, 217, 432, 280
-0.972059, 409, 177, 472, 240
-0.972089, 229, 1, 260, 128
-0.972107, 129, 97, 192, 160
-0.972198, 265, 41, 328, 104
-0.972373, 369, 97, 432, 352
-0.972375, 161, 137, 288, 200
-0.972418, 145, 145, 208, 208
-0.972419, 193, 25, 320, 88
-0.972463, 209, 209, 336, 272
-0.972528, 233, 265, 296, 328
-0.972538, 65, 57, 128, 120
-0.972575, 105, 193, 168, 320
-0.972681, 225, 97, 352, 224
-0.972683, 149, 1, 180, 64
-0.972687, 161, 17, 224, 144
-0.972694, 185, 49, 216, 176
-0.97275, 313, 81, 376, 208
-0.972865, 233, 113, 264, 240
-0.972925, 17, 241, 144, 368
-0.973038, 17, 121, 80, 184
-0.973041, 233, 25, 264, 88
-0.973041, 401, 153, 464, 216
-0.973326, 233, 145, 296, 208
-0.973355, 369, 97, 496, 224
-0.973402, 233, 129, 264, 192
-0.973499, 217, 81, 280, 144
-0.973629, 345, 233, 408, 296
-0.973737, 49, 193, 112, 256
-0.973802, 233, 81, 296, 208
-0.974158, 73, 201, 136, 264
-0.974207, 117, 1, 148, 128
-0.974239, 81, 25, 208, 88
-0.974268, 113, 1, 240, 64
-0.974503, 169, 65, 232, 320
-0.974649, 197, 41, 228, 104
-0.974675, 217, 1, 280, 64
-0.974752, 261, 177, 292, 304
-0.974923, 129, 49, 256, 112
-0.975139, 9, 17, 72, 144
-0.975147, 177, 265, 240, 328
-0.97518, 257, 217, 320, 280
-0.975348, 121, 65, 152, 192
-0.975381, 373, 129, 404, 192
-0.975416, 133, 17, 164, 144
-0.975467, 129, 97, 160, 160
-0.975575, 305, 113, 432, 176
-0.975656, 117, 1, 148, 64
-0.97566, 257, 217, 384, 280
-0.975727, 169, 225, 232, 352
-0.975785, 53, 113, 84, 240
-0.975991, 81, 121, 208, 184
-0.975998, 229, 273, 260, 336
-0.976034, 81, 161, 144, 224
-0.97604, 65, 97, 128, 160
-0.97605, 81, 129, 112, 256
-0.976265, 401, 113, 432, 240
-0.976583, 49, 81, 176, 144
-0.976583, 105, 65, 136, 192
-0.976696, 41, 49, 104, 112
-0.976697, 417, 97, 480, 224
-0.976848, 353, 145, 480, 208
-0.976878, 81, 257, 144, 320
-0.976919, 389, 97, 420, 224
-0.976953, 9, 169, 72, 232
-0.977044, 217, 241, 280, 304
-0.977076, 193, 217, 256, 280
-0.977198, 153, 113, 184, 176
-0.977199, 225, 1, 352, 64
-0.977225, 421, 145, 452, 272
-0.977264, 81, 225, 144, 352
-0.977282, 145, 25, 272, 88
-0.977314, 105, 161, 168, 224
-0.977336, 49, 265, 112, 328
-0.977351, 225, 121, 352, 184
-0.977446, 313, 1, 376, 128
-0.977491, 241, 65, 272, 128
-0.977623, 173, 57, 204, 120
-0.977628, 49, 129, 112, 375
-0.977675, 49, 153, 176, 216
-0.977712, 269, 17, 300, 80
-0.977784, 121, 65, 152, 128
-0.97791, 129, 105, 256, 168
-0.97796, 313, 17, 376, 80
-0.978043, 313, 81, 376, 144
-0.978106, 297, 249, 360, 312
-0.978169, 65, 1, 192, 64
-0.978265, 293, 1, 324, 64
-0.978291, 109, 121, 140, 184
-0.978301, 225, 129, 288, 375
-0.978303, 153, 1, 184, 128
-0.978332, 145, 97, 176, 224
-0.978381, 161, 1, 288, 64
-0.978386, 33, 1, 96, 64
-0.97841, 321, 225, 448, 288
-0.978438, 273, 169, 400, 232
-0.978444, 377, 129, 408, 256
-0.978464, 241, 17, 272, 144
-0.978475, 281, 177, 312, 304
-0.978481, 245, 129, 276, 256
-0.978495, 409, 193, 440, 320
-0.978535, 329, 121, 392, 184
-0.978644, 177, 49, 304, 112
-0.978684, 177, 129, 208, 192
-0.978714, 225, 289, 288, 352
-0.978729, 65, 241, 192, 368
-0.97886, 409, 201, 440, 264
-0.978875, 73, 129, 136, 375
-0.978891, 81, 1, 144, 256
-0.978953, 1, 9, 64, 72
-0.978984, 93, 73, 124, 136
-0.97899, 161, 97, 192, 224
-0.97903, 361, 89, 392, 152
-0.979043, 353, 177, 480, 240
-0.979083, 245, 241, 276, 304
-0.979182, 337, 161, 400, 224
-0.979202, 401, 121, 432, 184
-0.979202, 1, 1, 128, 64
-0.979233, 105, 201, 136, 264
-0.97928, 225, 193, 256, 320
-0.979291, 281, 241, 344, 368
-0.979345, 17, 193, 144, 256
-0.979544, 69, 129, 100, 256
-0.97958, 369, 177, 400, 304
-0.979597, 425, 145, 488, 272
-0.979701, 33, 105, 160, 168
-0.979709, 113, 145, 144, 272
-0.97989, 53, 161, 84, 224
-0.979923, 417, 169, 448, 232
-0.979948, 93, 145, 124, 272
-0.979977, 113, 241, 240, 368
-0.980068, 337, 185, 400, 248
-0.98007, 373, 209, 404, 272
-0.98009, 145, 9, 208, 72
-0.980096, 257, 145, 384, 208
-0.980129, 105, 17, 136, 144
-0.980136, 265, 121, 328, 184
-0.980159, 265, 265, 328, 328
-0.980174, 85, 41, 116, 104
-0.98022, 241, 33, 368, 96
-0.980291, 209, 209, 240, 336
-0.980317, 237, 193, 268, 320
-0.980385, 177, 113, 304, 176
-0.980442, 73, 233, 136, 296
-0.980493, 209, 1, 272, 375
-0.980505, 245, 25, 276, 88
-0.980538, 301, 193, 332, 320
-0.980561, 213, 17, 244, 144
-0.980566, 1, 161, 128, 224
-0.980659, 9, 49, 72, 112
-0.980733, 333, 217, 364, 280
-0.980767, 41, 81, 104, 144
-0.980777, 245, 137, 276, 200
-0.980808, 381, 105, 412, 168
-0.980808, 193, 233, 320, 296
-0.980817, 353, 201, 480, 264
-0.980868, 197, 33, 228, 160
-0.980875, 257, 121, 288, 184
-0.980931, 265, 145, 328, 208
-0.980994, 169, 145, 232, 208
-0.981074, 129, 97, 192, 352
-0.981088, 93, 129, 124, 192
-0.981106, 297, 145, 360, 272
-0.981133, 177, 97, 240, 160
-0.981135, 213, 121, 244, 184
-0.981138, 385, 137, 416, 200
-0.981148, 221, 65, 252, 192
-0.981184, 97, 209, 224, 272
-0.981197, 41, 65, 104, 192
-0.981254, 357, 145, 388, 208
-0.981338, 81, 49, 208, 112
-0.981375, 165, 33, 196, 96
-0.981398, 1, 81, 64, 144
-0.981451, 289, 89, 416, 152
-0.981482, 41, 161, 72, 224
-0.981516, 53, 129, 84, 192
-0.981555, 305, 201, 432, 264
-0.981573, 129, 81, 256, 144
-0.981589, 41, 121, 104, 184
-0.981713, 265, 49, 328, 176
-0.981716, 209, 185, 336, 248
-0.981723, 417, 209, 480, 272
-0.981724, 353, 17, 480, 144
-0.981775, 81, 313, 144, 375
-0.981826, 269, 1, 300, 128
-0.981834, 217, 129, 248, 256
-0.981892, 313, 57, 376, 120
-0.98192, 209, 257, 336, 320
-0.98193, 265, 217, 296, 280
-0.981968, 273, 185, 304, 248
-0.981976, 233, 201, 264, 264
-0.981978, 69, 153, 100, 216
-0.981996, 289, 41, 416, 104
-0.98209, 49, 33, 112, 288
-0.982167, 361, 129, 392, 256
-0.982246, 165, 121, 196, 184
-0.982275, 85, 1, 116, 64
-0.982281, 257, 193, 384, 256
-0.982311, 109, 97, 140, 160
-0.98235, 33, 129, 160, 192
-0.982409, 133, 17, 164, 80
-0.982467, 101, 1, 132, 64
-0.982476, 9, 1, 72, 256
-0.98248, 201, 289, 264, 352
-0.98258, 25, 257, 88, 320
-0.982725, 1, 241, 64, 368
-0.982732, 261, 177, 292, 240
-0.982739, 285, 41, 316, 104
-0.982747, 317, 193, 348, 320
-0.982763, 241, 265, 272, 328
-0.982803, 321, 217, 352, 280
-0.982948, 177, 81, 208, 144
-0.982949, 25, 97, 88, 352
-0.982967, 213, 217, 244, 280
-0.982994, 133, 129, 164, 256
-0.98306, 217, 249, 248, 312
-0.983072, 141, 89, 172, 152
-0.983105, 377, 81, 408, 144
-0.983143, 409, 145, 440, 208
-0.983299, 169, 9, 232, 72
-0.9833, 161, 273, 288, 336
-0.983383, 289, 49, 352, 112
-0.983385, 225, 105, 256, 168
-0.983413, 389, 145, 420, 272
-0.983454, 401, 129, 464, 375
-0.983458, 353, 65, 384, 192
-0.983483, 189, 121, 220, 184
-0.983516, 397, 193, 428, 320
-0.983544, 9, 161, 72, 288
-0.983559, 345, 81, 376, 144
-0.983563, 293, 1, 324, 128
-0.983619, 245, 201, 276, 264
-0.983658, 141, 113, 172, 176
-0.983755, 85, 201, 116, 264
-0.983781, 181, 25, 212, 88
-0.983799, 101, 33, 132, 96
-0.983873, 153, 1, 216, 375
-0.983985, 105, 1, 168, 375
-0.983986, 273, 241, 400, 304
-0.983999, 165, 1, 196, 128
-0.984029, 221, 41, 252, 104
-0.984038, 409, 121, 472, 184
-0.984102, 353, 89, 480, 152
-0.984106, 153, 81, 184, 144
-0.984124, 9, 145, 72, 208
-0.984135, 157, 49, 188, 176
-0.984139, 209, 1, 240, 64
-0.984143, 225, 57, 352, 120
-0.984177, 345, 65, 408, 320
-0.984199, 257, 1, 288, 64
-0.984253, 245, 65, 276, 192
-0.984281, 409, 193, 472, 320
-0.984299, 421, 201, 452, 264
-0.984319, 169, 233, 232, 296
-0.984334, 109, 65, 140, 128
-0.984384, 385, 65, 448, 128
-0.984426, 257, 1, 320, 256
-0.984497, 81, 1, 112, 128
-0.984511, 305, 1, 432, 128
-0.98454, 105, 257, 168, 320
-0.984572, 357, 217, 388, 280
-0.98464, 33, 25, 160, 88
-0.984674, 33, 145, 96, 208
-0.984703, 309, 217, 340, 280
-0.984713, 297, 25, 328, 88
-0.984737, 249, 289, 312, 352
-0.984761, 257, 281, 288, 344
-0.984782, 105, 145, 136, 208
-0.984881, 345, 33, 408, 160
-0.984891, 225, 313, 288, 375
-0.984922, 41, 161, 72, 288
-0.984944, 57, 169, 120, 232
-0.984967, 125, 129, 156, 192
-0.984984, 177, 289, 240, 352
-0.985028, 229, 241, 260, 368
-0.985033, 157, 145, 188, 208
-0.985037, 409, 97, 472, 160
-0.985067, 65, 257, 192, 320
-0.985078, 41, 113, 72, 240
-0.985111, 85, 193, 116, 320
-0.985263, 17, 65, 80, 192
-0.985269, 41, 289, 104, 352
-0.985283, 173, 97, 204, 224
-0.98531, 305, 137, 432, 200
-0.985352, 265, 257, 296, 320
-0.985366, 209, 41, 240, 104
-0.98539, 305, 137, 368, 200
-0.98542, 53, 161, 84, 288
-0.985473, 245, 241, 276, 368
-0.985483, 145, 145, 176, 272
-0.985497, 177, 73, 304, 136
-0.985503, 309, 1, 340, 128
-0.98551, 353, 121, 480, 184
-0.985524, 201, 105, 232, 168
-0.985538, 365, 177, 396, 240
-0.985552, 161, 209, 288, 272
-0.985558, 233, 1, 264, 64
-0.985563, 89, 65, 120, 192
-0.985581, 17, 217, 144, 280
-0.985589, 313, 201, 376, 264
-0.985618, 145, 49, 176, 176
-0.985618, 73, 281, 136, 344
-0.98562, 93, 1, 124, 128
-0.985656, 249, 169, 280, 232
-0.985687, 357, 113, 388, 176
-0.985691, 1, 265, 128, 328
-0.985731, 73, 1, 104, 64
-0.985745, 245, 105, 276, 168
-0.985774, 129, 209, 192, 336
-0.985819, 273, 97, 336, 160
-0.985849, 113, 145, 240, 208
-0.985878, 145, 249, 272, 312
-0.985902, 17, 241, 144, 304
-0.986064, 153, 257, 216, 320
-0.986076, 1, 57, 128, 120
-0.986106, 133, 41, 164, 104
-0.986195, 265, 145, 296, 208
-0.986245, 397, 145, 428, 208
-0.9863, 97, 97, 128, 160
-0.986314, 225, 97, 352, 160
-0.986316, 177, 313, 240, 375
-0.986334, 105, 241, 168, 368
-0.986452, 197, 241, 228, 304
-0.986495, 129, 1, 192, 375
-0.986549, 281, 9, 312, 72
-0.98661, 261, 97, 292, 224
-0.986619, 9, 313, 72, 375
-0.986619, 137, 313, 200, 375
-0.986631, 337, 209, 368, 336
-0.986659, 73, 1, 136, 375
-0.986667, 197, 17, 228, 80
-0.986692, 77, 265, 108, 328
-0.9867, 337, 297, 400, 360
-0.986709, 345, 57, 408, 120
-0.986724, 249, 129, 312, 375
-0.986841, 197, 225, 228, 352
-0.986858, 113, 25, 144, 88
-0.986888, 177, 305, 304, 368
-0.986908, 193, 73, 224, 136
-0.986909, 345, 49, 376, 112
-0.986955, 233, 297, 264, 360
-0.98697, 345, 209, 376, 272
-0.986972, 381, 161, 412, 224
-0.987005, 273, 9, 400, 72
-0.987221, 37, 241, 68, 368
-0.987267, 289, 49, 352, 176
-0.987372, 185, 1, 248, 375
-0.987398, 289, 1, 352, 375
-0.987404, 249, 177, 280, 304
-0.987438, 253, 49, 284, 112
-0.987456, 225, 281, 352, 344
-0.98749, 133, 65, 164, 128
-0.987501, 209, 145, 336, 208
-0.987508, 233, 1, 296, 375
-0.987529, 321, 249, 384, 312
-0.987579, 209, 273, 240, 336
-0.987582, 25, 193, 88, 256
-0.987592, 397, 217, 428, 280
-0.987603, 393, 241, 456, 304
-0.987616, 77, 65, 108, 192
-0.987635, 225, 81, 256, 144
-0.987655, 209, 65, 240, 192
-0.987666, 41, 137, 72, 200
-0.987716, 185, 1, 216, 128
-0.987745, 357, 193, 388, 320
-0.987757, 273, 113, 304, 240
-0.987796, 113, 281, 240, 344
-0.987809, 273, 41, 304, 104
-0.987813, 229, 233, 260, 296
-0.987818, 53, 185, 84, 248
-0.987826, 245, 297, 276, 360
-0.987837, 217, 169, 280, 232
-0.987959, 421, 193, 452, 320
-0.987993, 137, 137, 168, 200
-0.988035, 193, 129, 224, 256
-0.988089, 101, 241, 132, 304
-0.988095, 61, 65, 92, 192
-0.988175, 157, 145, 188, 272
-0.98821, 201, 25, 264, 56
-0.988251, 65, 193, 96, 256
-0.988292, 265, 225, 296, 352
-0.988339, 145, 57, 176, 120
-0.988345, 401, 33, 464, 160
-0.988362, 205, 129, 236, 256
-0.988415, 73, 49, 104, 112
-0.988465, 209, 137, 272, 168
-0.988494, 105, 101, 168, 132
-0.988517, 129, 185, 256, 248
-0.988538, 281, 49, 312, 176
-0.988555, 153, 177, 216, 304
-0.988615, 209, 37, 272, 68
-0.988629, 369, 225, 496, 288
-0.988634, 37, 105, 68, 168
-0.988657, 121, 161, 152, 224
-0.988667, 273, 129, 336, 375
-0.9887, 429, 161, 460, 224
-0.988721, 69, 129, 100, 192
-0.988748, 297, 49, 328, 112
-0.988754, 409, 241, 440, 304
-0.988767, 385, 193, 416, 256
-0.988803, 353, 65, 480, 128
-0.988808, 273, 265, 400, 328
-0.988811, 57, 241, 120, 368
-0.988818, 281, 1, 312, 128
-0.988851, 137, 37, 200, 68
-0.988882, 65, 177, 96, 304
-0.988889, 273, 65, 400, 128
-0.98892, 369, 153, 400, 216
-0.988924, 325, 25, 356, 88
-0.988931, 113, 113, 176, 144
-0.988986, 193, 49, 256, 80
-0.989018, 45, 313, 76, 375
-0.989051, 385, 225, 416, 288
-0.989061, 69, 1, 100, 128
-0.989088, 309, 17, 340, 80
-0.989128, 185, 137, 248, 168
-0.989144, 349, 129, 380, 256
-0.989174, 381, 49, 412, 176
-0.989246, 81, 233, 208, 296
-0.989263, 57, 153, 120, 184
-0.989318, 65, 9, 320, 72
-0.989418, 65, 33, 320, 96
-0.989434, 369, 1, 432, 375
-0.989536, 101, 193, 132, 320
-0.989538, 137, 65, 200, 96
-0.989635, 337, 249, 464, 312
-0.989648, 225, 1, 288, 32
-0.98967, 297, 241, 328, 368
-0.98968, 177, 61, 240, 92
-0.989687, 233, 37, 296, 68
-0.989693, 49, 281, 176, 344
-0.989705, 97, 21, 160, 52
-0.989721, 385, 153, 448, 184
-0.989726, 45, 33, 76, 160
-0.989741, 369, 165, 432, 196
-0.989752, 217, 281, 280, 312
-0.989851, 313, 1, 376, 256
-0.989869, 233, 17, 296, 48
-0.989875, 97, 89, 160, 120
-0.98988, 257, 249, 320, 280
-0.989896, 129, 161, 192, 288
-0.989901, 217, 209, 280, 240
-0.989924, 161, 129, 224, 160
-0.98993, 393, 213, 456, 244
-0.990007, 353, 97, 416, 128
-0.990021, 169, 49, 232, 80
-0.990049, 353, 153, 416, 184
-0.990076, 353, 229, 416, 260
-0.990079, 233, 137, 296, 168
-0.990089, 217, 269, 280, 300
-0.990121, 337, 217, 400, 248
-0.990126, 97, 1, 160, 32
-0.990136, 361, 109, 424, 140
-0.990146, 273, 5, 336, 36
-0.990199, 89, 209, 152, 240
-0.990215, 281, 245, 344, 276
-0.99023, 137, 77, 200, 108
-0.990265, 241, 261, 304, 292
-0.990276, 161, 37, 224, 68
-0.990308, 225, 145, 480, 208
-0.990332, 97, 37, 160, 68
-0.990356, 101, 241, 132, 368
-0.990364, 257, 1, 320, 375
-0.990382, 29, 177, 60, 304
-0.990392, 201, 149, 264, 180
-0.990397, 265, 49, 328, 80
-0.990413, 121, 125, 184, 156
-0.990414, 313, 241, 376, 272
-0.990492, 417, 97, 448, 224
-0.990505, 193, 81, 256, 112
-0.990508, 129, 101, 192, 132
-0.990511, 65, 57, 128, 88
-0.990514, 25, 189, 88, 220
-0.990514, 65, 273, 128, 304
-0.990525, 209, 13, 272, 44
-0.990538, 89, 145, 152, 176
-0.99054, 185, 13, 248, 44
-0.990568, 185, 37, 248, 68
-0.990571, 361, 209, 424, 240
-0.9906, 313, 1, 376, 375
-0.990602, 129, 193, 160, 320
-0.990618, 97, 73, 160, 104
-0.990619, 161, 149, 224, 180
-0.990632, 137, 89, 200, 120
-0.990637, 225, 121, 480, 184
-0.990666, 217, 257, 280, 288
-0.990683, 313, 225, 376, 256
-0.99069, 353, 141, 416, 172
-0.990692, 97, 137, 352, 200
-0.990696, 345, 81, 408, 112
-0.990712, 97, 129, 160, 160
-0.990719, 281, 61, 344, 92
-0.990746, 377, 185, 440, 216
-0.99075, 265, 201, 328, 232
-0.99076, 273, 17, 336, 48
-0.990831, 241, 149, 304, 180
-0.990867, 185, 273, 248, 304
-0.990885, 193, 201, 448, 264
-0.990886, 1, 177, 64, 208
-0.9909, 197, 81, 228, 208
-0.990905, 57, 1, 88, 128
-0.990911, 41, 269, 104, 300
-0.990951, 81, 101, 144, 132
-0.990952, 253, 1, 284, 128
-0.990955, 121, 21, 184, 52
-0.990958, 249, 237, 312, 268
-0.990983, 89, 57, 152, 88
-0.990992, 257, 273, 320, 304
-0.991005, 313, 85, 376, 116
-0.991007, 377, 225, 440, 256
-0.991009, 73, 13, 136, 44
-0.991025, 137, 53, 200, 84
-0.991026, 289, 257, 352, 288
-0.991044, 377, 197, 440, 228
-0.991053, 81, 261, 144, 292
-0.991055, 289, 45, 352, 76
-0.991055, 313, 45, 376, 76
-0.991071, 209, 221, 272, 252
-0.991095, 73, 1, 136, 32
-0.991126, 65, 129, 128, 160
-0.991136, 393, 165, 456, 196
-0.991142, 137, 157, 200, 188
-0.991152, 193, 117, 256, 148
-0.991155, 217, 49, 280, 80
-0.991158, 241, 125, 304, 156
-0.991175, 377, 121, 440, 152
-0.991198, 329, 165, 392, 196
-0.991211, 273, 213, 336, 244
-0.991214, 217, 125, 280, 156
-0.991226, 57, 29, 120, 60
-0.991248, 121, 1, 184, 32
-0.991305, 413, 241, 444, 368
-0.99132, 337, 241, 400, 272
-0.991328, 33, 169, 96, 200
-0.991337, 249, 189, 312, 220
-0.991339, 49, 193, 112, 224
-0.991347, 309, 241, 340, 368
-0.99135, 265, 261, 328, 292
-0.991369, 377, 141, 440, 172
-0.991404, 81, 177, 208, 240
-0.991436, 153, 101, 216, 132
-0.991445, 137, 137, 200, 168
-0.991456, 137, 113, 200, 144
-0.991462, 241, 49, 304, 80
-0.991466, 65, 41, 128, 72
-0.991483, 65, 205, 128, 236
-0.991489, 257, 169, 500, 232
-0.991502, 105, 269, 168, 300
-0.991507, 417, 165, 480, 196
-0.99152, 409, 33, 472, 288
-0.99156, 113, 145, 176, 176
-0.991564, 329, 153, 392, 184
-0.991592, 401, 197, 464, 228
-0.991601, 201, 61, 264, 92
-0.991606, 65, 117, 128, 148
-0.991611, 321, 1, 352, 128
-0.991611, 29, 113, 60, 240
-0.99163, 193, 249, 256, 280
-0.991633, 257, 37, 320, 68
-0.991666, 105, 345, 168, 375
-0.991682, 225, 305, 352, 368
-0.991699, 169, 145, 200, 272
-0.991705, 97, 57, 352, 120
-0.99171, 1, 81, 128, 144
-0.991713, 169, 73, 232, 104
-0.991713, 81, 345, 144, 375
-0.991718, 297, 21, 360, 52
-0.991728, 313, 209, 376, 240
-0.991746, 89, 113, 152, 144
-0.991766, 217, 293, 280, 324
-0.991769, 161, 345, 224, 375
-0.991787, 233, 69, 296, 100
-0.991801, 113, 165, 176, 196
-0.991804, 169, 89, 232, 120
-0.991811, 41, 1, 104, 32
-0.991858, 281, 225, 312, 352
-0.991979, 161, 141, 288, 172
-0.991995, 189, 49, 204, 112
-0.991999, 433, 161, 464, 288
-0.99201, 233, 133, 264, 164
-0.992027, 185, 241, 216, 368
-0.992039, 193, 45, 224, 76
-0.992041, 65, 217, 320, 280
-0.992063, 193, 241, 448, 304
-0.992132, 381, 209, 412, 336
-0.992154, 49, 313, 176, 375
-0.992166, 321, 129, 384, 375
-0.992183, 129, 101, 160, 132
-0.992194, 185, 61, 216, 92
-0.99226, 113, 193, 144, 320
-0.992264, 221, 9, 252, 40
-0.992266, 265, 241, 296, 272
-0.992286, 221, 133, 252, 164
-0.992297, 333, 1, 364, 128
-0.992302, 161, 17, 416, 80
-0.992344, 181, 133, 212, 164
-0.992348, 337, 273, 464, 336
-0.992356, 233, 49, 264, 80
-0.992357, 365, 93, 396, 124
-0.992362, 285, 45, 316, 76
-0.992407, 77, 145, 108, 176
-0.992408, 97, 145, 128, 176
-0.992423, 1, 121, 256, 184
-0.992426, 197, 57, 228, 88
-0.992438, 149, 1, 180, 32
-0.992455, 421, 209, 452, 240
-0.99247, 97, 209, 128, 240
-0.992477, 233, 33, 264, 64
-0.992489, 209, 137, 240, 168
-0.992493, 121, 89, 152, 120
-0.992498, 225, 285, 256, 316
-0.992501, 181, 49, 212, 80
-0.992527, 233, 149, 264, 180
-0.992535, 409, 209, 440, 240
-0.992547, 205, 45, 236, 76
-0.992556, 293, 57, 324, 88
-0.992567, 405, 65, 436, 192
-0.992568, 409, 153, 440, 184
-0.992571, 217, 33, 248, 64
-0.992577, 193, 45, 320, 76
-0.992577, 241, 273, 272, 304
-0.992584, 137, 113, 168, 144
-0.992588, 425, 169, 456, 200
-0.992601, 109, 129, 140, 160
-0.992606, 1, 305, 128, 368
-0.992618, 177, 73, 208, 104
-0.992624, 113, 1, 144, 32
-0.992628, 265, 261, 296, 292
-0.99265, 245, 137, 276, 168
-0.992655, 249, 261, 280, 292
-0.992658, 169, 129, 200, 160
-0.992681, 229, 269, 260, 300
-0.992685, 149, 117, 180, 148
-0.992691, 137, 37, 168, 68
-0.992693, 245, 245, 276, 276
-0.992699, 177, 85, 208, 116
-0.992705, 265, 13, 296, 44
-0.992725, 233, 17, 264, 48
-0.992725, 297, 249, 328, 280
-0.99273, 237, 69, 268, 100
-0.992735, 145, 21, 176, 52
-0.992744, 121, 69, 152, 100
-0.992747, 25, 241, 56, 368
-0.992748, 97, 89, 128, 120
-0.992751, 309, 245, 340, 276
-0.992753, 349, 233, 380, 264
-0.992765, 345, 221, 376, 252
-0.992766, 93, 73, 124, 104
-0.992767, 297, 1, 328, 32
-0.992769, 125, 1, 156, 32
-0.992772, 337, 237, 368, 268
-0.992778, 93, 29, 124, 60
-0.992778, 253, 149, 284, 180
-0.992779, 41, 169, 72, 200
-0.992782, 141, 101, 172, 132
-0.992789, 365, 217, 396, 248
-0.992796, 125, 29, 156, 60
-0.992796, 117, 101, 148, 132
-0.992803, 173, 149, 204, 180
-0.992803, 325, 241, 356, 272
-0.992808, 85, 53, 116, 84
-0.992819, 57, 133, 88, 164
-0.992823, 217, 269, 248, 300
-0.992824, 85, 1, 116, 32
-0.992824, 237, 209, 268, 240
-0.992825, 285, 1, 316, 32
-0.992825, 121, 125, 152, 156
-0.992829, 285, 253, 316, 284
-0.992832, 157, 129, 188, 160
-0.99284, 341, 85, 372, 116
-0.992841, 421, 157, 452, 188
-0.992842, 261, 229, 292, 260
-0.992842, 117, 53, 148, 84
-0.992845, 393, 149, 424, 180
-0.992845, 189, 73, 220, 104
-0.992864, 361, 153, 392, 184
-0.992864, 305, 61, 336, 92
-0.992864, 65, 153, 96, 184
-0.992874, 221, 21, 252, 52
-0.992874, 249, 1, 280, 32
-0.992874, 29, 177, 60, 208
-0.992877, 113, 241, 144, 368
-0.992879, 221, 121, 252, 152
-0.992881, 225, 213, 256, 244
-0.992884, 81, 157, 112, 188
-0.992886, 405, 221, 436, 252
-0.99289, 377, 165, 408, 196
-0.992891, 261, 217, 292, 248
-0.992892, 245, 45, 276, 76
-0.992898, 329, 225, 360, 256
-0.992898, 405, 137, 436, 168
-0.992903, 85, 133, 116, 164
-0.992905, 101, 1, 132, 32
-0.992909, 97, 129, 128, 160
-0.99291, 89, 273, 120, 304
-0.992912, 237, 81, 268, 112
-0.992912, 409, 241, 472, 368
-0.992915, 361, 229, 392, 260
-0.992917, 105, 17, 136, 48
-0.992919, 109, 89, 140, 120
-0.99292, 45, 189, 76, 220
-0.992921, 285, 13, 316, 44
-0.99293, 277, 57, 308, 88
-0.992932, 269, 1, 300, 32
-0.992934, 33, 257, 288, 320
-0.992938, 157, 33, 188, 64
-0.992941, 193, 129, 224, 160
-0.992941, 373, 105, 404, 136
-0.992943, 61, 193, 92, 224
-0.992944, 417, 181, 448, 212
-0.992949, 169, 61, 200, 92
-0.992954, 305, 313, 432, 375
-0.992958, 85, 205, 116, 236
-0.992965, 73, 269, 104, 300
-0.992968, 125, 17, 156, 48
-0.992969, 161, 105, 192, 136
-0.99298, 353, 89, 384, 120
-0.992981, 73, 9, 104, 40
-0.992983, 105, 105, 136, 136
-0.992987, 125, 113, 156, 144
-0.992993, 93, 41, 124, 72
-0.992998, 257, 173, 288, 204
-0.992999, 257, 129, 288, 160
-0.993001, 425, 245, 456, 276
-0.993001, 245, 33, 276, 64
-0.993005, 385, 137, 416, 168
-0.993006, 301, 213, 332, 244
-0.993007, 81, 41, 112, 72
-0.993014, 33, 161, 288, 224
-0.993057, 301, 145, 332, 272
-0.993175, 425, 1, 488, 375
-0.993214, 129, 313, 256, 375
-0.993217, 321, 17, 448, 80
-0.993248, 225, 1, 240, 64
-0.99325, 297, 97, 360, 352
-0.993293, 1, 145, 500, 208
-0.993352, 393, 49, 424, 176
-0.993358, 341, 65, 372, 192
-0.993387, 49, 5, 176, 36
-0.993536, 235, 17, 250, 80
-0.993553, 49, 1, 112, 375
-0.993555, 337, 41, 464, 104
-0.993593, 1, 57, 256, 120
-0.993598, 361, 241, 392, 368
-0.993615, 425, 241, 456, 368
-0.993676, 401, 1, 464, 375
-0.993698, 145, 97, 160, 160
-0.993705, 193, 97, 448, 160
-0.993754, 1, 169, 500, 232
-0.993772, 129, 49, 256, 80
-0.993838, 247, 33, 262, 96
-0.993853, 353, 297, 480, 360
-0.993917, 193, 265, 448, 328
-0.993928, 107, 25, 122, 88
-0.993943, 197, 33, 212, 96
-0.993985, 329, 161, 360, 288
-0.994023, 209, 9, 336, 40
-0.994066, 97, 125, 224, 156
-0.994102, 241, 25, 256, 88
-0.994115, 293, 49, 324, 176
-0.994119, 225, 41, 480, 104
-0.994129, 365, 33, 396, 160
-0.994154, 273, 289, 400, 352
-0.994155, 337, 157, 464, 188
-0.994233, 159, 1, 174, 64
-0.994246, 81, 141, 208, 172
-0.994285, 241, 29, 368, 60
-0.994333, 209, 209, 336, 240
-0.994358, 97, 33, 112, 96
-0.994383, 191, 121, 206, 184
-0.994387, 129, 9, 256, 40
-0.994388, 33, 289, 288, 352
-0.994415, 243, 57, 258, 120
-0.994444, 201, 57, 216, 120
-0.994445, 139, 81, 154, 144
-0.994465, 33, 97, 288, 160
-0.994482, 377, 17, 440, 144
-0.99451, 193, 57, 320, 88
-0.99453, 273, 225, 400, 256
-0.994542, 137, 33, 152, 96
-0.994563, 369, 1, 432, 256
-0.994566, 95, 1, 110, 64
-0.994602, 49, 105, 176, 136
-0.994645, 209, 129, 336, 160
-0.994653, 371, 145, 386, 208
-0.994659, 131, 65, 146, 128
-0.994677, 203, 33, 218, 96
-0.99474, 373, 121, 388, 184
-0.994771, 417, 177, 432, 240
-0.994773, 1, 113, 500, 176
-0.994781, 337, 213, 464, 244
-0.994782, 309, 49, 340, 176
-0.994806, 101, 73, 116, 136
-0.994806, 97, 185, 352, 248
-0.994812, 161, 25, 288, 56
-0.994819, 245, 257, 260, 320
-0.994831, 345, 1, 408, 375
-0.994849, 133, 1, 148, 64
-0.994861, 115, 1, 130, 64
-0.994883, 237, 81, 252, 144
-0.994893, 337, 141, 464, 172
-0.994893, 97, 65, 224, 96
-0.994917, 287, 33, 302, 96
-0.99496, 145, 129, 272, 160
-0.994963, 153, 1, 168, 64
-0.994975, 231, 121, 246, 184
-0.994978, 425, 169, 440, 232
-0.99499, 157, 113, 172, 176
-0.994994, 273, 45, 400, 76
-0.995008, 111, 137, 126, 200
-0.995014, 49, 241, 80, 368
-0.995014, 235, 41, 250, 104
-0.995019, 241, 121, 256, 184
-0.99503, 49, 61, 176, 92
-0.995048, 1, 225, 500, 288
-0.995052, 209, 245, 336, 276
-0.995061, 75, 153, 90, 216
-0.995072, 109, 89, 124, 152
-0.995076, 251, 129, 266, 192
-0.99508, 237, 265, 252, 328
-0.995101, 253, 41, 268, 104
-0.995111, 401, 241, 432, 368
-0.995116, 161, 153, 288, 184
-0.995128, 353, 173, 480, 204
-0.995141, 109, 1, 124, 64
-0.995147, 1, 97, 32, 224
-0.995198, 105, 129, 120, 192
-0.995223, 17, 1, 80, 375
-0.995227, 219, 17, 234, 80
-0.995236, 289, 1, 352, 256
-0.99524, 375, 209, 390, 272
-0.995258, 427, 201, 442, 264
-0.995263, 49, 153, 176, 184
-0.995308, 379, 129, 394, 192
-0.995313, 57, 161, 72, 224
-0.995322, 419, 129, 434, 192
-0.995324, 305, 117, 432, 148
-0.995345, 101, 201, 116, 264
-0.995364, 63, 121, 78, 184
-0.995381, 405, 113, 420, 176
-0.995384, 373, 89, 388, 152
-0.995387, 137, 105, 152, 168
-0.995389, 181, 145, 212, 272
-0.995399, 379, 185, 394, 248
-0.995434, 167, 113, 182, 176
-0.995435, 129, 37, 256, 68
-0.995435, 363, 89, 378, 152
-0.995442, 429, 81, 460, 208
-0.995457, 209, 33, 224, 96
-0.995463, 141, 193, 172, 320
-0.995481, 277, 9, 292, 72
-0.995488, 355, 41, 370, 104
-0.995507, 129, 89, 144, 152
-0.995512, 175, 121, 190, 184
-0.995513, 353, 201, 480, 232
-0.99552, 109, 49, 124, 112
-0.995521, 121, 1, 136, 64
-0.995526, 65, 161, 80, 224
-0.995527, 147, 9, 162, 72
-0.995528, 1, 145, 128, 176
-0.99553, 237, 33, 268, 288
-0.995536, 185, 121, 200, 184
-0.995537, 195, 57, 210, 120
-0.995542, 383, 89, 398, 152
-0.995552, 139, 1, 154, 64
-0.995572, 397, 137, 412, 200
-0.995572, 225, 33, 256, 288
-0.995574, 161, 161, 288, 224
-0.995576, 425, 145, 440, 208
-0.995578, 337, 217, 352, 280
-0.995579, 273, 177, 400, 208
-0.99558, 433, 97, 496, 352
-0.995582, 367, 113, 382, 176
-0.995593, 273, 217, 288, 280
-0.99562, 151, 105, 166, 168
-0.995621, 321, 237, 448, 268
-0.995631, 393, 105, 408, 168
-0.995647, 225, 141, 352, 172
-0.995656, 193, 225, 320, 256
-0.995661, 385, 129, 400, 192
-0.995668, 185, 81, 200, 144
-0.995674, 191, 81, 206, 144
-0.99568, 209, 273, 336, 304
-0.995681, 161, 81, 288, 112
-0.995681, 85, 41, 100, 104
-0.995683, 241, 257, 368, 288
-0.9957, 97, 273, 224, 304
-0.995716, 233, 241, 248, 304
-0.99575, 349, 217, 364, 280
-0.995761, 227, 281, 242, 344
-0.995764, 115, 89, 130, 152
-0.995768, 353, 185, 480, 216
-0.995776, 43, 169, 58, 232
-0.995786, 1, 193, 256, 256
-0.995789, 183, 57, 198, 120
-0.995798, 69, 129, 84, 192
-0.995816, 137, 57, 152, 120
-0.995829, 257, 17, 500, 80
-0.995831, 241, 153, 368, 184
-0.995831, 49, 169, 64, 232
-0.995837, 257, 137, 272, 200
-0.995839, 99, 121, 114, 184
-0.995847, 81, 45, 208, 76
-0.995852, 305, 129, 432, 160
-0.995894, 97, 77, 224, 108
-0.995896, 131, 41, 146, 104
-0.995897, 127, 1, 142, 64
-0.995902, 81, 33, 208, 64
-0.995908, 1, 197, 128, 228
-0.995929, 1, 97, 64, 352
-0.995933, 289, 249, 416, 280
-0.995936, 421, 209, 436, 272
-0.995939, 133, 1, 164, 256
-0.995961, 365, 145, 380, 208
-0.995964, 145, 109, 272, 140
-0.995967, 431, 161, 446, 224
-0.995971, 337, 225, 464, 256
-0.995977, 293, 41, 308, 104
-0.995985, 241, 1, 256, 64
-0.995992, 307, 1, 322, 64
-0.995999, 173, 225, 204, 352
-0.996017, 167, 89, 182, 152
-0.996019, 357, 81, 372, 144
-0.996053, 119, 129, 134, 192
-0.996055, 145, 65, 272, 96
-0.996055, 313, 25, 328, 88
-0.996065, 121, 97, 136, 160
-0.996086, 281, 185, 296, 248
-0.996092, 265, 209, 280, 272
-0.996094, 193, 289, 448, 352
-0.9961, 227, 25, 242, 88
-0.99611, 227, 209, 242, 272
-0.996115, 117, 25, 132, 88
-0.996131, 265, 169, 280, 232
-0.996137, 113, 21, 240, 52
-0.996142, 215, 121, 230, 184
-0.996145, 257, 209, 384, 240
-0.996162, 389, 81, 404, 144
-0.996169, 33, 165, 160, 196
-0.99617, 57, 137, 72, 200
-0.996179, 411, 121, 426, 184
-0.996184, 13, 33, 44, 160
-0.996184, 225, 69, 352, 100
-0.996189, 125, 129, 140, 192
-0.996199, 385, 161, 400, 224
-0.996243, 107, 161, 122, 224
-0.996244, 247, 297, 262, 360
-0.996248, 79, 57, 94, 120
-0.996261, 185, 33, 216, 288
-0.996266, 17, 133, 144, 164
-0.99627, 101, 1, 116, 64
-0.996281, 291, 9, 306, 72
-0.996286, 411, 193, 426, 256
-0.99629, 381, 209, 396, 272
-0.99629, 145, 73, 160, 136
-0.996291, 113, 113, 128, 176
-0.996293, 225, 121, 240, 184
-0.996293, 45, 105, 60, 168
-0.996295, 109, 201, 124, 264
-0.9963, 33, 277, 160, 308
-0.996302, 243, 81, 258, 144
-0.996307, 325, 241, 356, 368
-0.996313, 161, 273, 288, 304
-0.996314, 191, 25, 206, 88
-0.996315, 289, 97, 416, 128
-0.99632, 317, 209, 332, 272
-0.996328, 337, 101, 464, 132
-0.996342, 257, 237, 384, 268
-0.996388, 65, 313, 320, 375
-0.996391, 217, 129, 248, 375
-0.996429, 97, 153, 224, 184
-0.996482, 81, 213, 208, 244
-0.996535, 273, 197, 400, 228
-0.99658, 97, 101, 224, 132
-0.996598, 97, 113, 224, 144
-0.996612, 121, 65, 152, 320
-0.996623, 249, 49, 264, 80
-0.99664, 33, 117, 160, 148
-0.996642, 1, 17, 128, 48
-0.996653, 65, 17, 192, 48
-0.996659, 225, 65, 480, 128
-0.996673, 243, 29, 258, 60
-0.996681, 137, 241, 168, 368
-0.996682, 241, 133, 256, 164
-0.996689, 393, 97, 424, 352
-0.996706, 33, 49, 160, 80
-0.996714, 353, 117, 480, 148
-0.996715, 81, 345, 208, 375
-0.996721, 161, 261, 288, 292
-0.996723, 227, 9, 242, 40
-0.996736, 237, 129, 268, 375
-0.996754, 213, 1, 244, 256
-0.996756, 17, 337, 144, 368
-0.99677, 93, 129, 124, 375
-0.996793, 207, 45, 222, 76
-0.996795, 1, 61, 128, 92
-0.996826, 317, 145, 348, 272
-0.996845, 33, 257, 160, 288
-0.996861, 1, 265, 500, 328
-0.996886, 1, 193, 500, 256
-0.996892, 161, 209, 288, 240
-0.996895, 235, 17, 250, 48
-0.996917, 321, 45, 448, 76
-0.996925, 285, 129, 316, 256
-0.996929, 209, 197, 336, 228
-0.99695, 257, 165, 384, 196
-0.996956, 369, 17, 496, 80
-0.99696, 33, 33, 160, 64
-0.996965, 145, 1, 176, 256
-0.996969, 193, 49, 208, 80
-0.996974, 201, 45, 216, 76
-0.996976, 249, 129, 280, 375
-0.996982, 227, 133, 242, 164
-0.996989, 405, 97, 436, 352
-0.996991, 437, 225, 468, 352
-0.996993, 105, 1, 136, 256
-0.996995, 105, 97, 136, 352
-0.997024, 143, 97, 158, 128
-0.997033, 139, 29, 154, 60
-0.997112, 193, 113, 320, 144
-0.997124, 233, 133, 248, 164
-0.997126, 253, 1, 284, 256
-0.997127, 145, 285, 272, 316
-0.997166, 249, 149, 264, 180
-0.997181, 1, 73, 128, 104
-0.997185, 1, 9, 500, 72
-0.997185, 201, 97, 232, 352
-0.997197, 65, 89, 192, 120
-0.997201, 337, 85, 464, 116
-0.997205, 199, 61, 214, 92
-0.997209, 189, 69, 204, 100
-0.99723, 187, 53, 202, 84
-0.997249, 97, 261, 224, 292
-0.997257, 17, 241, 144, 272
-0.997262, 117, 89, 132, 120
-0.997274, 17, 225, 144, 256
-0.997277, 287, 41, 302, 72
-0.997285, 241, 57, 368, 88
-0.997286, 289, 85, 416, 116
-0.997289, 97, 149, 112, 180
-0.997289, 225, 301, 352, 332
-0.997297, 113, 333, 240, 364
-0.997301, 337, 33, 464, 64
-0.997306, 1, 89, 500, 152
-0.997308, 247, 137, 262, 168
-0.997312, 137, 109, 152, 140
-0.997314, 161, 249, 288, 280
-0.997316, 213, 45, 228, 76
-0.997321, 49, 73, 176, 104
-0.997325, 221, 9, 236, 40
-0.99733, 273, 1, 304, 256
-0.997336, 431, 161, 446, 192
-0.997342, 57, 97, 88, 352
-0.997344, 117, 1, 132, 32
-0.997353, 191, 129, 206, 160
-0.997353, 261, 265, 276, 296
-0.997358, 243, 49, 258, 80
-0.997366, 255, 245, 270, 276
-0.99737, 133, 61, 148, 92
-0.997373, 233, 269, 248, 300
-0.99741, 273, 9, 288, 40
-0.997417, 93, 33, 124, 288
-0.997422, 1, 89, 128, 120
-0.997429, 183, 133, 198, 164
-0.997434, 165, 1, 180, 32
-0.997463, 133, 97, 164, 352
-0.997473, 109, 73, 124, 104
-0.997476, 177, 309, 304, 340
-0.997478, 233, 33, 248, 64
-0.997481, 147, 25, 162, 56
-0.997483, 169, 125, 184, 156
-0.997484, 365, 153, 380, 184
-0.997486, 107, 145, 122, 176
-0.99749, 169, 1, 200, 256
-0.997495, 1, 105, 128, 136
-0.997497, 257, 149, 272, 180
-0.997501, 261, 245, 276, 276
-0.997519, 257, 1, 384, 32
-0.997524, 81, 165, 208, 196
-0.997525, 193, 285, 320, 316
-0.997531, 193, 185, 320, 216
-0.997533, 239, 81, 254, 112
-0.997538, 123, 105, 138, 136
-0.997544, 431, 209, 446, 240
-0.997548, 289, 141, 416, 172
-0.997555, 267, 261, 282, 292
-0.99756, 225, 313, 352, 344
-0.997567, 109, 13, 124, 44
-0.99757, 217, 125, 232, 156
-0.997574, 133, 73, 148, 104
-0.997582, 261, 277, 276, 308
-0.997589, 81, 129, 112, 375
-0.997591, 161, 333, 288, 364
-0.997591, 101, 209, 116, 240
-0.997591, 263, 1, 278, 32
-0.997592, 309, 1, 324, 32
-0.997598, 249, 61, 264, 92
-0.997602, 249, 37, 264, 68
-0.997603, 201, 1, 232, 256
-0.997604, 353, 129, 480, 160
-0.997607, 33, 177, 160, 208
-0.997614, 155, 1, 170, 32
-0.997616, 137, 85, 152, 116
-0.997623, 117, 13, 132, 44
-0.997627, 177, 169, 304, 200
-0.997651, 293, 45, 308, 76
-0.997655, 1, 209, 128, 240
-0.997656, 97, 241, 224, 272
-0.99766, 205, 57, 220, 88
-0.997662, 129, 93, 144, 124
-0.997664, 433, 241, 496, 368
-0.997666, 241, 69, 256, 100
-0.997669, 257, 113, 384, 144
-0.997675, 113, 89, 240, 120
-0.997691, 119, 133, 134, 164
-0.997691, 173, 97, 204, 352
-0.997693, 47, 173, 62, 204
-0.997695, 41, 177, 56, 208
-0.997702, 159, 117, 174, 148
-0.997703, 111, 93, 126, 124
-0.997705, 227, 25, 242, 56
-0.997717, 253, 137, 268, 168
-0.997722, 289, 153, 416, 184
-0.997727, 241, 17, 256, 48
-0.997731, 219, 137, 234, 168
-0.997732, 41, 97, 72, 352
-0.997735, 345, 1, 376, 256
-0.997736, 49, 321, 176, 352
-0.997741, 131, 121, 146, 152
-0.997742, 135, 49, 150, 80
-0.997742, 105, 89, 120, 120
-0.997747, 49, 201, 176, 232
-0.997749, 161, 345, 288, 375
-0.997758, 77, 145, 92, 176
-0.997759, 233, 1, 248, 32
-0.997759, 399, 145, 414, 176
-0.997761, 237, 45, 252, 76
-0.997762, 89, 153, 104, 184
-0.997764, 129, 161, 384, 224
-0.997764, 145, 13, 160, 44
-0.997767, 299, 1, 314, 32
-0.997771, 225, 281, 240, 312
-0.997778, 145, 97, 176, 352
-0.997789, 355, 85, 370, 116
-0.99779, 149, 105, 164, 136
-0.997797, 137, 97, 152, 128
-0.997799, 99, 57, 114, 88
-0.997802, 143, 109, 158, 140
-0.997812, 231, 281, 246, 312
-0.997812, 145, 233, 272, 264
-0.997818, 309, 49, 324, 80
-0.997832, 109, 29, 124, 60
-0.997836, 175, 129, 190, 160
-0.997837, 17, 309, 144, 340
-0.99784, 283, 29, 298, 60
-0.997843, 131, 109, 146, 140
-0.997844, 423, 205, 438, 236
-0.997847, 111, 129, 126, 160
-0.997847, 121, 117, 136, 148
-0.997848, 103, 77, 118, 108
-0.997854, 429, 173, 444, 204
-0.997855, 369, 65, 400, 320
-0.997861, 141, 41, 156, 72
-0.997862, 139, 73, 154, 104
-0.997864, 365, 89, 380, 120
-0.997865, 243, 269, 258, 300
-0.997875, 383, 85, 398, 116
-0.997875, 407, 149, 422, 180
-0.997888, 419, 185, 434, 216
-0.997894, 81, 57, 96, 88
-0.997901, 297, 57, 312, 88
-0.997906, 213, 137, 228, 168
-0.997906, 99, 29, 114, 60
-0.997911, 147, 37, 162, 68
-0.997914, 315, 17, 330, 48
-0.997914, 437, 221, 452, 252
-0.99792, 91, 77, 106, 108
-0.997925, 357, 45, 372, 76
-0.997932, 33, 289, 160, 320
-0.997941, 285, 53, 300, 84
-0.997941, 289, 29, 416, 60
-0.997941, 437, 165, 452, 196
-0.997943, 127, 61, 142, 92
-0.997944, 243, 149, 258, 180
-0.99795, 89, 205, 104, 236
-0.997951, 177, 177, 240, 304
-0.997951, 267, 241, 282, 272
-0.997951, 107, 205, 122, 236
-0.997956, 115, 105, 130, 136
-0.997961, 257, 161, 272, 192
-0.997962, 123, 1, 138, 32
-0.997968, 239, 285, 254, 316
-0.997972, 413, 205, 428, 236
-0.997982, 371, 153, 386, 184
-0.997986, 109, 105, 124, 136
-0.997995, 247, 73, 262, 104
-0.998001, 69, 149, 84, 180
-0.99801, 161, 313, 416, 375
-0.998048, 241, 81, 368, 112
-0.998056, 189, 129, 220, 375
-0.998056, 69, 97, 100, 352
-0.998059, 241, 345, 368, 375
-0.998065, 65, 333, 192, 364
-0.99808, 225, 329, 352, 360
-0.998087, 289, 57, 416, 88
-0.99812, 417, 129, 448, 375
-0.998154, 157, 1, 188, 256
-0.998169, 1, 5, 128, 36
-0.998202, 293, 1, 324, 256
-0.998235, 337, 297, 464, 328
-0.998237, 369, 237, 496, 268
-0.998266, 157, 129, 188, 375
-0.998275, 209, 101, 336, 132
-0.99831, 129, 197, 256, 228
-0.998321, 257, 129, 384, 160
-0.998374, 261, 97, 292, 352
-0.998374, 209, 41, 272, 56
-0.9984, 209, 139, 272, 154
-0.998406, 137, 71, 200, 86
-0.998416, 209, 49, 272, 64
-0.99843, 353, 47, 384, 62
-0.998431, 173, 87, 204, 102
-0.998432, 73, 201, 104, 216
-0.998433, 129, 135, 160, 150
-0.998433, 93, 91, 124, 106
-0.998434, 373, 87, 404, 102
-0.998434, 237, 251, 268, 266
-0.998435, 421, 255, 452, 270
-0.998436, 173, 71, 204, 86
-0.998437, 93, 45, 124, 60
-0.998439, 269, 59, 300, 74
-0.998439, 53, 137, 84, 152
-0.998439, 265, 251, 296, 266
-0.99844, 197, 41, 228, 56
-0.99844, 89, 203, 120, 218
-0.998441, 121, 81, 152, 96
-0.998443, 217, 53, 248, 68
-0.998443, 85, 157, 116, 172
-0.998443, 129, 61, 160, 76
-0.998444, 129, 33, 160, 48
-0.998444, 253, 159, 284, 174
-0.998444, 233, 63, 264, 78
-0.998446, 165, 59, 196, 74
-0.998447, 129, 75, 160, 90
-0.998448, 317, 217, 348, 232
-0.998448, 225, 283, 288, 298
-0.998448, 249, 303, 280, 318
-0.998449, 237, 143, 268, 158
-0.998449, 257, 59, 320, 74
-0.99845, 125, 213, 156, 228
-0.998451, 181, 39, 212, 54
-0.998451, 245, 275, 276, 290
-0.998452, 165, 77, 196, 92
-0.998453, 137, 35, 200, 50
-0.998453, 73, 273, 104, 288
-0.998454, 253, 153, 284, 168
-0.998454, 305, 245, 368, 260
-0.998455, 177, 57, 240, 72
-0.998455, 213, 27, 244, 42
-0.998455, 261, 259, 292, 274
-0.998456, 185, 145, 248, 160
-0.998457, 177, 51, 240, 66
-0.99846, 285, 257, 316, 272
-0.99846, 61, 195, 92, 210
-0.998461, 81, 33, 112, 288
-0.998461, 365, 97, 396, 112
-0.998461, 169, 35, 200, 50
-0.998462, 137, 115, 168, 130
-0.998462, 297, 51, 328, 66
-0.998463, 253, 251, 284, 266
-0.998463, 217, 41, 248, 56
-0.998464, 413, 159, 444, 174
-0.998464, 105, 103, 168, 118
-0.998464, 149, 125, 180, 140
-0.998465, 309, 69, 340, 84
-0.998465, 217, 33, 248, 48
-0.998467, 409, 153, 440, 168
-0.998468, 225, 271, 256, 286
-0.998468, 97, 37, 160, 52
-0.998469, 193, 63, 256, 78
-0.99847, 81, 7, 112, 22
-0.99847, 233, 17, 296, 32
-0.99847, 185, 43, 248, 58
-0.998471, 93, 277, 124, 292
-0.998472, 117, 127, 148, 142
-0.998472, 269, 9, 300, 24
-0.998473, 281, 129, 312, 375
-0.998473, 385, 159, 448, 174
-0.998478, 117, 7, 148, 22
-0.998479, 225, 277, 256, 292
-0.998481, 117, 65, 148, 80
-0.998482, 181, 131, 212, 146
-0.998483, 197, 63, 228, 78
-0.998483, 209, 131, 240, 146
-0.998483, 137, 39, 168, 54
-0.998484, 105, 133, 136, 148
-0.998485, 133, 1, 164, 16
-0.998485, 65, 59, 128, 74
-0.998486, 89, 75, 120, 90
-0.998486, 201, 19, 264, 34
-0.998486, 249, 143, 280, 158
-0.998486, 237, 45, 268, 60
-0.998486, 137, 65, 152, 192
-0.998488, 201, 35, 264, 50
-0.99849, 221, 289, 252, 304
-0.998492, 129, 103, 192, 118
-0.998492, 193, 83, 256, 98
-0.998492, 241, 281, 272, 296
-0.998494, 353, 159, 416, 174
-0.998494, 281, 251, 344, 266
-0.998494, 149, 33, 180, 48
-0.998494, 81, 53, 112, 68
-0.998495, 137, 77, 200, 92
-0.998495, 425, 171, 456, 186
-0.998497, 57, 161, 120, 176
-0.998498, 113, 99, 144, 114
-0.998498, 329, 239, 392, 254
-0.998499, 245, 61, 276, 76
-0.998499, 113, 109, 176, 124
-0.9985, 361, 159, 392, 174
-0.9985, 73, 149, 104, 164
-0.9985, 293, 59, 324, 74
-0.998501, 281, 49, 344, 64
-0.998501, 341, 45, 372, 60
-0.998502, 177, 131, 240, 146
-0.998503, 261, 19, 292, 34
-0.998504, 421, 215, 452, 230
-0.998504, 233, 37, 296, 52
-0.998505, 129, 127, 192, 142
-0.998505, 233, 143, 296, 158
-0.998505, 185, 59, 216, 74
-0.998505, 237, 51, 268, 66
-0.998506, 393, 219, 456, 234
-0.998506, 369, 149, 432, 164
-0.998507, 65, 149, 128, 164
-0.998509, 121, 87, 152, 102
-0.99851, 249, 249, 312, 264
-0.99851, 225, 277, 288, 292
-0.998511, 185, 51, 216, 66
-0.998512, 333, 239, 364, 254
-0.998513, 297, 253, 328, 268
-0.998513, 229, 33, 260, 48
-0.998513, 409, 207, 440, 222
-0.998514, 233, 135, 264, 150
-0.998515, 233, 43, 296, 58
-0.998516, 357, 91, 388, 106
-0.998516, 97, 97, 160, 112
-0.998517, 265, 257, 328, 272
-0.998517, 225, 213, 288, 228
-0.998519, 153, 65, 216, 80
-0.998519, 201, 25, 264, 40
-0.998521, 409, 221, 440, 236
-0.998522, 369, 231, 400, 246
-0.998522, 261, 245, 292, 260
-0.998522, 169, 131, 200, 146
-0.998522, 153, 55, 216, 70
-0.998523, 225, 27, 288, 42
-0.998523, 109, 143, 140, 158
-0.998524, 97, 73, 160, 88
-0.998524, 377, 213, 440, 228
-0.998526, 297, 1, 328, 16
-0.998527, 345, 95, 408, 110
-0.998527, 281, 19, 344, 34
-0.998527, 173, 151, 204, 166
-0.998528, 121, 1, 184, 16
-0.998528, 209, 149, 272, 164
-0.998528, 105, 115, 168, 130
-0.998528, 89, 209, 152, 224
-0.998529, 309, 249, 340, 264
-0.998529, 361, 167, 424, 182
-0.998529, 137, 83, 200, 98
-0.99853, 233, 27, 264, 42
-0.998532, 285, 47, 316, 62
-0.998533, 117, 1, 148, 16
-0.998533, 421, 209, 452, 224
-0.998535, 353, 107, 416, 122
-0.998535, 225, 283, 256, 298
-0.998536, 97, 209, 128, 224
-0.998536, 209, 11, 272, 26
-0.998536, 233, 83, 264, 98
-0.998537, 89, 133, 152, 148
-0.998541, 185, 71, 216, 86
-0.998541, 129, 121, 192, 136
-0.998541, 73, 155, 104, 170
-0.998542, 97, 145, 160, 160
-0.998543, 361, 113, 424, 128
-0.998543, 413, 201, 444, 216
-0.998543, 125, 97, 156, 112
-0.998544, 225, 1, 288, 16
-0.998547, 185, 81, 216, 96
-0.998547, 261, 147, 292, 162
-0.998548, 205, 55, 236, 70
-0.998549, 257, 1, 320, 16
-0.998551, 209, 271, 272, 286
-0.998551, 217, 289, 280, 304
-0.998553, 369, 121, 432, 136
-0.998553, 221, 47, 252, 62
-0.998553, 149, 3, 180, 18
-0.998553, 81, 31, 144, 46
-0.998553, 377, 207, 440, 222
-0.998554, 133, 109, 164, 124
-0.998554, 209, 55, 272, 70
-0.998554, 161, 137, 224, 152
-0.998555, 273, 65, 336, 80
-0.998556, 137, 41, 200, 56
-0.998556, 177, 69, 240, 84
-0.998556, 177, 77, 240, 92
-0.998556, 305, 217, 368, 232
-0.998557, 57, 33, 120, 48
-0.998557, 233, 11, 296, 26
-0.998557, 281, 55, 344, 70
-0.998557, 57, 39, 120, 54
-0.998559, 65, 155, 128, 170
-0.998559, 329, 221, 392, 236
-0.99856, 89, 57, 152, 72
-0.99856, 117, 107, 148, 122
-0.99856, 257, 7, 320, 22
-0.998561, 353, 217, 416, 232
-0.998563, 97, 3, 160, 18
-0.998563, 73, 103, 136, 118
-0.998564, 325, 245, 356, 260
-0.998565, 239, 65, 254, 192
-0.998566, 345, 233, 408, 248
-0.998567, 225, 19, 256, 34
-0.998567, 81, 277, 144, 292
-0.998568, 97, 19, 160, 34
-0.998568, 357, 235, 388, 250
-0.998568, 313, 45, 376, 60
-0.998569, 393, 165, 456, 180
-0.99857, 345, 89, 408, 104
-0.99857, 265, 211, 328, 226
-0.998571, 193, 281, 256, 296
-0.998571, 313, 149, 376, 164
-0.998571, 225, 85, 288, 100
-0.998572, 241, 131, 304, 146
-0.998572, 281, 57, 312, 72
-0.998572, 65, 131, 128, 146
-0.998574, 89, 151, 152, 166
-0.998574, 65, 143, 128, 158
-0.998574, 401, 207, 464, 222
-0.998574, 97, 43, 160, 58
-0.998575, 105, 125, 168, 140
-0.998575, 129, 133, 192, 148
-0.998576, 369, 179, 432, 194
-0.998578, 193, 89, 256, 104
-0.998579, 381, 97, 412, 352
-0.998579, 297, 65, 328, 80
-0.998579, 209, 143, 240, 158
-0.998581, 105, 31, 168, 46
-0.998582, 377, 199, 440, 214
-0.998582, 65, 205, 128, 220
-0.998582, 249, 149, 312, 164
-0.998583, 209, 223, 272, 238
-0.998584, 161, 35, 224, 50
-0.998584, 345, 239, 376, 254
-0.998584, 241, 265, 304, 280
-0.998584, 369, 127, 432, 142
-0.998585, 65, 53, 128, 68
-0.998585, 93, 151, 124, 166
-0.998585, 105, 13, 168, 28
-0.998585, 137, 97, 200, 112
-0.998586, 73, 23, 136, 38
-0.998586, 401, 195, 464, 210
-0.998587, 185, 139, 248, 154
-0.998587, 233, 59, 296, 74
-0.998587, 233, 51, 296, 66
-0.998588, 377, 187, 440, 202
-0.998588, 273, 217, 336, 232
-0.998589, 25, 189, 88, 204
-0.998591, 161, 151, 224, 166
-0.998591, 377, 225, 440, 240
-0.998592, 57, 271, 120, 286
-0.998593, 185, 275, 248, 290
-0.998596, 221, 137, 252, 152
-0.998599, 149, 9, 180, 24
-0.9986, 133, 103, 164, 118
-0.998603, 221, 13, 252, 28
-0.998605, 185, 65, 216, 80
-0.998615, 237, 1, 252, 128
-0.998615, 237, 39, 268, 54
-0.998625, 237, 149, 268, 164
-0.99864, 139, 1, 154, 128
-0.998641, 375, 81, 390, 208
-0.998659, 187, 49, 202, 176
-0.998681, 257, 313, 500, 375
-0.998692, 371, 129, 386, 256
-0.998701, 59, 113, 74, 240
-0.998707, 197, 47, 228, 62
-0.998729, 37, 1, 68, 256
-0.99873, 239, 113, 254, 240
-0.998746, 381, 81, 396, 208
-0.998748, 197, 65, 212, 192
-0.998749, 117, 1, 132, 128
-0.998753, 247, 49, 262, 176
-0.998755, 235, 241, 250, 368
-0.998777, 143, 81, 158, 208
-0.998783, 93, 129, 108, 256
-0.998799, 415, 161, 430, 288
-0.998803, 231, 193, 246, 320
-0.998817, 109, 1, 124, 128
-0.998827, 247, 113, 262, 240
-0.998829, 421, 129, 436, 256
-0.998845, 357, 65, 388, 320
-0.998861, 67, 113, 82, 240
-0.998871, 179, 65, 194, 192
-0.99889, 109, 49, 124, 176
-0.998923, 231, 65, 246, 192
-0.998929, 85, 129, 100, 256
-0.998929, 1, 289, 500, 352
-0.998936, 157, 97, 172, 224
-0.998937, 75, 129, 90, 256
-0.998937, 301, 97, 332, 352
-0.998941, 197, 17, 212, 144
-0.998944, 151, 1, 166, 128
-0.998946, 243, 1, 258, 128
-0.99895, 253, 129, 268, 256
-0.998951, 115, 65, 130, 192
-0.998951, 407, 97, 422, 224
-0.998951, 415, 113, 430, 240
-0.998967, 149, 81, 164, 208
-0.998968, 271, 161, 286, 288
-0.998975, 129, 65, 144, 192
-0.998976, 377, 129, 392, 256
-0.998976, 397, 1, 428, 256
-0.998981, 265, 161, 280, 288
-0.998985, 53, 113, 68, 240
-0.998986, 173, 97, 188, 224
-0.998987, 281, 97, 344, 224
-0.998991, 243, 193, 258, 320
-0.998995, 135, 113, 150, 240
-0.998999, 395, 81, 410, 208
-0.999007, 387, 81, 402, 208
-0.999011, 105, 145, 120, 272
-0.999025, 163, 1, 178, 128
-0.999027, 131, 17, 146, 144
-0.999039, 421, 177, 436, 304
-0.99904, 315, 193, 330, 320
-0.999045, 427, 145, 442, 272
-0.99905, 361, 81, 376, 208
-0.999052, 309, 193, 324, 320
-0.999053, 145, 33, 160, 160
-0.999062, 99, 129, 114, 256
-0.999066, 377, 177, 392, 304
-0.99907, 385, 129, 400, 256
-0.999071, 249, 1, 264, 128
-0.999071, 115, 145, 130, 272
-0.999083, 365, 129, 380, 256
-0.999087, 231, 129, 246, 256
-0.999088, 369, 81, 384, 208
-0.999095, 287, 1, 302, 128
-0.999105, 435, 177, 450, 304
-0.999105, 127, 113, 142, 240
-0.999124, 167, 65, 182, 192
-0.999125, 85, 1, 100, 128
-0.999131, 143, 145, 158, 272
-0.999131, 257, 193, 272, 320
-0.999132, 1, 313, 500, 375
-0.999139, 221, 209, 236, 336
-0.999141, 345, 129, 376, 375
-0.999143, 121, 145, 136, 272
-0.999147, 237, 193, 252, 320
-0.999153, 123, 65, 138, 192
-0.999156, 151, 129, 166, 256
-0.999162, 229, 1, 244, 128
-0.999165, 207, 49, 222, 176
-0.999167, 191, 1, 206, 128
-0.999174, 401, 113, 416, 240
-0.999174, 189, 97, 204, 224
-0.99918, 321, 193, 336, 320
-0.999183, 275, 209, 290, 336
-0.999195, 277, 161, 292, 288
-0.999196, 259, 145, 274, 272
-0.999208, 371, 177, 386, 304
-0.999217, 221, 129, 236, 256
-0.999221, 105, 97, 120, 224
-0.999226, 57, 161, 72, 288
-0.999229, 97, 177, 112, 304
-0.999231, 303, 193, 318, 320
-0.999235, 229, 241, 244, 368
-0.999248, 69, 1, 100, 256
-0.99925, 391, 129, 406, 256
-0.999258, 407, 193, 422, 320
-0.999259, 321, 1, 336, 128
-0.999259, 279, 113, 294, 240
-0.999266, 271, 113, 286, 240
-0.999269, 105, 193, 120, 320
-0.999272, 99, 1, 114, 128
-0.999275, 249, 177, 264, 304
-0.999276, 293, 1, 308, 128
-0.999277, 157, 1, 172, 128
-0.999284, 241, 241, 256, 368
-0.999287, 51, 33, 66, 160
-0.999289, 57, 1, 88, 256
-0.999303, 57, 1, 72, 128
-0.999303, 177, 1, 192, 128
-0.999304, 399, 161, 414, 288
-0.99931, 277, 1, 292, 128
-0.999315, 429, 193, 444, 320
-0.999315, 65, 161, 80, 288
-0.999319, 315, 241, 330, 368
-0.999327, 283, 177, 298, 304
-0.999338, 265, 113, 280, 240
-0.99934, 47, 145, 62, 272
-0.999343, 297, 193, 312, 320
-0.999348, 163, 113, 178, 240
-0.999348, 355, 65, 370, 192
-0.999353, 269, 209, 284, 336
-0.999355, 157, 145, 172, 272
-0.999356, 63, 65, 78, 192
-0.999361, 417, 33, 448, 288
-0.999365, 213, 49, 228, 176
-0.999365, 253, 65, 268, 192
-0.999366, 123, 1, 138, 128
-0.999366, 215, 129, 230, 256
-0.99937, 421, 225, 436, 352
-0.999372, 247, 241, 262, 368
-0.999375, 225, 65, 240, 192
-0.999379, 383, 177, 398, 304
-0.999379, 43, 81, 58, 208
-0.999382, 183, 129, 198, 256
-0.999382, 89, 193, 104, 320
-0.99944, 25, 1, 56, 256
-0.999483, 321, 1, 352, 256
-0.999506, 441, 65, 472, 320
-0.999639, 81, 157, 96, 172
-0.999639, 191, 87, 206, 102
-0.99964, 423, 217, 438, 232
-0.99964, 111, 137, 126, 152
-0.999642, 167, 5, 182, 20
-0.999642, 233, 137, 248, 152
-0.999642, 431, 219, 446, 234
-0.999642, 185, 85, 200, 100
-0.999643, 133, 105, 148, 120
-0.999643, 161, 121, 176, 136
-0.999643, 125, 141, 140, 156
-0.999645, 103, 141, 118, 156
-0.999645, 267, 5, 282, 20
-0.999646, 175, 155, 190, 170
-0.999647, 113, 17, 128, 32
-0.999647, 233, 37, 248, 52
-0.999648, 37, 179, 52, 194
-0.999648, 127, 61, 142, 76
-0.99965, 117, 95, 132, 110
-0.999652, 95, 207, 110, 222
-0.999652, 111, 1, 126, 16
-0.999652, 1, 49, 500, 112
-0.999652, 109, 209, 124, 224
-0.999652, 339, 241, 354, 256
-0.999653, 55, 137, 70, 152
-0.999653, 243, 275, 258, 290
-0.999654, 313, 215, 328, 230
-0.999655, 169, 153, 184, 168
-0.999655, 261, 285, 276, 300
-0.999655, 333, 243, 348, 258
-0.999655, 437, 223, 452, 238
-0.999656, 427, 159, 442, 174
-0.999657, 261, 1, 276, 16
-0.999657, 251, 151, 266, 166
-0.999657, 241, 149, 256, 164
-0.999657, 173, 129, 188, 144
-0.999658, 103, 209, 118, 224
-0.999658, 375, 231, 390, 246
-0.999658, 299, 1, 314, 16
-0.999661, 127, 117, 142, 132
-0.999661, 107, 51, 122, 66
-0.999662, 145, 25, 160, 40
-0.999662, 235, 271, 250, 286
-0.999663, 87, 53, 102, 68
-0.999663, 429, 97, 460, 352
-0.999664, 429, 205, 444, 220
-0.999665, 243, 135, 258, 150
-0.999666, 249, 51, 264, 66
-0.999669, 111, 33, 126, 48
-0.999669, 81, 7, 96, 22
-0.999669, 433, 163, 448, 178
-0.999669, 187, 67, 202, 82
-0.99967, 257, 253, 272, 268
-0.99967, 243, 51, 258, 66
-0.999671, 361, 235, 376, 250
-0.999672, 281, 53, 296, 68
-0.999673, 125, 1, 140, 16
-0.999674, 261, 279, 276, 294
-0.999674, 353, 237, 368, 252
-0.999674, 201, 43, 216, 58
-0.999674, 365, 159, 380, 174
-0.999674, 113, 103, 128, 118
-0.999675, 141, 79, 156, 94
-0.999676, 435, 169, 450, 184
-0.999676, 155, 115, 170, 130
-0.999676, 347, 239, 362, 254
-0.999677, 137, 93, 152, 108
-0.999678, 367, 233, 382, 248
-0.999679, 123, 111, 138, 126
-0.99968, 145, 101, 160, 116
-0.99968, 293, 55, 308, 70
-0.999681, 189, 59, 204, 74
-0.999682, 109, 73, 124, 88
-0.999682, 149, 37, 164, 52
-0.999683, 207, 47, 222, 62
-0.999683, 165, 11, 180, 26
-0.999683, 119, 143, 134, 158
-0.999685, 219, 21, 234, 36
-0.999685, 193, 51, 208, 66
-0.999685, 237, 45, 252, 60
-0.999686, 359, 87, 374, 102
-0.999686, 137, 111, 152, 126
-0.999686, 141, 41, 156, 56
-0.999687, 255, 157, 270, 172
-0.999687, 87, 153, 102, 168
-0.999688, 133, 61, 148, 76
-0.999689, 101, 149, 116, 164
-0.99969, 129, 99, 144, 114
-0.999691, 215, 55, 230, 70
-0.999691, 81, 57, 96, 72
-0.999693, 369, 153, 384, 168
-0.999696, 63, 135, 78, 150
-0.999697, 265, 259, 280, 274
-0.999698, 289, 47, 304, 62
-0.999698, 191, 131, 206, 146
-0.999699, 235, 279, 250, 294
-0.9997, 131, 67, 146, 82
-0.9997, 199, 65, 214, 80
-0.999702, 239, 25, 254, 40
-0.999704, 191, 81, 206, 96
-0.999705, 227, 285, 242, 300
-0.999706, 209, 57, 224, 72
-0.999707, 97, 155, 112, 170
-0.999707, 287, 55, 302, 70
-0.999708, 225, 25, 240, 40
-0.999709, 131, 1, 146, 16
-0.999709, 247, 41, 262, 56
-0.99971, 217, 141, 232, 156
-0.999711, 137, 73, 152, 88
-0.999711, 227, 135, 242, 150
-0.999711, 145, 107, 160, 122
-0.999716, 203, 59, 218, 74
-0.999717, 423, 209, 438, 224
-0.999717, 175, 149, 190, 164
-0.999718, 275, 17, 290, 32
-0.999719, 243, 33, 258, 48
-0.999722, 139, 99, 154, 114
-0.999723, 189, 75, 204, 90
-0.999724, 109, 145, 124, 160
-0.999727, 185, 131, 200, 146
-0.999728, 119, 105, 134, 120
-0.99973, 213, 49, 228, 64
-0.999734, 427, 199, 442, 214
-0.999742, 249, 61, 264, 76
-0.999746, 235, 19, 250, 34
-0.999755, 305, 1, 336, 256
-0.999759, 139, 35, 154, 50
-0.999765, 271, 11, 286, 26
-0.999765, 155, 7, 170, 22
-0.999779, 355, 45, 370, 60
-0.999795, 161, 1, 176, 16
-0.999817, 239, 83, 254, 98
-0.999832, 225, 11, 240, 26
-0.99991, 325, 97, 356, 352
-0.999974, 1, 1, 32, 256
-1.00004, 313, 129, 344, 375
-1.00014, 5, 129, 36, 375
-1.00017, 385, 1, 416, 256
-1.00032, 333, 1, 364, 256
-1.00041, 25, 97, 56, 352
-1.00045, 469, 129, 500, 375
-1.00059, 457, 129, 488, 375
-1.00083, 429, 1, 460, 256
-1.00084, 13, 1, 44, 256
-1.00088, 457, 1, 488, 256
-1.00147, 469, 1, 500, 256
-1.0017, 433, 193, 496, 320
-1.00231, 433, 1, 496, 256
-1.00545, 433, 17, 496, 144
