1874
-0.331979, 1, 1, 500, 333
-0.37335, 97, 1, 352, 333
-0.464406, 1, 1, 256, 333
-0.490018, 1, 1, 500, 256
-0.530017, 33, 1, 288, 256
-0.633598, 225, 1, 480, 333
-0.638746, 129, 1, 384, 256
-0.712486, 225, 1, 480, 256
-0.84589, 161, 1, 288, 256
-0.852076, 65, 1, 192, 333
-0.857262, 129, 1, 256, 333
-0.864575, 81, 1, 208, 256
-0.866181, 209, 1, 336, 256
-0.869074, 193, 1, 320, 333
-0.874934, 17, 1, 144, 333
-0.896084, 257, 1, 384, 256
-0.903976, 17, 33, 144, 288
-0.906686, 1, 81, 500, 208
-0.907273, 1, 17, 500, 144
-0.911682, 305, 1, 432, 256
-0.914964, 241, 1, 368, 333
-0.917135, 65, 17, 320, 144
-0.921257, 1, 193, 500, 320
-0.921276, 33, 81, 288, 208
-0.922667, 129, 113, 384, 240
-0.925284, 161, 1, 416, 128
-0.926975, 369, 1, 496, 256
-0.927773, 1, 129, 500, 256
-0.933349, 305, 1, 432, 333
-0.934074, 33, 145, 288, 272
-0.935746, 209, 1, 272, 128
-0.935944, 193, 17, 320, 144
-0.939217, 369, 1, 496, 333
-0.940117, 257, 113, 500, 240
-0.941534, 113, 33, 240, 160
-0.941757, 1, 209, 256, 333
-0.942792, 161, 81, 288, 208
-0.942805, 129, 65, 384, 192
-0.943087, 129, 161, 384, 288
-0.944813, 257, 33, 500, 160
-0.946155, 169, 97, 232, 224
-0.947925, 177, 33, 240, 160
-0.949597, 49, 1, 176, 128
-0.949895, 113, 97, 240, 224
-0.950454, 209, 65, 272, 192
-0.952664, 129, 209, 384, 333
-0.954516, 1, 97, 128, 224
-0.955007, 137, 33, 200, 160
-0.955143, 25, 81, 88, 208
-0.955222, 209, 113, 336, 240
-0.955283, 209, 1, 272, 64
-0.95537, 49, 97, 176, 224
-0.956083, 89, 81, 152, 208
-0.956706, 257, 113, 320, 240
-0.957415, 25, 129, 88, 256
-0.957664, 241, 17, 368, 144
-0.958647, 65, 97, 128, 224
-0.959067, 225, 73, 288, 136
-0.959296, 161, 129, 288, 256
-0.960023, 409, 97, 472, 224
-0.960054, 257, 113, 384, 240
-0.960097, 145, 113, 208, 240
-0.960161, 1, 129, 64, 256
-0.960293, 49, 161, 176, 288
-0.960646, 289, 273, 352, 333
-0.960697, 233, 33, 296, 160
-0.960769, 65, 49, 128, 176
-0.960793, 273, 177, 336, 304
-0.961301, 9, 209, 72, 333
-0.961576, 121, 145, 184, 272
-0.961693, 113, 17, 176, 144
-0.961707, 201, 33, 264, 96
-0.96176, 65, 209, 192, 333
-0.961807, 233, 129, 296, 256
-0.962064, 257, 209, 500, 333
-0.962066, 193, 81, 256, 144
-0.962552, 1, 49, 128, 176
-0.96266, 1, 193, 128, 320
-0.963327, 17, 273, 80, 333
-0.963549, 209, 65, 336, 192
-0.963683, 265, 1, 328, 128
-0.963739, 97, 161, 160, 288
-0.96376, 337, 273, 400, 333
-0.963765, 57, 1, 120, 128
-0.964044, 33, 121, 96, 184
-0.96417, 385, 81, 448, 208
-0.964344, 409, 129, 472, 192
-0.964576, 361, 1, 424, 128
-0.96471, 225, 161, 352, 288
-0.964858, 113, 209, 240, 333
-0.965151, 113, 145, 176, 208
-0.965222, 161, 113, 224, 176
-0.96532, 1, 129, 64, 192
-0.965409, 33, 209, 96, 333
-0.965603, 65, 145, 128, 272
-0.965686, 49, 145, 112, 208
-0.965766, 65, 193, 128, 320
-0.96602, 185, 1, 248, 256
-0.966118, 105, 209, 168, 333
-0.966272, 425, 49, 488, 176
-0.966363, 121, 97, 184, 224
-0.966372, 257, 137, 320, 200
-0.96655, 1, 49, 64, 176
-0.966585, 129, 209, 192, 333
-0.966885, 65, 49, 192, 176
-0.966922, 73, 121, 136, 184
-0.966926, 233, 81, 296, 208
-0.966939, 385, 145, 448, 208
-0.967047, 169, 41, 232, 104
-0.967408, 73, 145, 136, 208
-0.967793, 113, 145, 240, 272
-0.968125, 409, 105, 472, 168
-0.968223, 137, 1, 200, 256
-0.968286, 313, 249, 376, 312
-0.968405, 33, 33, 96, 160
-0.968506, 289, 177, 416, 304
-0.968692, 257, 161, 500, 288
-0.969097, 385, 33, 448, 160
-0.969167, 241, 1, 304, 64
-0.969698, 1, 105, 64, 168
-0.969825, 97, 121, 160, 184
-0.970082, 193, 57, 256, 120
-0.970345, 89, 1, 152, 128
-0.970385, 33, 97, 96, 160
-0.97056, 9, 1, 72, 128
-0.970652, 97, 177, 160, 240
-0.970742, 213, 17, 244, 144
-0.970964, 321, 209, 384, 333
-0.971051, 217, 1, 280, 256
-0.971098, 377, 169, 440, 232
-0.971109, 185, 105, 248, 168
-0.971374, 257, 273, 320, 333
-0.971596, 313, 273, 376, 333
-0.971696, 289, 65, 416, 192
-0.971717, 1, 1, 128, 128
-0.971784, 57, 265, 120, 328
-0.971988, 225, 1, 256, 128
-0.972059, 25, 145, 88, 208
-0.972268, 169, 73, 232, 136
-0.972448, 41, 25, 104, 88
-0.97247, 433, 1, 496, 64
-0.97248, 297, 177, 360, 304
-0.972804, 93, 145, 124, 208
-0.972822, 353, 129, 480, 256
-0.972837, 265, 113, 328, 176
-0.972859, 233, 145, 296, 208
-0.973066, 145, 153, 208, 216
-0.973292, 241, 1, 304, 256
-0.973359, 137, 113, 200, 176
-0.973384, 65, 73, 128, 136
-0.973487, 281, 1, 344, 64
-0.973686, 313, 1, 376, 128
-0.973791, 209, 113, 272, 240
-0.973953, 113, 161, 144, 224
-0.974015, 177, 209, 240, 333
-0.974017, 217, 9, 248, 72
-0.97412, 85, 121, 116, 184
-0.974203, 17, 249, 80, 312
-0.97423, 1, 145, 128, 272
-0.974309, 433, 97, 496, 224
-0.974343, 425, 249, 488, 312
-0.974383, 121, 17, 184, 80
-0.974423, 33, 1, 96, 64
-0.974534, 73, 169, 136, 232
-0.974638, 153, 209, 216, 333
-0.974654, 193, 17, 320, 80
-0.975006, 321, 1, 448, 128
-0.975125, 417, 209, 480, 333
-0.97524, 89, 1, 152, 64
-0.975248, 161, 1, 224, 256
-0.975376, 121, 41, 184, 104
-0.975391, 57, 49, 120, 112
-0.975404, 121, 185, 184, 248
-0.975434, 1, 153, 64, 216
-0.975449, 385, 121, 448, 184
-0.975454, 385, 129, 448, 256
-0.975669, 257, 65, 320, 192
-0.97574, 97, 81, 160, 144
-0.975857, 21, 265, 52, 328
-0.975912, 129, 49, 256, 112
-0.975938, 229, 65, 260, 128
-0.975941, 369, 249, 432, 312
-0.97604, 89, 257, 152, 320
-0.976179, 385, 33, 448, 96
-0.976181, 225, 209, 352, 333
-0.97634, 145, 161, 208, 288
-0.976383, 1, 33, 64, 96
-0.976448, 129, 81, 192, 144
-0.976633, 233, 49, 296, 112
-0.976705, 169, 17, 232, 80
-0.976996, 41, 177, 104, 240
-0.97724, 169, 145, 232, 208
-0.977304, 337, 249, 400, 312
-0.977311, 97, 1, 160, 256
-0.977336, 401, 169, 464, 232
-0.977415, 145, 273, 208, 333
-0.97745, 145, 41, 208, 104
-0.977455, 161, 209, 288, 333
-0.977476, 185, 145, 248, 272
-0.977546, 241, 273, 368, 333
-0.977561, 433, 137, 496, 200
-0.977575, 353, 81, 480, 208
-0.977601, 353, 193, 480, 320
-0.977641, 433, 97, 496, 160
-0.977671, 409, 145, 440, 208
-0.977888, 113, 161, 240, 224
-0.977914, 177, 73, 304, 136
-0.977932, 281, 201, 344, 264
-0.977965, 217, 81, 248, 144
-0.977982, 81, 121, 208, 184
-0.978111, 217, 273, 280, 333
-0.9782, 5, 265, 36, 328
-0.978211, 173, 113, 204, 176
-0.978264, 265, 65, 328, 320
-0.97827, 297, 129, 360, 256
-0.978275, 17, 65, 80, 128
-0.9783, 81, 25, 144, 88
-0.97832, 109, 137, 140, 200
-0.978426, 289, 257, 416, 320
-0.978446, 81, 201, 144, 264
-0.978479, 65, 97, 128, 160
-0.978565, 217, 33, 248, 96
-0.97859, 237, 1, 268, 128
-0.978772, 369, 273, 432, 333
-0.978839, 193, 41, 320, 104
-0.978847, 289, 249, 352, 312
-0.978921, 337, 273, 464, 333
-0.979047, 161, 113, 288, 176
-0.979076, 305, 129, 432, 256
-0.97915, 225, 97, 288, 160
-0.979332, 121, 265, 184, 328
-0.979356, 49, 1, 176, 64
-0.979364, 173, 97, 204, 224
-0.979382, 301, 273, 332, 333
-0.979457, 209, 121, 272, 184
-0.979524, 9, 193, 72, 256
-0.979592, 241, 25, 304, 88
-0.979604, 393, 265, 456, 328
-0.979625, 377, 209, 440, 333
-0.979636, 377, 97, 440, 160
-0.979658, 361, 113, 424, 240
-0.979669, 1, 257, 128, 320
-0.97967, 353, 169, 416, 232
-0.979789, 369, 17, 496, 144
-0.979953, 129, 81, 256, 144
-0.980043, 9, 217, 72, 280
-0.980118, 321, 225, 384, 288
-0.980378, 97, 185, 224, 248
-0.980413, 201, 33, 232, 160
-0.980428, 265, 177, 328, 240
-0.98053, 261, 145, 292, 208
-0.980683, 101, 177, 132, 240
-0.980751, 205, 65, 236, 128
-0.980783, 241, 73, 272, 136
-0.980817, 57, 1, 120, 64
-0.98089, 233, 1, 264, 64
-0.981019, 49, 25, 176, 88
-0.981035, 209, 145, 336, 208
-0.981079, 33, 1, 96, 256
-0.981082, 169, 265, 232, 328
-0.981132, 361, 1, 424, 64
-0.981182, 213, 65, 244, 192
-0.981235, 161, 137, 288, 200
-0.98138, 33, 65, 160, 128
-0.981392, 249, 81, 312, 144
-0.981423, 69, 129, 100, 192
-0.981425, 1, 9, 64, 72
-0.98145, 25, 209, 56, 333
-0.981481, 433, 225, 496, 288
-0.981507, 145, 9, 272, 72
-0.981526, 321, 265, 352, 328
-0.981537, 261, 129, 292, 256
-0.981541, 349, 273, 380, 333
-0.981567, 121, 137, 152, 200
-0.98157, 161, 161, 288, 224
-0.98159, 65, 1, 128, 256
-0.981659, 169, 33, 200, 160
-0.981692, 65, 145, 192, 208
-0.981707, 409, 1, 472, 64
-0.981825, 81, 153, 112, 216
-0.981896, 33, 177, 160, 240
-0.981992, 145, 129, 176, 256
-0.982, 345, 49, 408, 176
-0.982058, 1, 113, 128, 176
-0.982129, 233, 41, 264, 104
-0.982182, 41, 241, 104, 304
-0.982267, 409, 25, 472, 88
-0.982282, 33, 265, 64, 328
-0.982306, 157, 33, 188, 160
-0.982405, 129, 1, 192, 333
-0.982426, 97, 25, 224, 88
-0.982477, 33, 201, 96, 264
-0.982483, 81, 81, 208, 144
-0.982486, 421, 137, 452, 200
-0.982555, 321, 25, 384, 88
-0.98278, 193, 169, 256, 232
-0.982786, 1, 1, 64, 256
-0.982873, 277, 97, 308, 224
-0.982941, 89, 57, 152, 120
-0.982981, 233, 169, 296, 232
-0.98305, 149, 153, 180, 216
-0.983052, 125, 177, 156, 240
-0.983075, 337, 1, 400, 128
-0.983095, 449, 33, 480, 96
-0.983118, 93, 97, 124, 224
-0.983164, 397, 161, 428, 224
-0.983216, 401, 233, 464, 296
-0.983219, 225, 65, 256, 192
-0.983292, 289, 1, 352, 128
-0.983327, 193, 105, 224, 168
-0.983433, 101, 89, 132, 152
-0.983456, 81, 33, 112, 160
-0.983468, 129, 161, 160, 288
-0.98349, 261, 33, 292, 160
-0.983644, 33, 1, 96, 333
-0.983649, 409, 145, 472, 272
-0.983667, 273, 1, 400, 64
-0.983703, 89, 1, 152, 333
-0.983788, 345, 41, 408, 104
-0.983791, 417, 65, 480, 128
-0.983804, 273, 129, 304, 192
-0.983824, 193, 273, 256, 333
-0.983844, 169, 1, 232, 333
-0.98387, 177, 273, 304, 333
-0.983922, 113, 33, 144, 160
-0.98393, 101, 33, 132, 160
-0.983937, 209, 97, 336, 160
-0.983994, 93, 209, 124, 333
-0.984029, 97, 265, 224, 328
-0.984039, 209, 209, 272, 333
-0.984066, 41, 73, 104, 136
-0.984068, 17, 145, 144, 208
-0.984088, 425, 273, 488, 333
-0.984108, 249, 137, 280, 200
-0.984124, 409, 169, 440, 232
-0.98421, 197, 41, 228, 104
-0.984237, 145, 177, 208, 240
-0.98427, 261, 81, 292, 208
-0.984465, 265, 25, 328, 88
-0.984516, 25, 1, 56, 128
-0.984556, 189, 33, 220, 160
-0.984589, 425, 1, 488, 128
-0.984621, 105, 113, 136, 176
-0.98464, 297, 81, 360, 208
-0.984711, 185, 97, 216, 224
-0.984712, 105, 113, 136, 240
-0.984764, 397, 129, 428, 192
-0.984805, 1, 1, 128, 64
-0.984811, 129, 97, 160, 224
-0.98482, 65, 1, 128, 333
-0.984825, 69, 49, 100, 176
-0.984843, 49, 129, 80, 256
-0.984845, 281, 225, 344, 288
-0.984877, 17, 49, 48, 176
-0.98489, 49, 257, 176, 320
-0.984894, 113, 161, 144, 288
-0.985003, 417, 113, 448, 176
-0.985018, 225, 185, 352, 248
-0.985027, 425, 97, 456, 224
-0.98507, 265, 273, 296, 333
-0.985071, 217, 57, 248, 120
-0.98509, 305, 1, 368, 64
-0.98509, 433, 33, 496, 96
-0.985109, 369, 273, 400, 333
-0.985159, 237, 49, 268, 176
-0.985207, 353, 177, 416, 304
-0.985223, 9, 105, 40, 168
-0.985226, 297, 161, 360, 224
-0.985242, 133, 1, 164, 128
-0.985295, 1, 89, 128, 152
-0.985302, 69, 89, 100, 152
-0.985328, 81, 113, 112, 240
-0.985329, 81, 209, 208, 272
-0.985398, 9, 209, 40, 333
-0.985466, 337, 161, 464, 224
-0.985482, 89, 97, 120, 160
-0.985528, 205, 105, 236, 168
-0.985605, 197, 81, 228, 208
-0.985622, 233, 193, 296, 256
-0.985625, 69, 97, 100, 224
-0.985755, 249, 17, 280, 144
-0.985765, 201, 1, 264, 333
-0.985868, 17, 201, 144, 264
-0.985874, 93, 257, 124, 320
-0.985883, 417, 1, 480, 256
-0.985901, 289, 113, 320, 240
-0.985915, 105, 217, 168, 280
-0.985927, 81, 57, 208, 120
-0.985934, 289, 273, 320, 333
-0.985941, 25, 161, 56, 288
-0.985973, 249, 81, 280, 208
-0.985977, 37, 113, 68, 240
-0.986, 37, 209, 68, 333
-0.986031, 257, 113, 384, 176
-0.986096, 209, 161, 272, 288
-0.986252, 225, 73, 352, 136
-0.986272, 101, 161, 132, 288
-0.986292, 157, 121, 188, 184
-0.986306, 57, 209, 88, 333
-0.986332, 369, 129, 496, 192
-0.98634, 193, 81, 224, 144
-0.98634, 77, 273, 108, 333
-0.98635, 45, 105, 76, 168
-0.986381, 117, 209, 148, 333
-0.986407, 305, 177, 336, 304
-0.986448, 301, 241, 332, 304
-0.986464, 105, 209, 136, 333
-0.986475, 69, 209, 100, 333
-0.986486, 25, 113, 56, 240
-0.986492, 265, 1, 328, 333
-0.986498, 437, 49, 468, 112
-0.986549, 109, 65, 140, 128
-0.986571, 393, 65, 456, 320
-0.986586, 169, 169, 232, 232
-0.986597, 253, 273, 284, 333
-0.986602, 5, 241, 36, 304
-0.986619, 361, 137, 424, 200
-0.986662, 385, 9, 448, 72
-0.986692, 57, 129, 88, 192
-0.986709, 29, 137, 60, 200
-0.986719, 273, 57, 336, 120
-0.986723, 145, 17, 176, 144
-0.986728, 445, 65, 476, 192
-0.986742, 13, 113, 44, 240
-0.986746, 77, 249, 108, 312
-0.986755, 157, 97, 188, 224
-0.986762, 377, 225, 440, 288
-0.986779, 225, 1, 288, 333
-0.986856, 241, 25, 368, 88
-0.986894, 145, 249, 208, 312
-0.986943, 81, 161, 112, 288
-0.986944, 1, 233, 128, 296
-0.98699, 153, 209, 184, 333
-0.987015, 245, 1, 276, 64
-0.987033, 289, 1, 320, 128
-0.987039, 181, 209, 212, 333
-0.987079, 241, 249, 368, 312
-0.987125, 429, 113, 460, 176
-0.987154, 57, 49, 88, 112
-0.987169, 133, 121, 164, 184
-0.987176, 193, 145, 256, 208
-0.987215, 9, 1, 72, 333
-0.987235, 353, 33, 480, 96
-0.987279, 89, 73, 120, 136
-0.987341, 9, 73, 40, 136
-0.987377, 333, 273, 364, 333
-0.987417, 137, 145, 168, 208
-0.987441, 1, 81, 32, 208
-0.98745, 273, 145, 304, 272
-0.987454, 385, 73, 448, 136
-0.987576, 97, 1, 224, 64
-0.987606, 45, 129, 76, 192
-0.987637, 173, 89, 204, 152
-0.98765, 249, 25, 280, 88
-0.987661, 353, 249, 480, 312
-0.987761, 73, 225, 136, 288
-0.987762, 61, 1, 92, 128
-0.987772, 273, 17, 304, 144
-0.987776, 441, 129, 472, 192
-0.987778, 385, 137, 416, 200
-0.98778, 305, 233, 432, 296
-0.987812, 293, 105, 324, 168
-0.987847, 217, 177, 248, 240
-0.987867, 129, 273, 160, 333
-0.987943, 257, 249, 320, 312
-0.988006, 249, 177, 312, 304
-0.988018, 225, 273, 256, 333
-0.988036, 329, 1, 392, 64
-0.98804, 437, 113, 468, 240
-0.98805, 305, 97, 432, 160
-0.98807, 113, 185, 144, 248
-0.988099, 249, 49, 280, 112
-0.988156, 369, 1, 496, 64
-0.988178, 153, 97, 184, 160
-0.98819, 357, 249, 388, 312
-0.988193, 305, 185, 368, 248
-0.988205, 397, 105, 428, 168
-0.988248, 37, 65, 68, 192
-0.988261, 229, 89, 260, 152
-0.988276, 225, 81, 288, 112
-0.988321, 297, 81, 360, 144
-0.988341, 217, 161, 248, 288
-0.988358, 413, 97, 444, 224
-0.9884, 1, 41, 128, 104
-0.98841, 205, 17, 236, 80
-0.988429, 385, 161, 416, 224
-0.988443, 185, 41, 216, 104
-0.988462, 145, 185, 272, 248
-0.988549, 97, 241, 224, 304
-0.988569, 321, 49, 384, 176
-0.988586, 1, 1, 32, 128
-0.988592, 241, 49, 368, 112
-0.988609, 25, 57, 56, 120
-0.988628, 465, 121, 496, 184
-0.98864, 361, 177, 392, 304
-0.988686, 45, 41, 76, 104
-0.988689, 309, 129, 340, 256
-0.988692, 173, 41, 204, 104
-0.9887, 73, 41, 104, 104
-0.988702, 57, 49, 88, 176
-0.988704, 429, 257, 460, 320
-0.988741, 245, 145, 276, 272
-0.988753, 21, 225, 52, 288
-0.988777, 57, 73, 88, 136
-0.988777, 173, 257, 204, 320
-0.988793, 17, 129, 48, 192
-0.9888, 289, 169, 320, 232
-0.988824, 461, 33, 492, 96
-0.988843, 305, 137, 432, 200
-0.988845, 45, 257, 76, 320
-0.988851, 157, 273, 188, 333
-0.988858, 37, 17, 68, 80
-0.98887, 277, 273, 308, 333
-0.988873, 1, 145, 32, 272
-0.988917, 257, 217, 320, 280
-0.988922, 461, 1, 492, 64
-0.988922, 253, 81, 284, 144
-0.988935, 321, 9, 448, 72
-0.988947, 161, 73, 192, 136
-0.988957, 281, 137, 344, 200
-0.988977, 209, 209, 240, 333
-0.988984, 465, 177, 496, 240
-0.989009, 57, 257, 88, 320
-0.989032, 21, 25, 52, 88
-0.989058, 289, 161, 416, 224
-0.989078, 137, 177, 168, 240
-0.989102, 117, 265, 148, 328
-0.989103, 337, 1, 400, 256
-0.989208, 33, 97, 64, 160
-0.989259, 377, 301, 440, 332
-0.989273, 169, 109, 232, 140
-0.989283, 117, 81, 148, 208
-0.989289, 445, 1, 476, 64
-0.989307, 237, 97, 268, 224
-0.989336, 69, 145, 100, 272
-0.989372, 449, 65, 480, 128
-0.989372, 185, 265, 216, 328
-0.989379, 369, 105, 496, 168
-0.989403, 289, 1, 320, 64
-0.989423, 21, 97, 52, 160
-0.989448, 117, 209, 148, 272
-0.98946, 129, 209, 160, 333
-0.989527, 273, 1, 304, 64
-0.989557, 65, 157, 128, 188
-0.989575, 385, 121, 448, 152
-0.989593, 329, 241, 360, 304
-0.989608, 13, 161, 44, 288
-0.989626, 1, 137, 32, 200
-0.989633, 309, 201, 340, 264
-0.989644, 37, 1, 68, 128
-0.989669, 337, 297, 400, 328
-0.989678, 257, 1, 288, 64
-0.989718, 409, 133, 472, 164
-0.989722, 221, 209, 252, 333
-0.98973, 425, 169, 456, 232
-0.989743, 257, 137, 384, 200
-0.989743, 289, 161, 320, 288
-0.989749, 209, 25, 272, 56
-0.989816, 1, 141, 64, 172
-0.989834, 93, 1, 124, 64
-0.989869, 137, 297, 200, 328
-0.989886, 377, 113, 408, 240
-0.989893, 9, 165, 72, 196
-0.98993, 325, 209, 356, 333
-0.989932, 145, 249, 272, 312
-0.989973, 209, 121, 336, 184
-0.989975, 161, 161, 192, 288
-0.99005, 41, 149, 104, 180
-0.990066, 69, 153, 100, 216
-0.99007, 157, 41, 188, 104
-0.990091, 209, 9, 272, 40
-0.990095, 113, 1, 144, 64
-0.990144, 201, 89, 264, 120
-0.99016, 89, 293, 152, 324
-0.990225, 73, 137, 136, 168
-0.990234, 449, 105, 480, 168
-0.990246, 321, 161, 384, 288
-0.990247, 201, 45, 264, 76
-0.99027, 141, 273, 172, 333
-0.990271, 33, 129, 96, 160
-0.990272, 265, 133, 328, 164
-0.990324, 105, 137, 168, 168
-0.990377, 273, 73, 400, 136
-0.990387, 21, 185, 52, 248
-0.9904, 193, 77, 256, 108
-0.990418, 81, 121, 144, 152
-0.990421, 313, 293, 376, 324
-0.990475, 97, 149, 160, 180
-0.9905, 129, 165, 192, 196
-0.990502, 169, 41, 232, 72
-0.990521, 57, 281, 120, 312
-0.990522, 97, 161, 160, 192
-0.990526, 393, 165, 456, 196
-0.990542, 297, 1, 360, 256
-0.990547, 1, 129, 64, 160
-0.990561, 141, 81, 172, 208
-0.990568, 337, 285, 400, 316
-0.990571, 193, 249, 320, 312
-0.990572, 209, 113, 240, 240
-0.990577, 121, 149, 184, 180
-0.99059, 97, 177, 160, 208
-0.9906, 417, 121, 480, 152
-0.990614, 257, 145, 320, 176
-0.990623, 73, 101, 136, 132
-0.990639, 113, 301, 176, 332
-0.990645, 129, 121, 192, 152
-0.990646, 429, 49, 460, 176
-0.990658, 193, 105, 256, 136
-0.99068, 297, 277, 360, 308
-0.990691, 65, 77, 128, 108
-0.990735, 9, 289, 72, 320
-0.990751, 1, 153, 64, 184
-0.990782, 233, 297, 296, 328
-0.990822, 41, 161, 104, 192
-0.990837, 161, 301, 224, 332
-0.990849, 265, 189, 328, 220
-0.99085, 201, 65, 264, 96
-0.990867, 225, 93, 288, 124
-0.990878, 153, 149, 216, 180
-0.990883, 233, 145, 296, 176
-0.990968, 249, 285, 312, 316
-0.990974, 385, 137, 448, 168
-0.99099, 165, 209, 196, 333
-0.990993, 81, 89, 144, 120
-0.990999, 281, 293, 344, 324
-0.991007, 257, 297, 320, 328
-0.991008, 381, 1, 412, 128
-0.99102, 141, 193, 172, 320
-0.991042, 401, 289, 464, 320
-0.991045, 233, 1, 296, 32
-0.991053, 33, 85, 96, 116
-0.991065, 17, 117, 80, 148
-0.991076, 33, 101, 96, 132
-0.99109, 17, 277, 80, 308
-0.991095, 409, 109, 472, 140
-0.991097, 409, 301, 472, 332
-0.99111, 273, 277, 336, 308
-0.991122, 385, 109, 448, 140
-0.991134, 57, 125, 120, 156
-0.991161, 105, 85, 168, 116
-0.991162, 129, 97, 192, 128
-0.991186, 57, 113, 120, 144
-0.991188, 321, 273, 384, 304
-0.991201, 177, 93, 240, 124
-0.991205, 1, 105, 64, 136
-0.991245, 33, 41, 288, 104
-0.991249, 97, 193, 160, 224
-0.991254, 25, 201, 88, 232
-0.991255, 33, 9, 288, 72
-0.991264, 89, 73, 152, 104
-0.991273, 313, 257, 376, 288
-0.991275, 97, 109, 160, 140
-0.991281, 65, 293, 128, 324
-0.991288, 233, 21, 296, 52
-0.991292, 1, 85, 64, 116
-0.99132, 361, 257, 424, 288
-0.991333, 97, 277, 160, 308
-0.991344, 385, 149, 448, 180
-0.991349, 121, 109, 184, 140
-0.991366, 153, 137, 216, 168
-0.991367, 65, 41, 128, 72
-0.991375, 49, 201, 112, 232
-0.991379, 65, 169, 128, 200
-0.991382, 25, 61, 88, 92
-0.991403, 73, 205, 136, 236
-0.991405, 177, 53, 240, 84
-0.991414, 49, 13, 112, 44
-0.991416, 369, 169, 432, 200
-0.991427, 129, 137, 192, 168
-0.991457, 345, 273, 408, 304
-0.991461, 129, 285, 192, 316
-0.991466, 201, 293, 264, 324
-0.991489, 353, 81, 480, 144
-0.991494, 121, 189, 184, 220
-0.991496, 153, 93, 216, 124
-0.991504, 129, 177, 192, 208
-0.991506, 249, 97, 312, 128
-0.991508, 353, 133, 416, 164
-0.991511, 177, 65, 240, 96
-0.99153, 129, 81, 192, 112
-0.991539, 81, 209, 112, 333
-0.99154, 9, 73, 72, 104
-0.991541, 161, 121, 224, 152
-0.991549, 49, 29, 112, 60
-0.991557, 433, 161, 496, 288
-0.991573, 225, 285, 288, 316
-0.991574, 365, 1, 396, 128
-0.991579, 177, 225, 304, 288
-0.991629, 73, 193, 136, 224
-0.991637, 169, 25, 232, 56
-0.991637, 321, 245, 384, 276
-0.991638, 433, 301, 496, 332
-0.991647, 25, 49, 88, 80
-0.991659, 433, 109, 496, 140
-0.991661, 37, 161, 68, 288
-0.991676, 17, 253, 80, 284
-0.991686, 369, 289, 432, 320
-0.991702, 49, 53, 112, 84
-0.991708, 289, 209, 416, 272
-0.991723, 49, 233, 176, 296
-0.991743, 41, 173, 104, 204
-0.991757, 169, 285, 232, 316
-0.991758, 1, 265, 64, 296
-0.991765, 9, 213, 72, 244
-0.991773, 145, 45, 208, 76
-0.991783, 33, 213, 96, 244
-0.991798, 197, 209, 228, 333
-0.991817, 1, 197, 64, 228
-0.991829, 265, 177, 328, 208
-0.99183, 121, 25, 184, 56
-0.991832, 1, 1, 64, 32
-0.991836, 169, 81, 232, 112
-0.991841, 225, 225, 352, 288
-0.991846, 57, 89, 120, 120
-0.991856, 305, 41, 432, 104
-0.991967, 337, 97, 400, 224
-0.991969, 197, 145, 228, 272
-0.992088, 97, 81, 352, 144
-0.992109, 337, 185, 464, 248
-0.992145, 161, 1, 416, 64
-0.992145, 33, 113, 288, 176
-0.992193, 257, 113, 500, 176
-0.992218, 193, 265, 448, 328
-0.992296, 221, 13, 252, 44
-0.992309, 353, 1, 384, 128
-0.992328, 229, 81, 260, 112
-0.992464, 217, 89, 248, 120
-0.992464, 261, 141, 292, 172
-0.992468, 105, 149, 136, 180
-0.992498, 353, 225, 480, 288
-0.992499, 49, 1, 80, 128
-0.992506, 89, 153, 120, 184
-0.992517, 357, 113, 388, 240
-0.99255, 213, 33, 244, 64
-0.992556, 129, 105, 384, 168
-0.992562, 129, 137, 384, 200
-0.992602, 105, 165, 136, 196
-0.992603, 21, 281, 52, 312
-0.992625, 213, 69, 244, 100
-0.992627, 1, 153, 256, 216
-0.992641, 381, 301, 412, 332
-0.992644, 121, 165, 152, 196
-0.992646, 361, 293, 392, 324
-0.992652, 9, 269, 40, 300
-0.992663, 389, 169, 420, 200
-0.99267, 349, 277, 380, 308
-0.992672, 101, 285, 132, 316
-0.992676, 213, 45, 244, 76
-0.992676, 125, 297, 156, 328
-0.992678, 349, 293, 380, 324
-0.992678, 177, 113, 208, 144
-0.99269, 241, 77, 272, 108
-0.992695, 113, 177, 144, 208
-0.992703, 141, 297, 172, 328
-0.992709, 101, 181, 132, 212
-0.992711, 209, 105, 240, 136
-0.992717, 13, 1, 44, 128
-0.992717, 81, 141, 112, 172
-0.992724, 333, 289, 364, 320
-0.992731, 97, 105, 128, 136
-0.992738, 125, 177, 156, 208
-0.992743, 9, 281, 40, 312
-0.992748, 81, 117, 112, 148
-0.992755, 401, 161, 432, 192
-0.992761, 273, 133, 304, 164
-0.992769, 425, 109, 456, 140
-0.992769, 129, 145, 160, 176
-0.99278, 221, 1, 252, 32
-0.992796, 233, 17, 264, 48
-0.992797, 361, 281, 392, 312
-0.992798, 425, 173, 456, 204
-0.992817, 193, 109, 224, 140
-0.992832, 25, 137, 56, 168
-0.992832, 425, 121, 456, 152
-0.992834, 401, 301, 432, 332
-0.992841, 21, 269, 52, 300
-0.992841, 249, 141, 280, 172
-0.992846, 113, 285, 144, 316
-0.992847, 141, 153, 172, 184
-0.992848, 1, 73, 256, 136
-0.992849, 113, 137, 144, 168
-0.992853, 261, 285, 292, 316
-0.992862, 61, 137, 92, 168
-0.992864, 69, 125, 100, 156
-0.992866, 125, 133, 156, 164
-0.99288, 85, 93, 116, 124
-0.992882, 225, 65, 256, 96
-0.992884, 93, 141, 124, 172
-0.992886, 89, 277, 120, 308
-0.992902, 253, 81, 284, 112
-0.992904, 45, 125, 76, 156
-0.992908, 13, 129, 44, 160
-0.992909, 301, 297, 332, 328
-0.99291, 233, 293, 264, 324
-0.992911, 9, 105, 40, 136
-0.992912, 273, 145, 304, 176
-0.992912, 409, 173, 440, 204
-0.992917, 309, 193, 340, 224
-0.992918, 429, 133, 460, 164
-0.992921, 93, 121, 124, 152
-0.992922, 113, 297, 144, 328
-0.992923, 25, 149, 56, 180
-0.992927, 417, 137, 448, 168
-0.99293, 225, 29, 256, 60
-0.992939, 73, 157, 104, 188
-0.99294, 429, 241, 460, 272
-0.992946, 289, 181, 320, 212
-0.99295, 249, 285, 280, 316
-0.992952, 9, 89, 40, 120
-0.992952, 229, 93, 260, 124
-0.992953, 133, 165, 164, 196
-0.992954, 57, 125, 88, 156
-0.992956, 261, 129, 292, 160
-0.992965, 101, 193, 132, 224
-0.992966, 389, 117, 420, 148
-0.992968, 29, 125, 60, 156
-0.992969, 13, 301, 44, 332
-0.992973, 281, 297, 312, 328
-0.992976, 373, 49, 404, 176
-0.992985, 153, 149, 184, 180
-0.99299, 141, 141, 172, 172
-0.992993, 437, 121, 468, 152
-0.992993, 413, 117, 444, 148
-0.992995, 437, 297, 468, 328
-0.992996, 309, 273, 340, 304
-0.992999, 257, 153, 288, 184
-0.993, 81, 129, 112, 160
-0.993001, 369, 269, 400, 300
-0.993009, 237, 37, 268, 68
-0.993015, 29, 293, 60, 324
-0.993018, 317, 293, 348, 324
-0.993024, 265, 297, 296, 328
-0.993026, 253, 301, 284, 332
-0.993027, 17, 221, 48, 252
-0.993028, 449, 125, 480, 156
-0.993028, 165, 117, 196, 148
-0.99303, 281, 285, 312, 316
-0.993036, 257, 29, 288, 60
-0.993037, 5, 117, 36, 148
-0.993037, 9, 141, 40, 172
-0.993037, 81, 77, 112, 108
-0.993039, 297, 277, 328, 308
-0.993039, 117, 189, 148, 220
-0.99304, 241, 5, 272, 36
-0.993041, 61, 149, 92, 180
-0.993044, 77, 105, 108, 136
-0.993046, 205, 89, 236, 120
-0.993047, 157, 105, 188, 136
-0.993052, 401, 117, 432, 148
-0.993056, 153, 297, 184, 328
-0.993057, 181, 97, 212, 128
-0.993058, 381, 289, 412, 320
-0.993059, 421, 301, 452, 332
-0.99306, 61, 109, 92, 140
-0.993062, 373, 121, 404, 152
-0.993067, 25, 273, 40, 333
-0.993068, 349, 265, 380, 296
-0.99307, 89, 165, 120, 196
-0.993073, 49, 137, 80, 168
-0.993076, 205, 21, 236, 52
-0.993077, 9, 161, 40, 192
-0.993081, 225, 45, 256, 76
-0.993084, 437, 109, 468, 140
-0.993085, 21, 181, 52, 212
-0.993248, 193, 25, 448, 88
-0.993248, 389, 209, 420, 333
-0.993258, 373, 161, 404, 288
-0.99335, 361, 1, 424, 256
-0.993407, 1, 1, 500, 64
-0.993551, 453, 1, 484, 128
-0.993702, 289, 185, 416, 248
-0.993712, 97, 177, 352, 240
-0.993735, 417, 1, 480, 333
-0.993741, 465, 65, 496, 192
-0.99376, 301, 1, 332, 128
-0.993899, 401, 113, 432, 240
-0.993961, 341, 193, 372, 320
-0.99399, 1, 257, 256, 320
-0.994083, 449, 113, 480, 240
-0.994111, 223, 1, 238, 64
-0.994154, 353, 57, 480, 120
-0.994225, 289, 65, 320, 192
-0.994257, 235, 57, 250, 120
-0.994267, 35, 273, 50, 333
-0.994286, 333, 1, 364, 128
-0.994286, 305, 297, 432, 328
-0.994311, 193, 25, 320, 56
-0.994317, 373, 209, 404, 333
-0.994356, 211, 41, 226, 104
-0.994357, 145, 77, 272, 108
-0.994362, 129, 301, 256, 332
-0.994403, 19, 265, 34, 328
-0.994457, 97, 273, 352, 333
-0.994463, 321, 1, 384, 333
-0.994514, 417, 49, 448, 176
-0.994537, 129, 209, 256, 272
-0.994575, 107, 161, 122, 224
-0.994587, 225, 137, 480, 200
-0.994603, 345, 1, 408, 333
-0.99462, 217, 25, 232, 88
-0.994632, 369, 121, 496, 152
-0.994649, 241, 65, 256, 128
-0.994686, 1, 121, 500, 184
-0.994693, 421, 137, 436, 200
-0.994776, 1, 25, 500, 88
-0.994824, 241, 281, 368, 312
-0.994888, 193, 13, 320, 44
-0.994906, 1, 97, 500, 160
-0.994964, 265, 129, 280, 192
-0.994966, 117, 177, 132, 240
-0.994973, 237, 209, 268, 333
-0.995002, 173, 145, 204, 272
-0.995022, 425, 209, 456, 333
-0.995034, 9, 105, 24, 168
-0.995059, 243, 1, 258, 64
-0.99506, 257, 169, 500, 232
-0.995069, 427, 113, 442, 176
-0.995102, 235, 81, 250, 144
-0.995113, 1, 185, 256, 248
-0.995151, 213, 65, 228, 128
-0.995153, 81, 173, 208, 204
-0.995162, 397, 65, 428, 192
-0.995183, 99, 145, 114, 208
-0.995187, 145, 109, 272, 140
-0.99519, 117, 153, 132, 216
-0.995194, 209, 89, 336, 120
-0.995228, 439, 113, 454, 176
-0.995234, 81, 121, 208, 152
-0.995292, 401, 209, 432, 333
-0.99532, 193, 241, 448, 304
-0.99532, 225, 113, 256, 240
-0.995322, 177, 289, 304, 320
-0.995322, 229, 1, 244, 64
-0.995329, 193, 37, 320, 68
-0.99534, 1, 273, 500, 333
-0.995347, 193, 81, 448, 144
-0.995357, 179, 113, 194, 176
-0.995374, 33, 293, 160, 324
-0.995389, 89, 121, 104, 184
-0.995394, 209, 1, 336, 32
-0.995407, 71, 129, 86, 192
-0.99541, 193, 101, 320, 132
-0.995415, 3, 257, 18, 320
-0.995454, 369, 301, 496, 332
-0.995462, 123, 153, 138, 216
-0.995466, 257, 293, 384, 324
-0.995467, 109, 137, 124, 200
-0.995498, 351, 273, 366, 333
-0.995498, 301, 273, 316, 333
-0.995503, 129, 49, 160, 176
-0.995506, 433, 145, 448, 208
-0.995523, 461, 161, 492, 288
-0.995523, 81, 145, 96, 208
-0.99553, 113, 89, 240, 120
-0.995531, 17, 125, 144, 156
-0.995533, 161, 137, 288, 168
-0.995541, 33, 169, 160, 200
-0.995543, 209, 301, 336, 332
-0.995546, 227, 81, 242, 144
-0.995559, 81, 189, 208, 220
-0.995585, 65, 109, 192, 140
-0.995586, 263, 153, 278, 216
-0.995589, 129, 49, 384, 112
-0.99561, 113, 161, 240, 192
-0.995621, 257, 1, 500, 64
-0.995659, 145, 37, 272, 68
-0.995688, 33, 181, 160, 212
-0.995693, 145, 9, 272, 40
-0.995696, 81, 141, 208, 172
-0.995703, 127, 177, 142, 240
-0.995744, 221, 57, 236, 120
-0.995751, 415, 137, 430, 200
-0.995758, 341, 273, 356, 333
-0.995764, 135, 153, 150, 216
-0.995765, 81, 121, 96, 184
-0.995771, 187, 113, 202, 176
-0.995779, 27, 249, 42, 312
-0.995783, 161, 149, 288, 180
-0.995786, 145, 25, 272, 56
-0.995797, 5, 129, 20, 192
-0.99582, 315, 265, 330, 328
-0.995824, 161, 89, 288, 120
-0.995831, 243, 41, 258, 104
-0.995834, 129, 173, 256, 204
-0.995837, 271, 137, 286, 200
-0.995848, 65, 157, 192, 188
-0.99585, 289, 1, 352, 333
-0.995858, 217, 1, 248, 256
-0.99587, 145, 65, 272, 96
-0.99587, 1, 273, 128, 304
-0.995874, 115, 129, 130, 192
-0.995884, 441, 17, 472, 144
-0.995939, 261, 1, 292, 256
-0.995975, 129, 129, 144, 192
-0.995989, 423, 169, 438, 232
-0.995991, 409, 137, 424, 200
-0.995991, 247, 65, 262, 128
-0.995994, 15, 129, 30, 192
-0.996006, 49, 21, 176, 52
-0.996006, 17, 201, 144, 232
-0.996012, 365, 273, 380, 333
-0.996019, 281, 273, 296, 333
-0.996023, 401, 153, 416, 216
-0.996043, 97, 281, 224, 312
-0.996069, 33, 85, 160, 116
-0.996083, 107, 185, 122, 248
-0.996094, 169, 1, 200, 256
-0.996151, 207, 81, 222, 144
-0.996153, 1, 109, 128, 140
-0.996161, 383, 257, 398, 320
-0.996164, 413, 145, 444, 272
-0.996167, 249, 1, 264, 64
-0.996172, 11, 273, 26, 333
-0.996199, 107, 89, 122, 152
-0.996202, 141, 145, 156, 208
-0.996234, 449, 209, 480, 333
-0.996255, 271, 273, 286, 333
-0.996274, 93, 257, 108, 320
-0.996276, 289, 277, 416, 308
-0.996293, 103, 121, 118, 184
-0.9963, 225, 141, 352, 172
-0.996301, 33, 1, 160, 32
-0.996313, 273, 1, 304, 256
-0.996317, 137, 177, 152, 240
-0.996319, 23, 105, 38, 168
-0.996323, 41, 1, 56, 64
-0.996326, 41, 121, 56, 184
-0.996332, 49, 129, 64, 192
-0.996332, 165, 129, 180, 192
-0.996337, 337, 277, 464, 308
-0.996337, 193, 49, 320, 80
-0.996354, 289, 177, 416, 208
-0.996365, 173, 113, 188, 176
-0.996368, 229, 1, 260, 256
-0.99637, 145, 121, 272, 152
-0.996371, 209, 77, 336, 108
-0.996373, 1, 49, 500, 112
-0.996404, 117, 201, 132, 264
-0.996406, 433, 105, 448, 168
-0.996407, 371, 257, 386, 320
-0.99641, 289, 109, 416, 140
-0.996412, 1, 253, 128, 284
-0.996416, 153, 1, 184, 256
-0.996446, 397, 129, 412, 192
-0.996452, 241, 1, 272, 256
-0.996453, 465, 1, 496, 128
-0.996453, 203, 41, 218, 104
-0.996455, 307, 273, 322, 333
-0.996463, 257, 1, 272, 64
-0.996463, 419, 105, 434, 168
-0.996469, 303, 169, 318, 232
-0.99647, 323, 273, 338, 333
-0.996472, 277, 129, 292, 192
-0.996476, 329, 161, 360, 288
-0.996476, 189, 1, 220, 256
-0.996477, 197, 105, 212, 168
-0.99648, 35, 137, 50, 200
-0.996483, 81, 293, 208, 324
-0.996483, 229, 41, 244, 104
-0.996486, 1, 105, 16, 168
-0.996486, 413, 113, 428, 176
-0.996486, 25, 145, 40, 208
-0.996492, 87, 81, 102, 144
-0.996494, 17, 97, 144, 128
-0.996497, 1, 185, 500, 248
-0.996499, 175, 145, 190, 208
-0.996502, 257, 137, 272, 200
-0.996502, 33, 141, 160, 172
-0.996524, 85, 265, 100, 328
-0.996527, 205, 105, 220, 168
-0.996536, 221, 81, 236, 144
-0.996537, 357, 273, 372, 333
-0.99654, 321, 121, 448, 152
-0.996542, 313, 193, 328, 256
-0.996553, 217, 1, 232, 64
-0.996554, 265, 273, 280, 333
-0.996557, 149, 153, 164, 216
-0.996566, 223, 33, 238, 96
-0.996572, 99, 177, 114, 240
-0.996576, 285, 129, 300, 192
-0.996592, 257, 17, 384, 48
-0.996596, 225, 193, 352, 224
-0.9966, 427, 137, 442, 200
-0.996602, 15, 105, 30, 168
-0.996603, 33, 249, 48, 312
-0.996609, 463, 137, 478, 200
-0.99661, 123, 129, 138, 192
-0.99661, 145, 49, 272, 80
-0.996611, 483, 25, 498, 88
-0.996611, 49, 105, 64, 168
-0.996614, 161, 161, 288, 192
-0.996617, 237, 9, 252, 72
-0.996619, 49, 281, 176, 312
-0.996621, 161, 273, 176, 333
-0.996636, 81, 201, 208, 232
-0.996642, 415, 161, 430, 224
-0.996644, 89, 145, 104, 208
-0.996654, 13, 249, 28, 312
-0.996672, 289, 265, 416, 296
-0.996675, 369, 141, 496, 172
-0.99669, 215, 97, 230, 160
-0.996695, 453, 1, 468, 64
-0.996695, 99, 97, 114, 160
-0.996697, 45, 257, 60, 320
-0.996698, 33, 73, 160, 104
-0.9967, 467, 209, 482, 272
-0.996702, 19, 241, 34, 304
-0.996708, 479, 1, 494, 64
-0.996717, 59, 105, 74, 168
-0.996722, 25, 217, 40, 280
-0.996733, 141, 1, 172, 256
-0.996736, 103, 257, 118, 320
-0.996746, 241, 269, 368, 300
-0.996746, 9, 81, 24, 144
-0.996752, 393, 1, 456, 333
-0.996756, 79, 81, 94, 144
-0.99676, 469, 209, 500, 333
-0.996764, 97, 121, 112, 184
-0.996769, 357, 249, 372, 312
-0.996773, 451, 33, 466, 96
-0.996781, 251, 25, 266, 88
-0.996799, 1, 145, 500, 208
-0.996804, 369, 21, 496, 52
-0.996813, 353, 169, 480, 200
-0.996821, 209, 153, 336, 184
-0.996908, 1, 233, 500, 296
-0.996918, 193, 65, 320, 96
-0.996959, 369, 289, 496, 320
-0.996962, 437, 209, 468, 333
-0.996975, 209, 181, 336, 212
-0.996991, 233, 161, 264, 288
-0.997, 1, 153, 128, 184
-0.997004, 309, 81, 340, 208
-0.997004, 265, 137, 280, 168
-0.997021, 269, 193, 300, 320
-0.997025, 33, 213, 160, 244
-0.997041, 225, 129, 352, 160
-0.997053, 17, 289, 32, 320
-0.997075, 321, 253, 448, 284
-0.997079, 337, 109, 464, 140
-0.997122, 97, 77, 224, 108
-0.997122, 97, 249, 352, 312
-0.997122, 273, 5, 400, 36
-0.997134, 289, 97, 416, 128
-0.997146, 321, 29, 448, 60
-0.997147, 241, 77, 256, 108
-0.99715, 225, 113, 352, 144
-0.997173, 1, 17, 128, 48
-0.997192, 97, 41, 224, 72
-0.997194, 161, 217, 416, 280
-0.997197, 23, 281, 38, 312
-0.997219, 225, 5, 240, 36
-0.997235, 233, 77, 248, 108
-0.99725, 81, 213, 208, 244
-0.997259, 205, 1, 236, 256
-0.997264, 113, 149, 128, 180
-0.997284, 231, 89, 246, 120
-0.997288, 217, 21, 232, 52
-0.997289, 225, 49, 480, 112
-0.99733, 17, 49, 144, 80
-0.997333, 27, 301, 42, 332
-0.997339, 21, 269, 36, 300
-0.997354, 97, 25, 224, 56
-0.997361, 105, 145, 120, 176
-0.997377, 1, 233, 256, 296
-0.997399, 1, 37, 128, 68
-0.997408, 217, 37, 232, 68
-0.997427, 133, 293, 148, 324
-0.997431, 125, 1, 156, 256
-0.997435, 305, 137, 432, 168
-0.99744, 73, 1, 104, 256
-0.997448, 177, 277, 304, 308
-0.997458, 15, 273, 30, 304
-0.997474, 161, 185, 288, 216
-0.997494, 5, 141, 20, 172
-0.997495, 49, 65, 80, 320
-0.997498, 209, 165, 336, 196
-0.997504, 97, 61, 224, 92
-0.997505, 121, 161, 136, 192
-0.997515, 65, 97, 192, 128
-0.997521, 439, 117, 454, 148
-0.997534, 147, 297, 162, 328
-0.997559, 135, 165, 150, 196
-0.99756, 141, 297, 156, 328
-0.997562, 423, 121, 438, 152
-0.997586, 29, 285, 44, 316
-0.997594, 105, 1, 136, 256
-0.997597, 49, 33, 176, 64
-0.997611, 225, 93, 240, 124
-0.997619, 369, 97, 496, 128
-0.997629, 107, 157, 122, 188
-0.997632, 337, 241, 464, 272
-0.997641, 429, 109, 444, 140
-0.997642, 225, 81, 240, 112
-0.997649, 27, 261, 42, 292
-0.997661, 127, 157, 142, 188
-0.99767, 215, 49, 230, 80
-0.997678, 99, 149, 114, 180
-0.997686, 89, 117, 104, 148
-0.997689, 29, 145, 44, 176
-0.997694, 127, 173, 142, 204
-0.997694, 407, 161, 422, 192
-0.997697, 425, 1, 456, 256
-0.997699, 419, 165, 434, 196
-0.997709, 373, 293, 388, 324
-0.997719, 65, 225, 192, 256
-0.99772, 401, 301, 416, 332
-0.997721, 241, 33, 368, 64
-0.997721, 85, 153, 100, 184
-0.997725, 289, 65, 320, 320
-0.997729, 235, 17, 250, 48
-0.997732, 61, 1, 92, 256
-0.997732, 273, 249, 400, 280
-0.99774, 353, 157, 480, 188
-0.99774, 337, 265, 464, 296
-0.997744, 305, 189, 432, 220
-0.997746, 259, 141, 274, 172
-0.997757, 277, 141, 292, 172
-0.997758, 267, 153, 282, 184
-0.997762, 217, 101, 232, 132
-0.997764, 401, 157, 416, 188
-0.997772, 77, 157, 92, 188
-0.997786, 73, 125, 88, 156
-0.997787, 35, 137, 50, 168
-0.99779, 111, 285, 126, 316
-0.997797, 17, 61, 144, 92
-0.9978, 363, 273, 378, 304
-0.997814, 321, 9, 448, 40
-0.997815, 369, 41, 496, 72
-0.997816, 103, 173, 118, 204
-0.997817, 75, 145, 90, 176
-0.997821, 1, 85, 16, 116
-0.997828, 127, 297, 142, 328
-0.997832, 33, 209, 288, 272
-0.997832, 81, 5, 208, 36
-0.997832, 81, 261, 208, 292
-0.997838, 177, 117, 192, 148
-0.997839, 417, 117, 432, 148
-0.997839, 21, 301, 36, 332
-0.997842, 211, 37, 226, 68
-0.997847, 383, 297, 398, 328
-0.997852, 107, 93, 122, 124
-0.997857, 237, 89, 252, 120
-0.997862, 247, 77, 262, 108
-0.997871, 29, 133, 44, 164
-0.997871, 113, 173, 128, 204
-0.997875, 353, 293, 368, 324
-0.997876, 209, 109, 224, 140
-0.997883, 395, 169, 410, 200
-0.997884, 79, 117, 94, 148
-0.997885, 11, 141, 26, 172
-0.997888, 99, 109, 114, 140
-0.997888, 131, 133, 146, 164
-0.997891, 445, 129, 460, 160
-0.997893, 33, 301, 48, 332
-0.997895, 153, 301, 168, 332
-0.997903, 5, 109, 20, 140
-0.997905, 7, 121, 22, 152
-0.997912, 17, 229, 144, 260
-0.997915, 127, 145, 142, 176
-0.997918, 223, 29, 238, 60
-0.99792, 9, 97, 24, 128
-0.997922, 347, 293, 362, 324
-0.997927, 273, 201, 400, 232
-0.997927, 301, 277, 316, 308
-0.997928, 113, 161, 128, 192
-0.99793, 313, 193, 328, 224
-0.997932, 1, 129, 16, 160
-0.997932, 105, 277, 120, 308
-0.997938, 107, 189, 122, 220
-0.997949, 285, 137, 300, 168
-0.997952, 365, 285, 380, 316
-0.997956, 409, 145, 424, 176
-0.997959, 167, 125, 182, 156
-0.997959, 429, 121, 444, 152
-0.997961, 369, 181, 496, 212
-0.997962, 289, 165, 416, 196
-0.997965, 215, 61, 230, 92
-0.997965, 425, 173, 440, 204
-0.997969, 119, 145, 134, 176
-0.997971, 117, 285, 132, 316
-0.997971, 395, 297, 410, 328
-0.997972, 227, 61, 242, 92
-0.99798, 143, 177, 158, 208
-0.997982, 137, 129, 152, 160
-0.997989, 97, 185, 112, 216
-0.997991, 209, 49, 224, 80
-0.997992, 219, 9, 234, 40
-0.997994, 241, 9, 256, 40
-0.997997, 3, 157, 18, 188
-0.997997, 115, 197, 130, 228
-0.997997, 15, 125, 30, 156
-0.998001, 1, 241, 128, 272
-0.998012, 387, 121, 402, 152
-0.998013, 29, 109, 44, 140
-0.998013, 73, 89, 88, 120
-0.998014, 217, 89, 232, 120
-0.998023, 81, 141, 96, 172
-0.998024, 97, 161, 112, 192
-0.998034, 271, 141, 286, 172
-0.998036, 117, 185, 132, 216
-0.998037, 81, 245, 208, 276
-0.998039, 63, 129, 78, 160
-0.998041, 257, 193, 500, 256
-0.998041, 43, 149, 58, 180
-0.998045, 265, 285, 280, 316
-0.99805, 77, 69, 92, 100
-0.998051, 29, 273, 44, 304
-0.998053, 79, 81, 94, 112
-0.998057, 151, 141, 166, 172
-0.998061, 411, 117, 426, 148
-0.998062, 373, 265, 388, 296
-0.998063, 9, 277, 24, 308
-0.998067, 21, 113, 36, 144
-0.998071, 21, 253, 36, 284
-0.998073, 17, 1, 48, 256
-0.998075, 419, 137, 434, 168
-0.998081, 225, 105, 240, 136
-0.998083, 23, 133, 38, 164
-0.998084, 137, 189, 152, 220
-0.998097, 257, 217, 500, 280
-0.9981, 337, 229, 464, 260
-0.998135, 129, 201, 256, 232
-0.998151, 161, 265, 288, 296
-0.998204, 225, 257, 352, 288
-0.998216, 145, 213, 272, 244
-0.998218, 257, 73, 384, 104
-0.998227, 305, 149, 432, 180
-0.998232, 113, 225, 240, 256
-0.99824, 241, 101, 368, 132
-0.998281, 85, 65, 116, 320
-0.998299, 257, 221, 384, 252
-0.998318, 225, 205, 352, 236
-0.998331, 413, 65, 444, 320
-0.998337, 1, 209, 500, 272
-0.998343, 309, 65, 340, 320
-0.998353, 257, 233, 384, 264
-0.998377, 37, 1, 68, 256
-0.998381, 1, 73, 500, 136
-0.998384, 161, 233, 288, 264
-0.998392, 377, 171, 440, 186
-0.998408, 457, 65, 488, 320
-0.99841, 349, 1, 380, 256
-0.998419, 49, 129, 80, 144
-0.99842, 413, 311, 444, 326
-0.99842, 425, 317, 456, 332
-0.99842, 1, 289, 32, 304
-0.99842, 229, 3, 260, 18
-0.998421, 101, 215, 132, 230
-0.998422, 9, 107, 40, 122
-0.998422, 373, 123, 404, 138
-0.998423, 265, 279, 296, 294
-0.998423, 349, 277, 380, 292
-0.998423, 245, 151, 276, 166
-0.998423, 9, 101, 40, 116
-0.998425, 25, 127, 56, 142
-0.998426, 433, 175, 464, 190
-0.998426, 437, 117, 468, 132
-0.998426, 273, 135, 304, 150
-0.998428, 117, 157, 148, 172
-0.998429, 61, 129, 92, 144
-0.998429, 273, 143, 304, 158
-0.998431, 225, 29, 256, 44
-0.998431, 113, 179, 144, 194
-0.998432, 401, 139, 432, 154
-0.998432, 221, 23, 252, 38
-0.998432, 17, 137, 48, 152
-0.998432, 41, 149, 72, 164
-0.998433, 205, 39, 236, 54
-0.998434, 17, 221, 48, 236
-0.998437, 21, 147, 52, 162
-0.998437, 249, 79, 280, 94
-0.998437, 1, 163, 32, 178
-0.998437, 1, 131, 32, 146
-0.998437, 425, 107, 456, 122
-0.998439, 409, 147, 440, 162
-0.99844, 77, 161, 108, 176
-0.998441, 413, 177, 444, 192
-0.998441, 9, 157, 40, 172
-0.998441, 133, 133, 164, 148
-0.998442, 77, 145, 108, 160
-0.998442, 1, 125, 32, 140
-0.998442, 433, 129, 464, 144
-0.998442, 385, 123, 416, 138
-0.998442, 333, 289, 364, 304
-0.998442, 33, 137, 64, 152
-0.998442, 281, 279, 312, 294
-0.998443, 273, 149, 304, 164
-0.998444, 353, 297, 384, 312
-0.998444, 333, 283, 364, 298
-0.998445, 401, 305, 432, 320
-0.998446, 361, 283, 392, 298
-0.998446, 121, 303, 152, 318
-0.998447, 13, 287, 44, 302
-0.998447, 285, 309, 316, 324
-0.998448, 209, 81, 272, 96
-0.998449, 297, 303, 328, 318
-0.998449, 97, 133, 128, 148
-0.998449, 77, 121, 108, 136
-0.998449, 97, 177, 128, 192
-0.998449, 89, 139, 120, 154
-0.99845, 297, 279, 328, 294
-0.998451, 17, 169, 48, 184
-0.998451, 285, 299, 316, 314
-0.998454, 53, 151, 84, 166
-0.998454, 309, 197, 340, 212
-0.998456, 373, 177, 404, 192
-0.998457, 133, 149, 164, 164
-0.998457, 13, 131, 44, 146
-0.998457, 113, 135, 144, 150
-0.998458, 69, 135, 100, 150
-0.998458, 273, 121, 400, 152
-0.998459, 389, 303, 420, 318
-0.998459, 373, 315, 404, 330
-0.99846, 257, 153, 288, 168
-0.998461, 221, 95, 252, 110
-0.998461, 257, 45, 384, 76
-0.998461, 217, 89, 248, 104
-0.998461, 409, 187, 440, 202
-0.998463, 141, 299, 172, 314
-0.998463, 157, 121, 188, 136
-0.998463, 417, 139, 448, 154
-0.998464, 173, 117, 204, 132
-0.998466, 369, 275, 400, 290
-0.998467, 209, 101, 240, 116
-0.998468, 385, 125, 448, 140
-0.998468, 21, 281, 52, 296
-0.99847, 97, 289, 128, 304
-0.998471, 25, 315, 56, 330
-0.998471, 9, 281, 40, 296
-0.998472, 125, 179, 156, 194
-0.998473, 389, 169, 420, 184
-0.998473, 13, 313, 44, 328
-0.998474, 345, 287, 376, 302
-0.998474, 213, 77, 244, 92
-0.998476, 133, 171, 164, 186
-0.998478, 97, 145, 128, 160
-0.998478, 113, 165, 144, 180
-0.998479, 413, 171, 444, 186
-0.998479, 125, 163, 156, 178
-0.998479, 233, 87, 296, 102
-0.998481, 77, 127, 108, 142
-0.998482, 221, 11, 252, 26
-0.998482, 401, 137, 464, 152
-0.998485, 125, 139, 156, 154
-0.998485, 337, 85, 464, 116
-0.998488, 365, 299, 396, 314
-0.998489, 217, 35, 248, 50
-0.998489, 129, 297, 160, 312
-0.998489, 397, 161, 428, 176
-0.998489, 101, 151, 132, 166
-0.99849, 129, 299, 192, 314
-0.998492, 189, 111, 220, 126
-0.998494, 57, 167, 120, 182
-0.998495, 9, 273, 40, 288
-0.998495, 113, 141, 144, 156
-0.998496, 69, 153, 100, 168
-0.998497, 109, 297, 140, 312
-0.998497, 249, 143, 312, 158
-0.998497, 81, 159, 144, 174
-0.998499, 57, 155, 120, 170
-0.998501, 153, 317, 184, 332
-0.998504, 249, 85, 280, 100
-0.998507, 113, 151, 144, 166
-0.998511, 209, 19, 272, 34
-0.998512, 89, 153, 120, 168
-0.998513, 213, 45, 244, 60
-0.998513, 209, 35, 272, 50
-0.998514, 377, 301, 408, 316
-0.998515, 185, 111, 248, 126
-0.998516, 137, 169, 200, 184
-0.998516, 377, 119, 440, 134
-0.998517, 17, 131, 80, 146
-0.998517, 345, 301, 408, 316
-0.998517, 1, 125, 64, 140
-0.998517, 117, 173, 148, 188
-0.998518, 113, 149, 176, 164
-0.998519, 425, 121, 456, 136
-0.99852, 129, 309, 160, 324
-0.99852, 201, 51, 264, 66
-0.998522, 81, 293, 144, 308
-0.998523, 101, 161, 132, 176
-0.998523, 409, 117, 440, 132
-0.998524, 81, 169, 144, 184
-0.998524, 209, 87, 272, 102
-0.998524, 57, 161, 120, 176
-0.998525, 49, 173, 112, 188
-0.998525, 25, 171, 88, 186
-0.998525, 233, 81, 296, 96
-0.998526, 53, 145, 84, 160
-0.998527, 213, 51, 244, 66
-0.998528, 377, 1, 408, 256
-0.998528, 209, 107, 240, 122
-0.998528, 141, 315, 172, 330
-0.998529, 401, 131, 464, 146
-0.998531, 385, 311, 448, 326
-0.998531, 221, 83, 252, 98
-0.998535, 121, 143, 184, 158
-0.998535, 209, 29, 272, 44
-0.998535, 289, 277, 352, 292
-0.998537, 425, 131, 488, 146
-0.998538, 401, 169, 432, 184
-0.998539, 49, 137, 112, 152
-0.998539, 425, 113, 456, 128
-0.99854, 185, 85, 248, 100
-0.99854, 25, 159, 88, 174
-0.99854, 417, 113, 480, 128
-0.99854, 321, 295, 384, 310
-0.998541, 89, 161, 120, 176
-0.998541, 109, 291, 140, 306
-0.998542, 121, 135, 184, 150
-0.998545, 25, 149, 88, 164
-0.998546, 81, 151, 144, 166
-0.998547, 105, 315, 168, 330
-0.998548, 425, 119, 488, 134
-0.998549, 369, 305, 432, 320
-0.998552, 409, 143, 472, 158
-0.998554, 385, 177, 448, 192
-0.998554, 17, 137, 80, 152
-0.998555, 425, 173, 488, 188
-0.998555, 273, 301, 336, 316
-0.998555, 105, 309, 168, 324
-0.998556, 209, 75, 272, 90
-0.998559, 217, 17, 248, 32
-0.99856, 377, 255, 440, 270
-0.99856, 193, 105, 256, 120
-0.998561, 229, 89, 260, 104
-0.998561, 273, 309, 336, 324
-0.998561, 265, 149, 328, 164
-0.998561, 49, 127, 112, 142
-0.998563, 265, 137, 328, 152
-0.998564, 409, 309, 472, 324
-0.998566, 129, 155, 192, 170
-0.998567, 41, 115, 104, 130
-0.998567, 209, 13, 272, 28
-0.998567, 249, 309, 312, 324
-0.998568, 89, 301, 152, 316
-0.998568, 129, 115, 192, 130
-0.998568, 161, 113, 224, 128
-0.998568, 105, 291, 168, 306
-0.998568, 401, 149, 464, 164
-0.99857, 377, 133, 440, 148
-0.99857, 257, 283, 320, 298
-0.998571, 393, 165, 456, 180
-0.998571, 169, 119, 232, 134
-0.998571, 1, 161, 64, 176
-0.998571, 73, 287, 136, 302
-0.998572, 161, 315, 224, 330
-0.998572, 257, 191, 320, 206
-0.998572, 97, 139, 160, 154
-0.998572, 121, 127, 184, 142
-0.998574, 297, 293, 360, 308
-0.998575, 17, 291, 80, 306
-0.998575, 73, 143, 136, 158
-0.998576, 97, 175, 160, 190
-0.998577, 25, 165, 88, 180
-0.998578, 1, 101, 64, 116
-0.998578, 41, 121, 104, 136
-0.998579, 321, 285, 384, 300
-0.998582, 49, 179, 112, 194
-0.998583, 41, 97, 104, 112
-0.998583, 73, 83, 136, 98
-0.998583, 65, 121, 128, 136
-0.998584, 177, 45, 240, 60
-0.998585, 137, 317, 200, 332
-0.998586, 105, 159, 168, 174
-0.998588, 209, 45, 272, 60
-0.998589, 417, 317, 480, 332
-0.998589, 89, 121, 152, 136
-0.998589, 129, 163, 192, 178
-0.998589, 345, 315, 408, 330
-0.998589, 217, 7, 280, 22
-0.99859, 409, 299, 472, 314
-0.998591, 1, 155, 64, 170
-0.998591, 121, 177, 184, 192
-0.998592, 49, 105, 112, 120
-0.998592, 353, 167, 416, 182
-0.998593, 73, 175, 136, 190
-0.998593, 185, 77, 248, 92
-0.998593, 137, 307, 200, 322
-0.998594, 145, 137, 208, 152
-0.998594, 409, 125, 472, 140
-0.998594, 113, 169, 176, 184
-0.998594, 49, 197, 112, 212
-0.998595, 1, 95, 64, 110
-0.998595, 425, 149, 488, 164
-0.998596, 121, 121, 184, 136
-0.998596, 401, 155, 464, 170
-0.998597, 217, 1, 280, 16
-0.998597, 377, 317, 440, 332
-0.998597, 177, 99, 240, 114
-0.998598, 145, 107, 208, 122
-0.998598, 145, 143, 208, 158
-0.998599, 81, 201, 144, 216
-0.998599, 33, 143, 96, 158
-0.9986, 393, 113, 456, 128
-0.9986, 201, 307, 264, 322
-0.9986, 65, 115, 128, 130
-0.9986, 273, 143, 336, 158
-0.9986, 225, 143, 288, 158
-0.9986, 25, 203, 88, 218
-0.998601, 49, 191, 112, 206
-0.998602, 49, 205, 112, 220
-0.998602, 9, 285, 72, 300
-0.998602, 1, 33, 32, 288
-0.998616, 445, 1, 476, 256
-0.998621, 233, 79, 264, 94
-0.998631, 261, 143, 292, 158
-0.998659, 217, 1, 232, 128
-0.998666, 225, 1, 240, 128
-0.998814, 239, 17, 254, 144
-0.998834, 231, 1, 246, 128
-0.998961, 209, 33, 224, 160
-0.998982, 169, 33, 184, 160
-0.999009, 177, 33, 192, 160
-0.999017, 265, 81, 280, 208
-0.999023, 111, 65, 126, 192
-0.999041, 117, 129, 132, 256
-0.999047, 1, 81, 16, 208
-0.999052, 113, 17, 128, 144
-0.999065, 245, 1, 260, 128
-0.999067, 187, 33, 202, 160
-0.999075, 187, 97, 202, 224
-0.999085, 29, 113, 44, 240
-0.999091, 137, 129, 152, 256
-0.999091, 279, 81, 294, 208
-0.999095, 421, 97, 436, 224
-0.999096, 105, 65, 120, 192
-0.999097, 73, 97, 88, 224
-0.999099, 7, 81, 22, 208
-0.999103, 179, 97, 194, 224
-0.999111, 251, 1, 266, 128
-0.999117, 233, 49, 248, 176
-0.999119, 105, 129, 120, 256
-0.999122, 125, 145, 140, 272
-0.999137, 23, 209, 38, 333
-0.999156, 111, 113, 126, 240
-0.999158, 97, 81, 112, 208
-0.99916, 135, 1, 150, 128
-0.999166, 159, 129, 174, 256
-0.999167, 165, 97, 180, 224
-0.999168, 63, 49, 78, 176
-0.99917, 61, 129, 76, 256
-0.999177, 267, 129, 282, 256
-0.999185, 67, 129, 82, 256
-0.999185, 273, 129, 288, 256
-0.999187, 35, 113, 50, 240
-0.999188, 107, 209, 122, 333
-0.999195, 29, 209, 44, 333
-0.999195, 437, 97, 452, 224
-0.999196, 115, 177, 130, 304
-0.999201, 429, 97, 444, 224
-0.999205, 243, 65, 258, 192
-0.999205, 215, 209, 230, 333
-0.999207, 297, 97, 312, 224
-0.999209, 9, 129, 24, 256
-0.99921, 97, 33, 112, 160
-0.999214, 225, 81, 240, 208
-0.999214, 41, 193, 56, 320
-0.999215, 173, 97, 188, 224
-0.999219, 129, 97, 144, 224
-0.999224, 337, 1, 368, 256
-0.999224, 123, 209, 138, 333
-0.999227, 57, 33, 72, 160
-0.999229, 47, 129, 62, 256
-0.999236, 369, 1, 432, 333
-0.999236, 217, 49, 232, 176
-0.999237, 107, 1, 122, 128
-0.999238, 197, 81, 212, 208
-0.999239, 23, 113, 38, 240
-0.99924, 145, 145, 160, 272
-0.999252, 29, 65, 44, 192
-0.999254, 271, 81, 286, 208
-0.999255, 119, 65, 134, 192
-0.999257, 249, 49, 264, 176
-0.999261, 209, 97, 224, 224
-0.999262, 131, 145, 146, 272
-0.999263, 151, 17, 166, 144
-0.999264, 255, 97, 270, 224
-0.999264, 61, 209, 76, 333
-0.999267, 291, 97, 306, 224
-0.999272, 71, 1, 86, 128
-0.999279, 199, 33, 214, 160
-0.999281, 273, 33, 288, 160
-0.999282, 439, 49, 454, 176
-0.999284, 397, 65, 428, 320
-0.999286, 187, 209, 202, 333
-0.999288, 9, 33, 24, 160
-0.999289, 261, 17, 276, 144
-0.99929, 81, 49, 96, 176
-0.999292, 415, 97, 430, 224
-0.999292, 203, 97, 218, 224
-0.999292, 73, 49, 88, 176
-0.999293, 41, 129, 56, 256
-0.999293, 129, 209, 144, 333
-0.999294, 163, 33, 178, 160
-0.999296, 77, 161, 92, 288
-0.999296, 287, 1, 302, 128
-0.999298, 17, 81, 32, 208
-0.999299, 27, 161, 42, 288
-0.999301, 87, 65, 102, 192
-0.999305, 281, 17, 296, 144
-0.999307, 193, 33, 208, 160
-0.999313, 55, 209, 70, 333
-0.999315, 141, 1, 156, 128
-0.999318, 259, 145, 274, 272
-0.999319, 47, 209, 62, 333
-0.999319, 35, 193, 50, 320
-0.99932, 91, 113, 106, 240
-0.99932, 147, 97, 162, 224
-0.999321, 445, 113, 460, 240
-0.999321, 83, 113, 98, 240
-0.999321, 137, 193, 152, 320
-0.999324, 427, 49, 442, 176
-0.999328, 215, 97, 230, 224
-0.99933, 15, 193, 30, 320
-0.999342, 303, 1, 318, 128
-0.999342, 233, 97, 248, 224
-0.999342, 469, 1, 500, 256
-0.999344, 77, 1, 92, 128
-0.999346, 305, 113, 320, 240
-0.999347, 3, 145, 18, 272
-0.999349, 67, 209, 82, 333
-0.999354, 151, 145, 166, 272
-0.999361, 19, 1, 34, 128
-0.999366, 63, 1, 78, 128
-0.999366, 223, 161, 238, 288
-0.999369, 157, 17, 172, 144
-0.999374, 101, 209, 116, 333
-0.999377, 129, 1, 144, 128
-0.999381, 149, 193, 164, 320
-0.999381, 51, 81, 66, 208
-0.999386, 23, 65, 38, 192
-0.999392, 325, 193, 340, 320
-0.999395, 77, 209, 92, 333
-0.999395, 119, 1, 134, 128
-0.999399, 447, 65, 462, 192
-0.999399, 281, 129, 296, 256
-0.999404, 139, 65, 154, 192
-0.999405, 469, 65, 484, 192
-0.999406, 161, 209, 176, 333
-0.999407, 143, 193, 158, 320
-0.99963, 387, 301, 402, 316
-0.99963, 67, 173, 82, 188
-0.99963, 15, 275, 30, 290
-0.999631, 431, 125, 446, 140
-0.999632, 137, 297, 152, 312
-0.999633, 123, 141, 138, 156
-0.999633, 243, 87, 258, 102
-0.999634, 179, 117, 194, 132
-0.999634, 213, 103, 228, 118
-0.999635, 101, 201, 116, 216
-0.999635, 383, 123, 398, 138
-0.999635, 411, 121, 426, 136
-0.999636, 21, 303, 36, 318
-0.999637, 29, 309, 44, 324
-0.999637, 81, 155, 96, 170
-0.999637, 419, 169, 434, 184
-0.999638, 379, 299, 394, 314
-0.999638, 21, 265, 36, 280
-0.999638, 61, 205, 76, 220
-0.999638, 439, 127, 454, 142
-0.999639, 223, 109, 238, 124
-0.99964, 423, 137, 438, 152
-0.999641, 129, 155, 144, 170
-0.999641, 381, 257, 396, 272
-0.999641, 145, 173, 160, 188
-0.999642, 223, 89, 238, 104
-0.999642, 381, 305, 396, 320
-0.999642, 207, 111, 222, 126
-0.999643, 117, 213, 132, 228
-0.999643, 9, 141, 24, 156
-0.999643, 301, 279, 316, 294
-0.999644, 373, 281, 388, 296
-0.999644, 127, 173, 142, 188
-0.999644, 125, 165, 140, 180
-0.999645, 425, 129, 440, 144
-0.999645, 415, 139, 430, 154
-0.999647, 79, 163, 94, 178
-0.999647, 367, 297, 382, 312
-0.999648, 115, 159, 130, 174
-0.999648, 3, 163, 18, 178
-0.999648, 29, 137, 44, 152
-0.999648, 109, 169, 124, 184
-0.999648, 437, 107, 452, 122
-0.999649, 211, 41, 226, 56
-0.999649, 399, 173, 414, 188
-0.999649, 25, 279, 40, 294
-0.99965, 419, 127, 434, 142
-0.99965, 3, 129, 18, 144
-0.999651, 137, 163, 152, 178
-0.999651, 27, 297, 42, 312
-0.999652, 255, 147, 270, 162
-0.999652, 7, 155, 22, 170
-0.999653, 425, 179, 440, 194
-0.999653, 107, 285, 122, 300
-0.999653, 139, 135, 154, 150
-0.999654, 437, 173, 452, 188
-0.999655, 265, 155, 280, 170
-0.999656, 231, 91, 246, 106
-0.999656, 29, 261, 44, 276
-0.999656, 213, 51, 228, 66
-0.999656, 417, 145, 432, 160
-0.999657, 291, 309, 306, 324
-0.999658, 253, 83, 268, 98
-0.999658, 425, 121, 440, 136
-0.999658, 69, 153, 84, 168
-0.999658, 221, 15, 236, 30
-0.999659, 117, 179, 132, 194
-0.99966, 217, 109, 232, 124
-0.99966, 403, 161, 418, 176
-0.99966, 225, 31, 240, 46
-0.999663, 415, 183, 430, 198
-0.999663, 399, 133, 414, 148
-0.999664, 413, 169, 428, 184
-0.999664, 237, 81, 252, 96
-0.999664, 169, 123, 184, 138
-0.999665, 131, 297, 146, 312
-0.999666, 217, 45, 232, 60
-0.999667, 145, 141, 160, 156
-0.999668, 27, 291, 42, 306
-0.999668, 19, 283, 34, 298
-0.999673, 75, 155, 90, 170
-0.999673, 221, 83, 236, 98
-0.999673, 133, 137, 148, 152
-0.999673, 427, 173, 442, 188
-0.999674, 417, 119, 432, 134
-0.999674, 409, 157, 424, 172
-0.999676, 217, 37, 232, 52
-0.999678, 139, 169, 154, 184
-0.99968, 431, 131, 446, 146
-0.999683, 17, 291, 32, 306
-0.999683, 439, 115, 454, 130
-0.999684, 119, 149, 134, 164
-0.999686, 419, 177, 434, 192
-0.999688, 437, 121, 452, 136
-0.999689, 105, 145, 120, 160
-0.999689, 21, 271, 36, 286
-0.99969, 23, 309, 38, 324
-0.99969, 27, 303, 42, 318
-0.999693, 285, 137, 300, 152
-0.999693, 91, 161, 106, 176
-0.999693, 409, 151, 424, 166
-0.999694, 373, 299, 388, 314
-0.999702, 279, 143, 294, 158
-0.999702, 125, 297, 140, 312
-0.999703, 425, 115, 440, 130
-0.999703, 131, 305, 146, 320
-0.999704, 101, 161, 116, 176
-0.999704, 243, 79, 258, 94
-0.999707, 27, 317, 42, 332
-0.999707, 143, 309, 158, 324
-0.999711, 409, 163, 424, 178
-0.999712, 401, 167, 416, 182
-0.999712, 97, 153, 112, 168
-0.999713, 107, 159, 122, 174
-0.999714, 395, 167, 410, 182
-0.999715, 389, 171, 404, 186
-0.999715, 137, 309, 152, 324
-0.999719, 431, 117, 446, 132
-0.999722, 219, 103, 234, 118
-0.999722, 25, 285, 40, 300
-0.999722, 225, 9, 240, 24
-0.999724, 149, 313, 164, 328
-0.999726, 231, 83, 246, 98
-0.999727, 119, 293, 134, 308
-0.999728, 431, 109, 446, 124
-0.999728, 111, 153, 126, 168
-0.999736, 265, 141, 280, 156
-0.99975, 155, 317, 170, 332
-0.999759, 105, 153, 120, 168
-0.999766, 113, 289, 128, 304
-0.999829, 361, 1, 392, 256
-1.00008, 325, 1, 356, 256
