1893
-0.469761, 1, 1, 500, 334
-0.473499, 1, 1, 500, 256
-0.56247, 129, 1, 384, 334
-0.635625, 33, 1, 288, 334
-0.647169, 65, 33, 320, 288
-0.674834, 225, 1, 480, 334
-0.712871, 161, 33, 416, 288
-0.859134, 257, 65, 500, 320
-0.86484, 161, 33, 288, 288
-0.88415, 161, 1, 288, 334
-0.901589, 113, 33, 240, 288
-0.905226, 113, 1, 240, 334
-0.909089, 1, 49, 500, 176
-0.91042, 209, 65, 336, 320
-0.91148, 209, 1, 336, 334
-0.926395, 1, 193, 500, 320
-0.926498, 65, 193, 320, 320
-0.92723, 49, 1, 176, 334
-0.928853, 1, 97, 500, 224
-0.930952, 257, 1, 384, 334
-0.931444, 1, 65, 128, 320
-0.933482, 65, 65, 192, 320
-0.934396, 161, 177, 416, 304
-0.935008, 257, 65, 384, 320
-0.935585, 193, 193, 256, 320
-0.936985, 1, 1, 128, 334
-0.937692, 145, 193, 272, 320
-0.939336, 65, 33, 320, 160
-0.940011, 337, 1, 464, 334
-0.941309, 1, 113, 256, 240
-0.945775, 161, 113, 416, 240
-0.946852, 305, 65, 432, 320
-0.949132, 353, 65, 480, 320
-0.94949, 1, 1, 500, 128
-0.950699, 193, 33, 256, 160
-0.951084, 193, 177, 320, 304
-0.951856, 161, 33, 288, 160
-0.95357, 185, 241, 248, 304
-0.954014, 185, 273, 248, 334
-0.954546, 145, 145, 272, 272
-0.954861, 161, 33, 416, 160
-0.956199, 1, 145, 500, 272
-0.956869, 193, 145, 256, 272
-0.956993, 153, 193, 216, 320
-0.957178, 193, 17, 256, 80
-0.959064, 97, 193, 224, 320
-0.960627, 97, 113, 224, 240
-0.962176, 217, 177, 280, 304
-0.9626, 209, 273, 272, 334
-0.964394, 193, 161, 256, 224
-0.965135, 193, 113, 320, 240
-0.966011, 217, 17, 280, 144
-0.966035, 257, 113, 500, 240
-0.966331, 193, 217, 256, 280
-0.966342, 169, 145, 232, 272
-0.968057, 161, 257, 224, 320
-0.968162, 145, 113, 208, 240
-0.96828, 201, 1, 264, 256
-0.968409, 193, 97, 256, 224
-0.969361, 185, 185, 248, 248
-0.969695, 145, 97, 272, 224
-0.969851, 169, 1, 232, 128
-0.970418, 209, 17, 240, 80
-0.971553, 209, 241, 272, 304
-0.972055, 209, 1, 336, 128
-0.972217, 113, 33, 240, 160
-0.972372, 1, 97, 128, 224
-0.972869, 193, 41, 256, 104
-0.973066, 209, 193, 240, 320
-0.973394, 213, 273, 244, 334
-0.973494, 121, 113, 184, 240
-0.973881, 209, 1, 240, 128
-0.973937, 177, 65, 240, 320
-0.974245, 177, 241, 304, 304
-0.974491, 197, 257, 228, 320
-0.974698, 169, 97, 232, 224
-0.974971, 241, 113, 368, 240
-0.975022, 161, 177, 288, 240
-0.975447, 169, 161, 232, 224
-0.97552, 145, 273, 272, 334
-0.975744, 197, 193, 228, 320
-0.975811, 161, 209, 224, 272
-0.976001, 49, 113, 176, 240
-0.976055, 161, 233, 224, 296
-0.976606, 169, 49, 232, 176
-0.976971, 161, 185, 224, 248
-0.97725, 217, 113, 280, 240
-0.977438, 129, 233, 256, 296
-0.977712, 185, 257, 216, 320
-0.978109, 169, 25, 232, 88
-0.978195, 209, 273, 336, 334
-0.978257, 217, 209, 280, 272
-0.978277, 241, 209, 304, 334
-0.978378, 177, 209, 304, 272
-0.978546, 225, 273, 256, 334
-0.978596, 97, 113, 160, 240
-0.978631, 57, 97, 120, 224
-0.978928, 221, 17, 252, 144
-0.978956, 217, 33, 280, 96
-0.979116, 209, 49, 336, 176
-0.979302, 145, 25, 272, 88
-0.97946, 217, 161, 280, 224
-0.979779, 213, 217, 244, 280
-0.980207, 305, 113, 432, 240
-0.980603, 193, 25, 320, 88
-0.981051, 213, 249, 244, 312
-0.981153, 129, 209, 256, 272
-0.981268, 209, 49, 240, 176
-0.981274, 189, 145, 220, 272
-0.981489, 193, 233, 224, 296
-0.981611, 221, 177, 252, 304
-0.981743, 249, 113, 312, 240
-0.981835, 65, 65, 192, 192
-0.981917, 209, 185, 272, 248
-0.982103, 205, 153, 236, 216
-0.982407, 241, 177, 368, 304
-0.982421, 233, 257, 296, 320
-0.982599, 185, 193, 216, 320
-0.982848, 97, 273, 224, 334
-0.983144, 197, 1, 228, 128
-0.983262, 145, 161, 208, 224
-0.983324, 225, 9, 288, 72
-0.98343, 221, 25, 252, 88
-0.983542, 353, 129, 480, 256
-0.983911, 161, 153, 288, 216
-0.983975, 217, 65, 280, 192
-0.984393, 97, 161, 224, 224
-0.98447, 161, 49, 288, 112
-0.984486, 197, 49, 228, 176
-0.984518, 257, 65, 500, 192
-0.98452, 233, 233, 296, 296
-0.984687, 177, 113, 208, 240
-0.98471, 205, 145, 236, 272
-0.984899, 197, 25, 228, 88
-0.985368, 193, 161, 224, 224
-0.985455, 225, 249, 352, 312
-0.985769, 225, 241, 256, 304
-0.985804, 129, 161, 192, 288
-0.986042, 225, 33, 288, 288
-0.986062, 233, 209, 264, 334
-0.986089, 169, 49, 232, 112
-0.986196, 217, 49, 248, 112
-0.986271, 57, 113, 120, 176
-0.986283, 137, 217, 200, 280
-0.98629, 197, 185, 228, 248
-0.986504, 205, 49, 236, 112
-0.986794, 225, 217, 352, 280
-0.987227, 273, 65, 400, 192
-0.987227, 257, 177, 500, 304
-0.987323, 145, 65, 208, 192
-0.987468, 33, 97, 96, 224
-0.987543, 237, 273, 268, 334
-0.987558, 217, 161, 248, 224
-0.987585, 97, 185, 224, 248
-0.987738, 193, 305, 256, 334
-0.98778, 193, 1, 320, 64
-0.987804, 161, 1, 224, 64
-0.987824, 385, 129, 448, 256
-0.987845, 173, 193, 204, 320
-0.987859, 1, 97, 64, 224
-0.987872, 313, 273, 376, 334
-0.98791, 49, 177, 176, 304
-0.987923, 189, 209, 220, 272
-0.988125, 233, 161, 264, 288
-0.988197, 193, 265, 256, 296
-0.988225, 137, 185, 200, 248
-0.988347, 153, 33, 216, 288
-0.988408, 353, 113, 416, 240
-0.98842, 209, 161, 336, 224
-0.98847, 185, 1, 248, 334
-0.988505, 193, 137, 256, 200
-0.988604, 273, 113, 336, 240
-0.988627, 193, 253, 256, 284
-0.988646, 241, 161, 304, 288
-0.988726, 193, 25, 256, 56
-0.988827, 225, 201, 256, 264
-0.988843, 241, 209, 304, 272
-0.98896, 81, 209, 208, 272
-0.98902, 369, 129, 432, 192
-0.98906, 197, 97, 228, 224
-0.989065, 233, 185, 296, 248
-0.98907, 165, 113, 196, 240
-0.989193, 129, 1, 256, 64
-0.989199, 25, 105, 88, 168
-0.989212, 181, 177, 212, 240
-0.989256, 193, 225, 256, 256
-0.989267, 105, 113, 136, 240
-0.989282, 89, 65, 152, 192
-0.989425, 173, 233, 204, 296
-0.989526, 225, 193, 352, 256
-0.98954, 193, 241, 256, 272
-0.989575, 1, 273, 64, 334
-0.98971, 257, 1, 500, 128
-0.989746, 97, 113, 160, 176
-0.989838, 193, 173, 256, 204
-0.98987, 329, 121, 392, 184
-0.989941, 225, 113, 256, 240
-0.989941, 185, 285, 248, 316
-0.990007, 369, 81, 496, 208
-0.990013, 137, 273, 200, 334
-0.990042, 273, 265, 336, 328
-0.990064, 137, 241, 200, 304
-0.990112, 161, 1, 224, 334
-0.990149, 233, 33, 264, 96
-0.990223, 425, 129, 488, 256
-0.990245, 217, 1, 280, 334
-0.990271, 217, 137, 280, 200
-0.990299, 201, 209, 232, 272
-0.990308, 169, 165, 232, 196
-0.990327, 313, 113, 376, 240
-0.990377, 229, 153, 260, 216
-0.990392, 337, 265, 400, 328
-0.990523, 209, 285, 272, 316
-0.990527, 161, 281, 224, 312
-0.99054, 49, 113, 176, 176
-0.990575, 193, 37, 256, 68
-0.990577, 1, 105, 128, 168
-0.99062, 305, 121, 432, 184
-0.990741, 113, 169, 176, 232
-0.990763, 121, 113, 184, 176
-0.990772, 233, 33, 264, 160
-0.990805, 169, 305, 232, 334
-0.990836, 129, 65, 192, 320
-0.99086, 257, 273, 384, 334
-0.990935, 221, 65, 252, 192
-0.990971, 225, 269, 288, 300
-0.990995, 201, 161, 264, 192
-0.991003, 161, 233, 224, 264
-0.991026, 161, 269, 224, 300
-0.991049, 225, 245, 288, 276
-0.99105, 177, 113, 240, 176
-0.991054, 209, 97, 240, 224
-0.991064, 97, 25, 224, 88
-0.991075, 17, 49, 144, 176
-0.991081, 237, 217, 268, 280
-0.991086, 169, 137, 232, 200
-0.991128, 97, 161, 160, 288
-0.991134, 193, 53, 256, 84
-0.991147, 237, 113, 268, 240
-0.991152, 113, 137, 240, 200
-0.991163, 185, 185, 248, 216
-0.991212, 393, 137, 456, 200
-0.991215, 169, 245, 232, 276
-0.991259, 185, 213, 248, 244
-0.991301, 225, 233, 288, 264
-0.991377, 145, 305, 208, 334
-0.991437, 225, 221, 288, 252
-0.99145, 153, 221, 216, 252
-0.991456, 257, 113, 320, 176
-0.991524, 65, 273, 320, 334
-0.99153, 433, 137, 496, 200
-0.991531, 81, 241, 208, 304
-0.991577, 305, 265, 432, 328
-0.991603, 217, 173, 280, 204
-0.991611, 121, 65, 184, 192
-0.991615, 369, 137, 496, 200
-0.991633, 225, 257, 288, 288
-0.991692, 225, 37, 288, 68
-0.991712, 225, 297, 288, 328
-0.991739, 129, 113, 160, 240
-0.99174, 249, 65, 312, 320
-0.991742, 161, 185, 224, 216
-0.991776, 113, 113, 240, 176
-0.991789, 169, 45, 232, 76
-0.991807, 161, 33, 224, 64
-0.991827, 209, 137, 336, 200
-0.99183, 225, 209, 288, 240
-0.991878, 153, 113, 184, 240
-0.991913, 161, 205, 224, 236
-0.991923, 1, 105, 64, 168
-0.991948, 289, 121, 352, 184
-0.992064, 193, 113, 320, 176
-0.992075, 217, 49, 280, 80
-0.992118, 105, 33, 168, 288
-0.992154, 117, 113, 148, 240
-0.992181, 161, 293, 224, 324
-0.992185, 185, 201, 248, 232
-0.992222, 233, 9, 264, 72
-0.992314, 225, 161, 288, 192
-0.992314, 225, 17, 288, 48
-0.99235, 173, 273, 204, 334
-0.99237, 153, 257, 216, 288
-0.992425, 197, 305, 228, 334
-0.992446, 233, 285, 296, 316
-0.992448, 97, 145, 160, 208
-0.992448, 193, 13, 256, 44
-0.992486, 113, 305, 176, 334
-0.992488, 209, 193, 272, 224
-0.992492, 161, 241, 416, 304
-0.9925, 205, 285, 236, 316
-0.992501, 221, 245, 252, 276
-0.992509, 205, 173, 236, 204
-0.992519, 141, 113, 172, 240
-0.99252, 137, 1, 200, 334
-0.992526, 81, 305, 144, 334
-0.992534, 209, 49, 336, 112
-0.992543, 197, 265, 228, 296
-0.992546, 217, 305, 248, 334
-0.99256, 73, 161, 136, 288
-0.992575, 257, 121, 384, 184
-0.992598, 213, 265, 244, 296
-0.992599, 193, 281, 224, 312
-0.992614, 113, 49, 240, 112
-0.992622, 33, 305, 96, 334
-0.992625, 161, 13, 224, 44
-0.99264, 193, 49, 224, 112
-0.992655, 113, 257, 176, 320
-0.992664, 217, 173, 248, 204
-0.99267, 185, 33, 216, 160
-0.992692, 217, 113, 280, 176
-0.992697, 161, 153, 224, 184
-0.992703, 209, 185, 240, 248
-0.992709, 217, 285, 248, 316
-0.992713, 193, 273, 448, 334
-0.992716, 297, 249, 360, 312
-0.992736, 185, 305, 216, 334
-0.992751, 209, 161, 240, 192
-0.992761, 273, 65, 336, 192
-0.992792, 41, 113, 104, 144
-0.992811, 209, 25, 240, 56
-0.992825, 193, 169, 224, 200
-0.992826, 65, 89, 192, 152
-0.992861, 197, 241, 228, 272
-0.992865, 65, 249, 320, 312
-0.992877, 241, 65, 304, 192
-0.992889, 49, 273, 176, 334
-0.992891, 201, 229, 232, 260
-0.992905, 209, 253, 240, 284
-0.992918, 221, 161, 252, 192
-0.992919, 93, 113, 124, 240
-0.992923, 233, 233, 264, 264
-0.992926, 197, 253, 228, 284
-0.992942, 225, 265, 256, 296
-0.992942, 249, 225, 312, 256
-0.992985, 213, 225, 244, 256
-0.992985, 361, 129, 424, 160
-0.993037, 229, 285, 260, 316
-0.993041, 237, 249, 268, 312
-0.993044, 297, 285, 360, 316
-0.993046, 185, 269, 216, 300
-0.993048, 209, 241, 240, 272
-0.993049, 137, 269, 200, 300
-0.993059, 137, 173, 200, 204
-0.993065, 233, 245, 264, 276
-0.993065, 321, 121, 384, 152
-0.993067, 217, 49, 248, 80
-0.993069, 137, 281, 200, 312
-0.993093, 137, 185, 200, 216
-0.993111, 201, 185, 232, 216
-0.993112, 145, 245, 208, 276
-0.993114, 173, 305, 204, 334
-0.993129, 1, 113, 64, 144
-0.99313, 57, 305, 120, 334
-0.993131, 205, 53, 236, 84
-0.993136, 65, 117, 128, 148
-0.993139, 193, 149, 256, 180
-0.993141, 185, 185, 216, 216
-0.993141, 185, 249, 216, 280
-0.993148, 193, 45, 224, 76
-0.993149, 229, 45, 260, 76
-0.99315, 181, 165, 212, 196
-0.993157, 229, 177, 260, 208
-0.993169, 181, 281, 212, 312
-0.99317, 97, 169, 160, 200
-0.993172, 257, 285, 320, 316
-0.993175, 265, 121, 328, 152
-0.993182, 89, 273, 152, 334
-0.993201, 193, 217, 224, 248
-0.993202, 185, 237, 216, 268
-0.993207, 169, 185, 200, 248
-0.993212, 229, 221, 260, 252
-0.993214, 237, 261, 268, 292
-0.993218, 181, 217, 212, 248
-0.99323, 233, 33, 264, 64
-0.993242, 229, 305, 260, 334
-0.993248, 209, 13, 240, 44
-0.99325, 113, 1, 176, 334
-0.993251, 193, 293, 224, 324
-0.993255, 221, 25, 252, 56
-0.993266, 189, 33, 220, 64
-0.993284, 237, 273, 268, 304
-0.993286, 129, 213, 192, 244
-0.993298, 89, 121, 152, 152
-0.993301, 205, 37, 236, 68
-0.993303, 181, 293, 212, 324
-0.993308, 213, 213, 244, 244
-0.99333, 233, 209, 264, 240
-0.993335, 1, 301, 64, 332
-0.993335, 233, 165, 264, 196
-0.993335, 97, 157, 160, 188
-0.993341, 241, 1, 304, 334
-0.993357, 169, 117, 232, 148
-0.993358, 245, 177, 276, 304
-0.993359, 197, 157, 228, 188
-0.993365, 353, 265, 480, 328
-0.993367, 249, 253, 312, 284
-0.993369, 369, 265, 432, 328
-0.993377, 217, 37, 248, 68
-0.99338, 105, 281, 168, 312
-0.993383, 173, 209, 204, 272
-0.993392, 233, 197, 296, 228
-0.993404, 161, 305, 192, 334
-0.993408, 121, 249, 184, 280
-0.993422, 149, 305, 180, 334
-0.993423, 185, 25, 216, 88
-0.993423, 193, 205, 224, 236
-0.993425, 241, 117, 304, 148
-0.993426, 173, 265, 204, 296
-0.99343, 145, 117, 208, 148
-0.993433, 409, 145, 472, 176
-0.993434, 137, 157, 200, 188
-0.993436, 173, 181, 204, 212
-0.993447, 173, 233, 204, 264
-0.993468, 257, 265, 320, 296
-0.993468, 233, 17, 264, 48
-0.993473, 81, 305, 112, 334
-0.993474, 41, 277, 104, 308
-0.993478, 241, 305, 272, 334
-0.993483, 297, 125, 360, 156
-0.993486, 137, 233, 200, 264
-0.993491, 197, 21, 228, 52
-0.993497, 213, 185, 244, 216
-0.993503, 385, 137, 448, 168
-0.993512, 129, 305, 160, 334
-0.993513, 185, 17, 216, 48
-0.993519, 181, 205, 212, 236
-0.993532, 1, 97, 64, 128
-0.993534, 169, 57, 232, 88
-0.993535, 169, 169, 200, 200
-0.993539, 321, 285, 384, 316
-0.993544, 245, 233, 276, 264
-0.993549, 117, 305, 148, 334
-0.99355, 121, 121, 184, 152
-0.993556, 305, 209, 432, 334
-0.993558, 193, 117, 256, 148
-0.993561, 217, 5, 280, 36
-0.993568, 245, 213, 276, 244
-0.99357, 409, 289, 472, 320
-0.993575, 377, 285, 440, 316
-0.993583, 105, 265, 168, 296
-0.993583, 65, 277, 128, 308
-0.993588, 249, 213, 312, 244
-0.993591, 221, 13, 252, 44
-0.993597, 25, 101, 88, 132
-0.993602, 17, 301, 48, 332
-0.993602, 57, 305, 88, 334
-0.993614, 89, 1, 152, 334
-0.993619, 433, 289, 496, 320
-0.993626, 233, 197, 264, 228
-0.993627, 321, 65, 448, 192
-0.993628, 217, 117, 280, 148
-0.993642, 93, 305, 124, 334
-0.993643, 353, 285, 416, 316
-0.993652, 213, 201, 244, 232
-0.993654, 137, 293, 200, 324
-0.993655, 5, 109, 36, 140
-0.993657, 1, 145, 128, 272
-0.993658, 81, 117, 112, 148
-0.993658, 169, 217, 200, 248
-0.993661, 337, 273, 400, 304
-0.993663, 41, 305, 72, 334
-0.993663, 245, 285, 276, 316
-0.993665, 401, 137, 432, 168
-0.993668, 313, 285, 344, 316
-0.993672, 105, 153, 136, 184
-0.993672, 49, 113, 80, 144
-0.993679, 257, 281, 288, 312
-0.993681, 181, 149, 212, 180
-0.993683, 433, 145, 496, 176
-0.993686, 137, 281, 168, 312
-0.993686, 233, 185, 296, 216
-0.993689, 345, 121, 376, 152
-0.993692, 313, 269, 376, 300
-0.9937, 105, 305, 136, 334
-0.993701, 209, 149, 240, 180
-0.993701, 301, 285, 332, 316
-0.993701, 65, 113, 96, 144
-0.993704, 245, 249, 276, 280
-0.993709, 273, 285, 304, 316
-0.993714, 357, 125, 388, 156
-0.993714, 329, 285, 360, 316
-0.993717, 389, 133, 420, 164
-0.993718, 157, 281, 188, 312
-0.993719, 249, 265, 280, 296
-0.99372, 69, 305, 100, 334
-0.99372, 153, 173, 184, 204
-0.993721, 17, 113, 48, 144
-0.993723, 101, 121, 132, 152
-0.993724, 245, 197, 276, 228
-0.993729, 173, 249, 204, 280
-0.99373, 169, 153, 200, 184
-0.993731, 257, 217, 288, 248
-0.993731, 281, 273, 344, 304
-0.993732, 373, 129, 404, 160
-0.993733, 241, 173, 304, 204
-0.993733, 197, 9, 228, 40
-0.993734, 81, 253, 144, 284
-0.993735, 141, 269, 172, 300
-0.993738, 421, 145, 452, 176
-0.99374, 37, 109, 68, 140
-0.993741, 121, 265, 152, 296
-0.993744, 273, 297, 336, 328
-0.993746, 161, 185, 192, 216
-0.99375, 121, 165, 152, 196
-0.993751, 125, 281, 156, 312
-0.993753, 29, 305, 60, 334
-0.993755, 89, 241, 152, 272
-0.993759, 169, 281, 200, 312
-0.993763, 193, 117, 224, 148
-0.99377, 269, 117, 300, 148
-0.99377, 289, 121, 320, 152
-0.993775, 341, 285, 372, 316
-0.993775, 137, 197, 200, 228
-0.993775, 101, 165, 132, 196
-0.993775, 1, 273, 64, 304
-0.993776, 145, 305, 272, 334
-0.99378, 333, 121, 364, 152
-0.99378, 157, 213, 188, 244
-0.993781, 81, 105, 144, 136
-0.993787, 65, 177, 320, 240
-0.993828, 73, 157, 136, 188
-0.993842, 249, 241, 312, 272
-0.993846, 289, 229, 352, 260
-0.993865, 105, 109, 168, 140
-0.993885, 297, 113, 360, 144
-0.993893, 65, 265, 128, 296
-0.993898, 409, 129, 472, 160
-0.9939, 73, 289, 136, 320
-0.993905, 249, 297, 312, 328
-0.993919, 57, 101, 120, 132
-0.993927, 113, 237, 176, 268
-0.993953, 81, 97, 112, 224
-0.993971, 297, 253, 360, 284
-0.993971, 145, 105, 208, 136
-0.993973, 297, 297, 360, 328
-0.993982, 225, 273, 240, 334
-0.994001, 177, 265, 304, 296
-0.994002, 385, 273, 448, 304
-0.994005, 65, 233, 128, 264
-0.994015, 213, 257, 228, 320
-0.99402, 345, 113, 408, 144
-0.994041, 65, 225, 320, 288
-0.994062, 273, 109, 336, 140
-0.994078, 1, 273, 500, 334
-0.994106, 1, 273, 128, 334
-0.994141, 253, 97, 284, 224
-0.994167, 207, 257, 222, 320
-0.994197, 273, 89, 400, 152
-0.994206, 49, 273, 112, 334
-0.994256, 161, 161, 192, 288
-0.994258, 49, 65, 112, 320
-0.994265, 209, 17, 224, 80
-0.99435, 231, 273, 246, 334
-0.99437, 25, 273, 88, 334
-0.994383, 65, 201, 320, 264
-0.994496, 65, 25, 320, 88
-0.994507, 177, 241, 304, 272
-0.99451, 265, 1, 328, 334
-0.994528, 1, 81, 128, 144
-0.994529, 181, 145, 212, 208
-0.994543, 161, 25, 416, 88
-0.994559, 201, 257, 216, 320
-0.994575, 161, 201, 416, 264
-0.994577, 161, 169, 416, 232
-0.994612, 145, 229, 272, 260
-0.994612, 169, 161, 200, 224
-0.994673, 177, 29, 304, 60
-0.994675, 227, 25, 242, 88
-0.994686, 281, 65, 344, 320
-0.994722, 145, 281, 272, 312
-0.994733, 393, 265, 456, 328
-0.994794, 161, 89, 288, 152
-0.994827, 289, 241, 416, 304
-0.994835, 369, 209, 496, 334
-0.994841, 121, 145, 184, 208
-0.994847, 161, 209, 288, 240
-0.994906, 17, 65, 80, 320
-0.994907, 129, 265, 256, 296
-0.994922, 65, 1, 128, 334
-0.99493, 153, 113, 216, 176
-0.994972, 219, 273, 234, 334
-0.995095, 73, 33, 136, 288
-0.995131, 215, 17, 230, 80
-0.995136, 245, 193, 276, 256
-0.995158, 221, 17, 236, 80
-0.995167, 145, 253, 272, 284
-0.99518, 193, 257, 208, 320
-0.995207, 65, 153, 320, 216
-0.995256, 113, 89, 240, 152
-0.995276, 241, 153, 304, 216
-0.995312, 161, 181, 288, 212
-0.995362, 129, 241, 256, 272
-0.995422, 241, 9, 368, 72
-0.995431, 65, 49, 320, 112
-0.995451, 49, 177, 176, 240
-0.99556, 65, 17, 192, 144
-0.995561, 229, 177, 260, 240
-0.995568, 65, 89, 128, 152
-0.995586, 341, 273, 372, 334
-0.995629, 73, 145, 136, 208
-0.995655, 129, 29, 256, 60
-0.995661, 177, 41, 304, 72
-0.995668, 305, 1, 368, 334
-0.995688, 17, 249, 144, 312
-0.995692, 203, 161, 218, 224
-0.995697, 221, 1, 252, 64
-0.995724, 25, 1, 88, 334
-0.995753, 193, 229, 320, 260
-0.995755, 305, 65, 368, 320
-0.995773, 89, 113, 120, 176
-0.995781, 209, 161, 224, 224
-0.995784, 369, 1, 432, 334
-0.995826, 217, 137, 248, 200
-0.995833, 337, 241, 464, 304
-0.995839, 203, 25, 218, 88
-0.995846, 329, 65, 392, 320
-0.995847, 289, 217, 416, 280
-0.995866, 113, 165, 240, 196
-0.995874, 225, 217, 240, 280
-0.995883, 265, 217, 328, 280
-0.995884, 215, 161, 230, 224
-0.995886, 161, 169, 288, 200
-0.995898, 195, 233, 210, 296
-0.995899, 97, 305, 224, 334
-0.995904, 57, 241, 120, 304
-0.995951, 89, 249, 152, 312
-0.995956, 369, 105, 496, 168
-0.995964, 207, 233, 222, 296
-0.995967, 193, 285, 320, 316
-0.995981, 269, 113, 300, 240
-0.996005, 233, 25, 248, 88
-0.996021, 225, 89, 352, 152
-0.996028, 209, 253, 336, 284
-0.996034, 193, 305, 320, 334
-0.996038, 229, 249, 244, 312
-0.996056, 81, 1, 208, 64
-0.996058, 337, 241, 400, 304
-0.996066, 219, 249, 234, 312
-0.996069, 105, 121, 136, 184
-0.996085, 217, 225, 232, 288
-0.996109, 69, 97, 100, 224
-0.996123, 209, 65, 240, 320
-0.996188, 145, 137, 208, 200
-0.996219, 273, 241, 336, 304
-0.996262, 129, 41, 256, 72
-0.996298, 237, 273, 252, 334
-0.996336, 161, 197, 288, 228
-0.99635, 161, 89, 224, 152
-0.996369, 309, 265, 340, 328
-0.996431, 185, 1, 216, 64
-0.996462, 229, 49, 244, 112
-0.996462, 9, 97, 40, 224
-0.996466, 197, 33, 228, 288
-0.996473, 225, 121, 480, 184
-0.996486, 433, 265, 496, 328
-0.996489, 209, 49, 224, 112
-0.996508, 321, 97, 448, 160
-0.996512, 97, 253, 224, 284
-0.996528, 1, 113, 500, 176
-0.996534, 221, 153, 236, 216
-0.996556, 1, 273, 32, 334
-0.996557, 137, 89, 200, 152
-0.99656, 101, 145, 132, 208
-0.996566, 65, 113, 320, 176
-0.996572, 145, 25, 208, 88
-0.996573, 21, 97, 52, 224
-0.996585, 161, 53, 288, 84
-0.996589, 329, 257, 360, 320
-0.996611, 219, 185, 234, 248
-0.996633, 221, 1, 252, 256
-0.996636, 97, 221, 224, 252
-0.996664, 161, 49, 416, 112
-0.996684, 195, 177, 210, 240
-0.996716, 223, 49, 238, 112
-0.996718, 105, 89, 168, 152
-0.996718, 201, 89, 264, 152
-0.996746, 381, 113, 412, 240
-0.996746, 97, 277, 224, 308
-0.996748, 225, 269, 352, 300
-0.996766, 211, 185, 226, 248
-0.996788, 17, 145, 144, 208
-0.996795, 215, 49, 230, 112
-0.996832, 249, 89, 312, 152
-0.99684, 109, 161, 140, 288
-0.996851, 201, 233, 216, 296
-0.996853, 1, 241, 500, 304
-0.996869, 129, 293, 256, 324
-0.99687, 1, 1, 64, 334
-0.996882, 409, 113, 472, 176
-0.996895, 235, 241, 250, 304
-0.996917, 161, 145, 416, 208
-0.996925, 17, 81, 80, 144
-0.99693, 227, 161, 242, 224
-0.996933, 409, 1, 472, 334
-0.996934, 193, 137, 224, 200
-0.996968, 65, 137, 192, 200
-0.996976, 161, 1, 416, 64
-0.996993, 353, 257, 384, 320
-0.997018, 225, 89, 288, 152
-0.997034, 345, 1, 408, 334
-0.997041, 353, 65, 416, 320
-0.997043, 49, 105, 80, 168
-0.997045, 393, 129, 424, 192
-0.997052, 53, 97, 84, 224
-0.997055, 65, 1, 320, 64
-0.997091, 235, 209, 250, 272
-0.997128, 17, 273, 48, 334
-0.99716, 177, 17, 304, 48
-0.997172, 409, 137, 440, 200
-0.997173, 205, 185, 220, 248
-0.997175, 113, 185, 240, 216
-0.997182, 297, 97, 360, 160
-0.997183, 209, 217, 336, 248
-0.997183, 33, 225, 160, 288
-0.997192, 187, 273, 202, 334
-0.997279, 401, 81, 464, 208
-0.997283, 289, 265, 320, 328
-0.997289, 397, 129, 428, 256
-0.997291, 41, 97, 72, 224
-0.997308, 113, 233, 176, 296
-0.997309, 377, 65, 440, 320
-0.997316, 187, 241, 202, 304
-0.997325, 1, 89, 256, 152
-0.99734, 305, 65, 368, 192
-0.997346, 225, 33, 352, 64
-0.997361, 305, 209, 368, 334
-0.99738, 149, 161, 180, 288
-0.997381, 209, 165, 336, 196
-0.997393, 225, 241, 352, 272
-0.997399, 201, 305, 216, 334
-0.99743, 457, 129, 488, 256
-0.997432, 281, 113, 312, 240
-0.997435, 213, 285, 228, 316
-0.997448, 227, 1, 242, 64
-0.99746, 219, 285, 234, 316
-0.997462, 365, 121, 396, 184
-0.997494, 207, 209, 222, 272
-0.997495, 195, 305, 210, 334
-0.997502, 209, 173, 224, 204
-0.997503, 201, 265, 216, 296
-0.997513, 129, 17, 256, 48
-0.997538, 241, 249, 256, 312
-0.997539, 203, 169, 218, 200
-0.997541, 197, 145, 212, 208
-0.997547, 1, 41, 500, 104
-0.997558, 225, 185, 240, 248
-0.997566, 329, 65, 392, 192
-0.997594, 189, 161, 204, 224
-0.997608, 233, 153, 248, 216
-0.99762, 207, 285, 222, 316
-0.997625, 211, 161, 226, 192
-0.997626, 239, 9, 254, 72
-0.997633, 187, 185, 202, 248
-0.997642, 197, 209, 212, 272
-0.997645, 173, 65, 204, 192
-0.997649, 433, 1, 496, 334
-0.997657, 219, 169, 234, 200
-0.997683, 203, 49, 218, 112
-0.997701, 413, 129, 444, 256
-0.997708, 1, 113, 128, 144
-0.99772, 231, 245, 246, 276
-0.997733, 425, 129, 456, 256
-0.997746, 225, 285, 240, 316
-0.997749, 117, 113, 148, 176
-0.99775, 89, 177, 152, 240
-0.997754, 113, 161, 144, 224
-0.997755, 227, 173, 242, 204
-0.997787, 9, 105, 40, 168
-0.997797, 157, 185, 188, 248
-0.997805, 1, 89, 500, 152
-0.997807, 225, 21, 352, 52
-0.997816, 281, 113, 312, 176
-0.997818, 241, 209, 256, 272
-0.997822, 161, 65, 192, 192
-0.997829, 81, 265, 208, 296
-0.997835, 65, 113, 96, 176
-0.997848, 97, 209, 224, 240
-0.997868, 217, 57, 280, 120
-0.997875, 229, 305, 244, 334
-0.997883, 433, 65, 496, 320
-0.9979, 197, 9, 212, 72
-0.997905, 157, 209, 188, 272
-0.997907, 257, 161, 384, 224
-0.997914, 183, 209, 198, 272
-0.997916, 209, 25, 224, 56
-0.997951, 231, 161, 246, 192
-0.997957, 97, 197, 224, 228
-0.997983, 201, 281, 216, 312
-0.997985, 97, 89, 352, 152
-0.997992, 235, 269, 250, 300
-0.997995, 121, 209, 184, 334
-0.997997, 185, 65, 216, 320
-0.997999, 1, 217, 500, 280
-0.998007, 195, 269, 210, 300
-0.99801, 377, 105, 440, 168
-0.998018, 229, 25, 244, 56
-0.998025, 181, 177, 196, 240
-0.998029, 235, 49, 250, 112
-0.998036, 207, 301, 222, 332
-0.99805, 337, 121, 368, 184
-0.998057, 199, 237, 214, 268
-0.998059, 189, 217, 204, 280
-0.998086, 207, 265, 222, 296
-0.998089, 225, 45, 352, 76
-0.998097, 49, 305, 176, 334
-0.998097, 209, 53, 224, 84
-0.998117, 233, 45, 248, 76
-0.998126, 205, 129, 236, 192
-0.998128, 227, 265, 242, 296
-0.998128, 289, 125, 416, 156
-0.998147, 227, 53, 242, 84
-0.998156, 225, 245, 240, 276
-0.99816, 1, 17, 500, 80
-0.998161, 225, 161, 240, 192
-0.998164, 231, 285, 246, 316
-0.998185, 153, 113, 184, 176
-0.998189, 203, 181, 218, 212
-0.998197, 293, 113, 324, 240
-0.998205, 239, 253, 254, 284
-0.998208, 195, 281, 210, 312
-0.998216, 109, 113, 124, 176
-0.998224, 241, 161, 272, 224
-0.998225, 197, 165, 212, 196
-0.998227, 235, 305, 250, 334
-0.998234, 225, 201, 352, 232
-0.998259, 233, 257, 248, 288
-0.998259, 93, 65, 124, 192
-0.998259, 121, 161, 152, 288
-0.998259, 213, 265, 228, 296
-0.998259, 215, 137, 230, 200
-0.998262, 253, 319, 284, 334
-0.998262, 45, 319, 76, 334
-0.998264, 229, 19, 260, 34
-0.998264, 185, 209, 216, 224
-0.998265, 49, 113, 80, 128
-0.998265, 241, 241, 272, 256
-0.998266, 121, 317, 152, 332
-0.998267, 197, 25, 228, 40
-0.998267, 245, 219, 276, 234
-0.998268, 189, 53, 220, 68
-0.998268, 225, 225, 240, 256
-0.998269, 209, 213, 240, 228
-0.99827, 173, 211, 204, 226
-0.998271, 221, 47, 252, 62
-0.998271, 209, 137, 224, 200
-0.998273, 205, 251, 236, 266
-0.998273, 229, 209, 260, 224
-0.998274, 369, 265, 400, 328
-0.998274, 201, 37, 232, 52
-0.998277, 241, 249, 272, 264
-0.998277, 61, 315, 92, 330
-0.998278, 213, 223, 244, 238
-0.998278, 173, 307, 204, 322
-0.998279, 193, 285, 224, 300
-0.99828, 109, 319, 140, 334
-0.998281, 161, 157, 288, 188
-0.998283, 217, 37, 248, 52
-0.998283, 217, 161, 248, 176
-0.998284, 85, 315, 116, 330
-0.998284, 229, 295, 260, 310
-0.998285, 245, 229, 276, 244
-0.998287, 241, 283, 272, 298
-0.998288, 185, 25, 216, 40
-0.998289, 5, 317, 36, 332
-0.998289, 209, 19, 240, 34
-0.998291, 21, 313, 52, 328
-0.998291, 235, 233, 250, 264
-0.998291, 17, 319, 48, 334
-0.998292, 237, 165, 268, 180
-0.998292, 217, 181, 232, 212
-0.998293, 225, 217, 256, 232
-0.998294, 177, 265, 208, 280
-0.998294, 177, 221, 208, 236
-0.998294, 177, 163, 208, 178
-0.998295, 217, 285, 248, 300
-0.998297, 185, 35, 216, 50
-0.998297, 237, 35, 268, 50
-0.998297, 237, 269, 268, 284
-0.998299, 209, 271, 240, 286
-0.998301, 153, 317, 184, 332
-0.998301, 173, 183, 204, 198
-0.998302, 233, 1, 248, 64
-0.998302, 205, 31, 236, 46
-0.998303, 193, 219, 224, 234
-0.998304, 217, 295, 248, 310
-0.998304, 97, 319, 128, 334
-0.998305, 177, 113, 208, 176
-0.998307, 233, 25, 264, 40
-0.998308, 181, 249, 212, 264
-0.998309, 219, 245, 234, 276
-0.99831, 221, 167, 252, 182
-0.998311, 73, 319, 104, 334
-0.998314, 217, 31, 248, 46
-0.998314, 229, 285, 260, 300
-0.998317, 201, 249, 216, 280
-0.998317, 241, 263, 272, 278
-0.99832, 185, 41, 216, 56
-0.998321, 237, 41, 268, 56
-0.998322, 81, 233, 208, 264
-0.998322, 93, 273, 124, 334
-0.998326, 203, 45, 218, 76
-0.998328, 305, 121, 336, 184
-0.998328, 49, 117, 176, 148
-0.998328, 349, 273, 364, 334
-0.998329, 181, 227, 212, 242
-0.998332, 185, 183, 216, 198
-0.998333, 197, 171, 228, 186
-0.998335, 99, 113, 114, 176
-0.998336, 197, 185, 212, 216
-0.998337, 233, 313, 264, 328
-0.998337, 341, 265, 356, 328
-0.998337, 181, 301, 212, 316
-0.998339, 241, 285, 368, 316
-0.99834, 229, 301, 260, 316
-0.998341, 175, 185, 190, 248
-0.998341, 185, 259, 216, 274
-0.998345, 9, 49, 72, 176
-0.998346, 133, 319, 164, 334
-0.998348, 229, 249, 260, 264
-0.998348, 233, 171, 264, 186
-0.998352, 181, 279, 212, 294
-0.998352, 233, 65, 264, 320
-0.998352, 193, 227, 224, 242
-0.998352, 205, 245, 236, 260
-0.998354, 185, 307, 216, 322
-0.998356, 229, 263, 260, 278
-0.998359, 193, 299, 224, 314
-0.998361, 233, 225, 264, 240
-0.998364, 197, 311, 228, 326
-0.998364, 225, 53, 256, 68
-0.998364, 201, 53, 232, 68
-0.998365, 233, 307, 264, 322
-0.998366, 33, 315, 64, 330
-0.998367, 201, 161, 232, 176
-0.998368, 331, 273, 346, 334
-0.998369, 217, 247, 248, 262
-0.998371, 185, 233, 216, 248
-0.998372, 309, 113, 340, 240
-0.998372, 345, 113, 376, 240
-0.998373, 227, 137, 242, 200
-0.998374, 209, 181, 240, 196
-0.998376, 189, 47, 220, 62
-0.998376, 165, 319, 196, 334
-0.998377, 233, 235, 264, 250
-0.998377, 107, 145, 122, 208
-0.998379, 205, 229, 220, 260
-0.998379, 233, 47, 264, 62
-0.998381, 209, 47, 240, 62
-0.998381, 221, 179, 252, 194
-0.998381, 195, 249, 210, 280
-0.998382, 201, 293, 216, 324
-0.998384, 223, 301, 238, 332
-0.998385, 17, 201, 144, 264
-0.998386, 229, 243, 260, 258
-0.998388, 77, 113, 108, 176
-0.998392, 217, 307, 248, 322
-0.998394, 209, 229, 240, 244
-0.998396, 197, 183, 228, 198
-0.998397, 213, 55, 244, 70
-0.998398, 239, 153, 254, 216
-0.9984, 219, 157, 234, 188
-0.998402, 193, 253, 224, 268
-0.998403, 233, 275, 264, 290
-0.998404, 221, 229, 252, 244
-0.998404, 193, 247, 224, 262
-0.998405, 193, 269, 256, 284
-0.998406, 31, 273, 46, 334
-0.998406, 241, 319, 272, 334
-0.99841, 197, 233, 228, 248
-0.99841, 173, 145, 188, 208
-0.998411, 205, 283, 236, 298
-0.998412, 221, 313, 252, 328
-0.998413, 181, 273, 212, 288
-0.998414, 193, 317, 256, 332
-0.998415, 185, 307, 248, 322
-0.998416, 209, 167, 240, 182
-0.998418, 193, 273, 224, 288
-0.998419, 217, 301, 232, 332
-0.99842, 229, 257, 260, 272
-0.998424, 189, 165, 220, 180
-0.998425, 209, 277, 240, 292
-0.998425, 185, 263, 248, 278
-0.998427, 217, 253, 248, 268
-0.998428, 193, 243, 256, 258
-0.998428, 189, 305, 204, 334
-0.99843, 225, 269, 256, 284
-0.998431, 193, 241, 224, 256
-0.998433, 231, 185, 246, 248
-0.998436, 131, 161, 146, 224
-0.998437, 225, 113, 256, 176
-0.998437, 217, 301, 248, 316
-0.998439, 193, 113, 224, 176
-0.998439, 193, 265, 224, 280
-0.998442, 213, 239, 244, 254
-0.998444, 193, 275, 256, 290
-0.998446, 221, 53, 236, 84
-0.998447, 221, 173, 252, 188
-0.998449, 177, 313, 208, 328
-0.998451, 217, 263, 248, 278
-0.998454, 193, 301, 256, 316
-0.998454, 115, 121, 130, 184
-0.99846, 211, 253, 226, 284
-0.998463, 193, 27, 256, 42
-0.998466, 241, 229, 368, 260
-0.998466, 445, 129, 476, 256
-0.998466, 173, 65, 204, 320
-0.998467, 193, 217, 208, 248
-0.998476, 185, 229, 248, 244
-0.998477, 245, 273, 260, 334
-0.998481, 205, 257, 236, 272
-0.998482, 217, 319, 248, 334
-0.998482, 197, 1, 228, 64
-0.998483, 197, 305, 228, 320
-0.998484, 205, 263, 236, 278
-0.998487, 113, 53, 240, 84
-0.998489, 193, 33, 256, 48
-0.99849, 193, 281, 256, 296
-0.998492, 197, 319, 228, 334
-0.998493, 161, 319, 224, 334
-0.998494, 193, 97, 448, 160
-0.998497, 205, 299, 236, 314
-0.998497, 1, 209, 128, 334
-0.998499, 241, 237, 256, 268
-0.998503, 203, 1, 218, 64
-0.998507, 201, 33, 216, 64
-0.998508, 193, 257, 256, 272
-0.998509, 193, 279, 224, 294
-0.998511, 193, 39, 256, 54
-0.998513, 5, 273, 20, 334
-0.998514, 229, 319, 260, 334
-0.998514, 193, 237, 256, 252
-0.998518, 185, 249, 248, 264
-0.998519, 221, 279, 252, 294
-0.99852, 215, 53, 230, 84
-0.998522, 221, 265, 236, 296
-0.998524, 225, 185, 352, 216
-0.998526, 193, 229, 208, 260
-0.998528, 209, 25, 240, 40
-0.998529, 237, 33, 252, 64
-0.998532, 361, 241, 424, 304
-0.998534, 233, 177, 248, 208
-0.998539, 217, 319, 280, 334
-0.998541, 203, 137, 218, 200
-0.998542, 209, 173, 240, 188
-0.998542, 185, 173, 248, 188
-0.998544, 113, 153, 240, 184
-0.998545, 469, 129, 500, 256
-0.998546, 183, 153, 198, 216
-0.998548, 193, 45, 256, 60
-0.998557, 353, 217, 480, 280
-0.998557, 125, 161, 140, 224
-0.99856, 185, 319, 216, 334
-0.998562, 161, 279, 224, 294
-0.998563, 289, 285, 416, 316
-0.998565, 161, 233, 224, 248
-0.998566, 253, 257, 284, 320
-0.998566, 237, 221, 252, 252
-0.998569, 193, 183, 256, 198
-0.998573, 241, 269, 256, 300
-0.998574, 11, 273, 26, 334
-0.998578, 113, 209, 176, 272
-0.998581, 197, 33, 212, 96
-0.998586, 177, 117, 304, 148
-0.998587, 1, 185, 500, 248
-0.99859, 185, 223, 248, 238
-0.998591, 153, 273, 216, 288
-0.998592, 217, 279, 280, 294
-0.998596, 193, 55, 256, 70
-0.998598, 193, 161, 256, 176
-0.9986, 193, 65, 256, 128
-0.9986, 209, 229, 272, 244
-0.998601, 233, 113, 248, 176
-0.998603, 321, 217, 384, 280
-0.998605, 17, 273, 32, 334
-0.998608, 273, 193, 400, 256
-0.998609, 161, 165, 224, 180
-0.998609, 217, 177, 280, 192
-0.99861, 225, 273, 288, 288
-0.998611, 225, 259, 288, 274
-0.998614, 161, 255, 224, 270
-0.998617, 153, 313, 216, 328
-0.998617, 81, 105, 208, 136
-0.998618, 169, 49, 232, 64
-0.998619, 225, 245, 288, 260
-0.99862, 179, 113, 194, 176
-0.998621, 217, 171, 280, 186
-0.998622, 225, 235, 288, 250
-0.998622, 161, 299, 224, 314
-0.998622, 185, 167, 248, 182
-0.998623, 201, 287, 264, 302
-0.998624, 225, 47, 288, 62
-0.998627, 225, 223, 288, 238
-0.998629, 73, 319, 136, 334
-0.99863, 191, 181, 206, 212
-0.998634, 201, 217, 216, 248
-0.998637, 161, 241, 224, 256
-0.998637, 325, 121, 356, 184
-0.998637, 137, 319, 200, 334
-0.998639, 225, 309, 288, 324
-0.998641, 231, 221, 246, 252
-0.998642, 225, 265, 288, 280
-0.998642, 169, 183, 232, 198
-0.998643, 225, 299, 288, 314
-0.998644, 193, 295, 256, 310
-0.998644, 237, 285, 252, 316
-0.998644, 161, 227, 224, 242
-0.998645, 161, 247, 224, 262
-0.998646, 217, 253, 280, 268
-0.998649, 215, 21, 230, 52
-0.998651, 225, 37, 288, 52
-0.998651, 373, 273, 388, 334
-0.998651, 269, 113, 300, 176
-0.998653, 337, 133, 464, 164
-0.998653, 161, 305, 224, 320
-0.998655, 1, 161, 500, 224
-0.998657, 161, 265, 224, 280
-0.998658, 233, 229, 296, 244
-0.998658, 185, 215, 248, 230
-0.998661, 161, 35, 224, 50
-0.998662, 217, 53, 280, 68
-0.998662, 219, 1, 234, 128
-0.998663, 241, 319, 304, 334
-0.998663, 17, 317, 80, 332
-0.998664, 225, 31, 288, 46
-0.998664, 177, 209, 240, 224
-0.998665, 41, 313, 104, 328
-0.998666, 161, 43, 224, 58
-0.998666, 251, 273, 266, 334
-0.998669, 227, 209, 242, 240
-0.998671, 211, 225, 226, 256
-0.998675, 225, 23, 288, 38
-0.998675, 161, 219, 224, 234
-0.998679, 209, 213, 272, 228
-0.998679, 201, 21, 264, 36
-0.99868, 161, 29, 224, 44
-0.998682, 169, 285, 232, 300
-0.998682, 217, 225, 232, 256
-0.998683, 223, 21, 238, 52
-0.998684, 305, 265, 320, 328
-0.998684, 347, 249, 362, 312
-0.998686, 177, 189, 240, 204
-0.998686, 193, 201, 256, 216
-0.998688, 217, 165, 280, 180
-0.99869, 105, 319, 168, 334
-0.998691, 161, 21, 224, 36
-0.998693, 225, 285, 288, 300
-0.998693, 217, 205, 280, 220
-0.998694, 241, 121, 368, 152
-0.998695, 153, 213, 216, 228
-0.998698, 321, 125, 384, 140
-0.998698, 221, 121, 236, 184
-0.998702, 41, 113, 104, 128
-0.998704, 317, 273, 332, 334
-0.998706, 49, 319, 112, 334
-0.998709, 193, 195, 256, 210
-0.99871, 81, 113, 96, 176
-0.99871, 169, 201, 232, 216
-0.99871, 145, 183, 208, 198
-0.998711, 161, 171, 224, 186
-0.998711, 247, 209, 262, 272
-0.998711, 129, 169, 160, 232
-0.998712, 161, 293, 224, 308
-0.998713, 217, 195, 280, 210
-0.998714, 203, 157, 218, 188
-0.998714, 217, 183, 280, 198
-0.998715, 241, 305, 368, 334
-0.998716, 169, 55, 232, 70
-0.998717, 161, 195, 224, 210
-0.998718, 153, 207, 216, 222
-0.998718, 357, 257, 372, 320
-0.998719, 161, 159, 224, 174
-0.998719, 9, 311, 72, 326
-0.998719, 73, 313, 136, 328
-0.99872, 217, 293, 280, 308
-0.998722, 137, 225, 200, 240
-0.998722, 325, 113, 356, 240
-0.998726, 145, 189, 208, 204
-0.998726, 193, 293, 208, 324
-0.998728, 181, 233, 196, 296
-0.998729, 233, 213, 296, 228
-0.998729, 17, 113, 80, 128
-0.998729, 201, 189, 264, 204
-0.998729, 105, 313, 168, 328
-0.99873, 65, 117, 128, 132
-0.99873, 265, 121, 328, 136
-0.998733, 209, 241, 224, 272
-0.998736, 177, 209, 192, 272
-0.99874, 361, 131, 424, 146
-0.998742, 247, 233, 262, 264
-0.998745, 137, 219, 200, 234
-0.998745, 101, 273, 116, 334
-0.998747, 239, 185, 254, 248
-0.998747, 137, 281, 200, 296
-0.998749, 89, 121, 152, 136
-0.998749, 249, 223, 312, 238
-0.99875, 97, 173, 160, 188
-0.998751, 137, 163, 200, 178
-0.998751, 237, 165, 252, 196
-0.998752, 25, 105, 40, 168
-0.998752, 405, 129, 420, 192
-0.998753, 187, 233, 202, 264
-0.998754, 1, 305, 128, 334
-0.998755, 165, 113, 180, 176
-0.998755, 225, 1, 240, 128
-0.998755, 161, 177, 224, 192
-0.998755, 233, 189, 296, 204
-0.998756, 137, 305, 200, 320
-0.998757, 17, 107, 80, 122
-0.998759, 241, 253, 304, 268
-0.998761, 185, 117, 248, 132
-0.998762, 241, 203, 304, 218
-0.998762, 241, 279, 304, 294
-0.998762, 377, 137, 440, 152
-0.998763, 41, 49, 104, 176
-0.998763, 97, 167, 160, 182
-0.998765, 297, 125, 360, 140
-0.998768, 121, 121, 184, 136
-0.998769, 337, 287, 400, 302
-0.998769, 297, 117, 360, 132
-0.998769, 183, 305, 198, 334
-0.99877, 81, 279, 144, 294
-0.99877, 241, 175, 304, 190
-0.99877, 161, 119, 224, 134
-0.998785, 169, 185, 184, 248
-0.998786, 419, 137, 434, 200
-0.998788, 245, 249, 260, 280
-0.998789, 189, 265, 204, 296
-0.998789, 9, 249, 72, 312
-0.99879, 325, 265, 340, 328
-0.998792, 1, 101, 128, 132
-0.998793, 377, 209, 440, 334
-0.998794, 95, 273, 110, 334
-0.998795, 109, 65, 140, 192
-0.998801, 213, 1, 228, 128
-0.99881, 191, 165, 206, 196
-0.99881, 173, 305, 188, 334
-0.998815, 129, 117, 256, 148
-0.998815, 369, 289, 496, 320
-0.998818, 139, 169, 154, 232
-0.99882, 247, 249, 262, 312
-0.998824, 241, 305, 256, 334
-0.998824, 185, 181, 200, 212
-0.998825, 93, 113, 108, 176
-0.998825, 87, 113, 102, 176
-0.998829, 209, 185, 224, 216
-0.998829, 245, 49, 276, 176
-0.99883, 153, 305, 168, 334
-0.998831, 85, 305, 100, 334
-0.998833, 173, 113, 188, 176
-0.998843, 163, 305, 178, 334
-0.998843, 309, 121, 324, 184
-0.998849, 341, 121, 356, 184
-0.99885, 25, 273, 40, 334
-0.998851, 277, 65, 308, 192
-0.998855, 61, 105, 76, 168
-0.998855, 189, 249, 204, 280
-0.998858, 295, 113, 310, 176
-0.99886, 311, 265, 326, 328
-0.998861, 247, 217, 262, 248
-0.998862, 353, 193, 480, 256
-0.998863, 205, 193, 220, 320
-0.998865, 41, 273, 56, 334
-0.998868, 377, 81, 440, 208
-0.998871, 425, 137, 440, 200
-0.998874, 301, 121, 316, 184
-0.998874, 351, 121, 366, 184
-0.998875, 257, 225, 500, 288
-0.99888, 73, 113, 88, 176
-0.99888, 413, 137, 428, 200
-0.998883, 369, 113, 400, 240
-0.998885, 293, 121, 324, 184
-0.998885, 349, 121, 380, 184
-0.998888, 129, 113, 144, 176
-0.998894, 65, 173, 192, 204
-0.998897, 147, 169, 162, 232
-0.998898, 325, 121, 340, 184
-0.998904, 215, 113, 230, 176
-0.998906, 247, 113, 262, 176
-0.998906, 65, 209, 128, 272
-0.99891, 245, 113, 276, 176
-0.99891, 209, 13, 224, 44
-0.99891, 315, 121, 330, 184
-0.998912, 335, 249, 350, 312
-0.998918, 257, 209, 288, 334
-0.998925, 377, 121, 392, 184
-0.998926, 397, 129, 412, 192
-0.998926, 209, 37, 224, 68
-0.99893, 181, 169, 196, 200
-0.99893, 357, 113, 388, 240
-0.99893, 379, 273, 394, 334
-0.998934, 207, 1, 222, 128
-0.998935, 223, 9, 238, 40
-0.998937, 187, 205, 202, 236
-0.998946, 143, 305, 158, 334
-0.998946, 187, 221, 202, 252
-0.998948, 225, 177, 240, 304
-0.998949, 65, 49, 128, 176
-0.99895, 199, 193, 214, 320
-0.998951, 237, 209, 252, 240
-0.998951, 189, 277, 204, 308
-0.998955, 217, 9, 232, 40
-0.998957, 217, 213, 232, 244
-0.998972, 141, 169, 172, 232
-0.998972, 237, 17, 252, 48
-0.998977, 229, 13, 244, 44
-0.998988, 221, 41, 236, 72
-0.998991, 215, 41, 230, 72
-0.998991, 421, 137, 452, 200
-0.998996, 199, 17, 214, 48
-0.998996, 193, 177, 208, 304
-0.998998, 219, 193, 234, 320
-0.999005, 211, 49, 226, 176
-0.999005, 37, 105, 68, 168
-0.999005, 257, 113, 288, 176
-0.999008, 211, 177, 226, 304
-0.999012, 125, 305, 140, 334
-0.999014, 49, 277, 176, 308
-0.999018, 1, 277, 128, 308
-0.999023, 217, 49, 232, 176
-0.999023, 231, 1, 246, 128
-0.999035, 239, 45, 254, 76
-0.999037, 227, 37, 242, 68
-0.999041, 65, 185, 192, 216
-0.999048, 95, 305, 110, 334
-0.999049, 131, 305, 146, 334
-0.999053, 273, 109, 400, 140
-0.999056, 93, 177, 124, 304
-0.999057, 381, 129, 412, 192
-0.999059, 223, 49, 238, 176
-0.999061, 341, 249, 372, 312
-0.999062, 239, 177, 254, 208
-0.999064, 257, 213, 272, 244
-0.999065, 105, 249, 136, 312
-0.99907, 453, 137, 484, 200
-0.999072, 289, 269, 416, 300
-0.999082, 193, 113, 208, 240
-0.999088, 79, 305, 94, 334
-0.999093, 401, 65, 464, 320
-0.999096, 211, 213, 226, 244
-0.999097, 199, 145, 214, 272
-0.999107, 205, 205, 220, 236
-0.99911, 107, 149, 122, 180
-0.99911, 247, 285, 262, 316
-0.999113, 195, 205, 210, 236
-0.999114, 229, 49, 244, 176
-0.999115, 115, 305, 130, 334
-0.999118, 37, 305, 52, 334
-0.999121, 177, 5, 304, 36
-0.999125, 385, 273, 416, 334
-0.999126, 257, 33, 384, 96
-0.999127, 103, 305, 118, 334
-0.999127, 209, 149, 224, 180
-0.999127, 109, 33, 140, 288
-0.999128, 31, 301, 46, 332
-0.99913, 49, 65, 176, 128
-0.99913, 81, 289, 208, 320
-0.999131, 225, 9, 352, 40
-0.999132, 179, 181, 194, 212
-0.999135, 245, 65, 276, 320
-0.999136, 223, 185, 238, 216
-0.999137, 209, 153, 336, 184
-0.999142, 165, 113, 196, 176
-0.999142, 43, 305, 58, 334
-0.999146, 181, 209, 196, 240
-0.999147, 247, 205, 262, 236
-0.999173, 129, 113, 160, 176
-0.999175, 21, 105, 52, 168
-0.999183, 29, 273, 60, 334
-0.999189, 237, 209, 252, 334
-0.99919, 161, 33, 192, 288
-0.999191, 257, 153, 500, 216
-0.999216, 157, 145, 188, 208
-0.999217, 217, 145, 232, 272
-0.999223, 205, 145, 220, 272
-0.999231, 353, 105, 416, 168
-0.999251, 125, 273, 156, 334
-0.99927, 187, 193, 202, 320
-0.99928, 369, 145, 496, 176
-0.999284, 181, 113, 196, 240
-0.999285, 231, 209, 246, 334
-0.999291, 205, 49, 220, 176
-0.999292, 385, 241, 448, 304
-0.999296, 231, 145, 246, 272
-0.999296, 129, 5, 256, 36
-0.999297, 141, 257, 172, 320
-0.999308, 149, 65, 180, 192
-0.999313, 153, 273, 184, 334
-0.99932, 33, 289, 160, 320
-0.999326, 187, 113, 202, 240
-0.999333, 1, 65, 500, 128
-0.999335, 105, 113, 120, 240
-0.999338, 201, 1, 216, 128
-0.999342, 41, 81, 104, 144
-0.999343, 149, 33, 180, 288
-0.999343, 257, 9, 500, 72
-0.99935, 257, 17, 384, 144
-0.999357, 237, 161, 252, 288
-0.999359, 171, 113, 186, 240
-0.999365, 17, 241, 144, 272
-0.999371, 305, 297, 432, 328
-0.999373, 243, 193, 258, 320
-0.999387, 209, 57, 336, 88
-0.999389, 273, 89, 336, 152
-0.999394, 89, 33, 120, 288
-0.999399, 257, 65, 288, 320
-0.999419, 225, 109, 352, 140
-0.999429, 237, 1, 252, 128
-0.999429, 121, 33, 152, 288
-0.999433, 211, 129, 226, 256
-0.999448, 17, 261, 144, 292
-0.999449, 231, 97, 246, 224
-0.999449, 199, 97, 214, 224
-0.999452, 205, 97, 220, 224
-0.999453, 127, 113, 142, 240
-0.999453, 243, 113, 258, 240
-0.999462, 117, 113, 132, 240
-0.999463, 277, 257, 308, 320
-0.999464, 145, 65, 272, 96
-0.999467, 289, 65, 320, 320
-0.999468, 223, 113, 238, 240
-0.999473, 137, 33, 168, 288
-0.99948, 161, 113, 176, 240
-0.999483, 177, 105, 304, 136
-0.999483, 235, 49, 250, 176
-0.999488, 181, 193, 196, 320
-0.999493, 257, 249, 500, 312
-0.999496, 337, 273, 464, 304
-0.999496, 111, 113, 126, 240
-0.999499, 289, 249, 416, 280
-0.999501, 253, 319, 268, 334
-0.999501, 197, 41, 212, 56
-0.999501, 241, 231, 256, 246
-0.999504, 197, 253, 212, 268
-0.999505, 75, 319, 90, 334
-0.999506, 31, 319, 46, 334
-0.999506, 215, 263, 230, 278
-0.999506, 237, 113, 252, 240
-0.999507, 85, 313, 100, 328
-0.999507, 239, 237, 254, 252
-0.999508, 289, 233, 416, 264
-0.999509, 115, 317, 130, 332
-0.99951, 197, 159, 212, 174
-0.99951, 207, 235, 222, 250
-0.999511, 65, 65, 96, 320
-0.999511, 31, 313, 46, 328
-0.999511, 237, 299, 252, 314
-0.999512, 229, 181, 244, 196
-0.999515, 207, 33, 222, 48
-0.999515, 187, 273, 202, 288
-0.999515, 125, 65, 156, 192
-0.999517, 105, 319, 120, 334
-0.999518, 175, 319, 190, 334
-0.999518, 43, 313, 58, 328
-0.999519, 247, 227, 262, 242
-0.99952, 137, 319, 152, 334
-0.99952, 227, 285, 242, 300
-0.99952, 191, 221, 206, 236
-0.999521, 239, 311, 254, 326
-0.999522, 205, 173, 220, 188
-0.999524, 199, 241, 214, 256
-0.999524, 241, 269, 256, 284
-0.999526, 231, 33, 246, 48
-0.999526, 87, 319, 102, 334
-0.999527, 169, 319, 184, 334
-0.999528, 249, 113, 264, 240
-0.999529, 205, 161, 220, 176
-0.999529, 237, 171, 252, 186
-0.999529, 217, 165, 232, 180
-0.999529, 241, 263, 256, 278
-0.99953, 221, 23, 236, 38
-0.999531, 217, 97, 232, 224
-0.999531, 239, 283, 254, 298
-0.999531, 241, 249, 256, 264
-0.999531, 239, 43, 254, 58
-0.999533, 195, 265, 210, 280
-0.999533, 223, 233, 238, 248
-0.999534, 229, 247, 244, 262
-0.999535, 137, 113, 152, 240
-0.999535, 197, 259, 212, 274
-0.999535, 195, 233, 210, 248
-0.999537, 213, 277, 228, 292
-0.999537, 215, 23, 230, 38
-0.999537, 201, 227, 216, 242
-0.999539, 213, 55, 228, 70
-0.99954, 205, 313, 220, 328
-0.999541, 195, 303, 210, 318
-0.999541, 147, 319, 162, 334
-0.999541, 227, 307, 242, 322
-0.999541, 191, 249, 206, 264
-0.999542, 81, 33, 208, 64
-0.999546, 237, 225, 252, 240
-0.999546, 49, 221, 176, 252
-0.999546, 273, 65, 304, 320
-0.999546, 297, 217, 360, 280
-0.999549, 221, 253, 236, 268
-0.999549, 223, 55, 238, 70
-0.99955, 233, 231, 248, 246
-0.999551, 195, 183, 210, 198
-0.999553, 227, 227, 242, 242
-0.999553, 223, 263, 238, 278
-0.999554, 247, 319, 262, 334
-0.999554, 213, 319, 228, 334
-0.999555, 229, 253, 244, 268
-0.999555, 249, 161, 264, 288
-0.999556, 203, 167, 218, 182
-0.999556, 215, 299, 230, 314
-0.999557, 195, 227, 210, 242
-0.999557, 233, 237, 248, 252
-0.999558, 207, 263, 222, 278
-0.999558, 207, 183, 222, 198
-0.999559, 223, 181, 238, 196
-0.99956, 215, 183, 230, 198
-0.999561, 213, 237, 228, 252
-0.999561, 81, 319, 96, 334
-0.999563, 181, 319, 196, 334
-0.999564, 201, 47, 216, 62
-0.999565, 223, 167, 238, 182
-0.999565, 211, 165, 226, 180
-0.999567, 227, 27, 242, 42
-0.999568, 217, 229, 232, 244
-0.999568, 235, 49, 250, 64
-0.99957, 251, 209, 266, 334
-0.99957, 17, 65, 48, 320
-0.99957, 225, 241, 240, 256
-0.99957, 191, 309, 206, 324
-0.99957, 215, 257, 230, 272
-0.999571, 211, 229, 226, 244
-0.999573, 209, 27, 224, 42
-0.999576, 203, 255, 218, 270
-0.999576, 207, 53, 222, 68
-0.999576, 193, 273, 208, 288
-0.999577, 329, 97, 392, 160
-0.999578, 229, 269, 244, 284
-0.999578, 233, 307, 248, 322
-0.999579, 219, 281, 234, 296
-0.999579, 197, 165, 212, 180
-0.99958, 205, 241, 220, 256
-0.99958, 227, 279, 242, 294
-0.99958, 231, 301, 246, 316
-0.999582, 201, 183, 216, 198
-0.999582, 213, 283, 228, 298
-0.999582, 153, 113, 168, 240
-0.999583, 235, 253, 250, 268
-0.999584, 203, 299, 218, 314
-0.999585, 193, 73, 448, 136
-0.999587, 147, 113, 162, 240
-0.999587, 197, 247, 212, 262
-0.999587, 201, 233, 216, 248
-0.999587, 199, 49, 214, 176
-0.999594, 229, 53, 244, 68
-0.999595, 205, 275, 220, 290
-0.999598, 211, 173, 226, 188
-0.9996, 93, 113, 108, 240
-0.9996, 231, 169, 246, 184
-0.999602, 305, 65, 336, 320
-0.999603, 195, 279, 210, 294
-0.999603, 239, 275, 254, 290
-0.999606, 209, 299, 224, 314
-0.999608, 235, 243, 250, 258
-0.999613, 225, 173, 240, 188
-0.999613, 203, 305, 218, 320
-0.999614, 129, 105, 256, 136
-0.999614, 37, 315, 52, 330
-0.999614, 81, 209, 144, 334
-0.999616, 235, 269, 250, 284
-0.999617, 201, 281, 216, 296
-0.999618, 201, 265, 216, 280
-0.999619, 99, 113, 114, 240
-0.999622, 77, 65, 108, 320
-0.999624, 209, 257, 224, 272
-0.999627, 199, 273, 214, 288
-0.999627, 203, 319, 218, 334
-0.999628, 223, 319, 238, 334
-0.999632, 289, 161, 416, 288
-0.999636, 207, 281, 222, 296
-0.999637, 231, 259, 246, 274
-0.999642, 257, 201, 500, 264
-0.999649, 171, 161, 186, 288
-0.999654, 225, 299, 240, 314
-0.999654, 141, 113, 172, 176
-0.999654, 165, 161, 180, 288
-0.999657, 233, 279, 248, 294
-0.999658, 231, 175, 246, 190
-0.999662, 17, 173, 144, 204
-0.999663, 233, 317, 248, 332
-0.999665, 191, 315, 206, 330
-0.99967, 241, 319, 256, 334
-0.99967, 257, 217, 384, 248
-0.999673, 197, 309, 212, 324
-0.999675, 255, 113, 270, 240
-0.999676, 317, 65, 348, 320
-0.999679, 219, 173, 234, 188
-0.99968, 193, 65, 208, 192
-0.999684, 83, 97, 98, 224
-0.9997, 241, 65, 256, 192
-0.999701, 261, 97, 276, 224
-0.999702, 267, 97, 282, 224
-0.999708, 15, 97, 30, 224
-0.999709, 249, 217, 280, 280
-0.999712, 23, 97, 38, 224
-0.999712, 353, 301, 480, 332
-0.999714, 41, 97, 56, 224
-0.999715, 35, 97, 50, 224
-0.999716, 1, 97, 16, 224
-0.999718, 427, 129, 442, 256
-0.999718, 9, 97, 24, 224
-0.999719, 277, 113, 292, 240
-0.999719, 67, 97, 82, 224
-0.99972, 81, 17, 208, 48
-0.999722, 53, 97, 68, 224
-0.999723, 197, 319, 212, 334
-0.999723, 47, 97, 62, 224
-0.999723, 65, 161, 192, 192
-0.999725, 291, 113, 306, 240
-0.999726, 329, 65, 360, 320
-0.999727, 255, 161, 270, 288
-0.999727, 29, 97, 44, 224
-0.999729, 403, 129, 418, 256
-0.999732, 247, 65, 262, 192
-0.999736, 285, 113, 300, 240
-0.999738, 169, 65, 184, 192
-0.999738, 421, 129, 436, 256
-0.999741, 433, 129, 448, 256
-0.999746, 413, 129, 428, 256
-0.999747, 61, 97, 76, 224
-0.999753, 395, 113, 410, 240
-0.999755, 467, 129, 482, 256
-0.999756, 305, 113, 320, 240
-0.999757, 457, 129, 472, 256
-0.999759, 475, 129, 490, 256
-0.999763, 5, 65, 36, 320
-0.999764, 73, 97, 88, 224
-0.999765, 125, 161, 140, 288
-0.999769, 195, 1, 210, 128
-0.999771, 105, 177, 120, 304
-0.999775, 447, 129, 462, 256
-0.999775, 297, 113, 312, 240
-0.999775, 367, 113, 382, 240
-0.999777, 381, 113, 396, 240
-0.999778, 187, 65, 202, 192
-0.99978, 339, 113, 354, 240
-0.999781, 369, 117, 496, 148
-0.999781, 315, 113, 330, 240
-0.999785, 325, 113, 340, 240
-0.999786, 45, 65, 76, 320
-0.999786, 177, 65, 192, 192
-0.999786, 439, 129, 454, 256
-0.999789, 481, 129, 496, 256
-0.999789, 353, 113, 368, 240
-0.999792, 341, 65, 372, 320
-0.9998, 321, 145, 448, 208
-0.9998, 253, 65, 268, 192
-0.999803, 115, 161, 130, 288
-0.999803, 361, 113, 376, 240
-0.999803, 99, 161, 114, 288
-0.999805, 347, 113, 362, 240
-0.999805, 373, 113, 388, 240
-0.999806, 105, 65, 120, 192
-0.999807, 389, 113, 404, 240
-0.99981, 331, 113, 346, 240
-0.99981, 243, 1, 258, 128
-0.999812, 465, 137, 496, 200
-0.999814, 163, 65, 178, 192
-0.999818, 131, 161, 146, 288
-0.999832, 113, 65, 128, 192
-0.999832, 95, 65, 110, 192
-0.999835, 159, 161, 174, 288
-0.999838, 353, 65, 416, 192
-0.999839, 157, 65, 172, 192
-0.999841, 127, 65, 142, 192
-0.999843, 305, 221, 432, 252
-0.999847, 29, 65, 60, 320
-0.999849, 147, 193, 162, 320
-0.999851, 361, 65, 392, 320
-0.999858, 151, 65, 166, 192
-0.999858, 153, 177, 168, 304
-0.999868, 259, 209, 274, 334
-0.99987, 119, 65, 134, 192
-0.999871, 261, 161, 276, 288
-0.999878, 137, 65, 152, 192
-0.999881, 17, 157, 144, 188
-0.999883, 321, 113, 448, 144
-0.999925, 369, 233, 496, 264
-0.999934, 441, 137, 472, 200
-0.999944, 49, 209, 176, 240
-0.999955, 373, 65, 404, 320
-0.99996, 65, 149, 192, 180
-0.99997, 1, 169, 128, 232
-0.999985, 281, 209, 344, 334
-0.999986, 193, 69, 320, 100
-0.999992, 1, 229, 128, 260
-1, 401, 65, 432, 320
-1.00001, 97, 65, 224, 96
-1.00001, 265, 65, 296, 192
-1.00003, 49, 93, 176, 124
-1.00003, 25, 217, 88, 280
-1.00004, 353, 245, 480, 276
-1.00005, 105, 273, 136, 334
-1.00006, 385, 65, 416, 320
-1.00012, 161, 145, 288, 176
-1.00012, 137, 193, 168, 320
-1.00012, 1, 89, 128, 120
-1.00013, 241, 97, 368, 128
-1.00015, 353, 221, 480, 252
-1.00016, 257, 57, 384, 120
-1.00018, 257, 165, 384, 196
-1.00018, 41, 273, 72, 334
-1.0002, 137, 65, 168, 192
-1.0002, 353, 257, 480, 288
-1.00022, 145, 77, 272, 108
-1.00022, 41, 145, 104, 272
-1.00022, 401, 209, 464, 334
-1.00022, 457, 65, 488, 320
-1.00022, 469, 65, 500, 320
-1.00023, 413, 65, 444, 320
-1.00023, 241, 73, 368, 104
-1.00024, 33, 241, 96, 304
-1.00025, 257, 33, 500, 96
-1.00025, 429, 65, 460, 320
-1.00025, 33, 137, 160, 168
-1.00025, 337, 209, 400, 334
-1.00026, 441, 65, 472, 320
-1.00029, 65, 53, 192, 84
-1.00031, 1, 213, 128, 244
-1.00033, 257, 57, 384, 88
-1.00033, 97, 77, 224, 108
-1.00033, 305, 173, 432, 204
-1.00035, 265, 161, 328, 288
-1.00036, 257, 161, 288, 288
-1.00036, 433, 81, 496, 208
-1.00038, 113, 141, 240, 172
-1.00039, 257, 85, 384, 116
-1.0004, 273, 205, 400, 236
-1.00041, 273, 141, 400, 172
-1.00041, 305, 161, 432, 192
-1.00041, 49, 41, 176, 104
-1.00043, 257, 153, 384, 184
-1.00044, 269, 209, 300, 334
-1.00046, 81, 129, 208, 160
-1.00046, 241, 17, 304, 144
-1.00046, 81, 5, 208, 36
-1.00046, 17, 185, 144, 216
-1.00047, 1, 201, 128, 232
-1.00048, 49, 77, 176, 108
-1.00048, 257, 177, 500, 240
-1.00057, 369, 161, 496, 224
-1.00059, 65, 177, 128, 240
-1.00061, 405, 81, 436, 208
-1.00063, 209, 105, 240, 168
-1.00064, 309, 241, 340, 304
-1.00067, 397, 265, 428, 328
-1.0007, 361, 217, 424, 280
-1.00071, 425, 209, 488, 334
-1.00072, 257, 177, 320, 240
-1.00079, 161, 241, 192, 304
-1.00081, 265, 265, 296, 328
-1.00084, 241, 33, 304, 96
-1.00089, 1, 137, 500, 200
-1.00089, 409, 225, 472, 288
-1.00092, 277, 217, 308, 280
-1.00094, 101, 169, 132, 232
-1.00105, 89, 217, 152, 280
-1.00105, 445, 265, 476, 328
-1.00107, 321, 169, 448, 232
-1.00112, 433, 113, 496, 176
-1.00115, 257, 193, 288, 256
-1.00117, 169, 137, 200, 200
-1.0012, 81, 273, 112, 334
-1.00121, 53, 273, 84, 334
-1.00126, 381, 249, 412, 312
-1.00127, 69, 89, 100, 152
-1.00135, 33, 17, 160, 80
-1.00135, 305, 49, 432, 112
-1.00135, 265, 217, 296, 280
-1.00135, 289, 65, 320, 192
-1.00137, 145, 145, 176, 208
-1.00137, 305, 25, 432, 88
-1.00139, 457, 265, 488, 328
-1.0014, 417, 201, 480, 264
-1.00143, 281, 209, 312, 334
-1.00145, 289, 217, 320, 280
-1.00148, 125, 145, 156, 208
-1.00154, 321, 73, 448, 136
-1.00159, 145, 17, 208, 144
-1.0016, 193, 89, 224, 152
-1.00166, 289, 1, 416, 64
-1.00168, 221, 89, 252, 152
-1.00169, 121, 249, 152, 312
-1.00169, 93, 249, 124, 312
-1.00173, 1, 41, 128, 104
-1.00179, 101, 97, 132, 160
-1.0018, 29, 49, 60, 176
-1.00183, 17, 49, 48, 176
-1.00184, 369, 81, 496, 144
-1.00185, 1, 49, 32, 176
-1.00189, 81, 161, 112, 288
-1.00189, 69, 49, 100, 176
-1.0019, 137, 1, 200, 64
-1.00193, 317, 65, 348, 192
-1.00204, 269, 161, 300, 288
-1.00207, 301, 65, 332, 192
-1.0021, 341, 65, 372, 192
-1.00212, 49, 49, 80, 176
-1.00217, 161, 209, 192, 334
-1.00217, 365, 65, 396, 192
-1.00219, 365, 209, 396, 334
-1.00219, 337, 1, 464, 64
-1.0022, 17, 177, 80, 304
-1.00223, 381, 65, 412, 192
-1.00224, 309, 209, 340, 334
-1.00225, 297, 193, 360, 256
-1.00227, 389, 209, 420, 334
-1.00228, 41, 209, 104, 334
-1.00229, 249, 9, 312, 72
-1.00231, 329, 65, 360, 192
-1.00233, 393, 81, 424, 208
-1.00241, 445, 81, 476, 208
-1.00244, 425, 81, 456, 208
-1.00246, 385, 217, 448, 280
-1.00247, 469, 81, 500, 208
-1.00252, 353, 65, 384, 192
-1.00255, 353, 49, 480, 112
-1.0026, 245, 1, 276, 128
-1.00264, 49, 153, 112, 216
-1.00269, 81, 49, 112, 176
-1.00281, 345, 209, 376, 334
-1.00283, 1, 201, 64, 264
-1.00283, 413, 209, 444, 334
-1.00285, 325, 209, 356, 334
-1.00291, 377, 209, 408, 334
-1.00292, 353, 25, 480, 88
-1.00298, 433, 241, 496, 304
-1.00302, 401, 209, 432, 334
-1.00305, 1, 225, 64, 288
-1.00317, 265, 153, 328, 216
-1.0032, 457, 81, 488, 208
-1.00323, 149, 209, 180, 334
-1.00328, 65, 209, 96, 334
-1.0033, 425, 209, 456, 334
-1.00338, 337, 185, 400, 248
-1.00344, 81, 209, 112, 334
-1.00346, 465, 209, 496, 334
-1.00352, 445, 209, 476, 334
-1.00379, 293, 209, 324, 334
-1.00379, 369, 193, 432, 256
-1.00405, 145, 49, 208, 112
-1.00419, 289, 153, 352, 216
-1.00425, 33, 193, 96, 256
-1.0043, 53, 193, 84, 320
-1.00472, 321, 145, 384, 208
-1.00473, 41, 161, 72, 288
-1.00479, 1, 153, 64, 216
-1.00483, 393, 193, 456, 256
-1.00486, 109, 209, 140, 334
-1.00489, 69, 145, 100, 272
-1.00491, 173, 17, 204, 144
-1.00493, 25, 153, 88, 216
-1.00494, 21, 145, 52, 272
-1.00501, 265, 17, 296, 144
-1.00511, 409, 161, 472, 224
-1.00511, 17, 129, 80, 192
-1.00513, 281, 161, 312, 288
-1.00516, 9, 145, 40, 272
-1.00518, 53, 145, 84, 272
-1.00525, 265, 49, 328, 112
-1.00545, 305, 161, 368, 288
-1.00546, 353, 153, 416, 216
-1.0055, 121, 209, 152, 334
-1.00552, 21, 193, 52, 320
-1.0056, 265, 17, 328, 144
-1.00562, 369, 33, 496, 160
-1.00567, 361, 161, 392, 288
-1.0057, 333, 161, 364, 288
-1.0057, 345, 161, 376, 288
-1.00591, 321, 161, 352, 288
-1.00592, 9, 193, 40, 320
-1.00593, 41, 209, 72, 334
-1.00596, 297, 161, 328, 288
-1.00633, 337, 161, 400, 288
-1.00785, 17, 1, 144, 128
-1.00786, 361, 161, 424, 288
-1.00818, 305, 17, 432, 144
-1.00871, 121, 17, 184, 144
-1.00877, 89, 17, 152, 144
-1.01118, 385, 33, 448, 160
-1.01157, 289, 17, 352, 144
-1.01346, 321, 17, 384, 144
-1.01471, 433, 1, 496, 128
-1.01513, 409, 1, 472, 128
-1.01547, 1, 1, 64, 128
-1.0156, 65, 1, 128, 128
-1.01629, 361, 17, 424, 144
-1.01693, 25, 1, 88, 128
