1898
-0.144395, 1, 1, 500, 341
-0.260724, 129, 1, 384, 341
-0.260812, 225, 1, 480, 341
-0.327098, 1, 65, 500, 320
-0.351203, 1, 1, 256, 341
-0.448672, 257, 97, 500, 341
-0.468159, 1, 97, 256, 341
-0.498809, 193, 1, 448, 256
-0.540795, 97, 33, 352, 288
-0.695466, 1, 1, 256, 256
-0.820809, 193, 1, 320, 341
-0.826669, 289, 1, 416, 341
-0.834703, 289, 65, 416, 320
-0.835471, 209, 1, 336, 256
-0.840852, 353, 97, 480, 341
-0.850524, 129, 1, 256, 341
-0.852837, 17, 65, 144, 320
-0.853724, 113, 97, 240, 341
-0.854236, 161, 33, 288, 288
-0.855314, 241, 1, 368, 341
-0.85741, 353, 1, 480, 341
-0.864118, 33, 1, 160, 341
-0.868131, 65, 65, 192, 320
-0.874946, 1, 49, 500, 176
-0.875528, 337, 1, 464, 256
-0.879132, 209, 97, 336, 341
-0.882636, 81, 1, 208, 341
-0.894587, 1, 97, 500, 224
-0.895165, 1, 161, 500, 288
-0.899219, 1, 129, 256, 256
-0.90062, 129, 33, 384, 160
-0.903799, 113, 1, 240, 256
-0.904313, 257, 129, 500, 256
-0.907264, 257, 81, 500, 208
-0.90826, 225, 193, 480, 320
-0.908277, 1, 1, 500, 128
-0.911371, 1, 209, 500, 336
-0.915306, 1, 177, 256, 304
-0.917071, 161, 129, 416, 256
-0.919321, 97, 193, 352, 320
-0.923443, 225, 33, 480, 160
-0.924122, 289, 81, 416, 208
-0.926869, 33, 81, 288, 208
-0.926903, 129, 81, 384, 208
-0.928534, 193, 17, 320, 144
-0.928643, 233, 17, 296, 144
-0.928778, 193, 129, 320, 256
-0.929038, 49, 81, 176, 208
-0.929744, 217, 145, 280, 272
-0.930236, 185, 177, 248, 304
-0.930922, 289, 17, 352, 144
-0.931896, 369, 81, 496, 208
-0.932198, 321, 33, 448, 160
-0.932635, 241, 17, 368, 144
-0.932724, 113, 97, 240, 224
-0.934097, 129, 65, 192, 192
-0.935702, 249, 113, 312, 240
-0.936117, 209, 17, 272, 144
-0.937213, 377, 49, 440, 176
-0.937244, 329, 33, 392, 160
-0.937664, 193, 65, 320, 192
-0.938531, 225, 65, 288, 192
-0.938818, 257, 1, 320, 128
-0.939168, 129, 49, 256, 176
-0.939545, 353, 209, 480, 336
-0.940064, 369, 129, 496, 256
-0.940647, 241, 177, 304, 304
-0.940702, 177, 177, 304, 304
-0.942093, 345, 81, 408, 208
-0.942956, 113, 161, 240, 288
-0.943621, 153, 145, 216, 272
-0.944156, 257, 65, 320, 192
-0.944952, 241, 81, 368, 208
-0.945067, 225, 209, 352, 336
-0.945243, 193, 97, 256, 224
-0.945604, 273, 209, 400, 336
-0.946166, 153, 49, 216, 176
-0.946723, 273, 129, 400, 256
-0.94726, 217, 193, 280, 320
-0.947281, 129, 129, 192, 256
-0.947442, 33, 33, 288, 160
-0.947535, 369, 33, 496, 160
-0.947911, 185, 49, 248, 176
-0.948379, 209, 33, 272, 96
-0.948593, 369, 81, 432, 144
-0.948623, 89, 81, 152, 208
-0.948798, 313, 81, 376, 208
-0.94953, 281, 65, 344, 192
-0.949921, 233, 57, 296, 120
-0.950077, 161, 265, 224, 328
-0.950195, 329, 97, 392, 160
-0.950389, 169, 97, 232, 224
-0.950437, 129, 209, 256, 336
-0.951164, 233, 25, 296, 88
-0.951235, 297, 73, 360, 136
-0.95185, 225, 137, 288, 200
-0.952185, 201, 153, 264, 216
-0.952955, 193, 57, 256, 120
-0.953063, 257, 41, 320, 104
-0.953283, 289, 105, 352, 168
-0.953376, 257, 153, 320, 216
-0.953378, 33, 129, 160, 256
-0.953474, 337, 57, 400, 120
-0.954611, 353, 17, 416, 144
-0.954705, 257, 89, 320, 152
-0.95487, 409, 97, 472, 224
-0.954973, 281, 113, 344, 240
-0.955184, 145, 1, 272, 128
-0.955561, 241, 233, 304, 296
-0.955969, 337, 25, 400, 88
-0.95609, 65, 33, 192, 160
-0.956208, 265, 113, 328, 176
-0.956545, 25, 145, 88, 272
-0.95655, 241, 185, 304, 248
-0.956573, 1, 49, 128, 176
-0.95664, 233, 81, 296, 144
-0.956665, 217, 185, 280, 248
-0.956904, 81, 33, 144, 160
-0.957931, 161, 209, 224, 336
-0.958691, 409, 209, 472, 336
-0.958786, 281, 209, 344, 336
-0.959006, 161, 161, 224, 224
-0.95911, 225, 161, 288, 224
-0.959215, 185, 129, 248, 192
-0.960121, 281, 33, 344, 96
-0.960196, 129, 73, 192, 136
-0.960597, 193, 201, 256, 264
-0.960724, 137, 145, 200, 208
-0.960998, 49, 113, 112, 240
-0.961045, 185, 1, 248, 128
-0.96118, 377, 161, 440, 288
-0.961306, 217, 241, 280, 304
-0.96171, 297, 1, 360, 64
-0.961809, 193, 225, 256, 288
-0.962529, 241, 209, 304, 272
-0.962569, 33, 209, 160, 336
-0.963042, 233, 113, 296, 176
-0.963317, 41, 49, 104, 176
-0.963473, 121, 281, 184, 341
-0.963581, 305, 41, 368, 104
-0.963639, 257, 65, 320, 128
-0.964296, 121, 209, 184, 336
-0.964308, 377, 209, 440, 336
-0.964437, 97, 57, 160, 120
-0.964552, 249, 1, 312, 256
-0.964822, 289, 1, 352, 256
-0.965025, 193, 249, 256, 312
-0.965466, 169, 57, 232, 120
-0.965544, 385, 57, 448, 120
-0.965819, 377, 65, 440, 320
-0.96589, 193, 81, 256, 144
-0.966354, 185, 177, 248, 240
-0.966398, 233, 97, 296, 341
-0.9665, 321, 161, 448, 288
-0.966543, 401, 233, 464, 296
-0.96686, 337, 1, 400, 256
-0.966926, 217, 209, 280, 272
-0.966955, 81, 209, 208, 336
-0.967065, 361, 57, 424, 120
-0.967243, 433, 177, 496, 304
-0.967559, 145, 121, 208, 184
-0.967681, 41, 129, 104, 192
-0.967922, 337, 209, 400, 336
-0.968027, 345, 129, 408, 192
-0.968052, 377, 97, 440, 224
-0.968057, 129, 97, 192, 160
-0.968339, 257, 257, 320, 320
-0.968596, 265, 161, 328, 288
-0.968859, 253, 17, 284, 144
-0.968889, 129, 65, 192, 320
-0.969137, 17, 49, 80, 176
-0.969141, 113, 97, 240, 160
-0.969217, 289, 129, 352, 192
-0.969224, 281, 265, 344, 328
-0.969707, 337, 49, 368, 176
-0.969771, 169, 89, 232, 152
-0.969809, 377, 1, 440, 128
-0.96986, 81, 81, 144, 144
-0.969887, 281, 97, 312, 160
-0.970002, 353, 89, 480, 152
-0.970177, 269, 65, 300, 192
-0.970216, 369, 241, 432, 304
-0.970223, 193, 33, 256, 288
-0.970224, 401, 17, 464, 144
-0.970277, 337, 73, 368, 136
-0.970439, 97, 209, 160, 336
-0.970455, 241, 17, 272, 144
-0.970508, 281, 33, 312, 160
-0.970532, 193, 153, 320, 216
-0.970563, 97, 121, 160, 184
-0.970614, 377, 193, 440, 256
-0.970637, 225, 73, 352, 136
-0.97066, 221, 1, 252, 128
-0.970834, 97, 265, 160, 328
-0.970843, 265, 177, 328, 240
-0.970896, 161, 49, 288, 112
-0.970922, 209, 9, 272, 72
-0.970967, 273, 105, 400, 168
-0.971027, 49, 129, 176, 192
-0.971036, 225, 1, 288, 256
-0.97106, 245, 33, 276, 96
-0.971129, 105, 33, 168, 160
-0.971183, 345, 129, 408, 256
-0.971194, 257, 17, 320, 80
-0.97125, 133, 65, 164, 192
-0.971273, 113, 153, 240, 216
-0.971313, 393, 89, 456, 152
-0.971472, 209, 33, 336, 96
-0.971669, 265, 201, 328, 264
-0.97173, 289, 33, 416, 96
-0.971906, 105, 129, 168, 256
-0.971945, 265, 57, 296, 120
-0.97201, 353, 241, 480, 304
-0.972061, 161, 257, 288, 320
-0.972186, 289, 97, 352, 341
-0.972364, 177, 177, 304, 240
-0.972392, 305, 281, 368, 341
-0.972615, 217, 265, 280, 328
-0.972619, 345, 161, 408, 224
-0.972658, 277, 113, 308, 240
-0.972677, 17, 161, 80, 224
-0.972687, 217, 49, 248, 112
-0.972692, 205, 161, 236, 288
-0.972793, 1, 57, 64, 120
-0.972811, 1, 193, 64, 320
-0.973059, 401, 65, 464, 320
-0.973134, 329, 41, 360, 104
-0.973184, 385, 65, 416, 192
-0.97322, 225, 145, 256, 272
-0.973254, 409, 145, 472, 272
-0.973443, 261, 153, 292, 216
-0.973465, 425, 257, 488, 320
-0.973515, 353, 281, 480, 341
-0.973593, 161, 129, 288, 192
-0.973622, 385, 81, 416, 144
-0.973656, 121, 257, 184, 320
-0.973936, 193, 225, 320, 288
-0.973937, 153, 33, 216, 288
-0.974113, 193, 105, 256, 168
-0.974416, 433, 33, 496, 160
-0.974666, 177, 73, 304, 136
-0.974688, 201, 113, 232, 240
-0.974732, 113, 65, 240, 128
-0.974784, 189, 161, 220, 288
-0.974821, 213, 153, 244, 216
-0.974856, 329, 273, 392, 336
-0.974857, 325, 33, 356, 160
-0.974937, 257, 33, 288, 96
-0.974959, 265, 177, 296, 304
-0.974968, 245, 193, 276, 320
-0.97497, 225, 153, 256, 216
-0.974978, 289, 161, 352, 288
-0.97506, 373, 81, 404, 208
-0.975067, 65, 57, 128, 120
-0.975077, 189, 113, 220, 240
-0.975175, 17, 185, 80, 248
-0.975184, 377, 145, 440, 208
-0.975268, 305, 57, 432, 120
-0.975273, 433, 225, 496, 288
-0.975286, 337, 209, 400, 272
-0.975333, 89, 33, 152, 288
-0.97535, 277, 177, 308, 240
-0.975397, 353, 105, 416, 168
-0.975404, 33, 49, 96, 112
-0.975571, 281, 137, 312, 200
-0.975573, 281, 233, 344, 296
-0.975574, 365, 33, 396, 160
-0.975585, 209, 185, 240, 248
-0.975608, 121, 121, 184, 184
-0.975663, 65, 57, 192, 120
-0.975665, 293, 105, 324, 168
-0.975671, 237, 65, 268, 128
-0.975869, 225, 281, 352, 341
-0.975891, 313, 1, 376, 256
-0.975955, 289, 129, 416, 192
-0.975988, 25, 65, 88, 320
-0.976096, 409, 121, 472, 184
-0.976198, 377, 169, 440, 232
-0.976218, 297, 1, 328, 128
-0.976253, 369, 217, 496, 280
-0.976269, 65, 105, 192, 168
-0.976308, 221, 193, 252, 320
-0.976349, 153, 65, 184, 192
-0.976479, 409, 209, 472, 272
-0.976516, 205, 209, 236, 336
-0.976568, 369, 137, 496, 200
-0.976605, 193, 97, 320, 160
-0.976607, 113, 265, 240, 328
-0.976733, 369, 217, 432, 280
-0.976756, 265, 129, 296, 256
-0.976853, 305, 281, 432, 341
-0.976865, 305, 81, 432, 144
-0.976897, 265, 97, 328, 341
-0.97698, 321, 1, 384, 64
-0.977014, 113, 121, 240, 184
-0.977054, 313, 65, 344, 128
-0.977075, 233, 33, 264, 96
-0.977081, 269, 33, 300, 96
-0.977149, 389, 57, 420, 120
-0.977322, 193, 161, 224, 224
-0.977493, 129, 233, 192, 296
-0.977507, 209, 129, 336, 192
-0.977564, 369, 161, 496, 224
-0.977583, 353, 281, 416, 341
-0.977616, 253, 57, 284, 120
-0.977656, 289, 217, 416, 280
-0.977684, 313, 17, 344, 144
-0.977702, 233, 1, 296, 64
-0.977741, 265, 177, 296, 240
-0.977745, 385, 33, 448, 96
-0.977838, 433, 241, 464, 304
-0.977872, 349, 73, 380, 136
-0.977877, 249, 161, 280, 224
-0.977906, 349, 25, 380, 88
-0.977932, 409, 49, 472, 112
-0.977971, 313, 209, 376, 336
-0.978021, 249, 1, 312, 341
-0.978054, 209, 49, 240, 176
-0.978098, 353, 49, 480, 112
-0.978116, 221, 225, 252, 288
-0.978131, 145, 201, 272, 264
-0.978137, 193, 201, 320, 264
-0.978316, 181, 49, 212, 176
-0.978428, 129, 17, 192, 144
-0.978429, 349, 17, 380, 144
-0.978528, 233, 65, 264, 192
-0.978543, 353, 193, 480, 256
-0.978592, 245, 193, 276, 256
-0.978594, 125, 113, 156, 176
-0.978681, 225, 9, 352, 72
-0.978725, 289, 113, 320, 240
-0.978913, 281, 41, 312, 104
-0.978918, 169, 201, 232, 264
-0.978925, 269, 1, 300, 128
-0.978948, 337, 97, 400, 341
-0.978955, 169, 241, 232, 304
-0.978955, 253, 129, 284, 256
-0.978994, 437, 209, 468, 336
-0.979009, 237, 137, 268, 200
-0.979021, 1, 209, 64, 272
-0.97905, 1, 1, 128, 128
-0.979142, 245, 233, 276, 296
-0.979214, 201, 57, 232, 120
-0.97924, 145, 145, 176, 208
-0.979274, 289, 193, 416, 256
-0.979293, 49, 65, 112, 320
-0.979306, 221, 25, 252, 88
-0.979342, 285, 73, 316, 136
-0.979344, 373, 89, 404, 152
-0.979345, 113, 177, 240, 240
-0.979414, 41, 273, 104, 336
-0.979445, 201, 1, 264, 341
-0.979492, 133, 65, 164, 128
-0.979495, 33, 273, 160, 336
-0.979573, 121, 81, 152, 208
-0.97962, 273, 249, 400, 312
-0.979648, 221, 49, 252, 176
-0.979657, 265, 121, 296, 184
-0.979722, 289, 161, 416, 224
-0.979733, 185, 33, 248, 96
-0.979738, 113, 145, 176, 208
-0.979793, 373, 121, 404, 184
-0.979862, 177, 1, 240, 341
-0.97998, 313, 33, 344, 96
-0.979997, 301, 73, 332, 136
-0.980046, 289, 169, 352, 232
-0.98005, 169, 145, 200, 272
-0.980073, 389, 17, 420, 144
-0.980106, 73, 105, 136, 168
-0.980147, 173, 265, 204, 328
-0.980169, 369, 25, 400, 88
-0.980217, 425, 281, 488, 341
-0.980235, 41, 73, 104, 136
-0.980242, 385, 273, 448, 336
-0.980301, 229, 177, 260, 240
-0.980304, 69, 49, 100, 176
-0.980315, 369, 113, 496, 176
-0.980399, 337, 185, 400, 248
-0.980418, 293, 33, 324, 96
-0.980442, 325, 73, 356, 136
-0.980489, 345, 233, 408, 296
-0.980582, 145, 129, 176, 256
-0.980625, 301, 65, 332, 192
-0.9807, 297, 1, 328, 64
-0.98071, 225, 1, 288, 341
-0.980721, 41, 137, 72, 200
-0.980806, 357, 97, 388, 160
-0.980832, 437, 217, 468, 280
-0.980845, 241, 153, 368, 216
-0.980973, 149, 265, 180, 328
-0.980974, 1, 65, 64, 320
-0.98098, 337, 25, 464, 88
-0.980981, 349, 49, 380, 112
-0.981089, 361, 25, 424, 88
-0.981137, 237, 113, 268, 240
-0.981142, 361, 57, 392, 120
-0.981193, 157, 65, 188, 128
-0.981221, 61, 113, 92, 240
-0.981232, 169, 97, 200, 224
-0.981271, 385, 121, 448, 184
-0.981286, 185, 89, 216, 152
-0.98133, 65, 81, 192, 144
-0.981368, 153, 1, 216, 128
-0.981368, 385, 1, 448, 341
-0.981375, 33, 145, 64, 272
-0.981406, 177, 65, 208, 128
-0.981424, 133, 129, 164, 256
-0.981438, 425, 73, 488, 136
-0.981447, 433, 201, 496, 264
-0.981525, 233, 209, 264, 336
-0.981604, 145, 49, 208, 112
-0.981622, 205, 249, 236, 312
-0.981631, 285, 193, 316, 320
-0.981755, 181, 137, 212, 200
-0.981829, 41, 209, 104, 336
-0.981834, 277, 257, 308, 320
-0.981872, 129, 225, 256, 288
-0.981949, 145, 1, 208, 341
-0.981949, 309, 281, 340, 341
-0.981954, 417, 225, 448, 288
-0.982, 121, 49, 184, 112
-0.982026, 105, 81, 168, 144
-0.982039, 17, 81, 144, 144
-0.98207, 337, 1, 400, 341
-0.982074, 337, 97, 368, 160
-0.982094, 225, 201, 256, 264
-0.982208, 265, 81, 296, 144
-0.982221, 209, 257, 336, 320
-0.982234, 413, 209, 444, 336
-0.98224, 249, 65, 280, 192
-0.982259, 377, 17, 408, 144
-0.982276, 409, 169, 472, 232
-0.982282, 1, 145, 64, 272
-0.982289, 241, 201, 368, 264
-0.982299, 205, 121, 236, 184
-0.982341, 41, 241, 104, 304
-0.98242, 325, 81, 356, 208
-0.982422, 289, 1, 352, 341
-0.982422, 33, 1, 96, 341
-0.982436, 373, 57, 404, 120
-0.98244, 257, 217, 288, 280
-0.982504, 337, 1, 368, 128
-0.982625, 161, 25, 288, 88
-0.982657, 1, 41, 128, 104
-0.982697, 249, 281, 312, 341
-0.982903, 441, 97, 472, 224
-0.982903, 9, 33, 72, 96
-0.983005, 189, 57, 220, 120
-0.983077, 17, 137, 80, 200
-0.983084, 205, 217, 236, 280
-0.983208, 429, 81, 460, 208
-0.983209, 249, 129, 280, 192
-0.983241, 289, 193, 352, 256
-0.983311, 177, 161, 208, 224
-0.983327, 189, 257, 220, 320
-0.98338, 65, 129, 128, 192
-0.98345, 161, 281, 192, 341
-0.983528, 93, 57, 124, 120
-0.983557, 81, 241, 208, 304
-0.983567, 109, 49, 140, 176
-0.98358, 409, 33, 440, 160
-0.983582, 193, 121, 224, 184
-0.983602, 73, 129, 136, 256
-0.983623, 113, 41, 240, 104
-0.98364, 193, 209, 224, 336
-0.983648, 93, 49, 124, 176
-0.983734, 353, 81, 384, 208
-0.983746, 213, 113, 244, 240
-0.983777, 57, 129, 88, 192
-0.983787, 25, 97, 88, 224
-0.983795, 293, 249, 324, 312
-0.983828, 305, 97, 336, 160
-0.983854, 369, 281, 400, 341
-0.983887, 397, 65, 428, 192
-0.983922, 409, 1, 472, 341
-0.983951, 33, 217, 160, 280
-0.983988, 313, 1, 344, 64
-0.98402, 425, 97, 488, 341
-0.984036, 157, 145, 188, 208
-0.984079, 1, 249, 64, 312
-0.984103, 205, 81, 236, 144
-0.984136, 49, 1, 112, 128
-0.984202, 81, 1, 144, 341
-0.984256, 241, 225, 368, 288
-0.984305, 225, 177, 352, 240
-0.984341, 273, 9, 400, 72
-0.984381, 237, 9, 268, 72
-0.984419, 233, 225, 264, 288
-0.984482, 381, 193, 412, 320
-0.984539, 217, 73, 248, 136
-0.98455, 417, 81, 448, 208
-0.984564, 145, 73, 176, 136
-0.984638, 97, 241, 160, 304
-0.984651, 133, 89, 164, 152
-0.984715, 129, 185, 192, 248
-0.984771, 273, 201, 304, 264
-0.98479, 229, 249, 260, 312
-0.984825, 197, 49, 228, 176
-0.984936, 49, 49, 80, 176
-0.984948, 113, 81, 144, 144
-0.984952, 325, 97, 356, 160
-0.984963, 257, 9, 288, 72
-0.984997, 417, 145, 480, 208
-0.985002, 1, 1, 64, 341
-0.985031, 209, 273, 240, 336
-0.985128, 217, 113, 248, 176
-0.985136, 381, 241, 412, 304
-0.985145, 73, 113, 104, 240
-0.98522, 413, 89, 444, 152
-0.9853, 169, 129, 200, 192
-0.985338, 433, 129, 496, 256
-0.985509, 181, 209, 212, 336
-0.985602, 453, 193, 484, 320
-0.985645, 17, 249, 144, 312
-0.98568, 165, 49, 196, 176
-0.985681, 121, 57, 152, 120
-0.985752, 125, 265, 156, 328
-0.985759, 121, 1, 184, 341
-0.985943, 425, 89, 456, 152
-0.985945, 77, 121, 108, 184
-0.986008, 41, 217, 104, 280
-0.986078, 1, 57, 32, 120
-0.986082, 1, 169, 128, 232
-0.986116, 57, 1, 120, 341
-0.986197, 313, 97, 376, 341
-0.9862, 389, 145, 420, 272
-0.986227, 161, 281, 288, 341
-0.986345, 333, 1, 364, 64
-0.986366, 157, 113, 188, 240
-0.986388, 397, 81, 428, 144
-0.986392, 145, 209, 176, 336
-0.986452, 321, 249, 384, 312
-0.986496, 381, 217, 412, 280
-0.98653, 273, 9, 304, 72
-0.986555, 301, 113, 332, 240
-0.986556, 193, 185, 224, 248
-0.986561, 417, 97, 480, 160
-0.986634, 333, 281, 364, 341
-0.986666, 265, 257, 296, 320
-0.986819, 157, 121, 188, 184
-0.986824, 425, 209, 456, 336
-0.986848, 193, 225, 224, 288
-0.986954, 313, 121, 376, 184
-0.98697, 429, 49, 460, 112
-0.987031, 45, 129, 76, 256
-0.98706, 1, 129, 128, 192
-0.987101, 301, 129, 332, 192
-0.987136, 313, 129, 376, 256
-0.987183, 433, 81, 496, 208
-0.987211, 409, 17, 472, 80
-0.987219, 433, 161, 464, 288
-0.98723, 81, 65, 112, 192
-0.98728, 313, 1, 376, 341
-0.987333, 453, 209, 484, 272
-0.987445, 77, 57, 108, 120
-0.987469, 385, 9, 448, 72
-0.987532, 105, 49, 136, 112
-0.987565, 437, 105, 468, 168
-0.987601, 369, 209, 400, 336
-0.987819, 173, 97, 204, 160
-0.987856, 13, 57, 44, 120
-0.98788, 425, 33, 456, 160
-0.987914, 1, 137, 256, 200
-0.987981, 437, 73, 468, 136
-0.988013, 357, 281, 388, 341
-0.988087, 29, 153, 60, 216
-0.988156, 37, 49, 68, 112
-0.988178, 233, 69, 296, 100
-0.988258, 89, 33, 152, 96
-0.988312, 145, 113, 176, 176
-0.988324, 401, 57, 432, 120
-0.988427, 133, 137, 164, 200
-0.988451, 97, 201, 224, 264
-0.988483, 321, 97, 384, 128
-0.988513, 273, 225, 304, 288
-0.988538, 225, 1, 256, 64
-0.988616, 297, 193, 328, 320
-0.988633, 441, 49, 472, 176
-0.988768, 433, 49, 496, 112
-0.988782, 289, 85, 352, 116
-0.98879, 65, 153, 192, 216
-0.988821, 157, 209, 188, 336
-0.988877, 313, 65, 344, 192
-0.988927, 225, 149, 288, 180
-0.988984, 289, 109, 352, 140
-0.988995, 45, 193, 76, 320
-0.989023, 17, 105, 144, 168
-0.989096, 361, 1, 424, 341
-0.989112, 201, 177, 264, 208
-0.989164, 257, 153, 320, 184
-0.989225, 169, 193, 200, 320
-0.989226, 369, 85, 432, 116
-0.989228, 273, 73, 336, 104
-0.989231, 297, 65, 360, 96
-0.989233, 337, 77, 400, 108
-0.989243, 257, 129, 500, 192
-0.989289, 137, 149, 200, 180
-0.98929, 233, 81, 296, 112
-0.989383, 201, 157, 264, 188
-0.989398, 281, 97, 344, 128
-0.989414, 193, 41, 448, 104
-0.989435, 225, 241, 480, 304
-0.989445, 225, 173, 288, 204
-0.989452, 193, 81, 256, 112
-0.989467, 161, 265, 224, 296
-0.989516, 233, 137, 296, 168
-0.989544, 217, 29, 280, 60
-0.989544, 313, 309, 376, 340
-0.989566, 193, 253, 256, 284
-0.989585, 241, 185, 304, 216
-0.9896, 201, 57, 264, 88
-0.989728, 1, 61, 64, 92
-0.989741, 313, 77, 376, 108
-0.989753, 321, 109, 384, 140
-0.989758, 1, 49, 500, 112
-0.989804, 337, 33, 400, 64
-0.989806, 217, 17, 280, 48
-0.989807, 249, 25, 312, 56
-0.989812, 281, 121, 344, 152
-0.989828, 153, 93, 216, 124
-0.989841, 49, 77, 112, 108
-0.989888, 25, 209, 56, 336
-0.989936, 233, 41, 296, 72
-0.989955, 129, 73, 192, 104
-0.989955, 257, 97, 320, 128
-0.989978, 289, 37, 352, 68
-0.990031, 169, 65, 232, 96
-0.990046, 97, 69, 160, 100
-0.990058, 257, 61, 320, 92
-0.990064, 257, 125, 320, 156
-0.990088, 265, 45, 328, 76
-0.990088, 65, 177, 192, 240
-0.990109, 281, 289, 344, 320
-0.990154, 225, 161, 288, 192
-0.990157, 193, 241, 256, 272
-0.990172, 193, 161, 448, 224
-0.99019, 29, 49, 60, 176
-0.990192, 209, 69, 272, 100
-0.990219, 421, 161, 452, 288
-0.990231, 201, 189, 264, 220
-0.990236, 345, 89, 408, 120
-0.990238, 193, 93, 256, 124
-0.990246, 265, 141, 328, 172
-0.99025, 345, 65, 408, 96
-0.990264, 373, 129, 404, 256
-0.990265, 257, 85, 320, 116
-0.990275, 345, 45, 408, 76
-0.990281, 17, 193, 144, 256
-0.990301, 117, 177, 148, 304
-0.99031, 409, 229, 472, 260
-0.990318, 9, 1, 72, 128
-0.990328, 81, 117, 144, 148
-0.990335, 257, 97, 500, 160
-0.99034, 249, 221, 312, 252
-0.990343, 217, 209, 280, 240
-0.990348, 257, 193, 500, 256
-0.99036, 233, 245, 296, 276
-0.990361, 33, 61, 96, 92
-0.990378, 233, 57, 296, 88
-0.990412, 89, 89, 152, 120
-0.990421, 121, 273, 184, 304
-0.990433, 241, 197, 304, 228
-0.99044, 257, 173, 320, 204
-0.990441, 337, 1, 464, 64
-0.990443, 185, 141, 248, 172
-0.990451, 193, 229, 256, 260
-0.990459, 129, 105, 384, 168
-0.990487, 161, 157, 224, 188
-0.990489, 129, 137, 384, 200
-0.990493, 129, 85, 192, 116
-0.990512, 337, 121, 400, 152
-0.990517, 121, 301, 184, 332
-0.990556, 369, 221, 432, 252
-0.990558, 161, 289, 224, 320
-0.990561, 241, 233, 304, 264
-0.990593, 265, 109, 328, 140
-0.990597, 105, 137, 168, 168
-0.990607, 321, 285, 384, 316
-0.990617, 65, 257, 320, 320
-0.990642, 193, 105, 256, 136
-0.990651, 161, 105, 224, 136
-0.99066, 161, 201, 416, 264
-0.990665, 177, 169, 240, 200
-0.990666, 121, 109, 184, 140
-0.990679, 121, 285, 184, 316
-0.99068, 97, 161, 352, 224
-0.990688, 313, 49, 376, 80
-0.9907, 401, 241, 464, 272
-0.990709, 17, 161, 48, 288
-0.990729, 249, 261, 312, 292
-0.990751, 409, 45, 472, 76
-0.990784, 209, 45, 272, 76
-0.99079, 129, 65, 384, 128
-0.990799, 385, 37, 448, 68
-0.990802, 153, 133, 216, 164
-0.990868, 193, 125, 256, 156
-0.990878, 341, 97, 372, 224
-0.990886, 225, 109, 288, 140
-0.990887, 377, 237, 440, 268
-0.990891, 49, 133, 112, 164
-0.990911, 217, 269, 280, 300
-0.990952, 249, 209, 312, 240
-0.99096, 289, 133, 352, 164
-0.990963, 273, 257, 336, 288
-0.990987, 25, 73, 88, 104
-0.991011, 345, 141, 408, 172
-0.991019, 241, 273, 304, 304
-0.991029, 1, 161, 256, 224
-0.99103, 217, 225, 280, 256
-0.991045, 241, 5, 304, 36
-0.991095, 73, 73, 136, 104
-0.991111, 345, 305, 408, 336
-0.99112, 233, 125, 296, 156
-0.991158, 265, 185, 328, 216
-0.991162, 17, 197, 80, 228
-0.991173, 121, 33, 152, 160
-0.991174, 453, 145, 484, 272
-0.991196, 33, 57, 288, 120
-0.991203, 345, 165, 408, 196
-0.991205, 305, 1, 368, 32
-0.991212, 177, 181, 240, 212
-0.991225, 233, 97, 296, 128
-0.991228, 377, 53, 440, 84
-0.991249, 321, 297, 384, 328
-0.991269, 313, 37, 376, 68
-0.991271, 121, 261, 184, 292
-0.991298, 193, 201, 256, 232
-0.991304, 385, 129, 448, 160
-0.991315, 113, 17, 240, 80
-0.991323, 353, 21, 416, 52
-0.99133, 121, 121, 184, 152
-0.991373, 393, 89, 456, 120
-0.991395, 377, 197, 440, 228
-0.991403, 121, 129, 152, 256
-0.991409, 345, 177, 408, 208
-0.991419, 25, 157, 88, 188
-0.991424, 377, 73, 440, 104
-0.991428, 169, 253, 232, 284
-0.991428, 281, 273, 344, 304
-0.991431, 1, 73, 64, 104
-0.99144, 385, 153, 448, 184
-0.991442, 345, 109, 408, 140
-0.991445, 425, 249, 488, 280
-0.99145, 265, 197, 328, 228
-0.991596, 49, 33, 176, 96
-0.991601, 49, 161, 112, 288
-0.991688, 425, 1, 488, 256
-0.991698, 433, 1, 496, 341
-0.991843, 453, 49, 484, 176
-0.991903, 133, 209, 164, 336
-0.992004, 257, 73, 500, 136
-0.992018, 177, 1, 304, 64
-0.992138, 337, 73, 368, 104
-0.992147, 313, 209, 344, 336
-0.992161, 289, 97, 320, 128
-0.992168, 17, 49, 48, 176
-0.992238, 225, 281, 480, 341
-0.99228, 337, 85, 368, 116
-0.992289, 73, 209, 136, 336
-0.992293, 241, 69, 272, 100
-0.992307, 385, 85, 416, 116
-0.992316, 97, 233, 352, 296
-0.992318, 261, 69, 292, 100
-0.992324, 109, 113, 140, 240
-0.992348, 1, 49, 32, 176
-0.992371, 225, 149, 256, 180
-0.992403, 181, 93, 212, 124
-0.992407, 1, 225, 256, 288
-0.99242, 269, 177, 300, 208
-0.992427, 1, 281, 256, 341
-0.992482, 273, 141, 304, 172
-0.992506, 145, 149, 176, 180
-0.992508, 281, 69, 312, 100
-0.992519, 293, 109, 324, 140
-0.992521, 269, 49, 300, 80
-0.99254, 165, 265, 196, 296
-0.992545, 253, 161, 284, 192
-0.992545, 225, 17, 256, 48
-0.99256, 281, 177, 312, 208
-0.992561, 313, 61, 344, 92
-0.992562, 225, 33, 256, 64
-0.992563, 209, 177, 240, 208
-0.992566, 329, 305, 360, 336
-0.992566, 361, 109, 392, 140
-0.992578, 373, 93, 404, 124
-0.992589, 305, 101, 336, 132
-0.992589, 205, 157, 236, 188
-0.992603, 201, 61, 232, 92
-0.992617, 189, 165, 220, 196
-0.992633, 353, 25, 384, 56
-0.992633, 217, 69, 248, 100
-0.992635, 241, 29, 272, 60
-0.992641, 313, 289, 344, 320
-0.992643, 9, 69, 40, 100
-0.992649, 281, 157, 312, 188
-0.992654, 217, 57, 248, 88
-0.992661, 433, 221, 464, 252
-0.992664, 225, 225, 256, 256
-0.992666, 129, 69, 160, 100
-0.992668, 337, 97, 368, 128
-0.99267, 265, 37, 296, 68
-0.99267, 129, 133, 160, 164
-0.992671, 281, 109, 312, 140
-0.992673, 349, 309, 380, 340
-0.992673, 253, 25, 284, 56
-0.992678, 417, 229, 448, 260
-0.99268, 345, 37, 376, 68
-0.992682, 129, 109, 160, 140
-0.992687, 21, 69, 52, 100
-0.992692, 73, 73, 104, 104
-0.992704, 149, 281, 180, 312
-0.992705, 265, 81, 296, 112
-0.992706, 325, 73, 356, 104
-0.992711, 161, 301, 192, 332
-0.992724, 221, 173, 252, 204
-0.992733, 357, 85, 388, 116
-0.992737, 277, 189, 308, 220
-0.992737, 201, 81, 232, 112
-0.99274, 277, 129, 308, 160
-0.992743, 233, 181, 264, 212
-0.992751, 433, 233, 464, 264
-0.992752, 233, 169, 264, 200
-0.992755, 301, 85, 332, 116
-0.992762, 209, 193, 240, 224
-0.992769, 113, 89, 144, 120
-0.99277, 253, 177, 284, 208
-0.992772, 221, 237, 252, 268
-0.992777, 61, 69, 92, 100
-0.992778, 241, 241, 272, 272
-0.992787, 357, 209, 388, 336
-0.992791, 281, 85, 312, 116
-0.992796, 433, 249, 464, 280
-0.992799, 233, 253, 264, 284
-0.992803, 349, 73, 380, 104
-0.992804, 49, 69, 80, 100
-0.992807, 193, 17, 448, 80
-0.992813, 333, 61, 364, 92
-0.992814, 373, 45, 404, 76
-0.992814, 37, 69, 68, 100
-0.992819, 357, 97, 388, 128
-0.992822, 237, 17, 268, 48
-0.992824, 437, 1, 468, 128
-0.992824, 249, 217, 280, 248
-0.992827, 329, 45, 360, 76
-0.992828, 317, 89, 348, 120
-0.992831, 285, 141, 316, 172
-0.992837, 253, 37, 284, 68
-0.992839, 205, 285, 236, 316
-0.992841, 269, 165, 300, 196
-0.992845, 381, 73, 412, 104
-0.992848, 221, 161, 252, 192
-0.99285, 201, 249, 232, 280
-0.992854, 1, 57, 32, 88
-0.99286, 197, 101, 228, 132
-0.992862, 325, 101, 356, 132
-0.992863, 69, 125, 100, 156
-0.992865, 261, 145, 292, 176
-0.99287, 253, 201, 284, 232
-0.992871, 349, 61, 380, 92
-0.992878, 53, 137, 84, 168
-0.99288, 365, 33, 396, 64
-0.992881, 149, 73, 180, 104
-0.992886, 189, 257, 220, 288
-0.992898, 289, 125, 320, 156
-0.992903, 273, 201, 304, 232
-0.992923, 17, 57, 48, 88
-0.992923, 281, 41, 312, 72
-0.992926, 397, 85, 428, 116
-0.992927, 257, 217, 500, 280
-0.992929, 217, 117, 248, 148
-0.99293, 277, 97, 308, 128
-0.992933, 177, 153, 304, 184
-0.992933, 93, 89, 124, 120
-0.992936, 237, 145, 268, 176
-0.992937, 453, 213, 484, 244
-0.992939, 85, 77, 116, 108
-0.99294, 157, 149, 188, 180
-0.992941, 313, 73, 344, 104
-0.992944, 269, 269, 300, 300
-0.992944, 201, 1, 232, 128
-0.992948, 145, 269, 176, 300
-0.99295, 313, 1, 344, 32
-0.99295, 265, 189, 296, 220
-0.992955, 237, 81, 268, 112
-0.992957, 301, 1, 332, 32
-0.992958, 65, 193, 320, 256
-0.992959, 173, 145, 204, 176
-0.99296, 313, 113, 344, 144
-0.992964, 41, 141, 72, 172
-0.992972, 253, 129, 284, 160
-0.992973, 173, 157, 204, 188
-0.992977, 201, 117, 232, 148
-0.992977, 89, 65, 120, 96
-0.992977, 205, 217, 236, 248
-0.992978, 257, 57, 288, 88
-0.992979, 277, 29, 308, 60
-0.992984, 369, 121, 400, 152
-0.992984, 333, 209, 364, 336
-0.992984, 229, 193, 260, 224
-0.993013, 129, 281, 384, 341
-0.993061, 161, 61, 288, 92
-0.993087, 273, 105, 400, 136
-0.993125, 349, 73, 364, 136
-0.993154, 145, 97, 272, 128
-0.993224, 1, 153, 500, 216
-0.993261, 97, 33, 352, 96
-0.993328, 289, 65, 416, 96
-0.993364, 133, 17, 164, 144
-0.993486, 113, 113, 240, 144
-0.99353, 49, 129, 176, 160
-0.993556, 225, 77, 352, 108
-0.99361, 361, 161, 392, 288
-0.993674, 177, 81, 304, 112
-0.993733, 337, 85, 464, 116
-0.993762, 353, 101, 480, 132
-0.993778, 225, 153, 240, 216
-0.993784, 289, 93, 416, 124
-0.993786, 193, 97, 320, 128
-0.993791, 381, 89, 396, 152
-0.993805, 57, 161, 88, 288
-0.993875, 1, 257, 500, 320
-0.993892, 267, 49, 282, 112
-0.993892, 177, 177, 304, 208
-0.993904, 193, 189, 320, 220
-0.993991, 289, 81, 416, 112
-0.993999, 275, 129, 290, 192
-0.994002, 353, 213, 480, 244
-0.994012, 273, 41, 288, 104
-0.994014, 261, 41, 276, 104
-0.994036, 301, 97, 316, 160
-0.994038, 1, 129, 500, 192
-0.994078, 289, 117, 416, 148
-0.994089, 153, 17, 184, 144
-0.994092, 129, 289, 256, 320
-0.994131, 255, 33, 270, 96
-0.994148, 207, 57, 222, 120
-0.994164, 1, 217, 500, 280
-0.994218, 339, 89, 354, 152
-0.994218, 241, 93, 368, 124
-0.994222, 321, 301, 448, 332
-0.994254, 1, 33, 256, 96
-0.994299, 133, 97, 148, 160
-0.994347, 97, 93, 224, 124
-0.994352, 193, 109, 320, 140
-0.994387, 177, 165, 304, 196
-0.994408, 137, 65, 152, 128
-0.994436, 193, 241, 320, 272
-0.994443, 389, 81, 404, 144
-0.994446, 339, 49, 354, 112
-0.994466, 129, 149, 256, 180
-0.994471, 279, 49, 294, 112
-0.994471, 269, 153, 284, 216
-0.994475, 33, 113, 288, 176
-0.994479, 389, 57, 404, 120
-0.994506, 225, 41, 352, 72
-0.994542, 289, 213, 416, 244
-0.994546, 321, 289, 448, 320
-0.994587, 81, 69, 208, 100
-0.994599, 289, 45, 416, 76
-0.994617, 239, 65, 254, 128
-0.994653, 445, 225, 460, 288
-0.994669, 241, 65, 368, 96
-0.994694, 247, 233, 262, 296
-0.994716, 33, 61, 160, 92
-0.994733, 209, 221, 336, 252
-0.994763, 1, 73, 500, 136
-0.994766, 201, 161, 216, 224
-0.994772, 355, 25, 370, 88
-0.994776, 321, 33, 448, 64
-0.994781, 369, 53, 496, 84
-0.994799, 313, 113, 344, 240
-0.99481, 161, 261, 288, 292
-0.994815, 281, 161, 296, 224
-0.994819, 195, 129, 210, 192
-0.994821, 295, 97, 310, 160
-0.994828, 129, 277, 256, 308
-0.994834, 249, 25, 264, 88
-0.994852, 209, 53, 336, 84
-0.994863, 285, 97, 300, 160
-0.99488, 1, 73, 128, 104
-0.9949, 129, 133, 256, 164
-0.99492, 353, 241, 480, 272
-0.994937, 113, 185, 240, 216
-0.994941, 373, 97, 388, 160
-0.994948, 221, 177, 236, 240
-0.994971, 353, 117, 480, 148
-0.994976, 233, 41, 248, 104
-0.994987, 1, 105, 500, 168
-0.994998, 289, 129, 416, 160
-0.995001, 451, 217, 466, 280
-0.995023, 353, 225, 480, 256
-0.995033, 193, 201, 320, 232
-0.995046, 223, 41, 238, 104
-0.995064, 289, 225, 416, 256
-0.995093, 231, 145, 246, 208
-0.995103, 209, 141, 336, 172
-0.995104, 193, 125, 320, 156
-0.995127, 1, 185, 500, 248
-0.995129, 239, 145, 254, 208
-0.995134, 259, 161, 274, 224
-0.995145, 81, 81, 208, 112
-0.995145, 387, 129, 402, 192
-0.995146, 369, 157, 496, 188
-0.995152, 285, 1, 316, 256
-0.995156, 333, 73, 348, 136
-0.995166, 305, 1, 320, 64
-0.995168, 369, 129, 496, 160
-0.995174, 271, 177, 286, 240
-0.995183, 215, 193, 230, 256
-0.995184, 269, 129, 284, 192
-0.99519, 165, 281, 180, 341
-0.995201, 241, 121, 368, 152
-0.995216, 279, 81, 294, 144
-0.995224, 369, 173, 496, 204
-0.995226, 281, 137, 296, 200
-0.995235, 81, 277, 208, 308
-0.995262, 291, 41, 306, 104
-0.995264, 345, 209, 376, 336
-0.995276, 289, 161, 416, 192
-0.995277, 289, 185, 416, 216
-0.995286, 273, 65, 288, 128
-0.995286, 301, 73, 316, 136
-0.995296, 243, 41, 258, 104
-0.995297, 395, 57, 410, 120
-0.995298, 353, 277, 480, 308
-0.995301, 311, 65, 326, 128
-0.995307, 133, 129, 148, 192
-0.995307, 213, 57, 228, 120
-0.99531, 97, 265, 224, 296
-0.995318, 189, 1, 220, 128
-0.995334, 229, 185, 244, 248
-0.99535, 195, 57, 210, 120
-0.995353, 113, 165, 240, 196
-0.995359, 369, 141, 496, 172
-0.99537, 127, 113, 142, 176
-0.99537, 237, 17, 252, 80
-0.995373, 351, 49, 366, 112
-0.995389, 319, 33, 334, 96
-0.995399, 201, 65, 216, 128
-0.995413, 293, 145, 308, 208
-0.995429, 345, 49, 360, 112
-0.995438, 267, 17, 282, 80
-0.995439, 289, 197, 416, 228
-0.995442, 65, 117, 192, 148
-0.995446, 1, 281, 500, 341
-0.99545, 223, 217, 238, 280
-0.99545, 209, 277, 336, 308
-0.995451, 85, 113, 116, 240
-0.995519, 65, 105, 192, 136
-0.995524, 209, 25, 336, 56
-0.995528, 213, 81, 228, 144
-0.995528, 353, 253, 480, 284
-0.995541, 49, 141, 176, 172
-0.995545, 259, 65, 274, 128
-0.995547, 159, 145, 174, 208
-0.995549, 33, 89, 288, 152
-0.995554, 383, 25, 398, 88
-0.995573, 279, 105, 294, 168
-0.995584, 153, 145, 168, 208
-0.995595, 265, 177, 280, 240
-0.995627, 81, 297, 208, 328
-0.995629, 275, 153, 290, 216
-0.995646, 241, 289, 368, 320
-0.995647, 81, 153, 208, 184
-0.99565, 55, 137, 70, 200
-0.99565, 325, 281, 340, 341
-0.995677, 161, 49, 288, 80
-0.995702, 143, 113, 158, 176
-0.995708, 157, 161, 188, 288
-0.995711, 265, 1, 296, 256
-0.995725, 263, 129, 278, 192
-0.995745, 195, 161, 210, 224
-0.995748, 237, 1, 268, 256
-0.99575, 307, 105, 322, 168
-0.995752, 429, 225, 444, 288
-0.995772, 171, 265, 186, 328
-0.995774, 287, 137, 302, 200
-0.99578, 177, 265, 192, 328
-0.995784, 293, 121, 308, 184
-0.99579, 129, 73, 256, 104
-0.995798, 437, 241, 452, 304
-0.995804, 337, 73, 464, 104
-0.995811, 241, 217, 256, 280
-0.995817, 33, 85, 160, 116
-0.995822, 309, 33, 324, 96
-0.995824, 327, 33, 342, 96
-0.995829, 97, 9, 352, 72
-0.99583, 145, 229, 272, 260
-0.995845, 199, 89, 214, 152
-0.995845, 255, 201, 270, 264
-0.995849, 221, 1, 252, 256
-0.995852, 235, 225, 250, 288
-0.995852, 1, 49, 16, 112
-0.995853, 273, 29, 400, 60
-0.995876, 251, 65, 266, 128
-0.995886, 189, 137, 204, 200
-0.995886, 209, 177, 224, 240
-0.995894, 273, 273, 400, 304
-0.995896, 345, 1, 376, 256
-0.995922, 219, 65, 234, 128
-0.995924, 401, 57, 416, 120
-0.995941, 205, 97, 220, 160
-0.995945, 161, 37, 288, 68
-0.995965, 353, 201, 480, 232
-0.995967, 235, 121, 250, 184
-0.995972, 289, 149, 416, 180
-0.995973, 245, 65, 260, 128
-0.995987, 97, 245, 224, 276
-0.996024, 363, 105, 378, 168
-0.996031, 371, 281, 386, 341
-0.996038, 17, 273, 144, 304
-0.996044, 437, 97, 468, 341
-0.996045, 327, 65, 342, 128
-0.996056, 291, 257, 306, 320
-0.996067, 369, 293, 496, 324
-0.996068, 409, 161, 440, 288
-0.996069, 257, 173, 384, 204
-0.996074, 229, 9, 244, 72
-0.996086, 145, 137, 160, 200
-0.996094, 145, 249, 272, 280
-0.996103, 295, 73, 310, 136
-0.996107, 353, 265, 480, 296
-0.996109, 213, 241, 228, 304
-0.99611, 225, 253, 352, 284
-0.996119, 47, 137, 62, 200
-0.996131, 273, 17, 288, 80
-0.996137, 189, 161, 204, 224
-0.996139, 429, 89, 444, 152
-0.996139, 225, 157, 352, 188
-0.996146, 165, 145, 180, 208
-0.996152, 457, 209, 472, 272
-0.996156, 167, 65, 182, 128
-0.996156, 333, 97, 348, 160
-0.996159, 63, 129, 78, 192
-0.996159, 369, 189, 496, 220
-0.996162, 143, 65, 158, 128
-0.996166, 363, 65, 378, 128
-0.996177, 249, 1, 280, 256
-0.996194, 229, 209, 244, 272
-0.996209, 285, 65, 300, 128
-0.996219, 289, 185, 304, 248
-0.996221, 241, 241, 256, 304
-0.996221, 247, 209, 262, 272
-0.996222, 129, 301, 256, 332
-0.996226, 81, 309, 208, 340
-0.996226, 301, 121, 316, 184
-0.996228, 389, 65, 420, 320
-0.996256, 269, 97, 300, 341
-0.996281, 247, 137, 262, 200
-0.996288, 289, 237, 416, 268
-0.996288, 245, 97, 276, 341
-0.996309, 127, 89, 142, 152
-0.996313, 81, 17, 112, 144
-0.996328, 153, 65, 168, 128
-0.996329, 23, 57, 38, 120
-0.996351, 257, 97, 288, 341
-0.996351, 283, 25, 298, 88
-0.996357, 37, 153, 52, 216
-0.996411, 229, 97, 260, 341
-0.996416, 281, 97, 312, 341
-0.996442, 241, 205, 368, 236
-0.996453, 153, 33, 184, 288
-0.996461, 17, 285, 144, 316
-0.996464, 37, 65, 68, 320
-0.996472, 1, 17, 128, 80
-0.996508, 225, 1, 352, 32
-0.996532, 297, 1, 328, 256
-0.996553, 209, 33, 240, 288
-0.996559, 273, 257, 400, 288
-0.996572, 369, 33, 496, 64
-0.996601, 33, 241, 160, 272
-0.996605, 297, 97, 328, 341
-0.996608, 109, 1, 140, 128
-0.99661, 141, 65, 172, 320
-0.99665, 113, 49, 240, 80
-0.996694, 329, 129, 360, 256
-0.996699, 333, 33, 364, 288
-0.996701, 113, 201, 240, 232
-0.996714, 29, 1, 60, 128
-0.996716, 273, 305, 400, 336
-0.996717, 317, 1, 348, 256
-0.996736, 125, 33, 156, 288
-0.996737, 33, 49, 160, 80
-0.996741, 33, 309, 160, 340
-0.996757, 369, 1, 400, 256
-0.996758, 351, 73, 366, 104
-0.99676, 17, 297, 144, 328
-0.996799, 369, 305, 496, 336
-0.99681, 145, 213, 272, 244
-0.996813, 225, 13, 352, 44
-0.996849, 425, 65, 456, 320
-0.996858, 241, 193, 368, 224
-0.996871, 1, 25, 500, 88
-0.996875, 17, 65, 48, 320
-0.996893, 173, 97, 204, 341
-0.9969, 209, 265, 336, 296
-0.996903, 33, 229, 160, 260
-0.996947, 353, 17, 480, 48
-0.996953, 17, 1, 48, 128
-0.996957, 397, 209, 428, 336
-0.996977, 283, 177, 298, 208
-0.997005, 97, 233, 224, 264
-0.997005, 33, 253, 160, 284
-0.997023, 449, 1, 480, 128
-0.997072, 271, 173, 286, 204
-0.997144, 267, 69, 282, 100
-0.997157, 261, 161, 276, 192
-0.997167, 241, 69, 256, 100
-0.997183, 295, 97, 310, 128
-0.997206, 341, 93, 356, 124
-0.997212, 385, 81, 400, 112
-0.99723, 185, 65, 216, 320
-0.997261, 305, 101, 320, 132
-0.997267, 145, 17, 272, 48
-0.997277, 207, 65, 222, 96
-0.997297, 245, 241, 260, 272
-0.997301, 447, 229, 462, 260
-0.997303, 273, 73, 288, 104
-0.997314, 1, 165, 128, 196
-0.997335, 275, 53, 290, 84
-0.997338, 201, 161, 216, 192
-0.997342, 241, 237, 368, 268
-0.997353, 275, 161, 290, 192
-0.997361, 405, 65, 436, 320
-0.997387, 13, 209, 44, 336
-0.997396, 281, 69, 296, 100
-0.997435, 173, 1, 204, 128
-0.997453, 67, 69, 82, 100
-0.99746, 17, 153, 144, 184
-0.997473, 229, 149, 244, 180
-0.997486, 199, 105, 214, 136
-0.997487, 371, 97, 386, 128
-0.997489, 223, 177, 238, 208
-0.997495, 49, 65, 80, 320
-0.997496, 321, 53, 336, 84
-0.997503, 293, 125, 308, 156
-0.997503, 287, 93, 302, 124
-0.997503, 365, 97, 396, 341
-0.997505, 27, 61, 42, 92
-0.997506, 1, 137, 128, 168
-0.99751, 297, 109, 312, 140
-0.997515, 237, 145, 252, 176
-0.997534, 93, 1, 124, 128
-0.997554, 269, 149, 284, 180
-0.997561, 199, 93, 214, 124
-0.997567, 261, 69, 276, 100
-0.997576, 267, 57, 282, 88
-0.997577, 281, 57, 296, 88
-0.997588, 169, 265, 184, 296
-0.997593, 77, 65, 108, 320
-0.997608, 377, 97, 408, 341
-0.997612, 33, 217, 160, 248
-0.997615, 275, 141, 290, 172
-0.997621, 449, 217, 464, 248
-0.997627, 381, 93, 396, 124
-0.997642, 7, 69, 22, 100
-0.997647, 141, 137, 156, 168
-0.997649, 351, 85, 366, 116
-0.997652, 341, 81, 356, 112
-0.997668, 1, 57, 16, 88
-0.997671, 253, 69, 268, 100
-0.997678, 133, 105, 148, 136
-0.99768, 209, 101, 224, 132
-0.997687, 249, 29, 264, 60
-0.997691, 303, 89, 318, 120
-0.997694, 13, 69, 28, 100
-0.997694, 97, 97, 128, 224
-0.997697, 293, 141, 308, 172
-0.997699, 127, 125, 142, 156
-0.997701, 275, 185, 290, 216
-0.997711, 1, 69, 16, 100
-0.997712, 237, 133, 252, 164
-0.997713, 253, 165, 268, 196
-0.997713, 275, 41, 290, 72
-0.997715, 33, 69, 48, 100
-0.997728, 169, 1, 200, 256
-0.997732, 255, 25, 270, 56
-0.997732, 303, 113, 318, 144
-0.997734, 355, 25, 370, 56
-0.997738, 393, 81, 408, 112
-0.997742, 61, 69, 76, 100
-0.997753, 355, 309, 370, 340
-0.997762, 5, 65, 36, 320
-0.997767, 245, 253, 260, 284
-0.997774, 83, 73, 98, 104
-0.997776, 61, 33, 92, 288
-0.997788, 197, 65, 228, 320
-0.99779, 453, 97, 484, 224
-0.997796, 89, 73, 104, 104
-0.997796, 283, 81, 298, 112
-0.997805, 273, 1, 400, 32
-0.997807, 89, 33, 120, 288
-0.997807, 351, 37, 366, 68
-0.997808, 189, 89, 204, 120
-0.997808, 231, 13, 246, 44
-0.997811, 21, 69, 36, 100
-0.997812, 317, 65, 332, 96
-0.99784, 227, 161, 242, 192
-0.997844, 77, 73, 92, 104
-0.997845, 153, 69, 168, 100
-0.997847, 223, 225, 238, 256
-0.99786, 21, 57, 36, 88
-0.997863, 213, 57, 228, 88
-0.997868, 127, 89, 142, 120
-0.997869, 441, 229, 456, 260
-0.99787, 427, 229, 442, 260
-0.997871, 213, 81, 228, 112
-0.997874, 1, 193, 128, 224
-0.99788, 239, 25, 254, 56
-0.997884, 97, 217, 224, 248
-0.997895, 243, 57, 258, 88
-0.997902, 233, 57, 248, 88
-0.997906, 1, 177, 128, 208
-0.99791, 153, 145, 168, 176
-0.997918, 7, 57, 22, 88
-0.997919, 377, 105, 392, 136
-0.997921, 265, 25, 280, 56
-0.997923, 251, 257, 266, 288
-0.997932, 37, 57, 52, 88
-0.997935, 313, 1, 328, 32
-0.997936, 49, 165, 176, 196
-0.997941, 47, 145, 62, 176
-0.997942, 399, 81, 414, 112
-0.997943, 327, 61, 342, 92
-0.99795, 159, 149, 174, 180
-0.997954, 181, 93, 196, 124
-0.997961, 69, 1, 100, 128
-0.997962, 73, 61, 88, 92
-0.997963, 17, 101, 144, 132
-0.997972, 289, 45, 304, 76
-0.997972, 455, 213, 470, 244
-0.997972, 331, 289, 346, 320
-0.997972, 393, 61, 408, 92
-0.997979, 303, 133, 318, 164
-0.997981, 247, 69, 262, 100
-0.997983, 219, 193, 234, 224
-0.99799, 139, 69, 154, 100
-0.997993, 49, 181, 176, 212
-0.997994, 239, 225, 254, 256
-0.997998, 49, 69, 64, 100
-0.997998, 297, 85, 312, 116
-0.998001, 17, 113, 144, 144
-0.998004, 335, 101, 350, 132
-0.998004, 167, 69, 182, 100
-0.998005, 325, 285, 340, 316
-0.998007, 305, 173, 432, 204
-0.998011, 293, 177, 308, 208
-0.998013, 381, 121, 396, 152
-0.998016, 239, 249, 254, 280
-0.998017, 41, 69, 56, 100
-0.998017, 105, 209, 136, 336
-0.998018, 367, 37, 382, 68
-0.998019, 57, 57, 72, 88
-0.998019, 57, 209, 88, 336
-0.998021, 361, 89, 376, 120
-0.998023, 281, 41, 296, 72
-0.998026, 13, 57, 28, 88
-0.998033, 265, 45, 280, 76
-0.99804, 277, 173, 292, 204
-0.998044, 281, 137, 296, 168
-0.998047, 283, 189, 298, 220
-0.998052, 59, 137, 74, 168
-0.998064, 227, 213, 242, 244
-0.998067, 219, 57, 234, 88
-0.998081, 205, 81, 220, 112
-0.998085, 55, 69, 70, 100
-0.998187, 105, 33, 136, 288
-0.998214, 357, 1, 388, 256
-0.998252, 1, 97, 64, 224
-0.998407, 449, 65, 480, 320
-0.998414, 233, 69, 296, 84
-0.998422, 125, 109, 156, 124
-0.998422, 245, 239, 276, 254
-0.998422, 277, 215, 308, 230
-0.998423, 381, 239, 412, 254
-0.998423, 393, 137, 424, 152
-0.998423, 261, 37, 292, 52
-0.998425, 201, 83, 232, 98
-0.998425, 233, 147, 264, 162
-0.998427, 81, 75, 112, 90
-0.998427, 273, 133, 304, 148
-0.998427, 281, 69, 312, 84
-0.998429, 281, 43, 312, 58
-0.998429, 193, 57, 224, 72
-0.998429, 189, 171, 220, 186
-0.99843, 257, 183, 288, 198
-0.99843, 265, 191, 296, 206
-0.998431, 273, 119, 304, 134
-0.998431, 337, 39, 368, 54
-0.998432, 125, 115, 156, 130
-0.998432, 153, 293, 184, 308
-0.998432, 373, 97, 404, 112
-0.998433, 301, 7, 332, 22
-0.998434, 73, 129, 104, 144
-0.998435, 421, 51, 452, 66
-0.998435, 189, 65, 220, 80
-0.998435, 133, 73, 164, 88
-0.998435, 349, 69, 380, 84
-0.998437, 433, 235, 464, 250
-0.998437, 301, 97, 332, 112
-0.998438, 373, 83, 404, 98
-0.998438, 437, 1, 468, 256
-0.998439, 265, 157, 296, 172
-0.998439, 201, 181, 264, 196
-0.998439, 349, 81, 380, 96
-0.99844, 189, 99, 220, 114
-0.99844, 225, 179, 256, 194
-0.99844, 225, 155, 256, 170
-0.998443, 357, 111, 388, 126
-0.998443, 53, 73, 84, 88
-0.998443, 209, 195, 240, 210
-0.998443, 349, 311, 380, 326
-0.998446, 437, 251, 468, 266
-0.998446, 225, 77, 288, 92
-0.998446, 125, 135, 156, 150
-0.998447, 269, 49, 300, 64
-0.998447, 233, 173, 264, 188
-0.998448, 73, 81, 104, 96
-0.998448, 329, 99, 392, 114
-0.998448, 209, 93, 240, 108
-0.998449, 369, 89, 432, 104
-0.998449, 289, 105, 352, 120
-0.998449, 201, 253, 232, 268
-0.998449, 253, 175, 284, 190
-0.99845, 325, 83, 356, 98
-0.99845, 217, 115, 248, 130
-0.99845, 317, 75, 348, 90
-0.99845, 421, 233, 452, 248
-0.998451, 121, 129, 152, 144
-0.998451, 261, 199, 292, 214
-0.998451, 225, 15, 256, 30
-0.998453, 285, 133, 316, 148
-0.998454, 161, 317, 192, 332
-0.998454, 309, 111, 340, 126
-0.998455, 269, 57, 300, 72
-0.998455, 237, 77, 268, 92
-0.998456, 357, 87, 388, 102
-0.998457, 233, 259, 264, 274
-0.998457, 353, 29, 384, 44
-0.998457, 137, 153, 200, 168
-0.998457, 297, 75, 360, 90
-0.998459, 281, 155, 312, 170
-0.99846, 213, 189, 244, 204
-0.99846, 281, 89, 312, 104
-0.998461, 313, 65, 344, 80
-0.998462, 321, 105, 384, 120
-0.998463, 41, 73, 72, 88
-0.998463, 161, 311, 192, 326
-0.998465, 289, 139, 320, 154
-0.998465, 145, 69, 176, 84
-0.998466, 257, 149, 320, 164
-0.998466, 281, 115, 344, 130
-0.998467, 217, 151, 280, 166
-0.99847, 209, 65, 240, 80
-0.99847, 277, 99, 308, 114
-0.99847, 241, 21, 272, 36
-0.99847, 329, 93, 392, 108
-0.998472, 433, 49, 464, 64
-0.998473, 225, 35, 256, 50
-0.998475, 205, 157, 236, 172
-0.99848, 257, 155, 320, 170
-0.998481, 337, 77, 400, 92
-0.998481, 337, 87, 400, 102
-0.998482, 357, 99, 388, 114
-0.998482, 261, 43, 292, 58
-0.998484, 313, 1, 344, 16
-0.998484, 269, 79, 300, 94
-0.998485, 233, 83, 296, 98
-0.998485, 349, 105, 380, 120
-0.998485, 201, 187, 264, 202
-0.998485, 157, 301, 188, 316
-0.998487, 69, 75, 100, 90
-0.998487, 449, 223, 480, 238
-0.998487, 257, 187, 320, 202
-0.998488, 281, 121, 344, 136
-0.998488, 245, 29, 276, 44
-0.998489, 29, 73, 60, 88
-0.998491, 265, 177, 296, 192
-0.998491, 245, 39, 276, 54
-0.998491, 9, 73, 40, 88
-0.998492, 329, 307, 360, 322
-0.998492, 433, 221, 464, 236
-0.998493, 225, 27, 256, 42
-0.998493, 381, 91, 412, 106
-0.998494, 245, 265, 276, 280
-0.998495, 213, 183, 244, 198
-0.998496, 217, 17, 280, 32
-0.998498, 33, 73, 96, 88
-0.9985, 217, 31, 280, 46
-0.9985, 305, 97, 368, 112
-0.9985, 243, 17, 258, 144
-0.998501, 281, 79, 312, 94
-0.998506, 321, 111, 384, 126
-0.998507, 233, 185, 264, 200
-0.998507, 269, 63, 300, 78
-0.998508, 257, 69, 320, 84
-0.998508, 289, 39, 352, 54
-0.99851, 241, 199, 304, 214
-0.998511, 277, 139, 308, 154
-0.998512, 161, 95, 224, 110
-0.998514, 277, 201, 308, 216
-0.998514, 313, 81, 376, 96
-0.998514, 185, 153, 248, 168
-0.998516, 253, 165, 284, 180
-0.998517, 221, 149, 252, 164
-0.998519, 281, 195, 312, 210
-0.998521, 165, 267, 196, 282
-0.998523, 193, 255, 256, 270
-0.998524, 217, 75, 248, 90
-0.998524, 201, 171, 264, 186
-0.998524, 193, 85, 256, 100
-0.998524, 265, 79, 328, 94
-0.998524, 249, 161, 312, 176
-0.998524, 433, 229, 464, 244
-0.998525, 397, 87, 428, 102
-0.998525, 81, 125, 144, 140
-0.998525, 337, 89, 368, 104
-0.998525, 217, 37, 280, 52
-0.998527, 225, 179, 288, 194
-0.998527, 313, 309, 376, 324
-0.998528, 217, 59, 280, 74
-0.998528, 313, 291, 344, 306
-0.998528, 121, 283, 184, 298
-0.998528, 193, 93, 256, 108
-0.99853, 309, 105, 340, 120
-0.99853, 185, 67, 248, 82
-0.998533, 265, 99, 328, 114
-0.998533, 213, 177, 244, 192
-0.998533, 193, 105, 256, 120
-0.998534, 269, 185, 300, 200
-0.998534, 289, 293, 352, 308
-0.998535, 233, 23, 296, 38
-0.998535, 257, 193, 320, 208
-0.998536, 217, 49, 280, 64
-0.998537, 305, 91, 368, 106
-0.998537, 189, 165, 220, 180
-0.998538, 329, 37, 392, 52
-0.998539, 225, 157, 288, 172
-0.998539, 337, 71, 400, 86
-0.99854, 293, 115, 324, 130
-0.99854, 257, 63, 320, 78
-0.998542, 193, 99, 256, 114
-0.998542, 345, 27, 408, 42
-0.998542, 225, 189, 288, 204
-0.998543, 49, 81, 112, 96
-0.998543, 321, 289, 384, 304
-0.998544, 265, 109, 328, 124
-0.998547, 387, 81, 402, 208
-0.998547, 233, 43, 296, 58
-0.998547, 161, 291, 224, 306
-0.998548, 249, 33, 312, 48
-0.998548, 153, 267, 216, 282
-0.998549, 345, 75, 376, 90
-0.99855, 121, 293, 184, 308
-0.99855, 9, 73, 72, 88
-0.998551, 241, 171, 304, 186
-0.998552, 201, 193, 264, 208
-0.998552, 277, 179, 308, 194
-0.998553, 337, 99, 368, 114
-0.998554, 409, 233, 472, 248
-0.998554, 321, 297, 384, 312
-0.998554, 257, 143, 320, 158
-0.998555, 297, 67, 360, 82
-0.998555, 121, 275, 184, 290
-0.998556, 225, 145, 288, 160
-0.998556, 249, 223, 312, 238
-0.998556, 145, 145, 208, 160
-0.998559, 337, 125, 400, 140
-0.998559, 409, 49, 472, 64
-0.99856, 257, 89, 320, 104
-0.99856, 233, 89, 296, 104
-0.998561, 281, 85, 344, 100
-0.998561, 281, 185, 312, 200
-0.998562, 241, 263, 304, 278
-0.998562, 369, 237, 432, 252
-0.998563, 257, 129, 320, 144
-0.998564, 385, 95, 448, 110
-0.998565, 209, 71, 272, 86
-0.998565, 249, 71, 280, 86
-0.998565, 225, 139, 288, 154
-0.998566, 57, 75, 120, 90
-0.998566, 193, 249, 256, 264
-0.998567, 353, 95, 416, 110
-0.998567, 281, 111, 312, 126
-0.998568, 345, 51, 408, 66
-0.998569, 153, 105, 216, 120
-0.998573, 177, 163, 240, 178
-0.998573, 121, 269, 184, 284
-0.998575, 89, 85, 152, 100
-0.998575, 257, 119, 320, 134
-0.998575, 401, 241, 464, 256
-0.998576, 137, 135, 200, 150
-0.998577, 237, 71, 268, 86
-0.998577, 257, 135, 320, 150
-0.998577, 181, 93, 212, 108
-0.998578, 321, 117, 384, 132
-0.998578, 313, 315, 376, 330
-0.998579, 289, 127, 352, 142
-0.998579, 321, 303, 384, 318
-0.998581, 149, 151, 180, 166
-0.998581, 81, 77, 144, 92
-0.998582, 305, 61, 368, 76
-0.998582, 233, 107, 296, 122
-0.998582, 49, 139, 112, 154
-0.998582, 233, 1, 248, 128
-0.998582, 281, 137, 344, 152
-0.998582, 161, 285, 224, 300
-0.998583, 161, 297, 224, 312
-0.998583, 193, 79, 256, 94
-0.998584, 193, 113, 256, 128
-0.998585, 89, 131, 152, 146
-0.998586, 153, 71, 216, 86
-0.998588, 233, 245, 296, 260
-0.998589, 369, 231, 432, 246
-0.998589, 297, 1, 360, 16
-0.998589, 129, 89, 192, 104
-0.998589, 249, 213, 312, 228
-0.99859, 169, 115, 232, 130
-0.998592, 265, 49, 328, 64
-0.998592, 385, 85, 416, 100
-0.998592, 193, 241, 256, 256
-0.998592, 281, 287, 344, 302
-0.998593, 249, 233, 312, 248
-0.998593, 193, 131, 256, 146
-0.998594, 305, 321, 368, 336
-0.998594, 361, 83, 424, 98
-0.998595, 241, 15, 304, 30
-0.998596, 121, 303, 184, 318
-0.9986, 273, 145, 304, 160
-0.998605, 289, 105, 320, 120
-0.998615, 289, 99, 320, 114
-0.998615, 269, 69, 300, 84
-0.998619, 347, 49, 362, 176
-0.998633, 299, 1, 314, 128
-0.998635, 333, 71, 364, 86
-0.998658, 337, 81, 368, 96
-0.99869, 261, 17, 276, 144
-0.998706, 255, 17, 270, 144
-0.998724, 145, 65, 160, 192
-0.998725, 339, 33, 354, 160
-0.998749, 199, 113, 214, 240
-0.998752, 273, 49, 288, 176
-0.998765, 281, 65, 296, 192
-0.998789, 389, 33, 404, 160
-0.998801, 207, 65, 222, 192
-0.998811, 291, 49, 306, 176
-0.998812, 135, 65, 150, 192
-0.998828, 293, 129, 308, 256
-0.998832, 267, 145, 282, 272
-0.998834, 225, 129, 240, 256
-0.998836, 155, 65, 170, 192
-0.998848, 225, 193, 240, 320
-0.998865, 353, 17, 368, 144
-0.998877, 349, 97, 380, 341
-0.998878, 227, 1, 242, 128
-0.998883, 213, 177, 228, 304
-0.998887, 203, 161, 218, 288
-0.998888, 267, 17, 282, 144
-0.998899, 383, 33, 398, 160
-0.998904, 249, 17, 264, 144
-0.998906, 329, 33, 344, 160
-0.998913, 339, 81, 354, 208
-0.998932, 381, 113, 396, 240
-0.998935, 295, 193, 310, 320
-0.998938, 285, 177, 300, 304
-0.998943, 273, 97, 288, 224
-0.99895, 447, 209, 462, 336
-0.998954, 259, 161, 274, 288
-0.998968, 305, 17, 320, 144
-0.998974, 245, 65, 260, 192
-0.998978, 237, 49, 252, 176
-0.998979, 273, 161, 288, 288
-0.998983, 235, 145, 250, 272
-0.998983, 219, 161, 234, 288
-0.998994, 195, 161, 210, 288
-0.998994, 281, 129, 296, 256
-0.998995, 323, 17, 338, 144
-0.999, 165, 65, 180, 192
-0.999002, 249, 161, 264, 288
-0.999004, 377, 33, 392, 160
-0.999015, 155, 129, 170, 256
-0.999021, 217, 49, 232, 176
-0.999026, 127, 49, 142, 176
-0.999027, 65, 113, 80, 240
-0.999033, 303, 65, 318, 192
-0.999038, 353, 65, 368, 192
-0.999041, 137, 113, 152, 240
-0.999041, 195, 65, 210, 192
-0.999041, 231, 65, 246, 192
-0.999054, 359, 17, 374, 144
-0.999056, 369, 49, 384, 176
-0.999063, 205, 113, 220, 240
-0.999066, 345, 1, 360, 128
-0.999075, 243, 209, 258, 336
-0.999076, 393, 81, 408, 208
-0.99908, 71, 49, 86, 176
-0.999082, 201, 49, 216, 176
-0.999084, 219, 209, 234, 336
-0.999085, 427, 209, 442, 336
-0.999088, 457, 193, 472, 320
-0.99909, 189, 161, 204, 288
-0.999092, 265, 209, 280, 336
-0.999093, 267, 65, 282, 192
-0.999094, 213, 113, 228, 240
-0.999098, 279, 1, 294, 128
-0.999101, 395, 33, 410, 160
-0.999105, 389, 161, 404, 288
-0.999108, 273, 1, 288, 128
-0.999109, 235, 209, 250, 336
-0.99911, 257, 113, 272, 240
-0.999115, 161, 129, 176, 256
-0.999117, 287, 129, 302, 256
-0.999126, 441, 209, 456, 336
-0.999129, 175, 65, 190, 192
-0.999134, 403, 33, 418, 160
-0.999135, 193, 113, 208, 240
-0.999143, 83, 49, 98, 176
-0.99915, 383, 193, 398, 320
-0.999151, 321, 97, 352, 341
-0.999151, 413, 33, 428, 160
-0.999159, 71, 113, 86, 240
-0.999162, 207, 209, 222, 336
-0.999165, 297, 81, 312, 208
-0.999175, 333, 81, 348, 208
-0.999176, 431, 81, 446, 208
-0.999182, 63, 49, 78, 176
-0.999185, 245, 113, 260, 240
-0.999186, 259, 209, 274, 336
-0.999188, 317, 17, 332, 144
-0.99919, 237, 97, 252, 224
-0.999191, 47, 129, 62, 256
-0.999191, 29, 145, 44, 272
-0.999193, 57, 49, 72, 176
-0.999193, 293, 1, 308, 128
-0.999194, 451, 113, 466, 240
-0.999197, 167, 129, 182, 256
-0.999206, 311, 33, 326, 160
-0.999207, 131, 113, 146, 240
-0.999211, 449, 65, 464, 192
-0.999217, 37, 145, 52, 272
-0.999221, 117, 49, 132, 176
-0.999223, 303, 113, 318, 240
-0.999223, 149, 129, 164, 256
-0.999227, 309, 97, 340, 341
-0.999231, 77, 49, 92, 176
-0.999235, 181, 65, 196, 192
-0.999241, 443, 65, 458, 192
-0.999242, 53, 129, 68, 256
-0.999247, 425, 81, 440, 208
-0.999249, 183, 145, 198, 272
-0.99925, 261, 65, 276, 192
-0.999252, 359, 81, 374, 208
-0.999253, 223, 49, 238, 176
-0.999256, 173, 129, 188, 256
-0.999267, 243, 161, 258, 288
-0.999269, 59, 129, 74, 256
-0.999284, 187, 81, 202, 208
-0.999288, 251, 81, 266, 208
-0.999292, 93, 49, 108, 176
-0.999293, 375, 81, 390, 208
-0.999293, 435, 177, 450, 304
-0.999293, 201, 209, 216, 336
-0.999294, 161, 209, 176, 336
-0.999308, 437, 81, 452, 208
-0.999315, 1, 9, 256, 72
-0.999609, 245, 61, 260, 76
-0.999609, 55, 141, 70, 156
-0.999609, 199, 67, 214, 82
-0.999609, 145, 141, 160, 156
-0.99961, 345, 41, 360, 56
-0.99961, 73, 75, 88, 90
-0.99961, 215, 59, 230, 74
-0.999611, 199, 259, 214, 274
-0.999611, 287, 141, 302, 156
-0.999611, 133, 113, 148, 128
-0.999612, 437, 235, 452, 250
-0.999612, 61, 137, 76, 152
-0.999612, 199, 95, 214, 110
-0.999613, 369, 49, 384, 64
-0.999613, 277, 185, 292, 200
-0.999613, 187, 65, 202, 80
-0.999614, 225, 223, 240, 238
-0.999614, 69, 133, 84, 148
-0.999615, 235, 15, 250, 30
-0.999615, 277, 85, 292, 100
-0.999616, 91, 77, 106, 92
-0.999616, 229, 117, 244, 132
-0.999617, 243, 253, 258, 268
-0.999617, 81, 127, 96, 142
-0.999617, 257, 71, 272, 86
-0.999618, 373, 101, 388, 116
-0.999618, 333, 305, 348, 320
-0.999618, 263, 223, 278, 238
-0.999619, 265, 157, 280, 172
-0.999619, 267, 63, 282, 78
-0.999619, 137, 135, 152, 150
-0.999621, 47, 147, 62, 162
-0.999622, 273, 169, 288, 184
-0.999624, 221, 57, 236, 72
-0.999624, 357, 105, 372, 120
-0.999625, 5, 73, 20, 88
-0.999625, 247, 39, 262, 54
-0.999628, 257, 29, 272, 44
-0.999628, 271, 69, 286, 84
-0.999629, 353, 97, 368, 112
-0.99963, 49, 73, 64, 88
-0.999631, 355, 311, 370, 326
-0.999632, 199, 109, 214, 124
-0.999632, 281, 115, 296, 130
-0.999634, 251, 71, 266, 86
-0.999634, 229, 15, 244, 30
-0.999635, 11, 73, 26, 88
-0.999636, 293, 151, 308, 166
-0.999636, 297, 95, 312, 110
-0.999636, 427, 231, 442, 246
-0.999636, 215, 83, 230, 98
-0.999637, 67, 73, 82, 88
-0.999637, 305, 115, 320, 130
-0.999638, 275, 41, 290, 56
-0.999638, 57, 73, 72, 88
-0.999638, 303, 99, 318, 114
-0.999638, 137, 107, 152, 122
-0.999639, 375, 117, 390, 132
-0.999639, 43, 73, 58, 88
-0.99964, 391, 77, 406, 92
-0.99964, 451, 219, 466, 234
-0.999642, 283, 197, 298, 212
-0.999642, 285, 109, 300, 124
-0.999642, 237, 153, 252, 168
-0.999643, 293, 137, 308, 152
-0.999643, 321, 57, 336, 72
-0.999644, 273, 79, 288, 94
-0.999644, 257, 165, 272, 180
-0.999644, 351, 87, 366, 102
-0.999645, 205, 97, 220, 112
-0.999645, 281, 139, 296, 154
-0.999648, 139, 71, 154, 86
-0.999649, 265, 37, 280, 52
-0.999649, 283, 87, 298, 102
-0.999651, 17, 73, 32, 88
-0.999652, 209, 65, 224, 80
-0.999653, 227, 155, 242, 170
-0.999654, 369, 113, 384, 128
-0.999656, 31, 73, 46, 88
-0.999657, 193, 61, 208, 76
-0.999658, 153, 71, 168, 86
-0.999658, 253, 39, 268, 54
-0.999658, 23, 73, 38, 88
-0.999662, 237, 183, 252, 198
-0.999662, 379, 95, 394, 110
-0.999662, 349, 69, 364, 84
-0.999663, 271, 175, 286, 190
-0.999664, 37, 73, 52, 88
-0.999664, 297, 113, 312, 128
-0.999665, 85, 75, 100, 90
-0.999665, 245, 259, 260, 274
-0.999667, 279, 175, 294, 190
-0.999667, 287, 103, 302, 118
-0.999668, 283, 187, 298, 202
-0.999669, 273, 63, 288, 78
-0.999672, 199, 163, 214, 178
-0.999672, 341, 83, 356, 98
-0.999674, 247, 31, 262, 46
-0.999674, 283, 67, 298, 82
-0.999676, 227, 177, 242, 192
-0.999676, 293, 127, 308, 142
-0.999678, 283, 43, 298, 58
-0.999679, 295, 107, 310, 122
-0.99968, 247, 241, 262, 256
-0.999685, 271, 181, 286, 196
-0.99969, 293, 143, 308, 158
-0.999693, 167, 267, 182, 282
-0.999694, 449, 225, 464, 240
-0.999694, 281, 77, 296, 92
-0.999698, 153, 149, 168, 164
-0.999704, 341, 95, 356, 110
-0.999704, 127, 129, 142, 144
-0.999704, 233, 73, 248, 88
-0.999708, 387, 83, 402, 98
-0.999708, 283, 181, 298, 196
-0.999709, 327, 289, 342, 304
-0.999713, 205, 103, 220, 118
-0.999714, 229, 149, 244, 164
-0.999715, 277, 69, 292, 84
-0.999715, 383, 89, 398, 104
-0.999719, 397, 85, 412, 100
-0.999727, 351, 81, 366, 96
-0.999729, 265, 69, 280, 84
-0.999733, 237, 145, 252, 160
-0.999746, 241, 71, 256, 86
-0.999752, 293, 101, 308, 116
-0.999752, 287, 97, 302, 112
-0.999754, 445, 231, 460, 246
-0.999788, 349, 75, 364, 90
-0.9998, 303, 105, 318, 120
-0.999808, 461, 33, 492, 288
-1.00202, 49, 9, 176, 72
-1.00213, 1, 1, 500, 64
