1891
-0.648462, 1, 65, 500, 320
-0.746322, 1, 1, 500, 333
-0.77309, 161, 1, 416, 333
-0.821947, 257, 1, 500, 333
-0.840966, 65, 1, 320, 333
-0.847092, 161, 65, 416, 320
-0.89108, 257, 65, 500, 320
-0.897928, 257, 65, 384, 320
-0.90139, 289, 1, 416, 333
-0.915294, 337, 65, 464, 320
-0.924587, 209, 1, 336, 333
-0.927209, 273, 113, 400, 240
-0.930227, 313, 113, 376, 240
-0.934969, 193, 129, 448, 256
-0.936867, 337, 1, 464, 333
-0.938506, 289, 113, 352, 240
-0.944107, 289, 153, 352, 216
-0.945806, 209, 65, 336, 320
-0.946085, 65, 1, 320, 256
-0.946224, 1, 177, 500, 304
-0.946328, 1, 129, 500, 256
-0.94818, 289, 161, 416, 288
-0.948513, 265, 129, 328, 256
-0.948639, 329, 129, 392, 192
-0.950288, 313, 153, 376, 216
-0.952231, 289, 121, 352, 184
-0.952252, 1, 1, 128, 333
-0.952362, 225, 129, 352, 256
-0.953519, 193, 193, 448, 320
-0.95385, 337, 129, 400, 256
-0.954673, 161, 1, 288, 256
-0.955078, 161, 1, 288, 333
-0.955672, 337, 97, 464, 224
-0.95646, 225, 177, 352, 304
-0.956946, 313, 161, 376, 288
-0.958625, 265, 145, 328, 208
-0.959244, 1, 65, 500, 192
-0.959639, 305, 177, 368, 240
-0.961063, 289, 161, 352, 288
-0.962323, 337, 153, 400, 216
-0.962855, 17, 1, 144, 256
-0.963257, 273, 185, 336, 248
-0.963922, 273, 65, 400, 192
-0.965121, 329, 177, 392, 240
-0.96636, 113, 1, 240, 333
-0.966708, 65, 1, 192, 333
-0.966734, 273, 121, 400, 184
-0.966811, 305, 65, 368, 192
-0.967201, 265, 177, 328, 304
-0.967586, 257, 81, 500, 208
-0.968524, 33, 209, 288, 333
-0.968615, 305, 129, 336, 256
-0.968694, 265, 121, 328, 184
-0.968985, 361, 113, 424, 240
-0.969054, 97, 97, 352, 224
-0.969371, 309, 153, 340, 216
-0.969481, 81, 1, 208, 256
-0.969619, 273, 145, 400, 208
-0.969634, 321, 113, 352, 240
-0.969881, 337, 145, 464, 272
-0.971284, 353, 129, 384, 192
-0.971474, 353, 129, 416, 192
-0.972059, 249, 177, 312, 240
-0.972266, 333, 145, 364, 208
-0.97247, 361, 105, 424, 168
-0.973062, 293, 129, 324, 256
-0.973075, 97, 145, 352, 272
-0.973118, 341, 113, 372, 240
-0.973507, 309, 129, 340, 192
-0.974198, 297, 209, 360, 272
-0.974551, 337, 81, 400, 208
-0.97474, 321, 121, 352, 184
-0.974985, 129, 193, 256, 320
-0.97548, 297, 121, 328, 184
-0.975884, 297, 153, 328, 216
-0.976037, 341, 121, 372, 184
-0.976046, 321, 153, 352, 216
-0.976355, 353, 113, 384, 240
-0.976628, 329, 217, 392, 280
-0.976879, 353, 153, 384, 216
-0.976973, 233, 177, 296, 304
-0.977695, 305, 177, 336, 304
-0.977834, 297, 177, 328, 240
-0.978149, 1, 1, 500, 128
-0.978435, 285, 137, 316, 200
-0.978506, 365, 137, 396, 200
-0.978925, 297, 65, 360, 320
-0.978999, 161, 49, 416, 176
-0.979252, 1, 209, 128, 333
-0.979287, 289, 169, 416, 232
-0.979706, 225, 137, 352, 200
-0.979995, 217, 249, 280, 312
-0.980298, 313, 105, 376, 168
-0.980348, 321, 129, 448, 192
-0.98096, 321, 161, 352, 288
-0.981054, 285, 169, 316, 232
-0.981192, 241, 169, 368, 232
-0.981263, 321, 185, 352, 248
-0.981567, 289, 97, 352, 160
-0.981656, 337, 97, 464, 160
-0.982022, 281, 113, 312, 240
-0.982126, 225, 81, 352, 208
-0.982299, 289, 209, 416, 333
-0.982578, 337, 105, 400, 168
-0.98276, 361, 65, 424, 192
-0.982806, 49, 209, 176, 333
-0.983201, 337, 177, 368, 240
-0.983342, 309, 185, 340, 248
-0.983569, 369, 241, 432, 304
-0.983894, 9, 241, 72, 304
-0.983965, 177, 161, 304, 288
-0.983983, 177, 113, 304, 240
-0.983992, 281, 65, 344, 192
-0.984437, 385, 81, 448, 208
-0.98444, 385, 97, 448, 160
-0.984643, 337, 177, 400, 304
-0.984678, 297, 209, 360, 333
-0.984744, 377, 129, 440, 192
-0.98479, 41, 233, 104, 296
-0.984905, 369, 113, 400, 176
-0.985247, 209, 177, 272, 304
-0.985364, 273, 169, 304, 232
-0.985439, 65, 241, 128, 304
-0.985466, 241, 193, 368, 256
-0.985707, 257, 81, 320, 208
-0.985711, 241, 241, 304, 304
-0.985793, 321, 65, 352, 192
-0.985869, 365, 129, 396, 256
-0.985915, 273, 97, 400, 160
-0.986086, 193, 177, 320, 240
-0.986187, 317, 209, 348, 272
-0.986192, 225, 113, 288, 240
-0.986363, 365, 161, 396, 224
-0.986468, 225, 161, 288, 224
-0.986477, 321, 33, 448, 160
-0.986498, 297, 201, 328, 264
-0.98652, 337, 153, 464, 216
-0.986611, 309, 81, 340, 208
-0.986698, 337, 65, 400, 320
-0.986725, 361, 161, 424, 224
-0.986954, 273, 65, 336, 320
-0.987145, 273, 217, 400, 280
-0.987154, 297, 1, 360, 333
-0.987209, 261, 169, 292, 232
-0.98722, 225, 113, 352, 176
-0.987288, 33, 209, 96, 333
-0.987322, 273, 217, 336, 280
-0.987352, 293, 177, 324, 304
-0.987636, 369, 81, 400, 208
-0.987782, 257, 33, 500, 160
-0.987788, 369, 121, 496, 184
-0.987999, 321, 153, 384, 184
-0.988104, 349, 161, 380, 288
-0.98829, 377, 137, 408, 200
-0.988349, 1, 265, 128, 328
-0.98852, 333, 65, 364, 192
-0.988576, 161, 257, 288, 320
-0.988583, 241, 105, 304, 168
-0.988896, 305, 249, 368, 312
-0.988912, 333, 161, 364, 288
-0.988929, 285, 193, 316, 256
-0.98897, 289, 121, 352, 152
-0.989051, 65, 193, 128, 320
-0.98906, 1, 265, 64, 328
-0.989098, 265, 173, 328, 204
-0.989127, 161, 1, 416, 128
-0.989164, 337, 33, 400, 160
-0.989235, 333, 217, 364, 280
-0.98925, 289, 169, 352, 200
-0.989295, 321, 241, 448, 304
-0.989311, 257, 145, 288, 272
-0.989313, 185, 193, 248, 320
-0.989339, 349, 177, 380, 240
-0.989439, 345, 241, 408, 304
-0.989484, 289, 157, 352, 188
-0.98952, 41, 265, 104, 328
-0.989614, 33, 241, 160, 304
-0.989629, 321, 125, 384, 156
-0.989637, 389, 105, 420, 168
-0.989664, 329, 141, 392, 172
-0.989674, 185, 241, 248, 304
-0.989688, 285, 113, 316, 176
-0.9898, 289, 181, 352, 212
-0.989983, 241, 129, 304, 192
-0.990039, 229, 241, 260, 304
-0.990073, 297, 81, 328, 208
-0.990074, 393, 233, 456, 296
-0.990082, 345, 65, 376, 192
-0.990117, 225, 233, 352, 296
-0.990216, 369, 209, 496, 333
-0.990339, 289, 133, 352, 164
-0.990364, 369, 241, 496, 304
-0.990464, 337, 173, 400, 204
-0.99058, 265, 185, 328, 216
-0.990593, 265, 145, 328, 176
-0.990771, 89, 209, 152, 333
-0.990806, 265, 161, 328, 192
-0.99081, 313, 185, 376, 216
-0.990837, 313, 165, 376, 196
-0.990903, 305, 209, 368, 240
-0.990907, 273, 121, 304, 184
-0.991023, 401, 121, 464, 184
-0.991027, 361, 161, 424, 288
-0.991081, 281, 209, 344, 240
-0.991082, 353, 141, 416, 172
-0.99125, 249, 129, 312, 160
-0.991267, 361, 65, 424, 320
-0.991276, 249, 65, 312, 320
-0.991281, 297, 145, 360, 176
-0.991288, 269, 161, 300, 288
-0.99129, 381, 81, 412, 208
-0.99133, 353, 117, 416, 148
-0.991347, 217, 249, 280, 280
-0.991356, 369, 97, 432, 128
-0.991363, 417, 217, 480, 280
-0.991371, 345, 157, 408, 188
-0.991372, 353, 245, 416, 276
-0.991399, 249, 217, 312, 280
-0.991414, 281, 161, 312, 288
-0.99145, 297, 197, 360, 228
-0.991479, 273, 197, 336, 228
-0.99159, 361, 129, 424, 160
-0.991645, 321, 241, 384, 272
-0.991716, 233, 181, 296, 212
-0.991796, 385, 109, 448, 140
-0.991846, 245, 193, 276, 320
-0.991849, 329, 217, 392, 248
-0.991884, 177, 209, 304, 333
-0.991892, 417, 97, 448, 160
-0.991913, 89, 233, 152, 296
-0.991946, 241, 169, 304, 200
-0.99207, 369, 153, 432, 184
-0.992077, 281, 241, 344, 304
-0.992104, 241, 249, 304, 280
-0.992109, 297, 221, 360, 252
-0.99212, 385, 121, 448, 152
-0.99217, 353, 217, 416, 280
-0.992219, 265, 117, 328, 148
-0.992226, 309, 157, 340, 188
-0.992271, 345, 105, 408, 136
-0.992287, 153, 201, 216, 264
-0.992297, 273, 125, 400, 156
-0.992306, 313, 113, 376, 144
-0.992306, 297, 121, 328, 152
-0.99231, 329, 253, 392, 284
-0.99233, 349, 157, 380, 188
-0.992332, 161, 153, 288, 216
-0.992359, 297, 97, 328, 160
-0.992368, 273, 237, 336, 268
-0.992387, 321, 153, 352, 184
-0.992398, 289, 249, 352, 280
-0.992399, 321, 209, 448, 272
-0.992409, 65, 253, 128, 284
-0.992412, 289, 109, 352, 140
-0.992431, 337, 149, 368, 180
-0.992458, 321, 1, 384, 333
-0.992465, 293, 177, 324, 208
-0.992469, 409, 113, 472, 144
-0.992477, 353, 137, 384, 168
-0.992483, 257, 121, 500, 184
-0.992503, 225, 261, 288, 292
-0.992516, 201, 217, 264, 280
-0.992536, 17, 161, 144, 288
-0.992546, 9, 249, 72, 280
-0.992604, 361, 169, 424, 200
-0.992604, 241, 249, 272, 312
-0.992616, 297, 197, 328, 228
-0.992626, 345, 125, 376, 156
-0.99263, 41, 261, 104, 292
-0.992632, 193, 253, 256, 284
-0.99266, 361, 149, 392, 180
-0.992662, 273, 177, 304, 208
-0.992667, 273, 249, 400, 312
-0.992676, 81, 241, 144, 272
-0.992689, 277, 125, 308, 156
-0.992701, 241, 117, 304, 148
-0.992702, 345, 233, 408, 264
-0.992709, 353, 105, 384, 168
-0.992713, 265, 97, 328, 160
-0.992731, 249, 237, 312, 268
-0.992734, 365, 161, 396, 192
-0.992742, 321, 229, 384, 260
-0.992769, 289, 145, 320, 176
-0.992777, 209, 237, 272, 268
-0.992778, 377, 245, 440, 276
-0.992791, 201, 273, 264, 333
-0.992793, 297, 233, 360, 264
-0.992798, 313, 189, 344, 220
-0.992801, 305, 141, 336, 172
-0.992817, 305, 213, 336, 244
-0.992832, 249, 1, 312, 333
-0.992849, 297, 165, 328, 196
-0.992865, 389, 241, 420, 304
-0.992875, 321, 177, 352, 208
-0.992897, 229, 249, 260, 280
-0.992908, 393, 97, 456, 128
-0.992915, 145, 225, 272, 288
-0.992916, 317, 201, 348, 232
-0.992923, 261, 165, 292, 196
-0.992926, 309, 169, 340, 200
-0.992927, 317, 121, 348, 152
-0.992934, 217, 169, 280, 200
-0.992936, 329, 205, 392, 236
-0.992953, 353, 169, 384, 200
-0.992963, 33, 249, 96, 280
-0.992964, 365, 137, 396, 168
-0.992971, 333, 173, 364, 204
-0.992975, 17, 265, 80, 296
-0.99298, 373, 245, 404, 276
-0.992986, 369, 233, 432, 264
-0.992997, 369, 121, 400, 152
-0.993006, 421, 109, 452, 140
-0.993023, 337, 185, 368, 216
-0.993045, 277, 165, 308, 196
-0.993046, 273, 153, 400, 184
-0.993068, 145, 201, 208, 232
-0.993082, 325, 213, 356, 244
-0.993083, 313, 61, 376, 92
-0.993092, 329, 121, 360, 152
-0.993099, 285, 193, 316, 224
-0.993117, 245, 249, 276, 280
-0.99312, 373, 149, 404, 180
-0.99314, 321, 141, 352, 172
-0.993145, 49, 237, 112, 268
-0.993151, 273, 221, 336, 252
-0.993166, 249, 209, 312, 240
-0.993169, 329, 245, 360, 276
-0.993172, 385, 97, 416, 128
-0.993176, 293, 213, 324, 244
-0.993177, 337, 213, 368, 244
-0.993182, 301, 233, 332, 264
-0.993193, 353, 241, 384, 272
-0.993202, 177, 241, 240, 272
-0.993206, 409, 105, 440, 136
-0.993208, 377, 137, 408, 168
-0.993209, 293, 133, 324, 164
-0.993214, 1, 217, 128, 280
-0.993226, 265, 253, 328, 284
-0.993236, 369, 137, 384, 200
-0.993242, 337, 137, 368, 168
-0.993253, 261, 185, 292, 216
-0.993253, 97, 261, 160, 292
-0.993257, 337, 185, 400, 216
-0.993259, 325, 189, 356, 220
-0.993268, 185, 193, 248, 224
-0.993274, 277, 137, 308, 168
-0.993276, 397, 97, 428, 128
-0.993297, 289, 109, 320, 140
-0.9933, 401, 117, 432, 148
-0.993301, 385, 245, 416, 276
-0.993307, 121, 253, 184, 284
-0.99331, 17, 217, 80, 280
-0.993314, 241, 197, 304, 228
-0.993319, 393, 229, 456, 260
-0.993327, 321, 165, 352, 196
-0.99333, 349, 181, 380, 212
-0.993336, 217, 249, 248, 280
-0.993348, 377, 129, 408, 256
-0.99335, 229, 261, 260, 292
-0.993351, 381, 109, 412, 140
-0.993353, 341, 245, 372, 276
-0.99336, 161, 129, 416, 192
-0.993375, 325, 61, 356, 92
-0.993383, 381, 233, 412, 264
-0.993387, 209, 181, 272, 212
-0.993389, 369, 233, 400, 264
-0.993391, 169, 265, 232, 328
-0.9934, 33, 1, 288, 128
-0.993406, 353, 205, 416, 236
-0.993414, 177, 105, 304, 168
-0.993417, 433, 117, 464, 148
-0.993422, 313, 253, 344, 284
-0.993427, 289, 61, 352, 92
-0.993436, 365, 109, 396, 140
-0.993436, 357, 125, 388, 156
-0.993446, 65, 225, 128, 256
-0.993448, 365, 173, 396, 204
-0.99345, 345, 201, 376, 232
-0.993462, 329, 201, 360, 232
-0.993466, 389, 129, 420, 160
-0.993466, 413, 121, 444, 152
-0.993466, 229, 237, 260, 268
-0.993467, 313, 225, 344, 256
-0.993468, 337, 161, 368, 192
-0.993468, 329, 89, 392, 120
-0.993472, 249, 169, 280, 200
-0.993473, 281, 209, 312, 240
-0.993477, 341, 113, 372, 144
-0.993478, 369, 85, 432, 116
-0.993479, 373, 97, 404, 128
-0.993482, 289, 233, 320, 264
-0.993483, 209, 257, 336, 320
-0.993492, 69, 261, 100, 292
-0.993493, 357, 253, 388, 284
-0.993495, 301, 109, 332, 140
-0.993496, 81, 241, 208, 304
-0.993497, 385, 285, 448, 316
-0.993502, 385, 133, 448, 164
-0.993502, 201, 265, 264, 296
-0.993503, 409, 125, 472, 156
-0.99351, 329, 109, 360, 140
-0.993512, 53, 261, 84, 292
-0.993512, 317, 109, 348, 140
-0.993513, 89, 249, 120, 280
-0.993517, 333, 257, 364, 288
-0.993519, 241, 261, 272, 292
-0.993523, 249, 181, 280, 212
-0.993531, 33, 249, 64, 312
-0.993532, 421, 97, 452, 128
-0.993539, 97, 233, 128, 264
-0.993543, 257, 249, 288, 280
-0.993545, 401, 97, 432, 160
-0.993552, 109, 241, 140, 272
-0.993553, 345, 257, 376, 288
-0.993554, 205, 245, 236, 276
-0.993555, 41, 265, 72, 296
-0.993557, 105, 237, 168, 268
-0.993558, 273, 113, 304, 144
-0.993562, 433, 237, 496, 268
-0.993567, 41, 249, 72, 280
-0.993567, 213, 261, 244, 292
-0.99357, 137, 273, 200, 304
-0.993572, 1, 237, 64, 268
-0.993574, 233, 157, 296, 188
-0.993575, 433, 225, 496, 256
-0.993578, 209, 277, 272, 308
-0.993578, 13, 261, 44, 292
-0.993581, 249, 237, 280, 268
-0.993585, 377, 161, 408, 192
-0.993585, 53, 245, 84, 276
-0.993586, 369, 217, 496, 280
-0.993596, 225, 1, 352, 128
-0.993605, 329, 233, 360, 264
-0.993606, 313, 61, 344, 92
-0.993612, 301, 253, 332, 284
-0.993613, 173, 201, 204, 232
-0.993616, 281, 221, 312, 252
-0.993619, 445, 245, 476, 276
-0.993619, 289, 249, 320, 280
-0.993619, 313, 237, 344, 268
-0.99362, 269, 249, 300, 280
-0.993623, 65, 265, 128, 328
-0.993628, 349, 213, 380, 244
-0.993629, 25, 229, 88, 260
-0.993635, 77, 249, 108, 280
-0.993639, 401, 241, 464, 272
-0.993642, 353, 221, 416, 252
-0.993646, 29, 265, 60, 296
-0.993651, 353, 229, 384, 260
-0.993657, 1, 253, 32, 284
-0.993661, 269, 205, 300, 236
-0.993664, 393, 233, 424, 264
-0.993668, 105, 225, 168, 256
-0.993669, 433, 109, 496, 140
-0.993672, 445, 109, 476, 140
-0.993673, 337, 65, 368, 96
-0.993674, 13, 249, 44, 280
-0.993677, 29, 245, 60, 276
-0.993678, 401, 129, 432, 160
-0.993684, 233, 273, 296, 304
-0.993689, 461, 237, 492, 268
-0.993694, 109, 229, 140, 260
-0.9937, 401, 197, 464, 228
-0.9937, 185, 213, 248, 244
-0.993701, 397, 245, 428, 276
-0.993708, 265, 273, 328, 304
-0.993708, 189, 201, 220, 232
-0.993714, 249, 225, 312, 256
-0.993716, 105, 201, 168, 232
-0.99372, 305, 153, 320, 216
-0.993726, 209, 213, 272, 244
-0.993731, 363, 129, 378, 192
-0.993731, 129, 241, 192, 272
-0.993736, 65, 213, 128, 244
-0.993742, 161, 285, 224, 316
-0.993744, 65, 161, 192, 288
-0.993752, 1, 209, 64, 333
-0.993755, 193, 289, 256, 320
-0.993755, 265, 289, 328, 320
-0.993778, 153, 245, 216, 276
-0.993778, 105, 289, 168, 320
-0.993783, 169, 257, 232, 288
-0.993788, 417, 213, 480, 244
-0.993788, 417, 265, 480, 296
-0.993789, 17, 301, 80, 332
-0.993795, 225, 193, 256, 320
-0.993799, 161, 221, 224, 252
-0.993809, 209, 157, 272, 188
-0.99381, 217, 257, 248, 320
-0.993813, 369, 233, 400, 296
-0.993815, 369, 257, 432, 288
-0.99382, 153, 297, 216, 328
-0.993825, 433, 253, 496, 284
-0.993846, 345, 1, 408, 333
-0.993851, 337, 177, 464, 240
-0.993854, 65, 265, 128, 296
-0.993855, 425, 249, 488, 312
-0.993856, 297, 265, 360, 296
-0.993872, 1, 161, 256, 288
-0.993876, 241, 141, 304, 172
-0.993899, 315, 153, 330, 216
-0.993904, 305, 73, 368, 104
-0.993912, 249, 105, 312, 136
-0.993923, 129, 257, 192, 320
-0.993924, 217, 201, 280, 232
-0.993924, 129, 213, 192, 244
-0.993943, 345, 201, 376, 264
-0.993947, 329, 249, 360, 312
-0.994011, 305, 225, 336, 288
-0.9941, 73, 209, 104, 333
-0.994142, 97, 217, 224, 280
-0.994155, 225, 185, 288, 248
-0.99421, 257, 145, 288, 208
-0.994211, 257, 193, 288, 320
-0.994228, 309, 121, 324, 184
-0.994304, 353, 225, 384, 288
-0.994332, 273, 137, 400, 168
-0.994342, 145, 193, 272, 256
-0.994362, 353, 121, 368, 184
-0.994363, 337, 81, 400, 144
-0.994504, 425, 113, 488, 176
-0.994569, 21, 241, 52, 304
-0.994581, 249, 225, 280, 288
-0.994584, 177, 129, 304, 192
-0.994611, 343, 121, 358, 184
-0.994617, 429, 113, 460, 176
-0.994633, 273, 1, 336, 333
-0.994648, 77, 257, 108, 320
-0.994651, 229, 217, 260, 280
-0.994657, 357, 65, 388, 192
-0.994669, 257, 165, 384, 196
-0.994683, 299, 169, 314, 232
-0.994705, 65, 217, 128, 280
-0.994711, 297, 57, 360, 120
-0.994718, 311, 185, 326, 248
-0.99475, 347, 145, 362, 208
-0.994797, 249, 169, 280, 232
-0.994811, 257, 145, 500, 208
-0.994832, 323, 121, 338, 184
-0.994839, 289, 65, 416, 128
-0.994849, 61, 241, 92, 304
-0.994892, 359, 153, 374, 216
-0.994892, 381, 217, 412, 280
-0.994922, 297, 145, 312, 208
-0.994976, 301, 121, 316, 184
-0.994982, 315, 129, 330, 192
-0.995006, 337, 121, 352, 184
-0.995032, 341, 145, 356, 208
-0.995035, 241, 177, 368, 208
-0.99504, 333, 153, 348, 216
-0.995121, 49, 265, 176, 328
-0.99514, 129, 145, 256, 272
-0.995147, 241, 265, 304, 328
-0.995181, 339, 185, 354, 248
-0.995185, 325, 153, 340, 216
-0.995188, 273, 145, 304, 208
-0.995215, 49, 241, 80, 304
-0.995355, 161, 153, 416, 216
-0.995371, 49, 209, 176, 272
-0.995373, 327, 177, 342, 240
-0.995395, 331, 121, 346, 184
-0.995477, 97, 193, 224, 256
-0.995506, 369, 89, 400, 152
-0.995551, 353, 153, 368, 216
-0.995554, 225, 141, 352, 172
-0.995554, 161, 209, 416, 272
-0.995557, 93, 241, 124, 304
-0.995571, 65, 169, 192, 232
-0.995578, 193, 209, 320, 272
-0.995623, 317, 97, 348, 160
-0.995632, 169, 177, 232, 240
-0.995673, 61, 209, 92, 333
-0.995691, 161, 233, 224, 296
-0.995696, 9, 257, 40, 320
-0.995731, 341, 97, 372, 160
-0.995732, 433, 209, 496, 333
-0.995737, 317, 185, 332, 248
-0.995744, 295, 121, 310, 184
-0.995782, 319, 209, 334, 272
-0.995788, 333, 185, 348, 248
-0.995826, 41, 209, 104, 272
-0.995854, 305, 177, 320, 240
-0.995899, 299, 193, 314, 256
-0.99593, 57, 265, 88, 328
-0.995957, 289, 225, 320, 288
-0.995964, 213, 193, 244, 320
-0.996017, 313, 81, 376, 144
-0.996023, 113, 265, 240, 328
-0.996039, 289, 177, 416, 208
-0.996051, 337, 113, 464, 144
-0.996065, 369, 161, 384, 224
-0.996136, 1, 241, 256, 304
-0.996168, 337, 137, 464, 168
-0.996168, 193, 177, 320, 208
-0.996191, 349, 185, 364, 248
-0.996201, 269, 113, 300, 240
-0.996219, 321, 265, 448, 328
-0.996224, 321, 149, 448, 180
-0.996234, 281, 1, 344, 128
-0.996242, 161, 177, 416, 240
-0.996284, 375, 153, 390, 216
-0.996318, 241, 145, 272, 272
-0.996329, 305, 249, 432, 280
-0.996336, 257, 177, 500, 240
-0.996368, 369, 1, 432, 333
-0.996384, 277, 169, 292, 232
-0.99639, 321, 57, 384, 120
-0.99641, 289, 121, 304, 184
-0.996424, 257, 97, 500, 160
-0.99646, 129, 193, 192, 320
-0.996471, 305, 165, 432, 196
-0.996479, 393, 209, 456, 272
-0.996554, 225, 81, 352, 144
-0.996563, 241, 57, 368, 120
-0.99657, 293, 185, 308, 248
-0.996612, 225, 217, 288, 280
-0.996623, 209, 121, 336, 152
-0.996635, 317, 209, 348, 333
-0.996669, 161, 105, 416, 168
-0.99668, 225, 245, 352, 276
-0.996742, 1, 177, 500, 240
-0.996747, 375, 121, 390, 184
-0.99677, 271, 169, 286, 232
-0.996802, 337, 125, 464, 156
-0.996828, 325, 57, 356, 120
-0.996836, 225, 153, 352, 184
-0.99685, 73, 233, 104, 296
-0.996943, 305, 201, 320, 264
-0.996944, 321, 41, 448, 104
-0.996953, 9, 1, 72, 333
-0.996966, 369, 65, 496, 128
-0.996977, 313, 157, 328, 188
-0.996998, 401, 121, 432, 184
-0.997009, 241, 193, 368, 224
-0.997013, 21, 209, 52, 333
-0.997018, 273, 97, 304, 160
-0.99702, 289, 217, 416, 248
-0.997036, 105, 273, 168, 333
-0.997057, 339, 209, 354, 272
-0.997097, 369, 145, 384, 176
-0.997119, 257, 273, 384, 333
-0.997134, 381, 137, 396, 200
-0.997139, 325, 201, 340, 264
-0.997146, 125, 177, 156, 304
-0.997146, 445, 241, 476, 304
-0.997146, 363, 161, 378, 192
-0.997147, 129, 185, 192, 248
-0.997184, 45, 265, 76, 328
-0.99719, 361, 177, 392, 304
-0.997213, 389, 129, 420, 192
-0.997224, 193, 233, 448, 296
-0.997225, 305, 65, 336, 320
-0.997232, 257, 201, 500, 264
-0.997252, 89, 209, 120, 333
-0.997262, 283, 169, 298, 232
-0.997264, 353, 245, 480, 276
-0.997271, 401, 233, 432, 296
-0.997279, 1, 1, 128, 64
-0.997284, 321, 101, 448, 132
-0.997298, 289, 125, 304, 156
-0.997303, 177, 257, 304, 288
-0.997314, 393, 257, 456, 320
-0.997321, 391, 105, 406, 168
-0.997322, 273, 113, 400, 144
-0.997324, 369, 113, 384, 176
-0.997329, 377, 73, 440, 136
-0.997334, 341, 65, 372, 320
-0.997346, 309, 197, 324, 228
-0.997362, 1, 245, 128, 276
-0.997363, 417, 97, 432, 160
-0.997368, 371, 157, 386, 188
-0.997383, 225, 33, 352, 96
-0.997393, 299, 121, 314, 152
-0.997396, 385, 193, 448, 320
-0.997397, 81, 97, 208, 160
-0.997405, 333, 217, 348, 280
-0.997414, 1, 233, 500, 296
-0.997425, 303, 169, 318, 200
-0.997429, 433, 89, 496, 152
-0.997441, 357, 153, 372, 184
-0.997471, 291, 145, 306, 208
-0.997482, 393, 233, 408, 296
-0.997504, 307, 153, 322, 184
-0.997505, 247, 249, 262, 312
-0.997514, 355, 177, 370, 240
-0.997518, 409, 81, 472, 144
-0.997522, 193, 189, 320, 220
-0.997535, 323, 153, 338, 184
-0.997535, 381, 105, 396, 168
-0.997557, 319, 213, 334, 244
-0.997566, 361, 129, 376, 160
-0.997573, 385, 81, 416, 144
-0.997581, 265, 169, 280, 232
-0.997593, 315, 197, 330, 228
-0.997653, 321, 65, 352, 320
-0.997664, 289, 233, 416, 264
-0.997668, 241, 209, 368, 240
-0.997706, 1, 129, 500, 192
-0.997707, 1, 193, 128, 256
-0.997707, 193, 177, 256, 240
-0.997708, 313, 209, 328, 272
-0.997722, 281, 65, 312, 192
-0.997733, 65, 49, 320, 176
-0.997737, 43, 249, 58, 312
-0.997741, 387, 137, 402, 200
-0.997745, 129, 257, 384, 320
-0.997747, 317, 145, 332, 176
-0.997748, 161, 193, 224, 320
-0.997756, 311, 185, 326, 216
-0.997765, 217, 137, 280, 200
-0.997768, 457, 241, 488, 304
-0.997774, 193, 165, 320, 196
-0.997778, 337, 265, 400, 328
-0.997782, 51, 249, 66, 312
-0.997803, 277, 177, 292, 208
-0.997805, 329, 153, 344, 184
-0.997817, 129, 245, 256, 276
-0.997845, 21, 265, 52, 328
-0.997845, 347, 149, 362, 180
-0.997846, 383, 233, 398, 296
-0.997846, 299, 97, 314, 160
-0.997851, 335, 153, 350, 184
-0.997855, 363, 105, 378, 168
-0.997856, 1, 169, 128, 232
-0.997857, 297, 173, 312, 204
-0.997861, 239, 241, 254, 304
-0.997861, 299, 145, 314, 176
-0.997872, 291, 97, 306, 160
-0.997876, 177, 193, 208, 256
-0.997876, 265, 193, 296, 256
-0.997889, 33, 217, 288, 280
-0.997908, 145, 1, 272, 128
-0.997908, 411, 89, 426, 152
-0.99791, 437, 105, 452, 168
-0.997917, 25, 1, 88, 64
-0.997924, 301, 193, 316, 224
-0.997925, 369, 233, 496, 264
-0.997925, 65, 241, 80, 304
-0.997931, 253, 225, 268, 288
-0.997932, 37, 225, 68, 288
-0.997958, 325, 121, 340, 152
-0.997976, 65, 145, 192, 208
-0.997988, 341, 149, 356, 180
-0.997989, 325, 225, 340, 288
-0.99799, 273, 145, 288, 208
-0.997992, 15, 241, 30, 304
-0.997993, 283, 121, 298, 184
-0.997997, 343, 173, 358, 204
-0.998005, 71, 241, 86, 304
-0.998015, 49, 193, 80, 320
-0.998019, 363, 141, 378, 172
-0.998025, 197, 249, 228, 312
-0.998025, 345, 217, 360, 280
-0.998032, 369, 169, 384, 200
-0.998036, 421, 105, 436, 136
-0.998044, 313, 249, 344, 312
-0.998046, 225, 33, 288, 288
-0.998047, 297, 133, 312, 164
-0.998058, 305, 181, 320, 212
-0.99806, 315, 105, 330, 168
-0.998083, 329, 97, 360, 160
-0.998089, 349, 249, 364, 312
-0.998095, 295, 189, 310, 220
-0.998096, 265, 265, 328, 328
-0.998104, 81, 241, 208, 272
-0.998105, 315, 121, 330, 152
-0.998106, 241, 145, 272, 208
-0.998114, 399, 233, 414, 296
-0.998114, 65, 265, 80, 328
-0.998126, 217, 1, 280, 333
-0.998127, 283, 125, 298, 156
-0.998128, 401, 81, 432, 208
-0.998134, 375, 97, 390, 160
-0.998141, 423, 97, 438, 160
-0.998141, 109, 209, 140, 333
-0.998147, 373, 233, 388, 296
-0.998147, 233, 241, 248, 304
-0.998159, 57, 241, 72, 304
-0.998165, 401, 97, 416, 160
-0.99817, 325, 205, 340, 236
-0.99817, 267, 145, 282, 208
-0.998172, 225, 233, 352, 264
-0.998182, 341, 241, 372, 304
-0.998185, 333, 97, 348, 160
-0.998186, 37, 241, 52, 304
-0.998188, 313, 209, 328, 240
-0.998194, 33, 1, 96, 333
-0.998196, 355, 125, 370, 156
-0.9982, 317, 185, 332, 216
-0.998205, 305, 189, 432, 220
-0.998214, 321, 33, 384, 96
-0.998216, 221, 249, 236, 312
-0.998226, 375, 241, 390, 272
-0.998229, 227, 249, 242, 312
-0.998229, 377, 161, 392, 192
-0.99823, 351, 97, 366, 160
-0.998236, 105, 161, 168, 288
-0.998242, 353, 169, 480, 200
-0.998249, 283, 173, 298, 204
-0.99825, 297, 209, 312, 240
-0.998254, 105, 209, 168, 272
-0.998254, 339, 213, 354, 244
-0.998256, 385, 1, 448, 256
-0.998259, 271, 173, 286, 204
-0.998263, 337, 177, 352, 208
-0.998272, 241, 249, 256, 280
-0.998277, 341, 241, 356, 304
-0.998278, 281, 33, 312, 288
-0.998283, 397, 121, 428, 136
-0.998284, 397, 247, 428, 262
-0.998285, 417, 103, 448, 118
-0.998285, 329, 195, 360, 210
-0.998285, 449, 241, 480, 256
-0.998285, 345, 207, 376, 222
-0.998285, 369, 111, 400, 126
-0.998286, 149, 209, 180, 333
-0.998288, 173, 199, 204, 214
-0.99829, 393, 105, 424, 120
-0.998291, 341, 121, 356, 152
-0.998292, 73, 259, 104, 274
-0.998293, 305, 121, 320, 152
-0.998295, 53, 265, 84, 280
-0.998296, 363, 173, 378, 204
-0.998296, 249, 259, 280, 274
-0.998298, 285, 195, 316, 210
-0.998299, 385, 241, 416, 256
-0.998302, 297, 225, 328, 240
-0.998302, 381, 113, 412, 128
-0.998306, 321, 175, 352, 190
-0.998307, 253, 185, 284, 200
-0.99831, 317, 133, 348, 148
-0.998312, 305, 253, 336, 268
-0.998313, 401, 111, 432, 126
-0.998314, 261, 171, 292, 186
-0.998314, 425, 109, 456, 124
-0.998314, 233, 261, 264, 276
-0.998315, 365, 123, 396, 138
-0.998315, 341, 137, 356, 168
-0.998316, 349, 255, 380, 270
-0.998318, 301, 131, 332, 146
-0.998318, 349, 185, 380, 200
-0.998318, 325, 63, 356, 78
-0.99832, 321, 255, 352, 270
-0.998323, 369, 129, 384, 160
-0.998324, 253, 251, 284, 266
-0.998326, 317, 201, 348, 216
-0.998326, 405, 105, 436, 120
-0.998327, 361, 105, 392, 120
-0.998329, 193, 1, 256, 333
-0.998329, 95, 241, 110, 304
-0.99833, 317, 119, 348, 134
-0.998333, 333, 125, 348, 156
-0.998335, 381, 241, 396, 272
-0.998335, 333, 249, 348, 312
-0.998336, 305, 141, 320, 172
-0.998337, 293, 209, 324, 224
-0.998337, 373, 147, 404, 162
-0.998337, 43, 225, 58, 288
-0.998338, 369, 241, 400, 256
-0.998338, 385, 135, 416, 150
-0.998339, 413, 127, 444, 142
-0.99834, 321, 205, 448, 236
-0.99834, 333, 209, 348, 240
-0.998342, 291, 137, 306, 168
-0.998345, 319, 165, 334, 196
-0.998345, 361, 215, 392, 230
-0.998347, 357, 177, 388, 192
-0.998347, 321, 219, 352, 234
-0.998347, 325, 141, 340, 172
-0.998349, 281, 209, 312, 224
-0.998352, 353, 139, 384, 154
-0.998352, 241, 253, 272, 268
-0.998352, 313, 181, 344, 196
-0.998353, 329, 147, 360, 162
-0.998357, 317, 225, 348, 240
-0.998357, 315, 233, 330, 296
-0.99836, 337, 255, 368, 270
-0.99836, 353, 243, 384, 258
-0.998361, 397, 99, 428, 114
-0.998363, 285, 171, 316, 186
-0.998365, 225, 257, 352, 288
-0.998365, 377, 149, 392, 180
-0.998366, 265, 185, 296, 200
-0.998367, 281, 189, 312, 204
-0.998367, 285, 209, 300, 272
-0.998368, 285, 97, 300, 160
-0.998369, 357, 249, 388, 312
-0.998369, 313, 157, 376, 172
-0.99837, 293, 113, 308, 144
-0.99837, 313, 169, 328, 200
-0.998371, 293, 117, 324, 132
-0.998371, 429, 121, 460, 136
-0.998372, 443, 113, 458, 176
-0.998372, 305, 97, 320, 160
-0.998373, 229, 265, 260, 328
-0.998377, 369, 157, 400, 172
-0.998378, 409, 121, 440, 136
-0.998378, 293, 163, 324, 178
-0.998378, 305, 217, 336, 232
-0.998378, 277, 139, 308, 154
-0.998379, 369, 253, 400, 268
-0.99838, 249, 249, 264, 280
-0.998381, 381, 107, 412, 122
-0.998382, 339, 193, 354, 224
-0.998383, 317, 195, 348, 210
-0.998388, 369, 169, 400, 184
-0.99839, 297, 203, 328, 218
-0.99839, 391, 97, 406, 128
-0.998391, 337, 189, 368, 204
-0.998392, 345, 219, 376, 234
-0.998392, 297, 197, 328, 212
-0.998393, 289, 131, 320, 146
-0.998394, 349, 169, 380, 184
-0.998394, 353, 169, 368, 200
-0.998397, 317, 149, 348, 164
-0.998398, 305, 231, 336, 246
-0.998399, 87, 257, 102, 320
-0.9984, 353, 145, 384, 160
-0.9984, 343, 97, 358, 160
-0.9984, 369, 265, 496, 328
-0.9984, 327, 245, 342, 276
-0.998401, 365, 129, 396, 144
-0.998402, 25, 241, 40, 304
-0.998402, 269, 125, 300, 140
-0.998402, 285, 147, 316, 162
-0.998403, 373, 141, 404, 156
-0.998403, 289, 215, 320, 230
-0.998403, 273, 177, 304, 192
-0.998405, 335, 141, 350, 172
-0.998405, 275, 193, 290, 256
-0.998406, 349, 213, 380, 228
-0.998407, 297, 169, 328, 184
-0.998408, 349, 133, 380, 148
-0.998408, 229, 251, 260, 266
-0.998408, 385, 247, 416, 262
-0.998409, 229, 249, 244, 280
-0.99841, 315, 145, 330, 272
-0.998411, 305, 123, 336, 138
-0.998412, 425, 115, 456, 130
-0.998413, 33, 257, 160, 288
-0.998414, 9, 257, 24, 320
-0.998415, 329, 125, 360, 140
-0.998415, 57, 265, 72, 328
-0.998415, 341, 175, 372, 190
-0.998416, 333, 159, 364, 174
-0.998416, 415, 105, 430, 136
-0.998418, 461, 241, 476, 304
-0.998419, 305, 145, 336, 160
-0.998419, 369, 163, 400, 178
-0.998423, 299, 225, 314, 288
-0.998424, 337, 213, 368, 228
-0.998426, 381, 97, 396, 128
-0.998426, 177, 1, 304, 64
-0.998428, 177, 245, 304, 276
-0.998428, 321, 249, 352, 264
-0.998432, 289, 185, 352, 200
-0.998434, 281, 123, 344, 138
-0.998436, 281, 123, 312, 138
-0.998438, 113, 129, 240, 192
-0.998439, 309, 175, 340, 190
-0.998441, 381, 101, 412, 116
-0.998442, 329, 181, 360, 196
-0.998443, 293, 189, 324, 204
-0.998444, 347, 125, 362, 156
-0.998445, 369, 135, 400, 150
-0.998445, 393, 129, 408, 192
-0.998447, 277, 131, 308, 146
-0.99845, 349, 249, 380, 264
-0.998451, 285, 249, 300, 312
-0.998453, 279, 145, 294, 208
-0.998457, 333, 249, 364, 264
-0.998457, 321, 161, 352, 176
-0.998458, 333, 219, 364, 234
-0.99846, 289, 177, 320, 192
-0.998461, 277, 183, 308, 198
-0.998465, 305, 189, 336, 204
-0.99847, 397, 73, 428, 136
-0.998471, 261, 177, 292, 192
-0.998471, 353, 65, 384, 320
-0.998472, 317, 125, 348, 140
-0.998472, 305, 151, 368, 166
-0.998474, 437, 109, 452, 140
-0.998475, 357, 163, 388, 178
-0.998476, 297, 157, 328, 172
-0.998478, 317, 207, 348, 222
-0.998479, 365, 247, 396, 262
-0.998481, 31, 241, 46, 304
-0.998481, 297, 137, 328, 152
-0.998489, 253, 249, 268, 312
-0.99849, 313, 125, 376, 140
-0.998492, 333, 193, 348, 224
-0.998492, 369, 249, 384, 280
-0.998492, 345, 127, 376, 142
-0.998496, 305, 213, 320, 244
-0.998496, 305, 177, 368, 192
-0.998497, 249, 177, 312, 192
-0.998498, 235, 249, 250, 280
-0.998499, 357, 157, 388, 172
-0.998499, 361, 177, 376, 240
-0.998502, 405, 233, 420, 296
-0.998502, 77, 241, 92, 304
-0.998503, 385, 109, 400, 140
-0.998506, 387, 241, 402, 272
-0.998508, 293, 225, 308, 288
-0.99851, 305, 209, 336, 224
-0.998512, 375, 129, 390, 160
-0.998512, 305, 151, 336, 166
-0.998516, 317, 189, 348, 204
-0.998516, 291, 177, 306, 208
-0.998516, 357, 151, 388, 166
-0.998516, 345, 159, 376, 174
-0.998517, 297, 211, 360, 226
-0.998518, 413, 121, 428, 184
-0.99852, 305, 225, 320, 288
-0.998523, 329, 151, 392, 166
-0.998523, 387, 133, 402, 164
-0.998524, 329, 57, 344, 120
-0.998524, 1, 233, 32, 296
-0.998527, 325, 213, 356, 228
-0.998529, 369, 89, 384, 152
-0.99853, 215, 265, 230, 328
-0.998533, 265, 189, 328, 204
-0.998534, 81, 1, 208, 64
-0.998535, 289, 171, 352, 186
-0.998536, 33, 265, 48, 328
-0.998536, 327, 173, 342, 204
-0.998541, 247, 225, 262, 288
-0.998547, 243, 261, 258, 292
-0.998547, 265, 165, 280, 196
-0.998548, 281, 155, 344, 170
-0.998549, 297, 183, 328, 198
-0.99855, 301, 157, 316, 188
-0.998555, 305, 191, 368, 206
-0.998557, 329, 215, 392, 230
-0.998557, 293, 123, 324, 138
-0.998558, 357, 97, 372, 160
-0.998559, 361, 249, 424, 264
-0.998559, 327, 193, 342, 224
-0.99856, 265, 183, 328, 198
-0.998561, 353, 141, 368, 172
-0.998564, 311, 141, 326, 172
-0.998564, 419, 117, 434, 148
-0.998566, 347, 137, 362, 168
-0.998566, 305, 217, 368, 232
-0.998569, 273, 177, 336, 192
-0.998571, 345, 237, 360, 268
-0.998573, 273, 149, 336, 164
-0.998575, 321, 135, 384, 150
-0.998576, 337, 249, 400, 264
-0.998578, 305, 163, 368, 178
-0.998578, 361, 133, 424, 148
-0.998579, 309, 165, 340, 180
-0.998582, 351, 185, 366, 216
-0.998586, 377, 101, 440, 116
-0.99859, 321, 145, 336, 272
-0.998591, 17, 265, 32, 328
-0.998591, 281, 129, 344, 144
-0.998592, 329, 177, 392, 192
-0.998596, 367, 217, 382, 280
-0.998597, 345, 213, 360, 244
-0.998597, 353, 185, 416, 248
-0.998598, 129, 257, 256, 288
-0.998598, 289, 141, 352, 156
-0.9986, 309, 157, 340, 172
-0.998601, 209, 253, 272, 268
-0.998602, 467, 233, 482, 296
-0.998607, 369, 273, 432, 333
-0.998608, 329, 163, 392, 178
-0.998609, 289, 135, 352, 150
-0.998611, 313, 185, 376, 200
-0.998611, 353, 151, 416, 166
-0.998611, 321, 155, 352, 170
-0.998613, 241, 185, 304, 200
-0.998614, 353, 157, 416, 172
-0.998614, 305, 249, 368, 264
-0.998616, 393, 241, 408, 272
-0.998616, 249, 131, 312, 146
-0.998617, 253, 97, 284, 224
-0.998618, 353, 125, 416, 140
-0.998619, 249, 171, 312, 186
-0.99862, 259, 169, 274, 232
-0.998621, 369, 1, 496, 128
-0.998622, 249, 123, 312, 138
-0.998626, 329, 221, 392, 236
-0.998626, 345, 189, 360, 220
-0.998626, 329, 145, 392, 160
-0.99863, 273, 215, 336, 230
-0.998631, 273, 195, 336, 210
-0.998633, 275, 161, 290, 192
-0.998634, 309, 129, 324, 256
-0.998634, 385, 107, 448, 122
-0.998635, 265, 165, 328, 180
-0.998637, 281, 205, 344, 220
-0.998638, 329, 169, 392, 184
-0.998638, 257, 143, 320, 158
-0.998639, 353, 165, 416, 180
-0.998641, 361, 139, 424, 154
-0.998644, 353, 171, 416, 186
-0.99865, 281, 117, 344, 132
-0.998653, 393, 125, 456, 140
-0.998655, 249, 251, 312, 266
-0.998656, 353, 245, 368, 276
-0.998664, 337, 153, 368, 168
-0.998668, 239, 217, 254, 280
-0.99867, 321, 243, 384, 258
-0.998672, 321, 209, 384, 224
-0.998675, 321, 255, 384, 270
-0.998676, 305, 229, 368, 244
-0.998678, 225, 179, 288, 194
-0.998678, 353, 213, 416, 228
-0.998679, 377, 119, 440, 134
-0.998679, 305, 203, 368, 218
-0.998681, 305, 223, 368, 238
-0.998682, 305, 233, 320, 264
-0.998682, 337, 103, 400, 118
-0.998682, 249, 137, 312, 152
-0.998683, 337, 183, 400, 198
-0.998684, 369, 243, 432, 258
-0.998686, 361, 109, 424, 124
-0.998686, 281, 251, 344, 266
-0.998686, 113, 153, 240, 216
-0.998688, 369, 209, 400, 272
-0.99869, 337, 245, 352, 276
-0.998692, 257, 207, 320, 222
-0.998693, 393, 113, 456, 128
-0.998693, 33, 233, 160, 264
-0.998697, 425, 121, 488, 136
-0.998697, 225, 247, 288, 262
-0.998699, 273, 225, 336, 240
-0.9987, 225, 261, 288, 276
-0.9987, 57, 261, 120, 276
-0.9987, 305, 119, 368, 134
-0.998701, 297, 197, 360, 212
-0.998702, 153, 201, 216, 216
-0.998702, 361, 145, 424, 160
-0.998702, 9, 259, 72, 274
-0.998702, 281, 245, 344, 260
-0.998704, 399, 257, 414, 320
-0.998704, 273, 1, 400, 64
-0.998705, 345, 243, 408, 258
-0.998706, 17, 267, 80, 282
-0.998707, 345, 255, 408, 270
-0.998708, 353, 177, 416, 192
-0.99871, 185, 257, 248, 272
-0.99871, 413, 93, 428, 124
-0.99871, 313, 65, 376, 80
-0.998712, 65, 255, 128, 270
-0.998712, 249, 257, 312, 272
-0.998713, 201, 247, 264, 262
-0.998714, 225, 173, 288, 188
-0.998715, 177, 197, 240, 212
-0.998717, 51, 225, 66, 288
-0.998718, 393, 1, 456, 333
-0.998719, 327, 257, 342, 320
-0.99872, 393, 245, 456, 260
-0.998721, 249, 245, 312, 260
-0.998722, 337, 189, 400, 204
-0.998723, 385, 131, 448, 146
-0.998723, 285, 145, 300, 208
-0.998724, 289, 235, 352, 250
-0.99873, 337, 119, 400, 134
-0.99873, 89, 249, 152, 264
-0.998731, 383, 253, 398, 284
-0.998731, 257, 157, 320, 172
-0.998736, 201, 263, 264, 278
-0.998738, 49, 245, 112, 260
-0.998738, 287, 113, 302, 144
-0.998739, 265, 231, 328, 246
-0.99874, 89, 259, 152, 274
-0.998741, 433, 239, 496, 254
-0.998743, 241, 215, 304, 230
-0.998743, 401, 119, 464, 134
-0.998743, 1, 249, 64, 264
-0.998744, 329, 203, 392, 218
-0.998746, 443, 113, 458, 144
-0.998747, 369, 101, 496, 132
-0.998747, 209, 241, 272, 256
-0.998748, 177, 247, 240, 262
-0.998748, 153, 287, 216, 302
-0.998748, 249, 117, 312, 132
-0.998749, 281, 257, 344, 272
-0.99875, 377, 95, 440, 110
-0.998751, 201, 173, 264, 188
-0.998751, 185, 281, 248, 296
-0.998751, 241, 165, 304, 180
-0.998751, 201, 291, 264, 306
-0.998752, 369, 259, 432, 274
-0.998753, 177, 263, 240, 278
-0.998753, 393, 239, 456, 254
-0.998753, 89, 243, 152, 258
-0.998756, 361, 207, 424, 222
-0.998756, 121, 283, 184, 298
-0.998758, 121, 255, 184, 270
-0.998758, 417, 127, 480, 142
-0.998758, 137, 195, 200, 210
-0.998758, 233, 209, 296, 224
-0.998761, 293, 65, 324, 320
-0.998762, 329, 61, 344, 92
-0.998764, 303, 113, 318, 240
-0.998764, 327, 113, 342, 240
-0.998766, 369, 65, 400, 320
-0.998766, 363, 113, 378, 240
-0.998772, 369, 117, 384, 148
-0.998772, 361, 117, 376, 148
-0.998773, 357, 181, 372, 212
-0.998777, 271, 185, 286, 216
-0.998781, 381, 137, 396, 168
-0.998782, 383, 149, 398, 180
-0.998782, 305, 261, 432, 292
-0.998786, 333, 113, 348, 144
-0.99879, 311, 233, 326, 264
-0.99879, 249, 261, 264, 292
-0.998791, 193, 109, 320, 140
-0.998793, 129, 201, 256, 232
-0.998798, 393, 129, 456, 256
-0.998806, 377, 253, 392, 284
-0.99881, 73, 261, 88, 292
-0.99881, 313, 109, 328, 140
-0.99881, 297, 273, 360, 333
-0.998811, 223, 249, 238, 280
-0.998815, 67, 261, 82, 292
-0.998815, 65, 185, 320, 248
-0.998817, 321, 249, 336, 280
-0.998823, 369, 149, 496, 180
-0.998825, 91, 249, 106, 280
-0.998826, 393, 129, 408, 160
-0.998828, 335, 113, 350, 240
-0.998829, 255, 249, 270, 280
-0.998837, 259, 169, 274, 200
-0.998851, 347, 253, 362, 284
-0.998856, 431, 109, 446, 140
-0.998857, 391, 117, 406, 148
-0.998866, 65, 249, 80, 280
-0.998867, 351, 113, 366, 240
-0.99887, 299, 233, 314, 264
-0.998872, 237, 261, 252, 292
-0.998873, 397, 97, 412, 128
-0.998876, 225, 1, 352, 64
-0.998877, 345, 113, 360, 240
-0.998889, 357, 113, 372, 240
-0.99889, 193, 209, 320, 240
-0.998898, 353, 269, 480, 300
-0.998915, 33, 89, 160, 152
-0.998927, 33, 273, 64, 333
-0.998949, 257, 65, 384, 96
-0.99896, 369, 129, 384, 256
-0.998968, 129, 1, 256, 64
-0.998968, 129, 81, 256, 144
-0.99897, 277, 217, 308, 280
-0.998982, 257, 257, 500, 320
-0.998985, 315, 97, 330, 224
-0.998986, 309, 33, 340, 160
-0.999009, 353, 1, 480, 64
-0.999015, 81, 201, 208, 232
-0.999029, 1, 209, 500, 272
-0.999032, 129, 233, 256, 264
-0.999043, 225, 73, 480, 136
-0.999046, 273, 33, 336, 96
-0.999048, 17, 145, 144, 208
-0.999055, 145, 165, 272, 196
-0.999059, 321, 97, 336, 224
-0.999068, 49, 221, 176, 252
-0.999072, 303, 161, 318, 288
-0.999073, 297, 113, 312, 240
-0.999075, 81, 253, 208, 284
-0.999086, 309, 177, 324, 304
-0.99909, 241, 201, 272, 264
-0.999116, 285, 89, 316, 152
-0.99912, 1, 269, 128, 300
-0.999125, 1, 221, 128, 252
-0.999126, 241, 221, 368, 252
-0.999131, 379, 97, 394, 224
-0.999134, 433, 1, 496, 256
-0.999168, 145, 285, 272, 316
-0.99917, 317, 193, 332, 320
-0.999172, 65, 105, 320, 168
-0.999174, 327, 161, 342, 288
-0.999187, 33, 209, 160, 240
-0.99919, 375, 145, 390, 272
-0.999193, 1, 265, 256, 328
-0.999204, 161, 153, 288, 184
-0.999212, 33, 1, 160, 128
-0.999212, 241, 269, 368, 300
-0.999221, 145, 189, 272, 220
-0.999238, 65, 137, 320, 200
-0.999243, 1, 153, 500, 216
-0.999247, 329, 65, 344, 192
-0.99925, 165, 193, 196, 256
-0.999258, 177, 233, 304, 264
-0.99926, 145, 213, 272, 244
-0.999262, 57, 1, 120, 333
-0.999271, 177, 137, 304, 168
-0.999273, 321, 57, 448, 88
-0.999282, 337, 217, 464, 248
-0.999301, 81, 277, 208, 308
-0.999305, 273, 101, 400, 132
-0.999306, 201, 129, 264, 256
-0.999306, 343, 65, 358, 192
-0.999317, 145, 269, 272, 300
-0.999319, 1, 257, 500, 320
-0.999334, 321, 281, 448, 312
-0.999355, 343, 161, 358, 288
-0.999371, 321, 89, 448, 120
-0.999371, 349, 65, 364, 192
-0.999372, 425, 97, 456, 224
-0.999377, 425, 1, 488, 333
-0.999377, 97, 57, 224, 120
-0.999382, 335, 65, 350, 192
-0.999383, 369, 89, 496, 120
-0.999391, 353, 257, 480, 288
-0.999396, 369, 81, 384, 208
-0.999407, 363, 161, 378, 288
-0.999409, 337, 161, 352, 288
-0.999416, 291, 129, 306, 256
-0.999416, 257, 65, 288, 320
-0.999424, 193, 221, 320, 252
-0.999436, 355, 65, 370, 192
-0.999439, 273, 145, 288, 272
-0.999442, 21, 217, 52, 280
-0.999444, 49, 65, 176, 128
-0.999445, 251, 177, 266, 304
-0.99945, 369, 205, 496, 236
-0.999456, 369, 49, 496, 176
-0.999457, 129, 233, 192, 296
-0.99946, 285, 113, 300, 240
-0.999464, 273, 281, 400, 312
-0.999465, 265, 145, 280, 272
-0.999467, 241, 293, 368, 324
-0.999484, 309, 81, 324, 208
-0.999493, 297, 161, 312, 288
-0.999494, 81, 189, 208, 220
-0.999499, 225, 53, 352, 84
-0.999508, 1, 289, 128, 320
-0.999515, 239, 193, 254, 320
-0.999519, 385, 81, 400, 208
-0.999528, 353, 161, 368, 288
-0.999529, 1, 113, 256, 240
-0.999531, 17, 1, 144, 32
-0.999537, 279, 161, 294, 288
-0.999538, 373, 211, 388, 226
-0.999539, 363, 243, 378, 258
-0.999539, 371, 131, 386, 146
-0.99954, 303, 161, 318, 176
-0.99954, 293, 143, 308, 158
-0.999541, 333, 175, 348, 190
-0.999541, 333, 195, 348, 210
-0.999541, 375, 253, 390, 268
-0.999542, 419, 121, 434, 136
-0.999542, 429, 127, 444, 142
-0.999543, 369, 253, 384, 268
-0.999543, 305, 143, 320, 158
-0.999543, 309, 233, 324, 248
-0.999543, 209, 281, 336, 312
-0.999544, 377, 151, 392, 166
-0.999546, 311, 175, 326, 190
-0.999547, 287, 173, 302, 188
-0.999547, 343, 177, 358, 192
-0.999549, 121, 161, 184, 224
-0.99955, 273, 89, 400, 120
-0.999551, 359, 171, 374, 186
-0.999551, 281, 177, 296, 192
-0.999552, 259, 193, 274, 320
-0.999552, 393, 101, 408, 116
-0.999552, 391, 81, 406, 208
-0.999553, 343, 157, 358, 172
-0.999553, 337, 159, 352, 174
-0.999553, 349, 127, 364, 142
-0.999553, 367, 125, 382, 140
-0.999555, 301, 123, 316, 138
-0.999555, 327, 203, 342, 218
-0.999556, 193, 269, 320, 300
-0.999556, 387, 245, 402, 260
-0.999557, 177, 65, 304, 192
-0.999557, 367, 141, 382, 156
-0.999557, 243, 253, 258, 268
-0.999558, 303, 233, 318, 248
-0.999559, 417, 103, 432, 118
-0.999559, 321, 249, 336, 264
-0.999562, 333, 125, 348, 140
-0.999562, 371, 149, 386, 164
-0.999562, 367, 213, 382, 228
-0.999563, 305, 183, 320, 198
-0.999563, 251, 253, 266, 268
-0.999563, 335, 183, 350, 198
-0.999565, 349, 187, 364, 202
-0.999567, 393, 107, 408, 122
-0.999567, 275, 185, 290, 200
-0.999569, 311, 205, 326, 220
-0.999569, 81, 289, 208, 320
-0.999571, 377, 163, 392, 178
-0.999571, 327, 149, 342, 164
-0.999572, 305, 207, 320, 222
-0.999572, 323, 189, 338, 204
-0.999573, 335, 221, 350, 236
-0.999575, 325, 227, 340, 242
-0.999575, 113, 33, 240, 96
-0.999576, 307, 123, 322, 138
-0.999576, 377, 145, 392, 160
-0.999577, 339, 249, 354, 264
-0.999577, 309, 169, 324, 184
-0.999577, 287, 179, 302, 194
-0.999578, 299, 179, 314, 194
-0.999578, 97, 213, 224, 244
-0.999578, 393, 245, 408, 260
-0.999579, 365, 135, 380, 150
-0.99958, 345, 215, 360, 230
-0.999583, 295, 131, 310, 146
-0.999583, 319, 123, 334, 138
-0.999584, 439, 115, 454, 130
-0.999584, 383, 111, 398, 126
-0.999584, 331, 161, 346, 176
-0.999584, 375, 157, 390, 172
-0.999585, 317, 231, 332, 246
-0.999586, 341, 191, 356, 206
-0.999586, 323, 209, 338, 333
-0.999589, 283, 127, 298, 142
-0.999589, 303, 167, 318, 182
-0.99959, 301, 213, 316, 228
-0.99959, 357, 249, 372, 264
-0.999593, 301, 193, 316, 208
-0.999595, 329, 251, 344, 266
-0.999595, 375, 105, 390, 120
-0.999596, 307, 197, 322, 212
-0.999596, 433, 273, 496, 333
-0.999596, 295, 213, 310, 228
-0.999596, 387, 137, 402, 152
-0.999597, 367, 173, 382, 188
-0.999597, 295, 189, 310, 204
-0.999598, 291, 137, 306, 152
-0.9996, 387, 105, 402, 120
-0.999605, 381, 247, 396, 262
-0.999606, 161, 121, 288, 152
-0.999609, 351, 249, 366, 264
-0.999613, 361, 155, 376, 170
-0.999614, 87, 209, 102, 333
-0.999615, 355, 127, 370, 142
-0.999616, 315, 151, 330, 166
-0.999616, 313, 197, 328, 212
-0.999616, 363, 249, 378, 264
-0.999617, 283, 121, 298, 136
-0.999617, 327, 209, 342, 224
-0.999619, 339, 125, 354, 140
-0.99962, 307, 155, 322, 170
-0.999623, 319, 217, 334, 232
-0.999625, 299, 147, 314, 162
-0.999626, 231, 193, 246, 320
-0.999628, 333, 213, 348, 228
-0.999629, 309, 149, 324, 164
-0.999629, 77, 209, 92, 333
-0.99963, 299, 137, 314, 152
-0.999632, 303, 173, 318, 188
-0.999633, 325, 125, 340, 140
-0.999634, 387, 99, 402, 114
-0.999634, 259, 145, 274, 272
-0.999635, 81, 265, 208, 296
-0.999635, 313, 123, 328, 138
-0.999638, 361, 65, 376, 192
-0.999638, 369, 247, 384, 262
-0.999642, 311, 211, 326, 226
-0.999644, 369, 177, 384, 304
-0.999647, 295, 123, 310, 138
-0.99965, 371, 167, 386, 182
-0.999652, 433, 241, 464, 304
-0.999654, 295, 65, 310, 192
-0.999656, 375, 247, 390, 262
-0.999663, 275, 175, 290, 190
-0.999664, 345, 249, 360, 264
-0.999665, 349, 153, 364, 168
-0.999666, 317, 191, 332, 206
-0.999666, 469, 249, 500, 312
-0.999667, 279, 113, 294, 240
-0.999667, 365, 167, 380, 182
-0.999668, 65, 165, 192, 196
-0.999669, 369, 155, 384, 170
-0.999673, 309, 189, 324, 204
-0.999675, 323, 163, 338, 178
-0.999676, 353, 193, 480, 224
-0.999677, 337, 153, 352, 168
-0.999678, 421, 49, 452, 176
-0.999678, 193, 209, 224, 333
-0.999679, 361, 129, 376, 144
-0.999681, 321, 49, 336, 176
-0.999682, 17, 25, 144, 88
-0.999682, 289, 131, 304, 146
-0.999685, 321, 151, 336, 166
-0.999687, 355, 155, 370, 170
-0.99969, 33, 197, 160, 228
-0.999691, 291, 177, 306, 304
-0.999691, 315, 165, 330, 180
-0.999692, 289, 121, 304, 136
-0.999692, 89, 1, 152, 333
-0.999694, 343, 151, 358, 166
-0.999699, 381, 103, 396, 118
-0.9997, 361, 161, 376, 176
-0.999701, 177, 81, 304, 144
-0.999702, 285, 177, 300, 304
-0.999703, 321, 293, 448, 324
-0.999704, 65, 193, 80, 320
-0.999705, 409, 65, 472, 320
-0.999706, 265, 193, 280, 320
-0.999708, 245, 209, 260, 333
-0.999708, 129, 105, 256, 168
-0.999709, 271, 193, 286, 320
-0.999715, 319, 207, 334, 222
-0.999718, 303, 65, 318, 192
-0.999719, 309, 163, 324, 178
-0.99972, 339, 213, 354, 228
-0.999725, 385, 129, 400, 256
-0.999727, 225, 193, 240, 320
-0.999733, 49, 121, 176, 184
-0.999733, 325, 157, 340, 172
-0.999735, 387, 33, 402, 160
-0.999737, 35, 193, 50, 320
-0.999737, 369, 161, 384, 176
-0.999738, 439, 97, 454, 224
-0.99974, 331, 155, 346, 170
-0.999751, 219, 193, 234, 320
-0.999753, 485, 209, 500, 333
-0.999756, 301, 209, 316, 333
-0.999759, 113, 1, 176, 333
-0.999764, 313, 157, 328, 172
-0.999768, 397, 81, 412, 208
-0.99977, 93, 209, 108, 333
-0.999774, 141, 177, 156, 304
-0.999776, 273, 249, 304, 312
-0.99978, 441, 209, 456, 333
-0.999789, 305, 69, 432, 100
-0.999795, 377, 257, 408, 320
-0.999795, 149, 209, 164, 333
-0.999798, 169, 1, 232, 333
-0.999802, 273, 97, 288, 224
-0.999805, 329, 209, 344, 333
-0.999805, 319, 157, 334, 172
-0.999805, 209, 225, 240, 288
-0.999805, 389, 65, 420, 320
-0.999808, 113, 153, 240, 184
-0.999808, 135, 193, 150, 320
-0.999809, 129, 81, 384, 144
-0.99981, 41, 193, 56, 320
-0.999824, 267, 97, 282, 224
-0.999824, 155, 209, 170, 333
-0.999825, 23, 209, 38, 333
-0.999829, 391, 129, 406, 256
-0.999832, 1, 1, 64, 256
-0.999833, 445, 97, 460, 224
-0.999836, 469, 209, 500, 333
-0.999838, 47, 209, 62, 333
-0.999839, 315, 49, 330, 176
-0.999841, 103, 209, 118, 333
-0.999843, 1, 157, 128, 188
-0.999843, 3, 209, 18, 333
-0.999849, 11, 209, 26, 333
-0.99985, 17, 209, 32, 333
-0.99985, 375, 49, 390, 176
-0.99985, 479, 209, 494, 333
-0.999852, 1, 1, 64, 64
-0.999857, 427, 209, 442, 333
-0.99986, 415, 81, 430, 208
-0.999861, 115, 193, 130, 320
-0.999863, 437, 49, 452, 176
-0.999864, 71, 193, 86, 320
-0.999865, 209, 209, 224, 333
-0.999866, 397, 129, 412, 256
-0.999871, 245, 161, 260, 288
-0.999871, 313, 57, 344, 120
-0.999874, 449, 193, 464, 320
-0.999874, 405, 97, 420, 224
-0.999875, 369, 281, 496, 312
-0.999876, 53, 209, 68, 333
-0.999883, 137, 209, 168, 333
-0.999886, 269, 1, 300, 256
-0.999888, 227, 1, 242, 128
-0.999891, 377, 193, 392, 320
-0.999893, 417, 209, 432, 333
-0.999897, 163, 193, 178, 320
-0.999898, 421, 81, 436, 208
-0.999898, 237, 145, 252, 272
-0.999899, 29, 193, 44, 320
-0.9999, 257, 97, 272, 224
-0.999901, 251, 113, 266, 240
-0.999905, 471, 209, 486, 333
-0.999908, 203, 209, 218, 333
-0.99991, 399, 33, 414, 160
-0.999911, 129, 177, 144, 304
-0.999911, 145, 177, 272, 208
-0.999913, 153, 161, 168, 288
-0.999913, 433, 97, 448, 224
-0.999914, 109, 177, 124, 304
-0.999917, 285, 65, 300, 192
-0.999919, 17, 169, 144, 200
-0.99992, 121, 161, 136, 288
-0.999922, 113, 301, 240, 332
-0.999925, 65, 161, 320, 224
-0.999925, 369, 297, 496, 328
-0.99993, 97, 1, 224, 128
-0.99993, 455, 209, 470, 333
-0.999931, 1, 301, 128, 332
-0.999938, 147, 161, 162, 288
-0.999938, 389, 209, 404, 333
-0.999939, 341, 209, 356, 333
-0.999941, 97, 177, 224, 208
-0.999944, 1, 105, 500, 168
-0.999947, 49, 153, 176, 184
-0.999947, 479, 161, 494, 288
-0.999947, 317, 1, 332, 128
-0.99995, 369, 77, 496, 108
-0.99995, 23, 1, 38, 128
-0.999951, 121, 209, 136, 333
-0.999952, 411, 33, 426, 160
-0.999953, 59, 209, 74, 333
-0.999957, 161, 301, 288, 332
-0.999958, 245, 113, 260, 240
-0.999958, 229, 145, 244, 272
-0.999959, 37, 193, 68, 320
-0.999963, 201, 273, 232, 333
-0.999964, 81, 101, 208, 132
-0.999977, 49, 301, 176, 332
-0.999985, 177, 57, 304, 120
-0.999988, 65, 161, 128, 224
-0.999991, 457, 217, 488, 280
-0.999994, 417, 121, 448, 184
-1.00001, 65, 193, 128, 256
-1.00001, 113, 1, 240, 32
-1.00004, 441, 113, 472, 176
-1.00005, 177, 201, 240, 264
-1.00006, 193, 153, 256, 216
-1.00006, 1, 13, 128, 44
-1.00007, 257, 1, 384, 32
-1.00008, 53, 217, 84, 280
-1.00008, 437, 217, 468, 280
-1.00008, 145, 89, 272, 120
-1.00009, 1, 65, 128, 128
-1.00011, 321, 45, 448, 76
-1.00011, 113, 1, 176, 64
-1.00011, 225, 81, 352, 112
-1.00012, 65, 89, 192, 120
-1.00012, 193, 1, 320, 32
-1.00012, 97, 125, 224, 156
-1.00015, 385, 33, 448, 160
-1.00015, 25, 1, 56, 256
-1.00016, 17, 181, 144, 212
-1.00016, 257, 41, 384, 72
-1.00016, 437, 65, 468, 320
-1.00017, 129, 141, 256, 172
-1.00017, 369, 1, 496, 32
-1.00017, 65, 1, 192, 32
-1.00018, 65, 113, 192, 144
-1.0002, 129, 101, 256, 132
-1.00021, 353, 181, 480, 212
-1.00022, 373, 177, 404, 304
-1.00022, 305, 1, 432, 32
-1.00023, 33, 65, 160, 96
-1.00024, 425, 65, 456, 320
-1.00024, 65, 137, 192, 168
-1.00027, 161, 1, 416, 64
-1.00028, 1, 85, 128, 116
-1.00028, 33, 53, 160, 84
-1.00028, 49, 77, 176, 108
-1.00031, 117, 1, 148, 256
-1.00031, 81, 209, 112, 272
-1.00037, 177, 25, 304, 88
-1.00038, 433, 177, 496, 240
-1.00038, 37, 1, 68, 256
-1.0004, 129, 209, 192, 272
-1.00043, 237, 33, 268, 288
-1.00044, 253, 257, 284, 320
-1.00045, 25, 169, 88, 232
-1.00045, 329, 33, 360, 96
-1.00046, 97, 1, 128, 256
-1.00048, 129, 57, 384, 120
-1.00048, 213, 1, 244, 256
-1.00049, 1, 121, 128, 184
-1.00049, 33, 1, 288, 64
-1.00051, 445, 89, 476, 152
-1.00051, 65, 33, 192, 96
-1.00053, 369, 25, 496, 88
-1.00057, 157, 241, 188, 304
-1.00059, 225, 1, 256, 256
-1.00059, 65, 1, 96, 256
-1.00064, 101, 265, 132, 328
-1.00065, 201, 1, 264, 128
-1.00066, 397, 33, 428, 160
-1.00068, 385, 209, 416, 333
-1.00068, 17, 1, 80, 128
-1.00068, 209, 1, 272, 64
-1.00068, 265, 1, 328, 64
-1.00069, 405, 65, 436, 320
-1.0007, 457, 65, 488, 320
-1.00073, 1, 81, 256, 144
-1.00075, 449, 193, 480, 320
-1.00075, 261, 233, 292, 296
-1.00075, 197, 1, 228, 256
-1.00076, 13, 1, 44, 256
-1.00077, 169, 153, 232, 216
-1.00078, 145, 1, 208, 333
-1.00078, 257, 25, 500, 88
-1.00079, 257, 1, 500, 64
-1.00079, 97, 217, 128, 280
-1.00081, 81, 1, 112, 256
-1.00082, 165, 1, 196, 256
-1.00083, 185, 249, 216, 312
-1.00083, 273, 33, 400, 96
-1.00083, 97, 33, 352, 96
-1.00087, 1, 57, 256, 120
-1.00088, 385, 33, 416, 160
-1.00089, 97, 161, 160, 224
-1.00089, 177, 1, 208, 256
-1.00089, 469, 217, 500, 280
-1.0009, 49, 1, 80, 256
-1.0009, 237, 177, 268, 240
-1.0009, 161, 265, 192, 328
-1.00092, 285, 249, 316, 312
-1.00094, 469, 1, 500, 256
-1.00095, 129, 1, 160, 256
-1.00096, 105, 185, 168, 248
-1.00101, 49, 97, 176, 224
-1.00103, 337, 57, 368, 120
-1.00103, 409, 193, 472, 320
-1.00104, 257, 49, 500, 112
-1.00104, 345, 265, 376, 328
-1.00104, 1, 209, 32, 333
-1.00105, 417, 193, 448, 320
-1.00105, 417, 73, 448, 136
-1.00106, 177, 273, 208, 333
-1.00108, 301, 249, 332, 312
-1.00108, 273, 17, 400, 144
-1.0011, 437, 113, 468, 240
-1.00112, 1, 33, 256, 96
-1.00112, 1, 81, 500, 144
-1.00112, 145, 161, 176, 288
-1.00114, 1, 1, 32, 256
-1.00114, 417, 233, 448, 296
-1.00116, 229, 145, 260, 272
-1.00117, 421, 257, 452, 320
-1.00117, 449, 265, 480, 328
-1.00119, 177, 1, 240, 256
-1.00121, 153, 1, 184, 256
-1.00127, 97, 49, 224, 176
-1.00127, 429, 209, 460, 333
-1.00128, 1, 193, 64, 256
-1.00128, 345, 33, 408, 96
-1.00132, 141, 65, 172, 320
-1.00134, 377, 161, 408, 224
-1.00141, 401, 209, 432, 272
-1.00141, 133, 265, 164, 328
-1.00145, 353, 81, 384, 144
-1.00146, 385, 153, 448, 216
-1.00148, 333, 209, 364, 333
-1.00149, 69, 209, 100, 272
-1.0016, 401, 177, 464, 240
-1.00162, 89, 1, 152, 256
-1.00164, 413, 97, 444, 224
-1.00165, 1, 129, 64, 192
-1.00166, 225, 1, 288, 128
-1.00169, 185, 129, 248, 192
-1.0017, 389, 129, 420, 256
-1.00179, 145, 161, 208, 224
-1.0018, 33, 161, 96, 288
-1.00181, 297, 17, 360, 80
-1.00189, 353, 57, 416, 120
-1.00194, 97, 161, 128, 288
-1.00194, 33, 1, 96, 256
-1.00195, 145, 137, 208, 200
-1.00195, 241, 1, 304, 64
-1.002, 1, 57, 500, 120
-1.00203, 237, 97, 268, 224
-1.00204, 401, 193, 432, 320
-1.00208, 1, 33, 500, 96
-1.00209, 1, 161, 64, 224
-1.00211, 1, 97, 128, 224
-1.00211, 293, 33, 324, 160
-1.00215, 161, 193, 192, 320
-1.00218, 329, 17, 360, 144
-1.00222, 1, 1, 500, 64
-1.00223, 369, 33, 400, 160
-1.00224, 201, 1, 264, 256
-1.00227, 225, 81, 288, 144
-1.00232, 233, 65, 296, 192
-1.00237, 221, 1, 252, 128
-1.0024, 409, 33, 472, 160
-1.00244, 49, 1, 112, 64
-1.00253, 409, 1, 472, 64
-1.00254, 113, 97, 240, 224
-1.00254, 73, 161, 104, 288
-1.00255, 137, 1, 200, 64
-1.00256, 349, 209, 380, 333
-1.00257, 409, 57, 472, 120
-1.00258, 153, 41, 216, 104
-1.00259, 433, 97, 496, 224
-1.00264, 49, 137, 112, 200
-1.00264, 89, 1, 152, 64
-1.00266, 217, 105, 280, 168
-1.00266, 113, 1, 176, 128
-1.00269, 9, 73, 72, 136
-1.00275, 269, 209, 300, 333
-1.00276, 97, 97, 160, 160
-1.0028, 257, 1, 288, 128
-1.00287, 17, 49, 144, 176
-1.00287, 61, 161, 92, 288
-1.0029, 73, 25, 136, 88
-1.00292, 185, 17, 248, 80
-1.00292, 269, 65, 300, 192
-1.00293, 445, 65, 476, 192
-1.00294, 17, 97, 80, 160
-1.00295, 57, 1, 120, 256
-1.00297, 121, 81, 184, 144
-1.00301, 181, 209, 212, 333
-1.00306, 433, 153, 496, 216
-1.00308, 113, 161, 144, 288
-1.00313, 137, 105, 200, 168
-1.00314, 45, 17, 76, 144
-1.00315, 129, 1, 160, 128
-1.00316, 1, 161, 64, 288
-1.00318, 361, 209, 424, 333
-1.00318, 161, 1, 224, 128
-1.0032, 121, 41, 184, 104
-1.00321, 249, 73, 312, 136
-1.00325, 9, 1, 40, 128
-1.00334, 281, 209, 312, 333
-1.0034, 41, 145, 72, 272
-1.00348, 21, 161, 52, 288
-1.00361, 349, 1, 380, 128
-1.00361, 21, 1, 52, 128
-1.00361, 65, 145, 128, 272
-1.00363, 433, 1, 496, 128
-1.00364, 417, 1, 448, 128
-1.00371, 429, 161, 460, 288
-1.00379, 193, 1, 224, 128
-1.00382, 313, 17, 376, 144
-1.00382, 233, 1, 264, 128
-1.00385, 85, 161, 116, 288
-1.00385, 433, 161, 496, 288
-1.00389, 89, 1, 152, 128
-1.00396, 249, 1, 312, 128
-1.00398, 245, 1, 276, 128
-1.004, 141, 1, 172, 128
-1.00403, 469, 161, 500, 288
-1.00406, 449, 145, 480, 272
-1.00407, 1, 161, 32, 288
-1.00415, 437, 1, 468, 128
-1.00422, 409, 81, 472, 208
-1.00422, 145, 1, 208, 256
-1.00427, 169, 145, 232, 272
-1.00431, 145, 145, 208, 272
-1.00431, 209, 145, 240, 272
-1.00438, 433, 49, 496, 176
-1.00439, 189, 161, 220, 288
-1.00444, 173, 161, 204, 288
-1.00454, 281, 1, 312, 128
-1.00459, 209, 1, 240, 128
-1.00459, 269, 1, 300, 128
-1.00459, 33, 17, 64, 144
-1.00465, 161, 145, 192, 272
-1.0047, 117, 1, 148, 128
-1.00478, 401, 129, 432, 256
-1.00481, 125, 81, 156, 208
-1.00483, 93, 1, 124, 128
-1.00495, 165, 1, 196, 128
-1.00498, 173, 113, 204, 240
-1.00502, 113, 1, 176, 256
-1.00503, 137, 1, 200, 128
-1.00512, 181, 33, 212, 160
-1.00515, 69, 33, 100, 160
-1.00516, 49, 17, 112, 144
-1.00516, 469, 1, 500, 128
-1.00519, 21, 49, 52, 176
-1.00521, 57, 33, 88, 160
-1.00522, 141, 97, 172, 224
-1.00524, 433, 49, 464, 176
-1.00533, 361, 17, 424, 144
-1.00537, 417, 145, 448, 272
-1.00537, 33, 81, 64, 208
-1.00542, 105, 33, 136, 160
-1.00543, 153, 33, 184, 160
-1.00548, 225, 97, 256, 224
-1.0055, 457, 1, 488, 128
-1.00551, 21, 97, 52, 224
-1.00553, 81, 17, 112, 144
-1.00573, 193, 113, 224, 240
-1.00616, 177, 97, 240, 224
-1.00624, 1, 49, 64, 176
-1.0063, 113, 49, 176, 176
-1.00662, 25, 49, 88, 176
-1.00705, 153, 65, 216, 192
-1.00727, 177, 49, 240, 176
-1.00753, 49, 97, 112, 224
-1.00783, 73, 81, 136, 208
-1.00786, 129, 97, 192, 224
-1.00874, 9, 97, 72, 224
-1.00937, 105, 113, 168, 240
-1.00947, 209, 65, 272, 192
