1973
-0.47497, 1, 65, 500, 320
-0.479972, 1, 1, 500, 375
-0.565703, 33, 1, 288, 375
-0.606431, 33, 97, 288, 352
-0.628593, 129, 97, 384, 352
-0.65807, 129, 1, 384, 375
-0.70899, 225, 1, 480, 375
-0.759884, 225, 129, 480, 375
-0.832889, 65, 1, 320, 256
-0.86574, 49, 97, 176, 352
-0.868355, 129, 97, 256, 352
-0.879246, 225, 33, 480, 288
-0.881377, 177, 97, 304, 352
-0.884748, 1, 113, 500, 240
-0.887129, 49, 1, 176, 375
-0.894054, 129, 1, 256, 375
-0.902414, 225, 97, 352, 352
-0.90652, 1, 1, 128, 375
-0.90735, 49, 1, 176, 256
-0.910926, 33, 97, 288, 224
-0.91182, 177, 1, 304, 375
-0.912012, 1, 97, 128, 352
-0.921779, 129, 1, 256, 256
-0.924719, 225, 1, 352, 375
-0.928283, 1, 161, 500, 288
-0.928391, 49, 113, 176, 240
-0.929718, 65, 97, 128, 224
-0.930706, 273, 1, 400, 375
-0.932745, 273, 129, 400, 375
-0.93336, 129, 113, 384, 240
-0.938253, 97, 97, 224, 224
-0.938744, 177, 1, 304, 256
-0.941749, 1, 241, 500, 368
-0.944684, 1, 177, 256, 304
-0.944721, 273, 33, 400, 288
-0.9452, 1, 49, 500, 176
-0.949371, 1, 1, 128, 256
-0.950081, 1, 49, 256, 176
-0.950344, 129, 209, 384, 336
-0.950367, 321, 129, 448, 375
-0.950555, 321, 1, 448, 375
-0.950582, 33, 65, 160, 192
-0.952269, 105, 97, 168, 224
-0.953289, 225, 129, 480, 256
-0.953817, 145, 97, 272, 224
-0.954464, 73, 105, 136, 168
-0.954845, 225, 1, 352, 256
-0.956115, 129, 161, 384, 288
-0.956279, 145, 97, 208, 224
-0.956906, 81, 49, 208, 176
-0.957488, 57, 129, 120, 192
-0.957539, 369, 1, 496, 375
-0.959002, 97, 49, 352, 176
-0.959111, 65, 49, 128, 176
-0.960214, 161, 209, 224, 336
-0.960307, 177, 225, 304, 352
-0.960376, 321, 33, 448, 288
-0.961985, 209, 113, 336, 240
-0.962738, 1, 113, 128, 240
-0.963482, 89, 49, 152, 176
-0.963504, 369, 129, 496, 375
-0.963613, 97, 177, 224, 304
-0.966774, 33, 49, 96, 176
-0.966905, 225, 177, 480, 304
-0.966944, 129, 177, 192, 304
-0.967527, 81, 145, 144, 272
-0.967903, 49, 177, 176, 304
-0.968015, 201, 97, 264, 224
-0.968025, 177, 177, 304, 304
-0.968104, 49, 57, 112, 120
-0.968715, 193, 225, 256, 352
-0.968836, 41, 97, 104, 224
-0.970311, 1, 1, 500, 128
-0.970571, 33, 225, 288, 352
-0.971159, 257, 129, 384, 256
-0.971299, 69, 97, 100, 224
-0.971971, 89, 81, 152, 144
-0.972476, 369, 33, 496, 288
-0.972577, 49, 105, 112, 168
-0.972825, 49, 161, 112, 288
-0.972867, 121, 97, 184, 352
-0.972949, 193, 65, 448, 192
-0.973172, 257, 113, 320, 240
-0.973411, 177, 97, 240, 352
-0.973464, 225, 177, 288, 304
-0.973661, 121, 113, 184, 176
-0.974, 97, 225, 224, 352
-0.974043, 113, 49, 176, 176
-0.974484, 33, 105, 160, 168
-0.974535, 169, 97, 232, 224
-0.97495, 145, 105, 208, 168
-0.975243, 129, 193, 192, 256
-0.975531, 185, 177, 248, 304
-0.975673, 73, 65, 136, 320
-0.975697, 193, 249, 256, 312
-0.975939, 169, 105, 232, 168
-0.976022, 225, 177, 352, 304
-0.976133, 137, 49, 200, 176
-0.976476, 153, 97, 216, 352
-0.976477, 129, 49, 256, 176
-0.976535, 97, 129, 160, 192
-0.976668, 129, 105, 256, 168
-0.976728, 193, 113, 256, 176
-0.976831, 193, 49, 320, 176
-0.976958, 49, 129, 176, 192
-0.97744, 73, 49, 136, 112
-0.977462, 1, 161, 128, 288
-0.977728, 65, 153, 128, 216
-0.977943, 233, 113, 296, 240
-0.978158, 57, 81, 120, 144
-0.978176, 125, 113, 156, 240
-0.978192, 185, 273, 248, 336
-0.97839, 193, 225, 256, 288
-0.978472, 65, 113, 96, 176
-0.978693, 161, 233, 224, 296
-0.97914, 217, 97, 280, 352
-0.979231, 81, 97, 112, 224
-0.979309, 233, 121, 296, 184
-0.979471, 65, 81, 192, 144
-0.979524, 161, 257, 224, 320
-0.979933, 105, 177, 168, 304
-0.980087, 257, 241, 384, 368
-0.98031, 217, 225, 280, 288
-0.980356, 181, 225, 212, 352
-0.980396, 97, 97, 160, 352
-0.980616, 169, 49, 232, 176
-0.980789, 257, 241, 500, 368
-0.980838, 81, 105, 208, 168
-0.980902, 85, 49, 116, 176
-0.980927, 257, 97, 320, 352
-0.980972, 109, 129, 140, 256
-0.981241, 25, 145, 88, 208
-0.981363, 81, 89, 112, 152
-0.981521, 197, 281, 228, 344
-0.981538, 265, 241, 328, 304
-0.981591, 273, 281, 336, 344
-0.981622, 281, 129, 344, 256
-0.981674, 65, 1, 320, 128
-0.981914, 97, 105, 160, 168
-0.981964, 17, 17, 144, 144
-0.981973, 185, 297, 248, 360
-0.981979, 25, 145, 88, 272
-0.982144, 257, 129, 320, 192
-0.982165, 217, 225, 280, 352
-0.982197, 97, 113, 128, 240
-0.982226, 241, 241, 304, 368
-0.982235, 193, 49, 256, 176
-0.982349, 209, 121, 336, 184
-0.98277, 141, 97, 172, 224
-0.98279, 65, 185, 128, 248
-0.982891, 65, 193, 192, 256
-0.982905, 1, 129, 128, 192
-0.98303, 113, 81, 176, 144
-0.983117, 1, 81, 128, 144
-0.983266, 265, 225, 328, 352
-0.983562, 185, 201, 248, 264
-0.983615, 177, 241, 304, 304
-0.983657, 41, 97, 104, 352
-0.983853, 193, 17, 448, 144
-0.983952, 197, 241, 228, 368
-0.984023, 17, 57, 144, 120
-0.984076, 249, 265, 312, 328
-0.984115, 241, 65, 368, 192
-0.98414, 321, 225, 448, 352
-0.984239, 57, 1, 120, 375
-0.984272, 273, 177, 400, 304
-0.984311, 281, 137, 344, 200
-0.984486, 93, 81, 124, 144
-0.984493, 41, 169, 104, 232
-0.984601, 297, 305, 360, 368
-0.984638, 25, 121, 88, 184
-0.98479, 265, 177, 328, 304
-0.984833, 241, 241, 304, 304
-0.984854, 101, 105, 132, 168
-0.984885, 69, 65, 100, 128
-0.984927, 65, 1, 128, 128
-0.9851, 225, 65, 288, 192
-0.985256, 201, 249, 232, 312
-0.985469, 177, 217, 304, 280
-0.985484, 153, 97, 184, 224
-0.985559, 17, 97, 80, 224
-0.985578, 65, 49, 96, 176
-0.985627, 129, 225, 256, 288
-0.985905, 161, 1, 224, 375
-0.985908, 25, 65, 88, 128
-0.98599, 217, 249, 280, 312
-0.986003, 189, 305, 220, 368
-0.986027, 145, 193, 272, 256
-0.986153, 105, 65, 136, 192
-0.986162, 153, 1, 216, 256
-0.986213, 57, 113, 88, 240
-0.986232, 77, 113, 108, 176
-0.986419, 145, 297, 208, 360
-0.986456, 33, 153, 160, 216
-0.986493, 25, 89, 88, 152
-0.986632, 105, 177, 168, 240
-0.986914, 137, 217, 200, 280
-0.986958, 81, 1, 208, 128
-0.987091, 125, 121, 156, 184
-0.987253, 337, 177, 464, 304
-0.987269, 189, 249, 220, 312
-0.987288, 209, 225, 240, 352
-0.987323, 161, 145, 224, 272
-0.987353, 169, 81, 232, 144
-0.987428, 177, 265, 304, 328
-0.987443, 165, 97, 196, 224
-0.987452, 65, 161, 96, 288
-0.98747, 65, 137, 96, 200
-0.987618, 345, 313, 408, 375
-0.987619, 305, 129, 368, 256
-0.987792, 145, 81, 208, 144
-0.988128, 289, 65, 416, 192
-0.988145, 97, 129, 224, 192
-0.988216, 177, 233, 208, 296
-0.988236, 161, 177, 224, 240
-0.988237, 209, 97, 240, 224
-0.988357, 89, 153, 152, 216
-0.988413, 257, 137, 384, 200
-0.988472, 321, 313, 384, 375
-0.988482, 181, 273, 212, 336
-0.988485, 81, 49, 112, 112
-0.988577, 161, 105, 192, 168
-0.988593, 145, 169, 272, 232
-0.988623, 305, 129, 432, 256
-0.988668, 137, 113, 168, 176
-0.988735, 217, 89, 280, 152
-0.988803, 193, 89, 256, 152
-0.988898, 53, 161, 84, 224
-0.989059, 169, 209, 200, 336
-0.989099, 113, 73, 240, 136
-0.989121, 229, 97, 260, 224
-0.989134, 97, 1, 160, 256
-0.989219, 17, 177, 144, 240
-0.989233, 205, 105, 236, 168
-0.989293, 129, 257, 256, 320
-0.989316, 161, 209, 192, 272
-0.989376, 57, 137, 120, 168
-0.989388, 89, 113, 120, 176
-0.989418, 81, 1, 144, 375
-0.989611, 185, 1, 248, 375
-0.98966, 25, 1, 88, 256
-0.989677, 97, 289, 224, 352
-0.989745, 149, 105, 180, 168
-0.989752, 197, 97, 228, 224
-0.989759, 97, 145, 128, 208
-0.989824, 153, 177, 184, 304
-0.989842, 249, 97, 312, 160
-0.989842, 321, 225, 384, 352
-0.989888, 217, 113, 248, 176
-0.99007, 65, 41, 192, 104
-0.990085, 229, 113, 260, 176
-0.990099, 109, 137, 140, 200
-0.990157, 249, 65, 312, 192
-0.990224, 269, 113, 300, 240
-0.990314, 241, 209, 304, 272
-0.990384, 361, 177, 424, 304
-0.990393, 257, 241, 384, 304
-0.990393, 273, 241, 304, 304
-0.990426, 81, 97, 144, 128
-0.99048, 177, 97, 208, 224
-0.990489, 65, 177, 96, 240
-0.990596, 289, 249, 352, 312
-0.990608, 57, 109, 120, 140
-0.990649, 49, 69, 112, 100
-0.990685, 321, 281, 384, 344
-0.990694, 173, 105, 204, 168
-0.990735, 97, 113, 352, 176
-0.990755, 177, 97, 304, 160
-0.990791, 57, 125, 120, 156
-0.990818, 209, 1, 272, 375
-0.99087, 73, 57, 136, 88
-0.990873, 337, 81, 464, 208
-0.990874, 49, 137, 80, 200
-0.990884, 81, 121, 144, 152
-0.990887, 145, 185, 176, 248
-0.990892, 197, 225, 228, 288
-0.990896, 197, 193, 228, 320
-0.99094, 93, 57, 124, 120
-0.990947, 225, 281, 352, 344
-0.990962, 377, 241, 440, 368
-0.991011, 161, 49, 192, 176
-0.991065, 369, 225, 496, 352
-0.991068, 137, 113, 200, 144
-0.991085, 249, 113, 280, 240
-0.991088, 305, 145, 368, 208
-0.991092, 241, 305, 368, 368
-0.991095, 161, 109, 224, 140
-0.991097, 33, 1, 96, 375
-0.991115, 49, 57, 112, 88
-0.991125, 189, 105, 220, 168
-0.991153, 289, 225, 352, 352
-0.991273, 117, 65, 148, 192
-0.991274, 129, 1, 192, 256
-0.991299, 81, 169, 208, 232
-0.991364, 57, 149, 120, 180
-0.99141, 89, 109, 152, 140
-0.991411, 193, 253, 256, 284
-0.991444, 53, 49, 84, 176
-0.991545, 33, 33, 96, 96
-0.991552, 201, 305, 232, 368
-0.991594, 81, 217, 208, 280
-0.991686, 193, 113, 256, 144
-0.991701, 121, 125, 184, 156
-0.991714, 161, 305, 288, 368
-0.991716, 225, 121, 288, 152
-0.99178, 273, 161, 400, 224
-0.991817, 281, 129, 344, 375
-0.991843, 209, 193, 336, 256
-0.991878, 273, 241, 304, 368
-0.991914, 169, 257, 232, 288
-0.991927, 193, 265, 256, 296
-0.991937, 329, 129, 392, 256
-0.992003, 89, 133, 152, 164
-0.992006, 49, 97, 112, 128
-0.992028, 141, 177, 172, 304
-0.992028, 325, 297, 356, 360
-0.992052, 249, 273, 312, 304
-0.992055, 281, 113, 312, 240
-0.992072, 297, 81, 360, 208
-0.992088, 121, 197, 184, 228
-0.992093, 113, 105, 144, 168
-0.992099, 169, 273, 232, 304
-0.992125, 249, 129, 312, 160
-0.99214, 33, 125, 96, 156
-0.992144, 89, 85, 152, 116
-0.992163, 217, 249, 280, 280
-0.992168, 57, 85, 120, 116
-0.992237, 129, 209, 192, 240
-0.992275, 1, 113, 256, 176
-0.992285, 73, 69, 136, 100
-0.992291, 25, 169, 88, 200
-0.992296, 257, 249, 320, 280
-0.992308, 137, 221, 200, 252
-0.992309, 85, 145, 116, 272
-0.992316, 85, 145, 116, 208
-0.992325, 185, 241, 248, 272
-0.992331, 173, 49, 204, 176
-0.992343, 57, 161, 120, 192
-0.992373, 321, 305, 448, 368
-0.992425, 89, 145, 152, 176
-0.992425, 113, 137, 176, 168
-0.992432, 217, 233, 248, 296
-0.992435, 33, 137, 96, 168
-0.992436, 193, 277, 256, 308
-0.992455, 25, 153, 88, 184
-0.992474, 149, 49, 180, 176
-0.992475, 273, 105, 400, 168
-0.992477, 105, 97, 168, 128
-0.992481, 113, 313, 240, 375
-0.992488, 281, 113, 344, 176
-0.992513, 321, 329, 384, 360
-0.992514, 185, 229, 248, 260
-0.992526, 137, 1, 200, 375
-0.992534, 41, 181, 104, 212
-0.99257, 345, 341, 408, 372
-0.992588, 301, 129, 332, 256
-0.992593, 225, 233, 288, 264
-0.992607, 177, 321, 240, 352
-0.992618, 33, 113, 96, 144
-0.992622, 273, 137, 336, 168
-0.992635, 53, 161, 84, 288
-0.992662, 57, 49, 88, 112
-0.992663, 257, 237, 320, 268
-0.992676, 161, 197, 224, 228
-0.992685, 65, 25, 128, 88
-0.992692, 297, 313, 360, 344
-0.992692, 273, 285, 336, 316
-0.992733, 25, 53, 88, 84
-0.992773, 133, 49, 164, 176
-0.992776, 321, 341, 384, 372
-0.992793, 249, 261, 312, 292
-0.992798, 185, 217, 248, 248
-0.992803, 209, 273, 240, 336
-0.992805, 197, 257, 228, 288
-0.992811, 69, 117, 100, 148
-0.992827, 241, 121, 272, 184
-0.99284, 153, 233, 216, 264
-0.992842, 129, 177, 160, 304
-0.992844, 49, 45, 112, 76
-0.992852, 85, 93, 116, 124
-0.992856, 25, 65, 88, 96
-0.992858, 85, 105, 116, 136
-0.992861, 173, 297, 204, 360
-0.992861, 153, 321, 216, 352
-0.992874, 273, 261, 336, 292
-0.992875, 177, 305, 240, 336
-0.992911, 217, 109, 280, 140
-0.992921, 73, 193, 136, 320
-0.992932, 257, 121, 288, 184
-0.992939, 153, 309, 216, 340
-0.992945, 289, 273, 352, 304
-0.992947, 57, 57, 88, 88
-0.992947, 273, 65, 336, 192
-0.992954, 77, 57, 108, 88
-0.992954, 217, 261, 280, 292
-0.992963, 65, 185, 128, 216
-0.992971, 89, 185, 152, 216
-0.992972, 121, 185, 184, 216
-0.992989, 225, 97, 352, 160
-0.992991, 153, 297, 216, 328
-0.992994, 329, 317, 392, 348
-0.992999, 33, 1, 96, 128
-0.993011, 65, 129, 96, 160
-0.993011, 73, 105, 104, 136
-0.993015, 161, 97, 224, 128
-0.993019, 129, 125, 160, 156
-0.99303, 225, 221, 288, 252
-0.993044, 297, 333, 360, 364
-0.993046, 193, 289, 256, 320
-0.993052, 77, 73, 108, 104
-0.993054, 141, 117, 172, 148
-0.993067, 225, 217, 352, 280
-0.993075, 281, 149, 344, 180
-0.993076, 345, 329, 408, 360
-0.99308, 189, 317, 220, 348
-0.993082, 65, 173, 128, 204
-0.993093, 117, 133, 148, 164
-0.993093, 161, 285, 224, 316
-0.993113, 97, 177, 128, 304
-0.993114, 193, 301, 224, 332
-0.993119, 269, 177, 300, 304
-0.993119, 185, 101, 248, 132
-0.993125, 197, 281, 228, 312
-0.993142, 153, 113, 184, 144
-0.99315, 153, 245, 216, 276
-0.993151, 97, 89, 128, 120
-0.993157, 61, 141, 92, 172
-0.993166, 281, 301, 344, 332
-0.993168, 25, 101, 88, 132
-0.993174, 297, 281, 360, 344
-0.99318, 169, 109, 200, 140
-0.993193, 105, 145, 136, 176
-0.993195, 197, 269, 228, 300
-0.993208, 105, 1, 168, 375
-0.993228, 193, 1, 256, 256
-0.993232, 305, 281, 432, 344
-0.993261, 157, 209, 188, 240
-0.993263, 89, 53, 120, 84
-0.993295, 249, 113, 312, 144
-0.993299, 185, 333, 248, 364
-0.993301, 65, 69, 96, 100
-0.993307, 49, 165, 80, 196
-0.993309, 321, 301, 384, 332
-0.993311, 181, 301, 212, 332
-0.993325, 225, 117, 256, 148
-0.993325, 353, 241, 416, 368
-0.993334, 185, 329, 216, 360
-0.993336, 241, 121, 272, 152
-0.993337, 149, 197, 180, 228
-0.993344, 345, 329, 376, 360
-0.993347, 189, 109, 220, 140
-0.993347, 65, 153, 96, 184
-0.993348, 201, 301, 264, 332
-0.993348, 117, 177, 148, 304
-0.993355, 213, 113, 244, 144
-0.993375, 169, 345, 232, 375
-0.993378, 97, 129, 128, 160
-0.99338, 181, 237, 212, 268
-0.99338, 17, 77, 80, 108
-0.993381, 61, 177, 92, 208
-0.993385, 165, 221, 196, 252
-0.993387, 45, 141, 76, 172
-0.993387, 289, 125, 352, 156
-0.993388, 185, 273, 216, 304
-0.993399, 201, 109, 232, 140
-0.993401, 73, 197, 136, 228
-0.993403, 197, 245, 228, 276
-0.993403, 209, 145, 336, 208
-0.993404, 105, 65, 136, 128
-0.993409, 321, 313, 352, 344
-0.993415, 161, 209, 224, 240
-0.993417, 253, 125, 284, 156
-0.993419, 249, 1, 312, 375
-0.993426, 341, 317, 372, 348
-0.993429, 213, 241, 244, 272
-0.993437, 113, 109, 176, 140
-0.993441, 45, 153, 76, 184
-0.993442, 313, 137, 376, 168
-0.993445, 209, 269, 240, 300
-0.993452, 265, 245, 296, 276
-0.993454, 73, 45, 104, 76
-0.993455, 69, 85, 100, 116
-0.993456, 213, 253, 244, 284
-0.993465, 145, 261, 208, 292
-0.993468, 265, 269, 296, 300
-0.993468, 277, 277, 308, 308
-0.993472, 181, 261, 212, 292
-0.993476, 153, 185, 216, 216
-0.993478, 89, 65, 120, 96
-0.993479, 97, 105, 128, 136
-0.993482, 73, 45, 136, 76
-0.993482, 181, 289, 212, 320
-0.993484, 297, 161, 360, 192
-0.993489, 173, 313, 204, 344
-0.993497, 73, 189, 104, 220
-0.993498, 53, 125, 84, 156
-0.993508, 109, 117, 140, 148
-0.993508, 289, 285, 320, 316
-0.99351, 97, 197, 160, 228
-0.993511, 189, 49, 220, 176
-0.993521, 265, 129, 296, 160
-0.993527, 349, 341, 380, 372
-0.993536, 205, 297, 236, 328
-0.993536, 249, 177, 280, 304
-0.993536, 81, 117, 112, 148
-0.993539, 153, 333, 216, 364
-0.993543, 289, 273, 320, 304
-0.993545, 97, 77, 128, 108
-0.993546, 181, 345, 212, 375
-0.993548, 85, 133, 116, 164
-0.99355, 53, 69, 84, 100
-0.993551, 145, 345, 208, 375
-0.993553, 277, 133, 308, 164
-0.993553, 41, 73, 72, 104
-0.993556, 297, 285, 360, 316
-0.99356, 153, 101, 184, 132
-0.993563, 289, 137, 320, 168
-0.993563, 181, 97, 212, 128
-0.993566, 301, 293, 332, 324
-0.99357, 201, 313, 232, 344
-0.99358, 313, 301, 344, 332
-0.993585, 325, 325, 356, 356
-0.993585, 277, 237, 308, 268
-0.993586, 93, 153, 124, 184
-0.99359, 401, 285, 464, 316
-0.99359, 353, 317, 416, 348
-0.993593, 141, 185, 172, 216
-0.993593, 301, 281, 332, 344
-0.993594, 73, 165, 104, 196
-0.993596, 385, 193, 448, 320
-0.9936, 305, 257, 432, 320
-0.993601, 281, 261, 312, 292
-0.993608, 173, 333, 204, 364
-0.993608, 165, 97, 196, 128
-0.993609, 201, 233, 232, 264
-0.993611, 305, 149, 368, 180
-0.993612, 61, 97, 92, 128
-0.993616, 213, 101, 244, 132
-0.993616, 85, 181, 116, 212
-0.993617, 325, 301, 356, 332
-0.993624, 97, 49, 160, 80
-0.993629, 113, 81, 176, 112
-0.993629, 241, 109, 272, 140
-0.993633, 49, 113, 80, 144
-0.993634, 229, 105, 260, 136
-0.993638, 249, 285, 312, 316
-0.993641, 257, 113, 288, 144
-0.993645, 165, 193, 196, 224
-0.993649, 169, 233, 200, 264
-0.993652, 357, 313, 388, 344
-0.993657, 81, 145, 112, 176
-0.993657, 9, 141, 72, 172
-0.993661, 301, 281, 332, 312
-0.993668, 281, 237, 344, 268
-0.993669, 161, 221, 224, 252
-0.993672, 181, 249, 212, 280
-0.993677, 333, 337, 364, 368
-0.993677, 193, 97, 224, 128
-0.993679, 305, 145, 336, 176
-0.993681, 41, 65, 72, 192
-0.993686, 121, 113, 152, 144
-0.993687, 253, 257, 284, 288
-0.99369, 209, 281, 240, 312
-0.993696, 225, 229, 256, 260
-0.993697, 269, 117, 300, 148
-0.9937, 85, 193, 116, 224
-0.993701, 225, 241, 256, 272
-0.993705, 201, 313, 264, 344
-0.99371, 173, 205, 204, 236
-0.993712, 101, 61, 132, 92
-0.993713, 129, 193, 160, 224
-0.993718, 225, 201, 288, 232
-0.99372, 365, 325, 396, 356
-0.993723, 1, 121, 500, 184
-0.993725, 361, 345, 392, 375
-0.993732, 181, 217, 212, 248
-0.993734, 93, 117, 124, 148
-0.993743, 137, 105, 168, 136
-0.993746, 105, 185, 136, 216
-0.99375, 61, 45, 92, 76
-0.99375, 77, 185, 108, 248
-0.993752, 129, 97, 192, 128
-0.993752, 109, 89, 140, 120
-0.993753, 117, 145, 148, 176
-0.993754, 265, 257, 296, 288
-0.993755, 197, 329, 228, 360
-0.993759, 41, 129, 72, 160
-0.99376, 321, 153, 352, 184
-0.99376, 261, 329, 292, 360
-0.993781, 329, 149, 392, 180
-0.993792, 1, 89, 64, 120
-0.993806, 1, 57, 64, 88
-0.99382, 249, 341, 312, 372
-0.993824, 273, 113, 336, 144
-0.993824, 145, 273, 208, 304
-0.993835, 321, 285, 384, 316
-0.993838, 281, 249, 344, 280
-0.993849, 17, 329, 80, 360
-0.993861, 377, 265, 440, 296
-0.993863, 217, 201, 280, 264
-0.993863, 161, 209, 224, 272
-0.993872, 65, 305, 128, 336
-0.993888, 129, 113, 256, 144
-0.993893, 201, 205, 264, 236
-0.993898, 33, 309, 96, 340
-0.993898, 193, 141, 256, 172
-0.993898, 105, 301, 168, 332
-0.993978, 289, 177, 352, 304
-0.994009, 33, 89, 288, 152
-0.994023, 209, 169, 336, 232
-0.994029, 69, 89, 100, 152
-0.994042, 97, 49, 160, 112
-0.994244, 33, 241, 160, 368
-0.994281, 265, 217, 328, 280
-0.994291, 233, 1, 296, 256
-0.994308, 261, 265, 292, 328
-0.99431, 49, 109, 176, 140
-0.994332, 361, 305, 392, 368
-0.994359, 209, 73, 336, 136
-0.99445, 341, 313, 372, 375
-0.994505, 33, 193, 288, 256
-0.994529, 49, 125, 176, 156
-0.994576, 201, 281, 216, 344
-0.994583, 149, 81, 180, 144
-0.994589, 33, 137, 160, 168
-0.994596, 217, 49, 248, 176
-0.994631, 49, 1, 112, 256
-0.994639, 33, 145, 288, 208
-0.99469, 201, 49, 232, 176
-0.994703, 261, 241, 292, 368
-0.994721, 1, 145, 500, 208
-0.994733, 369, 193, 432, 256
-0.994773, 209, 273, 272, 336
-0.994803, 289, 137, 320, 200
-0.994869, 117, 81, 148, 144
-0.994872, 321, 145, 448, 208
-0.994955, 221, 209, 252, 336
-0.994997, 65, 97, 192, 128
-0.995029, 257, 177, 320, 240
-0.995031, 89, 185, 120, 248
-0.995054, 281, 1, 344, 375
-0.995059, 67, 121, 82, 184
-0.995087, 161, 73, 288, 136
-0.995106, 129, 169, 192, 232
-0.995143, 277, 129, 308, 192
-0.995169, 313, 121, 376, 184
-0.995189, 289, 281, 320, 344
-0.995199, 195, 297, 210, 360
-0.995232, 285, 249, 316, 312
-0.995246, 233, 177, 264, 304
-0.995267, 177, 81, 208, 144
-0.995274, 313, 129, 376, 375
-0.995373, 369, 297, 496, 360
-0.995373, 137, 89, 168, 152
-0.995385, 157, 185, 188, 248
-0.995401, 313, 1, 376, 375
-0.995437, 225, 177, 288, 240
-0.995452, 133, 193, 164, 256
-0.995453, 337, 225, 464, 288
-0.995465, 313, 249, 376, 312
-0.995466, 305, 145, 336, 208
-0.995472, 241, 65, 272, 192
-0.995518, 345, 153, 408, 216
-0.995529, 81, 1, 112, 128
-0.995538, 129, 185, 384, 248
-0.995569, 91, 89, 106, 152
-0.995579, 385, 305, 448, 368
-0.995581, 361, 129, 424, 256
-0.995601, 45, 105, 76, 168
-0.995602, 289, 33, 352, 288
-0.995614, 353, 129, 480, 256
-0.995637, 33, 305, 160, 368
-0.995653, 273, 273, 304, 336
-0.995692, 313, 129, 344, 256
-0.995697, 417, 281, 480, 344
-0.99576, 203, 249, 218, 312
-0.99576, 129, 209, 384, 272
-0.995798, 137, 225, 200, 352
-0.9958, 89, 201, 152, 264
-0.995805, 97, 17, 128, 144
-0.99581, 321, 185, 448, 248
-0.995819, 273, 209, 400, 272
-0.995865, 33, 149, 160, 180
-0.995878, 121, 185, 152, 248
-0.99588, 89, 1, 152, 128
-0.995895, 165, 145, 196, 272
-0.995919, 81, 105, 96, 168
-0.99593, 261, 241, 292, 304
-0.995966, 353, 265, 480, 328
-0.995989, 83, 73, 98, 136
-0.995996, 229, 49, 260, 176
-0.996004, 41, 193, 104, 256
-0.996016, 97, 81, 112, 144
-0.996038, 201, 81, 232, 144
-0.996052, 1, 33, 128, 96
-0.996086, 353, 273, 416, 336
-0.996103, 161, 81, 192, 144
-0.996109, 129, 289, 384, 352
-0.996125, 207, 273, 222, 336
-0.996133, 257, 1, 320, 256
-0.996143, 161, 137, 416, 200
-0.996148, 189, 81, 220, 144
-0.99616, 225, 89, 256, 152
-0.996166, 281, 177, 312, 304
-0.996189, 109, 177, 140, 240
-0.996235, 145, 205, 272, 236
-0.996284, 69, 41, 100, 104
-0.996302, 129, 233, 384, 296
-0.99635, 17, 93, 144, 124
-0.996371, 1, 169, 500, 232
-0.996393, 75, 105, 90, 168
-0.996403, 177, 161, 208, 288
-0.996436, 361, 129, 424, 375
-0.996479, 201, 305, 216, 368
-0.996492, 129, 161, 384, 224
-0.9965, 177, 117, 304, 148
-0.996516, 401, 241, 464, 368
-0.996535, 369, 169, 496, 232
-0.996572, 257, 185, 384, 248
-0.996575, 193, 145, 256, 208
-0.99658, 69, 97, 100, 352
-0.996597, 377, 281, 440, 344
-0.996621, 337, 1, 400, 375
-0.996671, 61, 137, 76, 200
-0.996695, 195, 273, 210, 336
-0.996708, 273, 305, 336, 368
-0.996712, 321, 81, 384, 208
-0.996713, 57, 89, 88, 152
-0.996714, 209, 245, 336, 276
-0.996722, 33, 169, 288, 232
-0.996725, 33, 297, 288, 360
-0.996729, 145, 145, 272, 208
-0.99673, 1, 97, 500, 160
-0.996741, 65, 17, 192, 80
-0.996755, 225, 185, 480, 248
-0.996757, 83, 49, 98, 112
-0.996764, 97, 133, 224, 164
-0.996778, 145, 97, 176, 352
-0.99678, 65, 197, 192, 228
-0.996786, 241, 153, 304, 216
-0.996792, 1, 113, 128, 144
-0.996807, 1, 305, 64, 368
-0.996838, 177, 257, 304, 288
-0.996846, 61, 1, 92, 128
-0.99687, 33, 65, 160, 96
-0.99689, 129, 97, 160, 352
-0.996911, 91, 65, 106, 128
-0.996914, 45, 113, 76, 240
-0.996927, 141, 161, 172, 224
-0.996929, 165, 97, 196, 352
-0.996943, 9, 33, 72, 96
-0.996953, 101, 105, 116, 168
-0.996954, 167, 105, 182, 168
-0.996958, 161, 229, 288, 260
-0.996962, 193, 129, 320, 160
-0.996964, 241, 97, 272, 160
-0.996974, 123, 129, 138, 192
-0.996983, 131, 121, 146, 184
-0.997008, 153, 153, 216, 216
-0.997014, 385, 257, 448, 320
-0.997023, 369, 145, 496, 208
-0.997026, 253, 97, 284, 160
-0.997043, 221, 161, 252, 288
-0.997048, 77, 73, 92, 136
-0.997054, 17, 169, 80, 232
-0.997055, 313, 289, 344, 352
-0.997061, 393, 169, 456, 232
-0.997062, 17, 81, 144, 112
-0.997067, 209, 249, 224, 312
-0.997075, 67, 169, 82, 232
-0.99709, 147, 113, 162, 176
-0.997101, 185, 97, 216, 352
-0.997116, 103, 81, 118, 144
-0.997137, 193, 233, 208, 296
-0.997155, 161, 313, 416, 375
-0.997182, 229, 225, 260, 288
-0.997203, 137, 121, 152, 184
-0.997204, 107, 145, 122, 208
-0.997214, 33, 225, 288, 288
-0.997218, 241, 313, 304, 375
-0.997234, 225, 209, 480, 272
-0.997257, 253, 65, 284, 192
-0.997257, 233, 113, 248, 176
-0.997263, 111, 113, 126, 176
-0.997267, 329, 129, 360, 256
-0.997271, 129, 257, 384, 320
-0.997297, 197, 97, 228, 352
-0.997305, 91, 113, 106, 176
-0.997308, 425, 313, 488, 375
-0.997319, 173, 105, 188, 168
-0.997321, 161, 217, 288, 248
-0.997326, 213, 105, 228, 168
-0.997349, 257, 153, 500, 216
-0.997361, 337, 177, 400, 304
-0.997365, 33, 57, 288, 120
-0.997375, 145, 193, 272, 224
-0.997382, 1, 81, 64, 144
-0.997382, 97, 297, 160, 360
-0.997383, 117, 137, 132, 200
-0.997391, 385, 145, 448, 272
-0.997393, 1, 125, 128, 156
-0.997394, 203, 105, 218, 168
-0.997422, 257, 105, 500, 168
-0.997429, 189, 297, 204, 360
-0.997432, 281, 169, 344, 232
-0.997433, 161, 105, 176, 168
-0.99745, 337, 129, 400, 375
-0.997458, 153, 113, 168, 176
-0.99746, 243, 113, 258, 176
-0.997461, 221, 113, 236, 176
-0.997463, 361, 1, 424, 375
-0.997469, 81, 249, 208, 312
-0.997479, 265, 65, 296, 192
-0.997497, 227, 113, 242, 176
-0.997507, 277, 105, 308, 168
-0.997533, 417, 1, 480, 375
-0.997541, 273, 1, 400, 64
-0.997543, 197, 105, 212, 168
-0.997548, 225, 97, 256, 352
-0.99755, 185, 105, 200, 168
-0.997562, 101, 145, 116, 208
-0.997565, 49, 281, 176, 344
-0.997567, 305, 65, 432, 128
-0.997571, 117, 97, 148, 352
-0.99758, 179, 105, 194, 168
-0.997582, 99, 49, 114, 112
-0.997604, 117, 105, 132, 168
-0.997611, 213, 81, 244, 144
-0.997613, 209, 225, 336, 256
-0.997621, 93, 33, 124, 96
-0.997637, 81, 209, 208, 240
-0.997637, 73, 177, 88, 240
-0.997653, 191, 105, 206, 168
-0.997662, 265, 97, 296, 352
-0.997679, 289, 217, 352, 280
-0.997682, 213, 97, 244, 352
-0.997685, 61, 161, 76, 224
-0.997685, 41, 305, 104, 368
-0.997695, 169, 209, 184, 272
-0.99771, 369, 57, 496, 120
-0.997718, 81, 65, 112, 320
-0.997735, 83, 105, 98, 136
-0.997747, 65, 185, 192, 216
-0.997754, 77, 49, 92, 112
-0.997755, 49, 161, 176, 192
-0.997774, 209, 269, 336, 300
-0.997778, 369, 113, 496, 176
-0.997779, 237, 97, 268, 352
-0.997783, 193, 81, 448, 144
-0.997803, 89, 97, 104, 128
-0.997806, 113, 297, 240, 328
-0.997807, 195, 317, 210, 348
-0.997809, 159, 185, 174, 248
-0.997815, 129, 241, 256, 272
-0.997822, 175, 217, 190, 280
-0.997847, 79, 185, 94, 248
-0.997851, 281, 233, 296, 296
-0.997855, 209, 209, 240, 272
-0.997862, 275, 241, 290, 304
-0.997868, 253, 121, 268, 184
-0.99787, 253, 97, 284, 352
-0.997871, 65, 77, 192, 108
-0.997876, 75, 153, 90, 216
-0.997885, 57, 97, 88, 352
-0.997886, 261, 209, 292, 272
-0.997889, 69, 121, 84, 152
-0.997907, 321, 121, 448, 184
-0.997938, 297, 65, 328, 192
-0.997939, 209, 1, 336, 64
-0.99795, 337, 289, 368, 352
-0.997955, 217, 233, 232, 296
-0.997956, 113, 49, 240, 112
-0.997965, 213, 273, 228, 336
-0.997974, 139, 97, 154, 160
-0.997974, 97, 225, 224, 256
-0.997987, 273, 333, 400, 364
-0.997992, 181, 225, 196, 288
-0.997995, 121, 1, 184, 128
-0.997997, 97, 25, 160, 88
-0.998005, 75, 113, 90, 144
-0.998015, 369, 193, 496, 256
-0.998044, 273, 25, 400, 88
-0.998045, 97, 145, 224, 176
-0.998052, 81, 57, 96, 88
-0.998053, 329, 49, 392, 112
-0.998054, 71, 65, 86, 128
-0.998062, 259, 121, 274, 184
-0.998078, 345, 177, 408, 240
-0.998091, 45, 57, 76, 120
-0.998095, 323, 289, 338, 352
-0.9981, 385, 217, 448, 280
-0.998102, 129, 257, 256, 288
-0.998114, 9, 1, 72, 375
-0.998117, 273, 265, 400, 296
-0.998123, 197, 305, 212, 336
-0.998126, 321, 1, 448, 128
-0.998134, 67, 145, 82, 208
-0.998136, 257, 141, 384, 172
-0.998143, 329, 297, 344, 360
-0.998154, 95, 145, 110, 208
-0.998158, 281, 49, 312, 176
-0.998168, 203, 225, 218, 288
-0.998176, 17, 201, 144, 264
-0.998178, 209, 141, 336, 172
-0.998178, 153, 89, 168, 152
-0.998181, 269, 121, 284, 184
-0.998181, 95, 89, 110, 120
-0.998187, 113, 101, 240, 132
-0.998205, 85, 185, 100, 248
-0.998207, 89, 41, 104, 104
-0.998214, 1, 281, 128, 344
-0.998214, 269, 241, 284, 304
-0.998219, 67, 133, 82, 164
-0.998227, 187, 233, 202, 296
-0.998227, 369, 1, 496, 128
-0.998234, 277, 97, 308, 352
-0.998237, 269, 261, 300, 276
-0.998238, 145, 185, 160, 248
-0.998238, 201, 107, 232, 122
-0.998239, 69, 171, 100, 186
-0.99824, 145, 197, 176, 212
-0.998241, 85, 125, 116, 140
-0.998242, 301, 293, 332, 308
-0.998242, 201, 313, 232, 328
-0.998242, 349, 353, 380, 368
-0.998244, 273, 265, 288, 328
-0.998244, 181, 293, 212, 308
-0.998245, 89, 119, 120, 134
-0.998245, 301, 137, 316, 200
-0.998245, 325, 331, 356, 346
-0.998245, 89, 83, 120, 98
-0.998245, 129, 115, 160, 130
-0.998245, 65, 241, 128, 368
-0.998245, 41, 69, 72, 84
-0.998246, 189, 251, 220, 266
-0.998246, 69, 97, 100, 112
-0.998246, 281, 239, 312, 254
-0.998246, 185, 341, 216, 356
-0.998246, 173, 235, 204, 250
-0.998247, 131, 97, 146, 160
-0.998248, 213, 257, 244, 272
-0.998248, 65, 53, 192, 84
-0.998248, 209, 263, 240, 278
-0.998248, 313, 305, 344, 320
-0.998249, 325, 325, 356, 340
-0.998249, 81, 153, 96, 216
-0.99825, 85, 133, 116, 148
-0.998251, 193, 327, 224, 342
-0.998252, 53, 55, 84, 70
-0.998252, 85, 89, 116, 104
-0.998252, 53, 113, 84, 128
-0.998253, 131, 129, 146, 160
-0.998253, 45, 75, 76, 90
-0.998253, 121, 129, 152, 144
-0.998253, 297, 283, 328, 298
-0.998254, 221, 245, 252, 260
-0.998254, 369, 81, 496, 144
-0.998254, 181, 105, 212, 120
-0.998255, 277, 135, 308, 150
-0.998256, 213, 269, 244, 284
-0.998256, 1, 53, 128, 84
-0.998257, 89, 67, 120, 82
-0.998257, 191, 81, 206, 144
-0.998259, 185, 281, 216, 296
-0.998259, 49, 173, 176, 204
-0.998259, 285, 287, 316, 302
-0.998259, 161, 225, 192, 240
-0.99826, 159, 73, 174, 136
-0.99826, 261, 269, 292, 284
-0.998262, 85, 113, 116, 128
-0.998262, 97, 111, 128, 126
-0.998264, 197, 285, 228, 300
-0.998264, 117, 123, 148, 138
-0.998264, 111, 65, 126, 128
-0.998266, 281, 271, 312, 286
-0.998268, 181, 257, 212, 272
-0.998268, 57, 119, 88, 134
-0.998269, 181, 269, 212, 284
-0.998269, 185, 333, 216, 348
-0.99827, 105, 97, 136, 112
-0.99827, 105, 133, 136, 148
-0.998271, 349, 345, 380, 360
-0.998271, 265, 131, 296, 146
-0.998272, 177, 311, 208, 326
-0.998272, 65, 165, 96, 180
-0.998272, 209, 275, 240, 290
-0.998272, 157, 219, 188, 234
-0.998273, 57, 183, 88, 198
-0.998273, 77, 83, 108, 98
-0.998275, 145, 203, 176, 218
-0.998275, 93, 61, 124, 76
-0.998275, 135, 193, 150, 256
-0.998275, 181, 263, 212, 278
-0.998277, 321, 315, 352, 330
-0.99828, 45, 163, 76, 178
-0.99828, 91, 185, 106, 248
-0.998281, 73, 91, 104, 106
-0.998281, 49, 173, 80, 188
-0.998283, 65, 1, 96, 256
-0.998284, 345, 335, 376, 350
-0.998284, 45, 135, 76, 150
-0.998284, 201, 307, 232, 322
-0.998285, 153, 213, 184, 228
-0.998286, 89, 153, 104, 216
-0.998288, 97, 151, 128, 166
-0.998289, 45, 151, 76, 166
-0.99829, 85, 55, 116, 70
-0.998291, 101, 105, 132, 120
-0.998291, 253, 127, 284, 142
-0.998291, 209, 245, 240, 260
-0.998292, 73, 55, 104, 70
-0.998293, 181, 275, 212, 290
-0.998293, 61, 73, 92, 88
-0.998294, 193, 295, 224, 310
-0.998295, 241, 123, 272, 138
-0.998295, 201, 113, 232, 128
-0.998296, 65, 159, 96, 174
-0.998296, 1, 193, 500, 256
-0.998297, 73, 107, 104, 122
-0.998299, 45, 157, 76, 172
-0.998299, 109, 147, 140, 162
-0.998302, 49, 129, 80, 144
-0.998303, 341, 323, 372, 338
-0.998303, 97, 141, 128, 156
-0.998303, 203, 253, 218, 284
-0.998304, 189, 111, 220, 126
-0.998305, 181, 327, 212, 342
-0.998306, 177, 317, 208, 332
-0.998307, 417, 193, 480, 256
-0.998307, 229, 119, 260, 134
-0.998307, 203, 285, 218, 316
-0.998309, 171, 81, 186, 144
-0.998313, 213, 251, 244, 266
-0.998315, 213, 115, 244, 130
-0.998315, 45, 143, 76, 158
-0.998318, 33, 257, 160, 320
-0.998318, 189, 307, 220, 322
-0.998319, 97, 89, 128, 104
-0.998321, 257, 273, 500, 336
-0.998323, 73, 73, 104, 88
-0.998324, 173, 111, 204, 126
-0.998326, 341, 329, 372, 344
-0.998326, 125, 135, 156, 150
-0.998327, 61, 153, 92, 168
-0.998327, 117, 141, 148, 156
-0.998328, 189, 315, 220, 330
-0.998328, 153, 177, 168, 240
-0.998329, 285, 241, 316, 368
-0.99833, 133, 129, 164, 144
-0.998333, 197, 279, 228, 294
-0.998334, 181, 299, 212, 314
-0.998335, 61, 147, 92, 162
-0.998337, 77, 67, 108, 82
-0.998345, 225, 105, 352, 136
-0.998345, 193, 301, 224, 316
-0.998352, 357, 313, 372, 375
-0.998355, 123, 137, 138, 168
-0.998357, 137, 123, 168, 138
-0.998357, 57, 61, 88, 76
-0.998358, 137, 125, 152, 156
-0.998361, 201, 253, 232, 268
-0.998361, 189, 321, 220, 336
-0.998364, 191, 329, 206, 360
-0.998365, 297, 273, 312, 336
-0.998368, 61, 141, 92, 156
-0.99837, 241, 17, 368, 144
-0.99837, 75, 61, 90, 92
-0.998372, 93, 33, 124, 288
-0.998376, 87, 61, 102, 92
-0.99838, 103, 185, 118, 248
-0.99838, 209, 213, 336, 244
-0.998382, 161, 301, 288, 332
-0.998388, 85, 107, 116, 122
-0.998389, 89, 95, 120, 110
-0.998393, 73, 113, 104, 128
-0.998395, 149, 117, 180, 132
-0.998397, 197, 273, 228, 288
-0.998398, 287, 233, 302, 296
-0.998402, 161, 113, 192, 128
-0.998407, 69, 121, 100, 136
-0.998408, 165, 185, 180, 248
-0.998418, 65, 135, 96, 150
-0.998419, 197, 267, 228, 282
-0.998422, 85, 101, 116, 116
-0.998422, 65, 127, 96, 142
-0.998423, 97, 185, 112, 248
-0.998424, 197, 259, 228, 274
-0.998429, 185, 73, 200, 136
-0.998432, 203, 301, 218, 332
-0.998432, 73, 61, 104, 76
-0.998435, 123, 105, 138, 168
-0.998436, 197, 81, 212, 144
-0.998436, 57, 67, 88, 82
-0.998442, 281, 273, 296, 336
-0.998442, 17, 185, 144, 216
-0.998443, 97, 273, 160, 336
-0.99845, 257, 117, 384, 148
-0.998452, 89, 73, 104, 104
-0.998453, 353, 1, 480, 64
-0.998454, 165, 81, 180, 144
-0.998456, 179, 73, 194, 136
-0.998465, 129, 185, 144, 248
-0.998479, 209, 41, 336, 104
-0.99848, 147, 117, 162, 148
-0.99848, 347, 313, 362, 375
-0.998494, 205, 81, 220, 144
-0.9985, 213, 81, 228, 144
-0.9985, 69, 97, 84, 160
-0.998508, 145, 181, 272, 212
-0.998514, 1, 173, 128, 204
-0.998515, 307, 137, 322, 200
-0.998516, 195, 293, 210, 324
-0.998517, 121, 185, 136, 248
-0.99852, 171, 185, 186, 248
-0.998526, 313, 33, 376, 288
-0.998536, 203, 265, 218, 296
-0.998537, 209, 201, 336, 232
-0.998539, 65, 305, 128, 368
-0.998539, 197, 277, 212, 308
-0.998539, 57, 145, 120, 160
-0.998546, 79, 73, 94, 104
-0.998546, 1, 257, 500, 320
-0.998547, 63, 97, 78, 160
-0.998553, 161, 269, 288, 300
-0.998554, 111, 177, 126, 240
-0.998556, 81, 99, 144, 114
-0.998558, 73, 109, 136, 124
-0.998558, 65, 117, 128, 132
-0.998559, 257, 49, 384, 112
-0.998562, 105, 57, 120, 120
-0.998562, 161, 111, 224, 126
-0.998562, 163, 113, 178, 144
-0.998565, 101, 85, 116, 116
-0.998566, 291, 129, 306, 192
-0.998568, 57, 125, 120, 140
-0.998573, 49, 69, 112, 84
-0.998575, 57, 133, 120, 148
-0.998577, 59, 157, 74, 188
-0.998582, 249, 289, 312, 352
-0.998582, 289, 153, 416, 184
-0.998585, 155, 113, 170, 144
-0.998587, 265, 97, 296, 160
-0.998587, 397, 241, 428, 368
-0.998588, 65, 61, 128, 76
-0.99859, 105, 33, 136, 288
-0.998592, 57, 139, 120, 154
-0.998597, 117, 141, 132, 172
-0.998598, 145, 17, 272, 80
-0.9986, 81, 133, 144, 148
-0.9986, 281, 129, 296, 192
-0.998604, 187, 313, 202, 344
-0.998606, 231, 225, 246, 288
-0.998606, 267, 265, 282, 328
-0.998609, 49, 151, 112, 166
-0.99861, 59, 57, 74, 120
-0.998616, 241, 129, 368, 160
-0.998617, 175, 109, 190, 140
-0.998617, 137, 169, 152, 232
-0.998623, 257, 129, 500, 192
-0.998623, 275, 121, 290, 184
-0.998624, 353, 33, 480, 96
-0.998625, 73, 67, 136, 82
-0.998625, 81, 127, 144, 142
-0.998627, 223, 225, 238, 288
-0.998627, 113, 309, 240, 340
-0.998627, 225, 89, 240, 152
-0.998627, 209, 277, 224, 308
-0.99863, 297, 257, 328, 320
-0.99863, 147, 89, 162, 152
-0.998632, 257, 253, 384, 284
-0.998632, 325, 241, 356, 368
-0.998635, 105, 113, 168, 128
-0.998635, 81, 139, 144, 154
-0.998635, 81, 93, 144, 108
-0.998636, 193, 285, 320, 316
-0.998641, 169, 213, 184, 244
-0.998642, 49, 75, 112, 90
-0.998643, 185, 269, 248, 284
-0.998644, 241, 209, 272, 272
-0.998645, 185, 263, 248, 278
-0.998648, 137, 115, 200, 130
-0.998649, 193, 115, 256, 130
-0.99865, 59, 141, 74, 172
-0.998652, 193, 255, 256, 270
-0.998654, 317, 281, 332, 344
-0.998655, 89, 121, 152, 136
-0.998656, 169, 275, 232, 290
-0.998657, 193, 249, 256, 264
-0.99866, 57, 99, 120, 114
-0.998661, 57, 157, 120, 172
-0.998661, 137, 1, 168, 256
-0.998661, 257, 249, 500, 312
-0.998663, 33, 63, 96, 78
-0.998666, 169, 257, 232, 272
-0.998667, 67, 173, 82, 204
-0.998667, 177, 321, 240, 336
-0.998668, 33, 137, 96, 152
-0.998669, 193, 275, 256, 290
-0.998669, 293, 249, 308, 312
-0.998671, 257, 241, 384, 272
-0.998671, 217, 121, 280, 136
-0.998672, 65, 49, 80, 112
-0.998672, 33, 131, 96, 146
-0.998674, 137, 121, 200, 136
-0.998675, 41, 115, 104, 130
-0.998676, 181, 201, 212, 264
-0.998676, 121, 131, 184, 146
-0.998676, 211, 225, 226, 288
-0.998679, 233, 127, 296, 142
-0.998682, 65, 55, 128, 70
-0.998686, 57, 163, 120, 178
-0.998686, 113, 137, 176, 152
-0.998687, 321, 317, 448, 348
-0.998687, 207, 297, 222, 360
-0.998687, 121, 205, 184, 220
-0.998687, 219, 89, 234, 152
-0.998687, 289, 273, 304, 336
-0.998688, 353, 333, 480, 364
-0.998688, 303, 281, 318, 344
-0.998688, 41, 107, 104, 122
-0.998688, 25, 125, 88, 140
-0.998689, 161, 269, 224, 284
-0.998691, 185, 243, 248, 258
-0.998691, 337, 331, 400, 346
-0.998692, 217, 249, 280, 264
-0.998693, 313, 329, 376, 344
-0.998694, 33, 145, 96, 160
-0.998695, 81, 145, 144, 160
-0.998697, 81, 87, 144, 102
-0.9987, 121, 199, 184, 214
-0.998702, 177, 231, 240, 246
-0.998703, 113, 143, 176, 158
-0.998704, 73, 151, 136, 166
-0.998705, 25, 171, 88, 186
-0.998705, 345, 345, 408, 360
-0.998706, 185, 237, 248, 252
-0.998706, 241, 317, 368, 348
-0.998707, 209, 261, 272, 276
-0.998707, 169, 109, 184, 140
-0.998707, 257, 255, 320, 270
-0.998707, 181, 109, 196, 140
-0.998708, 217, 255, 280, 270
-0.998708, 25, 165, 88, 180
-0.998708, 17, 159, 80, 174
-0.998708, 185, 281, 248, 296
-0.998709, 57, 93, 120, 108
-0.99871, 25, 69, 88, 84
-0.998711, 137, 221, 200, 236
-0.998711, 225, 239, 288, 254
-0.998712, 257, 249, 320, 264
-0.998713, 177, 327, 240, 342
-0.998713, 161, 281, 224, 296
-0.998713, 129, 211, 192, 226
-0.998715, 321, 353, 384, 368
-0.998715, 257, 137, 320, 152
-0.998715, 33, 183, 96, 198
-0.998715, 49, 85, 112, 100
-0.998715, 161, 263, 224, 278
-0.998715, 17, 151, 80, 166
-0.998715, 177, 225, 240, 240
-0.998716, 57, 169, 120, 184
-0.998717, 209, 269, 272, 284
-0.998718, 345, 351, 408, 366
-0.998718, 161, 205, 224, 220
-0.99872, 169, 251, 232, 266
-0.998721, 231, 89, 246, 152
-0.998721, 81, 81, 144, 96
-0.998721, 161, 313, 288, 344
-0.998722, 321, 339, 384, 354
-0.998722, 113, 107, 176, 122
-0.998723, 73, 73, 136, 88
-0.998723, 313, 323, 376, 338
-0.998724, 257, 285, 320, 300
-0.998725, 161, 201, 176, 232
-0.998726, 25, 177, 88, 192
-0.998727, 65, 175, 128, 190
-0.998727, 249, 271, 312, 286
-0.998728, 161, 299, 224, 314
-0.998728, 175, 221, 190, 252
-0.998728, 145, 233, 208, 248
-0.998728, 225, 153, 352, 184
-0.998728, 265, 265, 328, 280
-0.998731, 105, 97, 168, 112
-0.998733, 321, 345, 384, 360
-0.998733, 153, 327, 216, 342
-0.998733, 249, 279, 312, 294
-0.998733, 185, 301, 248, 316
-0.998734, 273, 275, 336, 290
-0.998735, 153, 321, 216, 336
-0.998735, 33, 249, 288, 312
-0.998736, 41, 57, 104, 72
-0.998736, 169, 215, 232, 230
-0.998738, 337, 325, 400, 340
-0.998738, 73, 181, 88, 212
-0.998738, 137, 227, 200, 242
-0.998739, 169, 105, 232, 120
-0.998739, 105, 149, 168, 164
-0.998739, 113, 119, 176, 134
-0.99874, 89, 61, 152, 76
-0.99874, 289, 315, 352, 330
-0.99874, 153, 197, 216, 212
-0.998741, 177, 315, 240, 330
-0.998742, 241, 265, 304, 280
-0.998742, 273, 145, 336, 160
-0.998744, 273, 241, 336, 256
-0.998745, 313, 317, 376, 332
-0.998745, 297, 283, 360, 298
-0.998746, 257, 131, 320, 146
-0.998747, 65, 181, 128, 196
-0.998747, 257, 121, 320, 136
-0.998748, 161, 329, 288, 360
-0.998749, 281, 151, 344, 166
-0.998749, 297, 335, 360, 350
-0.99875, 273, 293, 336, 308
-0.99875, 121, 193, 184, 208
-0.998751, 233, 115, 296, 130
-0.998751, 153, 315, 216, 330
-0.998752, 97, 109, 112, 140
-0.99876, 273, 173, 400, 204
-0.998766, 193, 241, 208, 272
-0.998776, 305, 285, 432, 316
-0.998789, 113, 285, 240, 316
-0.99879, 161, 101, 288, 132
-0.998795, 355, 329, 370, 360
-0.998811, 207, 109, 222, 140
-0.998811, 111, 145, 126, 176
-0.998812, 53, 1, 84, 256
-0.998819, 67, 145, 82, 176
-0.998822, 201, 317, 216, 348
-0.99883, 227, 113, 242, 144
-0.998838, 201, 109, 216, 140
-0.998843, 79, 189, 94, 220
-0.998846, 113, 321, 240, 352
-0.998847, 153, 1, 184, 256
-0.998854, 95, 53, 110, 84
-0.998858, 273, 345, 400, 375
-0.99886, 221, 113, 236, 144
-0.998865, 195, 109, 210, 140
-0.998869, 255, 121, 270, 152
-0.998869, 233, 117, 248, 148
-0.99887, 257, 313, 500, 375
-0.998874, 69, 61, 84, 92
-0.998881, 225, 297, 352, 328
-0.998883, 69, 97, 84, 224
-0.998897, 305, 297, 432, 328
-0.998899, 51, 69, 66, 100
-0.998901, 213, 109, 228, 140
-0.998905, 105, 149, 120, 180
-0.998905, 181, 229, 196, 260
-0.998905, 263, 125, 278, 156
-0.998907, 327, 301, 342, 332
-0.99891, 243, 117, 258, 148
-0.998918, 165, 1, 196, 256
-0.998922, 91, 117, 106, 148
-0.998929, 203, 237, 218, 268
-0.99893, 249, 121, 264, 152
-0.998931, 217, 249, 232, 280
-0.998931, 75, 97, 90, 224
-0.998938, 297, 273, 312, 304
-0.998941, 161, 41, 288, 104
-0.998942, 1, 161, 128, 192
-0.998942, 131, 113, 146, 240
-0.998943, 331, 313, 346, 344
-0.998947, 61, 169, 76, 200
-0.998948, 257, 277, 384, 308
-0.99895, 189, 301, 204, 332
-0.998952, 187, 109, 202, 140
-0.998955, 75, 49, 90, 80
-0.998958, 137, 113, 152, 144
-0.998968, 17, 97, 80, 352
-0.998973, 87, 49, 102, 80
-0.998978, 125, 125, 140, 156
-0.998981, 131, 117, 146, 148
-0.998983, 353, 345, 480, 375
-0.998985, 83, 85, 98, 116
-0.998985, 57, 125, 72, 156
-0.998986, 249, 241, 280, 304
-0.998992, 195, 225, 210, 352
-0.998999, 113, 269, 240, 300
-0.999, 103, 101, 118, 132
-0.999001, 117, 129, 132, 160
-0.999002, 193, 265, 208, 296
-0.999004, 289, 97, 320, 352
-0.999008, 209, 253, 224, 284
-0.99901, 213, 265, 228, 296
-0.999015, 177, 157, 304, 188
-0.999015, 59, 57, 74, 88
-0.999017, 321, 97, 448, 160
-0.999021, 125, 113, 140, 240
-0.999025, 269, 265, 284, 296
-0.999026, 223, 241, 238, 272
-0.999029, 69, 49, 84, 80
-0.999033, 209, 189, 336, 220
-0.999037, 111, 133, 126, 164
-0.999039, 81, 65, 208, 96
-0.999042, 337, 129, 400, 192
-0.999046, 233, 185, 264, 248
-0.999048, 83, 97, 98, 224
-0.999049, 193, 341, 320, 372
-0.999052, 289, 129, 416, 160
-0.999055, 1, 273, 256, 336
-0.999056, 149, 105, 164, 136
-0.999058, 115, 129, 130, 256
-0.999059, 109, 129, 124, 256
-0.999061, 155, 101, 170, 132
-0.999063, 77, 101, 92, 132
-0.999065, 153, 97, 168, 224
-0.999066, 197, 329, 212, 360
-0.999068, 155, 193, 170, 224
-0.99907, 33, 33, 288, 96
-0.999074, 185, 333, 200, 364
-0.99908, 101, 53, 116, 84
-0.99908, 187, 237, 202, 268
-0.999081, 181, 345, 196, 375
-0.999082, 73, 73, 88, 104
-0.999084, 325, 313, 340, 344
-0.999087, 283, 237, 298, 268
-0.999091, 121, 1, 152, 256
-0.999093, 163, 101, 178, 132
-0.999094, 137, 113, 152, 240
-0.999096, 325, 145, 356, 208
-0.999097, 275, 273, 290, 304
-0.999101, 89, 97, 104, 224
-0.999104, 347, 317, 362, 348
-0.999112, 147, 97, 162, 224
-0.999114, 89, 85, 104, 116
-0.999115, 269, 125, 284, 156
-0.999118, 293, 285, 308, 316
-0.999123, 95, 77, 110, 108
-0.999123, 229, 241, 244, 272
-0.999124, 425, 65, 488, 192
-0.999127, 101, 97, 116, 224
-0.999128, 81, 117, 96, 148
-0.999132, 99, 133, 114, 164
-0.999136, 61, 113, 76, 144
-0.999137, 321, 297, 336, 328
-0.999137, 283, 277, 298, 308
-0.999143, 109, 89, 124, 120
-0.999145, 233, 105, 248, 136
-0.999145, 377, 81, 440, 208
-0.999147, 95, 65, 110, 96
-0.999152, 177, 97, 192, 128
-0.999156, 187, 97, 202, 128
-0.999156, 193, 97, 208, 128
-0.999158, 341, 329, 356, 360
-0.999159, 277, 125, 292, 156
-0.999163, 167, 201, 182, 232
-0.999166, 169, 97, 184, 128
-0.999169, 201, 225, 216, 352
-0.999169, 359, 341, 374, 372
-0.99917, 67, 161, 82, 192
-0.999171, 17, 197, 144, 228
-0.999172, 303, 277, 318, 308
-0.999185, 211, 237, 226, 268
-0.999186, 113, 89, 240, 120
-0.999187, 299, 289, 314, 320
-0.999187, 1, 9, 128, 72
-0.99919, 101, 73, 116, 104
-0.999205, 1, 233, 128, 296
-0.999207, 113, 333, 240, 364
-0.999212, 341, 129, 372, 256
-0.999221, 201, 177, 264, 240
-0.999222, 159, 97, 174, 224
-0.999227, 225, 329, 352, 360
-0.999231, 317, 81, 348, 208
-0.999246, 345, 65, 408, 192
-0.99925, 309, 113, 340, 176
-0.999253, 63, 113, 78, 240
-0.999257, 217, 17, 280, 144
-0.999263, 95, 65, 110, 192
-0.999269, 79, 49, 94, 176
-0.999302, 109, 49, 124, 176
-0.999313, 345, 33, 408, 288
-0.999315, 85, 33, 100, 160
-0.999317, 409, 249, 472, 312
-0.999319, 165, 97, 180, 224
-0.999326, 385, 1, 448, 375
-0.999327, 101, 49, 116, 176
-0.999327, 369, 177, 496, 208
-0.99933, 189, 225, 204, 352
-0.999332, 273, 89, 336, 152
-0.999341, 67, 161, 82, 288
-0.999343, 353, 277, 480, 308
-0.999343, 181, 1, 212, 256
-0.999355, 225, 165, 352, 196
-0.999358, 145, 345, 272, 375
-0.999361, 273, 229, 400, 260
-0.999365, 207, 225, 222, 352
-0.999372, 115, 81, 130, 208
-0.999381, 105, 241, 168, 368
-0.999382, 1, 57, 64, 120
-0.999389, 417, 81, 480, 144
-0.999393, 209, 177, 336, 208
-0.999402, 201, 97, 216, 224
-0.999405, 73, 33, 88, 160
-0.99941, 1, 129, 64, 192
-0.999411, 253, 1, 284, 256
-0.999413, 95, 113, 110, 240
-0.999413, 25, 241, 88, 304
-0.999416, 337, 157, 464, 188
-0.999418, 193, 97, 208, 224
-0.999418, 213, 97, 228, 224
-0.999432, 217, 153, 280, 216
-0.999434, 369, 301, 496, 332
-0.999435, 337, 225, 464, 256
-0.999437, 301, 97, 332, 352
-0.999441, 113, 77, 240, 108
-0.999441, 187, 97, 202, 224
-0.999442, 305, 57, 368, 120
-0.999442, 33, 313, 160, 344
-0.999442, 73, 161, 88, 288
-0.999444, 105, 129, 136, 375
-0.999444, 223, 97, 238, 224
-0.999444, 233, 1, 264, 256
-0.999446, 171, 97, 186, 224
-0.99945, 203, 247, 218, 262
-0.99945, 77, 121, 92, 136
-0.99945, 345, 323, 360, 338
-0.999451, 209, 273, 224, 288
-0.999451, 177, 105, 192, 120
-0.999451, 389, 177, 420, 304
-0.999451, 103, 107, 118, 122
-0.999452, 183, 105, 198, 120
-0.999452, 291, 285, 306, 300
-0.999452, 185, 237, 200, 252
-0.999453, 155, 111, 170, 126
-0.999453, 283, 279, 298, 294
-0.999453, 229, 97, 244, 224
-0.999454, 209, 255, 224, 270
-0.999454, 67, 161, 82, 176
-0.999454, 219, 251, 234, 266
-0.999454, 213, 261, 228, 276
-0.999455, 203, 289, 218, 304
-0.999455, 69, 167, 84, 182
-0.999456, 161, 109, 176, 124
-0.999456, 215, 275, 230, 290
-0.999458, 275, 273, 290, 288
-0.999458, 303, 287, 318, 302
-0.999459, 195, 261, 210, 276
-0.999459, 69, 53, 84, 68
-0.99946, 149, 115, 164, 130
-0.99946, 305, 17, 368, 80
-0.999461, 91, 53, 106, 68
-0.999463, 325, 305, 340, 320
-0.999463, 265, 127, 280, 142
-0.999463, 249, 123, 264, 138
-0.999464, 187, 333, 202, 348
-0.999464, 83, 95, 98, 110
-0.999464, 97, 113, 112, 128
-0.999464, 67, 155, 82, 170
-0.999465, 79, 101, 94, 116
-0.999465, 257, 123, 272, 138
-0.999466, 267, 267, 282, 282
-0.999466, 65, 297, 192, 328
-0.999467, 109, 143, 124, 158
-0.999467, 181, 231, 196, 246
-0.999467, 171, 107, 186, 122
-0.999467, 193, 271, 208, 286
-0.999468, 87, 65, 102, 80
-0.999468, 63, 119, 78, 134
-0.999468, 409, 209, 440, 336
-0.999469, 233, 119, 248, 134
-0.99947, 117, 135, 132, 150
-0.99947, 91, 71, 106, 86
-0.99947, 83, 115, 98, 130
-0.99947, 355, 331, 370, 346
-0.999473, 205, 111, 220, 126
-0.999474, 127, 127, 142, 142
-0.999474, 81, 55, 96, 70
-0.999474, 91, 83, 106, 98
-0.999475, 77, 189, 92, 204
-0.999475, 243, 119, 258, 134
-0.999475, 237, 97, 252, 224
-0.999475, 189, 109, 204, 124
-0.999475, 213, 249, 228, 264
-0.999475, 173, 225, 188, 240
-0.999476, 211, 113, 226, 128
-0.999477, 223, 245, 238, 260
-0.999477, 87, 59, 102, 74
-0.999477, 107, 153, 122, 168
-0.999478, 213, 1, 244, 256
-0.999479, 161, 205, 176, 220
-0.999479, 59, 159, 74, 174
-0.99948, 169, 193, 184, 320
-0.999481, 203, 265, 218, 280
-0.999482, 197, 293, 212, 308
-0.999482, 229, 247, 244, 262
-0.999482, 159, 177, 174, 304
-0.999482, 221, 115, 236, 130
-0.999483, 337, 241, 464, 272
-0.999483, 331, 313, 346, 328
-0.999484, 61, 131, 76, 146
-0.999484, 227, 117, 242, 132
-0.999486, 195, 277, 210, 292
-0.999486, 205, 297, 220, 312
-0.999487, 61, 137, 76, 152
-0.999488, 203, 311, 218, 326
-0.999488, 65, 147, 80, 162
-0.99949, 199, 111, 214, 126
-0.999493, 209, 279, 224, 294
-0.999494, 57, 151, 72, 166
-0.999494, 201, 319, 216, 334
-0.999494, 171, 219, 186, 234
-0.999495, 59, 143, 74, 158
-0.999495, 167, 49, 182, 176
-0.999497, 59, 165, 74, 180
-0.999497, 191, 313, 206, 328
-0.999497, 203, 259, 218, 274
-0.999498, 69, 181, 84, 196
-0.999498, 191, 307, 206, 322
-0.999498, 199, 325, 214, 340
-0.9995, 85, 73, 100, 88
-0.999501, 173, 49, 188, 176
-0.999501, 207, 97, 222, 224
-0.999502, 183, 111, 198, 126
-0.999502, 259, 113, 274, 240
-0.999502, 103, 145, 118, 272
-0.999503, 181, 97, 196, 224
-0.999503, 67, 63, 82, 78
-0.999503, 51, 69, 66, 84
-0.999505, 63, 173, 78, 188
-0.999505, 245, 97, 260, 224
-0.999506, 275, 241, 290, 368
-0.999507, 121, 65, 136, 192
-0.999507, 165, 211, 180, 226
-0.999507, 253, 113, 268, 240
-0.999508, 199, 283, 214, 298
-0.999512, 161, 49, 176, 176
-0.999513, 155, 49, 170, 176
-0.999513, 197, 307, 212, 322
-0.999515, 187, 325, 202, 340
-0.999516, 101, 89, 116, 104
-0.999517, 215, 225, 230, 352
-0.999517, 79, 73, 94, 88
-0.999518, 125, 141, 140, 156
-0.99952, 113, 149, 128, 164
-0.999521, 203, 305, 218, 320
-0.999521, 193, 331, 208, 346
-0.999522, 269, 113, 284, 240
-0.999522, 177, 111, 192, 126
-0.999523, 273, 217, 304, 280
-0.999523, 203, 271, 218, 286
-0.999525, 67, 141, 82, 156
-0.999527, 193, 301, 208, 316
-0.999527, 289, 113, 320, 176
-0.999527, 91, 177, 106, 304
-0.999528, 279, 113, 294, 240
-0.999529, 137, 177, 152, 304
-0.999533, 305, 141, 432, 172
-0.999533, 67, 49, 82, 176
-0.999533, 121, 177, 136, 304
-0.999534, 167, 113, 182, 128
-0.999535, 183, 209, 198, 336
-0.999537, 409, 193, 472, 320
-0.999538, 73, 69, 88, 84
-0.999538, 79, 177, 94, 304
-0.999539, 175, 209, 190, 336
-0.99954, 93, 17, 108, 144
-0.999541, 69, 129, 84, 144
-0.999542, 197, 313, 212, 328
-0.999544, 1, 329, 128, 360
-0.999544, 95, 93, 110, 108
-0.999545, 203, 277, 218, 292
-0.999546, 189, 49, 204, 176
-0.999546, 181, 49, 196, 176
-0.999546, 409, 1, 472, 128
-0.99955, 273, 185, 400, 216
-0.99955, 203, 253, 218, 268
-0.99955, 161, 115, 176, 130
-0.99955, 119, 143, 134, 158
-0.999551, 89, 105, 104, 120
-0.999551, 81, 65, 96, 80
-0.999553, 1, 233, 500, 296
-0.999554, 189, 319, 204, 334
-0.999556, 155, 117, 170, 132
-0.999558, 67, 135, 82, 150
-0.999559, 199, 299, 214, 314
-0.999559, 145, 177, 160, 304
-0.999561, 275, 177, 290, 304
-0.999562, 285, 113, 300, 240
-0.999563, 71, 121, 86, 136
-0.999567, 127, 135, 142, 150
-0.999568, 131, 177, 146, 304
-0.999568, 195, 319, 210, 334
-0.999568, 143, 49, 158, 176
-0.999569, 149, 49, 164, 176
-0.999569, 147, 121, 162, 136
-0.999574, 105, 1, 168, 64
-0.999577, 75, 59, 90, 74
-0.999578, 193, 325, 208, 340
-0.999581, 153, 177, 168, 304
-0.999585, 83, 109, 98, 124
-0.999586, 141, 125, 156, 140
-0.999587, 91, 99, 106, 114
-0.999587, 125, 161, 156, 224
-0.999589, 111, 177, 126, 304
-0.999594, 133, 131, 148, 146
-0.999596, 311, 129, 326, 256
-0.999596, 131, 65, 146, 192
-0.999597, 97, 345, 224, 375
-0.999601, 281, 177, 296, 304
-0.999601, 85, 161, 100, 288
-0.999605, 77, 115, 92, 130
-0.999605, 195, 49, 210, 176
-0.999609, 61, 161, 76, 288
-0.99961, 145, 169, 272, 200
-0.999612, 57, 65, 72, 192
-0.999616, 97, 161, 112, 288
-0.999618, 221, 225, 236, 352
-0.999618, 313, 265, 344, 328
-0.999619, 295, 113, 310, 240
-0.99962, 337, 265, 464, 296
-0.999622, 137, 65, 152, 192
-0.999624, 177, 89, 304, 120
-0.999624, 303, 129, 318, 256
-0.999625, 267, 177, 282, 304
-0.999627, 319, 129, 334, 256
-0.99963, 201, 49, 216, 176
-0.999631, 369, 313, 496, 344
-0.999633, 321, 97, 352, 352
-0.999633, 57, 113, 72, 240
-0.999637, 265, 1, 296, 256
-0.999637, 433, 1, 496, 128
-0.999639, 337, 253, 464, 284
-0.999641, 65, 41, 192, 72
-0.999641, 213, 49, 228, 176
-0.999648, 437, 1, 468, 128
-0.99965, 281, 241, 296, 368
-0.999654, 341, 241, 372, 368
-0.999656, 221, 49, 236, 176
-0.999657, 227, 49, 242, 176
-0.999658, 241, 49, 256, 176
-0.999659, 203, 177, 218, 304
-0.999664, 249, 177, 264, 304
-0.999683, 207, 49, 222, 176
-0.999683, 189, 177, 204, 304
-0.999687, 165, 145, 180, 272
-0.999689, 121, 265, 184, 328
-0.999692, 97, 173, 224, 204
-0.999692, 161, 145, 288, 176
-0.999694, 1, 49, 64, 176
-0.999694, 233, 49, 248, 176
-0.999697, 177, 161, 192, 288
-0.9997, 129, 57, 192, 120
-0.999701, 269, 225, 284, 352
-0.999705, 251, 65, 266, 192
-0.999707, 239, 177, 254, 304
-0.999712, 353, 289, 480, 320
-0.999712, 201, 1, 232, 256
-0.999726, 287, 209, 302, 336
-0.999742, 227, 225, 242, 352
-0.999744, 337, 213, 464, 244
-0.999744, 333, 129, 364, 375
-0.999747, 321, 169, 448, 200
-0.999751, 261, 177, 276, 304
-0.999754, 255, 177, 270, 304
-0.999758, 99, 1, 114, 128
-0.99976, 41, 33, 72, 288
-0.999762, 313, 313, 344, 375
-0.999762, 279, 65, 294, 192
-0.999762, 285, 65, 300, 192
-0.999762, 225, 177, 240, 304
-0.999764, 263, 65, 278, 192
-0.999764, 257, 65, 272, 192
-0.999765, 81, 25, 112, 88
-0.999772, 233, 225, 264, 352
-0.999772, 171, 145, 186, 272
-0.999782, 51, 49, 66, 176
-0.999783, 325, 129, 340, 256
-0.999784, 183, 161, 198, 288
-0.999787, 233, 209, 248, 336
-0.99979, 109, 17, 140, 144
-0.999791, 291, 49, 306, 176
-0.999792, 269, 65, 284, 192
-0.999794, 1, 297, 128, 328
-0.999795, 105, 1, 120, 128
-0.999796, 341, 129, 356, 256
-0.999799, 233, 161, 248, 288
-0.999799, 79, 1, 94, 128
-0.9998, 303, 81, 318, 208
-0.999801, 49, 341, 176, 372
-0.999803, 311, 81, 326, 208
-0.999821, 337, 93, 464, 124
-0.999823, 81, 257, 208, 288
-0.999828, 1, 217, 64, 280
-0.999828, 331, 129, 346, 256
-0.999828, 293, 177, 308, 304
-0.999829, 211, 177, 226, 304
-0.99983, 397, 177, 412, 304
-0.99983, 369, 189, 496, 220
-0.999839, 189, 145, 220, 272
-0.99984, 369, 65, 496, 96
-0.999841, 1, 41, 128, 72
-0.999841, 209, 177, 240, 304
-0.999842, 65, 285, 192, 316
-0.999849, 361, 241, 424, 304
-0.999855, 49, 329, 176, 360
-0.999858, 353, 141, 480, 172
-0.999868, 401, 97, 464, 224
-0.999874, 281, 1, 312, 256
-0.999877, 257, 213, 384, 244
-0.999884, 321, 121, 352, 184
-0.999887, 77, 193, 108, 320
-0.999899, 417, 113, 480, 176
-0.999915, 345, 129, 376, 375
-0.999916, 97, 161, 224, 192
-0.999916, 321, 185, 448, 216
-0.999932, 337, 81, 464, 112
-0.999935, 305, 197, 432, 228
-0.999942, 25, 265, 88, 328
-0.999945, 369, 153, 432, 216
-0.999951, 209, 9, 336, 40
-0.999959, 353, 129, 384, 256
-0.999979, 33, 73, 64, 136
-0.999983, 381, 129, 412, 375
-0.999992, 353, 105, 480, 136
-0.999999, 1, 73, 500, 136
-1.00001, 249, 177, 280, 240
-1.00002, 1, 269, 128, 300
-1.00004, 1, 341, 128, 372
-1.00005, 257, 197, 384, 228
-1.00005, 305, 97, 368, 160
-1.00006, 93, 129, 124, 375
-1.00008, 401, 129, 432, 375
-1.00008, 129, 57, 384, 120
-1.0001, 1, 41, 500, 104
-1.00011, 301, 1, 332, 256
-1.00012, 357, 129, 388, 375
-1.00016, 45, 129, 76, 375
-1.0002, 417, 153, 480, 216
-1.00022, 333, 33, 364, 288
-1.00022, 425, 241, 488, 368
-1.00024, 365, 161, 396, 288
-1.00024, 121, 289, 152, 352
-1.00024, 65, 9, 320, 72
-1.00027, 209, 65, 272, 128
-1.00027, 149, 209, 180, 272
-1.00028, 257, 17, 500, 80
-1.00028, 377, 177, 408, 304
-1.00029, 321, 1, 352, 256
-1.00029, 145, 1, 272, 128
-1.0003, 377, 153, 408, 216
-1.00031, 313, 169, 376, 232
-1.00032, 413, 97, 444, 352
-1.00037, 325, 273, 356, 336
-1.00038, 369, 129, 400, 375
-1.00039, 29, 65, 60, 192
-1.0004, 57, 25, 88, 88
-1.00042, 373, 33, 404, 288
-1.00043, 385, 33, 416, 288
-1.00044, 353, 33, 384, 288
-1.00046, 221, 257, 252, 320
-1.00047, 357, 241, 388, 368
-1.00047, 401, 33, 432, 288
-1.00047, 361, 113, 424, 176
-1.0005, 249, 225, 280, 352
-1.00052, 17, 129, 48, 375
-1.00053, 193, 1, 320, 128
-1.00055, 385, 49, 448, 112
-1.00056, 169, 185, 200, 248
-1.00056, 257, 73, 384, 136
-1.00058, 5, 33, 36, 288
-1.00058, 409, 65, 472, 320
-1.00058, 161, 25, 416, 88
-1.00058, 345, 137, 376, 200
-1.00058, 353, 1, 416, 128
-1.00059, 313, 225, 376, 288
-1.00059, 337, 233, 400, 296
-1.00059, 437, 1, 468, 256
-1.00062, 425, 65, 456, 320
-1.00062, 5, 129, 36, 375
-1.00063, 101, 305, 132, 368
-1.00063, 285, 225, 316, 288
-1.00064, 269, 177, 300, 240
-1.00067, 257, 57, 500, 120
-1.00068, 65, 265, 128, 328
-1.00071, 297, 177, 328, 304
-1.00072, 209, 305, 272, 368
-1.00073, 457, 97, 488, 352
-1.00073, 413, 1, 444, 256
-1.00074, 29, 33, 60, 288
-1.00079, 381, 241, 412, 368
-1.00079, 161, 1, 416, 64
-1.00081, 221, 201, 252, 264
-1.00081, 41, 241, 104, 368
-1.00081, 17, 1, 48, 256
-1.00082, 465, 1, 496, 256
-1.00085, 305, 1, 368, 128
-1.00086, 405, 169, 436, 232
-1.00087, 413, 161, 444, 288
-1.00087, 469, 1, 500, 128
-1.00089, 449, 1, 480, 256
-1.00097, 33, 1, 64, 128
-1.00098, 421, 305, 452, 368
-1.00098, 297, 225, 328, 352
-1.00099, 469, 97, 500, 352
-1.00101, 33, 129, 64, 375
-1.00104, 365, 265, 396, 328
-1.00105, 445, 97, 476, 352
-1.00106, 353, 41, 384, 104
-1.00107, 1, 313, 500, 375
-1.00108, 1, 289, 500, 352
-1.00118, 117, 265, 148, 328
-1.00123, 377, 273, 408, 336
-1.00123, 385, 17, 448, 144
-1.00125, 49, 1, 80, 128
-1.00132, 273, 313, 304, 375
-1.00136, 409, 145, 472, 272
-1.00136, 337, 65, 368, 192
-1.0014, 285, 201, 316, 264
-1.00142, 385, 65, 448, 320
-1.00144, 37, 33, 68, 96
-1.00144, 421, 241, 452, 368
-1.00149, 409, 97, 440, 224
-1.00151, 437, 241, 468, 368
-1.00154, 449, 1, 480, 128
-1.00157, 45, 305, 76, 368
-1.00159, 113, 241, 144, 368
-1.00164, 249, 305, 280, 368
-1.00165, 237, 73, 268, 136
-1.00167, 109, 201, 140, 264
-1.00167, 425, 161, 456, 288
-1.00167, 105, 41, 136, 104
-1.00168, 349, 81, 380, 208
-1.00172, 161, 161, 192, 224
-1.00172, 1, 241, 64, 368
-1.00175, 101, 241, 132, 368
-1.00176, 1, 17, 500, 80
-1.00184, 433, 193, 496, 320
-1.00186, 401, 145, 432, 272
-1.00188, 329, 17, 392, 144
-1.00198, 145, 1, 208, 128
-1.00204, 1, 193, 64, 320
-1.00211, 9, 1, 72, 128
-1.00218, 377, 65, 408, 192
-1.00221, 349, 33, 380, 160
-1.00222, 309, 209, 340, 336
-1.00231, 141, 241, 172, 368
-1.00239, 17, 49, 48, 176
-1.0024, 165, 1, 196, 128
-1.00242, 365, 97, 396, 224
-1.00247, 381, 129, 412, 256
-1.00251, 153, 1, 184, 128
-1.00254, 369, 225, 400, 352
-1.00262, 321, 193, 352, 320
-1.00262, 337, 177, 368, 304
-1.00264, 1, 113, 32, 240
-1.00272, 349, 177, 380, 304
-1.00282, 361, 1, 392, 128
-1.00283, 361, 49, 392, 176
-1.00288, 333, 1, 364, 128
-1.00294, 457, 241, 488, 368
-1.00294, 17, 193, 48, 320
-1.00298, 169, 1, 232, 128
-1.00307, 41, 225, 72, 352
-1.00307, 5, 209, 36, 336
-1.0031, 53, 241, 84, 368
-1.00311, 121, 17, 152, 144
-1.00315, 469, 241, 500, 368
-1.00316, 241, 17, 272, 144
-1.0032, 397, 49, 428, 176
-1.00325, 177, 1, 208, 128
-1.0033, 313, 1, 344, 128
-1.00386, 1, 1, 64, 256
-1.00393, 25, 193, 88, 320
-1.00406, 241, 17, 304, 144
-1.00423, 433, 1, 496, 256
-1.00424, 313, 177, 376, 304
-1.00503, 193, 1, 256, 128
-1.0053, 433, 129, 496, 375
-1.00568, 281, 1, 344, 128
-1.00675, 433, 129, 496, 256
-1.00801, 1, 145, 64, 272
