1955
-0.174205, 1, 1, 500, 375
-0.257962, 1, 65, 500, 320
-0.345241, 33, 1, 288, 375
-0.392753, 129, 65, 384, 320
-0.434094, 193, 1, 448, 375
-0.437912, 1, 33, 256, 288
-0.518537, 225, 65, 480, 320
-0.628674, 33, 129, 288, 375
-0.806309, 225, 65, 352, 320
-0.807125, 289, 97, 416, 352
-0.808894, 145, 1, 272, 256
-0.820877, 113, 1, 240, 375
-0.822621, 81, 33, 208, 288
-0.832828, 369, 129, 496, 375
-0.835276, 177, 97, 304, 352
-0.839386, 1, 113, 500, 240
-0.844818, 17, 33, 144, 288
-0.848673, 209, 1, 336, 375
-0.849154, 113, 129, 240, 375
-0.849959, 1, 161, 500, 288
-0.85158, 65, 1, 192, 375
-0.853464, 161, 1, 288, 375
-0.865714, 257, 1, 384, 375
-0.870684, 65, 33, 320, 160
-0.873542, 17, 1, 144, 375
-0.875545, 1, 65, 500, 192
-0.877654, 65, 129, 192, 375
-0.878665, 161, 65, 416, 192
-0.885173, 305, 1, 432, 375
-0.885761, 1, 209, 500, 336
-0.887565, 1, 81, 256, 208
-0.892747, 193, 113, 448, 240
-0.895718, 353, 33, 480, 288
-0.899556, 1, 129, 128, 375
-0.900019, 369, 1, 496, 375
-0.909351, 273, 49, 336, 176
-0.910635, 1, 1, 500, 128
-0.911567, 225, 177, 480, 304
-0.912172, 289, 1, 416, 256
-0.91365, 113, 33, 240, 160
-0.916629, 177, 81, 304, 208
-0.917912, 121, 33, 184, 160
-0.917929, 433, 97, 496, 224
-0.918579, 65, 145, 320, 272
-0.918586, 177, 49, 240, 176
-0.919247, 305, 97, 432, 224
-0.92034, 289, 145, 416, 272
-0.920502, 129, 81, 256, 208
-0.921509, 225, 65, 352, 192
-0.922379, 297, 97, 360, 224
-0.923387, 129, 193, 384, 320
-0.923737, 145, 129, 272, 256
-0.924339, 153, 97, 216, 224
-0.924568, 153, 33, 216, 160
-0.925461, 329, 113, 392, 240
-0.926858, 409, 177, 472, 304
-0.926921, 177, 1, 240, 128
-0.927206, 353, 113, 416, 240
-0.927272, 353, 113, 480, 240
-0.927924, 161, 17, 288, 144
-0.929448, 1, 1, 64, 128
-0.930759, 17, 49, 80, 176
-0.931778, 353, 177, 480, 304
-0.932426, 113, 129, 176, 256
-0.932748, 97, 49, 160, 176
-0.932796, 209, 129, 336, 256
-0.933469, 185, 129, 248, 256
-0.933731, 273, 129, 336, 256
-0.935013, 265, 65, 328, 128
-0.935198, 401, 129, 464, 256
-0.935719, 97, 129, 224, 256
-0.935965, 257, 65, 500, 192
-0.936383, 321, 161, 384, 288
-0.936461, 1, 209, 256, 336
-0.936549, 225, 193, 352, 320
-0.937454, 257, 177, 320, 304
-0.937563, 9, 145, 72, 272
-0.937565, 113, 177, 240, 304
-0.937792, 433, 161, 496, 288
-0.939521, 329, 153, 392, 216
-0.939533, 81, 81, 208, 208
-0.939902, 353, 121, 416, 184
-0.940214, 185, 97, 248, 160
-0.940277, 1, 33, 128, 160
-0.940365, 241, 81, 304, 208
-0.940722, 209, 129, 272, 256
-0.940999, 177, 1, 240, 64
-0.941606, 201, 33, 264, 160
-0.942335, 161, 65, 224, 128
-0.942569, 377, 113, 440, 240
-0.942767, 1, 33, 64, 96
-0.942791, 369, 193, 432, 320
-0.942845, 313, 105, 376, 168
-0.943142, 281, 97, 344, 160
-0.944631, 297, 177, 360, 304
-0.945176, 137, 89, 200, 152
-0.945586, 161, 41, 224, 104
-0.94594, 409, 185, 472, 248
-0.945947, 153, 145, 216, 272
-0.946857, 289, 193, 416, 320
-0.947325, 433, 113, 496, 176
-0.947325, 225, 225, 480, 352
-0.947969, 65, 177, 192, 304
-0.948137, 289, 137, 352, 200
-0.948168, 193, 17, 448, 144
-0.948263, 113, 97, 176, 160
-0.949045, 113, 177, 176, 304
-0.949456, 177, 177, 304, 304
-0.949523, 177, 177, 240, 304
-0.950505, 273, 49, 400, 176
-0.950669, 1, 145, 128, 272
-0.950728, 129, 41, 192, 104
-0.950814, 1, 9, 64, 72
-0.951593, 129, 81, 192, 208
-0.951675, 33, 81, 160, 208
-0.95169, 345, 161, 408, 288
-0.952102, 329, 185, 392, 248
-0.952579, 233, 193, 296, 320
-0.952604, 137, 185, 200, 248
-0.952936, 137, 193, 200, 320
-0.953023, 393, 145, 456, 208
-0.953098, 177, 153, 240, 216
-0.953172, 433, 209, 496, 336
-0.953454, 137, 33, 200, 288
-0.95353, 97, 65, 160, 128
-0.95362, 153, 113, 216, 176
-0.954059, 177, 121, 240, 184
-0.954269, 361, 161, 424, 224
-0.954659, 209, 17, 336, 144
-0.954885, 153, 161, 216, 224
-0.955127, 329, 129, 392, 192
-0.95521, 113, 121, 176, 184
-0.955323, 169, 185, 232, 248
-0.955344, 1, 193, 128, 320
-0.955356, 65, 33, 192, 160
-0.955918, 257, 105, 320, 168
-0.956015, 209, 209, 272, 336
-0.95703, 113, 33, 176, 288
-0.957382, 273, 185, 336, 248
-0.95769, 225, 89, 288, 152
-0.957866, 17, 73, 80, 136
-0.957905, 89, 97, 152, 224
-0.958102, 281, 65, 344, 320
-0.958365, 297, 161, 360, 224
-0.958425, 281, 49, 312, 176
-0.958612, 377, 113, 440, 176
-0.959292, 185, 1, 248, 256
-0.959701, 321, 65, 384, 192
-0.960039, 81, 193, 144, 320
-0.960069, 297, 49, 328, 176
-0.960191, 201, 81, 264, 208
-0.960388, 201, 41, 264, 104
-0.960403, 161, 1, 224, 256
-0.960409, 25, 49, 88, 112
-0.960442, 89, 97, 152, 160
-0.960555, 289, 113, 416, 176
-0.960687, 193, 113, 224, 240
-0.960706, 369, 225, 496, 352
-0.960909, 337, 105, 368, 168
-0.960942, 129, 97, 256, 160
-0.960965, 297, 49, 360, 176
-0.961444, 25, 1, 56, 128
-0.961453, 385, 65, 448, 192
-0.961461, 25, 33, 56, 96
-0.961619, 9, 1, 40, 64
-0.961666, 97, 73, 224, 136
-0.961836, 161, 89, 224, 152
-0.961946, 337, 137, 464, 200
-0.962141, 153, 137, 216, 200
-0.962345, 101, 65, 132, 128
-0.962388, 145, 17, 208, 80
-0.962409, 417, 161, 480, 224
-0.96241, 177, 105, 304, 168
-0.962433, 257, 145, 384, 208
-0.962455, 129, 105, 160, 168
-0.962458, 381, 113, 412, 240
-0.962719, 129, 97, 160, 224
-0.962747, 89, 33, 152, 288
-0.962821, 9, 33, 72, 288
-0.962958, 325, 105, 356, 168
-0.962969, 113, 185, 176, 248
-0.963051, 321, 97, 384, 352
-0.963172, 429, 113, 460, 240
-0.963213, 449, 97, 480, 224
-0.963273, 341, 97, 372, 224
-0.963507, 181, 33, 212, 160
-0.963534, 105, 41, 168, 104
-0.963598, 209, 81, 240, 208
-0.963613, 41, 193, 104, 320
-0.963739, 329, 97, 360, 224
-0.963833, 289, 169, 416, 232
-0.963929, 213, 129, 244, 256
-0.963979, 213, 97, 244, 160
-0.963995, 129, 25, 256, 88
-0.964008, 369, 201, 432, 264
-0.964036, 301, 105, 332, 168
-0.964152, 369, 65, 496, 192
-0.964267, 129, 65, 192, 128
-0.964313, 433, 225, 496, 288
-0.96445, 409, 225, 472, 352
-0.964537, 249, 201, 312, 264
-0.964546, 185, 97, 248, 352
-0.964651, 289, 209, 352, 272
-0.964768, 145, 33, 176, 160
-0.964796, 249, 129, 312, 256
-0.964833, 209, 121, 272, 184
-0.964883, 177, 65, 208, 128
-0.964981, 357, 161, 388, 224
-0.965065, 185, 177, 216, 240
-0.965076, 249, 65, 312, 320
-0.965225, 425, 97, 488, 352
-0.965262, 117, 33, 148, 160
-0.965264, 353, 97, 384, 224
-0.96529, 1, 113, 32, 240
-0.965421, 337, 137, 368, 200
-0.96544, 161, 57, 192, 120
-0.965491, 433, 201, 496, 264
-0.965707, 373, 113, 404, 176
-0.965743, 301, 97, 332, 224
-0.965761, 9, 161, 72, 224
-0.965816, 409, 209, 472, 272
-0.965984, 209, 33, 240, 160
-0.965992, 385, 121, 416, 184
-0.966123, 285, 185, 316, 248
-0.966166, 345, 97, 408, 352
-0.966177, 25, 1, 88, 128
-0.966279, 9, 209, 72, 336
-0.966294, 369, 97, 400, 224
-0.966354, 401, 233, 464, 296
-0.966429, 37, 41, 68, 104
-0.966466, 225, 97, 352, 160
-0.966525, 401, 121, 464, 184
-0.967154, 297, 73, 360, 136
-0.967357, 49, 33, 112, 160
-0.967517, 153, 217, 216, 280
-0.967594, 49, 129, 176, 256
-0.967598, 9, 185, 72, 248
-0.967603, 193, 185, 256, 248
-0.967624, 309, 81, 340, 144
-0.967634, 5, 41, 36, 104
-0.967701, 193, 65, 224, 192
-0.967737, 1, 1, 32, 128
-0.967793, 101, 81, 132, 208
-0.967888, 209, 25, 240, 88
-0.968038, 353, 121, 384, 184
-0.96809, 17, 145, 48, 272
-0.968133, 97, 49, 224, 112
-0.968204, 345, 65, 408, 192
-0.968277, 113, 145, 240, 208
-0.968303, 113, 145, 176, 208
-0.968319, 209, 137, 336, 200
-0.968358, 281, 145, 312, 272
-0.968367, 257, 73, 384, 136
-0.968448, 369, 161, 400, 224
-0.968449, 269, 73, 300, 136
-0.968451, 281, 97, 312, 160
-0.968507, 145, 81, 176, 144
-0.968518, 185, 65, 248, 128
-0.968526, 433, 145, 464, 208
-0.968611, 113, 121, 240, 184
-0.968693, 197, 33, 228, 96
-0.968699, 425, 249, 488, 312
-0.96882, 437, 161, 468, 288
-0.968926, 249, 177, 312, 240
-0.969112, 177, 49, 304, 112
-0.969153, 49, 217, 112, 280
-0.969162, 181, 9, 212, 72
-0.969197, 425, 177, 456, 304
-0.969217, 193, 217, 256, 280
-0.969377, 269, 97, 300, 160
-0.969381, 201, 129, 232, 192
-0.96951, 269, 49, 300, 176
-0.969528, 201, 97, 232, 160
-0.969578, 225, 33, 288, 288
-0.969673, 185, 161, 216, 288
-0.969684, 97, 217, 160, 280
-0.969819, 145, 185, 176, 248
-0.969853, 297, 185, 360, 248
-0.969861, 469, 97, 500, 224
-0.969875, 437, 113, 468, 176
-0.969971, 97, 129, 160, 375
-0.970012, 1, 49, 32, 176
-0.970305, 369, 145, 400, 272
-0.970336, 225, 33, 288, 160
-0.970366, 337, 97, 400, 160
-0.970424, 21, 65, 52, 192
-0.97047, 401, 265, 464, 328
-0.970498, 413, 177, 444, 304
-0.970508, 165, 17, 196, 144
-0.970552, 337, 161, 464, 224
-0.970564, 169, 81, 200, 208
-0.970581, 145, 129, 176, 256
-0.970605, 129, 241, 384, 368
-0.9707, 113, 185, 240, 248
-0.970809, 337, 113, 464, 176
-0.970838, 285, 65, 316, 128
-0.970841, 177, 81, 304, 144
-0.970944, 453, 153, 484, 216
-0.971103, 233, 113, 296, 176
-0.971169, 197, 161, 228, 288
-0.971421, 189, 73, 220, 136
-0.971429, 289, 193, 416, 256
-0.971447, 1, 97, 64, 160
-0.971507, 369, 193, 496, 256
-0.971553, 145, 225, 272, 352
-0.971614, 221, 129, 252, 192
-0.971636, 1, 105, 32, 168
-0.971684, 337, 161, 368, 224
-0.971704, 5, 73, 36, 136
-0.971747, 177, 33, 208, 96
-0.971764, 197, 177, 228, 240
-0.971781, 289, 241, 416, 368
-0.971812, 153, 129, 216, 375
-0.971933, 129, 137, 160, 200
-0.972013, 317, 129, 348, 256
-0.972052, 377, 233, 440, 296
-0.972065, 161, 81, 192, 144
-0.972205, 369, 137, 400, 200
-0.972207, 189, 121, 220, 184
-0.97229, 129, 33, 160, 160
-0.972435, 393, 129, 424, 256
-0.972495, 33, 57, 160, 120
-0.972589, 317, 81, 348, 208
-0.972629, 273, 225, 336, 352
-0.972696, 341, 145, 372, 272
-0.972724, 461, 201, 492, 264
-0.97284, 101, 97, 132, 160
-0.972917, 21, 9, 52, 72
-0.972954, 21, 81, 52, 144
-0.972968, 141, 177, 172, 304
-0.973005, 297, 65, 328, 128
-0.973032, 465, 193, 496, 320
-0.973058, 449, 113, 480, 176
-0.973061, 145, 1, 272, 64
-0.973101, 73, 73, 136, 136
-0.973175, 433, 49, 496, 176
-0.973283, 145, 41, 176, 104
-0.973315, 89, 145, 152, 272
-0.973321, 269, 97, 300, 224
-0.973479, 81, 225, 208, 352
-0.973516, 121, 129, 184, 375
-0.973526, 17, 81, 144, 144
-0.973533, 73, 217, 136, 280
-0.973553, 433, 137, 496, 200
-0.97377, 469, 113, 500, 176
-0.973786, 73, 49, 136, 176
-0.973812, 189, 145, 220, 208
-0.973928, 221, 81, 252, 208
-0.97413, 25, 17, 88, 80
-0.974164, 257, 129, 320, 192
-0.974206, 49, 49, 112, 112
-0.974222, 417, 185, 448, 248
-0.974229, 401, 129, 464, 375
-0.974288, 249, 33, 312, 160
-0.974297, 217, 225, 280, 288
-0.974339, 165, 33, 196, 96
-0.97449, 297, 193, 328, 256
-0.974498, 1, 185, 32, 248
-0.97458, 201, 17, 264, 80
-0.974615, 353, 233, 416, 296
-0.974638, 113, 57, 144, 120
-0.974665, 129, 217, 192, 280
-0.97471, 157, 105, 188, 168
-0.974733, 9, 97, 72, 224
-0.974746, 241, 209, 368, 272
-0.974974, 313, 105, 344, 168
-0.974983, 269, 177, 300, 304
-0.974989, 113, 97, 144, 160
-0.975043, 157, 65, 188, 192
-0.975068, 17, 129, 48, 192
-0.975081, 225, 241, 352, 368
-0.975092, 37, 1, 68, 128
-0.975119, 241, 177, 368, 240
-0.97519, 129, 177, 160, 240
-0.975216, 33, 9, 64, 72
-0.975359, 329, 145, 360, 272
-0.97537, 393, 193, 424, 320
-0.975397, 81, 97, 208, 160
-0.975556, 185, 97, 216, 160
-0.975587, 201, 153, 232, 216
-0.975629, 321, 129, 352, 192
-0.975634, 17, 33, 144, 96
-0.97569, 469, 145, 500, 272
-0.975814, 181, 81, 212, 208
-0.975814, 1, 129, 64, 375
-0.975877, 177, 185, 304, 248
-0.975915, 361, 185, 392, 248
-0.975939, 9, 217, 72, 280
-0.975988, 65, 145, 128, 272
-0.976006, 441, 177, 472, 240
-0.97622, 21, 161, 52, 224
-0.976276, 65, 185, 192, 248
-0.976289, 317, 177, 348, 304
-0.976336, 209, 49, 240, 112
-0.976408, 21, 57, 52, 120
-0.976439, 201, 1, 232, 64
-0.976453, 161, 129, 288, 192
-0.976471, 381, 193, 412, 320
-0.976556, 337, 185, 368, 248
-0.976558, 297, 161, 328, 288
-0.976628, 65, 97, 128, 352
-0.976656, 209, 129, 272, 375
-0.976722, 381, 153, 412, 216
-0.976728, 1, 185, 128, 248
-0.976769, 289, 161, 320, 224
-0.976872, 313, 209, 376, 272
-0.976903, 217, 193, 280, 256
-0.976948, 161, 161, 288, 224
-0.976955, 429, 185, 460, 248
-0.976977, 297, 225, 360, 352
-0.977007, 213, 1, 244, 64
-0.977311, 209, 145, 272, 208
-0.977342, 425, 281, 488, 344
-0.977412, 289, 97, 320, 224
-0.977414, 225, 65, 288, 128
-0.977417, 449, 161, 480, 288
-0.977425, 353, 145, 384, 272
-0.977429, 89, 193, 152, 256
-0.977473, 285, 193, 316, 320
-0.977517, 193, 201, 224, 264
-0.977678, 1, 177, 32, 304
-0.977721, 329, 225, 392, 352
-0.977724, 13, 1, 44, 128
-0.977745, 397, 201, 428, 264
-0.977834, 29, 145, 60, 272
-0.977922, 273, 1, 336, 375
-0.978094, 157, 113, 188, 240
-0.978101, 221, 33, 252, 160
-0.978118, 113, 177, 144, 304
-0.978161, 269, 185, 300, 248
-0.978379, 385, 241, 448, 368
-0.978424, 9, 137, 72, 200
-0.978426, 385, 177, 448, 240
-0.978427, 173, 185, 204, 248
-0.978449, 97, 1, 160, 128
-0.97846, 193, 217, 320, 280
-0.978489, 33, 129, 96, 256
-0.978538, 33, 105, 160, 168
-0.978559, 297, 129, 328, 192
-0.978567, 173, 145, 204, 272
-0.978742, 65, 185, 128, 248
-0.978746, 117, 129, 148, 256
-0.978805, 209, 209, 240, 336
-0.978826, 41, 49, 72, 176
-0.978831, 225, 129, 256, 256
-0.97885, 193, 1, 224, 128
-0.978885, 377, 257, 440, 320
-0.978951, 81, 217, 208, 280
-0.979163, 369, 265, 496, 328
-0.979218, 369, 225, 496, 288
-0.97927, 133, 41, 164, 104
-0.979304, 33, 33, 96, 288
-0.979349, 129, 161, 160, 288
-0.979558, 109, 185, 140, 248
-0.9796, 177, 25, 304, 88
-0.97962, 469, 177, 500, 240
-0.979652, 281, 121, 312, 184
-0.97972, 1, 209, 128, 272
-0.979882, 321, 153, 352, 216
-0.979902, 173, 97, 204, 160
-0.979905, 165, 209, 196, 336
-0.979921, 65, 97, 128, 160
-0.979942, 145, 113, 176, 176
-0.97995, 229, 209, 260, 336
-0.979971, 9, 1, 72, 375
-0.979979, 157, 193, 188, 256
-0.980055, 369, 97, 432, 352
-0.980336, 113, 1, 176, 375
-0.980364, 153, 193, 184, 320
-0.980379, 417, 129, 448, 256
-0.98042, 377, 193, 408, 256
-0.980422, 37, 65, 68, 128
-0.980452, 201, 73, 232, 136
-0.980528, 277, 209, 308, 272
-0.980636, 309, 209, 340, 272
-0.98067, 321, 81, 352, 144
-0.980693, 301, 209, 332, 336
-0.980732, 153, 1, 216, 375
-0.980781, 321, 49, 448, 176
-0.981007, 325, 193, 356, 256
-0.981166, 81, 217, 112, 280
-0.981229, 165, 217, 196, 280
-0.981284, 249, 225, 312, 288
-0.981323, 145, 153, 176, 216
-0.981442, 445, 217, 476, 280
-0.981608, 177, 1, 240, 375
-0.981732, 137, 209, 168, 272
-0.981772, 53, 193, 84, 320
-0.981848, 309, 129, 340, 192
-0.981858, 445, 241, 476, 304
-0.981914, 1, 153, 32, 216
-0.981963, 349, 97, 380, 160
-0.982004, 185, 225, 248, 352
-0.982055, 193, 209, 224, 336
-0.982133, 321, 233, 448, 296
-0.982154, 309, 33, 340, 160
-0.982154, 305, 1, 368, 256
-0.982186, 101, 33, 132, 160
-0.982219, 269, 121, 300, 184
-0.98227, 277, 153, 308, 216
-0.982443, 257, 193, 288, 320
-0.982499, 1, 153, 128, 216
-0.982522, 145, 209, 272, 272
-0.982547, 297, 217, 328, 280
-0.982555, 329, 233, 392, 296
-0.982606, 89, 121, 152, 184
-0.982628, 273, 161, 336, 224
-0.98273, 65, 97, 128, 224
-0.982737, 233, 217, 264, 280
-0.982811, 337, 89, 464, 152
-0.983033, 101, 193, 132, 320
-0.983052, 101, 217, 132, 280
-0.983108, 41, 249, 104, 312
-0.983188, 181, 209, 212, 336
-0.983437, 241, 209, 272, 336
-0.983524, 121, 201, 152, 264
-0.983585, 169, 9, 200, 72
-0.983604, 297, 1, 360, 375
-0.983698, 129, 209, 160, 336
-0.983791, 209, 177, 240, 240
-0.983859, 233, 241, 296, 368
-0.983865, 329, 193, 360, 320
-0.98394, 309, 185, 340, 248
-0.98394, 457, 225, 488, 288
-0.984018, 453, 209, 484, 336
-0.984085, 469, 233, 500, 296
-0.984088, 109, 129, 140, 192
-0.984188, 89, 1, 152, 375
-0.984301, 81, 209, 112, 336
-0.984378, 13, 185, 44, 248
-0.984394, 353, 257, 416, 320
-0.984465, 1, 241, 64, 304
-0.984491, 421, 145, 452, 208
-0.984566, 41, 185, 104, 248
-0.984639, 225, 105, 256, 168
-0.984682, 265, 209, 296, 272
-0.984686, 129, 73, 384, 136
-0.984699, 161, 225, 224, 352
-0.984743, 421, 225, 452, 352
-0.984777, 1, 89, 256, 152
-0.984873, 409, 209, 440, 272
-0.984921, 57, 217, 88, 280
-0.984951, 465, 145, 496, 208
-0.984952, 65, 129, 192, 192
-0.984965, 409, 81, 472, 208
-0.984974, 177, 209, 208, 272
-0.98498, 369, 193, 400, 320
-0.985042, 41, 129, 104, 375
-0.985079, 397, 121, 428, 184
-0.985173, 225, 41, 288, 104
-0.985183, 129, 97, 384, 160
-0.985219, 49, 73, 112, 136
-0.985325, 33, 1, 96, 375
-0.985486, 209, 265, 272, 328
-0.985513, 81, 25, 208, 88
-0.985742, 249, 1, 312, 375
-0.985758, 33, 153, 96, 216
-0.985767, 117, 81, 148, 208
-0.985769, 25, 209, 56, 336
-0.985918, 65, 241, 128, 304
-0.985945, 69, 193, 100, 320
-0.98596, 449, 49, 480, 176
-0.98599, 305, 257, 432, 320
-0.986031, 353, 241, 416, 368
-0.986034, 249, 153, 312, 216
-0.986111, 241, 233, 368, 296
-0.986162, 433, 1, 496, 375
-0.986223, 385, 89, 448, 152
-0.986279, 245, 161, 276, 288
-0.986311, 265, 41, 328, 104
-0.986332, 13, 193, 44, 320
-0.986335, 97, 1, 224, 64
-0.98636, 41, 193, 72, 320
-0.986376, 33, 129, 96, 192
-0.986394, 321, 1, 384, 375
-0.986432, 185, 265, 248, 328
-0.986505, 433, 89, 496, 152
-0.986768, 329, 49, 360, 176
-0.98679, 361, 89, 424, 152
-0.986801, 1, 57, 256, 120
-0.986858, 281, 121, 344, 152
-0.987141, 177, 5, 240, 36
-0.987148, 209, 1, 272, 375
-0.98724, 377, 1, 440, 256
-0.987297, 329, 165, 392, 196
-0.987302, 193, 129, 448, 192
-0.987303, 193, 241, 256, 304
-0.987307, 233, 249, 296, 312
-0.987415, 405, 129, 436, 256
-0.987481, 321, 109, 384, 140
-0.987481, 365, 49, 396, 176
-0.98753, 113, 117, 176, 148
-0.98757, 161, 73, 224, 104
-0.987597, 273, 233, 336, 296
-0.987698, 121, 17, 184, 80
-0.987716, 281, 133, 344, 164
-0.987739, 305, 233, 368, 296
-0.98777, 9, 45, 72, 76
-0.987772, 289, 1, 416, 128
-0.987825, 345, 209, 408, 272
-0.987835, 353, 141, 416, 172
-0.987841, 177, 141, 240, 172
-0.987849, 105, 129, 136, 256
-0.98788, 137, 241, 200, 368
-0.987897, 273, 101, 336, 132
-0.987933, 1, 9, 64, 40
-0.98796, 193, 1, 320, 64
-0.988014, 273, 65, 336, 96
-0.988021, 17, 265, 80, 328
-0.988063, 185, 109, 248, 140
-0.988077, 153, 109, 216, 140
-0.988086, 289, 1, 320, 128
-0.988104, 17, 129, 144, 192
-0.988125, 321, 137, 384, 168
-0.988128, 161, 49, 224, 80
-0.98813, 297, 1, 360, 128
-0.988136, 409, 225, 440, 352
-0.988138, 89, 257, 152, 320
-0.98816, 169, 241, 232, 304
-0.98816, 329, 257, 392, 320
-0.988201, 329, 189, 392, 220
-0.988252, 1, 249, 128, 312
-0.988259, 177, 37, 240, 68
-0.988301, 145, 81, 176, 208
-0.988302, 17, 9, 144, 72
-0.988329, 437, 225, 468, 352
-0.988339, 321, 73, 384, 136
-0.988345, 345, 153, 408, 184
-0.988353, 137, 181, 200, 212
-0.988397, 177, 153, 240, 184
-0.98842, 137, 89, 200, 120
-0.988427, 469, 241, 500, 368
-0.988434, 1, 33, 256, 96
-0.988461, 113, 129, 176, 160
-0.988482, 185, 97, 248, 128
-0.988494, 97, 41, 352, 104
-0.988496, 289, 49, 416, 112
-0.988605, 345, 121, 408, 152
-0.988644, 1, 121, 500, 184
-0.988654, 185, 121, 248, 152
-0.988658, 113, 101, 176, 132
-0.9887, 289, 177, 352, 208
-0.988713, 297, 105, 360, 136
-0.988714, 153, 121, 216, 152
-0.988739, 145, 37, 208, 68
-0.988747, 389, 65, 420, 192
-0.988762, 1, 61, 64, 92
-0.988805, 425, 229, 488, 260
-0.98882, 161, 249, 288, 312
-0.988831, 265, 209, 328, 240
-0.988831, 145, 241, 208, 304
-0.988834, 313, 125, 376, 156
-0.988859, 49, 273, 112, 336
-0.988877, 1, 273, 128, 336
-0.988889, 161, 61, 224, 92
-0.988906, 297, 145, 360, 176
-0.988928, 233, 113, 296, 144
-0.988946, 121, 53, 184, 84
-0.988975, 433, 113, 496, 144
-0.988979, 401, 145, 464, 176
-0.98898, 161, 85, 224, 116
-0.989063, 113, 217, 176, 248
-0.989139, 97, 69, 160, 100
-0.989178, 89, 101, 152, 132
-0.98919, 409, 189, 472, 220
-0.98919, 265, 89, 328, 120
-0.989193, 137, 157, 200, 188
-0.989199, 289, 201, 352, 232
-0.989202, 57, 1, 120, 256
-0.98922, 289, 157, 352, 188
-0.989234, 89, 161, 120, 288
-0.989235, 225, 97, 288, 128
-0.989238, 177, 173, 240, 204
-0.989254, 177, 25, 240, 56
-0.989261, 17, 77, 80, 108
-0.989334, 113, 181, 176, 212
-0.989335, 137, 209, 200, 240
-0.989344, 153, 169, 216, 200
-0.989353, 321, 149, 384, 180
-0.989373, 337, 1, 400, 256
-0.989434, 377, 137, 440, 168
-0.989434, 177, 189, 240, 220
-0.989452, 129, 77, 192, 108
-0.989471, 257, 65, 288, 192
-0.989526, 273, 77, 336, 108
-0.989561, 465, 49, 496, 176
-0.989628, 273, 1, 336, 128
-0.989647, 89, 65, 120, 192
-0.989649, 113, 193, 176, 224
-0.989665, 113, 225, 176, 352
-0.989671, 137, 141, 200, 172
-0.989699, 273, 189, 336, 220
-0.98972, 369, 289, 496, 352
-0.989738, 153, 221, 216, 252
-0.989741, 257, 125, 320, 156
-0.989781, 193, 153, 448, 216
-0.989794, 433, 185, 496, 216
-0.9898, 353, 165, 416, 196
-0.989801, 65, 153, 192, 216
-0.989811, 345, 201, 408, 232
-0.989832, 345, 1, 408, 375
-0.989833, 113, 141, 176, 172
-0.989846, 297, 93, 360, 124
-0.989847, 89, 85, 152, 116
-0.989857, 137, 193, 200, 224
-0.989909, 257, 113, 320, 144
-0.989965, 369, 197, 432, 228
-0.989971, 113, 205, 176, 236
-0.989975, 401, 269, 464, 300
-0.98998, 1, 9, 256, 72
-0.990002, 53, 33, 84, 160
-0.990082, 185, 49, 248, 80
-0.99009, 81, 257, 208, 320
-0.990096, 357, 193, 388, 320
-0.990096, 377, 149, 440, 180
-0.990132, 1, 153, 500, 216
-0.990141, 393, 229, 456, 260
-0.99019, 17, 241, 144, 368
-0.990198, 321, 177, 384, 208
-0.990201, 361, 185, 424, 216
-0.990223, 433, 277, 496, 308
-0.990223, 209, 137, 272, 168
-0.990263, 433, 173, 496, 204
-0.990271, 313, 205, 376, 236
-0.990281, 161, 265, 224, 328
-0.990306, 49, 61, 112, 92
-0.990309, 89, 121, 152, 152
-0.990328, 385, 121, 448, 152
-0.990368, 1, 201, 500, 264
-0.99038, 433, 161, 496, 192
-0.990395, 385, 217, 448, 248
-0.990396, 121, 41, 184, 72
-0.990401, 113, 169, 176, 200
-0.990426, 433, 217, 496, 248
-0.990445, 121, 241, 184, 304
-0.990451, 161, 97, 224, 128
-0.990467, 1, 33, 64, 64
-0.990489, 89, 217, 152, 248
-0.990521, 25, 65, 88, 96
-0.990522, 401, 1, 464, 375
-0.990561, 257, 145, 288, 272
-0.990594, 401, 201, 464, 232
-0.990604, 257, 257, 384, 320
-0.990643, 437, 65, 468, 192
-0.990649, 289, 213, 352, 244
-0.99065, 1, 113, 256, 176
-0.990682, 249, 221, 312, 252
-0.990703, 1, 89, 64, 120
-0.990714, 137, 65, 200, 96
-0.990719, 9, 173, 72, 204
-0.990719, 225, 201, 480, 264
-0.990748, 1, 21, 64, 52
-0.990768, 113, 49, 240, 80
-0.990778, 113, 89, 176, 120
-0.990785, 177, 221, 240, 252
-0.9908, 113, 153, 176, 184
-0.990809, 425, 129, 488, 160
-0.990862, 433, 1, 496, 256
-0.99091, 385, 109, 448, 140
-0.990932, 201, 37, 264, 68
-0.990947, 249, 189, 312, 220
-0.99097, 97, 57, 160, 88
-0.990972, 129, 229, 192, 260
-0.990981, 401, 133, 464, 164
-0.990984, 25, 217, 88, 248
-0.991005, 433, 149, 496, 180
-0.991012, 169, 209, 232, 240
-0.991015, 209, 121, 272, 152
-0.991031, 61, 145, 92, 272
-0.991061, 145, 105, 272, 136
-0.991068, 225, 85, 288, 116
-0.99109, 65, 93, 128, 124
-0.991092, 1, 97, 500, 160
-0.991097, 369, 137, 496, 168
-0.991102, 313, 225, 344, 352
-0.991146, 433, 245, 496, 276
-0.991157, 209, 97, 336, 128
-0.991165, 257, 105, 500, 168
-0.991179, 289, 181, 416, 212
-0.991215, 341, 49, 372, 176
-0.991227, 249, 101, 312, 132
-0.991227, 257, 265, 320, 328
-0.991248, 369, 1, 432, 375
-0.991249, 409, 217, 472, 248
-0.991256, 289, 117, 416, 148
-0.991276, 345, 109, 408, 140
-0.991311, 297, 189, 360, 220
-0.991344, 145, 25, 208, 56
-0.991345, 233, 125, 296, 156
-0.991346, 209, 265, 336, 328
-0.991347, 225, 177, 480, 240
-0.991373, 1, 185, 256, 248
-0.99153, 1, 137, 256, 200
-0.991603, 289, 145, 416, 176
-0.99168, 129, 193, 384, 256
-0.991701, 361, 153, 376, 216
-0.991702, 401, 33, 464, 288
-0.991713, 371, 161, 386, 224
-0.99173, 1, 177, 500, 240
-0.991734, 9, 1, 40, 32
-0.991758, 129, 125, 160, 156
-0.991758, 369, 149, 400, 180
-0.991761, 189, 181, 220, 212
-0.991762, 301, 117, 332, 148
-0.991773, 145, 117, 272, 148
-0.991824, 169, 73, 200, 104
-0.991829, 305, 129, 432, 160
-0.991839, 301, 93, 332, 124
-0.991846, 341, 153, 372, 184
-0.991855, 327, 105, 342, 168
-0.991864, 333, 133, 364, 164
-0.991898, 185, 69, 216, 100
-0.991899, 333, 113, 348, 176
-0.991908, 1, 117, 32, 148
-0.991916, 189, 85, 220, 116
-0.991918, 313, 101, 344, 132
-0.991935, 193, 133, 224, 164
-0.991951, 357, 169, 388, 200
-0.991965, 289, 93, 320, 124
-0.991967, 25, 41, 56, 72
-0.991968, 5, 45, 36, 76
-0.991971, 373, 117, 404, 148
-0.99198, 81, 85, 208, 116
-0.991987, 357, 185, 388, 216
-0.991989, 165, 41, 196, 72
-0.99201, 325, 109, 356, 140
-0.992012, 269, 101, 300, 132
-0.992023, 181, 53, 212, 84
-0.992031, 145, 45, 176, 76
-0.992039, 21, 69, 52, 100
-0.99204, 385, 137, 416, 168
-0.99205, 225, 33, 352, 96
-0.992053, 177, 37, 208, 68
-0.992067, 37, 49, 68, 80
-0.992087, 125, 105, 156, 136
-0.992092, 369, 189, 496, 220
-0.992093, 289, 117, 320, 148
-0.992099, 321, 121, 352, 152
-0.992101, 345, 113, 376, 144
-0.992103, 189, 121, 220, 152
-0.992118, 293, 105, 324, 136
-0.992122, 321, 97, 336, 160
-0.992128, 81, 241, 144, 368
-0.992135, 337, 173, 368, 204
-0.992138, 9, 77, 40, 108
-0.99214, 177, 93, 208, 124
-0.992143, 185, 193, 216, 224
-0.992146, 213, 37, 244, 68
-0.992167, 257, 161, 384, 192
-0.99217, 145, 29, 272, 60
-0.992172, 357, 145, 388, 176
-0.992192, 277, 205, 308, 236
-0.9922, 209, 113, 336, 144
-0.992201, 189, 65, 204, 128
-0.992204, 5, 57, 36, 88
-0.992213, 113, 157, 240, 188
-0.992216, 125, 53, 156, 84
-0.992217, 41, 129, 72, 256
-0.992224, 169, 57, 200, 88
-0.992231, 189, 41, 220, 72
-0.992235, 417, 189, 448, 220
-0.992236, 51, 41, 66, 104
-0.992236, 157, 89, 188, 120
-0.992245, 345, 185, 376, 216
-0.992245, 97, 97, 224, 128
-0.992251, 369, 165, 400, 196
-0.992256, 281, 105, 312, 136
-0.992256, 433, 145, 464, 176
-0.992256, 129, 141, 160, 172
-0.992259, 273, 89, 304, 120
-0.99227, 129, 177, 160, 208
-0.992272, 353, 49, 384, 176
-0.992276, 197, 101, 228, 132
-0.992288, 201, 1, 232, 32
-0.992292, 257, 129, 384, 160
-0.992295, 189, 1, 220, 32
-0.992304, 161, 105, 192, 136
-0.992305, 341, 209, 372, 336
-0.992306, 297, 129, 328, 160
-0.992307, 201, 33, 232, 64
-0.992312, 209, 49, 240, 80
-0.992319, 217, 141, 248, 172
-0.99232, 257, 101, 384, 132
-0.992329, 337, 161, 464, 192
-0.992332, 17, 153, 48, 184
-0.992334, 357, 157, 388, 188
-0.992335, 21, 57, 52, 88
-0.992337, 339, 105, 354, 168
-0.992344, 149, 177, 164, 240
-0.992349, 113, 101, 144, 132
-0.99235, 285, 189, 316, 220
-0.992352, 129, 205, 160, 236
-0.992356, 101, 101, 132, 132
-0.992358, 385, 149, 416, 180
-0.992364, 189, 145, 220, 176
-0.992368, 209, 129, 336, 160
-0.992369, 209, 97, 240, 128
-0.992369, 373, 137, 404, 168
-0.99237, 37, 61, 68, 92
-0.992373, 157, 57, 188, 88
-0.992374, 1, 169, 32, 200
-0.992391, 437, 113, 452, 176
-0.992393, 129, 161, 160, 192
-0.992397, 353, 149, 480, 180
-0.9924, 329, 145, 360, 176
-0.992401, 205, 129, 236, 160
-0.992402, 265, 113, 296, 144
-0.99241, 145, 113, 176, 144
-0.992417, 213, 25, 244, 56
-0.992422, 297, 65, 328, 96
-0.992422, 145, 193, 176, 224
-0.992438, 321, 133, 352, 164
-0.99244, 145, 217, 176, 248
-0.992442, 97, 81, 128, 112
-0.992444, 337, 197, 368, 228
-0.992446, 129, 189, 160, 220
-0.992448, 117, 217, 148, 248
-0.992451, 293, 209, 324, 240
-0.992453, 181, 217, 212, 248
-0.992456, 349, 197, 380, 228
-0.992462, 445, 181, 476, 212
-0.992462, 1, 89, 32, 120
-0.992463, 1, 105, 32, 136
-0.992468, 369, 17, 496, 144
-0.992469, 65, 161, 320, 224
-0.992477, 285, 61, 316, 92
-0.992478, 201, 177, 232, 208
-0.992481, 105, 65, 136, 96
-0.992484, 17, 173, 48, 204
-0.992486, 349, 125, 380, 156
-0.992491, 469, 149, 500, 180
-0.992495, 433, 229, 464, 260
-0.9925, 21, 81, 52, 112
-0.992507, 269, 69, 300, 100
-0.99251, 301, 81, 332, 112
-0.992516, 145, 181, 176, 212
-0.992521, 465, 193, 496, 224
-0.992525, 429, 133, 460, 164
-0.992529, 1, 181, 32, 212
-0.992533, 37, 77, 68, 108
-0.992537, 429, 189, 460, 220
-0.99254, 157, 77, 188, 108
-0.992548, 113, 117, 144, 148
-0.992551, 141, 89, 172, 120
-0.992564, 457, 277, 488, 308
-0.992576, 21, 17, 52, 48
-0.992577, 449, 157, 480, 188
-0.992579, 317, 201, 348, 232
-0.99258, 157, 29, 188, 60
-0.99258, 97, 61, 224, 92
-0.992585, 313, 89, 344, 120
-0.992587, 161, 273, 288, 336
-0.992595, 351, 105, 366, 168
-0.992605, 377, 201, 408, 232
-0.992614, 401, 205, 432, 236
-0.992615, 193, 217, 224, 248
-0.992618, 185, 205, 216, 236
-0.992618, 197, 61, 228, 92
-0.992618, 29, 33, 44, 96
-0.992621, 369, 185, 400, 216
-0.992623, 421, 229, 452, 260
-0.992625, 181, 13, 212, 44
-0.992662, 201, 81, 216, 144
-0.992665, 163, 81, 178, 144
-0.992667, 97, 109, 224, 140
-0.992671, 3, 17, 18, 80
-0.99269, 313, 65, 328, 128
-0.992707, 177, 141, 304, 172
-0.992733, 189, 177, 204, 240
-0.992736, 305, 197, 432, 228
-0.99275, 303, 89, 318, 152
-0.992763, 185, 9, 200, 72
-0.992773, 1, 81, 16, 144
-0.992784, 179, 49, 194, 112
-0.992803, 379, 161, 394, 224
-0.992809, 225, 97, 240, 160
-0.992873, 257, 81, 500, 144
-0.99288, 45, 41, 60, 104
-0.992882, 113, 145, 240, 176
-0.992902, 35, 9, 50, 72
-0.992913, 293, 97, 308, 160
-0.99293, 177, 153, 304, 184
-0.992945, 319, 73, 334, 136
-0.992951, 135, 97, 150, 160
-0.99297, 443, 145, 458, 208
-0.992971, 171, 57, 186, 120
-0.993002, 201, 169, 216, 232
-0.993028, 291, 177, 306, 240
-0.993033, 387, 113, 402, 176
-0.993093, 113, 129, 240, 160
-0.993106, 241, 49, 272, 176
-0.993126, 221, 17, 236, 80
-0.993144, 193, 41, 208, 104
-0.993155, 257, 197, 384, 228
-0.993176, 313, 105, 328, 168
-0.993199, 105, 65, 120, 128
-0.993201, 65, 1, 128, 375
-0.993204, 149, 153, 164, 216
-0.993223, 195, 185, 210, 248
-0.993224, 365, 241, 396, 368
-0.993226, 17, 73, 144, 104
-0.993226, 361, 113, 376, 176
-0.993229, 333, 145, 348, 208
-0.99323, 421, 185, 436, 248
-0.993237, 381, 113, 396, 176
-0.993239, 161, 41, 176, 104
-0.99327, 443, 113, 458, 176
-0.993279, 337, 117, 464, 148
-0.993285, 343, 129, 358, 192
-0.993292, 23, 1, 38, 64
-0.993305, 29, 137, 44, 200
-0.993326, 129, 17, 384, 80
-0.99333, 113, 169, 240, 200
-0.993333, 353, 161, 368, 224
-0.993344, 277, 73, 292, 136
-0.993359, 193, 225, 448, 288
-0.993381, 177, 85, 304, 116
-0.993388, 13, 1, 28, 64
-0.993409, 265, 1, 296, 128
-0.99341, 97, 121, 352, 184
-0.993421, 119, 57, 134, 120
-0.993429, 123, 177, 138, 240
-0.993443, 111, 65, 126, 128
-0.993459, 269, 225, 300, 352
-0.993464, 215, 9, 230, 72
-0.99348, 77, 145, 108, 272
-0.993494, 37, 33, 52, 96
-0.993505, 17, 85, 144, 116
-0.99352, 371, 137, 386, 200
-0.993527, 299, 193, 314, 256
-0.993566, 475, 113, 490, 176
-0.993574, 1, 41, 16, 104
-0.993587, 225, 257, 480, 320
-0.99361, 177, 57, 304, 88
-0.993615, 397, 241, 428, 368
-0.993631, 397, 121, 412, 184
-0.993634, 291, 153, 306, 216
-0.993647, 65, 217, 320, 280
-0.993657, 369, 201, 496, 232
-0.99367, 177, 165, 304, 196
-0.993674, 23, 41, 38, 104
-0.993676, 345, 105, 360, 168
-0.993682, 191, 137, 206, 200
-0.993692, 81, 73, 208, 104
-0.993765, 21, 97, 36, 160
-0.993767, 305, 65, 336, 320
-0.993821, 23, 65, 38, 128
-0.993839, 33, 57, 160, 88
-0.993839, 215, 97, 230, 160
-0.993851, 271, 81, 286, 144
-0.993857, 355, 129, 370, 192
-0.99387, 285, 97, 300, 160
-0.993899, 321, 129, 336, 192
-0.993908, 451, 153, 466, 216
-0.993941, 303, 113, 318, 176
-0.99396, 221, 137, 236, 200
-0.993977, 207, 97, 222, 160
-0.993983, 203, 201, 218, 264
-0.993988, 161, 9, 288, 40
-0.994, 209, 65, 224, 128
-0.994018, 29, 9, 44, 72
-0.994027, 1, 73, 500, 136
-0.994038, 193, 33, 224, 288
-0.994051, 113, 217, 240, 248
-0.994072, 297, 57, 312, 120
-0.994081, 109, 33, 140, 288
-0.994087, 171, 33, 186, 96
-0.994098, 369, 113, 384, 176
-0.994114, 285, 65, 300, 128
-0.994129, 389, 137, 404, 200
-0.994134, 197, 105, 212, 168
-0.994145, 121, 33, 152, 288
-0.994148, 199, 41, 214, 104
-0.994159, 161, 129, 288, 160
-0.994162, 25, 1, 56, 256
-0.994167, 385, 161, 400, 224
-0.994169, 113, 181, 240, 212
-0.994173, 303, 57, 318, 120
-0.994177, 115, 97, 130, 160
-0.99418, 151, 41, 166, 104
-0.994181, 205, 145, 220, 208
-0.994194, 181, 1, 212, 256
-0.994211, 321, 289, 448, 352
-0.994212, 369, 177, 496, 208
-0.994222, 241, 85, 368, 116
-0.99424, 17, 185, 32, 248
-0.994265, 241, 73, 368, 104
-0.994265, 449, 113, 464, 176
-0.994277, 179, 81, 194, 144
-0.994294, 233, 105, 248, 168
-0.994319, 429, 185, 444, 248
-0.994327, 133, 33, 164, 288
-0.994335, 481, 177, 496, 240
-0.994349, 213, 177, 228, 240
-0.994405, 285, 33, 316, 288
-0.994414, 473, 201, 488, 264
-0.994423, 377, 137, 392, 200
-0.994427, 43, 17, 58, 80
-0.994446, 187, 89, 202, 152
-0.994458, 21, 129, 36, 192
-0.994478, 125, 105, 140, 168
-0.994496, 227, 9, 242, 72
-0.994507, 161, 105, 176, 168
-0.994517, 125, 153, 140, 216
-0.994523, 369, 277, 496, 308
-0.99453, 187, 33, 202, 96
-0.994549, 339, 169, 354, 232
-0.994568, 177, 17, 192, 80
-0.994571, 211, 137, 226, 200
-0.994573, 437, 145, 452, 208
-0.994579, 39, 57, 54, 120
-0.994583, 209, 1, 240, 256
-0.99459, 467, 201, 482, 264
-0.994621, 289, 209, 416, 240
-0.994642, 31, 57, 46, 120
-0.994651, 169, 1, 200, 256
-0.994653, 193, 217, 320, 248
-0.994656, 169, 81, 184, 144
-0.99466, 291, 57, 306, 120
-0.994665, 1, 225, 500, 288
-0.994668, 149, 33, 180, 288
-0.994694, 279, 97, 294, 160
-0.994747, 465, 113, 480, 176
-0.994771, 201, 1, 216, 64
-0.994772, 361, 177, 376, 240
-0.994791, 213, 33, 228, 96
-0.994798, 145, 41, 160, 104
-0.994809, 369, 229, 496, 260
-0.994835, 149, 129, 164, 192
-0.994875, 161, 69, 288, 100
-0.994883, 213, 97, 244, 352
-0.994896, 7, 41, 22, 104
-0.994907, 481, 201, 496, 264
-0.994913, 123, 201, 138, 264
-0.99494, 5, 33, 36, 288
-0.994941, 291, 121, 306, 184
-0.994941, 1, 105, 16, 168
-0.994944, 141, 105, 156, 168
-0.99495, 317, 65, 348, 320
-0.99496, 161, 41, 288, 72
-0.994976, 1, 9, 500, 72
-0.99498, 305, 105, 432, 136
-0.994983, 241, 185, 368, 216
-0.994989, 265, 65, 296, 320
-0.995008, 241, 221, 368, 252
-0.995057, 97, 65, 128, 320
-0.995057, 1, 217, 128, 248
-0.995065, 129, 85, 256, 116
-0.995237, 17, 97, 48, 352
-0.995278, 65, 125, 192, 156
-0.995302, 17, 45, 144, 76
-0.995304, 113, 197, 240, 228
-0.995438, 141, 129, 172, 375
-0.995439, 241, 145, 368, 176
-0.99544, 241, 209, 368, 240
-0.995472, 177, 201, 304, 232
-0.995522, 113, 281, 240, 344
-0.995545, 373, 97, 404, 352
-0.995548, 177, 177, 304, 208
-0.995553, 329, 97, 360, 352
-0.995554, 369, 213, 496, 244
-0.995588, 1, 257, 500, 320
-0.995629, 49, 101, 176, 132
-0.995636, 145, 229, 272, 260
-0.995646, 281, 129, 312, 375
-0.995674, 469, 97, 500, 352
-0.995681, 17, 297, 144, 360
-0.995701, 449, 97, 480, 352
-0.995733, 337, 261, 464, 292
-0.995733, 65, 205, 192, 236
-0.995759, 37, 33, 68, 288
-0.995777, 193, 41, 448, 104
-0.995848, 341, 97, 372, 352
-0.995934, 201, 129, 232, 375
-0.995968, 1, 249, 256, 312
-0.995972, 181, 97, 212, 352
-0.995981, 161, 97, 192, 352
-0.995995, 369, 241, 496, 272
-0.995999, 33, 33, 160, 64
-0.996034, 1, 97, 128, 128
-0.996086, 65, 225, 192, 256
-0.996092, 113, 17, 240, 48
-0.996133, 371, 165, 386, 196
-0.996175, 65, 193, 192, 224
-0.996256, 113, 5, 240, 36
-0.996275, 333, 149, 348, 180
-0.996283, 97, 37, 224, 68
-0.996297, 289, 81, 416, 112
-0.996331, 289, 221, 416, 252
-0.996381, 333, 137, 348, 168
-0.996392, 389, 149, 404, 180
-0.996399, 193, 229, 320, 260
-0.996404, 1, 173, 128, 204
-0.996422, 369, 177, 384, 208
-0.996452, 113, 129, 144, 375
-0.996468, 309, 101, 324, 132
-0.99649, 369, 105, 496, 136
-0.996502, 173, 41, 188, 72
-0.99651, 351, 185, 366, 216
-0.996513, 303, 93, 318, 124
-0.996514, 179, 69, 194, 100
-0.996524, 197, 189, 212, 220
-0.996539, 225, 97, 256, 352
-0.996542, 65, 181, 192, 212
-0.996542, 193, 29, 320, 60
-0.996547, 49, 113, 176, 144
-0.996549, 149, 189, 164, 220
-0.996559, 25, 69, 40, 100
-0.99656, 285, 101, 300, 132
-0.996565, 185, 53, 200, 84
-0.996572, 313, 117, 328, 148
-0.996596, 241, 173, 368, 204
-0.996605, 303, 113, 318, 144
-0.996606, 1, 49, 16, 80
-0.996613, 395, 137, 410, 168
-0.99662, 169, 57, 184, 88
-0.996624, 359, 165, 374, 196
-0.996631, 173, 29, 188, 60
-0.996635, 1, 205, 128, 236
-0.996639, 357, 97, 388, 352
-0.996645, 319, 97, 334, 128
-0.996657, 1, 89, 16, 120
-0.99666, 291, 181, 306, 212
-0.996665, 33, 153, 160, 184
-0.996688, 205, 129, 220, 160
-0.99669, 1, 133, 128, 164
-0.996699, 149, 173, 164, 204
-0.996717, 33, 17, 48, 48
-0.996724, 1, 193, 128, 224
-0.996725, 379, 157, 394, 188
-0.996733, 191, 69, 206, 100
-0.996733, 191, 181, 206, 212
-0.996745, 293, 105, 308, 136
-0.996768, 27, 141, 42, 172
-0.996768, 115, 101, 130, 132
-0.996772, 161, 77, 176, 108
-0.996775, 225, 17, 240, 48
-0.996776, 163, 93, 178, 124
-0.996782, 359, 185, 374, 216
-0.996783, 383, 117, 398, 148
-0.996787, 35, 37, 50, 68
-0.996798, 1, 61, 16, 92
-0.996799, 137, 105, 152, 136
-0.996803, 193, 37, 208, 68
-0.996813, 389, 133, 404, 164
-0.996816, 1, 49, 500, 112
-0.99682, 177, 189, 304, 220
-0.996829, 479, 193, 494, 224
-0.99683, 149, 161, 164, 192
-0.996842, 449, 181, 464, 212
-0.99685, 357, 109, 372, 140
-0.996852, 49, 49, 64, 80
-0.996853, 325, 121, 340, 152
-0.996854, 291, 197, 306, 228
-0.996872, 97, 249, 352, 312
-0.996874, 357, 149, 372, 180
-0.996885, 193, 265, 320, 296
-0.996885, 341, 189, 356, 220
-0.996885, 29, 45, 44, 76
-0.996889, 325, 101, 340, 132
-0.99689, 201, 89, 216, 120
-0.996892, 343, 141, 358, 172
-0.996892, 421, 189, 436, 220
-0.996901, 123, 181, 138, 212
-0.996908, 149, 137, 164, 168
-0.996909, 23, 57, 38, 88
-0.99691, 179, 37, 194, 68
-0.99691, 23, 37, 38, 68
-0.996921, 189, 193, 204, 224
-0.996922, 321, 233, 448, 264
-0.996926, 1, 273, 128, 304
-0.996933, 1, 101, 16, 132
-0.996948, 225, 29, 240, 60
-0.996948, 369, 153, 384, 184
-0.996961, 7, 45, 22, 76
-0.996963, 283, 65, 298, 96
-0.996967, 25, 81, 40, 112
-0.99697, 195, 201, 210, 232
-0.996977, 337, 125, 352, 156
-0.996978, 381, 145, 396, 176
-0.996979, 23, 1, 38, 32
-0.996981, 317, 85, 332, 116
-0.996988, 369, 117, 384, 148
-0.996994, 315, 73, 330, 104
-0.996998, 289, 65, 416, 96
-0.997017, 85, 97, 116, 352
-0.997024, 221, 137, 236, 168
-0.997024, 481, 181, 496, 212
-0.997034, 429, 97, 460, 352
-0.997038, 445, 145, 460, 176
-0.99704, 371, 189, 386, 220
-0.99704, 293, 129, 324, 375
-0.997042, 31, 153, 46, 184
-0.997045, 353, 137, 368, 168
-0.99705, 149, 217, 164, 248
-0.997051, 17, 165, 32, 196
-0.997054, 339, 109, 354, 140
-0.997063, 219, 13, 234, 44
-0.997064, 189, 205, 204, 236
-0.997066, 369, 289, 496, 320
-0.997067, 213, 45, 228, 76
-0.99707, 389, 121, 404, 152
-0.997071, 167, 45, 182, 76
-0.997071, 291, 121, 306, 152
-0.997082, 179, 49, 194, 80
-0.997098, 231, 113, 246, 144
-0.997102, 97, 269, 224, 300
-0.997103, 331, 113, 346, 144
-0.997109, 31, 69, 46, 100
-0.99711, 269, 101, 284, 132
-0.997112, 291, 169, 306, 200
-0.997112, 297, 61, 312, 92
-0.997126, 341, 169, 356, 200
-0.997129, 185, 93, 200, 124
-0.997133, 201, 209, 216, 240
-0.997137, 221, 1, 252, 256
-0.997146, 289, 261, 416, 292
-0.997148, 51, 61, 66, 92
-0.997148, 169, 89, 184, 120
-0.997158, 65, 289, 192, 352
-0.997161, 291, 157, 306, 188
-0.997164, 123, 213, 138, 244
-0.997168, 211, 33, 226, 64
-0.997176, 197, 129, 212, 160
-0.997185, 99, 89, 114, 120
-0.997189, 125, 113, 140, 144
-0.997191, 363, 153, 378, 184
-0.997214, 451, 165, 466, 196
-0.997215, 65, 165, 192, 196
-0.997216, 209, 13, 336, 44
-0.997227, 195, 1, 210, 32
-0.997229, 347, 109, 362, 140
-0.99723, 379, 177, 394, 208
-0.997235, 435, 129, 450, 160
-0.997235, 201, 177, 216, 208
-0.99725, 377, 133, 392, 164
-0.997257, 99, 77, 114, 108
-0.997259, 55, 49, 70, 80
-0.99726, 293, 133, 308, 164
-0.997261, 323, 137, 338, 168
-0.997262, 185, 37, 200, 68
-0.997262, 65, 273, 320, 336
-0.997265, 109, 69, 124, 100
-0.99727, 149, 149, 164, 180
-0.997272, 429, 189, 444, 220
-0.997276, 401, 145, 416, 176
-0.997279, 471, 189, 486, 220
-0.997285, 11, 109, 26, 140
-0.99729, 41, 45, 56, 76
-0.997303, 129, 129, 160, 375
-0.997328, 29, 129, 60, 375
-0.99733, 73, 1, 136, 128
-0.997354, 1, 117, 128, 148
-0.997422, 65, 313, 192, 375
-0.997459, 17, 9, 144, 40
-0.99748, 321, 17, 384, 144
-0.997506, 49, 269, 176, 300
-0.997575, 385, 97, 416, 352
-0.997593, 409, 129, 440, 375
-0.997633, 257, 281, 384, 344
-0.997652, 17, 229, 144, 260
-0.997727, 65, 137, 192, 168
-0.997741, 369, 313, 496, 375
-0.997776, 209, 45, 336, 76
-0.997792, 161, 305, 288, 368
-0.997816, 17, 21, 144, 52
-0.997848, 57, 241, 120, 368
-0.997914, 241, 265, 368, 296
-0.99799, 241, 61, 368, 92
-0.998011, 321, 249, 448, 280
-0.998061, 49, 97, 80, 352
-0.998074, 441, 113, 456, 240
-0.998113, 257, 245, 384, 276
-0.998123, 145, 269, 272, 300
-0.998128, 31, 1, 46, 128
-0.998133, 253, 65, 284, 320
-0.99815, 225, 297, 480, 360
-0.998157, 5, 129, 36, 375
-0.998189, 305, 313, 432, 375
-0.99819, 289, 273, 416, 304
-0.998195, 209, 1, 336, 32
-0.998215, 23, 49, 38, 176
-0.998215, 361, 97, 376, 224
-0.998215, 469, 1, 500, 256
-0.998216, 49, 257, 176, 288
-0.998226, 61, 129, 92, 375
-0.998228, 221, 1, 236, 128
-0.998249, 25, 129, 40, 256
-0.998251, 291, 49, 306, 176
-0.998259, 381, 97, 396, 224
-0.998259, 311, 49, 326, 176
-0.998268, 123, 49, 138, 176
-0.998278, 217, 81, 232, 208
-0.998279, 283, 49, 298, 176
-0.998285, 161, 253, 288, 284
-0.998288, 225, 81, 240, 208
-0.998293, 257, 305, 384, 368
-0.998297, 337, 165, 400, 180
-0.998298, 113, 119, 176, 134
-0.998305, 343, 97, 358, 224
-0.998312, 281, 135, 344, 150
-0.998314, 161, 51, 224, 66
-0.998315, 449, 97, 464, 224
-0.998318, 177, 13, 240, 28
-0.998319, 337, 159, 400, 174
-0.998321, 389, 113, 404, 240
-0.998324, 281, 127, 344, 142
-0.998326, 333, 97, 348, 224
-0.998332, 313, 113, 376, 128
-0.998336, 121, 51, 184, 66
-0.998337, 303, 49, 318, 176
-0.998338, 73, 129, 104, 375
-0.998348, 177, 7, 240, 22
-0.998349, 281, 141, 344, 156
-0.998355, 313, 133, 376, 148
-0.998356, 281, 121, 344, 136
-0.998358, 113, 125, 176, 140
-0.998361, 397, 129, 428, 375
-0.998363, 185, 103, 248, 118
-0.998363, 9, 47, 72, 62
-0.998364, 435, 113, 450, 240
-0.998365, 329, 175, 392, 190
-0.998366, 149, 33, 164, 160
-0.99837, 145, 45, 208, 60
-0.998371, 281, 105, 344, 120
-0.998371, 177, 143, 240, 158
-0.998372, 161, 33, 176, 160
-0.998374, 433, 115, 496, 130
-0.998377, 177, 155, 240, 170
-0.998379, 273, 67, 336, 82
-0.998384, 393, 145, 456, 160
-0.998385, 153, 109, 216, 124
-0.998385, 113, 131, 176, 146
-0.998386, 225, 107, 288, 122
-0.998386, 373, 113, 388, 240
-0.998386, 185, 37, 248, 52
-0.998389, 1, 15, 64, 30
-0.998392, 457, 1, 488, 256
-0.998392, 177, 149, 240, 164
-0.998393, 257, 99, 320, 114
-0.998394, 353, 141, 416, 156
-0.998401, 1, 55, 64, 70
-0.998401, 257, 113, 320, 128
-0.998402, 177, 1, 240, 16
-0.998402, 177, 163, 240, 178
-0.998403, 265, 215, 328, 230
-0.998404, 113, 137, 176, 152
-0.998404, 49, 281, 176, 312
-0.998406, 321, 139, 384, 154
-0.998407, 345, 127, 408, 142
-0.998409, 185, 113, 248, 128
-0.99841, 185, 135, 248, 150
-0.998411, 425, 233, 488, 248
-0.998415, 113, 113, 176, 128
-0.998415, 313, 127, 376, 142
-0.998417, 289, 203, 352, 218
-0.998422, 169, 71, 232, 86
-0.998423, 185, 125, 248, 140
-0.998424, 273, 77, 336, 92
-0.998425, 161, 83, 224, 98
-0.998425, 177, 97, 240, 112
-0.998426, 385, 137, 448, 152
-0.998427, 9, 69, 72, 84
-0.998428, 137, 187, 200, 202
-0.99843, 97, 105, 160, 120
-0.998432, 353, 121, 416, 136
-0.998433, 313, 151, 376, 166
-0.998433, 169, 27, 232, 42
-0.998434, 329, 199, 392, 214
-0.998436, 149, 129, 164, 256
-0.998437, 153, 103, 216, 118
-0.998438, 409, 193, 472, 208
-0.998438, 425, 279, 488, 294
-0.998439, 385, 131, 448, 146
-0.99844, 177, 169, 240, 184
-0.998443, 321, 119, 384, 134
-0.998446, 289, 181, 352, 196
-0.998447, 137, 197, 200, 212
-0.998447, 137, 89, 200, 104
-0.998447, 153, 115, 216, 130
-0.998447, 97, 73, 160, 88
-0.998447, 273, 209, 336, 224
-0.998448, 353, 149, 416, 164
-0.998453, 185, 43, 248, 58
-0.998453, 325, 81, 340, 208
-0.998454, 153, 125, 216, 140
-0.998454, 169, 21, 232, 36
-0.998458, 41, 1, 56, 128
-0.998459, 161, 89, 224, 104
-0.99846, 169, 225, 232, 240
-0.99846, 221, 129, 236, 256
-0.998461, 291, 145, 306, 272
-0.998461, 161, 77, 224, 92
-0.998462, 65, 237, 192, 268
-0.998462, 137, 167, 200, 182
-0.998463, 1, 41, 64, 56
-0.998464, 169, 57, 232, 72
-0.998464, 137, 145, 200, 160
-0.998468, 137, 151, 200, 166
-0.998469, 377, 153, 440, 168
-0.998469, 401, 271, 464, 286
-0.998469, 137, 181, 200, 196
-0.998471, 281, 147, 344, 162
-0.998472, 113, 143, 176, 158
-0.998472, 385, 197, 448, 212
-0.998473, 113, 217, 176, 232
-0.998473, 177, 193, 240, 208
-0.998473, 137, 83, 200, 98
-0.998475, 337, 133, 400, 148
-0.998475, 187, 49, 202, 176
-0.998476, 179, 17, 194, 144
-0.998477, 1, 9, 64, 24
-0.998477, 113, 193, 176, 208
-0.99848, 257, 107, 320, 122
-0.998481, 353, 97, 368, 224
-0.998481, 189, 129, 204, 256
-0.998481, 305, 107, 368, 122
-0.998482, 137, 173, 200, 188
-0.998484, 137, 157, 200, 172
-0.998485, 313, 159, 376, 174
-0.998485, 257, 131, 320, 146
-0.998486, 161, 63, 224, 78
-0.998487, 233, 121, 296, 136
-0.998488, 205, 129, 220, 256
-0.998489, 353, 171, 416, 186
-0.998489, 365, 1, 396, 256
-0.998489, 281, 111, 344, 126
-0.99849, 475, 97, 490, 224
-0.998491, 385, 203, 448, 218
-0.998491, 129, 225, 192, 240
-0.998491, 297, 49, 312, 176
-0.998491, 433, 177, 448, 304
-0.998494, 137, 95, 200, 110
-0.998494, 137, 73, 200, 88
-0.998495, 265, 221, 328, 236
-0.998496, 17, 81, 80, 96
-0.998496, 153, 139, 216, 154
-0.998497, 185, 49, 248, 64
-0.998497, 137, 131, 200, 146
-0.998497, 17, 63, 80, 78
-0.998497, 177, 175, 240, 190
-0.998499, 289, 215, 352, 230
-0.998499, 113, 199, 176, 214
-0.998499, 211, 33, 226, 160
-0.998501, 1, 21, 64, 36
-0.998501, 385, 125, 448, 140
-0.998501, 215, 129, 230, 256
-0.998502, 225, 101, 288, 116
-0.998503, 145, 39, 208, 54
-0.998504, 89, 111, 152, 126
-0.998506, 113, 305, 240, 368
-0.998506, 289, 157, 352, 172
-0.998508, 433, 171, 496, 186
-0.998509, 113, 79, 176, 94
-0.99851, 289, 187, 352, 202
-0.998512, 137, 219, 200, 234
-0.998513, 353, 201, 416, 216
-0.998513, 233, 225, 296, 240
-0.99852, 125, 129, 140, 256
-0.998522, 429, 129, 444, 256
-0.998524, 207, 81, 222, 208
-0.998547, 345, 1, 376, 256
-0.998555, 133, 33, 148, 160
-0.998561, 113, 249, 240, 280
-0.998568, 31, 145, 46, 272
-0.998569, 419, 177, 434, 304
-0.99857, 345, 121, 376, 136
-0.998571, 19, 113, 34, 240
-0.998572, 273, 215, 304, 230
-0.998572, 197, 93, 228, 108
-0.998573, 233, 1, 264, 256
-0.998574, 353, 159, 384, 174
-0.998574, 209, 27, 240, 42
-0.998575, 337, 111, 368, 126
-0.998575, 197, 103, 228, 118
-0.998577, 101, 109, 132, 124
-0.998577, 129, 161, 160, 176
-0.998577, 453, 187, 484, 202
-0.998578, 293, 219, 324, 234
-0.998578, 305, 93, 432, 124
-0.998578, 145, 119, 176, 134
-0.998579, 341, 163, 372, 178
-0.99858, 161, 107, 192, 122
-0.99858, 129, 177, 160, 192
-0.99858, 165, 61, 196, 76
-0.998581, 3, 1, 18, 128
-0.998581, 13, 13, 44, 28
-0.998582, 1, 185, 32, 200
-0.998584, 369, 175, 400, 190
-0.998586, 157, 79, 188, 94
-0.998586, 33, 45, 64, 60
-0.998586, 115, 49, 130, 176
-0.998587, 325, 123, 356, 138
-0.998587, 21, 37, 52, 52
-0.998588, 333, 145, 364, 160
-0.998588, 373, 143, 404, 158
-0.998589, 353, 169, 384, 184
-0.99859, 17, 167, 48, 182
-0.99859, 447, 145, 462, 272
-0.99859, 5, 47, 36, 62
-0.99859, 313, 109, 344, 124
-0.99859, 301, 97, 316, 224
-0.99859, 217, 141, 248, 156
-0.998592, 129, 191, 160, 206
-0.998593, 173, 35, 204, 50
-0.998593, 337, 131, 368, 146
-0.998594, 157, 69, 188, 84
-0.998595, 459, 97, 474, 224
-0.998596, 9, 71, 40, 86
-0.998596, 37, 69, 68, 84
-0.998596, 421, 191, 452, 206
-0.998596, 129, 153, 160, 168
-0.998598, 125, 53, 156, 68
-0.998599, 297, 127, 328, 142
-0.998599, 437, 153, 468, 168
-0.998601, 181, 221, 212, 236
-0.998602, 337, 185, 368, 200
-0.998605, 297, 213, 328, 228
-0.998605, 201, 35, 232, 50
-0.998606, 177, 103, 208, 118
-0.998606, 297, 67, 328, 82
-0.998606, 49, 33, 64, 160
-0.998607, 129, 183, 160, 198
-0.998611, 337, 193, 368, 208
-0.998611, 213, 33, 244, 48
-0.998612, 349, 179, 380, 194
-0.998613, 9, 83, 40, 98
-0.998614, 457, 279, 488, 294
-0.998615, 365, 157, 396, 172
-0.998616, 289, 117, 320, 132
-0.998616, 469, 151, 500, 166
-0.998617, 189, 145, 220, 160
-0.998617, 189, 51, 220, 66
-0.998618, 1, 121, 32, 136
-0.998619, 117, 119, 148, 134
-0.99862, 41, 51, 72, 66
-0.998622, 273, 95, 304, 110
-0.998622, 9, 77, 40, 92
-0.998623, 1, 261, 128, 292
-0.998624, 301, 133, 332, 148
-0.998624, 469, 281, 500, 296
-0.998625, 129, 139, 160, 154
-0.998626, 273, 101, 304, 116
-0.998627, 285, 65, 316, 80
-0.998629, 185, 91, 216, 106
-0.99863, 129, 113, 160, 128
-0.99863, 21, 77, 52, 92
-0.99863, 177, 51, 208, 66
-0.998634, 433, 147, 464, 162
-0.998634, 185, 125, 216, 140
-0.998636, 285, 209, 316, 224
-0.998636, 289, 99, 320, 114
-0.998638, 209, 51, 240, 66
-0.998639, 101, 73, 132, 88
-0.998639, 357, 147, 388, 162
-0.998641, 329, 145, 344, 272
-0.998641, 199, 65, 214, 192
-0.998641, 173, 73, 204, 88
-0.998642, 197, 1, 228, 16
-0.998643, 185, 71, 216, 86
-0.998643, 169, 41, 200, 56
-0.998644, 481, 161, 496, 288
-0.998644, 293, 111, 324, 126
-0.998644, 329, 151, 360, 166
-0.998647, 189, 139, 220, 154
-0.998647, 189, 177, 220, 192
-0.998649, 329, 137, 360, 152
-0.998649, 113, 105, 144, 120
-0.998652, 281, 111, 312, 126
-0.998653, 201, 141, 232, 156
-0.998654, 485, 113, 500, 240
-0.998656, 213, 101, 244, 116
-0.998656, 357, 187, 388, 202
-0.998657, 369, 121, 400, 136
-0.998657, 299, 177, 314, 304
-0.998659, 365, 169, 396, 184
-0.998659, 285, 105, 316, 120
-0.998662, 277, 49, 292, 176
-0.998662, 21, 49, 52, 64
-0.998663, 209, 289, 336, 352
-0.998666, 377, 153, 408, 168
-0.998668, 185, 197, 216, 212
-0.998668, 145, 47, 176, 62
-0.998668, 29, 65, 44, 192
-0.99867, 129, 133, 160, 148
-0.998671, 383, 145, 398, 272
-0.998672, 309, 103, 340, 118
-0.998672, 341, 151, 372, 166
-0.998674, 167, 33, 182, 160
-0.998675, 353, 153, 384, 168
-0.998675, 365, 163, 396, 178
-0.998678, 301, 119, 332, 134
-0.998678, 175, 65, 190, 192
-0.998678, 281, 97, 296, 224
-0.998685, 169, 87, 200, 102
-0.998687, 21, 71, 52, 86
-0.998689, 217, 39, 248, 54
-0.998689, 231, 81, 246, 208
-0.998689, 21, 43, 52, 58
-0.998689, 185, 77, 216, 92
-0.99869, 195, 113, 210, 240
-0.998691, 269, 111, 300, 126
-0.998691, 373, 161, 388, 288
-0.998691, 193, 45, 224, 60
-0.998692, 285, 127, 316, 142
-0.998693, 189, 133, 220, 148
-0.998695, 25, 1, 40, 128
-0.998695, 321, 131, 352, 146
-0.998696, 101, 103, 132, 118
-0.9987, 105, 49, 120, 176
-0.9987, 181, 41, 212, 56
-0.998705, 201, 135, 232, 150
-0.99871, 161, 281, 288, 312
-0.998713, 301, 97, 332, 112
-0.998713, 9, 7, 40, 22
-0.998717, 427, 177, 442, 304
-0.998719, 141, 33, 156, 160
-0.99872, 125, 107, 156, 122
-0.99872, 193, 189, 224, 204
-0.99872, 185, 83, 216, 98
-0.998721, 209, 241, 336, 272
-0.998723, 165, 47, 196, 62
-0.998723, 385, 147, 416, 162
-0.998726, 319, 65, 334, 192
-0.998728, 129, 127, 160, 142
-0.998729, 441, 177, 456, 304
-0.998731, 1, 81, 16, 208
-0.998732, 341, 157, 372, 172
-0.998734, 227, 129, 242, 256
-0.998736, 185, 97, 216, 112
-0.998737, 367, 97, 382, 224
-0.998739, 469, 177, 484, 304
-0.998743, 123, 177, 138, 304
-0.998745, 237, 129, 268, 375
-0.998746, 323, 145, 338, 272
-0.998746, 181, 65, 196, 192
-0.998755, 227, 33, 242, 160
-0.998758, 33, 241, 96, 368
-0.99877, 189, 183, 220, 198
-0.998776, 289, 25, 416, 88
-0.998781, 115, 97, 130, 224
-0.998793, 319, 193, 334, 320
-0.998802, 285, 161, 300, 288
-0.998804, 395, 113, 410, 240
-0.998809, 13, 1, 28, 128
-0.998813, 289, 53, 416, 84
-0.998814, 209, 253, 336, 284
-0.998814, 159, 113, 174, 240
-0.998814, 363, 145, 378, 272
-0.998816, 9, 49, 24, 176
-0.998819, 195, 161, 210, 288
-0.99882, 275, 177, 290, 304
-0.998821, 291, 97, 306, 224
-0.998823, 469, 129, 484, 256
-0.998834, 401, 129, 416, 256
-0.998845, 185, 1, 200, 128
-0.998847, 337, 145, 352, 272
-0.998854, 149, 177, 164, 304
-0.998857, 407, 193, 422, 320
-0.998877, 133, 81, 148, 208
-0.998892, 233, 129, 248, 256
-0.998896, 155, 33, 170, 160
-0.998897, 203, 193, 218, 320
-0.998899, 213, 177, 228, 304
-0.998902, 395, 193, 410, 320
-0.998905, 475, 193, 490, 320
-0.99891, 485, 209, 500, 336
-0.998922, 17, 161, 32, 288
-0.998923, 131, 129, 146, 256
-0.998934, 139, 97, 154, 224
-0.99894, 271, 65, 286, 192
-0.998941, 191, 1, 206, 128
-0.998948, 225, 17, 480, 80
-0.998953, 447, 193, 462, 320
-0.998962, 55, 33, 70, 160
-0.998965, 59, 193, 74, 320
-0.998966, 413, 177, 428, 304
-0.998968, 43, 49, 58, 176
-0.998978, 151, 81, 166, 208
-0.998981, 453, 161, 468, 288
-0.998985, 193, 65, 208, 192
-0.998989, 353, 161, 368, 288
-0.998998, 239, 209, 254, 336
-0.999001, 313, 193, 328, 320
-0.99901, 305, 193, 320, 320
-0.999011, 389, 193, 404, 320
-0.999013, 325, 193, 340, 320
-0.999019, 329, 1, 360, 256
-0.999022, 343, 145, 358, 272
-0.999022, 173, 17, 188, 144
-0.999032, 459, 177, 474, 304
-0.999037, 227, 209, 242, 336
-0.99904, 37, 65, 52, 192
-0.999045, 333, 193, 348, 320
-0.99905, 401, 193, 416, 320
-0.999052, 469, 225, 484, 352
-0.999074, 353, 93, 480, 124
-0.999088, 225, 277, 352, 308
-0.999105, 257, 233, 384, 264
-0.999121, 429, 1, 460, 256
-0.999136, 305, 297, 432, 328
-0.999141, 85, 1, 116, 256
-0.999181, 1, 289, 128, 320
-0.999241, 1, 281, 500, 344
-0.999263, 1, 297, 256, 360
-0.999297, 445, 1, 476, 256
-0.999384, 397, 33, 428, 288
-0.999742, 291, 167, 306, 182
-0.999743, 293, 117, 308, 132
-0.999744, 481, 203, 496, 218
-0.999744, 205, 179, 220, 194
-0.999745, 29, 39, 44, 54
-0.999745, 389, 163, 404, 178
-0.999746, 371, 195, 386, 210
-0.999747, 419, 197, 434, 212
-0.999748, 211, 141, 226, 156
-0.999749, 165, 49, 180, 64
-0.999749, 211, 1, 226, 16
-0.999749, 189, 49, 204, 64
-0.99975, 401, 131, 416, 146
-0.99975, 149, 135, 164, 150
-0.99975, 339, 125, 354, 140
-0.99975, 45, 75, 60, 90
-0.999753, 293, 151, 308, 166
-0.999753, 59, 215, 74, 230
-0.999753, 31, 49, 46, 64
-0.999753, 215, 99, 230, 114
-0.999754, 291, 175, 306, 190
-0.999754, 295, 111, 310, 126
-0.999755, 479, 181, 494, 196
-0.999755, 149, 167, 164, 182
-0.999756, 27, 171, 42, 186
-0.999756, 197, 185, 212, 200
-0.999757, 293, 141, 308, 156
-0.999757, 381, 155, 396, 170
-0.999757, 25, 77, 40, 92
-0.999757, 53, 51, 68, 66
-0.999757, 291, 195, 306, 210
-0.999758, 131, 51, 146, 66
-0.999758, 51, 69, 66, 84
-0.999759, 201, 101, 216, 116
-0.999759, 167, 83, 182, 98
-0.999759, 271, 107, 286, 122
-0.999761, 3, 53, 18, 68
-0.999761, 303, 103, 318, 118
-0.999761, 53, 57, 68, 72
-0.999762, 479, 187, 494, 202
-0.999762, 227, 29, 242, 44
-0.999762, 335, 137, 350, 152
-0.999763, 197, 199, 212, 214
-0.999763, 17, 173, 32, 188
-0.999764, 353, 109, 368, 124
-0.999765, 317, 79, 332, 94
-0.999765, 225, 13, 240, 28
-0.999766, 225, 101, 240, 116
-0.999766, 483, 151, 498, 166
-0.999768, 17, 167, 32, 182
-0.999768, 379, 165, 394, 180
-0.999768, 123, 193, 138, 208
-0.999769, 449, 183, 464, 198
-0.999769, 171, 57, 186, 72
-0.999769, 149, 221, 164, 236
-0.99977, 337, 131, 352, 146
-0.999771, 149, 157, 164, 172
-0.999771, 395, 153, 410, 168
-0.999773, 401, 147, 416, 162
-0.999774, 301, 211, 316, 226
-0.999774, 391, 135, 406, 150
-0.999774, 359, 157, 374, 172
-0.999774, 377, 145, 392, 160
-0.999774, 201, 95, 216, 110
-0.999775, 219, 15, 234, 30
-0.999776, 295, 105, 310, 120
-0.999776, 149, 189, 164, 204
-0.999776, 193, 43, 208, 58
-0.999777, 11, 111, 26, 126
-0.999777, 149, 201, 164, 216
-0.999778, 227, 35, 242, 50
-0.999779, 107, 73, 122, 88
-0.99978, 191, 125, 206, 140
-0.999781, 151, 45, 166, 60
-0.999782, 15, 51, 30, 66
-0.999785, 23, 69, 38, 84
-0.999786, 189, 193, 204, 208
-0.999788, 303, 113, 318, 128
-0.999789, 175, 77, 190, 92
-0.99979, 193, 1, 208, 16
-0.999792, 303, 123, 318, 138
-0.999793, 191, 183, 206, 198
-0.999793, 387, 157, 402, 172
-0.999794, 7, 47, 22, 62
-0.999794, 321, 103, 336, 118
-0.999796, 37, 47, 52, 62
-0.999796, 309, 105, 324, 120
-0.999799, 39, 17, 54, 32
-0.999801, 195, 137, 210, 152
-0.999801, 213, 47, 228, 62
-0.999802, 343, 191, 358, 206
-0.999804, 371, 153, 386, 168
-0.999806, 371, 181, 386, 196
-0.999806, 337, 65, 464, 128
-0.999806, 1, 65, 16, 80
-0.999808, 181, 51, 196, 66
-0.99981, 283, 67, 298, 82
-0.99981, 291, 183, 306, 198
-0.99981, 125, 135, 140, 150
-0.999811, 225, 23, 240, 38
-0.999813, 209, 313, 336, 375
-0.999813, 201, 81, 216, 96
-0.999813, 135, 105, 150, 120
-0.999814, 363, 119, 378, 134
-0.999814, 385, 119, 400, 134
-0.999815, 287, 103, 302, 118
-0.999816, 275, 75, 290, 90
-0.999817, 353, 151, 368, 166
-0.999817, 371, 159, 386, 174
-0.999817, 149, 179, 164, 194
-0.999818, 297, 63, 312, 78
-0.999818, 443, 147, 458, 162
-0.999818, 473, 189, 488, 204
-0.999819, 387, 151, 402, 166
-0.99982, 349, 189, 364, 204
-0.999821, 221, 29, 236, 44
-0.999822, 177, 71, 192, 86
-0.999822, 369, 119, 384, 134
-0.999824, 371, 171, 386, 186
-0.999826, 149, 147, 164, 162
-0.999826, 303, 97, 318, 112
-0.999831, 171, 45, 186, 60
-0.999832, 1, 103, 16, 118
-0.999832, 365, 161, 380, 176
-0.999833, 197, 191, 212, 206
-0.999834, 233, 117, 248, 132
-0.999835, 313, 99, 328, 114
-0.999844, 23, 45, 38, 60
-0.999856, 333, 153, 348, 168
-0.999858, 35, 41, 50, 56
-0.999875, 115, 105, 130, 120
-0.999899, 73, 33, 104, 288
-0.999908, 205, 133, 220, 148
-0.999927, 377, 1, 408, 256
-0.999978, 61, 33, 92, 288
-1.00025, 417, 33, 448, 288
-1.00026, 129, 313, 384, 375
-1.00035, 49, 1, 80, 256
-1.00061, 241, 9, 368, 72
-1.00071, 1, 305, 500, 368
-1.00146, 409, 33, 472, 160
-1.00185, 369, 25, 496, 88
-1.00193, 345, 17, 408, 144
-1.0023, 337, 1, 464, 64
-1.00295, 289, 1, 416, 64
-1.00455, 41, 81, 104, 208
-1.01204, 377, 17, 440, 144
-1.01713, 433, 1, 496, 128
