1991
-0.539938, 1, 129, 500, 375
-0.640299, 129, 129, 384, 375
-0.658909, 129, 1, 384, 375
-0.717934, 1, 33, 500, 288
-0.746066, 257, 1, 500, 375
-0.780835, 1, 1, 256, 375
-0.792035, 1, 1, 500, 375
-0.796027, 257, 129, 500, 375
-0.845634, 33, 97, 288, 352
-0.878973, 145, 129, 272, 375
-0.883182, 1, 225, 500, 352
-0.89368, 225, 129, 352, 375
-0.900872, 145, 1, 272, 375
-0.904242, 129, 193, 384, 320
-0.913741, 1, 177, 500, 304
-0.914827, 129, 33, 384, 288
-0.917263, 193, 1, 320, 375
-0.92142, 129, 145, 384, 272
-0.923032, 97, 129, 224, 375
-0.925065, 177, 33, 304, 288
-0.93142, 257, 225, 500, 352
-0.93149, 225, 193, 352, 320
-0.933791, 129, 193, 256, 320
-0.93398, 201, 161, 264, 288
-0.937982, 305, 1, 432, 375
-0.939219, 145, 145, 272, 272
-0.93979, 33, 129, 160, 375
-0.940325, 177, 113, 240, 240
-0.940588, 241, 1, 368, 375
-0.942921, 65, 241, 320, 368
-0.942935, 81, 33, 208, 288
-0.94349, 97, 1, 224, 375
-0.946198, 33, 145, 288, 272
-0.946993, 305, 97, 432, 352
-0.949777, 33, 193, 288, 320
-0.95053, 49, 1, 176, 375
-0.951095, 265, 145, 328, 272
-0.951153, 1, 113, 500, 240
-0.951448, 193, 145, 320, 272
-0.951492, 209, 209, 272, 336
-0.952191, 177, 97, 304, 224
-0.952977, 209, 177, 272, 240
-0.953041, 177, 161, 240, 288
-0.954443, 121, 225, 184, 352
-0.954484, 161, 241, 416, 368
-0.956149, 185, 153, 248, 216
-0.956384, 353, 129, 480, 375
-0.956754, 369, 1, 496, 375
-0.957357, 177, 113, 240, 176
-0.957482, 257, 177, 500, 304
-0.958818, 129, 97, 384, 224
-0.95915, 225, 33, 352, 288
-0.959498, 209, 113, 272, 240
-0.959862, 201, 241, 264, 304
-0.959888, 233, 161, 296, 288
-0.960136, 129, 97, 256, 224
-0.961311, 177, 193, 304, 320
-0.962379, 305, 225, 432, 352
-0.96318, 265, 161, 328, 224
-0.963836, 113, 233, 176, 296
-0.96407, 153, 129, 216, 256
-0.964407, 201, 217, 264, 280
-0.964695, 129, 33, 256, 288
-0.965012, 169, 177, 232, 240
-0.965097, 33, 97, 288, 224
-0.965433, 225, 241, 352, 368
-0.966174, 281, 193, 344, 320
-0.966195, 305, 209, 368, 336
-0.967449, 169, 201, 232, 264
-0.967945, 33, 241, 160, 368
-0.968204, 281, 153, 312, 216
-0.968764, 369, 225, 496, 352
-0.969199, 265, 185, 328, 248
-0.969363, 89, 241, 152, 368
-0.969699, 433, 265, 496, 328
-0.970117, 153, 177, 216, 304
-0.97047, 233, 217, 296, 280
-0.970559, 209, 129, 240, 256
-0.970737, 241, 145, 368, 272
-0.97087, 433, 241, 496, 368
-0.971481, 1, 1, 256, 256
-0.971889, 1, 1, 128, 375
-0.972461, 225, 153, 288, 216
-0.972808, 113, 241, 240, 368
-0.97323, 281, 209, 344, 272
-0.973354, 273, 1, 400, 256
-0.973563, 241, 193, 368, 256
-0.973866, 161, 153, 224, 216
-0.973899, 145, 201, 272, 264
-0.97394, 193, 97, 224, 224
-0.974094, 433, 193, 496, 320
-0.975261, 213, 153, 244, 216
-0.975972, 233, 193, 296, 256
-0.976777, 233, 209, 296, 336
-0.976849, 273, 129, 336, 375
-0.976898, 217, 193, 248, 320
-0.976967, 225, 217, 352, 280
-0.977045, 193, 185, 320, 248
-0.977141, 209, 97, 272, 352
-0.97723, 161, 241, 288, 368
-0.97743, 33, 33, 160, 288
-0.977463, 305, 257, 368, 320
-0.978032, 225, 145, 256, 272
-0.97814, 193, 105, 224, 168
-0.978328, 153, 129, 216, 192
-0.978375, 97, 297, 160, 360
-0.978384, 97, 145, 224, 272
-0.978492, 145, 193, 208, 256
-0.978614, 465, 193, 496, 320
-0.978645, 313, 193, 344, 320
-0.978737, 197, 145, 228, 272
-0.978962, 145, 177, 272, 240
-0.979049, 169, 97, 232, 352
-0.979071, 201, 153, 232, 216
-0.97939, 281, 145, 312, 272
-0.979466, 1, 65, 500, 192
-0.979597, 233, 97, 296, 224
-0.979658, 113, 161, 176, 288
-0.979672, 213, 185, 244, 248
-0.979703, 129, 145, 256, 208
-0.979763, 33, 193, 160, 320
-0.979844, 193, 161, 320, 224
-0.979871, 113, 233, 240, 296
-0.979956, 125, 225, 156, 352
-0.980002, 137, 217, 200, 280
-0.980178, 197, 177, 228, 240
-0.9803, 209, 121, 272, 184
-0.980378, 461, 265, 492, 328
-0.980578, 129, 113, 256, 176
-0.980648, 305, 177, 432, 304
-0.980657, 465, 201, 496, 264
-0.980676, 249, 193, 280, 320
-0.980701, 229, 209, 260, 336
-0.981031, 417, 241, 480, 304
-0.981313, 177, 129, 304, 192
-0.981349, 117, 241, 148, 304
-0.981359, 225, 265, 352, 328
-0.981483, 217, 225, 248, 288
-0.981642, 89, 265, 152, 328
-0.981683, 253, 201, 284, 264
-0.981705, 305, 233, 368, 296
-0.982079, 209, 281, 272, 344
-0.982086, 409, 209, 472, 336
-0.982104, 369, 177, 496, 304
-0.982239, 205, 113, 236, 176
-0.982313, 453, 225, 484, 352
-0.982481, 177, 105, 304, 168
-0.982587, 289, 145, 352, 272
-0.982863, 241, 209, 272, 272
-0.98317, 225, 241, 352, 304
-0.983377, 313, 201, 344, 264
-0.983398, 249, 129, 312, 375
-0.983469, 417, 217, 480, 280
-0.983502, 225, 153, 256, 216
-0.983516, 449, 273, 480, 336
-0.983602, 177, 209, 240, 336
-0.983647, 313, 257, 344, 320
-0.983881, 49, 313, 176, 375
-0.983911, 317, 241, 348, 368
-0.984011, 433, 289, 496, 352
-0.984029, 73, 313, 136, 375
-0.984268, 113, 281, 144, 344
-0.984433, 465, 241, 496, 368
-0.984545, 185, 65, 248, 192
-0.984633, 113, 241, 144, 368
-0.984758, 205, 81, 236, 208
-0.984967, 137, 225, 168, 352
-0.985106, 297, 177, 328, 304
-0.985721, 181, 113, 212, 240
-0.985782, 409, 273, 472, 336
-0.985869, 233, 129, 296, 192
-0.985888, 225, 129, 480, 256
-0.985904, 49, 145, 176, 272
-0.985976, 261, 177, 292, 304
-0.986076, 145, 129, 208, 375
-0.986238, 97, 49, 224, 176
-0.986253, 205, 193, 236, 320
-0.98629, 153, 81, 216, 208
-0.986322, 73, 193, 136, 320
-0.986363, 201, 201, 232, 264
-0.986376, 113, 193, 176, 256
-0.986388, 229, 249, 260, 312
-0.98643, 305, 129, 432, 256
-0.986614, 305, 241, 432, 304
-0.986652, 217, 129, 248, 192
-0.986716, 369, 241, 496, 304
-0.98676, 297, 169, 360, 232
-0.986786, 453, 233, 484, 296
-0.986796, 157, 145, 188, 272
-0.986844, 301, 193, 332, 256
-0.98689, 33, 257, 160, 320
-0.986966, 113, 257, 240, 320
-0.987117, 161, 225, 288, 288
-0.987206, 229, 225, 260, 288
-0.987421, 1, 313, 64, 375
-0.98746, 313, 225, 344, 288
-0.987603, 81, 193, 208, 320
-0.98761, 65, 241, 128, 368
-0.98764, 321, 161, 384, 288
-0.98769, 193, 49, 320, 176
-0.987789, 305, 281, 368, 344
-0.987805, 301, 161, 332, 224
-0.987837, 97, 193, 224, 256
-0.988027, 257, 169, 384, 232
-0.988106, 137, 233, 168, 296
-0.988124, 169, 1, 232, 375
-0.98815, 137, 169, 200, 232
-0.988183, 33, 49, 288, 176
-0.988185, 129, 313, 160, 375
-0.988197, 221, 97, 252, 224
-0.988321, 65, 233, 128, 296
-0.988395, 369, 217, 496, 280
-0.988695, 1, 241, 64, 368
-0.988871, 121, 305, 184, 368
-0.988917, 305, 209, 368, 272
-0.989115, 369, 265, 496, 328
-0.989172, 225, 177, 256, 240
-0.989224, 281, 257, 344, 320
-0.989277, 193, 157, 256, 188
-0.989278, 89, 241, 152, 304
-0.989293, 105, 257, 136, 320
-0.989338, 169, 249, 232, 312
-0.989357, 305, 217, 432, 280
-0.989469, 177, 113, 240, 144
-0.98956, 329, 217, 392, 280
-0.989566, 185, 145, 216, 208
-0.989634, 265, 193, 328, 224
-0.989659, 241, 249, 304, 312
-0.989663, 265, 233, 328, 296
-0.98974, 65, 233, 192, 296
-0.989745, 265, 185, 296, 248
-0.989778, 201, 225, 264, 256
-0.98991, 161, 257, 288, 320
-0.990021, 113, 257, 176, 320
-0.990022, 281, 241, 344, 368
-0.990042, 321, 185, 384, 248
-0.990044, 201, 201, 264, 232
-0.990097, 113, 281, 240, 344
-0.990125, 177, 125, 240, 156
-0.990125, 177, 89, 240, 152
-0.990129, 209, 65, 272, 192
-0.990202, 217, 1, 280, 375
-0.990209, 129, 201, 384, 264
-0.990277, 1, 1, 500, 128
-0.990301, 225, 289, 352, 352
-0.990336, 33, 281, 160, 344
-0.99037, 201, 245, 264, 276
-0.990391, 113, 305, 240, 368
-0.990415, 153, 217, 184, 280
-0.990463, 273, 313, 336, 375
-0.990476, 193, 49, 448, 176
-0.990476, 265, 157, 328, 188
-0.990515, 209, 97, 272, 160
-0.990526, 117, 305, 148, 368
-0.990529, 201, 213, 264, 244
-0.990544, 113, 237, 176, 268
-0.990545, 233, 169, 296, 200
-0.990548, 265, 181, 328, 212
-0.990554, 169, 217, 232, 248
-0.990567, 369, 289, 496, 352
-0.990583, 201, 261, 264, 292
-0.990605, 177, 141, 240, 172
-0.99065, 225, 225, 288, 256
-0.990652, 113, 129, 176, 375
-0.990654, 153, 105, 216, 168
-0.990799, 297, 145, 360, 208
-0.990812, 17, 225, 144, 288
-0.990849, 169, 193, 232, 224
-0.990891, 97, 313, 128, 375
-0.990954, 209, 189, 272, 220
-0.990988, 289, 265, 416, 328
-0.990988, 289, 289, 416, 352
-0.990993, 209, 169, 272, 200
-0.991021, 185, 177, 216, 240
-0.991023, 185, 281, 248, 344
-0.991027, 329, 225, 392, 352
-0.991046, 433, 273, 496, 304
-0.991081, 185, 181, 248, 212
-0.99111, 129, 289, 160, 352
-0.991111, 169, 205, 232, 236
-0.991117, 225, 313, 352, 375
-0.991119, 173, 121, 204, 184
-0.991177, 273, 289, 336, 352
-0.991206, 97, 297, 160, 328
-0.991236, 49, 201, 176, 264
-0.991288, 65, 97, 192, 224
-0.991361, 465, 241, 496, 304
-0.991372, 145, 221, 208, 252
-0.991381, 169, 153, 232, 184
-0.991524, 201, 273, 264, 304
-0.991537, 289, 177, 320, 240
-0.991551, 265, 169, 328, 200
-0.991596, 249, 205, 312, 236
-0.991623, 113, 249, 176, 280
-0.991638, 97, 325, 160, 356
-0.99164, 97, 313, 160, 344
-0.991662, 233, 157, 296, 188
-0.991712, 185, 169, 248, 200
-0.991731, 313, 313, 376, 375
-0.991744, 281, 209, 344, 240
-0.991828, 233, 145, 296, 176
-0.99185, 149, 209, 180, 336
-0.991951, 305, 257, 368, 288
-0.991952, 101, 241, 132, 368
-0.991972, 305, 193, 432, 256
-0.991976, 185, 161, 216, 288
-0.992002, 81, 277, 144, 308
-0.992022, 225, 213, 288, 244
-0.992031, 1, 313, 128, 375
-0.992034, 25, 313, 88, 375
-0.99206, 241, 241, 272, 368
-0.992063, 161, 281, 288, 344
-0.992097, 433, 301, 496, 332
-0.992105, 121, 285, 184, 316
-0.992125, 425, 249, 488, 280
-0.99213, 289, 225, 352, 256
-0.992193, 113, 337, 176, 368
-0.992209, 209, 137, 272, 168
-0.992212, 153, 141, 216, 172
-0.992237, 233, 237, 296, 268
-0.99224, 305, 277, 368, 308
-0.992248, 129, 225, 384, 288
-0.992276, 145, 117, 208, 148
-0.992278, 113, 261, 176, 292
-0.992293, 305, 313, 432, 375
-0.992298, 209, 289, 272, 320
-0.992314, 297, 177, 360, 208
-0.992325, 221, 157, 252, 188
-0.992344, 289, 197, 352, 228
-0.992359, 209, 117, 272, 148
-0.992393, 333, 233, 364, 296
-0.992398, 289, 237, 352, 268
-0.992399, 321, 245, 384, 276
-0.992401, 265, 97, 328, 224
-0.992403, 145, 201, 208, 232
-0.992419, 281, 157, 312, 188
-0.992422, 89, 249, 152, 280
-0.992426, 73, 325, 136, 356
-0.992435, 137, 237, 200, 268
-0.992464, 113, 221, 176, 252
-0.99247, 73, 313, 136, 344
-0.992518, 121, 305, 184, 336
-0.99253, 469, 289, 500, 352
-0.99255, 433, 285, 496, 316
-0.992562, 321, 217, 384, 248
-0.992566, 153, 177, 216, 208
-0.992572, 237, 145, 268, 272
-0.992581, 73, 261, 136, 292
-0.992584, 241, 193, 304, 224
-0.992587, 433, 261, 496, 292
-0.992611, 321, 229, 384, 260
-0.992617, 169, 269, 232, 300
-0.99262, 273, 337, 336, 368
-0.992622, 201, 185, 232, 216
-0.992627, 145, 129, 208, 160
-0.992633, 117, 253, 148, 284
-0.992633, 241, 265, 304, 296
-0.992678, 193, 109, 224, 140
-0.992692, 153, 165, 216, 196
-0.992697, 297, 165, 360, 196
-0.992702, 217, 225, 248, 256
-0.99271, 201, 157, 232, 188
-0.992716, 265, 269, 328, 300
-0.99273, 133, 237, 164, 268
-0.992745, 313, 345, 376, 375
-0.992752, 409, 297, 472, 328
-0.992774, 113, 89, 240, 152
-0.992776, 229, 225, 260, 256
-0.992777, 281, 181, 312, 212
-0.992784, 217, 237, 248, 268
-0.992786, 213, 241, 244, 368
-0.99279, 209, 173, 240, 204
-0.992794, 305, 289, 368, 320
-0.992812, 469, 273, 500, 304
-0.992847, 177, 281, 240, 312
-0.992878, 417, 217, 480, 248
-0.992881, 121, 241, 152, 272
-0.992882, 121, 273, 184, 304
-0.99289, 233, 181, 296, 212
-0.992898, 417, 237, 480, 268
-0.992903, 177, 229, 240, 260
-0.992913, 309, 201, 340, 232
-0.99292, 465, 209, 496, 240
-0.992921, 201, 145, 232, 176
-0.992928, 225, 277, 288, 308
-0.992929, 73, 237, 136, 268
-0.992945, 129, 333, 160, 364
-0.992946, 253, 201, 284, 232
-0.992964, 81, 113, 208, 176
-0.992966, 249, 213, 280, 244
-0.992969, 273, 289, 336, 320
-0.992973, 437, 265, 468, 328
-0.992976, 457, 269, 488, 300
-0.992977, 217, 145, 248, 176
-0.992981, 241, 225, 272, 256
-0.992991, 313, 193, 376, 224
-0.992994, 169, 193, 200, 256
-0.993018, 205, 125, 236, 156
-0.993021, 409, 285, 472, 316
-0.993021, 157, 221, 188, 252
-0.993031, 313, 261, 344, 292
-0.993035, 205, 225, 236, 256
-0.993038, 25, 241, 88, 368
-0.993043, 209, 105, 272, 136
-0.993043, 289, 97, 352, 224
-0.993062, 145, 189, 208, 220
-0.993064, 297, 197, 328, 228
-0.993065, 1, 329, 64, 360
-0.993066, 209, 209, 240, 240
-0.993076, 117, 317, 148, 348
-0.993081, 221, 173, 252, 204
-0.993108, 129, 153, 384, 216
-0.993115, 205, 113, 236, 144
-0.993115, 265, 193, 296, 224
-0.993119, 465, 301, 496, 332
-0.993137, 297, 149, 360, 180
-0.993139, 457, 257, 488, 288
-0.993156, 137, 333, 200, 364
-0.993166, 129, 177, 384, 240
-0.993169, 113, 113, 176, 240
-0.993169, 281, 169, 312, 200
-0.993179, 233, 281, 264, 344
-0.993179, 145, 233, 176, 264
-0.99318, 213, 185, 244, 216
-0.99318, 109, 277, 140, 308
-0.993191, 229, 277, 260, 308
-0.993195, 189, 201, 220, 232
-0.993199, 117, 301, 148, 332
-0.993201, 313, 233, 344, 264
-0.993203, 49, 329, 112, 360
-0.993218, 197, 213, 228, 244
-0.99323, 25, 329, 88, 360
-0.993237, 273, 321, 336, 352
-0.993239, 305, 301, 368, 332
-0.993241, 97, 313, 128, 344
-0.993252, 333, 237, 364, 268
-0.993254, 137, 313, 168, 344
-0.993258, 445, 301, 476, 332
-0.993259, 129, 289, 160, 320
-0.993259, 97, 273, 352, 336
-0.99326, 313, 329, 376, 360
-0.993265, 445, 269, 476, 300
-0.993265, 193, 1, 256, 375
-0.993268, 409, 273, 472, 304
-0.993269, 185, 133, 216, 164
-0.993272, 189, 121, 220, 152
-0.993273, 189, 177, 220, 208
-0.993274, 209, 197, 240, 228
-0.993274, 453, 285, 484, 316
-0.993275, 301, 173, 332, 204
-0.993275, 241, 253, 304, 284
-0.993277, 89, 337, 152, 368
-0.993278, 177, 197, 208, 228
-0.993278, 129, 317, 192, 348
-0.993283, 417, 185, 480, 248
-0.993295, 273, 301, 336, 332
-0.993305, 409, 297, 472, 360
-0.993308, 313, 217, 344, 248
-0.993309, 133, 225, 164, 256
-0.993316, 89, 209, 152, 272
-0.99332, 129, 281, 192, 344
-0.993344, 233, 273, 296, 336
-0.993346, 293, 185, 324, 216
-0.993347, 233, 173, 264, 204
-0.993348, 237, 213, 268, 244
-0.993351, 169, 249, 232, 280
-0.993357, 273, 249, 336, 280
-0.993358, 121, 209, 184, 240
-0.993358, 137, 201, 168, 264
-0.993361, 469, 261, 500, 292
-0.993361, 229, 245, 260, 276
-0.993366, 49, 313, 112, 375
-0.993367, 209, 281, 240, 312
-0.993386, 177, 101, 240, 132
-0.993386, 97, 261, 128, 292
-0.993386, 249, 265, 280, 296
-0.993389, 369, 33, 496, 288
-0.993402, 321, 205, 384, 236
-0.993406, 305, 313, 368, 344
-0.993406, 241, 237, 272, 268
-0.993407, 181, 145, 212, 176
-0.993409, 221, 133, 252, 164
-0.99341, 465, 317, 496, 348
-0.993412, 433, 313, 496, 344
-0.993427, 169, 129, 200, 256
-0.993438, 65, 249, 320, 312
-0.99344, 117, 289, 148, 320
-0.993441, 221, 293, 252, 324
-0.993444, 141, 325, 172, 356
-0.993445, 49, 313, 112, 344
-0.993446, 313, 277, 344, 308
-0.993449, 117, 329, 148, 360
-0.99345, 157, 185, 188, 216
-0.99345, 325, 249, 356, 280
-0.993451, 129, 301, 160, 332
-0.993452, 449, 241, 480, 272
-0.993454, 269, 181, 300, 212
-0.993457, 205, 237, 236, 268
-0.99346, 89, 225, 152, 256
-0.993461, 229, 261, 260, 292
-0.993463, 169, 125, 200, 156
-0.993465, 145, 221, 176, 252
-0.993469, 101, 325, 132, 356
-0.993469, 297, 129, 328, 256
-0.99347, 237, 161, 268, 192
-0.993479, 417, 201, 480, 232
-0.993483, 221, 121, 252, 152
-0.99349, 269, 161, 300, 224
-0.993491, 225, 185, 256, 216
-0.993495, 437, 289, 468, 320
-0.993499, 333, 225, 364, 256
-0.993506, 233, 289, 264, 320
-0.993507, 225, 213, 256, 244
-0.993513, 305, 245, 336, 276
-0.993521, 465, 221, 496, 252
-0.99353, 177, 225, 240, 288
-0.99353, 321, 341, 352, 372
-0.993531, 189, 189, 220, 220
-0.993531, 125, 265, 156, 296
-0.993532, 297, 273, 328, 304
-0.993532, 145, 153, 208, 184
-0.993538, 329, 213, 360, 244
-0.993538, 249, 217, 312, 248
-0.993541, 277, 193, 308, 224
-0.993545, 73, 317, 104, 348
-0.993546, 193, 225, 224, 256
-0.993548, 293, 157, 324, 188
-0.99355, 197, 269, 228, 300
-0.993551, 313, 289, 344, 320
-0.993552, 97, 169, 224, 232
-0.993553, 129, 277, 160, 308
-0.993554, 225, 97, 352, 224
-0.99356, 145, 225, 272, 256
-0.993561, 285, 145, 316, 176
-0.993564, 141, 337, 172, 368
-0.993565, 445, 221, 476, 252
-0.99357, 157, 201, 188, 232
-0.993581, 145, 101, 208, 132
-0.993583, 445, 297, 476, 360
-0.993589, 261, 169, 292, 200
-0.993592, 329, 201, 360, 232
-0.993599, 85, 309, 116, 340
-0.993602, 169, 141, 200, 172
-0.993608, 173, 213, 204, 244
-0.993608, 297, 297, 328, 328
-0.99361, 465, 233, 496, 264
-0.993612, 25, 325, 56, 356
-0.993614, 213, 257, 244, 288
-0.993616, 133, 253, 164, 284
-0.993624, 297, 285, 328, 316
-0.993625, 117, 341, 148, 372
-0.993625, 301, 313, 332, 344
-0.993628, 261, 225, 292, 256
-0.993633, 45, 329, 76, 360
-0.993637, 257, 145, 384, 208
-0.993641, 301, 337, 332, 368
-0.993642, 321, 329, 352, 360
-0.993643, 221, 109, 252, 140
-0.993648, 453, 313, 484, 344
-0.993654, 273, 145, 336, 176
-0.993669, 1, 217, 64, 248
-0.993679, 401, 261, 464, 292
-0.993682, 237, 161, 268, 224
-0.993716, 257, 233, 320, 264
-0.993737, 369, 185, 496, 248
-0.993763, 9, 341, 72, 372
-0.993781, 241, 289, 304, 320
-0.993786, 129, 177, 192, 208
-0.99382, 1, 241, 500, 304
-0.993832, 1, 317, 64, 348
-0.993834, 257, 1, 320, 375
-0.99384, 433, 313, 496, 375
-0.993841, 113, 189, 176, 220
-0.993859, 169, 177, 200, 304
-0.993897, 313, 129, 376, 375
-0.993901, 125, 177, 156, 304
-0.99391, 25, 317, 88, 348
-0.993945, 41, 341, 104, 372
-0.993973, 257, 233, 500, 296
-0.993979, 1, 265, 500, 328
-0.994001, 433, 189, 496, 220
-0.994037, 329, 241, 392, 304
-0.9941, 241, 201, 368, 232
-0.99413, 145, 161, 176, 288
-0.994142, 465, 313, 496, 375
-0.994202, 281, 97, 312, 224
-0.994291, 317, 281, 348, 344
-0.994354, 257, 257, 500, 320
-0.994358, 217, 289, 248, 352
-0.994376, 213, 177, 228, 240
-0.994377, 273, 137, 336, 200
-0.994388, 225, 201, 480, 264
-0.994412, 223, 153, 238, 216
-0.994416, 145, 209, 272, 240
-0.994455, 277, 185, 308, 248
-0.994466, 215, 113, 230, 176
-0.994476, 97, 233, 128, 296
-0.994492, 257, 281, 500, 344
-0.994517, 189, 201, 220, 264
-0.994537, 305, 169, 432, 232
-0.994547, 193, 81, 320, 144
-0.99456, 329, 225, 360, 352
-0.9946, 233, 33, 296, 288
-0.994606, 217, 249, 248, 312
-0.994631, 215, 201, 230, 264
-0.994651, 157, 185, 188, 248
-0.994725, 193, 209, 224, 336
-0.994861, 205, 225, 236, 288
-0.994876, 269, 129, 300, 256
-0.994886, 245, 217, 260, 280
-0.994925, 1, 217, 256, 280
-0.99495, 157, 161, 188, 224
-0.99502, 445, 177, 476, 304
-0.995022, 241, 213, 368, 244
-0.995029, 297, 153, 312, 216
-0.995068, 193, 209, 320, 240
-0.995108, 65, 313, 96, 375
-0.995109, 283, 153, 298, 216
-0.995121, 231, 153, 246, 216
-0.995123, 121, 241, 136, 304
-0.995128, 1, 201, 500, 264
-0.995156, 221, 105, 252, 168
-0.995211, 225, 201, 256, 264
-0.995275, 125, 209, 156, 272
-0.995316, 211, 153, 226, 216
-0.995324, 129, 129, 384, 192
-0.995326, 145, 197, 272, 228
-0.99535, 353, 241, 416, 368
-0.99536, 217, 145, 232, 208
-0.995372, 193, 105, 208, 168
-0.995456, 177, 185, 304, 216
-0.995462, 1, 289, 500, 352
-0.995474, 135, 297, 150, 360
-0.995493, 145, 157, 272, 188
-0.995508, 221, 193, 236, 256
-0.995515, 207, 185, 222, 248
-0.995612, 33, 113, 288, 176
-0.995693, 483, 273, 498, 336
-0.995707, 193, 197, 320, 228
-0.995737, 393, 249, 456, 312
-0.995737, 333, 177, 364, 304
-0.99574, 161, 249, 416, 312
-0.995742, 113, 1, 176, 375
-0.995749, 325, 209, 340, 272
-0.995753, 97, 313, 352, 375
-0.995758, 297, 273, 328, 336
-0.995769, 209, 105, 224, 168
-0.995795, 469, 209, 484, 272
-0.995802, 85, 305, 116, 368
-0.995855, 33, 177, 288, 240
-0.995876, 469, 145, 500, 272
-0.995878, 241, 233, 272, 296
-0.995898, 225, 273, 352, 304
-0.995915, 225, 249, 352, 280
-0.99593, 141, 313, 172, 375
-0.995935, 193, 49, 224, 176
-0.995947, 129, 117, 256, 148
-0.995953, 333, 209, 364, 272
-0.996024, 225, 229, 352, 260
-0.99605, 297, 297, 328, 360
-0.996059, 465, 241, 480, 304
-0.996063, 113, 237, 240, 268
-0.996084, 239, 225, 254, 288
-0.996097, 461, 265, 476, 328
-0.996101, 453, 265, 468, 328
-0.996116, 199, 105, 214, 168
-0.996116, 219, 225, 234, 288
-0.996165, 251, 209, 266, 272
-0.996204, 237, 137, 268, 200
-0.996239, 257, 201, 272, 264
-0.99624, 127, 241, 142, 304
-0.996247, 209, 209, 224, 272
-0.996261, 177, 141, 304, 172
-0.996262, 129, 129, 256, 160
-0.9963, 225, 129, 240, 192
-0.9963, 33, 153, 288, 216
-0.996321, 225, 261, 352, 292
-0.996355, 113, 273, 240, 304
-0.996417, 453, 209, 484, 272
-0.996421, 209, 173, 336, 204
-0.996428, 1, 113, 128, 240
-0.996432, 467, 273, 482, 336
-0.996469, 129, 257, 160, 320
-0.996482, 281, 1, 344, 375
-0.996487, 49, 325, 176, 356
-0.996494, 145, 1, 208, 375
-0.996499, 317, 257, 332, 320
-0.9965, 437, 241, 468, 368
-0.996506, 303, 161, 318, 224
-0.996545, 291, 153, 306, 216
-0.996568, 409, 161, 472, 288
-0.996569, 121, 273, 136, 336
-0.996572, 177, 113, 304, 144
-0.996584, 205, 153, 220, 216
-0.996608, 309, 145, 340, 272
-0.996613, 57, 241, 88, 368
-0.996625, 225, 285, 352, 316
-0.996646, 369, 129, 496, 256
-0.99667, 129, 313, 144, 375
-0.996692, 129, 141, 256, 172
-0.996697, 127, 281, 142, 344
-0.996709, 113, 249, 240, 280
-0.996728, 265, 193, 280, 256
-0.996734, 197, 249, 228, 312
-0.996742, 199, 153, 214, 216
-0.996751, 41, 289, 104, 352
-0.996754, 145, 81, 208, 144
-0.996772, 241, 189, 368, 220
-0.996773, 129, 105, 384, 168
-0.996776, 225, 177, 480, 240
-0.996799, 165, 217, 196, 280
-0.996804, 209, 153, 336, 184
-0.996813, 377, 241, 440, 368
-0.996822, 65, 257, 128, 320
-0.996833, 241, 249, 256, 312
-0.996841, 129, 185, 256, 216
-0.996864, 173, 145, 204, 208
-0.99688, 257, 113, 288, 240
-0.996889, 229, 217, 244, 280
-0.996924, 229, 177, 244, 240
-0.996976, 133, 233, 148, 296
-0.996983, 275, 185, 290, 248
-0.996996, 311, 193, 326, 256
-0.996997, 459, 241, 474, 304
-0.997001, 143, 233, 158, 296
-0.99701, 205, 273, 236, 336
-0.997018, 303, 193, 318, 256
-0.997068, 105, 193, 136, 320
-0.997085, 201, 177, 216, 240
-0.99709, 257, 193, 320, 320
-0.997156, 447, 265, 462, 328
-0.997166, 305, 1, 368, 375
-0.997181, 187, 121, 202, 184
-0.997198, 207, 129, 222, 192
-0.997202, 153, 225, 168, 288
-0.997203, 1, 305, 256, 368
-0.997205, 237, 161, 252, 224
-0.997214, 177, 129, 304, 160
-0.997227, 81, 129, 144, 375
-0.997241, 297, 177, 312, 240
-0.997261, 33, 257, 160, 288
-0.997302, 319, 201, 334, 264
-0.997305, 145, 225, 208, 352
-0.997307, 257, 305, 500, 368
-0.997314, 221, 129, 252, 375
-0.997326, 297, 249, 328, 312
-0.997329, 205, 89, 236, 152
-0.997345, 245, 273, 260, 336
-0.997346, 113, 285, 240, 316
-0.99735, 245, 257, 276, 320
-0.997358, 115, 249, 130, 312
-0.997365, 369, 249, 496, 280
-0.997373, 475, 265, 490, 328
-0.997374, 49, 177, 176, 240
-0.997391, 129, 173, 256, 204
-0.997392, 141, 305, 156, 368
-0.997421, 161, 265, 288, 296
-0.997424, 113, 217, 144, 280
-0.99743, 475, 201, 490, 264
-0.997438, 161, 289, 288, 320
-0.997438, 485, 297, 500, 360
-0.997474, 25, 313, 56, 375
-0.997519, 183, 193, 198, 256
-0.997525, 65, 213, 192, 244
-0.997546, 97, 197, 224, 228
-0.997546, 113, 137, 176, 200
-0.997548, 305, 253, 432, 284
-0.997554, 113, 261, 240, 292
-0.997563, 335, 225, 350, 288
-0.997565, 219, 225, 234, 256
-0.997581, 193, 129, 208, 192
-0.997588, 277, 161, 292, 224
-0.997596, 455, 289, 470, 352
-0.99761, 485, 201, 500, 264
-0.997621, 49, 337, 176, 368
-0.997626, 119, 253, 134, 284
-0.997635, 77, 241, 108, 368
-0.997654, 233, 157, 248, 188
-0.997655, 215, 181, 230, 212
-0.997656, 113, 301, 240, 332
-0.997658, 107, 305, 122, 368
-0.997659, 33, 285, 160, 316
-0.997665, 215, 145, 230, 176
-0.99769, 305, 217, 432, 248
-0.997696, 149, 201, 164, 264
-0.997701, 289, 185, 416, 216
-0.997707, 241, 229, 256, 260
-0.997707, 159, 225, 174, 288
-0.99773, 33, 269, 160, 300
-0.997737, 125, 245, 140, 276
-0.997742, 239, 201, 254, 264
-0.997744, 307, 265, 322, 328
-0.99775, 225, 157, 240, 188
-0.997752, 217, 113, 232, 144
-0.997776, 305, 233, 432, 264
-0.997782, 33, 245, 160, 276
-0.997783, 219, 237, 234, 268
-0.997787, 159, 193, 174, 256
-0.997788, 1, 129, 64, 256
-0.997788, 251, 217, 266, 248
-0.997798, 231, 289, 246, 352
-0.997805, 481, 273, 496, 304
-0.997809, 329, 241, 344, 304
-0.997815, 471, 241, 486, 304
-0.997816, 311, 297, 326, 360
-0.997822, 233, 229, 248, 260
-0.997831, 353, 289, 480, 320
-0.997831, 213, 205, 228, 236
-0.997847, 217, 281, 232, 344
-0.997855, 317, 313, 348, 375
-0.997863, 297, 157, 312, 188
-0.997878, 463, 217, 478, 280
-0.997879, 219, 249, 234, 312
-0.997906, 257, 157, 384, 188
-0.99791, 225, 225, 240, 256
-0.997913, 65, 313, 192, 344
-0.997914, 255, 205, 270, 236
-0.997918, 161, 277, 288, 308
-0.997923, 461, 305, 476, 368
-0.997939, 1, 273, 256, 336
-0.997957, 135, 329, 150, 360
-0.997961, 113, 313, 128, 375
-0.997968, 177, 193, 192, 256
-0.997974, 49, 137, 176, 200
-0.997979, 471, 261, 486, 292
-0.997982, 223, 169, 238, 200
-0.997984, 369, 213, 496, 244
-0.997985, 133, 241, 148, 272
-0.997996, 209, 185, 224, 216
-0.998004, 281, 129, 312, 192
-0.998005, 131, 289, 146, 320
-0.998006, 369, 301, 496, 332
-0.998016, 113, 105, 240, 136
-0.998022, 211, 217, 226, 248
-0.998028, 467, 213, 482, 244
-0.998038, 209, 241, 224, 304
-0.998042, 193, 113, 208, 144
-0.998042, 325, 209, 340, 240
-0.998058, 1, 113, 128, 176
-0.998061, 283, 153, 298, 184
-0.99807, 199, 129, 214, 192
-0.99808, 115, 273, 130, 336
-0.998085, 305, 197, 320, 228
-0.998087, 143, 237, 158, 268
-0.998088, 305, 205, 432, 236
-0.998088, 319, 281, 334, 344
-0.998095, 121, 297, 136, 360
-0.99811, 129, 321, 256, 352
-0.998114, 369, 225, 496, 256
-0.998121, 297, 241, 328, 368
-0.998127, 197, 97, 228, 352
-0.998138, 161, 313, 288, 375
-0.998141, 135, 273, 150, 336
-0.99815, 33, 297, 160, 328
-0.998151, 235, 173, 250, 204
-0.998152, 257, 173, 384, 204
-0.998152, 309, 169, 324, 232
-0.99816, 211, 109, 226, 140
-0.998166, 281, 129, 312, 375
-0.998169, 467, 313, 482, 375
-0.998172, 121, 281, 136, 312
-0.99818, 329, 185, 360, 248
-0.998181, 289, 293, 416, 324
-0.998189, 305, 177, 320, 208
-0.998194, 297, 129, 312, 192
-0.998205, 191, 193, 206, 256
-0.998208, 27, 313, 42, 375
-0.998208, 155, 229, 170, 260
-0.998209, 231, 129, 246, 192
-0.998209, 369, 237, 496, 268
-0.998212, 477, 289, 492, 352
-0.998214, 289, 121, 416, 184
-0.998214, 131, 301, 146, 332
-0.998214, 193, 101, 320, 132
-0.998217, 185, 97, 216, 352
-0.998218, 221, 141, 236, 172
-0.998231, 161, 225, 176, 256
-0.998235, 225, 345, 352, 375
-0.998236, 425, 1, 488, 375
-0.998237, 29, 241, 60, 368
-0.998246, 141, 333, 156, 364
-0.998262, 261, 201, 276, 232
-0.998263, 215, 89, 230, 152
-0.998264, 477, 241, 492, 304
-0.998272, 97, 333, 224, 364
-0.998273, 223, 189, 238, 220
-0.998273, 319, 205, 334, 236
-0.998275, 165, 217, 180, 280
-0.998281, 321, 347, 352, 362
-0.998281, 249, 267, 280, 282
-0.998281, 193, 205, 224, 220
-0.998282, 133, 345, 164, 360
-0.998282, 329, 257, 360, 272
-0.998282, 319, 265, 334, 296
-0.998282, 221, 133, 252, 148
-0.998283, 205, 283, 236, 298
-0.998283, 261, 229, 292, 244
-0.998284, 117, 267, 148, 282
-0.998284, 333, 237, 364, 252
-0.998284, 129, 255, 160, 270
-0.998286, 469, 317, 500, 332
-0.998286, 469, 281, 500, 296
-0.998286, 97, 327, 128, 342
-0.998287, 169, 221, 200, 236
-0.998288, 445, 283, 476, 298
-0.998288, 305, 165, 336, 180
-0.998288, 221, 127, 252, 142
-0.998289, 185, 153, 216, 168
-0.998289, 153, 217, 184, 232
-0.99829, 97, 313, 112, 375
-0.99829, 77, 321, 108, 336
-0.998291, 145, 327, 176, 342
-0.998291, 297, 275, 328, 290
-0.998291, 105, 279, 136, 294
-0.998292, 293, 129, 324, 375
-0.998292, 117, 297, 148, 312
-0.998293, 97, 261, 128, 276
-0.998293, 33, 313, 48, 375
-0.998293, 329, 217, 360, 232
-0.998293, 297, 195, 328, 210
-0.998296, 229, 185, 260, 200
-0.998296, 101, 273, 132, 288
-0.998297, 153, 237, 184, 252
-0.998299, 209, 289, 240, 304
-0.998299, 225, 191, 256, 206
-0.9983, 97, 315, 128, 330
-0.9983, 109, 249, 140, 264
-0.998301, 221, 121, 252, 136
-0.998301, 213, 207, 244, 222
-0.998301, 313, 233, 344, 248
-0.998303, 241, 169, 272, 184
-0.998303, 189, 191, 220, 206
-0.998303, 117, 313, 148, 328
-0.998304, 225, 281, 240, 344
-0.998304, 249, 273, 280, 288
-0.998305, 161, 161, 176, 224
-0.998305, 457, 313, 488, 328
-0.998306, 233, 237, 264, 252
-0.998306, 273, 193, 288, 224
-0.998306, 137, 33, 200, 288
-0.998306, 313, 285, 344, 300
-0.998308, 221, 197, 252, 212
-0.998308, 225, 223, 256, 238
-0.998309, 323, 257, 338, 320
-0.99831, 317, 241, 348, 256
-0.998311, 255, 177, 270, 240
-0.998311, 201, 185, 232, 200
-0.998313, 249, 223, 280, 238
-0.998314, 229, 179, 260, 194
-0.998314, 97, 225, 224, 256
-0.998315, 149, 237, 164, 268
-0.998318, 233, 263, 264, 278
-0.998318, 465, 215, 496, 230
-0.998318, 205, 117, 236, 132
-0.99832, 205, 153, 220, 184
-0.998323, 313, 225, 344, 240
-0.998323, 205, 133, 236, 148
-0.998324, 213, 189, 244, 204
-0.998325, 225, 313, 352, 344
-0.998325, 441, 303, 472, 318
-0.998325, 483, 205, 498, 236
-0.998326, 209, 213, 240, 228
-0.998328, 445, 275, 476, 290
-0.99833, 97, 321, 128, 336
-0.99833, 189, 219, 220, 234
-0.998331, 265, 129, 296, 375
-0.998331, 261, 199, 292, 214
-0.998332, 197, 197, 228, 212
-0.998332, 1, 313, 500, 375
-0.998334, 125, 303, 156, 318
-0.998334, 113, 285, 144, 300
-0.998335, 205, 219, 236, 234
-0.998335, 369, 277, 496, 308
-0.998335, 281, 169, 312, 184
-0.998335, 233, 295, 264, 310
-0.998336, 117, 321, 148, 336
-0.998338, 133, 333, 164, 348
-0.998338, 457, 265, 488, 280
-0.998338, 483, 249, 498, 312
-0.998339, 185, 125, 216, 140
-0.998341, 313, 217, 344, 232
-0.998341, 229, 287, 260, 302
-0.998343, 249, 211, 280, 226
-0.998343, 289, 265, 416, 296
-0.998344, 75, 313, 90, 375
-0.998346, 217, 155, 248, 170
-0.998346, 221, 293, 252, 308
-0.998347, 301, 183, 332, 198
-0.998348, 245, 231, 276, 246
-0.998348, 185, 135, 216, 150
-0.998351, 217, 149, 248, 164
-0.998351, 485, 285, 500, 316
-0.998351, 201, 167, 232, 182
-0.998353, 281, 181, 312, 196
-0.998354, 141, 231, 172, 246
-0.998356, 177, 197, 208, 212
-0.998356, 217, 245, 248, 260
-0.998357, 309, 209, 340, 224
-0.998357, 193, 147, 224, 162
-0.998357, 285, 193, 316, 208
-0.998359, 249, 217, 280, 232
-0.998364, 137, 301, 152, 332
-0.998365, 199, 109, 214, 140
-0.998365, 129, 339, 160, 354
-0.998366, 161, 253, 288, 284
-0.998367, 189, 119, 220, 134
-0.998367, 157, 227, 188, 242
-0.998367, 291, 153, 306, 184
-0.998367, 133, 317, 148, 348
-0.99837, 113, 261, 144, 276
-0.99837, 279, 185, 294, 216
-0.998374, 465, 307, 496, 322
-0.998374, 33, 229, 160, 260
-0.998375, 271, 153, 286, 216
-0.998375, 285, 163, 316, 178
-0.998375, 313, 265, 344, 280
-0.998375, 245, 217, 260, 248
-0.99838, 273, 195, 304, 210
-0.998381, 321, 177, 336, 240
-0.998382, 229, 181, 244, 212
-0.998383, 205, 151, 236, 166
-0.998383, 117, 327, 148, 342
-0.998384, 205, 225, 236, 240
-0.998385, 129, 293, 160, 308
-0.998385, 313, 201, 328, 232
-0.998385, 297, 185, 312, 216
-0.998388, 137, 321, 168, 336
-0.998388, 209, 177, 240, 192
-0.998388, 257, 205, 288, 220
-0.998391, 479, 313, 494, 375
-0.998393, 459, 269, 474, 300
-0.998394, 211, 265, 226, 328
-0.998394, 191, 133, 206, 164
-0.998395, 233, 231, 264, 246
-0.998398, 233, 241, 248, 304
-0.998398, 201, 191, 232, 206
-0.998401, 469, 275, 500, 290
-0.998401, 121, 333, 152, 348
-0.998401, 237, 225, 268, 240
-0.998402, 205, 127, 236, 142
-0.998405, 121, 249, 152, 264
-0.998407, 129, 241, 160, 256
-0.998407, 1, 329, 128, 360
-0.998409, 301, 201, 332, 216
-0.998411, 465, 253, 480, 284
-0.998414, 281, 175, 312, 190
-0.998415, 469, 209, 500, 224
-0.99842, 139, 317, 154, 348
-0.99843, 221, 173, 252, 188
-0.998432, 317, 233, 332, 296
-0.998438, 449, 289, 464, 352
-0.998444, 457, 271, 488, 286
-0.998445, 485, 309, 500, 340
-0.998447, 149, 225, 164, 256
-0.998456, 225, 121, 352, 184
-0.998457, 201, 157, 232, 172
-0.998459, 213, 183, 244, 198
-0.99846, 13, 313, 44, 375
-0.998464, 221, 167, 252, 182
-0.998465, 305, 345, 432, 375
-0.998467, 477, 205, 492, 236
-0.998472, 171, 185, 186, 248
-0.998472, 267, 197, 282, 228
-0.998474, 281, 185, 296, 248
-0.998475, 45, 313, 76, 375
-0.998475, 327, 225, 342, 256
-0.998475, 141, 237, 172, 252
-0.998479, 265, 197, 328, 212
-0.998485, 453, 269, 468, 300
-0.998488, 117, 255, 148, 270
-0.998491, 221, 229, 252, 244
-0.998493, 193, 163, 256, 178
-0.998496, 209, 81, 224, 144
-0.998496, 237, 245, 252, 276
-0.9985, 177, 127, 240, 142
-0.998501, 177, 113, 240, 128
-0.998503, 201, 215, 264, 230
-0.998503, 213, 239, 244, 254
-0.998504, 281, 187, 312, 202
-0.998512, 193, 157, 256, 172
-0.998514, 177, 135, 240, 150
-0.998517, 177, 121, 240, 136
-0.998518, 109, 233, 124, 296
-0.99852, 225, 105, 240, 168
-0.998523, 157, 129, 188, 375
-0.998524, 209, 297, 336, 328
-0.998524, 209, 97, 240, 352
-0.998533, 205, 109, 220, 140
-0.998535, 137, 209, 152, 272
-0.998542, 209, 1, 272, 256
-0.998543, 309, 269, 324, 300
-0.998544, 183, 193, 198, 224
-0.998545, 233, 163, 296, 178
-0.998546, 233, 171, 296, 186
-0.998547, 209, 207, 272, 222
-0.998548, 285, 157, 316, 172
-0.998552, 201, 265, 264, 280
-0.998553, 201, 227, 264, 242
-0.998553, 289, 281, 416, 312
-0.998554, 265, 161, 328, 176
-0.998556, 461, 309, 476, 340
-0.998556, 197, 111, 228, 126
-0.998561, 169, 199, 232, 214
-0.998562, 201, 249, 264, 264
-0.998563, 193, 171, 256, 186
-0.998564, 213, 157, 228, 188
-0.998564, 209, 199, 272, 214
-0.998564, 283, 173, 298, 204
-0.998566, 143, 209, 158, 272
-0.998566, 239, 289, 254, 352
-0.998568, 201, 243, 264, 258
-0.998574, 317, 281, 332, 312
-0.998574, 177, 1, 240, 256
-0.998574, 447, 281, 462, 312
-0.998578, 169, 221, 232, 236
-0.998579, 221, 161, 252, 176
-0.99858, 201, 221, 264, 236
-0.998581, 177, 141, 240, 156
-0.998581, 251, 257, 266, 320
-0.998584, 201, 275, 264, 290
-0.998584, 105, 309, 120, 340
-0.998584, 323, 233, 338, 296
-0.998585, 129, 329, 144, 360
-0.998588, 265, 191, 328, 206
-0.998588, 201, 259, 264, 274
-0.99859, 185, 151, 248, 166
-0.998591, 121, 239, 184, 254
-0.998592, 369, 261, 496, 292
-0.998596, 177, 191, 240, 206
-0.998597, 265, 171, 328, 186
-0.998598, 433, 271, 496, 286
-0.998601, 209, 281, 272, 296
-0.998605, 229, 241, 244, 272
-0.998607, 185, 177, 248, 192
-0.99861, 485, 177, 500, 240
-0.998612, 249, 203, 312, 218
-0.998614, 121, 245, 184, 260
-0.998615, 233, 157, 296, 172
-0.998618, 209, 179, 272, 194
-0.998621, 89, 319, 152, 334
-0.998622, 215, 125, 230, 156
-0.998622, 81, 133, 208, 164
-0.998623, 169, 209, 232, 224
-0.998624, 129, 345, 256, 375
-0.998624, 215, 113, 230, 240
-0.998624, 217, 193, 280, 208
-0.998624, 1, 137, 128, 200
-0.998628, 185, 185, 248, 200
-0.998628, 1, 209, 64, 272
-0.998628, 327, 253, 342, 284
-0.998629, 193, 153, 208, 216
-0.99863, 137, 289, 152, 320
-0.99863, 205, 201, 220, 232
-0.99863, 169, 215, 232, 230
-0.998632, 113, 253, 176, 268
-0.998632, 147, 337, 162, 368
-0.998632, 105, 337, 168, 352
-0.998633, 265, 179, 328, 194
-0.998634, 265, 185, 328, 200
-0.998635, 121, 217, 136, 280
-0.998636, 121, 293, 184, 308
-0.998637, 281, 203, 344, 218
-0.99864, 233, 177, 296, 192
-0.998642, 189, 81, 220, 144
-0.998643, 473, 313, 488, 375
-0.998643, 241, 219, 304, 234
-0.998643, 97, 303, 160, 318
-0.998643, 203, 189, 218, 220
-0.998644, 169, 157, 232, 172
-0.998645, 225, 235, 288, 250
-0.998646, 433, 283, 496, 298
-0.998646, 133, 341, 148, 372
-0.998649, 225, 329, 352, 360
-0.99865, 105, 259, 168, 274
-0.998652, 161, 149, 224, 164
-0.998656, 97, 327, 160, 342
-0.998658, 111, 257, 126, 288
-0.998659, 433, 305, 496, 320
-0.998659, 233, 225, 296, 240
-0.99866, 281, 209, 344, 224
-0.998662, 153, 227, 216, 242
-0.998662, 245, 281, 260, 312
-0.998664, 89, 311, 152, 326
-0.998666, 305, 287, 368, 302
-0.998667, 289, 215, 352, 230
-0.998668, 209, 151, 272, 166
-0.998669, 241, 261, 256, 292
-0.99867, 201, 237, 264, 252
-0.99867, 475, 273, 490, 304
-0.998671, 289, 231, 352, 246
-0.998672, 225, 187, 288, 202
-0.998672, 241, 213, 304, 228
-0.998673, 113, 229, 176, 244
-0.998674, 145, 215, 208, 230
-0.998675, 455, 301, 470, 332
-0.998675, 305, 265, 368, 280
-0.998678, 273, 339, 336, 354
-0.998679, 273, 155, 336, 170
-0.998679, 289, 243, 352, 258
-0.998682, 209, 287, 272, 302
-0.998684, 145, 197, 208, 212
-0.998685, 209, 293, 272, 308
-0.998686, 273, 347, 336, 362
-0.998687, 297, 167, 360, 182
-0.998688, 89, 297, 152, 312
-0.998689, 433, 291, 496, 306
-0.99869, 241, 273, 304, 288
-0.99869, 145, 127, 208, 142
-0.99869, 289, 181, 352, 196
-0.998691, 209, 117, 272, 132
-0.998692, 73, 255, 136, 270
-0.998693, 209, 135, 272, 150
-0.998693, 145, 235, 208, 250
-0.998693, 289, 189, 352, 204
-0.998693, 433, 277, 496, 292
-0.998694, 321, 229, 384, 244
-0.998695, 177, 227, 240, 242
-0.998696, 321, 235, 384, 250
-0.998696, 251, 265, 266, 296
-0.998698, 241, 165, 256, 196
-0.998698, 121, 287, 184, 302
-0.998699, 209, 123, 272, 138
-0.9987, 433, 311, 496, 326
-0.998701, 177, 239, 240, 254
-0.998701, 321, 255, 384, 270
-0.998701, 409, 301, 472, 316
-0.998702, 289, 237, 352, 252
-0.998704, 465, 269, 480, 300
-0.998705, 321, 223, 384, 238
-0.998705, 223, 129, 238, 160
-0.998705, 113, 221, 176, 236
-0.998705, 113, 317, 176, 332
-0.998705, 313, 347, 376, 362
-0.998706, 105, 269, 168, 284
-0.998706, 219, 201, 234, 232
-0.998706, 417, 247, 480, 262
-0.998706, 121, 279, 184, 294
-0.998707, 89, 285, 152, 300
-0.998707, 321, 241, 384, 256
-0.998707, 153, 185, 216, 200
-0.998708, 209, 145, 272, 160
-0.998708, 81, 279, 144, 294
-0.998708, 321, 217, 384, 232
-0.998708, 289, 223, 352, 238
-0.998709, 209, 129, 272, 144
-0.998709, 321, 209, 384, 224
-0.99871, 145, 119, 208, 134
-0.998711, 177, 285, 240, 300
-0.998712, 425, 265, 488, 280
-0.998712, 233, 243, 296, 258
-0.998712, 97, 343, 160, 358
-0.998714, 73, 263, 136, 278
-0.998715, 145, 133, 208, 148
-0.998716, 153, 169, 216, 184
-0.998716, 265, 291, 328, 306
-0.998716, 145, 221, 208, 236
-0.998717, 417, 217, 480, 232
-0.998717, 289, 175, 352, 190
-0.998717, 169, 163, 232, 178
-0.998717, 305, 295, 368, 310
-0.998724, 125, 297, 140, 328
-0.998731, 203, 177, 218, 208
-0.998731, 469, 301, 484, 332
-0.998736, 315, 253, 330, 284
-0.998738, 205, 217, 220, 248
-0.998741, 219, 285, 234, 316
-0.998744, 207, 141, 222, 172
-0.998749, 485, 297, 500, 328
-0.998752, 209, 97, 224, 224
-0.998757, 459, 233, 474, 264
-0.998758, 247, 229, 262, 260
-0.998759, 199, 157, 214, 188
-0.998767, 185, 133, 200, 164
-0.998768, 159, 213, 174, 244
-0.998769, 453, 289, 468, 320
-0.998773, 143, 305, 158, 336
-0.998791, 123, 329, 138, 360
-0.998797, 221, 129, 236, 256
-0.998803, 33, 89, 288, 152
-0.998812, 301, 137, 332, 200
-0.998813, 335, 237, 350, 268
-0.998814, 289, 305, 416, 336
-0.998824, 209, 169, 224, 200
-0.998828, 459, 281, 474, 312
-0.998828, 169, 129, 200, 375
-0.998828, 229, 145, 244, 176
-0.998829, 65, 289, 128, 352
-0.998834, 225, 289, 240, 320
-0.998834, 479, 301, 494, 332
-0.998836, 221, 193, 236, 320
-0.998842, 127, 313, 142, 344
-0.998845, 231, 217, 246, 248
-0.998846, 245, 293, 260, 324
-0.998846, 293, 173, 308, 204
-0.998848, 209, 229, 224, 260
-0.998856, 113, 269, 128, 300
-0.998857, 187, 117, 202, 148
-0.99886, 369, 197, 496, 228
-0.998862, 327, 237, 342, 268
-0.998868, 97, 153, 224, 184
-0.998868, 65, 185, 192, 216
-0.998869, 189, 145, 204, 176
-0.998884, 199, 137, 214, 168
-0.998886, 321, 145, 352, 272
-0.998891, 135, 257, 150, 288
-0.998892, 239, 217, 254, 248
-0.998895, 247, 193, 262, 320
-0.998905, 121, 241, 136, 368
-0.998906, 89, 241, 120, 368
-0.998924, 81, 121, 208, 152
-0.998939, 209, 145, 224, 272
-0.99894, 233, 129, 264, 375
-0.998945, 289, 317, 416, 348
-0.998951, 215, 161, 230, 288
-0.998967, 289, 333, 416, 364
-0.998971, 469, 193, 484, 320
-0.998978, 199, 97, 214, 224
-0.998988, 141, 129, 172, 375
-0.999001, 193, 97, 208, 224
-0.999005, 1, 185, 128, 248
-0.999013, 129, 225, 144, 352
-0.999015, 227, 145, 242, 272
-0.999039, 177, 241, 304, 272
-0.999044, 241, 209, 256, 336
-0.999049, 463, 225, 478, 352
-0.99906, 319, 193, 334, 320
-0.999068, 225, 153, 480, 216
-0.999071, 325, 193, 340, 320
-0.999081, 135, 225, 150, 352
-0.999089, 169, 81, 200, 208
-0.999115, 253, 193, 268, 320
-0.999117, 283, 145, 298, 272
-0.999127, 17, 313, 144, 344
-0.999129, 469, 241, 484, 368
-0.999155, 361, 193, 424, 320
-0.999163, 313, 177, 328, 304
-0.999194, 477, 193, 492, 320
-0.999201, 235, 193, 250, 320
-0.99921, 253, 129, 284, 375
-0.999223, 227, 193, 242, 320
-0.999246, 113, 169, 176, 232
-0.999255, 203, 145, 218, 272
-0.999263, 265, 177, 280, 304
-0.99927, 321, 241, 336, 368
-0.999275, 291, 145, 306, 272
-0.999276, 233, 145, 248, 272
-0.999308, 457, 209, 472, 336
-0.999315, 143, 225, 158, 352
-0.999317, 483, 193, 498, 320
-0.999336, 129, 113, 192, 176
-0.999354, 297, 145, 312, 272
-0.999358, 187, 113, 202, 240
-0.99936, 425, 97, 488, 352
-0.999366, 275, 161, 290, 288
-0.999371, 1, 341, 128, 372
-0.999384, 129, 129, 160, 375
-0.999404, 115, 241, 130, 368
-0.999404, 221, 81, 236, 208
-0.999408, 159, 209, 174, 336
-0.99941, 209, 193, 224, 320
-0.999423, 289, 145, 416, 176
-0.999424, 161, 145, 176, 272
-0.999431, 259, 193, 274, 320
-0.99944, 465, 129, 496, 375
-0.999443, 215, 225, 230, 352
-0.999446, 117, 129, 148, 375
-0.999447, 241, 161, 256, 288
-0.999452, 221, 33, 252, 288
-0.999457, 197, 145, 212, 272
-0.999465, 247, 241, 262, 368
-0.999475, 141, 281, 172, 344
-0.999478, 151, 225, 166, 352
-0.99948, 465, 177, 496, 240
-0.999481, 331, 209, 346, 336
-0.9995, 303, 145, 318, 272
-0.999513, 135, 345, 150, 360
-0.999513, 229, 173, 244, 188
-0.999513, 245, 295, 260, 310
-0.999513, 123, 193, 138, 320
-0.999514, 225, 239, 240, 254
-0.999515, 451, 241, 466, 368
-0.999515, 225, 137, 240, 152
-0.999515, 121, 327, 136, 342
-0.999515, 447, 285, 462, 300
-0.999516, 223, 171, 238, 186
-0.999516, 283, 177, 298, 192
-0.999517, 281, 171, 296, 186
-0.999518, 111, 269, 126, 284
-0.999518, 327, 227, 342, 242
-0.999518, 191, 123, 206, 138
-0.999519, 335, 227, 350, 242
-0.999519, 237, 247, 252, 262
-0.999519, 133, 311, 148, 326
-0.999519, 203, 183, 218, 198
-0.99952, 159, 237, 174, 252
-0.99952, 317, 287, 332, 302
-0.999521, 169, 223, 184, 238
-0.999521, 119, 279, 134, 294
-0.999521, 105, 313, 120, 328
-0.999522, 327, 259, 342, 274
-0.999522, 245, 285, 260, 300
-0.999522, 235, 295, 250, 310
-0.999523, 327, 235, 342, 250
-0.999524, 209, 225, 224, 240
-0.999525, 217, 285, 232, 300
-0.999526, 153, 231, 168, 246
-0.999526, 227, 189, 242, 204
-0.999526, 211, 199, 226, 214
-0.999527, 299, 165, 314, 180
-0.99953, 325, 215, 340, 230
-0.999531, 221, 199, 236, 214
-0.999531, 485, 313, 500, 328
-0.999532, 467, 217, 482, 232
-0.999532, 219, 233, 234, 248
-0.999533, 309, 275, 324, 290
-0.999533, 201, 157, 216, 172
-0.999534, 239, 175, 254, 190
-0.999535, 167, 145, 182, 272
-0.999535, 447, 297, 462, 312
-0.999537, 191, 115, 206, 130
-0.999537, 137, 317, 152, 332
-0.999538, 217, 129, 232, 144
-0.999539, 205, 189, 220, 204
-0.999539, 485, 289, 500, 304
-0.999543, 305, 97, 336, 352
-0.999544, 183, 195, 198, 210
-0.999544, 455, 273, 470, 288
-0.999545, 131, 289, 146, 304
-0.999545, 251, 271, 266, 286
-0.999545, 477, 273, 492, 288
-0.999545, 453, 303, 468, 318
-0.999546, 245, 263, 260, 278
-0.999546, 33, 177, 96, 304
-0.999547, 241, 225, 256, 240
-0.999547, 215, 211, 230, 226
-0.999549, 461, 269, 476, 284
-0.999549, 249, 233, 264, 248
-0.999551, 217, 185, 232, 200
-0.999552, 299, 193, 314, 208
-0.999552, 467, 263, 482, 278
-0.999552, 255, 231, 270, 246
-0.999557, 325, 221, 340, 236
-0.999558, 119, 261, 134, 276
-0.999558, 323, 207, 338, 222
-0.999559, 233, 179, 248, 194
-0.999559, 251, 221, 266, 236
-0.999559, 131, 335, 146, 350
-0.99956, 221, 227, 236, 242
-0.999561, 275, 195, 290, 210
-0.999561, 369, 313, 496, 375
-0.999562, 481, 207, 496, 222
-0.999563, 191, 135, 206, 150
-0.999563, 125, 333, 140, 348
-0.999564, 215, 117, 230, 132
-0.999564, 233, 229, 248, 244
-0.999565, 149, 177, 164, 304
-0.999566, 193, 81, 448, 144
-0.999567, 203, 109, 218, 124
-0.999568, 211, 185, 226, 200
-0.999568, 253, 213, 268, 228
-0.999569, 121, 249, 136, 264
-0.999569, 165, 33, 196, 288
-0.999572, 303, 183, 318, 198
-0.999572, 231, 243, 246, 258
-0.999573, 321, 129, 352, 375
-0.999574, 235, 165, 250, 180
-0.999575, 475, 209, 490, 224
-0.999576, 217, 123, 232, 138
-0.999577, 125, 285, 140, 300
-0.999578, 145, 239, 160, 254
-0.999578, 295, 187, 310, 202
-0.999578, 223, 163, 238, 178
-0.999578, 161, 227, 176, 242
-0.999578, 283, 157, 298, 172
-0.999578, 279, 189, 294, 204
-0.999579, 211, 111, 226, 126
-0.999582, 133, 255, 148, 270
-0.999582, 241, 231, 256, 246
-0.999585, 227, 97, 242, 224
-0.999588, 197, 111, 212, 126
-0.999588, 129, 301, 144, 316
-0.999589, 207, 219, 222, 234
-0.99959, 485, 283, 500, 298
-0.999591, 221, 179, 236, 194
-0.999591, 227, 229, 242, 244
-0.999592, 475, 241, 490, 368
-0.999592, 307, 199, 322, 214
-0.999593, 471, 269, 486, 284
-0.999594, 283, 163, 298, 178
-0.999594, 131, 323, 146, 338
-0.999595, 207, 157, 222, 172
-0.999595, 315, 267, 330, 282
-0.999596, 291, 97, 306, 224
-0.999596, 469, 211, 484, 226
-0.999596, 299, 159, 314, 174
-0.999597, 153, 237, 168, 252
-0.999597, 131, 329, 146, 344
-0.999597, 317, 203, 332, 218
-0.999604, 215, 225, 230, 240
-0.999604, 137, 241, 152, 256
-0.999605, 215, 65, 230, 192
-0.999606, 155, 161, 170, 288
-0.999607, 233, 159, 248, 174
-0.999608, 219, 147, 234, 162
-0.999608, 119, 255, 134, 270
-0.999608, 129, 177, 144, 304
-0.999609, 285, 97, 300, 224
-0.999609, 257, 207, 272, 222
-0.999613, 269, 199, 284, 214
-0.999617, 247, 227, 262, 242
-0.999617, 137, 339, 152, 354
-0.999617, 215, 153, 230, 168
-0.999617, 131, 295, 146, 310
-0.999621, 483, 275, 498, 290
-0.999623, 223, 241, 238, 368
-0.999626, 137, 305, 152, 320
-0.999628, 289, 155, 304, 170
-0.999629, 235, 241, 250, 368
-0.999632, 227, 157, 242, 172
-0.999635, 145, 339, 160, 354
-0.999637, 463, 177, 478, 304
-0.999639, 1, 241, 32, 368
-0.99964, 229, 241, 244, 368
-0.999641, 255, 145, 270, 272
-0.999642, 309, 241, 324, 368
-0.999642, 201, 1, 232, 256
-0.999645, 127, 245, 142, 260
-0.999647, 265, 33, 328, 288
-0.999651, 263, 203, 278, 218
-0.999654, 273, 113, 288, 240
-0.999662, 173, 129, 188, 256
-0.999665, 303, 193, 318, 320
-0.999666, 219, 239, 234, 254
-0.999667, 179, 161, 194, 288
-0.999667, 445, 241, 460, 368
-0.99967, 473, 145, 488, 272
-0.99967, 139, 333, 154, 348
-0.999671, 335, 161, 350, 288
-0.999672, 325, 145, 340, 272
-0.999674, 209, 49, 224, 176
-0.999676, 485, 241, 500, 368
-0.999679, 247, 145, 262, 272
-0.999679, 197, 49, 212, 176
-0.999681, 169, 209, 184, 336
-0.999685, 315, 241, 330, 368
-0.999689, 297, 97, 312, 224
-0.999695, 41, 225, 104, 288
-0.999711, 217, 49, 248, 176
-0.999712, 141, 177, 156, 304
-0.999723, 253, 241, 268, 368
-0.999726, 309, 113, 324, 240
-0.999728, 483, 145, 498, 272
-0.99973, 425, 257, 456, 320
-0.999731, 107, 241, 122, 368
-0.999734, 319, 145, 334, 272
-0.999739, 233, 97, 248, 224
-0.999739, 85, 241, 100, 368
-0.999741, 191, 177, 206, 304
-0.999743, 113, 193, 128, 320
-0.999746, 203, 49, 218, 176
-0.999748, 185, 161, 200, 288
-0.999754, 95, 241, 110, 368
-0.999762, 203, 193, 218, 320
-0.999763, 71, 241, 86, 368
-0.999763, 267, 129, 282, 256
-0.999767, 257, 145, 288, 208
-0.999767, 441, 241, 472, 304
-0.999768, 25, 113, 88, 240
-0.999776, 61, 241, 76, 368
-0.999778, 191, 49, 206, 176
-0.999779, 1, 113, 500, 176
-0.999789, 135, 177, 150, 304
-0.99979, 79, 241, 94, 368
-0.999797, 181, 113, 196, 240
-0.999807, 101, 241, 116, 368
-0.999808, 53, 241, 68, 368
-0.999809, 303, 97, 318, 224
-0.999817, 3, 241, 18, 368
-0.999824, 451, 193, 466, 320
-0.999829, 261, 129, 276, 256
-0.999835, 197, 193, 212, 320
-0.999835, 279, 97, 294, 224
-0.999842, 277, 33, 308, 288
-0.999844, 457, 161, 472, 288
-0.999845, 337, 209, 352, 336
-0.999848, 183, 49, 198, 176
-0.999851, 361, 241, 376, 368
-0.999853, 37, 241, 52, 368
-0.999861, 145, 333, 272, 364
-0.999862, 375, 225, 390, 352
-0.999864, 113, 93, 240, 124
-0.999866, 47, 241, 62, 368
-0.999866, 369, 241, 384, 368
-0.999867, 439, 209, 454, 336
-0.999869, 355, 241, 370, 368
-0.999869, 467, 129, 482, 256
-0.999878, 161, 97, 176, 224
-0.999882, 347, 225, 362, 352
-0.999887, 381, 241, 396, 368
-0.999895, 17, 241, 32, 368
-0.999903, 65, 165, 192, 196
-0.99991, 1, 133, 128, 164
-0.999911, 1, 153, 500, 216
-0.999912, 149, 129, 164, 256
-0.999913, 399, 241, 414, 368
-0.999915, 387, 241, 402, 368
-0.999916, 245, 33, 276, 288
-0.999917, 265, 33, 296, 288
-0.999919, 241, 113, 256, 240
-0.99992, 23, 241, 38, 368
-1.00003, 289, 33, 320, 288
-1.00006, 49, 197, 176, 228
-1.00006, 169, 97, 200, 160
-1.0001, 189, 1, 220, 256
-1.0001, 45, 241, 76, 368
-1.0001, 105, 129, 136, 375
-1.00011, 313, 113, 376, 240
-1.0002, 49, 149, 176, 180
-1.0002, 1, 305, 32, 368
-1.00021, 161, 301, 288, 332
-1.00023, 453, 129, 484, 375
-1.00023, 225, 141, 352, 172
-1.00024, 193, 225, 224, 288
-1.00027, 369, 313, 496, 344
-1.00028, 1, 177, 500, 240
-1.00028, 209, 73, 272, 136
-1.00031, 1, 121, 128, 152
-1.00031, 73, 1, 136, 375
-1.00032, 245, 281, 276, 344
-1.00036, 305, 145, 432, 208
-1.00037, 129, 65, 256, 128
-1.00041, 1, 145, 128, 176
-1.00041, 361, 225, 392, 352
-1.00041, 289, 81, 416, 208
-1.00042, 257, 129, 500, 192
-1.00048, 177, 89, 304, 120
-1.00048, 361, 257, 424, 320
-1.0005, 177, 1, 208, 256
-1.0005, 1, 105, 64, 168
-1.0005, 441, 129, 472, 375
-1.00053, 297, 33, 360, 288
-1.00054, 1, 205, 128, 236
-1.00054, 233, 33, 264, 288
-1.00055, 93, 129, 124, 375
-1.00056, 317, 177, 348, 240
-1.00056, 369, 345, 496, 375
-1.00058, 137, 33, 168, 288
-1.00058, 153, 33, 184, 288
-1.00058, 1, 193, 128, 224
-1.00059, 97, 289, 128, 352
-1.00059, 1, 109, 128, 140
-1.0006, 177, 321, 304, 352
-1.0006, 253, 177, 284, 240
-1.00062, 301, 217, 332, 280
-1.00062, 225, 105, 480, 168
-1.00065, 65, 105, 192, 136
-1.00066, 333, 129, 364, 375
-1.00067, 449, 185, 480, 248
-1.00068, 1, 157, 128, 188
-1.00069, 273, 101, 400, 132
-1.00069, 17, 177, 144, 208
-1.0007, 353, 333, 480, 364
-1.0007, 369, 185, 496, 216
-1.00071, 177, 345, 304, 375
-1.00073, 425, 209, 456, 336
-1.00075, 253, 233, 284, 296
-1.00076, 345, 241, 376, 368
-1.00078, 1, 137, 64, 200
-1.00078, 145, 57, 272, 88
-1.00079, 5, 129, 36, 375
-1.00079, 1, 217, 128, 248
-1.0008, 81, 129, 112, 375
-1.0008, 65, 61, 192, 92
-1.0008, 1, 89, 128, 152
-1.0008, 81, 25, 208, 56
-1.00081, 241, 129, 368, 160
-1.00081, 1, 97, 128, 128
-1.00082, 233, 305, 296, 368
-1.00082, 129, 69, 256, 100
-1.00083, 49, 9, 176, 40
-1.00083, 65, 77, 192, 108
-1.00084, 373, 241, 404, 368
-1.00084, 469, 33, 500, 288
-1.00084, 317, 33, 348, 288
-1.00084, 129, 81, 256, 112
-1.00084, 33, 129, 96, 192
-1.00085, 337, 89, 464, 120
-1.00085, 337, 105, 464, 136
-1.00085, 289, 133, 416, 164
-1.00086, 241, 89, 368, 120
-1.00086, 53, 97, 84, 352
-1.00087, 161, 25, 288, 56
-1.00088, 225, 113, 352, 144
-1.00088, 145, 45, 272, 76
-1.00088, 305, 173, 432, 204
-1.00089, 89, 145, 152, 272
-1.00093, 73, 289, 104, 352
-1.00094, 1, 161, 128, 224
-1.00094, 41, 97, 72, 352
-1.00096, 1, 1, 64, 375
-1.00097, 65, 89, 192, 152
-1.00098, 301, 1, 332, 256
-1.001, 329, 1, 392, 375
-1.00104, 369, 161, 496, 224
-1.00106, 65, 97, 96, 352
-1.00109, 1, 33, 32, 288
-1.00109, 33, 65, 288, 128
-1.0011, 73, 1, 104, 256
-1.00112, 429, 129, 460, 375
-1.00114, 9, 177, 72, 304
-1.00114, 61, 1, 92, 256
-1.00116, 385, 241, 416, 368
-1.00121, 253, 241, 284, 368
-1.00124, 353, 233, 416, 296
-1.00124, 97, 33, 128, 288
-1.00125, 273, 89, 400, 152
-1.00125, 85, 33, 116, 288
-1.00128, 125, 33, 156, 288
-1.00128, 29, 129, 60, 375
-1.00129, 241, 97, 272, 224
-1.0013, 349, 129, 380, 375
-1.00131, 373, 129, 404, 375
-1.00133, 325, 257, 356, 320
-1.00133, 417, 129, 448, 375
-1.00134, 401, 129, 432, 375
-1.00134, 129, 57, 384, 120
-1.00135, 45, 1, 76, 256
-1.00138, 13, 1, 44, 256
-1.00139, 281, 209, 312, 272
-1.00139, 361, 129, 392, 375
-1.00139, 113, 33, 144, 288
-1.0014, 33, 1, 64, 256
-1.00141, 17, 97, 48, 352
-1.00141, 221, 81, 252, 144
-1.00142, 433, 289, 464, 352
-1.00142, 389, 129, 420, 375
-1.00143, 269, 129, 300, 192
-1.00143, 445, 33, 476, 288
-1.00144, 457, 33, 488, 288
-1.00146, 1, 9, 256, 72
-1.00147, 149, 241, 180, 304
-1.00149, 17, 241, 48, 368
-1.0015, 145, 177, 176, 240
-1.0015, 157, 97, 188, 224
-1.00154, 269, 225, 300, 288
-1.00155, 1, 41, 256, 104
-1.0016, 93, 177, 124, 304
-1.00163, 173, 169, 204, 232
-1.00165, 433, 145, 496, 272
-1.00165, 337, 33, 368, 288
-1.00166, 129, 33, 384, 96
-1.00174, 113, 33, 176, 288
-1.00175, 1, 65, 128, 192
-1.00176, 393, 33, 424, 288
-1.00176, 369, 33, 400, 288
-1.0018, 413, 33, 444, 288
-1.00181, 129, 9, 384, 72
-1.00182, 381, 33, 412, 288
-1.00183, 357, 33, 388, 288
-1.00187, 425, 1, 456, 256
-1.0019, 17, 289, 80, 352
-1.00191, 369, 1, 432, 375
-1.00193, 257, 241, 320, 368
-1.00193, 5, 161, 36, 288
-1.00196, 145, 41, 272, 104
-1.00197, 41, 1, 104, 375
-1.00198, 337, 105, 464, 168
-1.00199, 61, 177, 92, 304
-1.002, 257, 57, 500, 120
-1.002, 137, 241, 200, 304
-1.00201, 285, 193, 316, 320
-1.00202, 9, 249, 72, 312
-1.00204, 49, 129, 112, 256
-1.00206, 257, 1, 500, 64
-1.00206, 225, 33, 480, 96
-1.00207, 385, 193, 416, 320
-1.00212, 25, 129, 56, 256
-1.00213, 49, 1, 176, 64
-1.00215, 289, 65, 416, 128
-1.00219, 65, 49, 192, 112
-1.00219, 369, 81, 496, 144
-1.00222, 397, 241, 428, 368
-1.00223, 393, 1, 456, 375
-1.00224, 385, 193, 448, 320
-1.00224, 49, 177, 80, 304
-1.00225, 113, 17, 240, 80
-1.00225, 137, 113, 168, 240
-1.00228, 1, 185, 32, 248
-1.0023, 1, 89, 500, 152
-1.00233, 1, 1, 128, 64
-1.00233, 145, 33, 272, 160
-1.00236, 241, 57, 368, 120
-1.00239, 161, 1, 288, 64
-1.00245, 113, 145, 144, 272
-1.00256, 337, 57, 464, 120
-1.00258, 49, 113, 80, 240
-1.00259, 193, 33, 320, 96
-1.0026, 233, 313, 264, 375
-1.00263, 401, 129, 464, 375
-1.00264, 1, 185, 64, 248
-1.00265, 1, 65, 128, 128
-1.00268, 165, 225, 196, 352
-1.00271, 1, 25, 128, 88
-1.00272, 141, 137, 172, 200
-1.00272, 49, 25, 176, 88
-1.00273, 209, 305, 272, 368
-1.00274, 369, 129, 496, 192
-1.00275, 37, 129, 68, 256
-1.00281, 1, 209, 32, 272
-1.00283, 305, 33, 432, 96
-1.00283, 101, 209, 132, 272
-1.00285, 209, 1, 336, 64
-1.00288, 241, 25, 368, 88
-1.00288, 353, 33, 480, 96
-1.00289, 393, 257, 424, 320
-1.00289, 441, 209, 472, 272
-1.00291, 273, 1, 400, 64
-1.00291, 321, 9, 448, 72
-1.00291, 369, 9, 496, 72
-1.00294, 373, 193, 404, 320
-1.00301, 1, 57, 500, 120
-1.00302, 345, 193, 376, 320
-1.00307, 33, 97, 96, 352
-1.00309, 145, 33, 208, 160
-1.00314, 181, 65, 212, 192
-1.00314, 273, 193, 304, 320
-1.00315, 33, 177, 64, 304
-1.0032, 85, 281, 116, 344
-1.00321, 1, 25, 500, 88
-1.00326, 1, 97, 32, 224
-1.00327, 385, 273, 448, 336
-1.00334, 61, 129, 92, 256
-1.00334, 397, 193, 428, 320
-1.00337, 13, 113, 44, 240
-1.00339, 433, 161, 496, 224
-1.00341, 1, 1, 500, 64
-1.00341, 29, 145, 60, 208
-1.00346, 293, 81, 324, 208
-1.00347, 57, 289, 88, 352
-1.00347, 237, 185, 268, 248
-1.00348, 57, 113, 120, 176
-1.00357, 33, 249, 96, 312
-1.0036, 321, 1, 448, 256
-1.00363, 281, 233, 312, 296
-1.00364, 41, 193, 104, 256
-1.00368, 377, 217, 440, 280
-1.00371, 409, 241, 440, 368
-1.00374, 45, 225, 76, 288
-1.00374, 313, 153, 344, 216
-1.00381, 369, 233, 400, 296
-1.00383, 193, 57, 320, 120
-1.00383, 457, 129, 488, 256
-1.00384, 309, 97, 340, 224
-1.00388, 381, 257, 412, 320
-1.00393, 185, 313, 248, 375
-1.00393, 353, 241, 384, 304
-1.00398, 25, 105, 88, 168
-1.00398, 77, 129, 108, 256
-1.00399, 65, 209, 128, 272
-1.004, 57, 129, 120, 375
-1.00402, 1, 129, 64, 375
-1.00408, 73, 177, 104, 304
-1.0041, 33, 1, 288, 128
-1.00416, 289, 113, 352, 176
-1.00422, 89, 121, 152, 184
-1.00422, 1, 81, 64, 208
-1.00433, 409, 193, 440, 320
-1.00438, 205, 33, 236, 160
-1.00442, 353, 281, 416, 344
-1.00444, 129, 1, 384, 128
-1.00446, 269, 81, 300, 208
-1.00449, 89, 129, 120, 256
-1.00451, 29, 81, 60, 208
-1.00465, 17, 177, 48, 304
-1.00467, 361, 177, 392, 304
-1.00474, 353, 313, 416, 375
-1.00483, 145, 305, 208, 368
-1.00493, 57, 137, 120, 200
-1.00509, 65, 185, 128, 248
-1.00511, 1, 161, 64, 224
-1.00513, 337, 129, 400, 375
-1.00522, 57, 1, 120, 256
-1.00531, 49, 49, 176, 176
-1.00539, 1, 33, 64, 288
-1.00548, 161, 273, 224, 336
-1.00548, 329, 281, 392, 344
-1.0055, 445, 129, 476, 256
-1.0055, 25, 153, 88, 216
-1.00559, 353, 209, 416, 272
-1.00562, 377, 313, 440, 375
-1.00573, 61, 81, 92, 208
-1.00579, 321, 161, 384, 224
-1.00581, 125, 113, 156, 240
-1.00592, 81, 145, 144, 208
-1.00593, 73, 81, 104, 208
-1.00599, 105, 97, 136, 224
-1.00603, 169, 33, 200, 160
-1.00609, 265, 113, 328, 176
-1.00615, 145, 65, 176, 192
-1.00616, 73, 97, 136, 224
-1.00617, 181, 17, 212, 144
-1.00619, 377, 193, 440, 256
-1.0062, 177, 65, 240, 128
-1.00623, 81, 33, 144, 288
-1.00631, 13, 65, 44, 192
-1.00631, 49, 49, 80, 176
-1.00645, 1, 81, 64, 144
-1.00646, 49, 81, 112, 208
-1.00655, 333, 129, 364, 256
-1.00668, 321, 97, 352, 224
-1.00668, 97, 97, 160, 160
-1.00675, 1, 49, 32, 176
-1.00682, 85, 81, 116, 208
-1.00689, 377, 129, 440, 375
-1.00691, 89, 169, 152, 232
-1.00703, 329, 81, 392, 144
-1.00707, 421, 161, 452, 288
-1.00708, 433, 161, 464, 288
-1.0071, 233, 49, 264, 176
-1.00711, 121, 65, 152, 192
-1.0072, 181, 209, 212, 336
-1.00728, 241, 89, 304, 152
-1.00732, 49, 161, 112, 224
-1.00737, 25, 65, 88, 192
-1.00737, 305, 89, 368, 152
-1.00739, 113, 65, 176, 192
-1.00741, 337, 81, 464, 208
-1.00742, 97, 49, 128, 176
-1.00744, 281, 81, 344, 144
-1.0075, 345, 145, 376, 272
-1.0077, 353, 169, 416, 232
-1.0077, 25, 1, 88, 256
-1.00772, 41, 81, 104, 144
-1.00773, 241, 33, 368, 160
-1.00773, 265, 241, 296, 368
-1.00776, 281, 241, 312, 368
-1.00779, 157, 49, 188, 176
-1.00784, 353, 89, 416, 152
-1.00784, 109, 49, 140, 176
-1.0079, 377, 145, 408, 272
-1.00794, 257, 65, 288, 192
-1.00795, 65, 89, 128, 152
-1.00798, 257, 209, 320, 272
-1.008, 201, 17, 264, 144
-1.00803, 397, 145, 428, 272
-1.00804, 393, 169, 456, 232
-1.00806, 321, 137, 384, 200
-1.00808, 37, 33, 68, 160
-1.00827, 389, 97, 420, 224
-1.00829, 33, 1, 160, 128
-1.00855, 369, 33, 496, 160
-1.00931, 257, 1, 500, 128
-1.00934, 321, 33, 384, 288
-1.00943, 289, 17, 416, 144
-1.00983, 1, 33, 64, 160
-1.00987, 73, 49, 136, 176
-1.00994, 385, 33, 448, 288
-1.00996, 345, 33, 408, 288
-1.01012, 377, 145, 440, 272
-1.01017, 169, 17, 232, 144
-1.01026, 225, 33, 480, 288
-1.01041, 345, 145, 408, 272
-1.01109, 265, 49, 328, 176
-1.01173, 337, 49, 400, 176
-1.01177, 81, 1, 208, 128
-1.0119, 417, 1, 480, 256
-1.01205, 353, 97, 416, 224
-1.01217, 49, 33, 112, 160
-1.01264, 233, 49, 296, 176
-1.01267, 121, 1, 184, 128
-1.01305, 377, 97, 440, 224
-1.01322, 385, 49, 448, 176
-1.01325, 313, 17, 376, 144
-1.01333, 289, 49, 352, 176
-1.01354, 25, 1, 88, 128
-1.0137, 289, 1, 352, 128
-1.01374, 361, 49, 424, 176
-1.01383, 193, 1, 320, 128
-1.01409, 361, 1, 424, 128
-1.01439, 81, 1, 144, 128
-1.01439, 257, 1, 320, 128
-1.01439, 337, 1, 400, 128
-1.01442, 409, 65, 472, 192
-1.01452, 385, 1, 448, 128
-1.01467, 313, 65, 376, 192
-1.01474, 233, 1, 296, 128
-1.01478, 433, 1, 496, 128
-1.01478, 409, 17, 472, 144
-1.01478, 433, 49, 496, 176
-1.01563, 433, 97, 496, 224
-1.01655, 401, 113, 464, 240
