2081
-0.275905, 1, 1, 500, 465
-0.365361, 225, 1, 480, 465
-0.368941, 1, 1, 500, 256
-0.397683, 97, 1, 352, 465
-0.46812, 1, 225, 500, 465
-0.472704, 1, 97, 500, 352
-0.479263, 1, 1, 256, 465
-0.534261, 257, 33, 500, 288
-0.620604, 225, 193, 480, 448
-0.64797, 97, 129, 352, 384
-0.648995, 129, 1, 384, 256
-0.669555, 1, 1, 256, 256
-0.691029, 1, 193, 256, 448
-0.7183, 129, 225, 384, 465
-0.839262, 1, 97, 256, 352
-0.841104, 161, 1, 288, 465
-0.856154, 113, 1, 240, 465
-0.857096, 241, 1, 368, 465
-0.857762, 321, 1, 448, 465
-0.864897, 321, 1, 448, 256
-0.865449, 65, 1, 192, 256
-0.868329, 257, 1, 384, 256
-0.876856, 81, 161, 208, 416
-0.879229, 1, 337, 500, 464
-0.883896, 49, 1, 176, 465
-0.886313, 1, 193, 128, 448
-0.88644, 1, 1, 500, 128
-0.887677, 161, 97, 288, 352
-0.889432, 241, 193, 368, 448
-0.890579, 1, 1, 128, 465
-0.891072, 1, 289, 500, 416
-0.896106, 161, 1, 288, 256
-0.89724, 369, 1, 496, 465
-0.897443, 17, 1, 144, 256
-0.897817, 1, 49, 500, 176
-0.900689, 193, 225, 320, 465
-0.902758, 1, 161, 500, 288
-0.904364, 337, 225, 464, 465
-0.905755, 1, 113, 500, 240
-0.906058, 257, 97, 384, 352
-0.908982, 113, 1, 240, 256
-0.912339, 1, 225, 500, 352
-0.915837, 321, 97, 448, 352
-0.917056, 225, 17, 480, 144
-0.917332, 257, 241, 500, 368
-0.918864, 129, 273, 384, 400
-0.919265, 1, 1, 256, 128
-0.921259, 129, 225, 256, 465
-0.922232, 129, 161, 384, 288
-0.922866, 129, 33, 384, 160
-0.923329, 257, 129, 500, 256
-0.924959, 369, 33, 496, 288
-0.926149, 225, 81, 480, 208
-0.92803, 257, 193, 500, 320
-0.930954, 289, 225, 416, 465
-0.93126, 257, 289, 500, 416
-0.93149, 97, 321, 352, 448
-0.932158, 1, 97, 128, 352
-0.932471, 97, 225, 352, 352
-0.932811, 257, 337, 500, 464
-0.933751, 209, 33, 336, 288
-0.933927, 137, 321, 200, 448
-0.934908, 97, 113, 352, 240
-0.93507, 1, 193, 256, 320
-0.936371, 137, 273, 200, 400
-0.93741, 113, 289, 240, 416
-0.937486, 81, 1, 208, 128
-0.938499, 97, 337, 224, 464
-0.93993, 1, 321, 256, 448
-0.941214, 121, 1, 184, 128
-0.942147, 161, 273, 288, 400
-0.942236, 177, 273, 240, 400
-0.9443, 81, 177, 208, 304
-0.945245, 161, 1, 288, 128
-0.945345, 169, 1, 232, 128
-0.945453, 1, 273, 256, 400
-0.946927, 369, 129, 496, 384
-0.947104, 89, 1, 152, 128
-0.947626, 49, 337, 176, 464
-0.947687, 257, 321, 384, 448
-0.948408, 105, 337, 168, 464
-0.948679, 65, 177, 128, 304
-0.948975, 33, 193, 160, 320
-0.948975, 241, 241, 368, 368
-0.949267, 65, 1, 128, 128
-0.949339, 81, 337, 144, 464
-0.950985, 193, 337, 320, 464
-0.95122, 337, 305, 464, 432
-0.951242, 105, 289, 168, 416
-0.951776, 81, 241, 208, 368
-0.9519, 17, 1, 144, 128
-0.951961, 385, 305, 448, 432
-0.952437, 81, 129, 208, 256
-0.952862, 137, 345, 200, 408
-0.952881, 89, 345, 152, 408
-0.95349, 105, 369, 168, 432
-0.953588, 145, 273, 208, 336
-0.954267, 257, 17, 384, 144
-0.954546, 145, 337, 272, 464
-0.954552, 1, 81, 256, 208
-0.954849, 337, 257, 464, 384
-0.955264, 161, 337, 224, 464
-0.95589, 49, 289, 176, 416
-0.956022, 9, 1, 72, 128
-0.956385, 321, 17, 448, 144
-0.956958, 153, 369, 216, 432
-0.957509, 161, 193, 288, 320
-0.957639, 65, 361, 128, 424
-0.957641, 41, 193, 104, 320
-0.958017, 65, 185, 128, 248
-0.958047, 353, 17, 416, 144
-0.958532, 137, 225, 200, 352
-0.95859, 1, 289, 128, 416
-0.958672, 217, 273, 280, 400
-0.959085, 145, 49, 272, 176
-0.959586, 321, 401, 384, 464
-0.960028, 81, 49, 208, 176
-0.960258, 385, 49, 448, 176
-0.96031, 241, 273, 304, 400
-0.96051, 257, 49, 320, 176
-0.961208, 161, 129, 288, 256
-0.961384, 209, 289, 336, 416
-0.961616, 33, 1, 96, 128
-0.961813, 353, 369, 416, 432
-0.962562, 337, 65, 464, 192
-0.962581, 1, 129, 256, 256
-0.962885, 241, 145, 368, 272
-0.962978, 145, 1, 208, 128
-0.963083, 329, 369, 392, 432
-0.96338, 241, 97, 368, 224
-0.963468, 361, 337, 424, 464
-0.963513, 369, 393, 432, 456
-0.963794, 185, 377, 248, 440
-0.964328, 241, 193, 368, 320
-0.964484, 169, 345, 232, 408
-0.964768, 289, 17, 352, 144
-0.964945, 337, 289, 400, 416
-0.965085, 249, 225, 312, 352
-0.965241, 337, 129, 464, 256
-0.965649, 73, 289, 136, 416
-0.966124, 129, 321, 192, 384
-0.966533, 161, 297, 224, 360
-0.966646, 337, 177, 464, 304
-0.966688, 1, 337, 128, 464
-0.967021, 305, 321, 368, 448
-0.967056, 201, 337, 264, 464
-0.96742, 377, 369, 440, 432
-0.96777, 65, 129, 128, 256
-0.967814, 49, 321, 112, 448
-0.968075, 201, 1, 264, 128
-0.968082, 193, 281, 256, 344
-0.968515, 129, 249, 192, 312
-0.968697, 289, 401, 352, 464
-0.968778, 105, 297, 168, 360
-0.968803, 393, 305, 456, 368
-0.969237, 241, 337, 304, 464
-0.969247, 129, 65, 192, 192
-0.969396, 113, 345, 176, 408
-0.969436, 129, 369, 192, 432
-0.969519, 385, 337, 448, 400
-0.969746, 209, 385, 272, 448
-0.969797, 169, 321, 232, 384
-0.970114, 169, 401, 232, 464
-0.970183, 193, 49, 320, 176
-0.970238, 25, 289, 88, 416
-0.970348, 417, 1, 480, 128
-0.970453, 41, 361, 104, 424
-0.970665, 281, 257, 344, 384
-0.970703, 97, 353, 224, 416
-0.970739, 225, 81, 288, 208
-0.970976, 133, 289, 164, 416
-0.971078, 89, 177, 152, 304
-0.971122, 225, 1, 288, 128
-0.97131, 129, 393, 192, 456
-0.971493, 89, 49, 152, 176
-0.971565, 281, 321, 344, 448
-0.971567, 401, 361, 464, 424
-0.971575, 161, 49, 224, 176
-0.971722, 217, 225, 280, 352
-0.972106, 305, 401, 432, 464
-0.972119, 165, 337, 196, 464
-0.972158, 417, 337, 480, 464
-0.972228, 265, 401, 328, 464
-0.972615, 65, 385, 128, 448
-0.972635, 177, 289, 304, 352
-0.972642, 1, 145, 128, 272
-0.972677, 185, 289, 216, 416
-0.972714, 129, 225, 192, 465
-0.972997, 65, 337, 128, 400
-0.973, 289, 273, 416, 400
-0.973016, 345, 401, 408, 464
-0.973079, 281, 33, 344, 96
-0.973107, 25, 337, 88, 464
-0.973218, 121, 1, 184, 256
-0.97331, 233, 377, 296, 440
-0.97332, 97, 273, 160, 336
-0.973404, 233, 281, 296, 344
-0.973842, 121, 273, 184, 336
-0.973933, 313, 241, 376, 368
-0.973959, 193, 353, 256, 416
-0.974065, 137, 361, 168, 424
-0.974065, 129, 9, 192, 72
-0.974087, 385, 49, 448, 112
-0.974215, 173, 273, 204, 400
-0.974547, 265, 57, 328, 120
-0.974628, 117, 337, 148, 464
-0.974647, 313, 1, 376, 128
-0.974832, 353, 25, 416, 88
-0.974894, 169, 9, 232, 72
-0.974934, 337, 337, 400, 464
-0.975061, 129, 81, 192, 144
-0.975078, 257, 129, 320, 256
-0.975221, 161, 225, 224, 352
-0.975268, 417, 33, 480, 96
-0.975518, 57, 185, 88, 248
-0.975526, 257, 177, 320, 304
-0.975564, 153, 321, 184, 448
-0.97558, 65, 193, 192, 256
-0.975617, 97, 241, 160, 368
-0.975623, 49, 369, 176, 432
-0.975704, 1, 241, 64, 304
-0.97571, 9, 361, 72, 424
-0.975718, 97, 345, 128, 408
-0.975823, 393, 257, 456, 384
-0.975846, 17, 345, 144, 408
-0.975959, 97, 273, 224, 336
-0.976138, 289, 25, 416, 88
-0.976218, 197, 289, 228, 352
-0.976224, 17, 145, 80, 272
-0.976307, 321, 305, 384, 368
-0.976386, 89, 393, 152, 456
-0.976499, 169, 369, 200, 432
-0.976622, 93, 1, 124, 128
-0.976637, 305, 377, 368, 440
-0.976724, 353, 1, 416, 256
-0.976753, 149, 1, 180, 128
-0.976817, 329, 1, 392, 64
-0.976879, 109, 1, 140, 128
-0.976885, 297, 305, 360, 368
-0.976961, 425, 329, 488, 392
-0.976989, 121, 345, 152, 408
-0.97718, 69, 177, 100, 304
-0.977256, 33, 81, 160, 208
-0.977264, 77, 1, 108, 128
-0.977387, 57, 1, 120, 256
-0.977536, 81, 1, 144, 256
-0.977574, 337, 369, 464, 432
-0.977591, 1, 305, 64, 432
-0.977732, 225, 97, 288, 160
-0.977738, 425, 49, 488, 176
-0.977752, 85, 353, 116, 416
-0.977803, 49, 9, 112, 72
-0.977925, 145, 345, 272, 408
-0.977929, 361, 329, 424, 392
-0.978001, 97, 329, 224, 392
-0.978046, 209, 1, 336, 128
-0.978105, 57, 177, 88, 304
-0.978159, 117, 369, 148, 432
-0.978179, 337, 329, 400, 392
-0.978272, 169, 273, 232, 336
-0.978286, 393, 1, 456, 128
-0.978292, 153, 225, 216, 465
-0.978364, 289, 1, 352, 256
-0.978398, 337, 305, 464, 368
-0.978399, 57, 273, 120, 336
-0.978427, 185, 313, 216, 376
-0.97845, 33, 241, 160, 368
-0.978451, 177, 273, 208, 336
-0.978489, 181, 353, 212, 416
-0.978492, 25, 9, 88, 72
-0.978553, 97, 185, 128, 248
-0.978656, 41, 185, 104, 248
-0.978714, 401, 9, 464, 72
-0.978749, 305, 17, 368, 80
-0.978786, 217, 345, 280, 408
-0.978863, 105, 73, 168, 136
-0.978885, 257, 177, 320, 240
-0.978904, 121, 113, 184, 240
-0.978948, 385, 113, 448, 240
-0.978983, 129, 297, 192, 360
-0.978999, 241, 305, 304, 368
-0.979063, 169, 1, 200, 128
-0.97907, 89, 9, 152, 72
-0.97911, 57, 1, 88, 128
-0.979245, 225, 145, 288, 272
-0.979248, 97, 177, 128, 304
-0.979253, 141, 273, 172, 336
-0.979299, 425, 89, 488, 152
-0.979308, 181, 337, 212, 464
-0.979313, 153, 337, 184, 400
-0.979354, 169, 1, 232, 465
-0.979394, 385, 33, 448, 288
-0.979407, 393, 393, 456, 456
-0.979435, 257, 137, 320, 200
-0.979496, 53, 361, 84, 424
-0.979577, 385, 73, 448, 136
-0.979579, 113, 377, 240, 440
-0.979624, 33, 209, 96, 272
-0.979645, 217, 305, 280, 368
-0.97971, 1, 9, 64, 72
-0.979749, 125, 1, 156, 128
-0.979793, 81, 177, 112, 304
-0.979878, 161, 257, 192, 384
-0.980061, 257, 377, 320, 440
-0.980088, 137, 297, 168, 360
-0.980095, 165, 345, 196, 408
-0.980212, 33, 1, 96, 256
-0.980256, 177, 313, 304, 376
-0.980267, 49, 81, 112, 144
-0.980273, 345, 305, 408, 368
-0.980292, 17, 81, 80, 144
-0.9803, 233, 401, 296, 464
-0.980437, 389, 377, 420, 440
-0.980461, 193, 305, 256, 368
-0.980499, 321, 225, 384, 288
-0.980612, 241, 265, 368, 328
-0.980618, 97, 297, 224, 360
-0.980619, 185, 377, 216, 440
-0.980641, 89, 225, 152, 465
-0.980725, 265, 1, 328, 256
-0.980735, 69, 185, 100, 248
-0.980746, 257, 97, 320, 160
-0.980749, 257, 201, 320, 264
-0.980784, 417, 313, 448, 376
-0.980819, 425, 289, 488, 416
-0.980861, 337, 401, 368, 464
-0.980885, 425, 57, 488, 120
-0.980885, 225, 73, 288, 136
-0.980953, 257, 225, 384, 288
-0.980994, 129, 337, 160, 464
-0.981024, 129, 225, 192, 288
-0.981139, 193, 385, 320, 448
-0.981144, 197, 289, 228, 416
-0.981261, 169, 249, 232, 312
-0.981335, 1, 1, 64, 256
-0.981339, 81, 185, 112, 248
-0.981346, 257, 377, 384, 440
-0.981378, 257, 401, 384, 464
-0.981394, 413, 49, 444, 176
-0.981412, 173, 297, 204, 360
-0.981419, 49, 193, 112, 448
-0.981422, 13, 1, 44, 128
-0.981477, 177, 249, 304, 312
-0.981531, 361, 369, 392, 432
-0.981547, 393, 209, 456, 336
-0.981579, 241, 201, 368, 264
-0.981614, 157, 393, 188, 456
-0.981616, 337, 201, 464, 264
-0.981638, 65, 81, 192, 144
-0.98172, 81, 169, 208, 232
-0.981723, 73, 209, 136, 272
-0.981725, 37, 1, 68, 128
-0.981729, 129, 177, 192, 304
-0.981746, 121, 289, 152, 416
-0.981769, 337, 345, 464, 408
-0.981777, 105, 369, 136, 432
-0.98184, 77, 337, 108, 464
-0.981881, 337, 265, 464, 328
-0.981966, 289, 129, 416, 256
-0.982014, 197, 1, 228, 128
-0.982031, 137, 1, 168, 128
-0.982045, 385, 241, 448, 304
-0.982071, 197, 377, 228, 440
-0.982088, 93, 377, 124, 440
-0.982124, 25, 337, 88, 400
-0.98215, 101, 337, 132, 464
-0.982156, 169, 33, 232, 96
-0.9823, 249, 289, 280, 416
-0.982306, 369, 1, 496, 128
-0.982307, 81, 9, 208, 72
-0.982428, 269, 49, 300, 176
-0.982443, 353, 241, 416, 368
-0.98245, 81, 57, 208, 120
-0.982548, 425, 353, 488, 416
-0.982557, 321, 81, 384, 208
-0.982567, 257, 241, 320, 304
-0.982583, 41, 129, 104, 256
-0.982591, 225, 289, 352, 352
-0.982596, 81, 401, 208, 464
-0.98262, 241, 17, 304, 80
-0.98262, 81, 73, 144, 136
-0.982635, 373, 361, 404, 424
-0.982643, 161, 97, 224, 224
-0.982648, 145, 9, 272, 72
-0.98265, 125, 281, 156, 344
-0.982663, 129, 57, 192, 120
-0.982751, 109, 345, 140, 408
-0.982779, 337, 225, 464, 288
-0.982818, 49, 65, 112, 192
-0.982905, 57, 337, 88, 464
-0.982917, 49, 273, 112, 400
-0.982953, 273, 297, 400, 360
-0.983058, 413, 305, 444, 432
-0.98306, 105, 249, 168, 312
-0.983072, 325, 393, 356, 456
-0.983146, 161, 73, 288, 136
-0.983209, 57, 161, 120, 224
-0.983236, 425, 97, 488, 224
-0.983251, 393, 161, 456, 224
-0.983277, 157, 257, 188, 320
-0.983281, 225, 249, 288, 312
-0.983288, 17, 185, 144, 248
-0.983299, 141, 337, 172, 464
-0.98332, 321, 281, 384, 344
-0.983405, 225, 121, 288, 184
-0.983408, 97, 249, 224, 312
-0.98343, 321, 177, 384, 240
-0.983507, 393, 161, 456, 288
-0.983526, 145, 401, 272, 464
-0.983546, 241, 137, 368, 200
-0.983615, 89, 185, 152, 248
-0.983632, 105, 321, 168, 384
-0.983676, 369, 337, 400, 464
-0.983695, 337, 65, 464, 128
-0.983707, 289, 225, 416, 352
-0.983734, 1, 1, 32, 128
-0.983779, 205, 337, 236, 464
-0.983845, 25, 1, 56, 128
-0.983876, 73, 361, 104, 424
-0.98388, 65, 225, 128, 352
-0.983917, 133, 337, 164, 400
-0.983924, 217, 377, 248, 440
-0.98393, 341, 377, 372, 440
-0.983935, 161, 41, 288, 104
-0.983936, 321, 193, 384, 320
-0.983994, 321, 177, 448, 240
-0.984066, 385, 201, 448, 264
-0.984125, 241, 385, 272, 448
-0.984129, 257, 65, 384, 128
-0.984162, 121, 105, 184, 168
-0.984225, 73, 385, 104, 448
-0.984252, 249, 193, 312, 448
-0.984263, 385, 1, 448, 465
-0.984276, 49, 273, 176, 336
-0.984295, 257, 265, 320, 328
-0.984307, 185, 225, 248, 352
-0.984332, 161, 113, 288, 176
-0.984339, 225, 401, 256, 464
-0.984341, 401, 33, 432, 160
-0.98438, 33, 9, 160, 72
-0.984392, 185, 1, 216, 128
-0.984397, 273, 313, 336, 376
-0.984407, 209, 193, 272, 448
-0.984479, 257, 1, 320, 465
-0.984534, 257, 177, 384, 240
-0.984555, 161, 217, 288, 280
-0.984589, 137, 401, 168, 464
-0.984665, 369, 17, 496, 80
-0.98468, 17, 193, 80, 320
-0.984719, 225, 41, 288, 104
-0.984727, 161, 137, 288, 200
-0.984734, 89, 305, 120, 432
-0.984742, 301, 401, 332, 464
-0.984766, 281, 209, 344, 336
-0.984778, 269, 57, 300, 120
-0.984814, 233, 1, 296, 465
-0.984837, 49, 217, 176, 280
-0.984843, 193, 9, 320, 72
-0.984857, 433, 329, 464, 392
-0.984878, 169, 1, 232, 256
-0.984883, 225, 177, 288, 240
-0.984911, 265, 273, 296, 400
-0.98492, 241, 97, 368, 160
-0.984934, 281, 377, 344, 440
-0.984948, 429, 337, 460, 464
-0.984972, 41, 401, 104, 464
-0.98501, 381, 17, 412, 144
-0.985028, 265, 1, 328, 128
-0.985037, 385, 105, 448, 168
-0.985043, 225, 209, 288, 272
-0.98505, 265, 337, 296, 464
-0.985059, 237, 289, 268, 416
-0.985108, 261, 281, 292, 344
-0.985108, 17, 177, 80, 240
-0.985172, 89, 97, 152, 224
-0.98518, 1, 257, 128, 320
-0.985186, 321, 129, 384, 256
-0.985191, 17, 193, 80, 448
-0.985203, 161, 177, 288, 240
-0.985211, 337, 89, 464, 152
-0.985235, 217, 273, 248, 400
-0.985251, 209, 1, 272, 64
-0.985278, 145, 273, 176, 400
-0.985373, 193, 337, 224, 464
-0.985385, 69, 129, 100, 256
-0.98542, 289, 281, 352, 344
-0.985426, 385, 265, 448, 328
-0.985446, 337, 137, 464, 200
-0.985464, 129, 145, 192, 208
-0.985524, 197, 313, 228, 376
-0.985529, 353, 1, 416, 64
-0.985541, 209, 1, 272, 465
-0.985552, 289, 321, 416, 384
-0.985567, 1, 81, 128, 144
-0.985573, 277, 321, 308, 448
-0.985619, 209, 1, 240, 128
-0.985677, 385, 193, 448, 448
-0.985704, 321, 1, 384, 256
-0.985706, 413, 369, 444, 432
-0.985711, 377, 1, 440, 64
-0.985744, 281, 41, 312, 104
-0.985785, 349, 321, 380, 448
-0.985822, 357, 393, 388, 456
-0.98584, 149, 361, 180, 424
-0.985878, 289, 33, 320, 160
-0.985907, 397, 353, 428, 416
-0.985955, 129, 33, 192, 96
-0.985974, 81, 145, 208, 208
-0.985976, 369, 305, 432, 368
-0.986004, 65, 1, 128, 465
-0.986008, 321, 249, 384, 312
-0.986034, 405, 41, 436, 104
-0.986042, 281, 1, 344, 465
-0.986063, 369, 401, 400, 464
-0.986069, 377, 25, 440, 88
-0.986089, 161, 177, 224, 304
-0.986102, 289, 177, 416, 304
-0.986109, 185, 225, 248, 465
-0.986242, 289, 81, 416, 208
-0.986296, 57, 129, 88, 256
-0.986319, 1, 217, 128, 280
-0.986388, 149, 9, 180, 72
-0.986425, 361, 1, 424, 465
-0.986428, 241, 321, 368, 384
-0.986516, 353, 393, 480, 456
-0.986533, 337, 321, 368, 448
-0.986574, 413, 337, 444, 400
-0.986586, 361, 289, 424, 416
-0.986669, 149, 225, 180, 352
-0.986787, 81, 105, 208, 168
-0.986874, 105, 1, 168, 465
-0.986898, 125, 65, 156, 128
-0.987007, 241, 41, 368, 104
-0.987008, 169, 9, 200, 72
-0.987162, 413, 1, 444, 128
-0.987194, 321, 1, 448, 64
-0.987218, 425, 241, 488, 368
-0.987247, 125, 305, 156, 368
-0.987251, 45, 177, 76, 304
-0.987254, 277, 385, 308, 448
-0.987362, 245, 337, 276, 464
-0.987432, 157, 313, 188, 376
-0.987445, 305, 225, 368, 465
-0.987503, 113, 73, 144, 136
-0.987522, 301, 25, 332, 88
-0.987572, 265, 225, 296, 352
-0.987586, 81, 129, 112, 256
-0.987623, 349, 305, 380, 368
-0.987638, 325, 289, 356, 416
-0.987638, 129, 1, 192, 465
-0.987656, 417, 57, 448, 120
-0.98775, 9, 49, 72, 176
-0.987779, 393, 305, 424, 432
-0.9878, 217, 1, 280, 256
-0.987807, 217, 281, 248, 344
-0.987852, 309, 17, 340, 144
-0.987938, 393, 33, 424, 96
-0.987943, 381, 337, 412, 464
-0.98795, 109, 9, 140, 72
-0.987967, 77, 9, 108, 72
-0.987969, 1, 241, 32, 304
-0.988037, 381, 401, 412, 464
-0.988043, 93, 129, 124, 256
-0.988124, 173, 321, 204, 384
-0.988138, 361, 17, 392, 144
-0.988159, 401, 393, 432, 456
-0.98817, 273, 1, 400, 64
-0.988189, 217, 337, 248, 464
-0.988245, 129, 129, 192, 384
-0.988263, 1, 241, 64, 368
-0.988289, 337, 41, 464, 104
-0.988333, 361, 81, 424, 208
-0.988333, 425, 145, 488, 272
-0.988352, 57, 9, 88, 72
-0.988553, 337, 113, 464, 176
-0.988593, 249, 17, 280, 144
-0.988599, 289, 161, 352, 288
-0.988654, 97, 369, 160, 400
-0.988688, 169, 393, 200, 456
-0.988689, 109, 65, 140, 192
-0.988709, 217, 225, 248, 352
-0.988772, 193, 345, 224, 408
-0.988774, 1, 321, 128, 384
-0.988803, 93, 65, 124, 192
-0.988853, 253, 377, 284, 440
-0.988883, 313, 25, 344, 88
-0.98891, 229, 289, 260, 352
-0.98902, 201, 241, 232, 368
-0.98903, 425, 353, 456, 416
-0.989032, 21, 241, 52, 304
-0.989084, 325, 1, 356, 128
-0.989094, 113, 273, 144, 336
-0.989096, 57, 81, 88, 144
-0.989113, 77, 73, 108, 136
-0.989121, 249, 241, 280, 368
-0.989123, 113, 193, 240, 256
-0.989166, 377, 397, 440, 428
-0.989185, 137, 365, 200, 396
-0.989226, 233, 345, 264, 408
-0.989237, 313, 257, 344, 384
-0.98924, 9, 361, 40, 424
-0.989247, 181, 401, 212, 464
-0.989291, 225, 97, 288, 352
-0.989304, 361, 289, 392, 416
-0.989315, 157, 233, 188, 296
-0.989332, 65, 97, 128, 352
-0.989339, 121, 393, 152, 456
-0.989347, 249, 281, 280, 344
-0.989358, 169, 129, 232, 384
-0.989382, 149, 73, 180, 136
-0.989391, 93, 81, 124, 144
-0.989391, 317, 305, 348, 368
-0.989397, 49, 297, 176, 360
-0.989434, 145, 1, 208, 256
-0.989477, 209, 305, 240, 368
-0.989482, 137, 9, 168, 72
-0.989514, 1, 369, 128, 432
-0.989526, 105, 129, 168, 384
-0.98956, 337, 401, 400, 432
-0.989573, 37, 9, 68, 72
-0.989587, 37, 289, 68, 416
-0.989598, 57, 189, 120, 220
-0.989618, 289, 401, 320, 464
-0.989621, 313, 405, 376, 436
-0.989624, 229, 377, 260, 440
-0.989638, 209, 65, 336, 128
-0.98966, 425, 33, 488, 288
-0.989691, 421, 289, 452, 352
-0.989702, 377, 25, 408, 88
-0.989714, 113, 81, 240, 144
-0.989757, 73, 361, 136, 392
-0.989758, 289, 409, 352, 440
-0.989767, 1, 289, 128, 352
-0.989772, 353, 373, 416, 404
-0.989816, 17, 1, 80, 465
-0.98983, 145, 269, 208, 300
-0.989836, 125, 9, 156, 72
-0.989849, 101, 289, 132, 416
-0.989853, 97, 273, 128, 336
-0.989865, 105, 285, 168, 316
-0.989923, 209, 361, 336, 424
-0.989933, 433, 17, 464, 144
-0.989965, 73, 373, 136, 404
-0.989996, 57, 209, 88, 272
-0.990013, 33, 393, 160, 456
-0.990021, 193, 289, 256, 320
-0.990029, 89, 349, 152, 380
-0.990053, 377, 385, 440, 416
-0.990066, 269, 81, 300, 144
-0.99007, 205, 9, 236, 72
-0.990091, 49, 361, 112, 392
-0.990096, 345, 353, 376, 416
-0.990099, 105, 381, 168, 412
-0.990125, 209, 377, 272, 408
-0.99013, 89, 9, 120, 72
-0.990145, 1, 73, 32, 136
-0.990145, 345, 225, 408, 465
-0.990152, 265, 409, 328, 440
-0.990159, 193, 301, 256, 332
-0.990206, 161, 309, 224, 340
-0.990212, 161, 325, 224, 356
-0.990237, 145, 249, 176, 312
-0.990266, 345, 257, 376, 384
-0.99027, 129, 377, 192, 408
-0.990325, 169, 361, 232, 392
-0.990394, 41, 373, 104, 404
-0.990412, 77, 65, 108, 192
-0.990454, 257, 97, 320, 352
-0.990472, 313, 417, 376, 448
-0.990506, 329, 381, 392, 412
-0.990508, 145, 297, 208, 328
-0.99053, 25, 9, 56, 72
-0.990552, 353, 385, 416, 416
-0.990597, 161, 385, 224, 416
-0.990601, 385, 357, 448, 388
-0.990604, 393, 321, 456, 352
-0.990607, 29, 361, 60, 424
-0.990611, 369, 305, 400, 368
-0.990622, 321, 97, 384, 352
-0.990671, 293, 337, 324, 464
-0.99068, 273, 421, 336, 452
-0.990695, 65, 201, 128, 232
-0.990698, 105, 297, 168, 328
-0.9907, 269, 1, 300, 128
-0.990703, 53, 225, 84, 352
-0.990721, 193, 405, 256, 436
-0.990721, 233, 337, 264, 464
-0.99073, 129, 285, 192, 316
-0.990731, 1, 57, 128, 120
-0.990736, 353, 129, 416, 256
-0.990737, 161, 413, 224, 444
-0.990752, 289, 353, 416, 416
-0.990753, 77, 289, 108, 416
-0.990756, 129, 341, 192, 372
-0.99076, 9, 9, 40, 72
-0.990769, 185, 377, 248, 408
-0.990778, 241, 377, 304, 408
-0.990788, 161, 345, 224, 376
-0.990807, 225, 417, 288, 448
-0.990864, 81, 33, 208, 96
-0.990874, 241, 305, 272, 368
-0.990893, 169, 49, 200, 176
-0.990893, 305, 313, 336, 376
-0.990912, 113, 357, 176, 388
-0.990917, 65, 389, 128, 420
-0.990924, 333, 1, 364, 64
-0.990942, 125, 257, 156, 320
-0.990944, 401, 313, 432, 376
-0.990949, 393, 369, 456, 400
-0.990955, 101, 209, 132, 272
-0.990957, 425, 193, 488, 320
-0.99098, 41, 81, 72, 144
-0.99098, 265, 177, 296, 240
-0.990986, 217, 301, 280, 332
-0.990986, 85, 273, 116, 336
-0.991063, 45, 185, 76, 248
-0.991065, 97, 281, 352, 344
-0.991096, 225, 289, 288, 320
-0.991107, 49, 281, 112, 312
-0.991112, 257, 49, 500, 112
-0.991117, 121, 85, 184, 116
-0.991122, 217, 353, 248, 416
-0.991123, 329, 305, 360, 368
-0.991139, 329, 433, 392, 464
-0.991145, 1, 241, 64, 272
-0.991153, 393, 341, 456, 372
-0.991156, 9, 365, 72, 396
-0.991157, 425, 129, 488, 384
-0.991159, 153, 285, 216, 316
-0.99116, 209, 177, 336, 240
-0.991183, 129, 417, 192, 448
-0.991189, 161, 281, 192, 344
-0.991196, 137, 353, 200, 384
-0.991197, 249, 89, 280, 152
-0.991227, 161, 373, 224, 404
-0.991229, 329, 321, 392, 352
-0.991236, 361, 425, 424, 456
-0.991238, 257, 201, 500, 264
-0.991246, 389, 321, 420, 384
-0.991247, 377, 289, 408, 416
-0.991249, 409, 1, 472, 465
-0.991278, 225, 265, 480, 328
-0.991286, 137, 329, 200, 360
-0.991288, 185, 337, 248, 368
-0.991288, 217, 405, 280, 436
-0.991295, 121, 309, 184, 340
-0.991319, 337, 413, 400, 444
-0.991332, 425, 289, 456, 416
-0.991349, 257, 241, 500, 304
-0.991362, 401, 385, 464, 416
-0.99138, 353, 29, 416, 60
-0.991383, 297, 29, 360, 60
-0.991389, 193, 393, 256, 424
-0.99139, 261, 257, 292, 320
-0.991404, 65, 301, 128, 332
-0.991427, 265, 129, 296, 192
-0.991429, 57, 289, 88, 416
-0.991436, 341, 81, 372, 208
-0.991492, 81, 289, 144, 320
-0.991495, 265, 161, 296, 288
-0.991498, 137, 397, 200, 428
-0.991516, 129, 233, 384, 296
-0.991534, 1, 253, 64, 284
-0.991558, 65, 177, 320, 240
-0.991558, 305, 393, 368, 424
-0.99157, 329, 21, 392, 52
-0.991575, 105, 397, 168, 428
-0.99158, 361, 409, 424, 440
-0.991583, 257, 253, 320, 284
-0.991586, 105, 273, 168, 304
-0.991587, 401, 33, 464, 64
-0.99159, 1, 161, 128, 224
-0.991595, 121, 97, 184, 128
-0.991599, 305, 1, 368, 465
-0.991599, 325, 241, 356, 368
-0.991618, 385, 21, 448, 52
-0.991621, 297, 313, 360, 344
-0.991621, 257, 137, 500, 200
-0.991628, 65, 349, 128, 380
-0.991629, 129, 253, 192, 284
-0.991632, 249, 293, 312, 324
-0.991637, 305, 329, 368, 360
-0.991659, 185, 241, 216, 368
-0.991673, 425, 65, 456, 192
-0.991678, 73, 425, 136, 456
-0.991699, 217, 365, 280, 396
-0.991712, 417, 61, 480, 92
-0.991713, 49, 241, 176, 304
-0.991717, 221, 1, 252, 128
-0.991737, 321, 253, 384, 284
-0.99174, 257, 25, 500, 88
-0.99175, 17, 85, 80, 116
-0.991767, 329, 9, 392, 40
-0.991779, 149, 49, 180, 176
-0.991781, 257, 189, 320, 220
-0.99181, 49, 85, 112, 116
-0.991815, 169, 13, 232, 44
-0.991828, 289, 433, 352, 464
-0.991829, 249, 421, 312, 452
-0.991843, 361, 361, 424, 392
-0.991846, 109, 193, 140, 320
-0.991849, 361, 349, 424, 380
-0.991859, 97, 85, 160, 116
-0.991867, 393, 433, 456, 464
-0.991867, 225, 101, 288, 132
-0.991874, 209, 341, 272, 372
-0.991879, 73, 81, 136, 112
-0.99188, 285, 257, 316, 384
-0.991886, 321, 309, 384, 340
-0.991887, 225, 81, 288, 112
-0.991893, 377, 53, 440, 84
-0.991899, 249, 365, 312, 396
-0.991901, 281, 41, 344, 72
-0.991911, 257, 177, 500, 240
-0.991916, 257, 129, 320, 160
-0.991918, 385, 81, 448, 112
-0.991935, 65, 405, 128, 436
-0.991939, 121, 73, 184, 104
-0.99194, 17, 201, 80, 232
-0.99194, 425, 345, 488, 376
-0.991942, 81, 189, 144, 220
-0.991953, 273, 53, 336, 84
-0.991954, 177, 425, 240, 456
-0.991957, 417, 45, 480, 76
-0.991958, 265, 65, 328, 96
-0.991962, 257, 397, 320, 428
-0.991967, 325, 337, 356, 464
-0.99197, 425, 77, 488, 108
-0.991971, 161, 397, 224, 428
-0.991988, 65, 345, 320, 408
-0.991989, 129, 209, 384, 272
-0.991991, 49, 321, 176, 384
-0.991996, 169, 297, 232, 328
-0.991996, 121, 429, 184, 460
-0.992, 265, 329, 328, 360
-0.992023, 369, 41, 432, 72
-0.992024, 185, 349, 248, 380
-0.992025, 361, 317, 424, 348
-0.992107, 209, 225, 336, 288
-0.992124, 233, 1, 264, 128
-0.992229, 1, 249, 32, 280
-0.992238, 157, 325, 188, 356
-0.992276, 433, 1, 496, 465
-0.992287, 289, 257, 416, 320
-0.992291, 289, 153, 416, 216
-0.992293, 193, 305, 224, 336
-0.99231, 129, 145, 384, 208
-0.992346, 125, 369, 156, 400
-0.992373, 113, 369, 144, 400
-0.992376, 125, 49, 156, 176
-0.992393, 301, 409, 332, 440
-0.992408, 9, 81, 40, 208
-0.992452, 289, 97, 416, 160
-0.992473, 257, 289, 500, 352
-0.992512, 181, 377, 212, 408
-0.992512, 197, 385, 228, 416
-0.992517, 169, 349, 200, 380
-0.992524, 369, 401, 400, 432
-0.992532, 141, 369, 172, 400
-0.992551, 297, 257, 328, 384
-0.992559, 369, 161, 496, 224
-0.992572, 125, 357, 156, 388
-0.99258, 153, 361, 184, 392
-0.992582, 137, 285, 168, 316
-0.992593, 129, 1, 384, 64
-0.992596, 289, 201, 416, 264
-0.992598, 89, 357, 120, 388
-0.992628, 337, 401, 368, 432
-0.992632, 349, 405, 380, 436
-0.992634, 317, 413, 348, 444
-0.992674, 113, 357, 144, 388
-0.992677, 389, 389, 420, 420
-0.992681, 289, 113, 352, 240
-0.992687, 101, 369, 132, 400
-0.992691, 185, 49, 248, 176
-0.992692, 1, 289, 32, 416
-0.992708, 213, 305, 244, 336
-0.992708, 125, 285, 156, 316
-0.992711, 177, 317, 208, 348
-0.992722, 137, 381, 168, 412
-0.992724, 57, 189, 88, 220
-0.992726, 417, 349, 448, 380
-0.992726, 161, 373, 192, 404
-0.992731, 181, 365, 212, 396
-0.992732, 97, 225, 224, 288
-0.992732, 217, 377, 248, 408
-0.992741, 1, 9, 256, 72
-0.992742, 337, 1, 400, 465
-0.992746, 149, 349, 180, 380
-0.992753, 349, 377, 380, 408
-0.992754, 185, 405, 216, 436
-0.992755, 197, 317, 228, 348
-0.992768, 97, 189, 128, 220
-0.992772, 125, 297, 156, 328
-0.992778, 197, 397, 228, 428
-0.992785, 369, 373, 400, 404
-0.992804, 169, 385, 200, 416
-0.992809, 409, 393, 440, 424
-0.99281, 245, 377, 276, 408
-0.992814, 185, 289, 216, 320
-0.992816, 117, 381, 148, 412
-0.992822, 209, 405, 240, 436
-0.992828, 125, 309, 156, 340
-0.992832, 257, 369, 288, 400
-0.992841, 101, 349, 132, 380
-0.992849, 201, 293, 232, 324
-0.992854, 57, 49, 88, 176
-0.992859, 245, 293, 276, 324
-0.992867, 53, 369, 84, 400
-0.992871, 21, 241, 52, 272
-0.992877, 181, 393, 212, 424
-0.992879, 165, 337, 196, 368
-0.992887, 277, 417, 308, 448
-0.992894, 73, 373, 104, 404
-0.992908, 353, 177, 416, 304
-0.992908, 325, 401, 356, 432
-0.992929, 185, 333, 216, 364
-0.992932, 145, 273, 176, 304
-0.992934, 229, 381, 260, 412
-0.992936, 209, 393, 240, 424
-0.99294, 165, 273, 196, 304
-0.992943, 385, 377, 416, 408
-0.992945, 137, 297, 168, 328
-0.99295, 257, 105, 500, 168
-0.992961, 233, 289, 264, 320
-0.992961, 401, 357, 432, 388
-0.992968, 417, 361, 448, 392
-0.992978, 257, 421, 288, 452
-0.992981, 169, 361, 200, 392
-0.992981, 137, 357, 168, 388
-0.992983, 333, 385, 364, 416
-0.992983, 433, 337, 464, 368
-0.992994, 345, 389, 376, 420
-0.99301, 97, 257, 352, 320
-0.993012, 37, 369, 68, 400
-0.993014, 289, 41, 320, 72
-0.993014, 301, 421, 332, 452
-0.993016, 417, 321, 448, 352
-0.993035, 77, 361, 108, 392
-0.993046, 229, 417, 260, 448
-0.993049, 157, 261, 188, 292
-0.993051, 5, 261, 36, 292
-0.993053, 109, 297, 140, 328
-0.993056, 257, 313, 500, 376
-0.993056, 65, 85, 96, 116
-0.993057, 277, 405, 308, 436
-0.993061, 409, 381, 440, 412
-0.99307, 233, 301, 264, 332
-0.993073, 137, 309, 168, 340
-0.993075, 97, 385, 352, 448
-0.993077, 397, 41, 428, 72
-0.993082, 13, 365, 44, 396
-0.993092, 413, 337, 444, 368
-0.993095, 205, 373, 236, 404
-0.993097, 413, 257, 444, 384
-0.993098, 181, 417, 212, 448
-0.993101, 113, 345, 144, 376
-0.993103, 261, 293, 292, 324
-0.993107, 1, 237, 32, 268
-0.993115, 349, 321, 380, 352
-0.993117, 153, 425, 184, 456
-0.993117, 153, 337, 184, 368
-0.993123, 389, 349, 420, 380
-0.993123, 377, 389, 408, 420
-0.993124, 93, 85, 124, 116
-0.993125, 385, 33, 416, 64
-0.993128, 245, 305, 276, 336
-0.993134, 109, 81, 140, 112
-0.993136, 29, 337, 60, 464
-0.993136, 113, 313, 144, 344
-0.993138, 85, 225, 116, 352
-0.993142, 229, 401, 260, 432
-0.993143, 97, 289, 128, 320
-0.993146, 249, 357, 280, 388
-0.993153, 289, 417, 320, 448
-0.993153, 85, 189, 116, 220
-0.993156, 305, 33, 336, 64
-0.993157, 113, 285, 144, 316
-0.993158, 1, 85, 32, 116
-0.99316, 173, 293, 204, 324
-0.993163, 73, 389, 104, 420
-0.993166, 89, 377, 120, 408
-0.993166, 57, 201, 88, 232
-0.993167, 357, 393, 388, 424
-0.993168, 257, 65, 288, 192
-0.993171, 129, 105, 384, 168
-0.993173, 141, 413, 172, 444
-0.993174, 213, 289, 244, 320
-0.993175, 101, 213, 132, 244
-0.993176, 73, 209, 104, 240
-0.993176, 121, 241, 152, 368
-0.993177, 89, 305, 120, 336
-0.993179, 153, 397, 184, 428
-0.993181, 41, 129, 72, 256
-0.993181, 161, 209, 192, 336
-0.993182, 169, 397, 200, 428
-0.993191, 85, 277, 116, 308
-0.993194, 389, 401, 420, 432
-0.993195, 209, 425, 240, 456
-0.993196, 289, 401, 320, 432
-0.993196, 101, 201, 132, 232
-0.993196, 257, 381, 288, 412
-0.993273, 225, 401, 480, 464
-0.993274, 1, 201, 256, 264
-0.993306, 97, 373, 224, 404
-0.993368, 177, 305, 304, 336
-0.993474, 97, 57, 352, 120
-0.993528, 257, 73, 500, 136
-0.993659, 179, 345, 194, 408
-0.993669, 129, 81, 384, 144
-0.993677, 309, 321, 340, 448
-0.993708, 17, 97, 80, 224
-0.993731, 1, 57, 500, 120
-0.993762, 129, 305, 384, 368
-0.993807, 149, 97, 180, 224
-0.993809, 193, 1, 256, 256
-0.993859, 349, 17, 380, 144
-0.993961, 1, 337, 500, 400
-0.994014, 273, 409, 400, 440
-0.994058, 257, 361, 500, 424
-0.994062, 269, 113, 300, 240
-0.994081, 417, 177, 448, 304
-0.994082, 193, 289, 208, 352
-0.994111, 197, 377, 212, 440
-0.994162, 1, 401, 500, 464
-0.994326, 337, 1, 368, 128
-0.994328, 99, 353, 114, 416
-0.99434, 129, 33, 384, 96
-0.994342, 135, 345, 150, 408
-0.994371, 1, 369, 256, 432
-0.994377, 17, 97, 80, 352
-0.994414, 289, 25, 416, 56
-0.994431, 45, 337, 76, 464
-0.994454, 425, 225, 488, 465
-0.994471, 97, 349, 224, 380
-0.994551, 281, 193, 344, 448
-0.994592, 421, 129, 452, 256
-0.994603, 1, 177, 500, 240
-0.994603, 337, 321, 464, 352
-0.994628, 33, 373, 160, 404
-0.994636, 203, 297, 218, 360
-0.994659, 1, 225, 256, 288
-0.994663, 173, 225, 204, 352
-0.994713, 13, 337, 44, 464
-0.994745, 97, 301, 224, 332
-0.994745, 1, 33, 500, 96
-0.994748, 117, 145, 148, 272
-0.994775, 149, 361, 164, 424
-0.994787, 1, 265, 500, 328
-0.994808, 185, 353, 200, 416
-0.994831, 153, 145, 184, 272
-0.994844, 305, 433, 432, 464
-0.99486, 111, 185, 126, 248
-0.994894, 1, 281, 256, 344
-0.994924, 61, 185, 76, 248
-0.994936, 1, 289, 500, 352
-0.99495, 439, 329, 454, 392
-0.994965, 33, 193, 160, 224
-0.99497, 173, 337, 188, 400
-0.994987, 225, 413, 352, 444
-0.994987, 257, 337, 500, 400
-0.994989, 137, 65, 168, 192
-0.995003, 337, 393, 464, 424
-0.995043, 175, 369, 190, 432
-0.995048, 175, 265, 190, 328
-0.995055, 97, 361, 224, 392
-0.995066, 177, 289, 304, 320
-0.99507, 217, 49, 248, 176
-0.995075, 73, 185, 88, 248
-0.995076, 185, 273, 200, 336
-0.995097, 33, 121, 160, 184
-0.995148, 105, 185, 120, 248
-0.99516, 49, 353, 176, 384
-0.995197, 93, 185, 108, 248
-0.995202, 137, 281, 152, 344
-0.99522, 129, 369, 144, 432
-0.995231, 321, 405, 448, 436
-0.995247, 41, 1, 104, 465
-0.995249, 145, 345, 272, 376
-0.995264, 123, 361, 138, 424
-0.995281, 277, 209, 308, 336
-0.995283, 145, 361, 272, 392
-0.995316, 81, 205, 208, 236
-0.995395, 207, 385, 222, 448
-0.995402, 117, 369, 132, 432
-0.995422, 139, 369, 154, 432
-0.995446, 93, 353, 108, 416
-0.995446, 1, 249, 256, 312
-0.995449, 67, 185, 82, 248
-0.995452, 1, 305, 256, 368
-0.995472, 193, 401, 320, 432
-0.995488, 145, 409, 272, 440
-0.995507, 371, 361, 386, 424
-0.995512, 343, 377, 358, 440
-0.995514, 187, 377, 202, 440
-0.995517, 187, 313, 202, 376
-0.99552, 111, 345, 126, 408
-0.995546, 99, 185, 114, 248
-0.995548, 1, 369, 500, 432
-0.995588, 97, 337, 224, 368
-0.995591, 85, 185, 100, 248
-0.99562, 193, 321, 208, 384
-0.995627, 129, 345, 144, 408
-0.995633, 1, 313, 500, 376
-0.995651, 161, 177, 416, 240
-0.995654, 161, 329, 416, 392
-0.995657, 1, 225, 500, 288
-0.99566, 177, 273, 304, 304
-0.995728, 193, 337, 320, 400
-0.995736, 169, 257, 184, 320
-0.995767, 117, 345, 132, 408
-0.995771, 97, 281, 224, 312
-0.995801, 257, 309, 384, 340
-0.995822, 79, 185, 94, 248
-0.995833, 147, 273, 162, 336
-0.995841, 81, 85, 208, 116
-0.995855, 225, 293, 352, 324
-0.995863, 241, 257, 368, 288
-0.995888, 81, 265, 208, 296
-0.995903, 337, 377, 464, 408
-0.995914, 1, 9, 500, 72
-0.995951, 427, 321, 442, 384
-0.995984, 1, 393, 256, 456
-0.99599, 337, 365, 464, 396
-0.995998, 161, 261, 288, 292
-0.996, 191, 345, 206, 408
-0.996003, 233, 401, 248, 464
-0.996006, 105, 353, 120, 416
-0.996011, 1, 361, 128, 392
-0.996016, 169, 361, 184, 424
-0.996022, 145, 425, 272, 456
-0.996025, 159, 393, 174, 456
-0.996037, 337, 309, 464, 340
-0.996037, 145, 397, 272, 428
-0.996042, 257, 229, 384, 260
-0.996076, 97, 313, 224, 344
-0.996106, 241, 329, 368, 360
-0.996117, 81, 185, 208, 216
-0.996117, 241, 201, 368, 232
-0.996131, 181, 377, 196, 440
-0.996153, 373, 385, 388, 448
-0.996153, 337, 197, 464, 228
-0.996157, 1, 129, 500, 192
-0.996157, 321, 421, 448, 452
-0.996185, 435, 305, 450, 368
-0.996195, 337, 345, 464, 376
-0.996204, 365, 369, 380, 432
-0.996212, 123, 337, 138, 400
-0.996215, 241, 269, 368, 300
-0.99622, 429, 345, 444, 408
-0.996221, 81, 101, 208, 132
-0.996225, 111, 369, 126, 432
-0.996238, 163, 9, 178, 72
-0.996246, 1, 81, 256, 144
-0.996249, 81, 217, 208, 248
-0.996266, 147, 297, 162, 360
-0.996269, 273, 397, 400, 428
-0.996269, 289, 129, 416, 192
-0.996271, 209, 341, 336, 372
-0.996283, 387, 369, 402, 432
-0.99629, 271, 73, 286, 136
-0.996291, 379, 385, 394, 448
-0.996293, 259, 385, 274, 448
-0.996301, 161, 81, 288, 112
-0.99631, 141, 345, 156, 408
-0.996339, 119, 73, 134, 136
-0.99634, 337, 233, 464, 264
-0.996361, 161, 133, 288, 164
-0.996372, 241, 137, 368, 168
-0.996372, 241, 241, 368, 272
-0.996379, 337, 89, 464, 120
-0.996384, 97, 393, 224, 424
-0.996386, 153, 337, 168, 400
-0.996388, 13, 241, 28, 304
-0.996402, 25, 241, 88, 368
-0.996423, 65, 433, 192, 464
-0.996426, 337, 393, 352, 456
-0.996427, 427, 65, 442, 128
-0.99643, 241, 189, 368, 220
-0.996432, 1, 81, 500, 144
-0.996439, 3, 225, 18, 288
-0.99644, 57, 361, 72, 424
-0.996459, 163, 321, 178, 384
-0.996459, 209, 289, 224, 352
-0.99646, 337, 297, 464, 328
-0.996466, 239, 393, 254, 456
-0.996473, 321, 245, 448, 276
-0.996476, 257, 217, 384, 248
-0.996484, 337, 265, 464, 296
-0.996489, 131, 297, 146, 360
-0.996495, 213, 377, 228, 440
-0.996511, 139, 313, 154, 376
-0.996515, 81, 73, 208, 104
-0.996518, 193, 317, 320, 348
-0.996521, 241, 153, 368, 184
-0.99653, 421, 369, 436, 432
-0.996536, 95, 377, 110, 440
-0.996559, 265, 377, 280, 440
-0.996572, 241, 169, 368, 200
-0.996574, 131, 273, 146, 336
-0.996596, 273, 421, 400, 452
-0.996596, 241, 433, 368, 464
-0.996616, 67, 361, 82, 424
-0.996624, 337, 213, 464, 244
-0.996638, 377, 361, 392, 424
-0.996648, 77, 369, 92, 432
-0.99665, 337, 125, 464, 156
-0.996654, 145, 373, 272, 404
-0.996666, 289, 385, 416, 416
-0.996673, 59, 81, 74, 144
-0.996673, 289, 325, 416, 356
-0.996676, 161, 249, 288, 280
-0.996682, 227, 401, 242, 464
-0.996697, 337, 153, 464, 184
-0.996703, 321, 185, 448, 216
-0.996719, 145, 321, 272, 352
-0.99672, 163, 257, 178, 320
-0.996728, 395, 377, 410, 440
-0.996732, 163, 361, 178, 424
-0.99674, 199, 273, 214, 336
-0.996741, 81, 173, 208, 204
-0.996747, 241, 381, 368, 412
-0.996749, 197, 353, 212, 416
-0.996751, 157, 313, 172, 376
-0.996752, 369, 21, 496, 52
-0.996755, 277, 57, 292, 120
-0.996755, 241, 281, 368, 312
-0.996756, 161, 109, 288, 140
-0.996758, 161, 197, 288, 228
-0.996765, 161, 169, 288, 200
-0.996776, 367, 401, 382, 464
-0.996779, 171, 9, 186, 72
-0.996784, 233, 377, 248, 440
-0.996794, 161, 93, 288, 124
-0.996795, 1, 85, 128, 116
-0.996807, 1, 153, 256, 216
-0.996812, 337, 169, 464, 200
-0.996817, 193, 425, 320, 456
-0.996825, 161, 233, 288, 264
-0.996835, 153, 401, 168, 464
-0.996841, 161, 217, 288, 248
-0.996846, 33, 277, 160, 308
-0.996848, 411, 337, 426, 400
-0.996851, 161, 361, 416, 424
-0.996852, 289, 37, 416, 68
-0.996856, 113, 13, 240, 44
-0.996862, 147, 81, 162, 144
-0.996862, 149, 1, 180, 256
-0.996882, 1, 113, 256, 176
-0.996884, 17, 361, 32, 424
-0.996894, 305, 401, 320, 464
-0.996902, 49, 385, 176, 416
-0.996905, 161, 65, 288, 96
-0.996914, 263, 97, 278, 160
-0.996916, 81, 253, 208, 284
-0.996932, 409, 41, 424, 104
-0.996936, 161, 149, 288, 180
-0.996943, 57, 1, 88, 256
-0.996952, 95, 81, 110, 144
-0.996953, 177, 385, 304, 416
-0.996955, 269, 121, 284, 184
-0.996955, 193, 29, 320, 60
-0.996956, 33, 205, 160, 236
-0.996958, 359, 377, 374, 440
-0.99696, 201, 305, 216, 336
-0.996963, 259, 289, 274, 352
-0.996967, 125, 65, 140, 128
-0.996972, 161, 225, 192, 465
-0.996977, 141, 81, 156, 144
-0.99698, 279, 289, 294, 352
-0.99698, 241, 89, 368, 120
-0.996985, 19, 249, 34, 312
-0.996987, 353, 393, 368, 456
-0.996989, 433, 369, 448, 432
-0.996991, 161, 121, 288, 152
-0.997002, 163, 233, 178, 296
-0.997003, 97, 413, 224, 444
-0.997004, 67, 9, 82, 72
-0.997005, 345, 401, 360, 464
-0.997013, 337, 61, 464, 92
-0.997018, 207, 353, 222, 416
-0.997029, 287, 41, 302, 104
-0.997031, 337, 333, 464, 364
-0.997035, 65, 17, 192, 48
-0.997035, 109, 9, 124, 72
-0.997045, 1, 105, 500, 168
-0.997053, 337, 285, 464, 316
-0.997063, 257, 53, 384, 84
-0.997068, 61, 9, 76, 72
-0.997074, 97, 1, 128, 256
-0.997077, 417, 49, 432, 112
-0.997078, 295, 41, 310, 104
-0.997083, 141, 365, 156, 396
-0.997086, 81, 73, 96, 136
-0.997089, 133, 9, 148, 72
-0.997093, 161, 181, 288, 212
-0.997102, 179, 321, 194, 384
-0.997103, 47, 345, 62, 408
-0.997106, 29, 241, 44, 304
-0.997106, 87, 345, 102, 408
-0.99711, 53, 73, 68, 136
-0.99712, 17, 249, 32, 280
-0.997126, 93, 9, 108, 72
-0.997131, 123, 9, 138, 72
-0.997131, 71, 81, 86, 144
-0.997133, 221, 369, 236, 432
-0.997135, 315, 25, 330, 88
-0.997136, 337, 141, 464, 172
-0.997138, 139, 9, 154, 72
-0.99715, 257, 1, 500, 64
-0.997157, 369, 37, 496, 68
-0.997165, 337, 77, 464, 108
-0.997187, 257, 65, 384, 96
-0.997191, 17, 33, 144, 96
-0.997201, 49, 317, 176, 348
-0.997207, 69, 1, 100, 256
-0.997212, 273, 297, 400, 328
-0.997224, 241, 125, 368, 156
-0.997233, 17, 17, 144, 48
-0.997236, 3, 249, 18, 280
-0.997248, 1, 201, 500, 264
-0.99728, 1, 253, 128, 284
-0.997287, 241, 1, 304, 256
-0.997305, 337, 105, 464, 136
-0.997326, 1, 241, 128, 272
-0.997328, 81, 241, 208, 272
-0.997329, 1, 33, 256, 96
-0.997329, 9, 249, 24, 280
-0.997334, 117, 1, 148, 256
-0.99735, 241, 101, 368, 132
-0.997354, 161, 49, 288, 80
-0.997364, 141, 281, 156, 312
-0.997391, 1, 153, 500, 216
-0.997395, 173, 325, 188, 356
-0.997399, 241, 29, 368, 60
-0.9974, 147, 369, 162, 400
-0.997405, 207, 385, 222, 416
-0.997414, 33, 217, 160, 248
-0.997424, 121, 369, 136, 400
-0.997427, 107, 365, 122, 396
-0.997437, 81, 145, 208, 176
-0.997438, 81, 1, 112, 256
-0.997443, 145, 333, 272, 364
-0.997444, 199, 385, 214, 416
-0.997452, 179, 377, 194, 408
-0.997475, 49, 417, 176, 448
-0.997486, 49, 289, 176, 320
-0.997493, 161, 13, 288, 44
-0.997495, 129, 369, 144, 400
-0.997505, 97, 225, 128, 465
-0.997519, 1, 225, 32, 465
-0.99752, 115, 369, 130, 400
-0.997526, 361, 1, 392, 256
-0.997531, 389, 1, 420, 256
-0.997533, 41, 1, 72, 256
-0.997563, 165, 325, 180, 356
-0.997595, 173, 341, 188, 372
-0.997598, 173, 369, 188, 400
-0.997601, 135, 365, 150, 396
-0.997601, 185, 113, 248, 240
-0.997608, 193, 297, 208, 328
-0.997663, 407, 389, 422, 420
-0.997669, 137, 377, 152, 408
-0.997679, 199, 397, 214, 428
-0.997698, 137, 297, 152, 328
-0.997701, 199, 289, 214, 320
-0.997707, 311, 409, 326, 440
-0.997711, 13, 1, 44, 256
-0.997723, 249, 373, 264, 404
-0.997724, 437, 341, 452, 372
-0.997726, 193, 309, 208, 340
-0.997733, 179, 273, 194, 304
-0.99774, 115, 357, 130, 388
-0.997756, 395, 381, 410, 412
-0.997763, 97, 353, 112, 384
-0.997771, 269, 33, 300, 288
-0.997784, 1, 57, 256, 120
-0.997803, 129, 1, 160, 256
-0.99781, 209, 301, 224, 332
-0.997812, 363, 401, 378, 432
-0.997831, 159, 321, 174, 352
-0.997835, 207, 321, 222, 352
-0.997842, 127, 357, 142, 388
-0.997856, 345, 129, 408, 384
-0.997873, 255, 373, 270, 404
-0.997878, 179, 349, 194, 380
-0.997881, 339, 397, 354, 428
-0.99789, 409, 33, 440, 288
-0.997893, 29, 241, 44, 272
-0.9979, 189, 397, 204, 428
-0.997906, 181, 225, 212, 465
-0.997911, 159, 389, 174, 420
-0.997913, 291, 413, 306, 444
-0.997914, 317, 1, 348, 256
-0.997918, 111, 189, 126, 220
-0.997919, 345, 385, 360, 416
-0.997924, 167, 365, 182, 396
-0.997933, 305, 405, 320, 436
-0.997945, 297, 1, 328, 256
-0.997952, 323, 413, 338, 444
-0.997985, 353, 401, 368, 432
-0.997986, 91, 361, 106, 392
-0.99799, 381, 397, 396, 428
-0.997992, 217, 305, 232, 336
-0.997997, 371, 397, 386, 428
-0.998003, 193, 321, 208, 352
-0.998005, 185, 277, 200, 308
-0.998022, 347, 401, 362, 432
-0.998029, 171, 261, 186, 292
-0.99803, 101, 373, 116, 404
-0.998037, 251, 293, 266, 324
-0.998045, 363, 377, 378, 408
-0.998045, 189, 373, 204, 404
-0.99805, 263, 365, 278, 396
-0.998059, 29, 1, 60, 256
-0.998068, 391, 393, 406, 424
-0.998074, 429, 353, 444, 384
-0.998076, 251, 385, 266, 416
-0.998079, 217, 225, 248, 465
-0.998079, 121, 357, 136, 388
-0.998079, 1, 1, 32, 256
-0.998082, 153, 357, 168, 388
-0.998096, 169, 381, 184, 412
-0.998102, 141, 225, 172, 465
-0.998106, 147, 273, 162, 304
-0.998106, 161, 373, 176, 404
-0.998109, 131, 381, 146, 412
-0.998111, 237, 289, 252, 320
-0.998113, 219, 373, 234, 404
-0.998119, 339, 409, 354, 440
-0.998134, 437, 325, 452, 356
-0.998138, 297, 413, 312, 444
-0.998141, 143, 381, 158, 412
-0.998141, 145, 353, 160, 384
-0.998151, 199, 333, 214, 364
-0.998155, 201, 317, 216, 348
-0.998157, 269, 417, 284, 448
-0.998158, 377, 1, 408, 256
-0.998165, 227, 417, 242, 448
-0.998168, 101, 285, 116, 316
-0.998173, 135, 285, 150, 316
-0.998175, 285, 1, 316, 256
-0.998176, 107, 349, 122, 380
-0.998179, 193, 285, 208, 316
-0.998183, 93, 129, 124, 384
-0.998187, 13, 261, 28, 292
-0.9982, 413, 357, 428, 388
-0.998204, 223, 405, 238, 436
-0.998208, 143, 297, 158, 328
-0.998211, 401, 381, 416, 412
-0.998214, 121, 381, 136, 412
-0.998219, 317, 413, 332, 444
-0.998223, 105, 189, 120, 220
-0.998224, 213, 381, 228, 412
-0.998226, 261, 293, 276, 324
-0.998227, 153, 369, 168, 400
-0.998232, 381, 369, 396, 400
-0.998233, 121, 345, 136, 376
-0.998233, 185, 385, 200, 416
-0.998236, 373, 369, 388, 400
-0.998237, 105, 201, 120, 232
-0.99824, 131, 305, 146, 336
-0.998244, 429, 369, 444, 400
-0.998245, 137, 353, 152, 384
-0.998247, 205, 373, 220, 404
-0.998248, 371, 409, 386, 440
-0.998249, 185, 413, 200, 444
-0.998253, 413, 193, 444, 448
-0.998253, 413, 393, 428, 424
-0.998257, 181, 361, 196, 392
-0.99828, 23, 249, 38, 280
-0.99828, 59, 189, 74, 220
-0.998283, 227, 297, 242, 328
-0.998288, 57, 369, 72, 400
-0.998292, 401, 393, 416, 424
-0.998293, 243, 381, 258, 412
-0.998303, 83, 81, 98, 112
-0.998306, 107, 377, 122, 408
-0.998319, 119, 73, 134, 104
-0.998319, 115, 381, 130, 412
-0.99832, 213, 393, 228, 424
-0.998323, 213, 317, 228, 348
-0.998323, 243, 289, 258, 320
-0.998326, 55, 85, 70, 116
-0.998331, 213, 289, 228, 320
-0.998331, 271, 369, 286, 400
-0.998335, 173, 433, 188, 464
-0.998335, 193, 385, 208, 416
-0.998351, 261, 193, 292, 448
-0.998352, 205, 225, 236, 465
-0.998386, 409, 401, 440, 416
-0.998386, 145, 309, 176, 324
-0.998387, 169, 393, 200, 408
-0.998387, 157, 263, 188, 278
-0.998388, 97, 213, 128, 228
-0.998388, 197, 413, 228, 428
-0.998388, 113, 347, 144, 362
-0.998389, 401, 361, 432, 376
-0.99839, 145, 413, 176, 428
-0.99839, 125, 295, 156, 310
-0.998392, 137, 291, 168, 306
-0.998392, 217, 379, 248, 394
-0.998393, 137, 349, 168, 364
-0.998394, 173, 327, 204, 342
-0.998394, 37, 373, 68, 388
-0.998396, 409, 385, 440, 400
-0.998396, 385, 391, 416, 406
-0.998396, 201, 299, 232, 314
-0.998396, 209, 411, 240, 426
-0.998397, 237, 377, 268, 392
-0.998397, 433, 345, 464, 360
-0.998397, 177, 321, 208, 336
-0.998398, 9, 261, 40, 276
-0.998398, 229, 387, 260, 402
-0.998399, 285, 415, 316, 430
-0.9984, 165, 279, 196, 294
-0.998401, 329, 415, 360, 430
-0.998403, 105, 371, 168, 386
-0.998404, 197, 397, 228, 412
-0.998404, 185, 395, 216, 410
-0.998405, 341, 385, 372, 400
-0.998405, 257, 427, 288, 442
-0.998408, 245, 383, 276, 398
-0.998408, 77, 381, 108, 396
-0.998408, 341, 1, 372, 256
-0.998411, 213, 343, 244, 358
-0.998411, 137, 297, 168, 312
-0.998413, 161, 371, 192, 386
-0.998413, 261, 375, 292, 390
-0.998413, 53, 217, 84, 232
-0.998415, 185, 409, 216, 424
-0.998415, 213, 391, 244, 406
-0.998417, 217, 307, 248, 322
-0.998419, 173, 381, 204, 396
-0.99842, 165, 387, 196, 402
-0.99842, 413, 349, 444, 364
-0.998421, 109, 315, 140, 330
-0.998421, 137, 303, 168, 318
-0.998422, 185, 305, 216, 320
-0.998424, 177, 287, 208, 302
-0.998425, 93, 365, 124, 380
-0.998425, 169, 365, 200, 380
-0.998425, 229, 423, 260, 438
-0.998426, 169, 1, 200, 256
-0.998426, 77, 213, 108, 228
-0.998427, 229, 345, 260, 360
-0.998427, 93, 383, 124, 398
-0.998428, 181, 315, 212, 330
-0.998429, 249, 421, 312, 436
-0.998429, 129, 367, 192, 382
-0.998429, 157, 341, 188, 356
-0.998432, 409, 395, 440, 410
-0.998434, 201, 341, 232, 356
-0.998436, 385, 349, 416, 364
-0.998438, 337, 401, 368, 416
-0.998438, 181, 353, 212, 368
-0.998439, 129, 377, 192, 392
-0.998439, 289, 417, 352, 432
-0.99844, 185, 377, 216, 392
-0.998441, 209, 315, 240, 330
-0.998441, 117, 353, 148, 368
-0.998442, 161, 377, 192, 392
-0.998442, 421, 33, 452, 288
-0.998442, 105, 371, 136, 386
-0.998444, 213, 301, 244, 316
-0.998444, 73, 377, 136, 392
-0.998444, 185, 415, 216, 430
-0.998445, 137, 379, 168, 394
-0.998445, 297, 423, 328, 438
-0.998446, 253, 421, 284, 436
-0.998447, 57, 375, 88, 390
-0.998448, 145, 279, 176, 294
-0.998448, 369, 399, 432, 414
-0.998449, 197, 383, 228, 398
-0.998449, 353, 377, 416, 392
-0.998451, 181, 297, 212, 312
-0.998451, 385, 397, 416, 412
-0.998453, 161, 335, 192, 350
-0.998453, 77, 375, 108, 390
-0.998455, 241, 423, 272, 438
-0.998457, 229, 303, 260, 318
-0.998461, 125, 305, 156, 320
-0.998462, 201, 305, 264, 320
-0.998462, 389, 385, 420, 400
-0.998464, 173, 373, 204, 388
-0.998466, 249, 377, 280, 392
-0.998466, 417, 355, 448, 370
-0.998467, 393, 355, 424, 370
-0.998469, 165, 273, 196, 288
-0.998471, 241, 305, 272, 320
-0.998474, 169, 351, 200, 366
-0.998475, 169, 343, 200, 358
-0.998477, 417, 365, 448, 380
-0.998479, 337, 407, 400, 422
-0.998479, 313, 411, 376, 426
-0.998482, 149, 361, 180, 376
-0.998483, 265, 419, 296, 434
-0.998483, 93, 353, 124, 368
-0.998484, 97, 189, 128, 204
-0.998486, 189, 289, 220, 304
-0.998487, 169, 357, 200, 372
-0.998487, 121, 381, 152, 396
-0.998487, 121, 361, 152, 376
-0.998491, 149, 375, 180, 390
-0.998491, 361, 401, 392, 416
-0.998493, 125, 287, 156, 302
-0.998494, 97, 359, 160, 374
-0.998496, 297, 409, 328, 424
-0.998497, 101, 377, 132, 392
-0.998497, 57, 189, 88, 204
-0.998499, 97, 377, 160, 392
-0.9985, 137, 367, 168, 382
-0.998501, 325, 409, 356, 424
-0.998502, 137, 285, 168, 300
-0.998506, 105, 289, 168, 304
-0.998509, 361, 377, 392, 392
-0.998509, 101, 359, 132, 374
-0.998511, 373, 399, 404, 414
-0.998514, 125, 311, 156, 326
-0.998514, 349, 405, 380, 420
-0.998516, 57, 129, 88, 384
-0.998516, 65, 191, 128, 206
-0.998516, 377, 371, 440, 386
-0.998518, 149, 367, 180, 382
-0.998518, 273, 423, 336, 438
-0.998519, 145, 279, 208, 294
-0.998519, 349, 379, 380, 394
-0.99852, 105, 383, 168, 398
-0.998522, 129, 285, 192, 300
-0.998523, 197, 305, 228, 320
-0.998524, 49, 377, 112, 392
-0.998525, 345, 401, 408, 416
-0.998525, 377, 375, 408, 390
-0.998527, 217, 423, 280, 438
-0.998531, 337, 409, 368, 424
-0.998532, 185, 383, 216, 398
-0.998534, 185, 299, 248, 314
-0.998534, 89, 353, 152, 368
-0.998537, 329, 381, 392, 396
-0.998539, 385, 347, 448, 362
-0.99854, 193, 389, 224, 404
-0.99854, 193, 317, 224, 332
-0.998544, 65, 383, 128, 398
-0.998545, 289, 411, 352, 426
-0.998545, 49, 371, 112, 386
-0.998545, 209, 379, 272, 394
-0.998546, 89, 295, 152, 310
-0.998546, 177, 343, 240, 358
-0.998547, 153, 373, 216, 388
-0.998549, 161, 353, 224, 368
-0.998551, 169, 319, 232, 334
-0.998551, 385, 393, 448, 408
-0.998553, 145, 327, 208, 342
-0.998554, 145, 361, 208, 376
-0.998556, 377, 385, 440, 400
-0.998558, 57, 211, 120, 226
-0.998559, 161, 335, 224, 350
-0.99856, 117, 371, 148, 386
-0.998561, 137, 373, 168, 388
-0.998561, 297, 417, 328, 432
-0.998561, 137, 273, 200, 288
-0.998561, 201, 345, 264, 360
-0.998562, 397, 395, 428, 410
-0.998562, 353, 349, 416, 364
-0.998563, 33, 383, 96, 398
-0.998563, 73, 363, 136, 378
-0.998563, 5, 253, 36, 268
-0.998563, 277, 421, 308, 436
-0.998563, 193, 415, 256, 430
-0.998566, 169, 387, 232, 402
-0.998567, 157, 325, 188, 340
-0.998567, 121, 353, 184, 368
-0.998568, 313, 405, 376, 420
-0.998568, 317, 415, 348, 430
-0.998572, 329, 1, 360, 256
-0.998574, 73, 371, 136, 386
-0.998575, 77, 193, 108, 448
-0.998577, 265, 415, 328, 430
-0.998577, 105, 317, 168, 332
-0.998581, 169, 363, 232, 378
-0.998582, 161, 301, 224, 316
-0.998583, 361, 393, 424, 408
-0.998583, 393, 357, 456, 372
-0.998583, 137, 383, 200, 398
-0.998585, 121, 361, 184, 376
-0.998585, 145, 291, 208, 306
-0.998585, 65, 395, 128, 410
-0.998587, 153, 415, 216, 430
-0.998587, 117, 193, 148, 448
-0.998588, 393, 329, 456, 344
-0.998591, 233, 295, 296, 310
-0.998592, 193, 389, 256, 404
-0.998594, 265, 409, 328, 424
-0.998595, 25, 375, 88, 390
-0.998597, 129, 305, 192, 320
-0.998599, 377, 405, 440, 420
-0.9986, 177, 423, 240, 438
-0.998602, 105, 311, 168, 326
-0.998602, 137, 347, 200, 362
-0.998602, 313, 423, 376, 438
-0.998603, 185, 381, 248, 396
-0.998603, 377, 377, 440, 392
-0.998603, 329, 375, 392, 390
-0.998604, 417, 61, 480, 76
-0.998605, 65, 311, 128, 326
-0.998605, 305, 399, 368, 414
-0.998606, 97, 347, 160, 362
-0.998607, 73, 217, 136, 232
-0.998608, 129, 299, 192, 314
-0.998608, 241, 427, 304, 442
-0.998609, 65, 287, 128, 302
-0.99861, 177, 309, 240, 324
-0.998611, 281, 429, 344, 444
-0.998612, 145, 409, 208, 424
-0.998613, 377, 417, 440, 432
-0.998614, 65, 353, 128, 368
-0.998614, 121, 87, 184, 102
-0.998615, 209, 311, 272, 326
-0.998615, 233, 305, 296, 320
-0.998615, 105, 283, 168, 298
-0.998616, 233, 343, 296, 358
-0.998617, 313, 417, 376, 432
-0.998617, 257, 259, 320, 274
-0.998618, 337, 329, 400, 344
-0.998618, 121, 101, 184, 116
-0.998618, 193, 397, 256, 412
-0.998619, 145, 395, 208, 410
-0.998619, 329, 25, 392, 40
-0.99862, 9, 367, 72, 382
-0.99862, 129, 267, 192, 282
-0.998621, 385, 341, 448, 356
-0.998622, 313, 431, 376, 446
-0.998622, 345, 447, 408, 462
-0.998622, 89, 305, 152, 320
-0.998623, 121, 95, 184, 110
-0.998623, 233, 393, 296, 408
-0.998624, 65, 295, 128, 310
-0.998624, 257, 305, 320, 320
-0.998624, 153, 285, 216, 300
-0.998625, 353, 383, 416, 398
-0.998625, 321, 437, 384, 452
-0.998626, 105, 389, 168, 404
-0.998626, 129, 427, 192, 442
-0.998627, 289, 405, 352, 420
-0.998627, 241, 379, 304, 394
-0.998627, 185, 409, 248, 424
-0.998628, 121, 323, 184, 338
-0.99863, 65, 403, 128, 418
-0.998631, 137, 341, 200, 356
-0.998631, 1, 243, 64, 258
-0.998633, 385, 323, 448, 338
-0.998634, 121, 397, 184, 412
-0.998634, 57, 205, 120, 220
-0.998634, 393, 335, 456, 350
-0.998634, 57, 197, 120, 212
-0.998636, 361, 323, 424, 338
-0.998649, 193, 311, 224, 326
-0.998653, 193, 225, 224, 465
-0.998665, 139, 289, 154, 416
-0.998684, 183, 273, 198, 400
-0.998693, 41, 97, 104, 352
-0.998704, 173, 321, 188, 448
-0.998711, 57, 225, 88, 465
-0.99873, 217, 129, 248, 384
-0.998733, 13, 225, 44, 465
-0.998739, 173, 273, 188, 400
-0.998793, 61, 177, 76, 304
-0.998793, 321, 225, 352, 465
-0.998793, 249, 193, 280, 448
-0.998804, 153, 129, 184, 384
-0.998838, 113, 1, 128, 128
-0.998847, 127, 337, 142, 464
-0.998877, 217, 1, 248, 256
-0.99888, 67, 177, 82, 304
-0.998892, 117, 337, 132, 464
-0.998898, 103, 1, 118, 128
-0.998903, 89, 1, 104, 128
-0.998908, 133, 289, 148, 416
-0.99891, 179, 337, 194, 464
-0.998934, 119, 1, 134, 128
-0.998934, 93, 177, 108, 304
-0.998957, 161, 1, 176, 128
-0.998958, 79, 1, 94, 128
-0.99896, 173, 1, 188, 128
-0.998962, 129, 1, 144, 128
-0.998969, 95, 1, 110, 128
-0.998973, 81, 177, 96, 304
-0.998975, 103, 177, 118, 304
-0.998979, 189, 289, 204, 416
-0.998984, 169, 129, 200, 384
-0.998987, 195, 305, 210, 432
-0.998994, 145, 289, 160, 416
-0.999022, 203, 273, 218, 400
-0.999031, 185, 337, 200, 464
-0.999042, 133, 337, 148, 464
-0.999046, 139, 1, 154, 128
-0.999047, 75, 177, 90, 304
-0.999047, 139, 337, 154, 464
-0.999053, 259, 289, 274, 416
-0.999055, 87, 177, 102, 304
-0.999057, 111, 177, 126, 304
-0.999067, 211, 1, 226, 128
-0.999069, 167, 321, 182, 448
-0.999069, 17, 1, 32, 128
-0.999075, 201, 1, 232, 256
-0.999079, 111, 337, 126, 464
-0.999081, 61, 1, 76, 128
-0.999083, 73, 1, 88, 128
-0.999084, 163, 273, 178, 400
-0.999086, 155, 321, 170, 448
-0.999091, 253, 289, 268, 416
-0.999093, 213, 289, 228, 416
-0.999098, 229, 193, 260, 448
-0.999107, 67, 1, 82, 128
-0.999124, 11, 1, 26, 128
-0.999125, 249, 1, 280, 256
-0.999127, 437, 1, 468, 256
-0.999141, 1, 1, 16, 128
-0.999141, 149, 337, 164, 464
-0.999143, 127, 289, 142, 416
-0.999144, 51, 1, 66, 128
-0.999146, 433, 305, 448, 432
-0.999147, 217, 1, 232, 128
-0.999151, 383, 337, 398, 464
-0.999165, 167, 1, 182, 128
-0.999172, 205, 1, 220, 128
-0.999175, 39, 1, 54, 128
-0.999178, 179, 1, 194, 128
-0.999181, 411, 33, 426, 160
-0.999184, 205, 337, 220, 464
-0.99919, 189, 1, 204, 128
-0.999192, 27, 1, 42, 128
-0.999192, 211, 337, 226, 464
-0.999195, 85, 337, 100, 464
-0.999198, 33, 1, 48, 128
-0.999199, 147, 1, 162, 128
-0.999199, 361, 193, 392, 448
-0.9992, 155, 1, 170, 128
-0.999203, 433, 225, 464, 465
-0.999203, 199, 1, 214, 128
-0.999205, 275, 49, 290, 176
-0.999214, 377, 337, 392, 464
-0.999215, 429, 65, 444, 192
-0.999216, 393, 225, 424, 465
-0.999226, 219, 273, 234, 400
-0.999227, 49, 289, 64, 416
-0.999229, 61, 129, 76, 256
-0.999232, 71, 129, 86, 256
-0.999236, 45, 1, 60, 128
-0.999248, 351, 321, 366, 448
-0.999253, 267, 289, 282, 416
-0.999268, 405, 33, 420, 160
-0.99927, 103, 129, 118, 256
-0.999277, 55, 193, 70, 320
-0.999281, 291, 33, 306, 160
-0.999284, 423, 49, 438, 176
-0.999289, 93, 337, 108, 464
-0.9993, 93, 129, 108, 256
-0.999302, 79, 129, 94, 256
-0.999303, 425, 129, 456, 384
-0.999312, 247, 273, 262, 400
-0.999312, 341, 97, 372, 352
-0.999318, 395, 17, 410, 144
-0.999318, 379, 17, 394, 144
-0.999323, 239, 273, 254, 400
-0.999327, 37, 193, 68, 448
-0.999328, 269, 81, 284, 208
-0.999338, 95, 289, 110, 416
-0.999339, 345, 305, 360, 432
-0.999339, 393, 321, 408, 448
-0.99934, 103, 305, 118, 432
-0.999357, 279, 337, 294, 464
-0.999361, 117, 289, 132, 416
-0.999362, 293, 337, 308, 464
-0.999363, 269, 337, 284, 464
-0.999364, 111, 65, 126, 192
-0.999365, 161, 321, 176, 448
-0.999365, 87, 129, 102, 256
-0.999372, 111, 129, 126, 256
-0.999374, 383, 289, 398, 416
-0.999374, 417, 33, 432, 160
-0.999376, 309, 17, 324, 144
-0.999378, 281, 49, 296, 176
-0.999381, 333, 225, 364, 465
-0.999384, 233, 289, 248, 416
-0.999385, 349, 225, 380, 465
-0.999387, 465, 1, 496, 256
-0.999387, 259, 337, 274, 464
-0.999388, 85, 289, 100, 416
-0.999389, 105, 129, 136, 384
-0.99939, 259, 241, 274, 368
-0.999391, 373, 1, 388, 128
-0.999392, 333, 289, 348, 416
-0.999393, 325, 17, 340, 144
-0.999394, 171, 225, 186, 352
-0.999397, 385, 17, 400, 144
-0.999401, 361, 337, 376, 464
-0.999404, 317, 17, 332, 144
-0.999404, 217, 337, 232, 464
-0.999405, 119, 65, 134, 192
-0.999406, 143, 241, 158, 368
-0.999407, 79, 337, 94, 464
-0.999408, 439, 321, 454, 448
-0.999409, 303, 17, 318, 144
-0.999411, 67, 337, 82, 464
-0.999414, 425, 321, 440, 448
-0.999414, 247, 337, 262, 464
-0.999416, 273, 1, 288, 128
-0.999419, 189, 241, 204, 368
-0.999423, 323, 289, 338, 416
-0.999429, 163, 225, 178, 352
-0.999431, 117, 97, 148, 352
-0.999435, 277, 225, 308, 465
-0.999449, 69, 97, 100, 352
-0.999469, 25, 193, 56, 448
-0.999519, 81, 97, 112, 352
-0.99954, 129, 225, 160, 465
-0.999552, 381, 225, 412, 465
-0.999579, 305, 225, 336, 465
-0.999588, 381, 379, 396, 394
-0.999588, 189, 391, 204, 406
-0.99959, 117, 383, 132, 398
-0.99959, 137, 371, 152, 386
-0.999591, 111, 189, 126, 204
-0.999591, 207, 395, 222, 410
-0.999591, 161, 373, 176, 388
-0.999591, 197, 403, 212, 418
-0.999592, 227, 301, 242, 316
-0.999592, 421, 367, 436, 382
-0.999592, 213, 305, 228, 320
-0.999593, 71, 191, 86, 206
-0.999593, 381, 401, 396, 416
-0.999593, 297, 65, 360, 192
-0.999594, 429, 375, 444, 390
-0.999594, 215, 393, 230, 408
-0.999594, 119, 369, 134, 384
-0.999595, 105, 215, 120, 230
-0.999595, 249, 97, 280, 352
-0.999597, 211, 341, 226, 356
-0.999597, 33, 239, 48, 254
-0.999597, 321, 419, 336, 434
-0.999598, 109, 379, 124, 394
-0.999599, 249, 305, 264, 320
-0.999599, 189, 281, 204, 296
-0.9996, 203, 381, 218, 396
-0.9996, 127, 361, 142, 376
-0.999601, 97, 359, 112, 374
-0.999601, 197, 333, 212, 348
-0.999601, 233, 301, 248, 316
-0.999602, 141, 383, 156, 398
-0.999602, 189, 313, 204, 328
-0.999603, 163, 363, 178, 378
-0.999604, 197, 291, 212, 306
-0.999604, 241, 345, 256, 360
-0.999605, 223, 389, 238, 404
-0.999605, 203, 301, 218, 316
-0.999605, 105, 357, 120, 372
-0.999606, 111, 211, 126, 226
-0.999606, 353, 377, 368, 392
-0.999606, 123, 381, 138, 396
-0.999608, 79, 213, 94, 228
-0.999609, 239, 303, 254, 318
-0.99961, 101, 351, 116, 366
-0.999611, 183, 285, 198, 300
-0.999612, 113, 359, 128, 374
-0.999612, 203, 339, 218, 354
-0.999612, 139, 311, 154, 326
-0.999613, 329, 409, 344, 424
-0.999614, 403, 353, 418, 368
-0.999614, 127, 311, 142, 326
-0.999616, 189, 355, 204, 370
-0.999617, 173, 357, 188, 372
-0.999619, 185, 375, 200, 390
-0.999619, 431, 365, 446, 380
-0.999619, 395, 385, 410, 400
-0.99962, 261, 309, 276, 324
-0.99962, 141, 297, 156, 312
-0.99962, 387, 399, 402, 414
-0.999621, 287, 421, 302, 436
-0.999621, 179, 387, 194, 402
-0.999622, 151, 377, 166, 392
-0.999624, 397, 351, 412, 366
-0.999626, 173, 271, 188, 286
-0.999628, 179, 275, 194, 290
-0.999629, 375, 401, 390, 416
-0.999629, 305, 407, 320, 422
-0.99963, 133, 289, 148, 304
-0.99963, 255, 307, 270, 322
-0.999631, 179, 381, 194, 396
-0.999632, 281, 423, 296, 438
-0.999633, 387, 373, 402, 388
-0.999634, 193, 305, 208, 320
-0.999634, 267, 419, 282, 434
-0.999635, 201, 319, 216, 334
-0.999636, 9, 253, 24, 268
-0.999636, 211, 319, 226, 334
-0.999637, 61, 189, 76, 204
-0.999638, 197, 381, 212, 396
-0.999638, 197, 395, 212, 410
-0.999639, 369, 377, 384, 392
-0.999639, 437, 345, 452, 360
-0.99964, 259, 423, 274, 438
-0.999641, 349, 407, 364, 422
-0.999643, 171, 265, 186, 280
-0.999643, 301, 415, 316, 430
-0.999643, 253, 375, 268, 390
-0.999645, 131, 371, 146, 386
-0.999645, 313, 413, 328, 428
-0.999646, 173, 277, 188, 292
-0.999646, 415, 361, 430, 376
-0.999647, 359, 405, 374, 420
-0.99965, 409, 355, 424, 370
-0.999651, 369, 403, 384, 418
-0.999652, 137, 363, 152, 378
-0.999653, 173, 373, 188, 388
-0.999656, 93, 353, 108, 368
-0.999657, 181, 349, 196, 364
-0.999658, 339, 409, 354, 424
-0.999659, 137, 305, 152, 320
-0.999659, 165, 333, 180, 348
-0.999661, 3, 253, 18, 268
-0.999662, 189, 287, 204, 302
-0.999666, 171, 335, 186, 350
-0.999667, 167, 327, 182, 342
-0.999668, 345, 383, 360, 398
-0.999669, 205, 129, 236, 384
-0.999671, 375, 375, 390, 390
-0.999673, 169, 367, 184, 382
-0.999673, 437, 129, 468, 384
-0.999675, 153, 369, 168, 384
-0.999676, 203, 313, 218, 328
-0.999677, 363, 375, 378, 390
-0.999678, 103, 375, 118, 390
-0.999681, 143, 375, 158, 390
-0.999684, 207, 307, 222, 322
-0.999685, 199, 387, 214, 402
-0.999691, 207, 387, 222, 402
-0.999692, 381, 373, 396, 388
-0.999697, 137, 377, 152, 392
-0.999698, 113, 373, 128, 388
-0.999701, 139, 285, 154, 300
-0.999709, 133, 311, 148, 326
-0.999713, 195, 311, 210, 326
-0.999714, 209, 313, 224, 328
-0.999714, 173, 329, 188, 344
-0.999716, 293, 419, 308, 434
-0.99972, 145, 369, 160, 384
-0.999723, 161, 325, 176, 340
-0.999726, 1, 97, 32, 352
-0.999729, 409, 395, 424, 410
-0.999732, 319, 413, 334, 428
-0.999735, 17, 253, 32, 268
-0.999736, 173, 341, 188, 356
-0.999754, 201, 307, 216, 322
-0.999852, 141, 129, 172, 384
-0.99988, 453, 1, 484, 256
-0.999895, 289, 225, 320, 465
-0.999905, 193, 97, 256, 352
-0.99992, 277, 129, 308, 384
-0.999933, 353, 97, 384, 352
-1, 41, 97, 72, 352
-1.00003, 233, 1, 264, 256
-1.00012, 189, 1, 220, 256
-1.00012, 129, 129, 160, 384
-1.00012, 229, 97, 260, 352
-1.00013, 317, 129, 348, 384
-1.00015, 401, 129, 432, 384
-1.0002, 389, 129, 420, 384
-1.00021, 13, 129, 44, 384
-1.00021, 185, 129, 216, 384
-1.00022, 329, 97, 360, 352
-1.00023, 289, 97, 352, 352
-1.00024, 289, 129, 320, 384
-1.00033, 469, 97, 500, 352
-1.00036, 25, 97, 56, 352
-1.00038, 305, 129, 336, 384
-1.00038, 373, 129, 404, 384
-1.0009, 449, 97, 480, 352
-1.00097, 461, 225, 492, 465
-1.00113, 445, 225, 476, 465
-1.00942, 185, 177, 248, 304
