1927
-0.486107, 1, 97, 500, 338
-0.586392, 1, 1, 500, 256
-0.661548, 33, 65, 288, 320
-0.669416, 1, 1, 500, 338
-0.679273, 33, 1, 288, 338
-0.711472, 193, 1, 448, 338
-0.761678, 193, 97, 448, 338
-0.877867, 1, 113, 500, 240
-0.882176, 17, 65, 144, 320
-0.888598, 193, 1, 448, 256
-0.893486, 65, 97, 192, 338
-0.893525, 129, 65, 256, 320
-0.894465, 209, 97, 336, 338
-0.898602, 65, 1, 192, 338
-0.900405, 33, 129, 288, 256
-0.904216, 129, 1, 256, 338
-0.905197, 305, 97, 432, 338
-0.908197, 1, 161, 500, 288
-0.909375, 1, 1, 128, 338
-0.915387, 353, 97, 480, 338
-0.918162, 257, 97, 384, 338
-0.919266, 209, 1, 336, 338
-0.920681, 105, 129, 168, 256
-0.921043, 193, 113, 448, 240
-0.921584, 97, 129, 224, 256
-0.922435, 137, 129, 200, 256
-0.926311, 129, 161, 384, 288
-0.929914, 169, 145, 232, 272
-0.930415, 49, 129, 176, 256
-0.932127, 305, 1, 432, 256
-0.933054, 65, 145, 128, 272
-0.934579, 145, 145, 272, 272
-0.938898, 105, 177, 168, 240
-0.939256, 369, 1, 496, 256
-0.940301, 241, 1, 368, 256
-0.940976, 129, 177, 192, 304
-0.941519, 65, 169, 128, 232
-0.942275, 41, 97, 104, 224
-0.942345, 33, 177, 288, 304
-0.942918, 209, 113, 336, 240
-0.945123, 65, 1, 192, 256
-0.945304, 65, 177, 192, 304
-0.946367, 1, 97, 128, 224
-0.946647, 217, 113, 280, 240
-0.948014, 105, 177, 168, 304
-0.948725, 185, 169, 248, 232
-0.949503, 273, 1, 400, 338
-0.949988, 193, 1, 320, 256
-0.952528, 353, 1, 480, 338
-0.952537, 193, 161, 256, 288
-0.952803, 161, 97, 288, 224
-0.952877, 89, 153, 152, 216
-0.952937, 273, 97, 400, 224
-0.953174, 129, 169, 192, 232
-0.953366, 1, 81, 256, 208
-0.953904, 177, 97, 240, 224
-0.954072, 433, 97, 496, 224
-0.954175, 65, 145, 128, 208
-0.954825, 1, 65, 500, 192
-0.955367, 193, 161, 320, 288
-0.955721, 1, 145, 128, 272
-0.956554, 321, 113, 448, 240
-0.958081, 129, 193, 256, 320
-0.958388, 65, 97, 128, 224
-0.959211, 153, 169, 216, 232
-0.959261, 105, 121, 168, 184
-0.959409, 41, 145, 104, 272
-0.959451, 369, 113, 496, 240
-0.959531, 265, 97, 328, 224
-0.961017, 137, 145, 200, 208
-0.961642, 41, 153, 104, 216
-0.961833, 289, 97, 352, 224
-0.961884, 41, 89, 104, 152
-0.962766, 329, 113, 392, 240
-0.962797, 65, 193, 128, 256
-0.9631, 141, 129, 172, 256
-0.963387, 241, 97, 304, 224
-0.963543, 113, 145, 176, 208
-0.964097, 33, 121, 96, 184
-0.964108, 117, 177, 148, 240
-0.964149, 153, 193, 216, 320
-0.964159, 9, 113, 72, 240
-0.964808, 217, 169, 280, 232
-0.965073, 129, 169, 256, 232
-0.96531, 49, 153, 176, 216
-0.965908, 393, 113, 456, 240
-0.966324, 41, 177, 104, 240
-0.966402, 1, 209, 500, 336
-0.966953, 353, 113, 416, 240
-0.967388, 181, 129, 212, 256
-0.967537, 65, 121, 128, 184
-0.967613, 161, 193, 224, 256
-0.967679, 125, 129, 156, 256
-0.967981, 225, 161, 480, 288
-0.968104, 169, 129, 200, 256
-0.968117, 153, 129, 184, 256
-0.968307, 137, 177, 168, 240
-0.968445, 185, 193, 248, 256
-0.968548, 113, 129, 144, 256
-0.968652, 49, 81, 176, 208
-0.968756, 209, 169, 240, 232
-0.969195, 73, 193, 136, 320
-0.969335, 97, 129, 128, 256
-0.96956, 97, 81, 352, 208
-0.969807, 137, 121, 200, 184
-0.970124, 57, 161, 88, 224
-0.970531, 425, 113, 488, 176
-0.970598, 101, 169, 132, 232
-0.9711, 73, 169, 104, 232
-0.971327, 193, 129, 224, 256
-0.971467, 217, 161, 280, 288
-0.971514, 81, 177, 208, 240
-0.972049, 9, 129, 72, 192
-0.972423, 217, 145, 280, 208
-0.972658, 205, 113, 236, 240
-0.972672, 185, 145, 248, 208
-0.972695, 117, 153, 148, 216
-0.972718, 73, 129, 104, 256
-0.972821, 145, 177, 176, 304
-0.973214, 161, 137, 224, 200
-0.973373, 313, 113, 376, 176
-0.973406, 49, 81, 80, 144
-0.973651, 89, 169, 120, 232
-0.973887, 157, 177, 188, 304
-0.973908, 129, 193, 192, 256
-0.974426, 17, 161, 80, 224
-0.97443, 205, 161, 236, 288
-0.974532, 49, 193, 112, 320
-0.974855, 469, 97, 500, 224
-0.974871, 145, 81, 208, 208
-0.97503, 61, 129, 92, 256
-0.975479, 97, 145, 224, 208
-0.975505, 17, 89, 80, 152
-0.975567, 97, 81, 224, 208
-0.975642, 133, 177, 164, 304
-0.975716, 257, 65, 500, 192
-0.975725, 149, 177, 180, 240
-0.975738, 189, 169, 220, 232
-0.975909, 17, 177, 144, 240
-0.976022, 169, 177, 200, 304
-0.976194, 81, 121, 208, 184
-0.976301, 369, 65, 496, 192
-0.976501, 85, 145, 116, 272
-0.976591, 17, 121, 144, 184
-0.97685, 105, 201, 168, 264
-0.97698, 337, 113, 400, 176
-0.977004, 69, 145, 100, 208
-0.977351, 385, 121, 448, 184
-0.97744, 185, 121, 248, 184
-0.977456, 113, 177, 144, 304
-0.977529, 129, 153, 160, 216
-0.977929, 289, 129, 352, 192
-0.977962, 41, 65, 104, 320
-0.978171, 61, 81, 92, 144
-0.978174, 337, 145, 400, 208
-0.97829, 17, 193, 144, 320
-0.978315, 209, 169, 336, 232
-0.978367, 169, 177, 200, 240
-0.978522, 225, 121, 288, 184
-0.978553, 49, 81, 80, 208
-0.978668, 297, 97, 328, 224
-0.978982, 353, 161, 480, 288
-0.978984, 113, 81, 176, 208
-0.979225, 409, 137, 472, 200
-0.979363, 129, 193, 256, 256
-0.979492, 1, 97, 128, 160
-0.979571, 265, 121, 328, 184
-0.979614, 1, 153, 128, 216
-0.979749, 225, 113, 256, 240
-0.980116, 181, 177, 212, 304
-0.98024, 73, 65, 136, 320
-0.980279, 65, 105, 96, 168
-0.980284, 225, 65, 352, 192
-0.980436, 65, 97, 128, 160
-0.980558, 93, 145, 124, 208
-0.980567, 137, 121, 168, 184
-0.980625, 141, 153, 172, 216
-0.98085, 113, 129, 144, 192
-0.981061, 61, 81, 92, 208
-0.981062, 297, 153, 360, 216
-0.981071, 461, 113, 492, 176
-0.981265, 17, 161, 80, 288
-0.981362, 361, 153, 424, 216
-0.981442, 129, 121, 256, 184
-0.98167, 129, 65, 192, 320
-0.981753, 237, 97, 268, 224
-0.981904, 177, 65, 240, 320
-0.982062, 177, 209, 240, 336
-0.982068, 221, 177, 252, 240
-0.98212, 37, 97, 68, 224
-0.982211, 217, 161, 248, 288
-0.982222, 85, 97, 116, 224
-0.982244, 105, 97, 168, 338
-0.982265, 185, 193, 216, 256
-0.982282, 353, 97, 416, 338
-0.982443, 193, 177, 224, 304
-0.982459, 233, 169, 264, 232
-0.982499, 57, 185, 88, 248
-0.982508, 125, 129, 156, 192
-0.98251, 369, 121, 496, 184
-0.982641, 37, 137, 68, 200
-0.982681, 97, 193, 128, 256
-0.9828, 81, 145, 112, 208
-0.982808, 393, 161, 456, 224
-0.982942, 217, 97, 280, 338
-0.982953, 433, 137, 496, 200
-0.983016, 101, 177, 132, 304
-0.983019, 209, 193, 272, 256
-0.983079, 349, 113, 380, 240
-0.983165, 145, 145, 272, 208
-0.983392, 321, 65, 448, 192
-0.983532, 97, 121, 128, 184
-0.983758, 377, 113, 408, 240
-0.983887, 121, 201, 152, 264
-0.983936, 241, 161, 368, 288
-0.984007, 305, 161, 432, 288
-0.98402, 17, 65, 80, 320
-0.984052, 73, 177, 104, 304
-0.984106, 449, 113, 480, 240
-0.984172, 89, 81, 152, 208
-0.98419, 69, 193, 100, 256
-0.98423, 385, 161, 448, 288
-0.98424, 249, 153, 312, 216
-0.984256, 277, 113, 308, 240
-0.984264, 45, 161, 76, 224
-0.984268, 321, 169, 384, 232
-0.984362, 321, 137, 448, 200
-0.984518, 417, 161, 480, 224
-0.984595, 321, 161, 448, 224
-0.984684, 341, 113, 372, 176
-0.98469, 377, 97, 440, 338
-0.984778, 305, 97, 368, 338
-0.984797, 133, 201, 164, 264
-0.98483, 65, 201, 192, 264
-0.984878, 161, 113, 224, 176
-0.98497, 201, 145, 232, 208
-0.984986, 209, 145, 336, 208
-0.984989, 161, 121, 192, 184
-0.98502, 177, 193, 304, 256
-0.985059, 49, 161, 80, 288
-0.985162, 401, 113, 432, 240
-0.985187, 61, 177, 92, 304
-0.985247, 309, 97, 340, 224
-0.985279, 337, 97, 368, 224
-0.98534, 249, 113, 280, 240
-0.985469, 265, 97, 296, 224
-0.985477, 329, 97, 392, 338
-0.985577, 153, 153, 184, 216
-0.98559, 185, 129, 216, 192
-0.985642, 361, 113, 424, 176
-0.985664, 53, 129, 84, 192
-0.985669, 85, 193, 116, 256
-0.985716, 169, 153, 200, 216
-0.985749, 273, 121, 400, 184
-0.985756, 37, 97, 68, 160
-0.985991, 361, 113, 392, 240
-0.986017, 25, 129, 56, 192
-0.986043, 401, 97, 464, 338
-0.986089, 441, 113, 472, 176
-0.986105, 425, 145, 488, 272
-0.986116, 33, 169, 288, 232
-0.98618, 353, 161, 416, 288
-0.986258, 289, 97, 352, 160
-0.986273, 153, 65, 216, 320
-0.98638, 369, 161, 496, 224
-0.986573, 33, 33, 160, 160
-0.986651, 241, 97, 304, 160
-0.98668, 177, 113, 304, 176
-0.986861, 313, 65, 376, 192
-0.986867, 389, 113, 420, 240
-0.986883, 197, 193, 228, 256
-0.986904, 257, 97, 320, 338
-0.986907, 41, 65, 104, 128
-0.986985, 321, 113, 448, 176
-0.98699, 425, 97, 488, 338
-0.987006, 425, 113, 456, 240
-0.987062, 417, 89, 480, 152
-0.987267, 281, 145, 344, 272
-0.987322, 225, 145, 256, 208
-0.987349, 85, 121, 116, 184
-0.987472, 9, 129, 40, 192
-0.987475, 217, 65, 280, 192
-0.987482, 173, 201, 204, 264
-0.987817, 173, 129, 204, 192
-0.987818, 9, 65, 72, 192
-0.987827, 281, 65, 344, 320
-0.98784, 49, 105, 80, 168
-0.987841, 409, 65, 472, 192
-0.987878, 385, 97, 448, 160
-0.987929, 437, 113, 468, 240
-0.987984, 213, 201, 244, 264
-0.988014, 105, 181, 168, 212
-0.988065, 137, 1, 200, 338
-0.988126, 413, 121, 444, 184
-0.988173, 413, 113, 444, 240
-0.988266, 65, 193, 128, 224
-0.98828, 273, 145, 400, 208
-0.988298, 393, 121, 424, 184
-0.988382, 265, 97, 328, 160
-0.988412, 49, 81, 176, 144
-0.988572, 321, 113, 352, 240
-0.988621, 149, 121, 180, 184
-0.988639, 145, 181, 208, 212
-0.988659, 41, 201, 104, 264
-0.988668, 105, 1, 168, 338
-0.988674, 145, 209, 176, 272
-0.988677, 185, 181, 248, 212
-0.98877, 177, 193, 240, 224
-0.988781, 341, 137, 372, 200
-0.988787, 65, 1, 128, 338
-0.988805, 105, 161, 168, 192
-0.98886, 357, 121, 388, 184
-0.988949, 161, 201, 192, 264
-0.988954, 41, 85, 104, 116
-0.988959, 65, 173, 128, 204
-0.988986, 257, 145, 320, 272
-0.989004, 81, 141, 144, 172
-0.989028, 377, 121, 408, 184
-0.989098, 213, 145, 244, 208
-0.989129, 257, 169, 384, 232
-0.989167, 113, 145, 176, 176
-0.98928, 185, 169, 248, 200
-0.989281, 37, 145, 68, 272
-0.989316, 329, 153, 360, 216
-0.989363, 105, 193, 168, 224
-0.989398, 113, 129, 176, 160
-0.989423, 217, 121, 248, 184
-0.989468, 73, 81, 104, 144
-0.989542, 425, 137, 456, 200
-0.989583, 429, 113, 460, 176
-0.989608, 385, 153, 416, 216
-0.989683, 65, 157, 128, 188
-0.989707, 177, 1, 240, 338
-0.989774, 297, 117, 360, 148
-0.989777, 273, 49, 400, 176
-0.989904, 41, 97, 104, 128
-0.989937, 353, 89, 480, 152
-0.989952, 129, 209, 384, 336
-0.989985, 73, 81, 104, 208
-0.990014, 329, 121, 360, 184
-0.990085, 25, 113, 56, 240
-0.990143, 145, 161, 208, 192
-0.990157, 161, 49, 288, 176
-0.990202, 41, 153, 104, 184
-0.990206, 89, 129, 152, 160
-0.990211, 73, 73, 136, 136
-0.990233, 137, 129, 200, 160
-0.990236, 305, 161, 368, 288
-0.990238, 273, 153, 336, 216
-0.990273, 57, 129, 120, 160
-0.990306, 217, 177, 280, 208
-0.990317, 345, 89, 408, 152
-0.990321, 41, 189, 104, 220
-0.990329, 109, 201, 140, 264
-0.990369, 1, 113, 32, 240
-0.990408, 301, 121, 332, 184
-0.99042, 241, 113, 272, 176
-0.990435, 145, 193, 208, 224
-0.990439, 137, 149, 200, 180
-0.990465, 385, 65, 448, 192
-0.990466, 17, 185, 80, 248
-0.990556, 57, 141, 120, 172
-0.990568, 313, 89, 376, 152
-0.990591, 33, 1, 96, 338
-0.990715, 273, 117, 336, 148
-0.990773, 49, 49, 112, 176
-0.990779, 385, 169, 448, 200
-0.990784, 229, 161, 260, 288
-0.990791, 417, 165, 480, 196
-0.990827, 337, 65, 400, 192
-0.990903, 257, 97, 384, 160
-0.990963, 1, 301, 64, 332
-0.991046, 25, 169, 88, 200
-0.991104, 433, 113, 496, 144
-0.991229, 97, 97, 160, 160
-0.991276, 225, 121, 288, 152
-0.991404, 317, 113, 348, 176
-0.991406, 177, 125, 240, 156
-0.991408, 57, 117, 120, 148
-0.99141, 161, 149, 224, 180
-0.991425, 85, 193, 116, 320
-0.991426, 145, 213, 208, 244
-0.991456, 317, 137, 348, 200
-0.991473, 289, 121, 320, 184
-0.99148, 217, 161, 280, 192
-0.991504, 41, 201, 104, 232
-0.991512, 129, 97, 256, 160
-0.991513, 177, 209, 240, 240
-0.991547, 201, 193, 264, 224
-0.991553, 33, 145, 288, 208
-0.991571, 133, 81, 164, 208
-0.991578, 89, 205, 152, 236
-0.991598, 157, 81, 188, 208
-0.991636, 209, 89, 336, 152
-0.991648, 353, 121, 416, 152
-0.991653, 469, 137, 500, 200
-0.991665, 113, 205, 176, 236
-0.991711, 249, 121, 312, 152
-0.991743, 401, 153, 432, 216
-0.991761, 321, 121, 384, 152
-0.991763, 129, 169, 384, 232
-0.991808, 273, 113, 304, 176
-0.991855, 33, 133, 96, 164
-0.99188, 65, 205, 128, 236
-0.991881, 1, 161, 500, 224
-0.991882, 337, 161, 400, 192
-0.991883, 297, 165, 360, 196
-0.991903, 113, 177, 144, 208
-0.991907, 9, 153, 72, 184
-0.991925, 373, 145, 404, 208
-0.99193, 201, 205, 264, 236
-0.991933, 385, 157, 448, 188
-0.991964, 137, 97, 200, 160
-0.991977, 129, 193, 256, 224
-0.991993, 189, 81, 220, 208
-0.992023, 17, 185, 80, 216
-0.992026, 465, 89, 496, 152
-0.992029, 313, 105, 376, 136
-0.992032, 353, 1, 416, 256
-0.992038, 1, 165, 64, 196
-0.992042, 17, 93, 80, 124
-0.992042, 125, 193, 156, 224
-0.992048, 33, 109, 96, 140
-0.992054, 377, 121, 440, 152
-0.992062, 361, 165, 424, 196
-0.992067, 281, 129, 344, 160
-0.992068, 125, 177, 156, 208
-0.992082, 69, 189, 100, 220
-0.992104, 65, 93, 128, 124
-0.992108, 185, 157, 248, 188
-0.992114, 225, 121, 352, 184
-0.992159, 425, 153, 488, 184
-0.992164, 113, 189, 144, 220
-0.992167, 129, 181, 256, 212
-0.992182, 17, 201, 144, 264
-0.992184, 61, 85, 92, 116
-0.992196, 361, 153, 424, 184
-0.992205, 49, 85, 80, 116
-0.992208, 9, 133, 72, 164
-0.992208, 241, 169, 304, 200
-0.992238, 33, 121, 96, 152
-0.992252, 409, 121, 472, 152
-0.992252, 225, 189, 288, 220
-0.992264, 313, 149, 376, 180
-0.992271, 185, 141, 248, 172
-0.992297, 57, 173, 88, 204
-0.992299, 117, 165, 148, 196
-0.992299, 337, 109, 400, 140
-0.992303, 57, 185, 88, 216
-0.992314, 105, 117, 168, 148
-0.992351, 265, 105, 328, 136
-0.992352, 137, 177, 152, 240
-0.992354, 81, 193, 112, 224
-0.992355, 409, 177, 472, 208
-0.99236, 201, 121, 264, 152
-0.992385, 273, 161, 336, 192
-0.992386, 137, 177, 168, 208
-0.992392, 217, 97, 280, 160
-0.992397, 41, 305, 104, 336
-0.99242, 101, 193, 132, 224
-0.992431, 113, 105, 144, 168
-0.992442, 209, 181, 240, 212
-0.992448, 181, 181, 212, 212
-0.992496, 377, 1, 440, 256
-0.992508, 129, 161, 160, 192
-0.992519, 65, 153, 96, 184
-0.992534, 305, 117, 336, 148
-0.992538, 253, 129, 284, 192
-0.992541, 169, 181, 200, 212
-0.992548, 105, 165, 136, 196
-0.992558, 337, 149, 400, 180
-0.992564, 145, 117, 208, 148
-0.992568, 137, 197, 168, 228
-0.99257, 329, 1, 392, 256
-0.992577, 9, 121, 72, 152
-0.992593, 185, 193, 216, 224
-0.992603, 73, 81, 136, 112
-0.992604, 213, 169, 244, 200
-0.992605, 141, 125, 172, 156
-0.992608, 113, 201, 144, 232
-0.992623, 65, 97, 96, 128
-0.992632, 337, 133, 400, 164
-0.992638, 149, 181, 180, 212
-0.992642, 1, 273, 64, 336
-0.992647, 53, 161, 84, 192
-0.992656, 409, 109, 472, 140
-0.992661, 113, 141, 144, 172
-0.992668, 161, 141, 192, 172
-0.992669, 101, 125, 132, 156
-0.992677, 145, 161, 176, 192
-0.992682, 57, 57, 88, 120
-0.992694, 229, 181, 260, 212
-0.992702, 93, 173, 124, 204
-0.992702, 69, 169, 100, 200
-0.992706, 93, 141, 124, 172
-0.992707, 265, 145, 328, 176
-0.992709, 313, 133, 376, 164
-0.992717, 197, 193, 228, 224
-0.992728, 193, 181, 224, 212
-0.992733, 449, 161, 480, 224
-0.992734, 189, 161, 220, 192
-0.992739, 125, 205, 156, 236
-0.992748, 225, 149, 288, 180
-0.992766, 461, 113, 492, 144
-0.992774, 413, 161, 444, 224
-0.992777, 157, 129, 188, 160
-0.992787, 401, 141, 464, 172
-0.99279, 101, 153, 132, 184
-0.99279, 433, 125, 496, 156
-0.992801, 113, 153, 144, 184
-0.992821, 65, 109, 96, 140
-0.992826, 201, 165, 232, 196
-0.992827, 49, 105, 80, 136
-0.992831, 197, 121, 228, 184
-0.992833, 433, 177, 496, 208
-0.992836, 321, 173, 384, 204
-0.992836, 1, 121, 256, 184
-0.992855, 141, 141, 172, 172
-0.992858, 225, 161, 256, 192
-0.992859, 437, 137, 468, 200
-0.992859, 69, 201, 100, 232
-0.992863, 413, 161, 444, 192
-0.992873, 321, 157, 352, 188
-0.992873, 177, 161, 208, 192
-0.992874, 249, 157, 312, 188
-0.992881, 105, 81, 136, 208
-0.992887, 173, 193, 204, 224
-0.992892, 425, 141, 488, 172
-0.992893, 213, 193, 244, 224
-0.9929, 297, 177, 360, 208
-0.9929, 225, 109, 288, 140
-0.992907, 81, 145, 112, 176
-0.992915, 45, 173, 76, 204
-0.992918, 89, 129, 120, 160
-0.992946, 117, 129, 148, 160
-0.992952, 401, 165, 432, 196
-0.992959, 149, 197, 180, 228
-0.992961, 329, 161, 392, 288
-0.992982, 49, 161, 176, 192
-0.992991, 321, 121, 352, 152
-0.992999, 161, 157, 192, 188
-0.993021, 81, 117, 144, 148
-0.993021, 213, 205, 244, 236
-0.993024, 329, 169, 360, 200
-0.993026, 161, 137, 224, 168
-0.993028, 425, 169, 456, 200
-0.993033, 177, 113, 240, 144
-0.993039, 41, 161, 72, 192
-0.993042, 341, 161, 372, 192
-0.993044, 293, 121, 324, 152
-0.993048, 305, 1, 368, 256
-0.993049, 53, 149, 84, 180
-0.993056, 125, 145, 156, 176
-0.993061, 77, 129, 108, 160
-0.993069, 121, 81, 152, 208
-0.99307, 65, 129, 96, 160
-0.993075, 13, 133, 44, 164
-0.99308, 237, 117, 268, 148
-0.993088, 1, 129, 500, 192
-0.993088, 1, 133, 32, 164
-0.993088, 177, 149, 208, 180
-0.993091, 361, 109, 424, 140
-0.993095, 45, 185, 76, 216
-0.993096, 65, 105, 128, 136
-0.993099, 33, 33, 288, 160
-0.993101, 341, 117, 372, 148
-0.993102, 81, 173, 112, 204
-0.993107, 131, 169, 146, 232
-0.993109, 433, 101, 496, 132
-0.993113, 9, 301, 40, 332
-0.993113, 129, 125, 160, 156
-0.993118, 77, 157, 108, 188
-0.993122, 449, 121, 480, 152
-0.993125, 257, 49, 320, 176
-0.993128, 173, 81, 204, 208
-0.993137, 165, 213, 196, 244
-0.993155, 121, 217, 184, 248
-0.993164, 177, 213, 208, 244
-0.993165, 273, 117, 304, 148
-0.993168, 173, 125, 204, 156
-0.99317, 149, 213, 180, 244
-0.993175, 197, 213, 228, 244
-0.993175, 49, 173, 176, 204
-0.993177, 289, 149, 352, 180
-0.993181, 57, 197, 88, 228
-0.993191, 25, 293, 88, 324
-0.993191, 437, 161, 468, 192
-0.993202, 185, 97, 248, 160
-0.993216, 225, 133, 288, 164
-0.993222, 361, 141, 424, 172
-0.993227, 461, 169, 492, 200
-0.993228, 433, 121, 464, 152
-0.993234, 137, 209, 168, 240
-0.993239, 1, 81, 64, 112
-0.99324, 361, 121, 392, 152
-0.993242, 225, 197, 256, 228
-0.993246, 63, 161, 78, 224
-0.993246, 421, 121, 452, 152
-0.993247, 225, 121, 256, 152
-0.993248, 341, 145, 372, 176
-0.99325, 385, 109, 448, 140
-0.993251, 89, 157, 120, 188
-0.993257, 197, 149, 228, 180
-0.993258, 389, 161, 420, 192
-0.993259, 229, 105, 260, 168
-0.993262, 161, 197, 192, 228
-0.993267, 41, 73, 104, 104
-0.993272, 37, 305, 68, 336
-0.993279, 465, 101, 496, 132
-0.99328, 97, 209, 128, 240
-0.993282, 341, 161, 372, 224
-0.993286, 241, 173, 272, 204
-0.993287, 77, 97, 108, 128
-0.993289, 197, 125, 228, 156
-0.993291, 353, 109, 384, 140
-0.993294, 33, 93, 64, 124
-0.993297, 401, 121, 432, 152
-0.993298, 253, 125, 284, 156
-0.993308, 377, 121, 408, 152
-0.993309, 73, 85, 104, 116
-0.99332, 165, 169, 196, 200
-0.993335, 469, 141, 500, 172
-0.993337, 143, 177, 158, 240
-0.993337, 49, 125, 80, 156
-0.993338, 357, 165, 388, 196
-0.993342, 409, 177, 440, 208
-0.993343, 329, 141, 360, 172
-0.993344, 85, 117, 116, 148
-0.993347, 5, 153, 36, 184
-0.993349, 449, 161, 480, 192
-0.993353, 33, 133, 64, 164
-0.993353, 213, 125, 244, 156
-0.993357, 185, 125, 216, 156
-0.993358, 17, 149, 48, 180
-0.993372, 249, 133, 312, 164
-0.993381, 201, 109, 264, 140
-0.993388, 289, 109, 320, 140
-0.9934, 361, 65, 424, 192
-0.993423, 65, 305, 128, 336
-0.993423, 385, 181, 448, 212
-0.993434, 265, 173, 328, 204
-0.993437, 353, 177, 416, 208
-0.99345, 49, 193, 176, 224
-0.993467, 115, 177, 130, 240
-0.99351, 221, 169, 236, 232
-0.993526, 457, 137, 488, 200
-0.993528, 225, 201, 288, 232
-0.993543, 237, 145, 268, 208
-0.993564, 425, 161, 456, 224
-0.993599, 17, 197, 80, 228
-0.993606, 71, 161, 86, 224
-0.99361, 125, 177, 140, 240
-0.993665, 97, 161, 224, 192
-0.993677, 9, 109, 72, 140
-0.993708, 417, 1, 480, 256
-0.993719, 257, 153, 288, 216
-0.993755, 1, 289, 64, 320
-0.993772, 297, 177, 360, 240
-0.993811, 289, 101, 352, 132
-0.993836, 77, 161, 92, 224
-0.993898, 53, 81, 68, 144
-0.99397, 107, 169, 122, 232
-0.993975, 225, 169, 480, 232
-0.993979, 201, 1, 264, 338
-0.994019, 13, 113, 44, 240
-0.994037, 75, 81, 90, 144
-0.994084, 97, 217, 160, 248
-0.994087, 81, 141, 208, 172
-0.99415, 139, 153, 154, 216
-0.994181, 129, 145, 384, 208
-0.994232, 469, 49, 500, 176
-0.994263, 257, 1, 320, 256
-0.994264, 225, 1, 288, 338
-0.99428, 73, 69, 136, 100
-0.994291, 245, 169, 276, 232
-0.994308, 209, 89, 272, 120
-0.994339, 17, 69, 80, 100
-0.994349, 409, 97, 472, 128
-0.994356, 153, 105, 216, 136
-0.994363, 97, 305, 160, 336
-0.994376, 97, 193, 352, 256
-0.994411, 417, 97, 448, 160
-0.994412, 57, 293, 120, 324
-0.994418, 177, 177, 304, 208
-0.994439, 183, 177, 198, 240
-0.994458, 129, 217, 256, 280
-0.994489, 233, 85, 296, 116
-0.994491, 193, 169, 208, 232
-0.994507, 119, 153, 134, 216
-0.99452, 1, 193, 256, 256
-0.994522, 433, 49, 496, 176
-0.994564, 149, 177, 164, 240
-0.994569, 45, 185, 76, 248
-0.994572, 305, 89, 432, 152
-0.994589, 441, 65, 472, 192
-0.994608, 357, 97, 388, 160
-0.994627, 83, 169, 98, 232
-0.994646, 101, 169, 116, 232
-0.994656, 33, 161, 64, 224
-0.994674, 205, 177, 220, 240
-0.9947, 199, 169, 214, 232
-0.994722, 233, 1, 296, 256
-0.994768, 93, 169, 108, 232
-0.994783, 241, 177, 304, 240
-0.99479, 193, 113, 448, 176
-0.994792, 177, 217, 240, 280
-0.994839, 33, 149, 160, 180
-0.99484, 365, 161, 396, 288
-0.994847, 225, 201, 256, 264
-0.994882, 465, 105, 480, 168
-0.994899, 321, 165, 448, 196
-0.994934, 393, 161, 424, 288
-0.994956, 277, 145, 308, 208
-0.994972, 165, 177, 180, 240
-0.994983, 353, 145, 384, 208
-0.994999, 215, 177, 230, 240
-0.995005, 1, 65, 64, 128
-0.99504, 59, 81, 74, 144
-0.995078, 111, 145, 126, 208
-0.995094, 71, 185, 86, 248
-0.995115, 127, 145, 142, 208
-0.995117, 155, 177, 170, 240
-0.995124, 65, 185, 80, 248
-0.995163, 145, 161, 272, 192
-0.995178, 441, 89, 472, 152
-0.995178, 173, 177, 188, 240
-0.995182, 109, 193, 124, 256
-0.995203, 369, 177, 432, 240
-0.995212, 81, 129, 208, 160
-0.995222, 457, 65, 488, 192
-0.995265, 437, 161, 468, 224
-0.995311, 85, 145, 100, 208
-0.995336, 227, 177, 242, 240
-0.995371, 131, 193, 146, 256
-0.995385, 147, 153, 162, 216
-0.995395, 49, 33, 80, 160
-0.995405, 225, 137, 480, 200
-0.995501, 69, 81, 84, 144
-0.995503, 483, 105, 498, 168
-0.99551, 305, 145, 336, 208
-0.995514, 57, 161, 72, 224
-0.995556, 79, 105, 94, 168
-0.995606, 77, 185, 92, 248
-0.995668, 105, 121, 120, 184
-0.995714, 145, 217, 208, 280
-0.995736, 369, 165, 496, 196
-0.995738, 1, 173, 128, 204
-0.995744, 145, 81, 176, 208
-0.995752, 477, 105, 492, 168
-0.995753, 145, 145, 272, 176
-0.995766, 9, 1, 72, 338
-0.995793, 129, 33, 384, 160
-0.995806, 459, 113, 474, 176
-0.995808, 97, 121, 352, 184
-0.995814, 129, 125, 256, 156
-0.995838, 189, 193, 204, 256
-0.995877, 55, 137, 70, 200
-0.99588, 51, 105, 66, 168
-0.995886, 33, 89, 160, 120
-0.995895, 1, 185, 500, 248
-0.995899, 1, 129, 128, 160
-0.995902, 461, 145, 492, 272
-0.995932, 233, 177, 248, 240
-0.995942, 281, 65, 312, 192
-0.995974, 301, 97, 332, 160
-0.99598, 193, 49, 256, 176
-0.996015, 81, 81, 96, 144
-0.996021, 147, 121, 162, 184
-0.996069, 131, 121, 146, 184
-0.996159, 1, 161, 128, 192
-0.996161, 85, 89, 116, 152
-0.996162, 117, 129, 132, 192
-0.996183, 351, 113, 366, 176
-0.996221, 61, 113, 76, 176
-0.996225, 155, 145, 170, 208
-0.996235, 393, 97, 424, 160
-0.996266, 199, 193, 214, 256
-0.996268, 471, 105, 486, 168
-0.996276, 49, 209, 176, 240
-0.99629, 289, 121, 416, 152
-0.996294, 137, 121, 152, 184
-0.996294, 97, 145, 112, 208
-0.996297, 129, 209, 256, 240
-0.996297, 217, 137, 232, 200
-0.996319, 153, 121, 168, 184
-0.996328, 241, 89, 272, 152
-0.996333, 103, 145, 118, 208
-0.996337, 209, 161, 336, 192
-0.996346, 369, 121, 496, 152
-0.996355, 79, 137, 94, 200
-0.996361, 225, 173, 352, 204
-0.996369, 73, 121, 88, 184
-0.99637, 183, 153, 198, 216
-0.996371, 357, 65, 388, 192
-0.996372, 289, 49, 352, 176
-0.996373, 207, 153, 222, 216
-0.996393, 141, 201, 156, 264
-0.996398, 133, 145, 148, 208
-0.9964, 33, 57, 160, 120
-0.996414, 45, 97, 60, 160
-0.996416, 1, 189, 128, 220
-0.996427, 241, 121, 368, 152
-0.996429, 329, 97, 360, 160
-0.996447, 409, 161, 440, 288
-0.996465, 57, 65, 88, 320
-0.996488, 225, 121, 240, 184
-0.9965, 15, 129, 30, 192
-0.996501, 125, 105, 156, 168
-0.996506, 103, 193, 118, 256
-0.996513, 321, 153, 448, 184
-0.996515, 61, 173, 76, 204
-0.996533, 317, 169, 348, 232
-0.996541, 61, 137, 76, 200
-0.996544, 227, 153, 242, 216
-0.996556, 1, 89, 256, 152
-0.996561, 177, 193, 304, 224
-0.996562, 465, 161, 496, 224
-0.996564, 67, 121, 82, 184
-0.996575, 73, 189, 88, 220
-0.996576, 127, 177, 142, 208
-0.996589, 289, 97, 320, 160
-0.996623, 177, 145, 192, 208
-0.99663, 41, 129, 56, 192
-0.996641, 369, 65, 400, 192
-0.996644, 137, 177, 152, 208
-0.996647, 453, 89, 484, 152
-0.996684, 179, 121, 194, 184
-0.996696, 225, 193, 352, 256
-0.996718, 381, 161, 412, 288
-0.99673, 135, 197, 150, 228
-0.996743, 29, 129, 44, 192
-0.996754, 177, 105, 208, 168
-0.996772, 147, 201, 162, 264
-0.996777, 111, 121, 126, 184
-0.996789, 233, 153, 248, 216
-0.996793, 201, 1, 264, 256
-0.996799, 69, 65, 100, 320
-0.996805, 177, 201, 192, 264
-0.996806, 117, 201, 132, 264
-0.996809, 441, 113, 456, 176
-0.99681, 87, 121, 102, 184
-0.996822, 119, 177, 134, 208
-0.996873, 289, 145, 320, 208
-0.996878, 171, 201, 186, 264
-0.996902, 191, 137, 206, 200
-0.99691, 51, 169, 66, 232
-0.996917, 293, 145, 324, 272
-0.996919, 91, 145, 106, 208
-0.996922, 65, 185, 80, 216
-0.996922, 383, 121, 398, 184
-0.996925, 9, 129, 24, 192
-0.996945, 429, 121, 444, 184
-0.996948, 199, 137, 214, 200
-0.996955, 193, 181, 208, 212
-0.996963, 447, 113, 462, 176
-0.996966, 183, 201, 198, 264
-0.996971, 35, 129, 50, 192
-0.996974, 21, 129, 36, 192
-0.996976, 223, 209, 238, 272
-0.996982, 157, 209, 172, 272
-0.996992, 177, 125, 304, 156
-0.996994, 173, 121, 188, 184
-0.996996, 99, 121, 114, 184
-0.996996, 95, 193, 110, 256
-0.996997, 211, 201, 226, 264
-0.997008, 257, 157, 384, 188
-0.997015, 165, 209, 180, 272
-0.997018, 435, 129, 450, 192
-0.997025, 321, 65, 352, 192
-0.997026, 127, 189, 142, 220
-0.997028, 77, 85, 92, 116
-0.99703, 57, 185, 72, 248
-0.99703, 205, 209, 220, 272
-0.997037, 241, 113, 256, 176
-0.997057, 161, 121, 176, 184
-0.99706, 17, 101, 144, 132
-0.997063, 49, 137, 64, 200
-0.99707, 341, 161, 356, 224
-0.997073, 209, 209, 240, 336
-0.997075, 117, 97, 148, 338
-0.997087, 177, 205, 304, 236
-0.997098, 209, 129, 224, 192
-0.997099, 51, 85, 66, 116
-0.997106, 143, 181, 158, 212
-0.997107, 249, 113, 264, 176
-0.997111, 153, 97, 184, 160
-0.997112, 305, 113, 320, 176
-0.997119, 377, 121, 392, 184
-0.99712, 1, 129, 16, 192
-0.997122, 249, 65, 280, 192
-0.997122, 351, 137, 366, 200
-0.997165, 357, 113, 372, 176
-0.997166, 335, 153, 350, 216
-0.997168, 319, 121, 334, 184
-0.997168, 453, 121, 468, 184
-0.997179, 161, 145, 176, 208
-0.997187, 185, 129, 200, 192
-0.997188, 217, 201, 232, 264
-0.997203, 345, 113, 360, 176
-0.997217, 125, 121, 140, 184
-0.997231, 85, 193, 100, 256
-0.997233, 77, 97, 92, 128
-0.99724, 325, 113, 340, 176
-0.997272, 273, 169, 400, 200
-0.997273, 65, 117, 192, 148
-0.997279, 123, 165, 138, 196
-0.997339, 261, 105, 292, 168
-0.997358, 401, 177, 432, 240
-0.997385, 321, 109, 448, 140
-0.997392, 133, 165, 148, 196
-0.997398, 209, 109, 336, 140
-0.997415, 17, 117, 144, 148
-0.997418, 225, 173, 240, 204
-0.997429, 81, 193, 96, 224
-0.997439, 117, 165, 132, 196
-0.997448, 221, 65, 252, 192
-0.997457, 193, 193, 448, 256
-0.997475, 55, 173, 70, 204
-0.997482, 193, 149, 320, 180
-0.997498, 209, 97, 240, 338
-0.997501, 191, 193, 206, 224
-0.997504, 181, 181, 196, 212
-0.997524, 71, 85, 86, 116
-0.997526, 199, 181, 214, 212
-0.997533, 61, 85, 76, 116
-0.997539, 149, 181, 164, 212
-0.997549, 121, 133, 136, 164
-0.997561, 117, 189, 132, 220
-0.997574, 111, 125, 126, 156
-0.997589, 141, 197, 156, 228
-0.997594, 187, 181, 202, 212
-0.99761, 67, 173, 82, 204
-0.997625, 145, 161, 160, 192
-0.997628, 109, 193, 124, 224
-0.99763, 421, 65, 452, 192
-0.997641, 103, 129, 118, 160
-0.997651, 329, 177, 360, 240
-0.997659, 1, 201, 128, 232
-0.997667, 257, 89, 500, 152
-0.997674, 127, 201, 142, 232
-0.997676, 103, 193, 118, 224
-0.997677, 393, 65, 424, 192
-0.997698, 59, 161, 74, 192
-0.997699, 313, 117, 328, 148
-0.997703, 369, 153, 496, 184
-0.997704, 129, 145, 144, 176
-0.997708, 369, 105, 496, 136
-0.997718, 377, 97, 408, 160
-0.997719, 201, 193, 216, 224
-0.997722, 463, 113, 478, 144
-0.997723, 337, 161, 368, 288
-0.997729, 127, 133, 142, 164
-0.997731, 191, 161, 206, 192
-0.997738, 139, 161, 154, 192
-0.997741, 77, 153, 92, 184
-0.997745, 77, 109, 92, 140
-0.997754, 141, 97, 172, 338
-0.997757, 109, 173, 124, 204
-0.99776, 169, 141, 184, 172
-0.997768, 117, 153, 132, 184
-0.997773, 115, 141, 130, 172
-0.997789, 97, 97, 352, 160
-0.997792, 159, 161, 174, 192
-0.997797, 87, 193, 102, 224
-0.99781, 149, 197, 164, 228
-0.997812, 361, 97, 392, 338
-0.997816, 1, 305, 128, 336
-0.997817, 111, 161, 126, 192
-0.997828, 385, 1, 448, 338
-0.997828, 401, 97, 432, 338
-0.997831, 129, 97, 160, 338
-0.997847, 177, 209, 304, 336
-0.997849, 297, 169, 328, 232
-0.997853, 71, 157, 86, 188
-0.997857, 97, 133, 112, 164
-0.997862, 273, 109, 400, 140
-0.997869, 219, 165, 234, 196
-0.997884, 151, 161, 166, 192
-0.997886, 385, 97, 416, 338
-0.997886, 95, 193, 110, 224
-0.997895, 233, 181, 248, 212
-0.997898, 137, 97, 168, 160
-0.997901, 175, 181, 190, 212
-0.997902, 199, 161, 214, 192
-0.997903, 65, 161, 80, 192
-0.997903, 185, 193, 200, 224
-0.997908, 305, 117, 320, 148
-0.99791, 485, 109, 500, 140
-0.997911, 155, 125, 170, 156
-0.997917, 21, 105, 52, 168
-0.997921, 321, 177, 448, 208
-0.997922, 229, 97, 260, 338
-0.997923, 205, 181, 220, 212
-0.997929, 163, 129, 178, 160
-0.997932, 65, 197, 80, 228
-0.997938, 89, 129, 104, 160
-0.997942, 73, 173, 88, 204
-0.997945, 421, 165, 436, 196
-0.997947, 71, 105, 86, 136
-0.997954, 273, 133, 400, 164
-0.997962, 429, 169, 444, 200
-0.997974, 185, 161, 200, 192
-0.997982, 123, 145, 138, 176
-0.997984, 59, 185, 74, 216
-0.998, 369, 177, 496, 208
-0.998003, 345, 97, 376, 338
-0.998003, 179, 149, 194, 180
-0.998005, 269, 169, 300, 232
-0.998006, 167, 181, 182, 212
-0.998013, 405, 97, 436, 160
-0.998013, 257, 145, 384, 176
-0.998015, 353, 169, 384, 232
-0.998034, 319, 117, 334, 148
-0.998038, 163, 145, 178, 176
-0.998044, 51, 105, 66, 136
-0.998046, 137, 145, 152, 176
-0.99805, 117, 201, 132, 232
-0.99805, 201, 65, 232, 192
-0.998054, 101, 97, 132, 338
-0.998075, 225, 185, 352, 216
-0.998085, 149, 125, 164, 156
-0.998097, 105, 153, 120, 184
-0.998097, 89, 145, 104, 176
-0.998099, 53, 185, 68, 216
-0.998103, 161, 181, 176, 212
-0.998114, 37, 65, 68, 320
-0.998115, 335, 157, 350, 188
-0.998119, 105, 141, 120, 172
-0.998124, 325, 121, 340, 152
-0.998129, 83, 153, 98, 184
-0.998132, 157, 145, 172, 176
-0.998141, 289, 1, 352, 338
-0.99815, 225, 193, 240, 224
-0.998152, 475, 113, 490, 144
-0.998153, 65, 33, 96, 160
-0.998167, 141, 125, 156, 156
-0.998172, 277, 161, 308, 288
-0.998174, 231, 165, 246, 196
-0.998174, 141, 209, 156, 240
-0.998183, 469, 113, 484, 144
-0.998186, 185, 65, 216, 320
-0.998186, 337, 141, 464, 172
-0.998188, 407, 165, 422, 196
-0.998193, 155, 181, 170, 212
-0.998198, 293, 97, 324, 338
-0.998202, 165, 161, 180, 192
-0.998204, 435, 169, 450, 200
-0.998228, 337, 1, 400, 338
-0.998236, 177, 129, 192, 160
-0.998237, 1, 97, 32, 338
-0.998243, 65, 101, 80, 132
-0.998244, 213, 161, 228, 192
-0.998248, 153, 65, 184, 320
-0.99825, 53, 161, 68, 192
-0.998268, 415, 165, 430, 196
-0.998268, 89, 65, 120, 320
-0.998274, 351, 113, 366, 144
-0.998282, 207, 193, 222, 224
-0.998284, 1, 273, 32, 336
-0.998284, 345, 121, 360, 152
-0.998288, 13, 301, 28, 332
-0.998303, 169, 129, 184, 160
-0.998304, 343, 169, 358, 200
-0.998306, 153, 129, 168, 256
-0.998314, 165, 65, 196, 320
-0.99832, 133, 133, 148, 164
-0.998335, 413, 97, 444, 338
-0.998341, 1, 133, 16, 164
-0.998345, 173, 197, 188, 228
-0.998356, 161, 217, 192, 232
-0.998356, 185, 215, 216, 230
-0.998357, 401, 167, 432, 182
-0.998358, 173, 217, 204, 232
-0.998358, 57, 321, 88, 336
-0.998359, 93, 157, 124, 172
-0.99836, 105, 185, 136, 200
-0.99836, 157, 185, 188, 200
-0.998362, 165, 153, 196, 168
-0.998362, 85, 211, 116, 226
-0.998362, 269, 127, 300, 142
-0.998362, 177, 129, 208, 144
-0.998364, 153, 163, 184, 178
-0.998364, 61, 129, 92, 144
-0.998364, 353, 123, 384, 138
-0.998365, 225, 123, 256, 138
-0.998366, 125, 217, 156, 232
-0.998366, 205, 161, 220, 192
-0.998366, 301, 127, 332, 142
-0.998366, 221, 205, 236, 236
-0.998367, 445, 123, 476, 138
-0.998368, 341, 115, 372, 130
-0.998368, 213, 175, 244, 190
-0.998368, 65, 185, 96, 200
-0.998369, 89, 131, 120, 146
-0.998369, 321, 165, 352, 180
-0.99837, 49, 121, 80, 136
-0.99837, 1, 305, 32, 320
-0.998371, 213, 209, 244, 224
-0.998371, 129, 163, 160, 178
-0.998376, 137, 197, 168, 212
-0.998377, 93, 177, 124, 192
-0.998377, 37, 89, 68, 104
-0.998378, 105, 1, 168, 256
-0.998379, 113, 137, 144, 152
-0.998381, 329, 175, 360, 190
-0.998383, 117, 131, 148, 146
-0.998383, 453, 115, 484, 130
-0.998383, 193, 137, 320, 168
-0.998385, 337, 161, 368, 176
-0.998386, 197, 215, 228, 230
-0.998386, 193, 149, 208, 180
-0.998387, 405, 177, 436, 192
-0.998388, 41, 167, 72, 182
-0.998388, 413, 167, 444, 182
-0.998389, 133, 209, 148, 240
-0.99839, 177, 193, 208, 208
-0.99839, 313, 1, 376, 338
-0.998392, 125, 171, 156, 186
-0.998392, 109, 167, 140, 182
-0.998393, 175, 161, 190, 192
-0.998395, 137, 147, 168, 162
-0.998396, 247, 117, 262, 148
-0.998396, 19, 129, 34, 160
-0.998399, 129, 131, 160, 146
-0.9984, 109, 213, 140, 228
-0.9984, 205, 169, 236, 184
-0.9984, 65, 121, 96, 136
-0.998401, 197, 163, 228, 178
-0.998401, 197, 183, 228, 198
-0.998402, 153, 157, 184, 172
-0.998402, 185, 149, 200, 180
-0.998403, 165, 213, 180, 244
-0.998403, 201, 127, 232, 142
-0.998404, 69, 207, 100, 222
-0.998404, 53, 153, 84, 168
-0.998405, 57, 203, 120, 218
-0.998406, 421, 173, 452, 188
-0.998406, 157, 131, 188, 146
-0.998407, 133, 203, 164, 218
-0.998408, 273, 121, 304, 136
-0.998409, 93, 151, 124, 166
-0.998409, 141, 177, 172, 192
-0.99841, 183, 213, 198, 244
-0.99841, 53, 171, 84, 186
-0.99841, 105, 181, 168, 196
-0.99841, 361, 1, 424, 338
-0.99841, 101, 191, 132, 206
-0.998411, 109, 149, 140, 164
-0.998412, 213, 193, 228, 224
-0.998414, 213, 195, 244, 210
-0.998415, 461, 121, 492, 136
-0.998415, 185, 165, 216, 180
-0.998418, 177, 157, 208, 172
-0.998419, 345, 167, 376, 182
-0.99842, 209, 189, 240, 204
-0.998422, 57, 195, 120, 210
-0.998423, 313, 125, 344, 140
-0.998423, 105, 191, 168, 206
-0.998424, 49, 99, 80, 114
-0.998425, 285, 125, 316, 140
-0.998425, 237, 121, 268, 136
-0.998428, 185, 191, 248, 206
-0.998429, 69, 155, 100, 170
-0.99843, 113, 155, 144, 170
-0.998434, 65, 171, 96, 186
-0.998434, 233, 183, 264, 198
-0.998435, 281, 97, 312, 338
-0.998437, 185, 185, 216, 200
-0.998441, 161, 145, 192, 160
-0.998442, 465, 97, 496, 338
-0.998442, 257, 125, 288, 140
-0.998442, 169, 185, 200, 200
-0.998443, 65, 93, 96, 108
-0.998443, 189, 127, 220, 142
-0.998444, 225, 177, 256, 192
-0.998444, 133, 211, 164, 226
-0.998447, 101, 131, 132, 146
-0.99845, 65, 113, 96, 128
-0.998451, 141, 127, 172, 142
-0.998455, 97, 141, 128, 156
-0.998455, 185, 183, 248, 198
-0.998456, 265, 1, 328, 338
-0.998457, 57, 201, 88, 216
-0.998457, 57, 163, 88, 178
-0.998458, 81, 149, 112, 164
-0.998461, 297, 121, 328, 136
-0.998462, 137, 191, 168, 206
-0.998462, 113, 143, 144, 158
-0.998464, 41, 89, 104, 104
-0.998465, 325, 123, 356, 138
-0.998467, 93, 205, 124, 220
-0.99847, 341, 123, 372, 138
-0.998471, 145, 185, 176, 200
-0.998477, 141, 129, 156, 256
-0.99848, 41, 99, 104, 114
-0.998482, 177, 197, 240, 212
-0.998483, 49, 87, 80, 102
-0.998484, 81, 195, 112, 210
-0.998485, 105, 179, 136, 194
-0.998487, 281, 123, 344, 138
-0.998488, 109, 207, 140, 222
-0.998489, 175, 129, 190, 256
-0.99849, 213, 181, 244, 196
-0.99849, 65, 155, 128, 170
-0.99849, 49, 115, 80, 130
-0.998491, 57, 195, 88, 210
-0.998494, 65, 177, 128, 192
-0.998495, 165, 159, 196, 174
-0.998496, 145, 185, 208, 200
-0.998497, 177, 217, 304, 280
-0.998498, 181, 129, 196, 256
-0.998501, 129, 113, 256, 144
-0.998503, 89, 197, 152, 212
-0.998503, 313, 161, 344, 288
-0.998516, 81, 145, 144, 160
-0.998516, 101, 197, 132, 212
-0.998518, 65, 187, 128, 202
-0.998519, 469, 115, 500, 130
-0.99852, 65, 103, 96, 118
-0.99852, 189, 191, 220, 206
-0.998521, 137, 129, 200, 144
-0.998522, 269, 97, 300, 338
-0.998522, 49, 105, 80, 120
-0.998527, 305, 123, 368, 138
-0.998527, 121, 203, 152, 218
-0.998529, 147, 129, 162, 256
-0.998531, 113, 155, 176, 170
-0.998532, 41, 105, 104, 120
-0.998533, 129, 177, 160, 192
-0.998536, 309, 119, 340, 134
-0.998536, 159, 129, 174, 256
-0.998537, 193, 129, 208, 256
-0.99854, 137, 191, 200, 206
-0.99854, 81, 203, 144, 218
-0.998541, 297, 117, 360, 132
-0.998543, 97, 131, 160, 146
-0.998543, 425, 1, 488, 338
-0.998544, 105, 175, 168, 190
-0.998549, 53, 187, 84, 202
-0.99855, 109, 129, 124, 256
-0.99855, 113, 137, 176, 152
-0.99855, 113, 197, 144, 212
-0.998555, 129, 183, 160, 198
-0.998557, 317, 97, 348, 338
-0.998557, 233, 121, 296, 136
-0.998559, 121, 209, 152, 224
-0.99856, 145, 159, 208, 174
-0.998563, 41, 113, 104, 128
-0.998563, 105, 147, 168, 162
-0.998563, 61, 87, 92, 102
-0.998564, 425, 173, 488, 188
-0.998565, 49, 93, 80, 108
-0.998566, 373, 97, 404, 338
-0.998567, 17, 97, 48, 338
-0.998569, 257, 125, 320, 140
-0.998569, 185, 127, 248, 142
-0.99857, 241, 97, 272, 338
-0.998571, 125, 129, 140, 256
-0.998571, 129, 179, 192, 194
-0.998571, 209, 123, 272, 138
-0.998575, 273, 117, 336, 132
-0.998576, 81, 203, 112, 218
-0.998579, 81, 211, 144, 226
-0.998579, 193, 177, 256, 192
-0.99858, 329, 97, 360, 338
-0.998581, 161, 191, 224, 206
-0.998581, 73, 161, 136, 176
-0.998586, 113, 209, 176, 224
-0.998587, 25, 187, 88, 202
-0.998588, 69, 193, 100, 208
-0.998588, 97, 167, 160, 182
-0.998588, 57, 149, 120, 164
-0.998588, 385, 167, 448, 182
-0.998589, 53, 177, 84, 192
-0.99859, 125, 191, 156, 206
-0.998591, 57, 131, 120, 146
-0.998591, 41, 165, 104, 180
-0.998593, 117, 185, 148, 200
-0.998594, 153, 147, 216, 162
-0.998594, 57, 123, 120, 138
-0.998597, 129, 147, 192, 162
-0.998599, 177, 215, 240, 230
-0.9986, 57, 209, 120, 224
-0.998601, 177, 167, 240, 182
-0.998603, 113, 197, 176, 212
-0.998604, 49, 171, 112, 186
-0.998605, 305, 65, 336, 320
-0.998605, 225, 179, 288, 194
-0.998608, 125, 197, 156, 212
-0.998608, 145, 165, 208, 180
-0.99861, 425, 167, 488, 182
-0.99861, 337, 123, 400, 138
-0.99861, 393, 177, 456, 192
-0.998614, 241, 161, 272, 288
-0.998614, 17, 315, 80, 330
-0.998616, 81, 139, 144, 154
-0.998619, 117, 179, 148, 194
-0.99862, 41, 157, 104, 172
-0.998621, 33, 201, 96, 216
-0.998626, 169, 161, 232, 176
-0.998628, 217, 185, 280, 200
-0.99863, 187, 129, 202, 256
-0.998631, 57, 317, 120, 332
-0.998631, 9, 171, 72, 186
-0.998631, 305, 163, 368, 178
-0.998632, 121, 163, 184, 178
-0.998634, 77, 129, 92, 256
-0.998635, 105, 125, 168, 140
-0.998635, 113, 217, 176, 232
-0.998636, 433, 121, 496, 136
-0.998637, 329, 171, 392, 186
-0.998637, 41, 177, 104, 192
-0.998638, 145, 217, 208, 232
-0.998638, 33, 151, 96, 166
-0.998639, 115, 129, 130, 256
-0.998639, 137, 141, 200, 156
-0.998639, 217, 173, 280, 188
-0.998642, 69, 201, 100, 216
-0.998642, 145, 197, 208, 212
-0.998643, 89, 155, 152, 170
-0.998644, 1, 305, 64, 320
-0.998644, 217, 193, 280, 208
-0.998645, 33, 193, 96, 208
-0.998645, 233, 127, 296, 142
-0.998645, 305, 129, 368, 144
-0.998645, 177, 155, 240, 170
-0.998648, 169, 129, 184, 256
-0.998648, 433, 115, 496, 130
-0.998648, 137, 153, 200, 168
-0.99865, 25, 321, 88, 336
-0.99865, 33, 123, 96, 138
-0.998652, 161, 127, 224, 142
-0.998652, 219, 113, 234, 240
-0.998653, 57, 143, 120, 158
-0.998658, 217, 205, 280, 220
-0.99866, 385, 161, 448, 176
-0.998661, 201, 211, 264, 226
-0.998663, 17, 103, 80, 118
-0.998663, 297, 169, 360, 184
-0.998664, 281, 129, 344, 144
-0.998664, 337, 155, 400, 170
-0.998667, 281, 163, 344, 178
-0.998667, 369, 177, 432, 192
-0.998669, 137, 173, 200, 188
-0.998669, 217, 163, 280, 178
-0.998669, 105, 203, 168, 218
-0.998669, 353, 171, 416, 186
-0.99867, 353, 165, 416, 180
-0.998671, 17, 97, 80, 112
-0.998672, 329, 161, 392, 176
-0.998672, 137, 211, 200, 226
-0.998672, 209, 129, 272, 144
-0.998673, 321, 117, 384, 132
-0.998677, 177, 149, 240, 164
-0.998678, 305, 157, 368, 172
-0.998679, 153, 135, 216, 150
-0.998679, 159, 177, 174, 304
-0.99868, 9, 165, 72, 180
-0.998682, 49, 323, 112, 338
-0.998687, 433, 157, 496, 172
-0.998688, 65, 103, 128, 118
-0.998689, 113, 191, 144, 206
-0.998689, 217, 199, 280, 214
-0.998689, 177, 133, 240, 148
-0.99869, 33, 207, 96, 222
-0.998691, 33, 129, 96, 144
-0.998691, 177, 209, 240, 224
-0.998691, 209, 129, 224, 256
-0.998692, 41, 311, 104, 326
-0.998693, 17, 157, 80, 172
-0.998693, 249, 175, 312, 190
-0.998693, 65, 95, 128, 110
-0.998694, 329, 143, 392, 158
-0.998694, 203, 129, 218, 256
-0.998694, 265, 155, 328, 170
-0.998704, 165, 177, 180, 304
-0.99872, 137, 177, 152, 304
-0.998722, 151, 177, 166, 304
-0.998747, 173, 177, 188, 304
-0.998751, 65, 105, 192, 136
-0.998755, 145, 177, 160, 304
-0.998757, 83, 145, 98, 272
-0.998772, 421, 161, 452, 288
-0.998774, 345, 177, 408, 240
-0.998782, 135, 129, 150, 256
-0.99879, 197, 65, 228, 320
-0.998792, 425, 97, 456, 338
-0.998794, 91, 145, 106, 272
-0.998813, 257, 73, 384, 136
-0.998821, 29, 65, 60, 128
-0.998827, 179, 177, 194, 304
-0.998838, 99, 145, 114, 272
-0.998851, 449, 97, 480, 338
-0.998853, 219, 161, 234, 288
-0.998855, 65, 217, 320, 280
-0.998855, 349, 161, 380, 288
-0.998857, 33, 77, 160, 108
-0.998892, 253, 97, 284, 338
-0.9989, 131, 177, 146, 304
-0.998922, 225, 113, 240, 240
-0.998934, 63, 129, 78, 256
-0.998937, 185, 177, 200, 304
-0.998943, 483, 97, 498, 224
-0.998949, 33, 293, 160, 324
-0.998982, 117, 177, 132, 304
-0.998985, 51, 81, 66, 208
-0.998988, 71, 129, 86, 256
-0.998993, 307, 97, 322, 224
-0.999001, 1, 97, 500, 160
-0.999006, 65, 305, 192, 336
-0.999013, 381, 1, 412, 256
-0.999017, 231, 113, 246, 240
-0.99904, 77, 81, 92, 208
-0.999041, 285, 169, 316, 232
-0.999041, 465, 97, 480, 224
-0.999051, 361, 1, 392, 256
-0.999056, 83, 97, 98, 224
-0.999082, 313, 97, 328, 224
-0.999095, 225, 161, 240, 288
-0.999114, 225, 197, 352, 228
-0.999116, 471, 97, 486, 224
-0.999119, 477, 97, 492, 224
-0.999119, 401, 1, 432, 256
-0.999129, 241, 97, 256, 224
-0.99913, 353, 97, 368, 224
-0.99913, 437, 65, 468, 320
-0.999131, 203, 177, 218, 304
-0.999146, 191, 177, 206, 304
-0.999147, 73, 177, 88, 304
-0.999164, 291, 113, 306, 240
-0.999174, 211, 177, 226, 304
-0.9992, 249, 97, 264, 224
-0.999202, 197, 177, 212, 304
-0.999205, 103, 97, 118, 224
-0.999211, 65, 81, 80, 208
-0.999214, 387, 113, 402, 240
-0.99923, 45, 97, 60, 224
-0.999238, 95, 97, 110, 224
-0.999238, 369, 113, 384, 240
-0.999239, 111, 177, 126, 304
-0.999251, 359, 113, 374, 240
-0.999252, 285, 1, 316, 256
-0.999254, 21, 65, 52, 192
-0.999256, 381, 113, 396, 240
-0.999259, 425, 185, 488, 248
-0.999261, 57, 81, 72, 208
-0.999264, 259, 113, 274, 240
-0.999269, 67, 177, 82, 304
-0.999271, 53, 145, 68, 272
-0.999273, 1, 209, 500, 272
-0.999276, 297, 113, 312, 240
-0.99928, 285, 113, 300, 240
-0.999284, 293, 49, 324, 176
-0.999286, 231, 161, 246, 288
-0.999295, 125, 177, 140, 304
-0.9993, 459, 113, 474, 240
-0.999306, 415, 113, 430, 240
-0.999309, 405, 113, 420, 240
-0.999313, 279, 113, 294, 240
-0.999315, 241, 97, 368, 128
-0.999318, 265, 113, 280, 240
-0.999319, 347, 113, 362, 240
-0.999326, 439, 113, 454, 240
-0.999331, 393, 113, 408, 240
-0.99934, 399, 113, 414, 240
-0.999341, 337, 1, 368, 256
-0.999343, 339, 113, 354, 240
-0.999345, 423, 113, 438, 240
-0.999359, 89, 97, 104, 224
-0.999359, 453, 113, 468, 240
-0.999362, 319, 113, 334, 240
-0.999376, 375, 113, 390, 240
-0.999377, 71, 81, 86, 208
-0.999377, 431, 113, 446, 240
-0.999381, 1, 1, 32, 256
-0.999382, 331, 113, 346, 240
-0.999384, 445, 113, 460, 240
-0.999412, 21, 1, 52, 256
-0.999413, 271, 113, 286, 240
-0.999427, 413, 1, 444, 256
-0.999429, 105, 177, 120, 304
-0.999435, 1, 113, 16, 240
-0.99944, 325, 113, 340, 240
-0.99946, 39, 113, 54, 240
-0.999465, 81, 193, 96, 320
-0.999471, 461, 1, 492, 256
-0.999473, 369, 185, 496, 248
-0.999475, 121, 81, 136, 208
-0.999479, 61, 177, 76, 304
-0.99948, 93, 193, 108, 320
-0.999481, 9, 113, 24, 240
-0.999492, 33, 113, 48, 240
-0.999493, 135, 81, 150, 208
-0.999494, 151, 81, 166, 208
-0.999497, 21, 113, 36, 240
-0.999512, 191, 81, 206, 208
-0.999516, 211, 81, 226, 208
-0.999518, 201, 81, 216, 208
-0.999519, 17, 265, 144, 328
-0.999529, 87, 193, 102, 320
-0.999531, 181, 81, 196, 208
-0.999539, 145, 81, 160, 208
-0.999543, 99, 193, 114, 320
-0.999554, 161, 81, 176, 208
-0.999557, 15, 113, 30, 240
-0.999557, 265, 1, 296, 256
-0.999559, 273, 177, 336, 240
-0.999561, 115, 81, 130, 208
-0.999569, 325, 1, 356, 256
-0.999572, 181, 185, 196, 200
-0.999573, 139, 131, 154, 146
-0.999573, 207, 189, 222, 204
-0.999573, 71, 93, 86, 108
-0.999574, 341, 175, 356, 190
-0.999575, 335, 171, 350, 186
-0.999575, 27, 113, 42, 240
-0.999575, 343, 169, 358, 184
-0.999576, 13, 303, 28, 318
-0.999577, 287, 125, 302, 140
-0.999577, 83, 207, 98, 222
-0.999577, 105, 157, 120, 172
-0.999578, 199, 165, 214, 180
-0.999578, 71, 185, 86, 200
-0.999578, 51, 185, 66, 200
-0.999578, 207, 183, 222, 198
-0.99958, 225, 185, 240, 200
-0.999581, 155, 127, 170, 142
-0.999582, 51, 169, 66, 184
-0.999582, 459, 115, 474, 130
-0.999583, 115, 135, 130, 150
-0.999583, 77, 123, 92, 138
-0.999583, 77, 115, 92, 130
-0.999584, 187, 185, 202, 200
-0.999585, 197, 127, 212, 142
-0.999585, 117, 169, 132, 184
-0.999585, 125, 153, 140, 168
-0.999585, 105, 141, 120, 156
-0.999586, 115, 157, 130, 172
-0.999586, 339, 123, 354, 138
-0.999586, 163, 143, 178, 158
-0.999587, 63, 105, 78, 120
-0.999587, 477, 117, 492, 132
-0.999587, 69, 125, 84, 140
-0.999589, 217, 169, 232, 184
-0.99959, 303, 123, 318, 138
-0.99959, 71, 99, 86, 114
-0.999592, 83, 151, 98, 166
-0.999592, 55, 125, 70, 140
-0.999592, 349, 1, 380, 256
-0.999593, 117, 199, 132, 214
-0.999593, 59, 319, 74, 334
-0.999594, 95, 197, 110, 212
-0.999594, 77, 107, 92, 122
-0.999595, 317, 127, 332, 142
-0.999596, 149, 127, 164, 142
-0.999596, 105, 131, 120, 146
-0.999597, 127, 141, 142, 156
-0.999597, 177, 157, 192, 172
-0.999597, 101, 205, 116, 220
-0.999598, 329, 123, 344, 138
-0.999598, 71, 153, 86, 168
-0.9996, 197, 183, 212, 198
-0.9996, 147, 177, 162, 192
-0.9996, 185, 193, 200, 208
-0.9996, 471, 115, 486, 130
-0.999601, 111, 141, 126, 156
-0.999601, 141, 193, 156, 208
-0.999601, 71, 175, 86, 190
-0.999602, 61, 115, 76, 130
-0.999603, 51, 109, 66, 124
-0.999603, 1, 161, 32, 288
-0.999604, 115, 151, 130, 166
-0.999606, 101, 197, 116, 212
-0.999607, 121, 145, 136, 160
-0.999608, 53, 115, 68, 130
-0.999609, 141, 211, 156, 226
-0.999609, 189, 161, 204, 176
-0.999609, 353, 119, 368, 134
-0.999612, 109, 177, 124, 192
-0.999613, 89, 145, 104, 160
-0.999613, 61, 123, 76, 138
-0.999616, 169, 159, 184, 174
-0.999617, 235, 185, 250, 200
-0.999619, 465, 121, 480, 136
-0.999619, 77, 153, 92, 168
-0.999622, 485, 113, 500, 128
-0.999623, 429, 173, 444, 188
-0.999625, 89, 207, 104, 222
-0.999626, 71, 119, 86, 134
-0.999626, 133, 175, 148, 190
-0.999627, 83, 195, 98, 210
-0.999627, 67, 191, 82, 206
-0.999628, 203, 127, 218, 142
-0.999629, 473, 49, 488, 176
-0.99963, 183, 157, 198, 172
-0.999631, 59, 87, 74, 102
-0.999633, 51, 103, 66, 118
-0.999633, 77, 205, 92, 220
-0.999634, 163, 157, 178, 172
-0.999635, 323, 123, 338, 138
-0.999637, 57, 167, 72, 182
-0.999638, 117, 193, 132, 208
-0.999638, 481, 49, 496, 176
-0.999641, 133, 193, 148, 208
-0.999644, 89, 195, 104, 210
-0.999645, 237, 145, 252, 272
-0.999648, 345, 123, 360, 138
-0.999648, 61, 197, 76, 212
-0.999648, 111, 129, 126, 144
-0.999649, 449, 1, 480, 256
-0.999651, 55, 177, 70, 192
-0.999651, 55, 33, 70, 160
-0.999654, 73, 33, 88, 160
-0.999656, 227, 179, 242, 194
-0.999656, 317, 121, 332, 136
-0.999656, 121, 209, 136, 224
-0.999658, 71, 105, 86, 120
-0.999662, 45, 145, 60, 272
-0.999663, 147, 183, 162, 198
-0.999664, 59, 183, 74, 198
-0.999664, 171, 81, 186, 208
-0.999664, 415, 161, 430, 288
-0.999664, 95, 205, 110, 220
-0.999666, 197, 191, 212, 206
-0.999668, 309, 119, 324, 134
-0.999669, 71, 199, 86, 214
-0.999673, 191, 193, 206, 208
-0.999673, 459, 65, 474, 192
-0.999675, 109, 81, 124, 208
-0.999675, 273, 181, 400, 212
-0.999675, 229, 1, 260, 256
-0.999676, 119, 187, 134, 202
-0.999678, 77, 91, 92, 106
-0.999678, 63, 203, 78, 218
-0.999679, 131, 149, 146, 164
-0.999681, 127, 179, 142, 194
-0.999681, 465, 115, 480, 130
-0.999682, 325, 161, 356, 288
-0.999686, 61, 191, 76, 206
-0.999686, 245, 1, 276, 256
-0.999687, 397, 161, 412, 288
-0.999688, 421, 161, 436, 288
-0.999688, 359, 65, 374, 192
-0.999691, 231, 65, 246, 192
-0.999698, 287, 65, 302, 192
-0.9997, 127, 199, 142, 214
-0.999701, 137, 187, 152, 202
-0.999702, 127, 209, 142, 224
-0.999702, 51, 95, 66, 110
-0.999702, 141, 177, 156, 192
-0.999703, 89, 201, 104, 216
-0.999706, 133, 207, 148, 222
-0.999716, 77, 101, 92, 116
-0.999716, 137, 199, 152, 214
-0.999736, 85, 49, 116, 176
-0.999742, 51, 89, 66, 104
-0.999746, 73, 193, 88, 208
-0.999749, 65, 185, 80, 200
-0.999771, 83, 201, 98, 216
-0.999777, 135, 181, 150, 196
-0.999788, 127, 189, 142, 204
-0.9998, 121, 179, 136, 194
-0.9998, 61, 177, 76, 192
-0.999807, 137, 1, 168, 256
-0.999823, 425, 1, 456, 256
-0.999844, 65, 273, 192, 336
-0.999861, 381, 65, 412, 192
-0.999876, 217, 1, 248, 256
-0.999901, 109, 1, 140, 256
-0.999915, 265, 145, 296, 272
-0.999934, 81, 89, 208, 120
-0.999976, 1, 281, 128, 312
-0.999985, 161, 97, 288, 128
-0.999989, 337, 49, 368, 176
-0.999992, 209, 85, 336, 116
-1.00001, 305, 185, 432, 248
-1.00002, 289, 97, 416, 128
-1.00003, 253, 161, 284, 288
-1.00007, 161, 85, 288, 116
-1.00011, 145, 73, 272, 136
-1.00022, 121, 1, 152, 256
-1.00022, 73, 33, 136, 160
-1.00026, 33, 65, 288, 128
-1.00031, 409, 65, 440, 192
-1.00037, 81, 77, 208, 108
-1.00041, 369, 93, 496, 124
-1.00042, 177, 217, 304, 248
-1.00044, 1, 273, 256, 336
-1.00057, 369, 225, 496, 256
-1.00058, 201, 217, 264, 280
-1.00059, 265, 49, 296, 176
-1.00061, 129, 73, 256, 104
-1.00061, 241, 73, 368, 104
-1.00062, 1, 213, 128, 244
-1.00064, 241, 209, 368, 240
-1.00067, 113, 305, 240, 336
-1.00068, 321, 225, 448, 256
-1.00069, 33, 65, 160, 96
-1.00069, 369, 189, 496, 220
-1.0007, 449, 161, 480, 288
-1.0007, 257, 221, 384, 252
-1.00075, 289, 85, 416, 116
-1.00076, 337, 213, 464, 244
-1.00078, 113, 221, 240, 252
-1.00079, 369, 297, 496, 328
-1.00081, 369, 77, 496, 108
-1.00081, 353, 261, 480, 292
-1.00083, 209, 293, 336, 324
-1.00083, 273, 305, 400, 336
-1.00084, 113, 33, 240, 160
-1.00085, 65, 221, 192, 252
-1.00085, 237, 49, 268, 176
-1.00085, 25, 273, 88, 336
-1.00086, 273, 197, 400, 228
-1.00086, 353, 281, 480, 312
-1.00087, 289, 241, 416, 272
-1.00088, 225, 305, 352, 336
-1.00088, 161, 293, 288, 324
-1.00088, 353, 237, 480, 268
-1.00089, 161, 73, 416, 136
-1.0009, 289, 253, 416, 284
-1.0009, 209, 253, 336, 284
-1.00091, 369, 249, 496, 280
-1.00093, 321, 297, 448, 328
-1.00094, 369, 65, 496, 96
-1.00094, 113, 277, 240, 308
-1.00094, 113, 101, 240, 132
-1.00094, 113, 293, 240, 324
-1.00094, 17, 261, 144, 292
-1.00094, 241, 277, 368, 308
-1.00095, 33, 241, 160, 272
-1.00095, 273, 293, 400, 324
-1.00096, 225, 265, 352, 296
-1.00097, 177, 65, 304, 96
-1.00097, 161, 281, 288, 312
-1.00097, 65, 281, 192, 312
-1.00097, 309, 49, 340, 176
-1.00098, 209, 241, 336, 272
-1.00099, 369, 29, 496, 60
-1.00099, 321, 193, 448, 224
-1.00099, 289, 277, 416, 308
-1.00099, 289, 209, 416, 240
-1.00099, 321, 65, 448, 96
-1.00099, 1, 229, 128, 260
-1.00099, 65, 253, 192, 284
-1.001, 273, 265, 400, 296
-1.00101, 33, 33, 64, 160
-1.00102, 161, 253, 288, 284
-1.00103, 129, 233, 256, 264
-1.00103, 97, 265, 224, 296
-1.00103, 321, 33, 448, 64
-1.00103, 353, 45, 480, 76
-1.00103, 81, 233, 208, 264
-1.00104, 225, 57, 352, 88
-1.00104, 129, 61, 256, 92
-1.00104, 177, 269, 304, 300
-1.00104, 369, 17, 496, 48
-1.00106, 193, 229, 320, 260
-1.00106, 321, 21, 448, 52
-1.00109, 81, 57, 208, 120
-1.00122, 81, 217, 144, 280
-1.00126, 209, 57, 336, 120
-1.00139, 13, 161, 44, 288
-1.00139, 161, 217, 416, 280
-1.00156, 369, 233, 496, 296
-1.00162, 433, 161, 464, 288
-1.00163, 1, 41, 256, 104
-1.00165, 337, 209, 464, 272
-1.00171, 25, 161, 56, 288
-1.00171, 1, 65, 32, 192
-1.00173, 257, 225, 500, 288
-1.00182, 257, 257, 500, 320
-1.00185, 161, 241, 416, 304
-1.00185, 145, 49, 272, 112
-1.00194, 65, 241, 320, 304
-1.00196, 73, 49, 136, 112
-1.00197, 273, 225, 400, 288
-1.00198, 401, 185, 464, 248
-1.00203, 225, 41, 480, 104
-1.00208, 129, 265, 384, 328
-1.00211, 257, 9, 500, 72
-1.00212, 161, 9, 416, 72
-1.00212, 33, 17, 288, 80
-1.00212, 129, 33, 384, 96
-1.00213, 225, 225, 352, 288
-1.00213, 257, 249, 384, 312
-1.00223, 369, 65, 496, 128
-1.00227, 337, 265, 464, 328
-1.0023, 1, 33, 128, 96
-1.00231, 289, 273, 416, 336
-1.00234, 321, 233, 448, 296
-1.00238, 49, 273, 112, 336
-1.00239, 33, 233, 160, 296
-1.00239, 113, 249, 240, 312
-1.00247, 257, 65, 500, 128
-1.00247, 209, 257, 336, 320
-1.00253, 1, 73, 500, 136
-1.00256, 369, 41, 496, 104
-1.00264, 305, 57, 432, 120
-1.00272, 193, 33, 320, 96
-1.00272, 169, 49, 232, 176
-1.00276, 321, 17, 448, 80
-1.00277, 1, 273, 500, 336
-1.0028, 257, 49, 384, 112
-1.00281, 273, 73, 336, 136
-1.00283, 81, 225, 208, 288
-1.00285, 369, 9, 496, 72
-1.00285, 145, 25, 272, 88
-1.00291, 129, 1, 256, 64
-1.00291, 177, 1, 304, 64
-1.00291, 273, 1, 400, 64
-1.00291, 1, 9, 128, 72
-1.00291, 225, 9, 352, 72
-1.00291, 49, 17, 176, 80
-1.00291, 97, 25, 224, 88
-1.00291, 273, 25, 400, 88
-1.00291, 161, 249, 288, 312
-1.00303, 201, 209, 264, 336
-1.00304, 161, 89, 224, 152
-1.00338, 9, 17, 72, 144
-1.00342, 145, 273, 272, 336
-1.00355, 249, 73, 312, 136
-1.00359, 1, 233, 500, 296
-1.00379, 1, 9, 500, 72
-1.0038, 1, 33, 500, 96
-1.00422, 1, 17, 500, 144
-1.00451, 41, 41, 104, 104
-1.00459, 221, 209, 252, 336
-1.00476, 209, 17, 336, 144
-1.00518, 425, 225, 488, 288
-1.00563, 9, 41, 72, 104
-1.00576, 125, 33, 156, 160
-1.00588, 425, 65, 488, 128
-1.00594, 249, 17, 280, 144
-1.00596, 157, 33, 188, 160
-1.00609, 353, 17, 480, 144
-1.00615, 241, 201, 304, 264
-1.00619, 13, 209, 44, 336
-1.00625, 465, 193, 496, 320
-1.00625, 81, 273, 144, 336
-1.00626, 173, 33, 204, 160
-1.00648, 201, 73, 264, 136
-1.0065, 189, 33, 220, 160
-1.00657, 453, 17, 484, 144
-1.00661, 401, 233, 464, 296
-1.00662, 137, 33, 200, 160
-1.00664, 385, 73, 448, 136
-1.00668, 105, 33, 136, 160
-1.0069, 141, 33, 172, 160
-1.00692, 225, 17, 480, 144
-1.00698, 321, 217, 384, 280
-1.00707, 289, 225, 352, 288
-1.00712, 225, 17, 256, 144
-1.00719, 393, 209, 456, 272
-1.00731, 225, 73, 288, 136
-1.00733, 357, 17, 388, 144
-1.0074, 433, 249, 496, 312
-1.00741, 369, 209, 496, 336
-1.00748, 9, 249, 72, 312
-1.00749, 393, 257, 456, 320
-1.00752, 385, 209, 416, 336
-1.00755, 337, 57, 400, 120
-1.00764, 81, 1, 112, 128
-1.00774, 25, 209, 56, 336
-1.00777, 265, 241, 328, 304
-1.00784, 409, 209, 440, 336
-1.00786, 425, 193, 488, 320
-1.00788, 345, 225, 408, 288
-1.00797, 305, 209, 432, 336
-1.00797, 321, 193, 384, 256
-1.00797, 369, 273, 432, 336
-1.00802, 289, 249, 352, 312
-1.00806, 313, 57, 376, 120
-1.00809, 373, 209, 404, 336
-1.00812, 1, 209, 32, 336
-1.00815, 41, 209, 72, 336
-1.00818, 153, 249, 216, 312
-1.0082, 433, 273, 496, 336
-1.00822, 397, 209, 428, 336
-1.00823, 193, 241, 256, 304
-1.00827, 369, 241, 432, 304
-1.00834, 353, 201, 416, 264
-1.00836, 297, 201, 360, 264
-1.00837, 113, 33, 176, 160
-1.00839, 25, 225, 88, 288
-1.00844, 177, 265, 240, 328
-1.00844, 249, 265, 312, 328
-1.0085, 257, 209, 500, 336
-1.00855, 265, 201, 328, 264
-1.0086, 1, 225, 64, 288
-1.0086, 281, 273, 344, 336
-1.00864, 281, 17, 312, 144
-1.00864, 425, 33, 488, 96
-1.00864, 345, 249, 408, 312
-1.00873, 225, 225, 288, 288
-1.00873, 313, 249, 376, 312
-1.00878, 393, 33, 456, 96
-1.0089, 49, 241, 112, 304
-1.00894, 105, 241, 168, 304
-1.00899, 385, 9, 448, 72
-1.00899, 369, 41, 432, 104
-1.00899, 225, 249, 288, 312
-1.00899, 225, 273, 288, 336
-1.00942, 377, 209, 440, 336
-1.00992, 1, 209, 64, 336
-1.01061, 241, 209, 368, 336
-1.01094, 345, 17, 408, 144
-1.01101, 233, 17, 296, 144
-1.01124, 49, 1, 112, 128
-1.01163, 345, 209, 408, 336
-1.01243, 321, 17, 384, 144
-1.01266, 409, 17, 472, 144
-1.01289, 401, 209, 464, 336
-1.01327, 161, 1, 288, 128
-1.01408, 273, 1, 400, 128
-1.01418, 25, 209, 88, 336
-1.01445, 321, 209, 384, 336
-1.01452, 257, 209, 320, 336
-1.01458, 281, 209, 344, 336
-1.01507, 233, 209, 296, 336
-1.0155, 377, 17, 440, 144
-1.01764, 297, 1, 360, 128
-1.01836, 273, 1, 336, 128
-1.01904, 433, 1, 496, 128
-1.01947, 209, 1, 272, 128
-1.02009, 161, 1, 224, 128
-1.02246, 185, 1, 248, 128
