1876
-0.168733, 1, 1, 500, 333
-0.3463, 1, 1, 500, 256
-0.346536, 97, 1, 352, 333
-0.436228, 257, 1, 500, 333
-0.477656, 65, 33, 320, 288
-0.582829, 161, 33, 416, 288
-0.596085, 1, 1, 256, 333
-0.623823, 257, 65, 500, 320
-0.830976, 81, 1, 208, 256
-0.832965, 209, 1, 336, 333
-0.835237, 193, 1, 320, 256
-0.838745, 65, 1, 192, 333
-0.842007, 129, 1, 256, 333
-0.850672, 257, 33, 384, 288
-0.852943, 129, 1, 256, 256
-0.853888, 369, 1, 496, 333
-0.854308, 257, 1, 384, 333
-0.864076, 321, 1, 448, 333
-0.866253, 1, 129, 500, 256
-0.867355, 353, 65, 480, 320
-0.869256, 305, 65, 432, 320
-0.869439, 1, 33, 500, 160
-0.873171, 1, 177, 500, 304
-0.881724, 1, 81, 500, 208
-0.883177, 33, 33, 160, 288
-0.889287, 33, 113, 288, 240
-0.892333, 129, 97, 384, 224
-0.899358, 1, 1, 128, 333
-0.899642, 33, 65, 288, 192
-0.900448, 129, 145, 384, 272
-0.904874, 225, 161, 480, 288
-0.905235, 257, 113, 500, 240
-0.909826, 129, 209, 384, 333
-0.910032, 65, 17, 320, 144
-0.912825, 81, 49, 208, 176
-0.912998, 161, 49, 416, 176
-0.917298, 129, 1, 256, 128
-0.917338, 209, 113, 336, 240
-0.917705, 65, 113, 128, 240
-0.919017, 257, 129, 384, 256
-0.924016, 209, 49, 336, 176
-0.924255, 1, 161, 256, 288
-0.924975, 225, 209, 480, 333
-0.92519, 137, 1, 200, 128
-0.925226, 193, 1, 448, 128
-0.925657, 153, 113, 216, 240
-0.926503, 257, 177, 384, 304
-0.926604, 81, 1, 208, 128
-0.927197, 49, 97, 176, 224
-0.928242, 105, 1, 168, 128
-0.928393, 129, 97, 256, 224
-0.928932, 249, 97, 312, 224
-0.929566, 321, 113, 448, 240
-0.931512, 257, 49, 500, 176
-0.932189, 281, 113, 344, 240
-0.93347, 273, 81, 400, 208
-0.933675, 209, 129, 272, 256
-0.933904, 145, 49, 272, 176
-0.934661, 193, 161, 320, 288
-0.935135, 273, 49, 336, 176
-0.935196, 97, 145, 224, 272
-0.935394, 41, 113, 104, 240
-0.935618, 177, 1, 304, 128
-0.93565, 161, 1, 224, 128
-0.935719, 57, 121, 120, 184
-0.935872, 129, 65, 192, 192
-0.936376, 241, 145, 304, 272
-0.936777, 241, 33, 304, 160
-0.937013, 361, 129, 424, 256
-0.937143, 73, 65, 136, 192
-0.937415, 1, 113, 128, 240
-0.937589, 321, 161, 448, 288
-0.937596, 113, 129, 176, 256
-0.937792, 89, 129, 152, 256
-0.938179, 289, 177, 352, 304
-0.938536, 345, 209, 408, 333
-0.939301, 185, 1, 248, 128
-0.939371, 329, 129, 392, 256
-0.940003, 185, 81, 248, 208
-0.940712, 265, 177, 328, 304
-0.941056, 369, 129, 496, 256
-0.941171, 145, 161, 272, 288
-0.941349, 337, 209, 464, 333
-0.941744, 97, 49, 160, 176
-0.942, 369, 177, 432, 304
-0.942602, 49, 145, 176, 272
-0.942733, 233, 193, 296, 320
-0.943127, 217, 1, 280, 128
-0.943563, 353, 81, 416, 208
-0.944138, 1, 177, 128, 304
-0.945513, 305, 97, 368, 224
-0.945599, 289, 129, 352, 192
-0.946233, 257, 33, 384, 160
-0.946309, 217, 65, 280, 192
-0.946453, 153, 49, 216, 176
-0.947977, 265, 1, 328, 128
-0.948135, 201, 137, 264, 200
-0.948622, 137, 33, 200, 96
-0.949207, 345, 97, 408, 160
-0.949829, 241, 17, 304, 80
-0.949936, 1, 177, 64, 304
-0.950484, 409, 177, 472, 304
-0.950494, 185, 145, 248, 272
-0.950554, 209, 209, 336, 333
-0.950881, 89, 177, 152, 304
-0.951003, 297, 97, 360, 160
-0.951077, 57, 161, 120, 288
-0.951171, 153, 129, 216, 192
-0.951564, 433, 177, 496, 304
-0.95165, 233, 113, 296, 176
-0.951674, 105, 145, 168, 208
-0.951863, 129, 9, 192, 72
-0.951873, 185, 33, 248, 96
-0.952374, 369, 81, 496, 208
-0.952949, 209, 81, 272, 144
-0.953103, 41, 153, 104, 216
-0.953162, 385, 113, 448, 240
-0.95327, 409, 97, 472, 224
-0.953371, 321, 65, 448, 192
-0.953409, 369, 265, 432, 328
-0.953891, 289, 185, 352, 248
-0.95459, 105, 17, 168, 80
-0.954898, 385, 65, 448, 192
-0.95518, 233, 153, 296, 216
-0.955252, 185, 193, 248, 320
-0.955717, 129, 177, 192, 304
-0.955759, 265, 169, 328, 232
-0.955773, 305, 49, 368, 176
-0.956002, 81, 129, 144, 192
-0.956219, 313, 249, 376, 312
-0.956637, 201, 161, 264, 224
-0.956669, 313, 209, 376, 333
-0.95674, 1, 209, 256, 333
-0.957069, 73, 153, 136, 216
-0.957091, 185, 9, 248, 72
-0.957104, 321, 129, 384, 192
-0.957289, 177, 113, 240, 176
-0.957561, 401, 97, 464, 160
-0.957688, 81, 1, 144, 128
-0.957873, 209, 113, 272, 176
-0.95808, 297, 217, 360, 280
-0.958124, 289, 1, 352, 128
-0.958275, 281, 33, 344, 96
-0.95839, 417, 249, 480, 312
-0.958461, 337, 273, 400, 333
-0.958511, 313, 273, 376, 333
-0.958578, 153, 9, 216, 72
-0.959183, 257, 121, 320, 184
-0.959192, 97, 49, 160, 112
-0.959197, 329, 81, 392, 208
-0.959428, 113, 169, 176, 232
-0.959491, 177, 137, 240, 200
-0.959506, 153, 73, 216, 136
-0.959521, 65, 177, 128, 240
-0.959839, 265, 81, 328, 144
-0.959852, 65, 193, 192, 320
-0.959853, 209, 33, 272, 96
-0.960242, 273, 257, 336, 320
-0.960261, 33, 161, 96, 288
-0.960365, 241, 177, 304, 240
-0.960699, 289, 73, 352, 136
-0.960749, 321, 17, 448, 144
-0.960913, 417, 225, 480, 288
-0.961054, 433, 17, 496, 144
-0.961198, 369, 185, 432, 248
-0.961292, 289, 161, 352, 224
-0.961672, 69, 97, 100, 224
-0.96209, 161, 161, 224, 288
-0.962092, 385, 17, 448, 144
-0.962128, 89, 1, 152, 256
-0.962388, 377, 121, 440, 184
-0.962802, 241, 41, 304, 104
-0.962852, 177, 57, 240, 120
-0.962886, 185, 89, 248, 152
-0.963105, 9, 177, 72, 240
-0.963418, 33, 1, 160, 128
-0.963784, 393, 249, 456, 312
-0.963929, 33, 49, 160, 176
-0.964177, 217, 1, 280, 64
-0.964199, 329, 153, 392, 216
-0.964272, 209, 121, 336, 184
-0.964273, 241, 65, 304, 128
-0.964455, 321, 97, 384, 160
-0.964604, 313, 193, 376, 256
-0.964737, 257, 209, 320, 272
-0.964749, 433, 97, 496, 224
-0.964787, 137, 1, 200, 256
-0.964802, 129, 129, 192, 192
-0.964898, 233, 273, 296, 333
-0.96498, 129, 209, 256, 333
-0.965024, 65, 65, 128, 320
-0.965135, 257, 145, 320, 208
-0.965191, 177, 25, 304, 88
-0.965219, 265, 1, 328, 64
-0.965272, 129, 57, 192, 120
-0.965387, 361, 73, 424, 136
-0.965451, 209, 57, 272, 120
-0.965556, 65, 97, 128, 160
-0.965862, 369, 17, 496, 144
-0.965912, 129, 25, 256, 88
-0.966297, 353, 65, 416, 320
-0.966518, 249, 1, 312, 256
-0.966551, 329, 65, 392, 128
-0.966786, 329, 17, 392, 144
-0.966901, 425, 105, 488, 168
-0.966924, 77, 121, 108, 184
-0.967141, 337, 249, 400, 312
-0.967148, 321, 265, 448, 328
-0.96734, 105, 273, 168, 333
-0.967507, 345, 201, 408, 264
-0.967527, 241, 97, 368, 160
-0.967684, 205, 129, 236, 256
-0.967891, 409, 1, 472, 128
-0.967901, 85, 113, 116, 240
-0.968061, 73, 73, 136, 136
-0.968107, 201, 185, 264, 248
-0.968132, 225, 233, 288, 296
-0.968268, 401, 129, 464, 192
-0.968328, 113, 33, 176, 288
-0.968408, 165, 1, 196, 128
-0.968501, 57, 137, 88, 200
-0.968664, 145, 129, 272, 192
-0.968685, 161, 177, 224, 240
-0.968719, 97, 57, 224, 120
-0.968777, 209, 129, 240, 192
-0.968858, 337, 113, 464, 176
-0.968958, 57, 113, 88, 240
-0.969065, 265, 57, 328, 120
-0.969067, 9, 129, 72, 256
-0.969091, 289, 33, 352, 288
-0.969209, 85, 65, 116, 192
-0.96928, 301, 129, 332, 256
-0.969284, 193, 1, 256, 256
-0.96934, 105, 201, 168, 264
-0.969486, 1, 257, 64, 320
-0.969531, 145, 1, 176, 128
-0.969564, 209, 177, 272, 304
-0.969689, 385, 73, 448, 136
-0.969739, 273, 233, 336, 296
-0.969761, 137, 41, 168, 104
-0.969786, 393, 273, 456, 333
-0.969854, 133, 9, 164, 72
-0.969863, 41, 177, 104, 240
-0.969918, 161, 33, 224, 96
-0.969969, 65, 81, 192, 144
-0.970001, 361, 241, 424, 304
-0.970088, 217, 1, 280, 256
-0.970088, 169, 33, 232, 288
-0.970122, 153, 105, 216, 168
-0.970137, 273, 265, 400, 328
-0.970208, 33, 129, 160, 192
-0.970208, 257, 129, 384, 192
-0.970263, 97, 113, 128, 240
-0.97033, 89, 121, 120, 184
-0.970407, 353, 145, 416, 208
-0.970453, 165, 113, 196, 240
-0.970459, 289, 113, 320, 240
-0.970491, 121, 241, 184, 304
-0.970501, 241, 169, 368, 232
-0.970562, 129, 17, 160, 144
-0.970624, 281, 193, 312, 320
-0.970656, 293, 169, 324, 232
-0.970782, 409, 49, 472, 176
-0.970821, 9, 153, 72, 216
-0.970851, 145, 161, 272, 224
-0.970873, 49, 65, 112, 192
-0.971034, 201, 89, 232, 152
-0.971084, 409, 169, 472, 232
-0.971104, 133, 145, 164, 208
-0.971227, 321, 153, 448, 216
-0.971241, 221, 65, 252, 192
-0.971282, 289, 105, 416, 168
-0.971327, 197, 121, 228, 184
-0.971352, 301, 129, 332, 192
-0.971386, 273, 113, 304, 240
-0.971438, 177, 57, 304, 120
-0.971496, 81, 33, 208, 96
-0.971535, 65, 169, 192, 232
-0.971603, 33, 129, 96, 192
-0.971671, 369, 249, 496, 312
-0.971705, 253, 145, 284, 272
-0.97181, 385, 225, 448, 288
-0.971834, 97, 1, 224, 64
-0.971955, 177, 97, 304, 160
-0.972191, 129, 81, 192, 144
-0.972401, 193, 161, 320, 224
-0.97245, 105, 113, 168, 176
-0.972466, 425, 73, 488, 136
-0.972581, 189, 97, 220, 224
-0.972615, 133, 129, 164, 256
-0.972617, 321, 217, 384, 280
-0.972652, 409, 193, 472, 256
-0.972697, 65, 209, 128, 333
-0.972741, 137, 209, 200, 272
-0.972784, 161, 201, 224, 264
-0.972921, 241, 97, 272, 224
-0.972924, 17, 161, 144, 224
-0.972965, 177, 185, 304, 248
-0.973112, 137, 169, 200, 232
-0.973128, 269, 161, 300, 288
-0.973146, 349, 257, 380, 320
-0.973173, 329, 97, 360, 160
-0.973202, 81, 217, 144, 280
-0.973242, 249, 113, 280, 176
-0.973282, 313, 97, 344, 224
-0.973376, 101, 129, 132, 192
-0.973447, 221, 1, 252, 64
-0.973447, 341, 113, 372, 176
-0.973492, 201, 273, 264, 333
-0.973538, 257, 241, 384, 304
-0.973542, 209, 1, 336, 64
-0.973558, 109, 161, 140, 288
-0.97383, 129, 97, 256, 160
-0.973842, 233, 201, 296, 264
-0.97388, 41, 153, 72, 216
-0.973909, 329, 129, 360, 192
-0.973924, 161, 209, 224, 333
-0.973978, 221, 1, 252, 128
-0.97402, 233, 89, 296, 152
-0.974044, 201, 81, 232, 208
-0.974081, 145, 65, 176, 192
-0.974178, 377, 97, 440, 160
-0.974218, 373, 273, 404, 333
-0.97422, 321, 185, 448, 248
-0.97422, 361, 273, 392, 333
-0.974237, 241, 33, 368, 96
-0.974337, 81, 1, 144, 64
-0.97438, 337, 209, 368, 333
-0.974436, 49, 105, 176, 168
-0.974528, 289, 129, 320, 192
-0.974537, 265, 113, 296, 176
-0.974568, 101, 153, 132, 216
-0.974636, 313, 33, 376, 288
-0.974658, 377, 129, 408, 256
-0.974701, 81, 25, 144, 88
-0.974701, 97, 145, 224, 208
-0.974732, 261, 25, 292, 88
-0.974741, 185, 49, 216, 176
-0.974814, 297, 177, 328, 304
-0.974831, 185, 57, 216, 120
-0.97493, 361, 193, 392, 320
-0.974953, 277, 33, 308, 160
-0.974981, 401, 265, 432, 328
-0.974981, 157, 65, 188, 192
-0.97502, 89, 241, 152, 304
-0.975033, 225, 145, 256, 272
-0.975096, 121, 161, 152, 224
-0.975115, 233, 17, 264, 144
-0.975135, 261, 1, 292, 128
-0.975166, 193, 273, 320, 333
-0.975245, 153, 273, 216, 333
-0.975263, 209, 17, 240, 144
-0.975269, 373, 65, 404, 192
-0.975316, 337, 89, 464, 152
-0.975425, 17, 185, 144, 248
-0.975441, 321, 241, 448, 304
-0.97546, 357, 97, 388, 224
-0.975478, 449, 225, 480, 288
-0.975494, 177, 129, 208, 256
-0.9755, 109, 1, 140, 128
-0.975538, 417, 249, 448, 312
-0.97559, 241, 73, 368, 136
-0.975699, 49, 57, 176, 120
-0.975709, 369, 273, 496, 333
-0.975841, 185, 33, 216, 96
-0.97595, 189, 97, 220, 160
-0.975973, 65, 97, 96, 160
-0.976052, 249, 249, 312, 312
-0.976065, 57, 201, 120, 264
-0.976169, 289, 9, 352, 72
-0.976329, 89, 145, 120, 208
-0.976355, 321, 33, 384, 96
-0.976398, 353, 145, 384, 272
-0.976412, 229, 33, 260, 96
-0.976469, 433, 129, 496, 192
-0.976556, 193, 1, 224, 128
-0.976595, 293, 257, 324, 320
-0.976667, 241, 1, 272, 64
-0.976667, 337, 249, 368, 312
-0.976733, 113, 1, 144, 64
-0.976754, 241, 209, 368, 272
-0.976802, 145, 129, 176, 256
-0.976831, 169, 49, 200, 176
-0.976857, 65, 193, 192, 256
-0.976962, 281, 185, 312, 248
-0.97698, 377, 145, 440, 208
-0.976998, 321, 145, 352, 272
-0.977032, 221, 137, 252, 200
-0.977131, 53, 113, 84, 176
-0.977346, 321, 65, 448, 128
-0.977409, 189, 145, 220, 272
-0.977417, 205, 33, 236, 96
-0.977487, 257, 49, 288, 176
-0.977508, 257, 1, 288, 64
-0.977525, 165, 65, 196, 128
-0.977589, 277, 129, 308, 192
-0.977611, 397, 185, 428, 248
-0.977647, 289, 209, 320, 272
-0.977673, 369, 137, 496, 200
-0.977793, 397, 105, 428, 168
-0.977803, 377, 57, 408, 120
-0.977817, 437, 177, 468, 304
-0.977817, 193, 9, 224, 72
-0.977823, 113, 137, 144, 200
-0.977898, 249, 1, 280, 128
-0.977983, 313, 161, 344, 224
-0.977989, 305, 193, 336, 256
-0.97802, 109, 25, 140, 88
-0.978075, 161, 1, 288, 64
-0.978111, 237, 113, 268, 176
-0.978145, 153, 129, 184, 192
-0.978207, 241, 137, 272, 200
-0.978245, 209, 249, 336, 312
-0.978252, 237, 161, 268, 288
-0.978291, 393, 1, 456, 256
-0.978294, 165, 41, 196, 104
-0.978399, 433, 17, 496, 80
-0.978429, 1, 177, 32, 304
-0.978441, 165, 9, 196, 72
-0.978492, 393, 33, 456, 96
-0.978551, 433, 225, 464, 288
-0.97857, 261, 97, 292, 224
-0.978612, 345, 121, 408, 184
-0.978659, 33, 177, 64, 240
-0.978691, 457, 177, 488, 304
-0.978714, 281, 153, 312, 216
-0.978729, 313, 137, 344, 200
-0.978789, 389, 113, 420, 240
-0.978796, 429, 249, 460, 312
-0.978801, 149, 33, 180, 96
-0.978825, 193, 249, 256, 312
-0.978939, 309, 105, 340, 168
-0.978946, 89, 177, 152, 240
-0.978994, 353, 201, 384, 264
-0.979002, 297, 65, 328, 192
-0.979026, 341, 97, 372, 224
-0.979082, 73, 265, 136, 328
-0.979197, 121, 81, 152, 208
-0.979199, 317, 273, 348, 333
-0.97922, 225, 97, 256, 160
-0.979264, 369, 193, 496, 256
-0.979289, 389, 265, 420, 328
-0.979305, 325, 201, 356, 264
-0.97932, 281, 257, 312, 320
-0.979332, 385, 105, 416, 168
-0.97939, 245, 25, 276, 88
-0.979428, 193, 209, 256, 272
-0.979438, 97, 121, 224, 184
-0.979446, 209, 9, 240, 72
-0.979485, 409, 9, 472, 72
-0.979521, 425, 105, 456, 168
-0.979621, 377, 81, 408, 144
-0.979644, 129, 185, 256, 248
-0.979734, 57, 161, 88, 224
-0.979846, 33, 105, 96, 168
-0.979868, 33, 161, 64, 288
-0.979904, 417, 65, 480, 320
-0.979937, 105, 1, 168, 333
-0.979941, 337, 217, 464, 280
-0.979998, 1, 257, 128, 320
-0.980028, 269, 49, 300, 112
-0.980062, 89, 161, 120, 288
-0.980092, 193, 209, 320, 272
-0.980163, 41, 65, 104, 320
-0.980171, 101, 177, 132, 240
-0.98025, 125, 49, 156, 112
-0.98027, 73, 145, 104, 208
-0.980276, 469, 177, 500, 304
-0.980277, 121, 25, 152, 88
-0.980296, 241, 169, 272, 232
-0.980315, 205, 153, 236, 216
-0.980366, 45, 129, 76, 256
-0.980383, 341, 145, 372, 272
-0.980387, 409, 185, 440, 248
-0.980403, 209, 65, 240, 128
-0.980587, 345, 177, 408, 240
-0.980606, 145, 9, 176, 72
-0.98061, 185, 129, 216, 192
-0.980667, 301, 233, 332, 296
-0.980812, 129, 225, 256, 288
-0.980815, 65, 265, 192, 328
-0.980922, 289, 1, 352, 333
-0.980994, 197, 185, 228, 248
-0.981008, 97, 33, 128, 160
-0.981028, 177, 1, 208, 128
-0.981047, 77, 161, 108, 288
-0.981057, 425, 49, 488, 112
-0.981077, 133, 81, 164, 208
-0.981173, 441, 33, 472, 160
-0.981176, 269, 209, 300, 333
-0.981191, 77, 97, 108, 160
-0.981201, 421, 225, 452, 288
-0.981211, 281, 81, 312, 144
-0.98123, 245, 201, 276, 264
-0.981264, 433, 185, 496, 248
-0.981267, 305, 257, 336, 320
-0.981317, 177, 105, 208, 168
-0.981404, 225, 57, 256, 120
-0.981449, 353, 33, 416, 160
-0.981472, 213, 89, 244, 152
-0.981588, 181, 1, 212, 64
-0.981617, 313, 217, 344, 280
-0.981624, 289, 217, 416, 280
-0.981634, 257, 89, 288, 152
-0.981639, 265, 1, 328, 333
-0.981655, 21, 177, 52, 240
-0.981724, 469, 257, 500, 320
-0.981749, 461, 217, 492, 280
-0.981776, 161, 225, 224, 288
-0.981821, 269, 153, 300, 216
-0.981837, 245, 89, 276, 152
-0.981851, 369, 169, 496, 232
-0.981913, 121, 161, 152, 288
-0.981923, 237, 241, 268, 304
-0.982011, 345, 137, 376, 200
-0.98202, 309, 177, 340, 304
-0.982026, 81, 1, 144, 333
-0.982085, 129, 273, 256, 333
-0.98211, 333, 273, 364, 333
-0.982138, 161, 193, 192, 320
-0.982226, 185, 1, 248, 333
-0.982249, 105, 209, 136, 333
-0.982274, 349, 209, 380, 333
-0.982332, 117, 185, 148, 248
-0.982422, 389, 193, 420, 320
-0.98243, 217, 33, 248, 96
-0.982488, 229, 169, 260, 232
-0.982533, 333, 225, 364, 288
-0.982565, 145, 169, 176, 232
-0.982569, 313, 65, 344, 128
-0.982572, 61, 177, 92, 304
-0.982598, 365, 65, 396, 128
-0.982622, 293, 33, 324, 96
-0.982793, 49, 241, 176, 304
-0.982824, 161, 217, 192, 280
-0.982834, 425, 177, 456, 304
-0.982863, 385, 137, 416, 200
-0.98289, 165, 121, 196, 184
-0.983016, 269, 185, 300, 248
-0.983022, 269, 1, 300, 64
-0.983129, 89, 185, 120, 248
-0.983165, 357, 97, 388, 160
-0.983191, 281, 57, 312, 120
-0.983201, 289, 233, 320, 296
-0.983211, 225, 1, 288, 333
-0.983274, 325, 209, 356, 333
-0.983283, 145, 177, 176, 304
-0.983345, 409, 209, 440, 333
-0.983366, 445, 97, 476, 160
-0.983408, 73, 169, 104, 232
-0.983447, 293, 17, 324, 144
-0.983453, 41, 209, 104, 333
-0.983586, 173, 177, 204, 304
-0.983692, 385, 1, 448, 333
-0.9837, 49, 177, 80, 304
-0.983751, 49, 1, 176, 64
-0.983796, 289, 33, 416, 96
-0.983857, 309, 49, 340, 176
-0.983989, 233, 209, 264, 333
-0.984028, 253, 193, 284, 320
-0.984031, 389, 65, 420, 192
-0.984099, 21, 161, 52, 288
-0.984105, 109, 97, 140, 224
-0.984137, 325, 81, 356, 208
-0.984162, 33, 33, 160, 96
-0.984167, 145, 1, 208, 333
-0.984321, 365, 145, 396, 272
-0.98434, 425, 1, 488, 333
-0.984476, 73, 49, 104, 176
-0.984734, 17, 209, 144, 272
-0.984737, 369, 65, 496, 128
-0.984825, 369, 33, 496, 96
-0.984836, 57, 1, 120, 128
-0.984887, 429, 97, 460, 224
-0.985212, 445, 81, 476, 208
-0.985387, 65, 217, 192, 280
-0.985439, 113, 249, 240, 312
-0.985483, 57, 1, 120, 333
-0.985682, 257, 1, 384, 64
-0.985743, 93, 209, 124, 333
-0.985798, 313, 1, 344, 128
-0.98595, 457, 33, 488, 160
-0.985958, 1, 105, 128, 168
-0.986016, 193, 193, 224, 320
-0.986447, 1, 233, 128, 296
-0.986507, 109, 49, 140, 176
-0.986525, 329, 1, 392, 333
-0.986575, 245, 49, 276, 176
-0.986733, 373, 193, 404, 320
-0.986751, 461, 129, 492, 256
-0.98693, 409, 113, 440, 240
-0.987173, 33, 97, 288, 160
-0.987467, 9, 129, 40, 256
-0.987527, 161, 121, 416, 184
-0.987605, 401, 161, 432, 288
-0.987673, 281, 177, 344, 208
-0.987762, 57, 125, 120, 156
-0.987787, 65, 57, 320, 120
-0.987794, 345, 285, 408, 316
-0.988046, 377, 17, 408, 144
-0.988075, 161, 177, 416, 240
-0.988083, 161, 249, 288, 312
-0.988184, 361, 1, 424, 333
-0.988228, 205, 177, 236, 304
-0.988365, 89, 141, 152, 172
-0.988388, 241, 121, 304, 152
-0.988461, 137, 41, 200, 72
-0.988497, 377, 265, 440, 296
-0.988521, 201, 137, 264, 168
-0.988573, 97, 29, 160, 60
-0.988627, 233, 29, 296, 60
-0.988682, 305, 137, 368, 168
-0.988732, 337, 297, 400, 328
-0.988753, 289, 153, 352, 184
-0.988798, 241, 149, 304, 180
-0.988843, 353, 273, 416, 304
-0.988848, 233, 173, 296, 204
-0.988887, 401, 253, 464, 284
-0.988896, 321, 1, 448, 64
-0.988958, 193, 157, 256, 188
-0.988959, 313, 277, 376, 308
-0.988967, 129, 9, 192, 40
-0.989006, 49, 137, 112, 168
-0.989023, 105, 157, 168, 188
-0.989028, 281, 57, 344, 88
-0.989035, 333, 17, 364, 144
-0.989042, 369, 189, 432, 220
-0.989046, 393, 109, 456, 140
-0.989052, 241, 45, 304, 76
-0.989078, 117, 209, 148, 333
-0.989088, 153, 17, 216, 48
-0.989125, 345, 101, 408, 132
-0.989145, 129, 53, 192, 84
-0.989162, 265, 129, 328, 160
-0.989163, 305, 197, 368, 228
-0.989171, 177, 125, 240, 156
-0.989199, 209, 125, 272, 156
-0.989204, 177, 301, 240, 332
-0.989223, 49, 149, 112, 180
-0.989243, 329, 265, 392, 296
-0.989311, 153, 125, 216, 156
-0.989319, 281, 41, 344, 72
-0.989377, 1, 129, 500, 192
-0.989387, 161, 153, 416, 216
-0.989388, 305, 185, 368, 216
-0.98939, 129, 145, 192, 176
-0.989436, 225, 241, 480, 304
-0.989438, 361, 49, 392, 176
-0.98945, 161, 17, 416, 80
-0.989452, 153, 29, 216, 60
-0.98946, 33, 137, 288, 200
-0.989469, 177, 137, 240, 168
-0.989476, 433, 253, 496, 284
-0.989479, 217, 17, 280, 48
-0.989517, 193, 25, 256, 56
-0.989545, 329, 141, 392, 172
-0.989557, 1, 89, 500, 152
-0.989564, 297, 217, 360, 248
-0.989593, 265, 29, 328, 60
-0.989625, 1, 181, 64, 212
-0.989681, 257, 169, 320, 200
-0.989721, 249, 185, 312, 216
-0.989736, 193, 177, 256, 208
-0.989776, 89, 69, 152, 100
-0.989783, 129, 265, 384, 328
-0.989794, 161, 77, 224, 108
-0.989796, 65, 33, 320, 96
-0.989811, 73, 161, 136, 192
-0.989813, 161, 81, 416, 144
-0.989822, 41, 181, 104, 212
-0.989825, 329, 197, 392, 228
-0.989864, 97, 45, 160, 76
-0.989901, 153, 1, 216, 32
-0.989914, 241, 17, 304, 48
-0.989943, 393, 125, 456, 156
-0.989947, 305, 289, 368, 320
-0.98996, 369, 285, 432, 316
-0.989982, 337, 153, 400, 184
-0.99, 209, 81, 272, 112
-0.990007, 369, 1, 496, 64
-0.990015, 273, 261, 336, 292
-0.990016, 85, 1, 116, 128
-0.990057, 289, 69, 352, 100
-0.990065, 121, 21, 184, 52
-0.990067, 289, 81, 352, 112
-0.99008, 169, 65, 232, 96
-0.990096, 217, 149, 280, 180
-0.990097, 417, 237, 480, 268
-0.990109, 209, 197, 272, 228
-0.990151, 89, 129, 152, 160
-0.990151, 33, 1, 96, 333
-0.990151, 105, 169, 168, 200
-0.990181, 113, 185, 176, 216
-0.990186, 97, 57, 160, 88
-0.99019, 201, 301, 264, 332
-0.990197, 225, 137, 288, 168
-0.990197, 193, 13, 256, 44
-0.990222, 33, 169, 96, 200
-0.990228, 265, 209, 328, 240
-0.990231, 1, 161, 256, 224
-0.990244, 113, 201, 176, 232
-0.990252, 73, 173, 136, 204
-0.990267, 385, 97, 448, 128
-0.990276, 129, 65, 192, 96
-0.990281, 289, 165, 352, 196
-0.990287, 169, 113, 232, 144
-0.990287, 153, 193, 216, 224
-0.990315, 233, 161, 296, 192
-0.990323, 241, 65, 304, 96
-0.990357, 413, 161, 444, 288
-0.99037, 225, 257, 288, 288
-0.990382, 337, 129, 400, 160
-0.99039, 353, 261, 416, 292
-0.990395, 409, 93, 472, 124
-0.990401, 345, 113, 408, 144
-0.990431, 57, 113, 120, 144
-0.990433, 25, 65, 88, 192
-0.990433, 177, 1, 240, 32
-0.99044, 17, 81, 144, 144
-0.990456, 361, 145, 424, 176
-0.990472, 225, 245, 288, 276
-0.990472, 369, 205, 432, 236
-0.990492, 129, 209, 160, 333
-0.990494, 257, 121, 500, 184
-0.990498, 297, 229, 360, 260
-0.990502, 409, 185, 472, 216
-0.990537, 73, 189, 136, 220
-0.990555, 265, 69, 328, 100
-0.990565, 193, 101, 256, 132
-0.990569, 97, 1, 160, 32
-0.990572, 361, 89, 424, 120
-0.990575, 257, 301, 320, 332
-0.990576, 297, 109, 360, 140
-0.990582, 1, 261, 64, 292
-0.990588, 337, 217, 400, 248
-0.990605, 257, 237, 320, 268
-0.99064, 273, 273, 336, 304
-0.990644, 153, 137, 216, 168
-0.990644, 305, 245, 368, 276
-0.990652, 265, 157, 328, 188
-0.990653, 321, 89, 384, 120
-0.990659, 1, 65, 64, 320
-0.990667, 193, 113, 256, 144
-0.990696, 1, 161, 500, 224
-0.990701, 273, 189, 336, 220
-0.990726, 1, 277, 64, 308
-0.990747, 321, 105, 384, 136
-0.990753, 129, 133, 192, 164
-0.99077, 129, 165, 192, 196
-0.990792, 97, 17, 160, 48
-0.990815, 73, 89, 136, 120
-0.990821, 297, 125, 360, 156
-0.990829, 209, 37, 272, 68
-0.990831, 385, 137, 448, 168
-0.990839, 289, 29, 352, 60
-0.990933, 457, 81, 488, 208
-0.990983, 257, 161, 500, 224
-0.991012, 1, 185, 500, 248
-0.991012, 13, 209, 44, 333
-0.991192, 161, 57, 416, 120
-0.991193, 129, 201, 384, 264
-0.99124, 257, 97, 500, 160
-0.991313, 449, 129, 480, 256
-0.991449, 257, 193, 500, 256
-0.991452, 257, 265, 500, 328
-0.99155, 33, 113, 64, 240
-0.991933, 429, 33, 460, 160
-0.991953, 325, 133, 356, 164
-0.991965, 393, 17, 424, 144
-0.991977, 361, 285, 392, 316
-0.99199, 209, 133, 240, 164
-0.992063, 349, 285, 380, 316
-0.992123, 293, 173, 324, 204
-0.992125, 133, 145, 164, 176
-0.99218, 81, 125, 112, 156
-0.992193, 397, 269, 428, 300
-0.992195, 61, 49, 92, 176
-0.99221, 93, 129, 124, 160
-0.992241, 221, 17, 252, 48
-0.992252, 109, 29, 140, 60
-0.992258, 409, 185, 440, 216
-0.992263, 305, 137, 336, 168
-0.992265, 145, 41, 176, 72
-0.992273, 209, 301, 240, 332
-0.9923, 337, 133, 368, 164
-0.992304, 117, 9, 148, 40
-0.992314, 197, 125, 228, 156
-0.992317, 289, 129, 320, 160
-0.992329, 277, 169, 308, 200
-0.992331, 121, 161, 152, 192
-0.992337, 269, 49, 300, 80
-0.992339, 421, 249, 452, 280
-0.992342, 29, 181, 60, 212
-0.992365, 413, 265, 444, 296
-0.992379, 57, 137, 88, 168
-0.992387, 345, 145, 376, 176
-0.992392, 373, 277, 404, 308
-0.992395, 325, 145, 356, 176
-0.992403, 157, 33, 188, 64
-0.992404, 397, 185, 428, 216
-0.99242, 253, 117, 284, 148
-0.992427, 241, 29, 272, 60
-0.99243, 289, 285, 416, 316
-0.992446, 321, 201, 352, 232
-0.992449, 221, 141, 252, 172
-0.992463, 65, 9, 320, 72
-0.992465, 105, 173, 136, 204
-0.992473, 209, 121, 240, 152
-0.992479, 177, 29, 304, 60
-0.992484, 209, 41, 336, 72
-0.992489, 69, 129, 100, 160
-0.992497, 61, 117, 92, 148
-0.992519, 289, 157, 320, 188
-0.992525, 189, 137, 220, 168
-0.992529, 177, 17, 208, 48
-0.992536, 89, 153, 120, 184
-0.99254, 145, 137, 176, 168
-0.992543, 229, 125, 260, 156
-0.99255, 185, 61, 216, 92
-0.992551, 197, 185, 228, 216
-0.992557, 185, 113, 216, 144
-0.992569, 193, 17, 224, 48
-0.99257, 357, 197, 388, 228
-0.99257, 349, 273, 380, 304
-0.992571, 325, 213, 356, 244
-0.992573, 109, 141, 140, 172
-0.992584, 41, 193, 72, 224
-0.992586, 301, 205, 332, 236
-0.992592, 377, 61, 408, 92
-0.992597, 257, 29, 288, 60
-0.992598, 361, 297, 392, 328
-0.992604, 217, 193, 248, 320
-0.992606, 77, 149, 108, 180
-0.992611, 121, 145, 152, 176
-0.992615, 33, 185, 288, 248
-0.992619, 385, 269, 416, 300
-0.992622, 133, 41, 164, 72
-0.992623, 225, 29, 256, 60
-0.99263, 289, 209, 320, 240
-0.992631, 209, 17, 240, 48
-0.992643, 245, 173, 276, 204
-0.992644, 337, 285, 368, 316
-0.992647, 129, 25, 160, 56
-0.992649, 297, 185, 328, 216
-0.99265, 397, 125, 428, 156
-0.992652, 209, 145, 240, 176
-0.992653, 313, 189, 344, 220
-0.992654, 257, 1, 288, 32
-0.992664, 241, 45, 272, 76
-0.992664, 349, 297, 380, 328
-0.992665, 257, 45, 288, 76
-0.992666, 41, 177, 72, 208
-0.99267, 273, 37, 304, 68
-0.99267, 273, 149, 304, 180
-0.992677, 397, 109, 428, 140
-0.992681, 277, 129, 308, 160
-0.992682, 225, 185, 256, 216
-0.992689, 129, 1, 160, 32
-0.992689, 293, 29, 324, 60
-0.992691, 281, 253, 312, 284
-0.992692, 245, 17, 276, 48
-0.992692, 221, 81, 252, 112
-0.992699, 165, 73, 196, 104
-0.992711, 381, 197, 412, 228
-0.992712, 333, 105, 364, 136
-0.992712, 313, 173, 344, 204
-0.992718, 101, 153, 132, 184
-0.992721, 289, 145, 320, 176
-0.992725, 265, 137, 296, 168
-0.992726, 205, 89, 236, 120
-0.992726, 465, 253, 496, 284
-0.99273, 333, 233, 364, 264
-0.992732, 369, 97, 400, 128
-0.992734, 137, 13, 168, 44
-0.992743, 169, 125, 200, 156
-0.992746, 233, 137, 264, 168
-0.992748, 181, 201, 212, 232
-0.992753, 421, 101, 452, 132
-0.992753, 1, 57, 128, 120
-0.992754, 301, 217, 332, 248
-0.99276, 105, 57, 136, 88
-0.992768, 433, 249, 464, 280
-0.992771, 313, 217, 344, 248
-0.992772, 133, 57, 164, 88
-0.992773, 125, 197, 156, 228
-0.992778, 133, 157, 164, 188
-0.99278, 281, 85, 312, 116
-0.992781, 185, 85, 216, 116
-0.992783, 109, 285, 140, 316
-0.992787, 57, 153, 88, 184
-0.992791, 445, 237, 476, 268
-0.992797, 185, 177, 216, 208
-0.992799, 241, 153, 272, 184
-0.992799, 237, 241, 268, 272
-0.992799, 5, 269, 36, 300
-0.992803, 413, 197, 444, 228
-0.992805, 417, 233, 448, 264
-0.992812, 349, 105, 380, 136
-0.992814, 117, 177, 148, 208
-0.992816, 205, 157, 236, 188
-0.992816, 265, 125, 296, 156
-0.992816, 301, 157, 332, 188
-0.992819, 165, 45, 196, 76
-0.99282, 249, 141, 280, 172
-0.992821, 281, 189, 312, 220
-0.992822, 145, 149, 176, 180
-0.992829, 225, 217, 480, 280
-0.992905, 129, 233, 384, 296
-0.993081, 81, 53, 208, 84
-0.993155, 209, 133, 336, 164
-0.993174, 209, 161, 336, 192
-0.993177, 129, 33, 256, 64
-0.993182, 337, 109, 464, 140
-0.993188, 145, 133, 272, 164
-0.99319, 1, 273, 500, 333
-0.993207, 1, 65, 500, 128
-0.99331, 65, 133, 192, 164
-0.993356, 99, 121, 114, 184
-0.993388, 305, 145, 432, 176
-0.9934, 137, 137, 152, 200
-0.993414, 225, 173, 352, 204
-0.99342, 241, 149, 368, 180
-0.993428, 257, 133, 384, 164
-0.993509, 337, 121, 464, 152
-0.99357, 209, 57, 336, 88
-0.993578, 337, 285, 464, 316
-0.993579, 225, 129, 240, 192
-0.993584, 89, 121, 104, 184
-0.993596, 81, 121, 96, 184
-0.993622, 129, 17, 256, 48
-0.993625, 161, 201, 288, 232
-0.993681, 189, 33, 204, 96
-0.993682, 257, 105, 384, 136
-0.993687, 301, 169, 316, 232
-0.993697, 129, 157, 256, 188
-0.993701, 321, 273, 448, 304
-0.993705, 295, 129, 310, 192
-0.993736, 299, 209, 314, 272
-0.993743, 321, 133, 448, 164
-0.993773, 469, 17, 500, 144
-0.993776, 321, 97, 448, 128
-0.993806, 147, 9, 162, 72
-0.993808, 359, 265, 374, 328
-0.993809, 81, 41, 208, 72
-0.993824, 117, 169, 132, 232
-0.993867, 211, 121, 226, 184
-0.993889, 141, 9, 156, 72
-0.993917, 67, 113, 82, 176
-0.993945, 113, 137, 128, 200
-0.994009, 1, 1, 64, 333
-0.994022, 59, 129, 74, 192
-0.994049, 201, 105, 216, 168
-0.994079, 241, 189, 368, 220
-0.994102, 209, 121, 336, 152
-0.994105, 273, 173, 400, 204
-0.994107, 257, 41, 500, 104
-0.99411, 65, 149, 192, 180
-0.994121, 51, 161, 66, 224
-0.994143, 193, 189, 320, 220
-0.994182, 1, 241, 500, 304
-0.994188, 65, 189, 192, 220
-0.994201, 345, 105, 360, 168
-0.994221, 321, 189, 448, 220
-0.994236, 351, 249, 366, 312
-0.994238, 273, 265, 400, 296
-0.994247, 193, 145, 320, 176
-0.994253, 139, 41, 154, 104
-0.994276, 337, 121, 352, 184
-0.994281, 17, 189, 144, 220
-0.994297, 351, 113, 366, 176
-0.994298, 235, 33, 250, 96
-0.9943, 375, 273, 390, 333
-0.994311, 33, 249, 288, 312
-0.994317, 233, 1, 248, 64
-0.994341, 417, 65, 448, 192
-0.994349, 73, 97, 88, 160
-0.99435, 97, 205, 224, 236
-0.994357, 221, 17, 236, 80
-0.994375, 21, 113, 52, 240
-0.994385, 257, 233, 384, 264
-0.994407, 211, 1, 226, 64
-0.994415, 295, 185, 310, 248
-0.994418, 303, 129, 318, 192
-0.994421, 81, 73, 208, 104
-0.994426, 337, 249, 464, 280
-0.994426, 269, 113, 284, 176
-0.994429, 1, 273, 256, 333
-0.994433, 345, 273, 360, 333
-0.994436, 421, 249, 436, 312
-0.994466, 241, 281, 368, 312
-0.994467, 81, 25, 208, 56
-0.994471, 17, 173, 144, 204
-0.994477, 215, 25, 230, 88
-0.994478, 225, 57, 240, 120
-0.994488, 81, 297, 208, 328
-0.99449, 65, 89, 192, 120
-0.994492, 289, 129, 304, 192
-0.994525, 411, 265, 426, 328
-0.994537, 161, 61, 288, 92
-0.994539, 145, 185, 272, 216
-0.994539, 193, 17, 320, 48
-0.994542, 309, 129, 324, 192
-0.994545, 251, 113, 266, 176
-0.994562, 337, 265, 352, 328
-0.994564, 257, 73, 500, 136
-0.994568, 213, 89, 228, 152
-0.994575, 261, 113, 276, 176
-0.99459, 191, 57, 206, 120
-0.994605, 219, 121, 234, 184
-0.994608, 321, 157, 448, 188
-0.994613, 135, 17, 150, 80
-0.994614, 201, 17, 216, 80
-0.994614, 273, 161, 400, 192
-0.994617, 327, 129, 342, 192
-0.994628, 293, 161, 308, 224
-0.994634, 129, 145, 256, 176
-0.994657, 33, 217, 288, 280
-0.994662, 447, 225, 462, 288
-0.994667, 1, 281, 128, 312
-0.994683, 129, 169, 256, 200
-0.994687, 281, 129, 296, 192
-0.99469, 1, 217, 500, 280
-0.994702, 107, 129, 122, 192
-0.994703, 17, 133, 144, 164
-0.994713, 321, 177, 448, 208
-0.994731, 321, 237, 448, 268
-0.994737, 235, 153, 250, 216
-0.99474, 127, 161, 142, 224
-0.994752, 197, 65, 212, 128
-0.994753, 289, 61, 416, 92
-0.99476, 241, 293, 368, 324
-0.994764, 71, 137, 86, 200
-0.994764, 321, 297, 448, 328
-0.994808, 227, 1, 242, 64
-0.994812, 241, 205, 368, 236
-0.994815, 151, 33, 166, 96
-0.994822, 111, 25, 126, 88
-0.994828, 145, 301, 272, 332
-0.994837, 417, 17, 448, 144
-0.994837, 287, 185, 302, 248
-0.994854, 111, 161, 126, 224
-0.994857, 257, 41, 384, 72
-0.994857, 369, 133, 496, 164
-0.994863, 193, 277, 320, 308
-0.994874, 229, 33, 244, 96
-0.994874, 207, 153, 222, 216
-0.994881, 257, 253, 384, 284
-0.994885, 335, 193, 350, 256
-0.994911, 177, 93, 304, 124
-0.994948, 91, 145, 106, 208
-0.99495, 207, 89, 222, 152
-0.994964, 311, 185, 326, 248
-0.99497, 79, 97, 94, 160
-0.994976, 289, 121, 416, 152
-0.994976, 205, 129, 220, 192
-0.994977, 337, 261, 464, 292
-0.994992, 177, 173, 304, 204
-0.994993, 427, 257, 442, 320
-0.995004, 351, 273, 366, 333
-0.995021, 145, 121, 272, 152
-0.995022, 275, 25, 290, 88
-0.995028, 241, 77, 368, 108
-0.995029, 275, 97, 290, 160
-0.995034, 241, 129, 256, 192
-0.99504, 129, 33, 144, 96
-0.995041, 357, 113, 372, 176
-0.995053, 333, 97, 348, 160
-0.995059, 485, 257, 500, 320
-0.995074, 391, 273, 406, 333
-0.995086, 1, 261, 128, 292
-0.995093, 161, 45, 288, 76
-0.995104, 177, 109, 304, 140
-0.995105, 307, 161, 322, 224
-0.995113, 1, 25, 500, 88
-0.995117, 157, 33, 172, 96
-0.995125, 181, 65, 196, 128
-0.995136, 43, 185, 58, 248
-0.99514, 305, 201, 320, 264
-0.995151, 245, 25, 260, 88
-0.995153, 35, 177, 50, 240
-0.995155, 33, 161, 160, 192
-0.995155, 339, 97, 354, 160
-0.995155, 113, 5, 240, 36
-0.995156, 81, 145, 96, 208
-0.995159, 195, 97, 210, 160
-0.995165, 179, 9, 194, 72
-0.9952, 369, 197, 496, 228
-0.995213, 143, 137, 158, 200
-0.995228, 257, 1, 272, 64
-0.99523, 223, 97, 238, 160
-0.995245, 433, 249, 448, 312
-0.995249, 145, 33, 160, 96
-0.995253, 195, 1, 210, 64
-0.995261, 309, 257, 324, 320
-0.995277, 65, 121, 192, 152
-0.995303, 225, 29, 352, 60
-0.995309, 115, 1, 130, 64
-0.995312, 459, 225, 474, 288
-0.995317, 261, 25, 276, 88
-0.995319, 479, 257, 494, 320
-0.995322, 129, 1, 144, 64
-0.995322, 273, 221, 400, 252
-0.995338, 97, 153, 112, 216
-0.995339, 271, 1, 286, 64
-0.995339, 303, 233, 318, 296
-0.995342, 1, 293, 128, 324
-0.995342, 175, 33, 190, 96
-0.995346, 257, 1, 500, 64
-0.995351, 209, 217, 336, 248
-0.995353, 235, 121, 250, 184
-0.995362, 389, 105, 404, 168
-0.995369, 285, 57, 300, 120
-0.995377, 193, 301, 320, 332
-0.995378, 89, 33, 120, 288
-0.995381, 369, 273, 496, 304
-0.995383, 283, 257, 298, 320
-0.995386, 105, 1, 136, 256
-0.995393, 275, 121, 290, 184
-0.995398, 187, 1, 202, 64
-0.995408, 65, 105, 192, 136
-0.995409, 251, 169, 266, 232
-0.995409, 467, 217, 482, 280
-0.995423, 401, 105, 416, 168
-0.995427, 323, 105, 338, 168
-0.995431, 241, 153, 256, 216
-0.995432, 265, 1, 280, 64
-0.995433, 65, 137, 80, 200
-0.995435, 157, 137, 172, 200
-0.995436, 1, 9, 128, 72
-0.995437, 155, 9, 170, 72
-0.995438, 343, 129, 358, 192
-0.995447, 379, 57, 394, 120
-0.995456, 321, 25, 448, 56
-0.995469, 303, 89, 318, 152
-0.99547, 369, 97, 496, 128
-0.995477, 209, 265, 336, 296
-0.995482, 439, 249, 454, 312
-0.995487, 267, 25, 282, 88
-0.995489, 247, 89, 262, 152
-0.995508, 253, 41, 268, 104
-0.995522, 281, 33, 296, 96
-0.995565, 277, 1, 308, 256
-0.995571, 49, 205, 176, 236
-0.995603, 173, 1, 204, 256
-0.995624, 209, 237, 336, 268
-0.995641, 321, 77, 448, 108
-0.995648, 241, 17, 368, 48
-0.995662, 129, 33, 160, 288
-0.995667, 65, 177, 192, 208
-0.995675, 369, 29, 496, 60
-0.99569, 289, 201, 416, 232
-0.995695, 65, 285, 192, 316
-0.99572, 1, 249, 128, 280
-0.99573, 257, 93, 384, 124
-0.99576, 349, 17, 380, 144
-0.995816, 129, 265, 256, 296
-0.995873, 153, 1, 184, 256
-0.995874, 145, 73, 272, 104
-0.995878, 113, 85, 240, 116
-0.995887, 17, 145, 144, 176
-0.995943, 81, 165, 208, 196
-0.995969, 209, 249, 336, 280
-0.995975, 141, 33, 172, 288
-0.995979, 241, 33, 272, 288
-0.996, 77, 33, 108, 288
-0.996004, 17, 121, 144, 152
-0.996037, 65, 265, 192, 296
-0.99606, 117, 1, 148, 256
-0.996084, 377, 65, 408, 320
-0.99611, 77, 209, 108, 333
-0.996116, 337, 221, 464, 252
-0.99616, 369, 177, 496, 208
-0.996215, 161, 1, 288, 32
-0.996218, 81, 249, 208, 280
-0.996228, 129, 289, 256, 320
-0.996245, 129, 97, 256, 128
-0.996251, 337, 65, 464, 96
-0.996271, 33, 17, 96, 144
-0.996276, 193, 73, 320, 104
-0.996281, 209, 5, 336, 36
-0.996302, 293, 1, 324, 256
-0.996344, 291, 169, 306, 200
-0.996357, 129, 221, 256, 252
-0.996369, 273, 29, 400, 60
-0.996392, 1, 1, 500, 64
-0.996403, 185, 1, 216, 256
-0.996449, 369, 233, 496, 264
-0.996467, 369, 13, 496, 44
-0.99648, 81, 217, 208, 248
-0.996502, 1, 201, 128, 232
-0.99651, 209, 1, 240, 256
-0.996511, 33, 53, 160, 84
-0.996556, 225, 1, 256, 256
-0.996583, 361, 65, 392, 320
-0.996595, 65, 1, 192, 32
-0.996601, 33, 33, 160, 64
-0.996647, 351, 285, 366, 316
-0.996693, 253, 1, 284, 256
-0.996696, 129, 241, 256, 272
-0.996715, 197, 1, 228, 256
-0.996746, 137, 141, 152, 172
-0.99678, 317, 33, 348, 288
-0.99679, 145, 277, 272, 308
-0.996792, 265, 33, 296, 288
-0.996802, 49, 65, 80, 192
-0.996803, 37, 209, 68, 333
-0.996816, 129, 109, 256, 140
-0.99685, 369, 297, 496, 328
-0.996878, 339, 133, 354, 164
-0.996938, 329, 133, 344, 164
-0.996963, 225, 133, 240, 164
-0.996974, 357, 289, 372, 320
-0.996983, 193, 289, 320, 320
-0.996991, 303, 173, 318, 204
-0.997001, 363, 285, 378, 316
-0.997008, 49, 13, 176, 44
-0.997022, 315, 137, 330, 168
-0.997107, 35, 177, 50, 208
-0.997116, 123, 165, 138, 196
-0.99713, 371, 285, 386, 316
-0.997134, 321, 37, 448, 68
-0.997144, 85, 125, 100, 156
-0.997156, 151, 37, 166, 68
-0.997157, 289, 157, 304, 188
-0.997161, 41, 177, 56, 208
-0.997173, 323, 133, 338, 164
-0.997181, 297, 173, 312, 204
-0.997182, 299, 157, 314, 188
-0.997188, 205, 13, 220, 44
-0.997192, 457, 33, 488, 288
-0.997201, 65, 65, 96, 320
-0.997217, 129, 157, 144, 188
-0.997223, 409, 269, 424, 300
-0.997259, 333, 193, 348, 224
-0.997265, 131, 13, 146, 44
-0.997283, 305, 1, 336, 256
-0.997297, 219, 301, 234, 332
-0.997299, 213, 125, 228, 156
-0.9973, 97, 125, 112, 156
-0.997317, 347, 133, 362, 164
-0.997319, 247, 33, 262, 64
-0.99732, 389, 65, 420, 320
-0.997327, 121, 9, 136, 40
-0.997333, 91, 125, 106, 156
-0.99734, 77, 129, 92, 160
-0.997371, 291, 129, 306, 160
-0.997372, 329, 33, 360, 288
-0.997375, 309, 137, 324, 168
-0.997377, 217, 17, 232, 48
-0.99741, 219, 133, 234, 164
-0.997417, 199, 17, 214, 48
-0.997418, 211, 25, 226, 56
-0.997425, 349, 65, 380, 320
-0.997428, 143, 141, 158, 172
-0.997436, 203, 185, 218, 216
-0.997443, 485, 261, 500, 292
-0.997445, 65, 121, 80, 152
-0.997462, 49, 193, 64, 224
-0.997464, 343, 281, 358, 312
-0.997476, 337, 145, 352, 176
-0.997477, 299, 129, 314, 160
-0.9975, 201, 121, 216, 152
-0.997501, 159, 33, 174, 64
-0.99751, 357, 277, 372, 308
-0.997513, 115, 9, 130, 40
-0.997514, 421, 185, 436, 216
-0.997515, 373, 197, 388, 228
-0.997522, 145, 41, 160, 72
-0.997524, 417, 261, 432, 292
-0.997528, 81, 149, 96, 180
-0.99753, 233, 17, 248, 48
-0.997534, 111, 133, 126, 164
-0.997557, 89, 141, 104, 172
-0.997563, 223, 17, 238, 48
-0.997564, 181, 17, 196, 48
-0.997568, 377, 285, 392, 316
-0.997572, 135, 161, 150, 192
-0.997573, 199, 1, 214, 32
-0.997574, 275, 125, 290, 156
-0.997578, 111, 29, 126, 60
-0.997584, 399, 265, 414, 296
-0.997585, 207, 141, 222, 172
-0.997586, 247, 21, 262, 52
-0.997605, 285, 169, 300, 200
-0.997609, 55, 197, 70, 228
-0.997612, 133, 1, 148, 32
-0.997615, 117, 169, 132, 200
-0.997616, 397, 189, 412, 220
-0.997621, 375, 297, 390, 328
-0.997622, 71, 137, 86, 168
-0.997623, 135, 41, 150, 72
-0.997628, 415, 185, 430, 216
-0.997629, 199, 105, 214, 136
-0.997631, 239, 161, 254, 192
-0.997638, 139, 1, 154, 32
-0.997639, 269, 45, 284, 76
-0.997639, 57, 137, 72, 168
-0.997645, 211, 5, 226, 36
-0.997649, 103, 129, 118, 160
-0.997651, 273, 29, 288, 60
-0.997657, 251, 117, 266, 148
-0.99766, 191, 61, 206, 92
-0.99766, 305, 205, 320, 236
-0.997678, 281, 137, 296, 168
-0.997685, 223, 77, 238, 108
-0.99769, 227, 145, 242, 176
-0.997691, 127, 177, 142, 208
-0.997694, 239, 25, 254, 56
-0.997701, 343, 113, 358, 144
-0.997706, 313, 197, 328, 228
-0.997715, 181, 73, 196, 104
-0.997719, 89, 153, 104, 184
-0.99772, 245, 125, 260, 156
-0.997724, 305, 29, 320, 60
-0.997729, 347, 145, 362, 176
-0.997732, 327, 185, 342, 216
-0.997734, 435, 249, 450, 280
-0.997736, 241, 149, 256, 180
-0.997745, 381, 273, 396, 304
-0.997754, 257, 45, 272, 76
-0.997758, 269, 113, 284, 144
-0.997759, 363, 197, 378, 228
-0.997761, 135, 25, 150, 56
-0.997762, 189, 25, 204, 56
-0.997765, 349, 297, 364, 328
-0.997768, 157, 45, 172, 76
-0.997772, 213, 137, 228, 168
-0.997778, 47, 177, 62, 208
-0.997779, 205, 25, 220, 56
-0.997784, 347, 101, 362, 132
-0.997795, 189, 5, 204, 36
-0.997795, 39, 189, 54, 220
-0.997799, 193, 189, 208, 220
-0.997802, 111, 169, 126, 200
-0.997805, 29, 177, 44, 208
-0.997807, 175, 121, 190, 152
-0.997811, 185, 61, 200, 92
-0.997811, 209, 301, 224, 332
-0.997813, 297, 145, 312, 176
-0.997813, 407, 181, 422, 212
-0.997819, 377, 61, 392, 92
-0.997833, 383, 289, 398, 320
-0.997834, 269, 141, 284, 172
-0.997837, 283, 37, 298, 68
-0.99795, 53, 65, 84, 320
-0.998084, 445, 65, 476, 320
-0.998279, 469, 65, 500, 192
-0.998284, 425, 65, 456, 320
-0.998353, 65, 129, 128, 144
-0.998381, 345, 285, 408, 300
-0.998385, 233, 33, 296, 48
-0.998389, 147, 1, 162, 128
-0.998389, 297, 137, 360, 152
-0.998405, 401, 65, 432, 192
-0.998411, 337, 291, 400, 306
-0.99842, 77, 97, 92, 224
-0.998423, 201, 137, 264, 152
-0.998423, 153, 135, 216, 150
-0.998424, 113, 1, 176, 16
-0.998424, 89, 145, 152, 160
-0.998424, 241, 123, 304, 138
-0.998425, 105, 29, 168, 44
-0.998426, 409, 253, 472, 268
-0.998427, 313, 283, 376, 298
-0.998431, 281, 185, 344, 200
-0.998431, 369, 193, 432, 208
-0.998436, 65, 135, 128, 150
-0.998436, 141, 1, 156, 128
-0.998436, 297, 153, 360, 168
-0.998442, 281, 179, 344, 194
-0.998444, 217, 317, 280, 332
-0.998445, 353, 105, 416, 120
-0.998445, 337, 301, 400, 316
-0.998445, 89, 155, 152, 170
-0.998447, 281, 63, 344, 78
-0.998447, 273, 39, 336, 54
-0.998448, 313, 147, 376, 162
-0.998448, 153, 31, 216, 46
-0.99845, 129, 11, 192, 26
-0.99845, 193, 157, 256, 172
-0.998452, 329, 211, 392, 226
-0.998454, 393, 111, 456, 126
-0.998455, 265, 133, 328, 148
-0.998456, 89, 139, 152, 154
-0.998457, 241, 129, 304, 144
-0.998459, 433, 257, 496, 272
-0.99846, 385, 269, 448, 284
-0.998461, 305, 243, 368, 258
-0.998461, 297, 233, 360, 248
-0.998465, 129, 53, 192, 68
-0.998465, 177, 137, 240, 152
-0.998467, 185, 309, 248, 324
-0.998469, 281, 57, 344, 72
-0.99847, 57, 123, 120, 138
-0.998471, 241, 55, 304, 70
-0.998473, 361, 201, 424, 216
-0.998474, 201, 29, 264, 44
-0.998475, 97, 51, 160, 66
-0.998475, 325, 155, 356, 170
-0.998475, 53, 139, 84, 154
-0.998475, 201, 143, 264, 158
-0.998476, 245, 215, 276, 230
-0.998476, 305, 203, 368, 218
-0.998476, 113, 141, 176, 156
-0.998476, 57, 129, 88, 144
-0.998476, 101, 291, 132, 306
-0.998476, 321, 209, 352, 224
-0.998477, 201, 189, 232, 204
-0.998477, 209, 95, 240, 110
-0.998478, 401, 103, 464, 118
-0.998479, 405, 285, 436, 300
-0.998479, 213, 89, 244, 104
-0.99848, 249, 173, 312, 188
-0.998481, 337, 155, 400, 170
-0.998482, 217, 157, 248, 172
-0.998483, 129, 45, 160, 60
-0.998483, 105, 163, 168, 178
-0.998483, 65, 153, 128, 168
-0.998483, 89, 153, 120, 168
-0.998483, 257, 11, 288, 26
-0.998484, 317, 195, 348, 210
-0.998484, 177, 315, 208, 330
-0.998485, 313, 289, 376, 304
-0.998485, 73, 131, 104, 146
-0.998486, 377, 61, 408, 76
-0.998486, 285, 217, 316, 232
-0.998487, 337, 29, 368, 44
-0.998487, 145, 139, 176, 154
-0.998488, 281, 37, 312, 52
-0.998489, 329, 29, 392, 44
-0.99849, 289, 209, 352, 224
-0.99849, 277, 169, 308, 184
-0.99849, 177, 33, 240, 48
-0.99849, 329, 205, 392, 220
-0.99849, 289, 79, 352, 94
-0.998491, 301, 143, 332, 158
-0.998491, 241, 33, 272, 48
-0.998491, 377, 273, 408, 288
-0.998491, 41, 183, 72, 198
-0.998492, 297, 223, 360, 238
-0.998494, 345, 299, 376, 314
-0.998494, 41, 159, 104, 174
-0.998495, 385, 185, 448, 200
-0.998496, 157, 35, 188, 50
-0.998496, 349, 277, 380, 292
-0.998496, 129, 37, 192, 52
-0.998496, 41, 137, 104, 152
-0.998496, 297, 217, 360, 232
-0.998496, 265, 213, 328, 228
-0.998497, 249, 167, 312, 182
-0.998497, 397, 135, 428, 150
-0.998497, 141, 11, 172, 26
-0.998498, 325, 223, 356, 238
-0.998498, 301, 219, 332, 234
-0.998499, 193, 189, 256, 204
-0.998499, 153, 5, 216, 20
-0.998499, 461, 255, 492, 270
-0.998499, 241, 41, 304, 56
-0.9985, 281, 49, 344, 64
-0.9985, 393, 105, 424, 120
-0.9985, 41, 175, 104, 190
-0.998501, 233, 183, 296, 198
-0.998501, 273, 129, 304, 144
-0.998503, 265, 227, 328, 242
-0.998503, 353, 201, 384, 216
-0.998503, 201, 129, 264, 144
-0.998503, 293, 151, 324, 166
-0.998504, 233, 117, 296, 132
-0.998504, 385, 281, 448, 296
-0.998504, 117, 145, 148, 160
-0.998504, 109, 177, 140, 192
-0.998505, 269, 47, 300, 62
-0.998505, 165, 317, 196, 332
-0.998505, 113, 147, 176, 162
-0.998507, 301, 207, 332, 222
-0.998507, 201, 163, 264, 178
-0.998507, 241, 47, 304, 62
-0.998507, 313, 231, 344, 246
-0.998508, 281, 191, 344, 206
-0.998508, 289, 85, 352, 100
-0.998508, 221, 21, 252, 36
-0.998508, 233, 139, 264, 154
-0.998509, 281, 71, 344, 86
-0.99851, 33, 185, 96, 200
-0.99851, 1, 181, 64, 196
-0.998511, 201, 27, 232, 42
-0.998511, 373, 281, 404, 296
-0.998511, 85, 143, 116, 158
-0.998511, 129, 23, 192, 38
-0.998511, 273, 149, 336, 164
-0.998511, 193, 123, 256, 138
-0.998512, 233, 153, 296, 168
-0.998512, 273, 265, 336, 280
-0.998513, 137, 43, 200, 58
-0.998513, 233, 197, 264, 212
-0.998513, 281, 257, 312, 272
-0.998514, 313, 217, 344, 232
-0.998514, 5, 279, 36, 294
-0.998515, 165, 79, 196, 94
-0.998515, 41, 191, 104, 206
-0.998515, 141, 51, 172, 66
-0.998516, 121, 153, 184, 168
-0.998516, 193, 121, 224, 136
-0.998516, 73, 175, 136, 190
-0.998516, 177, 131, 240, 146
-0.998517, 225, 31, 256, 46
-0.998517, 329, 197, 392, 212
-0.998517, 113, 169, 144, 184
-0.998518, 385, 289, 448, 304
-0.998518, 129, 1, 160, 16
-0.998518, 201, 197, 264, 212
-0.998518, 177, 315, 240, 330
-0.998519, 97, 35, 160, 50
-0.998519, 353, 261, 416, 276
-0.998519, 233, 189, 296, 204
-0.998519, 281, 33, 344, 48
-0.998519, 393, 193, 456, 208
-0.99852, 305, 29, 368, 44
-0.99852, 137, 39, 168, 54
-0.99852, 361, 151, 424, 166
-0.99852, 377, 69, 408, 84
-0.998521, 341, 207, 372, 222
-0.998521, 73, 169, 136, 184
-0.998521, 185, 23, 248, 38
-0.998521, 169, 119, 232, 134
-0.998521, 165, 55, 196, 70
-0.998522, 305, 195, 368, 210
-0.998522, 65, 147, 128, 162
-0.998522, 297, 251, 328, 266
-0.998523, 89, 73, 152, 88
-0.998523, 97, 135, 128, 150
-0.998523, 393, 127, 456, 142
-0.998523, 193, 183, 256, 198
-0.998523, 205, 129, 236, 144
-0.998524, 337, 149, 400, 164
-0.998524, 65, 161, 128, 176
-0.998524, 169, 75, 232, 90
-0.998524, 385, 199, 448, 214
-0.998524, 113, 157, 144, 172
-0.998524, 117, 13, 148, 28
-0.998524, 137, 17, 200, 32
-0.998525, 409, 201, 440, 216
-0.998526, 97, 181, 160, 196
-0.998527, 397, 185, 428, 200
-0.998527, 325, 137, 356, 152
-0.998528, 313, 261, 376, 276
-0.998528, 297, 33, 328, 48
-0.998528, 105, 207, 168, 222
-0.998528, 373, 289, 404, 304
-0.998529, 369, 209, 432, 224
-0.998529, 225, 137, 288, 152
-0.998529, 321, 95, 384, 110
-0.99853, 145, 145, 176, 160
-0.998531, 121, 201, 152, 216
-0.998531, 97, 57, 160, 72
-0.998531, 353, 279, 416, 294
-0.998532, 113, 151, 144, 166
-0.998532, 81, 163, 112, 178
-0.998532, 337, 243, 368, 258
-0.998532, 313, 105, 376, 120
-0.998532, 325, 147, 356, 162
-0.998533, 257, 179, 320, 194
-0.998533, 337, 249, 368, 264
-0.998534, 405, 105, 436, 120
-0.998534, 265, 221, 296, 236
-0.998537, 313, 181, 344, 196
-0.998538, 333, 237, 364, 252
-0.998538, 117, 21, 148, 36
-0.998538, 277, 135, 308, 150
-0.998539, 141, 45, 172, 60
-0.99854, 189, 139, 220, 154
-0.998541, 283, 129, 298, 256
-0.998543, 381, 205, 412, 220
-0.998543, 365, 147, 396, 162
-0.998544, 345, 149, 376, 164
-0.998546, 25, 179, 56, 194
-0.998549, 85, 97, 100, 224
-0.99855, 297, 213, 328, 228
-0.99855, 61, 123, 92, 138
-0.998551, 125, 157, 156, 172
-0.998554, 125, 7, 156, 22
-0.998554, 293, 185, 324, 200
-0.998555, 193, 127, 224, 142
-0.998555, 305, 149, 336, 164
-0.998558, 117, 1, 148, 16
-0.998558, 97, 159, 128, 174
-0.998558, 321, 201, 352, 216
-0.998559, 109, 33, 140, 48
-0.998563, 393, 269, 424, 284
-0.998567, 305, 129, 320, 256
-0.998569, 289, 175, 320, 190
-0.99857, 337, 107, 368, 122
-0.998571, 371, 145, 386, 272
-0.998573, 401, 193, 432, 208
-0.998574, 269, 55, 300, 70
-0.998575, 301, 179, 332, 194
-0.998576, 409, 187, 440, 202
-0.998578, 357, 299, 388, 314
-0.998579, 205, 303, 236, 318
-0.99858, 69, 137, 100, 152
-0.998581, 361, 283, 392, 298
-0.998582, 361, 207, 392, 222
-0.998582, 429, 253, 460, 268
-0.998584, 317, 189, 348, 204
-0.998588, 325, 217, 356, 232
-0.998589, 393, 199, 424, 214
-0.998592, 309, 137, 340, 152
-0.998595, 361, 291, 392, 306
-0.998605, 349, 291, 380, 306
-0.998606, 253, 117, 284, 132
-0.998611, 349, 285, 380, 300
-0.998612, 71, 97, 86, 224
-0.998612, 291, 161, 306, 288
-0.998612, 91, 65, 106, 192
-0.998613, 91, 113, 106, 240
-0.998626, 133, 149, 164, 164
-0.998629, 311, 113, 326, 240
-0.998632, 99, 113, 114, 240
-0.998632, 181, 1, 196, 128
-0.998633, 469, 33, 500, 288
-0.998635, 85, 127, 116, 142
-0.998637, 223, 1, 238, 128
-0.998643, 223, 65, 238, 192
-0.998653, 133, 143, 164, 158
-0.998655, 135, 1, 150, 128
-0.998655, 245, 145, 260, 272
-0.99866, 97, 65, 112, 192
-0.998668, 277, 113, 292, 240
-0.99867, 291, 113, 306, 240
-0.998671, 205, 129, 220, 256
-0.998679, 161, 1, 176, 128
-0.99868, 299, 113, 314, 240
-0.998692, 297, 161, 312, 288
-0.9987, 289, 133, 320, 148
-0.998701, 167, 49, 182, 176
-0.998707, 105, 113, 120, 240
-0.99871, 153, 17, 168, 144
-0.998713, 365, 97, 380, 224
-0.99873, 317, 129, 332, 256
-0.99873, 65, 113, 80, 240
-0.998732, 285, 193, 300, 320
-0.998739, 259, 145, 274, 272
-0.998749, 157, 65, 172, 192
-0.998753, 409, 65, 440, 320
-0.998758, 209, 135, 240, 150
-0.998763, 253, 1, 268, 128
-0.998763, 191, 33, 206, 160
-0.998765, 181, 49, 196, 176
-0.998768, 229, 17, 244, 144
-0.998783, 159, 129, 174, 256
-0.998784, 273, 161, 288, 288
-0.998789, 323, 97, 338, 224
-0.99879, 139, 129, 154, 256
-0.998792, 237, 145, 252, 272
-0.998796, 277, 1, 292, 128
-0.998796, 229, 65, 244, 192
-0.998804, 341, 209, 356, 333
-0.998816, 147, 81, 162, 208
-0.998823, 251, 113, 266, 240
-0.998825, 371, 97, 386, 224
-0.998835, 103, 65, 118, 192
-0.998839, 391, 65, 406, 192
-0.998841, 217, 129, 232, 256
-0.998843, 37, 65, 68, 320
-0.998847, 113, 129, 128, 256
-0.998848, 199, 129, 214, 256
-0.998853, 55, 129, 70, 256
-0.998857, 393, 113, 408, 240
-0.998861, 199, 81, 214, 208
-0.998867, 137, 81, 152, 208
-0.998877, 167, 1, 182, 128
-0.998885, 175, 1, 190, 128
-0.998886, 193, 129, 208, 256
-0.998889, 213, 17, 228, 144
-0.99889, 235, 1, 250, 128
-0.998898, 351, 209, 366, 333
-0.998898, 451, 177, 466, 304
-0.998899, 359, 97, 374, 224
-0.998903, 165, 113, 180, 240
-0.998903, 133, 145, 148, 272
-0.998909, 413, 193, 428, 320
-0.998912, 267, 161, 282, 288
-0.998923, 107, 209, 122, 333
-0.998924, 285, 49, 300, 176
-0.998925, 383, 145, 398, 272
-0.998926, 123, 161, 138, 288
-0.998927, 245, 65, 260, 192
-0.998929, 129, 1, 144, 128
-0.99893, 441, 209, 456, 333
-0.998932, 171, 113, 186, 240
-0.998932, 365, 145, 380, 272
-0.998936, 367, 193, 382, 320
-0.998938, 97, 177, 112, 304
-0.998941, 211, 65, 226, 192
-0.998942, 153, 129, 168, 256
-0.998945, 111, 17, 126, 144
-0.998945, 5, 177, 20, 304
-0.99895, 49, 177, 64, 304
-0.998957, 293, 209, 308, 333
-0.998969, 105, 161, 120, 288
-0.998973, 181, 113, 196, 240
-0.998974, 257, 97, 272, 224
-0.998977, 271, 1, 286, 128
-0.998979, 173, 49, 188, 176
-0.998982, 331, 129, 346, 256
-0.998985, 279, 193, 294, 320
-0.998988, 483, 209, 498, 333
-0.998999, 373, 193, 388, 320
-0.999002, 403, 177, 418, 304
-0.999006, 317, 81, 332, 208
-0.99901, 305, 177, 320, 304
-0.999015, 211, 113, 226, 240
-0.999016, 225, 129, 240, 256
-0.999019, 245, 193, 260, 320
-0.999022, 259, 1, 274, 128
-0.999023, 235, 81, 250, 208
-0.999039, 217, 65, 232, 192
-0.99904, 353, 97, 368, 224
-0.999048, 265, 1, 280, 128
-0.999057, 161, 193, 176, 320
-0.99906, 145, 129, 160, 256
-0.999065, 253, 161, 268, 288
-0.999067, 231, 145, 246, 272
-0.999068, 359, 145, 374, 272
-0.999069, 207, 1, 222, 128
-0.99907, 291, 65, 306, 192
-0.999071, 85, 49, 100, 176
-0.999071, 81, 145, 96, 272
-0.999073, 305, 81, 320, 208
-0.999075, 311, 177, 326, 304
-0.999075, 331, 193, 346, 320
-0.999083, 397, 177, 412, 304
-0.999084, 299, 209, 314, 333
-0.999101, 477, 209, 492, 333
-0.999104, 267, 113, 282, 240
-0.999105, 123, 1, 138, 128
-0.999107, 323, 145, 338, 272
-0.999108, 197, 1, 212, 128
-0.999111, 425, 193, 440, 320
-0.999113, 167, 177, 182, 304
-0.999114, 361, 193, 376, 320
-0.999116, 377, 81, 392, 208
-0.999161, 5, 65, 36, 320
-0.999651, 239, 153, 254, 168
-0.999651, 293, 33, 308, 48
-0.999651, 351, 283, 366, 298
-0.999652, 283, 255, 298, 270
-0.999653, 207, 21, 222, 36
-0.999653, 179, 17, 194, 32
-0.999653, 271, 47, 286, 62
-0.999653, 339, 215, 354, 230
-0.999654, 341, 243, 356, 258
-0.999654, 419, 259, 434, 274
-0.999654, 213, 95, 228, 110
-0.999654, 345, 285, 360, 300
-0.999654, 383, 291, 398, 306
-0.999654, 119, 287, 134, 302
-0.999655, 111, 33, 126, 48
-0.999655, 179, 75, 194, 90
-0.999656, 141, 17, 156, 32
-0.999656, 85, 125, 100, 140
-0.999656, 299, 253, 314, 268
-0.999656, 125, 11, 140, 26
-0.999656, 365, 199, 380, 214
-0.999657, 301, 143, 316, 158
-0.999658, 193, 105, 208, 120
-0.999659, 267, 221, 282, 236
-0.999661, 199, 119, 214, 134
-0.999661, 289, 163, 304, 178
-0.999662, 129, 21, 144, 36
-0.999662, 337, 105, 352, 120
-0.999663, 373, 211, 388, 226
-0.999663, 325, 227, 340, 242
-0.999663, 365, 291, 380, 306
-0.999663, 377, 61, 392, 76
-0.999664, 201, 1, 216, 16
-0.999664, 59, 137, 74, 152
-0.999664, 217, 27, 232, 42
-0.999664, 435, 251, 450, 266
-0.999665, 237, 33, 252, 48
-0.999665, 417, 197, 432, 212
-0.999666, 417, 283, 432, 298
-0.999668, 357, 283, 372, 298
-0.999669, 125, 1, 140, 16
-0.999669, 401, 201, 416, 216
-0.99967, 305, 251, 320, 266
-0.99967, 129, 157, 144, 172
-0.99967, 79, 131, 94, 146
-0.999673, 35, 187, 50, 202
-0.999673, 367, 207, 382, 222
-0.999674, 131, 1, 146, 16
-0.999674, 233, 157, 248, 172
-0.999674, 219, 303, 234, 318
-0.999674, 329, 189, 344, 204
-0.999674, 73, 135, 88, 150
-0.999674, 135, 161, 150, 176
-0.999675, 241, 163, 256, 178
-0.999676, 225, 59, 240, 74
-0.999678, 283, 55, 298, 70
-0.999678, 317, 219, 332, 234
-0.999678, 251, 119, 266, 134
-0.999679, 395, 201, 410, 216
-0.99968, 207, 121, 222, 136
-0.99968, 257, 117, 272, 132
-0.99968, 203, 27, 218, 42
-0.99968, 135, 147, 150, 162
-0.999681, 49, 155, 64, 170
-0.999681, 315, 137, 330, 152
-0.999682, 139, 9, 154, 24
-0.999682, 91, 163, 106, 178
-0.999683, 145, 149, 160, 164
-0.999684, 375, 281, 390, 296
-0.999684, 305, 207, 320, 222
-0.999685, 197, 187, 212, 202
-0.999686, 359, 289, 374, 304
-0.999687, 367, 213, 382, 228
-0.999688, 399, 269, 414, 284
-0.999689, 423, 193, 438, 208
-0.999691, 305, 149, 320, 164
-0.999691, 127, 167, 142, 182
-0.999691, 291, 251, 306, 266
-0.999691, 121, 169, 136, 184
-0.999691, 291, 149, 306, 164
-0.999693, 275, 129, 290, 144
-0.999694, 351, 301, 366, 316
-0.999695, 151, 41, 166, 56
-0.999695, 341, 135, 356, 150
-0.999695, 147, 11, 162, 26
-0.999696, 157, 35, 172, 50
-0.999697, 407, 105, 422, 120
-0.999698, 243, 27, 258, 42
-0.999699, 139, 207, 154, 222
-0.9997, 297, 151, 312, 166
-0.9997, 133, 11, 148, 26
-0.999701, 83, 167, 98, 182
-0.999701, 123, 177, 138, 192
-0.999702, 211, 133, 226, 148
-0.999704, 357, 299, 372, 314
-0.999704, 335, 207, 350, 222
-0.999704, 349, 295, 364, 310
-0.99971, 295, 173, 310, 188
-0.999711, 119, 11, 134, 26
-0.999713, 225, 137, 240, 152
-0.999713, 209, 127, 224, 142
-0.999713, 371, 195, 386, 210
-0.999715, 419, 187, 434, 202
-0.999717, 41, 185, 56, 200
-0.999717, 401, 187, 416, 202
-0.999722, 57, 199, 72, 214
-0.999722, 409, 185, 424, 200
-0.999724, 197, 27, 212, 42
-0.999731, 411, 195, 426, 210
-0.999732, 305, 135, 320, 150
-0.999733, 401, 195, 416, 210
-0.999733, 331, 197, 346, 212
-0.999733, 295, 133, 310, 148
-0.999735, 287, 133, 302, 148
-0.999735, 291, 179, 306, 194
-0.999735, 289, 169, 304, 184
-0.999741, 135, 45, 150, 60
-0.999744, 49, 195, 64, 210
-0.999745, 373, 291, 388, 306
-0.999745, 89, 143, 104, 158
-0.999746, 41, 193, 56, 208
-0.999748, 343, 105, 358, 120
-0.999753, 135, 153, 150, 168
-0.999755, 367, 283, 382, 298
-0.999765, 303, 177, 318, 192
-0.99977, 211, 27, 226, 42
-0.999776, 373, 205, 388, 220
-0.999784, 353, 289, 368, 304
-0.999788, 25, 65, 56, 320
-0.999802, 35, 179, 50, 194
-0.999816, 137, 141, 152, 156
-1.00243, 1, 81, 64, 208
-1.01478, 1, 1, 64, 128
