1963
-0.404341, 1, 1, 500, 375
-0.525655, 97, 1, 352, 375
-0.553759, 1, 1, 500, 256
-0.556123, 193, 1, 448, 375
-0.572066, 1, 1, 256, 375
-0.641125, 1, 97, 500, 352
-0.735737, 225, 1, 480, 256
-0.776794, 97, 33, 352, 288
-0.802272, 1, 1, 256, 256
-0.86754, 129, 129, 384, 375
-0.872231, 145, 1, 272, 375
-0.878952, 81, 1, 208, 375
-0.882444, 193, 1, 320, 375
-0.887235, 241, 1, 368, 375
-0.892768, 1, 1, 128, 375
-0.899009, 337, 1, 464, 375
-0.902539, 289, 1, 416, 375
-0.902983, 177, 33, 304, 288
-0.907328, 273, 1, 400, 256
-0.912365, 129, 33, 256, 288
-0.916918, 337, 1, 464, 256
-0.917165, 65, 33, 192, 288
-0.919353, 225, 1, 352, 256
-0.928722, 1, 33, 128, 288
-0.929552, 1, 33, 500, 160
-0.929687, 33, 129, 288, 375
-0.935034, 129, 129, 256, 375
-0.946051, 1, 145, 500, 272
-0.946838, 225, 129, 352, 375
-0.948788, 177, 129, 304, 375
-0.952904, 81, 129, 208, 375
-0.953255, 33, 49, 288, 176
-0.954359, 129, 33, 384, 160
-0.958196, 225, 33, 480, 160
-0.960473, 129, 113, 384, 240
-0.961991, 273, 97, 400, 352
-0.962048, 1, 209, 500, 336
-0.965262, 1, 97, 500, 224
-0.965529, 145, 33, 272, 160
-0.966357, 33, 113, 288, 240
-0.967617, 193, 33, 320, 160
-0.967736, 65, 49, 192, 176
-0.968113, 33, 129, 160, 375
-0.968227, 161, 33, 224, 160
-0.969046, 193, 33, 256, 160
-0.9708, 145, 97, 272, 224
-0.971579, 193, 97, 320, 224
-0.972321, 65, 161, 320, 288
-0.97315, 241, 33, 368, 160
-0.975088, 225, 97, 288, 224
-0.975259, 369, 97, 496, 352
-0.976061, 225, 129, 480, 375
-0.976184, 265, 33, 328, 160
-0.976249, 225, 33, 288, 160
-0.976477, 145, 145, 272, 272
-0.97699, 353, 33, 480, 160
-0.977199, 217, 161, 280, 288
-0.977325, 129, 33, 192, 160
-0.97776, 289, 33, 416, 160
-0.97792, 33, 225, 288, 352
-0.97814, 321, 97, 448, 352
-0.978365, 257, 97, 320, 224
-0.978542, 1, 1, 256, 128
-0.978787, 177, 81, 240, 208
-0.97952, 225, 81, 480, 208
-0.979597, 105, 33, 168, 160
-0.979878, 1, 49, 128, 176
-0.980455, 41, 49, 104, 176
-0.980486, 289, 33, 352, 160
-0.980721, 161, 161, 416, 288
-0.981647, 1, 49, 64, 176
-0.981769, 201, 97, 264, 224
-0.981777, 273, 1, 336, 256
-0.981966, 113, 193, 240, 320
-0.982039, 249, 145, 312, 272
-0.982557, 241, 113, 368, 240
-0.982928, 361, 33, 424, 160
-0.983193, 329, 1, 392, 256
-0.983583, 425, 1, 488, 256
-0.983693, 393, 1, 456, 256
-0.983702, 409, 33, 472, 160
-0.983714, 201, 1, 264, 375
-0.983737, 433, 33, 496, 160
-0.983833, 321, 33, 384, 160
-0.983953, 193, 145, 320, 272
-0.983958, 145, 49, 208, 112
-0.984155, 65, 49, 128, 176
-0.984233, 169, 41, 232, 104
-0.984483, 65, 209, 192, 336
-0.984679, 89, 49, 152, 112
-0.984704, 233, 33, 296, 288
-0.984778, 385, 33, 448, 160
-0.985126, 97, 1, 224, 128
-0.985247, 209, 153, 272, 216
-0.985292, 161, 33, 224, 288
-0.985486, 201, 33, 264, 288
-0.985576, 177, 1, 240, 375
-0.985618, 193, 41, 256, 104
-0.98573, 193, 145, 256, 272
-0.985854, 97, 241, 160, 304
-0.985892, 145, 1, 208, 375
-0.986062, 369, 1, 432, 256
-0.986713, 225, 1, 288, 375
-0.986754, 161, 225, 224, 352
-0.986818, 1, 57, 64, 120
-0.986854, 97, 129, 224, 256
-0.986913, 297, 1, 360, 256
-0.98696, 57, 57, 120, 120
-0.987061, 33, 1, 160, 128
-0.987199, 425, 41, 488, 104
-0.987207, 193, 113, 320, 176
-0.987214, 265, 137, 328, 200
-0.987292, 73, 257, 136, 320
-0.987333, 89, 1, 152, 375
-0.987346, 249, 1, 312, 375
-0.987378, 233, 177, 296, 240
-0.987418, 257, 113, 320, 176
-0.98756, 337, 33, 400, 96
-0.987619, 49, 1, 112, 375
-0.987714, 193, 241, 256, 304
-0.987832, 105, 33, 168, 288
-0.987839, 233, 41, 296, 104
-0.987841, 121, 1, 184, 375
-0.988151, 201, 33, 232, 160
-0.988228, 121, 49, 184, 112
-0.988553, 177, 121, 240, 184
-0.988596, 313, 33, 376, 96
-0.988645, 49, 225, 112, 288
-0.98866, 129, 193, 192, 320
-0.988769, 113, 49, 240, 112
-0.988808, 273, 1, 336, 375
-0.98881, 49, 33, 112, 288
-0.988916, 221, 33, 252, 160
-0.988934, 17, 33, 80, 288
-0.988972, 353, 1, 416, 375
-0.988988, 25, 57, 88, 120
-0.989002, 129, 145, 256, 208
-0.989061, 193, 225, 256, 352
-0.989092, 161, 225, 288, 352
-0.989172, 129, 1, 192, 256
-0.989244, 1, 57, 128, 120
-0.989295, 393, 41, 456, 104
-0.989296, 297, 1, 360, 375
-0.989317, 265, 41, 328, 104
-0.98935, 209, 145, 336, 208
-0.989358, 153, 33, 184, 160
-0.989439, 329, 1, 392, 375
-0.989471, 129, 209, 384, 336
-0.989507, 433, 1, 496, 375
-0.989525, 385, 1, 448, 375
-0.989575, 129, 121, 256, 184
-0.989585, 161, 89, 224, 152
-0.989598, 81, 225, 208, 288
-0.989616, 369, 41, 432, 104
-0.989671, 225, 121, 288, 184
-0.98974, 73, 1, 136, 128
-0.98978, 133, 49, 164, 176
-0.989854, 165, 33, 196, 160
-0.98986, 129, 241, 256, 304
-0.989906, 189, 33, 220, 160
-0.989968, 193, 41, 320, 104
-0.990013, 409, 1, 472, 375
-0.99003, 337, 41, 464, 104
-0.990049, 209, 185, 272, 248
-0.990074, 289, 33, 416, 96
-0.990092, 225, 209, 288, 336
-0.990099, 73, 33, 136, 288
-0.990114, 25, 1, 88, 375
-0.990195, 65, 49, 192, 112
-0.990238, 433, 17, 496, 80
-0.990283, 257, 129, 500, 256
-0.990493, 209, 193, 336, 320
-0.990508, 253, 33, 284, 160
-0.990599, 225, 233, 288, 296
-0.990619, 233, 33, 264, 160
-0.99063, 401, 17, 464, 80
-0.990712, 241, 41, 368, 104
-0.990903, 245, 97, 276, 224
-0.990998, 129, 273, 256, 336
-0.991063, 129, 257, 192, 320
-0.991066, 177, 33, 208, 160
-0.991103, 201, 105, 264, 168
-0.991128, 153, 97, 216, 224
-0.991141, 289, 41, 352, 104
-0.99116, 257, 137, 384, 200
-0.991199, 153, 113, 216, 176
-0.991224, 161, 265, 224, 328
-0.991241, 113, 241, 240, 368
-0.991295, 129, 217, 192, 280
-0.991316, 193, 273, 256, 336
-0.99137, 241, 185, 272, 248
-0.991449, 1, 1, 64, 375
-0.991475, 81, 249, 208, 312
-0.99162, 17, 1, 80, 128
-0.991659, 233, 201, 296, 264
-0.991669, 145, 185, 272, 248
-0.991811, 129, 129, 192, 256
-0.99182, 33, 249, 160, 312
-0.99187, 201, 209, 264, 272
-0.991925, 193, 41, 224, 104
-0.991938, 233, 153, 296, 216
-0.992008, 265, 97, 296, 224
-0.992019, 169, 49, 232, 80
-0.992021, 273, 33, 304, 160
-0.992038, 229, 97, 260, 224
-0.992057, 253, 145, 284, 272
-0.992068, 161, 145, 224, 272
-0.992135, 97, 249, 160, 280
-0.992239, 425, 41, 488, 72
-0.992284, 185, 145, 248, 208
-0.992303, 49, 1, 112, 128
-0.992328, 65, 253, 128, 284
-0.992334, 281, 113, 344, 240
-0.992336, 209, 177, 336, 240
-0.992364, 369, 17, 496, 80
-0.992368, 225, 145, 256, 208
-0.992383, 145, 97, 272, 160
-0.992423, 169, 65, 232, 128
-0.992474, 145, 49, 208, 80
-0.992475, 129, 217, 256, 280
-0.992487, 177, 141, 240, 172
-0.992494, 145, 25, 208, 88
-0.992544, 109, 33, 140, 160
-0.992549, 217, 153, 280, 184
-0.992553, 225, 189, 288, 220
-0.992594, 257, 145, 320, 176
-0.9926, 41, 49, 72, 176
-0.992612, 193, 49, 256, 80
-0.992625, 97, 225, 160, 352
-0.992646, 97, 53, 160, 84
-0.992646, 225, 45, 288, 76
-0.992662, 301, 33, 332, 160
-0.992696, 33, 61, 96, 92
-0.99272, 177, 241, 304, 304
-0.992791, 41, 193, 104, 320
-0.992792, 1, 65, 64, 96
-0.99281, 1, 33, 128, 96
-0.992813, 233, 141, 296, 172
-0.992817, 329, 37, 392, 68
-0.992817, 401, 41, 464, 72
-0.992851, 121, 53, 184, 84
-0.992857, 273, 125, 336, 156
-0.992888, 185, 233, 248, 264
-0.992891, 457, 41, 488, 104
-0.992937, 193, 273, 256, 304
-0.992938, 73, 57, 136, 88
-0.992977, 305, 41, 368, 72
-0.992979, 209, 241, 272, 272
-0.99298, 49, 33, 112, 96
-0.992982, 265, 45, 328, 76
-0.992986, 49, 241, 112, 272
-0.993052, 369, 41, 432, 72
-0.993064, 241, 185, 272, 216
-0.993081, 97, 49, 128, 176
-0.993111, 97, 237, 160, 268
-0.993122, 193, 153, 256, 184
-0.99315, 89, 253, 120, 284
-0.993154, 249, 181, 312, 212
-0.993164, 169, 97, 232, 128
-0.993166, 169, 281, 232, 312
-0.993171, 289, 33, 320, 160
-0.993179, 185, 253, 248, 284
-0.993185, 89, 261, 152, 292
-0.993197, 405, 33, 436, 160
-0.993198, 409, 29, 472, 60
-0.993217, 121, 33, 152, 160
-0.993221, 289, 137, 352, 168
-0.993224, 129, 225, 192, 256
-0.993241, 389, 33, 420, 160
-0.993255, 433, 29, 496, 60
-0.993262, 129, 289, 192, 320
-0.993262, 217, 149, 248, 180
-0.993291, 201, 37, 264, 68
-0.993294, 225, 145, 256, 272
-0.993304, 209, 177, 272, 208
-0.993305, 193, 293, 256, 324
-0.993314, 229, 149, 260, 180
-0.99332, 137, 145, 200, 176
-0.993355, 469, 45, 500, 76
-0.993375, 193, 49, 224, 80
-0.993391, 453, 41, 484, 72
-0.993394, 49, 161, 176, 288
-0.99341, 169, 37, 232, 68
-0.993411, 93, 49, 124, 112
-0.993422, 225, 229, 288, 260
-0.99343, 129, 249, 192, 280
-0.993432, 177, 209, 304, 272
-0.993444, 269, 145, 300, 176
-0.993447, 113, 41, 176, 72
-0.993454, 205, 141, 236, 172
-0.993458, 437, 33, 468, 64
-0.99347, 101, 249, 132, 280
-0.99347, 165, 49, 196, 80
-0.99347, 161, 125, 224, 156
-0.993477, 153, 61, 216, 92
-0.993481, 53, 61, 84, 92
-0.993484, 169, 293, 232, 324
-0.993489, 137, 133, 200, 164
-0.993489, 225, 201, 288, 232
-0.993502, 253, 153, 284, 216
-0.993502, 441, 45, 472, 76
-0.993509, 181, 49, 212, 80
-0.993512, 249, 129, 312, 160
-0.993516, 253, 189, 284, 220
-0.993525, 385, 29, 448, 60
-0.993528, 81, 197, 144, 228
-0.993529, 1, 65, 32, 96
-0.99353, 417, 37, 448, 68
-0.993532, 149, 53, 180, 84
-0.993535, 229, 189, 260, 220
-0.993536, 229, 245, 260, 276
-0.993538, 117, 53, 148, 84
-0.993542, 217, 277, 248, 308
-0.993549, 161, 113, 224, 144
-0.993552, 9, 253, 72, 284
-0.993554, 161, 241, 224, 272
-0.993556, 161, 269, 224, 300
-0.993557, 225, 45, 256, 76
-0.993557, 253, 45, 284, 76
-0.993558, 317, 33, 348, 160
-0.993559, 9, 317, 40, 348
-0.993559, 249, 169, 312, 200
-0.993562, 129, 277, 192, 308
-0.993565, 377, 41, 408, 72
-0.993569, 205, 49, 236, 80
-0.99357, 265, 33, 328, 64
-0.993573, 397, 45, 428, 76
-0.993574, 221, 161, 252, 192
-0.993578, 445, 33, 476, 96
-0.993584, 237, 45, 268, 76
-0.993594, 433, 33, 464, 160
-0.993601, 129, 237, 192, 268
-0.993605, 13, 49, 44, 176
-0.993606, 73, 45, 136, 76
-0.993614, 9, 309, 72, 340
-0.993617, 257, 153, 288, 184
-0.99362, 165, 297, 196, 328
-0.993623, 133, 53, 164, 84
-0.99363, 201, 105, 264, 136
-0.993631, 265, 45, 296, 76
-0.993631, 325, 41, 356, 72
-0.993638, 105, 237, 136, 268
-0.993642, 353, 41, 384, 72
-0.993644, 449, 29, 480, 60
-0.993644, 257, 161, 320, 224
-0.993645, 269, 133, 300, 164
-0.993653, 65, 61, 96, 92
-0.993653, 201, 189, 264, 220
-0.993653, 113, 181, 176, 212
-0.993654, 301, 41, 332, 72
-0.993655, 85, 53, 116, 84
-0.993657, 41, 61, 72, 92
-0.993659, 257, 177, 288, 208
-0.993661, 129, 261, 192, 292
-0.993662, 245, 173, 276, 204
-0.993662, 405, 33, 436, 64
-0.993663, 249, 193, 312, 224
-0.993665, 81, 241, 112, 272
-0.993666, 229, 225, 260, 256
-0.993666, 101, 57, 132, 88
-0.993667, 241, 141, 272, 172
-0.993668, 365, 41, 396, 72
-0.993669, 301, 137, 332, 168
-0.993669, 257, 113, 384, 176
-0.993673, 429, 45, 460, 76
-0.993682, 25, 61, 56, 92
-0.993684, 201, 221, 264, 252
-0.993684, 233, 109, 296, 140
-0.993686, 229, 137, 260, 168
-0.993687, 209, 165, 272, 196
-0.993688, 177, 241, 208, 272
-0.99369, 225, 173, 256, 204
-0.99369, 1, 137, 64, 168
-0.993697, 377, 17, 440, 80
-0.993702, 285, 145, 316, 176
-0.993709, 209, 141, 272, 172
-0.993711, 225, 253, 288, 284
-0.993713, 273, 113, 336, 144
-0.993713, 289, 41, 320, 72
-0.993713, 277, 45, 308, 76
-0.993715, 297, 29, 360, 60
-0.993718, 213, 37, 244, 68
-0.993721, 225, 33, 288, 64
-0.993722, 341, 41, 372, 72
-0.993724, 17, 265, 80, 296
-0.993724, 297, 125, 328, 156
-0.993728, 41, 257, 104, 288
-0.993729, 201, 209, 264, 240
-0.993729, 177, 61, 240, 92
-0.993729, 201, 37, 232, 68
-0.993731, 13, 61, 44, 92
-0.993732, 193, 141, 224, 172
-0.993733, 285, 121, 316, 152
-0.993734, 193, 89, 224, 120
-0.993737, 313, 41, 344, 72
-0.993739, 37, 253, 68, 284
-0.99374, 393, 33, 424, 64
-0.993746, 465, 33, 496, 64
-0.993746, 49, 49, 112, 80
-0.993749, 141, 41, 172, 72
-0.993754, 77, 253, 108, 284
-0.993755, 161, 253, 224, 284
-0.99376, 229, 257, 260, 288
-0.99376, 1, 321, 64, 352
-0.993762, 285, 133, 316, 164
-0.993762, 1, 53, 64, 84
-0.993764, 241, 205, 272, 236
-0.993765, 209, 237, 240, 268
-0.993765, 289, 17, 352, 80
-0.993769, 177, 37, 208, 68
-0.993772, 249, 233, 280, 264
-0.993773, 353, 29, 416, 60
-0.993773, 113, 137, 176, 168
-0.993782, 257, 33, 288, 64
-0.993783, 97, 45, 128, 76
-0.993783, 297, 125, 360, 156
-0.993784, 253, 201, 284, 232
-0.993786, 241, 217, 304, 248
-0.993786, 165, 37, 196, 68
-0.993787, 209, 161, 240, 192
-0.993788, 45, 237, 76, 268
-0.993794, 129, 213, 192, 244
-0.993795, 205, 265, 236, 296
-0.993796, 17, 305, 48, 336
-0.993798, 65, 49, 96, 80
-0.993804, 161, 85, 224, 116
-0.993804, 181, 141, 212, 172
-0.993804, 225, 201, 256, 232
-0.993808, 229, 289, 260, 320
-0.993809, 369, 29, 400, 60
-0.99381, 425, 25, 456, 56
-0.993813, 209, 129, 240, 160
-0.993813, 153, 41, 184, 72
-0.993814, 273, 33, 304, 64
-0.993814, 201, 289, 232, 320
-0.993815, 201, 73, 232, 104
-0.993816, 245, 33, 276, 64
-0.993817, 25, 233, 88, 264
-0.993821, 37, 77, 68, 108
-0.993826, 149, 129, 180, 160
-0.993826, 213, 181, 244, 212
-0.993827, 129, 241, 192, 368
-0.993827, 165, 137, 196, 168
-0.993828, 193, 129, 224, 160
-0.99383, 137, 157, 200, 188
-0.99383, 217, 281, 280, 312
-0.993833, 245, 153, 276, 184
-0.993833, 213, 293, 244, 324
-0.993833, 137, 301, 200, 332
-0.993837, 397, 201, 428, 232
-0.993838, 113, 305, 176, 336
-0.993839, 309, 29, 340, 60
-0.993841, 209, 17, 336, 80
-0.993841, 97, 25, 224, 88
-0.993841, 129, 41, 160, 72
-0.993844, 1, 49, 32, 176
-0.993845, 53, 49, 84, 80
-0.993846, 249, 157, 312, 188
-0.993847, 157, 281, 188, 312
-0.993847, 125, 301, 156, 332
-0.99385, 205, 105, 236, 136
-0.993851, 197, 241, 228, 272
-0.993852, 417, 49, 448, 80
-0.993853, 233, 33, 264, 64
-0.993853, 209, 93, 240, 124
-0.993854, 201, 253, 232, 284
-0.993855, 193, 61, 224, 92
-0.993855, 181, 97, 212, 128
-0.993858, 181, 61, 212, 92
-0.993858, 145, 313, 176, 344
-0.993862, 241, 245, 272, 276
-0.993863, 25, 253, 56, 284
-0.993865, 117, 41, 148, 72
-0.993866, 313, 133, 344, 164
-0.993867, 181, 229, 212, 260
-0.993868, 265, 193, 296, 224
-0.993871, 193, 129, 256, 160
-0.993873, 193, 17, 256, 80
-0.993874, 233, 241, 296, 272
-0.993875, 9, 77, 72, 108
-0.993877, 161, 153, 224, 184
-0.993891, 97, 217, 160, 280
-0.993904, 129, 281, 192, 344
-0.993906, 169, 73, 232, 104
-0.993916, 25, 49, 88, 80
-0.993917, 137, 173, 200, 204
-0.99392, 145, 37, 208, 68
-0.993924, 57, 197, 120, 228
-0.993932, 225, 265, 288, 296
-0.993942, 185, 85, 248, 116
-0.993942, 25, 137, 88, 168
-0.99395, 385, 201, 448, 232
-0.993962, 65, 273, 192, 336
-0.993976, 1, 313, 64, 375
-0.993979, 49, 209, 112, 240
-0.993981, 137, 109, 200, 140
-0.993983, 161, 229, 224, 260
-0.993987, 353, 197, 416, 228
-0.993989, 169, 165, 232, 196
-0.993992, 445, 33, 476, 160
-0.993993, 329, 25, 392, 56
-0.993994, 289, 121, 352, 184
-0.994, 193, 117, 256, 148
-0.994, 89, 273, 152, 304
-0.994008, 9, 197, 72, 228
-0.994014, 133, 49, 164, 112
-0.994016, 289, 205, 352, 236
-0.994024, 33, 77, 96, 108
-0.994024, 361, 33, 392, 160
-0.994026, 113, 193, 176, 224
-0.994036, 281, 149, 344, 180
-0.994039, 469, 33, 500, 160
-0.994039, 57, 49, 88, 176
-0.994042, 49, 269, 112, 300
-0.994049, 9, 217, 72, 248
-0.99406, 209, 61, 272, 92
-0.994062, 249, 205, 312, 236
-0.994068, 137, 313, 200, 344
-0.994136, 329, 33, 360, 96
-0.994198, 329, 9, 392, 72
-0.994229, 5, 65, 36, 128
-0.994234, 469, 41, 500, 104
-0.994252, 145, 25, 272, 88
-0.994277, 65, 185, 192, 248
-0.994305, 241, 161, 272, 288
-0.994327, 329, 33, 360, 160
-0.994362, 161, 225, 224, 288
-0.99438, 177, 49, 208, 112
-0.994383, 305, 9, 432, 72
-0.994423, 213, 41, 244, 104
-0.994436, 69, 49, 100, 176
-0.994452, 177, 281, 304, 344
-0.994466, 17, 209, 144, 336
-0.994473, 49, 25, 176, 88
-0.994549, 377, 33, 408, 160
-0.99455, 237, 41, 268, 104
-0.99455, 229, 185, 260, 248
-0.994564, 457, 33, 488, 160
-0.994592, 25, 49, 56, 176
-0.994641, 257, 225, 500, 352
-0.99469, 85, 49, 116, 176
-0.994726, 81, 129, 208, 192
-0.994735, 193, 89, 320, 152
-0.994737, 85, 249, 116, 312
-0.994753, 161, 49, 192, 112
-0.994804, 249, 17, 312, 80
-0.994826, 225, 17, 288, 80
-0.994826, 417, 17, 448, 144
-0.994863, 73, 57, 104, 120
-0.994923, 209, 81, 240, 208
-0.994979, 345, 33, 376, 160
-0.995011, 137, 129, 200, 375
-0.995019, 121, 49, 152, 112
-0.995077, 33, 209, 160, 272
-0.995094, 169, 17, 232, 80
-0.995141, 265, 41, 296, 104
-0.995172, 49, 57, 80, 120
-0.99519, 49, 249, 112, 312
-0.995203, 65, 161, 192, 224
-0.995217, 37, 57, 68, 120
-0.995226, 257, 9, 384, 72
-0.99523, 113, 305, 240, 368
-0.99524, 113, 25, 176, 88
-0.995325, 341, 33, 372, 96
-0.995336, 257, 161, 384, 224
-0.995393, 97, 113, 352, 176
-0.995452, 289, 81, 416, 208
-0.995512, 285, 113, 316, 176
-0.995524, 225, 41, 256, 104
-0.995541, 249, 41, 280, 104
-0.995583, 25, 33, 88, 96
-0.995605, 17, 65, 48, 128
-0.995648, 413, 33, 444, 96
-0.995654, 169, 289, 232, 352
-0.995744, 105, 49, 136, 112
-0.995772, 217, 281, 280, 344
-0.995808, 1, 33, 64, 96
-0.995833, 201, 209, 232, 336
-0.995837, 277, 41, 308, 104
-0.995854, 229, 249, 260, 312
-0.995868, 145, 49, 176, 112
-0.995872, 81, 105, 208, 168
-0.995883, 269, 121, 300, 184
-0.995942, 185, 129, 248, 375
-0.995951, 89, 25, 152, 88
-0.995991, 97, 137, 352, 200
-0.996064, 49, 113, 176, 240
-0.9961, 297, 41, 328, 104
-0.996111, 193, 73, 256, 136
-0.996166, 65, 297, 192, 360
-0.996194, 1, 313, 32, 375
-0.996205, 33, 49, 288, 112
-0.996237, 221, 225, 252, 352
-0.996266, 365, 33, 396, 96
-0.99632, 309, 41, 340, 104
-0.99634, 229, 225, 260, 288
-0.996347, 137, 145, 200, 208
-0.996376, 285, 97, 316, 224
-0.996393, 129, 305, 192, 368
-0.996402, 145, 73, 272, 136
-0.996402, 213, 145, 244, 208
-0.996409, 221, 273, 252, 336
-0.996486, 61, 57, 92, 120
-0.996524, 65, 73, 192, 136
-0.996567, 385, 41, 416, 104
-0.996588, 225, 241, 352, 304
-0.9966, 161, 145, 224, 208
-0.996626, 129, 41, 384, 104
-0.996636, 257, 177, 500, 304
-0.996659, 257, 41, 500, 104
-0.996701, 225, 97, 288, 160
-0.996713, 253, 185, 284, 248
-0.996761, 129, 105, 192, 168
-0.996804, 137, 193, 200, 256
-0.996808, 97, 161, 160, 288
-0.996892, 401, 41, 432, 104
-0.996966, 469, 17, 500, 80
-0.996972, 225, 209, 352, 272
-0.996991, 265, 145, 296, 208
-0.997089, 257, 161, 384, 288
-0.997111, 133, 1, 164, 128
-0.99713, 65, 241, 320, 304
-0.997153, 105, 281, 168, 344
-0.997178, 97, 185, 160, 248
-0.997186, 213, 145, 244, 272
-0.99719, 257, 97, 320, 352
-0.99719, 209, 241, 336, 368
-0.99723, 281, 145, 312, 208
-0.997269, 265, 145, 296, 272
-0.997309, 129, 141, 256, 172
-0.997317, 207, 41, 222, 104
-0.99733, 17, 289, 144, 352
-0.99734, 97, 161, 352, 224
-0.997345, 193, 129, 320, 160
-0.997353, 1, 49, 500, 112
-0.997356, 429, 41, 460, 104
-0.997387, 193, 113, 448, 176
-0.997424, 353, 33, 384, 96
-0.997453, 205, 233, 236, 296
-0.997453, 25, 249, 88, 312
-0.997472, 161, 129, 224, 375
-0.997481, 193, 153, 320, 184
-0.997502, 193, 137, 448, 200
-0.997507, 425, 17, 456, 80
-0.997514, 305, 113, 432, 176
-0.997519, 129, 49, 256, 80
-0.997521, 25, 225, 88, 288
-0.997526, 249, 169, 264, 232
-0.997565, 233, 129, 296, 375
-0.997567, 297, 121, 328, 184
-0.997578, 257, 89, 384, 152
-0.997579, 209, 121, 240, 184
-0.99759, 97, 1, 128, 128
-0.997618, 17, 145, 144, 208
-0.997621, 209, 45, 336, 76
-0.997622, 193, 81, 224, 208
-0.997627, 17, 241, 80, 368
-0.997636, 1, 161, 128, 288
-0.99766, 217, 257, 280, 320
-0.997709, 97, 237, 224, 268
-0.997713, 459, 33, 474, 96
-0.99776, 231, 145, 246, 208
-0.997767, 457, 1, 488, 256
-0.997775, 9, 289, 72, 352
-0.997782, 243, 185, 258, 248
-0.997788, 255, 185, 270, 248
-0.997853, 135, 49, 150, 112
-0.997859, 217, 249, 248, 312
-0.997867, 97, 249, 112, 312
-0.997877, 263, 161, 278, 224
-0.997879, 321, 41, 448, 72
-0.997885, 225, 141, 352, 172
-0.997901, 277, 1, 308, 256
-0.997907, 99, 249, 114, 280
-0.997911, 353, 9, 416, 72
-0.997938, 97, 249, 128, 312
-0.997943, 97, 217, 352, 280
-0.997955, 1, 61, 128, 92
-0.997968, 33, 253, 160, 284
-0.997987, 181, 81, 212, 208
-0.998016, 191, 49, 206, 112
-0.998023, 277, 41, 292, 104
-0.998025, 247, 41, 262, 104
-0.998028, 79, 57, 94, 120
-0.998032, 1, 137, 256, 200
-0.998054, 145, 277, 272, 308
-0.998065, 457, 17, 488, 80
-0.998065, 3, 65, 18, 128
-0.998067, 229, 149, 244, 180
-0.99807, 217, 41, 232, 104
-0.998077, 419, 33, 434, 96
-0.998099, 483, 41, 498, 104
-0.998108, 437, 9, 468, 72
-0.998119, 197, 41, 212, 104
-0.99812, 401, 1, 432, 256
-0.998126, 145, 185, 272, 216
-0.998127, 161, 289, 192, 352
-0.998128, 231, 249, 246, 312
-0.99813, 41, 1, 72, 128
-0.998133, 13, 1, 44, 128
-0.998136, 225, 265, 352, 328
-0.998141, 343, 33, 358, 96
-0.998144, 113, 129, 240, 160
-0.998148, 249, 181, 264, 212
-0.998155, 369, 41, 496, 72
-0.998162, 337, 153, 464, 216
-0.998193, 1, 113, 256, 176
-0.998193, 305, 43, 336, 58
-0.998194, 229, 293, 260, 308
-0.998195, 273, 51, 304, 66
-0.998195, 265, 139, 296, 154
-0.998195, 193, 71, 224, 86
-0.998195, 193, 99, 224, 114
-0.998195, 133, 149, 164, 164
-0.998195, 209, 43, 240, 58
-0.998196, 201, 65, 232, 80
-0.998196, 281, 119, 312, 134
-0.998196, 229, 43, 260, 58
-0.998196, 213, 55, 244, 70
-0.998197, 201, 55, 232, 70
-0.998197, 13, 63, 44, 78
-0.998197, 53, 143, 84, 158
-0.998197, 117, 153, 148, 168
-0.998198, 201, 291, 232, 306
-0.998198, 141, 49, 172, 64
-0.998199, 145, 317, 176, 332
-0.998201, 141, 309, 172, 324
-0.998201, 241, 41, 256, 104
-0.998204, 225, 209, 256, 224
-0.998204, 181, 239, 212, 254
-0.998204, 97, 247, 128, 262
-0.998205, 147, 49, 162, 112
-0.998205, 13, 65, 28, 128
-0.998205, 377, 197, 408, 212
-0.998205, 209, 273, 240, 288
-0.998205, 209, 117, 336, 148
-0.998206, 65, 203, 96, 218
-0.998206, 165, 301, 196, 316
-0.998206, 177, 145, 208, 160
-0.998206, 33, 65, 64, 80
-0.998206, 265, 187, 296, 202
-0.998206, 241, 145, 272, 160
-0.998207, 249, 237, 280, 252
-0.998208, 237, 199, 268, 214
-0.998208, 397, 39, 428, 54
-0.998209, 17, 69, 48, 84
-0.99821, 201, 151, 232, 166
-0.998211, 317, 45, 348, 60
-0.998211, 193, 93, 224, 108
-0.998211, 241, 205, 272, 220
-0.998212, 225, 195, 256, 210
-0.998213, 177, 245, 208, 260
-0.998213, 373, 33, 388, 96
-0.998213, 413, 45, 444, 60
-0.998213, 77, 147, 108, 162
-0.998214, 73, 251, 104, 266
-0.998214, 15, 313, 30, 375
-0.998214, 289, 45, 320, 60
-0.998214, 309, 141, 340, 156
-0.998215, 471, 41, 486, 104
-0.998215, 197, 137, 228, 152
-0.998215, 401, 201, 432, 216
-0.998216, 157, 295, 188, 310
-0.998216, 161, 57, 192, 72
-0.998216, 85, 247, 116, 262
-0.998216, 249, 157, 280, 172
-0.998217, 229, 239, 260, 254
-0.998218, 253, 203, 284, 218
-0.998218, 165, 149, 196, 164
-0.998219, 223, 41, 238, 104
-0.99822, 105, 259, 136, 274
-0.998221, 241, 243, 272, 258
-0.998221, 353, 43, 384, 58
-0.998221, 53, 151, 84, 166
-0.998222, 225, 49, 256, 64
-0.998223, 217, 287, 248, 302
-0.998223, 173, 53, 204, 68
-0.998224, 257, 193, 288, 208
-0.998225, 365, 41, 396, 56
-0.998226, 81, 59, 112, 74
-0.998226, 273, 151, 304, 166
-0.998228, 297, 143, 328, 158
-0.998229, 225, 161, 256, 176
-0.998229, 291, 41, 306, 104
-0.99823, 285, 139, 316, 154
-0.998231, 285, 147, 316, 162
-0.998232, 81, 259, 112, 274
-0.998232, 225, 147, 256, 162
-0.998232, 185, 49, 216, 64
-0.998234, 329, 41, 360, 56
-0.998235, 81, 249, 208, 280
-0.998235, 5, 325, 36, 340
-0.998236, 229, 247, 260, 262
-0.998237, 277, 45, 308, 60
-0.998238, 177, 151, 208, 166
-0.998238, 125, 55, 156, 70
-0.998238, 41, 259, 72, 274
-0.998239, 1, 67, 32, 82
-0.998239, 109, 249, 140, 264
-0.99824, 93, 59, 124, 74
-0.99824, 169, 295, 200, 310
-0.998243, 209, 145, 240, 160
-0.998243, 469, 41, 500, 56
-0.998244, 185, 49, 200, 112
-0.998244, 283, 41, 298, 104
-0.998244, 237, 49, 268, 64
-0.998244, 333, 1, 364, 256
-0.998246, 149, 55, 180, 70
-0.998246, 109, 55, 140, 70
-0.998246, 53, 63, 84, 78
-0.998248, 225, 203, 256, 218
-0.998248, 401, 45, 432, 60
-0.998249, 257, 47, 288, 62
-0.99825, 213, 49, 244, 64
-0.998251, 121, 49, 136, 112
-0.998251, 189, 143, 220, 158
-0.998251, 381, 43, 412, 58
-0.998252, 237, 211, 268, 226
-0.998252, 161, 51, 192, 66
-0.998254, 65, 63, 96, 78
-0.998254, 233, 49, 248, 112
-0.998255, 449, 37, 480, 52
-0.998255, 237, 151, 268, 166
-0.998256, 13, 319, 44, 334
-0.998261, 389, 205, 420, 220
-0.998262, 65, 151, 96, 166
-0.998264, 429, 1, 460, 256
-0.998264, 417, 39, 448, 54
-0.998265, 225, 183, 256, 198
-0.998266, 323, 41, 338, 104
-0.998268, 257, 181, 288, 196
-0.998268, 425, 45, 456, 60
-0.998269, 161, 49, 176, 112
-0.998275, 197, 49, 228, 64
-0.99828, 213, 157, 244, 172
-0.998282, 137, 55, 168, 70
-0.998285, 1, 319, 32, 334
-0.998288, 261, 157, 292, 172
-0.998289, 165, 97, 196, 224
-0.998289, 241, 181, 272, 196
-0.998289, 237, 33, 268, 288
-0.998289, 333, 33, 348, 96
-0.998291, 445, 41, 460, 104
-0.998293, 23, 65, 38, 128
-0.998293, 81, 57, 208, 88
-0.998296, 437, 45, 468, 60
-0.9983, 391, 41, 406, 104
-0.998303, 225, 189, 256, 204
-0.998307, 269, 145, 300, 160
-0.998307, 1, 81, 128, 144
-0.998308, 265, 149, 280, 180
-0.998309, 245, 193, 276, 208
-0.998319, 249, 151, 280, 166
-0.99832, 129, 49, 144, 112
-0.998322, 253, 187, 284, 202
-0.998323, 109, 49, 124, 112
-0.998323, 85, 57, 100, 120
-0.998323, 437, 39, 468, 54
-0.998324, 129, 173, 256, 204
-0.998326, 167, 49, 182, 112
-0.998329, 213, 151, 244, 166
-0.99833, 93, 259, 124, 274
-0.998334, 145, 237, 272, 268
-0.998338, 469, 47, 500, 62
-0.998338, 153, 49, 168, 112
-0.998344, 267, 137, 282, 200
-0.998345, 73, 241, 136, 368
-0.998349, 261, 151, 292, 166
-0.99835, 425, 33, 440, 96
-0.998354, 45, 57, 60, 120
-0.998357, 141, 25, 172, 88
-0.998359, 255, 41, 270, 104
-0.99836, 63, 57, 78, 120
-0.99836, 317, 41, 332, 104
-0.998367, 225, 153, 256, 168
-0.998368, 99, 49, 114, 112
-0.998372, 69, 57, 84, 120
-0.998383, 221, 33, 252, 288
-0.998384, 457, 43, 488, 58
-0.998384, 297, 41, 312, 104
-0.998384, 91, 241, 106, 304
-0.998385, 149, 113, 180, 240
-0.998387, 261, 41, 276, 104
-0.998388, 193, 189, 320, 220
-0.998393, 225, 137, 240, 200
-0.998394, 97, 253, 128, 268
-0.998396, 115, 49, 130, 112
-0.998401, 465, 41, 480, 104
-0.998403, 311, 41, 326, 104
-0.998408, 179, 49, 194, 112
-0.99842, 345, 1, 376, 256
-0.99842, 273, 41, 400, 72
-0.998421, 121, 81, 184, 144
-0.998421, 431, 41, 446, 104
-0.998423, 85, 253, 116, 268
-0.998432, 177, 141, 304, 172
-0.998432, 65, 185, 320, 248
-0.998433, 451, 17, 466, 80
-0.998435, 237, 185, 252, 248
-0.998436, 267, 41, 282, 104
-0.998441, 237, 153, 252, 216
-0.998447, 129, 17, 384, 80
-0.998448, 241, 187, 272, 202
-0.998455, 201, 33, 232, 288
-0.998455, 257, 33, 288, 288
-0.998462, 289, 1, 320, 256
-0.998463, 173, 49, 188, 112
-0.998469, 91, 57, 106, 120
-0.99847, 439, 41, 454, 104
-0.998472, 223, 257, 238, 320
-0.998475, 417, 1, 448, 256
-0.998479, 477, 41, 492, 104
-0.998481, 53, 57, 68, 120
-0.998482, 57, 201, 120, 264
-0.998486, 177, 201, 240, 264
-0.998499, 363, 33, 378, 96
-0.9985, 29, 65, 44, 128
-0.998503, 301, 1, 332, 256
-0.998506, 361, 1, 392, 256
-0.998506, 403, 41, 418, 104
-0.998511, 141, 49, 156, 112
-0.998515, 255, 185, 270, 216
-0.998524, 409, 41, 424, 104
-0.998532, 225, 17, 480, 80
-0.998543, 1, 305, 256, 368
-0.998544, 165, 33, 196, 288
-0.998548, 291, 113, 306, 176
-0.998551, 245, 209, 260, 272
-0.998553, 145, 153, 272, 184
-0.998557, 305, 97, 368, 160
-0.998561, 379, 41, 394, 104
-0.998576, 303, 41, 318, 104
-0.998577, 243, 189, 258, 220
-0.998587, 97, 89, 352, 152
-0.998592, 373, 1, 404, 256
-0.998593, 39, 57, 54, 120
-0.998595, 145, 105, 272, 136
-0.998606, 229, 273, 244, 336
-0.998611, 113, 289, 240, 320
-0.998614, 257, 153, 272, 216
-0.998619, 433, 45, 496, 60
-0.998621, 1, 313, 128, 375
-0.998624, 145, 249, 272, 280
-0.99863, 271, 149, 286, 180
-0.998634, 451, 41, 466, 104
-0.998637, 89, 253, 152, 268
-0.99864, 223, 149, 238, 180
-0.998641, 229, 225, 244, 288
-0.998651, 57, 253, 120, 268
-0.998652, 217, 153, 280, 168
-0.998658, 9, 305, 24, 368
-0.998661, 189, 33, 220, 288
-0.998665, 241, 181, 368, 212
-0.998666, 177, 147, 240, 162
-0.99867, 65, 259, 128, 274
-0.998673, 241, 153, 272, 216
-0.998676, 225, 189, 288, 204
-0.998677, 129, 117, 256, 148
-0.998687, 257, 121, 384, 152
-0.998687, 239, 241, 254, 304
-0.998691, 193, 153, 256, 168
-0.998692, 137, 273, 168, 336
-0.998694, 401, 41, 464, 56
-0.998694, 93, 249, 108, 280
-0.998694, 197, 73, 228, 136
-0.998697, 169, 53, 232, 68
-0.998697, 173, 289, 188, 352
-0.998698, 397, 41, 412, 104
-0.998699, 129, 33, 160, 288
-0.998699, 409, 47, 472, 62
-0.998699, 353, 33, 368, 96
-0.998702, 257, 149, 320, 164
-0.998703, 193, 297, 256, 360
-0.998706, 217, 147, 280, 162
-0.998707, 89, 259, 152, 274
-0.998713, 225, 241, 288, 256
-0.998715, 113, 265, 240, 296
-0.998716, 97, 247, 160, 262
-0.998718, 185, 243, 248, 258
-0.998722, 385, 41, 400, 104
-0.998723, 313, 1, 344, 256
-0.998724, 201, 183, 264, 198
-0.998724, 177, 291, 240, 306
-0.998724, 273, 45, 336, 60
-0.998726, 201, 237, 264, 252
-0.998727, 249, 183, 312, 198
-0.998728, 97, 57, 160, 72
-0.998731, 193, 47, 256, 62
-0.998733, 273, 125, 336, 140
-0.998733, 345, 41, 408, 56
-0.998733, 185, 265, 248, 280
-0.998734, 425, 39, 488, 54
-0.998735, 233, 47, 296, 62
-0.998738, 249, 155, 312, 170
-0.998739, 129, 55, 192, 70
-0.998739, 281, 141, 344, 156
-0.99874, 193, 281, 256, 296
-0.998742, 369, 41, 432, 56
-0.998743, 249, 143, 312, 158
-0.998744, 169, 101, 232, 116
-0.998744, 137, 151, 200, 166
-0.998744, 273, 135, 336, 150
-0.998744, 173, 25, 204, 88
-0.998745, 209, 161, 272, 176
-0.998746, 185, 255, 248, 270
-0.998746, 321, 43, 384, 58
-0.998747, 161, 225, 288, 256
-0.998748, 209, 247, 272, 262
-0.998748, 185, 273, 248, 288
-0.998748, 41, 63, 104, 78
-0.99875, 249, 193, 264, 224
-0.99875, 65, 147, 128, 162
-0.998751, 1, 321, 64, 336
-0.998752, 1, 67, 64, 82
-0.998753, 201, 287, 264, 302
-0.998754, 17, 259, 80, 274
-0.998754, 161, 285, 224, 300
-0.998755, 235, 273, 250, 336
-0.998755, 161, 141, 224, 156
-0.998755, 361, 205, 424, 220
-0.998755, 193, 53, 256, 68
-0.998755, 233, 209, 296, 224
-0.998755, 185, 249, 248, 264
-0.998756, 65, 59, 128, 74
-0.998757, 129, 295, 192, 310
-0.998759, 225, 183, 288, 198
-0.99876, 225, 195, 288, 210
-0.99876, 169, 47, 232, 62
-0.99876, 41, 259, 104, 274
-0.998761, 161, 293, 288, 324
-0.998761, 153, 59, 216, 74
-0.998762, 121, 287, 184, 302
-0.998763, 121, 49, 184, 64
-0.998763, 137, 145, 200, 160
-0.998764, 311, 121, 326, 184
-0.998764, 297, 45, 360, 60
-0.998764, 121, 307, 184, 322
-0.998765, 161, 153, 224, 168
-0.998765, 161, 255, 224, 270
-0.998765, 33, 265, 96, 280
-0.998766, 161, 107, 224, 122
-0.998766, 49, 247, 112, 262
-0.998766, 129, 261, 192, 276
-0.998767, 239, 209, 254, 272
-0.998767, 225, 233, 288, 248
-0.998767, 129, 255, 192, 270
-0.998767, 201, 189, 264, 204
-0.998768, 1, 177, 128, 240
-0.998768, 129, 301, 192, 316
-0.998768, 129, 227, 192, 242
-0.998768, 193, 65, 256, 80
-0.998769, 233, 203, 296, 218
-0.998769, 161, 249, 224, 264
-0.99877, 393, 201, 456, 216
-0.99877, 129, 243, 192, 258
-0.998771, 33, 151, 96, 166
-0.998771, 169, 69, 232, 84
-0.998772, 185, 159, 248, 174
-0.998772, 209, 295, 272, 310
-0.998772, 233, 161, 296, 176
-0.998772, 153, 129, 216, 144
-0.998772, 89, 265, 152, 280
-0.998772, 145, 33, 176, 288
-0.998773, 209, 203, 272, 218
-0.998773, 301, 113, 316, 176
-0.998774, 249, 189, 312, 204
-0.998774, 17, 61, 80, 76
-0.998775, 369, 47, 432, 62
-0.998775, 353, 199, 416, 214
-0.998775, 113, 147, 176, 162
-0.998775, 105, 195, 168, 210
-0.998776, 129, 235, 192, 250
-0.998776, 25, 235, 88, 250
-0.998776, 137, 139, 200, 154
-0.998776, 193, 59, 256, 74
-0.998778, 169, 95, 232, 110
-0.998778, 281, 147, 344, 162
-0.998778, 201, 103, 264, 118
-0.998779, 241, 177, 304, 192
-0.998779, 121, 281, 184, 296
-0.99878, 17, 315, 80, 330
-0.99878, 481, 45, 496, 76
-0.998781, 129, 267, 192, 282
-0.998781, 169, 297, 232, 312
-0.998782, 129, 249, 192, 264
-0.998783, 305, 125, 368, 140
-0.998784, 313, 133, 376, 148
-0.998784, 153, 115, 216, 130
-0.998784, 209, 209, 272, 224
-0.998784, 185, 89, 248, 104
-0.998785, 201, 231, 264, 246
-0.998785, 305, 141, 368, 156
-0.998785, 25, 141, 88, 156
-0.998785, 73, 199, 136, 214
-0.998785, 265, 119, 328, 134
-0.998786, 121, 219, 184, 234
-0.998786, 225, 289, 288, 304
-0.998786, 145, 313, 208, 328
-0.998786, 161, 279, 224, 294
-0.998787, 289, 39, 352, 54
-0.998787, 9, 199, 72, 214
-0.998788, 57, 265, 120, 280
-0.998788, 33, 69, 96, 84
-0.998788, 1, 139, 64, 154
-0.998788, 129, 273, 192, 288
-0.99879, 353, 29, 480, 60
-0.99879, 207, 49, 222, 80
-0.99879, 445, 1, 476, 256
-0.99879, 441, 1, 456, 64
-0.998798, 13, 317, 28, 348
-0.998798, 65, 45, 192, 76
-0.998799, 29, 1, 60, 128
-0.998801, 225, 33, 352, 64
-0.998801, 431, 17, 446, 80
-0.998805, 193, 65, 320, 128
-0.998808, 469, 41, 484, 72
-0.998809, 483, 9, 498, 72
-0.998813, 177, 33, 208, 288
-0.998813, 261, 189, 276, 220
-0.998814, 193, 105, 320, 136
-0.998816, 105, 249, 120, 280
-0.998818, 103, 249, 118, 312
-0.998821, 97, 225, 112, 288
-0.998822, 235, 25, 250, 88
-0.998827, 265, 113, 280, 176
-0.99883, 261, 185, 276, 248
-0.998833, 161, 37, 288, 68
-0.998834, 97, 277, 224, 308
-0.998835, 257, 17, 288, 80
-0.998838, 389, 1, 420, 256
-0.99885, 469, 1, 500, 256
-0.998851, 193, 201, 448, 264
-0.998852, 93, 33, 124, 288
-0.998852, 145, 205, 272, 236
-0.998854, 177, 165, 304, 196
-0.998858, 237, 189, 252, 220
-0.998861, 167, 281, 182, 344
-0.998868, 65, 265, 320, 328
-0.998868, 49, 33, 80, 288
-0.998876, 139, 273, 154, 336
-0.998878, 121, 169, 184, 232
-0.99888, 451, 33, 466, 64
-0.998882, 209, 129, 272, 375
-0.998895, 217, 45, 232, 76
-0.998898, 317, 17, 348, 80
-0.9989, 461, 9, 476, 72
-0.998901, 257, 185, 384, 248
-0.998902, 229, 113, 244, 176
-0.99891, 469, 17, 484, 80
-0.998912, 353, 9, 384, 72
-0.998916, 349, 9, 364, 72
-0.998916, 143, 25, 158, 88
-0.998918, 73, 33, 104, 288
-0.998919, 113, 221, 240, 252
-0.998922, 431, 37, 446, 68
-0.998928, 285, 113, 300, 176
-0.998931, 457, 41, 472, 72
-0.998934, 259, 17, 274, 80
-0.998935, 33, 33, 64, 288
-0.998937, 87, 33, 102, 96
-0.998943, 229, 25, 244, 88
-0.998954, 273, 137, 288, 200
-0.998955, 193, 97, 224, 160
-0.998958, 181, 89, 212, 152
-0.998961, 65, 189, 192, 220
-0.998961, 229, 161, 244, 192
-0.998965, 477, 17, 492, 80
-0.998966, 113, 33, 144, 288
-0.998973, 191, 25, 206, 88
-0.998974, 69, 33, 84, 96
-0.998974, 13, 41, 28, 104
-0.998974, 113, 129, 176, 192
-0.998976, 197, 49, 212, 80
-0.998978, 153, 53, 168, 84
-0.998991, 475, 45, 490, 76
-0.998992, 53, 1, 84, 128
-0.998995, 167, 49, 182, 80
-0.998996, 161, 169, 224, 232
-0.998997, 219, 17, 234, 80
-0.998998, 413, 17, 428, 80
-0.999003, 11, 65, 26, 96
-0.999004, 13, 33, 44, 288
-0.999005, 273, 137, 400, 168
-0.999007, 235, 145, 250, 176
-0.99901, 385, 17, 400, 80
-0.99901, 21, 41, 36, 104
-0.999013, 123, 25, 138, 88
-0.999022, 13, 313, 44, 375
-0.999024, 437, 41, 452, 72
-0.999025, 445, 45, 460, 76
-0.999025, 93, 33, 108, 96
-0.999027, 173, 49, 188, 80
-0.999028, 63, 33, 78, 96
-0.999031, 193, 249, 448, 312
-0.999031, 233, 45, 248, 76
-0.999034, 129, 25, 144, 88
-0.999034, 167, 25, 182, 88
-0.999036, 135, 53, 150, 84
-0.99904, 275, 113, 290, 176
-0.99904, 67, 61, 82, 92
-0.999043, 281, 17, 296, 80
-0.999045, 173, 293, 188, 324
-0.999049, 1, 65, 16, 96
-0.999049, 285, 145, 300, 208
-0.999052, 463, 41, 478, 72
-0.999054, 225, 277, 240, 308
-0.999058, 33, 121, 160, 184
-0.99906, 161, 53, 176, 84
-0.999065, 403, 45, 418, 76
-0.999069, 265, 45, 280, 76
-0.999073, 65, 137, 192, 168
-0.999074, 185, 49, 200, 80
-0.999076, 121, 53, 136, 84
-0.999078, 213, 17, 244, 80
-0.999079, 147, 53, 162, 84
-0.999079, 99, 237, 114, 268
-0.999082, 1, 33, 32, 288
-0.999083, 425, 37, 440, 68
-0.999085, 105, 81, 168, 208
-0.999087, 263, 137, 278, 168
-0.999088, 239, 45, 254, 76
-0.999094, 451, 45, 466, 76
-0.999095, 53, 61, 68, 92
-0.9991, 247, 45, 262, 76
-0.9991, 303, 45, 318, 76
-0.9991, 1, 177, 500, 240
-0.999102, 179, 49, 194, 80
-0.999109, 331, 41, 346, 72
-0.999111, 65, 297, 192, 328
-0.999113, 393, 41, 408, 72
-0.999113, 99, 261, 114, 292
-0.999114, 193, 281, 320, 312
-0.999118, 297, 41, 312, 72
-0.999119, 129, 53, 144, 84
-0.999123, 243, 177, 258, 208
-0.999124, 411, 37, 426, 68
-0.999127, 445, 33, 460, 64
-0.99913, 193, 161, 448, 224
-0.999133, 265, 177, 280, 208
-0.999136, 229, 137, 244, 168
-0.999137, 253, 45, 268, 76
-0.999142, 1, 97, 128, 224
-0.999144, 225, 49, 240, 80
-0.999146, 209, 205, 336, 236
-0.999146, 241, 209, 272, 272
-0.999147, 99, 53, 114, 84
-0.999153, 87, 57, 102, 88
-0.999156, 237, 245, 252, 276
-0.99916, 273, 29, 400, 60
-0.999161, 381, 41, 396, 72
-0.999162, 271, 45, 286, 76
-0.999162, 357, 41, 372, 72
-0.999166, 419, 33, 434, 64
-0.999166, 191, 49, 206, 80
-0.999169, 37, 65, 52, 96
-0.999169, 65, 1, 96, 128
-0.99917, 141, 57, 156, 88
-0.999171, 231, 277, 246, 308
-0.999177, 309, 41, 324, 72
-0.999179, 19, 65, 34, 96
-0.999181, 19, 317, 34, 348
-0.999184, 387, 41, 402, 72
-0.999184, 85, 1, 116, 128
-0.999184, 277, 49, 292, 80
-0.999185, 59, 57, 74, 88
-0.999188, 93, 57, 108, 88
-0.999191, 43, 61, 58, 92
-0.999196, 237, 233, 252, 264
-0.999199, 13, 305, 28, 336
-0.9992, 225, 241, 352, 272
-0.999202, 17, 49, 144, 80
-0.999206, 317, 41, 332, 72
-0.999211, 337, 37, 352, 68
-0.999211, 347, 41, 362, 72
-0.999211, 255, 197, 270, 228
-0.999215, 367, 41, 382, 72
-0.999215, 105, 57, 120, 88
-0.999215, 259, 149, 274, 180
-0.999218, 269, 161, 284, 192
-0.999219, 61, 33, 92, 288
-0.999223, 115, 53, 130, 84
-0.999227, 287, 45, 302, 76
-0.999231, 273, 137, 288, 168
-0.999233, 323, 45, 338, 76
-0.999236, 93, 261, 108, 292
-0.999238, 77, 61, 92, 92
-0.999241, 49, 149, 176, 180
-0.999242, 255, 173, 270, 204
-0.999243, 235, 157, 250, 188
-0.999246, 259, 45, 274, 76
-0.999246, 263, 161, 278, 192
-0.999247, 129, 289, 384, 352
-0.99925, 177, 233, 208, 296
-0.999251, 7, 313, 22, 344
-0.999254, 401, 201, 416, 232
-0.999255, 375, 41, 390, 72
-0.999256, 459, 29, 474, 60
-0.999256, 173, 37, 188, 68
-0.99926, 33, 25, 288, 88
-0.999263, 201, 37, 216, 68
-0.999267, 477, 33, 492, 64
-0.999267, 311, 125, 326, 156
-0.999269, 161, 25, 192, 88
-0.99927, 29, 61, 44, 92
-0.99927, 201, 137, 216, 168
-0.999273, 301, 141, 316, 172
-0.999276, 133, 129, 164, 256
-0.999276, 227, 233, 242, 264
-0.999279, 209, 229, 336, 260
-0.999285, 65, 225, 192, 256
-0.999292, 49, 277, 176, 308
-0.999298, 287, 149, 302, 180
-0.999302, 401, 33, 416, 64
-0.999303, 93, 237, 108, 268
-0.999307, 223, 37, 238, 68
-0.999307, 217, 293, 232, 324
-0.999311, 167, 293, 182, 324
-0.999313, 337, 177, 464, 240
-0.999315, 243, 245, 258, 276
-0.999318, 167, 305, 182, 336
-0.999318, 87, 249, 102, 280
-0.999321, 417, 45, 432, 76
-0.999322, 465, 29, 480, 60
-0.999323, 1, 313, 128, 344
-0.999325, 255, 33, 270, 64
-0.999326, 229, 253, 244, 284
-0.999326, 439, 29, 454, 60
-0.99933, 65, 265, 192, 296
-0.999338, 369, 225, 496, 288
-0.999342, 225, 169, 352, 200
-0.999342, 215, 33, 230, 160
-0.999346, 65, 201, 192, 232
-0.999349, 193, 89, 448, 152
-0.999352, 81, 177, 208, 208
-0.999352, 1, 241, 128, 272
-0.999356, 235, 33, 250, 160
-0.999363, 221, 33, 236, 160
-0.999369, 205, 33, 220, 160
-0.999374, 209, 209, 240, 272
-0.999387, 113, 37, 240, 68
-0.999389, 229, 33, 244, 160
-0.999396, 249, 33, 264, 160
-0.999412, 155, 33, 170, 160
-0.999413, 1, 189, 128, 220
-0.999419, 259, 33, 274, 160
-0.999422, 17, 41, 48, 104
-0.999434, 237, 17, 268, 80
-0.999435, 39, 65, 54, 80
-0.999435, 191, 53, 206, 68
-0.999436, 457, 49, 472, 64
-0.999436, 279, 45, 294, 60
-0.999436, 401, 197, 416, 212
-0.999436, 431, 47, 446, 62
-0.999436, 467, 37, 482, 52
-0.999437, 77, 203, 92, 218
-0.999437, 21, 315, 36, 330
-0.999438, 185, 53, 200, 68
-0.999438, 217, 151, 232, 166
-0.999439, 243, 245, 258, 260
-0.999439, 19, 69, 34, 84
-0.999439, 259, 47, 274, 62
-0.999439, 259, 205, 274, 220
-0.999439, 113, 57, 128, 72
-0.999439, 101, 57, 116, 72
-0.999439, 237, 201, 252, 216
-0.99944, 215, 55, 230, 70
-0.99944, 407, 201, 422, 216
-0.99944, 253, 47, 268, 62
-0.99944, 301, 145, 316, 160
-0.99944, 403, 45, 418, 60
-0.99944, 131, 55, 146, 70
-0.99944, 67, 63, 82, 78
-0.99944, 339, 41, 354, 56
-0.999441, 331, 45, 346, 60
-0.999442, 255, 181, 270, 196
-0.999442, 383, 43, 398, 58
-0.999443, 473, 39, 488, 54
-0.999443, 1, 69, 16, 84
-0.999443, 189, 143, 204, 158
-0.999444, 77, 149, 92, 164
-0.999444, 231, 203, 246, 218
-0.999444, 233, 281, 248, 296
-0.999445, 179, 147, 194, 162
-0.999445, 239, 47, 254, 62
-0.999445, 301, 45, 316, 60
-0.999446, 235, 183, 250, 198
-0.999446, 423, 45, 438, 60
-0.999446, 89, 59, 104, 74
-0.999446, 237, 207, 252, 222
-0.999447, 235, 147, 250, 162
-0.999447, 79, 61, 94, 76
-0.999448, 169, 33, 184, 160
-0.999448, 359, 43, 374, 58
-0.999449, 323, 45, 338, 60
-0.999449, 273, 145, 288, 160
-0.999449, 143, 49, 158, 176
-0.99945, 233, 247, 248, 262
-0.99945, 247, 49, 262, 64
-0.999451, 161, 93, 288, 124
-0.999451, 225, 161, 240, 176
-0.999451, 261, 195, 276, 210
-0.999451, 177, 53, 192, 68
-0.999452, 409, 45, 424, 60
-0.999452, 233, 51, 248, 66
-0.999452, 249, 209, 264, 224
-0.999453, 439, 39, 454, 54
-0.999453, 485, 43, 500, 58
-0.999454, 237, 239, 252, 254
-0.999454, 1, 161, 256, 224
-0.999455, 231, 159, 246, 174
-0.999455, 213, 49, 228, 64
-0.999455, 143, 57, 158, 72
-0.999456, 265, 183, 280, 198
-0.999457, 5, 319, 20, 334
-0.999457, 377, 41, 392, 56
-0.999457, 109, 249, 124, 264
-0.999457, 125, 55, 140, 70
-0.999457, 425, 39, 440, 54
-0.999458, 277, 51, 292, 66
-0.999458, 391, 43, 406, 58
-0.999458, 13, 313, 28, 328
-0.999458, 265, 47, 280, 62
-0.999458, 65, 151, 80, 166
-0.999459, 455, 37, 470, 52
-0.999459, 415, 45, 430, 60
-0.99946, 87, 255, 102, 270
-0.99946, 97, 305, 160, 368
-0.99946, 159, 55, 174, 70
-0.99946, 71, 143, 86, 158
-0.999461, 397, 43, 412, 58
-0.999462, 11, 69, 26, 84
-0.999462, 285, 45, 300, 60
-0.999462, 177, 33, 192, 160
-0.999463, 259, 155, 274, 170
-0.999463, 199, 141, 214, 156
-0.999463, 81, 109, 208, 140
-0.999464, 189, 33, 204, 160
-0.999464, 265, 145, 280, 160
-0.999465, 99, 247, 114, 262
-0.999468, 223, 49, 238, 64
-0.999468, 479, 41, 494, 56
-0.999468, 271, 157, 286, 172
-0.999469, 137, 55, 152, 70
-0.999469, 255, 193, 270, 208
-0.99947, 169, 51, 184, 66
-0.99947, 235, 153, 250, 168
-0.999472, 451, 47, 466, 62
-0.999472, 205, 49, 220, 64
-0.999474, 129, 61, 256, 92
-0.999475, 153, 53, 168, 68
-0.999476, 19, 321, 34, 336
-0.999478, 163, 33, 178, 160
-0.999479, 243, 207, 258, 222
-0.999481, 395, 205, 410, 220
-0.999481, 13, 325, 28, 340
-0.999482, 433, 41, 448, 56
-0.999483, 305, 125, 432, 156
-0.999483, 243, 183, 258, 198
-0.999486, 113, 309, 240, 340
-0.999486, 199, 49, 214, 64
-0.999488, 95, 261, 110, 276
-0.999489, 173, 295, 188, 310
-0.999491, 229, 147, 244, 162
-0.999497, 445, 45, 460, 60
-0.999498, 107, 255, 122, 270
-0.9995, 265, 33, 280, 160
-0.9995, 261, 189, 276, 204
-0.999503, 237, 189, 252, 204
-0.999503, 457, 43, 472, 58
-0.999505, 259, 113, 274, 240
-0.999506, 265, 157, 280, 172
-0.999507, 71, 149, 86, 164
-0.999507, 271, 151, 286, 166
-0.99951, 439, 45, 454, 60
-0.999511, 241, 33, 256, 160
-0.999511, 223, 153, 238, 168
-0.999513, 193, 225, 448, 288
-0.999514, 273, 33, 288, 160
-0.999515, 449, 39, 464, 54
-0.999516, 1, 81, 256, 144
-0.999522, 477, 47, 492, 62
-0.999525, 483, 49, 498, 64
-0.999529, 303, 33, 318, 160
-0.999529, 401, 203, 416, 218
-0.99953, 129, 33, 144, 160
-0.999533, 469, 45, 484, 60
-0.999536, 199, 33, 214, 160
-0.999539, 101, 259, 116, 274
-0.99954, 289, 33, 304, 160
-0.999541, 183, 33, 198, 160
-0.999541, 149, 129, 180, 375
-0.999543, 149, 33, 164, 160
-0.999543, 243, 189, 258, 204
-0.999545, 161, 261, 288, 292
-0.999545, 295, 33, 310, 160
-0.999546, 73, 33, 104, 96
-0.999551, 45, 49, 60, 176
-0.999552, 49, 237, 176, 268
-0.999552, 463, 43, 478, 58
-0.999553, 313, 121, 376, 184
-0.999554, 281, 33, 296, 160
-0.999554, 93, 253, 108, 268
-0.999556, 477, 33, 492, 160
-0.999556, 137, 33, 152, 160
-0.999559, 255, 187, 270, 202
-0.99956, 231, 97, 246, 224
-0.999561, 265, 129, 280, 256
-0.999564, 13, 319, 28, 334
-0.999566, 209, 217, 336, 248
-0.999575, 273, 109, 400, 140
-0.999575, 309, 33, 324, 160
-0.999576, 431, 33, 446, 160
-0.999577, 105, 49, 120, 176
-0.999577, 57, 33, 88, 96
-0.999578, 117, 33, 132, 160
-0.999579, 21, 49, 36, 176
-0.99958, 1, 217, 256, 280
-0.999583, 335, 33, 350, 160
-0.999583, 35, 49, 50, 176
-0.999586, 403, 33, 418, 160
-0.999586, 483, 33, 498, 160
-0.999588, 57, 49, 72, 176
-0.999589, 83, 49, 98, 176
-0.99959, 249, 191, 264, 206
-0.999591, 209, 261, 336, 292
-0.999592, 469, 33, 484, 160
-0.999596, 421, 33, 436, 160
-0.999597, 457, 33, 472, 160
-0.999601, 325, 33, 340, 160
-0.999602, 305, 201, 432, 264
-0.999603, 111, 49, 126, 176
-0.999604, 371, 33, 386, 160
-0.999604, 63, 49, 78, 176
-0.999604, 89, 49, 104, 176
-0.999605, 7, 49, 22, 176
-0.999608, 317, 33, 332, 160
-0.999609, 249, 185, 264, 200
-0.999611, 347, 33, 362, 160
-0.999611, 393, 33, 408, 160
-0.999613, 73, 49, 88, 176
-0.999616, 257, 153, 384, 184
-0.999616, 51, 49, 66, 176
-0.999616, 353, 265, 480, 328
-0.999617, 99, 49, 114, 176
-0.999617, 379, 33, 394, 160
-0.999618, 443, 33, 458, 160
-0.99962, 33, 213, 160, 244
-0.99962, 357, 33, 372, 160
-0.999624, 387, 33, 402, 160
-0.999625, 1, 49, 16, 176
-0.999625, 305, 17, 336, 80
-0.999626, 437, 33, 452, 160
-0.999626, 247, 161, 262, 288
-0.999626, 409, 33, 424, 160
-0.999627, 229, 153, 244, 168
-0.999629, 341, 33, 356, 160
-0.999629, 237, 97, 252, 224
-0.999632, 123, 33, 138, 160
-0.999634, 65, 125, 192, 156
-0.999635, 165, 105, 196, 168
-0.999636, 305, 161, 432, 288
-0.999642, 97, 161, 224, 192
-0.999642, 451, 33, 466, 160
-0.999643, 193, 305, 320, 368
-0.999643, 27, 49, 42, 176
-0.999643, 15, 49, 30, 176
-0.999645, 271, 113, 286, 240
-0.999649, 225, 113, 240, 240
-0.999653, 247, 97, 262, 224
-0.999654, 249, 113, 280, 176
-0.999654, 265, 151, 280, 166
-0.999661, 65, 309, 192, 340
-0.999665, 415, 33, 430, 160
-0.999672, 463, 33, 478, 160
-0.999674, 363, 33, 378, 160
-0.999678, 209, 57, 336, 88
-0.999682, 241, 177, 256, 304
-0.999688, 253, 161, 268, 288
-0.999689, 241, 193, 368, 224
-0.999691, 253, 97, 268, 224
-0.999695, 185, 225, 216, 352
-0.9997, 99, 253, 114, 268
-0.999703, 9, 193, 72, 320
-0.999706, 105, 1, 120, 128
-0.999707, 143, 1, 158, 128
-0.999709, 49, 69, 176, 100
-0.999714, 237, 121, 268, 184
-0.999715, 229, 161, 244, 288
-0.999716, 113, 25, 144, 88
-0.999731, 1, 77, 128, 108
-0.999732, 265, 81, 280, 208
-0.999734, 99, 1, 114, 128
-0.999737, 217, 241, 232, 368
-0.999738, 227, 225, 242, 352
-0.999739, 295, 97, 310, 224
-0.999753, 219, 97, 234, 224
-0.999761, 235, 145, 250, 272
-0.999762, 241, 241, 272, 304
-0.999764, 279, 97, 294, 224
-0.999765, 285, 113, 300, 240
-0.999772, 27, 1, 42, 128
-0.999774, 259, 161, 274, 288
-0.999776, 1, 149, 128, 180
-0.999776, 1, 337, 128, 368
-0.999777, 51, 1, 66, 128
-0.99978, 397, 17, 428, 80
-0.999781, 21, 1, 36, 128
-0.999782, 113, 93, 240, 124
-0.999783, 217, 193, 232, 320
-0.999789, 85, 1, 100, 128
-0.99979, 111, 1, 126, 128
-0.999794, 223, 161, 238, 288
-0.999795, 17, 201, 144, 232
-0.999795, 93, 1, 108, 128
-0.999797, 79, 1, 94, 128
-0.999799, 163, 113, 178, 240
-0.9998, 207, 209, 222, 336
-0.999801, 97, 73, 224, 104
-0.999805, 99, 225, 114, 352
-0.999806, 45, 1, 60, 128
-0.999808, 57, 1, 72, 128
-0.999808, 65, 1, 80, 128
-0.999809, 185, 81, 200, 208
-0.99981, 49, 165, 176, 196
-0.999814, 1, 209, 500, 272
-0.999816, 201, 225, 216, 352
-0.99982, 35, 1, 50, 128
-0.999822, 401, 177, 416, 304
-0.999824, 271, 161, 286, 288
-0.999829, 7, 1, 22, 128
-0.999833, 207, 81, 222, 208
-0.999835, 179, 81, 194, 208
-0.999837, 289, 53, 416, 84
-0.999844, 1, 1, 16, 128
-0.999845, 191, 81, 206, 208
-0.999847, 177, 129, 208, 375
-0.99985, 241, 65, 368, 128
-0.999851, 71, 1, 86, 128
-0.999851, 301, 97, 316, 224
-0.999854, 169, 97, 184, 224
-0.999854, 213, 81, 228, 208
-0.999856, 197, 81, 212, 208
-0.999863, 235, 193, 250, 320
-0.999865, 197, 17, 228, 80
-0.999868, 395, 177, 410, 304
-0.999871, 307, 97, 322, 224
-0.99988, 157, 113, 172, 240
-0.999881, 49, 325, 176, 356
-0.999886, 17, 289, 48, 352
-0.999887, 13, 1, 28, 128
-0.999888, 113, 341, 240, 372
-0.999889, 173, 225, 188, 352
-0.999896, 177, 81, 304, 112
-0.999896, 139, 209, 154, 336
-0.999896, 165, 225, 180, 352
-0.9999, 301, 113, 332, 240
-0.9999, 1, 269, 128, 300
-0.999917, 337, 9, 368, 72
-0.999932, 1, 1, 32, 128
-0.999937, 1, 177, 128, 208
-0.99994, 1, 249, 500, 312
-0.999944, 17, 137, 144, 168
-0.99996, 197, 121, 228, 184
-0.999967, 289, 145, 352, 208
-0.999973, 337, 141, 464, 172
-0.999978, 17, 37, 144, 68
-0.999981, 1, 153, 500, 216
-0.999991, 1, 25, 500, 88
-0.999992, 1, 325, 128, 356
-1.00003, 225, 129, 256, 375
-1.00003, 1, 285, 128, 316
-1.00003, 249, 193, 312, 320
-1.00003, 221, 105, 252, 168
-1.00004, 285, 17, 316, 80
-1.00004, 289, 193, 416, 224
-1.00005, 65, 345, 192, 375
-1.00005, 205, 97, 236, 160
-1.00006, 113, 321, 240, 352
-1.00006, 209, 293, 336, 324
-1.00007, 65, 93, 192, 124
-1.00007, 161, 305, 288, 336
-1.00009, 1, 93, 128, 124
-1.00009, 337, 193, 464, 224
-1.0001, 257, 89, 320, 152
-1.0001, 257, 225, 384, 256
-1.0001, 5, 41, 36, 104
-1.00012, 257, 97, 384, 128
-1.00012, 237, 129, 268, 375
-1.00012, 209, 93, 336, 124
-1.00012, 185, 169, 248, 232
-1.00012, 209, 69, 336, 100
-1.00014, 17, 113, 144, 144
-1.00014, 241, 305, 368, 336
-1.00014, 1, 301, 128, 332
-1.00015, 321, 229, 448, 260
-1.00015, 305, 253, 432, 284
-1.00015, 1, 229, 128, 260
-1.00015, 337, 169, 464, 200
-1.00015, 145, 1, 272, 64
-1.00016, 137, 313, 168, 375
-1.00019, 273, 213, 400, 244
-1.0002, 201, 129, 232, 375
-1.0002, 9, 129, 72, 375
-1.0002, 17, 125, 144, 156
-1.00021, 165, 129, 196, 375
-1.00022, 65, 33, 192, 64
-1.00022, 353, 217, 480, 248
-1.00022, 225, 17, 256, 80
-1.00024, 281, 97, 344, 160
-1.00024, 321, 157, 448, 188
-1.00024, 289, 293, 416, 324
-1.00024, 261, 129, 292, 375
-1.00025, 337, 181, 464, 212
-1.00026, 101, 225, 132, 288
-1.00026, 369, 245, 496, 276
-1.00027, 101, 25, 132, 88
-1.00028, 173, 225, 204, 352
-1.00029, 177, 329, 304, 360
-1.00029, 241, 273, 368, 304
-1.00029, 369, 121, 496, 152
-1.0003, 77, 225, 108, 288
-1.00032, 353, 289, 480, 352
-1.00033, 129, 65, 384, 128
-1.00033, 369, 153, 496, 184
-1.00033, 369, 233, 496, 264
-1.00033, 129, 25, 160, 88
-1.00033, 9, 193, 72, 256
-1.00036, 89, 225, 120, 352
-1.00039, 301, 129, 332, 375
-1.0004, 289, 97, 320, 352
-1.00041, 133, 209, 164, 336
-1.00041, 249, 129, 280, 375
-1.00042, 369, 177, 496, 304
-1.00042, 353, 97, 480, 160
-1.00042, 321, 225, 448, 288
-1.00044, 181, 137, 212, 200
-1.00048, 277, 129, 308, 375
-1.00048, 225, 273, 480, 336
-1.00049, 265, 177, 296, 240
-1.00049, 309, 121, 340, 184
-1.00051, 189, 129, 220, 375
-1.00051, 353, 313, 480, 375
-1.00052, 289, 281, 416, 344
-1.00052, 257, 193, 320, 256
-1.00053, 273, 17, 304, 80
-1.00054, 137, 129, 168, 375
-1.00055, 369, 201, 496, 264
-1.00056, 97, 161, 160, 224
-1.00057, 249, 225, 312, 288
-1.00057, 213, 129, 244, 375
-1.00058, 377, 17, 408, 80
-1.00059, 105, 105, 168, 168
-1.00059, 369, 129, 496, 192
-1.00059, 205, 257, 236, 320
-1.00061, 153, 209, 184, 336
-1.00062, 25, 145, 88, 272
-1.00063, 305, 89, 432, 152
-1.00064, 33, 273, 96, 336
-1.00064, 57, 129, 88, 375
-1.00065, 273, 257, 400, 320
-1.00068, 233, 209, 264, 336
-1.00068, 337, 129, 400, 192
-1.00069, 205, 289, 236, 352
-1.00072, 1, 281, 500, 344
-1.00075, 241, 297, 368, 360
-1.00076, 85, 25, 116, 88
-1.00077, 401, 97, 432, 352
-1.00078, 25, 129, 56, 375
-1.00078, 273, 225, 400, 288
-1.00078, 233, 281, 264, 344
-1.00079, 381, 97, 412, 352
-1.0008, 129, 81, 192, 208
-1.0008, 117, 129, 148, 375
-1.0008, 1, 121, 500, 184
-1.00081, 365, 9, 396, 72
-1.00081, 125, 305, 156, 368
-1.00083, 213, 65, 244, 128
-1.00083, 349, 129, 380, 192
-1.00086, 33, 1, 288, 64
-1.00091, 145, 129, 176, 192
-1.00091, 225, 65, 480, 128
-1.00094, 41, 33, 72, 96
-1.00094, 345, 169, 408, 232
-1.001, 385, 177, 416, 304
-1.001, 49, 241, 112, 368
-1.00101, 37, 129, 68, 375
-1.00101, 313, 169, 376, 232
-1.00101, 313, 129, 344, 375
-1.00101, 353, 97, 384, 352
-1.00101, 365, 129, 396, 375
-1.00102, 113, 129, 176, 375
-1.00103, 29, 33, 60, 96
-1.00103, 289, 65, 416, 128
-1.00105, 217, 73, 280, 136
-1.00105, 81, 129, 112, 375
-1.00105, 297, 209, 360, 272
-1.00106, 121, 241, 152, 304
-1.00106, 157, 161, 188, 288
-1.00107, 409, 9, 440, 72
-1.00107, 1, 249, 64, 312
-1.00109, 457, 129, 488, 375
-1.0011, 305, 97, 368, 224
-1.00111, 105, 129, 136, 375
-1.00111, 329, 97, 360, 352
-1.00113, 129, 313, 384, 375
-1.00113, 73, 145, 136, 272
-1.00113, 93, 129, 124, 375
-1.00114, 125, 281, 156, 344
-1.00114, 433, 129, 464, 375
-1.00114, 385, 193, 448, 256
-1.00115, 1, 129, 32, 375
-1.00118, 77, 177, 108, 304
-1.00118, 69, 129, 100, 375
-1.00119, 281, 97, 344, 352
-1.00119, 417, 97, 448, 352
-1.00119, 33, 313, 96, 375
-1.00121, 1, 121, 64, 184
-1.00121, 469, 97, 500, 352
-1.00124, 337, 65, 464, 128
-1.00124, 165, 129, 196, 192
-1.00126, 129, 145, 160, 208
-1.00128, 177, 265, 208, 328
-1.00128, 445, 97, 476, 352
-1.00128, 341, 97, 372, 352
-1.00129, 257, 297, 500, 360
-1.00132, 121, 225, 152, 352
-1.00133, 73, 169, 136, 232
-1.00133, 13, 129, 44, 375
-1.00134, 137, 217, 168, 280
-1.00137, 41, 169, 104, 232
-1.00142, 37, 217, 68, 280
-1.00145, 273, 257, 336, 320
-1.00147, 153, 313, 216, 375
-1.00154, 189, 249, 220, 312
-1.00155, 217, 177, 248, 240
-1.00157, 53, 241, 84, 304
-1.00158, 117, 145, 148, 272
-1.00158, 101, 193, 132, 320
-1.00158, 81, 73, 144, 136
-1.00159, 397, 177, 428, 304
-1.00161, 149, 105, 180, 168
-1.00163, 297, 145, 328, 208
-1.00163, 129, 169, 160, 232
-1.00166, 181, 209, 212, 272
-1.0017, 353, 97, 416, 160
-1.00172, 329, 193, 392, 256
-1.00175, 1, 305, 500, 368
-1.00181, 201, 161, 232, 288
-1.00181, 81, 281, 144, 344
-1.00186, 109, 81, 140, 208
-1.00187, 185, 145, 216, 272
-1.00188, 1, 145, 64, 208
-1.0019, 33, 1, 160, 64
-1.0019, 49, 129, 112, 375
-1.00193, 433, 185, 496, 248
-1.00196, 289, 305, 416, 368
-1.00196, 281, 145, 312, 272
-1.00196, 73, 233, 136, 296
-1.00198, 409, 225, 472, 288
-1.00199, 1, 1, 500, 64
-1.00201, 1, 81, 500, 144
-1.00204, 1, 217, 64, 280
-1.00215, 253, 193, 284, 320
-1.00216, 241, 257, 304, 320
-1.00218, 65, 193, 128, 320
-1.00225, 81, 1, 208, 64
-1.00227, 145, 161, 176, 288
-1.00235, 101, 145, 132, 272
-1.00246, 9, 81, 72, 144
-1.00248, 409, 193, 472, 256
-1.00267, 17, 169, 80, 232
-1.00269, 65, 137, 128, 200
-1.00271, 29, 129, 60, 256
-1.00271, 89, 129, 152, 192
-1.00278, 321, 209, 448, 336
-1.00278, 169, 145, 200, 272
-1.00288, 353, 201, 416, 264
-1.0029, 305, 97, 368, 352
-1.00297, 281, 177, 344, 240
-1.00311, 317, 97, 348, 224
-1.00311, 381, 129, 412, 256
-1.00317, 65, 193, 96, 320
-1.00317, 33, 193, 96, 256
-1.00317, 353, 97, 416, 352
-1.00318, 409, 249, 472, 312
-1.00318, 89, 129, 152, 375
-1.00323, 401, 129, 432, 256
-1.00333, 105, 241, 136, 368
-1.00342, 369, 225, 496, 352
-1.00344, 1, 113, 64, 240
-1.00357, 41, 193, 72, 320
-1.00361, 369, 129, 496, 256
-1.00365, 77, 241, 108, 368
-1.00365, 1, 145, 32, 272
-1.00378, 89, 161, 120, 288
-1.00381, 269, 193, 300, 320
-1.004, 353, 129, 416, 256
-1.00406, 385, 177, 448, 304
-1.00408, 29, 225, 60, 352
-1.00411, 281, 193, 312, 320
-1.00412, 89, 113, 120, 240
-1.00416, 457, 225, 488, 352
-1.00419, 73, 97, 136, 224
-1.00422, 17, 225, 48, 352
-1.00422, 465, 177, 496, 304
-1.00424, 377, 97, 440, 352
-1.00425, 41, 241, 72, 368
-1.00427, 5, 97, 36, 224
-1.0043, 65, 145, 96, 272
-1.00443, 53, 193, 84, 320
-1.00445, 41, 97, 104, 224
-1.00446, 13, 161, 44, 288
-1.00447, 17, 113, 48, 240
-1.00452, 25, 177, 56, 304
-1.00464, 301, 193, 332, 320
-1.0047, 257, 241, 384, 368
-1.00472, 337, 161, 368, 288
-1.00473, 361, 177, 392, 304
-1.00474, 353, 177, 416, 304
-1.00479, 369, 81, 496, 208
-1.00494, 281, 177, 344, 304
-1.005, 353, 129, 384, 256
-1.00506, 121, 97, 152, 224
-1.00508, 425, 129, 488, 375
-1.00508, 77, 129, 108, 256
-1.00513, 53, 145, 84, 272
-1.00529, 425, 145, 488, 272
-1.00529, 321, 177, 384, 304
-1.00534, 313, 145, 344, 272
-1.00536, 261, 241, 292, 368
-1.00541, 49, 145, 112, 272
-1.00545, 329, 97, 360, 224
-1.00545, 421, 177, 452, 304
-1.00545, 393, 129, 456, 256
-1.00546, 445, 225, 476, 352
-1.00549, 329, 97, 392, 352
-1.0055, 373, 177, 404, 304
-1.00556, 429, 129, 460, 256
-1.00562, 453, 113, 484, 240
-1.00565, 465, 81, 496, 208
-1.00565, 325, 145, 356, 272
-1.00572, 41, 97, 72, 224
-1.00575, 393, 81, 424, 208
-1.00578, 321, 209, 352, 336
-1.00593, 433, 177, 464, 304
-1.00596, 273, 241, 304, 368
-1.00602, 449, 161, 480, 288
-1.00609, 285, 241, 316, 368
-1.00697, 401, 129, 464, 375
-1.00708, 425, 241, 488, 368
-1.00714, 329, 81, 392, 208
-1.0072, 385, 81, 448, 208
-1.00721, 273, 241, 336, 368
-1.00753, 369, 225, 432, 352
-1.00812, 425, 193, 488, 320
-1.00815, 417, 97, 480, 224
-1.00835, 297, 225, 360, 352
-1.00857, 329, 129, 392, 256
-1.00886, 401, 225, 464, 352
-1.00958, 249, 241, 312, 368
-1.01007, 321, 241, 384, 368
-1.01009, 361, 81, 424, 208
-1.01042, 345, 225, 408, 352
