1994
-0.505717, 1, 1, 375, 500
-0.542311, 1, 97, 375, 352
-0.586786, 129, 1, 375, 500
-0.619173, 1, 193, 375, 448
-0.643378, 1, 1, 375, 256
-0.766835, 129, 257, 375, 500
-0.807059, 97, 1, 352, 256
-0.808277, 129, 97, 375, 352
-0.852854, 1, 1, 256, 500
-0.863218, 33, 257, 288, 500
-0.86579, 225, 1, 352, 500
-0.869575, 1, 353, 375, 480
-0.874332, 241, 97, 368, 352
-0.879915, 129, 353, 375, 480
-0.892961, 241, 193, 368, 448
-0.910173, 1, 145, 375, 272
-0.912083, 193, 257, 320, 500
-0.915886, 145, 257, 272, 500
-0.922339, 241, 1, 368, 256
-0.924567, 129, 353, 256, 480
-0.928128, 225, 353, 352, 480
-0.928367, 33, 369, 288, 496
-0.932268, 193, 97, 320, 352
-0.932466, 297, 353, 360, 480
-0.933017, 137, 353, 200, 480
-0.93321, 257, 353, 320, 480
-0.939887, 97, 225, 224, 480
-0.940071, 65, 369, 192, 496
-0.940995, 105, 353, 168, 480
-0.941018, 169, 369, 232, 496
-0.941587, 201, 337, 264, 464
-0.942154, 273, 81, 336, 208
-0.942212, 177, 353, 304, 480
-0.942357, 193, 1, 320, 256
-0.943491, 233, 353, 296, 480
-0.943902, 177, 1, 304, 500
-0.944192, 49, 257, 176, 500
-0.944364, 1, 193, 375, 320
-0.945801, 241, 97, 368, 224
-0.946541, 129, 161, 375, 288
-0.947546, 1, 97, 375, 224
-0.947662, 281, 193, 344, 320
-0.951139, 1, 193, 128, 448
-0.95162, 201, 353, 264, 416
-0.952159, 313, 209, 375, 336
-0.952202, 1, 33, 128, 288
-0.954955, 1, 1, 128, 500
-0.955327, 73, 369, 136, 496
-0.956497, 105, 417, 168, 480
-0.956573, 313, 113, 375, 240
-0.956925, 137, 385, 200, 448
-0.957626, 161, 361, 224, 424
-0.958062, 145, 425, 208, 488
-0.959538, 225, 161, 352, 288
-0.959784, 81, 1, 208, 500
-0.960724, 137, 361, 200, 424
-0.961143, 297, 409, 360, 472
-0.961514, 1, 49, 375, 176
-0.961916, 129, 305, 375, 432
-0.961922, 1, 97, 256, 352
-0.962197, 81, 433, 144, 496
-0.962587, 97, 113, 352, 240
-0.963212, 313, 161, 375, 288
-0.963377, 305, 65, 368, 192
-0.963383, 169, 401, 232, 464
-0.963612, 273, 105, 336, 168
-0.964257, 57, 425, 120, 488
-0.964691, 305, 369, 368, 432
-0.965444, 33, 321, 288, 448
-0.965678, 313, 225, 375, 288
-0.965743, 257, 145, 320, 272
-0.96578, 289, 145, 352, 272
-0.965822, 81, 385, 144, 448
-0.965912, 1, 305, 375, 432
-0.966081, 129, 49, 375, 176
-0.966483, 129, 209, 375, 336
-0.967011, 313, 97, 375, 352
-0.96722, 49, 369, 112, 496
-0.967436, 313, 185, 375, 248
-0.96745, 297, 257, 360, 500
-0.96764, 113, 361, 176, 424
-0.967852, 233, 425, 296, 488
-0.967983, 221, 337, 252, 464
-0.968011, 113, 393, 176, 456
-0.96889, 321, 353, 352, 480
-0.969028, 209, 409, 272, 472
-0.969196, 273, 345, 336, 408
-0.969613, 65, 97, 192, 352
-0.969883, 129, 401, 256, 464
-0.970124, 249, 353, 280, 480
-0.970203, 33, 273, 288, 400
-0.970519, 241, 305, 368, 432
-0.970612, 241, 209, 368, 336
-0.970642, 297, 345, 360, 408
-0.970674, 309, 353, 340, 480
-0.970699, 193, 113, 320, 240
-0.97096, 289, 217, 352, 280
-0.971197, 65, 321, 192, 448
-0.971338, 289, 65, 352, 320
-0.971468, 153, 369, 184, 496
-0.971477, 185, 377, 248, 440
-0.971513, 129, 433, 256, 496
-0.971871, 241, 353, 368, 416
-0.972377, 297, 89, 360, 152
-0.972566, 73, 321, 136, 448
-0.972723, 225, 353, 288, 416
-0.9729, 241, 49, 368, 176
-0.972962, 289, 353, 320, 480
-0.97322, 169, 433, 232, 496
-0.973381, 17, 369, 144, 496
-0.97346, 81, 417, 208, 480
-0.973498, 129, 1, 256, 500
-0.973697, 297, 305, 360, 432
-0.973727, 281, 153, 344, 216
-0.973765, 129, 377, 256, 440
-0.97381, 145, 305, 272, 432
-0.973853, 261, 353, 292, 480
-0.973868, 325, 369, 356, 432
-0.974022, 281, 249, 344, 312
-0.974215, 241, 105, 368, 168
-0.974221, 273, 353, 304, 480
-0.9743, 161, 353, 288, 416
-0.97452, 197, 353, 228, 480
-0.974633, 273, 257, 336, 500
-0.975216, 169, 321, 232, 448
-0.975571, 237, 353, 268, 480
-0.97581, 257, 425, 320, 488
-0.975994, 181, 353, 212, 480
-0.976193, 145, 417, 176, 480
-0.976199, 209, 353, 240, 416
-0.976233, 209, 337, 240, 464
-0.97632, 209, 385, 272, 448
-0.976398, 33, 433, 96, 496
-0.976489, 313, 249, 375, 312
-0.976622, 321, 225, 352, 288
-0.976688, 305, 257, 368, 384
-0.97672, 125, 369, 156, 496
-0.976741, 97, 433, 128, 496
-0.976773, 337, 225, 368, 288
-0.976857, 241, 153, 304, 216
-0.976878, 313, 113, 375, 176
-0.976923, 209, 425, 336, 488
-0.976968, 225, 305, 288, 432
-0.976972, 17, 433, 144, 496
-0.977006, 249, 361, 312, 424
-0.977018, 297, 193, 328, 320
-0.977072, 165, 353, 196, 480
-0.977314, 281, 193, 344, 256
-0.977334, 317, 209, 348, 336
-0.977946, 81, 361, 208, 424
-0.978048, 161, 337, 224, 400
-0.978064, 125, 377, 156, 440
-0.978114, 157, 417, 188, 480
-0.978215, 49, 393, 176, 456
-0.978226, 273, 161, 336, 416
-0.978375, 157, 377, 188, 440
-0.97841, 1, 145, 256, 272
-0.978593, 93, 369, 124, 496
-0.978762, 193, 353, 224, 416
-0.978779, 345, 385, 375, 448
-0.979024, 249, 401, 312, 464
-0.979207, 1, 129, 128, 256
-0.979318, 105, 369, 136, 496
-0.97944, 9, 433, 72, 496
-0.979509, 277, 97, 308, 224
-0.979527, 249, 97, 312, 224
-0.979563, 1, 201, 64, 264
-0.979625, 337, 209, 368, 336
-0.979627, 193, 305, 320, 432
-0.979662, 333, 369, 364, 496
-0.979863, 241, 401, 368, 464
-0.979898, 1, 177, 64, 304
-0.979997, 49, 401, 112, 464
-0.980106, 297, 1, 360, 500
-0.980177, 257, 177, 320, 240
-0.980291, 173, 425, 204, 488
-0.980398, 221, 409, 252, 472
-0.980431, 241, 425, 272, 488
-0.980532, 141, 369, 172, 496
-0.980729, 249, 257, 312, 500
-0.980886, 105, 409, 136, 472
-0.980889, 177, 49, 304, 176
-0.980928, 273, 129, 336, 192
-0.981114, 329, 345, 360, 408
-0.981145, 1, 161, 32, 288
-0.981303, 181, 361, 212, 424
-0.981434, 313, 409, 344, 472
-0.98148, 81, 369, 112, 496
-0.98171, 113, 305, 176, 432
-0.981895, 85, 425, 116, 488
-0.981966, 293, 345, 324, 408
-0.982001, 1, 177, 128, 304
-0.982069, 105, 385, 136, 448
-0.982128, 177, 161, 304, 288
-0.982359, 1, 257, 375, 384
-0.982411, 225, 193, 352, 256
-0.982548, 345, 113, 375, 240
-0.9826, 265, 65, 328, 320
-0.982739, 273, 305, 336, 432
-0.982813, 273, 81, 336, 144
-0.98287, 193, 433, 256, 496
-0.982919, 277, 105, 308, 168
-0.982993, 145, 377, 176, 440
-0.983201, 241, 121, 304, 184
-0.983267, 61, 369, 92, 496
-0.983352, 41, 433, 72, 496
-0.983451, 289, 97, 320, 224
-0.983464, 145, 33, 272, 288
-0.983493, 309, 217, 340, 280
-0.9835, 317, 249, 348, 312
-0.983502, 5, 201, 36, 264
-0.983518, 345, 369, 375, 496
-0.983607, 249, 353, 280, 416
-0.983766, 273, 145, 304, 272
-0.983818, 293, 169, 324, 232
-0.983836, 273, 33, 336, 160
-0.983907, 73, 425, 104, 488
-0.984021, 177, 393, 304, 456
-0.984057, 145, 305, 208, 432
-0.984076, 249, 329, 312, 392
-0.984152, 73, 361, 136, 424
-0.984246, 269, 153, 300, 216
-0.984428, 9, 129, 72, 256
-0.984546, 273, 1, 336, 500
-0.984573, 241, 129, 368, 192
-0.984617, 301, 409, 332, 472
-0.984639, 161, 353, 192, 416
-0.984699, 249, 305, 312, 432
-0.984797, 201, 385, 232, 448
-0.984802, 1, 153, 64, 216
-0.984817, 233, 401, 264, 464
-0.985012, 97, 1, 224, 256
-0.985018, 133, 433, 164, 496
-0.985043, 145, 353, 176, 416
-0.985097, 225, 377, 352, 440
-0.985236, 325, 409, 356, 472
-0.985368, 317, 193, 348, 256
-0.985371, 297, 209, 328, 272
-0.985402, 313, 345, 344, 408
-0.985405, 209, 329, 272, 392
-0.985637, 317, 273, 348, 400
-0.985646, 221, 353, 252, 416
-0.985661, 305, 81, 336, 208
-0.985693, 109, 433, 140, 496
-0.985707, 209, 257, 272, 500
-0.985786, 61, 417, 92, 480
-0.9858, 269, 361, 300, 424
-0.985958, 273, 401, 336, 464
-0.985992, 173, 393, 204, 456
-0.986006, 85, 393, 116, 456
-0.986007, 305, 185, 336, 248
-0.986081, 237, 353, 268, 416
-0.986126, 333, 321, 364, 448
-0.986131, 309, 161, 340, 288
-0.98625, 241, 81, 368, 144
-0.986473, 289, 417, 320, 480
-0.98653, 201, 289, 264, 416
-0.986562, 257, 193, 320, 320
-0.986599, 133, 353, 164, 416
-0.986707, 257, 241, 320, 304
-0.986746, 125, 401, 156, 464
-0.986746, 193, 169, 320, 232
-0.986749, 265, 97, 296, 224
-0.986779, 129, 361, 375, 424
-0.98694, 241, 49, 304, 176
-0.986974, 281, 353, 312, 416
-0.987221, 193, 145, 320, 208
-0.987298, 161, 257, 224, 500
-0.98746, 241, 217, 368, 280
-0.987463, 321, 81, 352, 208
-0.98752, 329, 161, 360, 288
-0.987569, 341, 113, 372, 176
-0.987757, 209, 329, 336, 392
-0.987929, 209, 409, 240, 472
-0.988086, 153, 217, 216, 280
-0.988094, 137, 337, 200, 400
-0.988164, 285, 177, 316, 304
-0.988224, 329, 201, 360, 264
-0.988248, 1, 177, 32, 240
-0.988363, 253, 425, 284, 488
-0.988368, 1, 305, 128, 432
-0.988433, 1, 313, 32, 376
-0.988437, 297, 65, 360, 128
-0.988455, 33, 369, 160, 432
-0.988457, 81, 409, 144, 472
-0.988541, 285, 193, 316, 256
-0.988543, 121, 469, 184, 500
-0.988549, 193, 409, 224, 472
-0.988578, 217, 433, 248, 496
-0.988593, 273, 425, 304, 488
-0.988662, 345, 361, 375, 424
-0.988732, 1, 289, 64, 352
-0.98876, 313, 369, 344, 432
-0.988776, 121, 425, 152, 488
-0.988793, 1, 129, 64, 192
-0.98883, 333, 81, 364, 208
-0.988858, 305, 89, 336, 152
-0.988953, 249, 393, 280, 456
-0.989016, 129, 321, 160, 448
-0.989129, 189, 385, 220, 448
-0.989229, 1, 201, 128, 264
-0.989275, 201, 361, 264, 392
-0.98928, 89, 457, 152, 488
-0.989309, 193, 121, 320, 184
-0.989336, 113, 361, 144, 424
-0.989361, 145, 453, 208, 484
-0.989392, 57, 465, 120, 496
-0.989432, 1, 409, 128, 472
-0.989484, 297, 145, 328, 272
-0.989495, 1, 369, 64, 496
-0.989509, 161, 369, 224, 400
-0.989601, 297, 417, 360, 448
-0.989655, 285, 145, 316, 208
-0.98968, 97, 337, 224, 400
-0.989699, 305, 373, 368, 404
-0.989731, 145, 441, 208, 472
-0.989734, 137, 365, 200, 396
-0.989744, 145, 209, 208, 336
-0.989757, 329, 105, 360, 168
-0.9898, 233, 145, 296, 272
-0.989843, 153, 321, 184, 448
-0.989845, 225, 249, 288, 312
-0.989857, 297, 353, 360, 384
-0.9899, 273, 369, 336, 432
-0.98991, 241, 81, 304, 144
-0.989935, 341, 185, 372, 248
-0.989956, 113, 421, 176, 452
-0.989971, 109, 321, 140, 448
-0.990001, 65, 393, 96, 456
-0.990017, 161, 465, 224, 496
-0.990021, 137, 429, 200, 460
-0.990027, 313, 205, 375, 236
-0.990033, 33, 469, 96, 500
-0.990035, 301, 241, 332, 304
-0.990045, 105, 257, 168, 500
-0.99008, 137, 409, 200, 440
-0.99009, 97, 217, 224, 280
-0.9901, 305, 321, 368, 384
-0.990122, 137, 385, 200, 416
-0.990132, 241, 153, 368, 216
-0.99016, 105, 377, 168, 408
-0.990201, 113, 457, 176, 488
-0.990219, 105, 393, 168, 424
-0.990317, 9, 177, 72, 240
-0.99033, 273, 361, 336, 392
-0.990395, 1, 321, 64, 384
-0.990412, 281, 169, 312, 232
-0.990462, 313, 257, 375, 288
-0.990481, 193, 457, 256, 488
-0.990521, 225, 361, 288, 392
-0.990522, 81, 321, 112, 448
-0.990547, 265, 113, 296, 176
-0.990563, 97, 209, 224, 336
-0.990565, 65, 453, 128, 484
-0.990591, 281, 241, 344, 368
-0.990609, 333, 249, 364, 312
-0.990614, 33, 453, 96, 484
-0.990617, 289, 257, 352, 288
-0.990688, 97, 469, 160, 500
-0.990696, 177, 89, 304, 152
-0.990702, 105, 409, 168, 440
-0.990702, 129, 417, 375, 480
-0.990732, 105, 445, 168, 476
-0.990753, 225, 249, 352, 312
-0.990762, 73, 385, 136, 416
-0.99082, 249, 1, 312, 500
-0.990853, 317, 97, 348, 160
-0.990865, 49, 437, 112, 468
-0.990878, 137, 397, 200, 428
-0.990927, 289, 101, 352, 132
-0.990935, 81, 405, 144, 436
-0.990945, 169, 429, 232, 460
-0.990948, 313, 401, 375, 432
-0.99098, 105, 433, 168, 464
-0.990988, 1, 1, 375, 128
-0.99099, 209, 425, 272, 456
-0.991005, 169, 381, 232, 412
-0.991007, 289, 189, 352, 220
-0.991011, 129, 385, 375, 448
-0.991017, 177, 401, 240, 432
-0.991038, 241, 433, 304, 464
-0.991077, 265, 125, 328, 156
-0.991108, 197, 433, 228, 496
-0.991121, 73, 421, 136, 452
-0.991171, 17, 209, 48, 272
-0.991184, 1, 225, 64, 288
-0.991194, 313, 1, 375, 256
-0.991211, 1, 209, 32, 336
-0.991231, 169, 453, 232, 484
-0.991253, 65, 273, 192, 400
-0.991265, 265, 253, 328, 284
-0.991274, 325, 73, 356, 136
-0.991297, 1, 177, 128, 240
-0.991338, 313, 117, 375, 148
-0.991358, 273, 113, 336, 144
-0.991375, 185, 469, 248, 500
-0.991406, 305, 137, 368, 200
-0.991415, 41, 409, 72, 472
-0.991417, 9, 409, 72, 472
-0.991433, 169, 417, 232, 448
-0.991449, 241, 97, 304, 352
-0.991454, 249, 365, 312, 396
-0.991457, 297, 17, 360, 144
-0.991464, 221, 385, 252, 448
-0.991484, 281, 165, 344, 196
-0.991503, 265, 425, 328, 456
-0.991514, 41, 377, 104, 440
-0.991531, 293, 89, 324, 152
-0.991538, 93, 369, 124, 432
-0.991559, 193, 437, 256, 468
-0.991566, 281, 213, 344, 244
-0.991569, 281, 177, 344, 208
-0.991602, 289, 245, 352, 276
-0.991607, 113, 365, 176, 396
-0.99162, 241, 417, 304, 448
-0.991623, 201, 381, 264, 412
-0.991627, 265, 141, 328, 172
-0.991644, 33, 409, 288, 472
-0.991651, 257, 193, 320, 224
-0.991695, 113, 129, 240, 384
-0.991701, 9, 449, 72, 480
-0.991709, 13, 177, 44, 304
-0.991716, 185, 257, 248, 500
-0.991738, 201, 409, 264, 440
-0.991759, 9, 465, 72, 496
-0.991774, 49, 425, 112, 456
-0.991777, 305, 269, 368, 300
-0.991779, 233, 305, 264, 432
-0.991842, 241, 253, 304, 284
-0.991867, 313, 229, 375, 260
-0.99189, 169, 441, 232, 472
-0.991902, 1, 217, 64, 248
-0.991956, 313, 193, 375, 224
-0.99198, 41, 413, 104, 444
-0.991982, 241, 153, 304, 184
-0.991984, 161, 357, 224, 388
-0.991998, 313, 389, 375, 420
-0.992017, 273, 57, 336, 120
-0.992033, 265, 153, 328, 184
-0.992045, 257, 349, 320, 380
-0.99207, 305, 217, 368, 248
-0.992083, 241, 257, 368, 384
-0.992122, 225, 457, 288, 488
-0.992126, 321, 257, 352, 288
-0.992135, 33, 433, 288, 496
-0.992154, 289, 201, 352, 232
-0.992155, 201, 397, 264, 428
-0.992161, 249, 173, 312, 204
-0.992178, 73, 433, 136, 464
-0.992181, 145, 329, 272, 392
-0.992198, 277, 81, 308, 144
-0.992212, 77, 369, 108, 432
-0.992252, 229, 433, 260, 496
-0.992255, 1, 321, 64, 352
-0.992304, 1, 157, 64, 188
-0.992335, 305, 89, 368, 120
-0.992367, 93, 453, 124, 484
-0.992375, 1, 289, 128, 352
-0.992415, 201, 349, 264, 380
-0.99242, 1, 153, 128, 216
-0.992455, 77, 465, 108, 496
-0.992464, 205, 361, 236, 392
-0.992497, 313, 105, 375, 136
-0.992501, 261, 401, 292, 464
-0.992511, 1, 81, 64, 208
-0.992511, 313, 161, 375, 224
-0.992516, 137, 469, 168, 500
-0.992524, 281, 89, 344, 120
-0.992527, 333, 373, 364, 404
-0.992532, 109, 457, 140, 488
-0.992542, 145, 429, 176, 460
-0.992546, 161, 217, 288, 280
-0.992547, 173, 369, 204, 400
-0.992565, 217, 241, 280, 272
-0.992566, 161, 365, 192, 396
-0.992577, 137, 457, 168, 488
-0.992579, 1, 237, 64, 268
-0.992589, 293, 361, 324, 392
-0.992589, 97, 417, 128, 448
-0.992591, 297, 149, 360, 180
-0.992615, 1, 193, 256, 320
-0.992621, 145, 365, 176, 396
-0.992627, 105, 81, 168, 144
-0.992658, 233, 141, 296, 172
-0.992677, 189, 369, 220, 400
-0.992678, 309, 417, 340, 448
-0.992692, 225, 349, 288, 380
-0.992693, 305, 353, 336, 384
-0.992697, 313, 129, 375, 160
-0.992701, 173, 461, 204, 492
-0.992702, 221, 413, 252, 444
-0.992702, 157, 441, 188, 472
-0.992705, 345, 401, 375, 432
-0.992705, 105, 397, 136, 428
-0.992709, 125, 469, 156, 500
-0.992713, 17, 437, 80, 468
-0.992721, 9, 217, 40, 248
-0.992731, 257, 201, 320, 264
-0.992753, 157, 377, 188, 408
-0.992755, 9, 185, 72, 216
-0.992761, 313, 245, 375, 276
-0.992763, 233, 125, 296, 156
-0.992765, 125, 405, 156, 436
-0.992766, 65, 453, 192, 484
-0.992768, 109, 409, 140, 440
-0.992771, 289, 429, 352, 460
-0.992774, 129, 1, 375, 128
-0.99278, 145, 441, 176, 472
-0.992783, 125, 393, 156, 424
-0.992784, 281, 269, 344, 300
-0.992788, 221, 357, 252, 388
-0.992789, 41, 465, 72, 496
-0.992799, 97, 465, 128, 496
-0.992805, 333, 357, 364, 388
-0.992805, 273, 329, 304, 392
-0.992822, 57, 469, 88, 500
-0.99283, 149, 469, 180, 500
-0.99283, 133, 373, 164, 404
-0.992833, 313, 181, 375, 212
-0.992834, 345, 389, 375, 420
-0.99284, 81, 421, 112, 452
-0.992842, 317, 357, 348, 388
-0.992844, 161, 429, 192, 460
-0.992846, 1, 169, 64, 200
-0.992853, 345, 321, 375, 448
-0.992854, 137, 221, 200, 252
-0.992855, 1, 385, 375, 448
-0.992866, 241, 361, 272, 392
-0.992866, 89, 361, 152, 392
-0.992867, 217, 469, 280, 500
-0.992868, 221, 461, 252, 492
-0.992877, 57, 453, 88, 484
-0.992877, 173, 305, 204, 432
-0.992881, 233, 421, 264, 452
-0.992886, 57, 401, 120, 432
-0.992889, 97, 385, 128, 416
-0.992902, 289, 169, 320, 200
-0.992903, 177, 433, 208, 464
-0.992917, 245, 429, 276, 460
-0.992919, 161, 229, 224, 260
-0.992922, 109, 385, 140, 416
-0.992924, 249, 97, 312, 128
-0.992927, 341, 161, 372, 288
-0.992932, 217, 437, 280, 468
-0.992934, 257, 241, 320, 272
-0.992936, 1, 97, 64, 352
-0.992939, 125, 453, 156, 484
-0.992941, 161, 461, 192, 492
-0.992949, 225, 401, 288, 432
-0.992949, 81, 453, 112, 484
-0.992951, 325, 405, 356, 436
-0.992954, 289, 425, 320, 456
-0.99296, 145, 417, 176, 448
-0.992961, 197, 417, 228, 448
-0.992962, 41, 445, 72, 476
-0.992968, 185, 433, 216, 496
-0.992971, 329, 233, 360, 264
-0.992978, 297, 189, 328, 220
-0.992981, 281, 157, 312, 188
-0.992985, 257, 205, 320, 236
-0.992985, 209, 457, 240, 488
-0.992988, 81, 433, 112, 464
-0.99299, 73, 373, 136, 404
-0.992992, 125, 421, 156, 452
-0.992993, 149, 457, 180, 488
-0.993002, 181, 421, 212, 452
-0.993003, 193, 381, 224, 412
-0.993008, 209, 405, 240, 436
-0.993011, 281, 373, 344, 404
-0.993011, 89, 405, 120, 436
-0.993012, 77, 381, 108, 412
-0.993015, 181, 445, 212, 476
-0.99302, 121, 377, 152, 408
-0.993022, 193, 453, 224, 484
-0.99303, 325, 417, 356, 448
-0.993031, 249, 113, 312, 144
-0.993045, 293, 205, 324, 236
-0.99305, 145, 377, 176, 408
-0.993054, 309, 217, 340, 248
-0.993064, 281, 361, 312, 392
-0.993067, 301, 261, 332, 292
-0.993076, 105, 445, 136, 476
-0.993077, 77, 409, 108, 440
-0.993077, 289, 137, 352, 168
-0.993081, 137, 353, 200, 384
-0.993083, 273, 113, 304, 144
-0.993092, 9, 197, 72, 228
-0.993093, 221, 425, 252, 456
-0.993096, 33, 385, 288, 448
-0.993097, 105, 121, 168, 184
-0.993101, 221, 445, 252, 476
-0.993104, 321, 369, 352, 400
-0.993106, 185, 469, 216, 500
-0.993106, 233, 409, 264, 440
-0.99311, 109, 421, 140, 452
-0.993111, 309, 369, 340, 400
-0.993118, 1, 193, 64, 448
-0.99312, 169, 449, 200, 480
-0.993122, 289, 397, 352, 428
-0.993123, 113, 129, 176, 160
-0.993126, 1, 145, 64, 176
-0.993127, 177, 381, 208, 412
-0.993128, 305, 201, 336, 232
-0.993131, 333, 257, 364, 288
-0.993134, 329, 217, 360, 248
-0.993137, 253, 361, 284, 392
-0.993144, 297, 77, 360, 108
-0.993147, 269, 253, 300, 284
-0.993148, 269, 365, 300, 396
-0.993153, 293, 349, 324, 380
-0.993154, 281, 197, 312, 228
-0.993158, 201, 433, 232, 464
-0.993159, 257, 433, 288, 464
-0.993163, 145, 389, 176, 420
-0.993167, 345, 225, 375, 256
-0.993168, 265, 413, 328, 444
-0.993174, 61, 425, 92, 456
-0.993179, 93, 437, 124, 468
-0.993184, 185, 357, 216, 388
-0.993185, 313, 269, 344, 300
-0.993186, 109, 373, 140, 404
-0.993219, 77, 397, 108, 428
-0.993222, 13, 233, 44, 264
-0.993228, 317, 201, 348, 232
-0.993234, 33, 397, 96, 428
-0.993236, 269, 433, 300, 464
-0.993244, 309, 137, 340, 168
-0.993245, 301, 249, 332, 280
-0.99325, 273, 185, 304, 216
-0.993256, 193, 361, 320, 392
-0.99326, 113, 469, 144, 500
-0.993263, 181, 409, 212, 440
-0.993265, 145, 405, 176, 436
-0.993271, 197, 405, 228, 436
-0.993272, 125, 441, 156, 472
-0.993272, 269, 169, 300, 200
-0.993277, 233, 457, 264, 488
-0.993277, 289, 105, 320, 136
-0.993279, 103, 425, 118, 488
-0.9933, 229, 397, 260, 428
-0.993302, 209, 417, 240, 448
-0.993303, 337, 117, 368, 148
-0.993306, 1, 325, 32, 356
-0.993309, 129, 253, 192, 284
-0.99331, 157, 389, 188, 420
-0.993316, 1, 229, 32, 260
-0.99332, 129, 405, 256, 436
-0.99332, 269, 125, 300, 156
-0.99332, 345, 413, 375, 444
-0.993322, 129, 461, 256, 492
-0.993322, 1, 305, 64, 336
-0.993401, 313, 273, 375, 336
-0.993458, 273, 401, 304, 464
-0.993475, 81, 249, 208, 312
-0.993476, 329, 225, 344, 288
-0.99351, 113, 337, 176, 400
-0.993538, 137, 257, 200, 500
-0.993601, 49, 465, 176, 496
-0.993632, 65, 441, 192, 472
-0.993638, 301, 305, 332, 432
-0.993664, 245, 305, 276, 432
-0.993671, 49, 1, 176, 256
-0.993684, 241, 57, 368, 120
-0.993701, 49, 337, 176, 400
-0.99374, 137, 249, 200, 312
-0.993744, 129, 193, 375, 256
-0.993765, 261, 145, 292, 272
-0.993794, 165, 217, 196, 280
-0.993818, 193, 305, 224, 432
-0.993867, 209, 289, 240, 416
-0.99387, 129, 365, 256, 396
-0.993877, 261, 337, 292, 400
-0.993934, 185, 329, 248, 392
-0.993938, 209, 353, 224, 416
-0.993941, 1, 257, 128, 384
-0.993951, 285, 249, 316, 312
-0.993972, 49, 217, 176, 280
-0.994015, 105, 257, 168, 320
-0.994023, 1, 289, 64, 416
-0.99404, 129, 437, 256, 468
-0.994107, 129, 377, 256, 408
-0.994108, 129, 225, 192, 288
-0.994111, 49, 421, 176, 452
-0.994134, 289, 305, 320, 432
-0.994144, 177, 241, 304, 304
-0.994146, 209, 329, 240, 392
-0.994173, 345, 65, 375, 192
-0.994189, 1, 129, 128, 192
-0.994253, 129, 449, 256, 480
-0.994264, 273, 321, 336, 384
-0.994264, 241, 109, 368, 140
-0.994271, 49, 381, 176, 412
-0.994335, 305, 129, 336, 192
-0.994363, 337, 369, 352, 432
-0.994415, 305, 161, 336, 224
-0.99443, 193, 65, 320, 128
-0.994436, 217, 225, 280, 288
-0.994472, 129, 257, 375, 384
-0.994516, 149, 433, 164, 496
-0.994532, 129, 249, 375, 312
-0.994619, 129, 421, 256, 452
-0.994633, 241, 1, 304, 256
-0.99464, 33, 353, 288, 416
-0.994666, 49, 393, 176, 424
-0.99469, 241, 369, 368, 400
-0.994718, 289, 33, 320, 160
-0.994736, 113, 257, 240, 384
-0.994797, 1, 361, 375, 424
-0.994799, 49, 409, 176, 440
-0.994801, 97, 393, 224, 424
-0.994822, 203, 361, 218, 424
-0.994828, 285, 393, 316, 456
-0.994871, 341, 225, 356, 288
-0.994906, 277, 289, 308, 416
-0.994922, 329, 257, 360, 384
-0.994939, 1, 305, 16, 368
-0.994945, 181, 337, 212, 400
-0.994969, 301, 385, 332, 448
-0.994976, 81, 369, 208, 400
-0.995002, 221, 329, 252, 392
-0.995006, 343, 353, 358, 416
-0.995033, 185, 369, 200, 432
-0.995038, 257, 305, 288, 432
-0.99507, 1, 417, 375, 480
-0.995116, 19, 201, 34, 264
-0.995155, 337, 409, 368, 472
-0.995157, 233, 329, 264, 392
-0.995164, 91, 425, 106, 488
-0.995168, 277, 49, 308, 176
-0.995183, 215, 353, 230, 416
-0.995222, 209, 429, 336, 460
-0.995228, 197, 361, 212, 424
-0.99524, 241, 357, 368, 388
-0.99527, 109, 425, 124, 488
-0.995285, 345, 161, 375, 224
-0.995298, 141, 321, 172, 448
-0.995308, 241, 417, 368, 448
-0.995309, 337, 81, 368, 144
-0.995373, 1, 185, 375, 248
-0.995397, 97, 121, 352, 184
-0.995411, 113, 385, 128, 448
-0.995425, 305, 433, 368, 496
-0.995443, 343, 393, 358, 456
-0.99545, 163, 433, 178, 496
-0.995503, 149, 401, 164, 464
-0.995509, 175, 417, 190, 480
-0.995536, 303, 345, 318, 408
-0.995539, 17, 453, 144, 484
-0.995546, 331, 249, 346, 312
-0.995548, 41, 321, 104, 448
-0.995557, 333, 97, 364, 352
-0.995572, 1, 225, 32, 288
-0.995572, 223, 409, 238, 472
-0.995577, 157, 417, 172, 480
-0.995592, 325, 249, 340, 312
-0.995599, 169, 417, 184, 480
-0.995605, 335, 225, 350, 288
-0.995626, 241, 121, 368, 152
-0.995628, 83, 417, 98, 480
-0.995634, 97, 425, 112, 488
-0.995637, 285, 321, 316, 384
-0.99565, 245, 417, 260, 480
-0.995721, 13, 177, 44, 240
-0.99574, 49, 353, 112, 416
-0.995753, 25, 217, 88, 280
-0.995755, 1, 113, 32, 240
-0.995756, 143, 417, 158, 480
-0.995756, 169, 209, 200, 336
-0.99576, 321, 217, 336, 280
-0.995763, 225, 97, 288, 224
-0.995773, 231, 417, 246, 480
-0.995814, 313, 257, 344, 500
-0.995823, 257, 145, 288, 208
-0.995904, 185, 249, 248, 312
-0.995908, 349, 377, 364, 440
-0.995925, 121, 377, 136, 440
-0.995953, 51, 433, 66, 496
-0.995968, 329, 177, 360, 240
-0.995976, 313, 33, 344, 160
-0.995978, 185, 417, 200, 480
-0.995982, 57, 369, 88, 432
-0.995983, 157, 353, 172, 416
-0.996001, 325, 257, 356, 500
-0.996008, 119, 425, 134, 488
-0.996015, 241, 141, 368, 172
-0.996021, 249, 329, 280, 392
-0.99604, 345, 97, 375, 352
-0.996042, 157, 377, 172, 440
-0.996047, 145, 209, 272, 336
-0.996068, 317, 169, 348, 232
-0.996072, 167, 353, 182, 416
-0.996083, 305, 321, 336, 384
-0.996094, 325, 409, 340, 472
-0.996121, 295, 353, 310, 416
-0.996139, 311, 409, 326, 472
-0.996141, 175, 361, 190, 424
-0.996178, 169, 273, 232, 400
-0.996179, 331, 345, 346, 408
-0.996212, 259, 353, 274, 416
-0.99622, 225, 405, 352, 436
-0.996224, 129, 169, 375, 232
-0.996248, 301, 33, 332, 160
-0.996254, 17, 437, 144, 468
-0.996259, 281, 361, 296, 424
-0.996268, 145, 361, 160, 424
-0.996268, 241, 209, 368, 240
-0.996278, 9, 137, 40, 200
-0.996279, 331, 369, 346, 432
-0.996301, 299, 417, 314, 480
-0.996302, 223, 353, 238, 416
-0.996302, 129, 377, 144, 440
-0.99631, 99, 401, 114, 464
-0.99631, 313, 209, 328, 272
-0.996322, 167, 377, 182, 440
-0.996328, 177, 417, 304, 448
-0.99633, 245, 353, 260, 416
-0.99633, 319, 249, 334, 312
-0.996343, 239, 393, 254, 456
-0.996343, 241, 1, 368, 128
-0.996365, 273, 361, 288, 424
-0.996373, 323, 369, 338, 432
-0.996383, 1, 81, 128, 208
-0.996406, 251, 353, 266, 416
-0.996408, 265, 353, 280, 416
-0.996417, 135, 361, 150, 424
-0.996445, 13, 233, 44, 296
-0.996446, 313, 65, 344, 320
-0.996446, 315, 345, 330, 408
-0.996446, 239, 433, 254, 496
-0.99645, 175, 385, 190, 448
-0.996457, 307, 177, 322, 240
-0.996465, 313, 65, 344, 128
-0.996466, 7, 313, 22, 376
-0.996475, 129, 217, 375, 280
-0.996484, 353, 217, 368, 280
-0.996492, 129, 337, 375, 400
-0.996493, 299, 201, 314, 264
-0.996503, 325, 345, 340, 408
-0.996508, 87, 393, 102, 456
-0.996511, 293, 65, 324, 320
-0.99652, 317, 409, 332, 472
-0.996522, 279, 113, 294, 176
-0.996523, 13, 193, 28, 256
-0.996527, 105, 1, 168, 500
-0.996536, 1, 465, 128, 496
-0.996556, 65, 129, 192, 192
-0.996559, 295, 161, 310, 224
-0.99657, 217, 409, 232, 472
-0.99657, 301, 257, 332, 500
-0.996589, 317, 137, 348, 200
-0.99659, 33, 249, 160, 312
-0.996612, 225, 433, 240, 496
-0.996621, 317, 185, 332, 248
-0.996635, 191, 369, 206, 432
-0.996639, 251, 393, 266, 456
-0.996643, 359, 201, 374, 264
-0.996644, 1, 129, 16, 192
-0.99665, 193, 1, 320, 128
-0.996653, 81, 249, 144, 312
-0.996672, 273, 241, 304, 304
-0.996683, 317, 369, 332, 432
-0.996708, 11, 169, 26, 232
-0.996711, 261, 425, 276, 488
-0.996722, 169, 209, 232, 336
-0.99673, 287, 361, 302, 424
-0.996733, 333, 417, 348, 480
-0.996761, 1, 305, 32, 432
-0.996762, 107, 377, 122, 440
-0.996764, 129, 97, 375, 160
-0.996768, 347, 225, 362, 288
-0.996787, 273, 113, 288, 176
-0.996836, 337, 345, 352, 408
-0.996837, 1, 225, 128, 288
-0.996846, 241, 221, 368, 252
-0.996865, 283, 153, 298, 216
-0.996876, 237, 353, 252, 416
-0.996882, 257, 49, 288, 176
-0.996884, 11, 217, 26, 280
-0.996885, 305, 409, 320, 472
-0.996891, 241, 153, 368, 184
-0.9969, 211, 401, 226, 464
-0.996907, 129, 249, 256, 312
-0.996913, 161, 393, 288, 424
-0.996914, 301, 169, 316, 232
-0.996915, 305, 257, 336, 384
-0.996924, 241, 381, 368, 412
-0.996936, 209, 377, 224, 440
-0.996957, 221, 289, 252, 416
-0.996959, 307, 209, 322, 272
-0.996967, 255, 425, 270, 488
-0.99697, 203, 385, 218, 448
-0.996971, 211, 433, 226, 496
-0.996971, 287, 177, 302, 240
-0.996972, 1, 137, 375, 200
-0.996984, 193, 329, 224, 392
-0.996986, 97, 145, 352, 208
-0.996999, 57, 433, 72, 496
-0.997, 13, 225, 44, 352
-0.997003, 273, 425, 288, 488
-0.997007, 293, 193, 308, 256
-0.997009, 191, 409, 206, 472
-0.997015, 321, 89, 336, 152
-0.997018, 281, 425, 296, 488
-0.997019, 309, 345, 324, 408
-0.997019, 231, 353, 246, 416
-0.99702, 137, 433, 152, 496
-0.997021, 1, 313, 128, 376
-0.997031, 293, 417, 308, 480
-0.997037, 337, 201, 352, 264
-0.99704, 325, 33, 356, 160
-0.997041, 233, 393, 248, 456
-0.997056, 209, 361, 224, 392
-0.997068, 107, 469, 122, 500
-0.997083, 151, 377, 166, 440
-0.997086, 193, 173, 320, 204
-0.99709, 305, 161, 336, 416
-0.997101, 9, 289, 40, 352
-0.99712, 317, 161, 348, 416
-0.997121, 267, 425, 282, 488
-0.997127, 77, 425, 92, 488
-0.997141, 225, 1, 288, 500
-0.997146, 331, 193, 346, 256
-0.997149, 81, 385, 96, 448
-0.997172, 93, 393, 108, 456
-0.997174, 337, 193, 368, 448
-0.997174, 209, 197, 336, 228
-0.997176, 287, 425, 302, 488
-0.997176, 193, 253, 320, 284
-0.997186, 333, 393, 348, 456
-0.997195, 151, 353, 166, 416
-0.997203, 149, 457, 164, 488
-0.997205, 101, 377, 116, 440
-0.99722, 145, 193, 272, 256
-0.997253, 285, 257, 316, 500
-0.997255, 1, 329, 16, 392
-0.997255, 285, 105, 300, 168
-0.997264, 349, 353, 364, 416
-0.997265, 241, 393, 368, 424
-0.99727, 193, 153, 320, 184
-0.997302, 193, 185, 320, 216
-0.997342, 273, 257, 304, 500
-0.997353, 149, 437, 164, 468
-0.997367, 237, 377, 268, 440
-0.997377, 95, 457, 110, 488
-0.997381, 1, 217, 128, 248
-0.997381, 5, 317, 20, 348
-0.997395, 241, 97, 368, 128
-0.997403, 111, 397, 126, 428
-0.99741, 105, 453, 120, 484
-0.997416, 33, 329, 288, 392
-0.997427, 193, 349, 320, 380
-0.997433, 13, 129, 44, 256
-0.997443, 145, 373, 160, 404
-0.997445, 173, 365, 188, 396
-0.997447, 49, 81, 176, 144
-0.997449, 321, 257, 336, 288
-0.997467, 25, 433, 56, 496
-0.997469, 331, 257, 346, 288
-0.997482, 177, 449, 304, 480
-0.997516, 103, 417, 118, 448
-0.997521, 119, 461, 134, 492
-0.997524, 101, 469, 116, 500
-0.997544, 157, 365, 172, 396
-0.997552, 129, 73, 375, 136
-0.997554, 177, 133, 304, 164
-0.997561, 167, 373, 182, 404
-0.997567, 241, 25, 368, 88
-0.997579, 111, 457, 126, 488
-0.997582, 85, 417, 100, 448
-0.997583, 241, 253, 368, 284
-0.997586, 71, 469, 86, 500
-0.997587, 125, 465, 140, 496
-0.997601, 261, 257, 292, 500
-0.997608, 199, 373, 214, 404
-0.997611, 281, 65, 312, 320
-0.99763, 5, 161, 36, 416
-0.997637, 249, 257, 280, 500
-0.997639, 301, 65, 332, 128
-0.997645, 119, 393, 134, 424
-0.99765, 77, 469, 92, 500
-0.997655, 1, 381, 128, 412
-0.997673, 193, 25, 320, 88
-0.997676, 149, 421, 164, 452
-0.99768, 231, 457, 246, 488
-0.997685, 249, 1, 312, 64
-0.997702, 313, 353, 328, 384
-0.997718, 265, 81, 296, 144
-0.997722, 193, 373, 208, 404
-0.99773, 151, 365, 166, 396
-0.997732, 343, 373, 358, 404
-0.997734, 169, 469, 184, 500
-0.997739, 347, 397, 362, 428
-0.997741, 77, 345, 108, 408
-0.997742, 227, 413, 242, 444
-0.997752, 81, 221, 208, 252
-0.997754, 277, 161, 308, 416
-0.997754, 143, 457, 158, 488
-0.997764, 183, 369, 198, 400
-0.997766, 29, 409, 60, 472
-0.997769, 249, 429, 264, 460
-0.997775, 113, 413, 128, 444
-0.997783, 177, 121, 304, 152
-0.997783, 131, 469, 146, 500
-0.997794, 169, 429, 184, 460
-0.997798, 129, 353, 256, 384
-0.997799, 65, 357, 192, 388
-0.997801, 1, 161, 375, 224
-0.997803, 301, 353, 316, 384
-0.997835, 81, 193, 208, 256
-0.997847, 157, 469, 172, 500
-0.997852, 241, 173, 368, 204
-0.997856, 15, 217, 30, 248
-0.997856, 175, 433, 190, 464
-0.997859, 155, 429, 170, 460
-0.997864, 177, 469, 304, 500
-0.997868, 165, 257, 196, 500
-0.997868, 1, 201, 256, 264
-0.997874, 85, 465, 100, 496
-0.997884, 229, 257, 260, 500
-0.997891, 183, 449, 198, 480
-0.997904, 57, 257, 120, 500
-0.997909, 151, 469, 166, 500
-0.997913, 183, 437, 198, 468
-0.997913, 137, 469, 152, 500
-0.997924, 221, 409, 236, 440
-0.997928, 237, 413, 252, 444
-0.997945, 223, 357, 238, 388
-0.997946, 1, 177, 256, 240
-0.997965, 123, 381, 138, 412
-0.997974, 1, 421, 128, 452
-0.997979, 95, 429, 110, 460
-0.997996, 109, 257, 140, 320
-0.997997, 203, 361, 218, 392
-0.997999, 293, 161, 324, 416
-0.998008, 307, 353, 322, 384
-0.998011, 1, 205, 128, 236
-0.99802, 295, 357, 310, 388
-0.998022, 103, 441, 118, 472
-0.998025, 157, 377, 172, 408
-0.998026, 193, 453, 208, 484
-0.998043, 177, 373, 304, 404
-0.998044, 229, 357, 244, 388
-0.998056, 97, 65, 224, 128
-0.998058, 163, 429, 178, 460
-0.998061, 57, 465, 72, 496
-0.998068, 243, 425, 258, 456
-0.998079, 7, 225, 22, 256
-0.99808, 295, 201, 310, 232
-0.998094, 257, 361, 272, 392
-0.998099, 319, 357, 334, 388
-0.9981, 185, 273, 248, 336
-0.998101, 21, 217, 36, 248
-0.998102, 309, 417, 324, 448
-0.99811, 243, 361, 258, 392
-0.998116, 325, 417, 340, 448
-0.998116, 349, 229, 364, 260
-0.99812, 123, 405, 138, 436
-0.998121, 105, 233, 168, 296
-0.998123, 135, 369, 150, 400
-0.998128, 265, 249, 280, 280
-0.998131, 163, 465, 178, 496
-0.998133, 149, 409, 164, 440
-0.998138, 107, 381, 122, 412
-0.998145, 1, 313, 128, 344
-0.998147, 97, 321, 128, 448
-0.998147, 143, 421, 158, 452
-0.998153, 329, 353, 344, 384
-0.998158, 179, 225, 194, 256
-0.998161, 223, 461, 238, 492
-0.998163, 51, 441, 66, 472
-0.998165, 355, 221, 370, 252
-0.998179, 173, 377, 188, 408
-0.998179, 249, 57, 312, 120
-0.99818, 155, 457, 170, 488
-0.998185, 273, 365, 288, 396
-0.998186, 1, 189, 128, 220
-0.998192, 289, 365, 304, 396
-0.998194, 215, 361, 230, 392
-0.9982, 143, 469, 158, 500
-0.998208, 335, 357, 350, 388
-0.998218, 205, 373, 220, 404
-0.998219, 231, 469, 246, 500
-0.998232, 93, 405, 108, 436
-0.998233, 177, 405, 304, 436
-0.998234, 241, 241, 368, 272
-0.998235, 237, 361, 252, 392
-0.998241, 251, 361, 266, 392
-0.998243, 303, 421, 318, 452
-0.998244, 177, 105, 304, 136
-0.998248, 129, 373, 144, 404
-0.998248, 1, 97, 375, 160
-0.998248, 315, 417, 330, 448
-0.998255, 305, 365, 320, 396
-0.99826, 97, 57, 160, 120
-0.998272, 83, 405, 98, 436
-0.998275, 177, 161, 240, 288
-0.998279, 135, 381, 150, 412
-0.998282, 345, 357, 360, 388
-0.998285, 97, 417, 112, 448
-0.998285, 25, 233, 40, 264
-0.998285, 113, 385, 128, 416
-0.998295, 1, 401, 128, 432
-0.998303, 285, 157, 300, 188
-0.998306, 101, 385, 116, 416
-0.998307, 193, 209, 256, 272
-0.998308, 199, 457, 214, 488
-0.998309, 291, 169, 306, 200
-0.998319, 231, 445, 246, 476
-0.99832, 151, 377, 166, 408
-0.998323, 261, 433, 276, 464
-0.998323, 281, 173, 296, 204
-0.998324, 263, 361, 278, 392
-0.998327, 255, 429, 270, 460
-0.998328, 187, 461, 202, 492
-0.99833, 323, 369, 338, 400
-0.998332, 333, 421, 348, 452
-0.998332, 169, 441, 184, 472
-0.998333, 1, 149, 16, 180
-0.998337, 81, 337, 144, 400
-0.998338, 33, 369, 160, 400
-0.998342, 91, 417, 106, 448
-0.998343, 145, 113, 272, 176
-0.998347, 337, 233, 352, 264
-0.998347, 237, 461, 252, 492
-0.998348, 309, 201, 324, 232
-0.998348, 337, 409, 352, 440
-0.998349, 175, 421, 190, 452
-0.99835, 193, 469, 208, 500
-0.998355, 1, 209, 375, 272
-0.998361, 279, 365, 294, 396
-0.998373, 169, 1, 232, 500
-0.998377, 289, 429, 320, 444
-0.998377, 221, 443, 252, 458
-0.998378, 157, 453, 188, 468
-0.99838, 153, 389, 184, 404
-0.99838, 145, 455, 176, 470
-0.998381, 321, 375, 352, 390
-0.998381, 137, 121, 200, 184
-0.998382, 117, 469, 148, 484
-0.998383, 333, 371, 364, 386
-0.998383, 189, 461, 220, 476
-0.998385, 229, 467, 260, 482
-0.998386, 221, 451, 252, 466
-0.998388, 277, 433, 308, 448
-0.998389, 173, 435, 204, 450
-0.998389, 141, 381, 172, 396
-0.99839, 217, 463, 248, 478
-0.998393, 81, 437, 112, 452
-0.998393, 105, 431, 136, 446
-0.998393, 153, 257, 184, 500
-0.998394, 145, 419, 176, 434
-0.998394, 261, 367, 292, 382
-0.998394, 77, 397, 108, 412
-0.998396, 181, 449, 212, 464
-0.998397, 317, 271, 348, 286
-0.998397, 1, 223, 32, 238
-0.998397, 273, 367, 304, 382
-0.998399, 41, 445, 72, 460
-0.998399, 217, 427, 248, 442
-0.998399, 193, 385, 224, 400
-0.998399, 289, 359, 320, 374
-0.9984, 109, 477, 140, 492
-0.998401, 93, 433, 124, 448
-0.998402, 85, 477, 116, 492
-0.998402, 301, 261, 332, 276
-0.998403, 61, 427, 92, 442
-0.998404, 269, 65, 300, 320
-0.998406, 161, 367, 192, 382
-0.998406, 129, 431, 160, 446
-0.998406, 329, 225, 360, 240
-0.998408, 201, 405, 232, 420
-0.998408, 221, 407, 252, 422
-0.998409, 281, 257, 312, 272
-0.998409, 13, 239, 44, 254
-0.998409, 309, 373, 340, 388
-0.99841, 9, 229, 40, 244
-0.998412, 45, 471, 76, 486
-0.998412, 133, 393, 164, 408
-0.998413, 313, 141, 344, 156
-0.998415, 221, 417, 252, 432
-0.998415, 293, 193, 324, 208
-0.998415, 125, 411, 156, 426
-0.998418, 105, 403, 136, 418
-0.998418, 81, 463, 144, 478
-0.998418, 81, 431, 112, 446
-0.998419, 325, 417, 356, 432
-0.998419, 141, 373, 172, 388
-0.99842, 145, 449, 176, 464
-0.998421, 113, 379, 144, 394
-0.998422, 305, 203, 336, 218
-0.998422, 181, 367, 212, 382
-0.998422, 237, 363, 268, 378
-0.998425, 57, 473, 88, 488
-0.998427, 121, 485, 152, 500
-0.998429, 181, 467, 212, 482
-0.998429, 345, 405, 375, 420
-0.998429, 161, 241, 288, 272
-0.998429, 333, 385, 364, 400
-0.998429, 109, 397, 140, 412
-0.998431, 301, 355, 332, 370
-0.998431, 145, 461, 176, 476
-0.998431, 249, 365, 280, 380
-0.998432, 281, 167, 312, 182
-0.998433, 57, 463, 88, 478
-0.998433, 157, 383, 188, 398
-0.998434, 97, 395, 128, 410
-0.998434, 345, 411, 375, 426
-0.998436, 129, 399, 160, 414
-0.998436, 113, 389, 144, 404
-0.998437, 261, 255, 292, 270
-0.998438, 105, 469, 168, 484
-0.998439, 65, 473, 128, 488
-0.998439, 209, 469, 240, 484
-0.998439, 125, 423, 156, 438
-0.99844, 289, 187, 320, 202
-0.99844, 181, 379, 212, 394
-0.998442, 125, 457, 156, 472
-0.998443, 309, 365, 340, 380
-0.998443, 229, 423, 260, 438
-0.998444, 129, 373, 160, 388
-0.998446, 333, 377, 364, 392
-0.998448, 209, 411, 240, 426
-0.998452, 161, 441, 192, 456
-0.998452, 125, 417, 156, 432
-0.998453, 89, 411, 120, 426
-0.998455, 133, 465, 164, 480
-0.998455, 41, 477, 72, 492
-0.998456, 105, 411, 136, 426
-0.998456, 345, 393, 375, 408
-0.998458, 149, 367, 180, 382
-0.998458, 161, 371, 224, 386
-0.99846, 149, 477, 180, 492
-0.99846, 133, 387, 164, 402
-0.99846, 297, 423, 360, 438
-0.998462, 105, 423, 136, 438
-0.998462, 173, 461, 204, 476
-0.998465, 89, 419, 120, 434
-0.998467, 201, 361, 264, 376
-0.99847, 325, 411, 356, 426
-0.998472, 197, 369, 228, 384
-0.998473, 129, 461, 192, 476
-0.998474, 221, 361, 252, 376
-0.998476, 241, 431, 272, 446
-0.998476, 81, 457, 144, 472
-0.998476, 105, 463, 168, 478
-0.998477, 145, 441, 208, 456
-0.998477, 145, 425, 176, 440
-0.998478, 85, 483, 116, 498
-0.998478, 105, 461, 136, 476
-0.998481, 13, 221, 44, 236
-0.998483, 145, 469, 208, 484
-0.998486, 265, 367, 328, 382
-0.998487, 321, 265, 352, 280
-0.998488, 193, 379, 224, 394
-0.99849, 81, 485, 144, 500
-0.998491, 345, 399, 375, 414
-0.998496, 161, 249, 224, 312
-0.998497, 105, 399, 168, 414
-0.998497, 57, 467, 120, 482
-0.998497, 81, 399, 144, 414
-0.998498, 137, 485, 200, 500
-0.998498, 137, 421, 200, 436
-0.998504, 161, 435, 192, 450
-0.998504, 53, 479, 84, 494
-0.998505, 105, 431, 168, 446
-0.998505, 225, 453, 352, 484
-0.998507, 169, 373, 200, 388
-0.998508, 153, 377, 184, 392
-0.99851, 169, 377, 232, 392
-0.998511, 121, 477, 184, 492
-0.998512, 33, 471, 96, 486
-0.998513, 93, 469, 124, 484
-0.998516, 137, 375, 200, 390
-0.998516, 137, 471, 168, 486
-0.998519, 157, 469, 188, 484
-0.998519, 105, 417, 136, 432
-0.998521, 153, 383, 216, 398
-0.998522, 81, 425, 112, 440
-0.998523, 137, 435, 200, 450
-0.998525, 57, 485, 88, 500
-0.998526, 205, 363, 236, 378
-0.998531, 297, 261, 360, 276
-0.998531, 185, 373, 216, 388
-0.998531, 113, 453, 176, 468
-0.998534, 57, 485, 120, 500
-0.998535, 241, 185, 368, 216
-0.998537, 73, 471, 104, 486
-0.998537, 145, 435, 176, 450
-0.998538, 137, 367, 200, 382
-0.998538, 313, 215, 375, 230
-0.998539, 137, 415, 200, 430
-0.99854, 49, 459, 112, 474
-0.998541, 297, 359, 360, 374
-0.998543, 305, 375, 368, 390
-0.998546, 137, 427, 200, 442
-0.998547, 193, 93, 320, 124
-0.998548, 81, 479, 144, 494
-0.998549, 105, 393, 168, 408
-0.998554, 305, 365, 368, 380
-0.998554, 113, 377, 176, 392
-0.998556, 57, 479, 120, 494
-0.998559, 113, 421, 176, 436
-0.998559, 313, 221, 375, 236
-0.99856, 73, 425, 136, 440
-0.998561, 233, 363, 296, 378
-0.998562, 185, 467, 248, 482
-0.998562, 33, 485, 96, 500
-0.998562, 137, 447, 200, 462
-0.998562, 193, 367, 256, 382
-0.998563, 33, 465, 96, 480
-0.998563, 137, 409, 200, 424
-0.998564, 105, 447, 168, 462
-0.998564, 105, 405, 168, 420
-0.998565, 313, 415, 375, 430
-0.998568, 289, 193, 352, 208
-0.998571, 73, 415, 136, 430
-0.998571, 209, 429, 272, 444
-0.998571, 309, 419, 340, 434
-0.998571, 273, 261, 336, 276
-0.998573, 85, 463, 116, 478
-0.998575, 145, 453, 208, 468
-0.998575, 289, 255, 352, 270
-0.998579, 145, 441, 176, 456
-0.998581, 241, 435, 304, 450
-0.998582, 145, 395, 208, 410
-0.998584, 81, 391, 144, 406
-0.998584, 145, 389, 208, 404
-0.998584, 331, 353, 346, 480
-0.998586, 321, 259, 352, 274
-0.998586, 105, 385, 168, 400
-0.998587, 305, 267, 368, 282
-0.998587, 193, 461, 256, 476
-0.998588, 81, 409, 144, 424
-0.998588, 57, 453, 120, 468
-0.998589, 137, 403, 200, 418
-0.99859, 97, 455, 128, 470
-0.99859, 289, 365, 320, 380
-0.998591, 313, 353, 328, 480
-0.998592, 153, 459, 216, 474
-0.998593, 105, 411, 168, 426
-0.998593, 325, 353, 340, 480
-0.998594, 33, 477, 96, 492
-0.998594, 257, 255, 320, 270
-0.998595, 289, 199, 352, 214
-0.998596, 297, 205, 360, 220
-0.998596, 105, 485, 168, 500
-0.998597, 169, 437, 232, 452
-0.998598, 161, 475, 224, 490
-0.998599, 281, 187, 344, 202
-0.9986, 97, 475, 128, 490
-0.9986, 265, 361, 328, 376
-0.998602, 161, 365, 224, 380
-0.998602, 201, 407, 264, 422
-0.998602, 253, 353, 268, 480
-0.998607, 265, 431, 328, 446
-0.998608, 81, 431, 144, 446
-0.998609, 289, 107, 352, 122
-0.99861, 169, 453, 232, 468
-0.998612, 1, 1, 64, 500
-0.998612, 193, 381, 256, 396
-0.998613, 169, 407, 232, 422
-0.998614, 57, 435, 120, 450
-0.998615, 193, 373, 256, 388
-0.998615, 249, 423, 312, 438
-0.998617, 305, 385, 368, 400
-0.998617, 17, 449, 80, 464
-0.998618, 169, 389, 232, 404
-0.99862, 265, 141, 328, 156
-0.998621, 177, 401, 240, 416
-0.998625, 49, 415, 112, 430
-0.998628, 137, 193, 200, 256
-0.998629, 281, 173, 344, 188
-0.99863, 249, 199, 312, 214
-0.99863, 65, 385, 128, 400
-0.998632, 109, 483, 140, 498
-0.998633, 281, 181, 344, 196
-0.998635, 105, 281, 168, 344
-0.998635, 161, 431, 224, 446
-0.998635, 57, 447, 120, 462
-0.998636, 273, 167, 336, 182
-0.998636, 169, 413, 232, 428
-0.998636, 313, 395, 375, 410
-0.998638, 233, 429, 296, 444
-0.998638, 265, 159, 328, 174
-0.99864, 313, 197, 375, 212
-0.998642, 297, 353, 360, 368
-0.998642, 265, 147, 328, 162
-0.998642, 297, 409, 360, 424
-0.998642, 201, 387, 264, 402
-0.998645, 193, 449, 256, 464
-0.998646, 289, 429, 352, 444
-0.998646, 9, 467, 72, 482
-0.998646, 1, 329, 64, 344
-0.998647, 319, 353, 334, 480
-0.998648, 193, 417, 256, 432
-0.998648, 313, 227, 375, 242
-0.998649, 265, 133, 328, 148
-0.99865, 193, 435, 256, 450
-0.99865, 265, 127, 328, 142
-0.998652, 273, 249, 336, 264
-0.998653, 81, 225, 144, 288
-0.998653, 289, 227, 352, 242
-0.998654, 129, 383, 192, 398
-0.998654, 17, 455, 80, 470
-0.998655, 105, 441, 168, 456
-0.99866, 233, 255, 296, 270
-0.99866, 169, 445, 232, 460
-0.99866, 257, 207, 320, 222
-0.998662, 307, 353, 322, 480
-0.998672, 151, 369, 166, 496
-0.998684, 263, 353, 278, 480
-0.998698, 1, 177, 128, 208
-0.998708, 299, 353, 314, 480
-0.998716, 233, 337, 248, 464
-0.998725, 269, 353, 284, 480
-0.998729, 81, 257, 208, 288
-0.99874, 337, 353, 352, 480
-0.998749, 281, 433, 344, 496
-0.99875, 275, 353, 290, 480
-0.998756, 343, 353, 358, 480
-0.998759, 81, 273, 208, 336
-0.998766, 283, 353, 298, 480
-0.99877, 289, 353, 304, 480
-0.998781, 223, 337, 238, 464
-0.998789, 245, 353, 260, 480
-0.998791, 193, 353, 208, 480
-0.998793, 217, 337, 232, 464
-0.998799, 327, 209, 342, 336
-0.998807, 157, 369, 172, 496
-0.998807, 217, 201, 280, 264
-0.998813, 241, 81, 368, 112
-0.998815, 283, 97, 298, 224
-0.998821, 241, 265, 368, 296
-0.998824, 211, 353, 226, 480
-0.998837, 163, 353, 178, 480
-0.998854, 1, 225, 64, 352
-0.998865, 239, 337, 254, 464
-0.99887, 289, 273, 352, 336
-0.998874, 193, 257, 224, 500
-0.998878, 183, 353, 198, 480
-0.998898, 321, 193, 336, 320
-0.9989, 1, 229, 128, 260
-0.998924, 217, 257, 248, 500
-0.998927, 1, 257, 32, 500
-0.998927, 1, 153, 128, 184
-0.998928, 173, 369, 188, 496
-0.998943, 49, 105, 176, 168
-0.998956, 1, 165, 128, 196
-0.998966, 79, 369, 94, 496
-0.998981, 177, 257, 208, 500
-0.998982, 241, 273, 368, 336
-0.998983, 241, 345, 368, 376
-0.998985, 145, 353, 160, 480
-0.998991, 277, 97, 292, 224
-0.999015, 125, 369, 140, 496
-0.999016, 199, 353, 214, 480
-0.999021, 311, 193, 326, 320
-0.999034, 9, 161, 24, 288
-0.999036, 225, 441, 352, 472
-0.99905, 353, 209, 368, 336
-0.999052, 103, 369, 118, 496
-0.999067, 1, 105, 128, 168
-0.999086, 81, 129, 208, 160
-0.999087, 1, 129, 16, 256
-0.999088, 161, 221, 288, 252
-0.99909, 205, 353, 220, 480
-0.999101, 305, 193, 320, 320
-0.999115, 1, 141, 128, 172
-0.99912, 295, 193, 310, 320
-0.999134, 289, 97, 304, 224
-0.999142, 193, 209, 320, 336
-0.999145, 359, 113, 374, 240
-0.999147, 333, 209, 348, 336
-0.999149, 361, 193, 375, 320
-0.999151, 13, 257, 44, 500
-0.999155, 301, 145, 316, 272
-0.999159, 293, 145, 308, 272
-0.999163, 345, 209, 360, 336
-0.999163, 65, 281, 128, 344
-0.999166, 329, 1, 360, 256
-0.999178, 257, 25, 320, 88
-0.999189, 241, 69, 368, 100
-0.999195, 225, 1, 352, 64
-0.999209, 287, 145, 302, 272
-0.999213, 295, 97, 310, 224
-0.999214, 109, 369, 124, 496
-0.999236, 93, 369, 108, 496
-0.999248, 115, 369, 130, 496
-0.999252, 15, 177, 30, 304
-0.999253, 1, 345, 128, 408
-0.999255, 339, 209, 354, 336
-0.99927, 97, 233, 224, 264
-0.999273, 309, 81, 324, 208
-0.999279, 1, 65, 32, 320
-0.999279, 87, 369, 102, 496
-0.999281, 225, 273, 288, 336
-0.999282, 321, 81, 336, 208
-0.999291, 129, 49, 375, 112
-0.999296, 73, 369, 88, 496
-0.999304, 321, 273, 336, 400
-0.999308, 1, 325, 128, 356
-0.99931, 193, 209, 320, 240
-0.999319, 345, 1, 375, 256
-0.999332, 333, 273, 348, 400
-0.99934, 281, 161, 296, 288
-0.999344, 131, 353, 146, 480
-0.999345, 321, 145, 336, 272
-0.999346, 155, 321, 170, 448
-0.999354, 257, 65, 288, 320
-0.999357, 125, 257, 156, 500
-0.999362, 271, 113, 286, 240
-0.999366, 313, 145, 328, 272
-0.999378, 353, 113, 368, 240
-0.999396, 145, 253, 272, 284
-0.999402, 327, 273, 342, 400
-0.999403, 341, 305, 356, 432
-0.999406, 139, 369, 154, 496
-0.999411, 315, 81, 330, 208
-0.999413, 1, 289, 256, 352
-0.999415, 343, 97, 358, 224
-0.999418, 33, 249, 288, 312
-0.99942, 173, 321, 188, 448
-0.999423, 327, 81, 342, 208
-0.999429, 349, 353, 364, 480
-0.99943, 1, 209, 16, 336
-0.999444, 301, 97, 316, 224
-0.999453, 21, 193, 36, 320
-0.999456, 349, 161, 364, 288
-0.999475, 327, 145, 342, 272
-0.999493, 79, 321, 94, 448
-0.999498, 3, 289, 18, 416
-0.999498, 335, 161, 350, 288
-0.999499, 225, 465, 352, 496
-0.999501, 21, 145, 36, 272
-0.999513, 81, 129, 144, 192
-0.999514, 129, 1, 192, 500
-0.999518, 333, 81, 348, 208
-0.999521, 349, 65, 364, 192
-0.999523, 207, 305, 222, 432
-0.999523, 249, 1, 312, 128
-0.999523, 343, 161, 358, 288
-0.999524, 201, 305, 216, 432
-0.999524, 289, 193, 304, 320
-0.999524, 307, 145, 322, 272
-0.999526, 313, 305, 328, 432
-0.999532, 1, 153, 256, 216
-0.999536, 7, 209, 22, 336
-0.999538, 305, 305, 320, 432
-0.999546, 355, 161, 370, 288
-0.999552, 247, 305, 262, 432
-0.999556, 81, 305, 144, 368
-0.999564, 271, 65, 286, 192
-0.999566, 237, 289, 252, 416
-0.999566, 161, 313, 224, 376
-0.999566, 227, 289, 242, 416
-0.999568, 1, 353, 128, 384
-0.999587, 167, 305, 182, 432
-0.999588, 105, 257, 136, 500
-0.999593, 167, 371, 182, 386
-0.999593, 145, 383, 160, 398
-0.999593, 123, 391, 138, 406
-0.999594, 81, 413, 96, 428
-0.999594, 85, 461, 100, 476
-0.999594, 157, 477, 172, 492
-0.999595, 33, 265, 160, 296
-0.999595, 85, 403, 100, 418
-0.999595, 169, 477, 184, 492
-0.999595, 121, 407, 136, 422
-0.999597, 117, 459, 132, 474
-0.999597, 163, 469, 178, 484
-0.999598, 231, 407, 246, 422
-0.999598, 157, 371, 172, 386
-0.999598, 121, 415, 136, 430
-0.999598, 143, 433, 158, 448
-0.999598, 151, 379, 166, 394
-0.999599, 239, 361, 254, 376
-0.9996, 285, 167, 300, 182
-0.9996, 145, 371, 160, 386
-0.9996, 255, 433, 270, 448
-0.9996, 65, 245, 192, 276
-0.999601, 109, 395, 124, 410
-0.999601, 49, 225, 176, 352
-0.999601, 109, 455, 124, 470
-0.999602, 155, 441, 170, 456
-0.999603, 345, 403, 360, 418
-0.999603, 107, 429, 122, 444
-0.999603, 175, 367, 190, 382
-0.999603, 127, 375, 142, 390
-0.999604, 333, 423, 348, 438
-0.999604, 157, 383, 172, 398
-0.999604, 103, 467, 118, 482
-0.999606, 187, 305, 202, 432
-0.999606, 57, 475, 72, 490
-0.999606, 263, 365, 278, 380
-0.999606, 111, 417, 126, 432
-0.999609, 299, 427, 314, 442
-0.999609, 161, 305, 176, 432
-0.99961, 23, 239, 38, 254
-0.99961, 7, 321, 22, 336
-0.999611, 181, 435, 196, 450
-0.999611, 95, 479, 110, 494
-0.999614, 347, 305, 362, 432
-0.999614, 273, 367, 288, 382
-0.999614, 33, 57, 160, 120
-0.999615, 149, 427, 164, 442
-0.999615, 343, 377, 358, 392
-0.999615, 237, 417, 252, 432
-0.999615, 167, 435, 182, 450
-0.999617, 117, 425, 132, 440
-0.999617, 183, 459, 198, 474
-0.999617, 79, 399, 94, 414
-0.999617, 87, 431, 102, 446
-0.999617, 97, 465, 112, 480
-0.999617, 185, 373, 200, 388
-0.999617, 109, 405, 124, 420
-0.999618, 305, 423, 320, 438
-0.999619, 295, 361, 310, 376
-0.999619, 185, 367, 200, 382
-0.999619, 233, 361, 248, 376
-0.999619, 333, 261, 348, 276
-0.999619, 225, 419, 240, 434
-0.999621, 89, 473, 104, 488
-0.999621, 205, 385, 220, 400
-0.999621, 115, 397, 130, 412
-0.999621, 205, 257, 236, 500
-0.999622, 315, 419, 330, 434
-0.999622, 105, 417, 120, 432
-0.999623, 89, 397, 104, 412
-0.999623, 173, 435, 188, 450
-0.999623, 163, 475, 178, 490
-0.999623, 299, 305, 314, 432
-0.999623, 257, 305, 272, 432
-0.999624, 179, 225, 194, 240
-0.999624, 25, 233, 40, 248
-0.999625, 103, 485, 118, 500
-0.999625, 17, 219, 32, 234
-0.999625, 289, 365, 304, 380
-0.999625, 265, 253, 280, 268
-0.999626, 139, 463, 154, 478
-0.999626, 59, 485, 74, 500
-0.999626, 105, 473, 120, 488
-0.999626, 345, 385, 360, 400
-0.999626, 313, 361, 328, 376
-0.999627, 199, 385, 214, 400
-0.999628, 355, 65, 370, 192
-0.999628, 149, 419, 164, 434
-0.999629, 121, 397, 136, 412
-0.999629, 325, 419, 340, 434
-0.999629, 339, 49, 354, 176
-0.99963, 183, 451, 198, 466
-0.999631, 157, 377, 172, 392
-0.999632, 277, 305, 292, 432
-0.999633, 269, 305, 284, 432
-0.999634, 97, 471, 112, 486
-0.999636, 15, 225, 30, 352
-0.999637, 145, 377, 160, 392
-0.999637, 111, 411, 126, 426
-0.999637, 223, 359, 238, 374
-0.999638, 263, 305, 278, 432
-0.999639, 293, 289, 308, 416
-0.999639, 199, 367, 214, 382
-0.999641, 327, 255, 342, 270
-0.999642, 145, 209, 272, 240
-0.999642, 135, 371, 150, 386
-0.999643, 149, 463, 164, 478
-0.999643, 15, 237, 30, 252
-0.999643, 147, 447, 162, 462
-0.999643, 213, 289, 228, 416
-0.999644, 101, 321, 116, 448
-0.999644, 221, 413, 236, 428
-0.999645, 143, 469, 158, 484
-0.999647, 123, 321, 138, 448
-0.999647, 111, 485, 126, 500
-0.999648, 181, 209, 212, 336
-0.99965, 301, 359, 316, 374
-0.99965, 91, 459, 106, 474
-0.99965, 193, 371, 208, 386
-0.999651, 249, 429, 264, 444
-0.999651, 75, 471, 90, 486
-0.999651, 155, 471, 170, 486
-0.999652, 147, 305, 162, 432
-0.999654, 161, 435, 176, 450
-0.999655, 287, 305, 302, 432
-0.999655, 193, 265, 320, 296
-0.999656, 105, 479, 120, 494
-0.999659, 305, 17, 320, 144
-0.99966, 231, 465, 246, 480
-0.99966, 221, 407, 236, 422
-0.999661, 219, 289, 234, 416
-0.999664, 191, 457, 206, 472
-0.999667, 149, 455, 164, 470
-0.999668, 127, 485, 142, 500
-0.999669, 97, 433, 112, 448
-0.999671, 205, 379, 220, 394
-0.999672, 303, 365, 318, 380
-0.999672, 111, 475, 126, 490
-0.999677, 149, 469, 164, 484
-0.999678, 185, 209, 200, 336
-0.999682, 83, 425, 98, 440
-0.999682, 7, 113, 22, 240
-0.999685, 227, 413, 242, 428
-0.999687, 279, 49, 294, 176
-0.999688, 67, 479, 82, 494
-0.999691, 231, 459, 246, 474
-0.999691, 353, 305, 368, 432
-0.999691, 9, 305, 24, 432
-0.999691, 167, 377, 182, 392
-0.999692, 109, 321, 124, 448
-0.999693, 83, 467, 98, 482
-0.999693, 149, 435, 164, 450
-0.999694, 195, 379, 210, 394
-0.999697, 161, 49, 288, 80
-0.999699, 121, 483, 136, 498
-0.9997, 73, 485, 88, 500
-0.999701, 83, 419, 98, 434
-0.999702, 1, 81, 16, 208
-0.999704, 173, 373, 188, 388
-0.999707, 193, 305, 208, 432
-0.999708, 315, 257, 330, 384
-0.999711, 193, 81, 320, 112
-0.999713, 155, 435, 170, 450
-0.999713, 321, 261, 336, 276
-0.999714, 103, 453, 118, 468
-0.999715, 209, 363, 224, 378
-0.999735, 81, 269, 208, 300
-0.999738, 1, 129, 128, 160
-0.999739, 149, 441, 164, 456
-0.99975, 81, 209, 208, 240
-0.999767, 199, 373, 214, 388
-0.999767, 1, 301, 128, 332
-0.999783, 1, 249, 128, 280
-0.999789, 129, 269, 256, 300
-0.99979, 17, 161, 48, 416
-0.999811, 241, 53, 368, 84
-0.999813, 113, 41, 240, 104
-0.999818, 225, 29, 352, 60
-0.999821, 177, 65, 304, 96
-0.999838, 1, 225, 256, 288
-0.999857, 97, 105, 224, 168
-0.999863, 49, 77, 176, 108
-0.999865, 137, 257, 168, 500
-0.999891, 225, 41, 352, 72
-0.99991, 265, 161, 296, 416
-0.999938, 1, 337, 375, 400
-0.999946, 161, 1, 288, 64
-0.999948, 13, 65, 44, 320
-0.999958, 97, 77, 224, 108
-0.999983, 49, 233, 176, 264
-0.999983, 225, 17, 352, 48
-0.999999, 113, 65, 240, 96
-1.00001, 113, 341, 240, 372
-1.00003, 129, 121, 256, 152
-1.00003, 297, 41, 360, 104
-1.00003, 129, 25, 375, 88
-1.00004, 81, 281, 208, 312
-1.00016, 225, 1, 352, 32
-1.00016, 161, 37, 288, 68
-1.00019, 33, 117, 160, 148
-1.0002, 129, 289, 256, 320
-1.00026, 73, 1, 136, 500
-1.00028, 89, 257, 120, 500
-1.00029, 177, 9, 304, 40
-1.00031, 241, 277, 368, 308
-1.00031, 137, 73, 200, 136
-1.00032, 97, 297, 352, 360
-1.00033, 241, 289, 368, 320
-1.00035, 49, 89, 176, 120
-1.00037, 217, 105, 280, 168
-1.00038, 17, 65, 144, 96
-1.00038, 65, 345, 192, 376
-1.00039, 177, 301, 304, 332
-1.00039, 341, 257, 372, 384
-1.0004, 93, 129, 124, 384
-1.0004, 177, 21, 304, 52
-1.00043, 97, 89, 224, 120
-1.00044, 97, 53, 224, 84
-1.00047, 49, 101, 176, 132
-1.00048, 129, 109, 256, 140
-1.00048, 129, 189, 256, 220
-1.0005, 1, 341, 128, 372
-1.0005, 33, 281, 160, 312
-1.00051, 233, 257, 296, 384
-1.00051, 81, 293, 208, 324
-1.00057, 77, 257, 108, 500
-1.00057, 1, 73, 375, 136
-1.00058, 193, 1, 256, 500
-1.00059, 225, 161, 256, 416
-1.00059, 105, 65, 136, 320
-1.0006, 65, 313, 192, 376
-1.0006, 37, 369, 68, 496
-1.00061, 49, 369, 80, 496
-1.00062, 57, 233, 120, 296
-1.00064, 253, 97, 284, 224
-1.00072, 129, 169, 256, 232
-1.00076, 29, 257, 60, 500
-1.00077, 57, 257, 88, 500
-1.00079, 165, 161, 196, 416
-1.00085, 245, 33, 276, 288
-1.00085, 129, 65, 160, 320
-1.00085, 149, 161, 180, 416
-1.00087, 33, 97, 288, 160
-1.0009, 129, 273, 256, 336
-1.0009, 29, 129, 60, 384
-1.00093, 1, 73, 256, 136
-1.00094, 201, 177, 264, 304
-1.00097, 97, 1, 352, 64
-1.00097, 129, 273, 375, 336
-1.00098, 169, 185, 232, 248
-1.00099, 105, 161, 136, 416
-1.00103, 177, 161, 208, 416
-1.00104, 81, 97, 112, 352
-1.00108, 117, 1, 148, 256
-1.00111, 117, 97, 148, 352
-1.00116, 1, 249, 375, 312
-1.00116, 141, 65, 172, 320
-1.00117, 237, 161, 268, 416
-1.00118, 1, 129, 256, 192
-1.00118, 133, 161, 164, 416
-1.0012, 93, 33, 124, 288
-1.00122, 213, 97, 244, 352
-1.00124, 13, 273, 44, 400
-1.0013, 249, 161, 280, 416
-1.00131, 157, 65, 188, 320
-1.00132, 41, 257, 72, 500
-1.00133, 193, 185, 256, 248
-1.00133, 169, 65, 200, 320
-1.00136, 81, 1, 112, 256
-1.00136, 33, 33, 160, 96
-1.00138, 233, 65, 264, 320
-1.00139, 69, 97, 100, 352
-1.0014, 189, 97, 220, 352
-1.00141, 45, 161, 76, 416
-1.00143, 33, 33, 288, 96
-1.00144, 105, 81, 168, 208
-1.00144, 29, 33, 60, 288
-1.00146, 81, 257, 144, 500
-1.00149, 129, 137, 256, 200
-1.00153, 25, 369, 88, 496
-1.00155, 217, 1, 248, 256
-1.00155, 57, 129, 88, 384
-1.00159, 49, 177, 176, 304
-1.00161, 57, 321, 88, 448
-1.00165, 45, 65, 76, 320
-1.00165, 225, 49, 288, 112
-1.00166, 273, 193, 304, 320
-1.00168, 201, 97, 232, 352
-1.00174, 189, 1, 220, 256
-1.00175, 29, 161, 60, 288
-1.00178, 65, 169, 192, 232
-1.00179, 113, 185, 176, 248
-1.00179, 69, 1, 100, 256
-1.00181, 201, 1, 232, 256
-1.00182, 209, 305, 336, 368
-1.00182, 57, 33, 88, 288
-1.00182, 73, 97, 136, 160
-1.00186, 157, 209, 188, 336
-1.00188, 137, 225, 168, 352
-1.0019, 1, 65, 32, 192
-1.00193, 81, 17, 208, 80
-1.00195, 161, 297, 288, 360
-1.00195, 153, 273, 184, 400
-1.00197, 1, 9, 256, 72
-1.00201, 1, 313, 375, 376
-1.00204, 13, 321, 44, 448
-1.00204, 33, 329, 96, 392
-1.00208, 33, 193, 96, 256
-1.00211, 17, 385, 80, 448
-1.00213, 201, 297, 264, 360
-1.00221, 97, 161, 224, 288
-1.00231, 193, 273, 320, 336
-1.00236, 1, 353, 32, 480
-1.00237, 145, 97, 208, 160
-1.00239, 1, 41, 375, 104
-1.0024, 137, 161, 200, 288
-1.00243, 105, 209, 168, 272
-1.00249, 113, 241, 144, 368
-1.0025, 137, 49, 200, 112
-1.00251, 97, 97, 160, 352
-1.00251, 1, 289, 375, 352
-1.00253, 121, 209, 184, 336
-1.00255, 25, 1, 88, 500
-1.00256, 201, 225, 264, 352
-1.00264, 113, 49, 240, 176
-1.00269, 233, 177, 264, 304
-1.00274, 69, 321, 100, 448
-1.00276, 49, 1, 112, 500
-1.00285, 289, 1, 352, 64
-1.00288, 33, 9, 160, 72
-1.0029, 209, 25, 272, 88
-1.00292, 57, 305, 120, 368
-1.00306, 153, 273, 216, 336
-1.0031, 25, 369, 56, 496
-1.00317, 49, 81, 176, 208
-1.00317, 1, 257, 32, 384
-1.00323, 129, 273, 160, 400
-1.00324, 233, 209, 296, 336
-1.00332, 129, 273, 192, 336
-1.00344, 233, 177, 296, 240
-1.00345, 73, 65, 136, 128
-1.00349, 113, 305, 240, 368
-1.00356, 49, 273, 112, 400
-1.00359, 1, 17, 375, 80
-1.00362, 125, 81, 156, 208
-1.00362, 81, 273, 144, 400
-1.00365, 197, 209, 228, 336
-1.00374, 101, 209, 132, 336
-1.00387, 193, 257, 224, 384
-1.0039, 233, 257, 264, 384
-1.0039, 285, 225, 316, 352
-1.00393, 217, 1, 280, 256
-1.00396, 193, 257, 320, 384
-1.004, 217, 209, 248, 336
-1.00409, 97, 257, 128, 384
-1.00417, 1, 1, 64, 256
-1.00417, 149, 161, 180, 288
-1.00422, 33, 257, 96, 500
-1.00422, 125, 225, 156, 352
-1.00429, 137, 161, 200, 416
-1.00432, 129, 65, 192, 192
-1.00448, 13, 81, 44, 208
-1.00453, 41, 321, 72, 448
-1.00454, 25, 209, 56, 336
-1.00465, 113, 65, 144, 192
-1.00469, 277, 1, 308, 128
-1.00469, 97, 113, 224, 240
-1.00472, 341, 17, 372, 144
-1.00472, 1, 97, 256, 224
-1.00473, 141, 273, 172, 400
-1.00473, 245, 49, 276, 176
-1.00489, 25, 129, 88, 384
-1.0049, 1, 81, 128, 144
-1.0049, 161, 161, 192, 288
-1.0049, 181, 161, 212, 288
-1.00503, 89, 209, 120, 336
-1.00505, 113, 193, 144, 320
-1.00518, 181, 257, 212, 384
-1.00523, 137, 65, 168, 192
-1.00523, 145, 65, 272, 128
-1.00526, 97, 225, 160, 352
-1.00527, 57, 97, 120, 352
-1.0053, 69, 257, 100, 384
-1.00532, 217, 161, 248, 288
-1.00534, 185, 161, 248, 416
-1.00545, 245, 209, 276, 336
-1.00574, 237, 1, 268, 128
-1.0058, 137, 177, 168, 304
-1.00596, 97, 65, 128, 192
-1.00605, 113, 17, 144, 144
-1.00611, 105, 1, 168, 256
-1.00617, 237, 129, 268, 256
-1.00617, 33, 33, 160, 160
-1.00621, 77, 209, 108, 336
-1.00625, 261, 193, 292, 320
-1.0063, 137, 65, 200, 320
-1.00639, 249, 161, 280, 288
-1.00643, 33, 49, 288, 176
-1.00652, 97, 177, 160, 304
-1.00668, 73, 225, 136, 352
-1.00681, 25, 177, 88, 304
-1.00688, 49, 129, 176, 256
-1.00705, 209, 1, 272, 128
-1.00711, 113, 1, 240, 128
-1.00737, 97, 33, 160, 160
-1.00747, 25, 225, 88, 352
-1.00749, 145, 113, 272, 240
-1.00784, 177, 65, 240, 320
-1.00786, 33, 1, 288, 128
-1.00801, 217, 49, 280, 176
-1.00802, 137, 17, 200, 144
-1.00807, 81, 1, 144, 256
-1.00873, 217, 97, 280, 352
-1.00877, 129, 257, 192, 384
-1.00886, 49, 1, 112, 256
-1.00935, 81, 97, 144, 224
-1.00951, 161, 161, 224, 416
-1.00978, 49, 161, 112, 288
-1.00987, 49, 209, 112, 336
-1.0099, 25, 33, 88, 288
-1.01002, 257, 257, 320, 384
-1.01038, 161, 113, 224, 240
-1.01039, 73, 49, 136, 176
-1.01068, 25, 273, 88, 400
-1.01097, 105, 129, 168, 256
-1.01142, 73, 177, 136, 304
-1.01188, 129, 113, 192, 240
-1.01243, 49, 113, 112, 240
-1.01308, 201, 97, 264, 224
-1.01328, 185, 33, 248, 160
-1.01354, 65, 1, 128, 128
-1.01354, 41, 65, 104, 192
-1.01371, 161, 33, 224, 160
-1.01458, 1, 1, 64, 128
-1.01478, 33, 17, 96, 144
-1.09698, 1, 1, 256, 256
