1958
-0.29875, 1, 1, 500, 375
-0.355222, 65, 1, 320, 375
-0.376236, 1, 129, 500, 375
-0.391635, 1, 33, 500, 288
-0.413091, 65, 65, 320, 320
-0.426455, 161, 1, 416, 375
-0.538024, 225, 97, 480, 352
-0.623424, 257, 1, 500, 375
-0.69673, 161, 1, 416, 256
-0.811642, 113, 33, 240, 288
-0.815882, 113, 1, 240, 375
-0.836322, 177, 97, 304, 352
-0.861589, 225, 97, 352, 352
-0.862909, 257, 1, 384, 375
-0.865316, 273, 65, 400, 320
-0.867326, 193, 1, 320, 375
-0.870173, 97, 129, 224, 375
-0.871161, 257, 1, 500, 256
-0.872083, 33, 97, 160, 352
-0.872608, 1, 241, 500, 368
-0.877055, 1, 49, 500, 176
-0.882007, 305, 1, 432, 375
-0.882499, 65, 97, 320, 224
-0.886238, 17, 1, 144, 375
-0.888223, 1, 161, 500, 288
-0.888987, 177, 1, 304, 256
-0.889622, 225, 1, 352, 256
-0.88975, 1, 145, 256, 272
-0.891152, 1, 97, 500, 224
-0.896247, 321, 33, 448, 288
-0.896682, 225, 177, 480, 304
-0.900982, 1, 49, 256, 176
-0.902223, 97, 49, 352, 176
-0.902729, 1, 1, 500, 128
-0.904642, 17, 1, 144, 256
-0.907123, 161, 97, 416, 224
-0.910338, 65, 193, 320, 320
-0.914408, 97, 145, 352, 272
-0.914933, 337, 129, 464, 375
-0.915424, 113, 65, 240, 192
-0.916809, 369, 1, 496, 375
-0.920957, 33, 129, 160, 256
-0.923993, 65, 1, 192, 375
-0.927099, 129, 129, 256, 256
-0.927483, 177, 97, 304, 224
-0.931239, 289, 177, 416, 304
-0.931677, 209, 161, 336, 288
-0.932811, 225, 241, 480, 368
-0.93499, 137, 1, 200, 128
-0.937053, 1, 1, 256, 128
-0.939104, 1, 225, 128, 352
-0.940125, 193, 129, 256, 256
-0.940341, 33, 241, 288, 368
-0.940565, 233, 97, 296, 224
-0.940697, 257, 129, 500, 256
-0.941954, 225, 113, 352, 240
-0.942571, 1, 177, 128, 304
-0.943269, 97, 177, 160, 304
-0.943425, 161, 65, 224, 192
-0.944184, 129, 1, 384, 128
-0.945282, 193, 81, 256, 208
-0.946625, 81, 177, 208, 304
-0.946743, 193, 49, 448, 176
-0.947823, 145, 1, 272, 128
-0.949085, 321, 49, 384, 176
-0.949134, 193, 177, 256, 304
-0.949432, 265, 161, 328, 288
-0.949446, 225, 177, 288, 304
-0.949945, 337, 177, 400, 304
-0.949981, 193, 145, 256, 208
-0.950723, 137, 49, 200, 112
-0.950779, 305, 241, 432, 368
-0.951082, 369, 1, 496, 256
-0.951145, 273, 81, 400, 208
-0.951197, 97, 17, 224, 144
-0.951344, 161, 177, 288, 304
-0.95159, 113, 113, 176, 240
-0.952236, 161, 73, 224, 136
-0.952454, 289, 129, 416, 256
-0.952848, 225, 33, 352, 160
-0.954399, 297, 177, 360, 304
-0.954426, 201, 89, 264, 152
-0.954812, 33, 81, 160, 208
-0.954941, 225, 1, 480, 128
-0.955278, 153, 145, 216, 272
-0.955649, 177, 49, 304, 176
-0.956279, 121, 49, 184, 176
-0.956946, 97, 177, 160, 240
-0.957296, 193, 33, 256, 160
-0.957326, 193, 121, 256, 184
-0.95741, 241, 209, 368, 336
-0.957836, 193, 193, 256, 256
-0.958133, 161, 1, 224, 128
-0.958178, 89, 225, 152, 352
-0.958918, 113, 145, 176, 208
-0.959231, 137, 169, 200, 232
-0.959618, 65, 1, 192, 256
-0.960487, 281, 97, 344, 224
-0.960636, 1, 81, 64, 208
-0.960691, 97, 217, 160, 280
-0.961159, 81, 129, 208, 256
-0.961546, 361, 241, 424, 368
-0.962114, 17, 33, 144, 160
-0.962499, 233, 105, 296, 168
-0.962623, 337, 129, 464, 256
-0.962678, 121, 161, 184, 288
-0.96304, 1, 209, 64, 272
-0.963244, 217, 193, 280, 256
-0.963314, 1, 193, 64, 320
-0.963508, 89, 129, 152, 256
-0.964218, 321, 65, 384, 128
-0.964233, 265, 177, 328, 240
-0.964326, 65, 225, 192, 352
-0.964329, 161, 153, 224, 216
-0.964462, 337, 177, 464, 304
-0.964888, 193, 169, 256, 232
-0.965151, 129, 1, 192, 64
-0.965455, 113, 73, 240, 136
-0.965968, 1, 185, 64, 248
-0.966271, 313, 185, 376, 248
-0.966521, 121, 89, 184, 152
-0.967005, 201, 65, 264, 128
-0.967285, 153, 1, 216, 256
-0.967427, 113, 1, 176, 128
-0.967617, 321, 49, 448, 176
-0.967683, 225, 153, 288, 216
-0.96773, 113, 161, 144, 288
-0.967793, 129, 169, 256, 232
-0.967903, 161, 1, 224, 64
-0.968423, 241, 1, 304, 128
-0.968475, 13, 209, 44, 272
-0.968719, 321, 129, 384, 256
-0.968971, 33, 153, 160, 216
-0.969011, 361, 113, 424, 240
-0.969025, 249, 209, 312, 336
-0.969155, 113, 177, 144, 240
-0.969217, 113, 97, 240, 160
-0.969547, 177, 153, 304, 216
-0.969752, 177, 105, 304, 168
-0.969759, 321, 89, 384, 152
-0.969998, 121, 33, 184, 288
-0.970088, 97, 145, 224, 208
-0.970163, 25, 177, 88, 304
-0.970185, 225, 129, 288, 192
-0.970352, 189, 73, 220, 136
-0.970464, 257, 113, 320, 240
-0.970659, 337, 1, 464, 128
-0.971078, 233, 49, 296, 176
-0.971156, 185, 65, 216, 192
-0.971169, 209, 177, 336, 240
-0.971174, 225, 97, 288, 352
-0.971205, 161, 177, 224, 240
-0.971434, 193, 217, 256, 280
-0.971783, 313, 33, 376, 288
-0.971795, 145, 1, 176, 128
-0.971828, 1, 257, 128, 320
-0.971959, 185, 225, 248, 352
-0.972011, 201, 97, 264, 352
-0.97207, 113, 113, 176, 176
-0.972105, 361, 273, 424, 336
-0.972341, 177, 225, 304, 352
-0.972474, 33, 177, 160, 240
-0.972589, 41, 129, 104, 256
-0.972652, 161, 121, 224, 184
-0.972739, 113, 121, 240, 184
-0.972751, 281, 97, 344, 352
-0.972773, 1, 233, 128, 296
-0.972837, 345, 217, 408, 280
-0.972934, 1, 209, 128, 272
-0.97295, 1, 65, 64, 320
-0.973007, 361, 33, 424, 160
-0.973072, 273, 209, 336, 336
-0.973543, 129, 193, 192, 256
-0.97355, 165, 1, 196, 128
-0.973589, 33, 121, 160, 184
-0.973675, 129, 241, 384, 368
-0.973765, 209, 225, 272, 352
-0.97385, 369, 225, 496, 352
-0.973851, 161, 97, 224, 160
-0.973949, 145, 169, 176, 232
-0.973988, 113, 49, 240, 112
-0.974012, 289, 185, 352, 248
-0.974143, 241, 209, 304, 272
-0.974186, 9, 113, 72, 176
-0.97423, 177, 201, 304, 264
-0.97433, 361, 249, 424, 312
-0.974378, 97, 129, 160, 375
-0.974398, 337, 193, 400, 256
-0.974441, 29, 97, 60, 224
-0.974856, 129, 193, 256, 256
-0.974902, 1, 281, 128, 344
-0.975478, 289, 217, 352, 280
-0.97549, 137, 145, 200, 208
-0.97555, 33, 97, 160, 160
-0.975603, 1, 305, 128, 368
-0.975608, 241, 17, 304, 80
-0.975614, 177, 129, 304, 192
-0.975777, 25, 201, 88, 264
-0.976051, 177, 81, 304, 144
-0.976163, 17, 129, 80, 256
-0.976278, 257, 185, 384, 248
-0.976315, 33, 169, 96, 232
-0.976322, 217, 217, 280, 280
-0.976329, 161, 193, 224, 320
-0.97639, 89, 241, 152, 304
-0.976436, 73, 313, 136, 375
-0.976454, 161, 49, 224, 112
-0.976586, 225, 113, 352, 176
-0.976943, 81, 273, 144, 336
-0.977261, 201, 41, 264, 104
-0.977274, 361, 121, 424, 184
-0.977297, 137, 1, 168, 64
-0.977299, 313, 225, 376, 288
-0.977393, 169, 49, 200, 112
-0.977603, 329, 129, 392, 375
-0.977713, 177, 65, 240, 320
-0.977764, 101, 217, 132, 280
-0.977773, 25, 225, 88, 352
-0.977868, 265, 209, 328, 272
-0.977976, 257, 97, 320, 352
-0.978033, 133, 1, 164, 128
-0.978051, 277, 145, 308, 272
-0.978232, 41, 137, 104, 200
-0.97827, 161, 1, 288, 64
-0.978308, 121, 113, 152, 240
-0.978417, 361, 193, 424, 320
-0.97851, 321, 225, 384, 352
-0.97855, 289, 217, 416, 280
-0.978719, 169, 1, 200, 64
-0.9788, 305, 193, 432, 256
-0.978814, 113, 57, 176, 120
-0.978931, 305, 241, 432, 304
-0.979058, 297, 225, 360, 352
-0.979214, 181, 169, 212, 232
-0.979357, 161, 145, 192, 208
-0.97946, 225, 73, 352, 136
-0.97951, 113, 1, 240, 64
-0.979531, 73, 153, 136, 216
-0.979716, 241, 217, 368, 280
-0.979722, 161, 33, 288, 96
-0.979753, 257, 233, 320, 296
-0.979754, 205, 145, 236, 272
-0.979923, 241, 105, 272, 168
-0.979988, 257, 177, 288, 304
-0.980022, 157, 1, 188, 64
-0.980082, 237, 97, 268, 224
-0.980091, 257, 113, 320, 176
-0.980121, 81, 169, 208, 232
-0.980202, 129, 1, 192, 375
-0.98024, 133, 161, 164, 224
-0.980309, 101, 193, 132, 320
-0.98042, 157, 41, 188, 104
-0.980546, 9, 193, 40, 320
-0.980625, 137, 161, 168, 288
-0.980685, 305, 73, 432, 136
-0.980693, 385, 177, 448, 304
-0.980704, 137, 25, 200, 88
-0.980706, 229, 161, 260, 288
-0.980712, 65, 241, 128, 368
-0.980731, 73, 193, 136, 256
-0.980811, 25, 129, 88, 375
-0.980861, 281, 113, 344, 176
-0.980894, 297, 161, 328, 288
-0.980986, 1, 65, 32, 128
-0.981234, 17, 73, 144, 136
-0.981352, 273, 105, 400, 168
-0.981395, 25, 241, 88, 304
-0.981396, 273, 33, 400, 160
-0.981423, 353, 169, 416, 232
-0.981451, 1, 233, 64, 296
-0.981645, 361, 65, 424, 128
-0.981677, 321, 249, 384, 312
-0.981717, 17, 273, 80, 336
-0.98177, 321, 161, 384, 224
-0.98186, 225, 137, 352, 200
-0.981892, 9, 305, 72, 368
-0.981902, 265, 145, 328, 208
-0.981965, 313, 1, 376, 375
-0.982124, 241, 185, 304, 248
-0.982236, 317, 177, 348, 304
-0.982255, 25, 209, 56, 272
-0.982325, 237, 129, 268, 192
-0.982376, 153, 1, 216, 375
-0.982377, 337, 177, 368, 304
-0.982461, 125, 185, 156, 248
-0.982519, 305, 265, 432, 328
-0.98256, 65, 257, 192, 320
-0.982607, 257, 241, 384, 304
-0.982621, 145, 41, 176, 104
-0.982676, 169, 209, 232, 272
-0.982681, 361, 97, 424, 160
-0.982714, 201, 209, 232, 272
-0.98286, 377, 225, 440, 288
-0.982864, 201, 1, 264, 256
-0.982888, 177, 1, 208, 128
-0.982929, 81, 105, 144, 168
-0.982982, 185, 241, 248, 304
-0.98305, 381, 249, 412, 312
-0.983112, 9, 137, 72, 200
-0.983181, 33, 121, 64, 184
-0.983346, 81, 225, 208, 288
-0.983362, 181, 33, 212, 96
-0.983477, 233, 1, 296, 256
-0.983483, 401, 241, 464, 368
-0.983513, 177, 25, 240, 88
-0.983514, 97, 249, 128, 312
-0.983546, 81, 193, 208, 256
-0.983575, 353, 129, 416, 375
-0.983613, 93, 241, 124, 368
-0.983637, 49, 273, 112, 336
-0.983638, 1, 209, 32, 272
-0.983647, 161, 57, 288, 120
-0.983685, 121, 137, 152, 200
-0.983726, 1, 89, 64, 152
-0.98377, 329, 1, 392, 128
-0.983833, 225, 25, 352, 88
-0.983859, 73, 177, 136, 304
-0.983863, 289, 161, 416, 224
-0.983889, 97, 65, 160, 192
-0.984039, 305, 129, 368, 375
-0.984059, 233, 81, 296, 144
-0.984063, 153, 97, 216, 352
-0.984113, 185, 145, 216, 208
-0.984366, 133, 57, 164, 120
-0.984372, 57, 233, 120, 296
-0.984374, 229, 193, 260, 256
-0.984419, 369, 297, 432, 360
-0.98443, 225, 49, 352, 112
-0.98444, 89, 281, 120, 344
-0.984447, 233, 41, 296, 104
-0.984454, 45, 129, 76, 256
-0.984513, 337, 161, 464, 224
-0.984532, 125, 65, 156, 192
-0.984576, 105, 1, 168, 64
-0.984612, 125, 161, 156, 288
-0.984725, 209, 241, 272, 304
-0.984741, 305, 113, 336, 240
-0.984787, 41, 305, 104, 368
-0.984825, 341, 185, 372, 248
-0.984828, 233, 1, 296, 375
-0.98483, 181, 145, 212, 272
-0.984836, 281, 241, 344, 304
-0.984861, 353, 41, 416, 104
-0.984869, 297, 177, 328, 240
-0.984879, 201, 1, 264, 64
-0.984882, 137, 193, 168, 256
-0.984923, 377, 201, 440, 264
-0.984924, 305, 289, 432, 352
-0.984948, 5, 49, 36, 176
-0.98499, 353, 145, 416, 208
-0.985199, 1, 161, 64, 224
-0.985279, 169, 49, 200, 176
-0.985319, 293, 97, 324, 224
-0.985345, 189, 17, 220, 144
-0.985414, 205, 137, 236, 200
-0.985428, 273, 177, 304, 240
-0.985447, 365, 161, 396, 288
-0.985462, 9, 233, 40, 296
-0.985474, 25, 225, 56, 352
-0.985486, 149, 145, 180, 272
-0.985516, 249, 17, 280, 144
-0.985565, 329, 185, 360, 248
-0.985646, 65, 313, 192, 375
-0.985713, 349, 49, 380, 176
-0.985723, 349, 177, 380, 304
-0.985734, 101, 145, 132, 272
-0.985847, 85, 305, 116, 368
-0.985877, 337, 217, 464, 280
-0.985918, 33, 177, 64, 304
-0.985948, 101, 193, 132, 256
-0.985979, 233, 161, 264, 224
-0.986013, 337, 137, 464, 200
-0.986101, 289, 161, 352, 224
-0.986289, 89, 73, 152, 136
-0.986297, 337, 113, 464, 176
-0.986298, 289, 137, 416, 200
-0.98652, 241, 81, 272, 144
-0.986601, 1, 161, 256, 224
-0.986634, 313, 185, 344, 248
-0.98664, 17, 185, 48, 248
-0.986703, 1, 1, 64, 375
-0.986725, 369, 241, 496, 304
-0.986848, 361, 185, 392, 248
-0.986869, 129, 225, 256, 352
-0.98688, 333, 65, 364, 128
-0.986885, 249, 9, 280, 72
-0.986899, 361, 33, 424, 288
-0.98691, 17, 65, 48, 192
-0.986925, 381, 225, 412, 352
-0.986936, 65, 105, 320, 168
-0.986956, 1, 129, 256, 192
-0.987037, 193, 225, 320, 288
-0.987065, 337, 1, 400, 375
-0.987071, 205, 185, 236, 248
-0.987132, 309, 217, 340, 280
-0.987201, 393, 265, 456, 328
-0.987205, 113, 225, 144, 288
-0.987217, 65, 289, 192, 352
-0.987238, 201, 193, 232, 320
-0.987254, 65, 49, 192, 112
-0.987281, 1, 73, 256, 136
-0.987326, 253, 201, 284, 264
-0.987327, 201, 1, 264, 375
-0.987389, 337, 33, 400, 288
-0.987399, 353, 265, 480, 328
-0.987444, 225, 1, 352, 64
-0.987445, 105, 1, 168, 375
-0.987468, 297, 49, 360, 176
-0.987486, 205, 97, 236, 224
-0.987497, 193, 145, 224, 272
-0.987573, 337, 49, 464, 112
-0.987623, 29, 185, 60, 248
-0.987731, 49, 137, 80, 200
-0.987757, 17, 57, 80, 120
-0.987867, 273, 33, 336, 160
-0.987874, 97, 33, 160, 288
-0.987942, 369, 209, 400, 272
-0.988002, 109, 153, 140, 216
-0.988031, 277, 97, 308, 224
-0.988054, 41, 113, 104, 176
-0.988089, 285, 209, 316, 336
-0.988218, 409, 313, 472, 375
-0.988262, 369, 17, 400, 144
-0.988343, 193, 157, 256, 188
-0.988359, 177, 73, 208, 136
-0.988378, 137, 49, 200, 80
-0.988386, 45, 169, 76, 232
-0.988412, 217, 177, 248, 304
-0.988417, 249, 273, 312, 336
-0.988431, 349, 65, 380, 128
-0.988448, 369, 193, 496, 256
-0.988475, 181, 1, 212, 64
-0.988492, 317, 97, 348, 224
-0.9885, 289, 25, 352, 88
-0.988604, 369, 49, 496, 176
-0.988618, 289, 113, 320, 176
-0.988653, 1, 213, 64, 244
-0.988671, 261, 177, 292, 240
-0.988697, 33, 81, 96, 144
-0.988763, 193, 121, 256, 152
-0.988766, 193, 169, 256, 200
-0.988833, 193, 1, 224, 64
-0.988916, 193, 145, 256, 176
-0.988939, 125, 97, 156, 160
-0.989007, 281, 73, 344, 136
-0.989008, 125, 209, 156, 272
-0.989019, 97, 185, 160, 216
-0.989047, 321, 33, 384, 96
-0.989068, 353, 73, 480, 136
-0.989081, 161, 77, 224, 108
-0.989086, 121, 129, 184, 375
-0.98909, 5, 185, 36, 248
-0.989097, 161, 177, 224, 208
-0.989113, 289, 1, 352, 375
-0.989131, 265, 97, 296, 224
-0.989157, 113, 169, 176, 200
-0.989202, 97, 193, 352, 256
-0.989374, 193, 109, 256, 140
-0.989374, 193, 133, 256, 164
-0.989383, 137, 173, 200, 204
-0.989384, 157, 169, 188, 232
-0.989407, 209, 233, 240, 296
-0.989412, 225, 185, 480, 248
-0.989437, 21, 145, 52, 272
-0.989441, 97, 153, 352, 216
-0.989457, 321, 137, 384, 200
-0.989487, 201, 161, 232, 224
-0.989502, 161, 165, 224, 196
-0.989551, 1, 185, 256, 248
-0.989551, 73, 81, 136, 208
-0.989614, 201, 97, 264, 128
-0.989635, 129, 217, 256, 280
-0.989674, 237, 49, 268, 176
-0.989721, 225, 129, 288, 160
-0.989725, 153, 1, 216, 32
-0.989726, 217, 161, 248, 224
-0.989798, 97, 221, 160, 252
-0.989817, 205, 89, 236, 152
-0.989823, 149, 145, 180, 208
-0.98984, 1, 241, 64, 368
-0.989848, 293, 209, 324, 272
-0.989884, 169, 169, 200, 232
-0.98989, 233, 113, 296, 144
-0.989902, 361, 1, 424, 375
-0.989906, 205, 113, 236, 176
-0.989918, 185, 217, 248, 248
-0.989927, 329, 49, 360, 176
-0.989944, 37, 209, 68, 272
-0.989999, 89, 33, 152, 96
-0.990079, 1, 201, 64, 232
-0.990081, 353, 129, 384, 256
-0.990113, 201, 85, 264, 116
-0.990145, 357, 241, 388, 304
-0.990164, 21, 297, 52, 360
-0.990169, 225, 225, 480, 288
-0.99017, 161, 233, 224, 296
-0.990177, 325, 225, 356, 352
-0.990208, 49, 97, 112, 352
-0.990216, 213, 209, 244, 272
-0.990239, 193, 181, 256, 212
-0.990242, 345, 217, 376, 280
-0.990249, 401, 289, 464, 352
-0.990278, 217, 205, 280, 236
-0.990323, 137, 185, 200, 216
-0.990335, 193, 205, 256, 236
-0.99034, 273, 225, 304, 352
-0.990364, 121, 93, 184, 124
-0.990368, 65, 73, 192, 136
-0.990377, 225, 165, 288, 196
-0.990377, 217, 221, 280, 252
-0.990425, 245, 33, 276, 96
-0.990427, 401, 305, 432, 368
-0.990484, 89, 1, 152, 128
-0.990497, 161, 113, 416, 176
-0.9905, 377, 177, 440, 240
-0.990516, 225, 217, 256, 280
-0.990517, 201, 73, 264, 104
-0.99052, 313, 189, 376, 220
-0.990531, 169, 41, 232, 72
-0.990534, 241, 221, 304, 252
-0.990542, 137, 49, 168, 176
-0.990549, 257, 89, 320, 152
-0.990562, 161, 137, 224, 168
-0.990563, 129, 61, 192, 92
-0.990563, 289, 145, 320, 208
-0.99058, 17, 81, 48, 144
-0.990587, 9, 33, 72, 160
-0.990599, 289, 225, 352, 256
-0.990606, 97, 197, 160, 228
-0.99061, 409, 1, 472, 128
-0.990619, 285, 177, 316, 240
-0.990634, 113, 145, 176, 176
-0.990651, 337, 193, 400, 224
-0.990697, 225, 193, 288, 224
-0.99071, 29, 233, 60, 296
-0.990723, 305, 113, 336, 176
-0.990747, 241, 25, 304, 56
-0.990748, 41, 81, 104, 208
-0.99075, 365, 49, 396, 112
-0.990792, 129, 1, 192, 32
-0.990811, 97, 209, 160, 240
-0.990816, 193, 193, 256, 224
-0.99082, 321, 69, 384, 100
-0.990824, 17, 49, 144, 112
-0.990824, 189, 105, 220, 168
-0.990839, 377, 177, 408, 304
-0.990842, 169, 25, 200, 88
-0.990844, 257, 181, 320, 212
-0.990847, 209, 233, 272, 264
-0.990862, 321, 97, 384, 128
-0.990866, 65, 1, 192, 64
-0.990872, 273, 209, 304, 272
-0.990879, 197, 233, 228, 296
-0.990888, 369, 97, 400, 224
-0.990922, 185, 229, 248, 260
-0.990927, 345, 249, 408, 280
-0.990949, 121, 81, 184, 112
-0.990949, 97, 65, 352, 128
-0.990983, 113, 133, 176, 164
-0.991005, 265, 213, 328, 244
-0.991021, 321, 313, 448, 375
-0.991026, 361, 1, 424, 64
-0.991053, 65, 217, 320, 280
-0.991062, 265, 225, 328, 256
-0.991065, 105, 157, 168, 188
-0.991066, 297, 209, 328, 336
-0.991104, 161, 89, 224, 120
-0.991106, 305, 113, 368, 176
-0.991115, 225, 181, 288, 212
-0.99114, 321, 85, 384, 116
-0.991155, 345, 237, 408, 268
-0.991177, 1, 189, 64, 220
-0.99118, 425, 1, 488, 64
-0.991191, 217, 129, 248, 192
-0.991209, 161, 153, 224, 184
-0.991221, 161, 125, 224, 156
-0.991245, 177, 1, 240, 375
-0.99125, 89, 233, 152, 264
-0.991258, 297, 237, 360, 268
-0.991265, 113, 201, 144, 264
-0.991276, 29, 257, 60, 320
-0.991325, 81, 129, 144, 192
-0.991326, 361, 281, 424, 312
-0.991361, 1, 49, 256, 112
-0.991395, 225, 137, 480, 200
-0.991437, 281, 185, 344, 216
-0.991461, 321, 225, 352, 288
-0.991478, 225, 153, 288, 184
-0.991482, 81, 277, 144, 308
-0.991489, 345, 221, 408, 252
-0.99151, 113, 109, 176, 140
-0.991511, 9, 125, 72, 156
-0.991513, 41, 137, 104, 168
-0.99153, 113, 121, 176, 152
-0.991533, 257, 117, 320, 148
-0.991545, 33, 197, 96, 228
-0.991549, 73, 289, 104, 352
-0.991552, 77, 265, 108, 328
-0.991558, 1, 233, 64, 264
-0.991558, 369, 261, 432, 292
-0.991565, 265, 1, 328, 375
-0.991591, 81, 265, 144, 296
-0.991609, 33, 177, 96, 208
-0.991615, 241, 233, 304, 264
-0.991635, 25, 221, 88, 252
-0.991664, 161, 101, 224, 132
-0.991676, 137, 37, 200, 68
-0.991676, 81, 301, 144, 332
-0.991677, 73, 317, 136, 348
-0.991679, 89, 253, 152, 284
-0.991689, 225, 273, 352, 336
-0.99169, 73, 165, 136, 196
-0.991723, 329, 177, 392, 208
-0.991736, 201, 61, 264, 92
-0.991738, 301, 241, 332, 304
-0.991753, 313, 225, 376, 256
-0.991757, 161, 65, 224, 96
-0.99176, 41, 149, 104, 180
-0.991787, 177, 241, 240, 272
-0.991798, 345, 209, 408, 240
-0.991806, 233, 101, 296, 132
-0.991824, 25, 209, 88, 240
-0.991825, 81, 289, 144, 320
-0.991825, 381, 225, 412, 288
-0.991826, 81, 117, 144, 148
-0.991826, 9, 145, 72, 176
-0.991834, 225, 141, 288, 172
-0.99186, 353, 161, 384, 224
-0.991864, 9, 345, 72, 375
-0.991876, 241, 209, 304, 240
-0.991884, 225, 161, 480, 224
-0.991888, 321, 9, 384, 72
-0.991906, 161, 113, 224, 144
-0.991921, 41, 161, 104, 192
-0.991921, 361, 125, 424, 156
-0.991936, 213, 225, 244, 352
-0.991938, 89, 77, 152, 108
-0.991958, 161, 189, 224, 220
-0.99196, 337, 25, 464, 88
-0.991963, 161, 161, 192, 288
-0.991977, 9, 157, 72, 188
-0.991978, 25, 237, 88, 268
-0.991979, 17, 301, 80, 332
-0.99198, 1, 57, 500, 120
-0.991997, 273, 105, 304, 168
-0.992012, 257, 133, 320, 164
-0.992023, 137, 97, 200, 224
-0.992033, 25, 257, 88, 288
-0.992034, 329, 281, 392, 344
-0.992042, 129, 205, 192, 236
-0.992043, 369, 233, 400, 296
-0.992044, 73, 213, 136, 244
-0.992047, 1, 113, 64, 144
-0.992059, 297, 281, 360, 344
-0.992065, 209, 245, 272, 276
-0.992067, 241, 13, 304, 44
-0.992077, 353, 181, 416, 212
-0.992077, 313, 209, 376, 240
-0.992112, 41, 313, 104, 344
-0.992121, 189, 77, 220, 108
-0.992122, 273, 1, 336, 256
-0.992123, 81, 129, 144, 160
-0.992129, 73, 329, 136, 360
-0.992154, 361, 293, 424, 324
-0.992161, 9, 317, 72, 348
-0.992195, 17, 273, 80, 304
-0.992195, 57, 233, 120, 264
-0.992205, 161, 249, 288, 312
-0.992206, 137, 161, 200, 192
-0.992208, 209, 9, 272, 40
-0.992215, 17, 289, 80, 320
-0.992217, 389, 273, 420, 336
-0.992221, 33, 101, 96, 132
-0.992262, 393, 129, 456, 375
-0.992269, 225, 273, 288, 336
-0.992274, 117, 209, 148, 336
-0.992301, 145, 173, 176, 204
-0.992302, 225, 249, 480, 312
-0.992302, 149, 97, 180, 224
-0.992321, 181, 173, 212, 204
-0.992355, 417, 57, 480, 120
-0.992362, 9, 213, 40, 244
-0.992364, 257, 225, 288, 288
-0.992418, 81, 241, 112, 368
-0.992424, 113, 81, 240, 112
-0.992448, 1, 185, 500, 248
-0.992453, 125, 185, 156, 216
-0.992494, 105, 221, 136, 252
-0.992506, 21, 217, 52, 248
-0.992512, 17, 229, 48, 260
-0.992517, 113, 181, 144, 212
-0.992518, 189, 209, 220, 272
-0.992521, 129, 177, 256, 208
-0.992524, 157, 45, 188, 76
-0.992541, 121, 217, 184, 280
-0.992612, 129, 189, 256, 220
-0.992618, 157, 177, 188, 208
-0.992633, 185, 161, 216, 192
-0.992658, 177, 41, 208, 72
-0.992658, 1, 69, 32, 100
-0.992667, 133, 173, 164, 204
-0.992678, 169, 165, 200, 196
-0.992721, 433, 1, 496, 128
-0.992726, 409, 65, 472, 192
-0.992741, 273, 273, 336, 336
-0.992742, 1, 161, 500, 224
-0.992751, 241, 109, 272, 140
-0.992758, 49, 177, 112, 304
-0.992758, 97, 161, 224, 192
-0.99277, 113, 101, 240, 132
-0.992796, 337, 1, 464, 64
-0.992805, 161, 89, 416, 152
-0.992805, 105, 209, 136, 240
-0.992808, 141, 189, 172, 220
-0.992848, 33, 49, 64, 176
-0.992853, 145, 45, 176, 76
-0.992854, 189, 193, 220, 320
-0.992859, 245, 57, 276, 120
-0.99286, 237, 125, 268, 156
-0.992863, 33, 129, 64, 160
-0.992864, 265, 217, 296, 248
-0.992865, 229, 105, 260, 168
-0.992869, 257, 225, 288, 352
-0.992873, 381, 261, 412, 292
-0.992877, 317, 185, 348, 216
-0.992883, 33, 141, 160, 172
-0.992891, 249, 21, 280, 52
-0.992892, 333, 209, 364, 272
-0.992899, 205, 157, 236, 188
-0.992906, 313, 225, 344, 256
-0.992909, 233, 241, 296, 304
-0.992914, 33, 241, 288, 304
-0.992925, 253, 105, 284, 168
-0.992928, 137, 5, 168, 36
-0.992932, 169, 181, 200, 212
-0.992943, 1, 273, 500, 336
-0.992952, 161, 1, 192, 32
-0.992963, 289, 225, 320, 256
-0.992966, 145, 149, 272, 180
-0.992967, 253, 217, 284, 248
-0.992977, 333, 189, 364, 220
-0.992977, 113, 169, 144, 200
-0.992981, 237, 153, 268, 184
-0.992981, 25, 197, 56, 228
-0.992996, 169, 65, 200, 96
-0.993018, 177, 1, 208, 32
-0.99302, 17, 169, 144, 200
-0.993022, 121, 209, 184, 336
-0.993022, 133, 205, 164, 236
-0.993027, 345, 193, 376, 224
-0.99303, 1, 229, 32, 260
-0.993041, 277, 225, 308, 256
-0.993044, 325, 229, 356, 260
-0.993047, 85, 309, 116, 340
-0.99305, 117, 209, 148, 240
-0.99305, 129, 41, 384, 104
-0.993054, 97, 253, 128, 284
-0.993062, 101, 233, 132, 264
-0.993072, 229, 201, 260, 232
-0.993076, 201, 169, 232, 200
-0.993077, 369, 193, 400, 224
-0.993077, 21, 109, 52, 140
-0.993077, 109, 197, 140, 228
-0.993081, 217, 173, 248, 204
-0.993091, 93, 277, 124, 308
-0.993094, 129, 89, 160, 120
-0.993095, 33, 209, 64, 240
-0.993096, 333, 1, 364, 128
-0.9931, 177, 169, 304, 200
-0.993105, 185, 149, 216, 180
-0.993116, 121, 133, 152, 164
-0.993116, 13, 93, 44, 124
-0.993118, 149, 5, 180, 36
-0.993119, 89, 297, 120, 328
-0.993124, 1, 241, 32, 368
-0.993124, 209, 229, 240, 260
-0.993129, 133, 77, 164, 108
-0.993131, 197, 237, 228, 268
-0.993138, 225, 161, 256, 192
-0.993146, 189, 93, 220, 124
-0.993151, 277, 137, 308, 200
-0.993151, 301, 185, 332, 216
-0.993154, 145, 161, 176, 192
-0.993154, 5, 81, 36, 112
-0.993159, 113, 69, 240, 100
-0.99316, 117, 157, 148, 188
-0.99316, 233, 189, 264, 220
-0.993163, 101, 173, 132, 204
-0.993164, 289, 181, 320, 212
-0.993165, 285, 213, 316, 244
-0.993165, 97, 145, 224, 176
-0.993176, 333, 65, 364, 96
-0.993178, 257, 229, 288, 260
-0.993182, 301, 221, 332, 252
-0.993183, 209, 241, 240, 272
-0.993184, 137, 57, 168, 88
-0.993184, 41, 197, 72, 228
-0.993184, 125, 117, 156, 148
-0.993187, 201, 205, 232, 236
-0.993188, 373, 241, 404, 272
-0.993193, 93, 265, 124, 296
-0.993194, 205, 101, 236, 132
-0.993195, 237, 141, 268, 172
-0.993199, 157, 161, 188, 192
-0.993201, 45, 185, 76, 216
-0.993203, 49, 153, 80, 184
-0.993204, 189, 1, 220, 32
-0.993204, 205, 113, 236, 144
-0.993204, 117, 145, 148, 176
-0.993205, 249, 9, 280, 40
-0.993213, 209, 89, 240, 120
-0.993213, 117, 221, 148, 252
-0.993213, 81, 337, 112, 368
-0.993214, 45, 173, 76, 204
-0.993214, 53, 141, 84, 172
-0.993222, 337, 229, 368, 260
-0.993224, 169, 53, 200, 84
-0.993225, 33, 237, 64, 268
-0.993231, 345, 65, 376, 96
-0.993233, 181, 185, 212, 216
-0.993234, 209, 217, 240, 248
-0.993236, 205, 133, 236, 164
-0.993237, 273, 181, 304, 212
-0.993238, 81, 325, 112, 356
-0.993239, 153, 149, 184, 180
-0.993245, 1, 241, 500, 304
-0.993245, 33, 221, 64, 252
-0.993248, 357, 193, 388, 224
-0.993249, 225, 213, 256, 244
-0.993253, 125, 105, 156, 136
-0.993255, 165, 33, 196, 64
-0.993256, 161, 81, 192, 112
-0.993258, 181, 65, 212, 96
-0.993259, 61, 345, 92, 375
-0.99326, 205, 145, 236, 176
-0.993265, 365, 181, 396, 212
-0.993269, 329, 241, 360, 272
-0.99327, 377, 153, 440, 216
-0.993272, 253, 205, 284, 236
-0.993274, 209, 249, 336, 312
-0.993275, 253, 97, 284, 224
-0.993282, 241, 97, 272, 128
-0.993283, 197, 225, 228, 256
-0.993283, 73, 289, 104, 320
-0.99329, 1, 297, 500, 360
-0.993291, 13, 345, 44, 375
-0.9933, 93, 213, 124, 244
-0.993304, 273, 117, 304, 148
-0.993305, 189, 105, 220, 136
-0.99331, 165, 141, 196, 172
-0.993311, 221, 121, 252, 152
-0.993329, 393, 49, 456, 112
-0.993334, 217, 1, 280, 128
-0.993348, 121, 1, 152, 128
-0.993397, 337, 113, 400, 176
-0.993408, 85, 233, 116, 296
-0.993425, 33, 117, 160, 148
-0.993439, 147, 161, 162, 224
-0.993455, 337, 129, 368, 256
-0.993478, 133, 113, 164, 240
-0.993478, 373, 185, 404, 248
-0.993497, 49, 25, 176, 88
-0.993542, 109, 97, 140, 224
-0.993561, 1, 253, 128, 284
-0.993627, 289, 25, 416, 88
-0.99363, 65, 1, 320, 64
-0.993637, 177, 129, 304, 160
-0.993675, 177, 205, 304, 236
-0.993675, 1, 233, 128, 264
-0.993682, 113, 129, 240, 160
-0.993698, 225, 81, 256, 144
-0.993707, 27, 209, 42, 272
-0.993752, 177, 113, 304, 144
-0.993784, 193, 65, 448, 128
-0.993789, 205, 49, 236, 176
-0.99381, 369, 121, 400, 184
-0.99382, 353, 289, 480, 352
-0.99383, 113, 25, 240, 88
-0.993847, 33, 129, 160, 160
-0.993878, 201, 73, 216, 136
-0.993878, 209, 181, 336, 212
-0.993904, 73, 313, 104, 375
-0.99391, 33, 153, 160, 184
-0.993918, 1, 281, 128, 312
-0.993923, 225, 281, 480, 344
-0.993928, 113, 113, 240, 144
-0.993931, 1, 269, 128, 300
-0.993974, 349, 225, 380, 352
-0.994, 53, 81, 84, 208
-0.994027, 177, 193, 304, 224
-0.994033, 129, 201, 256, 232
-0.994034, 405, 257, 436, 320
-0.994053, 309, 225, 340, 352
-0.994056, 33, 185, 160, 216
-0.994078, 289, 1, 416, 64
-0.994106, 1, 213, 128, 244
-0.99416, 1, 293, 128, 324
-0.994162, 161, 97, 192, 224
-0.994176, 1, 209, 500, 272
-0.994237, 245, 177, 276, 304
-0.99424, 209, 217, 336, 248
-0.994243, 1, 281, 256, 344
-0.994246, 297, 137, 360, 200
-0.99426, 1, 137, 500, 200
-0.994264, 1, 321, 128, 352
-0.994267, 225, 33, 480, 96
-0.994278, 209, 65, 240, 128
-0.994299, 389, 201, 420, 264
-0.994302, 1, 313, 256, 375
-0.994331, 385, 129, 448, 256
-0.994383, 385, 129, 448, 192
-0.994428, 17, 93, 144, 124
-0.994432, 257, 113, 500, 176
-0.99445, 393, 225, 424, 288
-0.994451, 425, 25, 488, 88
-0.994452, 401, 1, 464, 375
-0.994455, 173, 145, 204, 208
-0.994464, 193, 141, 320, 172
-0.994474, 33, 105, 160, 136
-0.994485, 113, 57, 240, 88
-0.994506, 1, 309, 128, 340
-0.994522, 401, 81, 464, 144
-0.994529, 81, 177, 208, 208
-0.994537, 209, 229, 336, 260
-0.994557, 5, 1, 36, 128
-0.994587, 97, 161, 128, 224
-0.994593, 89, 209, 120, 272
-0.994631, 369, 313, 496, 375
-0.994668, 289, 233, 320, 296
-0.994683, 401, 105, 464, 168
-0.994691, 113, 1, 240, 32
-0.994707, 289, 225, 416, 256
-0.994719, 225, 113, 352, 144
-0.99475, 159, 1, 174, 64
-0.994752, 43, 121, 58, 184
-0.99476, 21, 105, 52, 168
-0.994768, 19, 209, 34, 272
-0.994773, 1, 81, 500, 144
-0.994795, 289, 189, 416, 220
-0.994826, 393, 241, 424, 368
-0.994871, 357, 209, 388, 272
-0.994891, 1, 333, 128, 364
-0.994906, 139, 177, 154, 240
-0.994918, 69, 225, 100, 352
-0.994945, 421, 305, 452, 368
-0.994965, 161, 41, 288, 72
-0.994973, 369, 265, 400, 328
-0.99498, 177, 273, 304, 336
-0.995008, 193, 101, 320, 132
-0.995038, 241, 225, 272, 352
-0.995044, 389, 145, 420, 272
-0.995048, 321, 161, 352, 224
-0.995059, 241, 241, 368, 272
-0.995064, 181, 57, 196, 120
-0.995076, 161, 81, 192, 144
-0.995099, 1, 113, 500, 176
-0.995112, 353, 89, 384, 152
-0.995136, 165, 1, 180, 64
-0.995166, 13, 209, 28, 272
-0.995167, 131, 185, 146, 248
-0.995169, 17, 201, 144, 232
-0.995179, 305, 241, 432, 272
-0.995185, 217, 65, 248, 192
-0.995196, 153, 1, 168, 64
-0.995197, 115, 169, 130, 232
-0.995211, 147, 1, 162, 64
-0.995254, 243, 113, 258, 176
-0.995277, 181, 1, 196, 64
-0.995351, 17, 81, 144, 112
-0.995367, 145, 185, 160, 248
-0.995369, 225, 113, 256, 240
-0.995434, 125, 177, 140, 240
-0.995443, 161, 53, 288, 84
-0.995453, 97, 221, 224, 252
-0.995454, 153, 169, 168, 232
-0.995463, 183, 33, 198, 96
-0.995465, 73, 33, 136, 288
-0.995465, 161, 81, 288, 112
-0.99548, 41, 1, 104, 375
-0.995495, 81, 189, 208, 220
-0.995499, 109, 201, 124, 264
-0.995531, 1, 17, 500, 80
-0.995535, 175, 41, 190, 104
-0.995538, 141, 1, 156, 64
-0.995546, 161, 1, 288, 32
-0.995621, 89, 193, 120, 320
-0.995632, 257, 89, 500, 152
-0.99564, 37, 209, 52, 272
-0.995644, 203, 209, 218, 272
-0.995679, 51, 137, 66, 200
-0.995748, 117, 145, 132, 208
-0.99575, 11, 65, 26, 128
-0.995754, 245, 89, 260, 152
-0.995774, 113, 45, 240, 76
-0.995778, 273, 49, 400, 112
-0.995801, 225, 1, 480, 64
-0.995803, 103, 217, 118, 280
-0.995803, 193, 153, 320, 184
-0.995805, 289, 209, 416, 240
-0.995814, 1, 345, 128, 375
-0.995821, 185, 65, 216, 320
-0.995843, 189, 73, 204, 136
-0.995848, 95, 257, 110, 320
-0.995849, 65, 129, 128, 256
-0.995865, 369, 225, 400, 352
-0.995871, 161, 217, 288, 248
-0.995871, 225, 29, 352, 60
-0.995875, 87, 297, 102, 360
-0.995888, 169, 41, 184, 104
-0.9959, 189, 41, 204, 104
-0.995918, 3, 65, 18, 128
-0.995924, 31, 97, 46, 160
-0.995935, 125, 33, 156, 288
-0.995938, 171, 1, 186, 64
-0.995998, 311, 177, 326, 240
-0.996002, 21, 65, 52, 320
-0.996005, 131, 73, 146, 136
-0.996008, 305, 105, 432, 136
-0.996033, 141, 49, 156, 112
-0.996035, 7, 201, 22, 264
-0.996038, 45, 177, 60, 240
-0.996055, 305, 253, 432, 284
-0.996085, 309, 33, 340, 160
-0.996145, 161, 65, 288, 96
-0.99615, 305, 277, 432, 308
-0.99616, 305, 77, 432, 108
-0.996164, 195, 73, 210, 136
-0.996166, 183, 169, 198, 232
-0.996169, 33, 33, 96, 160
-0.9962, 165, 153, 180, 216
-0.996205, 35, 233, 50, 296
-0.996206, 225, 129, 352, 160
-0.996208, 305, 289, 432, 320
-0.99622, 153, 41, 168, 104
-0.996227, 257, 313, 500, 375
-0.996232, 137, 209, 152, 272
-0.996241, 225, 73, 352, 104
-0.996267, 23, 81, 38, 144
-0.996268, 187, 1, 202, 64
-0.996272, 239, 145, 254, 208
-0.9963, 273, 121, 400, 152
-0.996322, 49, 341, 176, 372
-0.996325, 385, 65, 448, 192
-0.996327, 229, 209, 260, 336
-0.996329, 163, 41, 178, 104
-0.996342, 253, 9, 268, 72
-0.996378, 357, 185, 372, 248
-0.996401, 225, 89, 352, 120
-0.996418, 231, 193, 246, 256
-0.99642, 305, 93, 432, 124
-0.996446, 297, 1, 360, 128
-0.996497, 321, 185, 336, 248
-0.996504, 127, 105, 142, 168
-0.996513, 93, 289, 108, 352
-0.996521, 157, 49, 188, 176
-0.996529, 165, 1, 196, 256
-0.996539, 25, 233, 40, 296
-0.996539, 65, 257, 192, 288
-0.996554, 207, 153, 222, 216
-0.996561, 341, 185, 356, 248
-0.996562, 17, 17, 48, 144
-0.996564, 257, 177, 384, 208
-0.996566, 335, 185, 350, 248
-0.99657, 105, 129, 136, 375
-0.996582, 37, 105, 52, 168
-0.996584, 17, 65, 32, 128
-0.996586, 313, 97, 344, 352
-0.996588, 73, 1, 136, 375
-0.996593, 65, 273, 192, 304
-0.996607, 37, 129, 68, 375
-0.996611, 401, 193, 432, 320
-0.996614, 337, 185, 464, 216
-0.99663, 327, 185, 342, 248
-0.996631, 49, 329, 176, 360
-0.996631, 123, 137, 138, 200
-0.996666, 277, 177, 292, 240
-0.996679, 335, 57, 350, 120
-0.996679, 237, 1, 268, 128
-0.99669, 305, 177, 320, 240
-0.996693, 225, 61, 352, 92
-0.99671, 205, 185, 220, 248
-0.99673, 351, 185, 366, 248
-0.996734, 305, 265, 432, 296
-0.996748, 209, 121, 224, 184
-0.996752, 17, 185, 32, 248
-0.996766, 233, 97, 264, 352
-0.996784, 147, 49, 162, 112
-0.996794, 21, 305, 36, 368
-0.996807, 31, 257, 46, 320
-0.996819, 101, 241, 116, 304
-0.996821, 211, 89, 226, 152
-0.996837, 25, 281, 40, 344
-0.996843, 365, 81, 380, 144
-0.996856, 305, 65, 432, 96
-0.996864, 369, 169, 384, 232
-0.996872, 273, 137, 400, 168
-0.996884, 81, 245, 208, 276
-0.996891, 357, 1, 388, 128
-0.9969, 145, 33, 176, 288
-0.996908, 237, 169, 252, 232
-0.99691, 251, 33, 266, 96
-0.996915, 161, 29, 288, 60
-0.996919, 385, 225, 400, 288
-0.996931, 291, 177, 306, 240
-0.996941, 409, 297, 424, 360
-0.996955, 129, 209, 160, 336
-0.996988, 161, 237, 288, 268
-0.996989, 297, 177, 312, 240
-0.996992, 399, 265, 414, 328
-0.996998, 159, 169, 174, 232
-0.997008, 433, 49, 496, 176
-0.99701, 65, 285, 192, 316
-0.997011, 247, 65, 262, 128
-0.997024, 129, 241, 384, 304
-0.997029, 161, 13, 288, 44
-0.997032, 337, 225, 368, 352
-0.997068, 81, 233, 208, 264
-0.997079, 225, 17, 352, 48
-0.997082, 225, 217, 240, 280
-0.997088, 369, 241, 496, 272
-0.997089, 391, 241, 406, 304
-0.997092, 357, 57, 372, 120
-0.997093, 43, 201, 58, 264
-0.997094, 297, 97, 328, 352
-0.997109, 157, 145, 172, 208
-0.997119, 241, 193, 368, 224
-0.99712, 149, 169, 164, 200
-0.997129, 109, 177, 124, 240
-0.99713, 51, 161, 66, 224
-0.997139, 195, 153, 210, 216
-0.997153, 353, 273, 480, 304
-0.997155, 285, 177, 300, 240
-0.997165, 305, 173, 432, 204
-0.997167, 299, 113, 314, 176
-0.997169, 337, 141, 464, 172
-0.997179, 65, 89, 192, 120
-0.997181, 31, 185, 46, 248
-0.997184, 267, 209, 282, 272
-0.997184, 65, 301, 192, 332
-0.997213, 201, 77, 216, 108
-0.997228, 117, 129, 148, 375
-0.997231, 337, 229, 464, 260
-0.997254, 345, 1, 376, 128
-0.997256, 309, 209, 324, 272
-0.997257, 337, 121, 464, 152
-0.997279, 177, 145, 192, 208
-0.997283, 273, 153, 400, 184
-0.997297, 271, 177, 286, 240
-0.99731, 415, 313, 430, 375
-0.997311, 29, 221, 44, 252
-0.997319, 337, 197, 464, 228
-0.997321, 225, 165, 352, 196
-0.997322, 317, 209, 332, 272
-0.997331, 201, 233, 216, 296
-0.99734, 117, 225, 132, 288
-0.997349, 205, 97, 236, 352
-0.997362, 155, 173, 170, 204
-0.997362, 251, 105, 266, 168
-0.997365, 353, 173, 480, 204
-0.997369, 375, 1, 390, 64
-0.997372, 255, 201, 270, 264
-0.997373, 47, 133, 62, 164
-0.99738, 7, 225, 22, 288
-0.997387, 273, 97, 304, 352
-0.99739, 291, 145, 306, 208
-0.997398, 81, 313, 96, 375
-0.997398, 313, 241, 328, 304
-0.997399, 119, 193, 134, 256
-0.997416, 65, 313, 192, 344
-0.997417, 229, 161, 244, 224
-0.99742, 189, 161, 204, 224
-0.99742, 193, 1, 208, 64
-0.997429, 293, 113, 308, 176
-0.997434, 209, 277, 336, 308
-0.997439, 137, 153, 152, 216
-0.997439, 233, 137, 248, 200
-0.997444, 277, 201, 292, 264
-0.997445, 81, 201, 208, 232
-0.997447, 303, 209, 318, 272
-0.997455, 353, 253, 480, 284
-0.997467, 207, 1, 222, 64
-0.997477, 361, 209, 376, 272
-0.997484, 321, 329, 448, 360
-0.997491, 1, 33, 32, 288
-0.997493, 239, 89, 254, 152
-0.997508, 117, 173, 132, 204
-0.99751, 241, 205, 368, 236
-0.99751, 367, 41, 382, 104
-0.997512, 15, 213, 30, 244
-0.997524, 183, 169, 198, 200
-0.997549, 17, 69, 144, 100
-0.997556, 353, 93, 480, 124
-0.997573, 49, 53, 176, 84
-0.997574, 165, 177, 180, 208
-0.997581, 183, 41, 198, 72
-0.997615, 109, 217, 124, 248
-0.997646, 137, 189, 152, 220
-0.997669, 345, 33, 376, 288
-0.997671, 337, 157, 464, 188
-0.997674, 257, 97, 288, 352
-0.9977, 329, 65, 360, 320
-0.997707, 179, 57, 194, 88
-0.99773, 285, 97, 316, 352
-0.997741, 353, 73, 480, 104
-0.99776, 225, 1, 352, 32
-0.997763, 237, 1, 268, 256
-0.997766, 175, 45, 190, 76
-0.997776, 353, 105, 480, 136
-0.997777, 23, 217, 38, 248
-0.997779, 357, 65, 388, 320
-0.997788, 89, 129, 120, 256
-0.997792, 257, 101, 384, 132
-0.997812, 337, 341, 464, 372
-0.997818, 369, 217, 496, 248
-0.997822, 35, 217, 50, 248
-0.997831, 11, 69, 26, 100
-0.997839, 229, 169, 244, 200
-0.99785, 49, 221, 176, 252
-0.997872, 143, 181, 158, 212
-0.997881, 321, 317, 448, 348
-0.997883, 19, 77, 34, 108
-0.997892, 327, 185, 342, 216
-0.997894, 111, 205, 126, 236
-0.997894, 37, 113, 52, 144
-0.9979, 169, 41, 184, 72
-0.997911, 31, 101, 46, 132
-0.997912, 141, 57, 156, 88
-0.997925, 125, 181, 140, 212
-0.99793, 243, 109, 258, 140
-0.997938, 109, 33, 140, 160
-0.99795, 253, 17, 268, 48
-0.997959, 25, 89, 40, 120
-0.99796, 147, 49, 162, 80
-0.997964, 267, 217, 282, 248
-0.997977, 7, 225, 22, 256
-0.997983, 65, 77, 192, 108
-0.997984, 1, 69, 16, 100
-0.997992, 141, 1, 156, 32
-0.998003, 321, 301, 448, 332
-0.99801, 225, 49, 352, 80
-0.998011, 425, 1, 488, 375
-0.998014, 337, 53, 464, 84
-0.998016, 137, 209, 152, 240
-0.998018, 171, 177, 186, 208
-0.998058, 129, 305, 256, 368
-0.998061, 203, 229, 218, 260
-0.998064, 65, 65, 192, 96
-0.998066, 65, 1, 192, 32
-0.998073, 7, 209, 22, 240
-0.998087, 27, 233, 42, 264
-0.998089, 149, 189, 164, 220
-0.998116, 155, 185, 170, 216
-0.99812, 221, 129, 252, 375
-0.998126, 191, 77, 206, 108
-0.998137, 131, 189, 146, 220
-0.998144, 353, 285, 480, 316
-0.998159, 177, 177, 192, 208
-0.998166, 239, 157, 254, 188
-0.998167, 189, 173, 204, 204
-0.998169, 389, 253, 404, 284
-0.998174, 163, 45, 178, 76
-0.998177, 343, 189, 358, 220
-0.998182, 185, 69, 200, 100
-0.998183, 245, 97, 260, 128
-0.998194, 241, 265, 368, 296
-0.998196, 113, 193, 128, 224
-0.998209, 243, 121, 258, 152
-0.998212, 87, 325, 102, 356
-0.998218, 89, 305, 104, 336
-0.99822, 201, 1, 232, 128
-0.998226, 137, 69, 152, 100
-0.998234, 101, 249, 116, 280
-0.99824, 97, 265, 112, 296
-0.998242, 157, 45, 172, 76
-0.998249, 13, 233, 28, 264
-0.99825, 93, 285, 108, 316
-0.998252, 351, 189, 366, 220
-0.998269, 321, 185, 336, 216
-0.998275, 207, 153, 222, 184
-0.998289, 229, 157, 244, 188
-0.998289, 83, 345, 98, 375
-0.99829, 369, 1, 400, 256
-0.9983, 331, 229, 346, 260
-0.998305, 117, 161, 132, 192
-0.99831, 55, 145, 70, 176
-0.998311, 49, 37, 176, 68
-0.998311, 105, 233, 120, 264
-0.998314, 341, 129, 372, 375
-0.998315, 209, 121, 224, 152
-0.998315, 45, 197, 60, 228
-0.998316, 51, 165, 66, 196
-0.998317, 237, 177, 252, 208
-0.99832, 177, 305, 304, 368
-0.99832, 207, 165, 222, 196
-0.998321, 175, 165, 190, 196
-0.99833, 315, 185, 330, 216
-0.998333, 333, 189, 348, 220
-0.998334, 147, 5, 162, 36
-0.998334, 261, 221, 276, 252
-0.998335, 335, 65, 350, 96
-0.998336, 21, 229, 36, 260
-0.998336, 171, 1, 186, 32
-0.998336, 189, 1, 204, 32
-0.99834, 233, 197, 248, 228
-0.998344, 275, 221, 290, 252
-0.998347, 183, 181, 198, 212
-0.998348, 47, 185, 62, 216
-0.998353, 251, 29, 266, 60
-0.998356, 15, 345, 30, 375
-0.99836, 93, 221, 124, 236
-0.998362, 305, 223, 336, 238
-0.998362, 229, 207, 260, 222
-0.998362, 373, 249, 404, 264
-0.998363, 161, 55, 192, 70
-0.998363, 9, 91, 40, 106
-0.998364, 13, 99, 44, 114
-0.998364, 25, 201, 56, 216
-0.998364, 233, 155, 264, 170
-0.998365, 133, 211, 164, 226
-0.998365, 205, 113, 236, 128
-0.998366, 33, 239, 64, 254
-0.998366, 221, 127, 252, 142
-0.998366, 21, 115, 52, 130
-0.998366, 177, 1, 192, 32
-0.998366, 293, 243, 324, 258
-0.998366, 237, 121, 268, 136
-0.998366, 125, 105, 156, 120
-0.998367, 253, 5, 268, 36
-0.998367, 37, 213, 68, 228
-0.998367, 117, 165, 148, 180
-0.998367, 197, 165, 212, 196
-0.998367, 25, 125, 56, 140
-0.998368, 17, 107, 48, 122
-0.998368, 113, 229, 144, 244
-0.998368, 333, 67, 364, 82
-0.99837, 41, 195, 72, 210
-0.998372, 117, 151, 148, 166
-0.998372, 49, 155, 80, 170
-0.998373, 45, 177, 76, 192
-0.998373, 285, 229, 316, 244
-0.998375, 129, 95, 160, 110
-0.998375, 101, 235, 132, 250
-0.998376, 133, 167, 164, 182
-0.998376, 37, 237, 52, 268
-0.998376, 93, 279, 124, 294
-0.998377, 241, 107, 272, 122
-0.998377, 101, 241, 132, 256
-0.998377, 233, 199, 264, 214
-0.998378, 381, 267, 412, 282
-0.998378, 221, 17, 252, 144
-0.998378, 161, 257, 288, 288
-0.998378, 177, 49, 208, 64
-0.998379, 113, 191, 144, 206
-0.99838, 89, 285, 120, 300
-0.998381, 121, 125, 152, 140
-0.998381, 329, 245, 360, 260
-0.998381, 309, 33, 340, 48
-0.998381, 253, 221, 284, 236
-0.998382, 189, 95, 220, 110
-0.998383, 273, 181, 304, 196
-0.998383, 359, 193, 374, 224
-0.998385, 161, 3, 192, 18
-0.998385, 225, 133, 288, 148
-0.998385, 93, 269, 124, 284
-0.998385, 121, 135, 152, 150
-0.998386, 129, 89, 160, 104
-0.998386, 85, 319, 116, 334
-0.998386, 117, 145, 148, 160
-0.998387, 133, 81, 148, 112
-0.998387, 217, 175, 248, 190
-0.998388, 89, 301, 120, 316
-0.998388, 189, 101, 220, 116
-0.998388, 345, 193, 376, 208
-0.998388, 167, 145, 182, 176
-0.998389, 209, 133, 224, 164
-0.998389, 249, 227, 280, 242
-0.99839, 143, 197, 158, 228
-0.99839, 89, 291, 120, 306
-0.99839, 165, 1, 180, 32
-0.99839, 205, 189, 220, 220
-0.998391, 309, 187, 340, 202
-0.998391, 189, 39, 220, 54
-0.998391, 201, 173, 232, 188
-0.998392, 165, 63, 196, 78
-0.998393, 225, 169, 256, 184
-0.998394, 177, 75, 208, 90
-0.998394, 5, 83, 36, 98
-0.998397, 321, 189, 352, 204
-0.998397, 333, 191, 364, 206
-0.998398, 169, 169, 200, 184
-0.998401, 211, 89, 226, 120
-0.998401, 289, 217, 320, 232
-0.998402, 209, 235, 240, 250
-0.998403, 161, 165, 176, 196
-0.998403, 41, 125, 56, 156
-0.998403, 33, 135, 64, 150
-0.998404, 85, 311, 116, 326
-0.998404, 161, 269, 288, 300
-0.998405, 1, 77, 32, 92
-0.998406, 1, 25, 256, 88
-0.998406, 273, 233, 304, 248
-0.998407, 165, 39, 196, 54
-0.998407, 387, 241, 402, 272
-0.998407, 77, 337, 92, 368
-0.998408, 289, 235, 320, 250
-0.998408, 125, 177, 156, 192
-0.998409, 193, 127, 256, 142
-0.99841, 9, 219, 40, 234
-0.99841, 169, 69, 200, 84
-0.99841, 137, 49, 200, 64
-0.998411, 249, 19, 280, 34
-0.998412, 317, 239, 348, 254
-0.998413, 193, 163, 256, 178
-0.998413, 97, 251, 128, 266
-0.998417, 281, 225, 296, 256
-0.998417, 97, 259, 128, 274
-0.998418, 197, 241, 228, 256
-0.998418, 177, 5, 208, 20
-0.99842, 303, 181, 318, 212
-0.998424, 133, 129, 164, 375
-0.998425, 105, 211, 136, 226
-0.998426, 233, 161, 264, 176
-0.998428, 247, 77, 262, 108
-0.998429, 145, 49, 176, 64
-0.99843, 137, 55, 200, 70
-0.998431, 193, 169, 256, 184
-0.998431, 189, 3, 220, 18
-0.998434, 137, 1, 168, 16
-0.998434, 209, 241, 240, 256
-0.998434, 137, 179, 200, 194
-0.998435, 21, 209, 52, 224
-0.998435, 109, 179, 140, 194
-0.998435, 381, 261, 412, 276
-0.998436, 1, 71, 32, 86
-0.998437, 41, 213, 56, 244
-0.998438, 185, 165, 216, 180
-0.998439, 237, 135, 268, 150
-0.998439, 241, 133, 256, 164
-0.998439, 121, 149, 136, 180
-0.99844, 193, 157, 256, 172
-0.998443, 123, 137, 138, 168
-0.998444, 21, 219, 52, 234
-0.998445, 219, 241, 234, 272
-0.998446, 201, 167, 232, 182
-0.998447, 145, 171, 176, 186
-0.998448, 193, 111, 256, 126
-0.99845, 205, 177, 220, 208
-0.99845, 1, 217, 64, 232
-0.998451, 265, 219, 296, 234
-0.998452, 193, 177, 256, 192
-0.998454, 193, 151, 256, 166
-0.998456, 141, 189, 172, 204
-0.998456, 289, 223, 320, 238
-0.998456, 211, 101, 226, 132
-0.998457, 193, 143, 256, 158
-0.998457, 249, 131, 280, 146
-0.998459, 131, 93, 146, 124
-0.99846, 115, 225, 130, 256
-0.99846, 193, 137, 256, 152
-0.998461, 113, 177, 176, 192
-0.998462, 269, 225, 300, 240
-0.998463, 227, 181, 242, 212
-0.998463, 1, 227, 32, 242
-0.998467, 193, 117, 256, 132
-0.998467, 189, 161, 204, 192
-0.998468, 241, 113, 272, 128
-0.998469, 249, 1, 280, 256
-0.99847, 5, 213, 36, 228
-0.99847, 125, 125, 140, 156
-0.998473, 261, 133, 292, 148
-0.998474, 137, 187, 200, 202
-0.998474, 137, 61, 200, 76
-0.998474, 285, 137, 316, 152
-0.998475, 105, 185, 168, 200
-0.998476, 101, 229, 132, 244
-0.998476, 113, 171, 176, 186
-0.99848, 137, 7, 168, 22
-0.998481, 161, 179, 224, 194
-0.998487, 193, 187, 256, 202
-0.998488, 273, 135, 304, 150
-0.998489, 155, 5, 170, 36
-0.99849, 203, 205, 218, 236
-0.998492, 241, 25, 304, 40
-0.998492, 161, 173, 224, 188
-0.998492, 239, 145, 254, 176
-0.998493, 201, 105, 264, 120
-0.998493, 249, 57, 264, 88
-0.998494, 303, 225, 318, 256
-0.998495, 181, 183, 212, 198
-0.998498, 1, 211, 64, 226
-0.998498, 153, 187, 184, 202
-0.998499, 201, 91, 264, 106
-0.9985, 297, 181, 312, 212
-0.998502, 125, 191, 156, 206
-0.998503, 161, 185, 224, 200
-0.998505, 153, 5, 216, 20
-0.998506, 97, 227, 160, 242
-0.998507, 1, 229, 16, 260
-0.998509, 201, 85, 264, 100
-0.99851, 137, 177, 152, 208
-0.998511, 97, 191, 160, 206
-0.998516, 233, 113, 296, 128
-0.998518, 97, 265, 352, 328
-0.998518, 201, 97, 264, 112
-0.99852, 177, 43, 208, 58
-0.998524, 185, 229, 248, 244
-0.998524, 121, 97, 184, 112
-0.998529, 249, 25, 280, 40
-0.998531, 97, 197, 160, 212
-0.998531, 17, 233, 48, 248
-0.998533, 185, 171, 216, 186
-0.998533, 169, 175, 200, 190
-0.998534, 193, 193, 256, 208
-0.998536, 129, 3, 192, 18
-0.998539, 137, 173, 200, 188
-0.998539, 225, 127, 288, 142
-0.998541, 133, 183, 164, 198
-0.998541, 1, 205, 64, 220
-0.998547, 121, 89, 184, 104
-0.99855, 1, 223, 64, 238
-0.99855, 161, 181, 192, 196
-0.998552, 113, 141, 176, 156
-0.998552, 113, 217, 144, 232
-0.998553, 225, 185, 288, 200
-0.998554, 257, 217, 320, 232
-0.998554, 281, 223, 344, 238
-0.998554, 265, 183, 328, 198
-0.998555, 185, 241, 248, 256
-0.998556, 201, 205, 264, 220
-0.998556, 225, 197, 288, 212
-0.998556, 97, 203, 160, 218
-0.998557, 161, 43, 224, 58
-0.998557, 105, 223, 136, 238
-0.998558, 113, 185, 144, 200
-0.998559, 217, 221, 280, 236
-0.998559, 161, 79, 224, 94
-0.998559, 185, 235, 248, 250
-0.99856, 185, 223, 248, 238
-0.99856, 193, 199, 256, 214
-0.998561, 89, 219, 152, 234
-0.998561, 217, 215, 280, 230
-0.998564, 113, 147, 176, 162
-0.998567, 189, 79, 220, 94
-0.998567, 209, 237, 272, 252
-0.998568, 237, 129, 268, 144
-0.99857, 193, 213, 256, 228
-0.998571, 249, 137, 312, 152
-0.998572, 157, 45, 188, 60
-0.998572, 161, 143, 224, 158
-0.998574, 97, 213, 160, 228
-0.998577, 161, 95, 224, 110
-0.998577, 201, 75, 264, 90
-0.998579, 249, 235, 312, 250
-0.99858, 153, 167, 216, 182
-0.99858, 121, 83, 184, 98
-0.998581, 225, 191, 288, 206
-0.998582, 129, 67, 192, 82
-0.998584, 321, 99, 384, 114
-0.998584, 225, 161, 288, 176
-0.998585, 105, 165, 168, 180
-0.998585, 257, 225, 320, 240
-0.998587, 121, 77, 184, 92
-0.998588, 297, 241, 360, 256
-0.99859, 161, 151, 224, 166
-0.998591, 113, 135, 176, 150
-0.998592, 225, 179, 288, 194
-0.998592, 161, 85, 224, 100
-0.998595, 321, 191, 384, 206
-0.998595, 121, 103, 184, 118
-0.998599, 321, 71, 384, 86
-0.9986, 225, 229, 288, 244
-0.998601, 345, 241, 408, 256
-0.998601, 137, 43, 200, 58
-0.998604, 345, 251, 408, 266
-0.998605, 89, 235, 152, 250
-0.998605, 1, 145, 32, 272
-0.998606, 145, 177, 176, 192
-0.998607, 9, 133, 72, 148
-0.998611, 321, 89, 384, 104
-0.998612, 1, 199, 64, 214
-0.998612, 289, 187, 352, 202
-0.998613, 209, 243, 272, 258
-0.998614, 161, 103, 224, 118
-0.998614, 305, 247, 368, 262
-0.998616, 225, 167, 288, 182
-0.998617, 289, 235, 352, 250
-0.998617, 161, 137, 224, 152
-0.998618, 113, 127, 176, 142
-0.998618, 345, 195, 408, 210
-0.998618, 273, 29, 336, 44
-0.998618, 321, 83, 384, 98
-0.998619, 161, 157, 224, 172
-0.998621, 199, 65, 214, 192
-0.998623, 177, 67, 240, 82
-0.998623, 73, 315, 136, 330
-0.998623, 89, 243, 152, 258
-0.998624, 81, 275, 144, 290
-0.998624, 225, 153, 288, 168
-0.998624, 33, 211, 96, 226
-0.998625, 113, 111, 176, 126
-0.998625, 81, 293, 144, 308
-0.998625, 41, 141, 104, 156
-0.998625, 225, 173, 288, 188
-0.998626, 249, 131, 312, 146
-0.998626, 225, 209, 288, 224
-0.998627, 105, 153, 168, 168
-0.998627, 321, 77, 384, 92
-0.998628, 113, 221, 176, 236
-0.998628, 225, 139, 288, 154
-0.998629, 369, 97, 400, 352
-0.998629, 369, 261, 432, 276
-0.99863, 345, 225, 408, 240
-0.99863, 129, 9, 192, 24
-0.998632, 361, 279, 424, 294
-0.998633, 41, 157, 104, 172
-0.998633, 41, 151, 104, 166
-0.998633, 33, 191, 96, 206
-0.998638, 181, 177, 212, 192
-0.99864, 117, 129, 132, 256
-0.998658, 425, 1, 488, 256
-0.998665, 145, 1, 160, 128
-0.998704, 151, 1, 166, 128
-0.99871, 163, 1, 178, 128
-0.99871, 157, 1, 172, 128
-0.99872, 125, 161, 140, 288
-0.998735, 173, 97, 204, 224
-0.998765, 139, 1, 154, 128
-0.998776, 245, 97, 276, 352
-0.998792, 173, 1, 188, 128
-0.998806, 73, 129, 136, 375
-0.998808, 49, 113, 64, 240
-0.998835, 123, 97, 138, 224
-0.99887, 111, 161, 126, 288
-0.998918, 41, 97, 56, 224
-0.998933, 147, 145, 162, 272
-0.998942, 145, 129, 176, 375
-0.998958, 105, 193, 120, 320
-0.998962, 33, 1, 64, 256
-0.998965, 95, 241, 110, 368
-0.998973, 405, 241, 436, 368
-0.998976, 179, 1, 194, 128
-0.998979, 129, 81, 144, 208
-0.999024, 449, 1, 480, 128
-0.999028, 201, 241, 232, 368
-0.999045, 385, 1, 448, 128
-0.999055, 289, 145, 304, 272
-0.999072, 205, 1, 236, 256
-0.999078, 249, 17, 264, 144
-0.999082, 7, 49, 22, 176
-0.999083, 189, 65, 204, 192
-0.999093, 313, 161, 328, 288
-0.999094, 389, 129, 420, 375
-0.999097, 277, 177, 292, 304
-0.999105, 205, 145, 220, 272
-0.999107, 19, 65, 34, 192
-0.999107, 185, 1, 200, 128
-0.999113, 35, 97, 50, 224
-0.999119, 39, 193, 54, 320
-0.999122, 283, 145, 298, 272
-0.999123, 231, 161, 246, 288
-0.999127, 45, 161, 60, 288
-0.999131, 29, 241, 44, 368
-0.999137, 141, 161, 156, 288
-0.999147, 339, 177, 354, 304
-0.999159, 299, 161, 314, 288
-0.999159, 307, 161, 322, 288
-0.999163, 23, 193, 38, 320
-0.999172, 191, 17, 206, 144
-0.999172, 243, 49, 258, 176
-0.999176, 135, 49, 150, 176
-0.999185, 345, 177, 360, 304
-0.999186, 131, 161, 146, 288
-0.999186, 1, 49, 16, 176
-0.999192, 113, 33, 144, 288
-0.999195, 323, 97, 338, 224
-0.999204, 351, 177, 366, 304
-0.999211, 313, 113, 328, 240
-0.999226, 327, 177, 342, 304
-0.999228, 269, 177, 284, 304
-0.999232, 307, 113, 322, 240
-0.999236, 239, 97, 254, 224
-0.999243, 333, 177, 348, 304
-0.999251, 205, 65, 220, 192
-0.999271, 27, 81, 42, 208
-0.999276, 285, 97, 300, 224
-0.999279, 319, 161, 334, 288
-0.99929, 183, 49, 198, 176
-0.999294, 363, 49, 378, 176
-0.999302, 153, 145, 168, 272
-0.999305, 357, 177, 372, 304
-0.999308, 13, 49, 28, 176
-0.999312, 225, 193, 240, 320
-0.999317, 9, 129, 40, 375
-0.999324, 369, 1, 384, 128
-0.999333, 199, 177, 214, 304
-0.999334, 299, 97, 314, 224
-0.999337, 175, 49, 190, 176
-0.999345, 277, 129, 292, 256
-0.999346, 291, 97, 306, 224
-0.999349, 259, 177, 274, 304
-0.999352, 257, 297, 384, 360
-0.999354, 117, 177, 132, 304
-0.999363, 141, 49, 156, 176
-0.999375, 113, 249, 240, 312
-0.999375, 201, 17, 216, 144
-0.999381, 383, 177, 398, 304
-0.999382, 133, 1, 148, 128
-0.999386, 299, 209, 314, 336
-0.99939, 291, 209, 306, 336
-0.999394, 285, 209, 300, 336
-0.999395, 49, 97, 80, 352
-0.999395, 101, 241, 116, 368
-0.999401, 365, 129, 380, 256
-0.999405, 55, 113, 70, 240
-0.999424, 33, 193, 48, 320
-0.99943, 271, 97, 286, 224
-0.999432, 253, 193, 268, 320
-0.99944, 17, 193, 32, 320
-0.999441, 195, 129, 210, 256
-0.999448, 47, 65, 62, 192
-0.999455, 217, 225, 232, 352
-0.999457, 211, 65, 226, 192
-0.999459, 205, 193, 220, 320
-0.999465, 371, 97, 386, 224
-0.999465, 11, 177, 26, 304
-0.999468, 273, 225, 288, 352
-0.999471, 137, 113, 152, 240
-0.999478, 363, 177, 378, 304
-0.999485, 429, 1, 460, 128
-0.999491, 237, 145, 252, 272
-0.999491, 97, 81, 128, 208
-0.999493, 333, 49, 348, 176
-0.999499, 371, 161, 386, 288
-0.999502, 181, 145, 196, 272
-0.999506, 391, 225, 406, 352
-0.999507, 219, 177, 234, 304
-0.99951, 327, 225, 342, 352
-0.999518, 317, 1, 348, 256
-0.999521, 373, 49, 388, 176
-0.999522, 225, 145, 240, 272
-0.999524, 167, 49, 182, 176
-0.999529, 309, 225, 324, 352
-0.999534, 25, 33, 40, 160
-0.999536, 129, 209, 144, 336
-0.99954, 31, 145, 46, 272
-0.999542, 1, 1, 16, 128
-0.999542, 213, 177, 228, 304
-0.999544, 89, 241, 104, 368
-0.999548, 337, 225, 352, 352
-0.999554, 33, 49, 48, 176
-0.999556, 265, 97, 280, 224
-0.99956, 99, 193, 114, 320
-0.999561, 175, 161, 190, 288
-0.999562, 267, 225, 282, 352
-0.999563, 81, 357, 96, 372
-0.999563, 83, 341, 98, 356
-0.999563, 293, 1, 324, 256
-0.999564, 305, 237, 320, 252
-0.999564, 55, 149, 70, 164
-0.999565, 227, 177, 242, 192
-0.999566, 53, 159, 68, 174
-0.999566, 103, 243, 118, 258
-0.999566, 323, 187, 338, 202
-0.999566, 335, 65, 350, 80
-0.999567, 207, 157, 222, 172
-0.999567, 169, 145, 184, 272
-0.999567, 131, 189, 146, 204
-0.999567, 239, 155, 254, 170
-0.999567, 209, 137, 224, 152
-0.999567, 343, 191, 358, 206
-0.999568, 51, 171, 66, 186
-0.999568, 387, 253, 402, 268
-0.999569, 85, 333, 100, 348
-0.99957, 83, 347, 98, 362
-0.99957, 385, 225, 400, 352
-0.999571, 201, 235, 216, 250
-0.999572, 319, 33, 334, 48
-0.999572, 43, 129, 58, 144
-0.999572, 123, 209, 138, 336
-0.999572, 111, 203, 126, 218
-0.999573, 189, 169, 204, 184
-0.999573, 229, 189, 244, 204
-0.999574, 105, 235, 120, 250
-0.999575, 197, 79, 212, 94
-0.999575, 113, 195, 128, 210
-0.999575, 257, 131, 272, 146
-0.999575, 167, 143, 182, 158
-0.999575, 197, 175, 212, 190
-0.999576, 117, 171, 132, 186
-0.999576, 115, 187, 130, 202
-0.999577, 43, 213, 58, 228
-0.999577, 143, 57, 158, 72
-0.999578, 127, 219, 142, 234
-0.999578, 211, 225, 226, 352
-0.999579, 87, 327, 102, 342
-0.999579, 29, 103, 44, 118
-0.999579, 207, 163, 222, 178
-0.999579, 293, 235, 308, 250
-0.999579, 219, 243, 234, 258
-0.999579, 233, 199, 248, 214
-0.99958, 209, 131, 224, 146
-0.99958, 87, 321, 102, 336
-0.99958, 207, 11, 222, 26
-0.99958, 111, 209, 126, 224
-0.99958, 99, 265, 114, 280
-0.99958, 155, 177, 170, 192
-0.999581, 333, 189, 348, 204
-0.999581, 245, 107, 260, 122
-0.999581, 181, 71, 196, 86
-0.999583, 341, 129, 356, 256
-0.999584, 189, 5, 204, 20
-0.999584, 23, 91, 38, 106
-0.999585, 279, 135, 294, 150
-0.999586, 299, 137, 314, 152
-0.999586, 263, 131, 278, 146
-0.999586, 93, 295, 108, 310
-0.999586, 101, 255, 116, 270
-0.999587, 189, 175, 204, 190
-0.999587, 97, 275, 112, 290
-0.999588, 73, 353, 88, 368
-0.999589, 89, 313, 104, 328
-0.999589, 141, 1, 156, 16
-0.99959, 293, 137, 308, 152
-0.99959, 229, 165, 244, 180
-0.99959, 285, 231, 300, 246
-0.999591, 161, 47, 176, 62
-0.999592, 95, 285, 110, 300
-0.999592, 393, 177, 408, 304
-0.999592, 31, 109, 46, 124
-0.999592, 153, 97, 168, 224
-0.999592, 237, 167, 252, 182
-0.999593, 163, 145, 178, 272
-0.999594, 151, 191, 166, 206
-0.999594, 91, 305, 106, 320
-0.999595, 253, 17, 268, 32
-0.999596, 19, 85, 34, 100
-0.999596, 25, 97, 40, 112
-0.999596, 1, 69, 16, 84
-0.999597, 279, 231, 294, 246
-0.999597, 39, 123, 54, 138
-0.999597, 35, 117, 50, 132
-0.999598, 155, 49, 170, 64
-0.999601, 323, 33, 338, 160
-0.999601, 107, 227, 122, 242
-0.999602, 109, 215, 124, 230
-0.999602, 17, 1, 32, 128
-0.999603, 179, 185, 194, 200
-0.999604, 357, 49, 372, 176
-0.999604, 351, 129, 366, 256
-0.999604, 15, 77, 30, 92
-0.999605, 187, 77, 202, 92
-0.999608, 243, 123, 258, 138
-0.999608, 33, 213, 48, 228
-0.999608, 243, 113, 258, 128
-0.99961, 33, 221, 48, 236
-0.99961, 149, 173, 164, 188
-0.999611, 245, 97, 260, 224
-0.999612, 163, 185, 178, 200
-0.999614, 283, 223, 298, 238
-0.999614, 239, 161, 254, 176
-0.999614, 275, 225, 290, 240
-0.999616, 289, 225, 304, 240
-0.999617, 137, 211, 152, 226
-0.999619, 189, 41, 204, 56
-0.999621, 285, 135, 300, 150
-0.999622, 137, 183, 152, 198
-0.999622, 147, 183, 162, 198
-0.999622, 273, 133, 288, 148
-0.999624, 77, 177, 108, 304
-0.999628, 389, 259, 404, 274
-0.999628, 201, 241, 216, 256
-0.999628, 179, 63, 194, 78
-0.999628, 157, 187, 172, 202
-0.999631, 141, 191, 156, 206
-0.999636, 149, 51, 164, 66
-0.999636, 141, 7, 156, 22
-0.999638, 125, 185, 140, 200
-0.999644, 175, 55, 190, 70
-0.99965, 161, 179, 176, 194
-0.99965, 5, 227, 20, 242
-0.999652, 183, 41, 198, 56
-0.999659, 9, 71, 24, 86
-0.99966, 183, 179, 198, 194
-0.999661, 49, 135, 64, 150
-0.999663, 169, 181, 184, 196
-0.999663, 117, 177, 132, 192
-0.999665, 229, 171, 244, 186
-0.999665, 149, 167, 164, 182
-0.999668, 29, 231, 44, 246
-0.999669, 269, 219, 284, 234
-0.999671, 243, 129, 258, 144
-0.999672, 169, 45, 184, 60
-0.999673, 177, 179, 192, 194
-0.999679, 177, 41, 192, 56
-0.999681, 203, 79, 218, 94
-0.999688, 181, 47, 196, 62
-0.999692, 253, 23, 268, 38
-0.999699, 109, 221, 124, 236
-0.999732, 183, 173, 198, 188
-0.999794, 417, 241, 448, 368
-0.999835, 217, 33, 248, 288
-0.999855, 305, 1, 336, 256
-0.999876, 49, 1, 80, 256
-0.999929, 429, 1, 460, 256
-0.999939, 265, 1, 296, 256
-0.999941, 173, 129, 204, 375
-0.999997, 93, 129, 124, 375
-1, 129, 289, 384, 352
-1.00008, 77, 129, 108, 375
-1.00008, 385, 1, 416, 256
-1.0001, 97, 313, 352, 375
-1.00012, 297, 49, 328, 176
-1.00013, 13, 241, 44, 368
-1.00014, 93, 33, 124, 288
-1.00016, 129, 281, 256, 344
-1.00016, 49, 1, 112, 256
-1.00019, 281, 1, 312, 256
-1.00019, 405, 97, 436, 352
-1.00029, 413, 1, 444, 256
-1.00033, 45, 177, 76, 304
-1.00034, 441, 1, 472, 256
-1.0004, 401, 1, 432, 256
-1.00046, 385, 1, 448, 256
-1.00048, 457, 1, 488, 256
-1.00049, 157, 129, 188, 375
-1.00055, 413, 49, 444, 176
-1.00059, 385, 97, 416, 224
-1.00078, 417, 129, 448, 375
-1.00081, 381, 1, 412, 128
-1.00097, 437, 97, 468, 352
-1.00107, 469, 1, 500, 256
-1.00108, 409, 97, 440, 224
-1.00111, 457, 97, 488, 352
-1.00114, 321, 1, 352, 128
-1.00125, 469, 97, 500, 352
-1.00139, 65, 129, 96, 375
-1.00146, 61, 33, 92, 288
-1.00148, 425, 49, 456, 176
-1.00156, 397, 97, 428, 224
-1.00158, 441, 65, 472, 192
-1.00169, 81, 33, 112, 288
-1.00181, 265, 49, 296, 176
-1.00181, 277, 49, 308, 176
-1.00196, 405, 1, 436, 128
-1.00226, 149, 193, 180, 320
-1.00242, 1, 25, 128, 88
-1.00248, 389, 49, 420, 176
-1.0025, 25, 1, 88, 256
-1.00253, 173, 193, 204, 320
-1.00268, 461, 65, 492, 192
-1.00271, 1, 1, 128, 64
-1.00273, 265, 1, 296, 128
-1.00276, 425, 113, 488, 240
-1.00497, 161, 241, 224, 368
-1.00591, 433, 209, 496, 336
-1.00672, 417, 161, 480, 288
-1.00713, 433, 97, 496, 352
-1.01553, 65, 33, 128, 160
