1869
-0.46263, 1, 1, 500, 256
-0.467511, 1, 1, 500, 333
-0.616746, 33, 1, 288, 333
-0.639883, 33, 1, 288, 256
-0.641271, 129, 1, 384, 333
-0.660744, 257, 1, 500, 333
-0.677145, 129, 1, 384, 256
-0.681837, 257, 1, 500, 256
-0.866587, 49, 1, 176, 256
-0.879494, 1, 129, 500, 256
-0.882586, 1, 1, 128, 256
-0.886044, 321, 1, 448, 256
-0.886587, 193, 1, 320, 256
-0.887994, 241, 1, 368, 256
-0.895731, 145, 1, 272, 256
-0.898182, 1, 1, 128, 333
-0.899773, 49, 1, 176, 333
-0.902124, 193, 1, 320, 333
-0.90263, 97, 1, 224, 256
-0.902909, 129, 1, 256, 333
-0.90397, 337, 1, 464, 333
-0.906013, 369, 1, 496, 256
-0.910508, 241, 1, 368, 333
-0.914907, 193, 129, 448, 256
-0.917, 289, 1, 416, 333
-0.918343, 1, 129, 256, 256
-0.92055, 97, 129, 352, 256
-0.933866, 209, 113, 336, 240
-0.934454, 41, 97, 104, 224
-0.935088, 1, 81, 500, 208
-0.936191, 289, 129, 416, 256
-0.936526, 33, 81, 288, 208
-0.937127, 233, 129, 296, 256
-0.93743, 1, 209, 500, 333
-0.93795, 161, 129, 288, 256
-0.938041, 17, 129, 144, 256
-0.938374, 1, 1, 500, 128
-0.940143, 209, 129, 272, 256
-0.942602, 257, 113, 320, 240
-0.943031, 1, 81, 128, 208
-0.943159, 297, 129, 360, 256
-0.944657, 89, 129, 152, 256
-0.944678, 369, 129, 496, 256
-0.945276, 65, 113, 192, 240
-0.946936, 129, 177, 384, 304
-0.947169, 17, 113, 80, 240
-0.947329, 129, 81, 384, 208
-0.947678, 329, 129, 392, 256
-0.949005, 17, 65, 80, 192
-0.949061, 65, 129, 128, 256
-0.950498, 409, 129, 472, 256
-0.950965, 89, 137, 152, 200
-0.951108, 49, 137, 112, 200
-0.951124, 25, 113, 88, 176
-0.952453, 369, 129, 432, 256
-0.952459, 113, 113, 240, 240
-0.953092, 185, 129, 248, 256
-0.954032, 137, 129, 200, 256
-0.955533, 49, 97, 112, 160
-0.955799, 225, 177, 480, 304
-0.956253, 161, 113, 224, 240
-0.956399, 209, 161, 336, 288
-0.956582, 217, 161, 280, 224
-0.956591, 113, 129, 176, 256
-0.956764, 217, 137, 280, 200
-0.957038, 225, 81, 480, 208
-0.959352, 129, 137, 192, 200
-0.960174, 241, 161, 304, 224
-0.960527, 25, 137, 88, 200
-0.961856, 257, 137, 320, 200
-0.961977, 289, 169, 352, 232
-0.962295, 233, 177, 296, 304
-0.963362, 321, 81, 448, 208
-0.963583, 257, 161, 320, 288
-0.96364, 169, 137, 232, 200
-0.963713, 81, 161, 208, 288
-0.964601, 1, 209, 256, 333
-0.96484, 193, 161, 256, 224
-0.964887, 217, 81, 280, 208
-0.965285, 433, 145, 496, 272
-0.965485, 161, 81, 288, 208
-0.965546, 17, 17, 144, 144
-0.965557, 193, 137, 256, 200
-0.965671, 65, 81, 128, 208
-0.965784, 33, 1, 288, 128
-0.96606, 41, 145, 104, 272
-0.966221, 209, 177, 272, 304
-0.967373, 45, 81, 76, 208
-0.967928, 33, 129, 160, 192
-0.968152, 161, 177, 288, 304
-0.968314, 257, 177, 384, 304
-0.968339, 97, 81, 160, 208
-0.968788, 49, 65, 176, 192
-0.969048, 17, 17, 80, 144
-0.969594, 233, 129, 264, 256
-0.96965, 281, 137, 344, 200
-0.969708, 25, 89, 88, 152
-0.969776, 137, 81, 200, 208
-0.970415, 193, 81, 256, 208
-0.970513, 265, 177, 328, 240
-0.970881, 409, 145, 472, 208
-0.97097, 1, 145, 64, 208
-0.971212, 65, 113, 96, 240
-0.97125, 41, 33, 104, 160
-0.971292, 49, 97, 80, 160
-0.971515, 129, 1, 384, 128
-0.971568, 221, 129, 252, 256
-0.971584, 161, 161, 224, 288
-0.971699, 1, 113, 64, 176
-0.971743, 297, 81, 360, 208
-0.972082, 73, 113, 136, 176
-0.972133, 257, 81, 384, 208
-0.972481, 161, 137, 288, 200
-0.972639, 17, 65, 80, 128
-0.972732, 85, 129, 116, 192
-0.972875, 257, 1, 500, 128
-0.972917, 41, 1, 104, 256
-0.973171, 193, 161, 320, 224
-0.973403, 17, 161, 80, 288
-0.973417, 245, 129, 276, 256
-0.973441, 433, 161, 496, 224
-0.973705, 97, 137, 224, 200
-0.973859, 73, 121, 104, 184
-0.973894, 97, 209, 224, 333
-0.973928, 93, 129, 124, 256
-0.974133, 161, 161, 224, 224
-0.974304, 281, 177, 344, 304
-0.974315, 77, 113, 108, 240
-0.974394, 17, 209, 144, 333
-0.97443, 89, 177, 152, 304
-0.974544, 33, 113, 64, 240
-0.974839, 353, 177, 480, 304
-0.974964, 105, 129, 136, 256
-0.974964, 233, 137, 264, 200
-0.975069, 393, 81, 456, 208
-0.975101, 313, 137, 376, 200
-0.975124, 373, 129, 404, 256
-0.975201, 233, 161, 264, 224
-0.975386, 369, 81, 496, 208
-0.975425, 257, 129, 288, 256
-0.975492, 209, 129, 240, 256
-0.975522, 301, 129, 332, 256
-0.975663, 345, 129, 376, 256
-0.975756, 209, 137, 336, 200
-0.975823, 361, 129, 392, 256
-0.975932, 113, 209, 176, 333
-0.976331, 369, 81, 432, 208
-0.976404, 145, 161, 272, 224
-0.976529, 313, 169, 376, 232
-0.976597, 209, 65, 336, 192
-0.976597, 277, 129, 308, 256
-0.976609, 33, 113, 64, 176
-0.976627, 329, 81, 392, 208
-0.976703, 49, 161, 112, 224
-0.976703, 213, 161, 244, 224
-0.977053, 265, 1, 328, 256
-0.97719, 33, 137, 64, 200
-0.977211, 61, 137, 92, 200
-0.977232, 393, 1, 456, 256
-0.977264, 65, 209, 128, 333
-0.977321, 113, 137, 144, 200
-0.977321, 1, 1, 64, 256
-0.977368, 317, 129, 348, 256
-0.977378, 245, 137, 276, 200
-0.977558, 333, 113, 364, 240
-0.977571, 17, 105, 144, 168
-0.977607, 185, 177, 248, 304
-0.977641, 125, 129, 156, 256
-0.977787, 241, 169, 368, 232
-0.977828, 65, 1, 128, 256
-0.977851, 305, 209, 432, 333
-0.97789, 213, 137, 244, 200
-0.978018, 145, 1, 272, 128
-0.978073, 297, 169, 328, 232
-0.978122, 389, 129, 420, 256
-0.978247, 369, 145, 496, 208
-0.978331, 129, 137, 160, 200
-0.978331, 257, 161, 288, 224
-0.978431, 193, 137, 224, 200
-0.978468, 141, 129, 172, 256
-0.97861, 209, 1, 272, 256
-0.978768, 305, 1, 368, 256
-0.97881, 245, 161, 276, 224
-0.978834, 417, 81, 480, 208
-0.978949, 421, 129, 452, 256
-0.97911, 61, 97, 92, 160
-0.979395, 241, 185, 304, 248
-0.979436, 161, 209, 224, 333
-0.979475, 65, 1, 192, 128
-0.979707, 209, 209, 336, 333
-0.979712, 361, 1, 424, 256
-0.979782, 193, 1, 320, 128
-0.979786, 185, 1, 248, 256
-0.979857, 409, 129, 440, 256
-0.979975, 241, 1, 304, 256
-0.97998, 49, 129, 80, 192
-0.980057, 289, 145, 416, 208
-0.980134, 217, 185, 280, 248
-0.980164, 433, 137, 496, 200
-0.980274, 289, 129, 320, 256
-0.9803, 409, 121, 472, 184
-0.980399, 281, 137, 312, 200
-0.980537, 181, 137, 212, 200
-0.980628, 289, 169, 416, 232
-0.980666, 193, 185, 256, 248
-0.981036, 97, 137, 128, 200
-0.981191, 105, 161, 168, 224
-0.981206, 337, 1, 400, 256
-0.981241, 337, 169, 400, 232
-0.981462, 97, 161, 224, 224
-0.981463, 65, 33, 128, 160
-0.981477, 345, 177, 408, 304
-0.981482, 137, 209, 200, 333
-0.981548, 97, 65, 224, 192
-0.981706, 437, 129, 468, 256
-0.981743, 401, 209, 464, 333
-0.981773, 369, 1, 496, 128
-0.981794, 337, 137, 400, 200
-0.981808, 313, 209, 376, 333
-0.981848, 33, 209, 96, 333
-0.981913, 153, 113, 184, 240
-0.981959, 161, 1, 224, 256
-0.98199, 29, 49, 60, 176
-0.982024, 257, 137, 288, 200
-0.98212, 197, 129, 228, 256
-0.982211, 97, 1, 160, 256
-0.982272, 301, 137, 332, 200
-0.982394, 137, 161, 200, 224
-0.982396, 425, 209, 488, 333
-0.98243, 33, 73, 64, 136
-0.982436, 1, 209, 64, 333
-0.98249, 313, 137, 344, 200
-0.982544, 169, 137, 200, 200
-0.982601, 185, 113, 216, 240
-0.982894, 141, 137, 172, 200
-0.983131, 377, 177, 440, 304
-0.983155, 317, 169, 348, 232
-0.983158, 269, 137, 300, 200
-0.983181, 17, 1, 48, 64
-0.983228, 97, 113, 160, 176
-0.983274, 1, 153, 128, 216
-0.983305, 385, 137, 448, 200
-0.983437, 417, 1, 480, 128
-0.983464, 417, 1, 480, 256
-0.983544, 393, 169, 456, 232
-0.983545, 269, 161, 300, 224
-0.983615, 73, 161, 136, 224
-0.983636, 281, 177, 312, 240
-0.983701, 153, 137, 184, 200
-0.983721, 13, 81, 44, 208
-0.983824, 49, 153, 176, 216
-0.983839, 129, 113, 192, 176
-0.983894, 241, 177, 272, 304
-0.984066, 361, 129, 424, 192
-0.984066, 225, 81, 256, 208
-0.984092, 93, 81, 124, 208
-0.984119, 137, 1, 200, 256
-0.984385, 65, 105, 192, 168
-0.984478, 57, 65, 88, 192
-0.984559, 449, 129, 480, 256
-0.984578, 165, 113, 196, 240
-0.984656, 333, 137, 364, 200
-0.984851, 245, 81, 276, 208
-0.984886, 25, 161, 88, 224
-0.985022, 361, 169, 424, 232
-0.985121, 201, 1, 264, 128
-0.985125, 137, 1, 200, 128
-0.985138, 53, 145, 84, 272
-0.985199, 201, 161, 232, 224
-0.985247, 257, 209, 320, 333
-0.985279, 353, 121, 480, 184
-0.985291, 281, 1, 344, 128
-0.985382, 257, 1, 320, 128
-0.985414, 73, 145, 104, 208
-0.985565, 21, 129, 52, 192
-0.98569, 1, 1, 64, 64
-0.985799, 1, 89, 64, 152
-0.985835, 385, 17, 448, 80
-0.985853, 257, 1, 384, 128
-0.986116, 305, 1, 432, 128
-0.986119, 257, 65, 320, 192
-0.986174, 81, 161, 112, 288
-0.986322, 169, 1, 232, 128
-0.986386, 457, 129, 488, 192
-0.986432, 425, 1, 488, 64
-0.986437, 25, 1, 56, 128
-0.986708, 73, 97, 104, 160
-0.98672, 337, 169, 464, 232
-0.98674, 225, 1, 288, 128
-0.986875, 329, 161, 360, 288
-0.986936, 313, 193, 376, 256
-0.986946, 393, 193, 456, 256
-0.986986, 193, 185, 320, 248
-0.987055, 437, 145, 468, 208
-0.987057, 337, 17, 400, 80
-0.987288, 1, 81, 128, 144
-0.98739, 45, 33, 76, 160
-0.987501, 273, 193, 400, 256
-0.987606, 229, 177, 260, 304
-0.987631, 193, 1, 256, 64
-0.987643, 249, 105, 312, 168
-0.987878, 269, 185, 300, 248
-0.987892, 25, 1, 88, 333
-0.987901, 49, 1, 112, 333
-0.98795, 209, 81, 240, 208
-0.988027, 1, 1, 128, 64
-0.988065, 33, 141, 96, 172
-0.988092, 361, 17, 424, 80
-0.988155, 49, 73, 112, 136
-0.98816, 33, 17, 96, 80
-0.988199, 169, 161, 200, 224
-0.988213, 285, 177, 316, 304
-0.988246, 361, 81, 392, 208
-0.988274, 421, 137, 452, 200
-0.988307, 181, 161, 212, 224
-0.988326, 169, 65, 232, 192
-0.988352, 397, 129, 428, 192
-0.988371, 45, 153, 76, 216
-0.988441, 197, 81, 228, 208
-0.988472, 41, 161, 72, 288
-0.988492, 129, 113, 256, 176
-0.988514, 209, 165, 272, 196
-0.98852, 317, 81, 348, 208
-0.988531, 89, 17, 152, 80
-0.988568, 297, 105, 360, 168
-0.988599, 417, 185, 480, 248
-0.98866, 153, 161, 184, 288
-0.988738, 281, 1, 344, 64
-0.988751, 49, 121, 112, 152
-0.988781, 337, 105, 400, 168
-0.98881, 249, 17, 312, 80
-0.988825, 113, 1, 176, 128
-0.988846, 289, 193, 352, 256
-0.988849, 1, 257, 64, 320
-0.988881, 225, 185, 256, 248
-0.988915, 73, 65, 104, 192
-0.988952, 105, 81, 136, 208
-0.988986, 41, 109, 104, 140
-0.988988, 217, 1, 280, 64
-0.988998, 337, 17, 464, 80
-0.989028, 301, 81, 332, 208
-0.989044, 65, 161, 96, 288
-0.989072, 253, 177, 284, 304
-0.989177, 57, 17, 120, 80
-0.989182, 273, 113, 336, 176
-0.989186, 1, 137, 256, 200
-0.989189, 233, 1, 296, 333
-0.989221, 281, 81, 312, 208
-0.989226, 225, 105, 352, 168
-0.989237, 29, 161, 60, 288
-0.989276, 161, 161, 224, 192
-0.989277, 25, 125, 88, 156
-0.989278, 377, 1, 440, 128
-0.989297, 337, 169, 368, 232
-0.989315, 41, 153, 104, 184
-0.989374, 257, 81, 288, 208
-0.989392, 57, 73, 88, 136
-0.989401, 9, 141, 72, 172
-0.989435, 217, 177, 248, 304
-0.989445, 345, 81, 376, 208
-0.989448, 113, 157, 176, 188
-0.989466, 17, 153, 80, 184
-0.989467, 377, 105, 440, 168
-0.989495, 409, 141, 472, 172
-0.989497, 141, 81, 172, 208
-0.989523, 169, 161, 200, 288
-0.989539, 129, 81, 160, 208
-0.989542, 73, 141, 136, 172
-0.989612, 209, 113, 272, 176
-0.98967, 289, 173, 352, 204
-0.989678, 1, 1, 64, 333
-0.989706, 21, 105, 52, 168
-0.989711, 273, 177, 304, 304
-0.98973, 21, 153, 52, 216
-0.98986, 185, 165, 248, 196
-0.989884, 233, 165, 296, 196
-0.989902, 129, 141, 192, 172
-0.989954, 89, 105, 120, 168
-0.989954, 73, 1, 136, 333
-0.989979, 233, 177, 296, 208
-0.990016, 269, 81, 300, 208
-0.990027, 345, 1, 408, 128
-0.990027, 93, 177, 124, 304
-0.990034, 113, 17, 176, 80
-0.990065, 145, 185, 272, 248
-0.990069, 429, 81, 460, 208
-0.99012, 49, 65, 176, 128
-0.990122, 353, 137, 416, 168
-0.990133, 265, 165, 328, 196
-0.990172, 433, 161, 496, 192
-0.990202, 109, 177, 140, 304
-0.990281, 137, 161, 200, 192
-0.9903, 57, 17, 88, 144
-0.990325, 25, 97, 88, 128
-0.990332, 153, 113, 216, 176
-0.990392, 305, 121, 432, 184
-0.990445, 217, 153, 280, 184
-0.99047, 313, 17, 376, 80
-0.990473, 17, 113, 80, 144
-0.990476, 313, 137, 376, 168
-0.990513, 73, 89, 136, 152
-0.990542, 289, 17, 416, 80
-0.990573, 209, 1, 272, 333
-0.990589, 13, 1, 44, 128
-0.990621, 153, 1, 216, 333
-0.990626, 97, 137, 160, 168
-0.990664, 257, 185, 320, 216
-0.990741, 193, 153, 256, 184
-0.990748, 153, 17, 216, 80
-0.990751, 321, 193, 448, 256
-0.990762, 5, 137, 36, 200
-0.990779, 217, 193, 280, 224
-0.9908, 117, 81, 148, 208
-0.990812, 373, 145, 404, 208
-0.990813, 393, 81, 424, 208
-0.990814, 393, 1, 456, 333
-0.990818, 185, 97, 248, 160
-0.990824, 469, 129, 500, 192
-0.990835, 65, 161, 128, 192
-0.990843, 137, 209, 168, 333
-0.990874, 357, 137, 388, 200
-0.990881, 345, 193, 408, 256
-0.99092, 233, 133, 296, 164
-0.990975, 109, 113, 140, 176
-0.991023, 369, 193, 432, 256
-0.991036, 181, 161, 212, 288
-0.99104, 161, 173, 224, 204
-0.991041, 265, 201, 328, 264
-0.991076, 461, 129, 492, 256
-0.991094, 297, 193, 360, 224
-0.991123, 241, 193, 272, 256
-0.991129, 89, 153, 152, 184
-0.99115, 409, 81, 440, 208
-0.991153, 433, 145, 496, 176
-0.991162, 241, 17, 368, 80
-0.991163, 313, 1, 376, 128
-0.991202, 129, 145, 384, 208
-0.991213, 193, 1, 320, 64
-0.99124, 401, 197, 464, 228
-0.991259, 185, 177, 248, 208
-0.991271, 49, 97, 112, 128
-0.991291, 85, 161, 116, 224
-0.991298, 89, 125, 152, 156
-0.991316, 89, 165, 152, 196
-0.991317, 281, 1, 344, 333
-0.991326, 345, 197, 408, 228
-0.99133, 437, 121, 468, 184
-0.991365, 33, 161, 288, 224
-0.991377, 405, 153, 436, 216
-0.991378, 433, 105, 496, 168
-0.991396, 113, 1, 176, 333
-0.991405, 373, 81, 404, 208
-0.99142, 25, 165, 88, 196
-0.99144, 97, 17, 224, 80
-0.991464, 17, 85, 80, 116
-0.991491, 65, 257, 192, 320
-0.991496, 1, 25, 128, 88
-0.991502, 25, 257, 88, 320
-0.991506, 321, 197, 384, 228
-0.991508, 377, 141, 440, 172
-0.99151, 377, 197, 440, 228
-0.991537, 133, 161, 164, 224
-0.991539, 5, 1, 36, 64
-0.991549, 241, 121, 304, 152
-0.991559, 13, 145, 44, 272
-0.99156, 1, 125, 64, 156
-0.991575, 241, 153, 304, 184
-0.991578, 193, 121, 256, 152
-0.991591, 153, 149, 216, 180
-0.991595, 113, 257, 176, 320
-0.991599, 157, 161, 188, 224
-0.991628, 273, 153, 336, 184
-0.991631, 209, 133, 272, 164
-0.991718, 329, 173, 392, 204
-0.991723, 377, 153, 440, 184
-0.991723, 129, 129, 192, 160
-0.991728, 321, 185, 384, 216
-0.991813, 9, 5, 72, 36
-0.991831, 81, 209, 112, 333
-0.991838, 9, 69, 72, 100
-0.991844, 177, 137, 240, 168
-0.991874, 17, 257, 144, 320
-0.99189, 205, 177, 236, 304
-0.991933, 273, 133, 336, 164
-0.991941, 225, 137, 480, 200
-0.991952, 65, 109, 128, 140
-0.991952, 425, 193, 488, 224
-0.991959, 409, 153, 472, 184
-0.991963, 137, 257, 200, 320
-0.991974, 121, 209, 152, 333
-0.991975, 337, 125, 400, 156
-0.991997, 177, 1, 240, 333
-0.99202, 281, 205, 344, 236
-0.992023, 281, 121, 344, 152
-0.992027, 209, 181, 272, 212
-0.99203, 257, 197, 320, 228
-0.992047, 153, 137, 216, 168
-0.992064, 433, 177, 496, 208
-0.992074, 369, 193, 496, 256
-0.992075, 193, 197, 256, 228
-0.992087, 149, 209, 180, 333
-0.992105, 337, 153, 400, 184
-0.99211, 257, 1, 320, 333
-0.992121, 305, 161, 368, 192
-0.99213, 297, 177, 328, 304
-0.992141, 161, 161, 288, 192
-0.992151, 121, 217, 184, 280
-0.992158, 169, 121, 232, 152
-0.992173, 81, 217, 144, 280
-0.992204, 1, 17, 64, 48
-0.992218, 217, 121, 280, 152
-0.992241, 57, 257, 120, 320
-0.992256, 41, 41, 104, 104
-0.992274, 53, 101, 84, 132
-0.992277, 385, 185, 448, 216
-0.992291, 209, 165, 240, 196
-0.992305, 353, 165, 416, 196
-0.992309, 17, 217, 144, 280
-0.992318, 1, 97, 64, 128
-0.99232, 337, 1, 400, 333
-0.992323, 377, 129, 440, 160
-0.992325, 33, 141, 64, 172
-0.992328, 433, 133, 496, 164
-0.99233, 41, 113, 72, 144
-0.992341, 445, 209, 476, 333
-0.992365, 417, 193, 448, 256
-0.992379, 313, 121, 376, 152
-0.99238, 393, 165, 456, 196
-0.992381, 45, 125, 76, 156
-0.992384, 181, 161, 212, 192
-0.992389, 45, 153, 76, 184
-0.992402, 117, 141, 148, 172
-0.992432, 409, 97, 472, 160
-0.992432, 53, 141, 84, 172
-0.992436, 369, 1, 432, 333
-0.992457, 129, 169, 384, 232
-0.992467, 1, 1, 32, 128
-0.992471, 193, 161, 224, 192
-0.992494, 9, 25, 72, 88
-0.992504, 237, 165, 268, 196
-0.99251, 129, 137, 160, 168
-0.992519, 133, 153, 164, 184
-0.992519, 409, 129, 472, 160
-0.99252, 49, 177, 176, 240
-0.992548, 69, 141, 100, 172
-0.992555, 65, 157, 96, 188
-0.992556, 353, 185, 416, 216
-0.992568, 169, 161, 200, 192
-0.992571, 225, 153, 256, 184
-0.992582, 225, 165, 256, 196
-0.992585, 1, 137, 500, 200
-0.992602, 65, 173, 128, 204
-0.99261, 69, 121, 100, 152
-0.992616, 393, 137, 424, 168
-0.992624, 113, 169, 176, 200
-0.992649, 297, 173, 328, 204
-0.992671, 89, 113, 152, 144
-0.992672, 253, 161, 284, 192
-0.992679, 205, 153, 236, 184
-0.992691, 85, 125, 116, 156
-0.992697, 69, 109, 100, 140
-0.9927, 81, 137, 112, 168
-0.992704, 241, 153, 272, 184
-0.992715, 121, 153, 152, 184
-0.992716, 149, 161, 180, 192
-0.992721, 33, 105, 288, 168
-0.992725, 457, 157, 488, 188
-0.992729, 417, 141, 448, 172
-0.992732, 277, 165, 308, 196
-0.992735, 321, 97, 448, 160
-0.992744, 113, 117, 176, 148
-0.992748, 153, 217, 216, 280
-0.99276, 85, 165, 116, 196
-0.992764, 233, 185, 264, 216
-0.992771, 137, 173, 200, 204
-0.992779, 141, 137, 172, 168
-0.992786, 89, 1, 152, 128
-0.992788, 457, 141, 488, 172
-0.99279, 437, 145, 468, 176
-0.992791, 385, 153, 416, 184
-0.992793, 33, 141, 160, 172
-0.992802, 401, 153, 432, 184
-0.992804, 21, 141, 52, 172
-0.992817, 369, 137, 400, 168
-0.992827, 281, 185, 312, 216
-0.992828, 313, 149, 376, 180
-0.992836, 257, 173, 288, 204
-0.992837, 449, 153, 480, 216
-0.992839, 353, 169, 384, 232
-0.992841, 41, 101, 72, 132
-0.992846, 25, 121, 56, 152
-0.992862, 57, 113, 88, 144
-0.992863, 381, 137, 412, 168
-0.99287, 97, 133, 128, 164
-0.99288, 1, 165, 64, 196
-0.992888, 25, 153, 56, 184
-0.992892, 81, 153, 208, 184
-0.992895, 229, 129, 260, 160
-0.992899, 173, 209, 204, 333
-0.992903, 241, 133, 272, 164
-0.992917, 129, 113, 160, 176
-0.99292, 305, 157, 336, 188
-0.992933, 433, 25, 496, 88
-0.992937, 59, 121, 74, 184
-0.992939, 17, 5, 48, 36
-0.992944, 409, 181, 472, 212
-0.992953, 305, 209, 368, 240
-0.992954, 317, 173, 348, 204
-0.992959, 265, 153, 296, 184
-0.992961, 341, 177, 372, 304
-0.992963, 373, 169, 404, 232
-0.992969, 385, 129, 416, 192
-0.992969, 433, 297, 496, 328
-0.992974, 317, 177, 348, 304
-0.992981, 25, 17, 88, 48
-0.992987, 9, 149, 40, 180
-0.992992, 469, 157, 500, 188
-0.992997, 221, 185, 252, 216
-0.993, 413, 197, 444, 228
-0.993, 337, 209, 400, 240
-0.993001, 177, 97, 304, 160
-0.993008, 249, 121, 280, 152
-0.993013, 433, 121, 496, 152
-0.993026, 145, 117, 208, 148
-0.993029, 373, 153, 404, 184
-0.993032, 157, 149, 188, 180
-0.993036, 53, 89, 84, 120
-0.993044, 257, 257, 320, 320
-0.993048, 341, 137, 372, 168
-0.993054, 385, 209, 448, 240
-0.993059, 193, 173, 224, 204
-0.993063, 225, 197, 256, 228
-0.993069, 101, 121, 132, 152
-0.99307, 245, 181, 276, 212
-0.993071, 373, 197, 404, 228
-0.993077, 193, 149, 224, 180
-0.993086, 153, 137, 184, 168
-0.993089, 361, 197, 392, 228
-0.99309, 113, 129, 144, 160
-0.993093, 425, 205, 488, 236
-0.993094, 269, 185, 300, 216
-0.993096, 57, 125, 88, 156
-0.993098, 321, 137, 352, 168
-0.993112, 361, 209, 424, 240
-0.993115, 405, 137, 436, 168
-0.993118, 425, 197, 456, 228
-0.993121, 385, 197, 416, 228
-0.993123, 209, 141, 240, 172
-0.993129, 397, 197, 428, 228
-0.993138, 81, 289, 144, 320
-0.993139, 353, 137, 384, 168
-0.993146, 57, 289, 120, 320
-0.993148, 337, 173, 368, 204
-0.993152, 5, 137, 36, 168
-0.993154, 169, 137, 200, 168
-0.993156, 173, 149, 204, 180
-0.993157, 229, 141, 260, 172
-0.993162, 9, 217, 72, 280
-0.993164, 445, 157, 476, 188
-0.993164, 109, 165, 140, 196
-0.993169, 97, 165, 128, 196
-0.993173, 469, 141, 500, 172
-0.993178, 401, 297, 464, 328
-0.993178, 313, 121, 344, 152
-0.99318, 181, 173, 212, 204
-0.993182, 333, 197, 364, 228
-0.99319, 337, 185, 368, 216
-0.993191, 321, 189, 352, 220
-0.993195, 349, 197, 380, 228
-0.993197, 33, 5, 96, 36
-0.993204, 125, 125, 156, 156
-0.993208, 73, 129, 88, 192
-0.993209, 217, 121, 248, 152
-0.993213, 193, 137, 224, 168
-0.993223, 33, 165, 64, 196
-0.993223, 145, 17, 272, 80
-0.993224, 265, 137, 296, 168
-0.993226, 441, 81, 472, 208
-0.993226, 361, 157, 392, 188
-0.993226, 1, 289, 64, 320
-0.993236, 57, 85, 120, 116
-0.993239, 13, 17, 44, 48
-0.99324, 25, 289, 88, 320
-0.993241, 65, 121, 80, 184
-0.993242, 41, 61, 104, 92
-0.993248, 129, 217, 256, 280
-0.993255, 305, 197, 336, 228
-0.993257, 21, 65, 52, 96
-0.993258, 5, 5, 36, 36
-0.993258, 293, 193, 324, 224
-0.993258, 281, 293, 344, 324
-0.993262, 137, 165, 168, 196
-0.993262, 265, 105, 328, 136
-0.993264, 333, 121, 364, 152
-0.993266, 293, 137, 324, 168
-0.993267, 53, 165, 84, 196
-0.993272, 41, 81, 72, 112
-0.993276, 29, 93, 60, 124
-0.993284, 61, 209, 92, 333
-0.993289, 97, 153, 128, 184
-0.993291, 281, 133, 312, 164
-0.993292, 201, 293, 264, 324
-0.993298, 205, 121, 236, 152
-0.993301, 229, 117, 260, 148
-0.993302, 377, 293, 440, 324
-0.993308, 281, 153, 312, 184
-0.993316, 137, 125, 168, 156
-0.993316, 345, 129, 376, 192
-0.993323, 401, 105, 464, 136
-0.993323, 313, 285, 376, 316
-0.993324, 165, 121, 196, 152
-0.993325, 109, 153, 140, 184
-0.993328, 261, 121, 292, 152
-0.993329, 217, 205, 280, 236
-0.99333, 145, 149, 176, 180
-0.993333, 29, 109, 60, 140
-0.993333, 121, 289, 184, 320
-0.993333, 413, 153, 444, 184
-0.993335, 225, 105, 288, 136
-0.993338, 361, 105, 424, 136
-0.993339, 257, 293, 320, 324
-0.99334, 49, 17, 176, 80
-0.993341, 349, 165, 380, 196
-0.993342, 121, 165, 152, 196
-0.993344, 209, 177, 240, 208
-0.993345, 181, 137, 212, 168
-0.993346, 305, 105, 368, 136
-0.993352, 225, 293, 288, 324
-0.993371, 457, 81, 488, 208
-0.993372, 193, 1, 256, 32
-0.993374, 249, 113, 280, 176
-0.993378, 457, 209, 488, 333
-0.993394, 25, 181, 88, 212
-0.993395, 273, 1, 336, 32
-0.9934, 169, 105, 232, 136
-0.993408, 189, 209, 220, 333
-0.993413, 361, 117, 424, 148
-0.993414, 73, 21, 136, 52
-0.993424, 1, 57, 128, 120
-0.993432, 129, 257, 256, 320
-0.993437, 273, 97, 400, 160
-0.993455, 87, 121, 102, 184
-0.993462, 169, 185, 232, 248
-0.993485, 75, 105, 90, 168
-0.993493, 55, 97, 70, 160
-0.993549, 289, 257, 416, 320
-0.993556, 65, 97, 80, 160
-0.993602, 225, 209, 352, 272
-0.993621, 49, 105, 64, 168
-0.993641, 117, 161, 148, 224
-0.993648, 49, 217, 112, 280
-0.993672, 209, 25, 272, 88
-0.993679, 225, 169, 480, 232
-0.993705, 413, 17, 444, 80
-0.993716, 433, 209, 496, 272
-0.99374, 161, 257, 224, 320
-0.993761, 209, 257, 336, 320
-0.993773, 393, 177, 424, 304
-0.993827, 385, 169, 416, 232
-0.99383, 89, 257, 152, 320
-0.993844, 25, 209, 56, 333
-0.993852, 365, 177, 396, 304
-0.993871, 161, 209, 192, 333
-0.993951, 253, 193, 284, 256
-0.993968, 369, 97, 496, 160
-0.993997, 377, 273, 440, 333
-0.994002, 417, 209, 448, 333
-0.994006, 17, 125, 144, 156
-0.994039, 305, 1, 368, 333
-0.994062, 313, 257, 376, 320
-0.994139, 45, 73, 76, 136
-0.99414, 369, 257, 496, 320
-0.994141, 353, 177, 384, 304
-0.994158, 469, 209, 500, 333
-0.994173, 345, 257, 408, 320
-0.994183, 245, 137, 260, 200
-0.994198, 313, 105, 344, 168
-0.994201, 193, 217, 256, 280
-0.994201, 209, 257, 272, 320
-0.994208, 433, 169, 464, 232
-0.994216, 409, 257, 472, 320
-0.994223, 241, 217, 304, 280
-0.994244, 41, 209, 72, 333
-0.994265, 353, 141, 480, 172
-0.994268, 409, 129, 440, 192
-0.994279, 239, 137, 254, 200
-0.994303, 433, 209, 464, 333
-0.994337, 437, 1, 468, 64
-0.99435, 79, 137, 94, 200
-0.994353, 233, 1, 264, 64
-0.994357, 245, 161, 260, 224
-0.994358, 217, 209, 280, 272
-0.994422, 81, 217, 208, 280
-0.99443, 233, 257, 296, 320
-0.99443, 289, 257, 352, 320
-0.99443, 213, 185, 244, 248
-0.994461, 377, 17, 408, 80
-0.994476, 257, 1, 288, 64
-0.994498, 1, 177, 64, 240
-0.99454, 381, 177, 412, 304
-0.994542, 245, 1, 276, 128
-0.994603, 225, 97, 256, 160
-0.994627, 81, 165, 208, 196
-0.994634, 433, 1, 496, 333
-0.994641, 253, 137, 268, 200
-0.994643, 121, 185, 184, 248
-0.994649, 177, 217, 304, 280
-0.99466, 417, 169, 448, 232
-0.994662, 185, 257, 248, 320
-0.994673, 241, 173, 368, 204
-0.994691, 127, 137, 142, 200
-0.994782, 105, 161, 136, 224
-0.994792, 225, 161, 240, 224
-0.994807, 9, 97, 40, 160
-0.994845, 193, 25, 320, 88
-0.994846, 237, 161, 252, 224
-0.994888, 139, 137, 154, 200
-0.994893, 233, 1, 264, 128
-0.994901, 251, 161, 266, 224
-0.994907, 69, 17, 100, 144
-0.994907, 225, 137, 240, 200
-0.994915, 409, 25, 472, 88
-0.994923, 1, 145, 32, 272
-0.994925, 365, 17, 396, 80
-0.994938, 215, 137, 230, 200
-0.994947, 43, 113, 58, 176
-0.994952, 405, 177, 436, 304
-0.994956, 49, 137, 64, 200
-0.994956, 189, 137, 204, 200
-0.994959, 9, 209, 40, 333
-0.994975, 93, 129, 108, 192
-0.994988, 401, 17, 432, 80
-0.995033, 57, 161, 88, 224
-0.995041, 129, 141, 256, 172
-0.995042, 303, 169, 318, 232
-0.995062, 1, 169, 500, 232
-0.995071, 259, 161, 274, 224
-0.995072, 1, 161, 128, 192
-0.99509, 81, 113, 96, 176
-0.995157, 263, 137, 278, 200
-0.995169, 99, 129, 114, 192
-0.995184, 231, 137, 246, 200
-0.995203, 333, 193, 364, 256
-0.995228, 201, 1, 232, 128
-0.99525, 171, 137, 186, 200
-0.995256, 265, 161, 280, 224
-0.995266, 129, 121, 384, 184
-0.99528, 433, 265, 496, 328
-0.99529, 37, 121, 52, 184
-0.995293, 1, 177, 128, 240
-0.995325, 341, 105, 372, 168
-0.995327, 231, 161, 246, 224
-0.995371, 369, 157, 496, 188
-0.995372, 329, 209, 360, 333
-0.995381, 333, 65, 364, 192
-0.995385, 203, 137, 218, 200
-0.995398, 289, 173, 416, 204
-0.995402, 303, 137, 318, 200
-0.995436, 219, 161, 234, 224
-0.995493, 185, 25, 248, 88
-0.995506, 273, 137, 288, 200
-0.995513, 181, 137, 196, 200
-0.995514, 425, 17, 456, 80
-0.995525, 209, 161, 336, 192
-0.99555, 133, 137, 148, 200
-0.995553, 461, 153, 492, 216
-0.995562, 97, 17, 128, 80
-0.995565, 369, 217, 432, 280
-0.995608, 225, 193, 480, 256
-0.995634, 217, 1, 248, 64
-0.995667, 225, 185, 352, 216
-0.995677, 21, 65, 52, 128
-0.995685, 141, 113, 172, 176
-0.995685, 209, 137, 224, 200
-0.99571, 197, 137, 212, 200
-0.995718, 353, 217, 480, 280
-0.995722, 213, 1, 244, 128
-0.995735, 23, 1, 38, 64
-0.995742, 293, 193, 324, 256
-0.995742, 1, 109, 128, 140
-0.995774, 121, 129, 136, 192
-0.995791, 1, 113, 500, 176
-0.995795, 49, 81, 64, 144
-0.995819, 309, 169, 324, 232
-0.995834, 85, 33, 116, 160
-0.995836, 65, 121, 192, 152
-0.995868, 389, 17, 420, 80
-0.995873, 329, 137, 344, 200
-0.995891, 193, 173, 320, 204
-0.995899, 457, 17, 488, 80
-0.995904, 321, 41, 448, 104
-0.995914, 189, 1, 220, 128
-0.995939, 313, 137, 328, 200
-0.995964, 333, 17, 364, 80
-0.995974, 17, 257, 48, 320
-0.995977, 213, 161, 228, 224
-0.996004, 327, 169, 342, 232
-0.996026, 149, 1, 180, 128
-0.996034, 297, 169, 312, 232
-0.996055, 319, 137, 334, 200
-0.99606, 289, 193, 416, 224
-0.996065, 29, 1, 60, 64
-0.996068, 279, 137, 294, 200
-0.99608, 55, 145, 70, 208
-0.99609, 165, 1, 196, 128
-0.99609, 273, 25, 336, 88
-0.996109, 105, 137, 120, 200
-0.996112, 43, 137, 58, 200
-0.996114, 67, 145, 82, 208
-0.996125, 81, 141, 208, 172
-0.996143, 293, 137, 308, 200
-0.996154, 353, 197, 480, 228
-0.996169, 261, 1, 292, 128
-0.996169, 369, 1, 400, 128
-0.996176, 161, 137, 176, 200
-0.996206, 257, 137, 384, 168
-0.99621, 273, 17, 304, 80
-0.99622, 33, 161, 64, 224
-0.996239, 353, 17, 384, 80
-0.996242, 153, 137, 168, 200
-0.996264, 329, 105, 360, 168
-0.996266, 335, 137, 350, 200
-0.996287, 69, 17, 100, 80
-0.99632, 55, 73, 70, 136
-0.996328, 369, 41, 496, 104
-0.996349, 201, 185, 232, 248
-0.996365, 459, 129, 474, 192
-0.996373, 9, 73, 40, 136
-0.996386, 111, 137, 126, 200
-0.996411, 275, 161, 290, 224
-0.996433, 145, 137, 160, 200
-0.996459, 319, 169, 334, 232
-0.996474, 285, 1, 316, 128
-0.996482, 305, 137, 432, 168
-0.996486, 405, 185, 436, 248
-0.996487, 273, 1, 304, 128
-0.996494, 67, 121, 82, 152
-0.996504, 185, 17, 216, 80
-0.996517, 125, 257, 156, 320
-0.996521, 289, 161, 304, 224
-0.99655, 287, 137, 302, 200
-0.996551, 177, 1, 208, 128
-0.996564, 429, 193, 460, 256
-0.996596, 453, 137, 468, 200
-0.996598, 409, 1, 440, 128
-0.996601, 305, 157, 432, 188
-0.996603, 209, 125, 336, 156
-0.996604, 37, 145, 52, 208
-0.99661, 5, 265, 36, 328
-0.996637, 49, 41, 176, 104
-0.996651, 37, 1, 68, 256
-0.996682, 235, 185, 250, 248
-0.996684, 29, 113, 44, 176
-0.996684, 97, 105, 112, 168
-0.99669, 373, 121, 404, 184
-0.996695, 195, 161, 210, 224
-0.996703, 25, 145, 40, 208
-0.996709, 87, 97, 102, 160
-0.996713, 447, 145, 462, 208
-0.996732, 469, 17, 500, 80
-0.996733, 129, 173, 256, 204
-0.996734, 333, 169, 348, 232
-0.996741, 291, 185, 306, 248
-0.996742, 257, 161, 384, 192
-0.99675, 185, 113, 216, 176
-0.996756, 129, 129, 256, 160
-0.996774, 289, 217, 416, 280
-0.996778, 57, 125, 72, 156
-0.996786, 283, 185, 298, 248
-0.996797, 205, 17, 236, 80
-0.996818, 83, 121, 98, 152
-0.996829, 61, 1, 92, 256
-0.996839, 97, 185, 224, 248
-0.996868, 257, 17, 500, 80
-0.996883, 181, 161, 196, 224
-0.996885, 61, 145, 76, 208
-0.996898, 17, 1, 32, 64
-0.996919, 137, 1, 168, 128
-0.996921, 129, 17, 160, 80
-0.996928, 33, 81, 288, 144
-0.996929, 45, 121, 60, 152
-0.996934, 349, 137, 364, 200
-0.996935, 293, 1, 324, 64
-0.996943, 409, 1, 440, 256
-0.996945, 281, 1, 312, 256
-0.99697, 209, 137, 336, 168
-0.996974, 19, 145, 34, 208
-0.996974, 285, 105, 316, 168
-0.996979, 49, 141, 64, 172
-0.996986, 283, 161, 298, 224
-0.996994, 343, 137, 358, 200
-0.997, 221, 1, 252, 256
-0.997012, 305, 1, 336, 64
-0.997014, 157, 17, 188, 80
-0.997015, 449, 105, 480, 168
-0.997021, 209, 197, 336, 228
-0.997027, 257, 41, 384, 104
-0.997032, 453, 1, 484, 128
-0.997034, 49, 109, 64, 140
-0.997038, 339, 169, 354, 232
-0.997039, 25, 185, 88, 248
-0.997043, 73, 1, 104, 256
-0.997047, 1, 97, 128, 128
-0.99705, 177, 149, 304, 180
-0.997051, 131, 141, 146, 172
-0.997053, 17, 25, 48, 88
-0.997056, 73, 125, 88, 156
-0.997064, 337, 65, 464, 128
-0.997079, 325, 1, 356, 128
-0.997105, 353, 129, 480, 160
-0.997106, 13, 1, 44, 256
-0.997114, 135, 113, 150, 176
-0.997165, 91, 161, 106, 224
-0.997168, 63, 133, 78, 164
-0.997177, 29, 1, 44, 64
-0.997198, 337, 177, 464, 208
-0.99721, 389, 1, 420, 256
-0.997216, 57, 141, 72, 172
-0.997222, 297, 1, 328, 128
-0.997225, 33, 17, 288, 80
-0.997248, 85, 161, 100, 224
-0.997249, 51, 129, 66, 160
-0.997267, 235, 185, 250, 216
-0.99728, 89, 121, 104, 152
-0.997292, 195, 161, 210, 192
-0.997299, 425, 1, 456, 128
-0.997304, 25, 1, 56, 256
-0.997306, 373, 1, 404, 256
-0.997307, 273, 205, 400, 236
-0.997314, 55, 101, 70, 132
-0.997317, 73, 153, 88, 216
-0.99732, 77, 109, 92, 140
-0.997321, 175, 161, 190, 192
-0.997323, 31, 145, 46, 208
-0.997326, 175, 161, 190, 224
-0.997329, 185, 161, 200, 192
-0.997334, 403, 129, 418, 192
-0.997335, 161, 17, 416, 80
-0.997341, 49, 109, 176, 140
-0.997341, 207, 161, 222, 224
-0.997343, 57, 113, 72, 144
-0.997351, 361, 137, 376, 200
-0.997351, 225, 81, 352, 144
-0.997361, 145, 185, 208, 248
-0.997368, 217, 165, 232, 196
-0.997378, 49, 1, 80, 256
-0.997379, 355, 129, 370, 192
-0.997382, 141, 153, 156, 184
-0.997402, 421, 145, 436, 208
-0.997405, 465, 129, 480, 192
-0.997408, 35, 141, 50, 172
-0.997409, 153, 65, 184, 192
-0.997412, 341, 1, 372, 128
-0.997417, 71, 137, 86, 168
-0.997426, 189, 161, 204, 224
-0.997428, 257, 121, 384, 152
-0.997432, 409, 217, 472, 280
-0.997432, 125, 141, 140, 172
-0.997439, 237, 1, 268, 256
-0.997441, 33, 173, 160, 204
-0.997441, 393, 137, 408, 200
-0.997441, 257, 185, 272, 248
-0.997449, 229, 165, 244, 196
-0.997451, 241, 193, 256, 256
-0.997455, 97, 1, 128, 256
-0.997463, 145, 41, 272, 104
-0.997466, 61, 73, 76, 136
-0.997471, 437, 137, 452, 200
-0.997482, 425, 1, 456, 256
-0.9975, 85, 1, 116, 256
-0.997505, 61, 97, 76, 128
-0.997508, 223, 153, 238, 184
-0.997512, 63, 109, 78, 140
-0.997514, 201, 161, 216, 224
-0.997517, 409, 129, 424, 192
-0.997529, 211, 165, 226, 196
-0.99753, 385, 169, 400, 232
-0.997546, 277, 185, 292, 248
-0.997546, 225, 149, 352, 180
-0.997553, 43, 73, 58, 136
-0.997557, 167, 161, 182, 224
-0.997565, 145, 65, 272, 128
-0.997566, 301, 169, 316, 200
-0.997567, 97, 193, 352, 256
-0.997572, 431, 137, 446, 200
-0.997576, 141, 137, 156, 168
-0.997576, 1, 257, 256, 320
-0.997584, 193, 1, 224, 256
-0.997588, 247, 97, 262, 160
-0.997588, 269, 161, 284, 192
-0.997589, 239, 165, 254, 196
-0.997589, 57, 153, 72, 184
-0.997591, 209, 1, 240, 256
-0.997611, 205, 161, 220, 192
-0.997614, 337, 217, 400, 280
-0.997626, 21, 5, 36, 36
-0.997627, 471, 129, 486, 192
-0.997627, 161, 117, 288, 148
-0.99763, 463, 145, 478, 176
-0.997635, 71, 81, 86, 144
-0.997638, 77, 141, 92, 172
-0.997643, 129, 113, 144, 176
-0.997649, 269, 1, 300, 256
-0.99765, 367, 129, 382, 192
-0.997655, 79, 161, 94, 224
-0.997667, 333, 1, 364, 256
-0.997669, 437, 169, 452, 232
-0.99767, 49, 161, 64, 224
-0.997672, 49, 97, 176, 128
-0.997673, 69, 157, 84, 188
-0.997673, 421, 169, 436, 232
-0.997675, 43, 141, 58, 172
-0.997679, 243, 153, 258, 184
-0.997681, 263, 161, 278, 192
-0.997682, 289, 217, 352, 280
-0.997692, 383, 129, 398, 192
-0.997695, 243, 133, 258, 164
-0.997696, 233, 153, 248, 184
-0.997702, 305, 125, 432, 156
-0.997731, 355, 169, 370, 232
-0.997737, 217, 153, 232, 184
-0.997741, 223, 165, 238, 196
-0.997741, 25, 149, 40, 180
-0.997743, 313, 1, 344, 256
-0.997745, 453, 145, 468, 176
-0.997754, 37, 89, 52, 152
-0.997754, 45, 153, 60, 184
-0.997759, 345, 161, 360, 224
-0.997763, 71, 109, 86, 140
-0.997765, 251, 165, 266, 196
-0.997765, 245, 165, 260, 196
-0.997768, 39, 125, 54, 156
-0.997775, 85, 161, 100, 192
-0.997778, 247, 185, 262, 248
-0.997782, 239, 97, 254, 160
-0.997786, 169, 161, 184, 192
-0.997796, 249, 153, 264, 184
-0.997799, 177, 185, 304, 216
-0.9978, 391, 137, 406, 168
-0.9978, 119, 137, 134, 168
-0.997808, 379, 137, 394, 168
-0.997814, 257, 165, 272, 196
-0.997818, 135, 157, 150, 188
-0.997819, 39, 153, 54, 184
-0.997819, 275, 161, 290, 192
-0.997821, 93, 165, 108, 196
-0.99783, 129, 1, 160, 256
-0.997831, 257, 65, 288, 320
-0.997845, 97, 133, 112, 164
-0.997845, 63, 145, 78, 176
-0.997846, 83, 133, 98, 164
-0.99787, 409, 145, 424, 176
-0.997877, 301, 65, 332, 320
-0.997885, 1, 85, 128, 116
-0.997901, 357, 1, 388, 256
-0.997907, 75, 157, 90, 188
-0.997908, 257, 105, 500, 168
-0.997911, 403, 145, 418, 176
-0.997911, 51, 153, 66, 184
-0.997914, 181, 1, 212, 256
-0.99792, 459, 157, 474, 188
-0.99793, 27, 5, 42, 36
-0.997939, 391, 153, 406, 184
-0.997944, 67, 97, 82, 128
-0.997952, 1, 69, 128, 100
-0.997955, 367, 137, 382, 168
-0.997964, 345, 41, 408, 104
-0.997968, 429, 197, 444, 228
-0.997972, 355, 137, 370, 168
-0.997985, 161, 153, 176, 184
-0.997988, 113, 1, 144, 256
-0.997988, 127, 153, 142, 184
-0.997991, 255, 153, 270, 184
-0.998004, 131, 129, 146, 160
-0.998017, 161, 165, 176, 196
-0.998024, 211, 153, 226, 184
-0.998035, 469, 153, 484, 184
-0.998047, 235, 197, 250, 228
-0.998055, 17, 141, 32, 172
-0.998056, 81, 41, 144, 104
-0.998063, 345, 1, 376, 256
-0.998064, 151, 153, 166, 184
-0.998066, 141, 1, 172, 256
-0.998074, 165, 1, 196, 256
-0.998083, 397, 137, 412, 168
-0.998106, 33, 161, 48, 192
-0.998114, 271, 173, 286, 204
-0.99812, 55, 89, 70, 120
-0.99812, 147, 137, 162, 168
-0.998128, 243, 121, 258, 152
-0.998132, 249, 133, 264, 164
-0.998139, 385, 137, 400, 168
-0.998144, 421, 141, 436, 172
-0.998145, 101, 165, 116, 196
-0.998148, 329, 173, 344, 204
-0.998158, 129, 89, 256, 152
-0.998162, 103, 133, 118, 164
-0.998171, 469, 141, 484, 172
-0.998172, 373, 137, 388, 168
-0.998172, 245, 181, 260, 212
-0.998179, 89, 133, 104, 164
-0.998187, 347, 137, 362, 168
-0.998199, 237, 133, 252, 164
-0.998213, 413, 157, 428, 188
-0.998214, 397, 153, 412, 184
-0.998214, 161, 201, 288, 232
-0.998219, 205, 173, 220, 204
-0.998228, 97, 121, 112, 152
-0.998235, 277, 181, 292, 212
-0.998245, 295, 169, 310, 200
-0.998246, 285, 185, 300, 216
-0.998249, 253, 121, 268, 152
-0.998257, 223, 133, 238, 164
-0.998259, 475, 157, 490, 188
-0.998264, 97, 257, 352, 320
-0.998268, 181, 149, 196, 180
-0.998277, 381, 197, 396, 228
-0.998279, 289, 65, 416, 128
-0.99828, 393, 197, 408, 228
-0.998288, 225, 257, 480, 320
-0.998293, 339, 173, 354, 204
-0.998295, 229, 185, 244, 216
-0.998301, 197, 173, 212, 204
-0.998305, 399, 197, 414, 228
-0.998305, 475, 141, 490, 172
-0.998307, 235, 121, 250, 152
-0.998308, 383, 153, 398, 184
-0.998308, 293, 185, 308, 216
-0.998311, 269, 149, 284, 180
-0.998312, 415, 137, 430, 168
-0.998312, 157, 137, 172, 168
-0.998326, 445, 1, 476, 256
-0.998333, 1, 1, 32, 256
-0.998347, 225, 179, 256, 194
-0.998348, 321, 177, 352, 192
-0.998348, 29, 5, 60, 20
-0.998349, 261, 167, 292, 182
-0.99835, 1, 149, 32, 164
-0.998352, 65, 171, 96, 186
-0.998354, 21, 117, 52, 132
-0.998354, 241, 183, 272, 198
-0.998354, 85, 171, 116, 186
-0.998354, 261, 151, 292, 166
-0.998356, 21, 161, 52, 176
-0.998358, 21, 17, 52, 32
-0.998358, 277, 183, 308, 198
-0.998358, 461, 143, 492, 158
-0.998358, 125, 133, 156, 148
-0.998359, 429, 201, 460, 216
-0.99836, 365, 141, 396, 156
-0.99836, 45, 175, 76, 190
-0.99836, 281, 153, 312, 168
-0.99836, 301, 195, 332, 210
-0.998361, 237, 137, 268, 152
-0.998367, 33, 175, 64, 190
-0.998367, 333, 137, 364, 152
-0.998367, 297, 179, 328, 194
-0.998368, 353, 141, 384, 156
-0.998369, 25, 129, 56, 144
-0.998369, 129, 97, 384, 160
-0.99837, 65, 143, 96, 158
-0.998371, 81, 127, 112, 142
-0.998373, 13, 147, 44, 162
-0.998373, 257, 195, 288, 210
-0.998376, 69, 165, 100, 180
-0.998377, 17, 153, 80, 168
-0.998378, 369, 41, 432, 104
-0.998379, 353, 157, 384, 172
-0.99838, 253, 201, 284, 216
-0.998381, 1, 9, 32, 24
-0.998383, 229, 131, 260, 146
-0.998384, 457, 149, 488, 164
-0.998386, 21, 175, 52, 190
-0.998387, 277, 175, 308, 190
-0.998389, 313, 157, 344, 172
-0.99839, 37, 165, 68, 180
-0.998391, 377, 141, 408, 156
-0.998392, 305, 293, 432, 324
-0.998393, 137, 139, 168, 154
-0.998396, 449, 161, 480, 176
-0.998396, 397, 155, 428, 170
-0.998397, 57, 123, 88, 138
-0.998398, 249, 131, 280, 146
-0.998398, 413, 149, 444, 164
-0.9984, 157, 169, 188, 184
-0.998401, 441, 147, 472, 162
-0.998402, 281, 189, 312, 204
-0.998404, 153, 1, 184, 256
-0.998411, 237, 189, 268, 204
-0.998411, 13, 153, 44, 168
-0.998414, 413, 197, 444, 212
-0.998415, 417, 143, 448, 158
-0.998417, 337, 209, 464, 240
-0.998417, 197, 177, 228, 192
-0.998418, 381, 157, 412, 172
-0.998419, 265, 157, 296, 172
-0.998419, 253, 175, 284, 190
-0.99842, 105, 133, 136, 148
-0.998424, 37, 133, 68, 148
-0.998424, 29, 123, 60, 138
-0.998426, 55, 81, 70, 208
-0.998427, 461, 161, 492, 176
-0.998427, 161, 163, 224, 178
-0.998427, 41, 113, 104, 128
-0.998429, 69, 129, 100, 144
-0.998429, 241, 105, 368, 136
-0.998429, 177, 157, 208, 172
-0.99843, 273, 169, 304, 184
-0.998431, 369, 157, 400, 172
-0.998431, 93, 131, 124, 146
-0.998433, 49, 151, 80, 166
-0.998436, 297, 173, 328, 188
-0.998437, 365, 151, 396, 166
-0.998438, 245, 157, 276, 172
-0.998438, 17, 5, 48, 20
-0.998438, 225, 189, 256, 204
-0.998439, 301, 157, 332, 172
-0.998439, 141, 163, 172, 178
-0.99844, 65, 109, 96, 124
-0.99844, 41, 157, 104, 172
-0.998441, 73, 139, 136, 154
-0.998443, 205, 171, 236, 186
-0.998445, 33, 111, 64, 126
-0.998453, 97, 41, 224, 104
-0.998454, 33, 143, 96, 158
-0.998456, 53, 163, 84, 178
-0.998458, 53, 143, 84, 158
-0.998459, 185, 165, 248, 180
-0.998461, 49, 131, 80, 146
-0.998463, 17, 11, 48, 26
-0.998464, 169, 173, 200, 188
-0.998465, 457, 1, 488, 256
-0.998467, 113, 117, 240, 148
-0.99847, 125, 139, 156, 154
-0.99847, 49, 135, 112, 150
-0.99847, 33, 139, 64, 154
-0.998471, 313, 41, 376, 104
-0.998471, 85, 139, 116, 154
-0.998472, 217, 167, 280, 182
-0.998473, 33, 117, 64, 132
-0.998474, 69, 159, 100, 174
-0.998475, 225, 197, 256, 212
-0.998475, 117, 153, 148, 168
-0.998479, 361, 149, 424, 164
-0.99848, 337, 105, 464, 136
-0.998481, 1, 289, 128, 320
-0.998481, 81, 165, 112, 180
-0.998481, 69, 121, 100, 136
-0.998482, 33, 127, 96, 142
-0.998483, 209, 157, 240, 172
-0.998484, 49, 163, 112, 178
-0.998485, 397, 141, 428, 156
-0.99849, 97, 217, 352, 280
-0.998491, 129, 147, 160, 162
-0.998494, 121, 155, 184, 170
-0.998496, 41, 121, 104, 136
-0.998498, 129, 163, 192, 178
-0.998499, 221, 167, 252, 182
-0.998499, 237, 195, 268, 210
-0.998505, 165, 157, 196, 172
-0.998506, 81, 133, 112, 148
-0.99851, 249, 167, 280, 182
-0.998511, 185, 175, 216, 190
-0.998513, 25, 107, 88, 122
-0.998514, 193, 157, 224, 172
-0.998515, 229, 157, 260, 172
-0.998515, 161, 157, 224, 172
-0.998515, 65, 289, 192, 320
-0.998519, 41, 159, 72, 174
-0.99852, 41, 125, 72, 140
-0.99852, 105, 139, 136, 154
-0.998523, 461, 155, 492, 170
-0.998524, 129, 159, 160, 174
-0.998524, 289, 179, 352, 194
-0.998525, 69, 137, 100, 152
-0.998533, 353, 141, 416, 156
-0.998535, 45, 119, 76, 134
-0.998537, 89, 133, 152, 148
-0.998539, 129, 293, 256, 324
-0.99854, 257, 169, 320, 184
-0.998541, 1, 159, 64, 174
-0.998542, 37, 147, 68, 162
-0.998543, 247, 129, 262, 256
-0.998544, 117, 147, 148, 162
-0.998544, 25, 155, 56, 170
-0.998544, 217, 197, 280, 212
-0.998548, 61, 115, 92, 130
-0.99855, 237, 167, 268, 182
-0.998551, 97, 157, 160, 172
-0.998551, 393, 141, 456, 156
-0.998552, 17, 113, 80, 128
-0.998554, 153, 173, 216, 188
-0.998557, 385, 151, 416, 166
-0.998557, 153, 163, 184, 178
-0.99856, 53, 101, 84, 116
-0.998564, 233, 181, 296, 196
-0.998565, 17, 137, 80, 152
-0.998566, 121, 149, 184, 164
-0.998567, 9, 121, 72, 136
-0.998568, 1, 193, 500, 256
-0.99857, 149, 157, 180, 172
-0.99857, 397, 149, 428, 164
-0.998571, 433, 161, 496, 176
-0.998572, 189, 165, 220, 180
-0.998572, 1, 147, 64, 162
-0.998572, 25, 165, 88, 180
-0.998573, 57, 129, 120, 144
-0.998574, 47, 113, 62, 240
-0.998575, 201, 159, 264, 174
-0.998576, 57, 171, 120, 186
-0.998579, 49, 103, 112, 118
-0.99858, 209, 165, 240, 180
-0.998581, 25, 101, 88, 116
-0.998582, 337, 151, 400, 166
-0.998582, 177, 171, 240, 186
-0.998583, 65, 121, 128, 136
-0.998591, 233, 187, 296, 202
-0.998593, 321, 139, 384, 154
-0.998595, 129, 139, 192, 154
-0.998595, 273, 157, 336, 172
-0.998596, 49, 137, 80, 152
-0.998598, 169, 163, 200, 178
-0.998598, 129, 153, 160, 168
-0.998598, 97, 147, 160, 162
-0.998598, 97, 139, 160, 154
-0.9986, 225, 173, 288, 188
-0.9986, 57, 157, 88, 172
-0.998601, 257, 175, 320, 190
-0.998602, 37, 153, 68, 168
-0.998602, 65, 113, 128, 128
-0.998603, 393, 197, 456, 212
-0.998604, 241, 157, 304, 172
-0.998605, 9, 129, 72, 144
-0.99861, 1, 217, 256, 280
-0.99861, 313, 151, 376, 166
-0.998612, 425, 155, 488, 170
-0.998613, 1, 175, 64, 190
-0.998613, 409, 147, 472, 162
-0.998615, 49, 107, 80, 122
-0.99862, 45, 113, 76, 128
-0.998621, 353, 293, 480, 324
-0.998622, 73, 165, 136, 180
-0.998624, 209, 189, 272, 204
-0.998624, 25, 175, 88, 190
-0.998627, 201, 173, 264, 188
-0.998629, 25, 95, 88, 110
-0.998629, 193, 199, 256, 214
-0.998631, 177, 177, 240, 192
-0.998631, 105, 163, 168, 178
-0.998633, 17, 87, 80, 102
-0.998635, 75, 113, 90, 240
-0.998636, 257, 187, 320, 202
-0.998637, 49, 253, 176, 284
-0.998642, 129, 169, 192, 184
-0.998643, 249, 199, 312, 214
-0.998644, 385, 149, 448, 164
-0.998645, 289, 195, 352, 210
-0.998646, 329, 179, 392, 194
-0.998648, 9, 77, 72, 92
-0.998648, 25, 149, 56, 164
-0.998648, 369, 199, 432, 214
-0.998649, 361, 157, 424, 172
-0.998649, 241, 129, 256, 256
-0.998649, 273, 151, 336, 166
-0.998652, 1, 105, 64, 120
-0.998652, 433, 181, 496, 196
-0.998653, 113, 133, 176, 148
-0.998657, 265, 193, 328, 208
-0.998657, 289, 185, 352, 200
-0.998657, 297, 139, 360, 154
-0.998658, 33, 41, 288, 104
-0.998662, 433, 147, 496, 162
-0.998665, 17, 11, 80, 26
-0.998666, 369, 207, 432, 222
-0.998666, 241, 163, 304, 178
-0.998666, 417, 201, 480, 216
-0.998668, 241, 131, 304, 146
-0.998669, 153, 179, 216, 194
-0.998669, 81, 127, 144, 142
-0.998669, 209, 131, 272, 146
-0.99867, 1, 5, 64, 20
-0.99867, 257, 181, 320, 196
-0.998671, 393, 179, 456, 194
-0.998671, 49, 97, 112, 112
-0.998671, 185, 183, 248, 198
-0.998671, 73, 155, 136, 170
-0.998672, 297, 173, 360, 188
-0.998672, 337, 133, 400, 148
-0.998672, 41, 151, 104, 166
-0.998673, 9, 71, 72, 86
-0.998673, 81, 171, 144, 186
-0.998674, 95, 113, 110, 240
-0.998674, 321, 209, 384, 224
-0.998674, 313, 217, 376, 280
-0.998675, 233, 151, 296, 166
-0.998678, 321, 199, 384, 214
-0.99868, 345, 199, 408, 214
-0.998681, 25, 181, 88, 196
-0.998682, 65, 113, 80, 240
-0.998684, 281, 133, 344, 148
-0.998685, 217, 137, 280, 152
-0.998685, 361, 133, 424, 148
-0.998687, 17, 19, 80, 34
-0.99869, 353, 117, 480, 148
-0.998691, 225, 203, 288, 218
-0.998691, 361, 175, 424, 190
-0.998693, 297, 211, 360, 226
-0.998693, 345, 207, 408, 222
-0.998693, 417, 141, 480, 156
-0.998694, 289, 201, 352, 216
-0.998695, 1, 181, 64, 196
-0.998695, 329, 185, 392, 200
-0.998698, 273, 207, 336, 222
-0.998699, 313, 191, 376, 206
-0.9987, 417, 195, 480, 210
-0.9987, 417, 187, 480, 202
-0.998701, 313, 133, 376, 148
-0.998701, 49, 177, 112, 192
-0.998702, 57, 145, 120, 160
-0.998702, 297, 157, 360, 172
-0.998702, 193, 153, 256, 168
-0.998702, 393, 205, 456, 220
-0.998704, 83, 113, 98, 240
-0.998711, 223, 129, 238, 256
-0.998725, 81, 177, 208, 208
-0.998738, 129, 185, 256, 216
-0.998743, 253, 129, 268, 256
-0.998746, 89, 113, 104, 240
-0.998753, 235, 129, 250, 256
-0.998753, 193, 105, 320, 136
-0.99878, 101, 129, 116, 256
-0.998788, 1, 57, 128, 88
-0.998793, 303, 129, 318, 256
-0.998796, 109, 129, 124, 256
-0.998798, 289, 105, 416, 136
-0.998823, 229, 129, 244, 256
-0.998831, 177, 293, 304, 324
-0.998831, 259, 129, 274, 256
-0.998834, 141, 129, 156, 256
-0.998853, 217, 129, 232, 256
-0.998854, 49, 65, 64, 192
-0.998857, 225, 293, 352, 324
-0.99886, 341, 129, 356, 256
-0.998865, 121, 129, 136, 256
-0.998875, 147, 129, 162, 256
-0.998876, 267, 129, 282, 256
-0.998878, 1, 9, 128, 40
-0.998882, 127, 129, 142, 256
-0.998886, 349, 129, 364, 256
-0.99889, 375, 129, 390, 256
-0.998892, 293, 129, 308, 256
-0.998901, 335, 113, 350, 240
-0.998901, 115, 129, 130, 256
-0.998904, 323, 129, 338, 256
-0.998904, 391, 129, 406, 256
-0.998905, 37, 113, 52, 240
-0.998906, 129, 105, 256, 136
-0.998911, 309, 129, 324, 256
-0.998926, 329, 129, 344, 256
-0.998929, 385, 129, 400, 256
-0.99893, 97, 21, 224, 52
-0.998931, 417, 129, 432, 256
-0.998932, 403, 129, 418, 256
-0.998938, 423, 129, 438, 256
-0.998939, 317, 129, 332, 256
-0.998947, 357, 129, 372, 256
-0.998959, 211, 129, 226, 256
-0.998969, 281, 129, 296, 256
-0.99897, 287, 129, 302, 256
-0.99897, 153, 129, 168, 256
-0.998977, 273, 17, 400, 48
-0.99898, 193, 1, 320, 32
-0.998986, 135, 129, 150, 256
-0.998994, 275, 129, 290, 256
-0.998999, 321, 9, 448, 40
-0.999008, 397, 129, 412, 256
-0.999012, 367, 129, 382, 256
-0.999016, 411, 129, 426, 256
-0.99902, 59, 129, 74, 256
-0.999024, 159, 113, 174, 240
-0.99903, 429, 129, 444, 256
-0.999035, 97, 253, 224, 284
-0.999059, 43, 65, 58, 192
-0.999065, 37, 65, 52, 192
-0.999067, 97, 185, 160, 248
-0.999087, 61, 65, 76, 192
-0.999087, 443, 129, 458, 256
-0.999089, 67, 65, 82, 192
-0.999092, 435, 129, 450, 256
-0.999092, 97, 213, 224, 244
-0.999114, 145, 1, 272, 32
-0.999114, 53, 129, 68, 256
-0.999114, 257, 217, 500, 280
-0.999114, 33, 213, 160, 244
-0.99913, 247, 81, 262, 208
-0.999136, 17, 21, 144, 52
-0.999137, 113, 281, 240, 312
-0.999138, 49, 193, 112, 256
-0.999139, 225, 17, 352, 48
-0.999148, 95, 161, 110, 288
-0.999149, 239, 81, 254, 208
-0.999154, 165, 113, 180, 240
-0.999165, 225, 233, 352, 296
-0.999167, 203, 113, 218, 240
-0.999168, 171, 113, 186, 240
-0.999171, 449, 129, 464, 256
-0.999175, 49, 85, 176, 116
-0.999183, 31, 113, 46, 240
-0.999187, 305, 281, 432, 312
-0.999187, 253, 81, 268, 208
-0.999199, 233, 81, 248, 208
-0.9992, 249, 177, 264, 304
-0.999206, 29, 1, 44, 128
-0.999207, 197, 129, 212, 256
-0.999217, 187, 129, 202, 256
-0.999218, 101, 81, 116, 208
-0.999219, 455, 129, 470, 256
-0.999219, 273, 5, 400, 36
-0.999224, 177, 113, 192, 240
-0.999231, 225, 81, 240, 208
-0.999235, 369, 21, 496, 52
-0.999235, 225, 281, 352, 312
-0.999236, 193, 41, 448, 104
-0.999245, 145, 21, 272, 52
-0.999247, 225, 209, 352, 240
-0.999253, 89, 161, 104, 288
-0.999271, 243, 177, 258, 304
-0.999273, 335, 161, 350, 288
-0.999288, 21, 1, 36, 128
-0.999289, 255, 177, 270, 304
-0.999298, 107, 81, 122, 208
-0.999298, 461, 129, 476, 256
-0.999302, 215, 81, 230, 208
-0.999306, 159, 161, 174, 288
-0.999309, 161, 281, 288, 312
-0.99931, 267, 81, 282, 208
-0.999313, 65, 161, 80, 288
-0.999319, 15, 1, 30, 128
-0.999322, 149, 81, 164, 208
-0.999323, 79, 65, 94, 192
-0.999323, 17, 241, 144, 272
-0.99933, 31, 49, 46, 176
-0.999334, 261, 81, 276, 208
-0.999336, 303, 81, 318, 208
-0.999337, 1, 277, 128, 308
-0.999338, 55, 33, 70, 160
-0.999344, 349, 81, 364, 208
-0.999346, 73, 65, 88, 192
-0.999346, 305, 257, 432, 288
-0.999352, 131, 81, 146, 208
-0.999352, 321, 81, 336, 208
-0.999353, 35, 161, 50, 288
-0.999354, 119, 81, 134, 208
-0.999356, 65, 33, 192, 64
-0.999356, 257, 257, 384, 288
-0.999357, 225, 177, 240, 304
-0.999363, 313, 81, 328, 208
-0.999364, 61, 1, 76, 128
-0.999366, 299, 177, 314, 304
-0.999367, 1, 257, 500, 320
-0.999367, 45, 161, 60, 288
-0.999367, 425, 81, 440, 208
-0.999369, 35, 1, 50, 128
-0.999369, 143, 81, 158, 208
-0.999372, 49, 277, 176, 308
-0.999373, 47, 1, 62, 128
-0.999375, 467, 145, 482, 272
-0.999377, 327, 81, 342, 208
-0.999378, 295, 81, 310, 208
-0.999381, 293, 177, 308, 304
-0.999388, 75, 161, 90, 288
-0.999391, 209, 81, 224, 208
-0.999392, 413, 81, 428, 208
-0.999397, 49, 1, 176, 32
-0.999402, 277, 81, 292, 208
-0.999404, 113, 81, 128, 208
-0.999406, 369, 5, 496, 36
-0.999409, 87, 65, 102, 192
-0.99941, 469, 1, 500, 256
-0.999411, 25, 81, 40, 208
-0.999411, 433, 81, 448, 208
-0.999413, 265, 225, 328, 288
-0.999417, 165, 161, 180, 288
-0.99942, 277, 177, 292, 304
-0.999426, 193, 57, 320, 120
-0.999427, 341, 81, 356, 208
-0.99943, 83, 161, 98, 288
-0.999432, 1, 25, 500, 88
-0.999433, 357, 81, 372, 208
-0.999438, 205, 161, 220, 288
-0.999439, 113, 201, 240, 232
-0.999439, 123, 209, 138, 333
-0.999466, 1, 185, 256, 248
-0.999489, 113, 241, 240, 272
-0.999518, 369, 281, 496, 312
-0.999554, 1, 185, 128, 216
-0.999556, 145, 213, 272, 244
-0.999559, 1, 1, 500, 64
-0.999581, 49, 69, 176, 100
-0.999602, 249, 41, 312, 104
-0.999604, 379, 151, 394, 166
-0.999605, 469, 161, 484, 176
-0.999606, 209, 171, 224, 186
-0.999607, 29, 143, 44, 158
-0.999607, 225, 245, 352, 276
-0.999607, 405, 141, 420, 156
-0.999607, 191, 169, 206, 184
-0.999608, 191, 157, 206, 172
-0.999608, 183, 175, 198, 190
-0.999609, 393, 151, 408, 166
-0.999609, 67, 109, 82, 124
-0.99961, 97, 1, 224, 32
-0.99961, 363, 141, 378, 156
-0.999611, 139, 139, 154, 154
-0.999611, 259, 157, 274, 172
-0.999611, 109, 137, 124, 152
-0.999612, 245, 185, 260, 200
-0.999613, 461, 149, 476, 164
-0.999613, 57, 163, 72, 178
-0.999614, 177, 157, 192, 172
-0.999615, 355, 141, 370, 156
-0.999617, 223, 157, 238, 172
-0.999617, 135, 157, 150, 172
-0.999617, 377, 141, 392, 156
-0.999618, 361, 149, 376, 164
-0.99962, 239, 157, 254, 172
-0.999621, 171, 157, 186, 172
-0.999622, 93, 165, 108, 180
-0.999622, 391, 141, 406, 156
-0.999623, 29, 9, 44, 24
-0.999623, 187, 163, 202, 178
-0.999624, 243, 131, 258, 146
-0.999626, 83, 139, 98, 154
-0.999627, 121, 145, 136, 160
-0.999628, 197, 155, 212, 170
-0.999628, 119, 139, 134, 154
-0.999629, 411, 141, 426, 156
-0.999629, 469, 155, 484, 170
-0.999629, 227, 197, 242, 212
-0.99963, 171, 169, 186, 184
-0.999631, 39, 123, 54, 138
-0.999633, 233, 157, 248, 172
-0.999634, 97, 139, 112, 154
-0.999635, 315, 155, 330, 170
-0.999635, 231, 167, 246, 182
-0.999637, 249, 157, 264, 172
-0.999638, 301, 171, 316, 186
-0.999638, 103, 137, 118, 152
-0.999639, 285, 155, 300, 170
-0.999639, 259, 167, 274, 182
-0.999642, 367, 149, 382, 164
-0.999643, 79, 113, 94, 128
-0.999644, 127, 153, 142, 168
-0.999645, 405, 149, 420, 164
-0.999645, 51, 161, 66, 176
-0.999646, 181, 163, 196, 178
-0.999647, 237, 167, 252, 182
-0.999648, 25, 17, 40, 32
-0.999648, 125, 139, 140, 154
-0.999648, 321, 155, 336, 170
-0.99965, 217, 157, 232, 172
-0.99965, 225, 165, 240, 180
-0.999653, 85, 163, 100, 178
-0.999655, 207, 157, 222, 172
-0.999655, 25, 3, 40, 18
-0.999656, 73, 113, 88, 128
-0.999656, 49, 107, 64, 122
-0.999658, 387, 151, 402, 166
-0.999659, 75, 159, 90, 174
-0.999665, 189, 175, 204, 190
-0.999665, 21, 11, 36, 26
-0.999665, 201, 177, 216, 192
-0.999667, 233, 197, 248, 212
-0.999667, 23, 153, 38, 168
-0.999667, 63, 141, 78, 156
-0.999669, 61, 111, 76, 126
-0.99967, 161, 163, 176, 178
-0.99967, 1, 261, 128, 292
-0.999674, 243, 167, 258, 182
-0.999678, 79, 121, 94, 136
-0.999678, 53, 143, 68, 158
-0.999679, 203, 165, 218, 180
-0.999679, 373, 149, 388, 164
-0.99968, 197, 165, 212, 180
-0.999681, 129, 33, 256, 64
-0.999681, 147, 157, 162, 172
-0.999682, 157, 157, 172, 172
-0.999689, 163, 157, 178, 172
-0.99969, 461, 155, 476, 170
-0.99969, 237, 187, 252, 202
-0.99969, 33, 201, 160, 232
-0.999692, 31, 155, 46, 170
-0.999693, 57, 155, 72, 170
-0.999693, 219, 165, 234, 180
-0.999696, 45, 121, 60, 136
-0.999696, 61, 99, 76, 114
-0.999696, 43, 153, 58, 168
-0.999696, 1, 33, 128, 64
-0.999697, 45, 159, 60, 174
-0.999702, 47, 143, 62, 158
-0.999703, 253, 167, 268, 182
-0.999706, 239, 197, 254, 212
-0.999707, 51, 153, 66, 168
-0.999709, 87, 123, 102, 138
-0.999712, 55, 103, 70, 118
-0.999713, 97, 133, 112, 148
-0.999713, 45, 137, 60, 152
-0.999713, 53, 129, 68, 144
-0.999717, 89, 137, 104, 152
-0.999719, 37, 153, 52, 168
-0.999719, 65, 157, 80, 172
-0.999721, 29, 149, 44, 164
-0.999727, 175, 163, 190, 178
-0.999728, 209, 165, 224, 180
-0.999732, 73, 127, 88, 142
-0.999734, 73, 139, 88, 154
-0.999735, 49, 113, 64, 128
-0.999735, 131, 143, 146, 158
-0.999738, 369, 261, 496, 292
-0.999739, 135, 149, 150, 164
-0.999741, 145, 261, 272, 292
-0.999744, 141, 155, 156, 170
-0.999747, 67, 115, 82, 130
-0.99975, 51, 123, 66, 138
-0.999751, 39, 147, 54, 162
-0.999753, 45, 127, 60, 142
-0.999753, 57, 117, 72, 132
-0.999754, 73, 119, 88, 134
-0.999756, 81, 127, 96, 142
-0.999764, 91, 131, 106, 146
-0.999766, 193, 261, 320, 292
-0.99977, 63, 121, 78, 136
-0.999791, 83, 133, 98, 148
-0.999794, 321, 93, 448, 124
-0.999799, 55, 135, 70, 150
-0.999799, 167, 163, 182, 178
-0.999803, 59, 127, 74, 142
-0.999805, 337, 245, 464, 276
-0.99981, 67, 127, 82, 142
-0.999821, 73, 133, 88, 148
-0.999823, 225, 93, 352, 124
-0.999836, 177, 33, 304, 64
-0.999849, 63, 135, 78, 150
-0.99986, 161, 73, 416, 136
-0.999862, 369, 33, 496, 64
-0.999862, 97, 65, 224, 128
-0.999865, 321, 29, 448, 60
-0.999881, 161, 49, 288, 80
-0.999903, 161, 245, 288, 276
-0.999939, 289, 217, 416, 248
-0.999944, 161, 93, 288, 124
-0.999999, 161, 69, 288, 100
-1.00001, 113, 69, 240, 100
-1.00003, 337, 69, 464, 100
-1.00003, 273, 93, 400, 124
-1.00004, 81, 49, 208, 80
-1.00007, 289, 245, 416, 276
-1.00008, 65, 241, 192, 272
-1.00009, 273, 29, 400, 60
-1.00009, 225, 33, 352, 64
-1.00011, 209, 49, 336, 80
-1.00012, 305, 49, 432, 80
-1.00012, 369, 93, 496, 124
-1.00014, 65, 229, 192, 260
-1.00015, 113, 93, 240, 124
-1.00029, 1, 57, 500, 120
-1.00041, 257, 81, 500, 144
-1.00079, 1, 217, 500, 280
-1.00152, 1, 81, 500, 144
