1872
-0.21769, 1, 1, 500, 333
-0.287723, 1, 65, 500, 320
-0.310946, 65, 1, 320, 333
-0.423339, 129, 33, 384, 288
-0.524686, 1, 33, 256, 288
-0.553521, 225, 1, 480, 333
-0.601837, 225, 65, 480, 320
-0.819829, 145, 1, 272, 333
-0.838276, 161, 33, 288, 288
-0.839264, 97, 33, 224, 288
-0.841183, 1, 33, 128, 288
-0.842021, 209, 33, 336, 288
-0.845899, 65, 1, 192, 333
-0.847348, 1, 97, 500, 224
-0.849957, 337, 65, 464, 320
-0.855483, 1, 145, 500, 272
-0.855586, 289, 65, 416, 320
-0.867306, 49, 33, 176, 288
-0.871769, 1, 1, 128, 333
-0.876699, 337, 1, 464, 333
-0.87689, 257, 1, 384, 333
-0.883712, 1, 193, 500, 320
-0.892585, 225, 129, 480, 256
-0.894274, 193, 1, 320, 333
-0.894782, 97, 145, 352, 272
-0.897132, 193, 65, 448, 192
-0.901261, 1, 145, 256, 272
-0.906516, 257, 193, 500, 320
-0.90693, 161, 209, 416, 333
-0.909422, 97, 49, 352, 176
-0.91127, 1, 49, 500, 176
-0.911816, 113, 145, 240, 272
-0.913905, 65, 193, 320, 320
-0.914037, 33, 97, 288, 224
-0.915257, 177, 81, 304, 208
-0.919569, 225, 65, 352, 192
-0.919923, 409, 113, 472, 240
-0.921731, 177, 193, 304, 320
-0.923704, 177, 129, 304, 256
-0.924335, 369, 113, 496, 240
-0.924844, 305, 129, 432, 256
-0.925447, 177, 145, 240, 272
-0.925531, 25, 129, 88, 256
-0.925951, 129, 145, 192, 272
-0.928916, 201, 81, 264, 208
-0.929878, 1, 145, 128, 272
-0.930727, 273, 65, 400, 192
-0.931007, 49, 81, 176, 208
-0.931307, 169, 97, 232, 224
-0.931354, 265, 65, 328, 192
-0.93224, 113, 49, 240, 176
-0.932508, 377, 129, 440, 256
-0.933032, 1, 49, 256, 176
-0.933523, 209, 145, 272, 272
-0.93358, 225, 129, 352, 256
-0.93468, 313, 65, 376, 192
-0.934727, 225, 49, 288, 176
-0.934759, 433, 145, 496, 272
-0.93565, 329, 129, 392, 256
-0.936273, 233, 97, 296, 224
-0.936639, 41, 81, 104, 208
-0.936702, 97, 209, 224, 333
-0.937318, 177, 193, 240, 320
-0.938326, 153, 145, 216, 272
-0.938691, 49, 177, 176, 304
-0.938823, 17, 65, 80, 192
-0.939264, 337, 193, 464, 320
-0.939469, 289, 81, 352, 208
-0.939538, 257, 193, 384, 320
-0.940356, 305, 129, 368, 256
-0.940986, 129, 97, 256, 224
-0.941163, 1, 145, 64, 272
-0.941288, 321, 65, 448, 192
-0.942747, 209, 193, 272, 320
-0.942856, 89, 177, 152, 304
-0.943794, 385, 81, 448, 208
-0.94423, 393, 177, 456, 304
-0.944844, 49, 129, 112, 256
-0.945518, 153, 49, 216, 176
-0.945628, 65, 81, 128, 208
-0.945723, 353, 129, 416, 256
-0.946423, 177, 49, 240, 176
-0.947099, 345, 193, 408, 320
-0.947909, 265, 177, 328, 304
-0.947925, 153, 193, 216, 320
-0.948712, 377, 89, 440, 152
-0.949565, 257, 129, 320, 256
-0.949678, 217, 113, 280, 176
-0.949693, 289, 193, 352, 320
-0.949996, 41, 153, 104, 216
-0.95046, 161, 33, 288, 160
-0.95092, 209, 193, 272, 256
-0.95112, 1, 1, 256, 128
-0.951161, 417, 193, 480, 320
-0.951706, 9, 57, 72, 120
-0.951931, 425, 161, 488, 224
-0.952336, 337, 81, 400, 208
-0.952448, 369, 177, 432, 304
-0.952571, 209, 17, 336, 144
-0.952875, 233, 209, 296, 333
-0.953148, 89, 81, 152, 208
-0.953605, 89, 193, 152, 256
-0.953691, 193, 121, 256, 184
-0.953702, 201, 89, 264, 152
-0.953889, 1, 1, 500, 128
-0.954228, 121, 49, 184, 176
-0.954287, 297, 105, 360, 168
-0.954751, 177, 201, 240, 264
-0.954832, 9, 153, 72, 216
-0.95494, 273, 121, 336, 184
-0.955569, 1, 65, 128, 192
-0.955873, 417, 121, 480, 184
-0.956106, 233, 137, 296, 200
-0.956222, 169, 225, 232, 288
-0.956312, 169, 113, 232, 176
-0.956352, 81, 169, 144, 232
-0.9564, 1, 177, 64, 240
-0.956531, 233, 145, 296, 272
-0.956559, 65, 129, 192, 256
-0.956665, 385, 185, 448, 248
-0.957135, 297, 73, 360, 136
-0.957329, 193, 233, 256, 296
-0.957379, 145, 129, 208, 192
-0.958462, 281, 129, 344, 256
-0.958499, 121, 169, 184, 232
-0.958573, 193, 17, 448, 144
-0.958722, 9, 33, 72, 288
-0.958741, 257, 89, 320, 152
-0.95887, 329, 137, 392, 200
-0.959139, 385, 137, 448, 200
-0.959686, 1, 17, 128, 144
-0.960359, 201, 33, 264, 160
-0.960466, 177, 57, 240, 120
-0.960697, 321, 209, 384, 333
-0.960769, 305, 217, 368, 280
-0.960996, 217, 217, 280, 280
-0.961346, 113, 193, 176, 320
-0.96198, 361, 137, 424, 200
-0.962076, 257, 225, 320, 288
-0.962283, 217, 65, 280, 128
-0.962311, 161, 33, 224, 288
-0.962676, 329, 209, 392, 272
-0.962855, 361, 201, 424, 264
-0.962977, 309, 105, 340, 168
-0.962997, 161, 161, 224, 224
-0.96317, 393, 113, 456, 176
-0.963181, 417, 97, 480, 160
-0.963196, 429, 97, 460, 224
-0.963289, 417, 65, 480, 192
-0.963608, 105, 33, 168, 288
-0.963751, 321, 73, 384, 136
-0.963894, 121, 145, 184, 208
-0.963951, 145, 97, 208, 224
-0.964046, 97, 217, 160, 280
-0.964329, 209, 153, 272, 216
-0.964647, 189, 145, 220, 272
-0.964672, 441, 113, 472, 240
-0.964702, 241, 113, 304, 176
-0.964804, 401, 65, 464, 320
-0.964995, 161, 113, 288, 176
-0.965311, 233, 129, 264, 256
-0.965554, 209, 33, 272, 288
-0.965901, 201, 177, 232, 304
-0.965945, 17, 129, 80, 192
-0.96602, 237, 113, 268, 176
-0.966112, 213, 161, 244, 288
-0.966258, 89, 129, 152, 256
-0.966271, 281, 145, 344, 208
-0.966292, 225, 73, 352, 136
-0.966301, 121, 201, 184, 264
-0.966364, 257, 17, 384, 144
-0.966603, 281, 225, 344, 288
-0.966846, 177, 257, 240, 320
-0.966944, 321, 97, 384, 160
-0.96701, 169, 113, 200, 240
-0.967236, 225, 121, 352, 184
-0.967296, 209, 65, 240, 192
-0.967341, 65, 81, 96, 208
-0.967455, 113, 161, 240, 224
-0.967537, 65, 177, 128, 304
-0.967612, 185, 153, 248, 216
-0.967887, 405, 129, 436, 256
-0.968152, 129, 57, 192, 120
-0.968321, 313, 81, 344, 208
-0.968346, 221, 113, 252, 240
-0.968546, 1, 153, 128, 216
-0.968724, 129, 33, 192, 288
-0.968806, 353, 73, 416, 136
-0.968851, 13, 153, 44, 216
-0.968976, 129, 57, 256, 120
-0.96916, 65, 33, 192, 160
-0.969162, 321, 81, 448, 144
-0.969236, 201, 193, 232, 256
-0.969252, 401, 209, 464, 272
-0.969348, 137, 233, 200, 296
-0.969364, 49, 65, 112, 320
-0.969399, 433, 193, 496, 256
-0.969461, 361, 49, 424, 176
-0.969489, 197, 97, 228, 224
-0.969493, 49, 129, 80, 256
-0.969524, 89, 73, 152, 136
-0.969585, 57, 177, 120, 240
-0.969616, 201, 265, 264, 328
-0.969688, 265, 17, 328, 144
-0.969839, 241, 65, 304, 128
-0.969869, 161, 217, 288, 280
-0.969958, 305, 17, 368, 144
-0.969984, 57, 97, 120, 160
-0.970013, 329, 65, 392, 320
-0.970225, 129, 161, 160, 224
-0.970305, 457, 129, 488, 256
-0.970399, 57, 33, 120, 160
-0.970452, 229, 49, 260, 176
-0.970503, 325, 49, 356, 176
-0.970523, 417, 81, 448, 208
-0.970523, 25, 129, 56, 256
-0.970585, 301, 65, 332, 192
-0.970612, 217, 89, 248, 152
-0.970642, 361, 65, 424, 320
-0.970673, 177, 193, 304, 256
-0.970709, 297, 121, 328, 184
-0.970811, 1, 65, 128, 128
-0.970861, 25, 145, 56, 208
-0.970876, 469, 129, 500, 256
-0.970892, 469, 129, 500, 192
-0.970897, 113, 201, 240, 264
-0.970915, 73, 65, 136, 320
-0.971059, 117, 193, 148, 256
-0.971081, 217, 121, 248, 184
-0.971194, 145, 137, 272, 200
-0.971228, 381, 129, 412, 256
-0.971403, 153, 257, 216, 320
-0.971404, 189, 193, 220, 320
-0.9715, 337, 137, 464, 200
-0.971518, 181, 209, 212, 272
-0.971537, 33, 185, 160, 248
-0.971552, 17, 57, 48, 120
-0.971682, 169, 161, 200, 288
-0.971684, 301, 73, 332, 136
-0.971708, 237, 193, 268, 320
-0.971713, 369, 65, 496, 192
-0.971822, 157, 145, 188, 272
-0.971847, 297, 65, 360, 320
-0.972032, 321, 17, 448, 144
-0.972071, 233, 65, 296, 320
-0.972164, 145, 145, 176, 208
-0.972304, 273, 113, 400, 176
-0.972395, 445, 161, 476, 224
-0.972442, 417, 129, 448, 256
-0.972455, 257, 201, 320, 264
-0.972518, 89, 137, 152, 200
-0.972571, 1, 17, 64, 144
-0.972585, 281, 49, 312, 176
-0.972753, 37, 65, 68, 192
-0.972859, 409, 185, 472, 248
-0.972952, 265, 129, 296, 192
-0.973047, 13, 129, 44, 256
-0.973317, 137, 145, 168, 272
-0.973346, 117, 161, 148, 288
-0.973393, 1, 57, 32, 120
-0.973417, 353, 97, 416, 160
-0.973435, 241, 65, 272, 192
-0.97347, 193, 241, 224, 304
-0.973536, 161, 129, 192, 192
-0.973739, 1, 161, 32, 224
-0.973748, 393, 129, 424, 256
-0.973938, 437, 113, 468, 176
-0.973989, 265, 33, 328, 288
-0.974032, 197, 49, 228, 176
-0.97405, 421, 97, 452, 160
-0.974066, 289, 97, 320, 224
-0.974088, 401, 161, 464, 224
-0.974137, 421, 177, 452, 240
-0.974155, 209, 233, 336, 296
-0.97419, 185, 97, 216, 224
-0.974238, 185, 1, 248, 256
-0.9743, 409, 89, 440, 152
-0.974349, 353, 201, 480, 264
-0.974374, 457, 129, 488, 192
-0.974408, 305, 137, 368, 200
-0.974528, 361, 129, 392, 256
-0.97453, 185, 49, 216, 176
-0.974532, 425, 177, 456, 304
-0.974533, 113, 225, 240, 288
-0.97459, 33, 73, 96, 136
-0.974629, 97, 1, 352, 128
-0.974654, 337, 129, 368, 256
-0.974795, 113, 1, 240, 128
-0.974801, 337, 177, 464, 240
-0.974924, 229, 81, 260, 144
-0.97506, 237, 201, 268, 264
-0.975078, 213, 153, 244, 216
-0.975088, 169, 209, 200, 333
-0.975221, 433, 169, 464, 232
-0.975295, 225, 177, 256, 304
-0.975295, 205, 121, 236, 184
-0.975407, 117, 169, 148, 232
-0.975418, 21, 185, 52, 248
-0.975557, 301, 113, 332, 240
-0.975642, 237, 57, 268, 120
-0.975681, 289, 81, 320, 144
-0.975703, 369, 105, 496, 168
-0.975727, 169, 1, 232, 128
-0.975729, 441, 161, 472, 288
-0.97583, 217, 57, 248, 120
-0.975848, 65, 145, 192, 208
-0.975891, 273, 65, 336, 128
-0.975906, 9, 193, 72, 320
-0.97593, 177, 257, 304, 320
-0.97594, 209, 97, 336, 160
-0.976037, 53, 81, 84, 208
-0.976065, 377, 137, 408, 200
-0.976133, 173, 121, 204, 184
-0.976164, 153, 57, 216, 120
-0.976216, 81, 161, 112, 224
-0.976265, 193, 113, 224, 176
-0.976287, 197, 217, 228, 280
-0.976375, 293, 177, 324, 304
-0.976457, 425, 65, 488, 320
-0.976553, 13, 49, 44, 176
-0.976615, 269, 97, 300, 224
-0.976652, 153, 201, 216, 264
-0.976656, 65, 145, 96, 208
-0.976664, 153, 1, 216, 333
-0.976691, 273, 217, 400, 280
-0.976707, 269, 49, 300, 176
-0.976733, 421, 153, 452, 216
-0.976807, 361, 177, 424, 240
-0.976821, 325, 73, 356, 136
-0.976865, 177, 89, 240, 152
-0.976914, 341, 49, 372, 176
-0.976948, 1, 193, 128, 320
-0.977055, 197, 265, 228, 328
-0.977064, 73, 217, 136, 280
-0.977071, 1, 201, 64, 264
-0.977155, 361, 209, 392, 272
-0.97718, 49, 209, 176, 272
-0.977195, 1, 145, 32, 272
-0.977195, 313, 73, 344, 136
-0.97721, 245, 145, 276, 272
-0.977219, 101, 161, 132, 224
-0.977311, 57, 57, 120, 120
-0.977389, 197, 161, 228, 224
-0.977412, 41, 129, 104, 192
-0.977457, 353, 137, 384, 200
-0.977472, 409, 113, 440, 176
-0.977491, 173, 49, 204, 176
-0.977511, 73, 145, 104, 272
-0.977518, 285, 129, 316, 192
-0.977629, 313, 145, 344, 272
-0.977642, 209, 265, 240, 328
-0.977699, 225, 193, 256, 256
-0.977761, 37, 129, 68, 256
-0.977777, 421, 129, 452, 192
-0.97779, 205, 97, 236, 160
-0.977843, 33, 193, 96, 256
-0.977856, 97, 177, 128, 304
-0.977876, 233, 161, 296, 224
-0.977882, 33, 177, 96, 304
-0.977969, 285, 225, 316, 288
-0.977975, 321, 185, 384, 248
-0.978006, 225, 153, 256, 216
-0.978041, 169, 217, 200, 280
-0.978068, 209, 241, 240, 304
-0.978085, 25, 1, 88, 128
-0.97809, 113, 249, 240, 312
-0.978127, 321, 217, 352, 280
-0.978228, 113, 97, 176, 224
-0.978244, 1, 81, 32, 208
-0.978316, 405, 201, 436, 264
-0.978403, 289, 193, 352, 256
-0.978419, 153, 49, 184, 176
-0.978559, 249, 113, 280, 176
-0.978634, 225, 1, 288, 128
-0.978682, 141, 169, 172, 232
-0.978714, 273, 73, 400, 136
-0.978815, 225, 89, 288, 152
-0.978858, 401, 193, 432, 320
-0.9789, 217, 241, 280, 304
-0.978939, 193, 145, 320, 208
-0.97896, 397, 137, 428, 200
-0.978988, 433, 249, 496, 312
-0.979041, 393, 201, 424, 264
-0.979046, 377, 225, 440, 288
-0.979322, 105, 193, 136, 256
-0.979326, 185, 177, 248, 240
-0.979329, 65, 145, 128, 208
-0.979351, 181, 161, 212, 224
-0.979366, 413, 177, 444, 304
-0.979406, 221, 233, 252, 296
-0.979466, 257, 257, 320, 320
-0.979514, 213, 193, 244, 256
-0.979528, 241, 193, 368, 256
-0.979531, 41, 1, 104, 333
-0.979605, 373, 193, 404, 320
-0.979722, 253, 65, 284, 192
-0.979723, 353, 81, 384, 208
-0.9798, 321, 105, 448, 168
-0.979831, 325, 129, 356, 256
-0.979832, 273, 137, 400, 200
-0.979836, 297, 49, 360, 112
-0.980037, 313, 209, 344, 333
-0.980104, 281, 177, 312, 304
-0.980147, 209, 113, 240, 240
-0.980169, 205, 57, 236, 120
-0.98034, 257, 113, 288, 240
-0.980374, 349, 129, 380, 256
-0.980383, 389, 177, 420, 304
-0.980384, 425, 217, 488, 280
-0.980428, 161, 89, 288, 152
-0.980451, 201, 41, 264, 104
-0.980485, 77, 81, 108, 208
-0.980518, 361, 193, 392, 320
-0.980528, 309, 129, 340, 192
-0.980598, 289, 249, 352, 312
-0.980703, 37, 137, 68, 200
-0.980704, 81, 89, 208, 152
-0.980805, 257, 145, 320, 208
-0.980896, 341, 209, 372, 333
-0.980924, 121, 217, 152, 280
-0.980935, 9, 81, 72, 144
-0.980962, 321, 97, 352, 160
-0.981022, 1, 89, 128, 152
-0.981139, 25, 49, 56, 176
-0.981151, 81, 17, 144, 144
-0.981217, 1, 1, 64, 333
-0.981313, 273, 225, 304, 288
-0.981334, 225, 265, 288, 328
-0.981391, 333, 217, 364, 280
-0.981405, 297, 225, 328, 288
-0.981407, 461, 177, 492, 304
-0.981442, 409, 137, 440, 200
-0.981472, 405, 81, 436, 208
-0.981477, 365, 137, 396, 200
-0.981516, 345, 209, 376, 272
-0.981564, 233, 41, 296, 104
-0.981642, 177, 65, 304, 128
-0.981782, 381, 201, 412, 264
-0.981806, 113, 1, 176, 333
-0.981883, 329, 209, 360, 333
-0.981923, 133, 209, 164, 333
-0.981985, 365, 113, 396, 176
-0.982047, 61, 89, 92, 152
-0.982086, 93, 97, 124, 224
-0.982246, 309, 217, 340, 280
-0.982337, 169, 161, 200, 224
-0.982375, 49, 121, 176, 184
-0.982424, 225, 49, 352, 112
-0.982446, 233, 193, 296, 256
-0.98247, 65, 121, 128, 184
-0.982478, 337, 137, 368, 200
-0.982519, 177, 1, 240, 333
-0.982575, 457, 81, 488, 208
-0.982592, 353, 73, 384, 136
-0.982611, 337, 73, 368, 136
-0.982829, 289, 185, 416, 248
-0.982838, 1, 33, 64, 96
-0.982879, 265, 209, 296, 333
-0.982913, 369, 73, 400, 136
-0.98302, 337, 233, 464, 296
-0.98305, 457, 169, 488, 232
-0.983103, 377, 65, 440, 128
-0.983253, 237, 137, 268, 200
-0.983297, 329, 17, 392, 144
-0.983382, 113, 73, 144, 136
-0.983415, 141, 57, 172, 120
-0.983418, 89, 185, 120, 248
-0.983446, 261, 233, 292, 296
-0.983456, 61, 129, 92, 256
-0.98347, 389, 97, 420, 160
-0.983535, 85, 145, 116, 272
-0.983561, 21, 177, 52, 304
-0.983563, 145, 1, 208, 128
-0.983648, 213, 209, 244, 333
-0.983648, 185, 265, 216, 328
-0.983681, 225, 257, 352, 320
-0.98373, 33, 41, 160, 104
-0.983804, 53, 129, 84, 192
-0.983815, 249, 209, 280, 333
-0.983842, 1, 81, 32, 144
-0.983853, 73, 1, 136, 333
-0.983952, 125, 49, 156, 176
-0.983979, 393, 1, 456, 333
-0.98399, 405, 169, 436, 232
-0.984026, 345, 233, 408, 296
-0.984181, 77, 97, 108, 160
-0.984257, 65, 233, 192, 296
-0.984348, 313, 241, 376, 304
-0.984399, 469, 169, 500, 232
-0.984407, 325, 129, 356, 192
-0.984461, 89, 89, 120, 152
-0.984469, 433, 209, 464, 272
-0.984501, 365, 81, 396, 208
-0.984519, 261, 201, 292, 264
-0.98459, 113, 113, 240, 176
-0.984611, 409, 257, 472, 320
-0.984641, 253, 65, 284, 128
-0.984688, 241, 89, 272, 152
-0.984701, 145, 33, 208, 96
-0.984751, 9, 185, 40, 248
-0.984902, 137, 49, 168, 176
-0.984917, 157, 97, 188, 224
-0.98493, 113, 1, 176, 128
-0.984931, 401, 65, 464, 128
-0.985039, 193, 57, 224, 120
-0.985325, 193, 137, 224, 200
-0.985336, 229, 1, 260, 128
-0.98548, 49, 65, 176, 128
-0.985489, 1, 209, 128, 272
-0.985637, 129, 257, 192, 320
-0.985644, 1, 33, 32, 96
-0.985746, 129, 273, 256, 333
-0.98577, 377, 113, 408, 176
-0.985775, 129, 57, 160, 120
-0.985778, 469, 81, 500, 208
-0.985781, 121, 209, 152, 333
-0.985818, 157, 233, 188, 296
-0.985973, 417, 1, 480, 333
-0.985983, 1, 33, 32, 160
-0.986049, 433, 145, 464, 208
-0.986089, 37, 161, 68, 224
-0.986103, 273, 49, 400, 112
-0.986113, 141, 233, 172, 296
-0.986168, 249, 1, 312, 333
-0.986205, 253, 89, 284, 152
-0.986218, 181, 233, 212, 296
-0.986222, 253, 137, 284, 200
-0.98626, 209, 217, 240, 280
-0.986282, 157, 209, 188, 333
-0.986283, 105, 49, 168, 112
-0.986315, 201, 1, 264, 333
-0.986381, 245, 225, 276, 288
-0.986386, 49, 217, 112, 280
-0.98639, 113, 65, 144, 192
-0.986541, 337, 49, 400, 112
-0.986582, 1, 129, 128, 192
-0.986609, 281, 1, 344, 333
-0.986747, 49, 81, 80, 144
-0.986804, 445, 209, 476, 272
-0.986906, 101, 81, 132, 144
-0.987053, 105, 241, 168, 304
-0.987099, 365, 185, 396, 248
-0.987152, 97, 65, 352, 128
-0.98717, 273, 241, 400, 304
-0.98721, 345, 97, 376, 160
-0.987217, 61, 33, 92, 160
-0.987223, 221, 265, 252, 328
-0.987379, 409, 1, 472, 128
-0.987501, 33, 33, 96, 96
-0.987767, 169, 217, 232, 248
-0.98782, 353, 1, 416, 333
-0.987866, 433, 49, 464, 176
-0.987888, 249, 137, 312, 168
-0.987909, 321, 57, 448, 120
-0.987966, 209, 17, 240, 144
-0.987987, 297, 81, 360, 112
-0.988069, 97, 201, 352, 264
-0.988138, 217, 121, 280, 152
-0.988301, 81, 49, 144, 112
-0.988426, 305, 1, 368, 333
-0.988436, 353, 85, 416, 116
-0.98847, 25, 141, 88, 172
-0.988531, 401, 1, 464, 64
-0.988551, 225, 77, 288, 108
-0.988579, 301, 17, 332, 144
-0.988609, 1, 61, 64, 92
-0.988632, 401, 233, 464, 296
-0.988641, 353, 1, 416, 128
-0.988672, 329, 85, 392, 116
-0.988709, 185, 109, 248, 140
-0.988711, 329, 1, 392, 333
-0.988747, 433, 273, 496, 333
-0.988772, 105, 173, 168, 204
-0.98878, 137, 153, 200, 184
-0.988786, 33, 161, 96, 192
-0.988795, 425, 73, 488, 136
-0.988836, 201, 193, 264, 224
-0.988845, 445, 209, 476, 333
-0.988857, 433, 161, 496, 192
-0.988879, 377, 81, 408, 208
-0.988967, 273, 125, 336, 156
-0.989, 177, 233, 240, 264
-0.989115, 1, 145, 500, 208
-0.989126, 193, 81, 448, 144
-0.989152, 417, 121, 480, 152
-0.989174, 113, 113, 144, 240
-0.989192, 385, 97, 448, 128
-0.989245, 169, 33, 232, 96
-0.989273, 217, 221, 280, 252
-0.989276, 193, 257, 256, 288
-0.989295, 329, 141, 392, 172
-0.989319, 161, 225, 416, 288
-0.989344, 265, 77, 328, 108
-0.989401, 81, 169, 144, 200
-0.989439, 393, 197, 456, 228
-0.989497, 209, 141, 272, 172
-0.989509, 121, 121, 184, 184
-0.989533, 225, 1, 288, 333
-0.989581, 425, 173, 488, 204
-0.989603, 97, 153, 352, 216
-0.98961, 145, 33, 272, 96
-0.989663, 89, 193, 152, 224
-0.989682, 369, 73, 496, 136
-0.989687, 9, 157, 72, 188
-0.989695, 145, 229, 208, 260
-0.989735, 73, 181, 136, 212
-0.989781, 169, 121, 232, 152
-0.989793, 9, 73, 72, 104
-0.989808, 133, 97, 164, 224
-0.989868, 393, 65, 424, 192
-0.989877, 393, 109, 456, 140
-0.9899, 273, 137, 336, 168
-0.989909, 201, 61, 264, 92
-0.989926, 421, 33, 452, 160
-0.989933, 241, 125, 304, 156
-0.989933, 57, 157, 120, 188
-0.989957, 145, 141, 208, 172
-0.989989, 1, 169, 256, 232
-0.989995, 129, 205, 192, 236
-0.990001, 225, 169, 352, 232
-0.990004, 257, 41, 320, 104
-0.990007, 145, 97, 176, 224
-0.990012, 297, 125, 360, 156
-0.990032, 193, 125, 256, 156
-0.990085, 193, 221, 256, 252
-0.990137, 369, 141, 432, 172
-0.99014, 1, 177, 64, 208
-0.990142, 225, 153, 288, 184
-0.990152, 1, 201, 500, 264
-0.990154, 193, 269, 256, 300
-0.990203, 209, 209, 272, 240
-0.990204, 1, 145, 64, 176
-0.990205, 225, 65, 288, 96
-0.990253, 153, 241, 216, 272
-0.990279, 257, 89, 320, 120
-0.990283, 57, 169, 120, 200
-0.990307, 97, 221, 160, 252
-0.990309, 433, 197, 496, 228
-0.990315, 305, 93, 368, 124
-0.99033, 137, 57, 200, 88
-0.990332, 321, 161, 384, 224
-0.990352, 97, 157, 160, 188
-0.990359, 169, 261, 232, 292
-0.990426, 425, 133, 488, 164
-0.990448, 113, 17, 144, 144
-0.9905, 129, 217, 192, 248
-0.990501, 161, 105, 416, 168
-0.990537, 289, 221, 352, 252
-0.99054, 329, 213, 392, 244
-0.990552, 1, 137, 256, 200
-0.990559, 1, 189, 64, 220
-0.990577, 225, 137, 480, 200
-0.990584, 201, 93, 264, 124
-0.990584, 145, 129, 272, 160
-0.990591, 209, 109, 272, 140
-0.990624, 409, 185, 472, 216
-0.990648, 129, 129, 384, 192
-0.990674, 409, 161, 472, 192
-0.990675, 81, 209, 144, 240
-0.990722, 17, 1, 48, 128
-0.990732, 305, 137, 368, 168
-0.990756, 369, 201, 432, 232
-0.990761, 121, 233, 184, 264
-0.990775, 249, 213, 312, 244
-0.990789, 217, 265, 280, 296
-0.990806, 161, 161, 224, 192
-0.990815, 49, 145, 112, 176
-0.990816, 177, 205, 240, 236
-0.990819, 297, 109, 360, 140
-0.990829, 377, 173, 440, 204
-0.990843, 33, 173, 96, 204
-0.990867, 377, 85, 440, 116
-0.990899, 57, 73, 120, 104
-0.990909, 185, 245, 248, 276
-0.990914, 321, 73, 384, 104
-0.990918, 385, 121, 448, 152
-0.990933, 369, 257, 496, 320
-0.990944, 1, 233, 500, 296
-0.990953, 257, 217, 500, 280
-0.990959, 185, 141, 248, 172
-0.990968, 289, 161, 416, 224
-0.991, 1, 201, 64, 232
-0.991021, 17, 85, 80, 116
-0.991023, 393, 137, 456, 168
-0.991024, 249, 229, 312, 260
-0.991031, 425, 209, 488, 240
-0.991032, 409, 97, 472, 128
-0.991059, 129, 165, 192, 196
-0.991067, 169, 273, 232, 304
-0.991069, 185, 157, 248, 188
-0.991083, 133, 1, 164, 128
-0.991098, 81, 33, 112, 160
-0.991099, 81, 85, 144, 116
-0.991109, 289, 69, 352, 100
-0.991133, 97, 233, 160, 264
-0.991163, 209, 117, 336, 148
-0.991172, 65, 233, 320, 296
-0.991175, 241, 113, 304, 144
-0.991179, 25, 129, 88, 160
-0.9912, 257, 161, 288, 288
-0.991207, 249, 197, 312, 228
-0.99124, 313, 17, 344, 144
-0.991246, 161, 57, 224, 88
-0.991258, 361, 97, 424, 128
-0.991262, 57, 221, 120, 252
-0.991274, 269, 145, 300, 272
-0.991278, 57, 97, 120, 128
-0.991312, 273, 149, 336, 180
-0.99133, 417, 109, 480, 140
-0.991341, 249, 65, 312, 96
-0.991345, 249, 1, 280, 128
-0.99136, 1, 65, 256, 128
-0.991376, 281, 93, 344, 124
-0.991438, 1, 169, 500, 232
-0.991483, 265, 113, 328, 144
-0.991502, 81, 97, 144, 160
-0.991508, 385, 185, 448, 216
-0.991511, 49, 133, 112, 164
-0.991519, 145, 129, 208, 160
-0.991541, 353, 129, 416, 160
-0.991566, 177, 193, 240, 224
-0.991593, 193, 193, 448, 256
-0.991606, 49, 17, 80, 144
-0.99161, 1, 193, 256, 256
-0.991639, 105, 209, 168, 240
-0.991643, 385, 33, 448, 160
-0.991652, 41, 205, 104, 236
-0.991657, 9, 213, 72, 244
-0.991676, 129, 245, 192, 276
-0.991714, 49, 85, 112, 116
-0.991736, 401, 149, 464, 180
-0.991738, 25, 145, 56, 176
-0.991742, 297, 245, 360, 276
-0.991757, 113, 193, 176, 224
-0.991766, 193, 281, 256, 312
-0.991775, 297, 149, 360, 180
-0.991782, 377, 229, 440, 260
-0.991782, 353, 181, 416, 212
-0.991825, 113, 65, 176, 96
-0.991827, 433, 149, 496, 180
-0.991827, 97, 169, 128, 200
-0.991832, 217, 249, 280, 280
-0.991849, 201, 229, 232, 260
-0.991909, 81, 165, 112, 196
-0.991931, 61, 177, 92, 304
-0.99197, 209, 81, 336, 112
-0.991971, 237, 113, 268, 144
-0.991981, 265, 133, 296, 164
-0.99201, 49, 177, 80, 304
-0.992012, 309, 81, 340, 112
-0.992107, 365, 85, 396, 116
-0.992113, 145, 89, 208, 152
-0.992143, 13, 157, 44, 188
-0.992154, 293, 133, 324, 164
-0.992186, 241, 125, 272, 156
-0.992196, 65, 153, 96, 184
-0.992203, 441, 161, 472, 192
-0.992206, 353, 85, 384, 116
-0.992213, 113, 81, 176, 144
-0.992218, 45, 133, 76, 164
-0.992221, 321, 81, 352, 112
-0.992243, 241, 65, 272, 96
-0.992251, 309, 109, 340, 140
-0.992265, 113, 173, 144, 204
-0.992269, 189, 257, 220, 288
-0.992299, 297, 81, 328, 112
-0.992302, 229, 137, 260, 168
-0.992305, 33, 113, 288, 176
-0.99231, 193, 249, 448, 312
-0.992312, 161, 169, 288, 232
-0.992322, 117, 193, 148, 224
-0.992329, 337, 81, 368, 112
-0.992331, 401, 93, 432, 124
-0.99234, 377, 85, 408, 116
-0.992351, 209, 257, 240, 288
-0.992352, 273, 77, 304, 108
-0.992366, 49, 145, 80, 176
-0.992371, 241, 137, 272, 168
-0.992372, 429, 189, 460, 220
-0.992374, 413, 137, 444, 168
-0.992378, 201, 217, 232, 248
-0.992382, 1, 161, 128, 192
-0.992386, 305, 121, 336, 152
-0.992402, 37, 145, 68, 176
-0.992419, 425, 101, 456, 132
-0.992439, 309, 97, 340, 128
-0.992443, 189, 113, 220, 144
-0.992444, 253, 137, 284, 168
-0.992445, 221, 121, 252, 152
-0.992452, 25, 181, 56, 212
-0.992453, 261, 77, 292, 108
-0.992463, 5, 169, 36, 200
-0.992464, 197, 269, 228, 300
-0.992468, 201, 241, 232, 272
-0.99247, 389, 89, 420, 120
-0.992479, 225, 61, 256, 92
-0.992487, 329, 93, 360, 124
-0.99249, 197, 1, 228, 128
-0.992496, 281, 169, 344, 232
-0.9925, 189, 229, 220, 260
-0.992508, 289, 85, 416, 116
-0.992509, 285, 77, 316, 108
-0.992518, 165, 129, 196, 160
-0.99252, 13, 61, 44, 92
-0.992527, 145, 193, 176, 320
-0.992535, 353, 141, 384, 172
-0.992545, 133, 157, 164, 188
-0.992549, 33, 89, 288, 152
-0.992549, 237, 77, 268, 108
-0.992557, 97, 181, 128, 212
-0.992568, 37, 177, 68, 304
-0.992569, 341, 1, 372, 128
-0.992571, 125, 173, 156, 204
-0.992574, 317, 105, 332, 168
-0.992575, 433, 113, 464, 144
-0.992579, 329, 141, 360, 172
-0.992582, 173, 229, 204, 260
-0.992596, 417, 193, 448, 224
-0.992597, 253, 121, 284, 152
-0.992601, 209, 269, 240, 300
-0.992602, 81, 177, 112, 208
-0.992604, 257, 105, 500, 168
-0.992605, 1, 97, 32, 128
-0.992614, 57, 133, 88, 164
-0.992615, 381, 141, 412, 172
-0.99262, 221, 257, 252, 288
-0.992622, 421, 153, 452, 184
-0.992625, 413, 93, 444, 124
-0.992631, 149, 149, 180, 180
-0.992635, 181, 217, 212, 248
-0.992636, 1, 57, 32, 88
-0.992642, 161, 153, 192, 184
-0.992647, 205, 129, 236, 160
-0.992651, 305, 145, 336, 176
-0.992651, 25, 193, 56, 224
-0.992662, 13, 145, 44, 176
-0.992663, 309, 133, 340, 164
-0.992666, 177, 121, 208, 152
-0.992668, 437, 201, 468, 232
-0.99267, 37, 201, 68, 232
-0.992684, 1, 85, 32, 116
-0.992687, 213, 237, 244, 268
-0.992692, 181, 241, 212, 272
-0.992699, 77, 153, 108, 184
-0.992703, 133, 233, 164, 264
-0.992711, 17, 169, 48, 200
-0.992728, 145, 57, 176, 88
-0.992733, 281, 133, 312, 164
-0.992743, 249, 77, 280, 108
-0.992753, 217, 141, 248, 172
-0.992756, 65, 165, 96, 196
-0.992757, 33, 157, 64, 188
-0.99276, 425, 177, 456, 208
-0.992761, 221, 221, 252, 252
-0.992773, 369, 1, 496, 128
-0.992774, 245, 149, 276, 180
-0.992776, 33, 133, 64, 164
-0.992779, 297, 93, 328, 124
-0.992781, 185, 205, 216, 236
-0.992782, 365, 141, 396, 172
-0.992799, 117, 225, 148, 256
-0.992811, 413, 121, 444, 152
-0.992816, 25, 217, 88, 280
-0.992819, 201, 105, 232, 136
-0.99282, 193, 125, 224, 156
-0.992821, 197, 193, 228, 224
-0.992822, 217, 89, 248, 120
-0.992824, 233, 153, 264, 184
-0.992827, 423, 97, 438, 160
-0.992849, 437, 173, 468, 204
-0.992861, 469, 137, 500, 168
-0.992862, 253, 65, 284, 96
-0.992865, 257, 217, 288, 248
-0.992866, 153, 237, 184, 268
-0.992876, 365, 157, 396, 188
-0.992878, 241, 221, 272, 252
-0.992886, 181, 145, 212, 176
-0.99289, 3, 49, 18, 112
-0.992897, 121, 161, 152, 192
-0.9929, 421, 209, 452, 240
-0.9929, 277, 121, 308, 152
-0.992905, 89, 93, 120, 124
-0.992909, 345, 257, 408, 320
-0.992909, 145, 169, 176, 200
-0.99291, 241, 133, 368, 164
-0.992911, 93, 157, 124, 188
-0.99292, 453, 165, 484, 196
-0.992924, 225, 193, 256, 224
-0.992926, 469, 161, 500, 192
-0.992928, 105, 81, 136, 112
-0.992929, 1, 77, 128, 108
-0.992933, 161, 217, 288, 248
-0.992933, 341, 141, 372, 172
-0.992939, 165, 165, 196, 196
-0.992947, 189, 161, 220, 192
-0.992948, 433, 213, 464, 244
-0.992985, 113, 217, 240, 248
-0.993001, 437, 169, 452, 232
-0.993001, 129, 193, 144, 256
-0.993007, 19, 153, 34, 216
-0.993089, 219, 241, 234, 304
-0.993093, 65, 157, 192, 188
-0.993094, 33, 137, 48, 200
-0.993147, 29, 161, 44, 224
-0.99315, 311, 105, 326, 168
-0.993166, 129, 57, 256, 88
-0.99318, 255, 113, 270, 176
-0.993234, 245, 105, 260, 168
-0.993252, 33, 1, 64, 128
-0.993253, 193, 201, 208, 264
-0.993291, 337, 33, 464, 96
-0.993306, 151, 145, 166, 208
-0.993379, 313, 73, 328, 136
-0.99338, 81, 169, 208, 200
-0.9934, 9, 57, 24, 120
-0.993415, 125, 169, 140, 232
-0.993506, 161, 117, 288, 148
-0.993511, 463, 129, 478, 192
-0.993529, 109, 209, 140, 333
-0.993561, 239, 113, 254, 176
-0.993637, 1, 149, 128, 180
-0.993663, 325, 1, 356, 128
-0.993679, 177, 197, 304, 228
-0.99368, 97, 205, 224, 236
-0.99369, 145, 1, 176, 128
-0.993698, 93, 33, 124, 160
-0.993725, 193, 129, 320, 160
-0.993745, 15, 57, 30, 120
-0.993747, 81, 273, 208, 333
-0.993762, 303, 121, 318, 184
-0.993771, 169, 129, 184, 192
-0.993825, 237, 57, 252, 120
-0.993831, 319, 81, 334, 144
-0.993838, 203, 193, 218, 256
-0.993839, 85, 193, 116, 320
-0.993856, 337, 205, 464, 236
-0.993887, 21, 57, 36, 120
-0.99391, 161, 137, 176, 200
-0.993914, 135, 161, 150, 224
-0.993918, 17, 173, 144, 204
-0.993931, 273, 129, 288, 192
-0.993941, 369, 137, 384, 200
-0.99395, 321, 97, 448, 128
-0.993954, 179, 121, 194, 184
-0.993966, 321, 273, 384, 333
-0.993969, 1, 65, 500, 128
-0.993975, 303, 73, 318, 136
-0.993991, 377, 1, 440, 64
-0.994059, 213, 97, 228, 160
-0.994066, 201, 233, 216, 296
-0.994123, 233, 121, 248, 184
-0.994133, 249, 129, 264, 192
-0.994137, 427, 185, 442, 248
-0.99414, 237, 81, 252, 144
-0.994143, 229, 57, 244, 120
-0.994147, 225, 169, 480, 232
-0.994155, 141, 153, 156, 216
-0.994162, 189, 249, 204, 312
-0.994179, 17, 33, 48, 288
-0.994183, 235, 153, 250, 216
-0.994195, 209, 193, 224, 256
-0.994219, 377, 249, 440, 312
-0.994242, 113, 229, 240, 260
-0.994248, 219, 57, 234, 120
-0.994269, 417, 105, 432, 168
-0.994275, 217, 193, 232, 256
-0.994291, 193, 141, 320, 172
-0.994294, 33, 33, 64, 288
-0.99431, 241, 145, 368, 176
-0.994366, 207, 97, 222, 160
-0.99437, 11, 81, 26, 144
-0.994373, 1, 121, 500, 184
-0.994388, 445, 161, 460, 224
-0.994417, 213, 225, 228, 288
-0.994417, 49, 209, 176, 240
-0.994417, 429, 97, 444, 160
-0.994418, 227, 225, 242, 288
-0.99442, 35, 177, 50, 240
-0.994429, 429, 121, 444, 184
-0.994455, 485, 129, 500, 192
-0.994457, 205, 161, 220, 224
-0.994462, 473, 129, 488, 192
-0.994467, 33, 193, 160, 224
-0.994491, 17, 233, 144, 296
-0.994497, 213, 153, 228, 216
-0.99451, 209, 229, 336, 260
-0.994515, 453, 129, 468, 192
-0.99452, 215, 121, 230, 184
-0.994548, 325, 73, 340, 136
-0.994558, 257, 221, 384, 252
-0.994575, 27, 137, 42, 200
-0.994576, 1, 89, 500, 152
-0.994577, 185, 209, 200, 272
-0.994605, 193, 57, 448, 120
-0.994613, 119, 185, 134, 248
-0.99462, 229, 153, 244, 216
-0.99462, 201, 257, 216, 320
-0.994624, 1, 93, 128, 124
-0.994631, 273, 121, 400, 152
-0.994689, 381, 137, 396, 200
-0.994694, 129, 273, 384, 333
-0.994748, 209, 129, 224, 192
-0.99476, 225, 205, 352, 236
-0.99477, 129, 145, 256, 176
-0.99477, 161, 229, 288, 260
-0.99477, 213, 265, 228, 328
-0.994843, 177, 261, 304, 292
-0.994849, 1, 177, 16, 240
-0.994852, 305, 97, 320, 160
-0.994853, 285, 145, 300, 208
-0.994857, 81, 33, 208, 96
-0.994866, 219, 153, 234, 216
-0.994868, 207, 257, 222, 320
-0.994873, 435, 97, 450, 160
-0.994874, 309, 129, 324, 192
-0.994894, 223, 129, 238, 192
-0.994896, 199, 161, 214, 224
-0.994899, 291, 225, 306, 288
-0.994909, 273, 73, 400, 104
-0.994925, 157, 33, 188, 288
-0.994931, 251, 89, 266, 152
-0.994947, 219, 89, 234, 152
-0.994951, 1, 17, 128, 80
-0.994951, 65, 221, 192, 252
-0.994959, 87, 153, 102, 216
-0.994968, 191, 225, 206, 288
-0.995002, 233, 249, 248, 312
-0.995011, 81, 241, 144, 304
-0.995012, 335, 73, 350, 136
-0.99502, 203, 129, 218, 192
-0.995038, 453, 161, 468, 224
-0.99504, 421, 65, 452, 320
-0.995047, 3, 73, 18, 136
-0.995049, 471, 169, 486, 232
-0.995053, 9, 169, 24, 232
-0.995058, 177, 105, 304, 136
-0.995063, 177, 245, 304, 276
-0.995069, 225, 25, 352, 88
-0.995071, 223, 185, 238, 248
-0.995074, 273, 193, 400, 224
-0.995079, 337, 85, 464, 116
-0.995084, 297, 129, 312, 192
-0.995102, 229, 81, 244, 144
-0.995109, 211, 57, 226, 120
-0.995109, 369, 1, 496, 64
-0.995118, 447, 121, 462, 184
-0.995137, 407, 201, 422, 264
-0.995142, 93, 161, 108, 224
-0.995152, 321, 141, 448, 172
-0.99516, 97, 177, 352, 240
-0.995164, 369, 209, 384, 272
-0.995165, 401, 201, 416, 264
-0.995166, 33, 41, 288, 104
-0.995172, 369, 129, 496, 160
-0.995185, 337, 177, 464, 208
-0.995197, 207, 217, 222, 280
-0.995208, 81, 193, 208, 224
-0.995209, 323, 217, 338, 280
-0.995217, 129, 161, 256, 192
-0.995221, 239, 193, 254, 256
-0.995226, 1, 65, 128, 96
-0.995228, 321, 1, 448, 64
-0.995231, 375, 137, 390, 200
-0.995238, 1, 265, 128, 328
-0.995256, 377, 209, 392, 272
-0.995261, 23, 185, 38, 248
-0.995267, 299, 225, 314, 288
-0.995279, 359, 137, 374, 200
-0.995284, 369, 193, 496, 224
-0.995289, 43, 153, 58, 216
-0.995289, 333, 217, 348, 280
-0.995296, 241, 101, 368, 132
-0.995303, 411, 137, 426, 200
-0.995304, 427, 153, 442, 216
-0.995315, 479, 129, 494, 192
-0.995319, 209, 69, 336, 100
-0.995329, 195, 249, 210, 312
-0.995334, 363, 209, 378, 272
-0.995341, 129, 193, 256, 224
-0.995342, 201, 97, 216, 160
-0.995343, 65, 145, 192, 176
-0.995344, 413, 201, 428, 264
-0.995349, 395, 201, 410, 264
-0.995365, 459, 161, 474, 224
-0.99537, 185, 121, 200, 184
-0.995371, 435, 193, 450, 256
-0.995387, 285, 225, 300, 288
-0.99539, 445, 209, 460, 272
-0.995398, 297, 73, 312, 136
-0.995402, 241, 33, 272, 288
-0.995403, 291, 137, 306, 200
-0.995418, 353, 109, 480, 140
-0.995423, 259, 233, 274, 296
-0.995432, 421, 193, 436, 256
-0.995433, 441, 113, 456, 176
-0.995434, 241, 153, 256, 216
-0.995434, 243, 81, 258, 144
-0.995438, 101, 169, 116, 232
-0.995478, 129, 253, 256, 284
-0.995499, 181, 33, 212, 288
-0.99556, 169, 33, 200, 288
-0.995589, 177, 153, 304, 184
-0.99559, 49, 77, 176, 108
-0.995632, 5, 33, 36, 288
-0.995718, 129, 241, 256, 272
-0.995752, 305, 273, 432, 333
-0.995766, 97, 181, 224, 212
-0.995804, 117, 33, 148, 288
-0.995882, 133, 33, 164, 288
-0.995943, 33, 257, 288, 320
-0.995952, 53, 33, 84, 288
-0.996004, 97, 65, 128, 320
-0.996024, 305, 65, 336, 320
-0.996026, 369, 225, 496, 256
-0.99604, 409, 65, 440, 320
-0.996073, 381, 65, 412, 320
-0.9961, 433, 65, 464, 320
-0.996151, 229, 65, 260, 320
-0.996173, 321, 121, 448, 152
-0.996177, 225, 193, 352, 224
-0.996205, 77, 65, 108, 320
-0.996245, 361, 65, 392, 320
-0.996255, 93, 165, 108, 196
-0.996259, 33, 53, 160, 84
-0.996269, 209, 177, 336, 208
-0.996279, 289, 209, 416, 240
-0.996292, 161, 69, 288, 100
-0.996299, 1, 209, 128, 240
-0.996313, 49, 65, 176, 96
-0.996322, 33, 141, 48, 172
-0.99634, 193, 93, 320, 124
-0.996361, 49, 133, 176, 164
-0.996369, 345, 65, 376, 320
-0.996383, 113, 73, 240, 104
-0.996385, 213, 33, 244, 288
-0.996391, 145, 33, 176, 288
-0.996431, 397, 65, 428, 320
-0.996437, 193, 33, 224, 288
-0.996444, 97, 85, 224, 116
-0.996459, 85, 161, 100, 192
-0.996484, 65, 65, 96, 320
-0.996554, 17, 221, 144, 252
-0.996578, 253, 33, 284, 288
-0.996612, 209, 217, 336, 248
-0.996631, 29, 157, 44, 188
-0.996633, 215, 257, 230, 288
-0.996635, 257, 137, 272, 168
-0.996675, 205, 221, 220, 252
-0.996684, 65, 233, 192, 264
-0.996687, 103, 169, 118, 200
-0.996691, 409, 89, 424, 120
-0.996712, 329, 65, 360, 320
-0.996718, 97, 113, 224, 144
-0.99675, 321, 81, 336, 112
-0.996751, 177, 273, 304, 304
-0.996772, 27, 145, 42, 176
-0.996778, 39, 137, 54, 168
-0.996781, 367, 85, 382, 116
-0.996787, 337, 157, 464, 188
-0.996807, 111, 169, 126, 200
-0.996815, 377, 85, 392, 116
-0.996817, 309, 81, 324, 112
-0.996849, 315, 97, 330, 128
-0.996862, 247, 133, 262, 164
-0.996894, 225, 257, 352, 288
-0.996943, 433, 185, 448, 216
-0.996943, 217, 229, 232, 260
-0.996943, 301, 125, 316, 156
-0.996953, 247, 65, 262, 96
-0.996969, 263, 137, 278, 168
-0.996978, 437, 205, 452, 236
-0.996979, 77, 153, 92, 184
-0.996981, 357, 85, 372, 116
-0.996985, 197, 237, 212, 268
-0.996991, 47, 141, 62, 172
-0.997004, 129, 193, 144, 224
-0.997005, 233, 121, 248, 152
-0.997008, 1, 53, 16, 84
-0.997009, 305, 233, 432, 264
-0.99701, 403, 89, 418, 120
-0.997016, 383, 85, 398, 116
-0.99702, 221, 249, 236, 280
-0.997025, 343, 81, 358, 112
-0.997041, 305, 109, 432, 140
-0.997049, 27, 173, 42, 204
-0.997052, 67, 145, 82, 176
-0.997058, 21, 149, 36, 180
-0.99709, 249, 113, 264, 144
-0.997091, 191, 113, 206, 144
-0.997095, 337, 81, 352, 112
-0.997111, 121, 173, 136, 204
-0.997119, 265, 33, 296, 288
-0.997143, 139, 157, 154, 188
-0.997152, 129, 265, 256, 296
-0.99716, 371, 141, 386, 172
-0.997161, 277, 129, 292, 160
-0.997163, 289, 25, 416, 88
-0.997165, 485, 137, 500, 168
-0.997168, 243, 113, 258, 144
-0.997177, 1, 257, 500, 320
-0.997181, 3, 97, 18, 128
-0.997183, 301, 81, 316, 112
-0.997192, 161, 285, 288, 316
-0.997192, 437, 173, 452, 204
-0.997194, 257, 245, 384, 276
-0.997196, 415, 93, 430, 124
-0.997206, 253, 65, 268, 96
-0.997209, 349, 81, 364, 112
-0.997231, 439, 189, 454, 220
-0.997243, 131, 161, 146, 192
-0.997247, 211, 225, 226, 256
-0.997248, 33, 173, 48, 204
-0.997255, 61, 145, 76, 176
-0.997267, 197, 261, 212, 292
-0.997274, 327, 137, 342, 168
-0.997281, 331, 81, 346, 112
-0.997283, 283, 77, 298, 108
-0.997284, 289, 33, 320, 288
-0.997296, 275, 77, 290, 108
-0.997302, 49, 89, 176, 120
-0.997313, 37, 193, 52, 224
-0.997315, 19, 165, 34, 196
-0.997315, 113, 293, 240, 324
-0.997317, 145, 153, 160, 184
-0.997323, 129, 101, 256, 132
-0.997328, 427, 193, 442, 224
-0.997331, 289, 77, 304, 108
-0.997337, 113, 181, 128, 212
-0.997342, 423, 93, 438, 124
-0.997343, 307, 129, 322, 160
-0.997348, 221, 269, 236, 300
-0.99735, 239, 137, 254, 168
-0.997355, 267, 77, 282, 108
-0.997355, 199, 221, 214, 252
-0.997364, 241, 61, 256, 92
-0.997371, 59, 133, 74, 164
-0.99738, 259, 117, 274, 148
-0.997393, 209, 269, 224, 300
-0.997396, 421, 137, 436, 168
-0.997397, 253, 125, 268, 156
-0.9974, 13, 81, 28, 112
-0.997401, 187, 241, 202, 272
-0.997402, 429, 137, 444, 168
-0.997407, 389, 85, 404, 116
-0.997409, 233, 133, 248, 164
-0.997415, 199, 109, 214, 140
-0.997416, 431, 101, 446, 132
-0.997421, 55, 145, 70, 176
-0.997426, 241, 57, 368, 88
-0.997436, 11, 57, 26, 88
-0.997448, 309, 105, 324, 136
-0.99745, 127, 177, 142, 208
-0.997451, 295, 77, 310, 108
-0.997454, 261, 77, 276, 108
-0.997456, 397, 89, 412, 120
-0.997461, 241, 125, 256, 156
-0.997465, 35, 157, 50, 188
-0.997478, 113, 277, 240, 308
-0.997487, 297, 137, 312, 168
-0.99749, 225, 137, 240, 168
-0.997498, 277, 33, 308, 288
-0.997503, 271, 133, 286, 164
-0.997506, 425, 117, 440, 148
-0.997513, 353, 261, 480, 292
-0.997523, 193, 225, 208, 256
-0.997523, 239, 77, 254, 108
-0.997527, 191, 253, 206, 284
-0.997537, 227, 265, 242, 296
-0.997542, 15, 93, 30, 124
-0.997569, 1, 137, 128, 168
-0.997591, 79, 165, 94, 196
-0.997596, 363, 141, 378, 172
-0.997597, 443, 201, 458, 232
-0.997607, 157, 237, 172, 268
-0.997612, 169, 133, 184, 164
-0.997614, 25, 185, 40, 216
-0.997624, 81, 249, 208, 280
-0.997627, 215, 273, 230, 304
-0.997647, 53, 133, 68, 164
-0.997648, 203, 257, 218, 288
-0.997649, 329, 93, 344, 124
-0.99765, 193, 25, 448, 88
-0.997652, 315, 81, 330, 112
-0.997656, 203, 233, 218, 264
-0.997663, 315, 113, 330, 144
-0.997666, 455, 161, 470, 192
-0.997667, 289, 181, 416, 212
-0.997673, 273, 1, 400, 64
-0.997681, 135, 173, 150, 204
-0.997681, 317, 65, 348, 320
-0.997714, 47, 201, 62, 232
-0.997716, 447, 185, 462, 216
-0.997718, 235, 61, 250, 92
-0.997719, 469, 65, 500, 320
-0.997728, 305, 245, 432, 276
-0.997734, 201, 197, 216, 228
-0.997736, 307, 117, 322, 148
-0.997736, 369, 273, 496, 304
-0.997736, 443, 165, 458, 196
-0.997737, 251, 145, 266, 176
-0.997742, 123, 193, 138, 224
-0.997746, 449, 1, 480, 256
-0.997751, 187, 209, 202, 240
-0.997802, 369, 97, 496, 128
-0.997817, 177, 57, 304, 88
-0.997998, 97, 125, 224, 156
-0.998012, 321, 193, 448, 224
-0.998164, 161, 45, 288, 76
-0.998166, 321, 73, 448, 104
-0.998168, 65, 41, 192, 72
-0.998248, 369, 141, 496, 172
-0.99826, 49, 297, 176, 328
-0.998285, 215, 161, 230, 288
-0.998294, 451, 113, 466, 240
-0.998314, 249, 137, 312, 152
-0.998354, 353, 237, 480, 268
-0.998368, 433, 165, 496, 180
-0.998371, 33, 151, 96, 166
-0.998371, 437, 97, 452, 224
-0.998372, 81, 171, 144, 186
-0.998374, 247, 129, 262, 256
-0.998386, 313, 65, 328, 192
-0.998388, 161, 229, 224, 244
-0.998402, 225, 81, 288, 96
-0.998403, 191, 145, 206, 272
-0.998409, 209, 131, 272, 146
-0.998414, 169, 127, 232, 142
-0.998416, 233, 113, 248, 240
-0.998432, 257, 143, 320, 158
-0.998432, 65, 101, 192, 132
-0.998433, 193, 125, 256, 140
-0.998437, 239, 129, 254, 256
-0.998437, 201, 195, 264, 210
-0.998439, 281, 141, 344, 156
-0.998443, 177, 261, 240, 276
-0.998443, 265, 131, 328, 146
-0.998444, 1, 69, 64, 84
-0.998444, 17, 145, 80, 160
-0.998447, 217, 225, 280, 240
-0.998449, 417, 171, 480, 186
-0.998452, 67, 81, 82, 208
-0.998453, 9, 79, 72, 94
-0.998455, 471, 129, 486, 256
-0.998455, 185, 235, 248, 250
-0.998457, 199, 145, 214, 272
-0.998459, 227, 145, 242, 272
-0.998459, 353, 89, 416, 104
-0.998461, 357, 213, 388, 228
-0.998461, 49, 167, 112, 182
-0.998461, 185, 267, 248, 282
-0.998462, 217, 157, 248, 172
-0.998463, 433, 177, 496, 192
-0.998464, 205, 123, 236, 138
-0.998465, 145, 243, 176, 258
-0.998465, 281, 167, 312, 182
-0.998465, 305, 149, 336, 164
-0.998465, 185, 273, 216, 288
-0.998466, 401, 203, 464, 218
-0.998466, 305, 97, 368, 112
-0.998466, 129, 159, 192, 174
-0.998468, 289, 129, 320, 144
-0.998468, 41, 157, 104, 172
-0.998468, 373, 207, 404, 222
-0.998468, 1, 101, 32, 116
-0.998469, 385, 101, 448, 116
-0.998469, 323, 65, 338, 192
-0.99847, 421, 99, 452, 114
-0.99847, 409, 195, 472, 210
-0.998471, 201, 243, 232, 258
-0.998471, 169, 223, 232, 238
-0.998471, 157, 143, 188, 158
-0.998472, 425, 133, 488, 148
-0.998472, 253, 151, 284, 166
-0.998472, 177, 225, 208, 240
-0.998473, 393, 203, 424, 218
-0.998473, 101, 185, 132, 200
-0.998473, 5, 159, 36, 174
-0.998474, 185, 267, 216, 282
-0.998475, 45, 209, 76, 224
-0.998475, 437, 129, 468, 144
-0.998475, 345, 95, 376, 110
-0.998475, 187, 193, 202, 320
-0.998476, 317, 143, 348, 158
-0.998476, 433, 215, 464, 230
-0.998476, 53, 133, 84, 148
-0.998478, 257, 273, 500, 333
-0.998478, 65, 159, 96, 174
-0.998478, 205, 145, 220, 272
-0.99848, 217, 121, 248, 136
-0.99848, 369, 95, 432, 110
-0.99848, 101, 191, 132, 206
-0.998482, 233, 121, 264, 136
-0.998482, 17, 85, 80, 100
-0.998483, 273, 81, 336, 96
-0.998483, 329, 95, 392, 110
-0.998484, 121, 169, 152, 184
-0.998484, 1, 91, 32, 106
-0.998485, 421, 175, 452, 190
-0.998485, 197, 261, 228, 276
-0.998486, 185, 273, 248, 288
-0.998486, 217, 125, 280, 140
-0.998487, 185, 113, 248, 128
-0.998487, 297, 81, 328, 96
-0.998487, 257, 229, 320, 244
-0.998488, 249, 81, 312, 96
-0.998489, 9, 151, 72, 166
-0.998489, 253, 203, 284, 218
-0.998489, 161, 235, 224, 250
-0.99849, 401, 123, 464, 138
-0.99849, 393, 179, 456, 194
-0.99849, 57, 165, 88, 180
-0.99849, 341, 85, 372, 100
-0.998491, 1, 177, 64, 192
-0.998491, 377, 205, 440, 220
-0.998493, 305, 139, 368, 154
-0.998493, 397, 99, 428, 114
-0.998493, 49, 145, 80, 160
-0.998493, 393, 109, 456, 124
-0.998494, 201, 63, 264, 78
-0.998495, 385, 97, 416, 112
-0.998495, 297, 93, 328, 108
-0.998495, 225, 139, 256, 154
-0.998496, 77, 173, 108, 188
-0.998497, 161, 133, 224, 148
-0.998497, 209, 145, 272, 160
-0.998497, 285, 135, 316, 150
-0.998498, 305, 85, 368, 100
-0.998498, 309, 121, 340, 136
-0.998498, 89, 165, 152, 180
-0.998499, 253, 127, 284, 142
-0.9985, 217, 193, 248, 208
-0.998501, 173, 129, 204, 144
-0.998502, 457, 113, 472, 240
-0.998502, 221, 233, 252, 248
-0.998502, 249, 223, 312, 238
-0.998502, 13, 165, 44, 180
-0.998503, 337, 143, 368, 158
-0.998504, 9, 157, 72, 172
-0.998504, 309, 135, 340, 150
-0.998505, 241, 75, 272, 90
-0.998508, 365, 157, 396, 172
-0.998509, 233, 131, 296, 146
-0.99851, 173, 231, 204, 246
-0.99851, 437, 203, 468, 218
-0.99851, 185, 119, 248, 134
-0.998511, 101, 179, 132, 194
-0.998512, 369, 249, 496, 280
-0.998513, 217, 253, 248, 268
-0.998515, 257, 229, 288, 244
-0.998515, 265, 91, 328, 106
-0.998516, 1, 213, 64, 228
-0.998517, 217, 115, 280, 130
-0.998517, 121, 171, 184, 186
-0.998517, 409, 177, 440, 192
-0.998518, 89, 179, 152, 194
-0.998518, 33, 149, 64, 164
-0.998518, 289, 223, 352, 238
-0.998518, 425, 209, 488, 224
-0.998518, 217, 231, 280, 246
-0.998518, 161, 241, 224, 256
-0.998519, 177, 215, 240, 230
-0.998521, 193, 107, 256, 122
-0.998522, 89, 195, 152, 210
-0.998522, 57, 85, 120, 100
-0.998523, 329, 143, 392, 158
-0.998523, 201, 279, 232, 294
-0.998523, 369, 73, 496, 104
-0.998523, 145, 59, 208, 74
-0.998523, 329, 97, 360, 112
-0.998524, 405, 201, 436, 216
-0.998524, 1, 63, 64, 78
-0.998524, 33, 139, 96, 154
-0.998524, 221, 145, 236, 272
-0.998524, 65, 177, 128, 192
-0.998525, 193, 229, 256, 244
-0.998525, 353, 87, 384, 102
-0.998526, 303, 97, 318, 224
-0.998526, 189, 117, 220, 132
-0.998526, 313, 217, 376, 232
-0.998526, 241, 203, 304, 218
-0.998527, 137, 243, 200, 258
-0.998527, 221, 133, 252, 148
-0.998528, 51, 65, 66, 192
-0.998529, 217, 87, 280, 102
-0.998529, 89, 177, 120, 192
-0.998529, 189, 237, 220, 252
-0.998529, 261, 133, 292, 148
-0.99853, 309, 97, 340, 112
-0.998531, 177, 279, 240, 294
-0.998531, 117, 195, 148, 210
-0.998531, 437, 209, 468, 224
-0.998533, 329, 87, 392, 102
-0.998533, 129, 217, 192, 232
-0.998533, 401, 117, 464, 132
-0.998534, 425, 127, 488, 142
-0.998534, 297, 107, 360, 122
-0.998536, 265, 143, 296, 158
-0.998536, 297, 135, 328, 150
-0.998536, 421, 105, 452, 120
-0.998538, 59, 81, 74, 208
-0.998539, 25, 195, 56, 210
-0.99854, 289, 133, 352, 148
-0.99854, 189, 227, 220, 242
-0.99854, 225, 139, 288, 154
-0.99854, 233, 63, 264, 78
-0.998541, 5, 177, 36, 192
-0.998541, 17, 159, 48, 174
-0.998544, 289, 127, 352, 142
-0.998545, 177, 161, 240, 176
-0.998545, 73, 189, 136, 204
-0.998547, 193, 125, 224, 140
-0.998547, 97, 213, 160, 228
-0.998548, 377, 141, 440, 156
-0.998549, 243, 81, 258, 208
-0.998549, 93, 171, 124, 186
-0.998552, 21, 147, 52, 162
-0.998552, 17, 183, 80, 198
-0.998553, 425, 111, 456, 126
-0.998553, 65, 153, 96, 168
-0.998553, 309, 109, 340, 124
-0.998553, 137, 153, 200, 168
-0.998553, 249, 121, 312, 136
-0.998555, 429, 117, 460, 132
-0.998555, 201, 261, 264, 276
-0.998556, 21, 181, 52, 196
-0.998556, 289, 147, 352, 162
-0.998556, 353, 209, 416, 224
-0.998559, 9, 189, 72, 204
-0.99856, 145, 143, 208, 158
-0.99856, 33, 173, 96, 188
-0.998561, 9, 163, 72, 178
-0.998563, 185, 241, 248, 256
-0.998563, 161, 81, 288, 112
-0.998564, 261, 79, 292, 94
-0.998564, 201, 137, 264, 152
-0.998565, 241, 147, 272, 162
-0.998565, 233, 75, 296, 90
-0.998565, 417, 109, 480, 124
-0.998567, 429, 185, 460, 200
-0.998568, 129, 237, 192, 252
-0.998568, 73, 81, 88, 208
-0.998568, 409, 103, 472, 118
-0.998569, 365, 87, 396, 102
-0.998569, 361, 159, 424, 174
-0.99857, 393, 173, 456, 188
-0.99857, 217, 269, 280, 284
-0.99857, 77, 161, 108, 176
-0.998571, 249, 81, 280, 96
-0.998571, 181, 123, 212, 138
-0.998572, 213, 267, 244, 282
-0.998572, 29, 129, 44, 256
-0.998572, 1, 171, 64, 186
-0.998573, 301, 127, 332, 142
-0.998574, 17, 91, 80, 106
-0.998574, 161, 121, 224, 136
-0.998574, 153, 165, 216, 180
-0.998574, 129, 223, 192, 238
-0.998574, 145, 249, 208, 264
-0.998575, 201, 157, 264, 172
-0.998576, 217, 219, 280, 234
-0.998576, 309, 115, 340, 130
-0.998577, 81, 221, 144, 236
-0.998577, 409, 97, 472, 112
-0.998577, 419, 129, 434, 256
-0.998577, 41, 137, 72, 152
-0.998578, 281, 101, 344, 116
-0.998579, 81, 93, 144, 108
-0.998579, 13, 171, 44, 186
-0.998579, 369, 181, 432, 196
-0.998579, 409, 95, 440, 110
-0.99858, 181, 113, 196, 240
-0.99858, 433, 123, 464, 138
-0.99858, 41, 209, 104, 224
-0.998581, 445, 113, 460, 240
-0.998581, 97, 207, 160, 222
-0.998581, 209, 211, 272, 226
-0.998581, 257, 115, 320, 130
-0.998582, 21, 187, 52, 202
-0.998585, 465, 129, 480, 256
-0.998585, 277, 81, 308, 96
-0.998585, 389, 91, 420, 106
-0.998589, 211, 97, 226, 224
-0.998591, 397, 129, 412, 256
-0.998595, 377, 89, 408, 104
-0.998596, 197, 97, 212, 224
-0.998598, 209, 273, 240, 288
-0.998598, 209, 129, 240, 144
-0.998599, 273, 133, 304, 148
-0.9986, 217, 49, 232, 176
-0.998601, 201, 227, 232, 242
-0.998605, 209, 261, 240, 276
-0.998606, 289, 141, 320, 156
-0.998608, 81, 167, 112, 182
-0.998608, 175, 113, 190, 240
-0.998608, 237, 129, 268, 144
-0.998611, 185, 261, 216, 276
-0.998612, 199, 193, 214, 320
-0.998613, 237, 81, 268, 96
-0.998615, 461, 167, 492, 182
-0.998615, 427, 81, 442, 208
-0.998617, 105, 173, 136, 188
-0.998618, 441, 165, 472, 180
-0.998619, 237, 137, 268, 152
-0.998623, 425, 193, 456, 208
-0.998628, 225, 127, 256, 142
-0.998633, 309, 103, 340, 118
-0.998637, 305, 221, 432, 252
-0.998639, 19, 145, 34, 272
-0.998646, 341, 49, 356, 176
-0.998647, 201, 233, 232, 248
-0.99865, 193, 193, 208, 320
-0.998653, 237, 115, 268, 130
-0.998657, 169, 161, 184, 288
-0.998666, 223, 65, 238, 192
-0.998671, 1, 105, 128, 136
-0.998678, 37, 145, 52, 272
-0.998682, 21, 153, 52, 168
-0.998682, 225, 45, 352, 76
-0.998683, 203, 97, 218, 224
-0.998687, 253, 139, 284, 154
-0.998688, 405, 129, 420, 256
-0.998692, 85, 81, 100, 208
-0.998695, 385, 129, 400, 256
-0.998695, 197, 271, 228, 286
-0.998698, 175, 161, 190, 288
-0.998702, 207, 49, 222, 176
-0.998708, 33, 143, 64, 158
-0.998708, 277, 49, 292, 176
-0.998709, 197, 49, 212, 176
-0.99871, 443, 161, 458, 288
-0.998715, 295, 129, 310, 256
-0.998715, 435, 161, 450, 288
-0.998718, 163, 145, 178, 272
-0.998722, 137, 161, 152, 288
-0.998727, 239, 177, 254, 304
-0.998728, 391, 129, 406, 256
-0.998731, 157, 129, 172, 256
-0.998732, 233, 161, 248, 288
-0.998732, 257, 169, 384, 200
-0.998738, 283, 49, 298, 176
-0.998738, 477, 145, 492, 272
-0.998739, 329, 49, 344, 176
-0.998745, 131, 161, 146, 288
-0.998748, 233, 49, 248, 176
-0.998756, 191, 97, 206, 224
-0.99877, 411, 129, 426, 256
-0.998772, 217, 97, 232, 224
-0.998772, 225, 269, 352, 300
-0.99878, 379, 129, 394, 256
-0.998781, 209, 193, 224, 320
-0.998795, 295, 49, 310, 176
-0.998799, 421, 65, 436, 192
-0.99881, 185, 49, 200, 176
-0.998816, 271, 49, 286, 176
-0.998819, 253, 129, 268, 256
-0.99882, 181, 161, 196, 288
-0.998823, 289, 49, 304, 176
-0.998826, 347, 49, 362, 176
-0.998827, 303, 49, 318, 176
-0.998833, 337, 293, 464, 324
-0.998834, 169, 113, 184, 240
-0.998834, 427, 145, 442, 272
-0.998844, 47, 129, 62, 256
-0.998848, 113, 45, 240, 76
-0.998849, 373, 129, 388, 256
-0.99885, 275, 97, 290, 224
-0.998858, 483, 129, 498, 256
-0.998859, 289, 157, 416, 188
-0.99886, 79, 81, 94, 208
-0.998861, 19, 49, 34, 176
-0.998862, 191, 49, 206, 176
-0.998865, 337, 129, 352, 256
-0.998867, 359, 129, 374, 256
-0.99887, 323, 129, 338, 256
-0.998872, 241, 33, 256, 160
-0.998886, 67, 129, 82, 256
-0.998894, 335, 81, 350, 208
-0.998898, 1, 41, 128, 72
-0.998901, 177, 209, 192, 333
-0.99891, 57, 129, 72, 256
-0.998913, 123, 177, 138, 304
-0.998918, 349, 129, 364, 256
-0.998924, 177, 49, 192, 176
-0.998925, 249, 81, 264, 208
-0.998926, 117, 177, 132, 304
-0.99893, 457, 161, 472, 288
-0.998937, 251, 193, 266, 320
-0.99894, 227, 193, 242, 320
-0.998944, 375, 193, 390, 320
-0.998944, 315, 129, 330, 256
-0.998957, 329, 129, 344, 256
-0.998959, 151, 161, 166, 288
-0.998961, 407, 193, 422, 320
-0.99897, 45, 65, 60, 192
-0.998977, 9, 97, 24, 224
-0.998981, 293, 177, 308, 304
-0.998984, 285, 129, 300, 256
-0.998991, 35, 49, 50, 176
-0.998992, 109, 177, 124, 304
-0.998992, 259, 145, 274, 272
-0.998995, 143, 161, 158, 288
-0.998995, 221, 193, 236, 320
-0.998997, 353, 81, 368, 208
-0.998999, 317, 209, 332, 333
-0.999001, 17, 281, 144, 312
-0.999004, 167, 49, 182, 176
-0.999004, 329, 209, 344, 333
-0.999004, 367, 129, 382, 256
-0.999017, 25, 49, 40, 176
-0.999019, 93, 161, 108, 288
-0.999021, 265, 81, 280, 208
-0.999021, 17, 233, 144, 264
-0.999021, 91, 97, 106, 224
-0.999025, 415, 65, 430, 192
-0.999026, 413, 177, 428, 304
-0.99903, 343, 193, 358, 320
-0.999035, 421, 193, 436, 320
-0.999039, 343, 129, 358, 256
-0.999041, 1, 81, 16, 208
-0.999047, 145, 181, 272, 212
-0.999088, 49, 121, 176, 152
-0.999114, 369, 5, 496, 36
-0.999154, 273, 257, 400, 288
-0.999161, 257, 293, 384, 324
-0.999166, 1, 301, 128, 332
-0.999226, 33, 25, 160, 56
-0.999238, 257, 233, 384, 264
-0.999244, 257, 281, 384, 312
-0.999273, 321, 61, 448, 92
-0.999343, 289, 269, 416, 300
-0.999343, 193, 301, 320, 332
-0.999355, 65, 9, 192, 72
-0.999384, 369, 21, 496, 52
-0.999548, 1, 17, 256, 80
-0.99955, 161, 9, 288, 72
-0.999577, 257, 1, 500, 64
-0.999668, 189, 261, 204, 276
-0.999668, 211, 235, 226, 250
-0.999669, 319, 119, 334, 134
-0.999669, 237, 117, 252, 132
-0.999669, 221, 257, 236, 272
-0.999669, 7, 101, 22, 116
-0.99967, 351, 85, 366, 100
-0.999674, 427, 195, 442, 210
-0.999674, 199, 109, 214, 124
-0.999674, 189, 119, 204, 134
-0.999674, 213, 275, 228, 290
-0.999675, 247, 145, 262, 160
-0.999676, 307, 121, 322, 136
-0.999678, 275, 79, 290, 94
-0.999679, 165, 139, 180, 154
-0.99968, 363, 87, 378, 102
-0.999681, 431, 149, 446, 164
-0.999681, 207, 267, 222, 282
-0.999683, 475, 165, 490, 180
-0.999683, 271, 139, 286, 154
-0.999683, 155, 247, 170, 262
-0.999684, 189, 275, 204, 290
-0.999684, 187, 239, 202, 254
-0.999684, 357, 85, 372, 100
-0.999684, 329, 141, 344, 156
-0.999684, 309, 139, 324, 154
-0.999685, 413, 93, 428, 108
-0.999685, 37, 203, 52, 218
-0.999685, 445, 211, 460, 226
-0.999685, 119, 173, 134, 188
-0.999686, 15, 99, 30, 114
-0.999686, 41, 209, 56, 224
-0.999688, 203, 273, 218, 288
-0.99969, 49, 147, 64, 162
-0.99969, 245, 63, 260, 78
-0.999691, 451, 163, 466, 178
-0.999691, 193, 227, 208, 242
-0.999691, 19, 161, 34, 176
-0.999692, 93, 165, 108, 180
-0.999692, 267, 79, 282, 94
-0.999692, 315, 103, 330, 118
-0.999694, 223, 249, 238, 264
-0.999694, 469, 167, 484, 182
-0.999696, 311, 115, 326, 130
-0.999697, 293, 81, 308, 96
-0.999699, 299, 133, 314, 148
-0.999699, 245, 81, 260, 96
-0.999701, 277, 137, 292, 152
-0.999703, 223, 269, 238, 284
-0.999704, 331, 97, 346, 112
-0.999706, 263, 141, 278, 156
-0.999706, 129, 195, 144, 210
-0.999707, 411, 101, 426, 116
-0.999707, 65, 149, 80, 164
-0.999708, 257, 81, 272, 96
-0.999708, 197, 221, 212, 236
-0.99971, 239, 81, 254, 96
-0.999711, 281, 81, 296, 96
-0.999711, 433, 207, 448, 222
-0.999711, 229, 265, 244, 280
-0.999711, 51, 205, 66, 220
-0.999713, 219, 237, 234, 252
-0.999715, 127, 169, 142, 184
-0.999715, 33, 153, 48, 168
-0.999716, 219, 275, 234, 290
-0.999717, 105, 179, 120, 194
-0.999717, 99, 175, 114, 190
-0.999718, 255, 113, 270, 128
-0.999718, 375, 87, 390, 102
-0.999719, 311, 93, 326, 108
-0.999719, 283, 167, 298, 182
-0.999719, 371, 157, 386, 172
-0.999721, 319, 97, 334, 112
-0.999721, 303, 127, 318, 142
-0.999721, 205, 127, 220, 142
-0.999721, 23, 155, 38, 170
-0.999723, 299, 139, 314, 154
-0.999723, 481, 165, 496, 180
-0.999724, 421, 97, 436, 112
-0.999724, 27, 145, 42, 160
-0.999724, 213, 261, 228, 276
-0.999725, 429, 189, 444, 204
-0.999725, 189, 233, 204, 248
-0.999727, 369, 87, 384, 102
-0.99973, 203, 227, 218, 242
-0.99973, 251, 81, 266, 96
-0.99973, 19, 167, 34, 182
-0.999731, 287, 81, 302, 96
-0.999731, 25, 185, 40, 200
-0.999733, 437, 179, 452, 194
-0.999733, 29, 161, 44, 176
-0.999733, 233, 125, 248, 140
-0.999735, 257, 139, 272, 154
-0.999735, 227, 131, 242, 146
-0.999736, 215, 229, 230, 244
-0.999736, 441, 187, 456, 202
-0.999738, 213, 269, 228, 284
-0.999738, 217, 127, 232, 142
-0.999739, 89, 171, 104, 186
-0.999742, 243, 75, 258, 90
-0.999742, 259, 149, 274, 164
-0.999742, 407, 93, 422, 108
-0.999744, 241, 127, 256, 142
-0.999745, 201, 237, 216, 252
-0.999745, 443, 205, 458, 220
-0.999747, 385, 89, 400, 104
-0.999748, 105, 171, 120, 186
-0.99975, 37, 141, 52, 156
-0.999751, 437, 193, 452, 208
-0.999751, 113, 173, 128, 188
-0.999753, 439, 211, 454, 226
-0.999755, 37, 195, 52, 210
-0.999758, 31, 175, 46, 190
-0.999758, 391, 89, 406, 104
-0.999759, 83, 169, 98, 184
-0.999761, 273, 131, 288, 146
-0.999762, 401, 91, 416, 106
-0.999765, 99, 169, 114, 184
-0.999766, 209, 227, 224, 242
-0.999767, 51, 137, 66, 152
-0.999769, 251, 139, 266, 154
-0.999772, 241, 137, 256, 152
-0.999772, 253, 145, 268, 160
-0.999777, 85, 163, 100, 178
-0.999778, 29, 169, 44, 184
-0.999791, 235, 133, 250, 148
-0.9998, 247, 131, 262, 146
-0.999802, 211, 127, 226, 142
-0.999841, 435, 185, 450, 200
-0.99985, 43, 139, 58, 154
-1.00054, 97, 9, 352, 72
-1.00094, 433, 17, 496, 144
-1.00094, 1, 41, 500, 104
-1.0017, 225, 1, 352, 64
-1.00178, 1, 17, 500, 80
-1.00221, 113, 9, 240, 72
