1951
-0.18803, 1, 1, 375, 500
-0.213842, 1, 257, 375, 500
-0.226773, 1, 33, 375, 288
-0.238769, 129, 1, 375, 500
-0.282401, 33, 1, 288, 500
-0.323013, 1, 161, 375, 416
-0.414725, 129, 257, 375, 500
-0.420073, 97, 33, 352, 288
-0.450434, 33, 257, 288, 500
-0.531012, 1, 129, 256, 384
-0.544911, 1, 33, 256, 288
-0.551957, 129, 161, 375, 416
-0.80614, 129, 1, 256, 500
-0.812166, 177, 1, 304, 500
-0.82271, 241, 1, 368, 500
-0.82649, 97, 193, 224, 448
-0.828885, 33, 193, 160, 448
-0.829013, 193, 257, 320, 500
-0.837584, 113, 65, 240, 320
-0.838082, 49, 33, 176, 288
-0.838846, 65, 1, 192, 500
-0.840835, 193, 33, 320, 288
-0.842899, 241, 257, 368, 500
-0.844396, 17, 1, 144, 500
-0.846935, 225, 161, 352, 416
-0.84997, 145, 193, 272, 448
-0.853125, 1, 65, 375, 192
-0.856777, 1, 113, 375, 240
-0.858564, 1, 241, 375, 368
-0.859163, 1, 369, 375, 496
-0.859609, 1, 65, 128, 320
-0.862774, 1, 161, 375, 288
-0.869676, 1, 305, 375, 432
-0.873994, 1, 17, 375, 144
-0.879878, 129, 369, 375, 496
-0.884114, 129, 305, 375, 432
-0.889331, 241, 1, 368, 256
-0.890081, 129, 1, 375, 128
-0.892054, 97, 241, 352, 368
-0.892493, 1, 289, 256, 416
-0.899596, 129, 65, 375, 192
-0.901248, 1, 337, 256, 464
-0.908542, 33, 65, 288, 192
-0.911415, 161, 225, 288, 352
-0.912017, 33, 161, 288, 288
-0.9145, 129, 161, 375, 288
-0.91468, 209, 289, 336, 416
-0.915036, 1, 17, 256, 144
-0.915515, 161, 353, 288, 480
-0.915888, 129, 305, 256, 432
-0.917856, 97, 113, 352, 240
-0.917979, 1, 241, 256, 368
-0.919205, 49, 113, 176, 240
-0.919363, 233, 225, 296, 352
-0.921498, 113, 289, 176, 416
-0.923119, 177, 369, 240, 496
-0.923833, 201, 225, 264, 352
-0.924045, 177, 193, 240, 320
-0.924314, 241, 1, 368, 128
-0.925009, 49, 289, 176, 416
-0.925027, 97, 161, 224, 288
-0.925305, 305, 337, 368, 464
-0.925433, 137, 305, 200, 432
-0.926034, 97, 353, 224, 480
-0.927343, 33, 209, 160, 336
-0.927763, 33, 81, 96, 208
-0.927863, 1, 273, 128, 400
-0.928092, 1, 65, 64, 192
-0.928372, 209, 369, 272, 496
-0.928594, 153, 353, 216, 480
-0.929264, 65, 49, 192, 176
-0.929543, 121, 353, 184, 480
-0.930214, 209, 241, 336, 368
-0.931641, 289, 289, 352, 416
-0.932056, 273, 1, 336, 128
-0.932569, 33, 337, 160, 464
-0.932585, 17, 257, 80, 384
-0.932721, 41, 289, 104, 416
-0.932827, 81, 241, 208, 368
-0.933313, 1, 97, 128, 224
-0.933535, 1, 113, 256, 240
-0.934298, 241, 369, 368, 496
-0.934596, 137, 257, 200, 384
-0.935007, 97, 1, 160, 128
-0.935401, 161, 289, 224, 416
-0.936294, 9, 337, 72, 464
-0.936434, 257, 257, 320, 384
-0.938079, 241, 177, 368, 304
-0.938207, 297, 1, 360, 128
-0.938667, 137, 145, 200, 272
-0.939376, 41, 193, 104, 320
-0.939754, 65, 129, 128, 256
-0.939766, 129, 65, 256, 192
-0.939791, 17, 161, 144, 288
-0.939848, 161, 177, 288, 304
-0.940921, 209, 225, 272, 288
-0.941009, 241, 369, 304, 496
-0.941251, 89, 305, 152, 432
-0.941296, 257, 209, 320, 336
-0.941508, 121, 193, 184, 320
-0.941698, 177, 409, 240, 472
-0.941839, 97, 353, 160, 480
-0.942056, 193, 321, 256, 448
-0.942254, 137, 81, 200, 208
-0.942502, 145, 1, 208, 128
-0.943364, 97, 1, 224, 128
-0.943498, 177, 241, 240, 368
-0.943502, 33, 1, 160, 128
-0.943593, 273, 369, 336, 496
-0.94385, 233, 289, 296, 416
-0.944065, 113, 145, 176, 272
-0.944207, 97, 209, 160, 336
-0.944239, 177, 65, 304, 192
-0.944247, 73, 65, 136, 192
-0.944545, 137, 169, 200, 232
-0.94548, 289, 145, 352, 272
-0.945592, 17, 305, 80, 368
-0.945758, 297, 65, 360, 192
-0.94608, 273, 97, 336, 224
-0.946348, 209, 265, 272, 328
-0.946619, 17, 145, 80, 272
-0.946725, 113, 353, 176, 416
-0.947043, 281, 393, 344, 456
-0.947097, 153, 209, 216, 336
-0.947225, 65, 337, 128, 464
-0.947454, 265, 305, 328, 432
-0.947461, 233, 409, 296, 472
-0.947547, 185, 65, 248, 192
-0.947562, 41, 305, 104, 368
-0.947668, 65, 289, 128, 352
-0.947939, 249, 33, 312, 160
-0.948569, 41, 337, 104, 464
-0.948818, 313, 377, 375, 440
-0.949113, 201, 273, 264, 400
-0.949486, 9, 209, 72, 336
-0.949622, 177, 225, 240, 288
-0.949983, 105, 49, 168, 176
-0.950443, 185, 321, 248, 384
-0.950695, 281, 1, 344, 64
-0.950793, 233, 265, 296, 328
-0.950803, 201, 417, 264, 480
-0.950899, 137, 265, 200, 328
-0.950914, 105, 201, 168, 264
-0.951399, 233, 233, 296, 296
-0.951434, 169, 297, 232, 360
-0.951473, 41, 145, 104, 272
-0.951732, 81, 257, 144, 384
-0.951878, 105, 297, 168, 360
-0.951886, 121, 1, 184, 128
-0.951893, 1, 17, 64, 144
-0.951981, 81, 313, 144, 376
-0.95225, 57, 241, 120, 368
-0.952256, 97, 121, 160, 184
-0.952277, 241, 377, 304, 440
-0.95228, 217, 65, 280, 192
-0.952332, 209, 113, 336, 240
-0.95238, 1, 57, 64, 120
-0.95239, 25, 273, 88, 336
-0.952428, 185, 257, 248, 320
-0.95291, 193, 289, 256, 352
-0.952939, 177, 369, 240, 432
-0.953038, 161, 345, 224, 408
-0.953059, 209, 345, 272, 408
-0.953659, 145, 297, 208, 360
-0.953817, 241, 49, 368, 176
-0.95417, 89, 113, 152, 240
-0.95439, 233, 297, 296, 360
-0.954569, 161, 433, 224, 496
-0.955094, 49, 337, 112, 400
-0.955119, 1, 329, 64, 392
-0.955133, 97, 113, 224, 240
-0.955169, 105, 377, 168, 440
-0.955235, 1, 281, 64, 344
-0.955369, 145, 193, 208, 256
-0.955666, 177, 201, 240, 264
-0.956012, 145, 377, 208, 440
-0.956443, 25, 329, 88, 392
-0.956635, 49, 265, 112, 328
-0.956748, 217, 377, 280, 440
-0.956847, 185, 345, 248, 408
-0.95719, 145, 1, 272, 128
-0.957298, 105, 177, 168, 240
-0.957379, 161, 169, 224, 232
-0.95771, 233, 433, 296, 496
-0.957732, 137, 409, 200, 472
-0.957828, 281, 177, 344, 240
-0.957972, 25, 89, 88, 152
-0.958101, 201, 177, 264, 304
-0.958232, 33, 177, 96, 240
-0.95839, 73, 137, 136, 200
-0.9584, 97, 49, 160, 112
-0.958572, 41, 201, 104, 264
-0.958628, 17, 49, 144, 176
-0.958668, 89, 233, 152, 296
-0.958708, 105, 145, 168, 208
-0.958739, 297, 305, 360, 368
-0.959093, 225, 225, 288, 480
-0.959304, 241, 225, 272, 352
-0.959311, 129, 321, 192, 384
-0.959839, 121, 225, 184, 288
-0.960067, 145, 65, 208, 320
-0.960303, 193, 17, 320, 144
-0.960308, 73, 193, 136, 320
-0.960328, 313, 337, 375, 400
-0.960335, 49, 105, 112, 168
-0.960348, 105, 321, 168, 384
-0.960668, 89, 273, 152, 336
-0.960816, 313, 289, 375, 416
-0.960935, 209, 313, 272, 376
-0.961004, 49, 257, 112, 500
-0.961099, 185, 193, 248, 448
-0.961185, 137, 41, 200, 104
-0.961301, 161, 65, 224, 192
-0.961614, 145, 233, 208, 296
-0.961627, 265, 121, 328, 184
-0.96171, 161, 145, 224, 272
-0.961748, 337, 321, 368, 448
-0.961919, 221, 225, 252, 288
-0.961935, 65, 185, 128, 248
-0.962174, 217, 209, 248, 336
-0.962349, 257, 225, 288, 352
-0.96235, 161, 273, 224, 336
-0.962626, 297, 81, 360, 144
-0.962789, 65, 241, 128, 304
-0.962888, 137, 289, 168, 416
-0.962983, 209, 297, 336, 360
-0.963019, 113, 161, 176, 416
-0.96321, 249, 225, 312, 480
-0.963392, 89, 353, 152, 416
-0.963417, 1, 81, 64, 144
-0.963519, 257, 409, 320, 472
-0.963538, 81, 225, 144, 480
-0.963609, 265, 33, 328, 96
-0.963704, 289, 193, 352, 320
-0.96372, 73, 17, 136, 144
-0.963763, 289, 417, 352, 480
-0.963806, 177, 257, 304, 320
-0.964005, 9, 225, 72, 288
-0.964127, 33, 305, 160, 368
-0.964278, 33, 33, 96, 160
-0.96449, 257, 57, 320, 120
-0.964583, 145, 257, 208, 500
-0.964749, 89, 25, 152, 88
-0.964851, 257, 265, 320, 328
-0.964906, 73, 81, 136, 144
-0.964915, 321, 1, 352, 128
-0.965022, 249, 145, 312, 272
-0.96506, 153, 321, 216, 384
-0.965088, 129, 145, 192, 208
-0.965319, 33, 153, 96, 216
-0.965447, 321, 305, 352, 432
-0.965597, 225, 409, 352, 472
-0.965618, 49, 129, 112, 192
-0.965619, 145, 1, 176, 128
-0.965637, 237, 233, 268, 296
-0.965652, 209, 409, 240, 472
-0.965714, 333, 377, 364, 440
-0.965816, 113, 81, 176, 144
-0.965824, 225, 369, 256, 496
-0.965926, 161, 409, 288, 472
-0.965967, 25, 65, 88, 128
-0.966121, 205, 369, 236, 496
-0.966202, 113, 305, 240, 368
-0.966258, 201, 201, 264, 264
-0.966319, 265, 97, 328, 160
-0.966381, 49, 161, 112, 416
-0.966389, 133, 161, 164, 224
-0.966444, 113, 17, 176, 80
-0.966471, 113, 97, 176, 224
-0.966544, 145, 233, 272, 296
-0.966587, 113, 1, 176, 256
-0.966944, 185, 353, 216, 480
-0.967001, 185, 417, 216, 480
-0.967057, 217, 345, 248, 408
-0.967061, 145, 337, 176, 464
-0.967217, 81, 241, 208, 304
-0.9673, 17, 353, 80, 416
-0.967307, 185, 65, 248, 128
-0.967325, 241, 25, 368, 88
-0.967333, 113, 345, 240, 408
-0.967383, 65, 209, 128, 272
-0.967426, 49, 57, 112, 120
-0.967513, 221, 385, 252, 448
-0.967565, 17, 249, 80, 312
-0.96764, 45, 257, 76, 384
-0.967698, 65, 161, 128, 224
-0.967786, 273, 289, 336, 352
-0.967791, 25, 129, 88, 192
-0.967817, 129, 281, 256, 344
-0.967885, 305, 17, 368, 80
-0.967976, 49, 81, 80, 208
-0.968076, 129, 369, 256, 432
-0.968114, 229, 289, 260, 416
-0.968221, 9, 153, 72, 216
-0.968249, 65, 161, 192, 224
-0.96825, 157, 385, 188, 448
-0.968432, 313, 57, 375, 120
-0.968497, 169, 353, 200, 480
-0.968505, 225, 177, 288, 304
-0.968592, 65, 393, 192, 456
-0.968622, 113, 401, 240, 464
-0.968626, 9, 185, 72, 248
-0.968809, 49, 329, 176, 392
-0.96881, 257, 417, 288, 480
-0.968835, 37, 337, 68, 464
-0.968863, 137, 345, 200, 408
-0.968864, 65, 361, 128, 424
-0.96889, 217, 249, 248, 312
-0.968955, 133, 145, 164, 272
-0.968994, 113, 185, 240, 248
-0.969039, 341, 369, 372, 496
-0.969138, 333, 321, 364, 384
-0.969215, 161, 257, 192, 384
-0.969224, 41, 65, 104, 320
-0.96929, 321, 313, 352, 376
-0.969333, 189, 209, 220, 336
-0.969357, 289, 129, 352, 384
-0.969361, 113, 257, 176, 500
-0.969373, 113, 257, 176, 320
-0.969381, 161, 73, 224, 136
-0.969405, 125, 289, 156, 416
-0.969454, 233, 353, 296, 416
-0.969496, 217, 65, 280, 128
-0.969516, 217, 321, 248, 448
-0.969529, 257, 217, 320, 280
-0.969572, 9, 257, 72, 500
-0.969573, 65, 401, 128, 464
-0.969617, 209, 225, 240, 288
-0.969736, 41, 225, 104, 288
-0.969739, 293, 113, 324, 240
-0.969863, 53, 313, 84, 376
-0.96989, 1, 33, 64, 96
-0.969917, 113, 209, 240, 272
-0.969986, 137, 161, 200, 416
-0.970043, 345, 337, 375, 400
-0.970111, 9, 289, 40, 416
-0.970126, 17, 65, 80, 320
-0.970199, 65, 289, 96, 416
-0.970249, 265, 433, 328, 496
-0.970339, 265, 145, 328, 208
-0.970339, 33, 121, 160, 184
-0.97037, 9, 377, 72, 440
-0.970447, 173, 409, 204, 472
-0.970471, 93, 265, 124, 328
-0.970546, 233, 257, 264, 320
-0.970581, 37, 329, 68, 392
-0.970601, 281, 369, 344, 432
-0.970612, 221, 273, 252, 336
-0.970619, 49, 81, 112, 144
-0.970653, 229, 225, 260, 352
-0.970688, 1, 281, 128, 344
-0.970697, 33, 353, 160, 416
-0.970784, 277, 385, 308, 448
-0.970872, 257, 1, 320, 256
-0.970882, 305, 321, 336, 448
-0.970886, 61, 209, 92, 336
-0.970903, 305, 257, 368, 500
-0.970909, 65, 313, 96, 376
-0.970931, 149, 257, 180, 384
-0.970987, 181, 161, 212, 288
-0.970991, 313, 193, 375, 320
-0.971069, 113, 369, 144, 432
-0.971119, 305, 193, 368, 256
-0.971134, 217, 321, 248, 384
-0.971204, 25, 289, 56, 416
-0.971207, 65, 113, 96, 240
-0.971228, 81, 265, 208, 328
-0.971245, 81, 273, 112, 400
-0.971315, 233, 209, 296, 272
-0.971344, 193, 385, 320, 448
-0.971377, 177, 169, 208, 232
-0.971431, 197, 329, 228, 392
-0.971436, 301, 297, 332, 360
-0.971445, 161, 433, 288, 496
-0.971465, 41, 305, 72, 368
-0.971533, 185, 129, 248, 256
-0.971588, 73, 57, 136, 120
-0.971619, 273, 257, 336, 500
-0.971682, 161, 305, 192, 368
-0.971693, 137, 9, 200, 72
-0.971708, 89, 289, 120, 352
-0.971715, 13, 313, 44, 376
-0.971724, 49, 337, 80, 464
-0.971802, 157, 305, 188, 432
-0.97184, 241, 49, 368, 112
-0.971844, 73, 65, 136, 320
-0.971882, 273, 225, 304, 352
-0.971885, 165, 169, 196, 232
-0.971928, 1, 129, 64, 192
-0.971937, 245, 273, 276, 400
-0.971949, 101, 289, 132, 416
-0.971959, 73, 289, 104, 352
-0.972028, 225, 433, 256, 496
-0.972118, 61, 281, 92, 344
-0.972137, 73, 113, 136, 176
-0.97214, 193, 33, 256, 288
-0.972149, 173, 257, 204, 384
-0.97215, 85, 337, 116, 464
-0.972173, 129, 297, 160, 360
-0.972173, 133, 353, 164, 480
-0.972382, 305, 241, 368, 368
-0.972446, 169, 273, 200, 336
-0.972498, 25, 305, 56, 368
-0.972612, 237, 409, 268, 472
-0.972644, 81, 369, 208, 432
-0.972667, 17, 225, 144, 288
-0.972687, 61, 177, 92, 240
-0.972792, 317, 369, 348, 496
-0.972801, 125, 209, 156, 336
-0.97282, 241, 1, 368, 64
-0.972833, 153, 169, 184, 232
-0.972842, 113, 353, 144, 480
-0.972862, 257, 249, 288, 312
-0.97289, 49, 73, 176, 136
-0.973041, 73, 121, 104, 184
-0.973045, 129, 353, 160, 416
-0.973047, 309, 1, 340, 128
-0.973047, 305, 33, 368, 288
-0.973105, 245, 265, 276, 328
-0.973155, 1, 193, 128, 256
-0.973182, 177, 297, 208, 360
-0.973264, 157, 265, 188, 328
-0.973271, 133, 33, 164, 160
-0.973273, 129, 209, 160, 272
-0.973286, 309, 65, 340, 192
-0.973318, 289, 273, 320, 400
-0.973361, 45, 81, 76, 144
-0.973368, 65, 161, 96, 288
-0.97344, 149, 161, 180, 288
-0.973458, 281, 281, 312, 344
-0.973553, 273, 273, 304, 400
-0.973608, 129, 185, 160, 248
-0.973637, 33, 281, 64, 344
-0.973697, 161, 337, 288, 400
-0.973783, 157, 353, 188, 480
-0.973791, 225, 65, 288, 320
-0.973826, 329, 345, 360, 408
-0.973847, 49, 185, 176, 248
-0.973873, 193, 65, 320, 128
-0.97399, 25, 345, 56, 408
-0.973993, 285, 105, 316, 168
-0.974068, 161, 129, 288, 256
-0.974079, 61, 89, 92, 152
-0.974125, 269, 409, 300, 472
-0.97413, 205, 225, 236, 352
-0.974137, 109, 217, 140, 280
-0.974141, 313, 401, 375, 464
-0.974201, 313, 385, 344, 448
-0.974305, 5, 49, 36, 176
-0.974342, 5, 97, 36, 224
-0.97438, 301, 169, 332, 232
-0.974426, 101, 121, 132, 184
-0.974441, 97, 217, 128, 280
-0.974452, 225, 433, 352, 496
-0.974457, 217, 273, 248, 400
-0.974471, 241, 321, 368, 384
-0.974522, 181, 193, 212, 256
-0.974522, 17, 281, 48, 344
-0.974539, 121, 129, 152, 192
-0.974565, 169, 33, 232, 288
-0.974683, 77, 113, 108, 240
-0.974694, 137, 209, 168, 336
-0.974698, 29, 241, 60, 368
-0.974709, 113, 425, 240, 488
-0.974721, 145, 329, 176, 392
-0.974729, 209, 289, 240, 352
-0.97475, 185, 177, 248, 240
-0.974782, 313, 129, 375, 256
-0.974815, 49, 345, 80, 408
-0.974848, 21, 337, 52, 464
-0.974862, 41, 361, 104, 424
-0.974923, 73, 65, 104, 192
-0.974999, 197, 257, 228, 320
-0.975009, 265, 129, 328, 384
-0.97508, 237, 65, 268, 192
-0.975086, 241, 193, 368, 256
-0.975163, 197, 297, 228, 360
-0.975231, 201, 353, 232, 416
-0.975281, 197, 321, 228, 448
-0.975322, 217, 1, 280, 500
-0.975354, 53, 129, 84, 256
-0.975445, 241, 385, 368, 448
-0.975557, 241, 433, 272, 496
-0.975596, 33, 41, 160, 104
-0.975625, 1, 49, 32, 112
-0.975633, 245, 369, 276, 496
-0.975634, 1, 329, 128, 392
-0.975641, 9, 225, 40, 352
-0.97565, 61, 113, 92, 176
-0.975744, 9, 161, 72, 416
-0.975776, 197, 417, 228, 480
-0.975778, 185, 1, 248, 500
-0.97596, 209, 385, 240, 448
-0.975985, 149, 297, 180, 360
-0.976023, 237, 289, 268, 352
-0.976046, 157, 425, 188, 488
-0.976106, 77, 329, 108, 392
-0.976185, 313, 1, 344, 64
-0.976195, 113, 249, 144, 312
-0.976213, 233, 185, 296, 248
-0.976214, 273, 313, 336, 376
-0.976215, 1, 89, 128, 152
-0.976222, 209, 121, 336, 184
-0.976261, 13, 57, 44, 120
-0.976336, 289, 393, 320, 456
-0.976354, 225, 409, 256, 472
-0.976362, 113, 273, 144, 400
-0.976362, 165, 233, 196, 296
-0.976401, 305, 137, 368, 200
-0.976412, 141, 369, 172, 432
-0.976428, 17, 49, 48, 176
-0.976441, 97, 241, 128, 304
-0.976557, 129, 257, 256, 320
-0.97659, 169, 17, 232, 144
-0.976627, 145, 1, 208, 500
-0.976629, 345, 305, 375, 368
-0.976712, 49, 265, 80, 328
-0.976782, 249, 393, 280, 456
-0.976789, 253, 225, 284, 288
-0.976815, 161, 161, 224, 416
-0.976874, 233, 313, 264, 376
-0.97689, 113, 33, 240, 96
-0.976976, 165, 209, 196, 336
-0.977009, 81, 257, 112, 320
-0.977017, 45, 209, 76, 336
-0.97703, 185, 369, 216, 432
-0.977035, 109, 225, 140, 352
-0.977112, 197, 377, 228, 440
-0.977125, 141, 185, 172, 248
-0.977135, 17, 1, 80, 500
-0.977173, 201, 17, 264, 144
-0.977206, 213, 65, 244, 192
-0.977208, 113, 345, 144, 408
-0.977227, 277, 17, 308, 80
-0.977246, 177, 361, 304, 424
-0.977275, 269, 273, 300, 336
-0.977283, 321, 417, 352, 480
-0.977286, 113, 113, 144, 240
-0.977311, 17, 153, 144, 216
-0.977313, 297, 1, 360, 500
-0.977357, 229, 345, 260, 408
-0.977389, 1, 257, 128, 320
-0.977418, 281, 241, 344, 368
-0.977457, 153, 209, 184, 336
-0.977491, 185, 289, 216, 416
-0.977544, 61, 65, 92, 192
-0.977577, 257, 289, 288, 416
-0.977646, 289, 321, 320, 448
-0.977657, 185, 321, 216, 384
-0.977693, 257, 369, 288, 496
-0.977796, 125, 329, 156, 392
-0.977856, 61, 153, 92, 216
-0.977936, 101, 369, 132, 432
-0.977956, 173, 433, 204, 496
-0.977983, 145, 65, 176, 192
-0.977989, 73, 161, 104, 224
-0.977992, 117, 1, 148, 128
-0.978017, 85, 225, 116, 352
-0.978054, 273, 369, 304, 496
-0.978068, 241, 345, 368, 408
-0.978082, 113, 161, 240, 224
-0.978088, 181, 273, 212, 336
-0.978098, 265, 385, 296, 448
-0.978135, 193, 225, 320, 288
-0.978142, 269, 33, 300, 160
-0.978196, 305, 129, 336, 256
-0.978205, 165, 345, 196, 408
-0.978229, 161, 81, 192, 208
-0.978258, 281, 33, 344, 288
-0.978385, 169, 385, 200, 448
-0.978406, 101, 305, 132, 368
-0.978422, 213, 433, 244, 496
-0.978463, 81, 89, 112, 152
-0.978503, 297, 121, 328, 184
-0.978506, 229, 177, 260, 304
-0.978518, 161, 305, 288, 368
-0.978523, 305, 81, 336, 144
-0.978532, 93, 49, 124, 176
-0.978536, 5, 273, 36, 336
-0.97859, 49, 177, 80, 240
-0.978629, 333, 1, 364, 128
-0.978661, 161, 185, 288, 248
-0.978662, 89, 345, 120, 408
-0.978691, 345, 393, 375, 456
-0.978707, 25, 57, 56, 120
-0.978774, 193, 201, 224, 264
-0.978906, 65, 1, 192, 64
-0.979043, 97, 337, 128, 464
-0.979068, 257, 297, 288, 360
-0.979154, 185, 65, 216, 192
-0.979224, 5, 337, 36, 400
-0.979311, 109, 193, 140, 256
-0.979387, 205, 273, 236, 400
-0.979414, 133, 137, 164, 200
-0.97946, 121, 1, 184, 500
-0.979478, 5, 81, 36, 144
-0.979485, 41, 225, 72, 288
-0.979563, 225, 273, 352, 336
-0.979688, 289, 1, 320, 128
-0.9797, 65, 209, 192, 272
-0.979729, 329, 369, 360, 496
-0.97979, 225, 65, 256, 192
-0.979832, 65, 417, 192, 480
-0.979955, 193, 161, 224, 288
-0.979961, 305, 369, 336, 496
-0.980045, 9, 177, 40, 304
-0.980084, 41, 1, 104, 500
-0.980112, 17, 97, 48, 224
-0.980125, 169, 161, 200, 288
-0.980201, 29, 49, 60, 176
-0.980267, 65, 337, 96, 464
-0.980483, 241, 177, 272, 304
-0.980498, 241, 1, 304, 500
-0.980818, 145, 65, 272, 128
-0.980822, 249, 65, 280, 192
-0.980895, 5, 1, 36, 128
-0.980902, 105, 33, 136, 160
-0.981071, 81, 129, 208, 192
-0.981082, 301, 273, 332, 400
-0.981179, 169, 305, 200, 432
-0.981206, 273, 1, 336, 500
-0.981231, 157, 1, 188, 128
-0.981319, 273, 49, 336, 176
-0.981729, 177, 209, 208, 336
-0.981736, 133, 81, 164, 208
-0.981794, 1, 377, 128, 440
-0.98184, 9, 337, 40, 464
-0.981871, 201, 65, 232, 192
-0.981947, 121, 65, 152, 192
-0.982007, 49, 97, 176, 160
-0.982011, 249, 81, 312, 208
-0.982314, 177, 161, 304, 224
-0.982496, 121, 161, 152, 288
-0.982607, 17, 401, 144, 464
-0.982755, 97, 81, 224, 144
-0.982869, 1, 65, 128, 128
-0.982903, 77, 161, 108, 288
-0.982962, 173, 81, 204, 208
-0.982985, 97, 209, 128, 336
-0.982998, 289, 65, 320, 192
-0.983098, 29, 145, 60, 272
-0.983212, 317, 257, 348, 384
-0.983254, 209, 97, 336, 160
-0.983268, 321, 49, 352, 176
-0.983724, 341, 273, 372, 400
-0.98375, 109, 177, 140, 304
-0.983986, 81, 1, 144, 500
-0.984013, 145, 113, 176, 240
-0.984155, 241, 73, 368, 136
-0.984188, 257, 177, 288, 304
-0.984511, 205, 145, 236, 272
-0.984575, 241, 217, 368, 280
-0.984787, 209, 129, 272, 256
-0.984906, 225, 169, 352, 232
-0.98504, 225, 249, 352, 312
-0.985093, 169, 33, 200, 160
-0.985172, 225, 17, 288, 144
-0.985307, 313, 161, 375, 416
-0.98562, 281, 113, 312, 240
-0.985798, 193, 41, 320, 104
-0.98597, 225, 145, 352, 208
-0.986076, 1, 17, 128, 80
-0.986228, 33, 313, 288, 376
-0.986358, 129, 137, 256, 200
-0.986491, 97, 57, 224, 120
-0.986581, 97, 105, 224, 168
-0.987049, 129, 289, 375, 352
-0.987148, 129, 401, 375, 464
-0.987495, 129, 9, 256, 72
-0.987538, 121, 237, 184, 268
-0.987542, 1, 281, 256, 344
-0.987738, 17, 425, 144, 488
-0.987811, 65, 369, 320, 432
-0.987821, 177, 421, 240, 452
-0.987848, 129, 33, 375, 96
-0.987986, 217, 409, 280, 440
-0.987987, 17, 297, 80, 328
-0.988007, 145, 177, 208, 208
-0.988027, 17, 329, 80, 360
-0.988027, 201, 297, 264, 328
-0.988033, 33, 317, 96, 348
-0.988058, 313, 397, 375, 428
-0.988074, 57, 293, 120, 324
-0.988081, 129, 425, 375, 488
-0.988129, 177, 9, 304, 72
-0.98817, 89, 289, 152, 320
-0.988197, 225, 261, 288, 292
-0.988197, 1, 281, 375, 344
-0.988224, 129, 1, 375, 64
-0.988248, 105, 361, 168, 392
-0.988337, 241, 273, 304, 304
-0.98837, 1, 177, 256, 240
-0.988374, 177, 305, 240, 336
-0.988386, 209, 249, 272, 280
-0.988395, 17, 341, 80, 372
-0.988405, 241, 301, 304, 332
-0.988465, 49, 329, 112, 360
-0.988484, 201, 229, 264, 260
-0.988515, 1, 313, 64, 344
-0.988517, 89, 253, 152, 284
-0.988535, 145, 405, 208, 436
-0.988559, 201, 441, 264, 472
-0.988566, 145, 189, 208, 220
-0.988582, 225, 429, 288, 460
-0.988603, 33, 345, 288, 408
-0.98861, 81, 233, 144, 264
-0.988619, 129, 385, 192, 416
-0.98863, 129, 177, 375, 240
-0.988669, 65, 305, 128, 336
-0.988701, 1, 81, 375, 144
-0.988709, 169, 237, 232, 268
-0.988709, 105, 221, 168, 252
-0.988735, 257, 397, 320, 428
-0.988799, 193, 321, 256, 352
-0.988809, 97, 397, 160, 428
-0.988827, 1, 401, 256, 464
-0.988844, 25, 281, 88, 312
-0.988893, 145, 349, 208, 380
-0.988909, 49, 281, 112, 312
-0.988917, 121, 305, 184, 336
-0.988924, 81, 129, 144, 160
-0.988937, 217, 281, 280, 312
-0.988948, 177, 269, 240, 300
-0.988992, 97, 265, 352, 328
-0.989002, 289, 9, 352, 40
-0.989006, 137, 289, 200, 320
-0.989043, 281, 405, 344, 436
-0.989044, 1, 73, 64, 104
-0.989077, 41, 217, 104, 248
-0.989185, 129, 57, 375, 120
-0.989224, 313, 341, 375, 372
-0.989244, 305, 317, 368, 348
-0.989244, 233, 445, 296, 476
-0.98927, 121, 373, 184, 404
-0.989281, 145, 237, 208, 268
-0.989285, 89, 305, 152, 336
-0.989287, 129, 153, 375, 216
-0.989298, 169, 257, 232, 288
-0.989302, 121, 173, 184, 204
-0.989305, 201, 261, 264, 292
-0.98932, 129, 249, 192, 280
-0.989335, 33, 201, 288, 264
-0.989337, 17, 89, 80, 120
-0.989344, 233, 381, 296, 412
-0.989372, 41, 305, 104, 336
-0.989377, 1, 305, 375, 368
-0.98939, 177, 357, 240, 388
-0.989405, 25, 269, 88, 300
-0.98944, 153, 305, 216, 336
-0.989451, 281, 197, 344, 228
-0.989452, 121, 333, 184, 364
-0.989494, 209, 353, 272, 384
-0.989502, 177, 341, 240, 372
-0.989512, 57, 341, 120, 372
-0.989521, 161, 377, 224, 408
-0.989533, 97, 45, 160, 76
-0.989536, 81, 317, 144, 348
-0.989548, 121, 185, 184, 216
-0.989548, 145, 361, 208, 392
-0.989592, 233, 245, 296, 276
-0.9896, 305, 385, 368, 416
-0.989613, 273, 137, 336, 168
-0.989617, 201, 425, 264, 456
-0.989639, 177, 445, 240, 476
-0.989642, 273, 297, 336, 328
-0.989648, 57, 121, 120, 152
-0.989649, 1, 285, 64, 316
-0.989666, 17, 357, 80, 388
-0.989674, 129, 329, 375, 392
-0.989723, 145, 201, 208, 232
-0.989725, 97, 197, 160, 228
-0.989732, 177, 285, 240, 316
-0.989733, 81, 373, 144, 404
-0.989739, 201, 373, 264, 404
-0.989743, 265, 125, 328, 156
-0.989757, 193, 73, 256, 104
-0.989759, 281, 393, 344, 424
-0.989772, 129, 269, 192, 300
-0.989796, 169, 225, 232, 256
-0.989797, 65, 209, 128, 240
-0.98983, 297, 329, 360, 360
-0.989844, 161, 321, 224, 352
-0.989876, 81, 221, 144, 252
-0.989877, 97, 65, 160, 96
-0.989882, 33, 177, 96, 208
-0.989903, 105, 385, 168, 416
-0.989936, 281, 185, 344, 216
-0.989945, 105, 133, 168, 164
-0.989972, 89, 349, 152, 380
-0.989976, 105, 25, 168, 56
-0.989978, 65, 165, 128, 196
-0.989986, 113, 317, 176, 348
-0.989996, 1, 185, 375, 248
-0.990012, 209, 457, 272, 488
-0.990014, 169, 389, 232, 420
-0.990018, 17, 221, 80, 252
-0.990028, 1, 61, 64, 92
-0.990051, 177, 433, 240, 464
-0.990057, 217, 397, 280, 428
-0.990063, 89, 329, 152, 360
-0.990074, 249, 409, 312, 440
-0.990105, 225, 233, 288, 264
-0.990111, 49, 93, 112, 124
-0.990118, 169, 213, 232, 244
-0.990125, 137, 433, 200, 464
-0.990128, 41, 353, 104, 384
-0.990131, 185, 405, 248, 436
-0.990157, 289, 421, 352, 452
-0.99017, 177, 457, 240, 488
-0.990179, 209, 309, 272, 340
-0.990216, 49, 269, 112, 300
-0.990217, 41, 197, 104, 228
-0.990254, 113, 161, 176, 192
-0.990276, 1, 49, 256, 112
-0.990279, 305, 81, 368, 112
-0.990283, 153, 269, 216, 300
-0.990289, 249, 425, 312, 456
-0.990304, 169, 189, 232, 220
-0.990325, 121, 421, 184, 452
-0.990327, 217, 73, 280, 104
-0.990409, 1, 393, 375, 456
-0.990461, 1, 105, 375, 168
-0.990537, 65, 233, 320, 296
-0.990681, 129, 121, 375, 184
-0.990949, 145, 293, 272, 324
-0.991013, 33, 73, 288, 136
-0.991319, 33, 137, 288, 200
-0.991485, 161, 89, 288, 152
-0.991485, 209, 305, 336, 336
-0.991541, 81, 401, 208, 432
-0.991548, 1, 225, 375, 288
-0.991616, 1, 161, 375, 224
-0.991618, 1, 361, 375, 424
-0.991625, 1, 129, 375, 192
-0.991656, 221, 225, 236, 288
-0.991659, 1, 57, 375, 120
-0.991662, 129, 201, 375, 264
-0.991665, 97, 97, 352, 160
-0.991759, 61, 289, 92, 320
-0.991793, 205, 417, 236, 448
-0.991803, 145, 249, 272, 280
-0.991856, 1, 257, 256, 320
-0.991864, 217, 229, 248, 260
-0.991865, 341, 341, 372, 372
-0.991972, 33, 425, 288, 488
-0.991979, 205, 305, 236, 336
-0.992025, 1, 417, 375, 480
-0.992039, 1, 257, 375, 320
-0.992073, 329, 389, 360, 420
-0.992108, 153, 177, 184, 208
-0.992119, 145, 237, 272, 268
-0.992124, 105, 233, 136, 264
-0.992131, 213, 249, 244, 280
-0.992135, 233, 225, 248, 288
-0.992136, 177, 305, 208, 336
-0.992137, 65, 121, 96, 152
-0.992138, 229, 261, 260, 292
-0.992138, 161, 417, 288, 448
-0.992139, 169, 269, 200, 300
-0.992148, 225, 445, 256, 476
-0.992149, 245, 245, 276, 276
-0.992157, 105, 289, 136, 320
-0.992169, 245, 437, 276, 468
-0.99217, 233, 281, 264, 312
-0.992194, 97, 125, 128, 156
-0.992196, 113, 385, 144, 416
-0.99221, 181, 177, 212, 208
-0.992214, 61, 321, 92, 352
-0.992223, 217, 349, 248, 380
-0.992224, 85, 293, 116, 324
-0.992224, 133, 185, 164, 216
-0.992226, 137, 169, 168, 200
-0.992227, 45, 305, 76, 336
-0.992228, 229, 237, 260, 268
-0.992257, 151, 169, 166, 232
-0.992262, 9, 345, 40, 376
-0.992275, 69, 301, 100, 332
-0.992276, 333, 329, 364, 360
-0.992283, 61, 185, 92, 216
-0.992297, 97, 249, 128, 280
-0.992297, 21, 321, 52, 352
-0.992297, 41, 321, 72, 352
-0.992304, 257, 261, 288, 292
-0.992305, 257, 429, 288, 460
-0.992306, 241, 269, 272, 300
-0.992309, 49, 333, 80, 364
-0.992315, 189, 193, 220, 224
-0.992317, 229, 425, 260, 456
-0.992319, 193, 305, 224, 336
-0.992325, 209, 365, 240, 396
-0.992326, 109, 249, 140, 280
-0.992339, 25, 357, 56, 388
-0.99234, 285, 397, 316, 428
-0.992342, 97, 305, 224, 336
-0.992347, 9, 309, 40, 340
-0.99235, 129, 349, 256, 380
-0.992351, 133, 297, 164, 328
-0.992355, 21, 285, 52, 316
-0.992358, 185, 429, 216, 460
-0.992359, 209, 321, 240, 352
-0.99236, 245, 293, 276, 324
-0.992364, 73, 289, 104, 320
-0.992365, 37, 289, 68, 320
-0.992366, 93, 273, 124, 304
-0.992366, 145, 189, 176, 220
-0.992373, 177, 437, 304, 468
-0.992384, 29, 333, 60, 364
-0.99239, 285, 113, 316, 144
-0.99239, 57, 309, 88, 340
-0.992392, 261, 301, 292, 332
-0.992392, 289, 125, 320, 156
-0.992395, 225, 377, 256, 408
-0.992399, 5, 333, 36, 364
-0.992399, 73, 333, 104, 364
-0.992403, 105, 261, 136, 292
-0.992404, 189, 289, 220, 320
-0.992405, 209, 385, 240, 416
-0.992406, 181, 401, 196, 464
-0.992407, 209, 273, 240, 304
-0.992408, 41, 349, 72, 380
-0.99241, 125, 221, 156, 252
-0.992412, 169, 289, 200, 320
-0.992414, 145, 269, 272, 300
-0.99242, 269, 417, 300, 448
-0.992421, 153, 269, 184, 300
-0.992423, 125, 357, 156, 388
-0.992426, 121, 249, 152, 280
-0.992428, 165, 309, 196, 340
-0.992435, 65, 97, 96, 128
-0.99244, 97, 305, 128, 336
-0.992445, 49, 281, 80, 312
-0.992445, 225, 293, 256, 324
-0.992446, 61, 165, 92, 196
-0.992454, 81, 313, 112, 344
-0.992474, 109, 373, 140, 404
-0.992485, 117, 309, 148, 340
-0.992495, 209, 461, 240, 492
-0.992495, 273, 393, 304, 424
-0.992507, 261, 441, 292, 472
-0.992509, 229, 413, 260, 444
-0.992515, 225, 249, 256, 280
-0.99252, 49, 89, 80, 120
-0.99253, 21, 309, 52, 340
-0.99253, 337, 353, 368, 384
-0.992531, 49, 181, 80, 212
-0.992541, 317, 397, 348, 428
-0.992545, 85, 241, 116, 272
-0.992549, 165, 257, 196, 288
-0.99255, 165, 433, 196, 464
-0.992552, 117, 297, 148, 328
-0.992559, 97, 221, 128, 252
-0.992565, 21, 345, 52, 376
-0.992565, 221, 397, 252, 428
-0.992569, 109, 221, 140, 252
-0.992572, 245, 401, 276, 432
-0.992577, 77, 133, 108, 164
-0.992577, 125, 133, 156, 164
-0.992579, 181, 277, 212, 308
-0.992579, 197, 365, 228, 396
-0.992582, 9, 81, 40, 112
-0.992584, 261, 405, 292, 436
-0.992585, 153, 245, 184, 276
-0.992585, 249, 413, 280, 444
-0.99259, 245, 425, 276, 456
-0.992595, 249, 449, 280, 480
-0.992598, 177, 417, 208, 448
-0.992598, 153, 309, 184, 340
-0.992599, 165, 173, 196, 204
-0.992604, 237, 381, 268, 412
-0.992604, 21, 297, 52, 328
-0.992606, 137, 201, 168, 232
-0.992609, 161, 401, 192, 432
-0.99261, 1, 325, 128, 356
-0.99261, 125, 369, 156, 400
-0.992613, 305, 401, 336, 432
-0.992614, 217, 337, 248, 368
-0.992617, 173, 193, 204, 224
-0.992621, 141, 261, 172, 292
-0.992624, 197, 337, 228, 368
-0.992631, 109, 125, 140, 156
-0.99264, 105, 277, 136, 308
-0.992643, 227, 249, 242, 312
-0.992646, 269, 429, 300, 460
-0.992647, 201, 73, 232, 104
-0.992659, 1, 33, 375, 96
-0.992722, 225, 413, 352, 444
-0.992761, 33, 313, 160, 344
-0.9928, 227, 225, 242, 288
-0.992801, 97, 237, 224, 268
-0.992811, 239, 233, 254, 296
-0.992815, 129, 325, 256, 356
-0.99287, 209, 281, 336, 312
-0.992888, 241, 29, 368, 60
-0.992931, 285, 385, 300, 448
-0.992945, 219, 345, 234, 408
-0.992971, 219, 265, 234, 328
-0.992991, 33, 129, 160, 160
-0.993003, 247, 233, 262, 296
-0.993005, 215, 241, 230, 304
-0.993018, 73, 161, 88, 224
-0.993034, 225, 425, 352, 456
-0.993036, 247, 265, 262, 328
-0.993065, 193, 293, 320, 324
-0.993075, 113, 193, 240, 224
-0.993087, 357, 337, 372, 400
-0.9931, 129, 405, 256, 436
-0.993104, 61, 305, 76, 368
-0.993122, 67, 313, 82, 376
-0.99314, 209, 317, 336, 348
-0.993145, 33, 293, 160, 324
-0.993153, 1, 329, 375, 392
-0.993154, 87, 297, 102, 360
-0.993158, 237, 273, 252, 336
-0.993167, 187, 409, 202, 472
-0.993205, 225, 61, 352, 92
-0.993212, 225, 397, 352, 428
-0.99325, 69, 89, 84, 152
-0.993255, 145, 369, 272, 400
-0.993263, 81, 289, 208, 320
-0.99334, 347, 329, 362, 392
-0.993361, 229, 345, 244, 408
-0.993397, 225, 437, 352, 468
-0.993397, 179, 169, 194, 232
-0.993408, 81, 389, 208, 420
-0.993435, 139, 153, 154, 216
-0.993436, 97, 221, 224, 252
-0.993443, 49, 77, 176, 108
-0.993455, 277, 417, 292, 480
-0.99347, 67, 177, 82, 240
-0.993494, 223, 369, 238, 432
-0.9935, 241, 41, 368, 72
-0.993509, 279, 393, 294, 456
-0.99351, 255, 273, 270, 336
-0.993531, 303, 289, 318, 352
-0.993551, 1, 9, 375, 72
-0.993592, 145, 313, 272, 344
-0.993611, 145, 177, 160, 240
-0.993613, 293, 281, 308, 344
-0.993615, 209, 333, 336, 364
-0.993621, 263, 401, 278, 464
-0.99365, 161, 449, 288, 480
-0.993668, 95, 265, 110, 328
-0.993672, 47, 337, 62, 400
-0.993685, 161, 305, 176, 368
-0.993695, 145, 225, 272, 256
-0.993696, 171, 305, 186, 368
-0.993699, 97, 373, 224, 404
-0.993712, 269, 409, 284, 472
-0.993721, 49, 173, 176, 204
-0.993735, 79, 121, 94, 184
-0.993747, 173, 281, 188, 344
-0.993748, 331, 313, 346, 376
-0.993749, 249, 409, 264, 472
-0.993763, 17, 49, 32, 112
-0.993768, 145, 153, 160, 216
-0.99378, 313, 297, 328, 360
-0.993782, 213, 369, 228, 432
-0.993789, 1, 313, 16, 376
-0.993795, 233, 249, 248, 312
-0.993803, 55, 305, 70, 368
-0.993813, 323, 305, 338, 368
-0.993819, 103, 225, 118, 288
-0.993829, 49, 185, 176, 216
-0.993833, 17, 233, 144, 264
-0.993848, 97, 253, 224, 284
-0.993853, 283, 273, 298, 336
-0.993855, 49, 361, 176, 392
-0.993873, 137, 177, 152, 240
-0.993874, 81, 325, 208, 356
-0.993878, 213, 345, 228, 408
-0.993884, 161, 73, 288, 104
-0.993884, 1, 221, 128, 252
-0.993885, 237, 305, 252, 368
-0.993894, 337, 313, 352, 376
-0.993901, 353, 361, 368, 424
-0.993915, 9, 49, 24, 112
-0.993931, 1, 337, 128, 368
-0.993956, 193, 417, 208, 480
-0.993959, 131, 353, 146, 416
-0.993963, 93, 289, 108, 352
-0.993964, 151, 297, 166, 360
-0.993971, 113, 181, 240, 212
-0.993989, 173, 393, 188, 456
-0.994003, 225, 453, 352, 484
-0.994004, 33, 25, 288, 88
-0.994007, 49, 413, 176, 444
-0.994011, 331, 385, 346, 448
-0.994012, 305, 89, 320, 152
-0.994024, 49, 157, 176, 188
-0.994047, 229, 385, 244, 448
-0.994053, 65, 273, 80, 336
-0.994075, 81, 289, 96, 352
-0.994075, 179, 273, 194, 336
-0.994076, 179, 297, 194, 360
-0.994092, 199, 417, 214, 480
-0.994098, 27, 305, 42, 368
-0.994099, 81, 349, 208, 380
-0.994103, 81, 273, 208, 304
-0.994103, 105, 273, 120, 336
-0.994112, 193, 169, 208, 232
-0.994113, 129, 177, 144, 240
-0.994131, 245, 433, 260, 496
-0.994148, 241, 17, 368, 48
-0.99415, 71, 113, 86, 176
-0.99416, 33, 281, 48, 344
-0.994164, 217, 409, 232, 472
-0.994165, 145, 281, 272, 312
-0.99417, 41, 329, 56, 392
-0.994183, 193, 265, 320, 296
-0.994191, 253, 233, 268, 296
-0.994192, 113, 417, 240, 448
-0.994193, 75, 321, 90, 384
-0.994225, 53, 273, 68, 336
-0.994229, 9, 321, 24, 384
-0.994237, 171, 425, 186, 488
-0.994243, 37, 305, 52, 368
-0.994244, 9, 73, 24, 136
-0.994255, 167, 393, 182, 456
-0.99426, 75, 289, 90, 352
-0.994263, 145, 41, 160, 104
-0.994282, 1, 117, 128, 148
-0.994293, 15, 313, 30, 376
-0.994304, 355, 393, 370, 456
-0.994305, 1, 353, 128, 384
-0.994314, 173, 169, 188, 232
-0.994326, 211, 297, 226, 360
-0.994341, 341, 345, 356, 408
-0.994349, 231, 273, 246, 336
-0.994357, 273, 265, 288, 328
-0.99437, 97, 361, 224, 392
-0.994371, 299, 97, 314, 160
-0.994372, 187, 169, 202, 232
-0.99438, 227, 425, 242, 488
-0.994381, 59, 81, 74, 144
-0.994385, 291, 385, 306, 448
-0.994385, 157, 385, 172, 448
-0.994427, 125, 337, 140, 400
-0.994432, 199, 177, 214, 240
-0.994471, 241, 225, 272, 480
-0.994474, 109, 217, 124, 280
-0.994525, 129, 129, 160, 384
-0.99453, 1, 113, 256, 176
-0.994533, 49, 257, 176, 288
-0.994539, 49, 305, 64, 368
-0.994543, 49, 337, 176, 368
-0.994551, 137, 361, 152, 424
-0.994563, 143, 297, 158, 360
-0.994565, 49, 145, 176, 176
-0.994573, 43, 297, 58, 360
-0.994574, 87, 329, 102, 392
-0.99458, 129, 337, 256, 368
-0.994593, 53, 345, 68, 408
-0.994595, 33, 373, 160, 404
-0.9946, 3, 89, 18, 152
-0.994603, 209, 265, 224, 328
-0.994607, 239, 433, 254, 496
-0.994608, 215, 217, 230, 280
-0.994608, 211, 321, 226, 384
-0.99461, 73, 137, 88, 200
-0.994617, 157, 169, 172, 232
-0.994622, 177, 405, 304, 436
-0.994625, 103, 249, 118, 312
-0.994627, 165, 425, 180, 488
-0.994636, 99, 289, 114, 352
-0.994652, 97, 433, 224, 464
-0.994661, 151, 377, 166, 440
-0.994686, 265, 257, 280, 320
-0.994689, 229, 225, 260, 480
-0.994696, 185, 433, 200, 496
-0.994697, 75, 89, 90, 152
-0.99471, 239, 401, 254, 464
-0.994712, 105, 361, 120, 424
-0.994717, 17, 245, 144, 276
-0.994729, 97, 169, 224, 200
-0.994745, 63, 105, 78, 168
-0.994765, 33, 269, 160, 300
-0.994776, 97, 209, 224, 240
-0.99478, 145, 381, 272, 412
-0.994805, 257, 225, 288, 480
-0.994819, 129, 393, 256, 424
-0.994891, 241, 205, 368, 236
-0.994922, 113, 225, 144, 480
-0.994926, 193, 253, 320, 284
-0.994996, 209, 73, 336, 104
-0.995037, 33, 197, 160, 228
-0.995073, 145, 113, 272, 176
-0.995114, 33, 281, 160, 312
-0.995118, 57, 161, 88, 416
-0.995119, 113, 65, 240, 96
-0.995144, 49, 217, 176, 248
-0.995158, 145, 1, 176, 256
-0.995196, 1, 385, 128, 416
-0.995231, 209, 129, 336, 160
-0.995234, 145, 461, 272, 492
-0.995236, 177, 193, 304, 224
-0.995255, 1, 93, 128, 124
-0.995296, 125, 225, 156, 480
-0.995332, 49, 117, 176, 148
-0.995333, 33, 397, 160, 428
-0.995362, 177, 205, 304, 236
-0.995403, 177, 65, 208, 320
-0.995413, 1, 77, 128, 108
-0.995422, 189, 161, 220, 416
-0.995442, 53, 257, 84, 500
-0.995446, 41, 257, 72, 500
-0.99545, 193, 237, 320, 268
-0.995456, 49, 45, 176, 76
-0.99546, 145, 257, 176, 500
-0.995477, 133, 1, 164, 256
-0.995484, 1, 157, 128, 188
-0.995491, 193, 385, 320, 416
-0.995499, 33, 1, 288, 64
-0.995557, 193, 225, 320, 256
-0.995576, 209, 141, 336, 172
-0.995581, 293, 257, 324, 500
-0.99561, 49, 97, 176, 128
-0.995625, 217, 193, 248, 448
-0.995659, 1, 169, 128, 200
-0.995672, 225, 189, 352, 220
-0.995684, 73, 225, 104, 480
-0.995687, 113, 445, 240, 476
-0.9957, 241, 373, 368, 404
-0.995706, 177, 357, 304, 388
-0.995736, 113, 77, 240, 108
-0.99574, 45, 65, 76, 320
-0.995748, 209, 465, 336, 496
-0.995757, 201, 33, 232, 288
-0.995757, 241, 385, 368, 416
-0.995776, 269, 225, 300, 480
-0.995777, 141, 97, 172, 352
-0.995779, 49, 57, 176, 88
-0.995808, 241, 293, 368, 324
-0.995808, 317, 33, 348, 288
-0.995838, 1, 185, 128, 216
-0.995848, 177, 257, 208, 500
-0.995854, 65, 5, 192, 36
-0.995903, 201, 225, 232, 480
-0.995904, 1, 257, 128, 288
-0.99594, 81, 25, 208, 56
-0.995942, 265, 1, 296, 256
-0.99595, 13, 257, 44, 500
-0.995989, 177, 181, 304, 212
-0.99606, 157, 65, 188, 320
-0.996088, 225, 5, 352, 36
-0.996093, 129, 1, 256, 32
-0.996122, 113, 53, 240, 84
-0.996148, 341, 193, 372, 448
-0.996149, 157, 225, 188, 480
-0.996161, 97, 225, 128, 480
-0.996174, 113, 97, 144, 352
-0.996192, 225, 153, 352, 184
-0.996201, 301, 129, 332, 384
-0.996204, 241, 345, 368, 376
-0.996206, 81, 133, 208, 164
-0.99621, 73, 65, 104, 320
-0.996215, 5, 33, 36, 288
-0.996232, 281, 225, 312, 480
-0.996235, 1, 209, 128, 240
-0.996277, 209, 117, 336, 148
-0.996308, 241, 357, 368, 388
-0.996356, 229, 33, 260, 288
-0.996358, 297, 33, 328, 288
-0.996366, 113, 37, 240, 68
-0.996373, 97, 457, 224, 488
-0.996407, 349, 337, 364, 368
-0.996417, 309, 257, 340, 500
-0.996468, 209, 105, 336, 136
-0.99653, 329, 193, 360, 448
-0.996575, 75, 121, 90, 152
-0.996586, 193, 169, 320, 200
-0.996594, 189, 65, 220, 320
-0.996634, 17, 33, 48, 288
-0.996676, 241, 217, 368, 248
-0.996689, 1, 49, 128, 80
-0.996692, 57, 65, 88, 320
-0.99671, 215, 301, 230, 332
-0.996715, 253, 293, 268, 324
-0.996734, 67, 289, 82, 320
-0.996735, 119, 229, 134, 260
-0.996752, 87, 297, 102, 328
-0.996753, 205, 305, 220, 336
-0.996756, 85, 257, 116, 500
-0.996758, 193, 373, 320, 404
-0.996788, 359, 345, 374, 376
-0.99681, 249, 65, 280, 320
-0.996811, 355, 357, 370, 388
-0.996816, 33, 65, 64, 320
-0.996825, 1, 65, 128, 96
-0.996829, 361, 409, 375, 440
-0.996852, 97, 145, 224, 176
-0.996854, 1, 257, 32, 500
-0.996867, 281, 1, 312, 256
-0.996868, 177, 345, 304, 376
-0.996895, 343, 333, 358, 364
-0.996897, 229, 129, 260, 384
-0.996897, 67, 101, 82, 132
-0.996915, 147, 189, 162, 220
-0.996917, 57, 293, 72, 324
-0.99692, 41, 161, 72, 416
-0.996931, 123, 249, 138, 280
-0.99694, 281, 129, 312, 384
-0.996943, 101, 65, 132, 320
-0.996951, 77, 289, 92, 320
-0.996954, 117, 241, 132, 272
-0.996954, 101, 257, 116, 288
-0.996968, 155, 193, 170, 224
-0.99698, 237, 445, 252, 476
-0.996998, 95, 301, 110, 332
-0.997, 263, 433, 278, 464
-0.997001, 121, 1, 152, 256
-0.997014, 17, 129, 48, 384
-0.997031, 221, 229, 236, 260
-0.99704, 63, 277, 78, 308
-0.997058, 171, 269, 186, 300
-0.99706, 73, 165, 88, 196
-0.997061, 155, 173, 170, 204
-0.997068, 105, 293, 120, 324
-0.997081, 17, 353, 32, 384
-0.997088, 181, 277, 196, 308
-0.997095, 233, 277, 248, 308
-0.997107, 333, 393, 348, 424
-0.997108, 111, 241, 126, 272
-0.997123, 165, 173, 180, 204
-0.997133, 51, 325, 66, 356
-0.997137, 285, 393, 300, 424
-0.997139, 245, 441, 260, 472
-0.99714, 251, 245, 266, 276
-0.99714, 63, 89, 78, 120
-0.997141, 173, 393, 188, 424
-0.997144, 255, 437, 270, 468
-0.997149, 173, 169, 188, 200
-0.997152, 165, 269, 180, 300
-0.997155, 217, 245, 232, 276
-0.997159, 201, 185, 216, 216
-0.997169, 169, 161, 200, 416
-0.997178, 269, 429, 284, 460
-0.997202, 43, 321, 58, 352
-0.997209, 11, 345, 26, 376
-0.997211, 313, 161, 344, 416
-0.997212, 221, 369, 236, 400
-0.997217, 189, 257, 220, 500
-0.997221, 243, 265, 258, 296
-0.997226, 231, 233, 246, 264
-0.997227, 85, 161, 116, 416
-0.99723, 217, 353, 232, 384
-0.997234, 259, 249, 274, 280
-0.99724, 203, 201, 218, 232
-0.997244, 171, 253, 186, 284
-0.997258, 127, 293, 142, 324
-0.997258, 349, 349, 364, 380
-0.997265, 213, 33, 244, 288
-0.997268, 209, 253, 224, 284
-0.997268, 197, 425, 212, 456
-0.997276, 109, 281, 124, 312
-0.997279, 107, 369, 122, 400
-0.997282, 101, 281, 116, 312
-0.997285, 9, 81, 24, 112
-0.997286, 233, 261, 248, 292
-0.997286, 61, 313, 76, 344
-0.997287, 125, 337, 140, 368
-0.997295, 227, 381, 242, 412
-0.997296, 255, 421, 270, 452
-0.997304, 45, 337, 60, 368
-0.997304, 179, 289, 194, 320
-0.997305, 291, 397, 306, 428
-0.997306, 55, 281, 70, 312
-0.997312, 227, 257, 242, 288
-0.997314, 57, 333, 72, 364
-0.997314, 241, 237, 256, 268
-0.99732, 201, 437, 216, 468
-0.997322, 135, 297, 150, 328
-0.997323, 1, 129, 32, 384
-0.997325, 109, 221, 124, 252
-0.99733, 125, 237, 140, 268
-0.997332, 97, 241, 112, 272
-0.997339, 103, 125, 118, 156
-0.99734, 105, 241, 120, 272
-0.99734, 183, 305, 198, 336
-0.997346, 23, 345, 38, 376
-0.997347, 143, 165, 158, 196
-0.997349, 279, 425, 294, 456
-0.997351, 239, 281, 254, 312
-0.997353, 25, 257, 56, 500
-0.997358, 17, 337, 32, 368
-0.997359, 345, 317, 360, 348
-0.997361, 69, 185, 84, 216
-0.997372, 99, 229, 114, 260
-0.997373, 73, 321, 88, 352
-0.997375, 195, 193, 210, 224
-0.997377, 55, 305, 70, 336
-0.997383, 355, 401, 370, 432
-0.99739, 91, 245, 106, 276
-0.99739, 217, 417, 232, 448
-0.997392, 235, 341, 250, 372
-0.997393, 111, 125, 126, 156
-0.997394, 27, 281, 42, 312
-0.997401, 195, 181, 210, 212
-0.997402, 263, 409, 278, 440
-0.997406, 179, 241, 194, 272
-0.997415, 227, 273, 242, 304
-0.997418, 3, 97, 18, 128
-0.997423, 107, 253, 122, 284
-0.997426, 81, 329, 96, 360
-0.997427, 249, 269, 264, 300
-0.997432, 189, 305, 204, 336
-0.99744, 5, 341, 20, 372
-0.997442, 223, 285, 238, 316
-0.997443, 1, 305, 16, 336
-0.997446, 83, 309, 98, 340
-0.997448, 295, 101, 310, 132
-0.997455, 169, 309, 184, 340
-0.997458, 137, 177, 152, 208
-0.99746, 161, 245, 176, 276
-0.997463, 297, 397, 312, 428
-0.997463, 131, 329, 146, 360
-0.997464, 343, 385, 358, 416
-0.997466, 113, 369, 128, 400
-0.997466, 305, 129, 320, 160
-0.997468, 297, 113, 312, 144
-0.997469, 67, 169, 82, 200
-0.997472, 323, 393, 338, 424
-0.997479, 69, 117, 84, 148
-0.997481, 33, 289, 48, 320
-0.997482, 87, 337, 102, 368
-0.997486, 53, 269, 68, 300
-0.997487, 329, 33, 360, 288
-0.997631, 85, 1, 116, 256
-0.997683, 29, 161, 60, 416
-0.99785, 269, 129, 300, 384
-0.998199, 243, 225, 258, 352
-0.998321, 253, 225, 268, 352
-0.998334, 265, 241, 280, 368
-0.998348, 201, 307, 264, 322
-0.998348, 313, 397, 375, 412
-0.998364, 217, 443, 280, 458
-0.998378, 57, 301, 120, 316
-0.998379, 241, 309, 304, 324
-0.998384, 153, 289, 168, 416
-0.998384, 153, 183, 216, 198
-0.998385, 81, 129, 144, 144
-0.998385, 49, 333, 112, 348
-0.998385, 339, 321, 354, 448
-0.998389, 217, 301, 280, 316
-0.998391, 225, 435, 288, 450
-0.998392, 185, 421, 248, 436
-0.998393, 153, 417, 216, 432
-0.998393, 89, 293, 152, 308
-0.998393, 33, 323, 96, 338
-0.998394, 77, 113, 92, 240
-0.998395, 139, 289, 154, 416
-0.998396, 129, 187, 192, 202
-0.998396, 81, 253, 144, 268
-0.998398, 81, 235, 144, 250
-0.998402, 129, 391, 192, 406
-0.998403, 161, 425, 224, 440
-0.998403, 9, 335, 72, 350
-0.998404, 217, 249, 280, 264
-0.998405, 233, 273, 296, 288
-0.998405, 105, 369, 168, 384
-0.998405, 217, 425, 280, 440
-0.998406, 201, 261, 264, 276
-0.998408, 17, 305, 80, 320
-0.998412, 105, 303, 168, 318
-0.998414, 129, 177, 192, 192
-0.998418, 185, 443, 248, 458
-0.998418, 97, 403, 160, 418
-0.998419, 281, 401, 344, 416
-0.99842, 33, 293, 96, 308
-0.998421, 307, 81, 322, 208
-0.998422, 217, 267, 280, 282
-0.998422, 25, 311, 88, 326
-0.998423, 137, 193, 200, 208
-0.998427, 169, 263, 232, 278
-0.998428, 69, 129, 84, 256
-0.998429, 57, 287, 120, 302
-0.99843, 53, 257, 68, 384
-0.998432, 121, 385, 184, 400
-0.998435, 57, 311, 120, 326
-0.998435, 201, 451, 264, 466
-0.998437, 331, 1, 346, 128
-0.998437, 137, 407, 200, 422
-0.998437, 81, 303, 144, 318
-0.998437, 137, 401, 200, 416
-0.998439, 177, 269, 240, 284
-0.998439, 221, 209, 236, 336
-0.99844, 209, 243, 272, 258
-0.998448, 145, 237, 208, 252
-0.998448, 67, 81, 82, 208
-0.998449, 161, 305, 224, 320
-0.998449, 185, 275, 248, 290
-0.99845, 105, 379, 168, 394
-0.99845, 1, 317, 64, 332
-0.99845, 177, 437, 240, 452
-0.998451, 25, 317, 88, 332
-0.998452, 89, 395, 152, 410
-0.998453, 305, 335, 368, 350
-0.998453, 231, 353, 246, 480
-0.998453, 17, 277, 80, 292
-0.998454, 49, 339, 112, 354
-0.998454, 9, 323, 72, 338
-0.998455, 161, 193, 224, 208
-0.998455, 105, 253, 168, 268
-0.998456, 321, 1, 336, 128
-0.998456, 201, 255, 264, 270
-0.998457, 81, 259, 144, 274
-0.998457, 131, 289, 146, 416
-0.998458, 315, 289, 330, 416
-0.998459, 33, 299, 96, 314
-0.99846, 33, 287, 96, 302
-0.99846, 129, 249, 192, 264
-0.998461, 237, 257, 252, 384
-0.998462, 153, 175, 216, 190
-0.998463, 297, 321, 360, 336
-0.998463, 241, 443, 304, 458
-0.998463, 169, 245, 232, 260
-0.998464, 209, 359, 272, 374
-0.998465, 121, 243, 184, 258
-0.998465, 57, 295, 120, 310
-0.998465, 143, 353, 158, 480
-0.998466, 177, 451, 240, 466
-0.998467, 281, 415, 344, 430
-0.998468, 201, 237, 264, 252
-0.998469, 289, 315, 352, 330
-0.99847, 273, 307, 336, 322
-0.99847, 241, 279, 304, 294
-0.99847, 217, 293, 280, 308
-0.998472, 185, 367, 248, 382
-0.998472, 129, 255, 192, 270
-0.998473, 17, 343, 80, 358
-0.998473, 121, 237, 184, 252
-0.998474, 313, 403, 375, 418
-0.998474, 147, 289, 162, 416
-0.998476, 121, 309, 184, 324
-0.998477, 145, 277, 208, 292
-0.998477, 129, 269, 192, 284
-0.998482, 233, 259, 296, 274
-0.998483, 333, 337, 348, 464
-0.998483, 177, 323, 240, 338
-0.998483, 145, 297, 208, 312
-0.998483, 225, 449, 288, 464
-0.998484, 177, 413, 240, 428
-0.998484, 241, 303, 304, 318
-0.998485, 193, 75, 256, 90
-0.998486, 305, 329, 368, 344
-0.998487, 289, 393, 352, 408
-0.998487, 257, 401, 320, 416
-0.998488, 177, 431, 240, 446
-0.998488, 185, 231, 248, 246
-0.998489, 273, 301, 336, 316
-0.998489, 129, 171, 192, 186
-0.998489, 193, 297, 256, 312
-0.99849, 163, 369, 178, 496
-0.99849, 201, 373, 264, 388
-0.99849, 137, 353, 200, 368
-0.99849, 9, 289, 72, 304
-0.998491, 97, 357, 160, 372
-0.998491, 249, 435, 312, 450
-0.998491, 105, 261, 168, 276
-0.998491, 49, 345, 112, 360
-0.998492, 97, 139, 160, 154
-0.998492, 201, 461, 264, 476
-0.998495, 241, 409, 304, 424
-0.998495, 233, 305, 248, 432
-0.998495, 217, 417, 280, 432
-0.998496, 9, 299, 72, 314
-0.998496, 185, 351, 248, 366
-0.998497, 105, 363, 168, 378
-0.998497, 169, 399, 232, 414
-0.998498, 153, 257, 216, 272
-0.9985, 145, 375, 208, 390
-0.9985, 257, 293, 320, 308
-0.998502, 289, 11, 352, 26
-0.998502, 177, 287, 240, 302
-0.998502, 105, 223, 168, 238
-0.998502, 313, 341, 375, 356
-0.998503, 9, 225, 72, 240
-0.998503, 273, 147, 336, 162
-0.998505, 1, 65, 64, 80
-0.998505, 121, 325, 184, 340
-0.998506, 151, 1, 166, 128
-0.998507, 161, 199, 224, 214
-0.998508, 81, 375, 144, 390
-0.998509, 25, 91, 88, 106
-0.998511, 225, 423, 256, 438
-0.998512, 193, 261, 224, 276
-0.998512, 229, 359, 260, 374
-0.998512, 209, 437, 240, 452
-0.998513, 65, 133, 96, 148
-0.998513, 281, 419, 312, 434
-0.998514, 197, 445, 228, 460
-0.998514, 49, 313, 80, 328
-0.998514, 237, 271, 268, 286
-0.998514, 157, 433, 188, 448
-0.998515, 333, 397, 364, 412
-0.998515, 129, 201, 160, 216
-0.998515, 261, 445, 292, 460
-0.99852, 21, 359, 52, 374
-0.99852, 5, 95, 36, 110
-0.998522, 225, 297, 256, 312
-0.998522, 245, 247, 276, 262
-0.998523, 33, 219, 64, 234
-0.998523, 221, 347, 252, 362
-0.998523, 197, 321, 228, 336
-0.998524, 113, 303, 144, 318
-0.998524, 13, 351, 44, 366
-0.998524, 309, 411, 340, 426
-0.998524, 169, 395, 200, 410
-0.998525, 281, 397, 312, 412
-0.998527, 159, 289, 174, 416
-0.998527, 181, 287, 212, 302
-0.998528, 225, 461, 256, 476
-0.998528, 213, 249, 244, 264
-0.998529, 259, 225, 274, 352
-0.998529, 173, 307, 204, 322
-0.998529, 109, 245, 140, 260
-0.99853, 129, 187, 160, 202
-0.998532, 21, 307, 52, 322
-0.998532, 29, 339, 60, 354
-0.998532, 21, 329, 52, 344
-0.998532, 141, 179, 172, 194
-0.998534, 145, 263, 176, 278
-0.998535, 9, 281, 40, 296
-0.998536, 225, 265, 256, 280
-0.998536, 125, 363, 156, 378
-0.998537, 85, 257, 116, 272
-0.998539, 109, 373, 140, 388
-0.99854, 209, 273, 240, 288
-0.998541, 45, 345, 76, 360
-0.998541, 137, 171, 168, 186
-0.998543, 191, 353, 206, 480
-0.998543, 65, 125, 96, 140
-0.998544, 125, 195, 156, 210
-0.998544, 245, 309, 276, 324
-0.998545, 245, 259, 276, 274
-0.998545, 155, 337, 170, 464
-0.998546, 245, 405, 276, 420
-0.998547, 157, 177, 188, 192
-0.998548, 229, 441, 260, 456
-0.998549, 229, 429, 260, 444
-0.99855, 213, 369, 244, 384
-0.998551, 9, 49, 24, 176
-0.998551, 65, 333, 96, 348
-0.998552, 229, 249, 260, 264
-0.998552, 13, 321, 44, 336
-0.998553, 211, 369, 226, 496
-0.998556, 169, 259, 200, 274
-0.998558, 161, 189, 192, 204
-0.998558, 113, 393, 144, 408
-0.998558, 353, 321, 368, 448
-0.998558, 33, 317, 64, 332
-0.99856, 59, 257, 74, 384
-0.99856, 205, 309, 236, 324
-0.998561, 293, 403, 324, 418
-0.998561, 9, 345, 40, 360
-0.998562, 285, 117, 316, 132
-0.998563, 201, 267, 232, 282
-0.998563, 181, 433, 212, 448
-0.998564, 61, 187, 92, 202
-0.998565, 127, 337, 142, 464
-0.998565, 69, 311, 100, 326
-0.998566, 309, 397, 340, 412
-0.998567, 49, 283, 80, 298
-0.998568, 29, 293, 60, 308
-0.998568, 233, 291, 264, 306
-0.998568, 185, 201, 216, 216
-0.998569, 185, 361, 216, 376
-0.99857, 205, 361, 236, 376
-0.99857, 193, 161, 208, 288
-0.998572, 359, 353, 374, 480
-0.998573, 37, 299, 68, 314
-0.998575, 201, 451, 232, 466
-0.998576, 189, 305, 220, 320
-0.998577, 41, 291, 72, 306
-0.99858, 109, 379, 140, 394
-0.99858, 133, 305, 164, 320
-0.998581, 61, 327, 92, 342
-0.998582, 49, 337, 80, 352
-0.998582, 209, 319, 240, 334
-0.998585, 113, 387, 144, 402
-0.998585, 225, 337, 240, 464
-0.998587, 225, 453, 256, 468
-0.998587, 169, 173, 200, 188
-0.998588, 249, 427, 280, 442
-0.99859, 105, 289, 136, 304
-0.998591, 189, 417, 220, 432
-0.998591, 57, 299, 88, 314
-0.998591, 85, 289, 116, 304
-0.998592, 217, 353, 248, 368
-0.998593, 257, 269, 288, 284
-0.998594, 45, 331, 76, 346
-0.998595, 229, 283, 260, 298
-0.998595, 261, 433, 292, 448
-0.998596, 161, 273, 192, 288
-0.998597, 53, 319, 84, 334
-0.998599, 69, 297, 100, 312
-0.998599, 17, 287, 48, 302
-0.998599, 233, 435, 264, 450
-0.998599, 109, 235, 140, 250
-0.998601, 157, 1, 172, 128
-0.998602, 337, 1, 352, 128
-0.998603, 41, 289, 56, 416
-0.998603, 169, 279, 200, 294
-0.998604, 37, 323, 68, 338
-0.998604, 213, 231, 244, 246
-0.998607, 83, 273, 98, 400
-0.998609, 221, 447, 252, 462
-0.998609, 149, 353, 164, 480
-0.998611, 113, 259, 144, 274
-0.998612, 101, 129, 132, 144
-0.998613, 201, 301, 232, 316
-0.998613, 61, 305, 92, 320
-0.998613, 101, 309, 132, 324
-0.998614, 113, 251, 144, 266
-0.998614, 117, 289, 132, 416
-0.998618, 217, 359, 248, 374
-0.998619, 53, 337, 68, 464
-0.998621, 177, 209, 192, 336
-0.998622, 281, 257, 296, 384
-0.998623, 153, 183, 184, 198
-0.998627, 337, 341, 368, 356
-0.998627, 245, 299, 276, 314
-0.998628, 199, 353, 214, 480
-0.99863, 271, 241, 286, 368
-0.998632, 213, 255, 244, 270
-0.998633, 269, 427, 300, 442
-0.998633, 299, 273, 314, 400
-0.998634, 141, 189, 172, 204
-0.998636, 93, 273, 108, 400
-0.99864, 101, 253, 132, 268
-0.998644, 325, 369, 340, 496
-0.998646, 217, 369, 232, 496
-0.998647, 81, 301, 112, 316
-0.998647, 309, 321, 324, 448
-0.998653, 23, 289, 38, 416
-0.998656, 5, 97, 20, 224
-0.998659, 189, 195, 220, 210
-0.998659, 327, 305, 342, 432
-0.99866, 227, 225, 242, 352
-0.998661, 165, 241, 180, 368
-0.998663, 243, 289, 258, 416
-0.998666, 61, 209, 76, 336
-0.998667, 241, 445, 272, 460
-0.998672, 261, 305, 292, 320
-0.998673, 169, 353, 184, 480
-0.99868, 133, 209, 148, 336
-0.998684, 185, 353, 200, 480
-0.998688, 135, 337, 150, 464
-0.998691, 205, 421, 236, 436
-0.9987, 199, 289, 214, 416
-0.998705, 3, 49, 18, 176
-0.998712, 253, 439, 284, 454
-0.998713, 237, 353, 252, 480
-0.998715, 321, 289, 336, 416
-0.998719, 83, 113, 98, 240
-0.99872, 61, 291, 92, 306
-0.998725, 345, 347, 375, 362
-0.998727, 199, 177, 214, 304
-0.998729, 17, 305, 32, 432
-0.998739, 61, 81, 76, 208
-0.998741, 59, 337, 74, 464
-0.998742, 291, 273, 306, 400
-0.998743, 333, 391, 364, 406
-0.998746, 73, 65, 88, 192
-0.998752, 47, 289, 62, 416
-0.998752, 47, 337, 62, 464
-0.998757, 179, 353, 194, 480
-0.998758, 29, 289, 44, 416
-0.998764, 37, 337, 52, 464
-0.998764, 237, 209, 252, 336
-0.998768, 205, 369, 220, 496
-0.998769, 147, 145, 162, 272
-0.99877, 121, 337, 136, 464
-0.998771, 137, 129, 152, 256
-0.998773, 345, 321, 360, 448
-0.998777, 143, 33, 158, 160
-0.998783, 315, 1, 330, 128
-0.998784, 5, 289, 20, 416
-0.998784, 53, 209, 68, 336
-0.998787, 187, 161, 202, 288
-0.998789, 215, 209, 230, 336
-0.998793, 283, 369, 298, 496
-0.998793, 175, 257, 190, 384
-0.998794, 169, 305, 184, 432
-0.998801, 99, 337, 114, 464
-0.998807, 125, 209, 140, 336
-0.998811, 285, 209, 300, 336
-0.998815, 17, 49, 32, 176
-0.998826, 261, 289, 276, 416
-0.998829, 171, 209, 186, 336
-0.998832, 67, 257, 82, 384
-0.998836, 313, 65, 328, 192
-0.998839, 277, 209, 292, 336
-0.998844, 243, 65, 258, 192
-0.998845, 209, 225, 224, 352
-0.998846, 183, 209, 198, 336
-0.998849, 13, 225, 28, 352
-0.998851, 29, 337, 44, 464
-0.998856, 237, 65, 252, 192
-0.998858, 255, 369, 270, 496
-0.998869, 345, 33, 375, 288
-0.99887, 89, 321, 104, 448
-0.998872, 155, 161, 170, 288
-0.998874, 139, 209, 154, 336
-0.998875, 229, 65, 244, 192
-0.998883, 125, 273, 140, 400
-0.998884, 111, 321, 126, 448
-0.998884, 299, 97, 314, 224
-0.998892, 11, 289, 26, 416
-0.998894, 333, 289, 348, 416
-0.998897, 253, 273, 268, 400
-0.998897, 103, 289, 118, 416
-0.998897, 265, 369, 280, 496
-0.998902, 137, 65, 152, 192
-0.99891, 173, 81, 188, 208
-0.998913, 77, 161, 92, 288
-0.998915, 161, 177, 176, 304
-0.998916, 35, 289, 50, 416
-0.998917, 215, 257, 230, 384
-0.998921, 87, 225, 102, 352
-0.998922, 77, 273, 92, 400
-0.999138, 201, 129, 232, 384
-0.999685, 219, 419, 234, 434
-0.999685, 213, 309, 228, 324
-0.999685, 231, 391, 246, 406
-0.999685, 139, 301, 154, 316
-0.999685, 183, 409, 198, 424
-0.999685, 277, 307, 292, 322
-0.999686, 361, 357, 375, 372
-0.999686, 225, 319, 240, 334
-0.999686, 209, 419, 224, 434
-0.999687, 249, 259, 264, 274
-0.999688, 9, 347, 24, 362
-0.999688, 217, 231, 232, 246
-0.999689, 203, 191, 218, 206
-0.999689, 167, 387, 182, 402
-0.99969, 167, 177, 182, 192
-0.99969, 187, 417, 202, 432
-0.999691, 223, 393, 238, 408
-0.999692, 103, 127, 118, 142
-0.999692, 157, 389, 172, 404
-0.999692, 39, 295, 54, 310
-0.999693, 221, 371, 236, 386
-0.999694, 261, 411, 276, 426
-0.999694, 19, 367, 34, 382
-0.999694, 295, 417, 310, 432
-0.999694, 17, 357, 32, 372
-0.999694, 129, 195, 144, 210
-0.999694, 127, 301, 142, 316
-0.999695, 1, 339, 16, 354
-0.999696, 197, 419, 212, 434
-0.999697, 57, 339, 72, 354
-0.999697, 59, 285, 74, 300
-0.999697, 139, 141, 154, 156
-0.999697, 111, 371, 126, 386
-0.999698, 247, 443, 262, 458
-0.999698, 73, 295, 88, 310
-0.999699, 57, 313, 72, 328
-0.999699, 231, 447, 246, 462
-0.999699, 121, 259, 136, 274
-0.999699, 103, 287, 118, 302
-0.9997, 145, 189, 160, 204
-0.999701, 247, 307, 262, 322
-0.999703, 155, 193, 170, 208
-0.999703, 167, 281, 182, 296
-0.999703, 77, 327, 92, 342
-0.999703, 209, 365, 224, 380
-0.999703, 207, 259, 222, 274
-0.999703, 95, 305, 110, 320
-0.999704, 51, 319, 66, 334
-0.999704, 189, 355, 204, 370
-0.999704, 177, 409, 192, 424
-0.999705, 219, 357, 234, 372
-0.999706, 295, 113, 310, 128
-0.999706, 95, 257, 110, 272
-0.999706, 195, 207, 210, 222
-0.999707, 265, 303, 280, 318
-0.999707, 159, 269, 174, 284
-0.999708, 215, 319, 230, 334
-0.999708, 361, 421, 375, 436
-0.999709, 181, 485, 196, 500
-0.999713, 277, 429, 292, 444
-0.999713, 145, 363, 160, 378
-0.999715, 173, 435, 188, 450
-0.999715, 241, 445, 256, 460
-0.999715, 73, 289, 88, 304
-0.999716, 115, 253, 130, 268
-0.999716, 251, 291, 266, 306
-0.999717, 219, 451, 234, 466
-0.999718, 257, 437, 272, 452
-0.999718, 123, 345, 138, 360
-0.999718, 289, 419, 304, 434
-0.999718, 343, 343, 358, 358
-0.999719, 215, 367, 230, 382
-0.999719, 147, 201, 162, 216
-0.99972, 207, 305, 222, 320
-0.999722, 251, 243, 266, 258
-0.999722, 227, 287, 242, 302
-0.999722, 85, 297, 100, 312
-0.999722, 357, 343, 372, 358
-0.999723, 231, 279, 246, 294
-0.999723, 75, 165, 90, 180
-0.999723, 65, 93, 80, 108
-0.999724, 81, 333, 96, 348
-0.999724, 33, 291, 48, 306
-0.999726, 331, 397, 346, 412
-0.999727, 155, 181, 170, 196
-0.999728, 101, 261, 116, 276
-0.999728, 189, 423, 204, 438
-0.999728, 193, 447, 208, 462
-0.999728, 217, 249, 232, 264
-0.999729, 175, 399, 190, 414
-0.999729, 57, 293, 72, 308
-0.99973, 101, 255, 116, 270
-0.999731, 51, 333, 66, 348
-0.999733, 251, 437, 266, 452
-0.999734, 269, 433, 284, 448
-0.999735, 181, 277, 196, 292
-0.999735, 33, 285, 48, 300
-0.999735, 283, 425, 298, 440
-0.999736, 211, 265, 226, 280
-0.999737, 171, 393, 186, 408
-0.999739, 175, 283, 190, 298
-0.999741, 263, 437, 278, 452
-0.999741, 199, 197, 214, 212
-0.999741, 323, 397, 338, 412
-0.999745, 45, 325, 60, 340
-0.999745, 175, 171, 190, 186
-0.999746, 121, 233, 136, 248
-0.999746, 285, 393, 300, 408
-0.999746, 233, 343, 248, 358
-0.999748, 109, 253, 124, 268
-0.999752, 199, 425, 214, 440
-0.999753, 79, 293, 94, 308
-0.999753, 123, 251, 138, 266
-0.999754, 59, 299, 74, 314
-0.999755, 361, 349, 375, 364
-0.999756, 125, 351, 140, 366
-0.999762, 105, 307, 120, 322
-0.999763, 343, 389, 358, 404
-0.999765, 65, 283, 80, 298
-0.999777, 329, 391, 344, 406
-0.999779, 349, 349, 364, 364
-0.999779, 65, 105, 80, 120
-0.999788, 109, 285, 124, 300
-0.99979, 355, 359, 370, 374
-0.999801, 351, 341, 366, 356
-0.999813, 67, 289, 82, 304
-0.999813, 75, 123, 90, 138
-0.999815, 357, 365, 372, 380
-0.999827, 347, 333, 362, 348
-0.999845, 213, 301, 228, 316
