1950
-0.330962, 1, 1, 500, 375
-0.355538, 257, 1, 500, 375
-0.381994, 1, 97, 500, 352
-0.390826, 1, 1, 500, 256
-0.497129, 33, 1, 288, 375
-0.507967, 193, 97, 448, 352
-0.517353, 161, 1, 416, 375
-0.547601, 257, 1, 500, 256
-0.634904, 33, 129, 288, 375
-0.641933, 33, 1, 288, 256
-0.845379, 129, 1, 384, 256
-0.845971, 273, 1, 400, 375
-0.850345, 289, 1, 416, 256
-0.852021, 353, 33, 480, 288
-0.860342, 1, 1, 128, 375
-0.865442, 49, 1, 176, 375
-0.865974, 1, 65, 128, 320
-0.871132, 369, 1, 496, 375
-0.871876, 49, 1, 176, 256
-0.875061, 225, 65, 352, 320
-0.876517, 225, 1, 352, 375
-0.878625, 305, 97, 432, 352
-0.88057, 1, 177, 500, 304
-0.885497, 81, 97, 208, 352
-0.886922, 1, 241, 500, 368
-0.887363, 1, 17, 500, 144
-0.890195, 145, 129, 272, 375
-0.891019, 1, 113, 500, 240
-0.891274, 321, 1, 448, 375
-0.900207, 1, 65, 500, 192
-0.900641, 369, 129, 496, 375
-0.901759, 97, 1, 224, 375
-0.906133, 97, 177, 352, 304
-0.911686, 193, 225, 448, 352
-0.916826, 1, 241, 256, 368
-0.917624, 145, 1, 272, 375
-0.918021, 257, 65, 500, 192
-0.919403, 257, 113, 500, 240
-0.922324, 225, 1, 480, 128
-0.924552, 193, 177, 448, 304
-0.924763, 1, 193, 256, 320
-0.932397, 145, 33, 272, 288
-0.934192, 369, 65, 496, 192
-0.935474, 33, 97, 288, 224
-0.936225, 129, 49, 384, 176
-0.937971, 1, 113, 128, 240
-0.938715, 81, 177, 208, 304
-0.940282, 289, 241, 416, 368
-0.94061, 97, 1, 224, 256
-0.941502, 129, 177, 256, 304
-0.941947, 97, 225, 352, 352
-0.942107, 209, 209, 336, 336
-0.942548, 33, 1, 288, 128
-0.942602, 81, 241, 208, 368
-0.94346, 273, 49, 336, 176
-0.943671, 337, 1, 464, 128
-0.943799, 41, 81, 104, 208
-0.944528, 337, 241, 464, 368
-0.944642, 289, 65, 416, 192
-0.944831, 129, 97, 384, 224
-0.945154, 273, 1, 400, 128
-0.945189, 49, 17, 176, 144
-0.945593, 265, 161, 328, 288
-0.94591, 417, 49, 480, 176
-0.946071, 345, 209, 408, 336
-0.946171, 225, 145, 288, 272
-0.946407, 113, 177, 176, 304
-0.946423, 257, 193, 384, 320
-0.946737, 1, 145, 256, 272
-0.946787, 1, 1, 128, 128
-0.947055, 393, 209, 456, 336
-0.948086, 273, 113, 400, 240
-0.948926, 265, 113, 328, 240
-0.949498, 345, 1, 408, 128
-0.949871, 33, 193, 160, 320
-0.950336, 209, 161, 336, 288
-0.950755, 297, 1, 360, 128
-0.951114, 33, 241, 160, 368
-0.951555, 297, 97, 360, 224
-0.951842, 337, 161, 464, 288
-0.951847, 313, 209, 376, 336
-0.952087, 337, 129, 400, 256
-0.952801, 73, 193, 136, 320
-0.953566, 17, 241, 80, 368
-0.953846, 1, 97, 64, 224
-0.953906, 33, 1, 96, 128
-0.954025, 129, 1, 384, 128
-0.954042, 129, 225, 256, 352
-0.954061, 209, 113, 336, 240
-0.954536, 193, 241, 256, 368
-0.955308, 225, 193, 288, 320
-0.955602, 1, 65, 128, 192
-0.956074, 321, 1, 384, 128
-0.956906, 369, 1, 432, 128
-0.956965, 209, 49, 336, 176
-0.957215, 33, 49, 288, 176
-0.957224, 57, 129, 120, 256
-0.957479, 49, 97, 176, 224
-0.957837, 337, 65, 400, 192
-0.957921, 113, 1, 176, 128
-0.958672, 153, 177, 216, 304
-0.958887, 265, 209, 328, 336
-0.959059, 17, 49, 80, 176
-0.959295, 97, 225, 160, 352
-0.959727, 57, 1, 120, 128
-0.959738, 89, 113, 152, 240
-0.959967, 321, 313, 384, 375
-0.960025, 17, 273, 80, 336
-0.960177, 177, 265, 240, 328
-0.96022, 417, 65, 480, 128
-0.960221, 425, 145, 488, 272
-0.960448, 297, 49, 360, 176
-0.960506, 361, 65, 424, 192
-0.960809, 49, 241, 112, 368
-0.960981, 337, 281, 400, 344
-0.961281, 209, 281, 272, 344
-0.961537, 129, 113, 256, 240
-0.961609, 369, 145, 432, 272
-0.961784, 241, 241, 304, 368
-0.961852, 49, 265, 112, 328
-0.962069, 401, 225, 464, 288
-0.962164, 129, 113, 192, 240
-0.962363, 225, 177, 288, 240
-0.962398, 369, 225, 432, 352
-0.96262, 289, 313, 352, 375
-0.96285, 121, 241, 184, 368
-0.963247, 281, 105, 344, 168
-0.963269, 129, 177, 192, 240
-0.963375, 9, 1, 72, 128
-0.963463, 337, 113, 464, 240
-0.963695, 369, 273, 432, 336
-0.964469, 393, 65, 456, 128
-0.964901, 273, 49, 336, 112
-0.964992, 49, 177, 112, 304
-0.965232, 313, 257, 376, 320
-0.965407, 81, 17, 144, 144
-0.96585, 289, 177, 352, 304
-0.966119, 353, 313, 416, 375
-0.966379, 433, 153, 496, 216
-0.9665, 273, 193, 336, 256
-0.966681, 25, 193, 88, 320
-0.966699, 425, 97, 488, 224
-0.966772, 313, 233, 376, 296
-0.966879, 337, 1, 400, 256
-0.967443, 417, 193, 480, 320
-0.967686, 313, 161, 376, 288
-0.967726, 17, 297, 80, 360
-0.967736, 105, 177, 168, 240
-0.967897, 81, 233, 144, 296
-0.967908, 41, 297, 104, 360
-0.968074, 121, 257, 184, 320
-0.968089, 145, 281, 208, 344
-0.968346, 345, 73, 408, 136
-0.968457, 393, 249, 456, 312
-0.968574, 257, 161, 320, 224
-0.969411, 377, 65, 440, 320
-0.969557, 249, 313, 312, 375
-0.969607, 49, 89, 112, 152
-0.96962, 289, 241, 352, 368
-0.969814, 305, 81, 368, 144
-0.969863, 337, 137, 400, 200
-0.969938, 225, 313, 288, 375
-0.970079, 105, 201, 168, 264
-0.970198, 33, 129, 96, 256
-0.970428, 345, 241, 408, 304
-0.970457, 73, 185, 136, 248
-0.97067, 409, 305, 472, 368
-0.970788, 265, 217, 328, 280
-0.970851, 417, 241, 480, 368
-0.970938, 41, 1, 104, 256
-0.970957, 353, 217, 416, 280
-0.97106, 49, 113, 112, 176
-0.971197, 89, 1, 152, 256
-0.971295, 201, 305, 264, 368
-0.971555, 185, 185, 248, 248
-0.971877, 97, 1, 224, 128
-0.972183, 177, 177, 240, 304
-0.972309, 169, 305, 232, 368
-0.972342, 233, 273, 296, 336
-0.972494, 225, 209, 288, 272
-0.972528, 1, 121, 64, 184
-0.972561, 73, 241, 136, 368
-0.972692, 25, 73, 88, 136
-0.972692, 217, 241, 280, 368
-0.972695, 361, 97, 424, 160
-0.972723, 377, 297, 440, 360
-0.972868, 57, 97, 120, 352
-0.972924, 113, 313, 176, 375
-0.97294, 305, 313, 432, 375
-0.973009, 233, 97, 296, 224
-0.973119, 145, 225, 208, 352
-0.973157, 201, 257, 264, 320
-0.973177, 417, 33, 480, 288
-0.97338, 201, 177, 264, 304
-0.973545, 289, 281, 416, 344
-0.97355, 385, 65, 448, 192
-0.973924, 17, 249, 80, 312
-0.973973, 273, 1, 336, 128
-0.973977, 313, 281, 376, 344
-0.973995, 81, 177, 208, 240
-0.974123, 369, 73, 432, 136
-0.974143, 113, 1, 176, 64
-0.974253, 145, 33, 272, 160
-0.974331, 313, 1, 376, 256
-0.974516, 169, 225, 232, 352
-0.974648, 73, 209, 136, 272
-0.974659, 265, 97, 328, 352
-0.974701, 145, 257, 208, 320
-0.974827, 225, 153, 288, 216
-0.975089, 249, 193, 312, 256
-0.975135, 209, 297, 336, 360
-0.975196, 337, 241, 464, 304
-0.975203, 369, 73, 496, 136
-0.975344, 73, 265, 136, 328
-0.975419, 41, 161, 104, 224
-0.975478, 137, 89, 200, 152
-0.97558, 1, 121, 128, 184
-0.975623, 49, 241, 112, 304
-0.975644, 97, 257, 160, 320
-0.975691, 257, 281, 320, 344
-0.975734, 225, 233, 288, 296
-0.975872, 273, 113, 304, 240
-0.975879, 113, 265, 240, 328
-0.976024, 9, 33, 72, 288
-0.976244, 433, 313, 496, 375
-0.976256, 337, 233, 368, 296
-0.976342, 305, 313, 336, 375
-0.976393, 265, 81, 328, 144
-0.976456, 377, 1, 440, 64
-0.976623, 289, 289, 352, 352
-0.976648, 273, 249, 400, 312
-0.976698, 377, 185, 440, 248
-0.976753, 393, 161, 456, 288
-0.976787, 225, 129, 288, 375
-0.976998, 101, 193, 132, 320
-0.977009, 365, 129, 396, 256
-0.977129, 321, 113, 384, 176
-0.977215, 297, 9, 360, 72
-0.977233, 337, 289, 464, 352
-0.977264, 357, 225, 388, 352
-0.977283, 425, 177, 488, 240
-0.977337, 89, 65, 152, 192
-0.97739, 249, 33, 312, 160
-0.977425, 417, 201, 480, 264
-0.977501, 161, 185, 288, 248
-0.977506, 153, 185, 216, 248
-0.977555, 453, 65, 484, 128
-0.977558, 377, 153, 440, 216
-0.977626, 121, 233, 184, 296
-0.977839, 257, 129, 320, 192
-0.97801, 237, 281, 268, 344
-0.978037, 141, 161, 172, 288
-0.978074, 193, 273, 320, 336
-0.97812, 1, 145, 64, 272
-0.978246, 1, 193, 64, 320
-0.978269, 337, 129, 400, 375
-0.978283, 353, 1, 384, 128
-0.978297, 409, 153, 472, 216
-0.978464, 85, 161, 116, 288
-0.978467, 337, 217, 464, 280
-0.97856, 409, 209, 440, 336
-0.97863, 65, 241, 192, 304
-0.978674, 273, 113, 400, 176
-0.978761, 17, 305, 144, 368
-0.978833, 413, 225, 444, 288
-0.978857, 305, 81, 432, 144
-0.978873, 9, 1, 72, 64
-0.978878, 393, 1, 456, 128
-0.978908, 313, 209, 376, 272
-0.978943, 257, 217, 384, 280
-0.979005, 49, 65, 80, 192
-0.979098, 17, 161, 144, 224
-0.979172, 65, 161, 128, 224
-0.979184, 125, 177, 156, 304
-0.979229, 333, 209, 364, 336
-0.97926, 385, 273, 416, 336
-0.979283, 321, 1, 352, 128
-0.979338, 433, 129, 496, 375
-0.979382, 369, 153, 496, 216
-0.979389, 1, 145, 64, 208
-0.9795, 297, 57, 360, 120
-0.979525, 357, 281, 388, 344
-0.979556, 305, 97, 368, 352
-0.979663, 281, 33, 312, 160
-0.979678, 461, 153, 492, 216
-0.979714, 53, 281, 84, 344
-0.979831, 337, 9, 400, 72
-0.979885, 345, 193, 376, 320
-0.9799, 225, 193, 352, 256
-0.979902, 449, 49, 480, 176
-0.979911, 145, 225, 208, 288
-0.979924, 73, 81, 104, 208
-0.97993, 225, 1, 352, 128
-0.97995, 121, 129, 184, 375
-0.980192, 49, 137, 112, 200
-0.980254, 329, 185, 392, 248
-0.980262, 297, 49, 328, 176
-0.980298, 329, 313, 360, 375
-0.980324, 257, 305, 384, 368
-0.980332, 65, 81, 128, 208
-0.980342, 65, 81, 192, 144
-0.980346, 289, 217, 352, 280
-0.980366, 425, 89, 488, 152
-0.980375, 81, 289, 144, 352
-0.980428, 257, 177, 288, 304
-0.980482, 301, 97, 332, 224
-0.980529, 57, 1, 88, 128
-0.980592, 345, 161, 408, 224
-0.980621, 25, 225, 88, 288
-0.980691, 221, 273, 252, 336
-0.980696, 353, 217, 384, 280
-0.980711, 225, 105, 352, 168
-0.980739, 89, 177, 120, 240
-0.980754, 153, 97, 216, 224
-0.980757, 65, 105, 192, 168
-0.980785, 317, 241, 348, 368
-0.980801, 161, 249, 288, 312
-0.980884, 389, 1, 420, 128
-0.98091, 289, 257, 352, 320
-0.980933, 365, 1, 396, 128
-0.980988, 105, 201, 136, 264
-0.980992, 209, 169, 336, 232
-0.981002, 257, 105, 320, 168
-0.981003, 209, 241, 336, 304
-0.981032, 289, 97, 320, 224
-0.981162, 1, 129, 64, 375
-0.981187, 117, 1, 148, 128
-0.981206, 121, 289, 184, 352
-0.981213, 53, 257, 84, 320
-0.981213, 33, 217, 160, 280
-0.981221, 273, 1, 336, 375
-0.981234, 53, 305, 84, 368
-0.981503, 425, 1, 488, 375
-0.981539, 157, 185, 188, 248
-0.981562, 261, 177, 292, 240
-0.981581, 97, 97, 160, 160
-0.981603, 113, 161, 144, 288
-0.981614, 45, 1, 76, 128
-0.981627, 281, 161, 312, 288
-0.981638, 353, 313, 480, 375
-0.981647, 165, 273, 196, 336
-0.981681, 65, 265, 192, 328
-0.981684, 65, 1, 128, 256
-0.981755, 129, 113, 192, 176
-0.981802, 209, 217, 336, 280
-0.981828, 297, 129, 360, 192
-0.981839, 137, 1, 168, 128
-0.98191, 433, 225, 496, 288
-0.98197, 257, 65, 384, 128
-0.981982, 425, 281, 488, 344
-0.981985, 377, 129, 440, 192
-0.982012, 61, 81, 92, 208
-0.98202, 157, 177, 188, 304
-0.982038, 89, 153, 152, 216
-0.982086, 141, 97, 172, 224
-0.982124, 381, 73, 412, 136
-0.982125, 29, 1, 60, 128
-0.982127, 25, 113, 88, 176
-0.982131, 289, 145, 416, 208
-0.982159, 337, 193, 464, 256
-0.982211, 1, 97, 128, 160
-0.982215, 1, 265, 128, 328
-0.982242, 257, 257, 320, 320
-0.982248, 337, 265, 464, 328
-0.982303, 297, 185, 360, 248
-0.98236, 69, 1, 100, 128
-0.982391, 273, 185, 400, 248
-0.982493, 377, 1, 408, 128
-0.982512, 89, 17, 152, 80
-0.982517, 105, 225, 136, 288
-0.982656, 425, 257, 488, 320
-0.982668, 277, 185, 308, 248
-0.982699, 73, 1, 136, 375
-0.982727, 393, 273, 456, 336
-0.982775, 113, 289, 240, 352
-0.982833, 369, 129, 496, 192
-0.982904, 57, 17, 120, 80
-0.982925, 73, 97, 104, 160
-0.982954, 29, 65, 60, 192
-0.982957, 409, 65, 440, 128
-0.982987, 29, 241, 60, 368
-0.98301, 265, 1, 328, 256
-0.983055, 233, 97, 296, 160
-0.983114, 357, 257, 388, 320
-0.983138, 369, 241, 432, 304
-0.983254, 161, 305, 288, 368
-0.983259, 1, 57, 64, 120
-0.983323, 357, 177, 388, 304
-0.983331, 337, 1, 464, 64
-0.98335, 285, 313, 316, 375
-0.983352, 41, 265, 72, 328
-0.983392, 425, 121, 488, 184
-0.983463, 281, 161, 344, 224
-0.983486, 397, 241, 428, 368
-0.983512, 401, 249, 432, 312
-0.983515, 49, 241, 80, 368
-0.983641, 289, 105, 320, 168
-0.983649, 65, 289, 192, 352
-0.983656, 33, 97, 96, 352
-0.983704, 81, 201, 208, 264
-0.983739, 129, 217, 256, 280
-0.983759, 321, 57, 384, 120
-0.983766, 289, 1, 352, 256
-0.983775, 1, 1, 64, 375
-0.983893, 17, 241, 144, 304
-0.983916, 145, 177, 176, 240
-0.983936, 341, 305, 372, 368
-0.98395, 29, 289, 60, 352
-0.983989, 97, 1, 224, 64
-0.984056, 137, 313, 200, 375
-0.984121, 1, 73, 128, 136
-0.984139, 89, 209, 120, 336
-0.984151, 377, 65, 408, 192
-0.984181, 465, 145, 496, 272
-0.984185, 249, 273, 280, 336
-0.984191, 113, 313, 240, 375
-0.98427, 33, 185, 160, 248
-0.98429, 37, 313, 68, 375
-0.984297, 93, 225, 124, 288
-0.984299, 273, 121, 304, 184
-0.984304, 9, 49, 40, 176
-0.984325, 337, 105, 464, 168
-0.984351, 233, 193, 264, 320
-0.984395, 153, 257, 184, 320
-0.98441, 241, 273, 368, 336
-0.984486, 193, 265, 224, 328
-0.984543, 265, 153, 296, 216
-0.984556, 117, 241, 148, 368
-0.984589, 221, 297, 252, 360
-0.984624, 225, 137, 352, 200
-0.984639, 345, 73, 376, 136
-0.984669, 33, 201, 96, 264
-0.984722, 449, 153, 480, 216
-0.984823, 317, 305, 348, 368
-0.984832, 273, 209, 304, 336
-0.984838, 177, 265, 208, 328
-0.984856, 9, 113, 40, 240
-0.984916, 393, 113, 456, 240
-0.984936, 169, 177, 200, 304
-0.985053, 357, 193, 388, 256
-0.98508, 61, 209, 92, 336
-0.98508, 421, 225, 452, 352
-0.98511, 433, 65, 464, 128
-0.985124, 141, 241, 172, 368
-0.985151, 349, 65, 380, 192
-0.985194, 385, 297, 416, 360
-0.985219, 321, 169, 448, 232
-0.985236, 81, 17, 112, 144
-0.985287, 277, 41, 308, 104
-0.985289, 345, 241, 376, 368
-0.985335, 49, 17, 176, 80
-0.985345, 333, 65, 364, 192
-0.985428, 253, 313, 284, 375
-0.985436, 209, 57, 336, 120
-0.985447, 345, 257, 376, 320
-0.985467, 73, 225, 104, 352
-0.985503, 309, 1, 340, 128
-0.985509, 153, 241, 184, 368
-0.985534, 65, 57, 192, 120
-0.985535, 221, 225, 252, 352
-0.985575, 89, 129, 152, 375
-0.985629, 425, 217, 456, 280
-0.985661, 61, 81, 92, 144
-0.985674, 137, 49, 200, 176
-0.985699, 301, 57, 332, 120
-0.985735, 397, 73, 428, 136
-0.985744, 1, 9, 128, 72
-0.985756, 325, 233, 356, 296
-0.985758, 169, 161, 232, 224
-0.985768, 341, 1, 372, 128
-0.985783, 365, 137, 396, 200
-0.985787, 369, 81, 400, 144
-0.985819, 129, 113, 160, 240
-0.985819, 261, 129, 292, 256
-0.985874, 209, 289, 240, 352
-0.985894, 145, 161, 272, 224
-0.985898, 401, 273, 432, 336
-0.985913, 333, 129, 364, 256
-0.985981, 289, 9, 416, 72
-0.986027, 57, 233, 88, 296
-0.986107, 49, 137, 176, 200
-0.986108, 41, 289, 72, 352
-0.986116, 369, 49, 432, 112
-0.986141, 125, 177, 156, 240
-0.986147, 353, 313, 384, 375
-0.986165, 321, 1, 384, 375
-0.986204, 421, 65, 452, 128
-0.986232, 469, 241, 500, 368
-0.986259, 369, 209, 400, 336
-0.986262, 409, 129, 472, 375
-0.986266, 401, 313, 432, 375
-0.986478, 145, 129, 208, 375
-0.986479, 73, 265, 104, 328
-0.986496, 65, 313, 192, 375
-0.986501, 73, 177, 104, 304
-0.986536, 129, 65, 192, 128
-0.98655, 33, 9, 96, 72
-0.98658, 85, 113, 116, 240
-0.986583, 97, 1, 160, 375
-0.986589, 345, 281, 376, 344
-0.986617, 145, 1, 176, 64
-0.986651, 349, 129, 380, 192
-0.986704, 141, 249, 172, 312
-0.986721, 281, 161, 312, 224
-0.98673, 433, 49, 464, 176
-0.986764, 241, 305, 272, 368
-0.986773, 209, 81, 336, 144
-0.986781, 113, 177, 144, 240
-0.986792, 313, 65, 344, 192
-0.986833, 397, 65, 428, 192
-0.98686, 113, 249, 144, 312
-0.98688, 397, 1, 428, 64
-0.986895, 469, 177, 500, 240
-0.986903, 189, 225, 220, 352
-0.986905, 317, 281, 348, 344
-0.986926, 81, 73, 144, 136
-0.986971, 453, 129, 484, 256
-0.986982, 193, 161, 256, 224
-0.987032, 365, 313, 396, 375
-0.987061, 365, 65, 396, 192
-0.987078, 421, 161, 452, 288
-0.987091, 97, 49, 224, 176
-0.987156, 213, 249, 244, 312
-0.987165, 157, 97, 188, 160
-0.987166, 169, 129, 232, 375
-0.987224, 297, 289, 328, 352
-0.98724, 69, 241, 100, 304
-0.987241, 417, 41, 480, 104
-0.987331, 77, 161, 108, 224
-0.987347, 301, 161, 332, 288
-0.987399, 209, 225, 240, 352
-0.987412, 301, 105, 332, 168
-0.987471, 145, 97, 272, 160
-0.987479, 225, 33, 288, 160
-0.987551, 213, 177, 244, 240
-0.987577, 129, 241, 160, 368
-0.987577, 241, 241, 272, 368
-0.987587, 333, 97, 364, 160
-0.987625, 401, 89, 464, 152
-0.987642, 469, 313, 500, 375
-0.98765, 137, 1, 200, 128
-0.987676, 105, 241, 136, 368
-0.987733, 49, 1, 112, 375
-0.987757, 273, 1, 336, 64
-0.987849, 253, 241, 284, 368
-0.987872, 313, 105, 344, 168
-0.987903, 257, 41, 384, 104
-0.987915, 369, 281, 400, 344
-0.987927, 177, 129, 240, 256
-0.987942, 121, 217, 152, 280
-0.987974, 249, 41, 312, 104
-0.988108, 381, 209, 412, 336
-0.988174, 225, 1, 352, 64
-0.988209, 273, 89, 304, 152
-0.988228, 21, 113, 52, 176
-0.988243, 377, 1, 440, 375
-0.98825, 233, 1, 296, 375
-0.988271, 437, 153, 468, 216
-0.988292, 49, 113, 80, 240
-0.988345, 345, 113, 376, 240
-0.988354, 297, 209, 328, 336
-0.988401, 29, 249, 60, 312
-0.988423, 21, 1, 52, 64
-0.98845, 133, 1, 164, 64
-0.98846, 181, 185, 212, 248
-0.988521, 417, 65, 448, 192
-0.988548, 93, 17, 124, 144
-0.988621, 357, 65, 388, 128
-0.988657, 229, 249, 260, 312
-0.988709, 273, 225, 304, 288
-0.988733, 421, 289, 452, 352
-0.988804, 297, 1, 360, 375
-0.988817, 17, 281, 48, 344
-0.988958, 313, 237, 376, 268
-0.989035, 193, 129, 256, 375
-0.989044, 129, 257, 160, 320
-0.989074, 225, 33, 288, 288
-0.989166, 49, 73, 80, 136
-0.989187, 161, 33, 224, 160
-0.98922, 401, 1, 432, 128
-0.989226, 17, 313, 48, 375
-0.989231, 413, 313, 444, 375
-0.989293, 289, 49, 320, 112
-0.989294, 17, 289, 80, 320
-0.989324, 213, 177, 244, 304
-0.989324, 369, 169, 400, 232
-0.989408, 225, 285, 288, 316
-0.98942, 293, 81, 324, 144
-0.989426, 17, 277, 80, 308
-0.989504, 29, 113, 60, 240
-0.989516, 433, 161, 464, 288
-0.989526, 305, 41, 432, 104
-0.989614, 65, 169, 96, 232
-0.989634, 177, 269, 240, 300
-0.989655, 369, 49, 496, 112
-0.989674, 453, 313, 484, 375
-0.989697, 169, 241, 200, 368
-0.989724, 93, 201, 124, 264
-0.989761, 201, 129, 264, 256
-0.989786, 401, 1, 464, 375
-0.98979, 425, 69, 488, 100
-0.98979, 141, 89, 172, 152
-0.989793, 225, 177, 256, 240
-0.989836, 249, 185, 280, 248
-0.989894, 321, 257, 352, 320
-0.989894, 5, 281, 36, 344
-0.989896, 337, 77, 400, 108
-0.989909, 161, 73, 288, 136
-0.989973, 113, 9, 144, 72
-0.990024, 9, 301, 72, 332
-0.990026, 209, 305, 272, 336
-0.990029, 401, 237, 464, 268
-0.990042, 25, 1, 88, 375
-0.990076, 469, 289, 500, 352
-0.990093, 401, 225, 432, 288
-0.990095, 165, 241, 196, 304
-0.990161, 257, 65, 500, 128
-0.990167, 369, 313, 432, 344
-0.990196, 301, 185, 332, 248
-0.990201, 49, 261, 112, 292
-0.990222, 289, 321, 352, 352
-0.99028, 257, 181, 320, 212
-0.990289, 73, 129, 104, 192
-0.990294, 321, 113, 352, 240
-0.990329, 465, 265, 496, 328
-0.99033, 233, 145, 264, 272
-0.990344, 121, 181, 184, 212
-0.990349, 377, 77, 440, 108
-0.990359, 321, 321, 384, 352
-0.990359, 313, 333, 376, 364
-0.990376, 409, 1, 440, 64
-0.990376, 81, 189, 144, 220
-0.990389, 225, 181, 288, 212
-0.990397, 17, 1, 48, 128
-0.990419, 433, 161, 496, 192
-0.990432, 141, 225, 172, 288
-0.990491, 465, 97, 496, 224
-0.990513, 337, 137, 400, 168
-0.990523, 233, 321, 296, 352
-0.990576, 401, 73, 464, 104
-0.990579, 201, 273, 264, 304
-0.990583, 177, 185, 240, 216
-0.990599, 353, 285, 416, 316
-0.990601, 297, 309, 360, 340
-0.990613, 105, 17, 136, 144
-0.990626, 209, 33, 336, 96
-0.99065, 349, 105, 380, 168
-0.990652, 49, 273, 112, 304
-0.990653, 361, 237, 424, 268
-0.990698, 313, 81, 344, 144
-0.990708, 73, 129, 104, 256
-0.990725, 369, 9, 400, 72
-0.990746, 377, 277, 440, 308
-0.990749, 225, 201, 288, 232
-0.990752, 33, 345, 96, 375
-0.990764, 365, 217, 396, 280
-0.990772, 181, 177, 212, 304
-0.990782, 193, 289, 256, 320
-0.990805, 313, 225, 376, 256
-0.99081, 41, 309, 104, 340
-0.990831, 289, 341, 352, 372
-0.990851, 265, 229, 328, 260
-0.990861, 265, 193, 328, 224
-0.990861, 337, 309, 400, 340
-0.990861, 273, 109, 336, 140
-0.990866, 73, 241, 136, 272
-0.990876, 169, 33, 200, 160
-0.99089, 401, 309, 464, 340
-0.990896, 469, 193, 500, 320
-0.990903, 437, 209, 468, 336
-0.99095, 41, 289, 104, 320
-0.99096, 257, 169, 320, 200
-0.990964, 65, 185, 320, 248
-0.990978, 129, 313, 384, 375
-0.99098, 1, 65, 64, 96
-0.990981, 265, 49, 328, 80
-0.990987, 361, 225, 424, 256
-0.991003, 49, 125, 112, 156
-0.991012, 241, 273, 304, 304
-0.991017, 57, 345, 120, 375
-0.991028, 257, 305, 320, 336
-0.991058, 337, 297, 400, 328
-0.991064, 401, 225, 464, 256
-0.991064, 121, 273, 184, 304
-0.991068, 145, 285, 208, 316
-0.991089, 121, 321, 184, 352
-0.991118, 233, 301, 296, 332
-0.991124, 121, 261, 184, 292
-0.991125, 321, 249, 384, 280
-0.991138, 89, 121, 152, 152
-0.991162, 9, 225, 40, 352
-0.991163, 113, 229, 176, 260
-0.991173, 49, 105, 112, 136
-0.99118, 317, 193, 348, 320
-0.991202, 313, 73, 376, 104
-0.991216, 273, 61, 336, 92
-0.991228, 81, 173, 144, 204
-0.991234, 425, 317, 488, 348
-0.991249, 269, 49, 300, 176
-0.991258, 281, 125, 344, 156
-0.991278, 345, 1, 408, 375
-0.991293, 385, 1, 448, 32
-0.991296, 377, 293, 440, 324
-0.991327, 9, 345, 72, 375
-0.991328, 361, 249, 424, 280
-0.991329, 153, 273, 216, 304
-0.991342, 129, 345, 192, 375
-0.991352, 321, 121, 384, 152
-0.991362, 393, 257, 456, 288
-0.991365, 17, 313, 80, 344
-0.991369, 401, 321, 464, 352
-0.991389, 265, 217, 328, 248
-0.99139, 161, 333, 224, 364
-0.991394, 113, 241, 240, 304
-0.991395, 377, 157, 440, 188
-0.991409, 25, 261, 88, 292
-0.99141, 73, 229, 136, 260
-0.99141, 193, 241, 448, 304
-0.991411, 353, 13, 416, 44
-0.991419, 57, 189, 120, 220
-0.991425, 265, 333, 328, 364
-0.991443, 377, 89, 440, 120
-0.991465, 377, 169, 440, 200
-0.991471, 337, 221, 400, 252
-0.991481, 185, 305, 248, 336
-0.991497, 81, 253, 144, 284
-0.991498, 265, 205, 328, 236
-0.991501, 153, 253, 216, 284
-0.991511, 417, 181, 480, 212
-0.991516, 281, 241, 344, 272
-0.991519, 169, 293, 232, 324
-0.99152, 233, 341, 296, 372
-0.991526, 201, 185, 264, 216
-0.991531, 145, 185, 208, 216
-0.991555, 265, 97, 328, 128
-0.991566, 137, 113, 200, 144
-0.991581, 25, 73, 88, 104
-0.991585, 225, 213, 288, 244
-0.991593, 113, 249, 176, 280
-0.991594, 425, 81, 488, 112
-0.991597, 201, 261, 264, 292
-0.991604, 209, 337, 272, 368
-0.991605, 345, 261, 408, 292
-0.991607, 345, 273, 408, 304
-0.991628, 33, 333, 96, 364
-0.991635, 377, 185, 440, 216
-0.991636, 129, 1, 192, 32
-0.991649, 345, 89, 408, 120
-0.99166, 49, 17, 112, 48
-0.991666, 81, 345, 144, 375
-0.99167, 225, 165, 288, 196
-0.991678, 105, 17, 168, 48
-0.99171, 313, 85, 376, 116
-0.991713, 313, 261, 376, 292
-0.991715, 9, 121, 72, 152
-0.991717, 1, 265, 500, 328
-0.991737, 361, 105, 424, 136
-0.991737, 201, 317, 264, 348
-0.991741, 345, 321, 408, 352
-0.991753, 97, 145, 128, 272
-0.991763, 289, 225, 352, 256
-0.991765, 185, 197, 248, 228
-0.991772, 65, 201, 128, 232
-0.991788, 369, 325, 432, 356
-0.991789, 57, 177, 120, 208
-0.991791, 17, 9, 80, 40
-0.9918, 33, 249, 96, 280
-0.991822, 153, 97, 184, 224
-0.991905, 409, 161, 440, 288
-0.99193, 61, 161, 92, 288
-0.992038, 225, 305, 480, 368
-0.992042, 129, 121, 256, 184
-0.992063, 297, 1, 328, 128
-0.992187, 17, 41, 144, 104
-0.992187, 29, 193, 60, 320
-0.992206, 193, 217, 448, 280
-0.992207, 257, 137, 500, 200
-0.992293, 245, 281, 276, 312
-0.992333, 33, 265, 288, 328
-0.992384, 49, 193, 80, 320
-0.992393, 257, 89, 500, 152
-0.992403, 201, 177, 232, 304
-0.992425, 425, 1, 488, 128
-0.992427, 1, 81, 500, 144
-0.992489, 225, 293, 256, 324
-0.992562, 341, 241, 372, 272
-0.99257, 325, 333, 356, 364
-0.992575, 181, 273, 212, 304
-0.992589, 449, 65, 480, 96
-0.99263, 89, 189, 120, 220
-0.992652, 245, 305, 276, 336
-0.992656, 41, 345, 72, 375
-0.992658, 349, 73, 380, 104
-0.992677, 321, 233, 352, 264
-0.992708, 213, 301, 244, 332
-0.992711, 169, 273, 200, 304
-0.992722, 329, 245, 360, 276
-0.992725, 61, 257, 92, 288
-0.99273, 49, 289, 80, 320
-0.99273, 225, 265, 480, 328
-0.992732, 385, 77, 416, 108
-0.992732, 129, 65, 160, 192
-0.992739, 193, 265, 224, 296
-0.992741, 97, 217, 352, 280
-0.992753, 369, 81, 400, 112
-0.992779, 65, 289, 320, 352
-0.992786, 385, 293, 416, 324
-0.992793, 37, 277, 68, 308
-0.992794, 337, 309, 368, 340
-0.992796, 193, 177, 448, 240
-0.992807, 293, 109, 324, 140
-0.992808, 73, 265, 104, 296
-0.992816, 193, 1, 256, 375
-0.992817, 413, 73, 444, 104
-0.992817, 377, 309, 408, 340
-0.992819, 145, 49, 272, 112
-0.992819, 29, 325, 60, 356
-0.992831, 53, 277, 84, 308
-0.992832, 333, 225, 364, 256
-0.992836, 345, 321, 376, 352
-0.992837, 413, 229, 444, 260
-0.99284, 397, 73, 428, 104
-0.992844, 161, 65, 416, 128
-0.992847, 233, 281, 264, 312
-0.992854, 393, 313, 424, 344
-0.992859, 389, 89, 420, 120
-0.99286, 249, 185, 280, 216
-0.99286, 265, 185, 296, 216
-0.992863, 173, 285, 204, 316
-0.992863, 121, 1, 184, 375
-0.992864, 305, 321, 336, 352
-0.992866, 381, 277, 412, 308
-0.992877, 277, 49, 308, 80
-0.992881, 29, 309, 60, 340
-0.992884, 21, 281, 52, 312
-0.992896, 213, 273, 244, 304
-0.992912, 197, 293, 228, 324
-0.992916, 53, 305, 84, 336
-0.992919, 221, 185, 252, 216
-0.992923, 97, 229, 128, 260
-0.992925, 277, 101, 308, 132
-0.992925, 33, 293, 64, 324
-0.99293, 305, 341, 336, 372
-0.99293, 433, 69, 464, 100
-0.992931, 457, 161, 488, 192
-0.992933, 409, 241, 440, 272
-0.992935, 153, 265, 184, 296
-0.992943, 329, 321, 360, 352
-0.992945, 165, 329, 196, 360
-0.992954, 357, 221, 388, 252
-0.992958, 181, 185, 212, 216
-0.992961, 133, 181, 164, 212
-0.992968, 213, 289, 244, 320
-0.992973, 253, 269, 284, 300
-0.992979, 461, 317, 492, 348
-0.992985, 105, 209, 136, 240
-0.993, 113, 1, 176, 256
-0.993, 349, 129, 380, 160
-0.993002, 77, 109, 108, 140
-0.993003, 161, 189, 192, 220
-0.993011, 353, 233, 384, 264
-0.993011, 9, 285, 40, 316
-0.993013, 301, 301, 332, 332
-0.993014, 149, 1, 180, 32
-0.993018, 141, 257, 172, 288
-0.993024, 241, 321, 272, 352
-0.993025, 109, 189, 140, 220
-0.993027, 405, 309, 436, 340
-0.993034, 209, 261, 240, 292
-0.993039, 281, 117, 312, 148
-0.99304, 233, 305, 264, 336
-0.993044, 309, 233, 340, 264
-0.993047, 305, 109, 336, 140
-0.993047, 301, 57, 332, 88
-0.993058, 89, 177, 120, 208
-0.993061, 317, 321, 348, 352
-0.993066, 29, 345, 60, 375
-0.993066, 129, 105, 384, 168
-0.993066, 73, 253, 104, 284
-0.993068, 289, 333, 320, 364
-0.993076, 325, 309, 356, 340
-0.993078, 277, 181, 308, 212
-0.993081, 413, 1, 444, 32
-0.993083, 353, 253, 384, 284
-0.993084, 469, 185, 500, 216
-0.993089, 453, 329, 484, 360
-0.99309, 85, 345, 116, 375
-0.993096, 273, 225, 304, 256
-0.993096, 145, 181, 176, 212
-0.993098, 193, 277, 224, 308
-0.993102, 225, 337, 256, 368
-0.993103, 113, 221, 144, 252
-0.993104, 133, 9, 164, 40
-0.993108, 21, 293, 52, 324
-0.993109, 377, 93, 408, 124
-0.993112, 401, 273, 432, 304
-0.993113, 229, 269, 260, 300
-0.993114, 121, 17, 152, 48
-0.993117, 385, 145, 416, 272
-0.993118, 333, 125, 364, 156
-0.993119, 361, 133, 392, 164
-0.993122, 265, 305, 296, 336
-0.993122, 145, 321, 176, 352
-0.993122, 277, 197, 308, 228
-0.993122, 217, 313, 248, 344
-0.993129, 61, 245, 92, 276
-0.993132, 449, 241, 480, 368
-0.993134, 357, 317, 388, 348
-0.993137, 197, 185, 228, 216
-0.993139, 41, 309, 72, 340
-0.993147, 257, 197, 288, 228
-0.993151, 45, 73, 76, 104
-0.993151, 413, 321, 444, 352
-0.993152, 165, 117, 196, 148
-0.993153, 201, 305, 232, 336
-0.993156, 313, 305, 344, 336
-0.993156, 141, 117, 172, 148
-0.99316, 209, 185, 240, 216
-0.993161, 257, 113, 500, 176
-0.993165, 233, 185, 264, 216
-0.993167, 433, 177, 464, 208
-0.993168, 101, 241, 132, 272
-0.99317, 237, 293, 268, 324
-0.99317, 17, 333, 48, 364
-0.99317, 153, 277, 184, 308
-0.993172, 85, 253, 116, 284
-0.993172, 265, 169, 296, 200
-0.993235, 145, 269, 272, 300
-0.993246, 33, 241, 288, 304
-0.993262, 1, 305, 500, 368
-0.993264, 453, 177, 484, 304
-0.993384, 165, 97, 196, 224
-0.993413, 1, 153, 500, 216
-0.993561, 65, 73, 320, 136
-0.99363, 285, 209, 316, 336
-0.993885, 369, 73, 496, 104
-0.993909, 65, 161, 320, 224
-0.994026, 97, 153, 224, 216
-0.994216, 33, 313, 288, 375
-0.994286, 169, 1, 232, 375
-0.994304, 273, 301, 400, 332
-0.994381, 1, 57, 500, 120
-0.994397, 353, 313, 480, 344
-0.994403, 1, 225, 500, 288
-0.994468, 17, 345, 144, 375
-0.994497, 225, 305, 352, 336
-0.994497, 225, 41, 480, 104
-0.99452, 1, 185, 500, 248
-0.994559, 289, 321, 416, 352
-0.994567, 97, 185, 224, 216
-0.994617, 305, 245, 432, 276
-0.994649, 145, 49, 176, 176
-0.994655, 65, 1, 320, 64
-0.994669, 1, 129, 500, 192
-0.994721, 129, 265, 384, 328
-0.994733, 245, 129, 276, 256
-0.99474, 225, 321, 352, 352
-0.994751, 311, 297, 326, 360
-0.994794, 225, 9, 480, 72
-0.994801, 1, 125, 128, 156
-0.994815, 463, 57, 478, 120
-0.994857, 1, 209, 256, 272
-0.994869, 23, 281, 38, 344
-0.994884, 353, 233, 368, 296
-0.994891, 177, 293, 304, 324
-0.994927, 55, 297, 70, 360
-0.994959, 233, 289, 248, 352
-0.994959, 33, 97, 288, 160
-0.995015, 305, 289, 432, 320
-0.995069, 413, 225, 428, 288
-0.99508, 397, 273, 412, 336
-0.995098, 369, 85, 496, 116
-0.995137, 65, 129, 320, 192
-0.99514, 65, 257, 192, 288
-0.995143, 193, 257, 320, 288
-0.99521, 113, 65, 176, 192
-0.995246, 321, 77, 448, 108
-0.995257, 225, 289, 352, 320
-0.995269, 461, 49, 492, 176
-0.995278, 357, 257, 372, 320
-0.995302, 177, 185, 304, 216
-0.995305, 401, 113, 432, 240
-0.995317, 305, 233, 432, 264
-0.995337, 177, 137, 304, 200
-0.995342, 55, 265, 70, 328
-0.995352, 161, 281, 288, 312
-0.995359, 145, 1, 272, 64
-0.995403, 337, 325, 464, 356
-0.995406, 369, 161, 496, 192
-0.995433, 449, 1, 480, 128
-0.995437, 183, 265, 198, 328
-0.995442, 177, 313, 304, 344
-0.995447, 243, 281, 258, 344
-0.995499, 111, 201, 126, 264
-0.995506, 353, 241, 480, 272
-0.995528, 65, 101, 192, 132
-0.995557, 305, 297, 320, 360
-0.995564, 273, 129, 400, 160
-0.995567, 469, 153, 484, 216
-0.995572, 387, 273, 402, 336
-0.995586, 65, 117, 192, 148
-0.995605, 87, 105, 102, 168
-0.995609, 405, 249, 420, 312
-0.99561, 347, 225, 362, 288
-0.995616, 81, 285, 208, 316
-0.995663, 359, 281, 374, 344
-0.995744, 477, 161, 492, 224
-0.995758, 395, 73, 410, 136
-0.995764, 33, 245, 160, 276
-0.995782, 287, 113, 302, 176
-0.995814, 225, 109, 352, 140
-0.995817, 419, 225, 434, 288
-0.995818, 157, 49, 188, 176
-0.995859, 359, 217, 374, 280
-0.995863, 305, 257, 432, 288
-0.995872, 333, 305, 348, 368
-0.995877, 241, 249, 368, 280
-0.995881, 97, 273, 224, 304
-0.995882, 209, 213, 336, 244
-0.995927, 145, 329, 272, 360
-0.995934, 107, 225, 122, 288
-0.995944, 65, 49, 320, 112
-0.995957, 253, 273, 268, 336
-0.995962, 103, 185, 118, 248
-0.995968, 381, 289, 396, 352
-0.996015, 65, 85, 192, 116
-0.996017, 145, 33, 208, 288
-0.996028, 349, 297, 364, 360
-0.996032, 29, 281, 44, 344
-0.996042, 273, 177, 288, 240
-0.996042, 321, 305, 336, 368
-0.996046, 257, 237, 384, 268
-0.996048, 281, 185, 296, 248
-0.996049, 49, 273, 64, 336
-0.996051, 225, 277, 352, 308
-0.996056, 385, 73, 400, 136
-0.996057, 209, 225, 336, 256
-0.996059, 97, 97, 128, 224
-0.996059, 165, 185, 180, 248
-0.996073, 257, 73, 384, 104
-0.996077, 225, 193, 352, 224
-0.996084, 369, 177, 496, 208
-0.996089, 177, 197, 304, 228
-0.996097, 113, 73, 240, 136
-0.996101, 279, 121, 294, 184
-0.996104, 25, 305, 40, 368
-0.99611, 403, 73, 418, 136
-0.99612, 17, 177, 144, 208
-0.996126, 421, 65, 436, 128
-0.996138, 339, 233, 354, 296
-0.996147, 463, 153, 478, 216
-0.996149, 81, 197, 208, 228
-0.996159, 273, 117, 400, 148
-0.996165, 425, 217, 440, 280
-0.996167, 257, 217, 384, 248
-0.99617, 117, 113, 148, 240
-0.996174, 113, 297, 240, 328
-0.99619, 89, 161, 104, 224
-0.996205, 265, 185, 280, 248
-0.996229, 257, 61, 384, 92
-0.996241, 289, 173, 416, 204
-0.996242, 235, 177, 250, 240
-0.996245, 365, 1, 396, 256
-0.996264, 245, 193, 276, 320
-0.996267, 1, 113, 128, 144
-0.996267, 17, 189, 144, 220
-0.996268, 189, 265, 204, 328
-0.996282, 113, 345, 240, 375
-0.996295, 289, 333, 416, 364
-0.996299, 369, 141, 496, 172
-0.996301, 157, 249, 172, 312
-0.996309, 61, 257, 76, 320
-0.99632, 369, 277, 496, 308
-0.996324, 33, 1, 160, 32
-0.996327, 65, 341, 192, 372
-0.996337, 305, 93, 432, 124
-0.996344, 361, 313, 376, 375
-0.996344, 433, 1, 464, 128
-0.996352, 1, 157, 128, 188
-0.996367, 225, 137, 352, 168
-0.996369, 209, 57, 336, 88
-0.996372, 379, 137, 394, 200
-0.996382, 257, 65, 288, 192
-0.99639, 159, 177, 174, 240
-0.996407, 403, 273, 418, 336
-0.99642, 367, 313, 382, 375
-0.99642, 293, 105, 308, 168
-0.996421, 453, 65, 468, 128
-0.996427, 415, 313, 430, 375
-0.996431, 243, 305, 258, 368
-0.996432, 449, 33, 480, 288
-0.996436, 289, 141, 416, 172
-0.996438, 145, 1, 208, 375
-0.996449, 331, 233, 346, 296
-0.996449, 427, 65, 442, 128
-0.996483, 209, 237, 336, 268
-0.996502, 241, 333, 368, 364
-0.996508, 17, 281, 144, 312
-0.996508, 97, 25, 224, 88
-0.99651, 375, 281, 390, 344
-0.996518, 117, 241, 132, 304
-0.996523, 257, 265, 384, 296
-0.996532, 327, 313, 342, 375
-0.996537, 161, 209, 288, 240
-0.996538, 17, 213, 144, 244
-0.996541, 355, 305, 370, 368
-0.996547, 223, 289, 238, 352
-0.996553, 305, 105, 432, 136
-0.996554, 15, 281, 30, 344
-0.996556, 299, 313, 314, 375
-0.996559, 257, 205, 384, 236
-0.996562, 61, 289, 76, 352
-0.996566, 403, 1, 418, 64
-0.996567, 209, 173, 336, 204
-0.996571, 343, 297, 358, 360
-0.996572, 305, 217, 432, 248
-0.996572, 181, 89, 196, 152
-0.996576, 321, 301, 448, 332
-0.996584, 173, 185, 188, 248
-0.996587, 369, 97, 496, 128
-0.996594, 17, 229, 144, 260
-0.996604, 223, 265, 238, 328
-0.996611, 279, 97, 294, 160
-0.996612, 367, 249, 382, 312
-0.996621, 145, 253, 272, 284
-0.996622, 227, 177, 242, 240
-0.996627, 97, 225, 224, 256
-0.996632, 149, 1, 164, 64
-0.996645, 351, 257, 366, 320
-0.996665, 49, 305, 64, 368
-0.996673, 309, 105, 324, 168
-0.996674, 129, 317, 256, 348
-0.996681, 129, 1, 256, 32
-0.996689, 143, 177, 158, 240
-0.99669, 215, 273, 230, 336
-0.996692, 145, 25, 272, 88
-0.9967, 469, 313, 484, 375
-0.9967, 209, 93, 336, 124
-0.996705, 37, 1, 52, 64
-0.996711, 359, 193, 374, 256
-0.996713, 135, 177, 150, 240
-0.99672, 273, 97, 304, 352
-0.996733, 73, 81, 88, 144
-0.996736, 417, 249, 432, 312
-0.996738, 117, 193, 132, 256
-0.996754, 357, 65, 372, 128
-0.996755, 421, 297, 436, 360
-0.996761, 169, 273, 184, 336
-0.996762, 445, 65, 460, 128
-0.996763, 177, 281, 192, 344
-0.996766, 1, 137, 128, 168
-0.996767, 289, 193, 416, 224
-0.996771, 405, 313, 420, 375
-0.996773, 317, 1, 348, 256
-0.996773, 375, 73, 390, 136
-0.996776, 49, 73, 176, 104
-0.996778, 409, 73, 424, 136
-0.996782, 475, 313, 490, 375
-0.996788, 81, 9, 208, 40
-0.996793, 285, 161, 300, 224
-0.996795, 129, 197, 256, 228
-0.9968, 127, 257, 142, 320
-0.996806, 287, 89, 302, 152
-0.996818, 347, 73, 362, 136
-0.996822, 75, 233, 90, 296
-0.996828, 369, 217, 384, 280
-0.996829, 217, 305, 232, 368
-0.996833, 83, 169, 98, 232
-0.996837, 17, 333, 144, 364
-0.996838, 373, 313, 388, 375
-0.996851, 385, 65, 416, 320
-0.996852, 77, 97, 108, 352
-0.996853, 65, 1, 96, 256
-0.996858, 415, 65, 430, 128
-0.996869, 31, 305, 46, 368
-0.996879, 79, 89, 94, 152
-0.996879, 153, 177, 168, 240
-0.996884, 369, 289, 496, 320
-0.9969, 225, 121, 352, 152
-0.996903, 251, 313, 266, 375
-0.996909, 185, 33, 248, 288
-0.99691, 289, 161, 416, 192
-0.996912, 121, 217, 136, 280
-0.996923, 365, 281, 380, 344
-0.99693, 1, 1, 500, 64
-0.996931, 455, 153, 470, 216
-0.996933, 261, 313, 276, 375
-0.996936, 97, 213, 224, 244
-0.996936, 299, 105, 314, 168
-0.996939, 33, 21, 160, 52
-0.996941, 23, 257, 38, 320
-0.996941, 1, 265, 128, 296
-0.996941, 433, 65, 448, 128
-0.996946, 337, 9, 464, 40
-0.996951, 369, 301, 496, 332
-0.996967, 237, 313, 252, 375
-0.996969, 397, 1, 412, 64
-0.99697, 357, 121, 372, 184
-0.996974, 179, 185, 194, 248
-0.996986, 259, 273, 274, 336
-0.996994, 25, 281, 40, 312
-0.996994, 163, 257, 178, 320
-0.996995, 183, 65, 198, 128
-0.996998, 485, 185, 500, 248
-0.996998, 353, 229, 480, 260
-0.997, 161, 129, 416, 192
-0.997006, 137, 249, 152, 312
-0.997011, 65, 329, 192, 360
-0.997021, 361, 97, 392, 352
-0.997024, 349, 1, 380, 256
-0.997034, 353, 253, 480, 284
-0.997049, 369, 337, 496, 368
-0.997062, 209, 345, 336, 375
-0.997063, 1, 293, 128, 324
-0.997092, 337, 197, 464, 228
-0.997093, 311, 301, 326, 332
-0.997102, 65, 173, 192, 204
-0.997125, 273, 345, 400, 375
-0.997128, 1, 101, 128, 132
-0.997133, 77, 1, 108, 256
-0.997134, 329, 1, 360, 256
-0.997135, 17, 321, 144, 352
-0.997158, 89, 1, 120, 256
-0.997161, 369, 129, 496, 160
-0.997162, 1, 105, 500, 168
-0.997186, 237, 289, 252, 320
-0.997207, 129, 241, 256, 272
-0.997209, 33, 305, 160, 336
-0.997249, 297, 65, 328, 320
-0.997256, 273, 277, 400, 308
-0.99729, 461, 65, 492, 320
-0.997292, 289, 1, 416, 32
-0.997304, 305, 65, 432, 96
-0.997307, 53, 1, 84, 256
-0.997312, 89, 129, 120, 375
-0.997334, 225, 1, 352, 32
-0.997343, 285, 33, 316, 288
-0.997347, 1, 129, 32, 375
-0.997359, 145, 173, 272, 204
-0.997364, 257, 85, 384, 116
-0.997374, 145, 113, 272, 144
-0.997378, 243, 285, 258, 316
-0.997392, 321, 277, 448, 308
-0.997396, 249, 281, 264, 312
-0.997402, 183, 273, 198, 304
-0.997434, 17, 201, 144, 232
-0.997466, 257, 97, 384, 128
-0.997475, 193, 333, 320, 364
-0.997487, 49, 269, 176, 300
-0.997523, 321, 125, 448, 156
-0.997536, 29, 33, 60, 288
-0.99754, 17, 285, 32, 316
-0.997546, 289, 17, 416, 48
-0.997557, 209, 69, 336, 100
-0.997565, 259, 277, 274, 308
-0.997575, 161, 221, 288, 252
-0.997614, 153, 129, 184, 375
-0.997616, 273, 185, 288, 216
-0.997634, 145, 101, 272, 132
-0.997637, 209, 161, 336, 192
-0.997643, 1, 25, 256, 88
-0.997652, 397, 277, 412, 308
-0.997653, 129, 57, 256, 88
-0.997656, 45, 341, 60, 372
-0.997663, 417, 33, 448, 288
-0.997668, 105, 1, 136, 256
-0.997669, 161, 153, 416, 216
-0.997673, 13, 65, 44, 320
-0.997675, 41, 33, 72, 288
-0.997703, 23, 297, 38, 328
-0.997717, 55, 297, 70, 328
-0.997719, 385, 81, 400, 112
-0.997729, 55, 281, 70, 312
-0.99775, 349, 309, 364, 340
-0.997754, 463, 65, 478, 96
-0.997757, 1, 77, 128, 108
-0.99776, 437, 33, 468, 288
-0.997786, 229, 293, 244, 324
-0.997787, 55, 309, 70, 340
-0.997791, 391, 77, 406, 108
-0.997795, 105, 189, 120, 220
-0.997799, 327, 241, 342, 272
-0.997815, 203, 265, 218, 296
-0.997818, 121, 1, 152, 256
-0.99783, 75, 249, 90, 280
-0.997837, 109, 229, 124, 260
-0.99784, 333, 321, 348, 352
-0.997851, 177, 269, 192, 300
-0.997851, 337, 97, 368, 352
-0.997857, 411, 233, 426, 264
-0.997897, 389, 281, 404, 312
-0.997897, 283, 125, 298, 156
-0.997912, 397, 65, 428, 320
-0.997913, 193, 265, 208, 296
-0.997916, 235, 185, 250, 216
-0.997921, 413, 73, 428, 104
-0.997938, 237, 301, 252, 332
-0.997953, 29, 309, 44, 340
-0.99796, 111, 197, 126, 228
-0.997963, 157, 257, 172, 288
-0.997964, 265, 189, 280, 220
-0.997965, 379, 81, 394, 112
-0.997995, 349, 129, 380, 375
-0.997996, 349, 237, 364, 268
-0.99802, 329, 333, 344, 364
-0.998025, 209, 265, 224, 296
-0.998037, 419, 321, 434, 352
-0.99805, 49, 293, 64, 324
-0.99805, 233, 129, 264, 375
-0.998059, 91, 173, 106, 204
-0.998059, 323, 305, 338, 336
-0.99806, 393, 89, 408, 120
-0.998066, 221, 301, 236, 332
-0.99807, 359, 233, 374, 264
-0.998075, 407, 73, 422, 104
-0.998078, 247, 305, 262, 336
-0.998083, 337, 309, 352, 340
-0.998083, 379, 309, 394, 340
-0.998089, 347, 321, 362, 352
-0.998093, 291, 117, 306, 148
-0.998093, 23, 317, 38, 348
-0.998094, 215, 305, 230, 336
-0.998094, 61, 289, 76, 320
-0.998097, 385, 93, 400, 124
-0.998102, 345, 77, 360, 108
-0.998116, 401, 77, 416, 108
-0.998117, 227, 185, 242, 216
-0.998123, 37, 345, 52, 375
-0.998125, 283, 341, 298, 372
-0.998126, 355, 73, 370, 104
-0.998128, 417, 129, 448, 375
-0.998131, 359, 317, 374, 348
-0.998135, 133, 129, 164, 375
-0.998141, 177, 285, 192, 316
-0.998142, 409, 249, 424, 280
-0.998142, 433, 69, 448, 100
-0.998158, 49, 281, 64, 312
-0.998158, 333, 233, 348, 264
-0.998171, 441, 69, 456, 100
-0.998176, 413, 313, 428, 344
-0.998181, 353, 121, 368, 152
-0.998181, 479, 169, 494, 200
-0.998186, 189, 277, 204, 308
-0.998186, 359, 285, 374, 316
-0.998189, 403, 277, 418, 308
-0.998193, 217, 129, 248, 375
-0.998199, 85, 177, 100, 208
-0.9982, 451, 65, 466, 96
-0.998202, 349, 221, 364, 252
-0.998203, 307, 341, 322, 372
-0.998204, 319, 341, 334, 372
-0.998207, 419, 73, 434, 104
-0.998208, 45, 325, 60, 356
-0.99821, 119, 225, 134, 256
-0.998213, 85, 253, 100, 284
-0.998214, 259, 317, 274, 348
-0.998216, 51, 341, 66, 372
-0.998222, 181, 113, 196, 144
-0.998224, 305, 301, 320, 332
-0.998224, 1, 33, 32, 288
-0.998225, 169, 329, 184, 360
-0.998225, 317, 305, 332, 336
-0.998226, 369, 321, 384, 352
-0.998228, 53, 129, 84, 375
-0.998231, 313, 341, 328, 372
-0.998236, 69, 253, 84, 284
-0.998237, 373, 129, 404, 375
-0.998242, 343, 309, 358, 340
-0.998247, 393, 313, 408, 344
-0.998247, 305, 317, 320, 348
-0.998248, 327, 321, 342, 352
-0.998251, 339, 233, 354, 264
-0.998253, 283, 181, 298, 212
-0.998255, 183, 53, 198, 84
-0.998255, 79, 261, 94, 292
-0.998263, 317, 229, 332, 260
-0.998265, 309, 97, 340, 352
-0.998269, 295, 317, 310, 348
-0.998273, 321, 317, 336, 348
-0.998274, 57, 345, 72, 375
-0.998278, 427, 69, 442, 100
-0.998286, 313, 289, 328, 320
-0.998291, 187, 185, 202, 216
-0.998292, 409, 325, 424, 356
-0.998294, 341, 329, 356, 360
-0.998297, 169, 273, 184, 304
-0.998298, 277, 133, 292, 164
-0.998299, 157, 1, 172, 32
-0.9983, 375, 137, 390, 168
-0.998303, 423, 1, 438, 32
-0.998307, 475, 321, 490, 352
-0.998309, 117, 189, 132, 220
-0.998312, 31, 281, 46, 312
-0.998313, 59, 265, 74, 296
-0.998314, 211, 293, 226, 324
-0.998317, 417, 229, 432, 260
-0.998318, 281, 45, 296, 76
-0.998319, 459, 317, 474, 348
-0.998326, 253, 269, 268, 300
-0.99833, 361, 73, 376, 104
-0.998332, 45, 309, 60, 340
-0.998335, 237, 321, 252, 352
-0.998344, 97, 25, 352, 88
-0.998369, 137, 125, 168, 140
-0.99837, 73, 259, 104, 274
-0.99837, 381, 285, 412, 300
-0.998372, 381, 309, 412, 324
-0.998372, 241, 303, 272, 318
-0.998373, 405, 251, 436, 266
-0.998374, 437, 159, 468, 174
-0.998374, 153, 271, 184, 286
-0.998375, 157, 131, 188, 146
-0.998377, 305, 333, 336, 348
-0.998378, 309, 241, 340, 256
-0.998379, 301, 299, 332, 314
-0.998382, 385, 291, 416, 306
-0.998382, 9, 65, 40, 80
-0.998383, 273, 119, 304, 134
-0.998383, 61, 285, 92, 300
-0.998386, 345, 329, 376, 344
-0.998386, 113, 187, 144, 202
-0.998387, 141, 261, 172, 276
-0.998387, 413, 75, 444, 90
-0.998387, 301, 61, 332, 76
-0.998388, 289, 341, 320, 356
-0.998388, 221, 187, 252, 202
-0.998389, 261, 275, 292, 290
-0.99839, 173, 97, 204, 352
-0.99839, 277, 107, 308, 122
-0.99839, 49, 297, 80, 312
-0.998391, 405, 313, 436, 328
-0.998391, 149, 3, 180, 18
-0.998392, 289, 119, 320, 134
-0.998392, 165, 331, 196, 346
-0.998392, 429, 71, 460, 86
-0.998392, 53, 305, 84, 320
-0.998392, 385, 93, 416, 108
-0.998393, 29, 333, 60, 348
-0.998393, 349, 241, 380, 256
-0.998394, 169, 129, 200, 144
-0.998394, 189, 295, 220, 310
-0.998394, 353, 21, 384, 36
-0.998395, 373, 321, 404, 336
-0.998395, 117, 355, 148, 370
-0.998395, 145, 65, 176, 80
-0.998395, 57, 265, 88, 280
-0.998395, 461, 321, 492, 336
-0.998396, 413, 233, 444, 248
-0.998396, 213, 295, 244, 310
-0.998396, 409, 5, 440, 20
-0.998397, 293, 55, 324, 70
-0.998397, 101, 191, 132, 206
-0.998398, 401, 77, 432, 92
-0.9984, 165, 59, 196, 74
-0.9984, 97, 235, 128, 250
-0.9984, 37, 283, 68, 298
-0.9984, 333, 133, 364, 148
-0.998402, 105, 223, 136, 238
-0.998402, 209, 273, 240, 288
-0.998402, 249, 191, 280, 206
-0.998403, 29, 305, 60, 320
-0.998403, 49, 311, 80, 326
-0.998404, 113, 195, 144, 210
-0.998406, 45, 361, 76, 375
-0.998406, 161, 189, 192, 204
-0.998407, 53, 275, 84, 290
-0.998409, 393, 9, 424, 24
-0.99841, 373, 15, 404, 30
-0.998411, 57, 353, 88, 368
-0.998411, 97, 229, 128, 244
-0.998412, 33, 299, 64, 314
-0.998412, 69, 265, 100, 280
-0.998412, 381, 81, 412, 96
-0.998414, 173, 189, 204, 204
-0.998416, 305, 343, 336, 358
-0.998417, 409, 239, 440, 254
-0.998417, 17, 285, 48, 300
-0.998417, 357, 235, 388, 250
-0.998418, 229, 301, 260, 316
-0.998419, 417, 227, 448, 242
-0.99842, 277, 183, 308, 198
-0.998421, 105, 357, 136, 372
-0.998421, 225, 313, 256, 328
-0.998423, 49, 285, 80, 300
-0.998423, 145, 185, 176, 200
-0.998424, 337, 139, 368, 154
-0.998424, 29, 313, 60, 328
-0.998425, 421, 1, 452, 16
-0.998427, 357, 321, 388, 336
-0.998428, 29, 319, 60, 334
-0.998433, 297, 111, 328, 126
-0.998433, 177, 287, 208, 302
-0.998434, 413, 323, 444, 338
-0.998434, 389, 319, 420, 334
-0.998436, 457, 161, 488, 176
-0.998436, 221, 289, 252, 304
-0.998439, 261, 97, 292, 352
-0.998439, 33, 289, 64, 304
-0.998441, 321, 247, 352, 262
-0.998441, 321, 233, 352, 248
-0.998443, 193, 275, 224, 290
-0.998447, 265, 187, 296, 202
-0.998447, 241, 321, 272, 336
-0.998448, 37, 351, 68, 366
-0.998448, 209, 265, 240, 280
-0.998449, 89, 191, 120, 206
-0.998449, 133, 183, 164, 198
-0.998451, 377, 315, 408, 330
-0.998453, 277, 49, 308, 64
-0.998455, 49, 291, 80, 306
-0.998457, 61, 359, 92, 374
-0.998457, 13, 293, 44, 308
-0.998458, 233, 283, 264, 298
-0.998462, 225, 295, 256, 310
-0.998464, 249, 277, 280, 292
-0.998464, 337, 233, 368, 248
-0.998465, 357, 135, 388, 150
-0.998465, 345, 323, 376, 338
-0.998468, 61, 259, 92, 274
-0.998468, 121, 185, 184, 200
-0.998472, 29, 327, 60, 342
-0.998472, 249, 129, 280, 375
-0.998483, 245, 309, 276, 324
-0.998484, 349, 77, 380, 92
-0.998485, 449, 67, 480, 82
-0.998487, 213, 305, 244, 320
-0.998488, 17, 279, 80, 294
-0.998489, 329, 327, 360, 342
-0.998493, 17, 295, 80, 310
-0.998498, 201, 305, 264, 320
-0.998498, 193, 267, 224, 282
-0.998499, 17, 287, 80, 302
-0.9985, 329, 239, 392, 254
-0.998503, 65, 97, 96, 352
-0.998505, 337, 323, 400, 338
-0.998505, 321, 249, 384, 264
-0.998506, 237, 289, 268, 304
-0.99851, 161, 269, 224, 284
-0.998517, 173, 277, 204, 292
-0.998518, 225, 291, 288, 306
-0.998521, 417, 69, 480, 84
-0.998524, 169, 271, 200, 286
-0.998524, 289, 321, 352, 336
-0.998526, 25, 305, 88, 320
-0.998529, 185, 293, 248, 308
-0.99853, 325, 333, 356, 348
-0.99853, 37, 345, 68, 360
-0.998532, 313, 337, 376, 352
-0.998532, 321, 241, 352, 256
-0.998532, 337, 239, 368, 254
-0.998533, 329, 139, 392, 154
-0.998537, 401, 239, 464, 254
-0.99854, 25, 273, 88, 288
-0.998542, 49, 265, 112, 280
-0.998545, 121, 129, 152, 375
-0.998545, 1, 33, 500, 96
-0.998546, 217, 285, 280, 300
-0.998548, 33, 347, 96, 362
-0.99855, 313, 233, 376, 248
-0.998554, 281, 113, 344, 128
-0.998556, 265, 235, 328, 250
-0.998557, 49, 273, 112, 288
-0.998558, 377, 285, 440, 300
-0.998562, 225, 309, 288, 324
-0.998563, 425, 163, 488, 178
-0.998564, 81, 191, 144, 206
-0.998567, 193, 287, 256, 302
-0.998567, 257, 185, 320, 200
-0.998569, 73, 237, 136, 252
-0.99857, 201, 315, 264, 330
-0.99857, 353, 285, 416, 300
-0.998571, 233, 319, 296, 334
-0.998572, 185, 265, 248, 280
-0.998573, 401, 233, 464, 248
-0.998573, 361, 249, 424, 264
-0.998574, 361, 243, 424, 258
-0.998575, 265, 55, 328, 70
-0.998575, 321, 77, 384, 92
-0.998576, 401, 325, 464, 340
-0.998576, 361, 79, 424, 94
-0.998576, 281, 341, 344, 356
-0.998579, 181, 271, 212, 286
-0.99858, 177, 275, 240, 290
-0.998581, 337, 303, 400, 318
-0.998582, 137, 293, 200, 308
-0.998583, 273, 61, 336, 76
-0.998584, 249, 203, 312, 218
-0.998584, 289, 329, 352, 344
-0.998587, 9, 315, 72, 330
-0.998587, 57, 355, 120, 370
-0.998588, 313, 255, 376, 270
-0.998588, 393, 73, 456, 88
-0.998588, 361, 317, 424, 332
-0.998589, 49, 279, 112, 294
-0.99859, 241, 279, 304, 294
-0.998592, 225, 199, 288, 214
-0.998592, 225, 209, 288, 224
-0.998592, 393, 247, 456, 262
-0.998592, 137, 271, 200, 286
-0.998593, 121, 325, 184, 340
-0.998593, 225, 297, 288, 312
-0.998594, 249, 283, 280, 298
-0.998594, 153, 189, 216, 204
-0.998594, 305, 239, 368, 254
-0.998596, 225, 183, 288, 198
-0.998597, 321, 329, 384, 344
-0.998597, 201, 299, 264, 314
-0.998598, 49, 309, 112, 324
-0.998599, 41, 289, 104, 304
-0.998601, 121, 263, 184, 278
-0.998601, 241, 285, 304, 300
-0.998601, 257, 315, 320, 330
-0.998602, 193, 187, 256, 202
-0.998602, 73, 243, 136, 258
-0.998604, 361, 237, 424, 252
-0.998604, 369, 323, 432, 338
-0.998606, 353, 255, 416, 270
-0.998606, 353, 291, 416, 306
-0.998607, 97, 357, 160, 372
-0.998608, 289, 233, 352, 248
-0.998608, 57, 361, 120, 375
-0.998609, 161, 331, 224, 346
-0.998609, 329, 133, 392, 148
-0.998609, 33, 353, 96, 368
-0.998609, 377, 279, 440, 294
-0.99861, 425, 317, 488, 332
-0.998611, 289, 335, 352, 350
-0.998612, 313, 323, 376, 338
-0.998613, 377, 167, 440, 182
-0.998613, 265, 105, 328, 120
-0.998615, 225, 303, 288, 318
-0.998615, 41, 299, 104, 314
-0.998615, 33, 257, 96, 272
-0.998616, 249, 325, 312, 340
-0.998616, 337, 309, 400, 324
-0.998616, 337, 317, 400, 332
-0.998617, 313, 309, 376, 324
-0.998617, 425, 81, 488, 96
-0.998617, 337, 145, 400, 160
-0.998617, 377, 311, 440, 326
-0.998618, 401, 313, 464, 328
-0.998618, 361, 329, 424, 344
-0.998618, 257, 195, 320, 210
-0.998619, 17, 321, 80, 336
-0.99862, 257, 303, 320, 318
-0.99862, 377, 175, 440, 190
-0.99862, 113, 241, 176, 256
-0.998621, 265, 223, 328, 238
-0.998622, 89, 19, 152, 34
-0.998624, 73, 249, 136, 264
-0.998625, 353, 15, 416, 30
-0.998626, 345, 279, 408, 294
-0.998627, 225, 189, 288, 204
-0.998627, 41, 341, 104, 356
-0.998628, 257, 163, 320, 178
-0.998629, 153, 129, 216, 144
-0.998629, 209, 321, 272, 336
-0.99863, 265, 119, 328, 134
-0.99863, 1, 171, 64, 186
-0.99863, 337, 357, 400, 372
-0.99863, 417, 181, 480, 196
-0.998632, 153, 263, 216, 278
-0.998633, 65, 259, 128, 274
-0.998634, 265, 209, 328, 224
-0.998634, 249, 347, 312, 362
-0.998635, 145, 287, 208, 302
-0.998635, 393, 3, 456, 18
-0.998635, 17, 359, 80, 374
-0.998635, 401, 227, 464, 242
-0.998694, 133, 1, 164, 256
-0.998717, 283, 113, 298, 240
-0.998726, 265, 1, 296, 256
-0.998729, 41, 129, 72, 375
-0.998835, 463, 49, 478, 176
-0.998905, 359, 193, 374, 320
-0.998932, 137, 113, 152, 240
-0.998959, 321, 97, 352, 352
-0.998962, 409, 225, 424, 352
-0.998965, 143, 161, 158, 288
-0.998967, 99, 177, 114, 304
-0.998969, 265, 177, 280, 304
-0.998972, 105, 129, 136, 375
-0.998973, 321, 241, 336, 368
-0.998977, 273, 113, 288, 240
-0.998978, 383, 1, 398, 128
-0.999004, 289, 97, 304, 224
-0.999012, 349, 209, 364, 336
-0.999015, 107, 209, 122, 336
-0.999017, 449, 129, 480, 375
-0.999034, 71, 1, 86, 128
-0.999038, 377, 1, 392, 128
-0.999041, 359, 1, 374, 128
-0.999041, 393, 1, 408, 128
-0.999045, 359, 241, 374, 368
-0.999051, 79, 1, 94, 128
-0.999052, 47, 1, 62, 128
-0.999052, 151, 161, 166, 288
-0.99906, 371, 1, 386, 128
-0.999061, 157, 161, 172, 288
-0.999067, 129, 161, 144, 288
-0.999074, 137, 161, 152, 288
-0.999075, 275, 177, 290, 304
-0.999077, 57, 1, 72, 128
-0.999089, 89, 97, 104, 224
-0.999091, 351, 1, 366, 128
-0.999095, 165, 177, 180, 304
-0.999098, 417, 209, 432, 336
-0.999098, 425, 209, 440, 336
-0.999104, 25, 129, 56, 375
-0.999104, 127, 1, 142, 128
-0.999105, 53, 65, 68, 192
-0.999105, 153, 33, 184, 288
-0.999105, 41, 1, 56, 128
-0.999107, 65, 1, 80, 128
-0.999109, 33, 1, 48, 128
-0.99911, 281, 49, 296, 176
-0.999113, 63, 65, 78, 192
-0.999118, 379, 65, 394, 192
-0.999127, 133, 1, 148, 128
-0.999137, 315, 1, 330, 128
-0.999138, 399, 1, 414, 128
-0.999145, 141, 1, 156, 128
-0.999146, 343, 17, 358, 144
-0.999148, 21, 49, 36, 176
-0.999151, 29, 65, 44, 192
-0.999154, 379, 129, 394, 256
-0.999155, 145, 113, 160, 240
-0.999155, 293, 33, 308, 160
-0.999158, 309, 49, 324, 176
-0.99916, 365, 1, 380, 128
-0.999165, 333, 1, 348, 128
-0.999166, 345, 65, 360, 192
-0.999169, 113, 193, 128, 320
-0.99917, 405, 1, 420, 128
-0.999171, 43, 49, 58, 176
-0.999172, 55, 241, 70, 368
-0.999173, 77, 81, 92, 208
-0.999174, 37, 49, 52, 176
-0.999176, 287, 33, 302, 160
-0.999176, 173, 177, 188, 304
-0.999177, 403, 241, 418, 368
-0.999181, 249, 241, 264, 368
-0.999185, 437, 129, 468, 375
-0.999185, 83, 97, 98, 224
-0.99919, 311, 97, 326, 224
-0.999191, 327, 209, 342, 336
-0.999194, 315, 49, 330, 176
-0.999194, 483, 161, 498, 288
-0.999198, 485, 241, 500, 368
-0.999201, 119, 193, 134, 320
-0.999206, 71, 65, 86, 192
-0.999219, 143, 241, 158, 368
-0.999222, 471, 129, 486, 256
-0.999224, 389, 65, 404, 192
-0.999227, 181, 33, 196, 160
-0.999229, 205, 129, 236, 375
-0.999234, 305, 97, 320, 224
-0.999239, 293, 145, 308, 272
-0.999241, 369, 225, 384, 352
-0.999241, 299, 33, 314, 160
-0.999244, 15, 49, 30, 176
-0.999247, 453, 49, 468, 176
-0.999247, 133, 241, 148, 368
-0.999248, 85, 1, 100, 128
-0.99925, 85, 177, 100, 304
-0.999252, 25, 225, 40, 352
-0.999253, 433, 193, 448, 320
-0.999253, 317, 97, 332, 224
-0.999254, 313, 209, 328, 336
-0.999255, 91, 161, 106, 288
-0.999263, 63, 241, 78, 368
-0.999272, 339, 209, 354, 336
-0.999273, 151, 113, 166, 240
-0.999276, 243, 241, 258, 368
-0.999277, 95, 113, 110, 240
-0.999282, 125, 241, 140, 368
-0.999285, 75, 209, 90, 336
-0.999287, 377, 209, 392, 336
-0.999288, 95, 225, 110, 352
-0.999291, 283, 161, 298, 288
-0.999295, 33, 241, 48, 368
-0.999296, 45, 241, 60, 368
-0.999297, 39, 97, 54, 224
-0.999298, 411, 65, 426, 192
-0.999299, 327, 1, 342, 128
-0.9993, 373, 65, 388, 192
-0.999303, 295, 81, 310, 208
-0.999306, 235, 177, 250, 304
-0.999306, 209, 225, 224, 352
-0.999307, 285, 129, 316, 375
-0.999308, 185, 129, 216, 375
-0.999317, 321, 1, 336, 128
-0.999318, 347, 129, 362, 256
-0.999319, 235, 225, 250, 352
-0.999319, 227, 241, 242, 368
-0.99932, 149, 1, 164, 128
-0.999321, 7, 49, 22, 176
-0.999322, 421, 161, 436, 288
-0.99933, 105, 161, 120, 288
-0.999331, 465, 97, 480, 224
-0.999332, 163, 241, 178, 368
-0.999333, 309, 1, 324, 128
-0.999337, 121, 1, 136, 128
-0.999338, 365, 177, 380, 304
-0.999338, 477, 145, 492, 272
-0.99934, 339, 81, 354, 208
-0.999341, 119, 241, 134, 368
-0.999343, 215, 225, 230, 352
-0.999352, 397, 241, 412, 368
-0.999355, 179, 177, 194, 304
-0.999357, 151, 225, 166, 352
-0.999482, 233, 33, 264, 288
-0.999576, 383, 321, 398, 336
-0.999576, 469, 161, 484, 176
-0.999577, 385, 95, 400, 110
-0.999577, 315, 307, 330, 322
-0.999577, 265, 275, 280, 290
-0.999577, 133, 17, 148, 32
-0.999578, 411, 313, 426, 328
-0.999578, 357, 135, 372, 150
-0.999579, 135, 183, 150, 198
-0.999579, 113, 201, 128, 216
-0.999579, 325, 233, 340, 248
-0.999579, 279, 187, 294, 202
-0.999579, 385, 315, 400, 330
-0.999579, 45, 313, 60, 328
-0.999579, 167, 189, 182, 204
-0.999579, 303, 57, 318, 72
-0.99958, 227, 305, 242, 320
-0.99958, 155, 5, 170, 20
-0.99958, 23, 331, 38, 346
-0.99958, 179, 289, 194, 304
-0.999581, 177, 55, 192, 70
-0.999581, 283, 343, 298, 358
-0.999581, 25, 325, 40, 340
-0.999581, 409, 251, 424, 266
-0.999581, 183, 97, 198, 112
-0.999582, 141, 13, 156, 28
-0.999582, 281, 47, 296, 62
-0.999582, 77, 267, 92, 282
-0.999583, 227, 293, 242, 308
-0.999583, 245, 317, 260, 332
-0.999583, 161, 187, 176, 202
-0.999583, 183, 127, 198, 142
-0.999583, 305, 299, 320, 314
-0.999584, 119, 189, 134, 204
-0.999584, 149, 9, 164, 24
-0.999584, 127, 353, 142, 368
-0.999585, 339, 323, 354, 338
-0.999585, 287, 123, 302, 138
-0.999585, 63, 77, 78, 92
-0.999585, 31, 313, 46, 328
-0.999585, 313, 63, 328, 78
-0.999585, 183, 107, 198, 122
-0.999586, 397, 275, 412, 290
-0.999586, 59, 355, 74, 370
-0.999587, 29, 299, 44, 314
-0.999587, 283, 129, 298, 144
-0.999588, 183, 53, 198, 68
-0.999588, 219, 265, 234, 280
-0.999588, 409, 329, 424, 344
-0.999589, 389, 285, 404, 300
-0.999589, 61, 291, 76, 306
-0.999589, 49, 297, 64, 312
-0.99959, 313, 343, 328, 358
-0.99959, 225, 265, 240, 280
-0.99959, 279, 119, 294, 134
-0.999591, 67, 359, 82, 374
-0.999592, 85, 261, 100, 276
-0.999593, 25, 313, 40, 328
-0.999593, 235, 187, 250, 202
-0.999593, 259, 311, 274, 326
-0.999594, 29, 283, 44, 298
-0.999596, 349, 77, 364, 92
-0.999598, 345, 325, 360, 340
-0.999599, 147, 183, 162, 198
-0.9996, 55, 361, 70, 375
-0.999601, 177, 189, 192, 204
-0.999602, 213, 307, 228, 322
-0.999602, 261, 189, 276, 204
-0.999602, 109, 227, 124, 242
-0.999602, 185, 281, 200, 296
-0.999604, 359, 287, 374, 302
-0.999605, 55, 301, 70, 316
-0.999606, 361, 235, 376, 250
-0.999606, 295, 113, 310, 128
-0.999608, 245, 291, 260, 306
-0.999609, 55, 293, 70, 308
-0.999609, 347, 239, 362, 254
-0.999609, 35, 351, 50, 366
-0.999609, 55, 311, 70, 326
-0.999609, 327, 249, 342, 264
-0.99961, 155, 257, 170, 272
-0.99961, 163, 1, 178, 16
-0.99961, 373, 323, 388, 338
-0.999612, 171, 329, 186, 344
-0.999612, 115, 195, 130, 210
-0.999613, 235, 313, 250, 328
-0.999613, 213, 265, 228, 280
-0.999614, 193, 293, 208, 308
-0.999614, 339, 241, 354, 256
-0.999616, 193, 275, 208, 290
-0.999616, 75, 255, 90, 270
-0.999617, 23, 297, 38, 312
-0.999618, 239, 293, 254, 308
-0.999619, 49, 345, 64, 360
-0.99962, 207, 267, 222, 282
-0.99962, 417, 321, 432, 336
-0.999621, 379, 315, 394, 330
-0.999623, 25, 319, 40, 334
-0.999626, 339, 329, 354, 344
-0.999626, 25, 289, 40, 304
-0.999628, 241, 301, 256, 316
-0.99963, 187, 287, 202, 302
-0.999631, 273, 189, 288, 204
-0.999632, 55, 285, 70, 300
-0.999636, 463, 67, 478, 82
-0.999637, 43, 345, 58, 360
-0.99964, 339, 235, 354, 250
-0.999641, 387, 279, 402, 294
-0.999646, 259, 319, 274, 334
-0.99965, 23, 303, 38, 318
-0.99965, 325, 241, 340, 256
-0.99965, 109, 233, 124, 248
-0.999651, 397, 283, 412, 298
-0.999652, 331, 333, 346, 348
-0.999653, 195, 269, 210, 284
-0.999654, 107, 191, 122, 206
-0.999661, 201, 267, 216, 282
-0.999665, 251, 279, 266, 294
-0.999665, 353, 239, 368, 254
-0.999674, 245, 283, 260, 298
-0.999678, 19, 291, 34, 306
-0.999679, 333, 327, 348, 342
-0.999684, 177, 275, 192, 290
-0.999696, 259, 279, 274, 294
-0.999697, 331, 241, 346, 256
-0.999708, 239, 287, 254, 302
-0.999713, 233, 291, 248, 306
-0.999724, 165, 1, 196, 256
-0.99973, 311, 301, 326, 316
-0.999738, 23, 283, 38, 298
-0.999774, 185, 271, 200, 286
-0.999965, 213, 33, 244, 288
-1.00019, 185, 33, 216, 288
-1.00025, 249, 33, 280, 288
-1.00109, 201, 33, 232, 288
-1.00179, 193, 1, 256, 128
-1.00196, 193, 81, 256, 208
-1.00212, 353, 25, 480, 88
