1952
-0.231492, 1, 1, 351, 500
-0.379527, 1, 1, 351, 256
-0.407641, 1, 97, 351, 352
-0.420932, 1, 1, 256, 500
-0.421638, 1, 193, 351, 448
-0.441157, 97, 1, 351, 500
-0.530338, 33, 33, 288, 288
-0.569362, 1, 161, 256, 416
-0.609138, 97, 129, 351, 384
-0.748884, 97, 225, 351, 480
-0.818316, 193, 65, 320, 320
-0.84413, 193, 161, 320, 416
-0.851932, 225, 1, 351, 500
-0.852743, 129, 1, 256, 500
-0.857357, 1, 257, 256, 500
-0.862979, 1, 129, 351, 256
-0.865413, 209, 257, 336, 500
-0.866524, 177, 1, 304, 500
-0.871161, 1, 161, 128, 416
-0.872352, 145, 65, 272, 320
-0.87916, 1, 1, 351, 128
-0.881192, 97, 33, 224, 288
-0.885374, 145, 161, 272, 416
-0.885678, 17, 1, 144, 500
-0.88895, 1, 81, 351, 208
-0.889507, 17, 65, 144, 320
-0.8907, 97, 145, 351, 272
-0.89441, 1, 209, 351, 336
-0.896115, 161, 257, 288, 500
-0.906668, 81, 1, 208, 500
-0.907945, 65, 161, 192, 416
-0.91005, 97, 97, 351, 224
-0.91169, 97, 1, 351, 128
-0.915726, 193, 145, 320, 272
-0.915786, 1, 369, 351, 496
-0.916357, 1, 177, 256, 304
-0.918708, 97, 49, 351, 176
-0.919102, 249, 209, 312, 336
-0.920509, 193, 97, 320, 224
-0.923556, 1, 113, 256, 240
-0.925277, 241, 129, 304, 256
-0.928636, 1, 289, 351, 416
-0.930019, 249, 257, 312, 384
-0.930427, 97, 193, 351, 320
-0.930733, 1, 65, 256, 192
-0.930739, 193, 193, 320, 320
-0.932751, 233, 81, 296, 208
-0.933152, 225, 257, 288, 384
-0.933752, 209, 129, 272, 256
-0.934836, 225, 209, 288, 336
-0.936843, 193, 273, 320, 400
-0.939639, 65, 241, 320, 368
-0.940488, 1, 193, 128, 320
-0.941055, 33, 369, 288, 496
-0.941891, 209, 129, 272, 192
-0.941926, 209, 81, 272, 208
-0.942079, 273, 65, 336, 192
-0.943005, 1, 257, 128, 500
-0.943617, 97, 33, 224, 160
-0.94375, 185, 113, 248, 240
-0.945048, 17, 129, 144, 256
-0.945254, 1, 1, 256, 128
-0.946361, 249, 233, 312, 296
-0.947146, 185, 161, 248, 288
-0.947196, 113, 257, 240, 500
-0.947538, 273, 177, 336, 304
-0.947755, 1, 161, 64, 288
-0.947819, 249, 209, 312, 272
-0.948243, 249, 161, 312, 224
-0.948511, 129, 145, 256, 272
-0.948796, 233, 97, 296, 160
-0.949118, 177, 33, 304, 160
-0.949141, 289, 17, 351, 144
-0.950991, 97, 289, 351, 416
-0.951281, 145, 81, 272, 208
-0.95161, 233, 129, 296, 192
-0.95219, 249, 273, 312, 336
-0.952404, 73, 113, 136, 240
-0.952998, 225, 257, 288, 320
-0.953007, 65, 193, 192, 320
-0.953268, 225, 49, 351, 176
-0.954028, 273, 257, 336, 384
-0.954816, 65, 65, 128, 192
-0.95489, 209, 97, 272, 160
-0.955047, 145, 1, 208, 128
-0.955198, 193, 353, 320, 480
-0.955372, 289, 65, 351, 128
-0.95556, 169, 49, 232, 176
-0.956631, 65, 1, 128, 128
-0.956902, 209, 305, 272, 432
-0.95728, 81, 177, 144, 304
-0.957497, 201, 153, 264, 216
-0.957575, 49, 257, 176, 500
-0.957704, 257, 81, 320, 144
-0.958229, 17, 1, 144, 128
-0.958637, 233, 185, 296, 248
-0.958661, 225, 233, 288, 296
-0.958786, 33, 145, 96, 272
-0.959008, 185, 209, 248, 336
-0.959571, 233, 129, 296, 384
-0.96038, 261, 257, 292, 320
-0.960464, 273, 193, 304, 320
-0.960611, 269, 201, 300, 264
-0.960985, 17, 81, 144, 208
-0.961218, 257, 185, 320, 248
-0.961234, 145, 193, 272, 320
-0.961245, 265, 353, 328, 480
-0.961246, 185, 113, 248, 176
-0.961488, 217, 297, 280, 360
-0.961526, 273, 409, 336, 472
-0.961611, 169, 1, 232, 128
-0.961844, 73, 121, 136, 184
-0.961994, 233, 305, 296, 432
-0.962141, 289, 337, 351, 464
-0.962464, 225, 161, 288, 224
-0.962697, 249, 417, 312, 480
-0.962709, 9, 145, 72, 208
-0.962749, 209, 97, 272, 352
-0.962782, 225, 209, 288, 272
-0.963434, 277, 169, 308, 232
-0.963557, 161, 145, 224, 272
-0.963569, 273, 257, 336, 320
-0.964078, 1, 177, 64, 240
-0.964094, 153, 1, 216, 64
-0.964777, 105, 193, 168, 320
-0.964924, 65, 113, 192, 240
-0.965062, 289, 433, 351, 496
-0.965148, 249, 257, 312, 500
-0.965176, 89, 49, 152, 176
-0.965347, 269, 129, 300, 256
-0.96536, 289, 41, 351, 104
-0.965415, 193, 193, 256, 256
-0.96542, 257, 225, 288, 352
-0.965425, 257, 97, 320, 352
-0.965607, 169, 25, 232, 88
-0.965844, 145, 241, 272, 368
-0.965862, 89, 201, 152, 264
-0.96594, 177, 145, 240, 208
-0.96619, 217, 433, 280, 496
-0.9663, 225, 257, 288, 500
-0.966381, 225, 1, 351, 128
-0.966597, 1, 113, 64, 240
-0.966778, 193, 153, 320, 216
-0.966807, 265, 129, 328, 256
-0.966933, 233, 33, 296, 160
-0.966982, 41, 97, 104, 224
-0.967226, 193, 369, 256, 496
-0.967439, 73, 97, 136, 160
-0.967453, 57, 161, 120, 288
-0.967556, 185, 97, 248, 352
-0.967764, 177, 97, 304, 160
-0.967949, 277, 225, 308, 288
-0.968047, 321, 1, 351, 128
-0.968101, 9, 209, 72, 336
-0.968163, 225, 321, 288, 384
-0.968228, 73, 49, 136, 112
-0.968239, 193, 33, 256, 160
-0.968251, 73, 65, 136, 320
-0.968326, 281, 177, 344, 240
-0.968523, 129, 177, 192, 304
-0.968681, 217, 97, 248, 224
-0.969243, 317, 1, 348, 64
-0.969312, 273, 225, 336, 288
-0.969335, 225, 417, 351, 480
-0.969573, 145, 369, 272, 496
-0.969604, 285, 177, 316, 304
-0.969674, 269, 241, 300, 368
-0.969697, 41, 49, 104, 176
-0.969991, 249, 297, 312, 360
-0.9702, 1, 201, 64, 264
-0.970471, 265, 153, 296, 216
-0.970594, 209, 209, 336, 272
-0.970599, 185, 217, 248, 280
-0.970666, 193, 121, 320, 184
-0.970707, 273, 121, 336, 184
-0.970784, 5, 169, 36, 232
-0.970977, 65, 217, 128, 280
-0.971017, 233, 33, 296, 288
-0.971031, 217, 105, 248, 168
-0.97126, 265, 233, 296, 296
-0.971265, 281, 113, 312, 240
-0.971303, 1, 161, 32, 288
-0.971575, 221, 145, 252, 272
-0.971655, 185, 89, 248, 152
-0.971746, 281, 89, 344, 152
-0.971767, 261, 81, 292, 208
-0.971864, 253, 233, 284, 296
-0.971991, 129, 1, 192, 64
-0.972147, 193, 177, 320, 240
-0.972228, 177, 425, 240, 488
-0.97226, 281, 65, 312, 192
-0.972377, 145, 33, 208, 96
-0.972487, 273, 265, 304, 328
-0.972667, 233, 137, 264, 200
-0.972859, 49, 193, 112, 256
-0.972891, 85, 65, 116, 192
-0.972909, 253, 289, 284, 352
-0.972955, 65, 25, 128, 88
-0.972992, 177, 169, 240, 232
-0.973177, 169, 1, 232, 256
-0.973702, 161, 97, 224, 224
-0.973717, 261, 177, 292, 304
-0.973727, 41, 145, 104, 208
-0.973814, 1, 241, 128, 368
-0.973842, 277, 81, 308, 144
-0.973847, 185, 257, 248, 384
-0.973889, 265, 17, 328, 144
-0.973891, 281, 201, 344, 264
-0.973893, 93, 57, 124, 120
-0.974094, 233, 113, 264, 240
-0.974105, 309, 1, 340, 128
-0.974224, 93, 17, 124, 144
-0.974239, 241, 353, 304, 480
-0.974535, 145, 49, 208, 176
-0.974549, 257, 273, 288, 400
-0.974651, 209, 241, 336, 304
-0.974713, 249, 265, 280, 328
-0.974747, 85, 97, 116, 160
-0.974876, 85, 113, 116, 240
-0.975085, 313, 25, 344, 88
-0.975155, 265, 49, 328, 112
-0.97519, 289, 193, 320, 256
-0.97519, 225, 97, 351, 160
-0.975271, 257, 105, 288, 168
-0.975327, 297, 409, 328, 472
-0.975447, 305, 65, 336, 128
-0.975542, 1, 193, 128, 256
-0.975651, 137, 193, 200, 256
-0.975662, 209, 265, 336, 328
-0.975734, 177, 57, 240, 120
-0.975734, 249, 393, 312, 456
-0.975781, 17, 129, 80, 384
-0.975808, 97, 177, 160, 240
-0.975972, 249, 129, 280, 256
-0.975995, 217, 353, 280, 480
-0.976016, 1, 193, 32, 256
-0.976126, 97, 113, 160, 240
-0.976161, 25, 201, 88, 264
-0.976257, 49, 121, 112, 184
-0.976358, 105, 9, 168, 72
-0.976423, 225, 73, 288, 136
-0.976428, 193, 73, 320, 136
-0.976549, 241, 177, 272, 304
-0.976618, 281, 257, 312, 384
-0.976681, 33, 193, 96, 320
-0.976744, 289, 33, 351, 288
-0.976766, 193, 289, 320, 352
-0.976807, 49, 97, 112, 352
-0.976833, 217, 129, 248, 192
-0.97684, 205, 113, 236, 240
-0.977049, 65, 217, 192, 280
-0.977096, 221, 161, 252, 224
-0.977244, 297, 33, 328, 160
-0.977304, 65, 73, 128, 136
-0.977419, 73, 177, 136, 240
-0.977498, 93, 25, 124, 88
-0.977507, 281, 193, 344, 448
-0.977603, 13, 161, 44, 288
-0.977607, 113, 1, 176, 128
-0.977654, 25, 177, 88, 240
-0.977666, 129, 201, 256, 264
-0.977732, 113, 217, 176, 280
-0.977829, 1, 225, 32, 352
-0.977858, 49, 433, 112, 496
-0.977864, 9, 225, 72, 288
-0.97799, 137, 129, 200, 256
-0.978035, 165, 9, 196, 72
-0.978107, 205, 137, 236, 200
-0.978135, 1, 289, 256, 416
-0.978182, 245, 257, 276, 384
-0.978269, 237, 97, 268, 160
-0.97831, 289, 9, 351, 72
-0.978332, 185, 193, 248, 448
-0.978438, 169, 369, 232, 496
-0.978624, 265, 305, 328, 432
-0.978626, 73, 49, 104, 176
-0.978692, 161, 193, 224, 320
-0.978829, 193, 65, 224, 192
-0.978928, 17, 417, 80, 480
-0.978951, 245, 121, 276, 184
-0.978965, 285, 265, 316, 328
-0.978996, 209, 161, 240, 288
-0.97904, 13, 145, 44, 208
-0.979105, 265, 177, 296, 240
-0.979125, 193, 401, 256, 464
-0.979202, 317, 57, 348, 120
-0.979371, 1, 153, 128, 216
-0.979384, 1, 241, 128, 304
-0.979387, 257, 201, 288, 264
-0.979393, 81, 121, 112, 184
-0.979403, 81, 9, 208, 72
-0.979466, 169, 193, 232, 256
-0.979602, 153, 57, 216, 120
-0.979621, 281, 1, 344, 500
-0.979771, 145, 1, 208, 256
-0.979832, 193, 1, 256, 256
-0.979866, 129, 177, 256, 240
-0.979904, 145, 289, 272, 416
-0.979943, 161, 225, 288, 288
-0.980048, 225, 1, 288, 500
-0.980103, 273, 129, 304, 192
-0.980146, 81, 49, 208, 112
-0.98015, 1, 257, 64, 384
-0.980182, 57, 1, 120, 64
-0.980214, 177, 241, 240, 304
-0.980258, 153, 1, 184, 64
-0.980388, 165, 1, 196, 128
-0.980473, 1, 217, 128, 280
-0.980493, 233, 65, 264, 192
-0.980558, 89, 1, 152, 128
-0.980598, 185, 129, 216, 256
-0.980713, 269, 289, 300, 416
-0.980835, 49, 97, 112, 160
-0.980893, 177, 425, 304, 488
-0.980897, 185, 129, 216, 192
-0.981017, 253, 169, 284, 232
-0.981037, 181, 81, 212, 208
-0.981094, 273, 337, 304, 464
-0.981127, 73, 241, 136, 304
-0.98113, 249, 337, 312, 400
-0.98116, 265, 289, 296, 352
-0.981173, 81, 1, 112, 128
-0.981208, 209, 353, 240, 480
-0.981209, 81, 161, 144, 416
-0.981274, 145, 153, 272, 216
-0.981375, 225, 49, 351, 112
-0.98151, 197, 113, 228, 176
-0.981518, 49, 185, 176, 248
-0.981531, 293, 49, 324, 112
-0.981564, 9, 217, 40, 280
-0.981598, 289, 113, 351, 240
-0.981599, 205, 185, 236, 248
-0.981667, 69, 113, 100, 240
-0.981725, 85, 1, 116, 64
-0.981775, 225, 433, 256, 496
-0.98178, 145, 121, 272, 184
-0.981897, 81, 73, 112, 136
-0.981898, 157, 33, 188, 96
-0.982059, 309, 49, 340, 176
-0.982107, 289, 241, 320, 304
-0.982159, 109, 193, 140, 320
-0.982177, 21, 185, 52, 248
-0.982337, 73, 97, 104, 160
-0.982361, 245, 81, 276, 208
-0.982369, 289, 169, 320, 232
-0.982435, 161, 249, 288, 312
-0.982548, 193, 25, 256, 88
-0.982567, 97, 65, 128, 192
-0.982577, 265, 81, 296, 144
-0.982671, 281, 409, 312, 472
-0.982752, 97, 33, 160, 96
-0.982762, 89, 161, 120, 288
-0.982782, 197, 17, 228, 144
-0.982829, 225, 25, 351, 88
-0.982863, 273, 153, 336, 216
-0.982917, 121, 201, 152, 264
-0.982969, 233, 241, 264, 368
-0.982988, 249, 1, 312, 500
-0.983005, 177, 41, 304, 104
-0.983038, 73, 193, 104, 320
-0.983043, 1, 289, 128, 416
-0.983056, 17, 369, 80, 496
-0.983058, 261, 337, 292, 464
-0.98307, 81, 25, 112, 88
-0.983145, 57, 209, 120, 336
-0.983199, 241, 289, 272, 352
-0.983208, 209, 337, 336, 400
-0.983211, 77, 49, 108, 112
-0.983251, 281, 321, 344, 384
-0.983261, 229, 193, 260, 320
-0.983285, 297, 177, 328, 304
-0.983311, 193, 73, 224, 136
-0.983381, 97, 73, 224, 136
-0.983418, 169, 1, 232, 500
-0.983455, 1, 113, 32, 240
-0.983488, 49, 1, 112, 256
-0.983507, 105, 193, 136, 256
-0.98352, 241, 209, 272, 272
-0.983557, 197, 161, 228, 288
-0.983612, 177, 393, 304, 456
-0.983621, 25, 129, 56, 256
-0.983644, 209, 161, 240, 224
-0.983685, 225, 409, 288, 472
-0.983701, 309, 417, 340, 480
-0.983779, 201, 337, 264, 400
-0.98388, 201, 265, 264, 328
-0.9839, 97, 113, 128, 240
-0.983916, 17, 121, 144, 184
-0.984023, 153, 1, 184, 128
-0.984084, 97, 241, 224, 368
-0.984136, 177, 305, 240, 432
-0.984184, 81, 145, 144, 208
-0.98419, 9, 265, 72, 328
-0.984217, 165, 49, 196, 176
-0.98422, 161, 89, 224, 152
-0.984345, 65, 193, 96, 256
-0.9844, 1, 241, 32, 304
-0.984455, 77, 193, 108, 256
-0.984457, 121, 193, 152, 320
-0.984495, 1, 369, 128, 496
-0.984498, 161, 121, 224, 184
-0.98456, 97, 89, 160, 152
-0.984586, 237, 425, 268, 488
-0.984593, 217, 305, 248, 432
-0.9846, 193, 201, 224, 264
-0.984602, 293, 89, 324, 152
-0.984609, 265, 25, 328, 88
-0.984672, 185, 297, 248, 360
-0.984689, 93, 121, 124, 184
-0.98473, 201, 1, 264, 500
-0.98479, 97, 97, 128, 160
-0.984797, 321, 65, 351, 192
-0.984902, 285, 113, 316, 176
-0.984945, 13, 113, 44, 240
-0.985047, 25, 145, 56, 208
-0.985077, 177, 1, 240, 64
-0.985087, 293, 353, 324, 480
-0.985115, 273, 281, 336, 344
-0.985141, 69, 121, 100, 184
-0.985198, 65, 241, 192, 304
-0.985221, 293, 81, 324, 208
-0.985336, 113, 97, 240, 160
-0.985342, 145, 17, 272, 80
-0.985347, 185, 105, 216, 168
-0.985391, 129, 425, 256, 488
-0.985402, 113, 97, 176, 352
-0.985416, 69, 225, 100, 288
-0.98543, 33, 433, 160, 496
-0.985527, 109, 169, 140, 232
-0.985557, 49, 369, 176, 496
-0.98558, 49, 169, 112, 232
-0.985621, 1, 145, 32, 208
-0.985689, 93, 209, 124, 272
-0.985716, 233, 257, 264, 320
-0.985732, 161, 97, 224, 352
-0.985832, 41, 225, 104, 288
-0.985842, 257, 1, 320, 256
-0.985926, 197, 369, 228, 496
-0.985973, 177, 1, 208, 128
-0.986026, 25, 121, 88, 184
-0.986104, 189, 153, 220, 216
-0.986137, 49, 49, 112, 112
-0.986184, 249, 425, 280, 488
-0.986237, 297, 433, 328, 496
-0.986241, 37, 145, 68, 272
-0.986254, 177, 313, 304, 376
-0.986267, 317, 337, 348, 464
-0.986292, 5, 273, 36, 400
-0.986297, 1, 265, 128, 328
-0.986409, 233, 313, 264, 376
-0.98641, 65, 161, 192, 224
-0.98643, 277, 17, 308, 144
-0.986448, 97, 137, 224, 200
-0.98653, 321, 409, 351, 472
-0.986565, 105, 129, 168, 192
-0.986575, 261, 33, 292, 160
-0.986691, 41, 1, 104, 128
-0.986713, 217, 209, 248, 272
-0.986794, 1, 281, 32, 344
-0.986802, 269, 417, 300, 480
-0.986863, 137, 1, 200, 500
-0.986869, 177, 33, 208, 96
-0.986871, 17, 49, 144, 112
-0.986883, 81, 217, 112, 280
-0.986901, 241, 185, 272, 248
-0.986934, 17, 25, 144, 88
-0.987047, 177, 321, 240, 384
-0.987076, 305, 353, 336, 480
-0.987111, 121, 33, 184, 96
-0.987179, 137, 217, 200, 280
-0.987219, 49, 193, 112, 448
-0.987247, 89, 185, 120, 248
-0.987266, 289, 217, 320, 280
-0.987324, 65, 113, 192, 176
-0.987352, 17, 209, 48, 336
-0.987374, 37, 161, 68, 224
-0.987376, 17, 241, 48, 304
-0.987419, 161, 241, 224, 368
-0.987428, 113, 145, 144, 272
-0.987474, 97, 249, 160, 312
-0.987494, 321, 433, 351, 496
-0.987662, 177, 9, 208, 72
-0.987726, 97, 1, 160, 256
-0.987727, 145, 65, 272, 128
-0.987759, 121, 1, 184, 256
-0.987764, 161, 193, 224, 448
-0.98781, 161, 217, 224, 280
-0.98782, 257, 225, 320, 256
-0.987894, 121, 177, 152, 240
-0.987971, 81, 1, 144, 500
-0.987984, 105, 33, 136, 96
-0.987993, 201, 361, 264, 424
-0.98802, 65, 73, 96, 136
-0.988054, 225, 1, 351, 64
-0.988097, 249, 265, 312, 296
-0.988145, 113, 225, 240, 288
-0.988156, 53, 201, 84, 264
-0.988334, 257, 237, 320, 268
-0.988443, 153, 145, 216, 208
-0.988443, 153, 169, 216, 232
-0.988553, 153, 249, 216, 312
-0.988559, 249, 213, 312, 244
-0.988566, 97, 1, 128, 64
-0.988568, 213, 337, 244, 400
-0.98859, 281, 57, 312, 120
-0.988636, 41, 25, 104, 88
-0.988663, 169, 57, 200, 120
-0.98869, 321, 81, 351, 144
-0.988721, 233, 141, 296, 172
-0.988733, 45, 433, 76, 496
-0.988739, 261, 129, 292, 192
-0.988784, 249, 165, 312, 196
-0.988786, 205, 369, 236, 432
-0.988853, 257, 89, 320, 120
-0.988867, 229, 289, 260, 416
-0.988868, 237, 233, 268, 296
-0.988959, 289, 385, 351, 448
-0.989003, 241, 277, 304, 308
-0.989055, 233, 49, 296, 112
-0.989063, 281, 353, 344, 416
-0.98908, 249, 321, 280, 384
-0.989123, 17, 81, 144, 144
-0.989127, 249, 249, 312, 280
-0.989169, 209, 141, 272, 172
-0.989197, 217, 101, 280, 132
-0.989201, 97, 105, 351, 168
-0.989202, 49, 145, 80, 272
-0.989261, 285, 433, 316, 496
-0.989262, 97, 9, 351, 72
-0.989275, 201, 157, 264, 188
-0.989296, 217, 81, 248, 144
-0.989313, 1, 305, 64, 432
-0.989324, 229, 193, 260, 256
-0.989335, 233, 121, 296, 152
-0.989344, 249, 425, 312, 456
-0.989356, 69, 1, 100, 128
-0.98938, 85, 145, 116, 208
-0.989394, 233, 225, 296, 256
-0.989401, 201, 125, 264, 156
-0.98941, 133, 217, 164, 280
-0.989448, 201, 241, 264, 304
-0.989474, 249, 201, 312, 232
-0.989489, 185, 145, 248, 176
-0.989588, 97, 169, 351, 232
-0.98962, 1, 1, 128, 64
-0.989652, 225, 265, 288, 296
-0.989655, 273, 421, 336, 452
-0.989744, 289, 73, 351, 104
-0.989747, 225, 213, 288, 244
-0.989775, 241, 101, 304, 132
-0.989785, 221, 241, 252, 368
-0.989801, 49, 241, 176, 368
-0.98982, 173, 177, 204, 304
-0.989862, 297, 129, 328, 256
-0.989878, 97, 57, 160, 120
-0.98989, 1, 409, 128, 472
-0.989908, 1, 257, 64, 500
-0.989908, 257, 177, 320, 208
-0.989919, 233, 153, 296, 184
-0.989922, 193, 105, 256, 136
-0.989959, 17, 1, 80, 64
-0.989996, 1, 1, 64, 500
-0.990016, 121, 225, 152, 288
-0.99002, 273, 193, 336, 224
-0.990021, 121, 241, 184, 304
-0.990041, 109, 217, 140, 280
-0.990046, 249, 289, 312, 320
-0.990076, 217, 185, 248, 248
-0.990081, 145, 289, 272, 352
-0.9901, 201, 49, 264, 112
-0.990107, 129, 169, 192, 232
-0.990117, 281, 117, 344, 148
-0.99014, 181, 57, 212, 120
-0.990207, 153, 37, 216, 68
-0.990215, 245, 73, 276, 136
-0.990229, 233, 189, 296, 220
-0.990231, 193, 33, 224, 96
-0.990245, 249, 321, 280, 448
-0.990249, 273, 205, 336, 236
-0.990251, 97, 337, 224, 464
-0.990256, 1, 205, 64, 236
-0.990264, 213, 433, 244, 496
-0.990279, 97, 213, 160, 244
-0.990292, 225, 253, 288, 284
-0.990305, 109, 249, 140, 312
-0.990315, 193, 209, 256, 240
-0.990385, 73, 109, 136, 140
-0.99039, 9, 161, 72, 192
-0.990394, 177, 157, 240, 188
-0.990402, 33, 129, 288, 192
-0.990414, 197, 209, 228, 336
-0.990416, 65, 49, 128, 80
-0.990416, 185, 193, 216, 320
-0.990442, 185, 437, 248, 468
-0.990449, 217, 277, 280, 308
-0.990468, 233, 237, 296, 268
-0.990482, 269, 393, 300, 456
-0.990497, 193, 169, 256, 200
-0.990519, 209, 225, 272, 256
-0.990542, 209, 321, 272, 352
-0.990549, 217, 289, 280, 320
-0.990568, 177, 369, 304, 432
-0.990611, 81, 1, 144, 64
-0.990611, 209, 441, 272, 472
-0.990648, 257, 153, 320, 184
-0.990661, 177, 449, 240, 480
-0.990675, 17, 1, 80, 128
-0.990708, 65, 133, 128, 164
-0.99071, 181, 81, 212, 144
-0.990713, 225, 201, 288, 232
-0.990714, 73, 121, 136, 152
-0.990723, 273, 269, 336, 300
-0.990742, 65, 217, 320, 280
-0.990749, 129, 41, 256, 104
-0.990758, 137, 5, 200, 36
-0.990768, 273, 281, 336, 312
-0.990777, 209, 209, 240, 336
-0.99078, 9, 193, 72, 224
-0.990787, 261, 57, 292, 120
-0.990803, 73, 61, 136, 92
-0.990806, 201, 393, 232, 456
-0.990825, 65, 241, 128, 272
-0.990837, 113, 249, 240, 312
-0.990841, 205, 289, 236, 416
-0.990842, 233, 301, 296, 332
-0.990852, 1, 289, 64, 352
-0.990865, 213, 289, 244, 352
-0.990866, 225, 165, 288, 196
-0.990878, 61, 193, 92, 320
-0.990887, 169, 9, 232, 40
-0.990963, 225, 333, 288, 364
-0.990981, 65, 193, 320, 256
-0.990982, 73, 97, 136, 128
-0.991001, 273, 437, 336, 468
-0.991012, 153, 25, 216, 56
-0.991073, 193, 197, 256, 228
-0.991078, 273, 129, 336, 160
-0.99108, 209, 301, 272, 332
-0.991083, 57, 201, 120, 232
-0.991085, 49, 193, 80, 320
-0.99109, 169, 169, 232, 200
-0.991093, 153, 433, 216, 496
-0.991101, 281, 61, 344, 92
-0.991119, 97, 81, 351, 144
-0.991145, 225, 429, 288, 460
-0.991182, 1, 225, 64, 256
-0.991202, 129, 401, 256, 464
-0.991213, 161, 49, 224, 80
-0.991229, 1, 121, 64, 184
-0.991255, 49, 249, 112, 312
-0.991257, 281, 257, 344, 288
-0.991258, 65, 85, 128, 116
-0.991264, 57, 1, 120, 500
-0.991314, 281, 233, 344, 264
-0.991332, 321, 273, 351, 400
-0.991335, 177, 265, 240, 328
-0.991335, 169, 101, 232, 132
-0.991335, 9, 149, 72, 180
-0.991344, 97, 209, 128, 336
-0.991379, 49, 461, 112, 492
-0.991387, 177, 133, 240, 164
-0.991393, 73, 37, 136, 68
-0.991403, 289, 105, 351, 136
-0.991416, 1, 173, 64, 204
-0.99143, 213, 49, 244, 176
-0.991439, 265, 1, 328, 64
-0.991451, 65, 73, 128, 104
-0.991455, 265, 101, 328, 132
-0.991457, 185, 221, 248, 252
-0.991459, 73, 221, 136, 252
-0.991477, 257, 113, 320, 144
-0.991508, 281, 245, 344, 276
-0.99151, 209, 457, 272, 488
-0.991515, 185, 89, 248, 120
-0.991531, 281, 85, 344, 116
-0.991533, 41, 145, 104, 176
-0.991538, 33, 209, 96, 240
-0.991549, 49, 113, 112, 144
-0.991566, 265, 49, 328, 80
-0.991571, 225, 89, 288, 120
-0.991576, 25, 469, 88, 500
-0.991587, 61, 65, 92, 192
-0.991629, 17, 437, 80, 468
-0.991636, 201, 181, 264, 212
-0.991638, 209, 1, 272, 64
-0.991641, 177, 369, 240, 432
-0.991647, 1, 237, 64, 268
-0.991652, 177, 121, 240, 152
-0.991652, 137, 97, 200, 352
-0.991666, 289, 21, 351, 52
-0.991671, 113, 37, 176, 68
-0.991675, 281, 221, 344, 252
-0.991692, 41, 157, 104, 188
-0.991694, 289, 37, 351, 68
-0.991709, 281, 181, 312, 212
-0.991716, 161, 189, 224, 220
-0.991719, 281, 177, 344, 208
-0.991755, 1, 453, 64, 484
-0.991764, 193, 425, 256, 456
-0.991785, 81, 193, 144, 224
-0.9918, 291, 169, 306, 232
-0.991805, 33, 449, 96, 480
-0.991805, 1, 193, 351, 256
-0.991808, 289, 49, 351, 80
-0.991813, 1, 25, 351, 88
-0.991815, 289, 457, 351, 488
-0.991826, 81, 145, 144, 176
-0.991831, 269, 225, 300, 256
-0.991855, 177, 29, 240, 60
-0.991855, 49, 97, 112, 128
-0.991857, 273, 213, 304, 244
-0.99188, 89, 49, 152, 80
-0.991889, 25, 221, 88, 252
-0.991902, 265, 141, 328, 172
-0.99191, 41, 73, 104, 136
-0.991913, 89, 241, 152, 272
-0.991921, 269, 265, 300, 296
-0.991923, 97, 49, 351, 112
-0.991948, 1, 9, 256, 72
-0.991955, 129, 197, 192, 228
-0.991963, 185, 257, 248, 288
-0.991969, 1, 145, 351, 208
-0.991977, 273, 201, 304, 232
-0.991988, 169, 461, 232, 492
-0.992007, 41, 233, 104, 264
-0.992038, 257, 269, 288, 300
-0.992045, 113, 25, 176, 56
-0.992049, 65, 253, 128, 284
-0.99206, 1, 33, 64, 288
-0.992083, 173, 129, 204, 256
-0.992099, 257, 285, 288, 316
-0.992104, 29, 193, 60, 320
-0.992121, 217, 105, 248, 136
-0.992121, 281, 85, 312, 116
-0.992142, 33, 257, 96, 384
-0.992146, 267, 257, 282, 320
-0.992169, 277, 237, 308, 268
-0.99223, 225, 313, 351, 376
-0.992237, 261, 153, 292, 184
-0.992241, 1, 249, 351, 312
-0.99227, 321, 5, 351, 36
-0.992302, 257, 225, 288, 256
-0.992315, 265, 245, 296, 276
-0.992317, 273, 249, 288, 312
-0.99233, 265, 225, 280, 288
-0.992332, 269, 285, 300, 316
-0.992337, 5, 193, 36, 224
-0.99234, 261, 213, 292, 244
-0.992391, 205, 161, 236, 192
-0.992398, 1, 181, 32, 212
-0.992404, 289, 209, 304, 272
-0.992409, 285, 193, 316, 224
-0.992431, 1, 425, 256, 488
-0.992438, 133, 177, 164, 304
-0.992445, 217, 141, 248, 172
-0.992458, 93, 61, 124, 92
-0.992465, 283, 241, 298, 304
-0.992469, 113, 353, 240, 416
-0.992473, 233, 121, 264, 152
-0.992478, 281, 225, 312, 256
-0.992489, 285, 169, 300, 232
-0.992517, 157, 1, 188, 32
-0.992522, 129, 329, 256, 392
-0.992531, 277, 249, 308, 280
-0.992544, 273, 169, 304, 200
-0.992554, 281, 265, 312, 296
-0.992563, 309, 45, 340, 76
-0.992566, 5, 221, 36, 252
-0.992581, 1, 209, 32, 240
-0.992585, 1, 121, 351, 184
-0.992589, 293, 421, 324, 452
-0.992591, 85, 109, 116, 140
-0.992599, 93, 49, 124, 80
-0.992605, 257, 257, 288, 288
-0.992609, 81, 121, 112, 152
-0.992628, 157, 45, 188, 76
-0.99263, 13, 169, 44, 200
-0.992639, 93, 73, 124, 104
-0.992645, 1, 169, 32, 200
-0.992647, 273, 421, 304, 452
-0.992654, 261, 201, 292, 232
-0.99267, 5, 237, 36, 268
-0.992673, 285, 205, 316, 236
-0.992689, 317, 21, 348, 52
-0.992697, 221, 441, 252, 472
-0.992699, 253, 301, 284, 332
-0.99271, 81, 97, 112, 128
-0.992713, 209, 221, 336, 252
-0.992716, 281, 277, 312, 308
-0.992725, 1, 33, 256, 96
-0.992726, 309, 57, 340, 88
-0.99273, 29, 369, 60, 496
-0.992731, 245, 101, 276, 132
-0.992733, 245, 289, 276, 320
-0.992734, 81, 61, 112, 92
-0.992734, 93, 89, 124, 120
-0.992735, 77, 85, 108, 116
-0.992735, 279, 217, 294, 280
-0.992736, 189, 145, 220, 176
-0.992738, 129, 137, 192, 200
-0.992744, 313, 33, 344, 64
-0.992751, 1, 353, 64, 416
-0.992755, 85, 37, 116, 68
-0.992767, 241, 145, 272, 176
-0.992778, 273, 97, 304, 128
-0.99278, 193, 161, 320, 192
-0.992784, 177, 49, 208, 80
-0.992791, 81, 225, 144, 352
-0.992797, 221, 453, 252, 484
-0.992806, 273, 153, 304, 184
-0.992813, 229, 133, 260, 164
-0.992814, 49, 369, 112, 496
-0.992826, 279, 185, 294, 248
-0.992829, 157, 33, 188, 64
-0.992837, 77, 73, 108, 104
-0.992838, 253, 245, 284, 276
-0.992846, 269, 189, 300, 220
-0.992848, 73, 109, 104, 140
-0.992849, 257, 425, 288, 456
-0.992854, 21, 153, 52, 184
-0.992858, 305, 69, 336, 100
-0.992862, 293, 441, 324, 472
-0.992866, 93, 121, 124, 152
-0.992868, 97, 25, 128, 56
-0.992869, 17, 185, 48, 216
-0.992884, 201, 149, 232, 180
-0.992885, 85, 133, 116, 164
-0.992895, 265, 109, 296, 140
-0.992896, 289, 237, 320, 268
-0.992897, 249, 133, 280, 164
-0.992903, 297, 189, 328, 220
-0.992904, 193, 101, 320, 132
-0.992914, 233, 317, 264, 348
-0.992925, 217, 129, 248, 160
-0.992926, 277, 133, 308, 164
-0.99293, 69, 121, 100, 152
-0.992932, 257, 121, 288, 152
-0.992932, 1, 293, 32, 324
-0.992934, 261, 165, 292, 196
-0.992937, 65, 241, 96, 272
-0.992946, 217, 153, 248, 184
-0.99295, 245, 273, 276, 304
-0.992952, 81, 49, 112, 80
-0.992953, 321, 73, 351, 104
-0.992955, 197, 93, 228, 124
-0.992959, 237, 433, 268, 464
-0.992961, 229, 369, 260, 496
-0.992962, 117, 241, 148, 272
-0.992963, 225, 165, 256, 196
-0.992966, 157, 21, 188, 52
-0.992967, 85, 25, 116, 56
-0.992976, 125, 213, 156, 244
-0.992991, 229, 153, 260, 184
-0.992994, 73, 225, 104, 256
-0.992995, 69, 201, 100, 232
-0.992996, 197, 133, 228, 164
-0.993, 97, 37, 128, 68
-0.993, 97, 101, 128, 132
-0.993002, 105, 249, 136, 280
-0.993009, 17, 205, 48, 236
-0.993015, 217, 117, 248, 148
-0.993017, 205, 197, 236, 228
-0.993018, 185, 101, 216, 132
-0.993029, 285, 169, 316, 200
-0.993029, 1, 249, 32, 280
-0.99304, 289, 253, 320, 284
-0.99304, 313, 429, 344, 460
-0.993052, 73, 133, 104, 164
-0.993054, 173, 33, 204, 64
-0.993058, 265, 141, 296, 172
-0.99306, 37, 145, 68, 176
-0.993081, 265, 297, 296, 328
-0.993083, 217, 177, 248, 208
-0.993093, 309, 449, 340, 480
-0.993096, 113, 205, 144, 236
-0.9931, 193, 69, 224, 100
-0.993106, 221, 205, 252, 236
-0.993108, 189, 157, 220, 188
-0.99311, 221, 217, 252, 248
-0.993111, 5, 145, 36, 176
-0.993113, 41, 469, 72, 500
-0.993215, 261, 257, 276, 320
-0.993216, 1, 1, 351, 64
-0.993225, 97, 425, 351, 488
-0.993262, 225, 393, 351, 456
-0.993267, 105, 1, 168, 500
-0.993288, 249, 369, 280, 496
-0.993327, 1, 217, 351, 280
-0.993328, 209, 209, 336, 240
-0.993346, 1, 433, 351, 496
-0.993392, 1, 169, 351, 232
-0.993413, 1, 161, 256, 224
-0.993425, 169, 1, 184, 64
-0.993476, 271, 217, 286, 280
-0.993482, 193, 149, 320, 180
-0.993565, 129, 225, 192, 352
-0.99357, 5, 169, 20, 232
-0.993572, 1, 89, 351, 152
-0.993645, 209, 433, 336, 464
-0.993655, 209, 1, 240, 128
-0.99382, 193, 133, 320, 164
-0.993854, 105, 193, 168, 448
-0.993879, 293, 225, 324, 352
-0.993894, 95, 49, 110, 112
-0.993921, 91, 97, 106, 160
-0.993925, 85, 209, 116, 336
-0.993959, 101, 1, 116, 64
-0.993966, 97, 241, 351, 304
-0.993971, 273, 193, 288, 256
-0.993989, 329, 1, 344, 64
-0.993992, 259, 225, 274, 288
-0.993995, 297, 185, 312, 248
-0.994005, 289, 233, 304, 296
-0.994009, 33, 401, 288, 464
-0.99404, 209, 241, 336, 272
-0.99405, 279, 265, 294, 328
-0.994061, 275, 153, 290, 216
-0.994069, 281, 129, 296, 192
-0.994079, 193, 321, 224, 448
-0.994087, 1, 205, 128, 236
-0.994116, 235, 121, 250, 184
-0.994132, 1, 49, 351, 112
-0.994135, 323, 1, 338, 64
-0.994144, 265, 281, 280, 344
-0.994191, 1, 241, 256, 304
-0.994195, 1, 105, 256, 168
-0.994249, 193, 121, 320, 152
-0.994257, 209, 181, 336, 212
-0.994355, 25, 33, 88, 288
-0.99437, 81, 433, 208, 496
-0.994391, 3, 209, 18, 272
-0.99442, 25, 1, 88, 500
-0.994422, 1, 289, 128, 352
-0.99446, 219, 97, 234, 160
-0.99447, 15, 161, 30, 224
-0.994482, 209, 273, 336, 304
-0.994486, 85, 89, 100, 152
-0.994488, 273, 273, 288, 336
-0.994492, 255, 289, 270, 352
-0.9945, 225, 445, 351, 476
-0.994533, 191, 105, 206, 168
-0.994538, 209, 197, 336, 228
-0.994541, 99, 25, 114, 88
-0.994546, 269, 145, 284, 208
-0.994562, 93, 73, 108, 136
-0.994589, 169, 25, 184, 88
-0.994594, 161, 193, 192, 320
-0.994598, 297, 81, 312, 144
-0.994618, 1, 81, 256, 144
-0.99462, 307, 409, 322, 472
-0.994632, 275, 129, 290, 192
-0.994636, 209, 145, 224, 208
-0.99467, 329, 65, 344, 128
-0.994684, 193, 293, 320, 324
-0.994684, 97, 377, 224, 440
-0.994688, 297, 409, 312, 472
-0.994697, 1, 57, 256, 120
-0.994702, 291, 81, 306, 144
-0.994775, 81, 53, 208, 84
-0.99478, 227, 137, 242, 200
-0.994845, 33, 385, 160, 448
-0.994877, 225, 425, 240, 488
-0.994886, 105, 17, 136, 144
-0.994924, 129, 205, 256, 236
-0.994961, 19, 185, 34, 248
-0.994969, 231, 97, 246, 160
-0.994971, 255, 257, 270, 320
-0.994983, 81, 113, 96, 176
-0.994986, 103, 57, 118, 120
-0.995004, 241, 113, 256, 176
-0.995005, 287, 265, 302, 328
-0.995016, 265, 201, 280, 264
-0.995025, 307, 57, 322, 120
-0.995047, 269, 161, 300, 416
-0.99505, 337, 9, 351, 72
-0.995095, 99, 81, 114, 144
-0.995097, 97, 41, 224, 72
-0.995168, 49, 217, 176, 248
-0.995183, 25, 225, 88, 480
-0.995191, 9, 209, 24, 272
-0.995228, 223, 161, 238, 224
-0.995248, 17, 289, 48, 416
-0.995249, 313, 25, 328, 88
-0.995258, 145, 177, 176, 304
-0.995307, 279, 81, 294, 144
-0.995317, 237, 145, 252, 208
-0.995331, 213, 97, 244, 352
-0.995337, 87, 121, 102, 184
-0.995339, 81, 409, 208, 472
-0.995356, 289, 305, 320, 432
-0.995358, 245, 33, 276, 160
-0.995362, 193, 89, 320, 120
-0.995376, 145, 441, 272, 472
-0.995392, 105, 33, 120, 96
-0.995392, 209, 261, 336, 292
-0.995412, 161, 225, 288, 256
-0.99545, 291, 409, 306, 472
-0.995459, 11, 249, 26, 312
-0.995498, 161, 145, 192, 272
-0.995515, 265, 65, 296, 320
-0.995534, 313, 409, 328, 472
-0.995558, 225, 61, 351, 92
-0.995583, 129, 193, 192, 448
-0.995584, 285, 81, 300, 144
-0.995595, 245, 129, 276, 384
-0.995598, 93, 33, 124, 288
-0.995638, 161, 45, 288, 76
-0.995684, 145, 145, 272, 176
-0.995721, 185, 97, 200, 160
-0.995722, 1, 241, 128, 272
-0.995733, 177, 73, 304, 104
-0.99574, 11, 137, 26, 200
-0.995746, 33, 265, 288, 328
-0.995786, 187, 129, 202, 192
-0.995796, 197, 1, 228, 256
-0.9958, 1, 145, 16, 208
-0.995802, 209, 121, 224, 184
-0.995806, 197, 65, 212, 128
-0.99582, 329, 41, 344, 104
-0.995825, 245, 137, 260, 200
-0.995842, 335, 433, 350, 496
-0.995844, 65, 313, 320, 376
-0.995856, 207, 377, 222, 440
-0.995858, 1, 229, 128, 260
-0.995858, 5, 233, 20, 296
-0.99586, 23, 145, 38, 208
-0.995863, 49, 241, 176, 272
-0.995875, 1, 193, 128, 224
-0.995894, 215, 153, 230, 216
-0.995925, 131, 201, 146, 264
-0.995938, 81, 21, 208, 52
-0.995956, 65, 265, 192, 328
-0.995963, 333, 89, 348, 152
-0.995982, 229, 161, 244, 224
-0.99599, 13, 185, 28, 248
-0.995993, 335, 41, 350, 104
-0.995996, 281, 161, 312, 416
-0.996017, 271, 97, 286, 160
-0.996027, 1, 409, 351, 472
-0.99603, 225, 49, 351, 80
-0.996032, 293, 257, 308, 320
-0.996033, 287, 113, 302, 176
-0.996035, 225, 97, 240, 160
-0.996036, 267, 177, 282, 240
-0.99604, 81, 65, 208, 96
-0.996047, 87, 65, 102, 128
-0.996048, 273, 257, 304, 500
-0.99605, 253, 97, 268, 160
-0.99606, 253, 257, 284, 500
-0.996066, 191, 81, 206, 144
-0.996069, 225, 421, 351, 452
-0.996081, 175, 9, 190, 72
-0.996083, 285, 409, 300, 472
-0.996085, 153, 321, 216, 448
-0.996085, 9, 369, 40, 496
-0.996097, 145, 121, 272, 152
-0.996098, 75, 193, 90, 256
-0.996106, 265, 105, 280, 168
-0.996108, 73, 65, 104, 320
-0.99612, 17, 225, 32, 288
-0.996127, 125, 129, 156, 256
-0.996133, 27, 177, 42, 240
-0.99614, 319, 409, 334, 472
-0.996142, 215, 129, 230, 192
-0.996149, 97, 105, 112, 168
-0.996154, 263, 153, 278, 216
-0.996154, 123, 201, 138, 264
-0.99617, 161, 257, 288, 288
-0.996171, 225, 37, 351, 68
-0.99618, 321, 41, 336, 104
-0.996194, 1, 157, 128, 188
-0.996208, 73, 225, 88, 288
-0.996216, 17, 133, 144, 164
-0.996249, 49, 201, 176, 232
-0.996273, 233, 161, 264, 416
-0.996278, 17, 181, 144, 212
-0.996291, 277, 65, 308, 320
-0.996292, 203, 153, 218, 216
-0.996311, 145, 457, 272, 488
-0.996323, 161, 277, 288, 308
-0.996339, 249, 289, 264, 352
-0.996341, 83, 193, 98, 256
-0.996352, 17, 345, 144, 408
-0.996365, 163, 9, 178, 72
-0.996365, 253, 33, 284, 288
-0.996368, 301, 433, 316, 496
-0.996395, 301, 289, 332, 416
-0.996401, 109, 81, 140, 208
-0.996402, 177, 421, 304, 452
-0.996417, 231, 201, 246, 264
-0.99642, 257, 161, 272, 224
-0.996422, 275, 281, 290, 312
-0.996422, 49, 229, 176, 260
-0.996424, 161, 189, 288, 220
-0.996427, 23, 209, 38, 272
-0.996429, 323, 65, 338, 128
-0.996435, 145, 105, 272, 136
-0.996458, 233, 65, 264, 320
-0.996461, 171, 49, 186, 112
-0.996461, 315, 433, 330, 496
-0.996465, 161, 177, 288, 208
-0.996477, 145, 165, 272, 196
-0.996481, 39, 145, 54, 208
-0.996493, 259, 417, 274, 480
-0.996493, 329, 425, 344, 488
-0.996503, 15, 273, 30, 336
-0.996504, 129, 5, 256, 36
-0.996507, 255, 121, 270, 184
-0.996521, 257, 161, 288, 416
-0.996534, 203, 201, 218, 264
-0.99654, 265, 269, 280, 300
-0.996541, 31, 153, 46, 216
-0.996544, 213, 97, 228, 160
-0.99655, 303, 89, 318, 152
-0.99655, 1, 441, 128, 472
-0.996579, 97, 97, 224, 128
-0.996581, 279, 225, 294, 256
-0.996581, 49, 461, 176, 492
-0.996598, 1, 313, 351, 376
-0.996608, 81, 5, 208, 36
-0.996611, 295, 233, 310, 296
-0.996619, 273, 225, 288, 256
-0.996634, 221, 129, 236, 192
-0.996634, 285, 201, 300, 232
-0.996659, 177, 337, 304, 368
-0.996665, 283, 265, 298, 296
-0.996668, 285, 257, 316, 500
-0.996673, 49, 97, 80, 224
-0.996675, 1, 289, 256, 352
-0.996685, 113, 221, 240, 252
-0.996686, 189, 97, 220, 352
-0.996697, 173, 225, 204, 352
-0.996701, 161, 1, 192, 256
-0.996719, 113, 233, 240, 264
-0.99672, 269, 285, 284, 316
-0.996727, 289, 225, 304, 256
-0.99673, 129, 29, 256, 60
-0.996739, 209, 349, 336, 380
-0.99674, 145, 133, 272, 164
-0.996743, 1, 261, 128, 292
-0.996775, 1, 161, 32, 416
-0.996784, 225, 361, 351, 424
-0.996785, 97, 113, 224, 144
-0.996789, 259, 285, 274, 316
-0.996801, 161, 237, 288, 268
-0.996807, 267, 233, 282, 264
-0.996808, 1, 273, 351, 336
-0.996819, 275, 265, 290, 296
-0.996863, 129, 469, 256, 500
-0.996918, 277, 213, 292, 244
-0.996928, 267, 221, 282, 252
-0.996929, 279, 193, 294, 224
-0.996934, 289, 185, 304, 216
-0.996965, 1, 37, 128, 68
-0.996975, 289, 173, 304, 204
-0.996981, 235, 137, 250, 168
-0.99699, 295, 201, 310, 232
-0.997028, 225, 73, 351, 104
-0.997033, 271, 149, 286, 180
-0.997042, 191, 101, 206, 132
-0.997049, 321, 1, 351, 256
-0.997056, 1, 273, 128, 304
-0.997059, 65, 189, 192, 220
-0.997067, 87, 121, 102, 152
-0.997068, 97, 141, 224, 172
-0.997068, 161, 57, 288, 88
-0.997087, 225, 17, 351, 48
-0.997095, 273, 197, 288, 228
-0.997123, 17, 169, 144, 200
-0.997128, 263, 257, 278, 288
-0.997135, 225, 305, 351, 336
-0.997137, 97, 85, 224, 116
-0.997138, 5, 237, 20, 268
-0.997151, 95, 61, 110, 92
-0.997154, 237, 257, 268, 500
-0.997157, 225, 457, 351, 488
-0.99716, 113, 193, 240, 224
-0.997163, 287, 213, 302, 244
-0.997166, 321, 225, 351, 352
-0.997171, 1, 217, 128, 248
-0.997179, 13, 161, 44, 416
-0.997191, 295, 181, 310, 212
-0.9972, 49, 37, 176, 68
-0.9972, 169, 1, 184, 32
-0.997209, 65, 253, 192, 284
-0.997211, 271, 245, 286, 276
-0.997212, 177, 409, 304, 440
-0.997218, 283, 245, 298, 276
-0.997226, 1, 145, 128, 176
-0.997229, 5, 185, 20, 216
-0.997254, 141, 1, 172, 128
-0.997254, 129, 17, 256, 48
-0.997266, 263, 245, 278, 276
-0.997276, 97, 49, 112, 80
-0.997285, 261, 229, 276, 260
-0.997294, 145, 93, 272, 124
-0.997306, 259, 273, 274, 304
-0.99731, 289, 237, 304, 268
-0.997316, 81, 125, 208, 156
-0.997318, 1, 453, 128, 484
-0.997324, 97, 337, 351, 400
-0.99734, 93, 73, 108, 104
-0.997342, 1, 321, 128, 384
-0.997349, 1, 377, 256, 440
-0.99735, 241, 121, 256, 152
-0.997355, 97, 289, 351, 352
-0.99737, 87, 109, 102, 140
-0.997391, 91, 97, 106, 128
-0.997396, 17, 61, 144, 92
-0.997399, 201, 129, 232, 384
-0.997399, 7, 173, 22, 204
-0.9974, 221, 161, 236, 192
-0.997414, 197, 65, 212, 96
-0.997426, 323, 5, 338, 36
-0.997435, 221, 193, 252, 448
-0.997446, 219, 105, 234, 136
-0.997449, 113, 245, 240, 276
-0.997449, 17, 25, 144, 56
-0.997471, 69, 161, 100, 416
-0.997471, 289, 253, 304, 284
-0.997471, 1, 465, 128, 496
-0.997475, 193, 469, 320, 500
-0.997501, 101, 17, 116, 48
-0.997502, 1, 209, 16, 240
-0.997502, 137, 129, 168, 256
-0.997504, 297, 85, 312, 116
-0.997507, 91, 85, 106, 116
-0.997509, 99, 37, 114, 68
-0.997531, 113, 97, 144, 352
-0.997532, 177, 33, 304, 64
-0.997546, 333, 9, 348, 40
-0.997553, 13, 169, 28, 200
-0.997555, 17, 73, 144, 104
-0.997564, 281, 277, 296, 308
-0.997577, 161, 309, 288, 340
-0.997585, 169, 49, 184, 80
-0.997593, 225, 437, 240, 468
-0.997596, 37, 97, 68, 224
-0.9976, 207, 153, 222, 184
-0.997606, 269, 209, 284, 240
-0.997611, 177, 97, 208, 352
-0.997618, 209, 1, 240, 256
-0.997635, 289, 421, 304, 452
-0.997638, 279, 181, 294, 212
-0.997639, 253, 301, 268, 332
-0.997639, 229, 145, 244, 176
-0.99765, 265, 153, 280, 184
-0.997654, 279, 161, 294, 192
-0.99766, 173, 1, 204, 256
-0.997667, 189, 113, 204, 144
-0.99767, 283, 425, 298, 456
-0.997695, 17, 49, 144, 80
-0.997695, 293, 161, 324, 416
-0.9977, 15, 185, 30, 216
-0.997705, 275, 421, 290, 452
-0.997718, 185, 241, 216, 368
-0.997719, 275, 137, 290, 168
-0.997726, 209, 5, 336, 36
-0.997732, 257, 249, 272, 280
-0.997748, 85, 161, 116, 416
-0.997748, 203, 57, 218, 88
-0.997755, 33, 117, 160, 148
-0.997758, 97, 289, 224, 416
-0.997767, 253, 289, 268, 320
-0.997767, 7, 209, 22, 240
-0.997782, 269, 257, 284, 288
-0.997784, 7, 249, 22, 280
-0.997785, 93, 109, 108, 140
-0.997786, 161, 325, 288, 356
-0.997789, 185, 1, 216, 256
-0.997789, 187, 141, 202, 172
-0.9978, 97, 173, 224, 204
-0.997805, 75, 229, 90, 260
-0.997811, 311, 49, 326, 80
-0.997811, 1, 289, 128, 320
-0.997827, 169, 29, 184, 60
-0.997828, 41, 369, 72, 496
-0.997834, 309, 1, 340, 256
-0.997836, 259, 161, 274, 192
-0.997857, 215, 157, 230, 188
-0.997858, 57, 257, 120, 384
-0.99787, 281, 129, 296, 160
-0.997874, 245, 141, 260, 172
-0.99788, 49, 129, 80, 384
-0.997885, 231, 161, 246, 192
-0.997899, 7, 197, 22, 228
-0.997903, 103, 1, 118, 32
-0.997907, 17, 5, 144, 36
-0.997911, 17, 85, 144, 116
-0.997915, 29, 129, 60, 384
-0.997933, 289, 265, 304, 296
-0.997936, 263, 209, 278, 240
-0.997938, 295, 421, 310, 452
-0.997939, 81, 121, 96, 152
-0.997944, 145, 293, 272, 324
-0.997944, 233, 101, 248, 132
-0.997952, 193, 125, 208, 156
-0.997952, 17, 101, 144, 132
-0.997963, 85, 133, 100, 164
-0.997966, 269, 105, 284, 136
-0.997971, 253, 273, 268, 304
-0.997986, 277, 237, 292, 268
-0.997986, 295, 169, 310, 200
-0.997986, 257, 261, 272, 292
-0.997988, 285, 81, 300, 112
-0.997992, 281, 289, 296, 320
-0.997992, 321, 17, 336, 48
-0.997994, 291, 113, 306, 144
-0.997996, 211, 141, 226, 172
-0.998004, 277, 149, 292, 180
-0.99801, 19, 165, 34, 196
-0.998012, 197, 77, 212, 108
-0.99802, 21, 189, 36, 220
-0.998021, 137, 369, 200, 496
-0.998022, 29, 149, 44, 180
-0.998025, 79, 133, 94, 164
-0.998027, 315, 33, 330, 64
-0.998029, 329, 121, 344, 152
-0.998035, 299, 101, 314, 132
-0.998037, 153, 49, 184, 176
-0.998039, 21, 217, 36, 248
-0.998049, 297, 33, 328, 288
-0.998054, 321, 69, 336, 100
-0.998064, 99, 89, 114, 120
-0.998066, 49, 145, 176, 176
-0.998066, 97, 289, 224, 352
-0.998068, 7, 221, 22, 252
-0.998069, 69, 237, 84, 268
-0.998085, 19, 201, 34, 232
-0.998087, 287, 161, 302, 192
-0.998087, 273, 185, 288, 216
-0.998093, 197, 93, 212, 124
-0.998093, 13, 205, 28, 236
-0.998096, 97, 157, 224, 188
-0.998103, 287, 177, 302, 304
-0.998103, 271, 173, 286, 204
-0.99811, 105, 1, 136, 256
-0.998111, 237, 441, 252, 472
-0.998114, 105, 29, 120, 60
-0.998118, 295, 261, 310, 292
-0.998122, 93, 133, 108, 164
-0.998122, 237, 153, 252, 184
-0.99813, 191, 89, 206, 120
-0.998165, 61, 65, 92, 320
-0.998175, 177, 21, 304, 52
-0.998223, 9, 257, 40, 500
-0.998247, 113, 257, 240, 288
-0.998262, 129, 429, 256, 460
-0.99829, 271, 209, 286, 336
-0.998298, 149, 1, 180, 256
-0.998299, 1, 353, 256, 416
-0.998325, 265, 209, 280, 336
-0.998352, 269, 257, 284, 384
-0.998369, 53, 369, 84, 496
-0.998371, 293, 161, 308, 288
-0.99838, 257, 229, 320, 244
-0.998391, 281, 209, 296, 336
-0.998393, 249, 269, 312, 284
-0.998405, 177, 365, 304, 396
-0.998407, 65, 265, 192, 296
-0.998408, 241, 279, 304, 294
-0.998408, 249, 217, 312, 232
-0.99841, 257, 235, 320, 250
-0.998415, 273, 165, 304, 180
-0.998415, 9, 229, 40, 244
-0.998417, 257, 241, 320, 256
-0.998417, 37, 159, 68, 174
-0.998418, 209, 139, 240, 154
-0.998421, 21, 195, 52, 210
-0.998423, 217, 133, 248, 148
-0.998424, 281, 173, 312, 188
-0.998427, 257, 235, 288, 250
-0.998427, 209, 147, 240, 162
-0.998428, 265, 431, 296, 446
-0.998428, 265, 185, 296, 200
-0.99843, 249, 305, 280, 320
-0.998432, 197, 153, 228, 168
-0.998432, 313, 443, 344, 458
-0.998434, 13, 189, 44, 204
-0.998435, 249, 263, 312, 278
-0.998436, 129, 219, 160, 234
-0.998436, 309, 41, 340, 56
-0.998436, 249, 223, 312, 238
-0.998438, 21, 157, 52, 172
-0.998439, 269, 179, 300, 194
-0.99844, 261, 425, 292, 440
-0.99844, 29, 151, 60, 166
-0.998442, 313, 29, 344, 44
-0.998442, 157, 31, 188, 46
-0.998443, 197, 103, 228, 118
-0.998443, 285, 267, 316, 282
-0.998444, 157, 43, 188, 58
-0.998444, 81, 53, 112, 68
-0.998445, 285, 91, 316, 106
-0.998445, 281, 125, 344, 140
-0.998446, 293, 443, 324, 458
-0.998446, 321, 127, 351, 142
-0.998447, 217, 119, 248, 134
-0.998447, 321, 17, 351, 32
-0.998447, 297, 193, 328, 208
-0.998447, 297, 421, 328, 436
-0.99845, 265, 293, 296, 308
-0.99845, 49, 445, 176, 476
-0.998451, 229, 145, 260, 160
-0.998451, 177, 55, 208, 70
-0.998452, 73, 125, 104, 140
-0.998454, 157, 49, 188, 64
-0.998455, 97, 161, 128, 416
-0.998457, 293, 185, 324, 200
-0.998457, 261, 151, 292, 166
-0.998458, 157, 37, 188, 52
-0.998458, 5, 221, 36, 236
-0.998459, 233, 153, 296, 168
-0.998461, 241, 433, 304, 448
-0.998461, 89, 23, 120, 38
-0.998462, 249, 261, 280, 276
-0.998462, 189, 147, 220, 162
-0.998462, 73, 119, 104, 134
-0.998464, 265, 423, 328, 438
-0.998464, 93, 109, 124, 124
-0.998465, 313, 71, 344, 86
-0.998466, 309, 57, 340, 72
-0.998467, 213, 159, 244, 174
-0.998468, 249, 211, 312, 226
-0.998469, 281, 277, 312, 292
-0.998469, 249, 267, 280, 282
-0.998469, 77, 85, 108, 100
-0.99847, 285, 205, 316, 220
-0.99847, 225, 101, 288, 116
-0.998471, 209, 133, 272, 148
-0.998472, 313, 35, 344, 50
-0.998472, 241, 289, 304, 304
-0.998474, 97, 29, 128, 44
-0.998475, 73, 103, 104, 118
-0.998476, 85, 47, 116, 62
-0.998476, 81, 65, 112, 80
-0.998477, 265, 197, 296, 212
-0.998478, 233, 129, 296, 144
-0.998478, 93, 85, 124, 100
-0.998478, 89, 97, 120, 112
-0.998479, 225, 145, 288, 160
-0.99848, 225, 273, 288, 288
-0.99848, 209, 125, 272, 140
-0.99848, 97, 43, 128, 58
-0.998481, 277, 261, 308, 276
-0.998482, 93, 115, 124, 130
-0.998486, 49, 157, 176, 188
-0.998486, 209, 165, 240, 180
-0.998486, 97, 35, 128, 50
-0.998487, 317, 23, 348, 38
-0.998487, 309, 65, 340, 80
-0.998487, 1, 175, 32, 190
-0.998488, 233, 131, 264, 146
-0.998489, 257, 247, 320, 262
-0.998489, 217, 153, 248, 168
-0.99849, 249, 173, 312, 188
-0.99849, 89, 103, 120, 118
-0.998491, 1, 211, 32, 226
-0.998491, 249, 165, 312, 180
-0.998491, 85, 35, 116, 50
-0.998492, 5, 205, 36, 220
-0.998492, 233, 139, 296, 154
-0.998493, 85, 41, 116, 56
-0.998493, 81, 59, 112, 74
-0.998494, 81, 113, 112, 128
-0.998494, 257, 241, 288, 256
-0.998494, 157, 5, 188, 20
-0.998495, 257, 97, 320, 112
-0.998496, 229, 139, 260, 154
-0.998497, 209, 169, 272, 184
-0.998498, 97, 217, 160, 232
-0.998499, 81, 71, 112, 86
-0.998502, 257, 195, 320, 210
-0.998504, 237, 125, 268, 140
-0.998504, 253, 431, 284, 446
-0.998505, 201, 139, 264, 154
-0.998505, 225, 295, 288, 310
-0.998505, 261, 207, 292, 222
-0.998506, 77, 95, 108, 110
-0.998506, 265, 205, 328, 220
-0.998506, 273, 425, 304, 440
-0.998507, 93, 77, 124, 92
-0.998508, 221, 441, 252, 456
-0.998511, 285, 113, 300, 240
-0.998511, 261, 163, 292, 178
-0.998511, 257, 105, 320, 120
-0.998511, 233, 121, 296, 136
-0.998511, 225, 263, 288, 278
-0.998512, 265, 91, 328, 106
-0.998513, 85, 121, 116, 136
-0.998513, 185, 153, 248, 168
-0.998513, 337, 1, 351, 128
-0.998513, 285, 199, 316, 214
-0.998515, 281, 241, 312, 256
-0.998515, 93, 71, 124, 86
-0.998516, 217, 221, 280, 236
-0.998517, 153, 37, 216, 52
-0.998518, 209, 157, 272, 172
-0.99852, 85, 131, 116, 146
-0.998522, 309, 49, 340, 64
-0.998524, 93, 53, 124, 68
-0.998525, 189, 193, 220, 448
-0.998526, 201, 145, 264, 160
-0.998526, 1, 237, 32, 252
-0.998528, 73, 133, 136, 148
-0.99853, 289, 81, 351, 96
-0.998531, 73, 51, 136, 66
-0.998533, 265, 285, 328, 300
-0.998534, 217, 289, 280, 304
-0.998536, 217, 163, 280, 178
-0.998537, 1, 181, 32, 196
-0.998537, 249, 295, 312, 310
-0.998539, 201, 159, 232, 174
-0.998539, 217, 109, 248, 124
-0.998539, 261, 217, 292, 232
-0.998542, 225, 237, 288, 252
-0.998547, 233, 189, 296, 204
-0.998547, 257, 183, 320, 198
-0.99855, 225, 207, 288, 222
-0.998551, 257, 189, 320, 204
-0.998553, 249, 257, 312, 272
-0.998553, 257, 287, 288, 302
-0.998553, 257, 85, 320, 100
-0.998554, 225, 229, 288, 244
-0.998554, 153, 43, 216, 58
-0.998554, 281, 119, 344, 134
-0.998554, 233, 199, 296, 214
-0.998556, 185, 163, 248, 178
-0.998556, 169, 147, 232, 162
-0.998557, 1, 207, 64, 222
-0.998558, 1, 197, 32, 212
-0.998559, 209, 119, 272, 134
-0.998559, 225, 215, 288, 230
-0.99856, 1, 189, 32, 204
-0.99856, 177, 173, 240, 188
-0.99856, 289, 433, 351, 448
-0.998562, 261, 223, 292, 238
-0.998562, 289, 421, 351, 436
-0.998563, 265, 277, 328, 292
-0.998564, 129, 361, 256, 392
-0.998564, 25, 157, 88, 172
-0.998564, 153, 31, 216, 46
-0.998567, 193, 109, 256, 124
-0.998567, 93, 61, 124, 76
-0.998567, 161, 53, 224, 68
-0.998568, 209, 441, 272, 456
-0.998569, 217, 107, 280, 122
-0.99857, 225, 243, 288, 258
-0.99857, 209, 321, 272, 336
-0.99857, 73, 57, 136, 72
-0.998572, 17, 201, 80, 216
-0.998573, 273, 221, 336, 236
-0.998577, 73, 127, 136, 142
-0.998579, 201, 177, 264, 192
-0.998579, 73, 45, 136, 60
-0.998579, 1, 237, 64, 252
-0.99858, 73, 63, 136, 78
-0.99858, 65, 245, 128, 260
-0.998583, 137, 7, 200, 22
-0.998584, 285, 85, 316, 100
-0.998585, 225, 257, 288, 272
-0.998585, 249, 159, 312, 174
-0.998586, 241, 115, 304, 130
-0.998587, 49, 145, 112, 160
-0.998588, 193, 217, 256, 232
-0.998588, 73, 109, 136, 124
-0.998589, 289, 75, 351, 90
-0.998589, 1, 385, 351, 448
-0.99859, 263, 257, 278, 384
-0.99859, 253, 281, 284, 296
-0.998591, 185, 447, 248, 462
-0.998591, 217, 97, 232, 224
-0.998591, 241, 427, 304, 442
-0.998591, 185, 127, 248, 142
-0.998592, 209, 151, 272, 166
-0.998593, 281, 243, 344, 258
-0.998594, 217, 113, 280, 128
-0.998594, 209, 447, 272, 462
-0.998595, 293, 97, 308, 224
-0.998596, 281, 263, 344, 278
-0.998596, 281, 179, 312, 194
-0.998596, 9, 187, 72, 202
-0.998597, 73, 121, 136, 136
-0.998598, 177, 101, 240, 116
-0.998598, 231, 129, 246, 256
-0.998598, 17, 163, 80, 178
-0.998598, 185, 441, 248, 456
-0.998601, 217, 283, 280, 298
-0.998601, 209, 315, 272, 330
-0.998601, 193, 209, 256, 224
-0.998602, 281, 237, 344, 252
-0.998602, 137, 13, 200, 28
-0.998603, 275, 273, 290, 400
-0.998603, 177, 455, 240, 470
-0.998604, 169, 7, 232, 22
-0.998604, 185, 117, 248, 132
-0.998604, 177, 179, 240, 194
-0.998604, 25, 149, 88, 164
-0.998605, 273, 215, 336, 230
-0.998606, 261, 157, 292, 172
-0.998607, 73, 115, 136, 130
-0.998607, 73, 151, 136, 166
-0.998608, 233, 17, 264, 144
-0.998609, 277, 161, 292, 288
-0.998609, 1, 337, 351, 400
-0.998609, 209, 327, 272, 342
-0.998609, 281, 443, 344, 458
-0.998609, 265, 51, 328, 66
-0.998609, 209, 301, 272, 316
-0.99861, 49, 155, 112, 170
-0.99861, 253, 293, 284, 308
-0.99861, 269, 247, 300, 262
-0.998611, 317, 1, 332, 128
-0.998612, 269, 285, 300, 300
-0.998612, 177, 141, 240, 156
-0.998612, 289, 189, 351, 204
-0.998613, 81, 253, 144, 268
-0.998614, 65, 89, 128, 104
-0.998616, 65, 139, 128, 154
-0.998617, 65, 481, 128, 496
-0.998617, 289, 427, 351, 442
-0.998621, 321, 11, 351, 26
-0.998625, 257, 241, 272, 368
-0.998625, 97, 441, 224, 472
-0.998632, 49, 433, 176, 464
-0.998644, 331, 1, 346, 128
-0.998645, 265, 229, 296, 244
-0.998645, 99, 1, 114, 128
-0.998647, 269, 237, 300, 252
-0.998647, 277, 225, 308, 240
-0.998649, 273, 213, 304, 228
-0.99865, 261, 265, 292, 280
-0.998655, 281, 193, 312, 208
-0.998662, 221, 1, 252, 256
-0.998663, 277, 231, 308, 246
-0.998666, 1, 429, 128, 460
-0.998671, 287, 65, 302, 192
-0.998672, 257, 273, 288, 288
-0.998672, 89, 65, 104, 192
-0.998675, 281, 187, 312, 202
-0.998676, 263, 145, 278, 272
-0.998677, 97, 457, 224, 488
-0.998691, 269, 277, 300, 292
-0.998691, 273, 219, 304, 234
-0.998696, 277, 81, 292, 208
-0.998704, 273, 267, 304, 282
-0.998727, 273, 203, 304, 218
-0.998738, 99, 49, 114, 176
-0.998746, 225, 337, 351, 368
-0.998751, 227, 81, 242, 208
-0.998752, 9, 177, 24, 304
-0.998757, 65, 257, 96, 384
-0.998762, 1, 193, 16, 320
-0.998767, 125, 97, 156, 352
-0.998782, 1, 65, 32, 320
-0.998786, 237, 129, 252, 256
-0.998797, 267, 97, 282, 224
-0.99882, 105, 1, 120, 128
-0.99882, 129, 73, 256, 104
-0.998837, 209, 325, 336, 356
-0.998839, 323, 1, 338, 128
-0.998842, 15, 161, 30, 288
-0.998846, 89, 113, 104, 240
-0.99885, 207, 145, 222, 272
-0.998864, 271, 145, 286, 272
-0.998872, 187, 113, 202, 240
-0.998879, 299, 177, 314, 304
-0.998887, 177, 381, 304, 412
-0.998888, 281, 257, 296, 384
-0.998893, 293, 209, 308, 336
-0.998909, 7, 129, 22, 256
-0.998916, 297, 257, 328, 500
-0.998921, 223, 145, 238, 272
-0.998923, 1, 129, 16, 256
-0.998924, 7, 225, 22, 352
-0.998933, 211, 97, 226, 224
-0.998936, 191, 65, 206, 192
-0.998948, 293, 49, 308, 176
-0.998949, 49, 321, 112, 448
-0.998951, 1, 301, 128, 332
-0.998958, 289, 257, 304, 384
-0.998965, 233, 81, 248, 208
-0.998967, 129, 349, 256, 380
-0.998975, 1, 241, 16, 368
-0.998976, 93, 17, 108, 144
-0.998983, 197, 65, 212, 192
-0.998984, 95, 113, 110, 240
-0.998987, 215, 145, 230, 272
-0.99899, 81, 113, 96, 240
-0.998991, 209, 225, 240, 480
-0.999004, 261, 97, 276, 224
-0.999012, 259, 193, 274, 320
-0.999014, 245, 129, 260, 256
-0.999021, 1, 341, 128, 372
-0.999026, 177, 193, 208, 448
-0.999036, 283, 337, 298, 464
-0.999037, 311, 17, 326, 144
-0.999038, 129, 373, 256, 404
-0.999039, 277, 337, 292, 464
-0.999058, 161, 257, 192, 384
-0.999073, 241, 81, 256, 208
-0.999092, 327, 65, 342, 192
-0.999101, 33, 417, 160, 448
-0.999112, 117, 193, 132, 320
-0.999114, 193, 113, 208, 240
-0.999117, 305, 353, 320, 480
-0.999121, 169, 1, 184, 128
-0.999121, 253, 97, 268, 224
-0.999126, 255, 289, 270, 416
-0.999127, 269, 337, 284, 464
-0.999128, 335, 65, 350, 192
-0.999135, 225, 361, 351, 392
-0.99914, 201, 145, 216, 272
-0.99915, 137, 97, 168, 352
-0.999153, 299, 81, 314, 208
-0.999153, 125, 193, 140, 320
-0.999162, 133, 1, 164, 256
-0.999166, 257, 145, 272, 272
-0.999169, 289, 337, 304, 464
-0.999171, 83, 65, 98, 192
-0.999171, 45, 33, 76, 288
-0.999176, 13, 65, 44, 320
-0.999179, 21, 177, 36, 304
-0.999179, 305, 33, 320, 160
-0.999179, 211, 353, 226, 480
-0.99918, 85, 193, 100, 320
-0.99918, 319, 49, 334, 176
-0.999181, 241, 177, 256, 304
-0.999184, 33, 129, 48, 256
-0.999187, 125, 193, 156, 448
-0.999189, 21, 1, 52, 128
-0.999192, 247, 81, 262, 208
-0.999192, 129, 417, 256, 448
-0.999192, 13, 113, 28, 240
-0.999195, 43, 129, 58, 256
-0.999197, 111, 193, 126, 320
-0.999198, 105, 49, 120, 176
-0.999202, 311, 353, 326, 480
-0.999206, 337, 273, 351, 400
-0.999209, 91, 161, 106, 288
-0.999212, 97, 377, 351, 440
-0.999212, 251, 241, 266, 368
-0.999218, 105, 193, 120, 320
-0.999226, 77, 193, 92, 320
-0.999226, 25, 129, 40, 256
-0.999227, 133, 193, 148, 320
-0.999228, 13, 225, 28, 352
-0.99924, 227, 257, 242, 384
-0.999244, 295, 353, 310, 480
-0.999252, 177, 397, 304, 428
-0.999256, 87, 17, 102, 144
-0.99926, 217, 289, 232, 416
-0.999266, 235, 193, 250, 320
-0.999267, 77, 65, 92, 192
-0.999269, 199, 17, 214, 144
-0.999273, 103, 113, 118, 240
-0.999275, 97, 161, 112, 288
-0.999286, 251, 161, 266, 288
-0.999287, 217, 337, 232, 464
-0.999289, 317, 353, 332, 480
-0.999289, 205, 65, 220, 192
-0.999291, 275, 33, 290, 160
-0.999299, 71, 193, 86, 320
-0.9993, 209, 1, 224, 128
-0.99931, 175, 1, 190, 128
-0.999311, 185, 369, 216, 496
-0.999316, 281, 33, 296, 160
-0.999317, 261, 305, 276, 432
-0.999322, 181, 49, 196, 176
-0.999326, 115, 145, 130, 272
-0.999327, 233, 241, 248, 368
-0.999333, 19, 225, 34, 352
-0.999345, 211, 305, 226, 432
-0.999345, 49, 145, 64, 272
-0.999348, 165, 97, 196, 352
-0.99935, 163, 1, 178, 128
-0.999354, 309, 257, 340, 500
-0.99936, 25, 33, 56, 288
-0.99936, 81, 17, 96, 144
-0.99936, 73, 1, 88, 128
-0.999367, 295, 257, 310, 384
-0.999372, 335, 337, 350, 464
-0.999372, 19, 113, 34, 240
-0.999383, 123, 145, 138, 272
-0.999391, 177, 145, 192, 272
-0.999391, 69, 145, 84, 272
-0.999443, 113, 193, 144, 448
-0.9995, 149, 129, 180, 256
-0.999532, 29, 241, 60, 368
-0.999578, 165, 193, 196, 448
-0.999621, 7, 173, 22, 188
-0.999621, 7, 221, 22, 236
-0.999621, 267, 231, 282, 246
-0.999624, 207, 159, 222, 174
-0.999625, 57, 225, 88, 480
-0.999627, 187, 145, 202, 160
-0.999627, 281, 183, 296, 198
-0.999628, 275, 191, 290, 206
-0.999628, 81, 131, 96, 146
-0.999629, 105, 61, 120, 76
-0.999629, 9, 249, 24, 264
-0.999629, 1, 179, 16, 194
-0.99963, 5, 191, 20, 206
-0.99963, 299, 89, 314, 104
-0.999631, 253, 303, 268, 318
-0.999632, 323, 73, 338, 88
-0.999633, 205, 153, 220, 168
-0.999633, 93, 127, 108, 142
-0.999633, 17, 201, 32, 216
-0.999635, 283, 429, 298, 444
-0.999636, 15, 191, 30, 206
-0.999637, 261, 253, 276, 268
-0.999637, 95, 61, 110, 76
-0.999637, 1, 207, 16, 222
-0.999637, 99, 37, 114, 52
-0.99964, 89, 121, 104, 136
-0.999641, 9, 255, 24, 270
-0.999641, 93, 87, 108, 102
-0.999641, 241, 123, 256, 138
-0.999644, 97, 49, 112, 64
-0.999645, 87, 133, 102, 148
-0.999645, 337, 13, 351, 28
-0.999646, 189, 117, 204, 132
-0.999647, 237, 137, 252, 152
-0.999647, 29, 157, 44, 172
-0.999648, 105, 49, 120, 64
-0.999648, 5, 197, 20, 212
-0.999649, 269, 211, 284, 226
-0.999649, 95, 75, 110, 90
-0.999651, 233, 149, 248, 164
-0.999653, 265, 217, 280, 232
-0.999655, 329, 125, 344, 140
-0.999656, 293, 207, 308, 222
-0.999656, 291, 247, 306, 262
-0.999658, 259, 277, 274, 292
-0.999661, 89, 109, 104, 124
-0.999662, 281, 247, 296, 262
-0.999665, 221, 107, 236, 122
-0.999665, 1, 213, 16, 228
-0.999666, 191, 99, 206, 114
-0.999666, 287, 179, 302, 194
-0.999666, 263, 259, 278, 274
-0.999667, 7, 179, 22, 194
-0.999668, 33, 225, 64, 480
-0.999669, 101, 17, 116, 32
-0.99967, 83, 121, 98, 136
-0.999671, 227, 157, 242, 172
-0.999672, 3, 247, 18, 262
-0.999673, 275, 155, 290, 170
-0.999675, 189, 111, 204, 126
-0.999675, 221, 163, 236, 178
-0.999678, 215, 159, 230, 174
-0.999678, 289, 83, 304, 98
-0.999681, 267, 245, 282, 260
-0.999681, 265, 295, 280, 310
-0.999682, 261, 165, 276, 180
-0.999682, 171, 53, 186, 68
-0.999683, 197, 73, 212, 88
-0.999684, 277, 425, 292, 440
-0.999686, 261, 245, 276, 260
-0.999688, 259, 271, 274, 286
-0.999689, 101, 31, 116, 46
-0.99969, 261, 231, 276, 246
-0.999695, 289, 185, 304, 200
-0.999696, 201, 65, 216, 80
-0.999697, 235, 143, 250, 158
-0.999697, 271, 149, 286, 164
-0.9997, 285, 271, 300, 286
-0.999701, 271, 217, 286, 232
-0.999702, 331, 9, 346, 24
-0.999702, 289, 173, 304, 188
-0.999704, 281, 239, 296, 254
-0.999705, 81, 329, 208, 392
-0.999707, 5, 185, 20, 200
-0.999708, 189, 105, 204, 120
-0.99971, 297, 195, 312, 210
-0.99971, 271, 283, 286, 298
-0.999713, 271, 205, 286, 220
-0.999714, 87, 115, 102, 130
-0.999714, 265, 287, 280, 302
-0.999715, 325, 5, 340, 20
-0.999718, 169, 5, 184, 20
-0.999719, 267, 225, 282, 240
-0.99972, 259, 295, 274, 310
-0.999721, 271, 271, 286, 286
-0.999722, 293, 179, 308, 194
-0.999722, 267, 155, 282, 170
-0.999722, 91, 93, 106, 108
-0.999722, 271, 239, 286, 254
-0.999725, 279, 225, 294, 240
-0.999727, 271, 289, 286, 304
-0.999727, 285, 193, 300, 208
-0.999729, 101, 23, 116, 38
-0.999731, 87, 127, 102, 142
-0.999734, 91, 103, 106, 118
-0.999735, 291, 199, 306, 214
-0.999736, 295, 187, 310, 202
-0.999737, 149, 129, 180, 384
-0.999737, 279, 203, 294, 218
-0.999739, 285, 215, 300, 230
-0.99974, 5, 237, 20, 252
-0.999741, 93, 81, 108, 96
-0.999744, 99, 43, 114, 58
-0.999746, 281, 277, 296, 292
-0.999751, 265, 237, 280, 252
-0.999753, 291, 241, 306, 256
-0.999753, 281, 231, 296, 246
-0.999754, 265, 271, 280, 286
-0.999755, 275, 197, 290, 212
-0.999759, 259, 285, 274, 300
-0.999771, 287, 265, 302, 280
-0.999772, 265, 265, 280, 280
-0.999774, 273, 229, 288, 244
-0.999776, 277, 219, 292, 234
-0.999782, 289, 231, 304, 246
-0.999784, 97, 55, 112, 70
-0.999785, 265, 281, 280, 296
-0.999786, 275, 265, 290, 280
-0.999787, 95, 67, 110, 82
-0.99979, 287, 225, 302, 240
-0.999796, 285, 205, 300, 220
-0.999797, 271, 277, 286, 292
-0.999804, 277, 283, 292, 298
-0.999828, 275, 211, 290, 226
-0.999859, 49, 49, 80, 176
-0.999945, 17, 49, 80, 176
-0.999968, 321, 193, 351, 448
-1.00011, 121, 241, 152, 368
-1.00018, 137, 193, 168, 448
-1.0002, 45, 225, 76, 480
-1.00028, 321, 97, 351, 352
-1.00033, 49, 289, 176, 352
-1.00039, 77, 257, 108, 500
-1.00042, 21, 257, 52, 500
-1.00048, 117, 1, 148, 256
-1.00052, 153, 225, 184, 480
-1.00054, 109, 241, 140, 368
-1.00058, 49, 289, 176, 416
-1.0006, 93, 257, 124, 500
-1.00062, 105, 241, 168, 368
-1.00063, 309, 161, 340, 416
-1.00079, 73, 257, 136, 500
-1.00109, 1, 361, 351, 424
-1.00125, 65, 353, 192, 416
-1.00141, 113, 49, 176, 176
-1.00224, 137, 273, 200, 400
-1.00252, 25, 305, 88, 432
-1.00405, 105, 337, 168, 464
-1.00447, 73, 353, 136, 480
-1.00603, 129, 321, 192, 448
-1.00812, 105, 289, 168, 416
-1.00912, 81, 289, 144, 416
