1971
-0.518652, 1, 1, 375, 500
-0.542157, 1, 1, 256, 500
-0.557657, 1, 65, 375, 320
-0.589992, 1, 257, 375, 500
-0.609235, 1, 161, 375, 416
-0.728201, 129, 1, 375, 500
-0.780557, 1, 193, 256, 448
-0.801439, 129, 161, 375, 416
-0.830839, 1, 97, 256, 352
-0.882176, 33, 1, 288, 256
-0.914667, 97, 1, 224, 500
-0.915756, 129, 65, 375, 320
-0.923428, 161, 161, 288, 416
-0.92477, 1, 161, 128, 416
-0.926387, 1, 129, 375, 256
-0.930659, 177, 1, 304, 500
-0.931385, 129, 257, 375, 500
-0.94008, 113, 65, 240, 320
-0.940342, 17, 1, 144, 500
-0.940704, 1, 289, 375, 416
-0.944968, 97, 225, 224, 480
-0.94569, 1, 337, 375, 464
-0.946961, 225, 1, 352, 500
-0.947562, 225, 65, 352, 320
-0.949908, 1, 81, 375, 208
-0.951686, 49, 97, 176, 352
-0.953804, 1, 273, 256, 400
-0.95593, 1, 177, 375, 304
-0.959134, 129, 193, 375, 320
-0.961558, 1, 241, 375, 368
-0.962114, 49, 1, 176, 256
-0.962158, 33, 81, 288, 208
-0.962591, 161, 257, 288, 500
-0.96278, 161, 65, 288, 320
-0.962895, 1, 33, 128, 288
-0.963949, 241, 161, 368, 416
-0.964205, 209, 257, 336, 500
-0.964378, 1, 17, 375, 144
-0.964549, 33, 257, 160, 500
-0.9648, 1, 145, 256, 272
-0.967344, 1, 225, 256, 352
-0.968809, 1, 321, 256, 448
-0.972006, 169, 209, 232, 336
-0.972434, 129, 241, 375, 368
-0.973978, 145, 193, 272, 320
-0.976688, 129, 145, 375, 272
-0.979308, 1, 369, 256, 496
-0.979737, 129, 17, 375, 144
-0.981447, 129, 337, 375, 464
-0.981511, 33, 369, 160, 496
-0.98224, 9, 337, 72, 464
-0.982808, 1, 1, 256, 128
-0.983574, 129, 289, 375, 416
-0.98364, 161, 217, 224, 280
-0.984125, 9, 193, 72, 320
-0.984154, 193, 113, 320, 240
-0.984316, 113, 65, 240, 192
-0.985165, 153, 273, 216, 400
-0.985438, 97, 257, 224, 384
-0.985529, 17, 145, 144, 272
-0.985971, 129, 97, 375, 224
-0.986662, 49, 1, 176, 128
-0.98707, 161, 353, 288, 480
-0.987131, 225, 353, 352, 480
-0.98738, 1, 193, 128, 320
-0.987626, 193, 161, 320, 288
-0.987628, 1, 337, 64, 400
-0.987657, 49, 97, 176, 224
-0.987694, 1, 257, 128, 384
-0.988921, 177, 321, 240, 448
-0.988982, 1, 65, 128, 192
-0.98903, 137, 225, 200, 352
-0.989273, 169, 193, 232, 448
-0.989644, 193, 161, 256, 288
-0.990071, 217, 129, 280, 256
-0.990119, 145, 217, 272, 280
-0.990453, 209, 33, 336, 160
-0.990462, 97, 209, 224, 336
-0.990593, 33, 161, 96, 288
-0.99069, 241, 97, 368, 224
-0.990702, 289, 361, 352, 424
-0.990842, 113, 1, 240, 128
-0.990869, 33, 425, 160, 488
-0.991228, 1, 289, 64, 416
-0.991267, 169, 1, 232, 500
-0.991299, 161, 225, 192, 352
-0.991328, 177, 81, 240, 208
-0.991341, 105, 417, 168, 480
-0.991359, 173, 209, 204, 336
-0.991661, 193, 305, 320, 432
-0.991846, 33, 113, 96, 240
-0.991989, 113, 305, 240, 432
-0.991991, 33, 169, 96, 232
-0.992046, 1, 1, 128, 128
-0.992078, 193, 1, 256, 500
-0.992258, 113, 81, 240, 144
-0.99243, 177, 185, 240, 248
-0.992526, 161, 225, 192, 288
-0.992532, 9, 161, 72, 416
-0.992559, 33, 393, 160, 456
-0.992565, 201, 353, 264, 480
-0.99258, 145, 145, 272, 272
-0.9926, 193, 169, 320, 232
-0.992677, 9, 201, 72, 264
-0.992798, 129, 233, 192, 296
-0.992844, 17, 385, 80, 448
-0.99286, 169, 221, 232, 252
-0.992862, 185, 361, 248, 424
-0.992867, 1, 337, 64, 368
-0.992876, 209, 145, 336, 208
-0.992977, 9, 97, 72, 224
-0.993064, 137, 1, 200, 500
-0.993076, 97, 409, 224, 472
-0.993109, 169, 65, 232, 320
-0.993193, 177, 257, 304, 384
-0.993203, 113, 425, 176, 456
-0.993216, 145, 413, 208, 444
-0.993224, 1, 349, 64, 380
-0.993237, 129, 257, 192, 320
-0.993266, 153, 241, 216, 272
-0.993326, 209, 169, 272, 232
-0.993351, 137, 409, 200, 472
-0.993365, 225, 389, 288, 420
-0.993374, 1, 49, 64, 176
-0.993383, 177, 193, 304, 256
-0.993437, 185, 209, 248, 240
-0.993449, 41, 353, 72, 480
-0.993474, 9, 369, 72, 400
-0.993494, 177, 221, 208, 252
-0.9935, 169, 405, 232, 436
-0.993505, 13, 329, 44, 360
-0.993536, 217, 169, 280, 200
-0.993539, 209, 181, 272, 212
-0.993547, 161, 237, 192, 268
-0.993555, 105, 441, 168, 472
-0.993561, 209, 105, 336, 168
-0.99358, 17, 361, 80, 424
-0.993612, 41, 17, 104, 48
-0.993632, 281, 369, 344, 400
-0.993634, 1, 325, 64, 356
-0.993643, 225, 1, 288, 32
-0.993643, 165, 225, 196, 256
-0.993643, 17, 389, 80, 420
-0.993645, 249, 1, 312, 32
-0.993646, 121, 9, 184, 40
-0.993646, 121, 261, 184, 292
-0.993651, 9, 77, 72, 108
-0.993656, 9, 297, 72, 328
-0.993661, 249, 381, 312, 412
-0.993666, 1, 265, 64, 296
-0.993667, 121, 249, 184, 280
-0.993674, 9, 309, 72, 340
-0.99368, 325, 161, 356, 192
-0.993698, 289, 385, 352, 416
-0.9937, 41, 437, 104, 468
-0.993706, 117, 429, 148, 460
-0.993708, 17, 209, 80, 240
-0.993708, 281, 17, 344, 48
-0.993711, 9, 173, 72, 204
-0.993711, 49, 373, 112, 404
-0.993719, 1, 313, 32, 344
-0.993721, 313, 161, 375, 192
-0.993724, 65, 241, 192, 304
-0.993734, 301, 369, 332, 400
-0.993734, 189, 213, 220, 244
-0.993735, 37, 365, 68, 396
-0.993737, 241, 17, 304, 48
-0.993738, 81, 273, 208, 336
-0.993743, 133, 421, 164, 452
-0.993744, 313, 357, 344, 388
-0.993747, 217, 185, 248, 216
-0.99375, 145, 309, 208, 340
-0.993751, 49, 429, 80, 460
-0.993762, 145, 245, 176, 276
-0.993769, 153, 413, 184, 444
-0.99377, 25, 345, 56, 376
-0.993773, 129, 277, 192, 308
-0.993774, 165, 413, 196, 444
-0.993776, 185, 377, 248, 408
-0.993778, 41, 377, 72, 408
-0.993779, 153, 325, 216, 356
-0.993783, 153, 241, 216, 304
-0.993783, 201, 197, 264, 228
-0.993789, 25, 101, 88, 132
-0.993791, 1, 301, 32, 332
-0.993791, 25, 205, 56, 236
-0.993791, 61, 17, 92, 48
-0.993792, 157, 249, 188, 280
-0.993795, 13, 189, 44, 220
-0.993799, 341, 173, 372, 204
-0.993799, 73, 13, 136, 44
-0.993799, 17, 409, 80, 440
-0.993804, 233, 393, 264, 424
-0.993804, 249, 389, 280, 420
-0.993805, 9, 453, 72, 484
-0.993805, 261, 1, 292, 32
-0.993807, 25, 193, 88, 224
-0.99381, 321, 181, 352, 212
-0.993815, 49, 17, 80, 48
-0.993818, 345, 185, 375, 216
-0.993818, 285, 385, 316, 416
-0.99382, 49, 141, 112, 172
-0.99382, 49, 425, 112, 456
-0.99382, 177, 325, 208, 356
-0.993823, 9, 285, 72, 316
-0.993823, 5, 201, 36, 232
-0.993823, 153, 5, 184, 36
-0.993823, 105, 457, 168, 488
-0.993824, 45, 389, 76, 420
-0.993829, 313, 369, 344, 400
-0.993833, 161, 341, 224, 372
-0.993834, 273, 1, 304, 32
-0.993834, 221, 173, 252, 204
-0.993835, 285, 17, 316, 48
-0.993838, 249, 1, 280, 32
-0.99384, 33, 17, 64, 48
-0.993841, 329, 349, 360, 380
-0.993842, 169, 269, 200, 300
-0.993842, 169, 309, 200, 340
-0.993843, 45, 401, 76, 432
-0.993843, 101, 17, 132, 48
-0.993844, 201, 205, 232, 236
-0.993846, 217, 157, 280, 188
-0.993846, 269, 385, 300, 416
-0.993847, 81, 17, 112, 48
-0.99385, 153, 277, 184, 308
-0.993852, 17, 17, 80, 48
-0.993853, 141, 13, 172, 44
-0.993853, 197, 85, 228, 116
-0.993853, 197, 361, 228, 392
-0.993855, 13, 317, 44, 348
-0.993855, 185, 341, 216, 372
-0.993856, 13, 109, 44, 140
-0.993856, 49, 385, 112, 416
-0.993858, 337, 161, 368, 192
-0.993859, 57, 417, 88, 448
-0.993859, 57, 1, 120, 32
-0.993859, 137, 293, 200, 324
-0.993862, 9, 225, 72, 256
-0.993863, 17, 217, 48, 248
-0.993864, 265, 17, 296, 48
-0.993864, 177, 409, 208, 440
-0.993866, 297, 9, 328, 40
-0.993869, 161, 293, 192, 324
-0.99387, 33, 121, 96, 152
-0.993874, 233, 1, 264, 32
-0.993876, 1, 257, 32, 288
-0.993877, 13, 121, 44, 152
-0.993877, 161, 273, 224, 304
-0.993877, 33, 193, 64, 224
-0.993878, 117, 17, 148, 48
-0.993879, 37, 413, 68, 444
-0.99388, 5, 89, 36, 120
-0.993884, 97, 125, 128, 156
-0.993885, 153, 217, 184, 248
-0.993885, 217, 17, 280, 48
-0.993886, 33, 77, 64, 108
-0.993887, 25, 101, 56, 132
-0.993887, 121, 93, 152, 124
-0.993888, 13, 285, 44, 316
-0.993889, 321, 17, 352, 48
-0.993893, 177, 301, 240, 332
-0.993893, 313, 385, 344, 416
-0.993895, 325, 149, 356, 180
-0.993898, 141, 233, 172, 264
-0.9939, 297, 353, 360, 384
-0.993902, 21, 17, 52, 48
-0.993902, 45, 73, 76, 104
-0.993902, 185, 201, 216, 232
-0.993903, 273, 397, 304, 428
-0.993903, 161, 261, 224, 292
-0.993903, 109, 449, 140, 480
-0.993904, 137, 81, 200, 112
-0.993904, 289, 173, 352, 204
-0.993905, 97, 1, 160, 32
-0.993906, 313, 169, 344, 200
-0.993906, 33, 177, 96, 208
-0.993907, 221, 17, 252, 48
-0.993908, 13, 173, 44, 204
-0.993908, 177, 285, 208, 316
-0.993908, 57, 381, 88, 412
-0.993908, 217, 125, 280, 156
-0.993909, 193, 17, 256, 48
-0.993909, 169, 85, 232, 116
-0.993909, 29, 449, 60, 480
-0.99391, 1, 229, 32, 260
-0.993911, 213, 377, 244, 408
-0.993914, 49, 181, 80, 212
-0.993915, 17, 301, 48, 332
-0.993916, 153, 261, 184, 292
-0.993917, 157, 25, 188, 56
-0.993918, 101, 5, 132, 36
-0.993919, 185, 297, 216, 328
-0.993921, 217, 105, 280, 136
-0.993922, 197, 405, 228, 436
-0.993923, 225, 161, 256, 192
-0.993923, 317, 1, 348, 32
-0.993925, 309, 17, 340, 48
-0.993926, 213, 197, 244, 228
-0.993926, 217, 1, 248, 32
-0.993926, 29, 89, 60, 120
-0.993926, 45, 441, 76, 472
-0.993929, 21, 77, 52, 108
-0.993929, 1, 213, 32, 244
-0.993929, 241, 17, 272, 48
-0.993932, 337, 113, 368, 144
-0.993932, 129, 9, 160, 40
-0.993932, 85, 29, 116, 60
-0.993933, 73, 5, 104, 36
-0.993933, 329, 361, 360, 392
-0.993934, 9, 117, 72, 148
-0.993934, 53, 5, 84, 36
-0.993935, 333, 189, 364, 220
-0.993936, 117, 5, 148, 36
-0.993936, 1, 189, 32, 220
-0.993937, 1, 337, 32, 368
-0.993937, 1, 25, 32, 56
-0.993937, 137, 425, 200, 456
-0.993938, 97, 25, 160, 56
-0.993938, 253, 17, 284, 48
-0.99394, 1, 113, 32, 144
-0.993943, 29, 181, 60, 212
-0.993943, 37, 353, 68, 384
-0.993944, 77, 157, 108, 188
-0.993946, 193, 25, 224, 56
-0.993948, 249, 397, 312, 428
-0.993949, 9, 269, 40, 300
-0.993949, 133, 85, 164, 116
-0.993953, 129, 213, 192, 244
-0.993953, 17, 429, 80, 460
-0.993954, 1, 185, 64, 216
-0.993956, 89, 429, 152, 460
-0.993963, 121, 413, 184, 444
-0.993963, 169, 285, 232, 316
-0.993968, 169, 193, 232, 224
-0.993968, 49, 361, 112, 392
-0.993974, 89, 125, 152, 156
-0.993976, 17, 161, 80, 192
-0.993977, 217, 137, 280, 168
-0.993978, 1, 253, 64, 284
-0.993981, 9, 133, 72, 164
-0.993984, 313, 373, 375, 404
-0.993986, 145, 5, 208, 36
-0.993989, 57, 129, 120, 160
-0.99401, 65, 109, 128, 140
-0.994012, 121, 225, 184, 256
-0.994015, 145, 241, 272, 304
-0.994015, 313, 1, 375, 32
-0.994018, 17, 29, 80, 60
-0.994021, 9, 469, 72, 500
-0.994023, 1, 237, 64, 268
-0.994031, 313, 173, 375, 204
-0.994031, 193, 333, 256, 364
-0.994034, 201, 393, 264, 424
-0.994036, 41, 349, 104, 380
-0.994036, 41, 449, 104, 480
-0.994041, 273, 97, 336, 128
-0.994044, 185, 321, 248, 352
-0.994049, 201, 5, 264, 36
-0.994052, 193, 405, 256, 436
-0.994059, 1, 89, 64, 120
-0.994059, 25, 329, 88, 360
-0.994067, 313, 121, 375, 152
-0.994071, 145, 229, 208, 260
-0.994075, 17, 5, 80, 36
-0.994082, 17, 65, 80, 96
-0.994083, 41, 165, 104, 196
-0.994088, 161, 353, 224, 384
-0.994091, 57, 29, 120, 60
-0.994093, 41, 461, 104, 492
-0.994099, 97, 13, 160, 44
-0.994099, 161, 25, 224, 56
-0.994104, 185, 177, 248, 208
-0.994106, 313, 149, 375, 180
-0.994109, 289, 1, 352, 32
-0.994114, 49, 413, 112, 444
-0.994114, 313, 189, 375, 220
-0.994122, 193, 129, 256, 160
-0.994122, 193, 361, 256, 392
-0.994124, 1, 197, 64, 228
-0.994127, 9, 441, 72, 472
-0.99413, 129, 21, 192, 52
-0.994141, 281, 397, 344, 428
-0.994143, 33, 81, 96, 112
-0.994148, 113, 89, 176, 120
-0.994236, 33, 369, 160, 432
-0.994337, 1, 249, 64, 312
-0.994366, 145, 225, 208, 480
-0.994385, 193, 161, 256, 416
-0.994399, 97, 305, 224, 368
-0.994411, 153, 313, 216, 376
-0.994426, 1, 313, 64, 376
-0.994434, 177, 329, 304, 392
-0.994441, 241, 305, 368, 432
-0.994479, 161, 401, 224, 464
-0.994526, 137, 281, 200, 344
-0.994528, 97, 433, 224, 496
-0.994551, 41, 425, 104, 488
-0.994579, 1, 273, 32, 400
-0.994583, 17, 185, 144, 248
-0.994645, 1, 89, 128, 152
-0.994661, 145, 401, 272, 464
-0.994703, 161, 49, 288, 176
-0.994865, 113, 353, 240, 480
-0.994898, 1, 281, 128, 344
-0.994911, 1, 209, 128, 272
-0.994941, 65, 1, 192, 64
-0.994976, 1, 113, 128, 176
-0.994994, 177, 1, 304, 64
-0.995088, 33, 305, 160, 432
-0.995119, 161, 1, 288, 128
-0.995122, 217, 145, 280, 208
-0.995125, 25, 81, 88, 144
-0.995127, 161, 369, 288, 432
-0.99515, 33, 161, 160, 224
-0.995172, 217, 377, 280, 440
-0.995295, 225, 353, 352, 416
-0.995455, 29, 337, 60, 464
-0.995484, 25, 1, 88, 500
-0.995497, 289, 73, 352, 136
-0.995498, 13, 193, 44, 320
-0.995543, 13, 313, 44, 376
-0.995559, 209, 393, 336, 456
-0.995593, 201, 193, 264, 256
-0.995616, 57, 97, 120, 224
-0.995644, 97, 145, 224, 272
-0.995688, 193, 81, 320, 144
-0.995706, 97, 329, 224, 392
-0.995718, 1, 9, 128, 72
-0.995742, 137, 1, 200, 128
-0.995757, 129, 121, 256, 184
-0.99581, 65, 201, 192, 264
-0.995874, 17, 65, 144, 128
-0.995878, 241, 169, 368, 232
-0.995882, 33, 353, 96, 480
-0.995885, 33, 129, 288, 192
-0.995886, 89, 1, 152, 64
-0.995904, 161, 281, 288, 344
-0.995908, 49, 105, 112, 168
-0.995975, 273, 1, 336, 500
-0.996, 313, 57, 375, 120
-0.996003, 249, 337, 312, 464
-0.996009, 129, 1, 256, 64
-0.996032, 1, 305, 256, 368
-0.996038, 297, 337, 360, 464
-0.996074, 33, 345, 160, 408
-0.996092, 1, 257, 64, 500
-0.996094, 153, 321, 216, 448
-0.996115, 5, 177, 36, 240
-0.996153, 129, 225, 375, 288
-0.996164, 97, 1, 160, 128
-0.996164, 185, 401, 248, 464
-0.996194, 25, 17, 88, 144
-0.99625, 33, 65, 96, 192
-0.996293, 33, 161, 96, 416
-0.99633, 73, 33, 136, 160
-0.996367, 49, 89, 176, 152
-0.996392, 37, 353, 68, 416
-0.996392, 49, 49, 176, 176
-0.996395, 173, 217, 204, 280
-0.996396, 185, 121, 248, 184
-0.996416, 145, 145, 272, 208
-0.996425, 189, 321, 220, 448
-0.996446, 201, 305, 264, 432
-0.996451, 9, 145, 72, 272
-0.996456, 177, 369, 240, 496
-0.996472, 1, 193, 256, 256
-0.996476, 9, 281, 72, 344
-0.996557, 1, 257, 128, 320
-0.996571, 1, 273, 256, 336
-0.996573, 209, 161, 240, 288
-0.996575, 177, 305, 304, 368
-0.996627, 97, 177, 224, 240
-0.996669, 49, 113, 176, 176
-0.996671, 9, 433, 72, 496
-0.996718, 169, 81, 232, 144
-0.996744, 185, 209, 216, 336
-0.996761, 33, 129, 96, 192
-0.996792, 217, 1, 280, 500
-0.996813, 17, 321, 144, 384
-0.996825, 1, 329, 256, 392
-0.996829, 9, 49, 72, 112
-0.996847, 1, 225, 64, 288
-0.996866, 1, 137, 128, 200
-0.996894, 17, 321, 48, 448
-0.9969, 185, 289, 248, 352
-0.996952, 113, 65, 176, 192
-0.996961, 1, 161, 64, 224
-0.996981, 33, 105, 288, 168
-0.996984, 113, 353, 240, 416
-0.997004, 33, 153, 288, 216
-0.997038, 1, 33, 128, 96
-0.997042, 89, 113, 152, 176
-0.997105, 1, 297, 32, 360
-0.997109, 305, 1, 368, 128
-0.997125, 257, 353, 320, 416
-0.99713, 49, 137, 176, 200
-0.997155, 241, 177, 368, 304
-0.997157, 161, 337, 224, 400
-0.997169, 193, 1, 256, 128
-0.99718, 165, 273, 196, 400
-0.997187, 1, 409, 256, 472
-0.997217, 149, 241, 180, 304
-0.997236, 1, 433, 256, 496
-0.99725, 113, 81, 176, 144
-0.997321, 129, 201, 375, 264
-0.997339, 201, 1, 264, 64
-0.997342, 57, 153, 120, 216
-0.997384, 1, 161, 375, 224
-0.997397, 113, 1, 176, 500
-0.9974, 25, 329, 56, 392
-0.997414, 49, 417, 80, 480
-0.997443, 129, 265, 375, 328
-0.997457, 41, 377, 72, 440
-0.997518, 1, 377, 256, 440
-0.997522, 161, 273, 192, 336
-0.997569, 225, 1, 352, 64
-0.997594, 205, 353, 236, 480
-0.997679, 1, 233, 256, 296
-0.997728, 1, 25, 64, 88
-0.997732, 137, 65, 200, 192
-0.997735, 241, 73, 368, 136
-0.997754, 209, 177, 240, 240
-0.9978, 297, 1, 360, 500
-0.9978, 217, 89, 280, 152
-0.997803, 129, 201, 192, 264
-0.997816, 113, 425, 144, 488
-0.997827, 81, 97, 144, 224
-0.997832, 197, 193, 228, 320
-0.997842, 129, 289, 375, 352
-0.99785, 167, 233, 182, 296
-0.997853, 65, 81, 320, 144
-0.997866, 1, 233, 128, 296
-0.997868, 265, 385, 328, 448
-0.997883, 161, 145, 224, 272
-0.997885, 17, 433, 144, 464
-0.997888, 33, 33, 96, 288
-0.997898, 145, 169, 272, 232
-0.9979, 1, 1, 64, 500
-0.997939, 145, 433, 272, 496
-0.99796, 49, 369, 112, 432
-0.997988, 49, 1, 112, 500
-0.99804, 1, 401, 375, 464
-0.998044, 49, 41, 176, 104
-0.998054, 25, 177, 56, 304
-0.998066, 249, 1, 312, 500
-0.998093, 193, 313, 256, 376
-0.9981, 313, 345, 375, 408
-0.998103, 129, 1, 192, 64
-0.99811, 297, 361, 328, 424
-0.998121, 33, 353, 288, 416
-0.998147, 161, 233, 176, 296
-0.998174, 97, 401, 352, 464
-0.998176, 297, 17, 328, 32
-0.998176, 5, 89, 36, 104
-0.998176, 29, 119, 60, 134
-0.998176, 229, 13, 260, 28
-0.998176, 157, 261, 188, 276
-0.998177, 161, 301, 192, 316
-0.998177, 333, 15, 364, 30
-0.998177, 333, 21, 364, 36
-0.998177, 285, 27, 316, 42
-0.998177, 57, 375, 88, 390
-0.998178, 25, 205, 56, 220
-0.998178, 97, 1, 160, 256
-0.998178, 89, 1, 120, 16
-0.998178, 317, 385, 348, 400
-0.998178, 169, 281, 200, 296
-0.998178, 61, 423, 92, 438
-0.998178, 317, 1, 348, 16
-0.998178, 41, 11, 72, 26
-0.998179, 253, 407, 284, 422
-0.998179, 165, 271, 196, 286
-0.998179, 29, 357, 60, 372
-0.998179, 345, 17, 375, 32
-0.998179, 9, 65, 40, 80
-0.998179, 17, 311, 48, 326
-0.998179, 9, 113, 40, 128
-0.99818, 1, 303, 32, 318
-0.99818, 141, 17, 172, 32
-0.99818, 169, 225, 200, 240
-0.99818, 17, 305, 48, 320
-0.99818, 277, 7, 308, 22
-0.998181, 1, 131, 32, 146
-0.998181, 237, 23, 268, 38
-0.998181, 305, 387, 336, 402
-0.998181, 45, 391, 76, 406
-0.998181, 61, 27, 92, 42
-0.998182, 273, 19, 304, 34
-0.998182, 37, 89, 68, 104
-0.998182, 33, 27, 64, 42
-0.998182, 305, 11, 336, 26
-0.998183, 337, 121, 368, 136
-0.998183, 33, 363, 64, 378
-0.998183, 157, 15, 188, 30
-0.998183, 13, 131, 44, 146
-0.998184, 37, 369, 68, 384
-0.998184, 53, 11, 84, 26
-0.998184, 117, 17, 148, 32
-0.998185, 21, 345, 52, 360
-0.998185, 309, 17, 340, 32
-0.998185, 213, 1, 244, 16
-0.998185, 141, 5, 172, 20
-0.998185, 57, 429, 88, 444
-0.998185, 337, 189, 368, 204
-0.998185, 261, 19, 292, 34
-0.998186, 41, 21, 72, 36
-0.998186, 313, 167, 344, 182
-0.998186, 277, 403, 308, 418
-0.998186, 97, 13, 128, 28
-0.998186, 1, 261, 32, 276
-0.998186, 301, 25, 332, 40
-0.998187, 197, 87, 228, 102
-0.998187, 13, 201, 44, 216
-0.998187, 51, 361, 66, 424
-0.998187, 153, 9, 184, 24
-0.998187, 233, 1, 264, 16
-0.998187, 337, 167, 368, 182
-0.998187, 221, 179, 252, 194
-0.998187, 1, 185, 32, 200
-0.998188, 281, 1, 312, 16
-0.998188, 233, 7, 264, 22
-0.998188, 97, 25, 128, 40
-0.998189, 1, 309, 32, 324
-0.998189, 169, 413, 200, 428
-0.99819, 245, 1, 276, 16
-0.99819, 293, 7, 324, 22
-0.99819, 145, 247, 176, 262
-0.998191, 265, 11, 296, 26
-0.998191, 109, 7, 140, 22
-0.998191, 29, 105, 60, 120
-0.998191, 13, 185, 44, 200
-0.998192, 185, 409, 216, 424
-0.998192, 249, 7, 280, 22
-0.998193, 229, 403, 260, 418
-0.998194, 1, 321, 32, 336
-0.998194, 37, 375, 68, 390
-0.998194, 5, 339, 36, 354
-0.998194, 265, 3, 296, 18
-0.998195, 9, 101, 40, 116
-0.998196, 157, 253, 188, 268
-0.998196, 317, 179, 348, 194
-0.998196, 1, 221, 32, 236
-0.998196, 17, 339, 48, 354
-0.998197, 317, 365, 348, 380
-0.998198, 285, 13, 316, 28
-0.998198, 53, 19, 84, 34
-0.998199, 217, 185, 248, 200
-0.998199, 41, 381, 72, 396
-0.998199, 1, 315, 32, 330
-0.998199, 149, 241, 180, 368
-0.998199, 301, 373, 332, 388
-0.9982, 81, 21, 112, 36
-0.9982, 301, 1, 332, 16
-0.9982, 141, 11, 172, 26
-0.998201, 101, 19, 132, 34
-0.998201, 321, 21, 352, 36
-0.998202, 129, 5, 160, 20
-0.998202, 273, 389, 304, 404
-0.998203, 45, 81, 76, 96
-0.998203, 337, 183, 368, 198
-0.998203, 149, 417, 180, 432
-0.998205, 137, 421, 168, 436
-0.998206, 253, 399, 284, 414
-0.998207, 293, 395, 324, 410
-0.998207, 329, 353, 360, 368
-0.998207, 293, 383, 324, 398
-0.998209, 313, 173, 344, 188
-0.99821, 285, 21, 316, 36
-0.99821, 313, 371, 344, 386
-0.998212, 121, 11, 152, 26
-0.998212, 189, 217, 220, 232
-0.998213, 21, 99, 52, 114
-0.998215, 237, 395, 268, 410
-0.998215, 117, 429, 148, 444
-0.998215, 273, 397, 304, 412
-0.998218, 169, 237, 200, 252
-0.998219, 333, 173, 364, 188
-0.998224, 9, 327, 40, 342
-0.998226, 175, 217, 190, 280
-0.998232, 173, 231, 204, 246
-0.998234, 285, 389, 316, 404
-0.998234, 325, 167, 356, 182
-0.998236, 249, 393, 280, 408
-0.998241, 161, 243, 192, 258
-0.998242, 193, 25, 320, 88
-0.998257, 181, 223, 212, 238
-0.998257, 129, 169, 375, 232
-0.998278, 33, 313, 96, 376
-0.998284, 13, 333, 44, 348
-0.998291, 177, 305, 208, 432
-0.998291, 113, 57, 240, 120
-0.998323, 241, 257, 368, 384
-0.998328, 49, 337, 112, 400
-0.998331, 57, 1, 120, 64
-0.99834, 281, 1, 344, 128
-0.998371, 169, 1, 232, 128
-0.998392, 1, 1, 64, 128
-0.998399, 313, 81, 375, 144
-0.998401, 17, 445, 144, 476
-0.998421, 213, 369, 244, 432
-0.998428, 225, 425, 352, 488
-0.998433, 181, 313, 212, 376
-0.998436, 9, 241, 72, 368
-0.998472, 1, 321, 375, 384
-0.998512, 21, 201, 52, 264
-0.998515, 17, 457, 144, 488
-0.998517, 297, 169, 360, 232
-0.998525, 1, 137, 375, 200
-0.998535, 1, 409, 64, 472
-0.99856, 9, 113, 72, 176
-0.998569, 241, 321, 368, 384
-0.998578, 169, 265, 232, 328
-0.998584, 97, 25, 224, 88
-0.998597, 1, 185, 375, 248
-0.998611, 145, 241, 272, 272
-0.998613, 217, 177, 232, 240
-0.998627, 53, 425, 68, 488
-0.99863, 129, 129, 375, 192
-0.99864, 15, 297, 30, 360
-0.998642, 209, 161, 336, 192
-0.998653, 161, 221, 288, 252
-0.99867, 181, 217, 196, 280
-0.998671, 17, 469, 144, 500
-0.998671, 113, 85, 240, 116
-0.99869, 49, 405, 176, 436
-0.99869, 1, 113, 375, 176
-0.998699, 193, 201, 224, 264
-0.998727, 57, 377, 72, 440
-0.99874, 225, 397, 288, 412
-0.998742, 169, 225, 232, 240
-0.998743, 327, 161, 342, 224
-0.998743, 21, 313, 36, 376
-0.998744, 1, 353, 64, 368
-0.998747, 97, 425, 224, 456
-0.998749, 45, 353, 60, 416
-0.998749, 241, 1, 304, 64
-0.998751, 1, 347, 64, 362
-0.998753, 249, 389, 312, 404
-0.998755, 177, 193, 208, 448
-0.998756, 33, 421, 160, 452
-0.998756, 177, 219, 240, 234
-0.998759, 153, 243, 216, 258
-0.998762, 153, 249, 216, 264
-0.998764, 313, 33, 375, 96
-0.998765, 113, 431, 176, 446
-0.998766, 169, 231, 232, 246
-0.998767, 281, 65, 344, 192
-0.998768, 1, 341, 64, 356
-0.99877, 17, 79, 80, 94
-0.99877, 289, 373, 352, 388
-0.99877, 161, 237, 224, 252
-0.99877, 313, 167, 375, 182
-0.998771, 233, 19, 296, 34
-0.998771, 9, 371, 72, 386
-0.998771, 9, 183, 72, 198
-0.998772, 217, 179, 280, 194
-0.998773, 289, 395, 352, 410
-0.998773, 129, 11, 192, 26
-0.998774, 49, 385, 112, 400
-0.998775, 225, 391, 288, 406
-0.998775, 185, 407, 248, 422
-0.998775, 209, 189, 272, 204
-0.998776, 17, 125, 80, 140
-0.998777, 105, 437, 168, 452
-0.998777, 97, 7, 160, 22
-0.998778, 249, 395, 312, 410
-0.998778, 233, 7, 296, 22
-0.998778, 217, 173, 280, 188
-0.998778, 289, 19, 352, 34
-0.998778, 153, 413, 216, 428
-0.998779, 129, 423, 192, 438
-0.998779, 17, 391, 80, 406
-0.99878, 265, 401, 328, 416
-0.99878, 9, 305, 72, 320
-0.99878, 1, 281, 64, 296
-0.998781, 121, 17, 184, 32
-0.998781, 1, 189, 64, 204
-0.998782, 49, 379, 112, 394
-0.998782, 9, 327, 72, 342
-0.998782, 1, 267, 64, 282
-0.998782, 289, 355, 352, 370
-0.998782, 105, 447, 168, 462
-0.998783, 121, 5, 184, 20
-0.998783, 9, 365, 72, 380
-0.998783, 17, 381, 80, 396
-0.998783, 273, 1, 336, 16
-0.998783, 313, 161, 375, 176
-0.998784, 33, 21, 96, 36
-0.998784, 193, 213, 256, 228
-0.998784, 129, 279, 192, 294
-0.998784, 281, 383, 344, 398
-0.998784, 281, 7, 344, 22
-0.998784, 9, 299, 72, 314
-0.998785, 9, 313, 72, 328
-0.998786, 129, 233, 192, 248
-0.998786, 9, 101, 72, 116
-0.998786, 265, 17, 328, 32
-0.998786, 9, 177, 72, 192
-0.998786, 17, 419, 80, 434
-0.998786, 57, 11, 120, 26
-0.998786, 273, 25, 336, 40
-0.998786, 153, 257, 216, 272
-0.998786, 121, 263, 184, 278
-0.998787, 1, 287, 64, 302
-0.998787, 49, 391, 112, 406
-0.998787, 241, 405, 304, 420
-0.998787, 49, 373, 112, 388
-0.998787, 1, 335, 64, 350
-0.998787, 49, 431, 112, 446
-0.998788, 217, 125, 280, 140
-0.998788, 169, 289, 232, 304
-0.998788, 313, 11, 375, 26
-0.998788, 1, 273, 64, 288
-0.998788, 9, 293, 72, 308
-0.998789, 97, 13, 160, 28
-0.998789, 161, 273, 224, 288
-0.998789, 1, 195, 64, 210
-0.998789, 9, 319, 72, 334
-0.998789, 17, 213, 80, 228
-0.998789, 17, 89, 80, 104
-0.99879, 169, 299, 232, 314
-0.99879, 121, 257, 184, 272
-0.99879, 25, 67, 88, 82
-0.99879, 249, 1, 312, 16
-0.99879, 137, 295, 200, 310
-0.99879, 209, 19, 272, 34
-0.99879, 313, 21, 375, 36
-0.998791, 137, 85, 200, 100
-0.998791, 9, 109, 72, 124
-0.998791, 153, 329, 216, 344
-0.998791, 121, 251, 184, 266
-0.998792, 105, 425, 168, 440
-0.998792, 41, 363, 104, 378
-0.998792, 97, 1, 160, 16
-0.998792, 177, 309, 240, 324
-0.998792, 25, 333, 88, 348
-0.998792, 17, 11, 80, 26
-0.998792, 193, 57, 320, 120
-0.998793, 161, 283, 224, 298
-0.998793, 193, 1, 256, 16
-0.998793, 9, 225, 72, 240
-0.998794, 33, 347, 96, 362
-0.998794, 193, 29, 256, 44
-0.998794, 41, 437, 104, 452
-0.998794, 313, 173, 375, 188
-0.998794, 17, 207, 80, 222
-0.998794, 137, 307, 200, 322
-0.998794, 41, 447, 104, 462
-0.998794, 1, 23, 64, 38
-0.998795, 185, 321, 248, 336
-0.998795, 217, 167, 280, 182
-0.998795, 249, 27, 312, 42
-0.998795, 9, 359, 72, 374
-0.998795, 17, 427, 80, 442
-0.998796, 121, 243, 184, 258
-0.998796, 17, 119, 80, 134
-0.998796, 177, 315, 240, 330
-0.998796, 49, 425, 112, 440
-0.998797, 161, 345, 224, 360
-0.998797, 17, 219, 80, 234
-0.998797, 145, 313, 208, 328
-0.998797, 9, 483, 72, 498
-0.998797, 217, 13, 280, 28
-0.998797, 57, 19, 120, 34
-0.998797, 193, 11, 256, 26
-0.998797, 177, 89, 240, 104
-0.998797, 49, 143, 112, 158
-0.998797, 129, 289, 192, 304
-0.998811, 161, 245, 176, 276
-0.998831, 193, 185, 320, 216
-0.998832, 217, 1, 280, 256
-0.998849, 241, 265, 368, 328
-0.998868, 209, 137, 336, 168
-0.998877, 169, 233, 184, 264
-0.998889, 175, 225, 190, 256
-0.998893, 257, 1, 320, 128
-0.998901, 65, 65, 192, 128
-0.998901, 195, 329, 210, 392
-0.998907, 81, 437, 208, 468
-0.998915, 221, 129, 252, 256
-0.998922, 25, 201, 40, 264
-0.998925, 49, 401, 112, 464
-0.998925, 113, 377, 240, 440
-0.998928, 17, 321, 32, 352
-0.998928, 121, 177, 184, 304
-0.998936, 65, 245, 192, 276
-0.998938, 29, 329, 44, 392
-0.99894, 331, 345, 346, 408
-0.998945, 65, 97, 128, 352
-0.998956, 211, 185, 226, 248
-0.998957, 161, 209, 288, 240
-0.998958, 15, 185, 30, 248
-0.998962, 95, 1, 110, 64
-0.998971, 9, 1, 72, 64
-0.998974, 289, 49, 352, 112
-0.99898, 193, 173, 320, 204
-0.998986, 35, 337, 50, 400
-0.998991, 317, 353, 348, 416
-0.999009, 129, 413, 256, 444
-0.999009, 327, 169, 342, 200
-0.999012, 81, 277, 208, 308
-0.99902, 215, 369, 230, 432
-0.999022, 85, 1, 116, 64
-0.999025, 97, 433, 352, 496
-0.999026, 183, 305, 198, 368
-0.999029, 1, 17, 128, 48
-0.999032, 303, 361, 318, 424
-0.999047, 17, 125, 144, 156
-0.999056, 9, 281, 24, 344
-0.99906, 129, 337, 375, 400
-0.999063, 145, 261, 272, 292
-0.999064, 169, 161, 232, 224
-0.999065, 201, 337, 216, 400
-0.999072, 193, 193, 224, 448
-0.999078, 171, 281, 186, 344
-0.999081, 1, 325, 128, 356
-0.999084, 209, 113, 336, 144
-0.999086, 1, 345, 375, 408
-0.999089, 185, 337, 248, 400
-0.999089, 181, 221, 196, 252
-0.999091, 49, 9, 176, 40
-0.999094, 209, 125, 336, 156
-0.999096, 89, 1, 152, 500
-0.999097, 333, 349, 348, 380
-0.999098, 17, 193, 48, 448
-0.999105, 209, 113, 240, 240
-0.999113, 145, 33, 272, 96
-0.999114, 57, 33, 120, 96
-0.999119, 209, 149, 336, 180
-0.99912, 29, 129, 60, 256
-0.999127, 33, 385, 160, 416
-0.999131, 331, 137, 346, 200
-0.999135, 219, 181, 234, 212
-0.999138, 225, 297, 352, 360
-0.999141, 205, 201, 220, 264
-0.999143, 129, 313, 375, 376
-0.999153, 145, 65, 208, 320
-0.999153, 189, 321, 204, 384
-0.999161, 177, 349, 304, 380
-0.999162, 223, 169, 238, 232
-0.999165, 81, 453, 208, 484
-0.999166, 53, 377, 68, 408
-0.99917, 23, 325, 38, 356
-0.999175, 197, 209, 212, 272
-0.999175, 259, 393, 274, 424
-0.999183, 19, 217, 34, 280
-0.999184, 147, 1, 162, 64
-0.999185, 241, 393, 304, 456
-0.999187, 17, 105, 144, 136
-0.999205, 223, 369, 238, 432
-0.999206, 193, 101, 320, 132
-0.999206, 65, 257, 192, 288
-0.999206, 161, 1, 224, 64
-0.999211, 157, 409, 172, 472
-0.999216, 191, 209, 206, 272
-0.999219, 35, 341, 50, 372
-0.999219, 9, 201, 24, 264
-0.99922, 241, 193, 368, 256
-0.999221, 1, 225, 128, 256
-0.999222, 57, 425, 72, 456
-0.999226, 263, 377, 278, 440
-0.999228, 313, 129, 375, 192
-0.999228, 29, 333, 44, 364
-0.999228, 45, 357, 60, 388
-0.999228, 249, 393, 264, 424
-0.999229, 345, 57, 360, 120
-0.999229, 171, 257, 186, 320
-0.999232, 165, 257, 180, 320
-0.999235, 51, 401, 66, 464
-0.999245, 11, 301, 26, 332
-0.999247, 33, 77, 160, 108
-0.999248, 97, 309, 224, 340
-0.999251, 17, 193, 144, 224
-0.999257, 17, 345, 144, 376
-0.999257, 161, 293, 288, 324
-0.999262, 51, 49, 66, 112
-0.999263, 33, 373, 160, 404
-0.999265, 31, 193, 46, 256
-0.999266, 311, 361, 326, 424
-0.999267, 241, 177, 368, 208
-0.999269, 51, 365, 66, 396
-0.999271, 221, 161, 252, 224
-0.999273, 11, 333, 26, 364
-0.999274, 325, 345, 340, 408
-0.999275, 177, 297, 192, 360
-0.999277, 115, 425, 130, 488
-0.999278, 59, 409, 74, 472
-0.999287, 353, 57, 368, 120
-0.999289, 177, 397, 304, 428
-0.999289, 207, 361, 222, 424
-0.999289, 183, 401, 198, 464
-0.999295, 17, 177, 144, 208
-0.9993, 309, 369, 324, 400
-0.999302, 17, 309, 32, 340
-0.999302, 327, 361, 342, 392
-0.999311, 89, 1, 104, 64
-0.999316, 177, 265, 192, 328
-0.999323, 193, 401, 208, 464
-0.999324, 331, 373, 346, 404
-0.999333, 175, 297, 190, 328
-0.999333, 183, 313, 198, 344
-0.999333, 189, 325, 204, 356
-0.999336, 165, 277, 180, 308
-0.999338, 5, 177, 20, 240
-0.999338, 195, 337, 210, 368
-0.999343, 333, 165, 348, 196
-0.999344, 7, 257, 22, 320
-0.999345, 229, 1, 244, 64
-0.999346, 173, 269, 188, 300
-0.999346, 217, 49, 280, 176
-0.999349, 33, 357, 160, 388
-0.999352, 145, 5, 272, 36
-0.999354, 207, 205, 222, 236
-0.999356, 59, 389, 74, 420
-0.999358, 1, 301, 128, 332
-0.999359, 113, 197, 240, 228
-0.99936, 355, 81, 370, 144
-0.999362, 1, 137, 128, 168
-0.999364, 217, 121, 280, 184
-0.999364, 301, 377, 316, 408
-0.999365, 129, 377, 375, 440
-0.999365, 225, 1, 352, 32
-0.999368, 187, 217, 202, 248
-0.999371, 225, 173, 240, 204
-0.999374, 289, 385, 304, 416
-0.999378, 151, 409, 166, 472
-0.999381, 155, 5, 170, 36
-0.999381, 193, 17, 320, 48
-0.999382, 51, 433, 66, 464
-0.999389, 73, 73, 136, 136
-0.99939, 337, 345, 352, 408
-0.99939, 157, 417, 172, 448
-0.99939, 289, 17, 304, 48
-0.999392, 113, 221, 240, 252
-0.999394, 261, 1, 276, 32
-0.999395, 133, 425, 148, 456
-0.999396, 341, 153, 356, 216
-0.999397, 145, 281, 272, 312
-0.999399, 327, 369, 342, 432
-0.999399, 55, 9, 70, 40
-0.9994, 225, 385, 352, 416
-0.999403, 329, 181, 344, 212
-0.999404, 241, 25, 368, 88
-0.999404, 1, 349, 16, 380
-0.999406, 63, 19, 78, 34
-0.999406, 241, 23, 256, 38
-0.999406, 63, 423, 78, 438
-0.999407, 269, 393, 284, 408
-0.999407, 361, 163, 375, 178
-0.999407, 59, 401, 74, 432
-0.999407, 261, 7, 276, 22
-0.999407, 45, 361, 60, 376
-0.999407, 119, 5, 134, 20
-0.999407, 65, 25, 192, 56
-0.999407, 305, 21, 320, 36
-0.999407, 347, 21, 362, 36
-0.999407, 225, 173, 240, 188
-0.999407, 157, 417, 172, 432
-0.999407, 95, 1, 110, 16
-0.999408, 177, 309, 192, 324
-0.999408, 183, 321, 198, 336
-0.999408, 5, 263, 20, 278
-0.999408, 293, 11, 308, 26
-0.999408, 11, 299, 26, 314
-0.999408, 169, 415, 184, 430
-0.999408, 3, 185, 18, 200
-0.999408, 165, 229, 180, 244
-0.999408, 333, 165, 348, 180
-0.999408, 173, 299, 188, 314
-0.999408, 195, 343, 210, 358
-0.999408, 53, 433, 68, 448
-0.999408, 263, 19, 278, 34
-0.999409, 303, 371, 318, 386
-0.999409, 337, 21, 352, 36
-0.999409, 251, 3, 266, 18
-0.999409, 53, 13, 68, 28
-0.999409, 27, 97, 42, 112
-0.999409, 167, 289, 182, 304
-0.999409, 191, 337, 206, 352
-0.999409, 117, 429, 132, 460
-0.99941, 95, 21, 110, 36
-0.99941, 257, 23, 272, 38
-0.99941, 167, 261, 182, 292
-0.99941, 339, 171, 354, 186
-0.99941, 15, 175, 30, 190
-0.99941, 323, 21, 338, 36
-0.99941, 17, 103, 32, 118
-0.99941, 117, 431, 132, 446
-0.99941, 17, 319, 32, 334
-0.999411, 315, 387, 330, 402
-0.999411, 185, 257, 248, 384
-0.999411, 135, 11, 150, 26
-0.999411, 321, 169, 336, 184
-0.999412, 11, 305, 26, 320
-0.999412, 115, 19, 130, 34
-0.999412, 213, 85, 228, 100
-0.999412, 169, 271, 184, 286
-0.999412, 269, 405, 284, 420
-0.999412, 167, 265, 182, 280
-0.999412, 229, 1, 244, 16
-0.999413, 155, 249, 170, 264
-0.999413, 293, 21, 308, 36
-0.999413, 119, 11, 134, 26
-0.999413, 15, 183, 30, 198
-0.999414, 313, 1, 328, 16
-0.999414, 251, 21, 266, 36
-0.999415, 329, 383, 344, 398
-0.999415, 47, 23, 62, 38
-0.999415, 355, 167, 370, 182
-0.999415, 57, 19, 72, 34
-0.999415, 129, 11, 144, 26
-0.999416, 35, 345, 50, 360
-0.999416, 241, 393, 256, 408
-0.999416, 143, 421, 158, 452
-0.999416, 13, 311, 28, 326
-0.999416, 51, 83, 66, 98
-0.999416, 141, 17, 156, 32
-0.999417, 163, 259, 178, 274
-0.999417, 299, 21, 314, 36
-0.999417, 269, 385, 284, 448
-0.999417, 143, 11, 158, 26
-0.999418, 215, 1, 230, 16
-0.999418, 49, 369, 64, 384
-0.999418, 41, 355, 56, 370
-0.999418, 51, 375, 66, 390
-0.999418, 305, 377, 320, 392
-0.999418, 55, 389, 70, 404
-0.999418, 309, 385, 324, 400
-0.999419, 63, 17, 78, 48
-0.999419, 275, 405, 290, 420
-0.999419, 217, 185, 232, 200
-0.999419, 151, 11, 166, 26
-0.999419, 251, 391, 266, 406
-0.999419, 295, 27, 310, 42
-0.99942, 5, 225, 20, 288
-0.99942, 245, 403, 260, 418
-0.99942, 329, 21, 344, 36
-0.999422, 1, 313, 128, 344
-0.999422, 169, 413, 184, 444
-0.999422, 81, 297, 208, 328
-0.999422, 177, 337, 304, 368
-0.999423, 321, 169, 336, 200
-0.999423, 297, 381, 312, 396
-0.999424, 349, 161, 364, 192
-0.999424, 213, 189, 228, 220
-0.999424, 277, 393, 292, 408
-0.999425, 339, 183, 354, 198
-0.999425, 323, 383, 338, 398
-0.999425, 59, 429, 74, 444
-0.999426, 189, 219, 204, 234
-0.999427, 223, 179, 238, 194
-0.999429, 247, 397, 262, 412
-0.999429, 165, 1, 180, 32
-0.99943, 291, 397, 306, 412
-0.99943, 331, 361, 346, 376
-0.99943, 303, 385, 318, 400
-0.99943, 27, 335, 42, 350
-0.999431, 13, 327, 28, 342
-0.999431, 285, 21, 300, 36
-0.999432, 285, 385, 300, 400
-0.999432, 65, 229, 192, 260
-0.999433, 201, 213, 216, 244
-0.999433, 1, 347, 16, 362
-0.999434, 1, 289, 128, 320
-0.999434, 301, 391, 316, 406
-0.999435, 53, 381, 68, 396
-0.999435, 167, 201, 182, 264
-0.999436, 37, 169, 52, 232
-0.999436, 129, 169, 256, 200
-0.999436, 333, 173, 348, 188
-0.999437, 49, 1, 112, 128
-0.999437, 161, 253, 176, 268
-0.999438, 59, 81, 74, 96
-0.999438, 257, 391, 272, 406
-0.999438, 9, 183, 24, 198
-0.999438, 337, 57, 352, 120
-0.999439, 129, 17, 256, 48
-0.999439, 161, 313, 288, 344
-0.99944, 9, 335, 24, 350
-0.999442, 175, 233, 190, 248
-0.999442, 273, 399, 288, 414
-0.999442, 237, 17, 252, 48
-0.999444, 1, 213, 128, 244
-0.999445, 81, 209, 208, 240
-0.999446, 15, 173, 30, 204
-0.999447, 283, 397, 298, 412
-0.999447, 291, 389, 306, 404
-0.999448, 309, 371, 324, 386
-0.999448, 327, 163, 342, 178
-0.999448, 165, 13, 180, 44
-0.999448, 173, 209, 188, 336
-0.99945, 295, 17, 310, 48
-0.99945, 21, 177, 36, 240
-0.999452, 63, 421, 78, 452
-0.999454, 259, 403, 274, 418
-0.999454, 3, 25, 18, 88
-0.999454, 219, 121, 234, 184
-0.999454, 11, 185, 26, 216
-0.999454, 323, 175, 338, 190
-0.999454, 97, 333, 224, 364
-0.999455, 9, 289, 24, 320
-0.999455, 203, 353, 218, 384
-0.999455, 171, 285, 186, 316
-0.999456, 331, 179, 346, 194
-0.999457, 161, 247, 176, 262
-0.999457, 15, 333, 30, 348
-0.999459, 127, 425, 142, 456
-0.999459, 169, 235, 184, 250
-0.999459, 253, 397, 268, 412
-0.99946, 159, 257, 174, 320
-0.99946, 195, 217, 210, 248
-0.99946, 175, 413, 190, 444
-0.999461, 27, 205, 42, 236
-0.999462, 267, 399, 282, 414
-0.999463, 263, 393, 278, 408
-0.999464, 333, 361, 348, 392
-0.999464, 265, 385, 280, 416
-0.999465, 21, 331, 36, 346
-0.999465, 163, 413, 178, 444
-0.999466, 183, 223, 198, 238
-0.999467, 49, 17, 64, 48
-0.999469, 347, 81, 362, 144
-0.999469, 335, 177, 350, 240
-0.999472, 13, 109, 28, 140
-0.999472, 141, 409, 156, 472
-0.999473, 339, 169, 354, 200
-0.999473, 69, 17, 84, 48
-0.999473, 331, 353, 346, 368
-0.999474, 177, 325, 304, 356
-0.999476, 221, 1, 236, 32
-0.999476, 193, 197, 320, 228
-0.999477, 187, 409, 202, 440
-0.999477, 33, 93, 160, 124
-0.999478, 327, 157, 342, 188
-0.999478, 247, 1, 262, 32
-0.999479, 19, 325, 34, 340
-0.999479, 41, 345, 56, 376
-0.999479, 151, 417, 166, 448
-0.999481, 271, 1, 286, 32
-0.999481, 63, 385, 78, 448
-0.999483, 193, 361, 320, 392
-0.999485, 163, 409, 178, 472
-0.999485, 165, 241, 180, 256
-0.999486, 327, 349, 342, 380
-0.999487, 7, 257, 22, 288
-0.999491, 53, 413, 68, 444
-0.999491, 269, 397, 284, 428
-0.999493, 177, 227, 192, 242
-0.9995, 159, 265, 174, 296
-0.999503, 155, 17, 170, 48
-0.999504, 337, 185, 352, 216
-0.999504, 265, 17, 280, 48
-0.999505, 255, 1, 270, 32
-0.999511, 155, 249, 170, 280
-0.999512, 57, 1, 120, 256
-0.999515, 65, 1, 80, 32
-0.999516, 327, 17, 342, 48
-0.999517, 327, 169, 342, 184
-0.999517, 23, 217, 38, 248
-0.999518, 33, 157, 160, 188
-0.999518, 181, 409, 196, 440
-0.999519, 7, 89, 22, 120
-0.999519, 237, 389, 252, 420
-0.99952, 3, 77, 18, 108
-0.999521, 165, 225, 196, 480
-0.999521, 209, 373, 336, 404
-0.999522, 279, 385, 294, 416
-0.999524, 321, 153, 336, 216
-0.999524, 129, 149, 256, 180
-0.999525, 93, 141, 108, 172
-0.999526, 275, 17, 290, 48
-0.999527, 143, 9, 158, 40
-0.999528, 289, 1, 352, 64
-0.999528, 265, 81, 328, 144
-0.999529, 323, 381, 338, 412
-0.999531, 47, 77, 62, 108
-0.999533, 231, 17, 246, 48
-0.999535, 15, 89, 30, 120
-0.999535, 181, 209, 196, 240
-0.999537, 97, 129, 112, 160
-0.999537, 357, 161, 372, 192
-0.999538, 111, 453, 126, 484
-0.999538, 149, 13, 164, 44
-0.999538, 245, 17, 260, 48
-0.999539, 97, 17, 112, 48
-0.999539, 209, 89, 336, 120
-0.999542, 5, 277, 20, 308
-0.999542, 125, 17, 140, 48
-0.999542, 211, 81, 226, 144
-0.999542, 133, 417, 148, 480
-0.999543, 347, 21, 362, 52
-0.999544, 171, 1, 186, 32
-0.999547, 321, 21, 336, 52
-0.999547, 225, 349, 352, 380
-0.999548, 345, 173, 360, 204
-0.999548, 313, 1, 328, 64
-0.999548, 43, 17, 58, 48
-0.999548, 77, 17, 92, 48
-0.999548, 179, 209, 194, 336
-0.999549, 1, 81, 64, 144
-0.99955, 41, 329, 56, 392
-0.999552, 135, 1, 150, 32
-0.999552, 33, 77, 48, 108
-0.999553, 185, 281, 200, 344
-0.999553, 209, 85, 224, 116
-0.999553, 33, 129, 48, 160
-0.999555, 195, 205, 210, 236
-0.999556, 115, 17, 130, 48
-0.999557, 125, 5, 140, 36
-0.99956, 181, 193, 196, 256
-0.999566, 121, 417, 136, 480
-0.999566, 117, 1, 132, 64
-0.999568, 13, 241, 28, 304
-0.999569, 241, 17, 368, 48
-0.999572, 97, 321, 224, 352
-0.999572, 81, 465, 208, 496
-0.999573, 97, 121, 112, 184
-0.999575, 341, 81, 356, 144
-0.999578, 167, 225, 182, 352
-0.999584, 41, 129, 72, 256
-0.999585, 213, 401, 228, 464
-0.999588, 43, 161, 58, 224
-0.999588, 279, 1, 294, 64
-0.999593, 331, 57, 346, 120
-0.999594, 127, 417, 142, 480
-0.999594, 113, 97, 240, 128
-0.999596, 57, 9, 72, 72
-0.999596, 125, 1, 156, 128
-0.999597, 233, 377, 248, 440
-0.999597, 129, 133, 256, 164
-0.999599, 33, 89, 48, 152
-0.999603, 141, 1, 156, 64
-0.999605, 47, 17, 62, 80
-0.999605, 49, 353, 64, 480
-0.999605, 197, 369, 212, 432
-0.999606, 199, 401, 214, 464
-0.999608, 177, 401, 192, 464
-0.999608, 1, 225, 32, 288
-0.999609, 23, 9, 38, 72
-0.99961, 97, 5, 224, 36
-0.999611, 109, 433, 124, 496
-0.999612, 169, 409, 184, 472
-0.999616, 197, 65, 228, 320
-0.999618, 47, 433, 62, 496
-0.999619, 65, 1, 320, 64
-0.999624, 83, 9, 98, 72
-0.999627, 161, 121, 288, 152
-0.999627, 359, 57, 374, 120
-0.999628, 201, 65, 232, 192
-0.999629, 59, 33, 74, 96
-0.999633, 199, 185, 214, 248
-0.999637, 205, 161, 236, 416
-0.999639, 225, 353, 288, 416
-0.999639, 109, 1, 124, 64
-0.999639, 241, 49, 368, 112
-0.999641, 43, 73, 58, 136
-0.999642, 49, 153, 64, 216
-0.999646, 45, 17, 76, 144
-0.999647, 23, 289, 38, 352
-0.999648, 63, 73, 78, 136
-0.999649, 113, 345, 240, 376
-0.999654, 227, 137, 242, 200
-0.999657, 187, 185, 202, 248
-0.999657, 175, 193, 190, 256
-0.999657, 297, 353, 312, 416
-0.999658, 153, 1, 168, 64
-0.99966, 77, 9, 92, 72
-0.99966, 241, 101, 368, 132
-0.999663, 23, 73, 38, 136
-0.999669, 221, 145, 236, 208
-0.99967, 171, 1, 186, 64
-0.999672, 39, 49, 54, 112
-0.999672, 297, 289, 360, 416
-0.999674, 55, 369, 70, 496
-0.99968, 57, 97, 88, 224
-0.99968, 43, 337, 58, 464
-0.999684, 15, 161, 30, 224
-0.99969, 205, 393, 220, 456
-0.999691, 13, 49, 28, 112
-0.999694, 185, 209, 200, 336
-0.999699, 161, 209, 176, 272
-0.9997, 193, 185, 208, 248
-0.99971, 19, 209, 34, 336
-0.999711, 193, 321, 208, 448
-0.999713, 161, 289, 224, 352
-0.999716, 1, 29, 128, 60
-0.999716, 225, 397, 352, 428
-0.999717, 1, 369, 375, 432
-0.999718, 193, 337, 224, 400
-0.999728, 161, 225, 176, 352
-0.99973, 1, 277, 128, 308
-0.999732, 1, 297, 375, 360
-0.999739, 9, 273, 24, 400
-0.999742, 221, 113, 236, 240
-0.999744, 217, 161, 232, 288
-0.999744, 21, 305, 36, 432
-0.999744, 13, 225, 28, 352
-0.999754, 145, 381, 272, 412
-0.999754, 145, 185, 272, 216
-0.999757, 129, 369, 256, 400
-0.999758, 1, 225, 32, 480
-0.99976, 213, 353, 228, 480
-0.999766, 211, 177, 226, 304
-0.999768, 33, 321, 48, 448
-0.999768, 29, 193, 60, 448
-0.999771, 173, 1, 188, 128
-0.999772, 15, 289, 30, 416
-0.999781, 289, 321, 352, 384
-0.999781, 191, 209, 206, 336
-0.999785, 137, 73, 200, 136
-0.999785, 185, 305, 200, 432
-0.999791, 199, 321, 214, 448
-0.999792, 241, 189, 368, 220
-0.999796, 165, 177, 180, 304
-0.999797, 1, 89, 375, 152
-0.9998, 1, 209, 375, 272
-0.999803, 273, 353, 336, 480
-0.999805, 27, 321, 42, 448
-0.999812, 303, 353, 318, 480
-0.999815, 137, 1, 152, 128
-0.999815, 201, 193, 216, 320
-0.999816, 1, 225, 32, 352
-0.999818, 29, 129, 44, 256
-0.999819, 169, 273, 184, 400
-0.999824, 241, 361, 368, 392
-0.999827, 81, 125, 208, 156
-0.99983, 223, 161, 238, 288
-0.999835, 35, 145, 50, 272
-0.999837, 13, 17, 28, 144
-0.999837, 207, 353, 222, 480
-0.999838, 219, 353, 234, 480
-0.999838, 1, 237, 128, 268
-0.99984, 27, 193, 42, 320
-0.999845, 191, 1, 206, 128
-0.999847, 131, 1, 146, 128
-0.999847, 129, 105, 375, 168
-0.999848, 199, 1, 214, 128
-0.999849, 1, 49, 256, 112
-0.99985, 215, 113, 230, 240
-0.999851, 225, 353, 240, 480
-0.999852, 325, 1, 356, 256
-0.999855, 309, 353, 324, 480
-0.999857, 177, 289, 192, 416
-0.999858, 7, 193, 22, 320
-0.99986, 247, 369, 262, 496
-0.999865, 317, 1, 332, 128
-0.999866, 43, 97, 58, 224
-0.999874, 61, 97, 76, 224
-0.999874, 289, 1, 304, 128
-0.999876, 297, 353, 312, 480
-0.999878, 145, 429, 272, 460
-0.999878, 167, 1, 182, 128
-0.999879, 1, 265, 128, 296
-0.999884, 19, 49, 34, 176
-0.999885, 173, 65, 204, 320
-0.999885, 43, 161, 58, 288
-0.999891, 211, 1, 226, 128
-0.999891, 23, 145, 38, 272
-0.999891, 51, 129, 66, 256
-0.999891, 333, 337, 348, 464
-0.999891, 17, 145, 32, 272
-0.999893, 185, 257, 200, 384
-0.999893, 153, 1, 168, 128
-0.999894, 29, 17, 44, 144
-0.999894, 55, 17, 70, 144
-0.999896, 7, 17, 22, 144
-0.999899, 49, 1, 64, 128
-0.9999, 79, 17, 94, 144
-0.999901, 191, 273, 206, 400
-0.999902, 71, 97, 86, 224
-0.999903, 347, 129, 362, 256
-0.999906, 37, 1, 52, 128
-0.999907, 1, 25, 256, 88
-0.999908, 57, 145, 120, 272
-0.999909, 115, 33, 130, 160
-0.999909, 327, 337, 342, 464
-0.999909, 159, 1, 174, 128
-0.999912, 53, 81, 68, 208
-0.999912, 43, 17, 58, 144
-0.999913, 195, 161, 210, 288
-0.999913, 33, 193, 48, 320
-0.999916, 183, 161, 198, 288
-0.999917, 185, 33, 200, 160
-0.999919, 337, 129, 368, 256
-0.99992, 85, 1, 100, 128
-0.99992, 57, 129, 120, 192
-0.999922, 311, 1, 326, 128
-0.999928, 189, 161, 204, 288
-0.999929, 147, 65, 162, 192
-0.999929, 61, 17, 76, 144
-0.999932, 213, 65, 228, 192
-0.999932, 23, 257, 38, 384
-0.999934, 29, 273, 44, 400
-0.999935, 205, 1, 220, 128
-0.999936, 125, 1, 140, 128
-0.999938, 19, 97, 34, 224
-0.999938, 257, 337, 272, 464
-0.999938, 291, 337, 306, 464
-0.999939, 231, 353, 246, 480
-0.99994, 209, 129, 224, 256
-0.999941, 301, 305, 316, 432
-0.999941, 143, 1, 158, 128
-0.999942, 97, 1, 112, 128
-0.999944, 3, 241, 18, 368
-0.999944, 217, 1, 232, 128
-0.999944, 49, 145, 176, 176
-0.999945, 23, 1, 38, 128
-0.999945, 241, 201, 368, 232
-0.999946, 69, 1, 84, 128
-0.999949, 1, 193, 16, 320
-0.99995, 249, 321, 264, 448
-0.99995, 227, 113, 242, 240
-0.99995, 197, 273, 212, 400
-0.999954, 361, 1, 375, 128
-0.999954, 43, 289, 58, 416
-0.999955, 7, 65, 22, 192
-0.999955, 203, 49, 218, 176
-0.999956, 37, 97, 52, 224
-0.99996, 11, 145, 26, 272
-0.99996, 205, 289, 220, 416
-0.99996, 1, 97, 16, 224
-0.99996, 1, 1, 128, 32
-0.99996, 145, 109, 272, 140
-0.999961, 305, 1, 320, 128
-0.999963, 179, 65, 194, 192
-0.999963, 153, 65, 168, 192
-0.999963, 189, 81, 204, 208
-0.999964, 217, 305, 232, 432
-0.999964, 25, 65, 40, 192
-0.999965, 1, 321, 16, 448
-0.999966, 37, 49, 52, 176
-0.999967, 57, 145, 72, 272
-0.999967, 17, 57, 144, 88
-0.999967, 225, 437, 352, 468
-0.999968, 171, 161, 186, 288
-0.999969, 329, 145, 344, 272
-0.999969, 295, 1, 310, 128
-0.999969, 327, 97, 342, 224
-0.99997, 109, 49, 124, 176
-0.99997, 203, 145, 218, 272
-0.999971, 77, 97, 92, 224
-0.999971, 87, 81, 102, 208
-0.999971, 63, 145, 78, 272
-0.999976, 97, 109, 224, 140
-0.999978, 41, 161, 72, 416
-0.999981, 33, 185, 64, 248
-0.999981, 169, 297, 200, 360
-0.999988, 153, 185, 216, 248
-0.999994, 57, 1, 88, 256
-0.999996, 209, 29, 336, 60
-0.999996, 5, 17, 36, 144
-0.999999, 225, 241, 352, 304
-1, 225, 369, 288, 496
-1.00001, 113, 357, 240, 388
-1.00001, 25, 17, 56, 144
-1.00002, 1, 409, 128, 440
-1.00002, 225, 337, 352, 368
-1.00003, 161, 89, 288, 120
-1.00003, 217, 161, 248, 416
-1.00004, 201, 361, 232, 424
-1.00004, 137, 409, 168, 472
-1.00005, 113, 73, 240, 104
-1.00006, 1, 397, 128, 428
-1.00008, 45, 33, 76, 288
-1.00008, 129, 441, 256, 472
-1.00009, 217, 369, 248, 496
-1.00009, 49, 305, 112, 432
-1.00011, 325, 97, 356, 352
-1.00012, 193, 77, 320, 108
-1.00012, 225, 409, 352, 440
-1.00012, 161, 65, 192, 320
-1.00013, 33, 25, 96, 88
-1.00013, 185, 65, 216, 320
-1.00015, 209, 65, 240, 320
-1.00015, 225, 425, 352, 456
-1.00016, 1, 253, 128, 284
-1.00017, 241, 229, 368, 260
-1.00018, 113, 29, 240, 60
-1.00018, 241, 285, 368, 316
-1.0002, 241, 317, 368, 348
-1.00022, 161, 1, 192, 128
-1.00022, 177, 441, 304, 472
-1.00022, 1, 45, 128, 76
-1.00023, 129, 57, 375, 120
-1.00024, 241, 269, 368, 300
-1.00024, 241, 297, 368, 328
-1.00024, 37, 401, 68, 464
-1.00024, 169, 401, 200, 464
-1.00024, 117, 1, 148, 256
-1.00026, 129, 401, 256, 432
-1.00027, 241, 69, 368, 100
-1.00027, 241, 253, 368, 284
-1.00029, 293, 353, 324, 480
-1.0003, 325, 193, 356, 448
-1.0003, 77, 1, 108, 256
-1.0003, 241, 217, 368, 248
-1.0003, 33, 33, 64, 288
-1.0003, 153, 257, 184, 500
-1.0003, 69, 97, 100, 352
-1.00031, 9, 1, 72, 256
-1.00031, 97, 181, 224, 212
-1.00032, 17, 177, 48, 240
-1.00032, 345, 1, 375, 256
-1.00034, 205, 257, 236, 500
-1.00034, 161, 177, 192, 304
-1.00034, 177, 409, 304, 440
-1.00035, 53, 369, 84, 496
-1.00035, 17, 97, 48, 352
-1.00035, 225, 57, 352, 88
-1.00035, 325, 177, 356, 240
-1.00036, 129, 453, 256, 484
-1.00039, 1, 161, 32, 288
-1.00041, 1, 265, 375, 328
-1.00041, 185, 401, 216, 464
-1.00042, 313, 129, 375, 256
-1.00042, 17, 129, 48, 256
-1.00043, 221, 1, 252, 256
-1.00043, 225, 217, 352, 280
-1.00047, 133, 1, 164, 256
-1.00047, 81, 97, 112, 352
-1.00047, 289, 1, 352, 256
-1.00048, 97, 1, 128, 256
-1.00048, 145, 33, 176, 288
-1.00049, 305, 257, 336, 500
-1.00051, 329, 345, 360, 408
-1.00051, 97, 25, 352, 88
-1.00052, 41, 257, 72, 500
-1.00052, 33, 49, 96, 112
-1.00054, 305, 33, 336, 288
-1.00054, 93, 97, 124, 352
-1.00056, 57, 97, 88, 352
-1.00056, 341, 161, 372, 416
-1.00056, 45, 49, 76, 112
-1.00057, 313, 337, 344, 464
-1.00058, 1, 129, 32, 384
-1.0006, 273, 257, 304, 500
-1.00061, 25, 337, 88, 400
-1.00062, 313, 161, 344, 416
-1.00064, 1, 33, 32, 288
-1.00065, 341, 57, 372, 120
-1.00065, 193, 257, 256, 500
-1.00066, 109, 1, 140, 64
-1.00067, 5, 201, 36, 264
-1.00068, 57, 393, 88, 456
-1.00069, 313, 1, 375, 256
-1.0007, 281, 1, 312, 256
-1.00071, 17, 257, 48, 384
-1.00072, 329, 153, 360, 216
-1.00073, 1, 233, 375, 296
-1.00074, 189, 1, 220, 128
-1.00075, 237, 257, 268, 500
-1.00077, 49, 81, 112, 144
-1.00078, 293, 257, 324, 500
-1.00078, 149, 409, 180, 472
-1.00081, 37, 81, 68, 208
-1.00081, 193, 65, 256, 320
-1.00081, 217, 257, 248, 500
-1.00082, 313, 1, 375, 64
-1.00082, 229, 161, 260, 416
-1.00084, 337, 257, 368, 500
-1.00085, 305, 1, 336, 128
-1.00086, 181, 185, 212, 248
-1.00086, 33, 1, 96, 64
-1.00086, 57, 257, 88, 500
-1.00086, 257, 257, 288, 500
-1.00087, 57, 17, 88, 144
-1.00088, 129, 1, 160, 64
-1.00089, 293, 1, 324, 256
-1.00089, 1, 425, 375, 488
-1.00091, 197, 81, 228, 144
-1.00092, 233, 1, 264, 256
-1.00094, 97, 113, 128, 176
-1.00097, 217, 97, 280, 352
-1.001, 21, 1, 52, 256
-1.00103, 105, 97, 136, 352
-1.00104, 149, 129, 180, 384
-1.00105, 141, 1, 172, 64
-1.00107, 181, 161, 212, 288
-1.00108, 141, 257, 172, 500
-1.00111, 257, 1, 288, 256
-1.00111, 269, 65, 300, 320
-1.00112, 245, 1, 276, 256
-1.00112, 81, 137, 144, 200
-1.00118, 241, 97, 272, 352
-1.00118, 9, 137, 72, 200
-1.0012, 117, 97, 148, 352
-1.00121, 181, 257, 212, 384
-1.00123, 253, 97, 284, 352
-1.00126, 69, 33, 100, 160
-1.00126, 133, 97, 164, 352
-1.00129, 205, 1, 236, 128
-1.00129, 29, 73, 60, 136
-1.00129, 9, 249, 40, 312
-1.0013, 233, 353, 264, 480
-1.00131, 125, 417, 156, 480
-1.00136, 249, 113, 312, 176
-1.00137, 289, 385, 352, 448
-1.00138, 293, 161, 324, 416
-1.0014, 1, 273, 32, 336
-1.0014, 269, 161, 300, 416
-1.00141, 141, 1, 172, 128
-1.00142, 289, 137, 352, 200
-1.00142, 125, 257, 156, 500
-1.00142, 281, 257, 344, 500
-1.00143, 25, 49, 56, 112
-1.00143, 225, 1, 256, 64
-1.00146, 1, 1, 375, 64
-1.00146, 213, 1, 244, 64
-1.0015, 281, 161, 312, 416
-1.0015, 137, 65, 168, 192
-1.0015, 37, 177, 68, 304
-1.00151, 197, 401, 228, 464
-1.00154, 1, 25, 375, 88
-1.00155, 213, 121, 244, 184
-1.00159, 49, 209, 176, 336
-1.00159, 113, 257, 144, 500
-1.0016, 37, 161, 68, 224
-1.00162, 1, 321, 32, 384
-1.00164, 77, 81, 108, 208
-1.00164, 105, 97, 136, 224
-1.00165, 97, 257, 128, 500
-1.00166, 249, 97, 312, 224
-1.00167, 285, 1, 316, 128
-1.00168, 37, 433, 68, 496
-1.00168, 101, 17, 132, 144
-1.0017, 97, 153, 224, 216
-1.0017, 209, 401, 272, 464
-1.00171, 1, 49, 375, 112
-1.00172, 193, 145, 256, 208
-1.00172, 145, 377, 208, 440
-1.00172, 225, 321, 288, 448
-1.00172, 33, 193, 96, 256
-1.00173, 193, 273, 224, 400
-1.00174, 69, 257, 100, 500
-1.00174, 341, 153, 372, 216
-1.00175, 193, 145, 224, 272
-1.00176, 161, 249, 192, 312
-1.00177, 297, 161, 360, 416
-1.0018, 81, 1, 112, 128
-1.0018, 17, 153, 48, 216
-1.0018, 253, 385, 284, 448
-1.00181, 121, 89, 152, 152
-1.00181, 289, 25, 352, 88
-1.00182, 53, 81, 84, 144
-1.00184, 85, 193, 116, 448
-1.00185, 13, 225, 44, 288
-1.00188, 121, 385, 184, 448
-1.00191, 313, 281, 375, 344
-1.00191, 81, 425, 144, 488
-1.00192, 33, 1, 64, 64
-1.00193, 329, 177, 360, 304
-1.002, 265, 9, 328, 72
-1.00201, 17, 273, 48, 336
-1.00205, 289, 105, 352, 168
-1.00207, 145, 433, 208, 496
-1.00208, 97, 1, 128, 64
-1.0021, 245, 369, 276, 496
-1.0021, 177, 17, 208, 144
-1.00211, 185, 281, 216, 344
-1.00213, 317, 153, 348, 216
-1.00213, 29, 273, 60, 400
-1.00214, 329, 41, 360, 104
-1.00216, 313, 105, 375, 168
-1.00217, 321, 73, 352, 136
-1.00218, 329, 129, 360, 192
-1.00219, 217, 257, 280, 500
-1.0022, 129, 369, 192, 496
-1.0022, 53, 369, 84, 432
-1.0022, 337, 81, 368, 144
-1.00222, 61, 17, 92, 80
-1.00222, 37, 25, 68, 88
-1.00224, 121, 1, 184, 256
-1.00225, 173, 65, 204, 192
-1.00225, 53, 169, 84, 232
-1.00225, 149, 265, 180, 328
-1.00227, 225, 377, 256, 440
-1.00227, 1, 65, 32, 192
-1.00228, 313, 369, 375, 432
-1.00229, 53, 145, 84, 272
-1.00231, 213, 401, 244, 464
-1.00239, 17, 17, 48, 80
-1.00239, 81, 25, 144, 88
-1.0024, 177, 257, 208, 320
-1.0024, 305, 257, 368, 500
-1.00241, 193, 25, 256, 88
-1.00245, 197, 297, 228, 360
-1.00245, 57, 345, 88, 408
-1.00245, 225, 137, 256, 200
-1.00247, 277, 345, 308, 408
-1.00247, 253, 1, 284, 64
-1.00248, 113, 1, 144, 128
-1.00253, 169, 57, 232, 120
-1.00253, 153, 369, 216, 496
-1.00253, 109, 97, 140, 160
-1.00255, 125, 81, 156, 208
-1.00255, 313, 209, 375, 272
-1.00258, 49, 145, 80, 208
-1.00259, 97, 25, 128, 88
-1.00259, 213, 305, 244, 432
-1.0026, 93, 113, 124, 240
-1.00261, 205, 201, 236, 264
-1.00261, 257, 257, 320, 500
-1.00265, 25, 65, 56, 192
-1.00266, 313, 177, 375, 304
-1.00271, 281, 337, 312, 464
-1.00274, 49, 257, 112, 500
-1.00275, 73, 105, 104, 168
-1.00276, 141, 177, 172, 304
-1.0028, 233, 305, 264, 432
-1.00282, 5, 9, 36, 72
-1.00282, 277, 377, 308, 440
-1.00286, 81, 25, 112, 88
-1.00287, 321, 113, 352, 240
-1.00287, 313, 241, 375, 304
-1.00293, 269, 1, 300, 64
-1.00295, 185, 369, 216, 432
-1.00295, 9, 65, 40, 128
-1.00299, 329, 49, 360, 176
-1.003, 73, 153, 104, 216
-1.00303, 161, 65, 192, 192
-1.00304, 93, 65, 124, 192
-1.00307, 341, 1, 372, 128
-1.00309, 189, 49, 220, 176
-1.0031, 97, 57, 160, 120
-1.00312, 13, 65, 44, 192
-1.00312, 129, 273, 192, 400
-1.00314, 329, 1, 360, 128
-1.00314, 309, 49, 340, 176
-1.00315, 313, 377, 344, 440
-1.00315, 297, 1, 328, 64
-1.00315, 181, 337, 212, 400
-1.00315, 329, 337, 360, 464
-1.00319, 161, 201, 192, 264
-1.00322, 209, 65, 272, 128
-1.00322, 281, 425, 344, 488
-1.00326, 253, 321, 284, 448
-1.00327, 145, 49, 208, 112
-1.00327, 41, 81, 72, 144
-1.00327, 345, 177, 375, 240
-1.00327, 105, 369, 168, 496
-1.00327, 145, 209, 176, 272
-1.00328, 233, 1, 296, 128
-1.00329, 169, 433, 232, 496
-1.0033, 153, 1, 184, 64
-1.00331, 73, 401, 136, 464
-1.00332, 241, 1, 272, 64
-1.00335, 37, 113, 68, 176
-1.00337, 137, 81, 168, 144
-1.00337, 309, 329, 340, 392
-1.00338, 317, 1, 348, 64
-1.00338, 313, 409, 375, 472
-1.00339, 301, 305, 332, 432
-1.00341, 217, 49, 248, 176
-1.00341, 189, 369, 220, 496
-1.00341, 149, 65, 180, 192
-1.00342, 317, 1, 348, 128
-1.00344, 193, 177, 224, 240
-1.00346, 265, 393, 296, 456
-1.00347, 41, 289, 72, 416
-1.00349, 5, 33, 36, 96
-1.00349, 297, 65, 328, 192
-1.00349, 69, 145, 100, 272
-1.00349, 89, 97, 152, 352
-1.0035, 313, 49, 375, 176
-1.00352, 49, 9, 80, 72
-1.00352, 169, 25, 232, 88
-1.00352, 5, 321, 36, 448
-1.00357, 201, 105, 232, 168
-1.00359, 129, 25, 192, 88
-1.00359, 185, 217, 248, 280
-1.0036, 273, 1, 304, 128
-1.00363, 53, 305, 84, 432
-1.00363, 105, 225, 168, 288
-1.00364, 293, 73, 324, 136
-1.0037, 225, 401, 256, 464
-1.00372, 309, 65, 340, 128
-1.00372, 145, 369, 176, 496
-1.00376, 73, 1, 104, 64
-1.00376, 241, 369, 272, 432
-1.00377, 85, 121, 116, 184
-1.00377, 217, 1, 248, 128
-1.0038, 9, 97, 40, 160
-1.0038, 345, 105, 375, 168
-1.00381, 1, 129, 32, 192
-1.00382, 193, 97, 256, 160
-1.00384, 49, 321, 80, 384
-1.00387, 217, 425, 280, 488
-1.0039, 121, 97, 184, 352
-1.0039, 61, 113, 92, 176
-1.00393, 265, 329, 328, 392
-1.00393, 165, 369, 196, 496
-1.00395, 197, 153, 228, 216
-1.00395, 109, 25, 140, 88
-1.00398, 5, 113, 36, 240
-1.00405, 337, 289, 368, 416
-1.00405, 237, 113, 268, 240
-1.00407, 313, 321, 375, 384
-1.00411, 249, 65, 312, 320
-1.00413, 81, 145, 112, 272
-1.00414, 317, 289, 348, 416
-1.00414, 177, 369, 208, 496
-1.00419, 257, 1, 288, 128
-1.00421, 49, 297, 176, 360
-1.00428, 289, 297, 352, 360
-1.00428, 113, 369, 144, 496
-1.00432, 113, 49, 144, 176
-1.00432, 341, 177, 372, 304
-1.00437, 265, 337, 296, 464
-1.00437, 265, 49, 328, 112
-1.0044, 217, 25, 280, 88
-1.00446, 133, 369, 164, 496
-1.00457, 25, 289, 88, 416
-1.00465, 265, 97, 296, 224
-1.00471, 273, 289, 304, 416
-1.00475, 285, 289, 316, 416
-1.00475, 245, 1, 276, 128
-1.00487, 121, 257, 184, 500
-1.00488, 285, 65, 316, 192
-1.00491, 317, 161, 348, 288
-1.00494, 309, 97, 340, 224
-1.00497, 253, 113, 284, 240
-1.005, 341, 81, 372, 208
-1.00512, 221, 177, 252, 304
-1.00513, 313, 241, 375, 368
-1.00516, 273, 289, 336, 416
-1.00524, 337, 241, 368, 368
-1.00529, 25, 257, 88, 500
-1.00535, 65, 337, 96, 464
-1.0057, 325, 241, 356, 368
-1.00578, 229, 1, 260, 128
-1.0058, 65, 353, 128, 480
-1.00601, 169, 129, 200, 256
-1.00604, 341, 337, 372, 464
-1.00615, 229, 65, 260, 192
-1.00616, 193, 209, 256, 336
-1.0064, 105, 113, 168, 240
-1.00646, 289, 129, 352, 256
-1.00661, 205, 257, 236, 384
-1.00663, 97, 369, 128, 496
-1.00669, 249, 65, 280, 192
-1.00678, 289, 241, 352, 368
-1.00678, 153, 321, 184, 448
-1.0068, 157, 129, 188, 256
-1.00691, 273, 97, 336, 352
-1.00749, 137, 129, 200, 256
-1.00778, 249, 289, 312, 416
-1.00793, 81, 145, 144, 272
-1.0086, 217, 177, 280, 304
-1.00866, 225, 273, 288, 400
-1.00867, 249, 161, 312, 416
-1.00893, 257, 49, 320, 176
-1.00899, 289, 177, 352, 304
-1.00926, 97, 257, 160, 500
-1.00996, 73, 257, 136, 500
-1.01065, 113, 225, 176, 352
-1.01106, 193, 209, 320, 336
-1.01116, 105, 321, 168, 448
-1.01194, 33, 241, 96, 368
-1.0125, 265, 241, 328, 368
-1.01258, 129, 321, 192, 448
-1.01302, 257, 145, 320, 272
-1.01334, 265, 193, 328, 320
-1.0137, 241, 225, 304, 352
-1.01399, 217, 225, 280, 352
-1.01435, 89, 193, 152, 320
-1.01478, 65, 209, 128, 336
-1.01478, 73, 257, 136, 384
-1.01478, 97, 273, 160, 400
-1.01533, 49, 257, 176, 384
-1.01669, 73, 305, 136, 432
