1956
-0.30537, 1, 1, 500, 375
-0.369015, 65, 1, 320, 375
-0.378177, 1, 97, 500, 352
-0.470611, 161, 1, 416, 375
-0.49358, 257, 1, 500, 375
-0.5074, 1, 1, 500, 256
-0.526719, 129, 129, 384, 375
-0.61295, 161, 33, 416, 288
-0.631685, 1, 97, 256, 352
-0.639755, 1, 1, 256, 256
-0.690693, 225, 129, 480, 375
-0.713047, 257, 1, 500, 256
-0.845299, 81, 97, 208, 352
-0.845453, 209, 97, 336, 352
-0.848372, 33, 1, 160, 375
-0.85222, 161, 97, 288, 352
-0.85514, 97, 1, 224, 375
-0.860185, 209, 1, 336, 375
-0.860574, 257, 129, 384, 375
-0.861831, 145, 1, 272, 375
-0.86795, 1, 129, 128, 375
-0.868374, 1, 161, 500, 288
-0.872921, 273, 1, 400, 256
-0.874056, 257, 1, 384, 375
-0.876079, 1, 97, 500, 224
-0.876953, 81, 1, 208, 256
-0.877571, 33, 1, 160, 256
-0.878872, 129, 1, 256, 256
-0.880098, 305, 129, 432, 375
-0.883808, 1, 209, 500, 336
-0.886657, 353, 33, 480, 288
-0.887266, 177, 1, 304, 256
-0.891363, 305, 1, 432, 375
-0.895012, 369, 129, 496, 375
-0.895229, 353, 1, 480, 375
-0.897447, 225, 1, 352, 256
-0.905566, 97, 161, 352, 288
-0.908968, 1, 97, 256, 224
-0.916094, 193, 145, 448, 272
-0.916185, 1, 193, 256, 320
-0.91709, 129, 209, 384, 336
-0.918404, 1, 145, 256, 272
-0.921922, 225, 209, 480, 336
-0.922575, 1, 49, 500, 176
-0.923283, 129, 49, 384, 176
-0.923514, 241, 177, 368, 304
-0.924633, 305, 145, 368, 272
-0.925142, 97, 193, 224, 320
-0.925517, 97, 113, 352, 240
-0.926084, 193, 97, 448, 224
-0.928276, 305, 161, 432, 288
-0.92872, 1, 33, 256, 160
-0.929854, 33, 241, 288, 368
-0.933549, 161, 129, 288, 256
-0.934455, 65, 97, 192, 224
-0.93659, 137, 209, 200, 336
-0.937104, 97, 209, 160, 336
-0.937361, 209, 129, 336, 256
-0.938576, 217, 113, 280, 240
-0.938902, 1, 65, 128, 192
-0.939484, 161, 177, 288, 304
-0.940089, 65, 145, 192, 272
-0.941323, 33, 209, 160, 336
-0.941371, 257, 1, 500, 128
-0.941565, 145, 65, 272, 192
-0.942436, 185, 177, 248, 304
-0.94264, 97, 1, 352, 128
-0.942798, 329, 161, 392, 288
-0.943331, 65, 49, 192, 176
-0.943502, 65, 145, 128, 272
-0.94406, 1, 129, 64, 256
-0.944173, 17, 113, 144, 240
-0.944732, 289, 225, 352, 352
-0.944764, 177, 225, 304, 352
-0.944935, 33, 65, 96, 192
-0.945562, 129, 65, 192, 192
-0.945665, 1, 161, 128, 288
-0.946031, 161, 49, 224, 176
-0.946252, 225, 81, 352, 208
-0.946271, 89, 81, 152, 208
-0.946813, 33, 145, 96, 272
-0.946824, 289, 113, 416, 240
-0.946901, 137, 161, 200, 288
-0.94779, 169, 129, 232, 256
-0.947802, 273, 225, 400, 352
-0.947985, 113, 145, 240, 272
-0.948089, 257, 49, 500, 176
-0.948358, 369, 177, 496, 304
-0.948366, 281, 177, 344, 304
-0.948495, 257, 145, 320, 272
-0.948548, 209, 177, 272, 304
-0.94879, 129, 241, 256, 368
-0.949017, 329, 209, 392, 336
-0.949106, 353, 193, 416, 320
-0.949157, 1, 1, 500, 128
-0.949661, 161, 177, 224, 304
-0.94967, 65, 97, 128, 224
-0.949899, 289, 1, 416, 128
-0.949962, 105, 145, 168, 272
-0.950301, 225, 33, 352, 160
-0.950454, 129, 17, 192, 144
-0.950454, 89, 33, 152, 160
-0.95062, 265, 97, 328, 224
-0.951478, 17, 1, 144, 128
-0.951525, 65, 1, 192, 128
-0.951727, 1, 121, 64, 184
-0.951765, 17, 201, 80, 264
-0.951952, 297, 97, 360, 224
-0.951961, 17, 193, 80, 320
-0.952057, 65, 33, 128, 160
-0.952073, 57, 193, 120, 320
-0.952599, 305, 177, 368, 240
-0.952652, 257, 33, 320, 160
-0.953043, 217, 65, 280, 192
-0.953172, 369, 113, 496, 240
-0.953793, 185, 241, 248, 304
-0.953967, 297, 1, 360, 128
-0.954423, 289, 201, 352, 264
-0.95449, 377, 161, 440, 288
-0.954748, 329, 217, 392, 280
-0.954952, 329, 161, 392, 224
-0.955079, 153, 209, 216, 272
-0.955112, 225, 225, 352, 352
-0.955229, 169, 225, 232, 352
-0.956155, 57, 121, 120, 184
-0.956169, 297, 49, 360, 176
-0.956597, 9, 153, 72, 216
-0.956729, 337, 113, 400, 240
-0.956766, 193, 225, 256, 352
-0.956909, 153, 1, 216, 128
-0.957001, 97, 225, 160, 288
-0.95707, 145, 113, 208, 240
-0.957324, 433, 145, 496, 272
-0.957608, 57, 209, 120, 272
-0.957725, 305, 153, 368, 216
-0.957779, 1, 81, 64, 208
-0.958089, 249, 193, 312, 320
-0.958098, 249, 241, 312, 368
-0.958105, 193, 113, 256, 240
-0.958321, 321, 209, 448, 336
-0.958346, 345, 17, 408, 144
-0.958418, 265, 201, 328, 264
-0.958421, 337, 1, 464, 128
-0.959148, 409, 193, 472, 320
-0.959453, 265, 161, 328, 224
-0.959818, 121, 65, 184, 128
-0.959833, 169, 169, 232, 232
-0.960209, 177, 1, 240, 128
-0.960361, 33, 105, 96, 168
-0.960552, 241, 81, 304, 208
-0.960582, 353, 217, 416, 280
-0.960857, 129, 225, 192, 288
-0.960873, 89, 249, 152, 312
-0.960935, 329, 185, 392, 248
-0.961089, 145, 121, 208, 184
-0.961102, 209, 241, 272, 304
-0.961225, 217, 129, 280, 192
-0.961405, 289, 49, 416, 176
-0.961445, 193, 193, 256, 256
-0.961538, 385, 185, 448, 248
-0.961794, 153, 145, 216, 208
-0.962146, 105, 97, 168, 160
-0.96229, 337, 65, 464, 192
-0.962412, 409, 145, 472, 208
-0.962519, 185, 49, 248, 176
-0.962582, 217, 225, 280, 352
-0.962613, 113, 1, 240, 128
-0.962759, 81, 105, 144, 168
-0.962934, 193, 153, 256, 216
-0.962968, 81, 241, 208, 368
-0.962999, 97, 145, 160, 208
-0.963002, 41, 169, 104, 232
-0.963017, 33, 81, 96, 144
-0.963244, 33, 233, 96, 296
-0.963333, 329, 65, 392, 192
-0.963574, 265, 137, 328, 200
-0.963669, 401, 129, 464, 256
-0.963861, 153, 33, 216, 288
-0.964038, 193, 129, 256, 192
-0.964097, 425, 201, 488, 264
-0.964184, 145, 249, 208, 312
-0.964237, 161, 97, 224, 160
-0.964353, 9, 97, 72, 160
-0.964359, 185, 217, 248, 280
-0.964409, 73, 73, 136, 136
-0.964444, 369, 113, 432, 240
-0.964638, 161, 57, 224, 120
-0.964947, 305, 225, 368, 288
-0.964956, 209, 217, 272, 280
-0.965092, 33, 17, 96, 144
-0.965179, 217, 193, 280, 256
-0.965196, 177, 1, 304, 128
-0.965355, 129, 41, 192, 104
-0.965554, 321, 17, 384, 144
-0.965592, 305, 129, 368, 192
-0.96563, 33, 129, 96, 192
-0.965667, 329, 137, 392, 200
-0.965759, 369, 1, 432, 128
-0.96588, 201, 1, 264, 128
-0.966008, 89, 41, 152, 104
-0.966197, 129, 145, 192, 208
-0.966326, 305, 1, 368, 64
-0.966429, 161, 241, 288, 304
-0.96643, 97, 201, 160, 264
-0.966573, 217, 153, 280, 216
-0.966734, 369, 129, 432, 192
-0.966737, 121, 9, 184, 72
-0.96683, 209, 97, 272, 160
-0.96684, 377, 217, 440, 280
-0.967115, 233, 105, 296, 168
-0.967143, 17, 25, 80, 88
-0.967489, 329, 241, 392, 304
-0.967582, 241, 265, 304, 328
-0.96763, 1, 1, 64, 128
-0.967738, 97, 225, 224, 288
-0.967883, 121, 177, 184, 240
-0.967979, 289, 209, 416, 272
-0.968107, 57, 33, 120, 96
-0.968289, 281, 233, 344, 296
-0.968318, 57, 233, 120, 296
-0.968379, 361, 169, 424, 232
-0.968447, 233, 233, 296, 296
-0.96879, 105, 121, 168, 184
-0.968818, 57, 1, 120, 64
-0.969108, 81, 17, 144, 80
-0.969118, 345, 25, 408, 88
-0.96925, 385, 161, 448, 224
-0.9693, 49, 57, 112, 120
-0.969547, 57, 97, 120, 160
-0.969603, 433, 209, 496, 336
-0.969605, 65, 185, 128, 248
-0.969807, 137, 97, 200, 160
-0.969996, 241, 137, 304, 200
-0.970036, 25, 57, 88, 120
-0.970044, 169, 121, 232, 184
-0.970178, 17, 177, 80, 240
-0.970191, 257, 241, 384, 304
-0.970303, 417, 1, 480, 128
-0.970421, 241, 209, 368, 272
-0.970437, 33, 137, 160, 200
-0.970446, 217, 97, 280, 352
-0.970513, 185, 265, 248, 328
-0.970607, 249, 73, 312, 136
-0.970646, 377, 49, 440, 176
-0.971082, 289, 161, 416, 224
-0.971093, 281, 113, 344, 176
-0.971135, 81, 105, 208, 168
-0.971181, 1, 225, 64, 288
-0.9714, 233, 1, 296, 128
-0.971573, 137, 281, 200, 344
-0.971582, 57, 65, 120, 320
-0.971618, 161, 185, 288, 248
-0.971683, 129, 313, 192, 375
-0.971688, 161, 281, 224, 344
-0.971689, 337, 201, 464, 264
-0.971724, 209, 265, 272, 328
-0.971775, 353, 193, 416, 256
-0.971863, 289, 89, 352, 152
-0.971895, 317, 145, 348, 272
-0.971903, 241, 177, 304, 240
-0.972063, 1, 209, 128, 272
-0.972079, 409, 81, 472, 208
-0.97212, 113, 265, 176, 328
-0.972234, 369, 225, 400, 288
-0.97247, 161, 265, 288, 328
-0.972553, 1, 105, 128, 168
-0.972559, 17, 129, 80, 375
-0.972617, 97, 97, 160, 352
-0.972622, 305, 129, 368, 375
-0.972665, 177, 137, 304, 200
-0.97282, 121, 65, 184, 320
-0.97284, 129, 89, 256, 152
-0.972988, 369, 241, 432, 368
-0.973031, 81, 201, 208, 264
-0.973034, 93, 145, 124, 272
-0.973078, 185, 81, 248, 144
-0.973116, 161, 1, 224, 64
-0.973137, 97, 129, 224, 192
-0.973141, 33, 129, 64, 256
-0.973205, 241, 185, 368, 248
-0.973232, 65, 153, 128, 216
-0.973281, 97, 169, 224, 232
-0.973285, 257, 105, 320, 168
-0.973348, 169, 193, 200, 320
-0.973409, 193, 97, 256, 352
-0.973409, 153, 33, 216, 96
-0.97344, 257, 65, 320, 320
-0.97347, 109, 209, 140, 272
-0.973483, 257, 249, 288, 312
-0.973495, 145, 177, 208, 240
-0.973513, 305, 33, 368, 96
-0.973548, 29, 113, 60, 176
-0.9736, 177, 217, 304, 280
-0.973617, 129, 225, 160, 352
-0.973622, 377, 161, 408, 288
-0.973842, 245, 113, 276, 240
-0.97388, 369, 225, 496, 352
-0.973918, 65, 81, 192, 144
-0.974108, 313, 201, 344, 264
-0.974158, 145, 113, 272, 176
-0.97417, 433, 129, 496, 192
-0.974301, 45, 217, 76, 280
-0.974438, 97, 217, 128, 280
-0.974509, 425, 177, 488, 240
-0.974544, 265, 9, 328, 72
-0.974549, 241, 209, 304, 272
-0.974652, 129, 201, 192, 264
-0.974696, 177, 161, 304, 224
-0.974747, 1, 241, 64, 368
-0.974794, 401, 209, 464, 272
-0.974912, 313, 177, 344, 240
-0.974925, 109, 161, 140, 288
-0.975033, 289, 185, 416, 248
-0.975055, 349, 225, 380, 288
-0.975068, 141, 209, 172, 336
-0.975155, 33, 169, 160, 232
-0.97525, 337, 161, 368, 224
-0.975255, 321, 73, 384, 136
-0.975258, 321, 145, 352, 208
-0.97528, 69, 209, 100, 272
-0.975288, 157, 65, 188, 192
-0.975401, 133, 33, 164, 160
-0.975445, 33, 153, 64, 216
-0.975461, 337, 145, 368, 272
-0.975507, 241, 137, 368, 200
-0.975523, 209, 97, 336, 160
-0.975672, 177, 1, 240, 256
-0.975739, 293, 217, 324, 280
-0.975815, 145, 137, 176, 200
-0.975831, 85, 81, 116, 208
-0.975941, 153, 129, 216, 375
-0.976008, 221, 145, 252, 272
-0.976071, 337, 225, 464, 288
-0.976106, 381, 217, 412, 280
-0.976168, 337, 217, 368, 280
-0.976267, 365, 145, 396, 272
-0.976299, 89, 313, 152, 375
-0.976312, 97, 169, 160, 232
-0.976331, 45, 193, 76, 256
-0.976349, 21, 81, 52, 208
-0.976365, 353, 241, 416, 304
-0.976374, 141, 161, 172, 288
-0.976375, 393, 1, 456, 128
-0.976415, 117, 89, 148, 152
-0.976438, 209, 73, 272, 136
-0.97661, 345, 129, 408, 375
-0.976632, 33, 233, 160, 296
-0.976707, 169, 97, 200, 160
-0.976791, 385, 105, 448, 168
-0.976797, 345, 1, 408, 64
-0.976829, 17, 121, 48, 184
-0.976846, 197, 137, 228, 200
-0.976871, 289, 121, 416, 184
-0.976887, 417, 97, 480, 160
-0.976978, 1, 113, 32, 176
-0.977138, 357, 161, 388, 224
-0.977171, 113, 65, 144, 192
-0.977198, 341, 193, 372, 256
-0.977213, 117, 233, 148, 296
-0.977243, 281, 41, 344, 104
-0.977267, 241, 161, 368, 224
-0.977272, 209, 241, 336, 304
-0.977301, 337, 49, 400, 112
-0.977328, 1, 73, 64, 136
-0.977353, 125, 145, 156, 208
-0.977492, 173, 209, 204, 272
-0.977535, 337, 177, 464, 240
-0.977546, 25, 241, 88, 368
-0.977581, 113, 249, 240, 312
-0.977609, 297, 177, 328, 304
-0.977703, 105, 209, 136, 336
-0.977748, 305, 33, 368, 288
-0.97781, 329, 33, 392, 288
-0.977839, 337, 97, 400, 160
-0.977863, 13, 225, 44, 288
-0.977881, 317, 225, 348, 352
-0.977903, 389, 177, 420, 304
-0.977976, 177, 73, 304, 136
-0.977985, 105, 1, 136, 128
-0.977999, 369, 201, 400, 264
-0.978018, 245, 241, 276, 304
-0.978101, 29, 249, 60, 312
-0.978148, 157, 177, 188, 304
-0.9782, 181, 129, 212, 192
-0.978334, 337, 145, 464, 208
-0.978382, 433, 49, 496, 176
-0.978385, 173, 129, 204, 256
-0.978413, 81, 49, 208, 112
-0.978451, 101, 97, 132, 224
-0.97851, 257, 241, 320, 304
-0.97853, 125, 81, 156, 208
-0.978534, 9, 1, 72, 256
-0.978566, 157, 145, 188, 208
-0.978609, 117, 209, 148, 336
-0.978629, 169, 49, 200, 176
-0.978653, 297, 1, 328, 128
-0.978671, 89, 1, 152, 256
-0.978774, 345, 265, 408, 328
-0.97878, 37, 177, 68, 304
-0.978822, 257, 97, 384, 160
-0.978827, 233, 105, 264, 168
-0.978866, 9, 81, 40, 208
-0.978869, 225, 249, 256, 312
-0.978911, 377, 177, 408, 240
-0.979004, 409, 121, 472, 184
-0.979021, 189, 177, 220, 304
-0.979104, 149, 113, 180, 176
-0.979135, 305, 249, 368, 312
-0.979148, 205, 161, 236, 224
-0.979149, 433, 129, 496, 375
-0.979226, 77, 81, 108, 144
-0.979236, 97, 153, 128, 216
-0.979244, 33, 81, 64, 208
-0.979271, 401, 57, 464, 120
-0.979278, 289, 1, 416, 64
-0.979365, 73, 121, 104, 184
-0.979409, 233, 113, 264, 240
-0.979432, 393, 33, 456, 96
-0.97945, 377, 73, 440, 136
-0.979533, 153, 177, 184, 240
-0.979547, 181, 33, 212, 160
-0.979547, 245, 81, 276, 144
-0.979552, 133, 57, 164, 120
-0.979609, 101, 185, 132, 248
-0.979649, 17, 153, 48, 216
-0.979665, 17, 97, 48, 160
-0.979665, 349, 209, 380, 336
-0.979709, 245, 105, 276, 168
-0.979763, 33, 209, 64, 272
-0.979817, 193, 241, 224, 304
-0.979905, 73, 241, 136, 368
-0.979937, 205, 193, 236, 256
-0.979974, 117, 177, 148, 240
-0.979977, 329, 241, 360, 304
-0.980103, 1, 249, 64, 312
-0.980117, 241, 65, 368, 128
-0.980127, 241, 193, 272, 320
-0.980153, 301, 177, 332, 240
-0.980185, 281, 129, 344, 375
-0.980225, 97, 73, 160, 136
-0.980244, 161, 1, 224, 375
-0.980263, 197, 113, 228, 240
-0.980279, 161, 281, 192, 344
-0.980354, 289, 57, 416, 120
-0.980366, 57, 201, 88, 264
-0.980432, 393, 185, 424, 248
-0.980436, 385, 97, 448, 352
-0.980507, 97, 281, 224, 344
-0.980581, 245, 65, 276, 192
-0.980604, 137, 233, 168, 296
-0.98061, 353, 185, 384, 248
-0.980624, 65, 257, 192, 320
-0.980686, 33, 49, 160, 112
-0.980761, 353, 145, 384, 272
-0.980765, 33, 1, 96, 256
-0.980772, 393, 217, 424, 280
-0.980844, 265, 177, 296, 240
-0.98085, 45, 113, 76, 240
-0.980909, 169, 257, 200, 320
-0.980923, 325, 169, 356, 232
-0.980954, 221, 185, 252, 248
-0.980974, 149, 113, 180, 240
-0.981024, 261, 161, 292, 288
-0.98104, 149, 65, 180, 128
-0.981095, 141, 161, 172, 224
-0.981167, 353, 65, 416, 192
-0.981305, 257, 33, 384, 96
-0.981311, 125, 1, 156, 64
-0.981366, 89, 177, 120, 240
-0.98137, 1, 225, 32, 352
-0.981385, 113, 57, 144, 120
-0.9815, 277, 217, 308, 280
-0.981534, 389, 129, 420, 256
-0.981603, 145, 281, 176, 344
-0.981607, 61, 121, 92, 184
-0.981701, 153, 1, 184, 128
-0.981721, 157, 225, 188, 352
-0.981725, 45, 161, 76, 224
-0.981749, 5, 89, 36, 152
-0.981775, 221, 129, 252, 192
-0.981775, 293, 153, 324, 216
-0.981793, 5, 129, 36, 256
-0.981817, 101, 249, 132, 312
-0.98182, 209, 273, 336, 336
-0.981896, 61, 129, 92, 256
-0.981901, 257, 225, 288, 288
-0.981914, 41, 121, 72, 184
-0.981947, 113, 17, 144, 80
-0.981978, 129, 25, 160, 88
-0.981988, 245, 193, 276, 256
-0.98203, 13, 209, 44, 336
-0.982069, 1, 137, 32, 200
-0.982109, 121, 161, 152, 288
-0.98216, 89, 89, 120, 152
-0.982162, 369, 1, 432, 256
-0.982163, 209, 161, 240, 288
-0.982164, 129, 313, 256, 375
-0.98218, 93, 33, 124, 160
-0.982201, 337, 121, 464, 184
-0.982299, 265, 201, 296, 264
-0.982309, 289, 193, 320, 256
-0.982316, 229, 49, 260, 176
-0.982348, 221, 97, 252, 224
-0.982409, 401, 161, 432, 288
-0.982413, 245, 273, 276, 336
-0.982422, 361, 193, 392, 320
-0.98245, 33, 185, 64, 248
-0.982459, 81, 209, 112, 272
-0.982573, 57, 225, 88, 288
-0.982575, 221, 153, 252, 216
-0.982589, 109, 145, 140, 208
-0.982607, 21, 129, 52, 256
-0.982612, 245, 129, 276, 192
-0.982624, 129, 169, 160, 232
-0.982627, 345, 137, 376, 200
-0.982664, 277, 241, 308, 304
-0.982684, 233, 81, 264, 144
-0.982687, 273, 137, 304, 200
-0.982703, 105, 121, 136, 184
-0.982734, 89, 121, 120, 184
-0.982737, 205, 233, 236, 296
-0.98274, 333, 97, 364, 224
-0.982755, 73, 65, 104, 192
-0.982755, 121, 257, 152, 320
-0.98276, 325, 217, 356, 280
-0.982785, 329, 193, 360, 320
-0.982821, 93, 193, 124, 320
-0.982857, 309, 153, 340, 216
-0.982961, 49, 1, 176, 64
-0.98297, 353, 97, 480, 160
-0.982975, 161, 129, 192, 256
-0.982982, 129, 65, 256, 128
-0.982992, 377, 1, 408, 128
-0.983003, 25, 225, 56, 352
-0.983015, 305, 81, 432, 144
-0.983101, 161, 121, 192, 184
-0.983178, 361, 137, 392, 200
-0.98319, 161, 41, 192, 104
-0.983253, 1, 81, 128, 144
-0.983254, 49, 25, 176, 88
-0.983295, 337, 1, 464, 64
-0.983348, 97, 1, 224, 64
-0.98336, 289, 1, 352, 375
-0.983458, 73, 113, 104, 240
-0.983514, 409, 193, 440, 256
-0.983515, 225, 225, 256, 288
-0.983527, 193, 225, 224, 352
-0.983567, 257, 81, 288, 208
-0.98358, 45, 97, 76, 160
-0.983618, 225, 225, 256, 352
-0.983625, 21, 73, 52, 136
-0.983626, 145, 49, 176, 176
-0.983629, 161, 33, 288, 96
-0.983651, 353, 65, 480, 128
-0.983799, 165, 65, 196, 128
-0.983806, 25, 1, 56, 128
-0.983812, 377, 113, 408, 240
-0.983826, 369, 113, 400, 176
-0.983831, 317, 97, 348, 224
-0.983869, 277, 169, 308, 232
-0.983935, 49, 281, 176, 344
-0.983937, 345, 1, 376, 128
-0.983982, 209, 129, 240, 192
-0.984008, 65, 177, 96, 240
-0.984067, 53, 177, 84, 304
-0.984071, 25, 1, 88, 375
-0.984095, 377, 209, 408, 336
-0.984097, 305, 225, 336, 352
-0.984117, 281, 1, 344, 256
-0.984137, 117, 17, 148, 144
-0.984165, 169, 145, 200, 208
-0.984172, 305, 97, 336, 224
-0.984216, 141, 185, 172, 248
-0.984286, 385, 145, 416, 208
-0.984296, 317, 241, 348, 304
-0.984304, 345, 249, 376, 312
-0.984321, 37, 225, 68, 352
-0.984362, 1, 25, 128, 88
-0.984407, 185, 49, 216, 112
-0.984417, 193, 217, 224, 280
-0.984423, 421, 193, 452, 256
-0.984436, 157, 257, 188, 320
-0.984446, 293, 129, 324, 192
-0.984448, 133, 121, 164, 184
-0.98447, 173, 169, 204, 232
-0.984496, 257, 97, 288, 160
-0.984686, 433, 1, 496, 256
-0.984746, 269, 97, 300, 224
-0.984907, 257, 1, 320, 375
-0.984963, 201, 1, 232, 128
-0.985113, 369, 305, 496, 368
-0.985115, 209, 41, 336, 104
-0.985204, 421, 161, 452, 288
-0.985223, 225, 1, 352, 64
-0.985257, 285, 1, 316, 128
-0.985291, 289, 49, 320, 176
-0.985396, 337, 49, 368, 176
-0.98545, 465, 129, 496, 256
-0.985462, 305, 249, 432, 312
-0.985491, 177, 1, 304, 64
-0.985529, 61, 65, 92, 192
-0.985618, 253, 241, 284, 368
-0.985721, 401, 209, 432, 336
-0.98573, 137, 1, 200, 375
-0.985755, 393, 241, 456, 368
-0.985826, 353, 1, 416, 375
-0.985837, 49, 313, 176, 375
-0.985848, 233, 1, 296, 256
-0.985908, 305, 33, 432, 96
-0.985933, 49, 1, 112, 375
-0.985977, 357, 17, 388, 144
-0.986067, 209, 65, 240, 192
-0.986084, 293, 97, 324, 224
-0.986091, 369, 33, 496, 96
-0.986146, 165, 1, 196, 128
-0.986196, 81, 1, 144, 375
-0.986202, 309, 1, 340, 128
-0.986213, 113, 1, 176, 375
-0.986294, 49, 241, 112, 368
-0.986414, 1, 1, 64, 375
-0.986473, 113, 25, 240, 88
-0.986499, 173, 241, 204, 368
-0.986563, 277, 145, 308, 272
-0.98671, 389, 17, 420, 144
-0.986786, 409, 97, 472, 352
-0.986848, 409, 1, 472, 256
-0.986933, 309, 49, 340, 176
-0.986934, 433, 97, 496, 224
-0.986986, 53, 225, 84, 352
-0.986997, 209, 113, 240, 240
-0.98703, 233, 1, 296, 375
-0.987118, 365, 97, 396, 224
-0.987172, 389, 225, 420, 352
-0.98721, 201, 1, 264, 375
-0.987215, 449, 193, 480, 320
-0.987304, 185, 113, 216, 240
-0.987379, 65, 193, 96, 320
-0.987414, 213, 209, 244, 336
-0.987639, 401, 113, 432, 240
-0.987777, 441, 129, 472, 256
-0.987777, 81, 177, 112, 304
-0.987787, 237, 241, 268, 368
-0.987851, 349, 97, 380, 224
-0.987861, 257, 33, 288, 160
-0.987888, 257, 265, 384, 328
-0.987913, 1, 33, 32, 160
-0.988054, 113, 113, 144, 240
-0.988112, 425, 1, 488, 375
-0.988131, 81, 1, 112, 128
-0.988174, 277, 49, 308, 176
-0.988245, 193, 65, 224, 192
-0.988261, 381, 65, 412, 192
-0.988275, 461, 177, 492, 304
-0.988278, 137, 113, 168, 240
-0.988315, 45, 49, 76, 176
-0.988416, 337, 241, 368, 368
-0.988461, 145, 289, 272, 352
-0.988464, 401, 1, 464, 375
-0.988653, 1, 113, 256, 176
-0.988672, 217, 1, 248, 128
-0.988733, 289, 305, 416, 368
-0.988736, 97, 229, 160, 260
-0.988803, 321, 1, 384, 375
-0.988887, 201, 1, 264, 256
-0.988887, 265, 173, 328, 204
-0.988911, 1, 313, 128, 375
-0.988932, 305, 177, 368, 208
-0.989002, 377, 1, 440, 375
-0.989017, 169, 145, 232, 176
-0.989058, 9, 129, 72, 160
-0.989099, 25, 177, 56, 304
-0.989106, 97, 209, 352, 272
-0.989137, 321, 229, 384, 260
-0.989153, 429, 1, 460, 128
-0.989174, 305, 273, 432, 336
-0.989192, 329, 161, 392, 192
-0.989209, 153, 221, 216, 252
-0.989311, 297, 209, 360, 240
-0.98932, 169, 161, 232, 192
-0.98934, 185, 253, 248, 284
-0.989343, 49, 233, 112, 264
-0.989364, 185, 241, 248, 272
-0.989377, 1, 1, 128, 64
-0.989444, 25, 245, 88, 276
-0.989459, 257, 221, 320, 252
-0.989474, 137, 149, 200, 180
-0.989488, 1, 289, 128, 352
-0.989522, 1, 145, 64, 176
-0.989524, 37, 1, 68, 128
-0.989548, 345, 245, 408, 276
-0.989555, 385, 205, 448, 236
-0.989557, 353, 249, 480, 312
-0.989569, 209, 245, 272, 276
-0.989579, 145, 265, 208, 296
-0.989588, 1, 177, 32, 304
-0.989595, 265, 209, 296, 336
-0.98961, 161, 161, 416, 224
-0.989612, 73, 105, 136, 136
-0.989629, 153, 173, 216, 204
-0.989642, 193, 125, 256, 156
-0.989646, 297, 165, 360, 196
-0.989667, 353, 221, 416, 252
-0.989715, 33, 113, 96, 144
-0.989764, 265, 161, 328, 192
-0.989782, 97, 137, 352, 200
-0.989811, 225, 117, 288, 148
-0.989837, 1, 233, 256, 296
-0.98986, 305, 241, 368, 272
-0.989868, 129, 173, 192, 204
-0.989881, 425, 213, 488, 244
-0.98996, 281, 225, 344, 256
-0.989968, 329, 213, 392, 244
-0.989983, 1, 237, 64, 268
-0.989987, 185, 269, 248, 300
-0.989994, 305, 189, 368, 220
-0.990001, 1, 153, 256, 216
-0.990004, 105, 217, 168, 248
-0.990009, 137, 317, 200, 348
-0.990013, 169, 205, 232, 236
-0.990014, 129, 81, 192, 112
-0.990019, 129, 65, 192, 96
-0.990032, 49, 197, 112, 228
-0.990035, 57, 217, 120, 248
-0.990043, 137, 161, 200, 192
-0.990059, 49, 149, 112, 180
-0.990073, 113, 153, 176, 184
-0.990082, 225, 233, 480, 296
-0.990105, 249, 209, 312, 240
-0.990113, 329, 173, 392, 204
-0.990132, 305, 109, 368, 140
-0.990163, 153, 129, 216, 160
-0.990172, 49, 93, 112, 124
-0.990177, 1, 117, 64, 148
-0.99018, 25, 157, 88, 188
-0.990194, 217, 129, 280, 160
-0.990199, 209, 233, 272, 264
-0.990207, 265, 185, 328, 216
-0.990215, 249, 113, 312, 144
-0.990229, 1, 197, 64, 228
-0.99024, 121, 185, 184, 216
-0.990252, 209, 261, 272, 292
-0.990254, 193, 189, 256, 220
-0.990276, 409, 201, 472, 232
-0.990288, 369, 193, 432, 224
-0.990288, 89, 205, 152, 236
-0.990297, 41, 49, 104, 80
-0.990313, 113, 93, 176, 124
-0.99034, 161, 69, 224, 100
-0.990349, 41, 73, 104, 104
-0.990371, 193, 201, 256, 232
-0.990374, 193, 209, 448, 272
-0.990388, 105, 165, 168, 196
-0.990408, 25, 141, 88, 172
-0.990416, 89, 89, 152, 120
-0.990423, 65, 169, 128, 200
-0.990438, 385, 225, 448, 256
-0.990442, 57, 117, 120, 148
-0.990465, 329, 189, 392, 220
-0.990467, 353, 205, 416, 236
-0.990506, 153, 117, 216, 148
-0.990518, 49, 245, 112, 276
-0.990519, 169, 185, 232, 216
-0.990519, 193, 157, 256, 188
-0.99052, 257, 101, 320, 132
-0.990523, 89, 153, 152, 184
-0.990535, 121, 49, 184, 80
-0.990539, 169, 81, 232, 112
-0.990563, 25, 185, 88, 216
-0.990588, 241, 237, 304, 268
-0.990614, 217, 197, 280, 228
-0.990626, 305, 153, 368, 184
-0.990637, 241, 273, 304, 304
-0.990661, 265, 145, 328, 176
-0.990668, 137, 277, 200, 308
-0.990674, 65, 185, 128, 216
-0.990702, 97, 233, 352, 296
-0.990705, 353, 181, 416, 212
-0.990713, 129, 105, 192, 136
-0.990745, 225, 313, 352, 375
-0.990762, 73, 77, 136, 108
-0.99077, 241, 169, 304, 200
-0.99078, 273, 133, 336, 164
-0.990782, 217, 221, 280, 252
-0.99079, 313, 121, 376, 152
-0.990791, 353, 25, 416, 56
-0.990794, 129, 213, 192, 244
-0.9908, 121, 137, 184, 168
-0.990803, 273, 113, 336, 144
-0.990811, 281, 237, 344, 268
-0.990817, 65, 133, 128, 164
-0.990818, 97, 97, 352, 160
-0.990825, 105, 25, 168, 56
-0.990828, 345, 233, 408, 264
-0.990836, 137, 329, 200, 360
-0.99084, 145, 37, 208, 68
-0.990846, 433, 201, 496, 232
-0.990849, 81, 61, 144, 92
-0.990865, 97, 141, 160, 172
-0.990866, 25, 205, 88, 236
-0.990872, 249, 125, 312, 156
-0.990889, 369, 165, 432, 196
-0.990922, 225, 105, 288, 136
-0.990927, 25, 233, 88, 264
-0.990928, 89, 189, 152, 220
-0.990928, 113, 341, 176, 372
-0.990953, 121, 229, 184, 260
-0.990954, 73, 249, 136, 280
-0.990954, 265, 197, 328, 228
-0.990959, 433, 225, 496, 256
-0.990966, 249, 253, 312, 284
-0.990991, 321, 41, 384, 72
-0.990993, 185, 105, 248, 136
-0.991003, 161, 253, 224, 284
-0.991009, 1, 157, 64, 188
-0.991168, 1, 177, 256, 240
-0.991375, 1, 185, 500, 248
-0.991418, 1, 209, 256, 272
-0.991453, 17, 257, 144, 320
-0.991537, 193, 185, 448, 248
-0.991564, 1, 209, 500, 272
-0.991895, 1, 129, 500, 192
-0.991998, 29, 245, 60, 276
-0.992205, 97, 265, 352, 328
-0.992255, 97, 185, 352, 248
-0.992258, 193, 113, 448, 176
-0.992314, 53, 145, 84, 176
-0.992328, 1, 89, 500, 152
-0.992343, 357, 241, 388, 272
-0.992346, 337, 213, 368, 244
-0.992403, 181, 161, 212, 192
-0.992404, 1, 133, 32, 164
-0.99243, 177, 265, 208, 296
-0.992431, 357, 161, 388, 192
-0.992448, 41, 241, 72, 272
-0.992467, 41, 133, 72, 164
-0.992467, 341, 177, 372, 208
-0.992468, 377, 177, 408, 208
-0.992473, 369, 221, 400, 252
-0.99248, 17, 133, 48, 164
-0.992486, 293, 205, 324, 236
-0.992491, 53, 229, 84, 260
-0.992501, 185, 137, 216, 168
-0.992508, 241, 117, 272, 148
-0.992513, 293, 225, 324, 256
-0.992529, 373, 245, 404, 276
-0.992535, 89, 209, 120, 240
-0.992541, 145, 313, 176, 344
-0.992547, 161, 105, 192, 136
-0.992549, 257, 161, 500, 224
-0.992554, 137, 173, 168, 204
-0.992556, 13, 237, 44, 268
-0.992559, 105, 225, 136, 256
-0.99256, 273, 169, 304, 200
-0.992563, 205, 149, 236, 180
-0.992574, 133, 73, 164, 104
-0.992581, 1, 89, 256, 152
-0.992584, 141, 217, 172, 248
-0.992586, 193, 161, 224, 192
-0.992587, 105, 145, 136, 176
-0.9926, 117, 89, 148, 120
-0.992608, 93, 233, 124, 264
-0.992619, 337, 165, 368, 196
-0.992621, 377, 153, 408, 184
-0.992623, 205, 129, 236, 160
-0.992627, 1, 145, 32, 176
-0.99263, 281, 209, 312, 240
-0.992631, 193, 253, 224, 284
-0.992637, 313, 177, 344, 208
-0.99264, 45, 193, 76, 224
-0.992643, 237, 233, 268, 264
-0.992646, 89, 105, 120, 136
-0.992649, 197, 177, 228, 208
-0.992649, 313, 193, 344, 224
-0.99265, 149, 173, 180, 204
-0.992656, 141, 301, 172, 332
-0.992657, 109, 213, 140, 244
-0.992661, 117, 105, 148, 136
-0.99267, 241, 105, 272, 136
-0.992673, 245, 265, 276, 296
-0.992683, 29, 133, 60, 164
-0.992683, 389, 209, 420, 240
-0.99269, 405, 213, 436, 244
-0.992691, 157, 153, 188, 184
-0.992695, 169, 93, 200, 124
-0.992706, 333, 225, 364, 256
-0.992706, 121, 217, 152, 248
-0.992707, 193, 273, 224, 304
-0.992716, 17, 121, 48, 152
-0.99272, 349, 209, 380, 240
-0.992726, 177, 253, 304, 284
-0.992727, 113, 117, 144, 148
-0.992733, 13, 145, 44, 176
-0.992735, 329, 193, 360, 224
-0.992737, 257, 229, 288, 260
-0.992739, 205, 165, 236, 196
-0.992739, 85, 149, 116, 180
-0.992749, 113, 189, 144, 220
-0.992749, 65, 165, 96, 196
-0.992749, 329, 181, 360, 212
-0.99275, 349, 225, 380, 256
-0.992753, 233, 269, 264, 300
-0.992754, 345, 253, 376, 284
-0.992757, 341, 237, 372, 268
-0.992757, 425, 225, 456, 256
-0.992759, 93, 249, 124, 280
-0.99276, 397, 225, 428, 256
-0.992765, 125, 265, 156, 296
-0.992766, 441, 209, 472, 240
-0.992769, 221, 261, 252, 292
-0.99277, 149, 41, 180, 72
-0.992773, 137, 161, 168, 192
-0.992773, 177, 149, 208, 180
-0.992779, 1, 121, 32, 152
-0.992779, 253, 129, 284, 160
-0.99278, 129, 325, 160, 356
-0.99278, 113, 257, 144, 288
-0.99278, 201, 237, 232, 268
-0.992781, 77, 105, 108, 136
-0.992782, 145, 145, 176, 176
-0.992788, 221, 125, 252, 156
-0.992791, 157, 201, 188, 232
-0.992791, 369, 209, 400, 240
-0.992792, 129, 229, 160, 260
-0.992792, 33, 157, 64, 188
-0.992794, 205, 189, 236, 220
-0.992794, 153, 69, 184, 100
-0.992795, 169, 125, 200, 156
-0.992798, 313, 149, 344, 180
-0.9928, 41, 229, 72, 260
-0.992804, 197, 205, 228, 236
-0.992805, 325, 153, 356, 184
-0.992805, 125, 161, 156, 192
-0.992808, 221, 241, 252, 272
-0.992811, 25, 257, 56, 288
-0.992815, 109, 17, 140, 48
-0.992817, 293, 177, 324, 208
-0.992817, 117, 233, 148, 264
-0.992818, 61, 109, 92, 140
-0.99282, 261, 109, 292, 140
-0.992824, 105, 133, 136, 164
-0.992824, 101, 201, 132, 232
-0.992824, 169, 213, 200, 244
-0.992825, 385, 225, 416, 256
-0.992825, 193, 137, 448, 200
-0.992826, 217, 165, 248, 196
-0.992826, 65, 197, 96, 228
-0.992827, 321, 245, 352, 276
-0.992829, 177, 77, 208, 108
-0.992829, 261, 189, 292, 220
-0.992829, 357, 181, 388, 212
-0.99283, 345, 33, 376, 64
-0.99283, 33, 205, 64, 236
-0.992831, 29, 109, 60, 140
-0.992834, 405, 201, 436, 232
-0.992835, 33, 189, 64, 220
-0.992836, 33, 145, 64, 176
-0.992837, 49, 117, 80, 148
-0.992839, 73, 117, 104, 148
-0.992844, 81, 77, 112, 108
-0.992976, 177, 313, 304, 375
-0.992997, 97, 65, 352, 128
-0.99301, 177, 241, 304, 272
-0.993022, 1, 249, 500, 312
-0.993046, 113, 265, 240, 296
-0.993099, 33, 141, 160, 172
-0.993144, 129, 225, 256, 256
-0.993164, 353, 273, 480, 336
-0.993182, 273, 233, 400, 264
-0.99322, 289, 169, 416, 200
-0.993288, 177, 265, 304, 296
-0.993316, 65, 101, 192, 132
-0.993344, 1, 65, 256, 128
-0.993387, 177, 141, 304, 172
-0.993389, 81, 233, 208, 264
-0.993408, 105, 225, 120, 288
-0.993532, 209, 229, 336, 260
-0.993554, 1, 241, 128, 272
-0.993675, 65, 113, 192, 144
-0.993704, 289, 213, 416, 244
-0.993708, 81, 81, 208, 112
-0.993768, 33, 229, 160, 260
-0.993801, 225, 257, 480, 320
-0.993804, 289, 153, 416, 184
-0.993837, 1, 257, 256, 320
-0.993938, 39, 121, 54, 184
-0.993941, 21, 129, 36, 192
-0.993965, 129, 145, 256, 176
-0.994027, 59, 193, 74, 256
-0.994043, 33, 185, 160, 216
-0.994069, 337, 157, 464, 188
-0.994088, 371, 217, 386, 280
-0.994098, 129, 41, 384, 104
-0.994123, 337, 209, 464, 240
-0.99413, 1, 273, 500, 336
-0.994137, 113, 177, 240, 208
-0.994148, 1, 129, 128, 160
-0.994168, 257, 245, 384, 276
-0.994174, 177, 129, 304, 160
-0.994217, 1, 161, 500, 224
-0.994235, 97, 133, 224, 164
-0.994263, 381, 225, 396, 288
-0.994265, 173, 81, 188, 144
-0.994265, 363, 217, 378, 280
-0.994266, 1, 113, 128, 144
-0.994283, 111, 217, 126, 280
-0.994292, 241, 201, 368, 232
-0.994299, 33, 49, 160, 80
-0.994359, 1, 41, 256, 104
-0.994369, 163, 113, 178, 176
-0.994385, 289, 181, 416, 212
-0.994422, 391, 209, 406, 272
-0.994425, 321, 225, 448, 256
-0.994459, 33, 197, 160, 228
-0.994471, 59, 217, 74, 280
-0.994473, 97, 205, 224, 236
-0.994474, 17, 101, 144, 132
-0.994483, 33, 165, 160, 196
-0.994499, 129, 233, 144, 296
-0.994511, 113, 249, 240, 280
-0.99453, 349, 161, 364, 224
-0.99453, 385, 177, 400, 240
-0.994535, 265, 241, 280, 304
-0.994538, 241, 217, 368, 248
-0.994541, 209, 129, 224, 192
-0.994572, 241, 173, 368, 204
-0.994576, 241, 189, 368, 220
-0.99458, 5, 113, 20, 176
-0.994592, 305, 197, 432, 228
-0.994595, 147, 129, 162, 192
-0.994631, 49, 209, 64, 272
-0.994658, 369, 221, 496, 252
-0.994682, 199, 145, 214, 208
-0.994691, 35, 233, 50, 296
-0.994723, 129, 193, 256, 224
-0.994749, 327, 145, 342, 208
-0.994757, 241, 161, 368, 192
-0.99476, 305, 201, 320, 264
-0.994789, 257, 81, 500, 144
-0.9948, 99, 209, 114, 272
-0.99481, 33, 313, 288, 375
-0.994833, 161, 205, 288, 236
-0.994836, 129, 97, 256, 128
-0.994839, 111, 193, 126, 256
-0.994841, 377, 193, 392, 256
-0.994851, 11, 113, 26, 176
-0.994864, 33, 253, 160, 284
-0.994876, 35, 153, 50, 216
-0.994882, 197, 233, 212, 296
-0.994895, 397, 177, 412, 240
-0.9949, 49, 37, 176, 68
-0.994902, 255, 257, 270, 320
-0.994917, 113, 157, 240, 188
-0.994924, 209, 109, 336, 140
-0.994939, 177, 161, 304, 192
-0.994942, 135, 233, 150, 296
-0.994959, 149, 161, 164, 224
-0.994964, 15, 137, 30, 200
-0.994971, 25, 153, 40, 216
-0.994976, 225, 33, 480, 96
-0.994989, 249, 105, 264, 168
-0.99499, 315, 145, 330, 208
-0.994999, 337, 169, 464, 200
-0.995008, 193, 1, 448, 64
-0.995013, 1, 1, 256, 64
-0.995047, 75, 121, 90, 184
-0.995055, 49, 217, 176, 248
-0.995055, 119, 225, 134, 288
-0.995058, 1, 65, 500, 128
-0.995067, 337, 161, 352, 224
-0.995078, 321, 169, 336, 232
-0.995091, 139, 137, 154, 200
-0.995099, 237, 249, 252, 312
-0.995109, 33, 113, 48, 176
-0.995111, 193, 217, 320, 248
-0.995124, 65, 201, 80, 264
-0.995125, 177, 277, 304, 308
-0.995133, 125, 81, 140, 144
-0.995137, 261, 89, 276, 152
-0.995151, 241, 133, 368, 164
-0.995163, 153, 137, 168, 200
-0.995168, 187, 209, 202, 272
-0.995184, 113, 109, 240, 140
-0.99519, 161, 173, 288, 204
-0.995199, 27, 129, 42, 192
-0.995207, 191, 137, 206, 200
-0.99522, 97, 53, 224, 84
-0.995231, 101, 145, 116, 208
-0.995232, 161, 77, 288, 108
-0.995245, 249, 81, 264, 144
-0.995263, 337, 185, 464, 216
-0.995265, 167, 89, 182, 152
-0.995283, 353, 185, 368, 248
-0.995289, 257, 313, 500, 375
-0.995294, 305, 141, 432, 172
-0.995299, 29, 233, 44, 296
-0.995314, 141, 233, 156, 296
-0.995336, 113, 249, 128, 312
-0.995342, 1, 289, 256, 352
-0.995365, 141, 161, 156, 224
-0.995383, 95, 33, 110, 96
-0.995383, 391, 153, 406, 216
-0.995387, 81, 145, 208, 176
-0.995392, 305, 245, 432, 276
-0.995395, 107, 161, 122, 224
-0.995415, 353, 225, 368, 288
-0.99542, 157, 113, 172, 176
-0.995425, 299, 201, 314, 264
-0.995439, 257, 57, 500, 120
-0.995444, 193, 189, 320, 220
-0.995447, 227, 233, 242, 296
-0.995449, 33, 81, 160, 112
-0.99545, 343, 169, 358, 232
-0.995452, 33, 89, 48, 152
-0.995456, 81, 189, 208, 220
-0.995484, 391, 177, 406, 240
-0.995489, 109, 121, 124, 184
-0.995499, 339, 209, 354, 272
-0.995502, 167, 137, 182, 200
-0.995511, 171, 185, 186, 248
-0.995512, 55, 161, 70, 224
-0.995513, 385, 201, 400, 264
-0.995515, 1, 213, 128, 244
-0.995526, 129, 121, 256, 152
-0.995544, 115, 97, 130, 160
-0.995563, 271, 257, 286, 320
-0.995568, 217, 153, 232, 216
-0.995586, 313, 177, 328, 240
-0.995592, 157, 289, 172, 352
-0.995604, 315, 201, 330, 264
-0.99561, 47, 185, 62, 248
-0.995617, 81, 1, 96, 64
-0.995626, 185, 129, 200, 192
-0.99563, 241, 145, 368, 176
-0.995638, 357, 153, 372, 216
-0.995653, 381, 153, 396, 216
-0.995657, 223, 129, 238, 192
-0.99566, 105, 185, 120, 248
-0.995662, 243, 65, 258, 128
-0.995664, 131, 81, 146, 144
-0.99567, 161, 177, 176, 240
-0.995673, 65, 309, 192, 340
-0.995676, 257, 257, 384, 288
-0.995685, 181, 73, 196, 136
-0.995686, 245, 249, 260, 312
-0.995694, 397, 217, 412, 280
-0.995701, 255, 81, 270, 144
-0.995701, 359, 185, 374, 248
-0.995708, 65, 121, 80, 184
-0.99571, 369, 145, 496, 176
-0.995712, 225, 93, 352, 124
-0.99574, 161, 109, 288, 140
-0.99574, 43, 97, 58, 160
-0.995743, 257, 113, 272, 176
-0.995745, 85, 73, 100, 136
-0.995749, 191, 265, 206, 328
-0.995756, 107, 249, 122, 312
-0.995767, 371, 193, 386, 256
-0.995788, 129, 25, 144, 88
-0.995813, 361, 25, 376, 88
-0.995815, 269, 177, 284, 240
-0.99582, 293, 209, 308, 272
-0.995829, 163, 289, 178, 352
-0.995829, 53, 185, 68, 248
-0.995834, 129, 313, 384, 375
-0.995841, 131, 1, 146, 64
-0.995843, 225, 269, 352, 300
-0.995845, 225, 161, 240, 224
-0.995848, 411, 193, 426, 256
-0.995854, 371, 153, 386, 216
-0.995857, 219, 185, 234, 248
-0.995857, 21, 225, 36, 288
-0.995862, 147, 281, 162, 344
-0.995865, 129, 49, 144, 112
-0.995871, 149, 1, 180, 256
-0.995872, 45, 153, 60, 216
-0.995878, 185, 97, 200, 160
-0.995879, 135, 161, 150, 224
-0.995879, 337, 21, 464, 52
-0.99588, 49, 61, 176, 92
-0.995886, 129, 237, 256, 268
-0.995891, 121, 25, 136, 88
-0.995892, 169, 65, 200, 320
-0.995893, 151, 185, 166, 248
-0.995894, 177, 161, 192, 224
-0.995897, 177, 209, 192, 272
-0.9959, 19, 105, 34, 168
-0.995908, 29, 265, 44, 328
-0.995908, 1, 225, 16, 288
-0.995915, 41, 241, 56, 304
-0.995917, 129, 277, 256, 308
-0.99593, 139, 209, 154, 272
-0.995948, 289, 125, 416, 156
-0.995964, 273, 89, 400, 120
-0.996004, 33, 153, 160, 184
-0.996055, 129, 289, 384, 352
-0.996077, 81, 1, 208, 32
-0.996079, 129, 325, 256, 356
-0.996108, 289, 45, 416, 76
-0.996246, 1, 37, 128, 68
-0.996284, 81, 285, 208, 316
-0.996309, 49, 129, 176, 160
-0.996314, 5, 129, 36, 375
-0.996324, 305, 109, 432, 140
-0.99634, 241, 121, 368, 152
-0.996346, 181, 1, 212, 256
-0.99635, 113, 65, 240, 96
-0.996369, 289, 13, 416, 44
-0.99638, 1, 313, 500, 375
-0.996391, 225, 97, 256, 352
-0.996401, 81, 321, 208, 352
-0.996422, 129, 341, 256, 372
-0.996422, 17, 1, 144, 32
-0.996422, 225, 69, 352, 100
-0.996444, 289, 25, 416, 56
-0.996449, 353, 81, 480, 112
-0.996477, 49, 269, 176, 300
-0.996495, 1, 61, 128, 92
-0.9965, 369, 133, 496, 164
-0.996511, 305, 1, 432, 32
-0.996539, 177, 93, 304, 124
-0.996544, 289, 57, 416, 88
-0.996556, 97, 41, 224, 72
-0.996558, 189, 129, 220, 375
-0.996571, 133, 129, 164, 375
-0.996588, 157, 97, 188, 352
-0.996593, 93, 97, 124, 352
-0.99661, 17, 25, 144, 56
-0.996617, 81, 17, 208, 48
-0.996628, 33, 341, 160, 372
-0.996635, 353, 333, 480, 364
-0.996637, 113, 1, 144, 256
-0.996654, 81, 345, 208, 375
-0.996664, 145, 97, 176, 352
-0.99667, 161, 65, 288, 96
-0.996721, 245, 97, 276, 352
-0.996724, 241, 57, 368, 88
-0.996731, 65, 297, 192, 328
-0.996735, 353, 245, 480, 276
-0.996758, 97, 17, 352, 80
-0.996764, 369, 197, 496, 228
-0.996791, 129, 313, 256, 344
-0.996809, 35, 245, 50, 276
-0.996843, 353, 37, 480, 68
-0.996871, 73, 1, 104, 256
-0.996871, 225, 281, 480, 344
-0.996875, 81, 97, 112, 352
-0.996886, 93, 1, 124, 256
-0.996911, 289, 73, 416, 104
-0.996913, 273, 329, 400, 360
-0.996948, 241, 29, 368, 60
-0.996949, 201, 97, 232, 352
-0.996962, 337, 129, 368, 375
-0.996983, 145, 1, 272, 32
-0.996991, 369, 121, 496, 152
-0.996995, 33, 13, 160, 44
-0.997002, 105, 129, 136, 375
-0.997072, 1, 1, 32, 256
-0.997102, 177, 53, 304, 84
-0.997113, 353, 9, 480, 40
-0.997133, 225, 341, 352, 372
-0.997144, 257, 105, 384, 136
-0.997146, 299, 209, 314, 240
-0.997153, 129, 85, 144, 116
-0.997155, 363, 237, 378, 268
-0.997182, 7, 133, 22, 164
-0.997191, 225, 81, 352, 112
-0.997199, 273, 1, 304, 256
-0.997201, 129, 29, 256, 60
-0.997251, 313, 129, 344, 375
-0.99726, 361, 225, 376, 256
-0.997268, 97, 237, 112, 268
-0.997274, 381, 1, 412, 256
-0.997275, 195, 161, 210, 192
-0.997294, 103, 233, 118, 264
-0.997294, 13, 133, 28, 164
-0.997305, 351, 161, 366, 192
-0.997319, 57, 129, 88, 375
-0.997354, 305, 221, 320, 252
-0.997363, 261, 65, 292, 320
-0.997363, 201, 161, 216, 192
-0.997367, 341, 33, 372, 288
-0.997368, 349, 129, 380, 375
-0.997373, 213, 129, 244, 375
-0.997384, 361, 33, 392, 288
-0.997391, 211, 145, 226, 176
-0.997399, 133, 33, 164, 288
-0.997407, 305, 201, 320, 232
-0.997462, 61, 145, 76, 176
-0.997466, 111, 209, 126, 240
-0.997476, 1, 41, 500, 104
-0.997482, 49, 241, 64, 272
-0.997483, 61, 33, 92, 288
-0.997493, 37, 129, 68, 375
-0.997494, 41, 241, 56, 272
-0.997498, 59, 225, 74, 256
-0.99751, 389, 245, 404, 276
-0.997526, 337, 181, 352, 212
-0.997529, 55, 197, 70, 228
-0.99754, 167, 105, 182, 136
-0.997542, 71, 161, 86, 192
-0.997551, 393, 225, 408, 256
-0.997555, 239, 265, 254, 296
-0.997558, 149, 169, 164, 200
-0.997562, 201, 1, 232, 256
-0.997566, 343, 209, 358, 240
-0.99757, 29, 249, 44, 280
-0.997576, 19, 133, 34, 164
-0.997579, 27, 133, 42, 164
-0.997581, 35, 109, 50, 140
-0.997584, 35, 125, 50, 156
-0.997588, 97, 149, 112, 180
-0.997589, 381, 173, 396, 204
-0.997589, 289, 65, 320, 320
-0.997597, 161, 177, 176, 208
-0.997601, 175, 85, 190, 116
-0.997602, 387, 213, 402, 244
-0.997608, 391, 181, 406, 212
-0.997623, 343, 153, 358, 184
-0.997638, 393, 97, 424, 352
-0.997643, 193, 269, 208, 300
-0.997653, 371, 221, 386, 252
-0.997655, 79, 113, 94, 144
-0.99766, 135, 225, 150, 256
-0.997668, 43, 193, 58, 224
-0.997673, 207, 125, 222, 156
-0.997678, 337, 161, 352, 192
-0.99768, 219, 125, 234, 156
-0.997689, 115, 189, 130, 220
-0.997691, 267, 169, 282, 200
-0.997691, 37, 193, 52, 224
-0.997704, 25, 97, 56, 352
-0.997714, 89, 201, 104, 232
-0.997715, 107, 137, 122, 168
-0.997715, 39, 145, 54, 176
-0.997717, 121, 101, 136, 132
-0.997721, 47, 141, 62, 172
-0.997724, 151, 185, 166, 216
-0.997726, 275, 165, 290, 196
-0.997729, 195, 141, 210, 172
-0.99773, 123, 217, 138, 248
-0.997732, 9, 117, 24, 148
-0.997742, 357, 241, 372, 272
-0.997747, 121, 145, 136, 176
-0.997749, 155, 173, 170, 204
-0.997751, 1, 133, 16, 164
-0.997758, 67, 145, 82, 176
-0.99776, 325, 129, 356, 375
-0.997761, 251, 105, 266, 136
-0.997763, 179, 141, 194, 172
-0.997771, 103, 209, 118, 240
-0.997772, 61, 213, 76, 244
-0.997772, 17, 1, 48, 256
-0.997775, 13, 145, 28, 176
-0.997777, 437, 205, 452, 236
-0.997781, 297, 225, 312, 256
-0.997782, 371, 157, 386, 188
-0.997785, 87, 105, 102, 136
-0.997785, 141, 229, 156, 260
-0.997787, 185, 141, 200, 172
-0.997792, 55, 237, 70, 268
-0.997796, 1, 121, 16, 152
-0.997805, 331, 193, 346, 224
-0.997809, 197, 257, 212, 288
-0.99781, 307, 189, 322, 220
-0.997812, 29, 237, 44, 268
-0.997813, 45, 109, 60, 140
-0.997813, 373, 97, 404, 352
-0.997816, 203, 145, 218, 176
-0.997817, 61, 133, 76, 164
-0.997819, 371, 245, 386, 276
-0.99782, 383, 161, 398, 192
-0.997822, 389, 161, 404, 192
-0.997826, 425, 221, 440, 252
-0.997826, 111, 117, 126, 148
-0.997826, 207, 157, 222, 188
-0.997828, 353, 229, 368, 260
-0.997834, 343, 173, 358, 204
-0.997835, 253, 265, 268, 296
-0.997837, 203, 201, 218, 232
-0.997838, 7, 145, 22, 176
-0.997839, 187, 161, 202, 192
-0.997841, 1, 233, 16, 264
-0.997841, 215, 265, 230, 296
-0.997844, 153, 137, 168, 168
-0.997851, 159, 301, 174, 332
-0.997852, 171, 209, 186, 240
-0.997852, 65, 229, 80, 260
-0.997852, 55, 141, 70, 172
-0.997852, 351, 213, 366, 244
-0.997856, 175, 153, 190, 184
-0.997858, 245, 105, 260, 136
-0.997859, 217, 185, 232, 216
-0.99786, 217, 241, 232, 272
-0.997861, 393, 213, 408, 244
-0.997862, 261, 233, 276, 264
-0.997862, 161, 209, 176, 240
-0.997866, 361, 37, 376, 68
-0.997868, 85, 77, 100, 108
-0.997869, 329, 145, 344, 176
-0.99787, 73, 109, 88, 140
-0.997876, 199, 237, 214, 268
-0.997888, 123, 261, 138, 292
-0.997889, 351, 189, 366, 220
-0.997892, 65, 173, 80, 204
-0.997894, 41, 133, 56, 164
-0.997895, 95, 205, 110, 236
-0.997896, 411, 225, 426, 256
-0.997896, 377, 209, 392, 240
-0.9979, 103, 249, 118, 280
-0.997901, 67, 133, 82, 164
-0.997903, 131, 261, 146, 292
-0.997912, 117, 97, 148, 352
-0.997915, 93, 105, 108, 136
-0.997941, 449, 97, 480, 352
-0.997951, 37, 1, 68, 256
-0.998038, 393, 1, 424, 256
-0.998067, 361, 129, 392, 375
-0.998092, 445, 1, 476, 256
-0.998097, 413, 129, 444, 375
-0.998201, 241, 1, 272, 256
-0.998202, 1, 1, 500, 64
-0.998204, 313, 1, 344, 256
-0.998258, 301, 1, 332, 256
-0.998268, 465, 65, 496, 320
-0.998321, 277, 97, 308, 352
-0.998345, 325, 33, 356, 288
-0.998366, 229, 1, 260, 256
-0.998383, 97, 231, 160, 246
-0.998395, 297, 179, 360, 194
-0.998419, 433, 1, 464, 256
-0.998423, 1, 243, 64, 258
-0.998428, 49, 235, 112, 250
-0.998445, 329, 217, 392, 232
-0.998448, 337, 171, 400, 186
-0.998452, 297, 225, 360, 240
-0.998455, 25, 147, 88, 162
-0.998455, 281, 215, 312, 230
-0.998456, 401, 219, 432, 234
-0.998456, 257, 261, 288, 276
-0.998456, 53, 227, 84, 242
-0.998456, 337, 179, 400, 194
-0.998457, 45, 147, 76, 162
-0.998459, 385, 247, 416, 262
-0.998459, 337, 239, 368, 254
-0.998459, 209, 129, 272, 144
-0.998459, 181, 161, 212, 176
-0.99846, 53, 171, 84, 186
-0.99846, 377, 183, 408, 198
-0.998461, 201, 181, 232, 196
-0.998461, 93, 115, 124, 130
-0.998461, 149, 323, 180, 338
-0.998462, 81, 109, 144, 124
-0.998462, 89, 215, 120, 230
-0.998462, 117, 19, 148, 34
-0.998462, 157, 211, 188, 226
-0.998463, 269, 171, 300, 186
-0.998464, 181, 273, 212, 288
-0.998464, 213, 267, 244, 282
-0.998465, 293, 173, 324, 188
-0.998465, 153, 63, 184, 78
-0.998466, 261, 111, 292, 126
-0.998466, 409, 33, 440, 288
-0.998466, 201, 195, 232, 210
-0.998466, 145, 137, 176, 152
-0.998467, 49, 241, 112, 256
-0.998467, 185, 255, 248, 270
-0.998467, 233, 125, 264, 140
-0.998468, 205, 165, 236, 180
-0.998468, 133, 185, 164, 200
-0.998468, 137, 325, 200, 340
-0.998469, 289, 215, 352, 230
-0.998469, 225, 233, 256, 248
-0.998469, 105, 151, 136, 166
-0.998469, 389, 241, 420, 256
-0.99847, 265, 171, 328, 186
-0.998471, 129, 85, 160, 100
-0.998472, 113, 111, 144, 126
-0.998472, 189, 137, 220, 152
-0.998473, 13, 243, 44, 258
-0.998473, 341, 175, 372, 190
-0.998473, 341, 169, 372, 184
-0.998473, 261, 211, 292, 226
-0.998473, 321, 245, 352, 260
-0.998475, 437, 97, 468, 352
-0.998475, 117, 105, 148, 120
-0.998476, 309, 117, 340, 132
-0.998477, 93, 199, 124, 214
-0.998477, 93, 239, 124, 254
-0.998477, 113, 117, 144, 132
-0.998478, 289, 245, 352, 260
-0.998478, 65, 201, 96, 216
-0.998478, 193, 135, 256, 150
-0.998478, 281, 221, 312, 236
-0.998478, 93, 109, 124, 124
-0.998478, 265, 209, 328, 224
-0.998479, 169, 147, 200, 162
-0.998479, 41, 201, 104, 216
-0.99848, 373, 247, 404, 262
-0.99848, 297, 173, 360, 188
-0.99848, 305, 185, 368, 200
-0.99848, 221, 273, 252, 288
-0.998481, 73, 123, 104, 138
-0.998482, 353, 227, 416, 242
-0.998483, 117, 91, 148, 106
-0.998483, 121, 157, 152, 172
-0.998483, 369, 259, 400, 274
-0.998483, 49, 207, 112, 222
-0.998484, 225, 273, 288, 288
-0.998484, 201, 255, 232, 270
-0.998484, 321, 237, 384, 252
-0.998485, 141, 69, 172, 84
-0.998485, 25, 241, 88, 256
-0.998485, 29, 133, 60, 148
-0.998486, 225, 243, 256, 258
-0.998486, 209, 133, 240, 148
-0.998486, 53, 63, 84, 78
-0.998486, 185, 169, 216, 184
-0.998486, 185, 275, 248, 290
-0.998487, 1, 201, 64, 216
-0.998488, 237, 265, 268, 280
-0.998489, 233, 271, 264, 286
-0.998489, 265, 185, 328, 200
-0.998489, 329, 189, 392, 204
-0.998489, 341, 215, 372, 230
-0.998489, 189, 143, 220, 158
-0.998489, 381, 163, 412, 178
-0.998489, 237, 239, 268, 254
-0.99849, 185, 261, 248, 276
-0.99849, 33, 149, 64, 164
-0.99849, 425, 207, 456, 222
-0.998491, 345, 247, 408, 262
-0.998491, 137, 235, 168, 250
-0.998491, 113, 205, 144, 220
-0.998492, 113, 193, 144, 208
-0.998492, 169, 145, 232, 160
-0.998492, 329, 195, 360, 210
-0.998493, 357, 227, 388, 242
-0.998494, 129, 145, 160, 160
-0.998494, 17, 131, 80, 146
-0.998494, 9, 141, 72, 156
-0.998495, 301, 205, 332, 220
-0.998495, 89, 207, 152, 222
-0.998496, 289, 111, 320, 126
-0.998496, 109, 223, 140, 238
-0.998496, 405, 201, 436, 216
-0.998496, 349, 241, 380, 256
-0.998496, 173, 267, 204, 282
-0.998497, 89, 237, 152, 252
-0.998497, 13, 237, 44, 252
-0.998497, 129, 175, 192, 190
-0.998498, 289, 229, 320, 244
-0.998498, 37, 237, 68, 252
-0.998498, 193, 261, 224, 276
-0.998499, 369, 157, 400, 172
-0.998499, 361, 243, 392, 258
-0.9985, 145, 315, 176, 330
-0.9985, 241, 115, 272, 130
-0.9985, 153, 147, 184, 162
-0.998501, 169, 93, 200, 108
-0.998501, 201, 139, 232, 154
-0.998502, 13, 151, 44, 166
-0.998502, 85, 207, 116, 222
-0.998502, 93, 251, 124, 266
-0.998503, 137, 139, 200, 154
-0.998503, 121, 229, 184, 244
-0.998503, 209, 265, 272, 280
-0.998503, 129, 89, 192, 104
-0.998503, 221, 131, 252, 146
-0.998504, 209, 249, 272, 264
-0.998504, 265, 177, 328, 192
-0.998504, 153, 181, 184, 196
-0.998505, 45, 139, 76, 154
-0.998506, 257, 219, 320, 234
-0.998506, 185, 121, 248, 136
-0.998507, 49, 111, 112, 126
-0.998508, 241, 277, 272, 292
-0.998508, 29, 155, 60, 170
-0.998508, 9, 157, 72, 172
-0.998508, 209, 119, 272, 134
-0.998508, 217, 237, 280, 252
-0.998509, 193, 201, 256, 216
-0.99851, 121, 147, 184, 162
-0.99851, 37, 197, 68, 212
-0.998512, 17, 131, 48, 146
-0.998512, 153, 271, 216, 286
-0.998512, 169, 167, 232, 182
-0.998514, 321, 173, 352, 188
-0.998514, 165, 105, 196, 120
-0.998515, 137, 65, 200, 80
-0.998515, 257, 235, 320, 250
-0.998515, 73, 113, 104, 128
-0.998516, 329, 165, 392, 180
-0.998517, 425, 223, 488, 238
-0.998518, 353, 219, 416, 234
-0.998519, 153, 207, 216, 222
-0.99852, 81, 115, 144, 130
-0.998521, 193, 163, 224, 178
-0.998521, 1, 151, 64, 166
-0.998522, 25, 111, 88, 126
-0.998522, 249, 113, 312, 128
-0.998522, 121, 185, 184, 200
-0.998522, 217, 243, 280, 258
-0.998523, 293, 211, 324, 226
-0.998523, 209, 255, 272, 270
-0.998524, 29, 253, 60, 268
-0.998524, 389, 219, 420, 234
-0.998524, 297, 209, 360, 224
-0.998525, 65, 213, 128, 228
-0.998526, 129, 157, 192, 172
-0.998527, 113, 111, 176, 126
-0.998528, 53, 157, 84, 172
-0.998528, 321, 223, 384, 238
-0.998529, 57, 57, 120, 72
-0.99853, 185, 267, 248, 282
-0.99853, 385, 221, 448, 236
-0.998531, 169, 83, 232, 98
-0.998531, 357, 251, 388, 266
-0.998532, 353, 163, 416, 178
-0.998533, 233, 129, 296, 144
-0.998533, 185, 245, 248, 260
-0.998533, 25, 259, 56, 274
-0.998534, 357, 165, 388, 180
-0.998535, 217, 141, 280, 156
-0.998535, 25, 235, 88, 250
-0.998535, 257, 119, 320, 134
-0.998536, 213, 33, 244, 288
-0.998536, 249, 135, 312, 150
-0.998536, 161, 223, 224, 238
-0.998537, 261, 271, 292, 286
-0.998538, 257, 225, 320, 240
-0.998539, 309, 177, 340, 192
-0.99854, 105, 145, 136, 160
-0.99854, 65, 121, 128, 136
-0.99854, 193, 239, 256, 254
-0.998541, 289, 203, 352, 218
-0.998542, 297, 165, 360, 180
-0.998543, 153, 185, 216, 200
-0.998543, 153, 265, 216, 280
-0.998544, 161, 139, 224, 154
-0.998544, 249, 259, 312, 274
-0.998545, 137, 319, 200, 334
-0.998545, 101, 209, 132, 224
-0.998546, 53, 233, 84, 248
-0.998546, 217, 187, 280, 202
-0.998547, 193, 195, 256, 210
-0.998548, 45, 203, 76, 218
-0.998548, 169, 173, 232, 188
-0.998548, 17, 195, 80, 210
-0.998548, 145, 119, 208, 134
-0.998548, 89, 153, 152, 168
-0.998549, 177, 213, 240, 228
-0.998549, 249, 241, 312, 256
-0.998549, 153, 179, 216, 194
-0.99855, 57, 247, 120, 262
-0.99855, 145, 71, 208, 86
-0.99855, 313, 247, 376, 262
-0.99855, 193, 141, 256, 156
-0.998551, 337, 221, 368, 236
-0.998551, 9, 137, 40, 152
-0.998552, 369, 197, 432, 212
-0.998552, 65, 143, 128, 158
-0.998552, 305, 231, 368, 246
-0.998552, 145, 175, 176, 190
-0.998553, 209, 231, 272, 246
-0.998554, 313, 141, 376, 156
-0.998554, 165, 111, 196, 126
-0.998555, 1, 147, 32, 162
-0.998555, 305, 191, 368, 206
-0.998555, 217, 135, 280, 150
-0.998556, 105, 159, 168, 174
-0.998556, 89, 121, 152, 136
-0.998556, 233, 207, 296, 222
-0.998556, 1, 237, 64, 252
-0.998557, 329, 211, 392, 226
-0.998557, 305, 121, 368, 136
-0.998557, 257, 203, 320, 218
-0.998558, 121, 55, 184, 70
-0.998559, 105, 141, 168, 156
-0.998559, 265, 163, 328, 178
-0.998559, 89, 103, 152, 118
-0.998559, 169, 201, 232, 216
-0.998559, 65, 165, 96, 180
-0.99856, 113, 117, 176, 132
-0.99856, 25, 249, 88, 264
-0.99856, 57, 131, 120, 146
-0.998567, 109, 229, 140, 244
-0.99857, 373, 217, 404, 232
-0.99857, 129, 229, 160, 244
-0.998572, 281, 209, 312, 224
-0.998586, 53, 239, 84, 254
-0.998636, 33, 243, 64, 258
-0.998664, 45, 129, 60, 256
-0.998677, 49, 33, 80, 288
-0.998683, 109, 161, 124, 288
-0.99871, 69, 129, 100, 375
-0.998731, 35, 81, 50, 208
-0.998732, 115, 177, 130, 304
-0.998743, 421, 33, 452, 288
-0.998768, 187, 193, 202, 320
-0.998771, 95, 81, 110, 208
-0.998774, 391, 161, 406, 288
-0.998779, 131, 65, 146, 192
-0.998789, 179, 65, 194, 192
-0.998803, 39, 129, 54, 256
-0.998808, 145, 209, 160, 336
-0.998816, 307, 177, 322, 304
-0.998819, 99, 145, 114, 272
-0.998821, 315, 145, 330, 272
-0.998825, 123, 17, 138, 144
-0.998838, 247, 81, 262, 208
-0.998839, 301, 129, 332, 375
-0.998847, 181, 193, 196, 320
-0.998865, 331, 145, 346, 272
-0.998872, 41, 81, 56, 208
-0.998875, 151, 193, 166, 320
-0.998882, 107, 209, 122, 336
-0.998886, 171, 193, 186, 320
-0.998902, 399, 161, 414, 288
-0.998905, 165, 33, 180, 160
-0.99894, 139, 241, 154, 368
-0.998947, 57, 161, 72, 288
-0.998951, 145, 161, 160, 288
-0.998954, 173, 65, 188, 192
-0.998955, 343, 145, 358, 272
-0.998964, 89, 97, 104, 224
-0.998967, 321, 145, 336, 272
-0.998968, 381, 161, 396, 288
-0.998972, 5, 225, 20, 352
-0.998975, 163, 209, 178, 336
-0.998982, 33, 129, 48, 256
-0.998985, 29, 81, 44, 208
-0.998985, 133, 209, 148, 336
-0.998986, 195, 193, 210, 320
-0.998987, 101, 17, 116, 144
-0.998987, 107, 97, 122, 224
-0.998988, 185, 49, 200, 176
-0.999001, 327, 225, 342, 352
-0.999003, 113, 225, 128, 352
-0.999005, 51, 161, 66, 288
-0.999009, 173, 129, 188, 256
-0.999015, 1, 81, 16, 208
-0.999017, 225, 129, 240, 256
-0.999019, 11, 65, 26, 192
-0.999019, 425, 129, 456, 375
-0.999019, 353, 145, 368, 272
-0.999022, 333, 225, 348, 352
-0.999031, 261, 81, 276, 208
-0.999032, 337, 145, 352, 272
-0.999039, 147, 113, 162, 240
-0.999039, 265, 129, 280, 256
-0.999041, 179, 129, 194, 256
-0.999043, 369, 193, 384, 320
-0.999044, 17, 65, 32, 192
-0.999045, 357, 1, 372, 128
-0.999048, 351, 225, 366, 352
-0.999054, 157, 49, 172, 176
-0.999057, 121, 177, 136, 304
-0.999057, 255, 65, 270, 192
-0.999066, 241, 97, 256, 224
-0.999068, 301, 1, 316, 128
-0.999069, 113, 113, 128, 240
-0.999076, 321, 225, 336, 352
-0.999077, 389, 113, 404, 240
-0.999079, 375, 161, 390, 288
-0.99908, 23, 97, 38, 224
-0.99908, 213, 145, 228, 272
-0.999081, 83, 65, 98, 192
-0.999081, 57, 209, 72, 336
-0.999085, 263, 177, 278, 304
-0.999086, 49, 81, 64, 208
-0.999086, 315, 225, 330, 352
-0.999091, 339, 65, 354, 192
-0.999092, 129, 17, 144, 144
-0.999093, 27, 145, 42, 272
-0.999094, 333, 97, 348, 224
-0.999095, 149, 65, 164, 192
-0.999098, 101, 65, 116, 192
-0.999104, 63, 177, 78, 304
-0.999106, 273, 113, 288, 240
-0.999114, 323, 49, 338, 176
-0.999115, 305, 129, 320, 256
-0.999118, 269, 65, 284, 192
-0.99912, 245, 209, 260, 336
-0.999121, 255, 225, 270, 352
-0.999122, 9, 145, 24, 272
-0.999123, 137, 49, 152, 176
-0.999124, 345, 225, 360, 352
-0.999125, 237, 225, 252, 352
-0.999126, 77, 65, 92, 192
-0.999127, 139, 145, 154, 272
-0.999129, 311, 97, 326, 224
-0.999129, 37, 225, 52, 352
-0.999133, 157, 1, 172, 128
-0.999134, 157, 209, 172, 336
-0.999136, 327, 97, 342, 224
-0.999137, 125, 81, 140, 208
-0.999137, 129, 161, 144, 288
-0.999143, 313, 1, 328, 128
-0.99915, 255, 113, 270, 240
-0.999154, 139, 193, 154, 320
-0.999158, 79, 113, 94, 240
-0.999161, 347, 97, 362, 224
-0.999161, 201, 161, 216, 288
-0.999162, 203, 113, 218, 240
-0.999162, 359, 113, 374, 240
-0.999164, 381, 97, 396, 224
-0.999164, 369, 129, 384, 256
-0.999165, 457, 129, 472, 256
-0.999165, 221, 177, 236, 304
-0.999165, 153, 129, 168, 256
-0.999172, 55, 113, 70, 240
-0.999174, 305, 49, 320, 176
-0.999177, 361, 161, 376, 288
-0.999179, 39, 1, 54, 128
-0.999186, 11, 225, 26, 352
-0.999186, 219, 129, 234, 256
-0.999189, 283, 1, 298, 128
-0.999189, 1, 177, 16, 304
-0.99919, 269, 177, 284, 304
-0.999191, 383, 209, 398, 336
-0.999191, 467, 129, 482, 256
-0.999192, 229, 177, 244, 304
-0.999193, 93, 145, 108, 272
-0.999195, 413, 161, 428, 288
-0.999198, 385, 1, 400, 128
-0.999198, 193, 33, 208, 160
-0.999636, 31, 133, 46, 148
-0.999637, 149, 235, 164, 250
-0.999637, 197, 275, 212, 290
-0.999637, 25, 153, 40, 168
-0.999637, 261, 121, 276, 136
-0.999637, 389, 157, 404, 172
-0.999638, 235, 267, 250, 282
-0.999638, 393, 241, 408, 256
-0.999639, 375, 221, 390, 236
-0.999639, 195, 261, 210, 276
-0.99964, 179, 113, 194, 128
-0.999641, 203, 199, 218, 214
-0.999641, 27, 193, 42, 208
-0.999641, 321, 145, 336, 160
-0.999641, 307, 189, 322, 204
-0.999642, 155, 63, 170, 78
-0.999642, 179, 93, 194, 108
-0.999642, 149, 139, 164, 154
-0.999643, 155, 177, 170, 192
-0.999643, 285, 135, 300, 150
-0.999644, 369, 241, 384, 256
-0.999644, 385, 185, 400, 200
-0.999644, 363, 249, 378, 264
-0.999644, 91, 203, 106, 218
-0.999644, 139, 231, 154, 246
-0.999645, 35, 251, 50, 266
-0.999645, 341, 217, 356, 232
-0.999645, 59, 139, 74, 154
-0.999646, 81, 7, 96, 22
-0.999646, 217, 187, 232, 202
-0.999646, 105, 251, 120, 266
-0.999647, 163, 181, 178, 196
-0.999647, 305, 219, 320, 234
-0.999647, 139, 165, 154, 180
-0.999647, 91, 109, 106, 124
-0.999648, 387, 217, 402, 232
-0.999648, 361, 33, 376, 48
-0.999649, 159, 287, 174, 302
-0.999649, 119, 33, 134, 48
-0.999649, 327, 149, 342, 164
-0.999649, 267, 187, 282, 202
-0.999649, 217, 139, 232, 154
-0.999649, 107, 207, 122, 222
-0.99965, 123, 103, 138, 118
-0.99965, 371, 161, 386, 176
-0.99965, 41, 197, 56, 212
-0.99965, 167, 207, 182, 222
-0.999651, 125, 21, 140, 36
-0.999651, 183, 143, 198, 158
-0.999652, 105, 231, 120, 246
-0.999652, 61, 171, 76, 186
-0.999652, 329, 245, 344, 260
-0.999652, 131, 229, 146, 244
-0.999652, 59, 231, 74, 246
-0.999652, 405, 219, 420, 234
-0.999653, 305, 203, 320, 218
-0.999653, 147, 169, 162, 184
-0.999653, 209, 129, 224, 144
-0.999653, 199, 227, 214, 242
-0.999653, 201, 169, 216, 184
-0.999654, 363, 257, 378, 272
-0.999654, 387, 179, 402, 194
-0.999654, 277, 213, 292, 228
-0.999656, 39, 149, 54, 164
-0.999657, 39, 135, 54, 150
-0.999657, 229, 131, 244, 146
-0.999658, 117, 195, 132, 210
-0.99966, 235, 275, 250, 290
-0.99966, 289, 107, 304, 122
-0.99966, 69, 155, 84, 170
-0.999661, 355, 247, 370, 262
-0.999661, 29, 255, 44, 270
-0.999661, 47, 201, 62, 216
-0.999661, 285, 211, 300, 226
-0.999661, 47, 147, 62, 162
-0.999662, 261, 243, 276, 258
-0.999662, 99, 209, 114, 224
-0.999663, 261, 257, 276, 272
-0.999663, 179, 81, 194, 96
-0.999665, 303, 175, 318, 190
-0.999665, 261, 237, 276, 252
-0.999665, 177, 87, 192, 102
-0.999665, 113, 123, 128, 138
-0.999667, 219, 133, 234, 148
-0.999669, 335, 193, 350, 208
-0.99967, 273, 273, 288, 288
-0.99967, 373, 215, 388, 230
-0.999671, 115, 19, 130, 34
-0.999672, 167, 107, 182, 122
-0.999672, 299, 215, 314, 230
-0.999675, 361, 233, 376, 248
-0.999675, 369, 221, 384, 236
-0.999677, 351, 165, 366, 180
-0.999677, 193, 163, 208, 178
-0.999678, 5, 245, 20, 260
-0.999678, 393, 179, 408, 194
-0.999678, 305, 209, 320, 224
-0.999679, 7, 145, 22, 160
-0.999679, 113, 209, 128, 224
-0.99968, 99, 149, 114, 164
-0.999681, 65, 149, 80, 164
-0.999682, 77, 123, 92, 138
-0.999684, 395, 219, 410, 234
-0.999685, 65, 213, 80, 228
-0.999686, 261, 251, 276, 266
-0.999689, 363, 227, 378, 242
-0.999689, 57, 241, 72, 256
-0.99969, 57, 203, 72, 218
-0.99969, 173, 93, 188, 108
-0.99969, 19, 151, 34, 166
-0.999691, 97, 241, 112, 256
-0.999691, 83, 115, 98, 130
-0.999691, 207, 139, 222, 154
-0.999693, 129, 87, 144, 102
-0.999694, 63, 63, 78, 78
-0.999697, 69, 161, 84, 176
-0.9997, 7, 137, 22, 152
-0.9997, 393, 247, 408, 262
-0.999703, 105, 213, 120, 228
-0.999706, 345, 211, 360, 226
-0.999708, 13, 147, 28, 162
-0.999709, 381, 177, 396, 192
-0.999714, 47, 243, 62, 258
-0.999717, 93, 209, 108, 224
-0.999718, 199, 163, 214, 178
-0.999724, 303, 225, 318, 240
-0.99973, 127, 95, 142, 110
-0.999731, 363, 241, 378, 256
-0.999732, 39, 243, 54, 258
-0.999753, 37, 127, 52, 142
