1880
-0.335633, 1, 65, 500, 320
-0.376356, 257, 1, 500, 325
-0.392531, 1, 1, 500, 325
-0.477201, 129, 1, 384, 325
-0.480138, 97, 65, 352, 320
-0.533717, 257, 1, 500, 256
-0.599214, 33, 1, 288, 325
-0.707282, 1, 65, 256, 320
-0.828179, 257, 33, 384, 288
-0.844253, 209, 65, 336, 320
-0.845071, 305, 1, 432, 325
-0.849828, 257, 1, 384, 325
-0.852065, 321, 1, 448, 256
-0.855997, 353, 1, 480, 325
-0.864849, 369, 33, 496, 288
-0.865884, 177, 1, 304, 325
-0.866476, 97, 65, 224, 320
-0.870624, 1, 129, 500, 256
-0.878797, 161, 65, 288, 320
-0.881836, 1, 81, 500, 208
-0.888556, 1, 177, 500, 304
-0.898104, 161, 129, 416, 256
-0.8987, 1, 1, 128, 256
-0.899731, 65, 1, 192, 325
-0.900685, 49, 65, 176, 320
-0.902192, 65, 113, 320, 240
-0.903817, 1, 1, 128, 325
-0.91011, 129, 1, 256, 325
-0.911898, 257, 161, 500, 288
-0.912042, 33, 177, 288, 304
-0.914466, 161, 177, 416, 304
-0.914984, 161, 65, 416, 192
-0.916711, 177, 129, 304, 256
-0.921573, 257, 1, 500, 128
-0.924111, 257, 113, 500, 240
-0.929499, 201, 97, 264, 224
-0.930324, 209, 65, 336, 192
-0.930609, 233, 129, 296, 256
-0.931155, 193, 145, 256, 272
-0.931665, 257, 49, 500, 176
-0.935165, 1, 33, 500, 160
-0.93598, 81, 145, 208, 272
-0.936571, 225, 145, 352, 272
-0.936614, 393, 1, 456, 128
-0.936819, 97, 97, 224, 224
-0.937758, 225, 193, 352, 320
-0.937857, 169, 113, 232, 240
-0.938923, 337, 1, 400, 128
-0.939621, 105, 97, 168, 224
-0.939705, 273, 161, 400, 288
-0.940242, 273, 49, 400, 176
-0.9405, 265, 161, 328, 288
-0.940772, 353, 49, 480, 176
-0.940792, 65, 65, 320, 192
-0.94096, 353, 1, 480, 128
-0.941158, 241, 177, 304, 304
-0.942411, 433, 1, 496, 128
-0.943472, 145, 97, 208, 224
-0.944347, 161, 81, 288, 208
-0.945285, 177, 193, 304, 320
-0.945404, 233, 81, 296, 208
-0.945693, 409, 49, 472, 176
-0.946311, 65, 129, 128, 256
-0.946458, 129, 145, 256, 272
-0.94654, 273, 113, 400, 240
-0.946981, 313, 1, 376, 128
-0.947547, 265, 65, 328, 192
-0.948349, 337, 97, 464, 224
-0.948427, 329, 97, 392, 224
-0.948665, 289, 33, 352, 160
-0.948875, 121, 161, 184, 288
-0.949246, 17, 145, 80, 272
-0.949805, 369, 1, 432, 128
-0.951431, 65, 145, 128, 208
-0.951774, 305, 193, 368, 320
-0.952074, 1, 145, 128, 272
-0.952599, 33, 97, 160, 224
-0.95278, 217, 177, 280, 304
-0.952905, 241, 161, 304, 224
-0.953127, 369, 65, 432, 192
-0.953308, 273, 1, 400, 128
-0.953343, 353, 145, 480, 272
-0.953445, 97, 145, 160, 272
-0.953712, 201, 121, 264, 184
-0.954296, 265, 113, 328, 240
-0.95438, 433, 49, 496, 176
-0.954539, 17, 97, 80, 224
-0.954756, 41, 145, 104, 272
-0.955005, 105, 169, 168, 232
-0.955252, 113, 193, 240, 320
-0.955333, 233, 201, 296, 264
-0.95556, 353, 145, 416, 272
-0.955717, 313, 49, 376, 176
-0.955747, 145, 145, 208, 272
-0.955913, 297, 145, 360, 272
-0.956275, 409, 17, 472, 80
-0.956526, 233, 137, 296, 200
-0.956671, 169, 161, 232, 288
-0.957097, 369, 33, 432, 96
-0.957573, 145, 153, 208, 216
-0.958, 169, 153, 232, 216
-0.958004, 393, 49, 456, 112
-0.958081, 169, 121, 232, 184
-0.958756, 1, 153, 64, 216
-0.958766, 193, 153, 256, 216
-0.959104, 345, 25, 408, 88
-0.959246, 169, 177, 232, 240
-0.959442, 201, 201, 264, 264
-0.959689, 417, 41, 480, 104
-0.959738, 337, 49, 400, 176
-0.959818, 193, 193, 256, 320
-0.960325, 305, 33, 368, 96
-0.960436, 201, 97, 264, 160
-0.960576, 73, 177, 136, 304
-0.960873, 257, 201, 320, 264
-0.961334, 129, 185, 192, 248
-0.962239, 377, 1, 440, 64
-0.96226, 393, 97, 456, 224
-0.962537, 329, 57, 392, 120
-0.962601, 73, 185, 136, 248
-0.963417, 33, 145, 96, 208
-0.963594, 41, 169, 104, 232
-0.963654, 161, 17, 416, 144
-0.963955, 321, 105, 384, 168
-0.964136, 425, 193, 488, 320
-0.964199, 257, 129, 320, 192
-0.964217, 225, 113, 288, 176
-0.96432, 217, 161, 280, 224
-0.964543, 337, 1, 400, 256
-0.964598, 337, 1, 400, 64
-0.964786, 209, 49, 272, 176
-0.965299, 1, 49, 128, 176
-0.965521, 97, 145, 160, 208
-0.965615, 273, 57, 336, 120
-0.965678, 209, 65, 272, 320
-0.966216, 409, 145, 472, 272
-0.966327, 289, 33, 352, 288
-0.967096, 281, 137, 344, 200
-0.967275, 361, 89, 424, 152
-0.967287, 385, 137, 448, 200
-0.967365, 369, 57, 432, 120
-0.967421, 177, 201, 240, 264
-0.96763, 433, 145, 496, 272
-0.967673, 369, 193, 496, 320
-0.968076, 193, 177, 256, 240
-0.968121, 17, 193, 144, 320
-0.968157, 401, 73, 464, 136
-0.968438, 97, 193, 160, 256
-0.968445, 409, 1, 472, 256
-0.968514, 257, 65, 320, 320
-0.968574, 241, 129, 272, 256
-0.968579, 433, 1, 496, 64
-0.96867, 337, 193, 400, 320
-0.968796, 377, 1, 440, 256
-0.968868, 409, 169, 472, 232
-0.968902, 321, 193, 448, 320
-0.968985, 241, 225, 304, 288
-0.968994, 281, 169, 344, 232
-0.969415, 289, 81, 352, 208
-0.969438, 253, 145, 284, 272
-0.970011, 233, 73, 296, 136
-0.970365, 177, 201, 304, 264
-0.970417, 361, 145, 424, 208
-0.970435, 193, 137, 320, 200
-0.970596, 89, 105, 152, 168
-0.970882, 265, 17, 328, 144
-0.970998, 189, 129, 220, 256
-0.971184, 377, 257, 440, 320
-0.971464, 177, 161, 304, 224
-0.971728, 313, 1, 376, 256
-0.971761, 121, 145, 184, 208
-0.971852, 313, 185, 376, 248
-0.972055, 81, 81, 144, 208
-0.97207, 1, 129, 64, 192
-0.972145, 321, 257, 384, 320
-0.972327, 337, 137, 400, 200
-0.972344, 233, 33, 296, 288
-0.972513, 353, 177, 416, 240
-0.97266, 113, 161, 240, 224
-0.972677, 281, 249, 344, 312
-0.972766, 33, 113, 96, 176
-0.972774, 177, 65, 240, 192
-0.972792, 361, 193, 424, 320
-0.972966, 433, 1, 496, 256
-0.973027, 73, 145, 104, 208
-0.973088, 281, 209, 344, 272
-0.973106, 65, 121, 128, 184
-0.97319, 213, 81, 244, 208
-0.973371, 141, 161, 172, 224
-0.973429, 273, 145, 304, 272
-0.973447, 345, 233, 408, 296
-0.973474, 305, 57, 368, 120
-0.973477, 113, 49, 240, 176
-0.973485, 17, 97, 48, 224
-0.973496, 289, 177, 320, 304
-0.97359, 145, 129, 208, 192
-0.973926, 401, 257, 464, 320
-0.974171, 273, 193, 304, 320
-0.974206, 261, 201, 292, 264
-0.974213, 49, 145, 176, 208
-0.974233, 225, 145, 256, 272
-0.974314, 93, 161, 124, 224
-0.974349, 313, 9, 376, 72
-0.974375, 65, 193, 192, 320
-0.97439, 121, 161, 152, 224
-0.974455, 385, 233, 448, 296
-0.97459, 433, 257, 496, 320
-0.974666, 245, 129, 276, 192
-0.974693, 201, 129, 232, 256
-0.974732, 369, 41, 496, 104
-0.974784, 353, 1, 384, 128
-0.974831, 225, 161, 352, 224
-0.974896, 321, 25, 448, 88
-0.974933, 369, 113, 432, 176
-0.974973, 217, 225, 280, 288
-0.975045, 81, 113, 208, 176
-0.975051, 405, 25, 436, 88
-0.975078, 433, 97, 496, 224
-0.975199, 373, 1, 404, 128
-0.975309, 105, 65, 168, 320
-0.975378, 281, 33, 344, 96
-0.975453, 185, 65, 248, 320
-0.975492, 249, 105, 312, 168
-0.975505, 81, 145, 112, 272
-0.975523, 433, 145, 496, 208
-0.975725, 417, 233, 480, 296
-0.975731, 209, 17, 336, 144
-0.975803, 225, 97, 256, 224
-0.975812, 145, 129, 272, 192
-0.975885, 113, 97, 144, 224
-0.975947, 305, 81, 368, 144
-0.975948, 417, 25, 448, 88
-0.976007, 193, 105, 320, 168
-0.976008, 253, 81, 284, 208
-0.976024, 441, 1, 472, 128
-0.976151, 189, 121, 220, 184
-0.976161, 257, 65, 384, 128
-0.976221, 97, 185, 224, 248
-0.97629, 241, 81, 272, 208
-0.976312, 345, 113, 408, 176
-0.976496, 449, 41, 480, 104
-0.976575, 345, 257, 408, 320
-0.97675, 409, 1, 440, 64
-0.976757, 1, 145, 128, 208
-0.976812, 97, 193, 160, 320
-0.976821, 273, 129, 304, 192
-0.976848, 17, 129, 48, 192
-0.976862, 145, 105, 208, 168
-0.976889, 237, 161, 268, 224
-0.976924, 257, 201, 384, 264
-0.976926, 69, 129, 100, 256
-0.976931, 173, 113, 204, 240
-0.976953, 285, 193, 316, 256
-0.977002, 137, 65, 200, 320
-0.977025, 373, 17, 404, 80
-0.977104, 153, 201, 216, 264
-0.977114, 429, 1, 460, 128
-0.977197, 241, 177, 272, 304
-0.977272, 393, 25, 424, 88
-0.977308, 313, 49, 344, 176
-0.977312, 217, 81, 248, 144
-0.977332, 385, 193, 448, 320
-0.977407, 145, 193, 208, 320
-0.97742, 261, 137, 292, 200
-0.97753, 89, 97, 120, 224
-0.977611, 433, 65, 496, 128
-0.977628, 189, 153, 220, 216
-0.977727, 73, 65, 136, 320
-0.977807, 205, 145, 236, 208
-0.977825, 257, 249, 320, 312
-0.977869, 137, 97, 168, 224
-0.977914, 241, 137, 368, 200
-0.977949, 241, 193, 272, 256
-0.97795, 325, 1, 356, 128
-0.978025, 193, 225, 256, 288
-0.978103, 153, 153, 184, 216
-0.978111, 225, 161, 256, 224
-0.978161, 281, 113, 344, 176
-0.978211, 81, 177, 112, 240
-0.978265, 385, 169, 448, 232
-0.978272, 305, 137, 368, 200
-0.978284, 273, 201, 304, 264
-0.978311, 305, 129, 432, 192
-0.978313, 261, 193, 292, 320
-0.978322, 105, 153, 136, 216
-0.978342, 449, 49, 480, 176
-0.978453, 357, 49, 388, 176
-0.978456, 1, 65, 64, 320
-0.978462, 297, 129, 328, 256
-0.97847, 281, 169, 312, 232
-0.978524, 301, 193, 332, 320
-0.978561, 361, 41, 392, 104
-0.978685, 41, 97, 104, 224
-0.978729, 281, 89, 344, 152
-0.978797, 425, 209, 488, 272
-0.978826, 177, 161, 208, 288
-0.978925, 209, 81, 336, 144
-0.978934, 321, 1, 448, 64
-0.978962, 157, 129, 188, 256
-0.978986, 433, 185, 496, 248
-0.979084, 161, 65, 224, 320
-0.979139, 361, 113, 392, 240
-0.97915, 269, 65, 300, 192
-0.979171, 433, 65, 464, 192
-0.979198, 49, 161, 80, 288
-0.979225, 17, 177, 80, 240
-0.979339, 201, 121, 232, 184
-0.979382, 377, 145, 440, 272
-0.979422, 209, 73, 272, 136
-0.979516, 405, 49, 436, 112
-0.979544, 321, 49, 448, 112
-0.979584, 313, 1, 344, 128
-0.979605, 217, 185, 248, 248
-0.979607, 385, 49, 416, 112
-0.979716, 49, 169, 176, 232
-0.979743, 377, 201, 440, 264
-0.979757, 369, 9, 496, 72
-0.97978, 65, 17, 320, 144
-0.979839, 429, 57, 460, 120
-0.979853, 281, 1, 344, 325
-0.97996, 185, 193, 216, 256
-0.979998, 41, 193, 104, 320
-0.980057, 341, 49, 372, 112
-0.98008, 257, 105, 384, 168
-0.980081, 321, 225, 384, 288
-0.980098, 341, 17, 372, 144
-0.980105, 233, 121, 264, 184
-0.980117, 461, 1, 492, 64
-0.980119, 273, 169, 400, 232
-0.980149, 401, 97, 464, 160
-0.980156, 129, 217, 192, 280
-0.980176, 353, 241, 480, 304
-0.980188, 105, 177, 136, 240
-0.980202, 385, 1, 448, 325
-0.980237, 249, 153, 280, 216
-0.980325, 301, 161, 332, 224
-0.980336, 373, 129, 404, 256
-0.980376, 353, 121, 480, 184
-0.980393, 329, 81, 392, 144
-0.980553, 97, 177, 128, 304
-0.980578, 25, 153, 56, 216
-0.980579, 257, 41, 384, 104
-0.980609, 97, 137, 224, 200
-0.980612, 169, 97, 232, 160
-0.980621, 365, 129, 396, 192
-0.980635, 41, 209, 104, 272
-0.98065, 117, 185, 148, 248
-0.980665, 409, 1, 440, 128
-0.980668, 145, 105, 272, 168
-0.980692, 353, 1, 416, 325
-0.980748, 137, 145, 168, 272
-0.980801, 61, 145, 92, 208
-0.980849, 433, 9, 464, 72
-0.980934, 101, 97, 132, 224
-0.98108, 321, 1, 384, 325
-0.981111, 289, 49, 320, 176
-0.981122, 89, 129, 120, 192
-0.98122, 169, 169, 200, 232
-0.981228, 409, 145, 472, 208
-0.981276, 353, 97, 480, 160
-0.981355, 469, 1, 500, 128
-0.981381, 361, 17, 392, 80
-0.981392, 33, 145, 64, 272
-0.981483, 353, 161, 480, 224
-0.981616, 325, 49, 356, 176
-0.981738, 453, 1, 484, 128
-0.981763, 373, 41, 404, 104
-0.981853, 17, 121, 144, 184
-0.981864, 313, 161, 376, 224
-0.981914, 273, 257, 400, 320
-0.981933, 189, 177, 220, 304
-0.981934, 265, 161, 296, 224
-0.981942, 113, 97, 176, 160
-0.982001, 61, 177, 92, 240
-0.982003, 169, 121, 200, 184
-0.982167, 213, 129, 244, 256
-0.982168, 329, 145, 392, 272
-0.982171, 289, 9, 352, 72
-0.982171, 25, 1, 88, 256
-0.982172, 305, 233, 432, 296
-0.982179, 241, 33, 304, 160
-0.982187, 225, 193, 256, 320
-0.982199, 121, 161, 152, 288
-0.98222, 213, 105, 244, 168
-0.982234, 305, 105, 432, 168
-0.982237, 285, 129, 316, 192
-0.982254, 421, 49, 452, 176
-0.982274, 393, 1, 424, 64
-0.982281, 157, 193, 188, 256
-0.982369, 425, 89, 488, 152
-0.982393, 161, 33, 288, 160
-0.982394, 5, 129, 36, 256
-0.982452, 49, 193, 176, 256
-0.982486, 409, 1, 472, 325
-0.982502, 137, 265, 200, 325
-0.982589, 253, 105, 284, 168
-0.982597, 397, 1, 428, 128
-0.982598, 317, 137, 348, 200
-0.982604, 1, 177, 128, 240
-0.982711, 129, 137, 160, 200
-0.982712, 205, 201, 236, 264
-0.982723, 313, 177, 344, 304
-0.982801, 37, 161, 68, 224
-0.9829, 221, 137, 252, 200
-0.982967, 201, 177, 232, 240
-0.982982, 353, 177, 384, 304
-0.983003, 69, 177, 100, 304
-0.983019, 469, 49, 500, 112
-0.983037, 113, 257, 176, 320
-0.983109, 161, 81, 288, 144
-0.98314, 373, 49, 404, 176
-0.983251, 109, 145, 140, 272
-0.983257, 305, 41, 336, 104
-0.983264, 421, 1, 452, 64
-0.983337, 345, 1, 376, 64
-0.983387, 97, 209, 224, 272
-0.983402, 333, 25, 364, 88
-0.983448, 161, 225, 224, 288
-0.983452, 229, 201, 260, 264
-0.983689, 409, 73, 440, 136
-0.983814, 337, 185, 464, 248
-0.983818, 21, 145, 52, 272
-0.983821, 1, 1, 128, 128
-0.983842, 385, 153, 416, 216
-0.983908, 201, 81, 232, 208
-0.983914, 209, 225, 336, 288
-0.983915, 17, 49, 80, 176
-0.98395, 153, 129, 184, 192
-0.983972, 93, 185, 124, 248
-0.984034, 453, 169, 484, 232
-0.984037, 321, 265, 448, 325
-0.984102, 385, 129, 416, 256
-0.984135, 257, 1, 320, 325
-0.984188, 121, 49, 184, 176
-0.984207, 161, 81, 192, 208
-0.984255, 469, 25, 500, 88
-0.98426, 369, 265, 496, 325
-0.984264, 353, 105, 384, 168
-0.984277, 273, 17, 400, 80
-0.984304, 305, 73, 432, 136
-0.984321, 17, 81, 80, 144
-0.984352, 361, 65, 392, 128
-0.984379, 125, 97, 156, 224
-0.98439, 317, 57, 348, 120
-0.984396, 369, 209, 496, 272
-0.98444, 277, 57, 308, 120
-0.984449, 425, 113, 488, 176
-0.984517, 257, 81, 320, 144
-0.984562, 285, 113, 316, 240
-0.984626, 429, 33, 460, 96
-0.984639, 141, 185, 172, 248
-0.98468, 445, 1, 476, 64
-0.984687, 129, 185, 160, 248
-0.984694, 161, 257, 224, 320
-0.984773, 345, 25, 376, 88
-0.984779, 433, 1, 496, 325
-0.984796, 13, 105, 44, 168
-0.984864, 9, 193, 72, 320
-0.984873, 281, 241, 312, 304
-0.984985, 5, 145, 36, 208
-0.984988, 401, 49, 432, 176
-0.985013, 233, 1, 296, 325
-0.985066, 169, 193, 200, 256
-0.985131, 121, 121, 184, 184
-0.985134, 265, 225, 296, 288
-0.985135, 225, 249, 352, 312
-0.985155, 49, 177, 80, 240
-0.985212, 345, 65, 376, 192
-0.985247, 417, 49, 448, 112
-0.985398, 401, 209, 464, 272
-0.985411, 73, 209, 136, 272
-0.98552, 421, 241, 452, 304
-0.985556, 29, 81, 60, 208
-0.985575, 385, 33, 416, 160
-0.985661, 453, 145, 484, 272
-0.985735, 341, 73, 372, 136
-0.985796, 353, 73, 480, 136
-0.985822, 341, 193, 372, 320
-0.985851, 417, 97, 448, 224
-0.985882, 241, 89, 272, 152
-0.985897, 73, 233, 136, 296
-0.985902, 149, 81, 180, 208
-0.985919, 329, 57, 360, 120
-0.985975, 321, 25, 352, 88
-0.985998, 345, 209, 408, 272
-0.985999, 177, 145, 208, 208
-0.986005, 297, 65, 328, 128
-0.986035, 49, 65, 112, 320
-0.986126, 141, 121, 172, 184
-0.986175, 365, 233, 396, 296
-0.986216, 421, 89, 452, 152
-0.986296, 157, 193, 188, 320
-0.986355, 333, 257, 364, 320
-0.986361, 229, 49, 260, 176
-0.986434, 305, 209, 432, 272
-0.986465, 297, 209, 328, 272
-0.986532, 433, 153, 464, 216
-0.986541, 393, 89, 424, 152
-0.986563, 385, 113, 416, 176
-0.986618, 209, 57, 336, 120
-0.986651, 153, 49, 216, 176
-0.986676, 301, 49, 332, 176
-0.986792, 457, 65, 488, 128
-0.986879, 373, 97, 404, 160
-0.986888, 257, 225, 384, 288
-0.986906, 177, 73, 240, 136
-0.986985, 233, 249, 296, 312
-0.986992, 17, 57, 80, 120
-0.987016, 369, 177, 400, 304
-0.987073, 253, 81, 284, 144
-0.987163, 409, 257, 440, 320
-0.987175, 185, 81, 216, 208
-0.987212, 305, 137, 336, 200
-0.987231, 101, 113, 132, 176
-0.987297, 161, 233, 288, 296
-0.987298, 193, 1, 256, 325
-0.987303, 201, 265, 264, 325
-0.987396, 385, 81, 416, 208
-0.987401, 77, 121, 108, 184
-0.987434, 365, 169, 396, 232
-0.987463, 49, 153, 80, 216
-0.987487, 113, 129, 144, 192
-0.987521, 165, 145, 196, 208
-0.987574, 213, 177, 244, 304
-0.98773, 429, 145, 460, 272
-0.987834, 225, 49, 288, 112
-0.987869, 329, 97, 360, 160
-0.988025, 265, 65, 296, 128
-0.988106, 161, 161, 416, 224
-0.988187, 313, 129, 344, 256
-0.988221, 465, 209, 496, 272
-0.988261, 1, 105, 64, 168
-0.988275, 301, 1, 332, 128
-0.988286, 233, 65, 264, 128
-0.988302, 345, 257, 376, 320
-0.988321, 385, 257, 416, 320
-0.988336, 465, 249, 496, 312
-0.988351, 249, 49, 312, 112
-0.988383, 257, 205, 320, 236
-0.988389, 49, 241, 112, 304
-0.98839, 65, 137, 320, 200
-0.98843, 1, 1, 64, 325
-0.988485, 469, 185, 500, 248
-0.988489, 409, 97, 440, 160
-0.988576, 309, 113, 340, 176
-0.988607, 449, 137, 480, 200
-0.988645, 217, 205, 280, 236
-0.988697, 97, 181, 160, 212
-0.988764, 317, 1, 348, 64
-0.988825, 65, 161, 320, 224
-0.988832, 405, 113, 436, 240
-0.988843, 1, 233, 64, 296
-0.988847, 457, 193, 488, 320
-0.988958, 1, 201, 128, 264
-0.989007, 89, 257, 152, 320
-0.989063, 57, 113, 88, 240
-0.98908, 65, 113, 320, 176
-0.989107, 145, 189, 208, 220
-0.989114, 201, 141, 264, 172
-0.98919, 17, 81, 144, 144
-0.989201, 17, 225, 144, 288
-0.989205, 33, 249, 160, 312
-0.989231, 265, 137, 328, 168
-0.989234, 369, 41, 432, 72
-0.989235, 17, 201, 80, 264
-0.989243, 185, 201, 248, 232
-0.989252, 233, 145, 296, 176
-0.989262, 201, 177, 232, 304
-0.989278, 185, 185, 248, 216
-0.989331, 241, 161, 304, 192
-0.98934, 161, 137, 416, 200
-0.989358, 105, 165, 168, 196
-0.989391, 145, 161, 208, 192
-0.98941, 113, 249, 240, 312
-0.989427, 1, 1, 128, 64
-0.98944, 209, 101, 272, 132
-0.98948, 469, 113, 500, 240
-0.989486, 97, 217, 160, 280
-0.98957, 329, 57, 392, 88
-0.989577, 153, 149, 216, 180
-0.989583, 1, 153, 64, 184
-0.989588, 57, 185, 120, 216
-0.989593, 441, 113, 472, 240
-0.9896, 257, 41, 500, 104
-0.989673, 217, 217, 280, 248
-0.989753, 417, 193, 448, 320
-0.989757, 97, 153, 160, 184
-0.989759, 433, 53, 496, 84
-0.989787, 121, 177, 184, 208
-0.989816, 409, 1, 472, 32
-0.989833, 65, 169, 128, 200
-0.989853, 65, 149, 128, 180
-0.989887, 433, 9, 496, 40
-0.989895, 105, 193, 168, 224
-0.989897, 313, 41, 376, 72
-0.989948, 289, 1, 320, 128
-0.989974, 225, 133, 288, 164
-0.99001, 369, 17, 432, 48
-0.990011, 113, 81, 240, 144
-0.990027, 225, 89, 288, 120
-0.990036, 249, 193, 312, 224
-0.990042, 217, 193, 280, 224
-0.990049, 25, 1, 88, 325
-0.990058, 73, 197, 136, 228
-0.990059, 393, 57, 456, 88
-0.990063, 33, 193, 288, 256
-0.990073, 345, 25, 408, 56
-0.990084, 33, 141, 96, 172
-0.990102, 29, 17, 60, 144
-0.990111, 441, 177, 472, 304
-0.990118, 241, 217, 304, 248
-0.990157, 193, 153, 256, 184
-0.990183, 333, 113, 364, 240
-0.99019, 169, 173, 232, 204
-0.990197, 369, 137, 432, 168
-0.990207, 161, 129, 224, 160
-0.99021, 409, 169, 472, 200
-0.990278, 345, 41, 408, 72
-0.990285, 1, 145, 500, 208
-0.990354, 33, 177, 96, 208
-0.99036, 17, 165, 80, 196
-0.990369, 409, 17, 472, 48
-0.990384, 169, 161, 232, 192
-0.990387, 393, 41, 456, 72
-0.990395, 409, 69, 472, 100
-0.990401, 145, 177, 208, 208
-0.990462, 369, 57, 432, 88
-0.990464, 185, 213, 248, 244
-0.990471, 345, 209, 408, 240
-0.990476, 1, 81, 32, 208
-0.990496, 281, 161, 344, 192
-0.990511, 305, 205, 368, 236
-0.990523, 369, 5, 432, 36
-0.990553, 201, 113, 264, 144
-0.990554, 153, 201, 216, 232
-0.990556, 425, 153, 488, 184
-0.990584, 369, 29, 432, 60
-0.990594, 129, 149, 192, 180
-0.990603, 137, 1, 200, 325
-0.99068, 177, 265, 304, 325
-0.99068, 433, 41, 496, 72
-0.990689, 377, 149, 440, 180
-0.990689, 385, 93, 448, 124
-0.99072, 305, 93, 368, 124
-0.990726, 241, 173, 304, 204
-0.990741, 217, 169, 280, 200
-0.990743, 201, 125, 264, 156
-0.99077, 465, 49, 496, 176
-0.990773, 305, 73, 368, 104
-0.990806, 257, 177, 500, 240
-0.990819, 369, 117, 432, 148
-0.99082, 209, 181, 272, 212
-0.990833, 41, 153, 104, 184
-0.990855, 329, 125, 392, 156
-0.990876, 233, 101, 296, 132
-0.990907, 281, 209, 344, 240
-0.990929, 361, 221, 424, 252
-0.990947, 401, 81, 464, 112
-0.990958, 225, 121, 288, 152
-0.990962, 209, 33, 336, 96
-0.990964, 305, 141, 368, 172
-0.990964, 265, 125, 328, 156
-0.990975, 217, 157, 280, 188
-0.990981, 169, 105, 232, 136
-0.990986, 329, 77, 392, 108
-0.990993, 289, 57, 352, 88
-0.991012, 349, 113, 380, 240
-0.991015, 129, 201, 192, 232
-0.991025, 337, 153, 400, 184
-0.991026, 393, 29, 456, 60
-0.991028, 377, 81, 440, 112
-0.991035, 345, 197, 408, 228
-0.991036, 289, 253, 352, 284
-0.991037, 313, 29, 376, 60
-0.99104, 177, 141, 240, 172
-0.991049, 321, 13, 384, 44
-0.991056, 289, 185, 352, 216
-0.991062, 433, 69, 496, 100
-0.991097, 201, 89, 264, 120
-0.991108, 385, 165, 448, 196
-0.991109, 65, 137, 128, 168
-0.991113, 81, 1, 144, 325
-0.991124, 161, 193, 416, 256
-0.991126, 337, 1, 400, 32
-0.991138, 257, 149, 320, 180
-0.991147, 385, 69, 448, 100
-0.991157, 1, 137, 64, 168
-0.991158, 393, 213, 456, 244
-0.991167, 193, 169, 256, 200
-0.99123, 241, 229, 304, 260
-0.991243, 161, 213, 224, 244
-0.991272, 401, 137, 464, 168
-0.991277, 345, 93, 408, 124
-0.991291, 257, 137, 500, 200
-0.991312, 265, 101, 328, 132
-0.99132, 425, 205, 488, 236
-0.991349, 257, 241, 320, 272
-0.991371, 329, 105, 392, 136
-0.991396, 369, 105, 432, 136
-0.991399, 417, 145, 448, 272
-0.991402, 433, 165, 496, 196
-0.991407, 289, 45, 352, 76
-0.99149, 353, 69, 416, 100
-0.99149, 345, 173, 408, 204
-0.991496, 433, 177, 496, 208
-0.991497, 345, 185, 408, 216
-0.991512, 433, 189, 496, 220
-0.991523, 265, 65, 328, 96
-0.991573, 369, 177, 432, 208
-0.991576, 289, 117, 352, 148
-0.991583, 193, 225, 256, 256
-0.991592, 417, 29, 480, 60
-0.991592, 305, 157, 368, 188
-0.991594, 281, 149, 344, 180
-0.991597, 345, 137, 408, 168
-0.991615, 257, 25, 320, 88
-0.991622, 241, 77, 304, 108
-0.991687, 17, 1, 48, 128
-0.991702, 109, 193, 140, 320
-0.991893, 1, 25, 128, 88
-0.991898, 329, 161, 360, 288
-0.991936, 1, 193, 500, 256
-0.992031, 393, 177, 424, 304
-0.992065, 145, 193, 176, 320
-0.992128, 161, 105, 416, 168
-0.992176, 265, 205, 296, 236
-0.992189, 1, 121, 500, 184
-0.992211, 381, 177, 412, 304
-0.99224, 193, 81, 448, 144
-0.9923, 97, 185, 128, 216
-0.992336, 217, 201, 248, 232
-0.992339, 113, 181, 144, 212
-0.992376, 93, 169, 124, 200
-0.992381, 237, 201, 268, 232
-0.992392, 257, 137, 288, 168
-0.992413, 137, 81, 200, 144
-0.992434, 265, 217, 296, 248
-0.992448, 233, 189, 264, 220
-0.992474, 73, 181, 104, 212
-0.992482, 289, 205, 320, 236
-0.992483, 205, 197, 236, 228
-0.992485, 273, 137, 304, 168
-0.992513, 133, 153, 164, 184
-0.992515, 245, 157, 276, 188
-0.992526, 125, 185, 156, 216
-0.992541, 421, 25, 452, 56
-0.992544, 121, 161, 152, 192
-0.992566, 217, 93, 248, 124
-0.992567, 405, 25, 436, 56
-0.992595, 253, 205, 284, 236
-0.992603, 177, 205, 304, 236
-0.992605, 13, 49, 44, 176
-0.992606, 17, 145, 48, 176
-0.99261, 185, 165, 216, 196
-0.99261, 185, 149, 216, 180
-0.992617, 293, 161, 324, 192
-0.992618, 405, 13, 436, 44
-0.992623, 377, 41, 408, 72
-0.992625, 149, 161, 180, 192
-0.992627, 317, 137, 348, 168
-0.992629, 237, 133, 268, 164
-0.992648, 145, 193, 176, 224
-0.992662, 185, 197, 216, 228
-0.992665, 337, 41, 368, 72
-0.99267, 429, 53, 460, 84
-0.99267, 221, 185, 252, 216
-0.992671, 253, 225, 284, 256
-0.992682, 257, 149, 288, 180
-0.992692, 441, 57, 472, 88
-0.992695, 165, 189, 196, 220
-0.992696, 149, 149, 180, 180
-0.99271, 237, 217, 268, 248
-0.99272, 357, 49, 388, 80
-0.992726, 213, 105, 244, 136
-0.992733, 109, 193, 140, 224
-0.992733, 125, 173, 156, 204
-0.992738, 229, 169, 260, 200
-0.992739, 389, 33, 420, 64
-0.992739, 277, 205, 308, 236
-0.99276, 205, 145, 236, 176
-0.992763, 409, 89, 440, 120
-0.992775, 449, 1, 480, 32
-0.992777, 253, 125, 284, 156
-0.992778, 429, 69, 460, 100
-0.992785, 13, 133, 44, 164
-0.992793, 73, 137, 104, 168
-0.992795, 241, 145, 272, 176
-0.992797, 269, 161, 300, 192
-0.992797, 169, 177, 200, 208
-0.992801, 141, 181, 172, 212
-0.992803, 281, 193, 312, 224
-0.992809, 413, 1, 444, 32
-0.992816, 465, 9, 496, 40
-0.99282, 113, 149, 144, 180
-0.992821, 441, 45, 472, 76
-0.992822, 245, 185, 276, 216
-0.992823, 89, 149, 120, 180
-0.992824, 85, 185, 116, 216
-0.992825, 205, 185, 236, 216
-0.992828, 389, 77, 420, 108
-0.992832, 217, 213, 248, 244
-0.992835, 305, 45, 336, 76
-0.992836, 365, 141, 396, 172
-0.992839, 453, 149, 484, 180
-0.992842, 393, 1, 424, 32
-0.992842, 265, 229, 296, 260
-0.99285, 233, 97, 264, 128
-0.992851, 381, 21, 412, 52
-0.992857, 377, 117, 408, 148
-0.99286, 357, 33, 388, 64
-0.992862, 293, 133, 324, 164
-0.992862, 469, 153, 500, 184
-0.992864, 129, 201, 160, 232
-0.992871, 265, 1, 328, 64
-0.992871, 105, 169, 136, 200
-0.992872, 177, 185, 304, 216
-0.992878, 61, 173, 92, 204
-0.99288, 205, 213, 236, 244
-0.992882, 193, 209, 224, 240
-0.992884, 73, 169, 104, 200
-0.99289, 317, 53, 348, 84
-0.99289, 357, 121, 388, 152
-0.992895, 249, 169, 280, 200
-0.992898, 401, 45, 432, 76
-0.992899, 317, 33, 348, 64
-0.992899, 161, 153, 192, 184
-0.992902, 409, 73, 440, 104
-0.992904, 249, 89, 280, 120
-0.992904, 221, 81, 252, 112
-0.992904, 421, 37, 452, 68
-0.992907, 25, 157, 56, 188
-0.992911, 129, 153, 256, 184
-0.992918, 277, 125, 308, 156
-0.992921, 377, 133, 408, 164
-0.992923, 1, 169, 500, 232
-0.992923, 189, 129, 220, 160
-0.992924, 73, 149, 104, 180
-0.992927, 453, 97, 484, 224
-0.992927, 385, 153, 416, 184
-0.992933, 337, 77, 368, 108
-0.992937, 45, 113, 76, 240
-0.992939, 433, 17, 464, 48
-0.99294, 97, 197, 128, 228
-0.992954, 157, 201, 188, 232
-0.992957, 453, 49, 484, 80
-0.992959, 337, 29, 368, 60
-0.992963, 185, 177, 216, 208
-0.992963, 293, 49, 324, 80
-0.992972, 425, 81, 456, 112
-0.992975, 137, 165, 168, 196
-0.992976, 369, 25, 400, 56
-0.992977, 337, 61, 368, 92
-0.992979, 273, 149, 304, 180
-0.992982, 5, 149, 36, 180
-0.992983, 221, 145, 252, 176
-0.992988, 445, 69, 476, 100
-0.992993, 397, 137, 428, 168
-0.992993, 345, 105, 376, 136
-0.992994, 161, 1, 224, 325
-0.992995, 305, 57, 336, 88
-0.993008, 417, 13, 448, 44
-0.993008, 221, 225, 252, 256
-0.99301, 393, 13, 424, 44
-0.993013, 281, 169, 312, 200
-0.993019, 449, 165, 480, 196
-0.99302, 265, 125, 296, 156
-0.993024, 309, 125, 340, 156
-0.993028, 389, 57, 420, 88
-0.993085, 405, 177, 436, 304
-0.993103, 97, 189, 224, 220
-0.993104, 133, 193, 164, 320
-0.993395, 85, 193, 116, 320
-0.993449, 225, 9, 352, 72
-0.993487, 257, 1, 500, 64
-0.993576, 469, 161, 500, 288
-0.99361, 97, 217, 352, 280
-0.993643, 33, 149, 160, 180
-0.993748, 257, 257, 500, 320
-0.993756, 429, 193, 460, 320
-0.993778, 65, 89, 192, 152
-0.99381, 257, 113, 500, 176
-0.993928, 29, 129, 44, 192
-0.993959, 65, 169, 192, 200
-0.994028, 257, 201, 500, 264
-0.994063, 209, 141, 336, 172
-0.994117, 243, 153, 258, 216
-0.994146, 49, 1, 112, 325
-0.994155, 97, 81, 352, 144
-0.994181, 149, 153, 164, 216
-0.994209, 109, 169, 124, 232
-0.994277, 203, 121, 218, 184
-0.994282, 177, 17, 240, 144
-0.994304, 173, 65, 204, 192
-0.994323, 129, 241, 384, 304
-0.994327, 241, 201, 256, 264
-0.994351, 261, 129, 276, 192
-0.994395, 137, 241, 200, 304
-0.994397, 269, 17, 300, 144
-0.994421, 177, 157, 304, 188
-0.994424, 113, 1, 176, 325
-0.994443, 257, 205, 384, 236
-0.994508, 283, 201, 298, 264
-0.994511, 177, 129, 304, 160
-0.99453, 141, 169, 156, 232
-0.994539, 269, 137, 284, 200
-0.994545, 73, 145, 88, 208
-0.994553, 275, 137, 290, 200
-0.994591, 385, 33, 400, 96
-0.994612, 1, 97, 500, 160
-0.994643, 193, 113, 320, 144
-0.99465, 203, 145, 218, 208
-0.994694, 135, 161, 150, 224
-0.994703, 193, 173, 320, 204
-0.994703, 81, 157, 208, 188
-0.994708, 113, 177, 240, 208
-0.994715, 419, 1, 434, 64
-0.99473, 263, 201, 278, 264
-0.994743, 197, 193, 212, 256
-0.994767, 209, 121, 224, 184
-0.994774, 257, 33, 288, 160
-0.994781, 455, 1, 470, 64
-0.994784, 189, 161, 204, 224
-0.994808, 251, 137, 266, 200
-0.994809, 353, 101, 480, 132
-0.99482, 129, 213, 256, 244
-0.994826, 353, 45, 480, 76
-0.99484, 351, 41, 366, 104
-0.99485, 83, 137, 98, 200
-0.994857, 277, 201, 292, 264
-0.994873, 441, 41, 456, 104
-0.994881, 257, 133, 384, 164
-0.994895, 193, 101, 320, 132
-0.9949, 357, 49, 372, 112
-0.994902, 17, 185, 144, 216
-0.994909, 251, 193, 266, 256
-0.994912, 9, 265, 72, 325
-0.99492, 129, 201, 256, 232
-0.99494, 379, 1, 394, 64
-0.994969, 257, 217, 384, 248
-0.99497, 257, 49, 384, 80
-0.994983, 257, 225, 500, 288
-0.995031, 463, 41, 478, 104
-0.995039, 197, 121, 212, 184
-0.995051, 427, 33, 442, 96
-0.995063, 273, 157, 400, 188
-0.995072, 409, 1, 424, 64
-0.995077, 161, 141, 288, 172
-0.995087, 433, 25, 448, 88
-0.995094, 435, 57, 450, 120
-0.995105, 81, 145, 208, 176
-0.99511, 369, 5, 496, 36
-0.995114, 289, 37, 416, 68
-0.995136, 129, 49, 160, 176
-0.99515, 267, 113, 282, 176
-0.995164, 251, 161, 266, 224
-0.995173, 103, 153, 118, 216
-0.995177, 377, 137, 392, 200
-0.99518, 245, 129, 260, 192
-0.995181, 19, 145, 34, 208
-0.995194, 395, 33, 410, 96
-0.995197, 321, 77, 448, 108
-0.995203, 119, 153, 134, 216
-0.995207, 65, 201, 192, 232
-0.995213, 257, 65, 384, 96
-0.995216, 285, 161, 300, 224
-0.99524, 129, 161, 144, 224
-0.995244, 177, 217, 304, 248
-0.995258, 305, 57, 432, 88
-0.995261, 39, 153, 54, 216
-0.995276, 273, 113, 400, 144
-0.995314, 69, 169, 84, 232
-0.995316, 359, 25, 374, 88
-0.995316, 129, 165, 256, 196
-0.995341, 377, 25, 392, 88
-0.995353, 245, 177, 260, 240
-0.995355, 365, 9, 380, 72
-0.995359, 473, 33, 488, 96
-0.995362, 209, 85, 336, 116
-0.995382, 455, 41, 470, 104
-0.995386, 293, 161, 308, 224
-0.995386, 269, 201, 284, 264
-0.995395, 213, 145, 228, 208
-0.995406, 197, 153, 212, 216
-0.995433, 443, 65, 458, 128
-0.995435, 257, 189, 384, 220
-0.995435, 189, 185, 204, 248
-0.995438, 285, 33, 316, 288
-0.995438, 189, 129, 204, 192
-0.995446, 155, 161, 170, 224
-0.995456, 353, 121, 480, 152
-0.995471, 467, 1, 482, 64
-0.995477, 405, 49, 420, 112
-0.995516, 281, 121, 296, 184
-0.995517, 19, 113, 34, 176
-0.995531, 305, 125, 432, 156
-0.995534, 353, 89, 480, 120
-0.995537, 475, 1, 490, 64
-0.995542, 31, 105, 46, 168
-0.995543, 119, 185, 134, 248
-0.995555, 353, 157, 480, 188
-0.99556, 225, 157, 352, 188
-0.995569, 367, 41, 382, 104
-0.995574, 419, 33, 434, 96
-0.995595, 69, 81, 100, 208
-0.995611, 1, 193, 32, 320
-0.995613, 461, 1, 476, 64
-0.995616, 9, 145, 24, 208
-0.99563, 93, 145, 108, 208
-0.99563, 95, 169, 110, 232
-0.995631, 225, 81, 240, 144
-0.995632, 321, 25, 448, 56
-0.995662, 321, 1, 448, 32
-0.995662, 65, 129, 192, 160
-0.995673, 113, 145, 128, 208
-0.99568, 1, 161, 128, 192
-0.995681, 67, 145, 82, 208
-0.995681, 261, 161, 276, 224
-0.995681, 233, 177, 248, 240
-0.995686, 427, 1, 442, 64
-0.995688, 449, 41, 464, 104
-0.99569, 411, 25, 426, 88
-0.995691, 65, 49, 192, 176
-0.995705, 305, 161, 320, 224
-0.995707, 21, 193, 52, 320
-0.995709, 481, 1, 496, 64
-0.995723, 319, 25, 334, 88
-0.995725, 345, 1, 376, 256
-0.995726, 389, 1, 404, 64
-0.995727, 419, 57, 434, 120
-0.995744, 233, 137, 248, 200
-0.995746, 113, 133, 240, 164
-0.995749, 275, 225, 290, 288
-0.995751, 269, 65, 300, 320
-0.995761, 149, 177, 164, 240
-0.995768, 161, 57, 416, 120
-0.995768, 33, 57, 48, 120
-0.995768, 341, 25, 356, 88
-0.995769, 371, 17, 386, 80
-0.995772, 445, 17, 460, 80
-0.995775, 1, 137, 128, 168
-0.995784, 257, 201, 272, 264
-0.995806, 217, 65, 248, 320
-0.995808, 215, 105, 230, 168
-0.995833, 425, 65, 440, 128
-0.995834, 257, 33, 288, 288
-0.995839, 313, 33, 328, 96
-0.995845, 179, 177, 194, 240
-0.995846, 81, 117, 208, 148
-0.995847, 437, 1, 452, 64
-0.995875, 257, 77, 384, 108
-0.995878, 35, 17, 50, 80
-0.995884, 145, 101, 272, 132
-0.995888, 93, 121, 108, 184
-0.995888, 203, 169, 218, 232
-0.9959, 223, 193, 238, 256
-0.995911, 1, 217, 500, 280
-0.995942, 161, 57, 288, 120
-0.995943, 357, 1, 372, 64
-0.995944, 373, 1, 404, 256
-0.995948, 211, 185, 226, 248
-0.995949, 413, 81, 428, 144
-0.995958, 203, 193, 218, 256
-0.995959, 277, 161, 292, 224
-0.995991, 297, 1, 328, 256
-0.995991, 413, 57, 428, 120
-0.995996, 255, 113, 270, 176
-0.995997, 83, 177, 98, 240
-0.996009, 385, 1, 416, 256
-0.99602, 403, 17, 418, 80
-0.99602, 183, 129, 198, 192
-0.996026, 37, 193, 68, 320
-0.996034, 61, 169, 76, 232
-0.996037, 291, 57, 306, 120
-0.996044, 387, 153, 402, 216
-0.996052, 219, 145, 234, 208
-0.996053, 287, 137, 302, 200
-0.996065, 273, 101, 400, 132
-0.996068, 75, 177, 90, 240
-0.99607, 353, 169, 480, 200
-0.996072, 353, 145, 480, 176
-0.996089, 155, 185, 170, 248
-0.996089, 273, 169, 400, 200
-0.996097, 161, 17, 416, 80
-0.996117, 289, 185, 304, 248
-0.996118, 439, 153, 454, 216
-0.996125, 25, 105, 40, 168
-0.996139, 309, 1, 340, 256
-0.996151, 341, 57, 356, 120
-0.996151, 239, 121, 254, 184
-0.996157, 245, 105, 260, 168
-0.996168, 245, 33, 276, 160
-0.99617, 369, 33, 496, 64
-0.996175, 163, 193, 178, 256
-0.996177, 145, 113, 272, 144
-0.996177, 369, 113, 384, 176
-0.996189, 351, 65, 366, 128
-0.996208, 129, 265, 384, 325
-0.996216, 337, 201, 464, 232
-0.996281, 369, 17, 496, 48
-0.996334, 193, 229, 320, 260
-0.99634, 1, 217, 256, 280
-0.996386, 17, 173, 144, 204
-0.996395, 357, 1, 388, 256
-0.996397, 321, 33, 352, 288
-0.996398, 397, 1, 428, 256
-0.99644, 29, 1, 60, 256
-0.996493, 237, 33, 268, 288
-0.996518, 17, 57, 144, 120
-0.996552, 305, 145, 432, 176
-0.996576, 209, 69, 336, 100
-0.996576, 241, 253, 368, 284
-0.996609, 321, 13, 448, 44
-0.996656, 353, 221, 480, 252
-0.996693, 353, 57, 480, 88
-0.996725, 353, 133, 480, 164
-0.996734, 17, 65, 48, 320
-0.996762, 417, 33, 448, 288
-0.996772, 337, 189, 464, 220
-0.996807, 273, 89, 400, 120
-0.996812, 17, 197, 144, 228
-0.996819, 261, 205, 276, 236
-0.996829, 437, 1, 468, 256
-0.996839, 289, 233, 416, 264
-0.996865, 269, 205, 284, 236
-0.996905, 333, 1, 364, 256
-0.996914, 209, 241, 336, 272
-0.996951, 353, 237, 480, 268
-0.996952, 1, 249, 500, 312
-0.996954, 337, 253, 464, 284
-0.996973, 161, 89, 288, 120
-0.996974, 157, 65, 188, 320
-0.99698, 369, 77, 496, 108
-0.997, 135, 157, 150, 188
-0.997006, 273, 1, 400, 32
-0.997046, 81, 213, 208, 244
-0.997068, 449, 1, 480, 256
-0.997073, 443, 49, 458, 80
-0.997103, 97, 105, 224, 136
-0.997114, 1, 13, 128, 44
-0.997119, 1, 249, 256, 312
-0.997122, 1, 73, 500, 136
-0.997149, 241, 201, 256, 232
-0.997157, 435, 61, 450, 92
-0.997157, 113, 57, 240, 120
-0.997175, 253, 201, 268, 232
-0.997178, 265, 137, 280, 168
-0.997178, 267, 149, 282, 180
-0.997209, 149, 161, 164, 192
-0.997216, 205, 65, 236, 320
-0.997225, 469, 1, 500, 256
-0.997234, 269, 217, 284, 248
-0.997251, 273, 13, 400, 44
-0.997279, 197, 197, 212, 228
-0.997283, 289, 257, 416, 288
-0.997296, 117, 65, 148, 320
-0.997309, 259, 137, 274, 168
-0.997321, 277, 209, 292, 240
-0.997326, 187, 197, 202, 228
-0.997336, 1, 25, 500, 88
-0.997343, 369, 265, 496, 296
-0.997344, 257, 145, 384, 176
-0.997347, 229, 201, 244, 232
-0.99737, 425, 21, 440, 52
-0.997373, 109, 49, 140, 176
-0.997375, 29, 141, 44, 172
-0.997388, 129, 225, 256, 256
-0.997429, 271, 137, 286, 168
-0.997446, 393, 41, 408, 72
-0.99745, 223, 85, 238, 116
-0.997454, 145, 173, 160, 204
-0.997469, 295, 165, 310, 196
-0.997476, 93, 65, 124, 320
-0.997484, 247, 193, 262, 224
-0.997487, 67, 169, 82, 200
-0.997489, 49, 225, 176, 256
-0.997496, 127, 173, 142, 204
-0.9975, 109, 185, 124, 216
-0.997526, 381, 41, 396, 72
-0.997534, 223, 197, 238, 228
-0.997542, 119, 181, 134, 212
-0.997543, 97, 33, 160, 160
-0.997547, 241, 189, 256, 220
-0.997548, 141, 185, 156, 216
-0.997548, 153, 193, 168, 224
-0.997552, 147, 193, 162, 224
-0.997553, 129, 65, 160, 320
-0.997554, 317, 137, 332, 168
-0.997562, 439, 73, 454, 104
-0.997576, 73, 169, 88, 200
-0.997576, 261, 217, 276, 248
-0.997577, 41, 157, 56, 188
-0.997577, 235, 185, 250, 216
-0.997585, 75, 141, 90, 172
-0.997586, 137, 169, 152, 200
-0.997592, 77, 65, 108, 320
-0.997593, 17, 97, 144, 128
-0.997609, 273, 157, 288, 188
-0.997612, 399, 37, 414, 68
-0.997649, 389, 21, 404, 52
-0.997665, 415, 25, 430, 56
-0.997677, 19, 149, 34, 180
-0.997678, 261, 149, 276, 180
-0.997682, 277, 133, 292, 164
-0.997696, 93, 177, 108, 208
-0.997697, 19, 133, 34, 164
-0.997698, 417, 13, 432, 44
-0.9977, 283, 205, 298, 236
-0.997707, 421, 33, 436, 64
-0.99771, 251, 157, 266, 188
-0.997713, 383, 21, 398, 52
-0.997721, 373, 33, 388, 64
-0.997723, 143, 161, 158, 192
-0.997728, 273, 25, 400, 56
-0.997736, 279, 229, 294, 260
-0.997743, 465, 1, 480, 32
-0.997747, 1, 25, 128, 56
-0.997749, 381, 121, 396, 152
-0.99775, 433, 13, 448, 44
-0.997751, 207, 197, 222, 228
-0.997756, 133, 193, 148, 224
-0.997759, 365, 49, 380, 80
-0.997763, 295, 193, 310, 224
-0.997766, 17, 113, 144, 144
-0.997768, 87, 181, 102, 212
-0.997769, 449, 53, 464, 84
-0.997771, 245, 157, 260, 188
-0.997773, 1, 1, 128, 32
-0.997774, 437, 45, 452, 76
-0.997776, 277, 145, 292, 176
-0.997786, 305, 213, 432, 244
-0.997787, 173, 65, 204, 320
-0.997789, 201, 149, 216, 180
-0.997789, 163, 201, 178, 232
-0.99779, 323, 133, 338, 164
-0.997794, 265, 125, 280, 156
-0.997795, 413, 85, 428, 116
-0.997796, 29, 129, 44, 160
-0.997799, 217, 193, 232, 224
-0.997804, 441, 61, 456, 92
-0.997805, 117, 169, 132, 200
-0.99781, 135, 181, 150, 212
-0.997813, 211, 181, 226, 212
-0.99782, 187, 165, 202, 196
-0.997829, 125, 161, 140, 192
-0.997835, 377, 137, 392, 168
-0.997843, 189, 65, 220, 320
-0.997844, 9, 149, 24, 180
-0.997846, 253, 217, 268, 248
-0.997856, 391, 53, 406, 84
-0.997863, 179, 181, 194, 212
-0.997871, 189, 209, 204, 240
-0.997871, 241, 169, 256, 200
-0.997874, 429, 61, 444, 92
-0.997876, 387, 37, 402, 68
-0.997883, 261, 161, 276, 192
-0.997883, 447, 69, 462, 100
-0.997886, 389, 141, 404, 172
-0.997886, 197, 209, 212, 240
-0.997889, 1, 225, 128, 256
-0.997893, 241, 37, 368, 68
-0.997896, 125, 189, 140, 220
-0.9979, 431, 49, 446, 80
-0.9979, 113, 277, 240, 308
-0.997901, 149, 149, 164, 180
-0.997905, 441, 5, 456, 36
-0.997907, 285, 165, 300, 196
-0.997909, 247, 205, 262, 236
-0.997915, 209, 49, 336, 80
-0.997919, 235, 197, 250, 228
-0.997919, 423, 81, 438, 112
-0.997921, 99, 185, 114, 216
-0.997923, 309, 41, 324, 72
-0.997925, 417, 1, 432, 32
-0.997928, 307, 205, 322, 236
-0.997929, 319, 45, 334, 76
-0.997935, 65, 261, 192, 292
-0.997948, 305, 273, 432, 304
-0.997949, 289, 189, 304, 220
-0.997952, 395, 65, 410, 96
-0.997953, 205, 181, 220, 212
-0.997955, 459, 1, 474, 32
-0.99796, 311, 137, 326, 168
-0.997965, 203, 161, 218, 192
-0.997965, 61, 169, 76, 200
-0.997967, 217, 181, 232, 212
-0.997968, 351, 85, 366, 116
-0.997968, 187, 177, 202, 208
-0.997976, 175, 161, 190, 192
-0.99798, 169, 193, 184, 224
-0.997984, 433, 1, 448, 32
-0.99799, 141, 149, 156, 180
-0.997993, 251, 181, 266, 212
-0.997993, 105, 65, 136, 320
-0.997994, 371, 53, 386, 84
-0.998001, 439, 153, 454, 184
-0.998003, 141, 65, 172, 320
-0.998003, 31, 97, 46, 128
-0.998003, 229, 181, 244, 212
-0.998007, 81, 185, 96, 216
-0.998056, 17, 125, 144, 156
-0.998066, 129, 261, 256, 292
-0.998072, 17, 237, 144, 268
-0.998094, 1, 37, 128, 68
-0.998095, 177, 269, 304, 300
-0.998126, 353, 289, 480, 320
-0.998171, 65, 65, 96, 320
-0.9982, 1, 213, 128, 244
-0.998261, 113, 89, 240, 120
-0.998263, 113, 293, 240, 324
-0.998279, 65, 273, 192, 304
-0.998287, 201, 33, 232, 160
-0.998325, 241, 229, 368, 260
-0.99836, 265, 139, 328, 154
-0.998371, 225, 293, 352, 324
-0.998417, 209, 203, 272, 218
-0.998422, 305, 285, 432, 316
-0.998425, 129, 155, 192, 170
-0.998433, 385, 55, 448, 70
-0.998433, 65, 187, 128, 202
-0.998435, 385, 45, 448, 60
-0.998437, 145, 193, 208, 208
-0.998439, 241, 165, 304, 180
-0.998442, 137, 163, 200, 178
-0.998442, 189, 145, 220, 160
-0.998442, 13, 139, 44, 154
-0.998442, 177, 213, 208, 228
-0.998443, 441, 43, 472, 58
-0.998443, 333, 209, 364, 224
-0.998444, 309, 133, 340, 148
-0.998444, 173, 165, 204, 180
-0.998444, 241, 183, 272, 198
-0.998444, 289, 201, 320, 216
-0.998444, 453, 43, 484, 58
-0.998445, 369, 151, 400, 166
-0.998446, 337, 81, 368, 96
-0.998446, 353, 29, 384, 44
-0.998446, 397, 61, 428, 76
-0.998446, 121, 157, 152, 172
-0.998447, 409, 55, 440, 70
-0.998448, 421, 87, 452, 102
-0.998448, 237, 147, 268, 162
-0.998448, 257, 201, 288, 216
-0.998448, 361, 21, 392, 36
-0.998449, 293, 169, 324, 184
-0.998449, 345, 49, 408, 64
-0.998449, 221, 91, 252, 106
-0.99845, 373, 29, 404, 44
-0.99845, 113, 245, 240, 276
-0.998451, 165, 171, 196, 186
-0.998451, 269, 133, 300, 148
-0.998452, 249, 207, 312, 222
-0.998453, 389, 21, 420, 36
-0.998453, 113, 171, 144, 186
-0.998453, 213, 105, 244, 120
-0.998454, 89, 187, 152, 202
-0.998454, 69, 145, 100, 160
-0.998455, 129, 167, 160, 182
-0.998456, 353, 213, 384, 228
-0.998456, 305, 209, 368, 224
-0.998456, 129, 187, 192, 202
-0.998457, 385, 51, 416, 66
-0.998458, 421, 43, 452, 58
-0.998458, 229, 169, 260, 184
-0.998458, 249, 171, 280, 186
-0.998459, 221, 145, 252, 160
-0.998459, 149, 149, 180, 164
-0.998459, 317, 35, 348, 50
-0.998461, 397, 55, 428, 70
-0.998463, 177, 199, 240, 214
-0.998463, 385, 37, 416, 52
-0.998465, 97, 179, 128, 194
-0.998465, 105, 193, 168, 208
-0.998467, 257, 145, 288, 160
-0.998468, 137, 185, 168, 200
-0.998469, 385, 45, 416, 60
-0.99847, 421, 29, 452, 44
-0.99847, 97, 199, 128, 214
-0.99847, 169, 151, 200, 166
-0.998471, 369, 55, 400, 70
-0.998472, 349, 81, 380, 96
-0.998472, 461, 11, 492, 26
-0.998472, 185, 151, 216, 166
-0.998472, 105, 163, 168, 178
-0.998473, 257, 133, 288, 148
-0.998473, 109, 153, 140, 168
-0.998474, 273, 159, 304, 174
-0.998474, 409, 11, 440, 26
-0.998475, 377, 23, 408, 38
-0.998475, 377, 39, 440, 54
-0.998476, 417, 51, 480, 66
-0.998476, 373, 39, 404, 54
-0.998477, 225, 139, 288, 154
-0.998477, 353, 43, 384, 58
-0.998478, 213, 209, 244, 224
-0.998478, 125, 185, 156, 200
-0.998479, 285, 133, 316, 148
-0.99848, 241, 265, 368, 296
-0.998481, 185, 167, 216, 182
-0.998482, 73, 171, 136, 186
-0.998483, 449, 11, 480, 26
-0.998483, 269, 231, 300, 246
-0.998484, 429, 23, 460, 38
-0.998484, 425, 49, 456, 64
-0.998485, 97, 173, 128, 188
-0.998485, 113, 177, 144, 192
-0.998486, 225, 277, 352, 308
-0.998487, 69, 177, 100, 192
-0.998487, 137, 171, 200, 186
-0.998488, 205, 145, 236, 160
-0.998489, 81, 171, 112, 186
-0.998489, 289, 207, 320, 222
-0.99849, 241, 217, 272, 232
-0.99849, 33, 149, 96, 164
-0.99849, 93, 167, 124, 182
-0.998491, 257, 209, 288, 224
-0.998491, 141, 203, 172, 218
-0.998491, 105, 177, 168, 192
-0.998491, 341, 47, 372, 62
-0.998493, 281, 163, 344, 178
-0.998493, 181, 191, 212, 206
-0.998493, 253, 227, 284, 242
-0.998494, 17, 151, 48, 166
-0.998494, 201, 197, 232, 212
-0.998494, 237, 141, 268, 156
-0.998495, 233, 201, 296, 216
-0.998495, 245, 129, 260, 256
-0.998495, 341, 55, 372, 70
-0.998496, 209, 145, 272, 160
-0.998496, 185, 209, 248, 224
-0.998497, 125, 201, 156, 216
-0.998497, 105, 157, 168, 172
-0.998497, 209, 105, 272, 120
-0.998498, 441, 51, 472, 66
-0.998498, 297, 47, 360, 62
-0.9985, 201, 123, 264, 138
-0.998501, 161, 151, 224, 166
-0.998501, 225, 215, 288, 230
-0.998501, 393, 63, 456, 78
-0.998502, 269, 209, 300, 224
-0.998502, 81, 181, 144, 196
-0.998503, 353, 49, 384, 64
-0.998505, 377, 33, 440, 48
-0.998506, 429, 69, 460, 84
-0.998507, 225, 201, 256, 216
-0.998508, 409, 91, 440, 106
-0.998508, 409, 81, 472, 96
-0.998508, 273, 209, 336, 224
-0.998508, 1, 157, 64, 172
-0.998512, 417, 5, 448, 20
-0.998512, 169, 189, 200, 204
-0.998513, 425, 63, 488, 78
-0.998513, 81, 183, 112, 198
-0.998513, 105, 171, 168, 186
-0.998514, 61, 183, 92, 198
-0.998515, 405, 33, 436, 48
-0.998516, 65, 151, 128, 166
-0.998517, 429, 59, 460, 74
-0.998518, 297, 137, 328, 152
-0.998518, 377, 1, 440, 16
-0.998518, 293, 163, 324, 178
-0.998518, 233, 145, 296, 160
-0.998519, 425, 69, 488, 84
-0.998519, 405, 49, 436, 64
-0.998519, 397, 41, 428, 56
-0.998519, 257, 201, 320, 216
-0.998519, 137, 203, 200, 218
-0.99852, 217, 97, 248, 112
-0.99852, 449, 69, 480, 84
-0.99852, 197, 203, 228, 218
-0.998521, 13, 145, 44, 160
-0.998522, 433, 13, 496, 28
-0.998524, 149, 157, 180, 172
-0.998526, 41, 179, 104, 194
-0.998527, 245, 165, 276, 180
-0.998527, 113, 197, 144, 212
-0.998529, 129, 179, 192, 194
-0.998529, 249, 195, 312, 210
-0.998529, 345, 43, 408, 58
-0.99853, 217, 223, 280, 238
-0.99853, 353, 57, 416, 72
-0.998531, 105, 199, 168, 214
-0.998532, 265, 133, 328, 148
-0.998532, 141, 163, 172, 178
-0.998533, 49, 173, 112, 188
-0.998533, 305, 215, 368, 230
-0.998534, 201, 197, 264, 212
-0.998534, 273, 219, 336, 234
-0.998534, 165, 197, 196, 212
-0.998535, 209, 99, 272, 114
-0.998537, 385, 163, 448, 178
-0.998538, 177, 117, 240, 132
-0.998539, 309, 139, 340, 154
-0.99854, 281, 169, 344, 184
-0.99854, 377, 23, 440, 38
-0.99854, 209, 113, 272, 128
-0.998541, 369, 137, 432, 152
-0.998542, 357, 55, 388, 70
-0.998542, 25, 169, 88, 184
-0.998543, 409, 7, 472, 22
-0.998543, 169, 181, 232, 196
-0.998543, 241, 171, 304, 186
-0.998544, 113, 183, 144, 198
-0.998545, 345, 217, 408, 232
-0.998545, 161, 165, 224, 180
-0.998547, 409, 31, 472, 46
-0.998547, 145, 191, 176, 206
-0.998547, 393, 171, 456, 186
-0.998548, 385, 157, 448, 172
-0.998549, 169, 215, 232, 230
-0.998549, 81, 193, 144, 208
-0.99855, 289, 139, 352, 154
-0.99855, 185, 147, 248, 162
-0.99855, 313, 41, 376, 56
-0.99855, 265, 145, 328, 160
-0.998551, 361, 149, 424, 164
-0.998551, 373, 49, 404, 64
-0.998553, 401, 69, 464, 84
-0.998554, 425, 21, 488, 36
-0.998556, 133, 195, 164, 210
-0.998556, 169, 173, 232, 188
-0.998556, 113, 163, 144, 178
-0.998556, 281, 181, 344, 196
-0.998557, 17, 163, 80, 178
-0.998558, 261, 163, 292, 178
-0.998558, 313, 55, 376, 70
-0.998559, 65, 199, 128, 214
-0.998559, 369, 7, 432, 22
-0.998561, 209, 93, 272, 108
-0.998561, 241, 221, 304, 236
-0.998561, 345, 155, 408, 170
-0.998561, 185, 199, 216, 214
-0.998562, 401, 87, 464, 102
-0.998562, 409, 39, 472, 54
-0.998562, 273, 63, 336, 78
-0.998563, 417, 57, 480, 72
-0.998564, 321, 47, 384, 62
-0.998564, 241, 227, 304, 242
-0.998565, 433, 169, 496, 184
-0.998565, 409, 75, 472, 90
-0.998565, 369, 87, 432, 102
-0.998565, 369, 277, 496, 308
-0.998566, 409, 1, 472, 16
-0.998568, 41, 185, 104, 200
-0.998568, 369, 179, 432, 194
-0.998569, 169, 187, 232, 202
-0.998569, 233, 131, 296, 146
-0.998569, 401, 93, 464, 108
-0.99857, 153, 157, 216, 172
-0.99857, 265, 221, 296, 236
-0.99857, 353, 29, 416, 44
-0.99857, 409, 15, 472, 30
-0.998572, 417, 163, 480, 178
-0.998573, 305, 157, 368, 172
-0.998573, 313, 97, 376, 112
-0.998573, 405, 27, 436, 42
-0.998573, 257, 159, 320, 174
-0.998574, 369, 127, 432, 142
-0.998574, 65, 145, 128, 160
-0.998574, 117, 191, 148, 206
-0.998574, 345, 211, 408, 226
-0.998574, 201, 157, 264, 172
-0.998575, 201, 173, 264, 188
-0.998575, 203, 129, 218, 256
-0.998575, 97, 149, 160, 164
-0.998576, 17, 249, 144, 280
-0.998576, 65, 165, 128, 180
-0.998577, 213, 199, 244, 214
-0.998577, 385, 147, 448, 162
-0.998578, 169, 221, 232, 236
-0.998578, 433, 5, 496, 20
-0.998579, 337, 7, 400, 22
-0.998579, 329, 31, 392, 46
-0.998579, 225, 235, 288, 250
-0.99858, 157, 191, 188, 206
-0.998582, 145, 197, 176, 212
-0.998586, 237, 205, 268, 220
-0.998588, 273, 165, 304, 180
-0.998597, 257, 139, 288, 154
-0.998599, 189, 113, 204, 240
-0.998602, 277, 139, 308, 154
-0.998604, 29, 97, 44, 224
-0.998604, 261, 129, 276, 256
-0.998618, 133, 157, 164, 172
-0.998628, 1, 65, 32, 320
-0.998638, 217, 33, 248, 160
-0.998638, 97, 187, 128, 202
-0.998643, 269, 129, 284, 256
-0.998663, 251, 113, 266, 240
-0.998675, 239, 145, 254, 272
-0.998682, 65, 237, 192, 268
-0.998703, 225, 17, 352, 48
-0.998709, 197, 113, 212, 240
-0.99871, 283, 129, 298, 256
-0.998714, 33, 57, 288, 120
-0.998726, 457, 1, 472, 128
-0.998728, 357, 1, 372, 128
-0.998732, 275, 129, 290, 256
-0.998738, 211, 97, 226, 224
-0.99874, 161, 293, 288, 324
-0.998756, 245, 177, 260, 304
-0.998769, 235, 97, 250, 224
-0.998773, 437, 1, 452, 128
-0.998776, 365, 33, 380, 160
-0.99878, 45, 65, 76, 320
-0.998786, 269, 65, 284, 192
-0.998826, 295, 161, 310, 288
-0.998828, 251, 161, 266, 288
-0.998836, 427, 1, 442, 128
-0.998839, 463, 1, 478, 128
-0.998856, 481, 1, 496, 128
-0.998858, 419, 1, 434, 128
-0.998874, 289, 177, 304, 304
-0.998878, 443, 1, 458, 128
-0.998883, 221, 81, 236, 208
-0.998884, 261, 81, 276, 208
-0.99889, 65, 249, 192, 280
-0.998894, 385, 1, 400, 128
-0.998895, 349, 17, 364, 144
-0.998895, 189, 161, 204, 288
-0.998896, 1, 89, 256, 152
-0.998909, 339, 1, 354, 128
-0.998916, 227, 81, 242, 208
-0.998922, 277, 65, 292, 192
-0.998925, 311, 193, 326, 320
-0.998934, 395, 1, 410, 128
-0.998941, 327, 1, 342, 128
-0.998954, 1, 49, 500, 112
-0.998956, 435, 65, 450, 192
-0.998956, 271, 193, 286, 320
-0.998967, 163, 113, 178, 240
-0.998969, 245, 65, 260, 192
-0.998971, 305, 193, 320, 320
-0.998974, 149, 97, 164, 224
-0.998976, 451, 1, 466, 128
-0.998984, 85, 145, 100, 272
-0.998984, 277, 193, 292, 320
-0.998985, 177, 281, 304, 312
-0.998988, 173, 97, 188, 224
-0.998991, 17, 97, 32, 224
-0.998994, 1, 49, 128, 80
-0.998997, 73, 129, 88, 256
-0.998998, 377, 129, 392, 256
-0.999002, 61, 145, 76, 272
-0.999003, 377, 17, 392, 144
-0.999004, 283, 177, 298, 304
-0.999008, 195, 161, 210, 288
-0.999011, 155, 97, 170, 224
-0.999015, 233, 145, 248, 272
-0.999016, 35, 17, 50, 144
-0.999026, 143, 97, 158, 224
-0.999026, 353, 193, 368, 320
-0.999027, 23, 129, 38, 256
-0.99903, 105, 97, 120, 224
-0.999035, 299, 113, 314, 240
-0.999037, 131, 97, 146, 224
-0.999038, 111, 97, 126, 224
-0.999039, 447, 49, 462, 176
-0.99904, 29, 49, 44, 176
-0.999041, 255, 65, 270, 192
-0.999045, 107, 145, 122, 272
-0.999047, 311, 49, 326, 176
-0.999047, 145, 77, 272, 108
-0.999051, 141, 161, 156, 288
-0.999054, 405, 1, 420, 128
-0.999057, 261, 193, 276, 320
-0.99906, 23, 81, 38, 208
-0.999061, 333, 1, 348, 128
-0.999066, 331, 49, 346, 176
-0.99907, 411, 1, 426, 128
-0.999074, 453, 49, 468, 176
-0.999077, 291, 49, 306, 176
-0.999077, 183, 113, 198, 240
-0.999087, 289, 245, 416, 276
-0.999093, 91, 161, 106, 288
-0.999094, 359, 49, 374, 176
-0.999095, 289, 129, 304, 256
-0.999095, 93, 113, 108, 240
-0.999097, 117, 97, 132, 224
-0.999098, 371, 81, 386, 208
-0.999099, 51, 161, 66, 288
-0.999105, 15, 145, 30, 272
-0.99911, 101, 177, 116, 304
-0.999111, 79, 129, 94, 256
-0.999114, 321, 49, 336, 176
-0.999115, 317, 177, 332, 304
-0.999117, 385, 145, 400, 272
-0.999117, 137, 97, 152, 224
-0.999117, 371, 1, 386, 128
-0.999127, 377, 65, 392, 192
-0.999128, 41, 145, 56, 272
-0.999129, 313, 1, 328, 128
-0.999134, 239, 193, 254, 320
-0.999135, 5, 129, 20, 256
-0.999139, 183, 161, 198, 288
-0.999141, 297, 49, 312, 176
-0.999142, 307, 145, 322, 272
-0.999142, 423, 49, 438, 176
-0.999142, 283, 65, 298, 192
-0.999144, 177, 257, 304, 288
-0.99915, 217, 129, 232, 256
-0.999153, 475, 1, 490, 128
-0.99916, 321, 1, 336, 128
-0.999161, 165, 161, 180, 288
-0.999164, 441, 65, 456, 192
-0.999169, 149, 145, 164, 272
-0.999177, 223, 129, 238, 256
-0.999179, 35, 129, 50, 256
-0.999183, 481, 49, 496, 176
-0.999186, 359, 177, 374, 304
-0.999188, 387, 97, 402, 224
-0.999189, 17, 85, 144, 116
-0.99919, 135, 145, 150, 272
-0.999191, 125, 97, 140, 224
-0.999199, 365, 97, 380, 224
-0.999207, 307, 1, 322, 128
-0.99921, 429, 81, 444, 208
-0.999212, 341, 49, 356, 176
-0.999214, 351, 65, 366, 192
-0.999217, 411, 65, 426, 192
-0.999223, 209, 145, 224, 272
-0.999226, 155, 161, 170, 288
-0.999227, 113, 145, 128, 272
-0.999228, 17, 265, 144, 296
-0.99924, 303, 49, 318, 176
-0.999247, 357, 97, 372, 224
-0.999253, 461, 49, 476, 176
-0.999291, 161, 245, 288, 276
-0.999336, 1, 1, 500, 64
-0.999568, 49, 289, 176, 320
-0.999638, 57, 175, 72, 190
-0.999638, 417, 23, 432, 38
-0.999639, 395, 61, 410, 76
-0.999639, 265, 133, 280, 148
-0.99964, 7, 149, 22, 164
-0.99964, 291, 201, 306, 216
-0.99964, 183, 173, 198, 188
-0.99964, 427, 33, 442, 48
-0.999641, 397, 45, 412, 60
-0.999641, 261, 209, 276, 224
-0.999641, 177, 163, 192, 178
-0.999641, 185, 167, 200, 182
-0.999641, 137, 177, 152, 192
-0.999641, 19, 141, 34, 156
-0.999641, 355, 83, 370, 98
-0.999641, 429, 53, 444, 68
-0.999642, 193, 191, 208, 206
-0.999642, 211, 201, 226, 216
-0.999642, 291, 161, 306, 176
-0.999642, 375, 49, 390, 64
-0.999643, 41, 157, 56, 172
-0.999643, 109, 189, 124, 204
-0.999643, 277, 157, 292, 172
-0.999644, 443, 73, 458, 88
-0.999645, 353, 19, 368, 34
-0.999645, 305, 139, 320, 154
-0.999645, 271, 149, 286, 164
-0.999645, 287, 207, 302, 222
-0.999646, 413, 91, 428, 106
-0.999646, 67, 181, 82, 196
-0.999646, 375, 31, 390, 46
-0.999647, 425, 1, 440, 16
-0.999647, 87, 187, 102, 202
-0.999647, 273, 229, 288, 244
-0.999647, 383, 39, 398, 54
-0.999649, 279, 231, 294, 246
-0.999649, 369, 61, 384, 76
-0.99965, 393, 37, 408, 52
-0.99965, 83, 179, 98, 194
-0.99965, 391, 153, 406, 168
-0.999651, 355, 215, 370, 230
-0.999651, 265, 221, 280, 236
-0.999651, 245, 197, 260, 212
-0.999652, 415, 81, 430, 96
-0.999652, 311, 207, 326, 222
-0.999652, 273, 133, 288, 148
-0.999653, 131, 191, 146, 206
-0.999653, 131, 175, 146, 190
-0.999654, 365, 151, 380, 166
-0.999654, 159, 207, 174, 222
-0.999654, 187, 193, 202, 208
-0.999655, 205, 197, 220, 212
-0.999655, 433, 63, 448, 78
-0.999655, 299, 137, 314, 152
-0.999655, 73, 171, 88, 186
-0.999657, 137, 187, 152, 202
-0.999661, 177, 179, 192, 194
-0.999661, 433, 19, 448, 34
-0.999663, 241, 183, 256, 198
-0.999665, 391, 55, 406, 70
-0.999665, 305, 185, 320, 200
-0.999666, 141, 169, 156, 184
-0.999667, 415, 31, 430, 46
-0.999668, 189, 205, 204, 220
-0.999669, 307, 161, 322, 176
-0.99967, 369, 47, 384, 62
-0.999672, 251, 201, 266, 216
-0.999672, 435, 71, 450, 86
-0.999672, 429, 71, 444, 86
-0.999673, 473, 11, 488, 26
-0.999673, 349, 47, 364, 62
-0.999674, 275, 209, 290, 224
-0.999674, 141, 155, 156, 170
-0.999675, 387, 45, 402, 60
-0.999675, 15, 147, 30, 162
-0.999676, 253, 207, 268, 222
-0.999676, 127, 181, 142, 196
-0.999677, 169, 191, 184, 206
-0.999677, 359, 47, 374, 62
-0.999678, 241, 205, 256, 220
-0.999678, 117, 181, 132, 196
-0.999678, 257, 137, 272, 152
-0.999679, 323, 139, 338, 154
-0.99968, 375, 63, 390, 78
-0.999682, 35, 11, 50, 26
-0.999684, 419, 3, 434, 18
-0.999684, 225, 89, 240, 104
-0.999685, 369, 55, 384, 70
-0.999686, 273, 163, 288, 178
-0.999687, 427, 21, 442, 36
-0.999689, 229, 203, 244, 218
-0.999689, 189, 199, 204, 214
-0.999689, 217, 199, 232, 214
-0.99969, 317, 139, 332, 154
-0.99969, 437, 51, 452, 66
-0.99969, 421, 29, 436, 44
-0.999693, 119, 191, 134, 206
-0.999695, 135, 169, 150, 184
-0.999695, 281, 139, 296, 154
-0.999697, 159, 197, 174, 212
-0.999698, 151, 195, 166, 210
-0.999698, 267, 209, 282, 224
-0.9997, 181, 193, 196, 208
-0.999701, 361, 55, 376, 70
-0.999703, 93, 181, 108, 196
-0.999703, 295, 187, 310, 202
-0.999704, 141, 197, 156, 212
-0.999705, 377, 37, 392, 52
-0.999706, 175, 171, 190, 186
-0.999707, 235, 203, 250, 218
-0.999708, 265, 139, 280, 154
-0.999708, 149, 155, 164, 170
-0.999708, 29, 145, 44, 160
-0.999708, 429, 27, 444, 42
-0.999709, 311, 139, 326, 154
-0.99971, 61, 181, 76, 196
-0.99972, 223, 199, 238, 214
-0.999722, 289, 137, 304, 152
-0.999723, 277, 221, 292, 236
-0.999723, 439, 65, 454, 80
-0.999729, 135, 159, 150, 174
-0.999729, 195, 199, 210, 214
-0.999732, 305, 211, 320, 226
-0.999733, 75, 177, 90, 192
-0.999744, 297, 163, 312, 178
-0.999745, 285, 165, 300, 180
-0.999746, 271, 139, 286, 154
-0.999748, 157, 191, 172, 206
-0.999753, 149, 163, 164, 178
-0.999759, 65, 173, 80, 188
-1.00009, 33, 1, 96, 128
-1.00037, 65, 33, 320, 96
-1.00075, 93, 49, 124, 176
-1.00088, 81, 49, 112, 176
-1.00117, 157, 33, 188, 160
-1.00146, 229, 1, 260, 128
-1.00155, 65, 9, 320, 72
-1.00163, 65, 65, 192, 128
-1.00182, 177, 9, 304, 72
-1.0019, 49, 9, 176, 72
-1.00207, 145, 33, 272, 96
-1.00258, 209, 1, 272, 128
-1.00276, 97, 17, 224, 80
-1.00314, 49, 33, 176, 96
-1.00416, 41, 49, 104, 176
-1.0044, 113, 1, 240, 128
-1.00523, 73, 33, 136, 160
-1.00666, 49, 1, 176, 128
-1.01163, 121, 1, 184, 128
-1.01256, 9, 1, 72, 128
-1.01293, 145, 1, 208, 128
