1954
-0.109631, 1, 1, 500, 375
-0.268265, 1, 65, 500, 320
-0.302853, 33, 1, 288, 375
-0.388314, 161, 1, 416, 375
-0.389397, 257, 1, 500, 375
-0.538938, 1, 1, 256, 256
-0.552356, 257, 97, 500, 352
-0.577657, 257, 1, 500, 256
-0.57913, 129, 1, 384, 256
-0.583934, 1, 129, 256, 375
-0.634103, 161, 97, 416, 352
-0.813155, 33, 1, 160, 256
-0.828153, 1, 97, 128, 352
-0.832062, 1, 1, 128, 375
-0.832147, 49, 1, 176, 375
-0.832652, 337, 1, 464, 256
-0.833954, 337, 1, 464, 375
-0.834663, 337, 97, 464, 352
-0.837977, 289, 1, 416, 375
-0.838808, 97, 1, 224, 375
-0.847791, 81, 65, 208, 320
-0.849719, 177, 1, 304, 256
-0.854112, 241, 1, 368, 256
-0.85472, 193, 1, 320, 375
-0.857791, 289, 33, 416, 288
-0.859078, 1, 33, 500, 160
-0.859566, 145, 1, 272, 375
-0.863874, 129, 1, 256, 256
-0.867294, 1, 193, 500, 320
-0.869486, 241, 1, 368, 375
-0.870451, 1, 241, 500, 368
-0.872749, 289, 129, 416, 375
-0.87485, 1, 81, 500, 208
-0.878444, 241, 97, 368, 352
-0.887738, 193, 129, 320, 375
-0.888027, 1, 145, 500, 272
-0.8899, 145, 129, 272, 375
-0.890761, 65, 1, 320, 128
-0.897647, 129, 129, 384, 256
-0.897984, 33, 209, 288, 336
-0.906339, 257, 81, 500, 208
-0.906351, 161, 1, 416, 128
-0.90747, 1, 49, 256, 176
-0.911471, 353, 1, 480, 128
-0.912569, 257, 1, 500, 128
-0.913148, 33, 161, 288, 288
-0.914558, 225, 225, 480, 352
-0.915367, 33, 97, 288, 224
-0.917129, 161, 81, 416, 208
-0.917157, 49, 1, 176, 128
-0.919072, 209, 1, 272, 128
-0.919079, 57, 17, 120, 144
-0.919106, 225, 129, 480, 256
-0.919897, 105, 1, 168, 128
-0.920246, 161, 177, 416, 304
-0.921018, 257, 177, 500, 304
-0.921161, 129, 1, 256, 128
-0.921276, 81, 81, 144, 208
-0.922039, 81, 17, 144, 144
-0.922625, 177, 1, 304, 128
-0.923125, 305, 17, 432, 144
-0.924169, 353, 161, 480, 288
-0.926078, 49, 241, 176, 368
-0.926484, 1, 17, 128, 144
-0.926541, 337, 1, 400, 128
-0.927022, 9, 1, 72, 128
-0.927145, 409, 17, 472, 144
-0.928664, 393, 97, 456, 224
-0.92963, 33, 49, 96, 176
-0.930735, 1, 145, 128, 272
-0.930819, 177, 33, 240, 160
-0.930929, 129, 241, 384, 368
-0.932245, 369, 81, 496, 208
-0.93276, 49, 97, 112, 224
-0.932821, 353, 129, 416, 256
-0.932982, 233, 17, 296, 144
-0.933449, 305, 65, 432, 192
-0.933737, 305, 145, 432, 272
-0.933948, 241, 1, 368, 128
-0.934832, 353, 49, 416, 176
-0.935545, 129, 1, 192, 128
-0.936287, 305, 33, 368, 160
-0.93643, 1, 97, 128, 224
-0.936775, 329, 193, 392, 320
-0.936934, 361, 1, 424, 128
-0.937379, 97, 161, 160, 288
-0.938611, 305, 193, 432, 320
-0.939215, 153, 193, 216, 320
-0.939449, 65, 65, 192, 192
-0.940094, 225, 65, 352, 192
-0.940255, 73, 161, 136, 288
-0.940348, 433, 209, 496, 336
-0.940412, 33, 1, 96, 128
-0.941214, 137, 241, 200, 368
-0.941293, 81, 161, 208, 288
-0.941375, 281, 33, 344, 160
-0.941613, 385, 33, 448, 160
-0.941727, 9, 97, 72, 224
-0.941879, 81, 241, 144, 368
-0.942492, 57, 241, 120, 368
-0.942863, 185, 113, 248, 240
-0.943024, 201, 49, 264, 176
-0.943084, 81, 41, 144, 104
-0.943141, 177, 193, 240, 320
-0.94319, 361, 177, 424, 304
-0.943312, 49, 17, 112, 80
-0.943608, 129, 209, 256, 336
-0.944028, 201, 25, 264, 88
-0.944291, 1, 241, 128, 368
-0.944366, 305, 177, 368, 304
-0.944555, 65, 73, 128, 136
-0.945035, 105, 49, 168, 176
-0.946372, 33, 145, 96, 272
-0.947204, 9, 1, 72, 64
-0.94723, 225, 225, 352, 352
-0.947968, 345, 105, 408, 168
-0.948131, 257, 177, 384, 304
-0.948429, 177, 161, 304, 288
-0.948722, 97, 9, 160, 72
-0.94877, 433, 1, 496, 128
-0.948839, 177, 49, 304, 176
-0.949047, 41, 97, 104, 160
-0.949236, 241, 65, 304, 192
-0.949375, 329, 1, 392, 64
-0.9496, 329, 49, 392, 176
-0.94965, 57, 305, 120, 368
-0.949875, 393, 177, 456, 304
-0.949965, 241, 65, 304, 128
-0.950021, 353, 209, 480, 336
-0.950041, 153, 1, 216, 128
-0.950182, 121, 25, 184, 88
-0.950197, 1, 25, 64, 88
-0.95021, 377, 89, 440, 152
-0.950249, 361, 17, 424, 80
-0.95046, 225, 9, 288, 72
-0.950549, 201, 49, 264, 112
-0.950554, 209, 145, 272, 272
-0.95075, 329, 129, 392, 256
-0.950935, 1, 137, 64, 200
-0.951186, 433, 81, 496, 208
-0.951483, 17, 193, 144, 320
-0.951675, 129, 49, 256, 176
-0.951681, 385, 33, 448, 96
-0.951921, 129, 49, 192, 176
-0.952425, 89, 65, 152, 128
-0.952601, 201, 1, 264, 64
-0.952665, 113, 225, 176, 352
-0.952892, 161, 241, 224, 368
-0.952909, 41, 137, 104, 200
-0.953059, 41, 57, 104, 120
-0.953892, 257, 1, 320, 128
-0.953934, 409, 65, 472, 128
-0.954034, 161, 57, 224, 120
-0.954206, 345, 217, 408, 280
-0.95439, 121, 73, 184, 136
-0.954637, 137, 129, 200, 256
-0.954637, 321, 41, 384, 104
-0.954647, 153, 217, 216, 280
-0.955328, 1, 81, 64, 144
-0.955431, 385, 1, 448, 64
-0.9556, 433, 145, 496, 272
-0.955994, 129, 281, 192, 344
-0.956096, 153, 193, 216, 256
-0.956151, 241, 33, 304, 96
-0.956261, 169, 281, 232, 344
-0.956294, 329, 177, 392, 240
-0.956333, 1, 105, 64, 168
-0.956451, 217, 73, 280, 136
-0.956955, 289, 41, 352, 104
-0.957032, 265, 81, 328, 208
-0.957088, 153, 65, 216, 192
-0.957137, 105, 289, 168, 352
-0.957208, 393, 121, 456, 184
-0.957261, 49, 161, 112, 224
-0.957323, 73, 9, 136, 72
-0.957329, 185, 193, 248, 256
-0.957497, 313, 201, 376, 264
-0.957636, 201, 209, 264, 336
-0.957657, 433, 1, 496, 64
-0.957771, 57, 1, 120, 256
-0.957823, 33, 241, 96, 368
-0.958066, 25, 313, 88, 375
-0.9581, 177, 33, 240, 96
-0.958337, 81, 265, 144, 328
-0.958356, 97, 169, 160, 232
-0.958503, 89, 1, 152, 256
-0.958616, 209, 97, 272, 224
-0.958776, 177, 225, 304, 352
-0.958928, 25, 25, 88, 88
-0.959144, 57, 281, 120, 344
-0.959251, 361, 57, 424, 120
-0.959255, 337, 129, 400, 192
-0.959374, 89, 313, 152, 375
-0.959385, 209, 105, 272, 168
-0.959536, 145, 1, 208, 64
-0.959634, 265, 73, 328, 136
-0.959874, 81, 193, 144, 256
-0.960307, 169, 169, 232, 232
-0.960507, 97, 113, 224, 240
-0.960507, 409, 33, 472, 96
-0.960713, 233, 145, 296, 272
-0.960744, 305, 81, 368, 208
-0.960754, 17, 49, 80, 112
-0.961092, 385, 177, 448, 240
-0.961375, 113, 49, 176, 112
-0.961398, 273, 241, 400, 368
-0.961445, 433, 217, 496, 280
-0.96157, 1, 49, 64, 176
-0.961602, 161, 113, 288, 240
-0.961609, 33, 1, 96, 256
-0.96176, 241, 113, 368, 240
-0.961768, 169, 9, 232, 72
-0.962001, 393, 1, 456, 256
-0.962431, 305, 73, 368, 136
-0.96261, 57, 257, 120, 320
-0.962691, 241, 89, 304, 152
-0.962739, 345, 33, 408, 288
-0.962759, 89, 89, 152, 152
-0.962785, 49, 113, 176, 240
-0.963088, 313, 241, 376, 368
-0.963188, 265, 49, 328, 112
-0.963322, 145, 305, 208, 368
-0.963333, 105, 57, 136, 120
-0.963422, 385, 57, 448, 120
-0.963488, 353, 81, 416, 144
-0.963501, 281, 225, 344, 352
-0.963615, 393, 97, 456, 352
-0.96372, 433, 25, 496, 88
-0.96372, 1, 161, 64, 224
-0.963938, 353, 153, 416, 216
-0.964144, 61, 17, 92, 144
-0.964422, 389, 33, 420, 160
-0.964715, 353, 193, 416, 256
-0.964736, 129, 161, 256, 288
-0.964751, 121, 1, 152, 128
-0.964754, 225, 193, 288, 320
-0.964762, 1, 1, 64, 256
-0.96488, 397, 49, 428, 112
-0.964916, 401, 97, 464, 160
-0.964954, 305, 113, 368, 176
-0.964962, 145, 241, 208, 304
-0.964984, 77, 1, 108, 128
-0.965195, 53, 17, 84, 80
-0.965324, 393, 153, 456, 216
-0.965366, 33, 25, 160, 88
-0.96542, 113, 241, 176, 304
-0.965501, 73, 217, 136, 280
-0.965671, 161, 129, 224, 256
-0.965728, 225, 1, 256, 128
-0.965822, 225, 129, 288, 192
-0.965844, 105, 217, 168, 280
-0.966072, 81, 137, 144, 200
-0.96616, 433, 81, 496, 144
-0.966351, 129, 153, 192, 216
-0.966513, 257, 209, 320, 336
-0.966538, 89, 17, 120, 144
-0.966546, 57, 97, 120, 352
-0.966662, 281, 9, 344, 72
-0.966694, 305, 177, 368, 240
-0.966721, 405, 81, 436, 144
-0.966907, 49, 193, 112, 320
-0.967022, 401, 209, 464, 272
-0.967129, 109, 33, 140, 96
-0.967267, 237, 1, 268, 128
-0.967277, 341, 33, 372, 160
-0.967282, 249, 1, 280, 128
-0.967297, 113, 1, 176, 256
-0.967322, 225, 161, 288, 224
-0.967325, 265, 105, 328, 168
-0.967411, 185, 249, 248, 312
-0.967425, 385, 73, 416, 136
-0.967452, 237, 1, 268, 64
-0.967548, 385, 225, 448, 352
-0.967603, 193, 273, 256, 336
-0.967658, 305, 1, 368, 256
-0.967754, 361, 129, 424, 192
-0.967787, 121, 1, 184, 64
-0.96779, 385, 129, 416, 256
-0.968025, 17, 57, 144, 120
-0.968033, 33, 1, 160, 64
-0.968047, 333, 169, 364, 232
-0.968064, 321, 225, 384, 288
-0.968092, 337, 177, 464, 240
-0.968117, 205, 1, 236, 128
-0.968177, 329, 153, 392, 216
-0.968178, 305, 17, 368, 80
-0.968243, 405, 1, 436, 128
-0.968273, 81, 289, 144, 352
-0.968325, 97, 17, 224, 80
-0.968376, 401, 65, 432, 192
-0.968382, 193, 169, 256, 232
-0.968397, 89, 41, 120, 104
-0.968499, 305, 33, 432, 96
-0.968523, 101, 33, 132, 160
-0.968669, 409, 9, 472, 72
-0.968689, 81, 17, 112, 80
-0.968704, 185, 73, 248, 136
-0.968833, 393, 257, 456, 320
-0.968882, 73, 65, 104, 192
-0.968905, 305, 137, 432, 200
-0.968972, 249, 9, 312, 72
-0.968976, 1, 105, 128, 168
-0.969015, 185, 113, 248, 176
-0.969062, 353, 225, 416, 352
-0.969071, 209, 33, 240, 96
-0.969134, 313, 97, 376, 352
-0.96914, 21, 9, 52, 72
-0.969202, 289, 217, 352, 280
-0.969222, 57, 81, 88, 208
-0.969231, 145, 17, 272, 80
-0.969325, 369, 49, 496, 112
-0.96935, 73, 113, 136, 176
-0.969363, 437, 17, 468, 144
-0.969421, 329, 81, 392, 144
-0.969464, 209, 193, 272, 256
-0.969482, 433, 249, 496, 312
-0.969603, 161, 89, 224, 152
-0.969609, 69, 57, 100, 120
-0.969624, 193, 9, 320, 72
-0.969659, 229, 25, 260, 88
-0.969721, 49, 297, 176, 360
-0.969761, 49, 233, 112, 296
-0.96978, 257, 49, 384, 112
-0.969793, 337, 89, 464, 152
-0.969807, 289, 153, 352, 216
-0.969846, 105, 97, 168, 224
-0.969862, 25, 289, 88, 352
-0.969947, 101, 257, 132, 320
-0.969961, 41, 1, 72, 128
-0.970079, 145, 33, 208, 96
-0.970113, 369, 1, 400, 128
-0.97021, 253, 73, 284, 136
-0.970237, 333, 161, 364, 288
-0.970254, 1, 145, 64, 272
-0.970255, 389, 97, 420, 160
-0.970294, 81, 41, 208, 104
-0.970301, 385, 145, 416, 208
-0.970329, 321, 1, 448, 64
-0.970334, 209, 1, 272, 256
-0.970418, 33, 1, 64, 64
-0.970436, 297, 129, 360, 256
-0.970446, 337, 201, 464, 264
-0.970517, 413, 33, 444, 96
-0.970553, 329, 17, 360, 144
-0.970563, 433, 161, 496, 224
-0.970732, 113, 313, 176, 375
-0.970767, 225, 65, 256, 192
-0.970834, 81, 81, 112, 144
-0.971, 145, 57, 272, 120
-0.97101, 69, 9, 100, 72
-0.971031, 85, 177, 116, 304
-0.971041, 217, 265, 280, 328
-0.971122, 65, 65, 192, 128
-0.971204, 17, 129, 80, 375
-0.971418, 417, 17, 448, 144
-0.971507, 185, 225, 248, 288
-0.971519, 353, 121, 480, 184
-0.971637, 121, 33, 152, 96
-0.971698, 289, 201, 416, 264
-0.971771, 257, 161, 320, 288
-0.971905, 121, 129, 184, 375
-0.97193, 169, 1, 232, 256
-0.971943, 5, 25, 36, 88
-0.971968, 85, 113, 116, 240
-0.972012, 185, 129, 248, 375
-0.97207, 353, 1, 384, 128
-0.972077, 257, 177, 320, 240
-0.972156, 377, 177, 408, 304
-0.972254, 313, 41, 344, 104
-0.972264, 1, 161, 128, 224
-0.972292, 105, 81, 136, 208
-0.972339, 241, 49, 272, 176
-0.972427, 49, 41, 80, 104
-0.972442, 241, 25, 368, 88
-0.972551, 337, 265, 400, 328
-0.972628, 217, 1, 248, 64
-0.972711, 313, 249, 376, 312
-0.972719, 381, 81, 412, 208
-0.972763, 353, 25, 480, 88
-0.972784, 197, 41, 228, 104
-0.972869, 101, 241, 132, 368
-0.973097, 1, 81, 128, 144
-0.973175, 137, 1, 168, 128
-0.973232, 153, 225, 184, 352
-0.973244, 1, 153, 32, 216
-0.973244, 201, 185, 232, 248
-0.973259, 45, 81, 76, 208
-0.973288, 289, 73, 416, 136
-0.973405, 89, 241, 120, 368
-0.973419, 401, 281, 464, 344
-0.973463, 97, 17, 128, 80
-0.97347, 25, 105, 56, 168
-0.973484, 185, 193, 216, 320
-0.973554, 193, 33, 320, 96
-0.973614, 465, 1, 496, 128
-0.973669, 365, 49, 396, 176
-0.973674, 73, 169, 136, 232
-0.973714, 89, 265, 120, 328
-0.973737, 445, 65, 476, 128
-0.97376, 85, 65, 116, 192
-0.973868, 305, 225, 432, 288
-0.974027, 21, 137, 52, 200
-0.974046, 241, 57, 272, 120
-0.974064, 177, 145, 240, 208
-0.974094, 133, 41, 164, 104
-0.974098, 141, 241, 172, 368
-0.974099, 101, 81, 132, 144
-0.974133, 417, 33, 480, 288
-0.974135, 1, 129, 32, 256
-0.974248, 313, 33, 344, 160
-0.974266, 349, 201, 380, 264
-0.974302, 377, 25, 408, 88
-0.974312, 25, 161, 88, 224
-0.97435, 17, 1, 48, 128
-0.974354, 49, 265, 176, 328
-0.974373, 113, 9, 144, 72
-0.97444, 273, 1, 400, 64
-0.974453, 145, 33, 208, 288
-0.974459, 53, 313, 84, 375
-0.974465, 45, 73, 76, 136
-0.974539, 81, 97, 144, 352
-0.974542, 337, 129, 400, 375
-0.974572, 333, 9, 364, 72
-0.974583, 29, 1, 60, 128
-0.974661, 9, 1, 40, 64
-0.97475, 413, 57, 444, 120
-0.974783, 65, 33, 96, 96
-0.974784, 89, 241, 152, 304
-0.974804, 245, 121, 276, 184
-0.974854, 257, 241, 384, 304
-0.974886, 201, 177, 232, 304
-0.974912, 357, 193, 388, 320
-0.974944, 69, 113, 100, 240
-0.975018, 233, 241, 296, 368
-0.97502, 369, 1, 432, 256
-0.97515, 121, 65, 152, 192
-0.975184, 273, 73, 304, 136
-0.975273, 325, 41, 356, 104
-0.975279, 209, 73, 336, 136
-0.975303, 369, 97, 432, 352
-0.97532, 193, 1, 224, 128
-0.97535, 97, 193, 128, 320
-0.975415, 201, 9, 232, 72
-0.975417, 237, 89, 268, 152
-0.975495, 33, 145, 64, 208
-0.975511, 145, 281, 272, 344
-0.975631, 369, 1, 496, 64
-0.975653, 225, 113, 256, 240
-0.975718, 373, 1, 404, 64
-0.975733, 337, 137, 368, 200
-0.975741, 41, 97, 72, 160
-0.975746, 81, 193, 208, 256
-0.975768, 213, 105, 244, 168
-0.975786, 81, 1, 144, 375
-0.975792, 17, 193, 80, 320
-0.975821, 317, 161, 348, 288
-0.975822, 185, 177, 216, 240
-0.975848, 425, 65, 456, 128
-0.975876, 381, 169, 412, 232
-0.975927, 449, 1, 480, 128
-0.976117, 113, 81, 240, 144
-0.976178, 185, 9, 216, 72
-0.976185, 197, 225, 228, 352
-0.97619, 5, 17, 36, 144
-0.976215, 41, 1, 104, 375
-0.976221, 241, 25, 272, 88
-0.976284, 433, 25, 464, 88
-0.976305, 281, 177, 344, 304
-0.976344, 337, 193, 368, 256
-0.976386, 117, 65, 148, 128
-0.976437, 137, 281, 168, 344
-0.976477, 161, 281, 192, 344
-0.976485, 225, 97, 352, 160
-0.976503, 289, 65, 320, 128
-0.976516, 1, 113, 32, 176
-0.976588, 193, 161, 320, 224
-0.976607, 453, 65, 484, 192
-0.976721, 341, 209, 372, 336
-0.976736, 49, 89, 176, 152
-0.976738, 373, 193, 404, 256
-0.97674, 85, 177, 116, 240
-0.97675, 321, 137, 352, 200
-0.976765, 433, 129, 496, 375
-0.976767, 101, 281, 132, 344
-0.976769, 1, 177, 32, 240
-0.976802, 305, 113, 432, 176
-0.976825, 205, 49, 236, 176
-0.976832, 177, 17, 208, 144
-0.976945, 257, 137, 384, 200
-0.976955, 157, 1, 188, 128
-0.976977, 389, 177, 420, 304
-0.97699, 133, 9, 164, 72
-0.977168, 97, 169, 224, 232
-0.977169, 185, 49, 216, 112
-0.977243, 353, 1, 384, 64
-0.977412, 125, 161, 156, 224
-0.977423, 93, 233, 124, 296
-0.977434, 441, 129, 472, 256
-0.977472, 65, 209, 96, 336
-0.977495, 321, 257, 448, 320
-0.977499, 17, 1, 80, 375
-0.97754, 89, 105, 120, 168
-0.977552, 1, 49, 32, 112
-0.977626, 205, 73, 236, 136
-0.977626, 381, 121, 412, 184
-0.977635, 125, 297, 156, 360
-0.977681, 85, 209, 116, 272
-0.977693, 337, 41, 368, 104
-0.977784, 57, 97, 88, 160
-0.977795, 425, 65, 456, 192
-0.97784, 77, 305, 108, 368
-0.97788, 121, 177, 184, 304
-0.977896, 253, 49, 284, 176
-0.977899, 233, 1, 296, 256
-0.97791, 185, 209, 216, 272
-0.977946, 1, 185, 128, 248
-0.977951, 265, 1, 296, 128
-0.977973, 353, 41, 384, 104
-0.978006, 353, 145, 480, 208
-0.978064, 369, 169, 400, 232
-0.978219, 365, 97, 396, 160
-0.978227, 1, 129, 128, 192
-0.978234, 209, 113, 240, 240
-0.97824, 289, 161, 416, 224
-0.978255, 97, 193, 128, 256
-0.978284, 377, 97, 408, 160
-0.97836, 33, 25, 64, 88
-0.978418, 325, 201, 356, 264
-0.978472, 357, 225, 388, 288
-0.978511, 397, 1, 428, 64
-0.97857, 333, 113, 364, 240
-0.978611, 33, 81, 64, 208
-0.978632, 461, 1, 492, 64
-0.978669, 177, 113, 304, 176
-0.978681, 337, 1, 400, 375
-0.978702, 105, 169, 136, 232
-0.978757, 1, 225, 128, 288
-0.978772, 429, 1, 460, 64
-0.978783, 445, 9, 476, 72
-0.978802, 437, 65, 468, 192
-0.978905, 345, 225, 376, 288
-0.978929, 185, 281, 216, 344
-0.978949, 1, 313, 128, 375
-0.978978, 369, 225, 496, 288
-0.979024, 105, 1, 168, 375
-0.979073, 345, 129, 376, 256
-0.979112, 149, 281, 180, 344
-0.979249, 361, 113, 392, 240
-0.979263, 349, 81, 380, 208
-0.979428, 241, 129, 272, 256
-0.979478, 89, 297, 120, 360
-0.979479, 97, 273, 224, 336
-0.979511, 1, 289, 128, 352
-0.979528, 153, 241, 184, 304
-0.979695, 197, 121, 228, 184
-0.979702, 169, 225, 200, 352
-0.979724, 385, 193, 416, 256
-0.979744, 349, 97, 380, 160
-0.979748, 225, 113, 256, 176
-0.979817, 261, 1, 292, 64
-0.979823, 349, 121, 380, 184
-0.979959, 1, 89, 32, 152
-0.979984, 177, 137, 304, 200
-0.979997, 433, 89, 464, 152
-0.980073, 185, 145, 216, 272
-0.980073, 49, 217, 176, 280
-0.980141, 213, 209, 244, 336
-0.980198, 129, 65, 160, 128
-0.980282, 225, 49, 256, 112
-0.980299, 13, 113, 44, 176
-0.980301, 113, 249, 240, 312
-0.980319, 73, 161, 104, 288
-0.980381, 425, 113, 456, 240
-0.980395, 257, 65, 320, 320
-0.980461, 213, 137, 244, 200
-0.980526, 173, 185, 204, 248
-0.980531, 225, 89, 256, 152
-0.98055, 161, 185, 288, 248
-0.980551, 393, 169, 424, 232
-0.980596, 197, 113, 228, 240
-0.980602, 169, 57, 200, 120
-0.980617, 145, 129, 208, 375
-0.980704, 225, 129, 288, 375
-0.980744, 165, 65, 196, 192
-0.980757, 177, 257, 304, 320
-0.98076, 33, 313, 64, 375
-0.980831, 241, 217, 368, 280
-0.98084, 13, 81, 44, 144
-0.980869, 201, 161, 232, 224
-0.98089, 361, 1, 424, 375
-0.980915, 101, 313, 132, 375
-0.980935, 241, 161, 368, 224
-0.981027, 393, 1, 456, 375
-0.981028, 117, 145, 148, 272
-0.981058, 37, 121, 68, 184
-0.9811, 161, 225, 288, 288
-0.98122, 69, 137, 100, 200
-0.981239, 205, 273, 236, 336
-0.98124, 413, 65, 444, 192
-0.981469, 289, 97, 352, 352
-0.981635, 13, 97, 44, 224
-0.981665, 1, 81, 32, 208
-0.981729, 49, 241, 176, 304
-0.981803, 105, 129, 136, 256
-0.98181, 1, 249, 128, 312
-0.981913, 273, 65, 304, 192
-0.981956, 397, 113, 428, 240
-0.982075, 273, 1, 336, 375
-0.982099, 53, 241, 84, 368
-0.982159, 429, 161, 460, 288
-0.982182, 21, 49, 52, 176
-0.982305, 113, 305, 240, 368
-0.982413, 409, 241, 472, 368
-0.982475, 49, 169, 176, 232
-0.982508, 241, 193, 368, 256
-0.98256, 9, 241, 72, 368
-0.982671, 217, 1, 280, 375
-0.982674, 109, 193, 140, 320
-0.98277, 57, 145, 88, 272
-0.982782, 313, 81, 344, 208
-0.982787, 133, 49, 164, 176
-0.982816, 145, 161, 272, 224
-0.982836, 193, 281, 320, 344
-0.982911, 185, 1, 248, 375
-0.983061, 185, 241, 216, 368
-0.983229, 213, 161, 244, 288
-0.983289, 117, 241, 148, 368
-0.983358, 33, 129, 64, 256
-0.983456, 325, 65, 356, 192
-0.983685, 293, 33, 324, 160
-0.983823, 233, 193, 264, 320
-0.983872, 161, 89, 288, 152
-0.983884, 369, 289, 496, 352
-0.984047, 241, 1, 304, 375
-0.984061, 313, 1, 376, 375
-0.984064, 433, 1, 496, 375
-0.984089, 281, 1, 344, 256
-0.984144, 193, 49, 224, 176
-0.984212, 373, 129, 404, 256
-0.984305, 49, 145, 176, 208
-0.984321, 285, 161, 316, 288
-0.984532, 129, 137, 256, 200
-0.9846, 65, 113, 192, 176
-0.984778, 269, 161, 300, 288
-0.985045, 173, 145, 204, 272
-0.985057, 277, 17, 308, 144
-0.985062, 369, 257, 496, 320
-0.985192, 145, 1, 208, 375
-0.985296, 317, 225, 348, 352
-0.985435, 329, 209, 360, 336
-0.985437, 253, 209, 284, 336
-0.985475, 149, 49, 180, 176
-0.98576, 301, 97, 332, 224
-0.985768, 129, 145, 160, 272
-0.985832, 401, 161, 432, 288
-0.985933, 97, 217, 224, 280
-0.986162, 441, 209, 472, 336
-0.986431, 465, 209, 496, 336
-0.986535, 141, 113, 172, 240
-0.986548, 273, 265, 400, 328
-0.986558, 185, 97, 216, 224
-0.986725, 129, 113, 256, 176
-0.986777, 465, 49, 496, 176
-0.98678, 77, 241, 108, 368
-0.986809, 261, 97, 292, 224
-0.986809, 45, 161, 76, 288
-0.986811, 1, 177, 32, 304
-0.986954, 305, 193, 336, 320
-0.986999, 381, 241, 412, 368
-0.987049, 137, 193, 168, 320
-0.987284, 81, 69, 144, 100
-0.987402, 301, 145, 332, 272
-0.987438, 289, 225, 320, 352
-0.987643, 57, 17, 120, 48
-0.987819, 41, 29, 104, 60
-0.987927, 185, 45, 248, 76
-0.988014, 57, 81, 120, 112
-0.988094, 1, 17, 256, 80
-0.9881, 361, 33, 424, 64
-0.988111, 33, 101, 96, 132
-0.988179, 397, 225, 428, 352
-0.988189, 337, 5, 400, 36
-0.988192, 321, 205, 384, 236
-0.988241, 161, 305, 288, 368
-0.98828, 377, 101, 440, 132
-0.988469, 209, 121, 272, 152
-0.98849, 377, 61, 440, 92
-0.988518, 369, 313, 496, 375
-0.988571, 201, 57, 264, 88
-0.988579, 17, 9, 80, 40
-0.988585, 89, 33, 152, 64
-0.988594, 233, 81, 296, 112
-0.988601, 345, 125, 408, 156
-0.98862, 209, 25, 272, 56
-0.988669, 105, 45, 168, 76
-0.988687, 121, 81, 184, 112
-0.988709, 65, 45, 128, 76
-0.988732, 1, 29, 64, 60
-0.988778, 81, 17, 144, 48
-0.988824, 129, 9, 384, 72
-0.988843, 1, 81, 64, 112
-0.988897, 393, 37, 456, 68
-0.988908, 1, 137, 64, 168
-0.988908, 25, 317, 88, 348
-0.988972, 169, 57, 232, 88
-0.988979, 289, 41, 352, 72
-0.988987, 193, 13, 256, 44
-0.989019, 65, 33, 128, 64
-0.989044, 41, 1, 104, 32
-0.989102, 233, 13, 296, 44
-0.989103, 105, 21, 168, 52
-0.989127, 201, 73, 264, 104
-0.989142, 153, 241, 216, 272
-0.989168, 353, 85, 416, 116
-0.989183, 129, 289, 192, 320
-0.989191, 105, 69, 168, 100
-0.989196, 265, 93, 328, 124
-0.989206, 1, 161, 64, 192
-0.98922, 57, 313, 120, 344
-0.989233, 377, 89, 440, 120
-0.989245, 209, 37, 272, 68
-0.989249, 385, 121, 448, 152
-0.989261, 81, 165, 144, 196
-0.989262, 65, 81, 320, 144
-0.989281, 313, 49, 376, 80
-0.989289, 257, 1, 500, 64
-0.98929, 393, 25, 456, 56
-0.989303, 177, 69, 240, 100
-0.98931, 257, 69, 320, 100
-0.989317, 417, 77, 480, 108
-0.989321, 73, 101, 136, 132
-0.989328, 433, 13, 496, 44
-0.989348, 113, 241, 176, 272
-0.989371, 377, 73, 440, 104
-0.989385, 81, 57, 144, 88
-0.989408, 185, 33, 248, 64
-0.989413, 1, 109, 64, 140
-0.989427, 281, 81, 344, 112
-0.989438, 201, 1, 264, 32
-0.989439, 257, 49, 500, 112
-0.989465, 113, 305, 176, 336
-0.989469, 97, 81, 160, 112
-0.98948, 1, 41, 64, 72
-0.989482, 41, 169, 104, 200
-0.989504, 41, 41, 104, 72
-0.989507, 185, 281, 248, 312
-0.989515, 353, 109, 416, 140
-0.989515, 41, 145, 104, 176
-0.989522, 1, 65, 500, 128
-0.989547, 281, 61, 344, 92
-0.989553, 161, 217, 224, 248
-0.989555, 393, 145, 456, 176
-0.989574, 65, 237, 128, 268
-0.989594, 257, 73, 500, 136
-0.9896, 169, 185, 232, 216
-0.989633, 169, 197, 232, 228
-0.989641, 177, 121, 240, 152
-0.989657, 257, 137, 500, 200
-0.989678, 81, 297, 144, 328
-0.989729, 177, 81, 240, 112
-0.989734, 329, 173, 392, 204
-0.989787, 65, 193, 320, 256
-0.989826, 377, 1, 440, 32
-0.989832, 225, 57, 288, 88
-0.989833, 305, 217, 368, 248
-0.989846, 89, 5, 152, 36
-0.989846, 393, 177, 456, 208
-0.989892, 409, 65, 472, 96
-0.989893, 57, 69, 120, 100
-0.989902, 377, 49, 440, 80
-0.989904, 49, 301, 112, 332
-0.989913, 329, 17, 392, 48
-0.989913, 1, 257, 256, 320
-0.989924, 241, 1, 304, 32
-0.989938, 57, 257, 120, 288
-0.989947, 73, 273, 136, 304
-0.989952, 49, 329, 112, 360
-0.98996, 353, 137, 416, 168
-0.989967, 369, 21, 432, 52
-0.989969, 177, 141, 240, 172
-0.989974, 129, 57, 192, 88
-0.989977, 1, 25, 500, 88
-0.990014, 401, 89, 464, 120
-0.990016, 193, 201, 448, 264
-0.990016, 353, 97, 416, 128
-0.99002, 97, 93, 160, 124
-0.990035, 345, 225, 408, 256
-0.99007, 129, 69, 192, 100
-0.990072, 353, 189, 416, 220
-0.990072, 209, 201, 272, 232
-0.990093, 153, 289, 216, 320
-0.990098, 57, 181, 120, 212
-0.990105, 25, 89, 88, 120
-0.990111, 41, 113, 104, 144
-0.990114, 241, 33, 304, 64
-0.990126, 393, 157, 456, 188
-0.990136, 225, 257, 480, 320
-0.990146, 121, 33, 184, 64
-0.990152, 289, 189, 352, 220
-0.990154, 41, 157, 104, 188
-0.990155, 9, 149, 72, 180
-0.990165, 433, 29, 496, 60
-0.990171, 137, 301, 200, 332
-0.990197, 65, 1, 128, 32
-0.9902, 201, 133, 264, 164
-0.990206, 193, 177, 256, 208
-0.990211, 433, 225, 496, 256
-0.990215, 17, 53, 80, 84
-0.990222, 161, 9, 224, 40
-0.990255, 401, 101, 464, 132
-0.99028, 353, 157, 416, 188
-0.990284, 289, 173, 352, 204
-0.990295, 345, 69, 408, 100
-0.99031, 97, 317, 160, 348
-0.990321, 385, 193, 448, 224
-0.99033, 193, 105, 448, 168
-0.990335, 433, 1, 496, 32
-0.990343, 137, 149, 200, 180
-0.990344, 241, 45, 304, 76
-0.990345, 1, 177, 500, 240
-0.99038, 33, 41, 288, 104
-0.990484, 1, 105, 256, 168
-0.990522, 321, 297, 448, 360
-0.990644, 193, 233, 448, 296
-0.990721, 1, 121, 500, 184
-0.990742, 65, 217, 320, 280
-0.9909, 193, 161, 448, 224
-0.990947, 1, 233, 500, 296
-0.991074, 65, 161, 320, 224
-0.991142, 1, 201, 500, 264
-0.991145, 1, 297, 256, 360
-0.991211, 161, 33, 416, 96
-0.991403, 1, 1, 500, 64
-0.991423, 129, 57, 384, 120
-0.991655, 1, 137, 256, 200
-0.991929, 385, 105, 416, 136
-0.991967, 97, 289, 352, 352
-0.992003, 161, 81, 416, 144
-0.99202, 109, 65, 140, 96
-0.992067, 405, 81, 436, 112
-0.992082, 229, 21, 260, 52
-0.992109, 241, 21, 272, 52
-0.992116, 401, 61, 432, 92
-0.992121, 217, 29, 248, 60
-0.992127, 65, 17, 96, 48
-0.992127, 237, 9, 268, 40
-0.99214, 101, 93, 132, 124
-0.992153, 49, 37, 80, 68
-0.992159, 313, 45, 344, 76
-0.992166, 113, 45, 144, 76
-0.992172, 253, 85, 284, 116
-0.992176, 269, 85, 300, 116
-0.992179, 237, 121, 268, 152
-0.992187, 93, 37, 124, 68
-0.992187, 45, 93, 76, 124
-0.992188, 213, 17, 244, 48
-0.992189, 241, 289, 368, 352
-0.992197, 345, 137, 376, 168
-0.992202, 105, 257, 136, 288
-0.992205, 1, 41, 128, 72
-0.992216, 353, 1, 384, 32
-0.992222, 389, 65, 420, 96
-0.992225, 89, 265, 120, 296
-0.992231, 397, 41, 428, 72
-0.992247, 69, 29, 100, 60
-0.992248, 1, 145, 500, 208
-0.992248, 217, 117, 248, 148
-0.992248, 205, 177, 236, 208
-0.992258, 1, 121, 32, 152
-0.992271, 85, 53, 116, 84
-0.992273, 369, 113, 400, 144
-0.992273, 209, 41, 240, 72
-0.992274, 33, 25, 64, 56
-0.99228, 411, 57, 426, 120
-0.992285, 229, 33, 260, 64
-0.992289, 25, 141, 56, 172
-0.992295, 397, 93, 428, 124
-0.9923, 77, 17, 108, 48
-0.9923, 53, 325, 84, 356
-0.992301, 1, 257, 500, 320
-0.992305, 101, 53, 132, 84
-0.992307, 9, 141, 40, 172
-0.992316, 233, 77, 264, 108
-0.992329, 25, 9, 56, 40
-0.992337, 89, 69, 120, 100
-0.992338, 49, 25, 80, 56
-0.99234, 273, 97, 304, 128
-0.992342, 105, 33, 136, 64
-0.992345, 189, 57, 220, 88
-0.99235, 385, 93, 416, 124
-0.992358, 33, 105, 64, 136
-0.992361, 89, 17, 120, 48
-0.992362, 197, 45, 228, 76
-0.992364, 333, 197, 364, 228
-0.992366, 65, 45, 192, 76
-0.992372, 201, 161, 232, 192
-0.992374, 317, 209, 348, 240
-0.992379, 189, 197, 220, 228
-0.992379, 321, 189, 352, 220
-0.99238, 1, 57, 32, 88
-0.992386, 17, 25, 48, 56
-0.992399, 93, 249, 124, 280
-0.992405, 153, 241, 184, 272
-0.992407, 129, 73, 160, 104
-0.992417, 389, 53, 420, 84
-0.99242, 329, 169, 360, 200
-0.992421, 185, 185, 216, 216
-0.992423, 133, 13, 164, 44
-0.992426, 141, 289, 172, 320
-0.99243, 5, 1, 36, 32
-0.99243, 149, 309, 180, 340
-0.992431, 309, 65, 340, 96
-0.992432, 385, 77, 416, 108
-0.992436, 153, 293, 184, 324
-0.992437, 389, 117, 420, 148
-0.992442, 129, 289, 160, 320
-0.992451, 61, 5, 92, 36
-0.992454, 1, 89, 500, 152
-0.992456, 125, 29, 156, 60
-0.992457, 209, 73, 240, 104
-0.992457, 221, 77, 252, 108
-0.992461, 329, 49, 360, 80
-0.992462, 241, 33, 272, 64
-0.992462, 101, 281, 132, 312
-0.99247, 85, 85, 116, 116
-0.992471, 469, 5, 500, 36
-0.992478, 125, 49, 156, 80
-0.992482, 97, 105, 128, 136
-0.992482, 193, 117, 224, 148
-0.992489, 1, 109, 128, 140
-0.99249, 173, 189, 204, 220
-0.992492, 377, 1, 408, 32
-0.992493, 445, 17, 476, 48
-0.992494, 33, 89, 64, 120
-0.992498, 9, 81, 40, 112
-0.992499, 445, 69, 476, 100
-0.9925, 409, 41, 440, 72
-0.992502, 181, 221, 212, 252
-0.992504, 201, 205, 232, 236
-0.992505, 241, 57, 272, 88
-0.992505, 385, 173, 416, 204
-0.992509, 241, 133, 272, 164
-0.992517, 429, 33, 460, 64
-0.992517, 165, 289, 196, 320
-0.99252, 377, 29, 408, 60
-0.992524, 41, 1, 72, 32
-0.992529, 201, 21, 232, 52
-0.992529, 85, 277, 116, 308
-0.992533, 421, 73, 452, 104
-0.992534, 117, 13, 148, 44
-0.992537, 105, 269, 136, 300
-0.99254, 229, 57, 260, 88
-0.99254, 161, 313, 192, 344
-0.992553, 77, 41, 108, 72
-0.992558, 413, 57, 444, 88
-0.992561, 201, 9, 232, 40
-0.992563, 85, 209, 116, 240
-0.992568, 225, 9, 256, 40
-0.992571, 353, 205, 384, 236
-0.992572, 49, 13, 80, 44
-0.992572, 281, 85, 312, 116
-0.992575, 245, 69, 276, 100
-0.992576, 77, 5, 108, 36
-0.992581, 289, 69, 320, 100
-0.992594, 1, 45, 32, 76
-0.992594, 57, 101, 88, 132
-0.992594, 365, 1, 396, 32
-0.992598, 425, 101, 456, 132
-0.992602, 65, 61, 96, 92
-0.992608, 129, 161, 160, 192
-0.992609, 389, 1, 420, 32
-0.992609, 21, 109, 52, 140
-0.99261, 233, 153, 264, 184
-0.992611, 269, 73, 300, 104
-0.992612, 449, 345, 480, 375
-0.992689, 49, 313, 176, 344
-0.992693, 61, 17, 76, 80
-0.992722, 17, 97, 144, 128
-0.992906, 405, 57, 420, 120
-0.992954, 399, 73, 414, 136
-0.992956, 257, 217, 384, 248
-0.992975, 161, 17, 288, 48
-0.993009, 97, 197, 224, 228
-0.99301, 17, 25, 144, 56
-0.99306, 45, 97, 60, 160
-0.993099, 337, 201, 464, 232
-0.993128, 113, 57, 128, 120
-0.99315, 67, 25, 82, 88
-0.993155, 327, 33, 342, 96
-0.993162, 1, 281, 500, 344
-0.993186, 241, 37, 368, 68
-0.993186, 1, 85, 128, 116
-0.993246, 129, 129, 384, 192
-0.993248, 119, 41, 134, 104
-0.993313, 391, 97, 406, 160
-0.99332, 333, 25, 348, 88
-0.993323, 305, 21, 432, 52
-0.993356, 33, 73, 160, 104
-0.993383, 111, 33, 126, 96
-0.993413, 399, 41, 414, 104
-0.993442, 353, 201, 368, 264
-0.993456, 255, 73, 270, 136
-0.993456, 257, 25, 500, 88
-0.993458, 239, 1, 254, 64
-0.99347, 73, 25, 88, 88
-0.993489, 305, 33, 432, 64
-0.99349, 23, 137, 38, 200
-0.993505, 393, 65, 408, 128
-0.993507, 37, 1, 52, 64
-0.993507, 337, 85, 464, 116
-0.993516, 217, 25, 232, 88
-0.993518, 399, 97, 414, 160
-0.993532, 127, 41, 142, 104
-0.993533, 47, 1, 62, 64
-0.993572, 337, 165, 464, 196
-0.993585, 39, 105, 54, 168
-0.993621, 353, 9, 480, 40
-0.993646, 145, 33, 272, 64
-0.993649, 105, 41, 120, 104
-0.993666, 405, 33, 420, 96
-0.993672, 321, 41, 336, 104
-0.993692, 337, 101, 464, 132
-0.993698, 161, 121, 288, 152
-0.993727, 89, 81, 104, 144
-0.993735, 209, 77, 336, 108
-0.993738, 273, 205, 400, 236
-0.993741, 95, 257, 110, 320
-0.993767, 233, 17, 248, 80
-0.993775, 127, 65, 142, 128
-0.99378, 57, 313, 72, 375
-0.993788, 17, 57, 144, 88
-0.993804, 211, 41, 226, 104
-0.993805, 353, 73, 480, 104
-0.993812, 337, 169, 352, 232
-0.993819, 337, 177, 464, 208
-0.993828, 81, 297, 208, 328
-0.993835, 339, 17, 354, 80
-0.993843, 247, 1, 262, 64
-0.99385, 277, 73, 292, 136
-0.993852, 417, 33, 432, 96
-0.993854, 193, 185, 208, 248
-0.993859, 49, 85, 176, 116
-0.993868, 113, 61, 240, 92
-0.993889, 65, 21, 192, 52
-0.993896, 321, 237, 448, 268
-0.993906, 109, 249, 124, 312
-0.993929, 97, 265, 352, 328
-0.993931, 343, 169, 358, 232
-0.993941, 33, 301, 160, 332
-0.993942, 283, 73, 298, 136
-0.993942, 305, 53, 432, 84
-0.993974, 353, 25, 480, 56
-0.993976, 353, 213, 480, 244
-0.993979, 53, 25, 68, 88
-0.993985, 95, 177, 110, 240
-0.993995, 101, 249, 116, 312
-0.994007, 245, 49, 260, 112
-0.994014, 113, 73, 240, 104
-0.994032, 127, 17, 142, 80
-0.994036, 393, 1, 408, 64
-0.994038, 103, 17, 118, 80
-0.994039, 97, 169, 224, 200
-0.994045, 225, 1, 240, 64
-0.994051, 33, 269, 160, 300
-0.994052, 103, 65, 118, 128
-0.994061, 209, 13, 336, 44
-0.994075, 353, 37, 480, 68
-0.994076, 329, 177, 344, 240
-0.994078, 207, 1, 222, 64
-0.994079, 391, 137, 406, 200
-0.99411, 133, 41, 148, 104
-0.994113, 93, 1, 108, 64
-0.994127, 49, 325, 176, 356
-0.994158, 69, 1, 84, 64
-0.994162, 375, 1, 390, 64
-0.994165, 433, 33, 448, 96
-0.994173, 253, 9, 268, 72
-0.994174, 305, 65, 432, 96
-0.994189, 121, 65, 136, 128
-0.994189, 17, 13, 144, 44
-0.994192, 411, 81, 426, 144
-0.994198, 341, 137, 356, 200
-0.994204, 169, 281, 184, 344
-0.994217, 97, 33, 224, 64
-0.994235, 177, 205, 304, 236
-0.994235, 103, 89, 118, 152
-0.994259, 145, 1, 272, 32
-0.994272, 21, 1, 36, 64
-0.994277, 353, 125, 480, 156
-0.994293, 1, 313, 500, 375
-0.994299, 193, 49, 320, 80
-0.994301, 75, 1, 90, 64
-0.994306, 241, 229, 368, 260
-0.994307, 7, 25, 22, 88
-0.994308, 337, 137, 464, 168
-0.994308, 33, 113, 48, 176
-0.994316, 359, 105, 374, 168
-0.994326, 113, 157, 240, 188
-0.99434, 201, 1, 216, 64
-0.994343, 153, 281, 168, 344
-0.994345, 1, 1, 128, 32
-0.994346, 199, 177, 214, 240
-0.994376, 203, 41, 218, 104
-0.994378, 89, 185, 104, 248
-0.994379, 143, 289, 158, 352
-0.994383, 411, 33, 426, 96
-0.994396, 83, 113, 98, 176
-0.994421, 421, 73, 436, 136
-0.994427, 65, 217, 192, 248
-0.994429, 387, 57, 402, 120
-0.994433, 27, 9, 42, 72
-0.994455, 423, 33, 438, 96
-0.994481, 315, 41, 330, 104
-0.994486, 1, 313, 128, 344
-0.994489, 383, 185, 398, 248
-0.994492, 217, 81, 232, 144
-0.994493, 39, 81, 54, 144
-0.994498, 193, 33, 320, 64
-0.994506, 113, 21, 240, 52
-0.994507, 369, 61, 496, 92
-0.99451, 289, 81, 416, 112
-0.994514, 1, 1, 16, 64
-0.994516, 405, 81, 420, 144
-0.994518, 369, 153, 496, 184
-0.994525, 305, 225, 432, 256
-0.994553, 203, 201, 218, 264
-0.994554, 101, 177, 116, 240
-0.99456, 37, 137, 52, 200
-0.994572, 353, 113, 480, 144
-0.994581, 61, 49, 76, 112
-0.994607, 51, 89, 66, 152
-0.994611, 161, 181, 288, 212
-0.994612, 17, 173, 144, 204
-0.994637, 133, 17, 148, 80
-0.994637, 207, 169, 222, 232
-0.994639, 175, 281, 190, 344
-0.994642, 129, 285, 256, 316
-0.994656, 177, 149, 304, 180
-0.994666, 349, 41, 364, 104
-0.994675, 33, 157, 160, 188
-0.994675, 95, 81, 110, 144
-0.994678, 225, 1, 352, 32
-0.994683, 245, 25, 260, 88
-0.994689, 305, 9, 432, 40
-0.99469, 257, 69, 384, 100
-0.994693, 245, 73, 260, 136
-0.994695, 209, 97, 336, 128
-0.994701, 45, 145, 60, 208
-0.994703, 255, 129, 270, 192
-0.994705, 97, 241, 352, 304
-0.994709, 185, 185, 200, 248
-0.994719, 7, 153, 22, 216
-0.994738, 239, 33, 254, 96
-0.99475, 33, 1, 64, 256
-0.994761, 163, 297, 178, 360
-0.994784, 49, 285, 176, 316
-0.994785, 89, 273, 104, 336
-0.994797, 17, 137, 32, 200
-0.994797, 115, 257, 130, 320
-0.994798, 193, 61, 320, 92
-0.99481, 113, 185, 240, 216
-0.994814, 97, 273, 224, 304
-0.994814, 97, 9, 224, 40
-0.994815, 181, 49, 196, 112
-0.994815, 209, 109, 336, 140
-0.994819, 13, 17, 28, 80
-0.994823, 289, 141, 416, 172
-0.994834, 441, 81, 456, 144
-0.994847, 5, 49, 20, 112
-0.994855, 59, 73, 74, 136
-0.994873, 51, 137, 66, 200
-0.994882, 81, 1, 96, 64
-0.994886, 335, 137, 350, 200
-0.994888, 77, 105, 92, 168
-0.994891, 347, 121, 362, 184
-0.994904, 401, 161, 416, 224
-0.994916, 353, 189, 480, 220
-0.994926, 241, 245, 368, 276
-0.994928, 131, 153, 146, 216
-0.994928, 207, 113, 222, 176
-0.994944, 345, 97, 376, 352
-0.994951, 1, 129, 16, 192
-0.994966, 65, 57, 192, 88
-0.994966, 97, 105, 352, 168
-0.994969, 335, 49, 350, 112
-0.994976, 161, 73, 288, 104
-0.994981, 53, 1, 68, 64
-0.994982, 111, 81, 126, 144
-0.994982, 323, 209, 338, 272
-0.994985, 479, 1, 494, 64
-0.994997, 349, 225, 364, 288
-0.995013, 129, 309, 256, 340
-0.995024, 289, 169, 416, 200
-0.995066, 97, 313, 352, 375
-0.995066, 193, 161, 320, 192
-0.995125, 1, 329, 128, 360
-0.995133, 193, 281, 448, 344
-0.995144, 289, 105, 416, 136
-0.995148, 1, 141, 128, 172
-0.995156, 145, 297, 272, 328
-0.995158, 193, 221, 320, 252
-0.995218, 305, 153, 432, 184
-0.995224, 21, 1, 52, 256
-0.995239, 125, 1, 156, 256
-0.995259, 77, 1, 108, 256
-0.995263, 289, 93, 416, 124
-0.995272, 45, 1, 76, 256
-0.995278, 361, 1, 392, 256
-0.995283, 1, 121, 128, 152
-0.995292, 113, 213, 240, 244
-0.995303, 105, 1, 136, 256
-0.995355, 289, 181, 416, 212
-0.995359, 401, 1, 432, 256
-0.995378, 17, 257, 144, 288
-0.995382, 241, 25, 368, 56
-0.995405, 177, 193, 304, 224
-0.995409, 113, 45, 240, 76
-0.995469, 241, 49, 368, 80
-0.995488, 353, 49, 480, 80
-0.995489, 1, 189, 128, 220
-0.995524, 81, 105, 208, 136
-0.99553, 93, 1, 124, 256
-0.995534, 129, 141, 256, 172
-0.995539, 369, 225, 496, 256
-0.995601, 161, 85, 288, 116
-0.995621, 145, 273, 272, 304
-0.995621, 77, 129, 108, 375
-0.995732, 65, 1, 96, 256
-0.995736, 97, 85, 224, 116
-0.995751, 241, 141, 368, 172
-0.995752, 49, 233, 176, 264
-0.995753, 425, 1, 456, 256
-0.995755, 1, 225, 128, 256
-0.995784, 201, 1, 232, 256
-0.995785, 57, 97, 88, 352
-0.995799, 333, 97, 364, 352
-0.995822, 1, 1, 32, 256
-0.995828, 25, 97, 56, 352
-0.995853, 241, 169, 368, 200
-0.995897, 377, 129, 408, 375
-0.995901, 305, 125, 432, 156
-0.995915, 337, 269, 464, 300
-0.995938, 49, 205, 176, 236
-0.995953, 337, 253, 464, 284
-0.995962, 49, 337, 176, 368
-0.995994, 193, 277, 320, 308
-0.995999, 145, 245, 272, 276
-0.996006, 381, 1, 412, 256
-0.996026, 225, 201, 352, 232
-0.996153, 209, 129, 336, 160
-0.996188, 233, 1, 264, 256
-0.996206, 1, 245, 128, 276
-0.996255, 81, 253, 208, 284
-0.996259, 129, 109, 256, 140
-0.99629, 193, 233, 320, 264
-0.996308, 1, 213, 128, 244
-0.996347, 289, 193, 416, 224
-0.996349, 273, 313, 400, 375
-0.996399, 129, 97, 256, 128
-0.996399, 449, 65, 480, 320
-0.996404, 225, 313, 352, 375
-0.996407, 241, 257, 368, 288
-0.996418, 213, 1, 244, 256
-0.996419, 413, 1, 444, 256
-0.996441, 341, 1, 372, 256
-0.996443, 129, 325, 256, 356
-0.996452, 49, 1, 176, 32
-0.996454, 389, 97, 420, 352
-0.996537, 101, 85, 116, 116
-0.996597, 231, 29, 246, 60
-0.996601, 205, 177, 220, 208
-0.996616, 437, 33, 468, 288
-0.996627, 13, 97, 44, 352
-0.996648, 247, 1, 262, 32
-0.996658, 41, 97, 72, 352
-0.996691, 113, 49, 128, 80
-0.996713, 137, 1, 168, 256
-0.996715, 407, 77, 422, 108
-0.996733, 47, 101, 62, 132
-0.99674, 261, 65, 292, 320
-0.996755, 109, 97, 140, 352
-0.996763, 403, 45, 418, 76
-0.996766, 329, 1, 360, 256
-0.996778, 197, 185, 212, 216
-0.996786, 241, 21, 256, 52
-0.9968, 413, 57, 428, 88
-0.996826, 403, 65, 418, 96
-0.996838, 153, 241, 168, 272
-0.996842, 111, 253, 126, 284
-0.996844, 283, 85, 298, 116
-0.996864, 11, 29, 26, 60
-0.996885, 391, 57, 406, 88
-0.99689, 225, 29, 240, 60
-0.996897, 189, 1, 220, 256
-0.996905, 65, 21, 80, 52
-0.996911, 131, 161, 146, 192
-0.996934, 105, 245, 120, 276
-0.996936, 415, 77, 430, 108
-0.996936, 101, 265, 116, 296
-0.996939, 187, 181, 202, 212
-0.996951, 107, 93, 122, 124
-0.996953, 401, 85, 416, 116
-0.996957, 101, 41, 116, 72
-0.996988, 241, 5, 256, 36
-0.996988, 397, 53, 412, 84
-0.996992, 235, 13, 250, 44
-0.997018, 409, 45, 424, 76
-0.997021, 107, 49, 122, 80
-0.997035, 245, 1, 276, 256
-0.997037, 329, 193, 344, 224
-0.99705, 219, 77, 234, 108
-0.997053, 361, 97, 392, 352
-0.997056, 251, 13, 266, 44
-0.997058, 195, 173, 210, 204
-0.997068, 79, 21, 94, 52
-0.99707, 39, 109, 54, 140
-0.997074, 73, 25, 88, 56
-0.997076, 397, 101, 412, 132
-0.997078, 385, 101, 400, 132
-0.997079, 449, 17, 464, 48
-0.997082, 193, 129, 224, 375
-0.997093, 89, 129, 120, 375
-0.9971, 317, 1, 348, 256
-0.997105, 237, 33, 252, 64
-0.997108, 415, 41, 430, 72
-0.997109, 391, 1, 406, 32
-0.997124, 237, 129, 268, 375
-0.997151, 393, 77, 408, 108
-0.997155, 111, 265, 126, 296
-0.997155, 191, 201, 206, 232
-0.997156, 75, 9, 90, 40
-0.997165, 205, 117, 220, 148
-0.997168, 387, 85, 402, 116
-0.997169, 91, 21, 106, 52
-0.997173, 251, 121, 266, 152
-0.997177, 57, 33, 72, 64
-0.997183, 215, 173, 230, 204
-0.997184, 101, 97, 116, 128
-0.997185, 51, 37, 66, 68
-0.997186, 351, 133, 366, 164
-0.997193, 43, 89, 58, 120
-0.997197, 27, 13, 42, 44
-0.997198, 117, 257, 132, 288
-0.997208, 95, 265, 110, 296
-0.997211, 109, 61, 124, 92
-0.997211, 41, 25, 56, 56
-0.997213, 313, 65, 328, 96
-0.99722, 383, 69, 398, 100
-0.997227, 197, 197, 212, 228
-0.997227, 127, 69, 142, 100
-0.997235, 201, 49, 216, 80
-0.997237, 83, 217, 98, 248
-0.997238, 381, 189, 396, 220
-0.997249, 221, 129, 252, 375
-0.99725, 33, 13, 48, 44
-0.997256, 47, 25, 62, 56
-0.997262, 391, 105, 406, 136
-0.997265, 377, 1, 392, 32
-0.997265, 107, 37, 122, 68
-0.997268, 87, 121, 102, 152
-0.997278, 205, 97, 236, 352
-0.997281, 321, 129, 352, 375
-0.997283, 243, 121, 258, 152
-0.997286, 99, 277, 114, 308
-0.997287, 389, 21, 404, 52
-0.997292, 181, 129, 212, 375
-0.997292, 211, 121, 226, 152
-0.997293, 207, 61, 222, 92
-0.997298, 391, 137, 406, 168
-0.997301, 205, 165, 220, 196
-0.997305, 213, 65, 228, 96
-0.997307, 95, 41, 110, 72
-0.99731, 219, 25, 234, 56
-0.997312, 421, 41, 436, 72
-0.997325, 211, 45, 226, 76
-0.997325, 257, 81, 272, 112
-0.997325, 325, 45, 340, 76
-0.997327, 205, 237, 220, 268
-0.997336, 227, 17, 242, 48
-0.997337, 1, 17, 16, 48
-0.997339, 201, 9, 216, 40
-0.997343, 345, 165, 360, 196
-0.997346, 335, 173, 350, 204
-0.997351, 125, 161, 140, 192
-0.997352, 179, 193, 194, 224
-0.997361, 247, 29, 262, 60
-0.997364, 103, 73, 118, 104
-0.997365, 151, 285, 166, 316
-0.997365, 119, 45, 134, 76
-0.99737, 57, 21, 72, 52
-0.997373, 381, 205, 396, 236
-0.997377, 21, 13, 36, 44
-0.99738, 99, 253, 114, 284
-0.99738, 153, 309, 168, 340
-0.99738, 5, 121, 20, 152
-0.997382, 311, 221, 326, 252
-0.997386, 351, 201, 366, 232
-0.997393, 331, 29, 346, 60
-0.997399, 341, 201, 356, 232
-0.9974, 133, 73, 148, 104
-0.997403, 407, 97, 422, 128
-0.997404, 1, 97, 32, 352
-0.997406, 9, 81, 24, 112
-0.997413, 275, 89, 290, 120
-0.997417, 3, 49, 18, 80
-0.997426, 243, 53, 258, 84
-0.997429, 399, 1, 414, 32
-0.997431, 63, 33, 78, 64
-0.997433, 301, 97, 332, 352
-0.997434, 325, 205, 340, 236
-0.997438, 207, 33, 222, 64
-0.99744, 105, 197, 120, 228
-0.997442, 343, 141, 358, 172
-0.997442, 397, 41, 412, 72
-0.997445, 85, 1, 100, 32
-0.997453, 249, 129, 280, 375
-0.997454, 117, 241, 132, 272
-0.997455, 71, 41, 86, 72
-0.997458, 381, 169, 396, 200
-0.997469, 257, 305, 500, 368
-0.997557, 401, 97, 432, 352
-0.997629, 461, 33, 492, 288
-0.997679, 273, 65, 304, 320
-0.997697, 125, 129, 156, 375
-0.997702, 145, 129, 176, 375
-0.997749, 161, 1, 192, 256
-0.997839, 149, 33, 180, 288
-0.997846, 305, 1, 336, 256
-0.997905, 429, 129, 460, 375
-0.99791, 173, 1, 204, 256
-0.998175, 417, 97, 448, 352
-0.998266, 69, 1, 84, 128
-0.998323, 289, 65, 320, 320
-0.99834, 49, 37, 112, 52
-0.998375, 251, 1, 266, 128
-0.998375, 397, 49, 412, 176
-0.998376, 81, 45, 144, 60
-0.998377, 81, 77, 144, 92
-0.998381, 345, 137, 408, 152
-0.998386, 337, 9, 400, 24
-0.998388, 73, 19, 136, 34
-0.998391, 377, 61, 440, 76
-0.998394, 25, 107, 88, 122
-0.998402, 25, 27, 88, 42
-0.998412, 41, 45, 104, 60
-0.998413, 185, 59, 248, 74
-0.998414, 97, 71, 160, 86
-0.998415, 49, 23, 112, 38
-0.998415, 63, 17, 78, 144
-0.998416, 201, 79, 264, 94
-0.998418, 121, 83, 184, 98
-0.998418, 369, 33, 432, 48
-0.998422, 89, 39, 152, 54
-0.998424, 377, 105, 440, 120
-0.998428, 321, 141, 384, 156
-0.998428, 1, 145, 64, 160
-0.998429, 433, 19, 496, 34
-0.99843, 193, 33, 256, 48
-0.998431, 17, 11, 80, 26
-0.998431, 1, 31, 64, 46
-0.998432, 145, 245, 208, 260
-0.998432, 201, 177, 264, 192
-0.998432, 345, 1, 360, 128
-0.998434, 49, 17, 112, 32
-0.998435, 177, 183, 240, 198
-0.998435, 217, 37, 280, 52
-0.998438, 393, 39, 456, 54
-0.998439, 193, 119, 256, 134
-0.99844, 57, 31, 120, 46
-0.998442, 185, 23, 248, 38
-0.998442, 57, 77, 120, 92
-0.998445, 209, 17, 272, 32
-0.998446, 377, 69, 440, 84
-0.998446, 125, 1, 140, 128
-0.998447, 217, 29, 280, 44
-0.998447, 161, 63, 224, 78
-0.998448, 289, 47, 352, 62
-0.998448, 145, 287, 208, 302
-0.99845, 329, 203, 392, 218
-0.99845, 81, 65, 144, 80
-0.998451, 201, 73, 264, 88
-0.998452, 185, 49, 248, 64
-0.998455, 89, 13, 152, 28
-0.998455, 105, 249, 168, 264
-0.998455, 57, 83, 120, 98
-0.998459, 1, 5, 64, 20
-0.998459, 17, 319, 80, 334
-0.99846, 161, 55, 224, 70
-0.99846, 377, 75, 440, 90
-0.998462, 17, 95, 80, 110
-0.998464, 353, 115, 416, 130
-0.998465, 461, 129, 492, 375
-0.998465, 41, 113, 104, 128
-0.998466, 177, 69, 240, 84
-0.998466, 169, 203, 232, 218
-0.998467, 337, 15, 400, 30
-0.998467, 265, 79, 328, 94
-0.99847, 225, 81, 288, 96
-0.998473, 249, 73, 312, 88
-0.998473, 41, 339, 104, 354
-0.998473, 97, 83, 160, 98
-0.998474, 241, 89, 304, 104
-0.998475, 409, 83, 472, 98
-0.998475, 9, 41, 72, 56
-0.998476, 57, 89, 120, 104
-0.998476, 73, 221, 136, 236
-0.998477, 239, 1, 254, 128
-0.998479, 257, 1, 272, 128
-0.998479, 73, 109, 136, 124
-0.998479, 81, 171, 144, 186
-0.998479, 329, 213, 392, 228
-0.99848, 79, 49, 94, 176
-0.99848, 209, 43, 272, 58
-0.998481, 169, 13, 232, 28
-0.998482, 89, 165, 152, 180
-0.998482, 345, 131, 408, 146
-0.998483, 105, 27, 168, 42
-0.998483, 257, 99, 320, 114
-0.998483, 193, 199, 256, 214
-0.998484, 113, 293, 176, 308
-0.998485, 209, 67, 272, 82
-0.998485, 393, 53, 456, 68
-0.998485, 41, 155, 104, 170
-0.998486, 81, 25, 144, 40
-0.998487, 129, 299, 192, 314
-0.998488, 57, 99, 120, 114
-0.998489, 41, 1, 104, 16
-0.998489, 25, 325, 88, 340
-0.99849, 41, 169, 104, 184
-0.99849, 233, 23, 296, 38
-0.998491, 217, 123, 280, 138
-0.998491, 369, 3, 432, 18
-0.998491, 393, 45, 456, 60
-0.998491, 233, 13, 296, 28
-0.998492, 57, 313, 120, 328
-0.998493, 377, 111, 440, 126
-0.998494, 1, 49, 64, 64
-0.998494, 209, 11, 272, 26
-0.998496, 105, 49, 168, 64
-0.998499, 393, 171, 456, 186
-0.9985, 265, 93, 328, 108
-0.9985, 145, 251, 208, 266
-0.998501, 25, 147, 88, 162
-0.998503, 403, 1, 418, 128
-0.998503, 377, 81, 440, 96
-0.998504, 161, 197, 224, 212
-0.998505, 217, 133, 280, 148
-0.998505, 229, 1, 244, 128
-0.998508, 185, 213, 248, 228
-0.998508, 161, 75, 224, 90
-0.998509, 113, 165, 176, 180
-0.998509, 393, 119, 456, 134
-0.998509, 393, 33, 456, 48
-0.998509, 353, 41, 416, 56
-0.998509, 81, 31, 144, 46
-0.99851, 219, 17, 234, 144
-0.998511, 321, 37, 384, 52
-0.998511, 161, 223, 224, 238
-0.998511, 177, 83, 240, 98
-0.998512, 369, 55, 432, 70
-0.998512, 161, 191, 224, 206
-0.998513, 17, 55, 80, 70
-0.998513, 401, 107, 464, 122
-0.998513, 361, 91, 424, 106
-0.998514, 377, 99, 440, 114
-0.998514, 129, 315, 192, 330
-0.998514, 281, 41, 344, 56
-0.998515, 217, 57, 280, 72
-0.998515, 57, 71, 120, 86
-0.998515, 177, 43, 240, 58
-0.998515, 425, 1, 488, 16
-0.998515, 105, 19, 168, 34
-0.998515, 25, 17, 88, 32
-0.998515, 49, 107, 112, 122
-0.998515, 25, 101, 88, 116
-0.998519, 49, 47, 80, 62
-0.998519, 397, 129, 412, 256
-0.99852, 409, 39, 440, 54
-0.99852, 25, 9, 56, 24
-0.99852, 205, 227, 236, 242
-0.998523, 85, 81, 116, 96
-0.998524, 37, 115, 68, 130
-0.998526, 385, 1, 416, 16
-0.998527, 53, 327, 84, 342
-0.998527, 341, 209, 372, 224
-0.998527, 413, 73, 444, 88
-0.998528, 5, 9, 36, 24
-0.99853, 137, 75, 168, 90
-0.99853, 1, 79, 32, 94
-0.998531, 453, 73, 484, 88
-0.998531, 181, 13, 212, 28
-0.998532, 213, 45, 244, 60
-0.998533, 269, 91, 300, 106
-0.998534, 205, 53, 236, 68
-0.998535, 237, 133, 268, 148
-0.998535, 425, 35, 456, 50
-0.998537, 125, 297, 156, 312
-0.998537, 381, 57, 412, 72
-0.99854, 193, 195, 224, 210
-0.998541, 109, 69, 140, 84
-0.998543, 389, 123, 420, 138
-0.998544, 257, 101, 288, 116
-0.998544, 93, 19, 124, 34
-0.998545, 385, 117, 416, 132
-0.998546, 333, 169, 364, 184
-0.998549, 197, 11, 228, 26
-0.998549, 33, 139, 64, 154
-0.99855, 49, 41, 80, 56
-0.99855, 233, 55, 264, 70
-0.998551, 233, 37, 264, 52
-0.998551, 397, 95, 428, 110
-0.998552, 317, 47, 348, 62
-0.998553, 213, 19, 244, 34
-0.998554, 269, 79, 300, 94
-0.998555, 101, 109, 132, 124
-0.998555, 193, 219, 224, 234
-0.998557, 185, 211, 216, 226
-0.998558, 189, 121, 220, 136
-0.998558, 317, 195, 348, 210
-0.998558, 25, 151, 56, 166
-0.998558, 385, 105, 416, 120
-0.998559, 185, 53, 216, 68
-0.998559, 201, 67, 232, 82
-0.998562, 369, 117, 400, 132
-0.998562, 99, 33, 114, 160
-0.998563, 75, 1, 90, 128
-0.998563, 33, 35, 64, 50
-0.998565, 133, 27, 164, 42
-0.998567, 297, 223, 328, 238
-0.998568, 217, 117, 248, 132
-0.998568, 5, 3, 36, 18
-0.998568, 129, 83, 160, 98
-0.998568, 141, 287, 172, 302
-0.998568, 349, 7, 380, 22
-0.998568, 209, 1, 224, 128
-0.998569, 107, 1, 122, 128
-0.998569, 117, 33, 132, 160
-0.998569, 97, 97, 128, 112
-0.99857, 245, 71, 276, 86
-0.998571, 269, 97, 300, 112
-0.998572, 363, 1, 378, 128
-0.998572, 21, 141, 52, 156
-0.998574, 361, 3, 392, 18
-0.998576, 313, 219, 344, 234
-0.998576, 373, 1, 404, 16
-0.998576, 321, 145, 352, 160
-0.998576, 89, 69, 120, 84
-0.998577, 89, 75, 120, 90
-0.998578, 245, 17, 276, 32
-0.998578, 73, 25, 104, 40
-0.998579, 225, 87, 256, 102
-0.998582, 333, 201, 364, 216
-0.998582, 125, 163, 156, 178
-0.998582, 1, 141, 32, 156
-0.998583, 249, 83, 280, 98
-0.998584, 1, 59, 32, 74
-0.998584, 385, 99, 416, 114
-0.998585, 397, 45, 428, 60
-0.998586, 405, 79, 436, 94
-0.998587, 397, 51, 428, 66
-0.998587, 49, 85, 80, 100
-0.998587, 273, 85, 304, 100
-0.998588, 89, 113, 104, 240
-0.998588, 225, 73, 256, 88
-0.998589, 185, 187, 216, 202
-0.998589, 105, 39, 136, 54
-0.99859, 61, 15, 92, 30
-0.99859, 109, 91, 140, 106
-0.99859, 201, 47, 232, 62
-0.998591, 385, 111, 416, 126
-0.998592, 389, 83, 420, 98
-0.998592, 93, 91, 124, 106
-0.998594, 97, 253, 128, 268
-0.998594, 201, 179, 232, 194
-0.998594, 377, 33, 408, 48
-0.998596, 193, 59, 224, 74
-0.998597, 209, 77, 240, 92
-0.998598, 69, 71, 100, 86
-0.998599, 113, 47, 144, 62
-0.9986, 391, 129, 406, 256
-0.998603, 329, 139, 360, 154
-0.998603, 153, 245, 184, 260
-0.998606, 21, 29, 52, 44
-0.998606, 241, 125, 272, 140
-0.998606, 209, 39, 240, 54
-0.998609, 381, 69, 412, 84
-0.998609, 81, 19, 112, 34
-0.99861, 393, 77, 424, 92
-0.998611, 213, 175, 244, 190
-0.998613, 391, 1, 406, 128
-0.998613, 397, 1, 428, 16
-0.998613, 225, 17, 256, 32
-0.998614, 417, 1, 432, 128
-0.998614, 401, 69, 432, 84
-0.998614, 179, 1, 194, 128
-0.998615, 139, 1, 154, 128
-0.998616, 245, 1, 260, 128
-0.998617, 237, 9, 268, 24
-0.99862, 205, 117, 236, 132
-0.998621, 393, 89, 424, 104
-0.998625, 105, 63, 136, 78
-0.99863, 37, 109, 68, 124
-0.99863, 339, 1, 354, 128
-0.998631, 45, 101, 76, 116
-0.998633, 69, 49, 84, 176
-0.998636, 209, 197, 240, 212
-0.998637, 237, 29, 268, 44
-0.998638, 357, 33, 372, 160
-0.998638, 41, 29, 72, 44
-0.998639, 397, 1, 412, 128
-0.99864, 237, 79, 268, 94
-0.998642, 233, 23, 264, 38
-0.998644, 385, 63, 416, 78
-0.998644, 221, 33, 252, 48
-0.998645, 321, 213, 352, 228
-0.998648, 337, 161, 352, 288
-0.99865, 61, 25, 92, 40
-0.998651, 405, 85, 436, 100
-0.998653, 131, 1, 146, 128
-0.998656, 401, 63, 432, 78
-0.998657, 341, 139, 372, 154
-0.998658, 193, 203, 224, 218
-0.998664, 9, 31, 40, 46
-0.998673, 9, 17, 24, 144
-0.998676, 409, 49, 424, 176
-0.998677, 103, 177, 118, 304
-0.998678, 393, 57, 424, 72
-0.998685, 57, 81, 72, 208
-0.998695, 57, 1, 72, 128
-0.998695, 241, 65, 256, 192
-0.998697, 369, 1, 384, 128
-0.998699, 359, 193, 374, 320
-0.998708, 93, 241, 108, 368
-0.998713, 403, 97, 418, 224
-0.998717, 351, 177, 366, 304
-0.998724, 237, 113, 252, 240
-0.998727, 93, 41, 124, 56
-0.99873, 81, 97, 96, 224
-0.998731, 81, 1, 96, 128
-0.998733, 387, 65, 402, 192
-0.998734, 351, 1, 366, 128
-0.998736, 41, 1, 56, 128
-0.998743, 29, 1, 44, 128
-0.998744, 383, 177, 398, 304
-0.998744, 165, 97, 196, 352
-0.998745, 91, 17, 106, 144
-0.998748, 229, 65, 244, 192
-0.998752, 51, 81, 66, 208
-0.998753, 445, 1, 460, 128
-0.998755, 201, 33, 216, 160
-0.998756, 169, 1, 184, 128
-0.998758, 195, 209, 210, 336
-0.998758, 109, 225, 124, 352
-0.99877, 145, 1, 160, 128
-0.99877, 89, 65, 104, 192
-0.998775, 409, 1, 424, 128
-0.998777, 199, 145, 214, 272
-0.998781, 151, 241, 166, 368
-0.998784, 111, 49, 126, 176
-0.998786, 45, 81, 60, 208
-0.998789, 435, 33, 450, 160
-0.99879, 15, 1, 30, 128
-0.998791, 89, 161, 104, 288
-0.998798, 383, 1, 398, 128
-0.998798, 63, 81, 78, 208
-0.998809, 329, 33, 344, 160
-0.99881, 403, 49, 418, 176
-0.998814, 265, 1, 280, 128
-0.998815, 117, 81, 132, 208
-0.998816, 401, 177, 416, 304
-0.998818, 97, 177, 112, 304
-0.998821, 425, 17, 440, 144
-0.998824, 471, 1, 486, 128
-0.998826, 159, 225, 174, 352
-0.998827, 101, 225, 116, 352
-0.998829, 105, 49, 120, 176
-0.998832, 445, 129, 460, 256
-0.998832, 451, 1, 466, 128
-0.998836, 123, 81, 138, 208
-0.998846, 377, 1, 392, 128
-0.998846, 5, 129, 20, 256
-0.99885, 193, 161, 208, 288
-0.998872, 391, 177, 406, 304
-0.998872, 329, 161, 344, 288
-0.998875, 247, 49, 262, 176
-0.998876, 465, 1, 480, 128
-0.998887, 51, 17, 66, 144
-0.99889, 451, 65, 466, 192
-0.998896, 343, 161, 358, 288
-0.998903, 323, 33, 338, 160
-0.998905, 97, 97, 112, 224
-0.998906, 349, 129, 364, 256
-0.998907, 1, 1, 16, 128
-0.998916, 171, 81, 186, 208
-0.998918, 333, 113, 348, 240
-0.998921, 445, 193, 460, 320
-0.998927, 385, 129, 400, 256
-0.998933, 457, 1, 472, 128
-0.998939, 201, 193, 216, 320
-0.99894, 35, 33, 50, 160
-0.99894, 335, 49, 350, 176
-0.998949, 219, 225, 234, 352
-0.998958, 63, 241, 78, 368
-0.998961, 367, 209, 382, 336
-0.998968, 115, 225, 130, 352
-0.998968, 145, 241, 160, 368
-0.998972, 345, 49, 360, 176
-0.998973, 351, 49, 366, 176
-0.998975, 261, 49, 276, 176
-0.998976, 283, 17, 298, 144
-0.998976, 477, 1, 492, 128
-0.998988, 357, 129, 372, 256
-0.998994, 23, 17, 38, 144
-0.998996, 15, 113, 30, 240
-0.998998, 33, 97, 48, 224
-0.999001, 83, 161, 98, 288
-0.999005, 193, 113, 208, 240
-0.999005, 377, 161, 392, 288
-0.999008, 131, 65, 146, 192
-0.999011, 363, 49, 378, 176
-0.999012, 323, 177, 338, 304
-0.999014, 441, 49, 456, 176
-0.999017, 5, 81, 20, 208
-0.999024, 123, 129, 138, 256
-0.99971, 387, 89, 402, 104
-0.99971, 115, 59, 130, 74
-0.99971, 227, 83, 242, 98
-0.99971, 57, 27, 72, 42
-0.99971, 399, 63, 414, 78
-0.999711, 167, 301, 182, 316
-0.999711, 133, 81, 148, 96
-0.999711, 215, 119, 230, 134
-0.999712, 99, 85, 114, 100
-0.999712, 207, 127, 222, 142
-0.999713, 197, 223, 212, 238
-0.999714, 335, 217, 350, 232
-0.999714, 247, 1, 262, 16
-0.999714, 235, 31, 250, 46
-0.999714, 67, 17, 82, 32
-0.999714, 403, 83, 418, 98
-0.999715, 427, 37, 442, 52
-0.999715, 163, 247, 178, 262
-0.999715, 389, 101, 404, 116
-0.999715, 211, 73, 226, 88
-0.999716, 57, 99, 72, 114
-0.999716, 411, 85, 426, 100
-0.999717, 111, 193, 126, 208
-0.999717, 23, 145, 38, 160
-0.999717, 319, 219, 334, 234
-0.999718, 125, 87, 140, 102
-0.999718, 395, 5, 410, 20
-0.999718, 389, 75, 404, 90
-0.99972, 27, 29, 42, 44
-0.999721, 89, 23, 104, 38
-0.999721, 33, 143, 48, 158
-0.999722, 389, 29, 404, 44
-0.999722, 195, 183, 210, 198
-0.999723, 333, 211, 348, 226
-0.999724, 271, 99, 286, 114
-0.999724, 9, 115, 24, 130
-0.999725, 413, 71, 428, 86
-0.999727, 321, 147, 336, 162
-0.999728, 233, 79, 248, 94
-0.999728, 51, 99, 66, 114
-0.99973, 207, 45, 222, 60
-0.999731, 383, 73, 398, 88
-0.999731, 205, 241, 220, 256
-0.999731, 103, 251, 118, 266
-0.999731, 235, 15, 250, 30
-0.999732, 195, 189, 210, 204
-0.999732, 93, 17, 108, 32
-0.999733, 65, 23, 80, 38
-0.999734, 111, 95, 126, 110
-0.999735, 217, 41, 232, 56
-0.999736, 213, 197, 228, 212
-0.999736, 15, 27, 30, 42
-0.999736, 251, 79, 266, 94
-0.999737, 35, 27, 50, 42
-0.999737, 389, 1, 404, 16
-0.999738, 321, 213, 336, 228
-0.999738, 403, 51, 418, 66
-0.999738, 351, 207, 366, 222
-0.999738, 85, 17, 100, 32
-0.999739, 45, 145, 60, 160
-0.99974, 69, 29, 84, 44
-0.99974, 219, 19, 234, 34
-0.999741, 387, 61, 402, 76
-0.999742, 341, 199, 356, 214
-0.999743, 331, 203, 346, 218
-0.999744, 203, 207, 218, 222
-0.999745, 329, 141, 344, 156
-0.999746, 395, 69, 410, 84
-0.999746, 75, 23, 90, 38
-0.999747, 115, 45, 130, 60
-0.999747, 309, 225, 324, 240
-0.999748, 59, 33, 74, 48
-0.999748, 255, 17, 270, 32
-0.999748, 101, 267, 116, 282
-0.999748, 235, 139, 250, 154
-0.999751, 229, 19, 244, 34
-0.999751, 11, 61, 26, 76
-0.999752, 223, 37, 238, 52
-0.999757, 413, 65, 428, 80
-0.999757, 111, 53, 126, 68
-0.999758, 359, 1, 374, 16
-0.999758, 277, 97, 292, 112
-0.99976, 347, 201, 362, 216
-0.999762, 103, 99, 118, 114
-0.999763, 229, 31, 244, 46
-0.999764, 391, 139, 406, 154
-0.999765, 105, 87, 120, 102
-0.999766, 9, 31, 24, 46
-0.999766, 339, 211, 354, 226
-0.999766, 219, 179, 234, 194
-0.999766, 95, 41, 110, 56
-0.999768, 403, 45, 418, 60
-0.999768, 205, 195, 220, 210
-0.999768, 199, 199, 214, 214
-0.999769, 409, 77, 424, 92
-0.99977, 411, 57, 426, 72
-0.999771, 105, 55, 120, 70
-0.999771, 111, 257, 126, 272
-0.999774, 247, 21, 262, 36
-0.999774, 385, 67, 400, 82
-0.999775, 129, 165, 144, 180
-0.999776, 37, 111, 52, 126
-0.999779, 109, 61, 124, 76
-0.99978, 285, 89, 300, 104
-0.999781, 247, 7, 262, 22
-0.999783, 405, 61, 420, 76
-0.999783, 327, 211, 342, 226
-0.999783, 403, 71, 418, 86
-0.999784, 207, 117, 222, 132
-0.999784, 343, 139, 358, 154
-0.999784, 201, 49, 216, 64
-0.999789, 47, 107, 62, 122
-0.999791, 201, 55, 216, 70
-0.999792, 239, 25, 254, 40
-0.999792, 183, 191, 198, 206
-0.999798, 411, 1, 426, 16
-0.999799, 245, 79, 260, 94
-0.9998, 401, 1, 416, 16
-0.999801, 349, 137, 364, 152
-0.999801, 189, 183, 204, 198
-0.999803, 397, 57, 412, 72
-0.999807, 207, 201, 222, 216
-0.999809, 109, 243, 124, 258
-0.99981, 151, 287, 166, 302
-0.99981, 209, 177, 224, 192
-0.999811, 397, 77, 412, 92
-0.999814, 219, 173, 234, 188
-0.99983, 101, 93, 116, 108
-0.999832, 201, 181, 216, 196
-0.999846, 155, 245, 170, 260
