1864
-0.300329, 1, 1, 500, 333
-0.35996, 1, 65, 500, 320
-0.456819, 193, 1, 448, 333
-0.549675, 97, 1, 352, 333
-0.617433, 193, 1, 448, 256
-0.639402, 1, 1, 256, 333
-0.663246, 65, 65, 320, 320
-0.869478, 225, 1, 352, 333
-0.870912, 273, 1, 400, 333
-0.873521, 353, 65, 480, 320
-0.882846, 305, 65, 432, 320
-0.88707, 1, 209, 500, 333
-0.888872, 193, 33, 320, 288
-0.89036, 1, 129, 500, 256
-0.890368, 1, 81, 500, 208
-0.890871, 129, 1, 256, 333
-0.891402, 337, 1, 464, 333
-0.892416, 65, 1, 192, 333
-0.893495, 145, 65, 272, 320
-0.89452, 177, 1, 304, 333
-0.900206, 1, 1, 128, 333
-0.902988, 65, 33, 192, 288
-0.90627, 257, 65, 384, 320
-0.912445, 17, 65, 144, 320
-0.916296, 1, 33, 500, 160
-0.928006, 161, 209, 416, 333
-0.928493, 193, 65, 448, 192
-0.930163, 33, 177, 288, 304
-0.935481, 161, 145, 416, 272
-0.938438, 257, 177, 500, 304
-0.941656, 1, 129, 256, 256
-0.94439, 33, 65, 288, 192
-0.948043, 257, 113, 500, 240
-0.949815, 313, 193, 376, 320
-0.952559, 113, 177, 240, 304
-0.953589, 65, 97, 192, 224
-0.954933, 185, 209, 248, 333
-0.955869, 65, 177, 192, 304
-0.955926, 193, 177, 320, 304
-0.956167, 289, 65, 416, 192
-0.956472, 337, 97, 464, 224
-0.956797, 121, 177, 184, 304
-0.956897, 305, 209, 432, 333
-0.957138, 145, 49, 272, 176
-0.957467, 241, 193, 368, 320
-0.957537, 1, 177, 128, 304
-0.95829, 433, 81, 496, 208
-0.95835, 369, 193, 432, 320
-0.95839, 161, 209, 224, 333
-0.958824, 241, 233, 304, 296
-0.95933, 409, 81, 472, 208
-0.959913, 17, 129, 144, 256
-0.960088, 337, 209, 400, 272
-0.960244, 409, 161, 472, 288
-0.960706, 113, 97, 240, 224
-0.961004, 209, 81, 336, 208
-0.961358, 353, 193, 480, 320
-0.961793, 385, 97, 448, 224
-0.96205, 345, 193, 408, 320
-0.962113, 153, 217, 216, 280
-0.962638, 329, 49, 392, 176
-0.963335, 161, 1, 416, 128
-0.963581, 433, 89, 496, 152
-0.963718, 201, 65, 264, 192
-0.963826, 65, 49, 192, 176
-0.963844, 289, 193, 352, 320
-0.964307, 257, 17, 500, 144
-0.964422, 169, 145, 232, 272
-0.964467, 33, 129, 96, 256
-0.964477, 177, 225, 240, 288
-0.964697, 369, 201, 432, 264
-0.964702, 65, 17, 320, 144
-0.964828, 305, 65, 368, 192
-0.96551, 345, 113, 408, 240
-0.965532, 305, 209, 368, 272
-0.965545, 145, 145, 208, 272
-0.965668, 273, 65, 336, 192
-0.965778, 233, 97, 296, 224
-0.965895, 193, 129, 320, 256
-0.96615, 297, 233, 360, 296
-0.966282, 305, 145, 368, 272
-0.966565, 265, 225, 328, 288
-0.966916, 209, 209, 272, 333
-0.966995, 337, 145, 464, 272
-0.967052, 289, 129, 416, 256
-0.967464, 329, 233, 392, 296
-0.967526, 425, 153, 488, 216
-0.967612, 273, 1, 400, 128
-0.967817, 409, 97, 472, 160
-0.968376, 129, 209, 192, 272
-0.968449, 233, 49, 296, 176
-0.968484, 265, 209, 328, 333
-0.968535, 89, 209, 152, 333
-0.968571, 201, 225, 264, 288
-0.968753, 129, 233, 192, 296
-0.968755, 353, 49, 480, 176
-0.968793, 433, 121, 496, 184
-0.968997, 353, 49, 416, 176
-0.969027, 193, 145, 256, 272
-0.969038, 81, 241, 144, 304
-0.969086, 57, 177, 120, 304
-0.969381, 1, 65, 128, 192
-0.969594, 41, 65, 104, 192
-0.969775, 209, 33, 336, 160
-0.969895, 73, 97, 136, 224
-0.969916, 177, 65, 240, 192
-0.9705, 105, 201, 168, 264
-0.970695, 417, 177, 480, 240
-0.970726, 145, 65, 208, 192
-0.97131, 329, 49, 392, 112
-0.971368, 353, 1, 480, 128
-0.971795, 105, 233, 168, 296
-0.972657, 97, 161, 160, 288
-0.972767, 217, 145, 280, 272
-0.972846, 129, 185, 192, 248
-0.973023, 353, 233, 416, 296
-0.973058, 113, 65, 176, 192
-0.973077, 337, 1, 400, 128
-0.973203, 361, 65, 424, 320
-0.973254, 241, 145, 368, 272
-0.973324, 233, 193, 296, 320
-0.973531, 129, 225, 256, 288
-0.973742, 177, 217, 208, 280
-0.97529, 145, 73, 208, 136
-0.975351, 393, 121, 456, 184
-0.975531, 17, 65, 80, 192
-0.975566, 33, 209, 96, 333
-0.975662, 401, 209, 464, 333
-0.976226, 337, 73, 400, 136
-0.976297, 377, 89, 440, 152
-0.976334, 201, 225, 232, 288
-0.97663, 193, 209, 224, 333
-0.976652, 153, 193, 216, 256
-0.976706, 385, 65, 448, 320
-0.976736, 49, 73, 112, 136
-0.976748, 425, 81, 456, 208
-0.976875, 57, 217, 120, 280
-0.976943, 33, 113, 96, 176
-0.977082, 265, 105, 328, 168
-0.977099, 329, 185, 392, 248
-0.977128, 189, 217, 220, 280
-0.9772, 297, 73, 360, 136
-0.977291, 341, 193, 372, 320
-0.977332, 217, 257, 280, 320
-0.97735, 105, 17, 168, 144
-0.977443, 153, 233, 184, 296
-0.977446, 249, 145, 312, 272
-0.977465, 1, 129, 64, 256
-0.977476, 433, 129, 496, 256
-0.977604, 385, 161, 448, 224
-0.977675, 81, 217, 144, 280
-0.977685, 169, 73, 232, 136
-0.977695, 193, 233, 320, 296
-0.977728, 113, 81, 176, 144
-0.977731, 425, 89, 456, 152
-0.977765, 177, 193, 240, 256
-0.977818, 169, 249, 232, 312
-0.977936, 393, 201, 456, 264
-0.977982, 337, 265, 400, 328
-0.977994, 81, 49, 144, 176
-0.977999, 313, 1, 376, 128
-0.978034, 281, 145, 344, 272
-0.978171, 325, 209, 356, 272
-0.978192, 233, 57, 296, 120
-0.978267, 305, 217, 336, 280
-0.978278, 273, 233, 304, 296
-0.97833, 297, 185, 360, 248
-0.978449, 329, 33, 392, 288
-0.97848, 361, 201, 392, 264
-0.978482, 265, 17, 328, 144
-0.978496, 413, 81, 444, 208
-0.978515, 129, 1, 256, 128
-0.97855, 241, 217, 368, 280
-0.978557, 257, 257, 320, 320
-0.978676, 245, 233, 276, 296
-0.978739, 1, 193, 64, 320
-0.978813, 385, 145, 448, 272
-0.978814, 65, 225, 192, 288
-0.978992, 225, 233, 256, 296
-0.979023, 409, 65, 472, 320
-0.979169, 465, 81, 496, 208
-0.97946, 289, 233, 416, 296
-0.979481, 33, 153, 96, 216
-0.979682, 305, 209, 336, 333
-0.979738, 249, 81, 312, 144
-0.979871, 33, 193, 96, 256
-0.979874, 353, 121, 416, 184
-0.979924, 437, 97, 468, 224
-0.979947, 273, 201, 336, 264
-0.979964, 305, 97, 368, 160
-0.979967, 225, 105, 288, 168
-0.980143, 373, 201, 404, 264
-0.980165, 345, 193, 376, 256
-0.980227, 89, 97, 152, 160
-0.980292, 193, 73, 256, 136
-0.98042, 413, 161, 444, 288
-0.980582, 65, 1, 192, 128
-0.980608, 193, 193, 320, 256
-0.980682, 185, 33, 248, 288
-0.980684, 385, 49, 448, 176
-0.980723, 337, 121, 464, 184
-0.980885, 129, 257, 192, 320
-0.981014, 225, 209, 288, 272
-0.981035, 177, 193, 208, 320
-0.981107, 113, 201, 240, 264
-0.981152, 273, 193, 400, 256
-0.981189, 273, 57, 400, 120
-0.981193, 161, 209, 192, 272
-0.981216, 65, 97, 128, 160
-0.981249, 105, 177, 168, 240
-0.981327, 393, 225, 456, 288
-0.98137, 165, 193, 196, 320
-0.981444, 337, 225, 464, 288
-0.981516, 425, 209, 488, 272
-0.981534, 33, 217, 96, 280
-0.981562, 337, 97, 464, 160
-0.981586, 65, 193, 128, 256
-0.981638, 433, 193, 496, 320
-0.981649, 153, 65, 216, 320
-0.981669, 329, 233, 360, 296
-0.981724, 145, 73, 272, 136
-0.981779, 349, 217, 380, 280
-0.981787, 353, 201, 480, 264
-0.981806, 385, 201, 416, 264
-0.98185, 433, 33, 496, 160
-0.981852, 289, 257, 352, 320
-0.98193, 329, 1, 392, 64
-0.982074, 257, 225, 288, 288
-0.982131, 385, 249, 448, 312
-0.982134, 105, 257, 168, 320
-0.982325, 201, 201, 264, 264
-0.982338, 89, 65, 152, 128
-0.982409, 213, 225, 244, 288
-0.982417, 453, 81, 484, 208
-0.982424, 153, 193, 184, 320
-0.982497, 285, 233, 316, 296
-0.982548, 369, 273, 432, 333
-0.982635, 305, 65, 368, 320
-0.982662, 273, 89, 400, 152
-0.982687, 105, 225, 136, 288
-0.982823, 193, 249, 256, 312
-0.982851, 217, 81, 280, 144
-0.982857, 353, 169, 416, 232
-0.982897, 17, 17, 144, 144
-0.982924, 145, 249, 272, 312
-0.982962, 385, 193, 416, 320
-0.98304, 433, 65, 496, 320
-0.983078, 369, 273, 496, 333
-0.983103, 353, 209, 384, 333
-0.983131, 89, 65, 152, 320
-0.983136, 409, 33, 472, 160
-0.983167, 197, 145, 228, 272
-0.983186, 125, 201, 156, 264
-0.983202, 325, 145, 356, 272
-0.983243, 193, 97, 320, 160
-0.983304, 133, 233, 164, 296
-0.983309, 273, 73, 336, 136
-0.983338, 213, 209, 244, 333
-0.983342, 321, 25, 384, 88
-0.983475, 417, 177, 448, 240
-0.983498, 57, 241, 120, 304
-0.983605, 329, 145, 392, 208
-0.983645, 9, 57, 72, 120
-0.983663, 129, 17, 192, 144
-0.983667, 129, 161, 192, 224
-0.98374, 225, 1, 288, 128
-0.983845, 17, 17, 80, 144
-0.98402, 209, 33, 272, 288
-0.984045, 153, 17, 216, 144
-0.98408, 209, 49, 336, 112
-0.984103, 97, 209, 128, 333
-0.984134, 433, 257, 496, 320
-0.984141, 17, 241, 144, 304
-0.984248, 297, 49, 360, 112
-0.984262, 289, 17, 352, 144
-0.984272, 205, 65, 236, 192
-0.98429, 113, 65, 176, 320
-0.98434, 241, 241, 368, 304
-0.984351, 325, 193, 356, 320
-0.984388, 65, 145, 96, 272
-0.984485, 81, 105, 208, 168
-0.984692, 353, 177, 480, 240
-0.984694, 445, 81, 476, 144
-0.984704, 149, 209, 180, 272
-0.98473, 265, 33, 328, 288
-0.984783, 349, 145, 380, 272
-0.9848, 129, 193, 160, 320
-0.984812, 49, 273, 112, 333
-0.984815, 237, 193, 268, 320
-0.984827, 329, 105, 392, 168
-0.984887, 293, 177, 324, 304
-0.984938, 413, 89, 444, 152
-0.984954, 49, 193, 176, 256
-0.984959, 169, 273, 232, 333
-0.985115, 469, 97, 500, 160
-0.985136, 185, 241, 216, 304
-0.98518, 433, 153, 464, 216
-0.985207, 65, 249, 192, 312
-0.985262, 305, 49, 336, 176
-0.985279, 341, 65, 372, 192
-0.985321, 185, 145, 216, 272
-0.985416, 273, 33, 400, 96
-0.985491, 289, 257, 416, 320
-0.985544, 257, 41, 320, 104
-0.985553, 141, 185, 172, 248
-0.985565, 177, 105, 240, 168
-0.985579, 85, 217, 116, 280
-0.98559, 361, 25, 424, 88
-0.985622, 401, 113, 432, 240
-0.985733, 9, 161, 72, 224
-0.98582, 225, 73, 352, 136
-0.985822, 193, 273, 256, 333
-0.985856, 81, 1, 144, 128
-0.985865, 57, 153, 120, 216
-0.985884, 65, 73, 192, 136
-0.985912, 145, 49, 208, 112
-0.985928, 217, 65, 248, 192
-0.985928, 373, 209, 404, 333
-0.985937, 353, 97, 416, 160
-0.98598, 397, 193, 428, 320
-0.985986, 201, 17, 264, 144
-0.986039, 65, 169, 192, 232
-0.986053, 225, 1, 288, 333
-0.986054, 353, 49, 384, 176
-0.986094, 321, 145, 448, 208
-0.986104, 169, 185, 200, 248
-0.986121, 321, 1, 384, 333
-0.986142, 285, 81, 316, 208
-0.986178, 113, 201, 144, 264
-0.986195, 333, 185, 364, 248
-0.986208, 369, 65, 432, 128
-0.986209, 441, 113, 472, 176
-0.986246, 181, 193, 212, 256
-0.986265, 9, 97, 72, 160
-0.986319, 1, 273, 64, 333
-0.98633, 1, 217, 128, 280
-0.986331, 345, 1, 408, 333
-0.986351, 233, 33, 296, 288
-0.986369, 33, 129, 64, 256
-0.986375, 189, 65, 220, 192
-0.986383, 49, 17, 112, 144
-0.986422, 153, 145, 216, 208
-0.986463, 353, 73, 480, 136
-0.986491, 169, 241, 200, 304
-0.98654, 145, 105, 208, 168
-0.98654, 73, 121, 136, 184
-0.986558, 297, 161, 360, 224
-0.98668, 1, 273, 128, 333
-0.986769, 365, 225, 396, 288
-0.986773, 353, 33, 480, 96
-0.986778, 429, 177, 460, 240
-0.986792, 49, 129, 80, 256
-0.986804, 313, 241, 344, 304
-0.986811, 185, 49, 248, 112
-0.986854, 141, 161, 172, 288
-0.986861, 25, 257, 88, 320
-0.986928, 277, 209, 308, 333
-0.986981, 249, 1, 312, 333
-0.986999, 65, 65, 96, 192
-0.987029, 113, 1, 176, 333
-0.987044, 1, 145, 128, 208
-0.987047, 313, 273, 376, 333
-0.987076, 185, 1, 248, 333
-0.987136, 369, 249, 496, 312
-0.987189, 209, 145, 240, 272
-0.987272, 433, 233, 496, 296
-0.987274, 273, 137, 400, 200
-0.987281, 89, 241, 120, 304
-0.987293, 381, 225, 412, 288
-0.987324, 289, 113, 416, 176
-0.987336, 65, 49, 192, 112
-0.987346, 305, 169, 432, 232
-0.987362, 285, 97, 316, 160
-0.987403, 429, 121, 460, 184
-0.987424, 245, 257, 276, 320
-0.987438, 229, 257, 260, 320
-0.98744, 361, 1, 424, 128
-0.987444, 197, 185, 228, 248
-0.987458, 253, 65, 284, 192
-0.987577, 361, 57, 392, 120
-0.987577, 305, 129, 336, 256
-0.987625, 273, 97, 304, 224
-0.987701, 97, 113, 160, 240
-0.987733, 213, 249, 244, 312
-0.987779, 41, 49, 104, 112
-0.987812, 1, 177, 128, 240
-0.987823, 273, 9, 400, 72
-0.9879, 209, 49, 272, 112
-0.98791, 453, 113, 484, 176
-0.987944, 237, 97, 268, 224
-0.987948, 465, 121, 496, 184
-0.988011, 201, 105, 264, 168
-0.988011, 353, 145, 416, 208
-0.988058, 49, 193, 80, 256
-0.988058, 229, 145, 260, 272
-0.988073, 297, 73, 328, 136
-0.988074, 365, 65, 396, 192
-0.988115, 49, 137, 176, 200
-0.988125, 257, 209, 288, 333
-0.988129, 81, 65, 112, 192
-0.988144, 237, 49, 268, 176
-0.988176, 77, 177, 108, 304
-0.98819, 121, 57, 184, 120
-0.988216, 317, 73, 348, 136
-0.988308, 1, 33, 64, 96
-0.988336, 397, 201, 428, 264
-0.988388, 165, 65, 196, 192
-0.988388, 177, 65, 208, 192
-0.988401, 289, 209, 320, 272
-0.988402, 433, 1, 496, 333
-0.988426, 297, 1, 360, 333
-0.988446, 113, 177, 240, 240
-0.988448, 61, 161, 92, 224
-0.988451, 117, 225, 148, 288
-0.988457, 153, 1, 216, 333
-0.988493, 1, 233, 64, 296
-0.98851, 273, 49, 304, 176
-0.988575, 369, 145, 496, 208
-0.988592, 301, 241, 332, 304
-0.988607, 417, 129, 448, 192
-0.988641, 145, 49, 272, 112
-0.988649, 425, 161, 456, 288
-0.988683, 109, 209, 140, 333
-0.988704, 365, 113, 396, 176
-0.988722, 81, 41, 144, 104
-0.988758, 249, 193, 312, 256
-0.988792, 17, 65, 144, 128
-0.988831, 145, 273, 272, 333
-0.988862, 337, 145, 368, 272
-0.988892, 409, 1, 472, 333
-0.988918, 273, 209, 304, 272
-0.988918, 49, 1, 112, 333
-0.988934, 173, 145, 204, 272
-0.988951, 449, 153, 480, 216
-0.988963, 449, 129, 480, 256
-0.988974, 1, 97, 128, 160
-0.988974, 193, 265, 320, 328
-0.989027, 81, 273, 208, 333
-0.989082, 1, 33, 128, 96
-0.989087, 329, 65, 360, 192
-0.989156, 261, 105, 292, 168
-0.989164, 305, 137, 368, 200
-0.989193, 353, 169, 384, 232
-0.989202, 117, 265, 148, 328
-0.989204, 157, 73, 188, 136
-0.989231, 89, 1, 152, 333
-0.989293, 369, 89, 400, 152
-0.98931, 225, 73, 256, 136
-0.989338, 57, 33, 120, 288
-0.989346, 273, 1, 336, 333
-0.989376, 93, 97, 124, 160
-0.989378, 73, 73, 104, 136
-0.989381, 233, 137, 296, 200
-0.989393, 281, 25, 344, 88
-0.989405, 329, 73, 360, 136
-0.989433, 209, 25, 272, 88
-0.989471, 465, 129, 496, 256
-0.989477, 397, 169, 428, 232
-0.989499, 45, 65, 76, 192
-0.989512, 137, 209, 168, 272
-0.989541, 145, 97, 272, 160
-0.98961, 241, 113, 368, 176
-0.989614, 225, 209, 256, 333
-0.98964, 317, 49, 348, 176
-0.989647, 205, 65, 236, 128
-0.989709, 285, 257, 316, 320
-0.989712, 1, 121, 128, 184
-0.989724, 77, 241, 108, 304
-0.989731, 249, 161, 312, 224
-0.989753, 137, 65, 168, 192
-0.989821, 241, 265, 368, 328
-0.989842, 373, 273, 404, 333
-0.989866, 153, 217, 216, 248
-0.989869, 437, 145, 468, 272
-0.989898, 257, 237, 320, 268
-0.989956, 237, 57, 268, 120
-0.98997, 105, 249, 136, 312
-0.990001, 417, 169, 480, 200
-0.990042, 201, 145, 264, 208
-0.990054, 349, 1, 380, 128
-0.990064, 385, 1, 448, 333
-0.990074, 273, 145, 336, 208
-0.990082, 33, 217, 288, 280
-0.990084, 225, 161, 352, 224
-0.990106, 409, 209, 440, 333
-0.990138, 233, 209, 264, 272
-0.990157, 465, 177, 496, 240
-0.990168, 293, 17, 324, 144
-0.990179, 177, 221, 240, 252
-0.990209, 145, 145, 272, 208
-0.990217, 277, 73, 308, 136
-0.990221, 137, 81, 168, 144
-0.990234, 297, 97, 328, 160
-0.990251, 225, 229, 288, 260
-0.990276, 193, 237, 256, 268
-0.99031, 433, 97, 496, 128
-0.990311, 81, 265, 144, 328
-0.990312, 369, 213, 432, 244
-0.990334, 225, 25, 352, 88
-0.990336, 337, 225, 400, 256
-0.990339, 9, 121, 72, 184
-0.990341, 197, 249, 228, 312
-0.990344, 105, 225, 168, 256
-0.990349, 285, 129, 316, 256
-0.990356, 417, 153, 448, 216
-0.99037, 9, 1, 72, 256
-0.990395, 121, 105, 184, 168
-0.990432, 373, 113, 404, 240
-0.99051, 233, 249, 296, 280
-0.99054, 373, 169, 404, 232
-0.990548, 201, 225, 264, 256
-0.990566, 33, 33, 96, 288
-0.990576, 461, 241, 492, 304
-0.990598, 305, 193, 336, 256
-0.990604, 153, 237, 216, 268
-0.990604, 137, 17, 168, 144
-0.990607, 249, 105, 280, 168
-0.990612, 385, 113, 416, 240
-0.990624, 417, 189, 480, 220
-0.99063, 337, 213, 400, 244
-0.99064, 257, 257, 288, 320
-0.990652, 65, 225, 96, 288
-0.990669, 257, 253, 320, 284
-0.990671, 129, 121, 256, 184
-0.990679, 325, 161, 356, 224
-0.990688, 233, 1, 296, 64
-0.990739, 73, 237, 136, 268
-0.990753, 213, 201, 244, 264
-0.990777, 37, 153, 68, 216
-0.9908, 281, 233, 344, 264
-0.990846, 257, 17, 320, 80
-0.990852, 9, 193, 72, 256
-0.990863, 369, 201, 432, 232
-0.990871, 149, 65, 180, 192
-0.990887, 349, 145, 380, 208
-0.99091, 425, 153, 488, 184
-0.990915, 413, 201, 444, 264
-0.990917, 49, 25, 112, 88
-0.990946, 129, 221, 192, 252
-0.990952, 93, 81, 124, 208
-0.990959, 77, 273, 108, 333
-0.990964, 297, 89, 360, 120
-0.990979, 257, 225, 320, 256
-0.990989, 393, 201, 456, 232
-0.990991, 305, 213, 368, 244
-0.990992, 157, 145, 188, 272
-0.991014, 129, 237, 192, 268
-0.991062, 369, 225, 432, 256
-0.991066, 329, 197, 392, 228
-0.991069, 345, 241, 376, 304
-0.991074, 141, 209, 172, 333
-0.991081, 81, 113, 112, 240
-0.991085, 137, 257, 168, 320
-0.991096, 105, 153, 168, 216
-0.991109, 105, 89, 168, 120
-0.991119, 273, 93, 336, 124
-0.991135, 173, 73, 204, 136
-0.991148, 385, 249, 416, 312
-0.991157, 97, 237, 160, 268
-0.991192, 401, 105, 464, 136
-0.991207, 425, 109, 488, 140
-0.991232, 193, 217, 448, 280
-0.991259, 249, 201, 280, 264
-0.991262, 129, 249, 192, 280
-0.991271, 305, 193, 368, 224
-0.991279, 185, 293, 248, 324
-0.991285, 233, 33, 296, 96
-0.9913, 61, 209, 92, 333
-0.991303, 145, 205, 208, 236
-0.99131, 337, 77, 400, 108
-0.991324, 433, 121, 496, 152
-0.991335, 5, 49, 36, 176
-0.991373, 113, 209, 176, 240
-0.99138, 449, 257, 480, 320
-0.991408, 193, 121, 320, 184
-0.991437, 161, 297, 224, 328
-0.991457, 81, 225, 144, 256
-0.991466, 137, 161, 168, 224
-0.991497, 25, 81, 56, 208
-0.991514, 365, 249, 396, 312
-0.991527, 33, 161, 96, 192
-0.99157, 161, 253, 224, 284
-0.991575, 209, 249, 272, 280
-0.991581, 21, 129, 52, 256
-0.991583, 33, 141, 96, 172
-0.9916, 129, 185, 192, 216
-0.991605, 305, 233, 368, 264
-0.991612, 361, 113, 392, 240
-0.991614, 381, 89, 412, 152
-0.991626, 421, 209, 452, 333
-0.99163, 281, 257, 344, 288
-0.991637, 385, 161, 448, 192
-0.991655, 329, 49, 360, 112
-0.991659, 37, 65, 68, 128
-0.991664, 409, 93, 472, 124
-0.991668, 73, 209, 136, 240
-0.991674, 89, 297, 152, 328
-0.991711, 393, 181, 456, 212
-0.991713, 49, 225, 112, 256
-0.991715, 401, 117, 464, 148
-0.991729, 349, 49, 380, 112
-0.991749, 361, 1, 392, 128
-0.99177, 41, 121, 104, 152
-0.991771, 177, 209, 240, 240
-0.991773, 265, 105, 328, 136
-0.991796, 45, 193, 76, 320
-0.991811, 433, 137, 496, 168
-0.991823, 33, 193, 288, 256
-0.991827, 177, 129, 240, 192
-0.991835, 157, 185, 188, 248
-0.991841, 353, 9, 480, 72
-0.991843, 145, 73, 208, 104
-0.991843, 289, 245, 352, 276
-0.991851, 113, 197, 176, 228
-0.99186, 33, 189, 96, 220
-0.991867, 113, 173, 176, 204
-0.991887, 461, 153, 492, 216
-0.991902, 177, 17, 240, 144
-0.991909, 393, 233, 456, 264
-0.991925, 409, 265, 472, 328
-0.991955, 281, 221, 344, 252
-0.991957, 329, 65, 392, 96
-0.991984, 1, 233, 500, 296
-0.991997, 25, 177, 88, 208
-0.992012, 169, 185, 232, 216
-0.99202, 49, 97, 112, 128
-0.992033, 297, 77, 360, 108
-0.992038, 353, 237, 416, 268
-0.992054, 113, 101, 176, 132
-0.992061, 201, 213, 264, 244
-0.992065, 385, 269, 448, 300
-0.992067, 81, 97, 144, 128
-0.992072, 337, 89, 400, 120
-0.992078, 225, 217, 288, 248
-0.992079, 377, 93, 440, 124
-0.99209, 137, 297, 200, 328
-0.99211, 161, 285, 224, 316
-0.99212, 433, 85, 496, 116
-0.992125, 305, 101, 368, 132
-0.992131, 185, 249, 248, 280
-0.992173, 233, 89, 296, 120
-0.992183, 177, 25, 304, 88
-0.992184, 329, 237, 392, 268
-0.992185, 73, 137, 136, 168
-0.992186, 273, 105, 304, 168
-0.99219, 233, 101, 296, 132
-0.992197, 57, 181, 120, 212
-0.992197, 425, 201, 488, 232
-0.992202, 65, 297, 128, 328
-0.992215, 49, 209, 112, 240
-0.992218, 409, 129, 472, 160
-0.992225, 321, 49, 384, 80
-0.992227, 321, 145, 384, 176
-0.992229, 369, 253, 432, 284
-0.992234, 425, 253, 488, 284
-0.99224, 321, 185, 352, 248
-0.992251, 425, 33, 456, 160
-0.992254, 89, 77, 152, 108
-0.992279, 41, 97, 72, 160
-0.992283, 105, 253, 168, 284
-0.992283, 49, 285, 112, 316
-0.992284, 365, 217, 396, 248
-0.992287, 49, 169, 80, 232
-0.992294, 377, 65, 408, 192
-0.992299, 9, 157, 72, 188
-0.992322, 49, 73, 112, 104
-0.992333, 1, 293, 64, 324
-0.99235, 273, 73, 336, 104
-0.992364, 105, 281, 168, 312
-0.992364, 225, 261, 288, 292
-0.992375, 73, 109, 136, 140
-0.992375, 153, 229, 184, 260
-0.992382, 345, 269, 408, 300
-0.992392, 417, 173, 448, 204
-0.992408, 225, 297, 288, 328
-0.992409, 405, 121, 436, 184
-0.992411, 177, 217, 208, 248
-0.992411, 49, 109, 112, 140
-0.992421, 145, 97, 208, 128
-0.992423, 89, 197, 152, 228
-0.992426, 345, 249, 408, 280
-0.992426, 365, 161, 396, 288
-0.992426, 25, 289, 88, 320
-0.992428, 193, 193, 448, 256
-0.992454, 393, 245, 456, 276
-0.99246, 409, 141, 472, 172
-0.99246, 265, 37, 328, 68
-0.992461, 249, 145, 280, 272
-0.992462, 409, 301, 472, 332
-0.992468, 137, 165, 200, 196
-0.992478, 217, 65, 280, 96
-0.992478, 349, 73, 380, 136
-0.992483, 49, 237, 112, 268
-0.99249, 177, 233, 208, 264
-0.992495, 341, 265, 372, 328
-0.992497, 361, 49, 424, 80
-0.992499, 369, 281, 432, 312
-0.992505, 25, 217, 88, 248
-0.992506, 305, 257, 368, 288
-0.992511, 57, 149, 120, 180
-0.992525, 425, 233, 488, 264
-0.992528, 353, 121, 416, 152
-0.99253, 41, 273, 104, 304
-0.99254, 469, 177, 500, 304
-0.992552, 345, 105, 376, 168
-0.992557, 437, 49, 468, 176
-0.992564, 57, 65, 88, 128
-0.992572, 421, 161, 452, 192
-0.992574, 257, 241, 288, 272
-0.992589, 193, 241, 448, 304
-0.992589, 277, 237, 308, 268
-0.992598, 249, 65, 280, 128
-0.992613, 349, 217, 380, 248
-0.992625, 237, 241, 268, 272
-0.992626, 161, 209, 192, 240
-0.992641, 65, 25, 192, 88
-0.992647, 141, 233, 172, 264
-0.992664, 425, 93, 456, 124
-0.992664, 197, 233, 228, 264
-0.992671, 189, 213, 220, 244
-0.992671, 305, 229, 336, 260
-0.992674, 461, 201, 492, 264
-0.992701, 141, 221, 172, 252
-0.992703, 305, 217, 336, 248
-0.992714, 109, 221, 140, 252
-0.992716, 129, 233, 160, 264
-0.992724, 437, 233, 468, 296
-0.992734, 225, 73, 480, 136
-0.992737, 9, 97, 40, 224
-0.992739, 377, 121, 408, 184
-0.992744, 217, 229, 248, 260
-0.992746, 109, 233, 140, 264
-0.992748, 265, 229, 296, 260
-0.992749, 165, 233, 196, 264
-0.99275, 89, 225, 120, 256
-0.992756, 373, 229, 404, 260
-0.992765, 377, 217, 408, 248
-0.992772, 385, 205, 416, 236
-0.992773, 325, 221, 356, 252
-0.9928, 137, 89, 168, 120
-0.992801, 237, 229, 268, 260
-0.992823, 345, 205, 376, 236
-0.99283, 153, 241, 184, 272
-0.992844, 365, 205, 396, 236
-0.992861, 161, 105, 416, 168
-0.992863, 97, 237, 128, 268
-0.992867, 433, 153, 464, 184
-0.992878, 305, 245, 336, 276
-0.992891, 429, 173, 460, 204
-0.992892, 141, 209, 172, 240
-0.992897, 121, 221, 152, 252
-0.9929, 401, 205, 432, 236
-0.992903, 401, 65, 432, 192
-0.99291, 225, 245, 256, 276
-0.992912, 289, 225, 320, 256
-0.992914, 329, 1, 360, 128
-0.992919, 241, 253, 272, 284
-0.99292, 469, 153, 500, 184
-0.992921, 201, 221, 232, 252
-0.992923, 285, 253, 316, 284
-0.992925, 449, 177, 480, 240
-0.99293, 185, 73, 216, 136
-0.992931, 129, 245, 160, 276
-0.992944, 169, 245, 200, 276
-0.992945, 469, 93, 500, 124
-0.992952, 337, 193, 368, 224
-0.992954, 161, 1, 288, 64
-0.992959, 465, 109, 496, 140
-0.99296, 125, 201, 156, 232
-0.992962, 469, 189, 500, 220
-0.992965, 181, 249, 212, 280
-0.992987, 333, 245, 364, 276
-0.992989, 413, 97, 444, 128
-0.993, 149, 257, 180, 320
-0.993003, 253, 229, 284, 260
-0.993011, 81, 237, 112, 268
-0.993014, 417, 193, 448, 224
-0.993015, 445, 145, 476, 176
-0.993022, 437, 105, 468, 136
-0.993023, 141, 197, 172, 228
-0.993031, 141, 249, 172, 280
-0.993035, 413, 113, 444, 144
-0.993041, 197, 245, 228, 276
-0.993042, 333, 233, 364, 264
-0.993042, 405, 189, 436, 220
-0.993043, 317, 209, 348, 240
-0.993044, 77, 225, 108, 256
-0.993045, 441, 165, 472, 196
-0.993046, 257, 253, 288, 284
-0.993064, 425, 113, 456, 144
-0.993066, 393, 217, 424, 248
-0.99307, 277, 225, 308, 256
-0.993074, 293, 101, 324, 132
-0.993093, 197, 297, 228, 328
-0.993093, 337, 217, 368, 248
-0.993097, 165, 221, 196, 252
-0.993099, 357, 229, 388, 260
-0.993099, 453, 157, 484, 188
-0.993102, 93, 97, 124, 128
-0.993106, 413, 205, 444, 236
-0.993119, 325, 197, 356, 228
-0.993119, 289, 241, 320, 272
-0.993125, 385, 229, 416, 260
-0.99314, 269, 253, 300, 284
-0.993142, 113, 89, 144, 120
-0.993142, 277, 97, 308, 128
-0.993143, 97, 213, 128, 244
-0.993144, 453, 173, 484, 204
-0.99316, 345, 229, 376, 260
-0.993168, 197, 285, 228, 316
-0.993169, 317, 241, 348, 272
-0.993173, 177, 205, 208, 236
-0.99318, 461, 141, 492, 172
-0.993182, 305, 93, 336, 124
-0.993182, 173, 193, 204, 224
-0.993183, 49, 197, 80, 228
-0.993185, 113, 25, 240, 88
-0.993189, 61, 149, 92, 180
-0.993191, 65, 161, 96, 192
-0.993193, 449, 97, 480, 128
-0.993194, 205, 209, 236, 240
-0.993197, 449, 85, 480, 116
-0.993197, 469, 233, 500, 264
-0.993205, 353, 193, 384, 224
-0.99321, 445, 117, 476, 148
-0.993212, 377, 241, 408, 272
-0.993213, 209, 241, 240, 272
-0.993216, 217, 285, 248, 316
-0.993225, 453, 129, 484, 160
-0.993225, 401, 177, 432, 208
-0.993227, 137, 165, 168, 196
-0.993231, 29, 157, 60, 188
-0.993243, 61, 181, 92, 212
-0.993246, 381, 193, 412, 224
-0.993248, 185, 297, 216, 328
-0.99325, 461, 201, 492, 232
-0.99325, 465, 301, 496, 332
-0.993251, 49, 149, 80, 180
-0.993253, 469, 125, 500, 156
-0.993259, 157, 77, 188, 108
-0.99326, 437, 185, 468, 216
-0.993261, 333, 93, 364, 124
-0.993266, 233, 217, 264, 248
-0.993271, 429, 125, 460, 156
-0.993273, 365, 73, 396, 104
-0.993273, 357, 101, 388, 132
-0.993278, 161, 257, 192, 288
-0.993285, 113, 205, 144, 236
-0.993403, 265, 145, 296, 272
-0.993416, 65, 73, 320, 136
-0.993428, 9, 1, 72, 333
-0.993554, 129, 145, 160, 272
-0.993575, 209, 1, 336, 64
-0.993578, 457, 177, 488, 304
-0.99371, 191, 209, 206, 272
-0.993711, 1, 241, 256, 304
-0.993712, 93, 161, 124, 288
-0.993791, 129, 241, 256, 272
-0.993822, 217, 1, 248, 128
-0.993931, 93, 33, 124, 160
-0.993934, 129, 229, 256, 260
-0.994049, 121, 97, 152, 224
-0.994074, 65, 113, 320, 176
-0.994158, 313, 1, 344, 128
-0.99417, 73, 17, 104, 144
-0.994234, 25, 177, 56, 304
-0.994312, 193, 41, 448, 104
-0.994375, 257, 145, 500, 208
-0.994394, 1, 193, 500, 256
-0.994422, 257, 1, 288, 128
-0.994524, 121, 129, 184, 256
-0.994553, 375, 201, 390, 264
-0.994592, 49, 17, 80, 144
-0.994617, 257, 229, 384, 260
-0.994649, 237, 1, 268, 128
-0.994649, 157, 17, 188, 144
-0.994691, 449, 33, 480, 160
-0.994705, 257, 97, 500, 160
-0.994765, 33, 137, 288, 200
-0.994784, 269, 233, 284, 296
-0.994785, 1, 105, 500, 168
-0.994785, 347, 185, 362, 248
-0.994802, 81, 237, 208, 268
-0.994803, 193, 273, 448, 333
-0.994814, 177, 217, 192, 280
-0.994836, 305, 229, 432, 260
-0.994852, 1, 9, 128, 72
-0.994891, 169, 233, 184, 296
-0.994902, 129, 217, 256, 248
-0.994912, 1, 137, 500, 200
-0.994913, 193, 229, 320, 260
-0.994931, 197, 217, 212, 280
-0.994931, 165, 209, 180, 272
-0.994968, 257, 121, 500, 184
-0.994988, 367, 209, 382, 272
-0.995104, 391, 201, 406, 264
-0.995114, 427, 89, 442, 152
-0.995152, 257, 169, 500, 232
-0.99518, 343, 225, 358, 288
-0.995204, 17, 33, 48, 160
-0.995217, 273, 217, 400, 248
-0.995236, 283, 233, 298, 296
-0.99524, 293, 225, 308, 288
-0.995272, 231, 233, 246, 296
-0.995287, 183, 217, 198, 280
-0.995288, 113, 145, 144, 272
-0.995306, 97, 241, 352, 304
-0.995399, 353, 209, 368, 272
-0.995417, 65, 225, 192, 256
-0.995427, 431, 177, 446, 240
-0.995454, 277, 233, 292, 296
-0.995455, 177, 169, 304, 232
-0.995477, 203, 225, 218, 288
-0.995505, 1, 81, 500, 144
-0.99551, 389, 65, 420, 192
-0.995555, 137, 241, 152, 304
-0.995575, 443, 89, 458, 152
-0.995592, 137, 201, 152, 264
-0.995613, 381, 217, 396, 280
-0.995624, 1, 161, 256, 224
-0.995634, 307, 217, 322, 280
-0.995646, 369, 237, 496, 268
-0.995659, 129, 209, 144, 272
-0.995671, 157, 217, 172, 280
-0.995683, 177, 241, 304, 272
-0.9957, 65, 1, 192, 64
-0.995752, 477, 89, 492, 152
-0.995755, 305, 241, 432, 272
-0.995769, 445, 193, 476, 320
-0.995775, 91, 225, 106, 288
-0.995784, 109, 49, 140, 176
-0.995785, 1, 49, 500, 112
-0.995786, 261, 233, 276, 296
-0.995798, 435, 97, 450, 160
-0.9958, 381, 241, 396, 304
-0.995811, 341, 201, 356, 264
-0.995821, 99, 249, 114, 312
-0.995829, 249, 233, 264, 296
-0.995851, 319, 209, 334, 272
-0.995853, 81, 249, 208, 280
-0.995874, 49, 213, 176, 244
-0.995886, 373, 17, 404, 144
-0.995903, 1, 161, 500, 224
-0.995921, 1, 265, 500, 328
-0.99593, 177, 213, 304, 244
-0.995937, 145, 113, 176, 240
-0.995942, 97, 273, 352, 333
-0.995956, 337, 241, 352, 304
-0.995968, 273, 93, 400, 124
-0.996021, 193, 9, 448, 72
-0.996046, 147, 233, 162, 296
-0.996085, 97, 205, 224, 236
-0.996101, 107, 233, 122, 296
-0.996106, 97, 145, 224, 208
-0.996143, 437, 153, 452, 216
-0.996155, 145, 253, 272, 284
-0.996161, 449, 81, 464, 144
-0.996174, 219, 225, 234, 288
-0.996194, 177, 17, 208, 144
-0.996199, 353, 217, 480, 248
-0.996225, 243, 249, 258, 312
-0.996243, 117, 225, 132, 288
-0.996252, 171, 209, 186, 272
-0.996267, 225, 217, 352, 248
-0.996275, 109, 97, 140, 224
-0.996277, 419, 185, 434, 248
-0.996279, 131, 233, 146, 296
-0.996283, 179, 241, 194, 304
-0.996283, 33, 33, 64, 160
-0.996288, 201, 17, 232, 144
-0.996292, 289, 77, 416, 108
-0.996293, 359, 225, 374, 288
-0.996302, 369, 201, 496, 232
-0.996308, 413, 65, 444, 320
-0.996316, 211, 233, 226, 296
-0.996324, 33, 245, 160, 276
-0.996346, 427, 153, 442, 216
-0.99636, 255, 233, 270, 296
-0.996381, 185, 249, 200, 312
-0.996391, 273, 53, 400, 84
-0.996405, 99, 217, 114, 280
-0.996433, 241, 241, 368, 272
-0.996434, 471, 97, 486, 160
-0.996449, 431, 121, 446, 184
-0.996455, 483, 89, 498, 152
-0.996459, 375, 233, 390, 296
-0.996478, 299, 225, 314, 288
-0.996498, 457, 121, 472, 184
-0.996524, 337, 97, 464, 128
-0.996532, 425, 177, 440, 240
-0.996532, 219, 249, 234, 312
-0.996535, 393, 241, 408, 304
-0.996547, 463, 121, 478, 184
-0.99655, 329, 217, 344, 280
-0.99656, 243, 225, 258, 288
-0.996565, 161, 161, 416, 224
-0.996566, 191, 233, 206, 296
-0.996589, 225, 225, 240, 288
-0.996591, 271, 257, 286, 320
-0.996608, 33, 185, 160, 216
-0.996611, 193, 201, 320, 232
-0.996629, 125, 241, 140, 304
-0.996644, 163, 233, 178, 296
-0.99665, 65, 173, 192, 204
-0.996651, 265, 257, 280, 320
-0.996653, 225, 101, 352, 132
-0.996663, 233, 257, 248, 320
-0.996665, 125, 49, 156, 176
-0.996672, 337, 125, 464, 156
-0.996675, 331, 241, 346, 304
-0.996678, 193, 253, 320, 284
-0.996685, 321, 241, 336, 304
-0.996687, 289, 65, 416, 96
-0.996698, 1, 169, 128, 200
-0.996709, 313, 225, 328, 288
-0.996733, 337, 153, 464, 184
-0.996737, 483, 113, 498, 176
-0.996741, 65, 109, 192, 140
-0.99675, 381, 193, 396, 256
-0.996751, 17, 297, 144, 328
-0.996763, 155, 241, 170, 304
-0.996778, 477, 121, 492, 184
-0.996793, 161, 137, 416, 200
-0.996803, 197, 185, 212, 248
-0.996813, 163, 73, 178, 136
-0.996822, 413, 201, 428, 264
-0.996832, 143, 209, 158, 272
-0.996846, 305, 205, 432, 236
-0.996853, 385, 265, 400, 328
-0.99686, 133, 265, 148, 328
-0.996875, 1, 49, 256, 112
-0.996876, 369, 297, 496, 328
-0.99689, 317, 97, 348, 224
-0.996891, 445, 121, 460, 184
-0.996894, 301, 249, 316, 312
-0.996909, 197, 241, 212, 304
-0.99691, 413, 33, 444, 160
-0.996917, 129, 73, 256, 104
-0.996936, 385, 1, 448, 128
-0.996971, 401, 201, 416, 264
-0.996972, 465, 33, 496, 160
-0.996982, 335, 217, 350, 280
-0.996986, 225, 89, 352, 120
-0.996987, 437, 121, 452, 184
-0.996988, 275, 209, 290, 272
-0.996988, 63, 161, 78, 224
-0.997018, 299, 193, 314, 256
-0.99702, 213, 33, 244, 288
-0.997023, 49, 201, 176, 232
-0.997028, 421, 89, 436, 152
-0.997037, 353, 189, 480, 220
-0.997047, 337, 113, 464, 144
-0.997048, 361, 201, 376, 264
-0.997048, 359, 105, 374, 168
-0.997051, 65, 97, 192, 128
-0.997055, 471, 193, 486, 256
-0.997061, 443, 145, 458, 208
-0.997064, 135, 177, 150, 240
-0.997071, 97, 49, 352, 112
-0.997071, 429, 65, 460, 320
-0.997076, 367, 57, 382, 120
-0.997077, 97, 297, 224, 328
-0.997082, 479, 169, 494, 232
-0.997096, 451, 113, 466, 176
-0.99712, 145, 85, 272, 116
-0.997121, 391, 265, 406, 328
-0.997126, 273, 105, 288, 168
-0.997134, 373, 65, 388, 128
-0.997139, 381, 65, 412, 320
-0.997143, 295, 249, 310, 312
-0.997148, 387, 225, 402, 288
-0.997154, 153, 73, 168, 136
-0.997156, 433, 209, 464, 333
-0.997156, 381, 89, 396, 152
-0.997165, 373, 177, 388, 240
-0.997168, 293, 97, 308, 160
-0.99717, 431, 165, 446, 196
-0.997171, 317, 73, 332, 136
-0.997174, 437, 177, 452, 240
-0.99718, 343, 249, 358, 312
-0.99718, 65, 85, 192, 116
-0.997185, 1, 25, 500, 88
-0.997186, 369, 113, 384, 176
-0.997186, 465, 65, 496, 320
-0.997191, 485, 145, 500, 208
-0.997193, 369, 269, 496, 300
-0.997194, 51, 65, 66, 128
-0.997202, 305, 193, 320, 256
-0.997209, 209, 209, 224, 272
-0.997211, 393, 65, 424, 320
-0.997213, 255, 105, 270, 168
-0.997216, 231, 73, 246, 136
-0.997222, 17, 157, 144, 188
-0.997225, 129, 269, 256, 300
-0.997241, 9, 209, 40, 333
-0.997241, 265, 105, 280, 168
-0.997244, 223, 65, 238, 128
-0.997246, 423, 129, 438, 192
-0.99725, 259, 257, 274, 320
-0.997255, 313, 193, 328, 256
-0.997257, 475, 145, 490, 208
-0.997257, 289, 109, 416, 140
-0.997258, 467, 153, 482, 216
-0.997276, 209, 77, 336, 108
-0.997276, 49, 69, 176, 100
-0.997282, 193, 33, 224, 288
-0.997299, 367, 217, 382, 248
-0.997311, 97, 285, 224, 316
-0.997317, 49, 133, 176, 164
-0.997319, 375, 205, 390, 236
-0.997321, 161, 301, 288, 332
-0.997326, 333, 65, 364, 320
-0.997337, 273, 21, 400, 52
-0.997339, 177, 289, 304, 320
-0.997343, 1, 125, 128, 156
-0.997353, 353, 69, 480, 100
-0.997356, 65, 121, 192, 152
-0.997367, 1, 265, 256, 328
-0.997404, 453, 65, 484, 320
-0.997415, 17, 233, 144, 264
-0.997446, 113, 185, 240, 216
-0.997452, 201, 217, 216, 248
-0.997462, 353, 165, 480, 196
-0.997464, 427, 97, 442, 128
-0.997473, 305, 253, 432, 284
-0.997486, 161, 97, 288, 128
-0.997488, 273, 145, 400, 176
-0.997505, 343, 229, 358, 260
-0.997506, 421, 169, 436, 200
-0.997507, 179, 237, 194, 268
-0.997511, 65, 157, 192, 188
-0.997514, 163, 229, 178, 260
-0.997514, 273, 41, 400, 72
-0.997521, 49, 285, 176, 316
-0.997532, 273, 193, 400, 224
-0.997536, 377, 217, 392, 248
-0.99754, 365, 33, 396, 288
-0.997541, 189, 209, 204, 240
-0.997542, 369, 249, 496, 280
-0.997553, 271, 229, 286, 260
-0.997558, 171, 237, 186, 268
-0.997567, 113, 101, 240, 132
-0.997571, 243, 249, 258, 280
-0.997572, 1, 145, 128, 176
-0.997573, 353, 33, 384, 288
-0.997581, 337, 137, 464, 168
-0.997595, 65, 261, 192, 292
-0.997599, 347, 189, 362, 220
-0.9976, 209, 65, 336, 96
-0.997604, 163, 217, 178, 248
-0.997618, 17, 97, 144, 128
-0.99762, 219, 225, 234, 256
-0.997622, 385, 217, 400, 248
-0.997644, 103, 241, 118, 272
-0.997653, 337, 41, 464, 72
-0.997664, 1, 197, 128, 228
-0.997665, 189, 221, 204, 252
-0.997679, 353, 85, 480, 116
-0.997685, 381, 229, 396, 260
-0.997688, 477, 93, 492, 124
-0.997699, 305, 273, 432, 304
-0.997703, 437, 169, 452, 200
-0.997707, 189, 17, 220, 144
-0.99771, 353, 217, 368, 248
-0.997725, 343, 209, 358, 240
-0.997742, 195, 209, 210, 240
-0.997762, 435, 97, 450, 128
-0.997766, 49, 57, 176, 88
-0.997779, 17, 257, 144, 288
-0.997783, 153, 233, 168, 264
-0.997792, 183, 217, 198, 248
-0.997799, 147, 233, 162, 264
-0.997799, 177, 109, 304, 140
-0.997799, 293, 229, 308, 260
-0.997801, 113, 1, 240, 64
-0.997831, 173, 221, 188, 252
-0.997831, 423, 181, 438, 212
-0.997839, 135, 201, 150, 232
-0.997845, 353, 57, 480, 88
-0.997851, 431, 177, 446, 208
-0.997853, 229, 229, 244, 260
-0.997858, 1, 285, 128, 316
-0.997859, 129, 61, 256, 92
-0.997859, 145, 197, 272, 228
-0.997864, 353, 281, 480, 312
-0.997865, 209, 265, 336, 296
-0.997887, 91, 233, 106, 264
-0.997888, 259, 241, 274, 272
-0.997903, 337, 241, 352, 272
-0.997909, 135, 241, 150, 272
-0.99791, 229, 33, 260, 288
-0.997914, 305, 221, 320, 252
-0.997915, 141, 237, 156, 268
-0.997928, 353, 177, 480, 208
-0.997936, 167, 205, 182, 236
-0.997938, 387, 229, 402, 260
-0.997944, 141, 217, 156, 248
-0.997944, 129, 225, 144, 256
-0.997946, 299, 233, 314, 264
-0.997957, 337, 225, 352, 256
-0.997962, 301, 245, 316, 276
-0.997964, 1, 1, 500, 64
-0.997971, 425, 157, 440, 188
-0.99798, 257, 125, 384, 156
-0.997993, 181, 33, 212, 288
-0.997999, 431, 153, 446, 184
-0.998001, 173, 249, 188, 280
-0.998005, 273, 301, 400, 332
-0.998008, 441, 97, 456, 128
-0.998008, 115, 221, 130, 252
-0.998023, 49, 145, 176, 176
-0.998027, 1, 209, 128, 240
-0.998035, 317, 213, 332, 244
-0.998038, 191, 233, 206, 264
-0.998039, 405, 201, 420, 232
-0.998042, 9, 161, 40, 288
-0.998043, 441, 65, 472, 320
-0.998047, 225, 185, 352, 216
-0.998052, 283, 233, 298, 264
-0.998054, 109, 233, 124, 264
-0.998055, 249, 237, 264, 268
-0.998056, 305, 285, 432, 316
-0.998069, 155, 221, 170, 252
-0.998071, 177, 277, 304, 308
-0.998072, 427, 113, 442, 144
-0.99808, 257, 33, 288, 288
-0.998096, 101, 225, 116, 256
-0.998097, 149, 249, 164, 280
-0.998102, 265, 229, 280, 260
-0.998103, 1, 113, 128, 144
-0.998109, 65, 273, 192, 304
-0.998112, 237, 237, 252, 268
-0.998119, 129, 245, 144, 276
-0.998119, 269, 245, 284, 276
-0.998119, 399, 205, 414, 236
-0.998127, 351, 205, 366, 236
-0.998128, 311, 213, 326, 244
-0.99813, 225, 145, 352, 176
-0.998139, 361, 213, 376, 244
-0.998141, 473, 149, 488, 180
-0.998145, 257, 253, 384, 284
-0.998145, 293, 245, 308, 276
-0.998149, 469, 101, 484, 132
-0.99815, 481, 149, 496, 180
-0.998158, 1, 65, 128, 96
-0.99816, 61, 17, 92, 144
-0.998161, 277, 233, 292, 264
-0.998171, 343, 249, 358, 280
-0.998174, 237, 249, 252, 280
-0.998175, 393, 201, 408, 232
-0.998176, 413, 201, 428, 232
-0.998182, 1, 221, 128, 252
-0.998189, 1, 53, 128, 84
-0.998192, 273, 9, 400, 40
-0.998198, 207, 221, 222, 252
-0.998198, 471, 297, 486, 328
-0.9982, 259, 253, 274, 284
-0.9982, 127, 205, 142, 236
-0.99821, 331, 241, 346, 272
-0.998212, 309, 233, 324, 264
-0.998213, 97, 245, 112, 276
-0.998215, 185, 237, 200, 268
-0.998216, 105, 97, 120, 128
-0.998219, 443, 109, 458, 140
-0.998219, 419, 201, 434, 232
-0.998224, 381, 205, 396, 236
-0.998228, 199, 237, 214, 268
-0.998229, 161, 121, 288, 152
-0.998234, 225, 301, 352, 332
-0.998238, 209, 49, 336, 80
-0.998238, 285, 93, 300, 124
-0.99824, 17, 269, 144, 300
-0.998251, 371, 229, 386, 260
-0.998251, 447, 97, 462, 128
-0.998254, 391, 217, 406, 248
-0.998254, 301, 65, 332, 320
-0.998258, 483, 93, 498, 124
-0.998262, 211, 233, 226, 264
-0.998263, 457, 149, 472, 180
-0.998267, 269, 33, 300, 288
-0.998268, 1, 85, 128, 116
-0.998274, 359, 225, 374, 256
-0.998279, 123, 241, 138, 272
-0.99828, 165, 241, 180, 272
-0.998281, 175, 209, 190, 240
-0.998282, 89, 221, 104, 252
-0.998284, 149, 217, 164, 248
-0.998288, 257, 289, 384, 320
-0.998289, 231, 253, 246, 284
-0.998291, 181, 249, 196, 280
-0.998306, 129, 257, 144, 288
-0.998307, 353, 25, 480, 56
-0.998308, 143, 249, 158, 280
-0.998309, 465, 197, 480, 228
-0.998309, 213, 213, 228, 244
-0.998311, 113, 117, 240, 148
-0.998312, 317, 225, 332, 256
-0.998315, 241, 33, 272, 288
-0.998318, 437, 149, 452, 180
-0.99832, 445, 153, 460, 184
-0.998325, 443, 169, 458, 200
-0.998328, 193, 301, 208, 332
-0.998328, 169, 65, 200, 320
-0.998331, 461, 113, 476, 144
-0.998332, 299, 257, 314, 288
-0.998335, 417, 189, 432, 220
-0.99834, 419, 153, 434, 184
-0.998342, 475, 181, 490, 212
-0.998347, 449, 85, 464, 116
-0.998349, 183, 205, 198, 236
-0.99835, 471, 161, 486, 192
-0.998356, 305, 181, 432, 212
-0.998359, 277, 245, 292, 276
-0.998359, 465, 125, 480, 156
-0.998363, 95, 93, 110, 124
-0.998363, 251, 225, 266, 256
-0.998365, 321, 297, 448, 328
-0.998372, 453, 183, 484, 198
-0.998372, 389, 237, 420, 252
-0.998372, 457, 145, 488, 160
-0.998372, 137, 99, 168, 114
-0.998373, 457, 109, 488, 124
-0.998374, 317, 65, 348, 320
-0.998375, 265, 239, 296, 254
-0.998375, 469, 127, 500, 142
-0.998376, 145, 33, 176, 288
-0.998377, 61, 179, 92, 194
-0.998378, 465, 297, 496, 312
-0.998378, 245, 261, 276, 276
-0.99838, 457, 101, 488, 116
-0.99838, 105, 243, 136, 258
-0.99838, 305, 213, 336, 228
-0.99838, 141, 209, 172, 224
-0.998381, 125, 201, 156, 216
-0.998381, 421, 187, 452, 202
-0.998382, 289, 95, 320, 110
-0.998382, 177, 145, 304, 176
-0.998384, 413, 97, 444, 112
-0.998385, 77, 243, 108, 258
-0.998386, 305, 245, 336, 260
-0.998386, 461, 151, 492, 166
-0.998386, 285, 261, 316, 276
-0.998386, 201, 247, 232, 262
-0.998387, 253, 255, 284, 270
-0.99839, 305, 225, 336, 240
-0.99839, 441, 139, 472, 154
-0.998391, 429, 193, 460, 208
-0.998392, 405, 219, 436, 234
-0.998392, 105, 223, 136, 238
-0.998393, 449, 157, 480, 172
-0.998394, 393, 207, 424, 222
-0.998398, 381, 201, 412, 216
-0.998398, 225, 251, 256, 266
-0.998398, 277, 103, 308, 118
-0.998398, 129, 257, 160, 272
-0.998398, 469, 117, 500, 132
-0.9984, 137, 243, 168, 258
-0.9984, 357, 211, 388, 226
-0.9984, 77, 237, 108, 252
-0.998401, 409, 161, 440, 176
-0.998402, 245, 243, 276, 258
-0.998404, 149, 251, 180, 266
-0.998404, 437, 97, 468, 112
-0.998404, 433, 175, 464, 190
-0.998405, 169, 249, 200, 264
-0.998405, 325, 201, 356, 216
-0.998405, 65, 9, 320, 72
-0.998406, 369, 209, 400, 224
-0.998408, 209, 227, 240, 242
-0.998411, 325, 233, 356, 248
-0.998411, 277, 95, 308, 110
-0.998413, 109, 231, 140, 246
-0.998413, 129, 215, 160, 230
-0.998415, 233, 229, 264, 244
-0.998417, 289, 103, 320, 118
-0.998417, 297, 255, 328, 270
-0.998419, 165, 215, 196, 230
-0.998419, 389, 227, 420, 242
-0.998419, 445, 103, 476, 118
-0.998421, 429, 109, 460, 124
-0.998422, 469, 99, 500, 114
-0.998423, 69, 173, 100, 188
-0.998423, 253, 233, 284, 248
-0.998424, 421, 179, 452, 194
-0.998424, 373, 229, 404, 244
-0.998424, 217, 243, 248, 258
-0.998426, 437, 155, 468, 170
-0.998429, 241, 255, 272, 270
-0.99843, 165, 237, 196, 252
-0.998431, 185, 227, 216, 242
-0.998432, 305, 237, 336, 252
-0.998435, 285, 231, 316, 246
-0.998437, 129, 251, 160, 266
-0.998438, 125, 245, 156, 260
-0.998438, 93, 99, 124, 114
-0.998442, 141, 215, 172, 230
-0.998443, 141, 227, 172, 242
-0.998444, 137, 93, 168, 108
-0.998444, 89, 241, 120, 256
-0.998446, 125, 233, 156, 248
-0.998446, 437, 161, 468, 176
-0.998447, 349, 225, 380, 240
-0.998447, 385, 217, 416, 232
-0.998447, 233, 239, 264, 254
-0.998448, 337, 1, 464, 32
-0.998448, 305, 231, 336, 246
-0.99845, 169, 243, 200, 258
-0.998451, 197, 221, 228, 236
-0.998451, 425, 103, 456, 118
-0.998453, 197, 241, 228, 256
-0.998454, 313, 219, 344, 234
-0.998456, 217, 233, 248, 248
-0.998456, 285, 255, 316, 270
-0.998456, 345, 191, 376, 206
-0.998457, 257, 249, 288, 264
-0.998458, 441, 167, 472, 182
-0.99846, 333, 191, 364, 206
-0.99846, 417, 173, 448, 188
-0.998461, 161, 221, 192, 236
-0.998462, 157, 227, 188, 242
-0.998464, 237, 249, 268, 264
-0.998465, 153, 245, 184, 260
-0.998469, 141, 235, 172, 250
-0.998469, 381, 209, 412, 224
-0.998469, 265, 233, 296, 248
-0.998471, 89, 231, 120, 246
-0.998471, 149, 221, 180, 236
-0.998475, 173, 227, 204, 242
-0.998475, 181, 215, 212, 230
-0.998477, 257, 205, 384, 236
-0.998478, 365, 223, 396, 238
-0.998479, 329, 225, 360, 240
-0.99848, 377, 239, 408, 254
-0.998483, 153, 239, 184, 254
-0.998483, 441, 147, 472, 162
-0.998484, 197, 235, 228, 250
-0.998487, 197, 227, 228, 242
-0.998489, 429, 169, 460, 184
-0.99849, 181, 243, 212, 258
-0.998492, 285, 245, 316, 260
-0.998493, 181, 253, 212, 268
-0.998497, 337, 217, 368, 232
-0.998502, 277, 237, 308, 252
-0.998503, 349, 219, 380, 234
-0.998507, 109, 237, 140, 252
-0.998522, 145, 215, 208, 230
-0.998524, 425, 163, 456, 178
-0.998524, 173, 221, 204, 236
-0.998528, 185, 223, 248, 238
-0.998528, 281, 231, 344, 246
-0.998529, 337, 231, 400, 246
-0.998529, 365, 217, 396, 232
-0.998534, 425, 157, 456, 172
-0.998537, 361, 223, 424, 238
-0.998541, 81, 237, 144, 252
-0.998542, 177, 237, 208, 252
-0.998542, 185, 221, 216, 236
-0.998549, 105, 229, 168, 244
-0.998549, 161, 225, 224, 240
-0.998555, 129, 49, 256, 80
-0.998555, 161, 133, 288, 164
-0.998559, 161, 233, 224, 248
-0.99856, 409, 171, 472, 186
-0.998562, 257, 253, 320, 268
-0.998564, 425, 155, 488, 170
-0.998565, 233, 251, 296, 266
-0.998568, 409, 177, 472, 192
-0.998568, 385, 205, 448, 220
-0.998568, 257, 237, 320, 252
-0.99857, 41, 173, 104, 188
-0.998572, 209, 229, 272, 244
-0.998572, 105, 235, 168, 250
-0.998573, 257, 231, 320, 246
-0.998575, 121, 249, 184, 264
-0.998575, 153, 233, 184, 248
-0.998576, 433, 99, 496, 114
-0.998576, 113, 173, 240, 204
-0.998577, 433, 149, 496, 164
-0.99858, 193, 247, 256, 262
-0.998581, 265, 105, 328, 120
-0.998581, 369, 217, 432, 232
-0.998581, 97, 243, 160, 258
-0.998583, 425, 97, 456, 112
-0.998586, 121, 219, 184, 234
-0.998587, 361, 209, 424, 224
-0.998587, 281, 255, 344, 270
-0.998589, 65, 231, 128, 246
-0.998591, 353, 13, 480, 44
-0.998591, 417, 199, 480, 214
-0.998592, 305, 225, 368, 240
-0.998592, 169, 241, 232, 256
-0.998592, 185, 295, 248, 310
-0.998593, 249, 259, 312, 274
-0.998593, 417, 183, 480, 198
-0.998595, 337, 225, 400, 240
-0.998595, 305, 197, 368, 212
-0.998598, 121, 255, 184, 270
-0.998598, 193, 239, 256, 254
-0.9986, 305, 165, 432, 196
-0.998602, 137, 233, 200, 248
-0.998603, 225, 245, 288, 260
-0.998604, 417, 105, 480, 120
-0.998606, 129, 241, 192, 256
-0.998607, 297, 237, 360, 252
-0.998607, 113, 93, 176, 108
-0.998607, 289, 91, 352, 106
-0.998608, 409, 95, 472, 110
-0.998608, 425, 165, 488, 180
-0.998609, 265, 247, 328, 262
-0.998609, 425, 205, 488, 220
-0.998611, 313, 231, 376, 246
-0.998612, 185, 233, 248, 248
-0.998612, 385, 223, 448, 238
-0.998613, 433, 143, 496, 158
-0.998613, 369, 269, 432, 284
-0.998614, 113, 101, 176, 116
-0.998614, 337, 217, 400, 232
-0.998615, 345, 201, 408, 216
-0.998617, 433, 135, 496, 150
-0.99862, 369, 229, 432, 244
-0.99862, 153, 249, 216, 264
-0.998621, 33, 179, 96, 194
-0.998623, 401, 159, 464, 174
-0.998623, 185, 301, 248, 316
-0.998624, 369, 239, 432, 254
-0.998624, 417, 193, 480, 208
-0.998625, 129, 187, 192, 202
-0.998625, 73, 219, 136, 234
-0.998626, 329, 237, 392, 252
-0.998626, 377, 199, 440, 214
-0.998626, 401, 211, 464, 226
-0.998627, 9, 293, 72, 308
-0.998627, 89, 99, 152, 114
-0.998627, 329, 273, 392, 288
-0.998628, 289, 99, 352, 114
-0.998629, 137, 225, 200, 240
-0.99863, 41, 137, 104, 152
-0.99863, 217, 237, 280, 252
-0.998633, 33, 147, 96, 162
-0.998635, 289, 187, 352, 202
-0.998636, 321, 205, 384, 220
-0.998637, 329, 61, 392, 76
-0.998638, 161, 255, 224, 270
-0.998638, 225, 259, 288, 274
-0.998638, 401, 153, 464, 168
-0.998638, 265, 95, 328, 110
-0.998642, 129, 181, 192, 196
-0.998642, 73, 243, 136, 258
-0.998643, 97, 249, 160, 264
-0.998644, 33, 153, 96, 168
-0.998647, 433, 113, 496, 128
-0.998647, 329, 71, 392, 86
-0.998648, 241, 95, 304, 110
-0.998648, 161, 297, 224, 312
-0.998648, 129, 315, 192, 330
-0.998649, 105, 209, 168, 224
-0.99865, 33, 193, 96, 208
-0.99865, 273, 225, 336, 240
-0.998651, 73, 183, 136, 198
-0.998651, 393, 267, 456, 282
-0.998651, 337, 211, 400, 226
-0.998651, 145, 209, 208, 224
-0.998651, 353, 277, 416, 292
-0.998652, 393, 217, 456, 232
-0.998652, 433, 125, 496, 140
-0.998652, 265, 111, 328, 126
-0.998653, 137, 299, 200, 314
-0.998653, 433, 93, 496, 108
-0.998653, 297, 205, 360, 220
-0.998653, 233, 227, 296, 242
-0.998654, 337, 87, 400, 102
-0.998654, 97, 315, 160, 330
-0.998655, 73, 225, 136, 240
-0.998656, 169, 187, 232, 202
-0.998656, 113, 201, 176, 216
-0.998656, 377, 161, 440, 176
-0.998657, 433, 171, 496, 186
-0.998657, 321, 49, 384, 64
-0.998657, 1, 307, 64, 322
-0.998659, 425, 251, 488, 266
-0.99866, 289, 105, 352, 120
-0.99866, 425, 259, 488, 274
-0.998661, 65, 295, 128, 310
-0.998661, 321, 93, 384, 108
-0.998661, 121, 261, 184, 276
-0.998663, 193, 253, 256, 268
-0.998663, 393, 233, 456, 248
-0.998663, 193, 217, 256, 232
-0.998665, 113, 157, 240, 188
-0.998667, 209, 133, 336, 164
-0.998686, 241, 277, 368, 308
-0.998687, 427, 81, 442, 208
-0.998689, 117, 65, 148, 320
-0.998689, 289, 33, 320, 288
-0.998708, 177, 185, 304, 216
-0.998843, 97, 65, 128, 320
-0.998861, 157, 65, 188, 320
-0.99887, 349, 193, 364, 320
-0.998873, 1, 65, 32, 320
-0.998893, 201, 209, 216, 333
-0.998903, 129, 65, 160, 320
-0.998944, 343, 177, 358, 304
-0.998976, 439, 81, 454, 208
-0.998988, 363, 209, 378, 333
-0.999, 193, 193, 208, 320
-0.99901, 421, 81, 436, 208
-0.999035, 69, 65, 100, 320
-0.999048, 305, 209, 320, 333
-0.99905, 473, 81, 488, 208
-0.999056, 183, 209, 198, 333
-0.999063, 479, 81, 494, 208
-0.99908, 333, 209, 348, 333
-0.999093, 433, 97, 448, 224
-0.999095, 429, 161, 444, 288
-0.9991, 81, 33, 112, 288
-0.999104, 29, 1, 60, 256
-0.999111, 243, 209, 258, 333
-0.999113, 355, 193, 370, 320
-0.999119, 213, 209, 228, 333
-0.999126, 291, 209, 306, 333
-0.999134, 455, 81, 470, 208
-0.99914, 485, 65, 500, 192
-0.99914, 369, 209, 384, 333
-0.999141, 377, 209, 392, 333
-0.999141, 319, 193, 334, 320
-0.999156, 387, 193, 402, 320
-0.999157, 211, 145, 226, 272
-0.999162, 445, 81, 460, 208
-0.999163, 221, 209, 236, 333
-0.99917, 189, 145, 204, 272
-0.999173, 249, 193, 264, 320
-0.999173, 461, 81, 476, 208
-0.999182, 351, 129, 366, 256
-0.999188, 311, 209, 326, 333
-0.999188, 133, 193, 148, 320
-0.999189, 171, 193, 186, 320
-0.999189, 199, 145, 214, 272
-0.999193, 413, 161, 428, 288
-0.999196, 17, 1, 48, 256
-0.999204, 191, 65, 206, 192
-0.999211, 159, 193, 174, 320
-0.999214, 435, 161, 450, 288
-0.999218, 299, 177, 314, 304
-0.999223, 409, 209, 424, 333
-0.99923, 53, 65, 84, 320
-0.999232, 205, 145, 220, 272
-0.999232, 231, 65, 246, 192
-0.999239, 75, 129, 90, 256
-0.99924, 209, 65, 224, 192
-0.999253, 123, 209, 138, 333
-0.999253, 295, 97, 310, 224
-0.999256, 341, 129, 356, 256
-0.999258, 421, 161, 436, 288
-0.99926, 397, 193, 412, 320
-0.999264, 403, 193, 418, 320
-0.999265, 177, 209, 192, 333
-0.999266, 287, 81, 302, 208
-0.999268, 89, 193, 104, 320
-0.999268, 63, 129, 78, 256
-0.999269, 197, 97, 212, 224
-0.99927, 139, 193, 154, 320
-0.999272, 203, 65, 218, 192
-0.999273, 345, 65, 360, 192
-0.999274, 221, 145, 236, 272
-0.999277, 471, 177, 486, 304
-0.999283, 101, 193, 116, 320
-0.999285, 311, 145, 326, 272
-0.99929, 359, 145, 374, 272
-0.999293, 415, 113, 430, 240
-0.999294, 461, 193, 476, 320
-0.999294, 269, 97, 284, 224
-0.999301, 467, 81, 482, 208
-0.999302, 369, 65, 384, 192
-0.999305, 261, 209, 276, 333
-0.999307, 207, 209, 222, 333
-0.999312, 249, 97, 264, 224
-0.999313, 305, 97, 320, 224
-0.999314, 445, 129, 460, 256
-0.999315, 355, 65, 370, 192
-0.999316, 259, 65, 274, 192
-0.999317, 153, 161, 168, 288
-0.999318, 271, 209, 286, 333
-0.999322, 225, 65, 240, 192
-0.999323, 215, 49, 230, 176
-0.999324, 47, 129, 62, 256
-0.999327, 145, 209, 160, 333
-0.999329, 229, 209, 244, 333
-0.999331, 327, 177, 342, 304
-0.999332, 71, 65, 86, 192
-0.999337, 165, 193, 180, 320
-0.999342, 275, 97, 290, 224
-0.999345, 95, 209, 110, 333
-0.999346, 367, 1, 382, 128
-0.999348, 295, 49, 310, 176
-0.999348, 375, 65, 390, 192
-0.99935, 479, 129, 494, 256
-0.999355, 461, 129, 476, 256
-0.999358, 315, 65, 330, 192
-0.999361, 305, 49, 320, 176
-0.999364, 35, 129, 50, 256
-0.999366, 81, 129, 96, 256
-0.999376, 109, 209, 124, 333
-0.999378, 407, 113, 422, 240
-0.999385, 239, 81, 254, 208
-0.999393, 81, 65, 96, 192
-0.999401, 253, 49, 268, 176
-0.999405, 283, 209, 298, 333
-0.999405, 485, 113, 500, 240
-0.999407, 343, 1, 358, 128
-0.999407, 363, 65, 378, 192
-0.999413, 87, 65, 102, 192
-0.999413, 179, 65, 194, 192
-0.999416, 281, 97, 296, 224
-0.99942, 175, 145, 190, 272
-0.999422, 69, 129, 84, 256
-0.999424, 455, 145, 470, 272
-0.999424, 415, 209, 430, 333
-0.999431, 101, 65, 116, 192
-0.999432, 253, 145, 268, 272
-0.999432, 471, 129, 486, 256
-0.999432, 395, 113, 410, 240
-0.999439, 57, 65, 72, 192
-0.99944, 277, 49, 292, 176
-0.999441, 95, 65, 110, 192
-0.999442, 185, 65, 200, 192
-0.999442, 229, 145, 244, 272
-0.999443, 219, 97, 234, 224
-0.999445, 41, 1, 72, 256
-0.999446, 321, 145, 336, 272
-0.999446, 57, 129, 72, 256
-0.999448, 401, 97, 416, 224
-0.999448, 1, 49, 16, 176
-0.999454, 235, 209, 250, 333
-0.999458, 269, 49, 284, 176
-0.999589, 159, 241, 174, 256
-0.999589, 91, 243, 106, 258
-0.999589, 191, 243, 206, 258
-0.999589, 99, 235, 114, 250
-0.99959, 141, 245, 156, 260
-0.99959, 185, 251, 200, 266
-0.99959, 451, 161, 466, 176
-0.99959, 309, 223, 324, 238
-0.99959, 359, 213, 374, 228
-0.99959, 183, 213, 198, 228
-0.999591, 413, 219, 428, 234
-0.999591, 173, 255, 188, 270
-0.999591, 453, 147, 468, 162
-0.999591, 485, 97, 500, 112
-0.999592, 403, 223, 418, 238
-0.999592, 339, 219, 354, 234
-0.999592, 111, 237, 126, 252
-0.999592, 301, 255, 316, 270
-0.999592, 79, 173, 94, 188
-0.999592, 219, 235, 234, 250
-0.999592, 299, 233, 314, 248
-0.999593, 249, 255, 264, 270
-0.999594, 403, 211, 418, 226
-0.999595, 385, 217, 400, 232
-0.999595, 143, 251, 158, 266
-0.999595, 127, 231, 142, 246
-0.999595, 315, 221, 330, 236
-0.999596, 311, 229, 326, 244
-0.999596, 343, 247, 358, 262
-0.999596, 131, 265, 146, 280
-0.999597, 343, 235, 358, 250
-0.999597, 271, 257, 286, 272
-0.999597, 219, 229, 234, 244
-0.999597, 135, 245, 150, 260
-0.999598, 415, 181, 430, 196
-0.999598, 387, 205, 402, 220
-0.999598, 423, 189, 438, 204
-0.999598, 259, 261, 274, 276
-0.999598, 131, 251, 146, 266
-0.999598, 231, 255, 246, 270
-0.999599, 165, 213, 180, 228
-0.999601, 141, 235, 156, 250
-0.999601, 439, 175, 454, 190
-0.999601, 175, 217, 190, 232
-0.999602, 427, 107, 442, 122
-0.999604, 295, 253, 310, 268
-0.999604, 391, 219, 406, 234
-0.999605, 419, 157, 434, 172
-0.999605, 269, 249, 284, 264
-0.999605, 463, 141, 478, 156
-0.999605, 287, 237, 302, 252
-0.999605, 145, 215, 160, 230
-0.999606, 179, 225, 194, 240
-0.999606, 375, 223, 390, 238
-0.999607, 135, 259, 150, 274
-0.999608, 285, 93, 300, 108
-0.999608, 465, 155, 480, 170
-0.999609, 365, 215, 380, 230
-0.999609, 91, 237, 106, 252
-0.99961, 359, 219, 374, 234
-0.999611, 263, 237, 278, 252
-0.999612, 401, 205, 416, 220
-0.999612, 351, 215, 366, 230
-0.999612, 133, 239, 148, 254
-0.999613, 331, 241, 346, 256
-0.999613, 431, 179, 446, 194
-0.999613, 393, 207, 408, 222
-0.999614, 135, 215, 150, 230
-0.999615, 381, 239, 396, 254
-0.999615, 183, 245, 198, 260
-0.999615, 441, 153, 456, 168
-0.999616, 171, 241, 186, 256
-0.999617, 141, 225, 156, 240
-0.999618, 127, 259, 142, 274
-0.99962, 465, 147, 480, 162
-0.99962, 165, 237, 180, 252
-0.999621, 227, 231, 242, 246
-0.999622, 373, 207, 388, 222
-0.999623, 153, 227, 168, 242
-0.999623, 423, 167, 438, 182
-0.999623, 153, 247, 168, 262
-0.999623, 343, 241, 358, 256
-0.999623, 299, 245, 314, 260
-0.999624, 243, 251, 258, 266
-0.999625, 433, 103, 448, 118
-0.999626, 407, 217, 422, 232
-0.999626, 345, 197, 360, 212
-0.999627, 447, 141, 462, 156
-0.999627, 147, 237, 162, 252
-0.999628, 293, 231, 308, 246
-0.999628, 343, 225, 358, 240
-0.99963, 131, 203, 146, 218
-0.999632, 155, 235, 170, 250
-0.999632, 425, 173, 440, 188
-0.999633, 183, 219, 198, 234
-0.999634, 387, 237, 402, 252
-0.999634, 169, 249, 184, 264
-0.999638, 409, 207, 424, 222
-0.999638, 171, 223, 186, 238
-0.999639, 447, 167, 462, 182
-0.999639, 441, 145, 456, 160
-0.999643, 477, 97, 492, 112
-0.999645, 337, 241, 352, 256
-0.999648, 173, 229, 188, 244
-0.999649, 237, 251, 252, 266
-0.99965, 135, 209, 150, 224
-0.99965, 259, 255, 274, 270
-0.999651, 165, 219, 180, 234
-0.999653, 177, 243, 192, 258
-0.999655, 375, 217, 390, 232
-0.999656, 395, 199, 410, 214
-0.999657, 431, 171, 446, 186
-0.999659, 101, 241, 116, 256
-0.99966, 439, 161, 454, 176
-0.999663, 353, 221, 368, 236
-0.999664, 441, 167, 456, 182
-0.999667, 441, 97, 456, 112
-0.999669, 271, 231, 286, 246
-0.999672, 199, 221, 214, 236
-0.999682, 427, 157, 442, 172
-0.999686, 193, 213, 208, 228
-0.999693, 173, 235, 188, 250
-0.999695, 423, 181, 438, 196
-0.999695, 189, 223, 204, 238
-0.999705, 163, 229, 178, 244
-0.999715, 429, 163, 444, 178
-0.999719, 367, 221, 382, 236
-0.999736, 427, 97, 442, 112
-0.999739, 347, 191, 362, 206
-0.999785, 419, 175, 434, 190
