1980
-0.114324, 1, 1, 375, 500
-0.258662, 97, 1, 352, 500
-0.300655, 1, 97, 375, 352
-0.372716, 1, 193, 375, 448
-0.43385, 1, 1, 256, 500
-0.578809, 33, 65, 288, 320
-0.583264, 1, 1, 375, 256
-0.595832, 129, 225, 375, 480
-0.600347, 129, 65, 375, 320
-0.703279, 1, 193, 256, 448
-0.834904, 113, 1, 240, 500
-0.850375, 65, 1, 192, 500
-0.853587, 177, 1, 304, 500
-0.856009, 65, 65, 192, 320
-0.85649, 33, 257, 160, 500
-0.862471, 209, 97, 336, 352
-0.867145, 1, 209, 375, 336
-0.868312, 161, 33, 288, 288
-0.870511, 1, 97, 375, 224
-0.879794, 241, 225, 368, 480
-0.88076, 113, 65, 240, 320
-0.88544, 49, 161, 176, 416
-0.885691, 225, 1, 352, 500
-0.888942, 1, 161, 375, 288
-0.896027, 1, 161, 128, 416
-0.89731, 1, 369, 375, 496
-0.899441, 97, 257, 224, 500
-0.901649, 1, 1, 128, 500
-0.908297, 97, 81, 352, 208
-0.914502, 313, 161, 375, 288
-0.916597, 1, 321, 375, 448
-0.918485, 1, 257, 375, 384
-0.919022, 161, 225, 288, 480
-0.921974, 313, 209, 375, 336
-0.924432, 129, 145, 375, 272
-0.924736, 65, 321, 320, 448
-0.929984, 97, 161, 224, 416
-0.93001, 49, 113, 176, 240
-0.93018, 33, 241, 96, 368
-0.930196, 73, 129, 136, 256
-0.930857, 209, 1, 336, 256
-0.931755, 265, 113, 328, 240
-0.931757, 161, 129, 288, 384
-0.93225, 33, 129, 288, 256
-0.932404, 1, 193, 256, 320
-0.933896, 49, 353, 176, 480
-0.935463, 113, 65, 240, 192
-0.936505, 177, 81, 304, 208
-0.939245, 17, 305, 144, 432
-0.940856, 129, 193, 375, 320
-0.940862, 97, 337, 160, 464
-0.942304, 241, 145, 368, 272
-0.942355, 129, 65, 192, 192
-0.94244, 65, 369, 320, 496
-0.942489, 97, 337, 224, 464
-0.942889, 97, 97, 160, 224
-0.943159, 289, 145, 352, 272
-0.943866, 57, 305, 120, 432
-0.944007, 1, 273, 256, 400
-0.944669, 313, 233, 375, 296
-0.945254, 33, 281, 96, 344
-0.945591, 1, 81, 256, 208
-0.946695, 49, 161, 176, 288
-0.947078, 257, 113, 320, 176
-0.947226, 105, 337, 168, 400
-0.94723, 129, 353, 192, 480
-0.947365, 313, 193, 375, 256
-0.947578, 65, 177, 128, 304
-0.947882, 97, 113, 224, 240
-0.948202, 17, 65, 144, 320
-0.948975, 289, 241, 352, 368
-0.948992, 97, 97, 160, 160
-0.949115, 313, 257, 375, 384
-0.949719, 225, 97, 352, 224
-0.950167, 241, 97, 304, 224
-0.950315, 1, 241, 128, 368
-0.950341, 169, 65, 232, 128
-0.950353, 129, 257, 375, 384
-0.950447, 169, 65, 232, 192
-0.950514, 1, 49, 375, 176
-0.950725, 201, 65, 264, 192
-0.951619, 241, 193, 368, 320
-0.951865, 9, 257, 72, 384
-0.952021, 25, 257, 88, 320
-0.952222, 33, 289, 96, 416
-0.952763, 113, 361, 176, 424
-0.953359, 65, 65, 192, 192
-0.953906, 313, 161, 375, 224
-0.954015, 73, 113, 136, 176
-0.955356, 49, 209, 176, 336
-0.95655, 65, 161, 128, 224
-0.956678, 129, 305, 192, 432
-0.957033, 65, 137, 128, 200
-0.957143, 145, 337, 272, 464
-0.957802, 153, 337, 216, 464
-0.957944, 113, 313, 176, 376
-0.958085, 137, 81, 200, 144
-0.958726, 105, 385, 168, 448
-0.959174, 313, 305, 375, 432
-0.959738, 193, 73, 256, 136
-0.959945, 265, 137, 328, 200
-0.960205, 273, 321, 336, 448
-0.96029, 81, 321, 144, 384
-0.960459, 129, 401, 192, 464
-0.960492, 9, 281, 72, 344
-0.960499, 41, 305, 104, 368
-0.960502, 65, 185, 128, 248
-0.96058, 1, 305, 64, 432
-0.96061, 225, 353, 352, 480
-0.96142, 145, 377, 208, 440
-0.961435, 233, 89, 296, 152
-0.961655, 177, 145, 240, 208
-0.961949, 313, 257, 375, 320
-0.962079, 89, 137, 152, 200
-0.96244, 177, 129, 304, 256
-0.96279, 33, 177, 96, 304
-0.962893, 161, 33, 288, 160
-0.962918, 97, 289, 224, 416
-0.963038, 97, 33, 352, 160
-0.963062, 89, 361, 152, 424
-0.963457, 49, 97, 112, 224
-0.963477, 241, 241, 368, 368
-0.963632, 73, 129, 136, 384
-0.96369, 65, 225, 128, 352
-0.963847, 1, 193, 128, 320
-0.964014, 233, 353, 296, 480
-0.964371, 137, 345, 200, 408
-0.964642, 321, 177, 352, 304
-0.964926, 289, 169, 352, 232
-0.965145, 313, 161, 375, 416
-0.965381, 97, 145, 160, 272
-0.965416, 313, 113, 375, 240
-0.965475, 89, 289, 152, 416
-0.965652, 133, 361, 164, 424
-0.965657, 265, 313, 328, 376
-0.965694, 273, 193, 336, 320
-0.965748, 49, 113, 112, 176
-0.966153, 249, 49, 312, 176
-0.966452, 137, 313, 200, 376
-0.966523, 73, 89, 136, 152
-0.966558, 145, 57, 208, 120
-0.966561, 49, 257, 176, 384
-0.966631, 1, 257, 64, 320
-0.967202, 265, 97, 328, 352
-0.96725, 281, 105, 312, 168
-0.967676, 305, 129, 368, 192
-0.967904, 129, 337, 160, 464
-0.96794, 49, 361, 176, 424
-0.967948, 241, 305, 368, 432
-0.96808, 41, 225, 104, 480
-0.968254, 97, 65, 160, 320
-0.968477, 185, 353, 248, 480
-0.969406, 153, 401, 216, 464
-0.969464, 65, 209, 128, 272
-0.96955, 289, 97, 352, 224
-0.969573, 1, 129, 128, 256
-0.970142, 169, 377, 232, 440
-0.970225, 113, 345, 144, 408
-0.970278, 169, 129, 232, 256
-0.970354, 97, 161, 224, 288
-0.970649, 289, 257, 352, 320
-0.970814, 17, 369, 80, 496
-0.970835, 45, 337, 76, 464
-0.970893, 277, 97, 308, 224
-0.970894, 161, 33, 224, 288
-0.970909, 113, 369, 144, 432
-0.971003, 9, 209, 72, 336
-0.971166, 209, 353, 272, 480
-0.971166, 305, 257, 368, 500
-0.971205, 333, 257, 364, 384
-0.971315, 25, 265, 56, 328
-0.971498, 73, 81, 136, 208
-0.971548, 281, 105, 344, 168
-0.971563, 65, 361, 128, 424
-0.971609, 133, 385, 164, 448
-0.971756, 345, 265, 375, 328
-0.971833, 49, 385, 176, 448
-0.971961, 321, 241, 352, 368
-0.971962, 289, 161, 352, 416
-0.972193, 345, 257, 375, 384
-0.972227, 97, 369, 224, 432
-0.972271, 73, 289, 136, 352
-0.972289, 57, 281, 88, 344
-0.972341, 117, 321, 148, 448
-0.972417, 161, 89, 288, 152
-0.972456, 113, 73, 240, 136
-0.972548, 45, 393, 76, 456
-0.972711, 113, 313, 144, 376
-0.972902, 313, 281, 375, 344
-0.972967, 333, 273, 364, 336
-0.973088, 1, 225, 32, 352
-0.973118, 321, 265, 352, 328
-0.973136, 329, 169, 360, 232
-0.973199, 257, 89, 320, 152
-0.973242, 73, 97, 104, 224
-0.973271, 45, 257, 76, 320
-0.97328, 121, 113, 184, 176
-0.973364, 137, 129, 200, 256
-0.973422, 217, 401, 280, 464
-0.97348, 233, 113, 296, 176
-0.97355, 193, 113, 320, 176
-0.973595, 49, 105, 176, 168
-0.973802, 81, 105, 112, 168
-0.973896, 41, 369, 104, 496
-0.973957, 1, 257, 32, 320
-0.974103, 217, 113, 280, 240
-0.97411, 45, 289, 76, 352
-0.974119, 137, 33, 200, 288
-0.974337, 129, 337, 160, 400
-0.974345, 49, 257, 112, 320
-0.97446, 9, 233, 72, 296
-0.974466, 113, 73, 176, 136
-0.97451, 105, 97, 136, 160
-0.974513, 281, 257, 344, 500
-0.974537, 169, 121, 232, 184
-0.974687, 185, 137, 216, 200
-0.974754, 321, 241, 352, 304
-0.974803, 345, 177, 375, 304
-0.974827, 33, 233, 96, 296
-0.974857, 265, 113, 296, 240
-0.975023, 153, 145, 216, 208
-0.975113, 185, 65, 216, 128
-0.975143, 81, 337, 208, 400
-0.975156, 45, 369, 76, 432
-0.975174, 129, 289, 192, 352
-0.975222, 33, 401, 96, 464
-0.975225, 61, 289, 92, 416
-0.975304, 65, 233, 128, 296
-0.975383, 189, 65, 220, 192
-0.975391, 289, 233, 352, 296
-0.975404, 105, 417, 168, 480
-0.975412, 241, 81, 272, 144
-0.975424, 17, 257, 80, 500
-0.97544, 193, 113, 256, 240
-0.975488, 173, 65, 204, 128
-0.975555, 149, 377, 180, 440
-0.975679, 169, 289, 232, 352
-0.975699, 177, 65, 208, 192
-0.975755, 241, 97, 304, 352
-0.975879, 17, 321, 144, 384
-0.97589, 65, 129, 192, 192
-0.976107, 13, 225, 44, 352
-0.976154, 201, 113, 264, 176
-0.97625, 217, 65, 280, 320
-0.976256, 333, 193, 364, 320
-0.976346, 125, 89, 156, 152
-0.976373, 197, 65, 228, 128
-0.976373, 293, 145, 324, 208
-0.976381, 341, 161, 372, 224
-0.976457, 49, 409, 176, 472
-0.976468, 17, 337, 80, 400
-0.976524, 289, 97, 320, 224
-0.976532, 317, 201, 348, 264
-0.976552, 101, 321, 132, 448
-0.97659, 117, 369, 148, 496
-0.97662, 177, 289, 304, 416
-0.976656, 129, 417, 160, 480
-0.976669, 13, 241, 44, 304
-0.97671, 157, 65, 188, 192
-0.976738, 245, 81, 276, 208
-0.976835, 225, 49, 288, 176
-0.976861, 17, 289, 144, 352
-0.976878, 185, 401, 248, 464
-0.976943, 121, 97, 152, 224
-0.976977, 141, 353, 172, 480
-0.977114, 33, 377, 96, 440
-0.977163, 97, 305, 224, 368
-0.977176, 269, 113, 300, 176
-0.97721, 317, 177, 348, 240
-0.977216, 193, 177, 320, 304
-0.97736, 105, 129, 136, 256
-0.977392, 209, 137, 336, 200
-0.977403, 113, 17, 240, 144
-0.977564, 101, 321, 132, 384
-0.977722, 281, 209, 344, 272
-0.97775, 33, 201, 96, 264
-0.977754, 241, 305, 304, 432
-0.977797, 85, 97, 116, 224
-0.977829, 161, 17, 224, 144
-0.977865, 185, 33, 248, 288
-0.977869, 49, 209, 176, 272
-0.977892, 293, 121, 324, 184
-0.977945, 185, 305, 248, 432
-0.977965, 45, 337, 76, 400
-0.977992, 161, 177, 224, 304
-0.978137, 97, 105, 224, 168
-0.978146, 153, 169, 216, 232
-0.978221, 73, 369, 136, 496
-0.978282, 89, 169, 152, 232
-0.978337, 105, 289, 168, 352
-0.978396, 257, 369, 320, 496
-0.978396, 241, 393, 304, 456
-0.978468, 1, 369, 128, 496
-0.978681, 241, 161, 368, 224
-0.978695, 57, 241, 88, 368
-0.978708, 297, 145, 328, 272
-0.978727, 233, 65, 264, 192
-0.978772, 57, 249, 88, 312
-0.978869, 49, 177, 176, 240
-0.978917, 309, 177, 340, 304
-0.978943, 41, 329, 104, 392
-0.97896, 17, 305, 80, 368
-0.979034, 45, 257, 76, 384
-0.979064, 169, 89, 232, 152
-0.97911, 289, 289, 352, 352
-0.979133, 97, 393, 224, 456
-0.979156, 57, 305, 88, 368
-0.979193, 313, 305, 375, 368
-0.979209, 153, 401, 184, 464
-0.979212, 93, 121, 124, 184
-0.979239, 341, 241, 372, 304
-0.979257, 1, 233, 32, 296
-0.979325, 345, 185, 375, 248
-0.979335, 137, 257, 200, 500
-0.979604, 65, 281, 192, 344
-0.979714, 153, 73, 184, 136
-0.979728, 145, 401, 272, 464
-0.979793, 265, 161, 328, 224
-0.979822, 333, 145, 364, 272
-0.97987, 333, 305, 364, 432
-0.979885, 65, 257, 128, 500
-0.97997, 193, 377, 256, 440
-0.97999, 49, 153, 176, 216
-0.98002, 33, 169, 96, 232
-0.980093, 193, 49, 256, 112
-0.980201, 1, 249, 128, 312
-0.980403, 241, 137, 304, 200
-0.980526, 229, 73, 260, 136
-0.980549, 89, 33, 152, 160
-0.980687, 25, 289, 56, 416
-0.980748, 269, 137, 300, 200
-0.980752, 9, 281, 40, 344
-0.980789, 309, 225, 340, 352
-0.980827, 289, 329, 352, 392
-0.980905, 129, 1, 192, 500
-0.980916, 137, 81, 168, 208
-0.981022, 73, 145, 104, 272
-0.981059, 257, 121, 288, 184
-0.981281, 205, 65, 236, 192
-0.981393, 25, 241, 56, 304
-0.981412, 193, 17, 256, 144
-0.981461, 241, 145, 304, 272
-0.981552, 225, 209, 352, 272
-0.981619, 333, 193, 364, 256
-0.981658, 161, 145, 288, 208
-0.981862, 49, 129, 112, 384
-0.981876, 313, 65, 375, 320
-0.981891, 241, 33, 368, 160
-0.981916, 89, 1, 152, 500
-0.981927, 265, 385, 328, 448
-0.981939, 25, 297, 56, 360
-0.981985, 97, 225, 160, 480
-0.982147, 217, 65, 280, 128
-0.982202, 105, 137, 136, 200
-0.98226, 265, 185, 328, 248
-0.982316, 177, 169, 240, 232
-0.982341, 141, 409, 172, 472
-0.982528, 121, 121, 152, 184
-0.982555, 161, 65, 288, 128
-0.982572, 85, 305, 116, 432
-0.982646, 89, 321, 120, 384
-0.982655, 177, 1, 240, 500
-0.982691, 241, 329, 304, 392
-0.982769, 253, 89, 284, 152
-0.982777, 25, 241, 56, 368
-0.982836, 41, 433, 104, 496
-0.982904, 121, 393, 152, 456
-0.982933, 113, 129, 240, 192
-0.98299, 69, 145, 100, 208
-0.982992, 145, 113, 208, 176
-0.982995, 69, 281, 100, 344
-0.983043, 101, 361, 132, 424
-0.983065, 317, 153, 348, 216
-0.983066, 145, 377, 272, 440
-0.983082, 129, 257, 192, 384
-0.98319, 209, 89, 336, 152
-0.983251, 121, 185, 184, 248
-0.983321, 241, 241, 368, 304
-0.983402, 81, 385, 144, 448
-0.983402, 97, 193, 160, 320
-0.983417, 125, 313, 156, 376
-0.983494, 217, 377, 280, 440
-0.983502, 145, 177, 272, 304
-0.983526, 233, 185, 296, 248
-0.983562, 217, 73, 248, 136
-0.983587, 41, 353, 104, 416
-0.983617, 201, 137, 264, 200
-0.983723, 301, 169, 332, 232
-0.98377, 309, 241, 340, 304
-0.983812, 241, 329, 368, 392
-0.983829, 69, 225, 100, 352
-0.983919, 65, 81, 192, 144
-0.984024, 245, 113, 276, 176
-0.984043, 285, 313, 316, 376
-0.984076, 313, 329, 375, 392
-0.984084, 273, 313, 304, 376
-0.984097, 1, 225, 128, 288
-0.984121, 13, 273, 44, 400
-0.984198, 241, 113, 368, 176
-0.984283, 73, 33, 136, 288
-0.984386, 269, 353, 300, 480
-0.98439, 281, 137, 312, 200
-0.984438, 241, 185, 368, 248
-0.984508, 177, 345, 240, 408
-0.984562, 137, 289, 168, 352
-0.98457, 241, 369, 304, 432
-0.984589, 185, 89, 216, 152
-0.984596, 217, 305, 280, 432
-0.984618, 165, 321, 196, 448
-0.984623, 73, 289, 104, 416
-0.984664, 165, 401, 196, 464
-0.984668, 193, 161, 256, 288
-0.984791, 1, 33, 256, 160
-0.984817, 217, 1, 280, 500
-0.984836, 137, 17, 200, 144
-0.984876, 153, 1, 216, 500
-0.984901, 217, 65, 248, 192
-0.984988, 153, 289, 216, 416
-0.985007, 97, 273, 128, 400
-0.985086, 173, 145, 204, 208
-0.985096, 193, 401, 320, 464
-0.985145, 93, 97, 124, 160
-0.98515, 265, 89, 296, 152
-0.985168, 281, 369, 344, 496
-0.985283, 129, 345, 256, 408
-0.985297, 113, 137, 176, 200
-0.985302, 321, 297, 352, 360
-0.985313, 97, 153, 224, 216
-0.985355, 345, 129, 375, 256
-0.985393, 153, 321, 184, 448
-0.985399, 181, 113, 212, 176
-0.985407, 161, 369, 192, 432
-0.985455, 69, 105, 100, 168
-0.985499, 345, 305, 375, 432
-0.985503, 157, 289, 188, 352
-0.985586, 265, 65, 296, 192
-0.985642, 305, 297, 336, 360
-0.985675, 193, 321, 320, 384
-0.985735, 345, 289, 375, 352
-0.985762, 241, 1, 304, 500
-0.985801, 141, 337, 172, 400
-0.985801, 33, 145, 96, 208
-0.985833, 97, 177, 224, 240
-0.985866, 45, 417, 76, 480
-0.985874, 197, 145, 228, 208
-0.986029, 241, 305, 368, 368
-0.986096, 305, 353, 368, 480
-0.986123, 257, 337, 288, 464
-0.986148, 53, 193, 84, 320
-0.986173, 317, 113, 348, 240
-0.986203, 97, 201, 160, 264
-0.986203, 241, 417, 304, 480
-0.986232, 153, 369, 184, 496
-0.986236, 9, 369, 72, 432
-0.986244, 273, 1, 336, 500
-0.986264, 81, 129, 112, 192
-0.986327, 141, 313, 172, 376
-0.986343, 265, 273, 328, 400
-0.986371, 185, 161, 216, 224
-0.986394, 189, 129, 220, 256
-0.986416, 1, 201, 128, 264
-0.986491, 1, 129, 128, 192
-0.986498, 177, 377, 208, 440
-0.98652, 257, 65, 320, 128
-0.986543, 225, 305, 288, 368
-0.986544, 193, 369, 320, 432
-0.986566, 161, 257, 224, 500
-0.986591, 141, 89, 172, 152
-0.986632, 201, 169, 264, 232
-0.986636, 177, 353, 208, 480
-0.986673, 1, 273, 32, 400
-0.986704, 17, 129, 80, 384
-0.986725, 105, 81, 136, 208
-0.986727, 141, 305, 172, 432
-0.986788, 45, 313, 76, 376
-0.986969, 81, 409, 144, 472
-0.986981, 1, 65, 128, 192
-0.987063, 241, 393, 368, 456
-0.987068, 177, 145, 208, 272
-0.987084, 177, 345, 304, 408
-0.987098, 49, 257, 176, 320
-0.987161, 129, 425, 192, 488
-0.987307, 309, 265, 340, 328
-0.987399, 313, 289, 344, 416
-0.987407, 313, 1, 375, 500
-0.987459, 129, 289, 160, 416
-0.987511, 53, 217, 84, 280
-0.987515, 33, 433, 160, 496
-0.987517, 253, 129, 284, 256
-0.987567, 241, 281, 368, 344
-0.987622, 49, 233, 176, 296
-0.987646, 117, 273, 148, 400
-0.987678, 145, 289, 272, 352
-0.987744, 73, 265, 136, 328
-0.987812, 185, 225, 248, 480
-0.987814, 245, 401, 276, 464
-0.987816, 145, 169, 272, 232
-0.987828, 73, 109, 136, 140
-0.987834, 17, 281, 80, 312
-0.987913, 301, 217, 332, 280
-0.987987, 65, 1, 128, 500
-0.988004, 97, 97, 352, 160
-0.988104, 177, 401, 208, 464
-0.988287, 1, 153, 128, 216
-0.988334, 245, 369, 276, 496
-0.988347, 25, 293, 88, 324
-0.988379, 73, 169, 104, 232
-0.988409, 73, 121, 136, 152
-0.988417, 257, 117, 320, 148
-0.988429, 169, 281, 200, 344
-0.988438, 273, 409, 336, 472
-0.988484, 249, 1, 312, 256
-0.988491, 333, 329, 364, 392
-0.988543, 229, 97, 260, 160
-0.988593, 73, 321, 104, 384
-0.988615, 313, 253, 375, 284
-0.988622, 169, 41, 232, 104
-0.988664, 277, 145, 308, 272
-0.988687, 249, 257, 312, 500
-0.988711, 117, 145, 148, 272
-0.988719, 269, 393, 300, 456
-0.98872, 17, 433, 80, 496
-0.988723, 105, 177, 136, 240
-0.988782, 1, 369, 128, 432
-0.988793, 105, 365, 168, 396
-0.988798, 305, 233, 368, 264
-0.988835, 249, 105, 312, 136
-0.988839, 193, 353, 224, 480
-0.98888, 161, 69, 224, 100
-0.988889, 97, 105, 160, 136
-0.988926, 105, 369, 136, 496
-0.988935, 193, 185, 320, 248
-0.988998, 97, 417, 224, 480
-0.989003, 305, 173, 368, 204
-0.989005, 273, 305, 304, 432
-0.989007, 33, 305, 96, 336
-0.989047, 81, 433, 144, 496
-0.989117, 241, 193, 304, 320
-0.989128, 225, 353, 256, 480
-0.989131, 9, 409, 72, 472
-0.989143, 333, 217, 364, 280
-0.989162, 345, 209, 375, 272
-0.98917, 105, 289, 136, 352
-0.989242, 209, 321, 240, 448
-0.98925, 313, 217, 375, 248
-0.989267, 313, 189, 375, 220
-0.989277, 97, 129, 160, 160
-0.989292, 33, 1, 96, 500
-0.989322, 257, 129, 320, 160
-0.989338, 121, 393, 184, 424
-0.989355, 65, 377, 96, 440
-0.989375, 65, 173, 128, 204
-0.989386, 285, 305, 316, 432
-0.989454, 49, 17, 176, 144
-0.989458, 313, 205, 375, 236
-0.98946, 137, 77, 200, 108
-0.989481, 293, 97, 324, 160
-0.989504, 137, 177, 200, 304
-0.989528, 105, 325, 168, 356
-0.989529, 173, 177, 204, 240
-0.989558, 57, 409, 88, 472
-0.989569, 193, 81, 256, 112
-0.989572, 89, 241, 152, 368
-0.989578, 333, 297, 364, 360
-0.98959, 313, 277, 375, 308
-0.989594, 1, 177, 128, 240
-0.989596, 189, 385, 220, 448
-0.989612, 181, 41, 212, 104
-0.989615, 29, 353, 60, 480
-0.989616, 185, 193, 248, 256
-0.989626, 133, 65, 164, 128
-0.98964, 289, 65, 352, 320
-0.989673, 73, 141, 136, 172
-0.989681, 145, 413, 208, 444
-0.989718, 249, 289, 312, 352
-0.989735, 169, 129, 232, 384
-0.989736, 313, 265, 375, 296
-0.989775, 65, 161, 128, 192
-0.989784, 97, 353, 160, 384
-0.989793, 217, 401, 248, 464
-0.989826, 9, 269, 72, 300
-0.989841, 65, 185, 128, 216
-0.98985, 73, 217, 104, 280
-0.989857, 1, 293, 64, 324
-0.989911, 217, 85, 280, 116
-0.989913, 257, 145, 288, 208
-0.989913, 41, 273, 104, 304
-0.989946, 177, 313, 240, 376
-0.989958, 125, 49, 156, 176
-0.989963, 121, 377, 184, 408
-0.989997, 113, 337, 176, 368
-0.989999, 89, 381, 152, 412
-0.990009, 137, 317, 200, 348
-0.990011, 57, 401, 120, 464
-0.990023, 93, 297, 124, 360
-0.990027, 165, 369, 196, 496
-0.990031, 241, 369, 368, 432
-0.990049, 73, 193, 104, 256
-0.990061, 81, 289, 112, 352
-0.990069, 313, 161, 375, 192
-0.99007, 25, 253, 88, 284
-0.99008, 177, 241, 304, 368
-0.990082, 169, 81, 232, 112
-0.990134, 121, 353, 184, 384
-0.990217, 57, 325, 120, 356
-0.990233, 305, 149, 368, 180
-0.990235, 121, 409, 184, 440
-0.990239, 81, 325, 144, 356
-0.990258, 65, 213, 128, 244
-0.990304, 265, 325, 328, 356
-0.99033, 265, 141, 328, 172
-0.99034, 49, 285, 112, 316
-0.99034, 225, 101, 288, 132
-0.990354, 65, 197, 128, 228
-0.990371, 145, 313, 272, 376
-0.990379, 169, 145, 232, 176
-0.990391, 345, 313, 375, 376
-0.990396, 97, 49, 224, 112
-0.990416, 197, 113, 228, 176
-0.990428, 193, 41, 224, 104
-0.990431, 257, 409, 288, 472
-0.990433, 209, 65, 336, 128
-0.990466, 97, 117, 160, 148
-0.990502, 281, 189, 344, 220
-0.990507, 273, 105, 336, 136
-0.990549, 145, 265, 208, 328
-0.990565, 57, 373, 120, 404
-0.990576, 177, 305, 208, 432
-0.990603, 189, 409, 220, 472
-0.990605, 97, 141, 160, 172
-0.990616, 265, 157, 328, 188
-0.990619, 89, 337, 152, 368
-0.990642, 233, 401, 264, 464
-0.990655, 217, 257, 280, 500
-0.990657, 289, 81, 352, 144
-0.990679, 233, 117, 296, 148
-0.990684, 129, 365, 192, 396
-0.990686, 145, 349, 208, 380
-0.990687, 1, 1, 375, 128
-0.9907, 201, 401, 232, 464
-0.990708, 281, 81, 312, 144
-0.99071, 97, 201, 224, 264
-0.990738, 25, 129, 88, 256
-0.990743, 177, 157, 240, 188
-0.990744, 41, 209, 72, 336
-0.990746, 233, 161, 296, 224
-0.990761, 121, 89, 184, 120
-0.990812, 121, 101, 184, 132
-0.990833, 33, 233, 96, 264
-0.990841, 289, 261, 352, 292
-0.990883, 185, 69, 248, 100
-0.990941, 105, 421, 168, 452
-0.99095, 97, 241, 224, 368
-0.990979, 1, 97, 128, 160
-0.990992, 1, 209, 375, 272
-0.991001, 165, 129, 196, 256
-0.991035, 193, 281, 256, 344
-0.991035, 97, 313, 160, 344
-0.991047, 281, 169, 344, 200
-0.991063, 137, 337, 200, 368
-0.991093, 237, 321, 268, 448
-0.991109, 209, 193, 272, 256
-0.991125, 281, 117, 344, 148
-0.991151, 313, 333, 375, 364
-0.991161, 97, 93, 160, 124
-0.991166, 145, 377, 208, 408
-0.991178, 81, 369, 144, 400
-0.991183, 289, 249, 352, 280
-0.991204, 73, 305, 136, 336
-0.991216, 201, 101, 264, 132
-0.991228, 313, 289, 375, 320
-0.991239, 273, 361, 336, 424
-0.991244, 121, 161, 184, 416
-0.991259, 249, 93, 312, 124
-0.991313, 313, 305, 375, 336
-0.991322, 97, 409, 160, 440
-0.991339, 153, 165, 216, 196
-0.991353, 49, 249, 112, 280
-0.99137, 97, 73, 352, 136
-0.991371, 49, 121, 112, 152
-0.991388, 33, 385, 96, 416
-0.991411, 33, 321, 96, 352
-0.991461, 289, 49, 352, 176
-0.991502, 233, 133, 296, 164
-0.991504, 121, 49, 184, 112
-0.991507, 65, 225, 128, 256
-0.991507, 273, 217, 336, 248
-0.991512, 65, 237, 128, 268
-0.991527, 41, 441, 104, 472
-0.991573, 97, 397, 160, 428
-0.991602, 273, 201, 336, 232
-0.991604, 1, 249, 64, 280
-0.991614, 273, 237, 336, 268
-0.991618, 121, 117, 184, 148
-0.991633, 89, 181, 152, 212
-0.991635, 225, 405, 288, 436
-0.991636, 25, 397, 88, 428
-0.991641, 9, 309, 72, 340
-0.991687, 73, 97, 136, 128
-0.99169, 1, 345, 128, 408
-0.991719, 177, 325, 240, 356
-0.99172, 65, 273, 128, 304
-0.991735, 33, 181, 96, 212
-0.991746, 169, 365, 232, 396
-0.991746, 33, 425, 96, 456
-0.991753, 185, 173, 248, 204
-0.991768, 289, 273, 352, 304
-0.991809, 181, 65, 212, 96
-0.991816, 89, 165, 152, 196
-0.991831, 25, 409, 88, 440
-0.991884, 1, 129, 375, 192
-0.991886, 33, 205, 96, 236
-0.9919, 289, 285, 352, 316
-0.991901, 313, 393, 375, 456
-0.991907, 177, 17, 208, 144
-0.991911, 201, 153, 264, 184
-0.991914, 33, 221, 96, 252
-0.991919, 161, 193, 224, 256
-0.991957, 145, 401, 208, 432
-0.991965, 49, 109, 112, 140
-0.991968, 121, 433, 184, 464
-0.991969, 281, 369, 312, 496
-0.991978, 177, 93, 240, 124
-0.991985, 281, 105, 312, 136
-0.991987, 289, 325, 352, 356
-0.991998, 65, 289, 320, 352
-0.992041, 145, 389, 208, 420
-0.992047, 257, 401, 320, 432
-0.992049, 105, 121, 136, 152
-0.992049, 313, 353, 375, 416
-0.992067, 261, 101, 292, 132
-0.99207, 273, 313, 336, 344
-0.992073, 53, 285, 84, 316
-0.992078, 81, 109, 112, 140
-0.992078, 53, 145, 84, 272
-0.99208, 205, 369, 236, 496
-0.992081, 161, 105, 224, 136
-0.992107, 57, 361, 120, 392
-0.992114, 137, 65, 200, 96
-0.992123, 97, 201, 160, 232
-0.992133, 25, 285, 56, 316
-0.99214, 81, 65, 144, 128
-0.992142, 97, 361, 352, 424
-0.992151, 265, 125, 296, 156
-0.992185, 129, 369, 160, 400
-0.992189, 245, 33, 276, 160
-0.992212, 101, 105, 132, 136
-0.992216, 345, 269, 375, 300
-0.992217, 1, 137, 256, 200
-0.992222, 317, 337, 348, 464
-0.992225, 129, 397, 160, 428
-0.992245, 129, 353, 160, 384
-0.992246, 185, 145, 216, 176
-0.99228, 41, 281, 72, 312
-0.99229, 97, 313, 352, 376
-0.992294, 13, 289, 44, 320
-0.992322, 325, 177, 356, 208
-0.992335, 197, 73, 228, 104
-0.992339, 189, 17, 220, 144
-0.992342, 17, 65, 144, 128
-0.99235, 117, 321, 148, 352
-0.992363, 105, 365, 136, 396
-0.992378, 149, 409, 180, 440
-0.992382, 253, 117, 284, 148
-0.992391, 1, 269, 32, 300
-0.992409, 313, 181, 344, 212
-0.992411, 133, 417, 164, 448
-0.992414, 81, 241, 112, 368
-0.992422, 165, 73, 196, 104
-0.992422, 1, 289, 375, 352
-0.992426, 325, 277, 356, 308
-0.99243, 121, 89, 152, 120
-0.992435, 41, 293, 72, 324
-0.992445, 337, 281, 368, 312
-0.992455, 341, 185, 372, 216
-0.992471, 153, 85, 184, 116
-0.992494, 57, 305, 88, 336
-0.992502, 125, 333, 156, 364
-0.992505, 45, 377, 76, 408
-0.992512, 225, 81, 256, 112
-0.992517, 129, 101, 160, 132
-0.992526, 137, 85, 168, 116
-0.992526, 245, 89, 276, 120
-0.992543, 185, 165, 216, 196
-0.992553, 65, 289, 96, 320
-0.992553, 333, 265, 364, 296
-0.992568, 97, 337, 352, 400
-0.992581, 1, 285, 32, 316
-0.992585, 329, 193, 360, 224
-0.992587, 81, 121, 112, 152
-0.992589, 297, 193, 328, 320
-0.99259, 117, 337, 132, 400
-0.992592, 45, 389, 76, 420
-0.992598, 113, 349, 144, 380
-0.992602, 269, 113, 300, 144
-0.992605, 101, 329, 132, 360
-0.992614, 117, 109, 148, 140
-0.992632, 141, 385, 172, 416
-0.992637, 117, 361, 148, 392
-0.992647, 321, 257, 352, 288
-0.992649, 1, 257, 32, 288
-0.992652, 45, 409, 76, 440
-0.992655, 109, 93, 140, 124
-0.992661, 281, 117, 312, 148
-0.992663, 293, 149, 324, 180
-0.992666, 341, 161, 372, 192
-0.992667, 145, 193, 272, 256
-0.992694, 117, 193, 148, 320
-0.992696, 53, 273, 84, 304
-0.992697, 181, 81, 212, 112
-0.992705, 285, 137, 316, 168
-0.992706, 245, 105, 276, 136
-0.99272, 29, 297, 60, 328
-0.992726, 217, 161, 280, 288
-0.992726, 129, 145, 160, 272
-0.992732, 317, 241, 348, 272
-0.992733, 45, 421, 76, 452
-0.992734, 129, 381, 160, 412
-0.99274, 13, 273, 44, 304
-0.99276, 285, 321, 316, 352
-0.992762, 349, 257, 364, 320
-0.992777, 257, 137, 288, 168
-0.992781, 1, 177, 32, 304
-0.992784, 129, 81, 256, 112
-0.992789, 105, 317, 136, 348
-0.992793, 109, 381, 140, 412
-0.992793, 121, 409, 152, 440
-0.992793, 93, 125, 124, 156
-0.992797, 1, 265, 256, 328
-0.992799, 137, 337, 168, 368
-0.992814, 1, 89, 375, 152
-0.992821, 317, 217, 348, 248
-0.992827, 53, 253, 84, 284
-0.992831, 9, 241, 40, 272
-0.992841, 141, 369, 172, 400
-0.992843, 233, 101, 264, 132
-0.992846, 209, 81, 240, 112
-0.992846, 197, 153, 228, 184
-0.992851, 141, 97, 172, 128
-0.992857, 113, 133, 144, 164
-0.99286, 333, 293, 364, 324
-0.992865, 13, 253, 44, 284
-0.992868, 65, 401, 320, 464
-0.992885, 41, 325, 72, 356
-0.992887, 173, 161, 204, 192
-0.992888, 53, 433, 84, 464
-0.99289, 117, 393, 148, 424
-0.992899, 297, 321, 328, 448
-0.992903, 25, 249, 56, 280
-0.992906, 1, 233, 375, 296
-0.992909, 153, 377, 184, 408
-0.992912, 337, 341, 368, 372
-0.992923, 345, 209, 375, 240
-0.99293, 313, 273, 344, 304
-0.992931, 1, 169, 375, 232
-0.992937, 345, 197, 375, 228
-0.992941, 93, 137, 124, 168
-0.992944, 145, 33, 176, 160
-0.992945, 141, 353, 172, 384
-0.992945, 73, 325, 104, 356
-0.992946, 85, 325, 116, 356
-0.992961, 25, 273, 56, 304
-0.992964, 317, 193, 348, 224
-0.992966, 121, 121, 152, 152
-0.992971, 73, 305, 104, 336
-0.992974, 361, 193, 375, 256
-0.992975, 293, 121, 324, 152
-0.992976, 45, 305, 76, 336
-0.992981, 313, 161, 344, 192
-0.992981, 297, 169, 328, 200
-0.992989, 317, 205, 348, 236
-0.992991, 173, 393, 204, 424
-0.992991, 41, 253, 72, 284
-0.992991, 129, 177, 375, 240
-0.992993, 93, 145, 124, 272
-0.993004, 69, 153, 100, 184
-0.993005, 141, 397, 172, 428
-0.993018, 81, 133, 112, 164
-0.99302, 53, 241, 84, 272
-0.993023, 345, 293, 375, 324
-0.993023, 337, 173, 368, 204
-0.993034, 61, 317, 92, 348
-0.99304, 321, 289, 352, 320
-0.993041, 169, 85, 200, 116
-0.993042, 335, 169, 350, 232
-0.993055, 69, 137, 100, 168
-0.993055, 153, 357, 184, 388
-0.993061, 137, 433, 168, 464
-0.993066, 113, 333, 144, 364
-0.993074, 65, 277, 96, 308
-0.993075, 313, 229, 344, 260
-0.993082, 97, 149, 128, 180
-0.993083, 305, 253, 336, 284
-0.993092, 25, 261, 56, 292
-0.993092, 105, 189, 136, 220
-0.993104, 129, 353, 144, 416
-0.993107, 195, 137, 210, 200
-0.993181, 49, 377, 176, 408
-0.993235, 129, 137, 375, 200
-0.993237, 333, 353, 364, 480
-0.993335, 129, 249, 375, 312
-0.993376, 65, 353, 96, 480
-0.993448, 1, 393, 375, 456
-0.993449, 193, 297, 320, 360
-0.993496, 49, 257, 64, 320
-0.993521, 105, 177, 136, 304
-0.993542, 1, 377, 256, 440
-0.993543, 1, 409, 128, 472
-0.993593, 83, 105, 98, 168
-0.993598, 295, 105, 310, 168
-0.993599, 69, 281, 84, 344
-0.993609, 111, 337, 126, 400
-0.993624, 49, 365, 176, 396
-0.993657, 49, 129, 176, 160
-0.993678, 189, 137, 204, 200
-0.993702, 337, 265, 352, 328
-0.993728, 129, 321, 144, 384
-0.993741, 37, 257, 52, 320
-0.993741, 217, 17, 248, 144
-0.993751, 275, 113, 290, 176
-0.993779, 187, 57, 202, 120
-0.993787, 241, 257, 304, 384
-0.99379, 65, 249, 80, 312
-0.993798, 1, 217, 256, 280
-0.993813, 329, 169, 344, 232
-0.993862, 119, 313, 134, 376
-0.993868, 121, 361, 136, 424
-0.993903, 209, 137, 336, 168
-0.993914, 135, 377, 150, 440
-0.993929, 13, 257, 28, 320
-0.993959, 287, 105, 302, 168
-0.993961, 9, 1, 72, 500
-0.993997, 201, 113, 232, 240
-0.994005, 135, 345, 150, 408
-0.994012, 337, 241, 352, 304
-0.994025, 3, 257, 18, 320
-0.994036, 353, 153, 368, 216
-0.99408, 1, 369, 375, 432
-0.994083, 41, 281, 56, 344
-0.994094, 235, 73, 250, 136
-0.994107, 141, 353, 156, 416
-0.994116, 343, 265, 358, 328
-0.994131, 49, 393, 176, 424
-0.994148, 343, 241, 358, 304
-0.994177, 1, 113, 256, 176
-0.994177, 49, 117, 176, 148
-0.994193, 5, 233, 20, 296
-0.994199, 177, 73, 192, 136
-0.994199, 49, 421, 176, 452
-0.994205, 1, 161, 256, 224
-0.994206, 209, 109, 336, 140
-0.994207, 129, 201, 375, 264
-0.99421, 91, 113, 106, 176
-0.994215, 143, 385, 158, 448
-0.994249, 1, 257, 375, 320
-0.994266, 27, 265, 42, 328
-0.994276, 75, 129, 90, 192
-0.994291, 203, 65, 218, 128
-0.994298, 81, 129, 96, 192
-0.994305, 345, 353, 375, 480
-0.994308, 321, 209, 336, 272
-0.994313, 47, 297, 62, 360
-0.994326, 105, 225, 136, 352
-0.994343, 43, 257, 58, 320
-0.994351, 137, 321, 152, 384
-0.994362, 109, 137, 124, 200
-0.994371, 281, 105, 296, 168
-0.994416, 129, 413, 256, 444
-0.994418, 289, 129, 304, 192
-0.994426, 49, 153, 176, 184
-0.994469, 355, 265, 370, 328
-0.994509, 277, 49, 308, 176
-0.99451, 153, 369, 168, 432
-0.994536, 47, 337, 62, 400
-0.994546, 1, 313, 256, 376
-0.994572, 229, 113, 260, 240
-0.994582, 97, 109, 224, 140
-0.994629, 49, 205, 176, 236
-0.994633, 343, 161, 358, 224
-0.994666, 153, 401, 168, 464
-0.994667, 355, 233, 370, 296
-0.994668, 267, 129, 282, 192
-0.994678, 161, 101, 288, 132
-0.994681, 193, 57, 208, 120
-0.99469, 147, 361, 162, 424
-0.994692, 251, 81, 266, 144
-0.994693, 361, 257, 375, 320
-0.994697, 143, 417, 158, 480
-0.994704, 81, 97, 208, 128
-0.994722, 177, 257, 240, 384
-0.994735, 99, 121, 114, 184
-0.994743, 157, 17, 188, 144
-0.994756, 361, 153, 375, 216
-0.994767, 241, 177, 368, 208
-0.994782, 201, 17, 232, 144
-0.994784, 209, 121, 336, 152
-0.994809, 329, 241, 344, 304
-0.994813, 49, 217, 176, 248
-0.994816, 201, 145, 216, 208
-0.994834, 49, 405, 176, 436
-0.994835, 299, 129, 314, 192
-0.994851, 117, 97, 132, 160
-0.994855, 145, 129, 208, 384
-0.994857, 119, 129, 134, 192
-0.994859, 319, 185, 334, 248
-0.994879, 33, 293, 160, 324
-0.994897, 1, 313, 375, 376
-0.994915, 123, 337, 138, 400
-0.994934, 97, 369, 224, 400
-0.99499, 325, 265, 340, 328
-0.994999, 161, 265, 288, 328
-0.995003, 189, 305, 220, 432
-0.995013, 97, 321, 224, 352
-0.995019, 259, 89, 274, 152
-0.995021, 345, 185, 360, 248
-0.99504, 333, 225, 364, 480
-0.995057, 301, 105, 316, 168
-0.995058, 11, 233, 26, 296
-0.995078, 55, 257, 70, 320
-0.995091, 33, 185, 288, 248
-0.995101, 305, 97, 336, 224
-0.995116, 193, 161, 208, 224
-0.995129, 177, 85, 304, 116
-0.995129, 147, 321, 162, 384
-0.995141, 241, 81, 256, 144
-0.995148, 97, 393, 224, 424
-0.995156, 107, 361, 122, 424
-0.995158, 133, 81, 148, 144
-0.995158, 115, 361, 130, 424
-0.99516, 353, 201, 368, 264
-0.995161, 33, 321, 160, 352
-0.995184, 63, 273, 78, 336
-0.995192, 351, 177, 366, 240
-0.995194, 103, 321, 118, 384
-0.995224, 241, 129, 272, 256
-0.995231, 177, 41, 304, 104
-0.995239, 97, 349, 224, 380
-0.995242, 91, 145, 106, 208
-0.995254, 145, 81, 160, 144
-0.995257, 159, 377, 174, 440
-0.995262, 187, 385, 202, 448
-0.995263, 183, 153, 198, 216
-0.995275, 1, 337, 256, 400
-0.99528, 1, 241, 256, 304
-0.995317, 1, 81, 256, 144
-0.995345, 307, 145, 322, 208
-0.995352, 181, 385, 196, 448
-0.995373, 89, 49, 120, 176
-0.995378, 187, 81, 202, 144
-0.995388, 21, 241, 36, 304
-0.995415, 97, 381, 224, 412
-0.995431, 129, 225, 375, 288
-0.995435, 45, 257, 76, 500
-0.995449, 177, 361, 192, 424
-0.995452, 25, 193, 56, 320
-0.995455, 49, 185, 176, 216
-0.995458, 53, 297, 68, 360
-0.995466, 335, 193, 350, 256
-0.995471, 267, 105, 282, 168
-0.995471, 35, 281, 50, 344
-0.995474, 331, 265, 346, 328
-0.995477, 97, 145, 224, 176
-0.995478, 75, 105, 90, 168
-0.995493, 127, 97, 142, 160
-0.995517, 1, 245, 128, 276
-0.995525, 161, 133, 288, 164
-0.995525, 1, 345, 375, 408
-0.995527, 111, 97, 126, 160
-0.995539, 347, 217, 362, 280
-0.995543, 259, 113, 274, 176
-0.995546, 137, 417, 152, 480
-0.995572, 73, 129, 104, 384
-0.995574, 129, 69, 256, 100
-0.995593, 19, 273, 34, 336
-0.995598, 47, 409, 62, 472
-0.995608, 81, 85, 208, 116
-0.99563, 321, 241, 336, 304
-0.99564, 65, 173, 192, 204
-0.995641, 59, 297, 74, 360
-0.995643, 61, 401, 76, 464
-0.995667, 279, 137, 294, 200
-0.995691, 105, 169, 120, 232
-0.995697, 97, 333, 224, 364
-0.995699, 13, 281, 28, 344
-0.995722, 129, 377, 144, 440
-0.995723, 49, 141, 176, 172
-0.995725, 313, 225, 344, 480
-0.995757, 193, 129, 256, 384
-0.99576, 31, 241, 46, 304
-0.995791, 265, 161, 296, 288
-0.9958, 307, 121, 322, 184
-0.9958, 115, 169, 130, 232
-0.995803, 225, 217, 352, 248
-0.995807, 213, 73, 228, 136
-0.995813, 49, 305, 176, 336
-0.995818, 159, 401, 174, 464
-0.995825, 75, 161, 90, 224
-0.995843, 127, 409, 142, 472
-0.995854, 113, 17, 176, 144
-0.995856, 97, 121, 224, 152
-0.995863, 241, 329, 368, 360
-0.995894, 61, 225, 92, 480
-0.995906, 161, 217, 288, 280
-0.995918, 329, 201, 344, 264
-0.995927, 165, 369, 180, 432
-0.99593, 151, 73, 166, 136
-0.995953, 229, 73, 244, 136
-0.995962, 49, 433, 176, 464
-0.995968, 17, 337, 144, 368
-0.995972, 321, 313, 336, 376
-0.995972, 361, 233, 375, 296
-0.995987, 297, 241, 328, 368
-0.995991, 61, 97, 92, 224
-0.996051, 169, 73, 184, 136
-0.996059, 281, 161, 296, 224
-0.996062, 49, 349, 176, 380
-0.996097, 241, 197, 368, 228
-0.996099, 185, 33, 216, 288
-0.996124, 49, 229, 176, 260
-0.996136, 209, 149, 336, 180
-0.996162, 301, 369, 332, 496
-0.996196, 229, 17, 260, 144
-0.996196, 273, 257, 304, 384
-0.99622, 1, 309, 128, 340
-0.996221, 297, 129, 328, 384
-0.996236, 161, 113, 288, 144
-0.996255, 13, 177, 44, 304
-0.996346, 97, 133, 224, 164
-0.996393, 189, 177, 220, 304
-0.996396, 1, 281, 128, 312
-0.99641, 93, 369, 124, 496
-0.996428, 49, 49, 112, 176
-0.996433, 241, 65, 272, 320
-0.99645, 121, 65, 152, 320
-0.996464, 1, 257, 128, 288
-0.996471, 49, 241, 176, 272
-0.996486, 201, 209, 264, 336
-0.996492, 213, 161, 244, 288
-0.996499, 97, 161, 224, 192
-0.996545, 345, 257, 375, 500
-0.996573, 33, 105, 160, 136
-0.996576, 161, 149, 288, 180
-0.996581, 337, 129, 368, 384
-0.996591, 209, 97, 336, 128
-0.9966, 209, 161, 336, 192
-0.996619, 203, 73, 218, 104
-0.996623, 85, 97, 116, 352
-0.996663, 97, 433, 224, 464
-0.996676, 165, 33, 196, 288
-0.996719, 241, 229, 368, 260
-0.996724, 285, 257, 316, 384
-0.996763, 361, 209, 375, 240
-0.996768, 67, 285, 82, 316
-0.996776, 9, 225, 40, 480
-0.996779, 1, 269, 128, 300
-0.996818, 321, 129, 352, 384
-0.996822, 1, 233, 128, 264
-0.996839, 289, 49, 320, 176
-0.996854, 17, 173, 144, 204
-0.996867, 177, 405, 304, 436
-0.996908, 1, 141, 128, 172
-0.996908, 179, 69, 194, 100
-0.996936, 235, 81, 250, 112
-0.996942, 25, 289, 40, 320
-0.996962, 49, 281, 176, 312
-0.99697, 25, 257, 56, 500
-0.996982, 267, 117, 282, 148
-0.996996, 241, 345, 368, 376
-0.997005, 351, 269, 366, 300
-0.997005, 35, 293, 50, 324
-0.99702, 119, 345, 134, 376
-0.997034, 341, 277, 356, 308
-0.997052, 193, 425, 320, 488
-0.997053, 293, 105, 308, 136
-0.997057, 125, 257, 156, 500
-0.997057, 75, 129, 90, 160
-0.997064, 225, 161, 256, 288
-0.997065, 333, 177, 348, 208
-0.997068, 241, 261, 368, 292
-0.997075, 361, 197, 375, 228
-0.997089, 191, 65, 206, 96
-0.997092, 161, 165, 288, 196
-0.997108, 61, 129, 92, 384
-0.997122, 281, 65, 312, 320
-0.997138, 49, 41, 176, 104
-0.997142, 143, 421, 158, 452
-0.997145, 33, 277, 48, 308
-0.997175, 225, 241, 352, 272
-0.997177, 259, 113, 274, 144
-0.997179, 241, 81, 256, 112
-0.997185, 1, 445, 128, 476
-0.997195, 5, 269, 20, 300
-0.997197, 177, 333, 304, 364
-0.997208, 119, 133, 134, 164
-0.997222, 25, 277, 40, 308
-0.997228, 269, 97, 300, 352
-0.997235, 121, 93, 136, 124
-0.997241, 331, 269, 346, 300
-0.997244, 13, 273, 28, 304
-0.997255, 361, 265, 375, 296
-0.997262, 1, 373, 128, 404
-0.997265, 153, 377, 168, 408
-0.997272, 129, 353, 144, 384
-0.997274, 185, 65, 200, 96
-0.99728, 197, 33, 228, 288
-0.997282, 241, 273, 368, 304
-0.997288, 109, 121, 124, 152
-0.997288, 1, 65, 375, 128
-0.997289, 105, 161, 136, 416
-0.997299, 259, 93, 274, 124
-0.997318, 173, 73, 188, 104
-0.997319, 79, 113, 94, 144
-0.997326, 145, 81, 160, 112
-0.997337, 253, 289, 284, 416
-0.997352, 119, 321, 134, 352
-0.997354, 161, 273, 192, 400
-0.997358, 139, 353, 154, 384
-0.997359, 41, 285, 56, 316
-0.997365, 105, 33, 136, 288
-0.997371, 145, 369, 272, 400
-0.997372, 161, 393, 288, 424
-0.997377, 303, 117, 318, 148
-0.997388, 117, 109, 132, 140
-0.997388, 269, 133, 284, 164
-0.99739, 129, 389, 144, 420
-0.997402, 299, 137, 314, 168
-0.997402, 133, 413, 148, 444
-0.99741, 101, 325, 116, 356
-0.997413, 177, 345, 304, 376
-0.997414, 295, 125, 310, 156
-0.997418, 101, 109, 116, 140
-0.99742, 137, 65, 168, 320
-0.997423, 65, 273, 80, 304
-0.997444, 137, 341, 152, 372
-0.997451, 185, 165, 200, 196
-0.997452, 253, 89, 268, 120
-0.997453, 347, 289, 362, 320
-0.997455, 261, 137, 276, 168
-0.99746, 253, 97, 284, 352
-0.997462, 355, 221, 370, 252
-0.997465, 225, 397, 352, 428
-0.997465, 355, 181, 370, 212
-0.997466, 343, 265, 358, 296
-0.997466, 1, 125, 128, 156
-0.997476, 139, 329, 154, 360
-0.997476, 353, 161, 368, 192
-0.997478, 83, 133, 98, 164
-0.997479, 289, 137, 304, 168
-0.99748, 327, 181, 342, 212
-0.997496, 197, 69, 212, 100
-0.997497, 141, 257, 172, 500
-0.997498, 11, 257, 26, 288
-0.9975, 177, 69, 304, 100
-0.99751, 229, 65, 260, 320
-0.99751, 285, 105, 300, 136
-0.99751, 123, 117, 138, 148
-0.997512, 161, 181, 288, 212
-0.997514, 195, 165, 210, 196
-0.99752, 349, 257, 364, 288
-0.997521, 321, 189, 336, 220
-0.997522, 201, 257, 264, 384
-0.997534, 129, 325, 144, 356
-0.997537, 1, 217, 128, 248
-0.997537, 53, 285, 68, 316
-0.997539, 65, 425, 320, 488
-0.99754, 91, 149, 106, 180
-0.997545, 133, 369, 148, 400
-0.997549, 107, 365, 122, 396
-0.997557, 85, 109, 100, 140
-0.997562, 337, 265, 352, 296
-0.997565, 209, 73, 224, 104
-0.997567, 129, 337, 144, 368
-0.997568, 181, 85, 196, 116
-0.997576, 47, 285, 62, 316
-0.99758, 319, 217, 334, 248
-0.99758, 153, 409, 168, 440
-0.997581, 177, 321, 304, 352
-0.997584, 113, 265, 240, 328
-0.997585, 91, 109, 106, 140
-0.997586, 241, 317, 368, 348
-0.997589, 109, 141, 124, 172
-0.997608, 159, 81, 174, 112
-0.99762, 143, 397, 158, 428
-0.997623, 1, 153, 128, 184
-0.997625, 339, 293, 354, 324
-0.997629, 1, 189, 128, 220
-0.997636, 45, 325, 60, 356
-0.997652, 33, 93, 160, 124
-0.997671, 165, 257, 196, 500
-0.997673, 307, 149, 322, 180
-0.997677, 19, 277, 34, 308
-0.997681, 229, 81, 244, 112
-0.997687, 145, 93, 160, 124
-0.997687, 5, 257, 20, 288
-0.997689, 145, 353, 160, 384
-0.997693, 147, 365, 162, 396
-0.997693, 91, 161, 106, 192
-0.997697, 247, 85, 262, 116
-0.997699, 73, 257, 104, 500
-0.997702, 113, 257, 144, 500
-0.997708, 145, 333, 160, 364
-0.997715, 277, 121, 292, 152
-0.997717, 3, 237, 18, 268
-0.997719, 191, 177, 206, 208
-0.997724, 359, 157, 374, 188
-0.997727, 301, 225, 332, 480
-0.99773, 135, 393, 150, 424
-0.997739, 275, 101, 290, 132
-0.997739, 75, 141, 90, 172
-0.997746, 153, 389, 168, 420
-0.997759, 339, 173, 354, 204
-0.997762, 347, 189, 362, 220
-0.997762, 347, 229, 362, 260
-0.997763, 99, 125, 114, 156
-0.997763, 113, 185, 240, 216
-0.997769, 145, 321, 160, 352
-0.99778, 329, 193, 344, 224
-0.997788, 1, 361, 128, 392
-0.997789, 279, 145, 294, 176
-0.997789, 123, 385, 138, 416
-0.99779, 197, 145, 212, 176
-0.997792, 361, 221, 375, 252
-0.997795, 157, 193, 188, 320
-0.997797, 341, 249, 356, 280
-0.997798, 219, 81, 234, 112
-0.997806, 17, 257, 32, 288
-0.997808, 305, 129, 320, 160
-0.997813, 241, 285, 368, 316
-0.997813, 131, 89, 146, 120
-0.997816, 119, 333, 134, 364
-0.997821, 97, 205, 224, 236
-0.997821, 43, 273, 58, 304
-0.997822, 113, 173, 240, 204
-0.997826, 321, 249, 336, 280
-0.99783, 117, 121, 132, 152
-0.997831, 251, 101, 266, 132
-0.997836, 131, 105, 146, 136
-0.99784, 321, 273, 336, 304
-0.997847, 51, 325, 66, 356
-0.997847, 177, 257, 208, 500
-0.997853, 47, 417, 62, 448
-0.997857, 303, 321, 318, 352
-0.997861, 113, 297, 240, 328
-0.997864, 81, 73, 208, 104
-0.997887, 1, 205, 128, 236
-0.99793, 241, 305, 368, 336
-0.997939, 217, 65, 248, 320
-0.997939, 97, 225, 224, 288
-0.997974, 309, 129, 340, 384
-0.997976, 1, 429, 128, 460
-0.998065, 225, 305, 256, 432
-0.99808, 177, 417, 304, 448
-0.998081, 65, 269, 192, 300
-0.998091, 177, 357, 304, 388
-0.998094, 49, 253, 176, 284
-0.998103, 177, 381, 304, 412
-0.998148, 241, 417, 368, 480
-0.998159, 113, 217, 240, 248
-0.998186, 1, 129, 32, 384
-0.998198, 189, 225, 220, 480
-0.998206, 97, 309, 224, 340
-0.998216, 89, 193, 120, 448
-0.998233, 1, 57, 256, 120
-0.998257, 153, 225, 216, 352
-0.998284, 149, 65, 180, 320
-0.998285, 257, 109, 320, 124
-0.998332, 81, 111, 144, 126
-0.998336, 153, 257, 184, 500
-0.998341, 273, 257, 304, 500
-0.998353, 73, 123, 136, 138
-0.998353, 49, 445, 176, 476
-0.998369, 257, 117, 320, 132
-0.998371, 29, 161, 60, 416
-0.998376, 321, 177, 336, 304
-0.998381, 285, 257, 316, 500
-0.998386, 17, 281, 80, 296
-0.998391, 17, 287, 80, 302
-0.998393, 241, 357, 368, 388
-0.9984, 225, 85, 352, 116
-0.998406, 97, 369, 160, 384
-0.998411, 49, 1, 112, 256
-0.998415, 17, 297, 80, 312
-0.998416, 313, 233, 375, 248
-0.998417, 25, 259, 88, 274
-0.998418, 45, 161, 76, 416
-0.998425, 305, 251, 368, 266
-0.998426, 361, 177, 375, 304
-0.998427, 25, 267, 88, 282
-0.998428, 305, 179, 368, 194
-0.998433, 1, 389, 128, 420
-0.998435, 137, 391, 168, 406
-0.998436, 129, 351, 160, 366
-0.998436, 193, 83, 256, 98
-0.998437, 161, 73, 224, 88
-0.998439, 145, 83, 176, 98
-0.99844, 285, 145, 316, 160
-0.99844, 117, 395, 148, 410
-0.998441, 313, 245, 375, 260
-0.998441, 225, 73, 352, 104
-0.998441, 329, 187, 360, 202
-0.998442, 297, 147, 328, 162
-0.998443, 345, 197, 375, 212
-0.998444, 53, 313, 84, 328
-0.998445, 241, 89, 272, 104
-0.998445, 317, 247, 348, 262
-0.998446, 25, 265, 56, 280
-0.998448, 333, 175, 364, 190
-0.99845, 65, 177, 128, 192
-0.998451, 81, 129, 144, 144
-0.998451, 317, 241, 348, 256
-0.998452, 317, 193, 348, 208
-0.998452, 329, 193, 360, 208
-0.998452, 141, 379, 172, 394
-0.998453, 257, 131, 320, 146
-0.998454, 341, 167, 372, 182
-0.998455, 101, 375, 132, 390
-0.998455, 305, 165, 368, 180
-0.998455, 313, 191, 375, 206
-0.998455, 33, 249, 96, 264
-0.998456, 185, 151, 216, 166
-0.998456, 249, 135, 280, 150
-0.998456, 305, 257, 368, 272
-0.998458, 133, 403, 164, 418
-0.998458, 237, 105, 268, 120
-0.99846, 257, 125, 320, 140
-0.99846, 25, 305, 88, 320
-0.998461, 281, 139, 312, 154
-0.998461, 117, 377, 148, 392
-0.998461, 305, 239, 368, 254
-0.998463, 113, 101, 144, 116
-0.998463, 45, 413, 76, 428
-0.998464, 105, 139, 136, 154
-0.998464, 317, 253, 348, 268
-0.998465, 109, 109, 140, 124
-0.998466, 101, 335, 132, 350
-0.998466, 317, 263, 348, 278
-0.998467, 41, 289, 104, 304
-0.998467, 53, 251, 84, 266
-0.998469, 193, 205, 320, 236
-0.998469, 317, 271, 348, 286
-0.998469, 169, 157, 232, 172
-0.99847, 41, 267, 72, 282
-0.99847, 81, 141, 144, 156
-0.99847, 317, 181, 348, 196
-0.998471, 45, 405, 76, 420
-0.998471, 351, 209, 366, 336
-0.998472, 133, 431, 164, 446
-0.998472, 1, 263, 32, 278
-0.998473, 13, 295, 44, 310
-0.998473, 233, 107, 296, 122
-0.998473, 337, 291, 368, 306
-0.998474, 97, 323, 160, 338
-0.998475, 313, 263, 375, 278
-0.998475, 137, 101, 168, 116
-0.998475, 121, 387, 184, 402
-0.998476, 133, 357, 164, 372
-0.998477, 145, 413, 208, 428
-0.998479, 321, 287, 352, 302
-0.998479, 121, 93, 152, 108
-0.998479, 241, 409, 368, 440
-0.99848, 25, 279, 56, 294
-0.998481, 81, 135, 144, 150
-0.998481, 313, 171, 344, 186
-0.998482, 137, 337, 152, 464
-0.998483, 105, 361, 168, 376
-0.998484, 129, 345, 160, 360
-0.998484, 41, 277, 72, 292
-0.998485, 45, 383, 76, 398
-0.998487, 93, 325, 124, 340
-0.998488, 185, 175, 216, 190
-0.998489, 133, 87, 164, 102
-0.998489, 121, 411, 184, 426
-0.998489, 65, 183, 128, 198
-0.99849, 137, 85, 200, 100
-0.998491, 177, 145, 208, 160
-0.998492, 253, 119, 284, 134
-0.998492, 173, 163, 204, 178
-0.998492, 185, 159, 216, 174
-0.998492, 145, 79, 208, 94
-0.998492, 333, 199, 364, 214
-0.998493, 313, 201, 375, 216
-0.998493, 117, 349, 148, 364
-0.998493, 1, 281, 32, 296
-0.998493, 161, 385, 192, 400
-0.998493, 125, 107, 156, 122
-0.998494, 285, 323, 316, 338
-0.998495, 73, 117, 136, 132
-0.998496, 313, 269, 375, 284
-0.998498, 313, 227, 375, 242
-0.998498, 105, 103, 168, 118
-0.998498, 169, 165, 232, 180
-0.998501, 253, 125, 284, 140
-0.998502, 129, 397, 160, 412
-0.998504, 305, 173, 368, 188
-0.998504, 109, 321, 140, 336
-0.998504, 261, 137, 292, 152
-0.998505, 313, 207, 375, 222
-0.998506, 53, 301, 84, 316
-0.998506, 233, 113, 296, 128
-0.998507, 105, 375, 168, 390
-0.998507, 45, 397, 76, 412
-0.998508, 61, 295, 92, 310
-0.998508, 313, 187, 344, 202
-0.998508, 129, 375, 160, 390
-0.998508, 33, 285, 64, 300
-0.998509, 169, 79, 232, 94
-0.99851, 89, 97, 104, 224
-0.99851, 65, 171, 128, 186
-0.998511, 37, 301, 68, 316
-0.998512, 101, 121, 132, 136
-0.998513, 117, 337, 148, 352
-0.998514, 249, 137, 312, 152
-0.998514, 113, 119, 144, 134
-0.998515, 129, 365, 192, 380
-0.998515, 129, 423, 160, 438
-0.998516, 57, 325, 120, 340
-0.998516, 9, 253, 40, 268
-0.998516, 113, 381, 176, 396
-0.998517, 149, 387, 180, 402
-0.998519, 261, 103, 292, 118
-0.998519, 33, 311, 96, 326
-0.99852, 53, 269, 84, 284
-0.998522, 313, 279, 375, 294
-0.998522, 97, 329, 160, 344
-0.998523, 329, 275, 360, 290
-0.998523, 265, 121, 296, 136
-0.998524, 97, 121, 160, 136
-0.998525, 313, 219, 375, 234
-0.998525, 113, 359, 144, 374
-0.998525, 281, 119, 312, 134
-0.998526, 105, 133, 136, 148
-0.998526, 45, 391, 76, 406
-0.998527, 173, 129, 204, 384
-0.998528, 9, 275, 72, 290
-0.998528, 57, 375, 120, 390
-0.998529, 25, 301, 56, 316
-0.998529, 121, 351, 184, 366
-0.99853, 137, 337, 168, 352
-0.99853, 25, 255, 56, 270
-0.998531, 41, 257, 72, 272
-0.998531, 233, 119, 296, 134
-0.998532, 65, 189, 128, 204
-0.998535, 145, 387, 208, 402
-0.998535, 305, 159, 368, 174
-0.998535, 149, 411, 180, 426
-0.998536, 109, 327, 140, 342
-0.998537, 201, 81, 232, 96
-0.998537, 285, 97, 300, 224
-0.998537, 65, 217, 128, 232
-0.998538, 113, 341, 176, 356
-0.998538, 305, 185, 368, 200
-0.998539, 99, 113, 114, 240
-0.99854, 325, 281, 356, 296
-0.998541, 225, 101, 288, 116
-0.998543, 265, 131, 296, 146
-0.998543, 129, 383, 160, 398
-0.998544, 9, 253, 72, 268
-0.998544, 65, 211, 128, 226
-0.998547, 181, 85, 212, 100
-0.998547, 225, 83, 256, 98
-0.998547, 53, 259, 84, 274
-0.998548, 129, 363, 160, 378
-0.99855, 329, 181, 360, 196
-0.99855, 33, 273, 96, 288
-0.99855, 181, 77, 212, 92
-0.998551, 65, 197, 128, 212
-0.998551, 97, 335, 160, 350
-0.998552, 117, 365, 148, 380
-0.998552, 197, 75, 228, 90
-0.998553, 313, 213, 375, 228
-0.998553, 5, 289, 36, 304
-0.998554, 169, 151, 232, 166
-0.998555, 13, 283, 44, 298
-0.998556, 41, 297, 104, 312
-0.998557, 161, 87, 224, 102
-0.998558, 281, 177, 344, 192
-0.998559, 65, 161, 128, 176
-0.998559, 129, 393, 192, 408
-0.99856, 65, 203, 128, 218
-0.99856, 257, 103, 320, 118
-0.998562, 185, 169, 216, 184
-0.998562, 41, 281, 104, 296
-0.998564, 129, 371, 192, 386
-0.998565, 121, 403, 184, 418
-0.998565, 65, 223, 128, 238
-0.998565, 193, 77, 256, 92
-0.998566, 129, 103, 192, 118
-0.998567, 273, 141, 336, 156
-0.998569, 77, 117, 108, 132
-0.99857, 333, 177, 348, 304
-0.998571, 313, 299, 375, 314
-0.998572, 217, 89, 280, 104
-0.998572, 45, 285, 76, 300
-0.998572, 129, 415, 160, 430
-0.998572, 53, 279, 84, 294
-0.998572, 161, 79, 192, 94
-0.998574, 73, 147, 136, 162
-0.998574, 81, 381, 144, 396
-0.998574, 233, 125, 296, 140
-0.998578, 273, 149, 336, 164
-0.998579, 109, 129, 124, 256
-0.998579, 89, 341, 152, 356
-0.998579, 65, 155, 128, 170
-0.99858, 49, 303, 112, 318
-0.99858, 137, 323, 200, 338
-0.998582, 121, 91, 184, 106
-0.998583, 105, 369, 136, 384
-0.998583, 343, 257, 358, 384
-0.998583, 345, 191, 375, 206
-0.998583, 5, 225, 20, 352
-0.998584, 113, 137, 176, 152
-0.998586, 273, 155, 336, 170
-0.998586, 57, 289, 88, 304
-0.998586, 305, 153, 368, 168
-0.998587, 345, 271, 375, 286
-0.998587, 281, 109, 344, 124
-0.998587, 355, 161, 370, 288
-0.998587, 57, 135, 120, 150
-0.998587, 69, 49, 100, 176
-0.998589, 121, 109, 184, 124
-0.998589, 129, 369, 160, 384
-0.99859, 169, 67, 232, 82
-0.998591, 273, 323, 336, 338
-0.998593, 273, 223, 336, 238
-0.998593, 49, 117, 112, 132
-0.998593, 73, 105, 136, 120
-0.998594, 1, 305, 64, 320
-0.998594, 105, 395, 168, 410
-0.998595, 105, 97, 168, 112
-0.998595, 121, 433, 184, 448
-0.998597, 289, 273, 352, 288
-0.998598, 133, 409, 164, 424
-0.998598, 121, 317, 184, 332
-0.998598, 121, 117, 184, 132
-0.998598, 273, 183, 336, 198
-0.998599, 67, 225, 82, 352
-0.9986, 143, 337, 158, 464
-0.998601, 73, 369, 136, 384
-0.998602, 129, 359, 192, 374
-0.998602, 305, 285, 368, 300
-0.998604, 289, 245, 352, 260
-0.998605, 41, 441, 104, 456
-0.998605, 265, 339, 328, 354
-0.998606, 81, 375, 144, 390
-0.998611, 81, 61, 208, 92
-0.998616, 97, 109, 128, 124
-0.998618, 45, 295, 76, 310
-0.998624, 77, 111, 108, 126
-0.998629, 25, 291, 56, 306
-0.998632, 81, 123, 112, 138
-0.998633, 261, 109, 292, 124
-0.998635, 337, 281, 368, 296
-0.998645, 327, 177, 342, 304
-0.99866, 357, 225, 372, 352
-0.998666, 281, 109, 312, 124
-0.998668, 261, 1, 292, 256
-0.998673, 83, 97, 98, 224
-0.998678, 105, 127, 136, 142
-0.998689, 35, 257, 50, 384
-0.998692, 181, 69, 212, 84
-0.998706, 125, 305, 140, 432
-0.99871, 131, 337, 146, 464
-0.998713, 351, 257, 366, 384
-0.998716, 277, 113, 292, 240
-0.998732, 193, 193, 320, 224
-0.998735, 333, 241, 348, 368
-0.998754, 101, 257, 132, 500
-0.99876, 339, 177, 354, 304
-0.998763, 1, 409, 128, 440
-0.998765, 117, 161, 148, 416
-0.99877, 267, 113, 282, 240
-0.998773, 293, 97, 308, 224
-0.998776, 185, 129, 216, 384
-0.998779, 241, 385, 368, 416
-0.998786, 183, 65, 198, 192
-0.998787, 27, 241, 42, 368
-0.998793, 75, 129, 90, 256
-0.998818, 345, 209, 360, 336
-0.998832, 13, 241, 28, 368
-0.99884, 81, 457, 208, 488
-0.998843, 153, 321, 168, 448
-0.998847, 257, 257, 288, 500
-0.998864, 125, 113, 140, 240
-0.998867, 191, 65, 206, 192
-0.998884, 173, 65, 188, 192
-0.998891, 21, 225, 36, 352
-0.998902, 299, 113, 314, 240
-0.998918, 245, 65, 260, 192
-0.998919, 115, 129, 130, 256
-0.998921, 161, 309, 288, 340
-0.998921, 45, 321, 60, 448
-0.998921, 261, 97, 276, 224
-0.998922, 361, 129, 375, 256
-0.998929, 323, 241, 338, 368
-0.998931, 225, 257, 256, 500
-0.998939, 161, 217, 288, 248
-0.998955, 67, 273, 82, 400
-0.998957, 253, 81, 268, 208
-0.998969, 149, 369, 164, 496
-0.998976, 203, 65, 218, 192
-0.998984, 103, 305, 118, 432
-0.998985, 59, 257, 74, 384
-0.998989, 33, 457, 160, 488
-0.99899, 197, 65, 212, 192
-0.998994, 125, 369, 140, 496
-0.998995, 133, 81, 148, 208
-0.999017, 43, 273, 58, 400
-0.999026, 115, 305, 130, 432
-0.999035, 75, 225, 90, 352
-0.999044, 145, 65, 160, 192
-0.999047, 311, 129, 326, 256
-0.999055, 51, 337, 66, 464
-0.999058, 205, 257, 236, 500
-0.999059, 57, 353, 72, 480
-0.99906, 193, 429, 320, 460
-0.999064, 343, 305, 358, 432
-0.999069, 285, 161, 316, 416
-0.999069, 305, 129, 320, 256
-0.999071, 49, 273, 64, 400
-0.999075, 225, 373, 352, 404
-0.999077, 17, 81, 144, 112
-0.999078, 129, 161, 160, 416
-0.999089, 211, 65, 226, 192
-0.999092, 239, 65, 254, 192
-0.999095, 347, 145, 362, 272
-0.999101, 97, 445, 224, 476
-0.999119, 237, 257, 268, 500
-0.999127, 167, 65, 182, 192
-0.999129, 97, 305, 112, 432
-0.99913, 177, 57, 304, 88
-0.999132, 233, 65, 248, 192
-0.999138, 109, 273, 124, 400
-0.999143, 119, 81, 134, 208
-0.999143, 293, 33, 324, 288
-0.999147, 153, 65, 168, 192
-0.999147, 313, 177, 328, 304
-0.999149, 91, 145, 106, 272
-0.999168, 75, 289, 90, 416
-0.99918, 139, 65, 154, 192
-0.999181, 155, 369, 170, 496
-0.999184, 271, 337, 286, 464
-0.99919, 317, 225, 332, 352
-0.999192, 161, 297, 288, 328
-0.9992, 159, 65, 174, 192
-0.999202, 73, 33, 104, 288
-0.999212, 349, 305, 364, 432
-0.999217, 41, 225, 56, 352
-0.99922, 119, 353, 134, 480
-0.999223, 187, 321, 202, 448
-0.999235, 177, 441, 304, 472
-0.999244, 177, 285, 304, 316
-0.999244, 33, 469, 160, 500
-0.999244, 13, 129, 44, 384
-0.999248, 109, 321, 124, 448
-0.99925, 77, 81, 92, 208
-0.999257, 181, 353, 196, 480
-0.999258, 271, 65, 286, 192
-0.999261, 1, 177, 16, 304
-0.999262, 91, 305, 106, 432
-0.999265, 37, 305, 52, 432
-0.999266, 161, 353, 176, 480
-0.99927, 361, 273, 375, 400
-0.999276, 199, 129, 214, 256
-0.999276, 285, 145, 300, 272
-0.999278, 333, 289, 348, 416
-0.999282, 129, 49, 375, 112
-0.999294, 265, 337, 280, 464
-0.999294, 75, 177, 90, 304
-0.999296, 219, 65, 234, 192
-0.999298, 313, 33, 344, 288
-0.999303, 227, 65, 242, 192
-0.999304, 319, 129, 334, 256
-0.999307, 237, 353, 252, 480
-0.999308, 325, 305, 340, 432
-0.999318, 191, 369, 206, 496
-0.999319, 185, 129, 200, 256
-0.999322, 199, 353, 214, 480
-0.999324, 137, 289, 152, 416
-0.999328, 175, 353, 190, 480
-0.999332, 231, 353, 246, 480
-0.999335, 85, 305, 100, 432
-0.999336, 145, 433, 272, 496
-0.99934, 355, 305, 370, 432
-0.999342, 207, 353, 222, 480
-0.999346, 247, 353, 262, 480
-0.999348, 83, 145, 98, 272
-0.999348, 329, 129, 344, 256
-0.99935, 33, 209, 48, 336
-0.999351, 25, 289, 40, 416
-0.999355, 67, 177, 82, 304
-0.999357, 257, 369, 272, 496
-0.999358, 145, 205, 272, 236
-0.999366, 241, 433, 368, 464
-0.999369, 289, 49, 304, 176
-0.999371, 101, 161, 116, 288
-0.999374, 167, 321, 182, 448
-0.999374, 45, 369, 60, 496
-0.999379, 1, 417, 375, 480
-0.99938, 11, 193, 26, 320
-0.999384, 47, 225, 62, 352
-0.999386, 191, 129, 206, 256
-0.999388, 119, 177, 134, 304
-0.999391, 301, 65, 316, 192
-0.999393, 277, 321, 292, 448
-0.999393, 179, 113, 194, 240
-0.999394, 279, 161, 294, 288
-0.999435, 129, 285, 256, 316
-0.999493, 197, 129, 228, 384
-0.99955, 89, 1, 120, 256
-0.999592, 141, 161, 172, 416
-0.999658, 225, 41, 352, 104
-0.999663, 133, 373, 148, 388
-0.999663, 27, 253, 42, 268
-0.999663, 361, 269, 375, 284
-0.999663, 49, 279, 64, 294
-0.999664, 37, 255, 52, 270
-0.999664, 203, 79, 218, 94
-0.999665, 75, 137, 90, 152
-0.999665, 117, 145, 132, 160
-0.999665, 129, 349, 144, 364
-0.999665, 27, 297, 42, 312
-0.999666, 41, 287, 56, 302
-0.999666, 113, 137, 128, 152
-0.999666, 119, 103, 134, 118
-0.999666, 65, 269, 80, 284
-0.999667, 109, 333, 124, 348
-0.999667, 47, 299, 62, 314
-0.999667, 209, 79, 224, 94
-0.999667, 149, 325, 164, 340
-0.99967, 229, 81, 244, 96
-0.99967, 247, 87, 262, 102
-0.99967, 295, 135, 310, 150
-0.99967, 153, 379, 168, 394
-0.99967, 355, 279, 370, 294
-0.999671, 197, 169, 212, 184
-0.999671, 91, 169, 106, 184
-0.999671, 293, 129, 308, 144
-0.999671, 127, 339, 142, 354
-0.999672, 83, 137, 98, 152
-0.999672, 193, 67, 208, 82
-0.999673, 341, 197, 356, 212
-0.999674, 67, 293, 82, 308
-0.999674, 141, 331, 156, 346
-0.999675, 43, 259, 58, 274
-0.999675, 339, 189, 354, 204
-0.999676, 183, 87, 198, 102
-0.999676, 3, 283, 18, 298
-0.999676, 335, 201, 350, 216
-0.999676, 131, 367, 146, 382
-0.999677, 177, 161, 192, 176
-0.999678, 299, 141, 314, 156
-0.999679, 115, 341, 130, 356
-0.99968, 187, 167, 202, 182
-0.999681, 43, 293, 58, 308
-0.999681, 199, 177, 214, 192
-0.999681, 345, 277, 360, 292
-0.999682, 91, 153, 106, 168
-0.999682, 329, 275, 344, 290
-0.999682, 33, 287, 48, 302
-0.999682, 121, 111, 136, 126
-0.999683, 39, 301, 54, 316
-0.999684, 335, 175, 350, 190
-0.999685, 301, 323, 316, 338
-0.999685, 43, 281, 58, 296
-0.999686, 329, 195, 344, 210
-0.999686, 175, 155, 190, 170
-0.999688, 361, 225, 375, 240
-0.999689, 209, 73, 224, 88
-0.999689, 361, 195, 375, 210
-0.999689, 355, 225, 370, 240
-0.999689, 155, 411, 170, 426
-0.999689, 329, 205, 344, 220
-0.99969, 241, 85, 256, 100
-0.99969, 13, 277, 28, 292
-0.999691, 341, 271, 356, 286
-0.999692, 127, 361, 142, 376
-0.999693, 303, 119, 318, 134
-0.999693, 13, 251, 28, 266
-0.999694, 183, 81, 198, 96
-0.999695, 137, 357, 152, 372
-0.999696, 55, 261, 70, 276
-0.999696, 113, 123, 128, 138
-0.999696, 91, 163, 106, 178
-0.999697, 33, 281, 48, 296
-0.999697, 101, 327, 116, 342
-0.999698, 345, 191, 360, 206
-0.999699, 65, 277, 80, 292
-0.999699, 319, 187, 334, 202
-0.999699, 293, 107, 308, 122
-0.9997, 359, 205, 374, 220
-0.999701, 109, 107, 124, 122
-0.999701, 163, 77, 178, 92
-0.999701, 131, 397, 146, 412
-0.999702, 253, 91, 268, 106
-0.999702, 143, 431, 158, 446
-0.999703, 193, 181, 208, 196
-0.999704, 145, 99, 160, 114
-0.999705, 361, 275, 375, 290
-0.999705, 353, 161, 368, 176
-0.999705, 179, 71, 194, 86
-0.999708, 261, 135, 276, 150
-0.99971, 287, 109, 302, 124
-0.99971, 149, 85, 164, 100
-0.99971, 27, 277, 42, 292
-0.99971, 277, 105, 292, 120
-0.99971, 59, 283, 74, 298
-0.999711, 159, 83, 174, 98
-0.999711, 65, 259, 80, 274
-0.999711, 179, 387, 194, 402
-0.999711, 361, 157, 375, 172
-0.999711, 119, 135, 134, 150
-0.999712, 111, 323, 126, 338
-0.999714, 37, 295, 52, 310
-0.999716, 351, 187, 366, 202
-0.999716, 235, 83, 250, 98
-0.999717, 135, 417, 150, 432
-0.999718, 267, 133, 282, 148
-0.99972, 21, 281, 36, 296
-0.999722, 339, 281, 354, 296
-0.999723, 105, 369, 120, 384
-0.999723, 187, 65, 202, 80
-0.999728, 259, 117, 274, 132
-0.999732, 107, 125, 122, 140
-0.999736, 169, 79, 184, 94
-0.999736, 119, 347, 134, 362
-0.999738, 83, 111, 98, 126
-0.999738, 201, 73, 216, 88
-0.999738, 75, 131, 90, 146
-0.999741, 121, 321, 136, 336
-0.999747, 125, 119, 140, 134
-0.999749, 153, 387, 168, 402
-0.99975, 25, 291, 40, 306
-0.999752, 99, 109, 114, 124
-0.999752, 143, 423, 158, 438
-0.999762, 361, 211, 375, 226
-0.999769, 335, 275, 350, 290
-0.999771, 361, 219, 375, 234
-0.999775, 349, 271, 364, 286
-0.999793, 177, 77, 192, 92
-0.999808, 67, 287, 82, 302
-0.999813, 157, 161, 188, 416
-0.999821, 161, 241, 288, 304
-0.999864, 269, 123, 284, 138
-1.00003, 49, 65, 80, 320
-1.00018, 345, 33, 375, 288
-1.00031, 333, 33, 364, 288
-1.00041, 225, 161, 256, 416
-1.00052, 61, 1, 92, 256
-1.00059, 213, 161, 244, 416
-1.00067, 241, 161, 272, 416
-1.00077, 97, 25, 224, 88
-1.00104, 1, 33, 256, 96
-1.00136, 9, 33, 40, 288
-1.00142, 29, 65, 60, 320
-1.00142, 1, 145, 64, 272
-1.0017, 97, 25, 352, 88
-1.00177, 217, 161, 280, 416
-1.00182, 129, 1, 375, 64
-1.00202, 1, 9, 256, 72
-1.0021, 145, 17, 272, 80
-1.00229, 313, 65, 375, 192
-1.00236, 217, 1, 280, 128
-1.00269, 81, 1, 208, 64
-1.00271, 241, 9, 368, 72
-1.00291, 33, 1, 160, 64
-1.00291, 193, 1, 320, 64
-1.00291, 1, 25, 128, 88
-1.00318, 1, 33, 375, 96
-1.0033, 1, 1, 375, 64
-1.00422, 1, 17, 128, 144
-1.00466, 241, 1, 304, 128
-1.00579, 25, 33, 88, 288
-1.0068, 25, 65, 88, 192
-1.00994, 1, 33, 64, 288
-1.01041, 1, 97, 64, 224
-1.01288, 57, 1, 120, 128
-1.01445, 1, 33, 64, 160
-1.01457, 25, 17, 88, 144
-1.01523, 313, 1, 375, 128
-1.01596, 281, 1, 344, 128
