1970
-0.317895, 1, 1, 375, 500
-0.344763, 1, 1, 375, 256
-0.399641, 97, 1, 352, 500
-0.425184, 1, 97, 375, 352
-0.434866, 1, 225, 375, 480
-0.469055, 1, 1, 256, 500
-0.526719, 97, 161, 352, 416
-0.544078, 129, 1, 375, 256
-0.631092, 33, 1, 288, 256
-0.645856, 97, 257, 352, 500
-0.652758, 1, 97, 256, 352
-0.766242, 1, 225, 256, 480
-0.844549, 193, 225, 320, 480
-0.848113, 225, 33, 352, 288
-0.850524, 161, 1, 288, 500
-0.854342, 113, 225, 240, 480
-0.86068, 145, 129, 272, 384
-0.864411, 49, 1, 176, 500
-0.866036, 209, 1, 336, 500
-0.869002, 113, 1, 240, 500
-0.874814, 145, 1, 272, 256
-0.878285, 193, 129, 320, 384
-0.878634, 49, 65, 176, 320
-0.880872, 1, 1, 375, 128
-0.884765, 97, 129, 224, 384
-0.888187, 1, 49, 375, 176
-0.891799, 1, 97, 375, 224
-0.892409, 1, 225, 375, 352
-0.892798, 241, 257, 368, 500
-0.896962, 97, 33, 224, 288
-0.897482, 129, 1, 375, 128
-0.899013, 241, 161, 368, 416
-0.904328, 1, 273, 375, 400
-0.905819, 65, 257, 192, 500
-0.90841, 65, 49, 320, 176
-0.910553, 97, 225, 352, 352
-0.911552, 1, 1, 128, 500
-0.914353, 65, 273, 320, 400
-0.914468, 1, 161, 375, 288
-0.914745, 129, 97, 375, 224
-0.916228, 97, 353, 352, 480
-0.916328, 1, 369, 375, 496
-0.918991, 1, 1, 128, 256
-0.921954, 129, 305, 256, 432
-0.923832, 97, 161, 352, 288
-0.924999, 161, 369, 288, 496
-0.926515, 1, 321, 375, 448
-0.926605, 33, 1, 288, 128
-0.930798, 161, 225, 288, 352
-0.931386, 1, 321, 256, 448
-0.931511, 97, 257, 224, 384
-0.932357, 1, 97, 128, 352
-0.932422, 217, 369, 280, 496
-0.932658, 225, 97, 352, 224
-0.934393, 177, 337, 240, 464
-0.935454, 153, 305, 216, 432
-0.935978, 17, 257, 144, 500
-0.936521, 145, 1, 272, 128
-0.937057, 121, 257, 184, 384
-0.937305, 177, 321, 304, 448
-0.937514, 185, 225, 248, 352
-0.937657, 153, 257, 216, 384
-0.938194, 113, 353, 240, 480
-0.938346, 1, 97, 256, 224
-0.942212, 193, 161, 320, 288
-0.942588, 249, 193, 312, 320
-0.942653, 201, 273, 264, 400
-0.943386, 137, 1, 200, 128
-0.943432, 65, 17, 192, 144
-0.943592, 49, 161, 176, 416
-0.943629, 177, 273, 304, 400
-0.943997, 209, 209, 336, 336
-0.944816, 81, 305, 208, 432
-0.945714, 65, 65, 192, 192
-0.947116, 97, 49, 160, 176
-0.948299, 177, 289, 240, 416
-0.948434, 209, 145, 272, 272
-0.948879, 289, 113, 352, 240
-0.949075, 209, 225, 272, 352
-0.949463, 289, 177, 352, 304
-0.949663, 121, 337, 184, 464
-0.949843, 209, 369, 336, 496
-0.950094, 145, 49, 272, 176
-0.951016, 97, 257, 160, 384
-0.951469, 145, 145, 272, 272
-0.951613, 121, 81, 184, 208
-0.952473, 137, 273, 200, 336
-0.952735, 241, 321, 304, 448
-0.952827, 209, 49, 336, 176
-0.95292, 265, 241, 328, 368
-0.954105, 225, 321, 352, 448
-0.954682, 65, 353, 192, 480
-0.955203, 209, 1, 272, 128
-0.955218, 177, 361, 240, 424
-0.95523, 137, 353, 200, 416
-0.955386, 241, 145, 368, 272
-0.955756, 241, 369, 304, 496
-0.955873, 241, 273, 304, 400
-0.955973, 249, 33, 312, 160
-0.956179, 217, 377, 280, 440
-0.956181, 217, 321, 280, 448
-0.956573, 225, 273, 352, 400
-0.957401, 209, 1, 336, 128
-0.957503, 1, 193, 256, 320
-0.957576, 97, 337, 160, 464
-0.95792, 113, 209, 240, 336
-0.957958, 233, 81, 296, 208
-0.958341, 153, 329, 216, 392
-0.958623, 121, 249, 184, 312
-0.958707, 97, 97, 160, 224
-0.959078, 153, 353, 216, 480
-0.95959, 113, 97, 240, 224
-0.959788, 153, 377, 216, 440
-0.959892, 65, 113, 192, 240
-0.960345, 313, 145, 375, 272
-0.96051, 1, 145, 256, 272
-0.960779, 1, 369, 256, 496
-0.96121, 313, 161, 375, 224
-0.961705, 249, 209, 312, 272
-0.961917, 121, 97, 184, 160
-0.962233, 49, 257, 176, 384
-0.962233, 129, 321, 192, 384
-0.962459, 265, 185, 328, 248
-0.963037, 249, 145, 312, 272
-0.964082, 89, 1, 152, 128
-0.964108, 17, 113, 144, 240
-0.964308, 177, 297, 240, 360
-0.964379, 257, 81, 320, 144
-0.964409, 97, 73, 160, 136
-0.964619, 257, 41, 320, 104
-0.964682, 209, 409, 272, 472
-0.964917, 137, 209, 200, 336
-0.964997, 177, 393, 240, 456
-0.965126, 281, 161, 344, 224
-0.965718, 289, 193, 352, 256
-0.96589, 73, 97, 136, 224
-0.966154, 233, 401, 296, 464
-0.966333, 153, 233, 216, 296
-0.966372, 217, 353, 280, 416
-0.966619, 153, 305, 216, 368
-0.966859, 33, 305, 160, 432
-0.966921, 257, 81, 320, 208
-0.966965, 161, 97, 288, 224
-0.96703, 193, 337, 256, 400
-0.967325, 225, 193, 288, 256
-0.967492, 201, 1, 264, 64
-0.968067, 217, 65, 280, 128
-0.968118, 145, 65, 208, 192
-0.968265, 177, 241, 240, 304
-0.968735, 241, 377, 304, 440
-0.96875, 113, 273, 176, 336
-0.968873, 145, 369, 272, 432
-0.968903, 225, 353, 256, 480
-0.969162, 189, 225, 220, 352
-0.969177, 265, 281, 328, 344
-0.969251, 161, 209, 224, 336
-0.969378, 201, 161, 264, 224
-0.969895, 161, 1, 224, 128
-0.970256, 129, 345, 256, 408
-0.970392, 97, 41, 160, 104
-0.970506, 201, 289, 264, 352
-0.97069, 17, 49, 144, 176
-0.971385, 197, 337, 228, 464
-0.971449, 137, 65, 200, 128
-0.971573, 121, 385, 184, 448
-0.971585, 161, 273, 224, 336
-0.971634, 201, 225, 264, 480
-0.971645, 281, 289, 344, 416
-0.971714, 57, 49, 120, 176
-0.971739, 241, 329, 304, 392
-0.971833, 153, 225, 216, 480
-0.971866, 113, 353, 176, 416
-0.971948, 153, 401, 216, 464
-0.972105, 145, 9, 208, 72
-0.972144, 185, 177, 248, 304
-0.972145, 217, 25, 280, 88
-0.972307, 297, 161, 360, 416
-0.972319, 297, 17, 360, 144
-0.972339, 193, 225, 320, 288
-0.972581, 137, 33, 200, 96
-0.972591, 97, 121, 160, 184
-0.972702, 225, 281, 288, 344
-0.972864, 313, 137, 375, 200
-0.972904, 177, 257, 240, 500
-0.972963, 249, 161, 312, 224
-0.973028, 129, 225, 192, 480
-0.973078, 249, 193, 312, 448
-0.973513, 237, 369, 268, 496
-0.973552, 185, 265, 248, 328
-0.973742, 113, 321, 240, 384
-0.973767, 249, 369, 280, 496
-0.973979, 145, 1, 272, 64
-0.974082, 121, 129, 184, 256
-0.974151, 257, 257, 320, 320
-0.974155, 217, 433, 280, 496
-0.974181, 209, 281, 336, 344
-0.97423, 97, 161, 224, 288
-0.974231, 201, 313, 264, 376
-0.974312, 193, 217, 256, 280
-0.974312, 121, 257, 152, 384
-0.974351, 201, 65, 264, 192
-0.974473, 241, 353, 304, 416
-0.974563, 217, 129, 280, 384
-0.974589, 161, 289, 288, 352
-0.974715, 169, 305, 200, 432
-0.97476, 145, 401, 272, 464
-0.974804, 89, 345, 152, 408
-0.974813, 97, 257, 224, 320
-0.974978, 289, 241, 352, 368
-0.975068, 141, 321, 172, 448
-0.97513, 177, 345, 304, 408
-0.975144, 133, 81, 164, 208
-0.975147, 97, 249, 160, 312
-0.975304, 105, 321, 168, 384
-0.975357, 145, 121, 208, 184
-0.975399, 121, 1, 184, 256
-0.975476, 181, 369, 212, 432
-0.975864, 229, 353, 260, 416
-0.975939, 121, 137, 184, 200
-0.975985, 177, 1, 240, 64
-0.976057, 17, 209, 144, 336
-0.976199, 205, 289, 236, 416
-0.976215, 241, 33, 304, 288
-0.976219, 145, 113, 208, 240
-0.976232, 73, 105, 136, 168
-0.976315, 89, 289, 152, 352
-0.976471, 281, 65, 344, 320
-0.97659, 241, 17, 272, 144
-0.976695, 257, 17, 320, 80
-0.976703, 313, 185, 375, 248
-0.976745, 217, 225, 248, 352
-0.976822, 209, 1, 272, 256
-0.976891, 197, 329, 228, 392
-0.976912, 225, 161, 288, 224
-0.976921, 141, 17, 172, 144
-0.976933, 97, 65, 160, 320
-0.977004, 97, 9, 160, 72
-0.977022, 121, 249, 152, 312
-0.977066, 97, 97, 160, 160
-0.977112, 185, 1, 248, 128
-0.977123, 269, 193, 300, 256
-0.977141, 165, 257, 196, 384
-0.977154, 169, 209, 232, 272
-0.97718, 249, 233, 312, 296
-0.97727, 81, 345, 208, 408
-0.977311, 233, 121, 296, 184
-0.977323, 225, 121, 352, 184
-0.977355, 249, 377, 280, 440
-0.977422, 121, 97, 184, 352
-0.977472, 209, 65, 336, 128
-0.977477, 145, 233, 272, 296
-0.977478, 289, 121, 352, 184
-0.977576, 193, 377, 320, 440
-0.977693, 313, 113, 344, 240
-0.977697, 169, 313, 200, 376
-0.977741, 89, 257, 152, 500
-0.977776, 137, 321, 168, 384
-0.977785, 81, 81, 208, 144
-0.977796, 297, 73, 360, 136
-0.977809, 165, 385, 196, 448
-0.977833, 137, 249, 168, 312
-0.977867, 137, 273, 168, 400
-0.977881, 249, 321, 280, 448
-0.977913, 153, 337, 184, 464
-0.977943, 181, 305, 212, 432
-0.977985, 225, 377, 256, 440
-0.978041, 177, 321, 304, 384
-0.978099, 81, 193, 144, 320
-0.978196, 273, 225, 336, 480
-0.978201, 121, 297, 184, 360
-0.978358, 217, 337, 248, 400
-0.978371, 185, 353, 216, 480
-0.978534, 97, 281, 224, 344
-0.978629, 193, 353, 224, 416
-0.978762, 289, 185, 320, 248
-0.978816, 225, 225, 288, 480
-0.978867, 225, 193, 352, 256
-0.978872, 181, 337, 212, 400
-0.978938, 161, 57, 288, 120
-0.979004, 297, 65, 360, 192
-0.979044, 137, 105, 168, 168
-0.979094, 301, 169, 332, 232
-0.979131, 65, 41, 192, 104
-0.979147, 49, 105, 176, 168
-0.9793, 213, 353, 244, 480
-0.979379, 177, 129, 240, 384
-0.979483, 145, 353, 176, 416
-0.979503, 113, 49, 240, 112
-0.979588, 169, 353, 200, 480
-0.979596, 281, 249, 344, 312
-0.97962, 185, 289, 216, 352
-0.979628, 281, 177, 312, 304
-0.979659, 205, 289, 236, 352
-0.979694, 145, 97, 176, 224
-0.979783, 205, 225, 236, 352
-0.97999, 245, 225, 276, 352
-0.980047, 313, 161, 344, 224
-0.980184, 97, 377, 224, 440
-0.980315, 73, 289, 136, 416
-0.980406, 17, 1, 144, 128
-0.980408, 229, 145, 260, 272
-0.980474, 209, 137, 272, 200
-0.980479, 161, 161, 224, 288
-0.98051, 145, 81, 272, 144
-0.980548, 209, 89, 336, 152
-0.980604, 325, 129, 356, 256
-0.980727, 337, 145, 368, 208
-0.980774, 217, 89, 280, 152
-0.980839, 213, 393, 244, 456
-0.980932, 301, 161, 332, 288
-0.980969, 209, 41, 336, 104
-0.981042, 201, 241, 264, 304
-0.981081, 265, 353, 328, 480
-0.981259, 153, 1, 184, 128
-0.981294, 157, 321, 188, 384
-0.981308, 285, 225, 316, 352
-0.98143, 265, 313, 328, 376
-0.981453, 249, 425, 312, 488
-0.981587, 229, 409, 260, 472
-0.981602, 225, 225, 288, 288
-0.981743, 97, 145, 160, 272
-0.981773, 177, 169, 304, 232
-0.981777, 225, 1, 352, 64
-0.981791, 145, 129, 272, 192
-0.981811, 113, 209, 176, 336
-0.981816, 1, 257, 128, 384
-0.981849, 241, 161, 272, 288
-0.981906, 153, 289, 184, 416
-0.981925, 177, 49, 240, 176
-0.981935, 201, 185, 264, 248
-0.981988, 165, 361, 196, 424
-0.981994, 297, 113, 328, 240
-0.982067, 265, 193, 296, 320
-0.982082, 149, 249, 180, 312
-0.982205, 57, 81, 120, 144
-0.982212, 185, 417, 248, 480
-0.98231, 125, 337, 156, 464
-0.982326, 241, 169, 368, 232
-0.982416, 289, 289, 352, 352
-0.982432, 141, 225, 172, 352
-0.982632, 237, 321, 268, 448
-0.982641, 113, 25, 240, 88
-0.982675, 97, 401, 224, 464
-0.982753, 249, 193, 280, 256
-0.982786, 241, 145, 368, 208
-0.982818, 33, 329, 160, 392
-0.982836, 145, 145, 208, 208
-0.982847, 329, 169, 360, 232
-0.982885, 169, 265, 200, 328
-0.982913, 201, 393, 232, 456
-0.982921, 241, 345, 272, 408
-0.982949, 153, 97, 216, 160
-0.982988, 209, 257, 336, 320
-0.983088, 125, 353, 156, 416
-0.983117, 233, 225, 264, 352
-0.98313, 97, 145, 224, 208
-0.983146, 65, 17, 192, 80
-0.983169, 121, 65, 152, 192
-0.983297, 153, 129, 216, 384
-0.9833, 241, 113, 272, 240
-0.983342, 145, 105, 272, 168
-0.983372, 161, 33, 288, 96
-0.983421, 205, 217, 236, 280
-0.983492, 73, 97, 136, 352
-0.98351, 265, 305, 296, 432
-0.983515, 217, 145, 248, 272
-0.983538, 161, 433, 288, 496
-0.983544, 257, 105, 320, 168
-0.983583, 97, 105, 224, 168
-0.983584, 141, 273, 172, 336
-0.983615, 177, 201, 304, 264
-0.983625, 337, 145, 368, 272
-0.983629, 289, 1, 352, 500
-0.983658, 297, 9, 360, 72
-0.983711, 205, 361, 236, 424
-0.983719, 273, 33, 336, 160
-0.983766, 257, 401, 320, 464
-0.983818, 241, 401, 272, 464
-0.983843, 177, 225, 208, 288
-0.983845, 193, 265, 224, 328
-0.984005, 121, 409, 184, 472
-0.984007, 229, 273, 260, 400
-0.984155, 193, 401, 320, 464
-0.98424, 289, 313, 352, 376
-0.984241, 293, 281, 324, 344
-0.984253, 245, 273, 276, 400
-0.984264, 105, 113, 136, 240
-0.984268, 177, 225, 208, 352
-0.984286, 89, 417, 152, 480
-0.984327, 145, 393, 176, 456
-0.984473, 129, 1, 192, 500
-0.984485, 65, 209, 192, 336
-0.984505, 241, 57, 272, 120
-0.984549, 217, 273, 248, 400
-0.984669, 225, 345, 352, 408
-0.984713, 217, 1, 280, 500
-0.984766, 305, 33, 336, 160
-0.984835, 145, 257, 272, 320
-0.984853, 153, 241, 184, 368
-0.984983, 201, 1, 232, 64
-0.985058, 33, 81, 160, 144
-0.985092, 49, 249, 176, 312
-0.985126, 185, 121, 248, 184
-0.985258, 49, 289, 176, 352
-0.985261, 137, 73, 168, 136
-0.985362, 297, 33, 360, 96
-0.985391, 325, 137, 356, 200
-0.985447, 313, 241, 375, 368
-0.985456, 137, 369, 168, 496
-0.985492, 145, 1, 208, 256
-0.985507, 241, 25, 272, 88
-0.985557, 149, 113, 180, 176
-0.985604, 97, 217, 224, 280
-0.985608, 177, 97, 240, 224
-0.985663, 245, 169, 276, 232
-0.985737, 193, 289, 224, 416
-0.985782, 57, 433, 120, 496
-0.985833, 289, 249, 320, 312
-0.985857, 161, 241, 192, 304
-0.985863, 169, 1, 200, 128
-0.985995, 233, 161, 264, 224
-0.985999, 109, 273, 140, 400
-0.986007, 217, 417, 248, 480
-0.986075, 125, 97, 156, 160
-0.986082, 57, 1, 120, 256
-0.986085, 217, 281, 248, 344
-0.986224, 225, 313, 352, 376
-0.986245, 185, 1, 248, 500
-0.986275, 193, 145, 320, 208
-0.986282, 129, 281, 160, 344
-0.986299, 89, 1, 152, 500
-0.986334, 121, 225, 184, 288
-0.9865, 161, 1, 224, 500
-0.986518, 185, 57, 248, 120
-0.986602, 229, 1, 260, 128
-0.986663, 257, 425, 288, 488
-0.986728, 57, 33, 120, 96
-0.986729, 281, 161, 312, 224
-0.986754, 141, 33, 172, 96
-0.986809, 93, 97, 124, 224
-0.98681, 189, 241, 220, 304
-0.986957, 57, 1, 120, 128
-0.986975, 81, 313, 144, 376
-0.987027, 253, 65, 284, 192
-0.987078, 245, 425, 276, 488
-0.987095, 265, 257, 296, 384
-0.987101, 177, 393, 208, 456
-0.987101, 1, 113, 64, 240
-0.9873, 269, 401, 300, 464
-0.987343, 265, 361, 328, 424
-0.987362, 49, 377, 176, 440
-0.987382, 113, 337, 144, 464
-0.987426, 149, 9, 180, 72
-0.98744, 1, 113, 128, 176
-0.987451, 113, 313, 144, 376
-0.987479, 249, 1, 312, 500
-0.987505, 205, 177, 236, 304
-0.987539, 281, 97, 344, 160
-0.987618, 49, 129, 176, 192
-0.987629, 269, 145, 300, 272
-0.987659, 285, 113, 316, 240
-0.987714, 253, 81, 284, 144
-0.987717, 161, 65, 192, 192
-0.987728, 65, 193, 128, 256
-0.987903, 269, 369, 300, 496
-0.987941, 305, 33, 368, 288
-0.987961, 137, 145, 168, 208
-0.987993, 177, 33, 240, 288
-0.988, 101, 113, 132, 176
-0.988001, 177, 185, 240, 248
-0.988039, 241, 121, 272, 184
-0.988083, 281, 273, 312, 336
-0.98816, 65, 425, 192, 488
-0.988175, 313, 193, 344, 256
-0.988185, 49, 161, 176, 288
-0.988185, 221, 153, 252, 216
-0.9882, 161, 49, 224, 112
-0.988214, 193, 209, 224, 272
-0.988293, 57, 57, 120, 120
-0.988311, 289, 225, 352, 288
-0.988389, 57, 305, 120, 368
-0.988523, 209, 313, 240, 376
-0.988535, 177, 1, 208, 64
-0.988535, 253, 177, 284, 304
-0.988663, 241, 217, 368, 280
-0.988721, 217, 217, 248, 280
-0.988735, 57, 9, 120, 72
-0.988806, 121, 9, 184, 72
-0.988807, 121, 129, 152, 256
-0.988814, 261, 41, 292, 104
-0.988819, 133, 385, 164, 448
-0.988846, 169, 153, 232, 216
-0.988931, 49, 225, 176, 288
-0.989021, 229, 321, 260, 384
-0.989043, 305, 265, 368, 328
-0.989053, 81, 225, 144, 288
-0.989083, 145, 209, 208, 272
-0.989096, 33, 353, 160, 416
-0.989121, 237, 193, 268, 256
-0.989136, 121, 261, 184, 292
-0.98914, 113, 337, 144, 400
-0.989146, 225, 81, 256, 208
-0.989171, 157, 137, 188, 200
-0.989261, 173, 289, 204, 352
-0.98927, 153, 349, 216, 380
-0.98943, 137, 273, 200, 304
-0.989442, 129, 233, 375, 296
-0.989447, 185, 373, 248, 404
-0.98953, 137, 373, 200, 404
-0.989534, 125, 137, 156, 200
-0.98954, 201, 397, 264, 428
-0.989558, 345, 169, 375, 232
-0.989569, 225, 381, 288, 412
-0.989576, 169, 337, 200, 400
-0.989589, 229, 1, 260, 64
-0.989599, 161, 337, 224, 368
-0.98961, 209, 421, 272, 452
-0.989644, 337, 97, 368, 224
-0.989765, 25, 97, 88, 224
-0.989795, 109, 265, 140, 328
-0.989809, 313, 177, 344, 304
-0.989863, 1, 17, 128, 80
-0.989884, 193, 361, 256, 392
-0.989897, 265, 169, 296, 232
-0.9899, 241, 425, 368, 488
-0.989905, 305, 305, 368, 432
-0.989915, 113, 121, 144, 184
-0.989929, 1, 41, 128, 104
-0.989948, 257, 193, 320, 224
-0.989977, 145, 361, 208, 392
-0.990001, 161, 313, 224, 344
-0.990004, 205, 1, 236, 128
-0.990017, 81, 49, 112, 176
-0.990042, 113, 193, 240, 256
-0.990047, 113, 109, 176, 140
-0.990054, 153, 393, 216, 424
-0.990069, 289, 173, 352, 204
-0.99007, 169, 405, 232, 436
-0.990074, 313, 129, 344, 192
-0.990095, 281, 217, 312, 280
-0.9901, 129, 1, 375, 64
-0.990149, 157, 409, 188, 472
-0.990174, 257, 277, 320, 308
-0.990181, 117, 289, 148, 352
-0.990188, 1, 297, 64, 360
-0.990191, 181, 313, 212, 376
-0.990194, 193, 1, 224, 128
-0.990206, 257, 85, 320, 116
-0.990212, 257, 73, 320, 104
-0.990215, 1, 305, 128, 368
-0.990225, 97, 93, 160, 124
-0.99025, 257, 273, 288, 336
-0.990271, 129, 121, 375, 184
-0.990276, 249, 225, 312, 256
-0.990281, 237, 377, 268, 440
-0.990286, 213, 1, 244, 64
-0.990304, 129, 325, 192, 356
-0.990321, 185, 293, 248, 324
-0.990325, 121, 73, 152, 136
-0.990327, 233, 81, 264, 144
-0.990372, 253, 321, 284, 384
-0.990372, 273, 377, 304, 440
-0.990422, 97, 57, 160, 88
-0.990447, 265, 137, 328, 200
-0.990451, 181, 1, 212, 128
-0.990461, 149, 297, 180, 360
-0.990463, 233, 433, 264, 496
-0.990476, 129, 349, 192, 380
-0.990478, 65, 97, 320, 160
-0.990508, 113, 277, 176, 308
-0.99051, 145, 405, 208, 436
-0.990517, 257, 57, 320, 88
-0.990519, 177, 385, 240, 416
-0.99054, 313, 161, 375, 192
-0.990552, 65, 73, 320, 136
-0.990584, 25, 113, 88, 176
-0.990601, 97, 69, 160, 100
-0.990606, 65, 33, 320, 96
-0.99061, 89, 81, 152, 112
-0.990611, 257, 101, 320, 132
-0.990626, 269, 313, 300, 376
-0.990631, 121, 337, 184, 368
-0.990638, 313, 185, 375, 216
-0.990638, 245, 281, 276, 344
-0.99064, 125, 329, 156, 392
-0.990645, 129, 77, 192, 108
-0.990675, 65, 369, 128, 496
-0.990677, 269, 273, 300, 336
-0.990687, 209, 169, 272, 200
-0.990703, 97, 45, 160, 76
-0.990706, 241, 181, 304, 212
-0.990722, 281, 205, 344, 236
-0.990734, 257, 205, 320, 236
-0.99076, 253, 113, 284, 240
-0.990782, 153, 273, 184, 336
-0.990793, 253, 217, 284, 280
-0.990801, 233, 405, 296, 436
-0.990826, 217, 77, 280, 108
-0.990856, 113, 129, 176, 160
-0.99087, 305, 33, 336, 96
-0.990899, 257, 45, 320, 76
-0.990909, 281, 185, 344, 216
-0.990961, 189, 393, 220, 456
-0.990985, 73, 265, 136, 328
-0.991007, 313, 1, 375, 500
-0.991039, 177, 349, 240, 380
-0.99104, 325, 177, 356, 304
-0.991041, 241, 393, 304, 424
-0.991043, 65, 329, 320, 392
-0.991052, 257, 401, 288, 464
-0.991071, 201, 385, 264, 416
-0.991072, 33, 353, 288, 416
-0.991075, 137, 89, 200, 120
-0.99109, 161, 253, 224, 284
-0.991109, 217, 65, 280, 96
-0.99111, 169, 417, 232, 448
-0.991117, 265, 317, 328, 348
-0.991128, 233, 369, 296, 400
-0.991131, 1, 177, 64, 240
-0.991176, 225, 217, 288, 248
-0.991177, 193, 337, 256, 368
-0.991181, 201, 349, 264, 380
-0.991187, 181, 177, 212, 304
-0.991199, 201, 237, 264, 268
-0.991255, 161, 1, 192, 64
-0.991278, 177, 281, 240, 312
-0.991286, 201, 157, 264, 188
-0.991288, 225, 1, 288, 64
-0.991289, 57, 209, 120, 336
-0.991292, 201, 5, 264, 36
-0.991312, 97, 349, 160, 380
-0.991317, 229, 129, 260, 192
-0.991318, 161, 1, 224, 32
-0.991342, 161, 293, 224, 324
-0.991349, 193, 409, 256, 440
-0.991378, 129, 145, 192, 176
-0.991383, 209, 289, 272, 320
-0.991418, 153, 237, 216, 268
-0.991425, 129, 65, 192, 96
-0.991435, 233, 281, 296, 312
-0.991442, 97, 377, 160, 440
-0.991443, 257, 113, 320, 144
-0.991455, 137, 249, 200, 280
-0.991459, 241, 357, 304, 388
-0.99146, 137, 41, 200, 72
-0.991473, 97, 33, 160, 64
-0.991473, 145, 13, 208, 44
-0.991477, 177, 237, 240, 268
-0.991485, 73, 117, 136, 148
-0.991506, 129, 301, 192, 332
-0.991513, 113, 289, 176, 320
-0.991527, 305, 289, 336, 352
-0.991528, 121, 397, 184, 428
-0.99153, 233, 201, 296, 232
-0.991538, 193, 97, 256, 160
-0.991542, 265, 293, 328, 324
-0.991555, 193, 177, 224, 304
-0.991563, 185, 305, 248, 336
-0.991576, 217, 97, 280, 128
-0.99159, 233, 417, 296, 448
-0.991599, 297, 265, 360, 296
-0.991609, 169, 361, 232, 392
-0.991614, 89, 97, 120, 160
-0.99163, 65, 1, 128, 500
-0.991631, 129, 53, 192, 84
-0.991638, 153, 141, 216, 172
-0.991639, 209, 441, 272, 472
-0.991666, 201, 225, 264, 256
-0.991677, 241, 433, 304, 464
-0.991695, 217, 53, 280, 84
-0.991696, 1, 369, 128, 496
-0.991706, 113, 361, 176, 392
-0.991708, 97, 265, 160, 296
-0.991718, 217, 37, 280, 68
-0.991728, 153, 121, 216, 152
-0.991736, 257, 253, 320, 284
-0.991767, 177, 225, 240, 256
-0.991767, 161, 73, 224, 136
-0.991769, 305, 89, 336, 152
-0.99177, 97, 33, 128, 160
-0.991778, 161, 325, 224, 356
-0.991781, 89, 337, 152, 368
-0.991789, 281, 121, 344, 152
-0.991794, 297, 209, 328, 272
-0.991817, 65, 417, 320, 480
-0.991823, 89, 321, 152, 352
-0.991827, 97, 145, 160, 208
-0.991859, 89, 129, 152, 160
-0.991869, 105, 309, 168, 340
-0.99187, 293, 273, 324, 400
-0.991872, 201, 181, 264, 212
-0.991913, 265, 265, 328, 296
-0.991931, 137, 29, 200, 60
-0.991937, 257, 33, 320, 64
-0.991956, 257, 165, 320, 196
-0.991971, 249, 237, 312, 268
-0.991983, 101, 89, 132, 152
-0.991985, 265, 1, 328, 32
-0.991985, 285, 73, 316, 136
-0.992005, 105, 141, 168, 172
-0.992017, 241, 345, 304, 376
-0.992019, 185, 325, 248, 356
-0.992026, 129, 385, 192, 416
-0.992037, 249, 469, 312, 500
-0.992062, 241, 393, 368, 456
-0.992065, 97, 21, 160, 52
-0.992088, 301, 249, 332, 312
-0.992097, 313, 173, 375, 204
-0.992101, 297, 257, 360, 500
-0.992117, 285, 33, 316, 160
-0.992129, 209, 25, 272, 56
-0.99214, 89, 289, 152, 320
-0.992181, 241, 329, 304, 360
-0.992198, 137, 285, 200, 316
-0.992202, 157, 81, 188, 144
-0.992218, 289, 241, 352, 272
-0.992238, 145, 421, 208, 452
-0.992244, 209, 169, 240, 232
-0.992248, 225, 233, 288, 264
-0.992254, 185, 145, 248, 176
-0.992304, 129, 289, 375, 352
-0.992312, 101, 209, 132, 336
-0.992374, 129, 169, 375, 232
-0.992421, 197, 357, 228, 388
-0.992427, 33, 9, 288, 72
-0.992446, 193, 289, 224, 320
-0.992492, 189, 1, 220, 64
-0.992507, 229, 281, 260, 344
-0.992513, 225, 249, 288, 312
-0.992518, 165, 337, 196, 368
-0.992533, 261, 361, 292, 424
-0.992534, 281, 273, 312, 400
-0.992534, 101, 337, 132, 400
-0.992547, 285, 97, 316, 160
-0.992564, 157, 113, 188, 240
-0.992566, 217, 1, 248, 128
-0.992586, 301, 57, 332, 120
-0.992594, 129, 169, 256, 232
-0.992602, 221, 353, 252, 384
-0.992614, 197, 333, 228, 364
-0.99262, 165, 209, 196, 336
-0.992624, 241, 65, 272, 192
-0.99265, 265, 197, 296, 228
-0.992674, 281, 193, 312, 224
-0.992691, 293, 285, 324, 316
-0.992695, 313, 169, 344, 200
-0.992696, 97, 289, 128, 416
-0.992709, 161, 397, 192, 428
-0.99271, 189, 301, 220, 332
-0.992712, 297, 113, 328, 176
-0.992713, 133, 257, 164, 288
-0.99272, 229, 385, 260, 416
-0.992723, 181, 353, 212, 384
-0.992726, 181, 341, 212, 372
-0.992727, 121, 269, 152, 300
-0.992736, 1, 9, 375, 72
-0.992753, 17, 433, 144, 496
-0.992764, 145, 357, 176, 388
-0.992773, 217, 341, 248, 372
-0.992784, 269, 209, 300, 240
-0.992784, 189, 369, 220, 400
-0.992785, 245, 385, 276, 416
-0.992787, 241, 369, 368, 432
-0.992797, 149, 261, 180, 292
-0.992798, 209, 293, 240, 324
-0.992801, 333, 181, 364, 212
-0.992802, 197, 409, 228, 440
-0.992834, 217, 425, 248, 456
-0.992852, 181, 389, 212, 420
-0.99286, 141, 277, 172, 308
-0.99287, 205, 225, 236, 256
-0.992871, 217, 365, 248, 396
-0.992872, 253, 181, 284, 212
-0.992876, 209, 353, 240, 384
-0.992877, 181, 237, 212, 268
-0.992889, 245, 69, 276, 100
-0.99289, 249, 433, 280, 464
-0.992892, 141, 401, 172, 432
-0.9929, 301, 189, 332, 220
-0.992908, 161, 265, 192, 296
-0.99291, 129, 377, 375, 440
-0.992917, 229, 373, 260, 404
-0.992917, 157, 349, 188, 380
-0.992931, 225, 161, 256, 192
-0.992931, 233, 345, 264, 376
-0.992932, 125, 361, 156, 392
-0.992936, 141, 377, 172, 408
-0.992939, 149, 325, 180, 356
-0.992952, 137, 81, 168, 112
-0.992954, 173, 405, 204, 436
-0.992955, 209, 325, 240, 356
-0.992957, 177, 309, 208, 340
-0.992971, 229, 421, 260, 452
-0.992972, 137, 105, 168, 136
-0.992975, 273, 277, 304, 308
-0.992978, 289, 205, 320, 236
-0.993013, 345, 165, 375, 196
-0.993017, 165, 317, 196, 348
-0.993019, 241, 361, 272, 392
-0.99302, 1, 241, 375, 304
-0.993026, 273, 221, 304, 252
-0.993028, 293, 273, 324, 304
-0.993035, 169, 365, 200, 396
-0.993036, 193, 225, 224, 256
-0.993041, 197, 345, 228, 376
-0.993043, 189, 277, 220, 308
-0.993049, 241, 373, 272, 404
-0.993053, 109, 49, 140, 176
-0.993065, 205, 237, 236, 268
-0.993068, 157, 9, 188, 40
-0.993072, 217, 225, 248, 256
-0.993074, 113, 337, 144, 368
-0.993079, 301, 169, 332, 200
-0.993082, 209, 393, 240, 424
-0.993088, 49, 105, 112, 168
-0.993099, 253, 217, 284, 248
-0.993101, 173, 289, 204, 320
-0.993102, 333, 153, 364, 184
-0.993106, 121, 285, 152, 316
-0.993109, 185, 409, 216, 440
-0.993111, 133, 345, 164, 376
-0.993113, 121, 93, 152, 124
-0.993117, 141, 41, 172, 72
-0.993117, 245, 201, 276, 232
-0.993123, 169, 277, 200, 308
-0.993128, 289, 1, 320, 32
-0.99313, 313, 197, 344, 228
-0.993132, 121, 257, 152, 288
-0.993133, 169, 253, 200, 284
-0.993142, 285, 257, 316, 288
-0.993157, 205, 1, 236, 32
-0.993168, 161, 385, 192, 416
-0.993175, 265, 185, 296, 216
-0.993178, 157, 145, 188, 176
-0.993182, 225, 1, 256, 32
-0.993183, 157, 409, 188, 440
-0.993185, 289, 177, 320, 208
-0.993186, 137, 133, 168, 164
-0.993191, 305, 125, 336, 156
-0.993195, 133, 317, 164, 348
-0.993198, 257, 105, 288, 136
-0.993201, 205, 305, 236, 336
-0.993201, 97, 337, 224, 368
-0.993204, 121, 209, 152, 336
-0.993204, 121, 309, 152, 340
-0.993205, 149, 21, 180, 52
-0.993206, 193, 241, 224, 272
-0.993209, 193, 233, 320, 264
-0.993213, 25, 49, 88, 176
-0.993219, 121, 297, 152, 328
-0.993222, 109, 129, 140, 160
-0.993225, 137, 149, 168, 180
-0.993227, 245, 413, 276, 444
-0.993235, 157, 245, 188, 276
-0.99324, 149, 309, 180, 340
-0.993249, 213, 413, 244, 444
-0.99325, 161, 133, 192, 164
-0.993251, 241, 29, 272, 60
-0.993256, 101, 117, 132, 148
-0.993263, 181, 325, 212, 356
-0.993267, 117, 349, 148, 380
-0.993267, 293, 297, 324, 328
-0.993268, 241, 81, 272, 112
-0.993273, 237, 169, 268, 200
-0.99328, 149, 133, 180, 164
-0.993281, 249, 397, 280, 428
-0.993285, 113, 425, 240, 488
-0.993285, 261, 53, 292, 84
-0.993286, 229, 333, 260, 364
-0.993287, 133, 93, 164, 124
-0.993287, 121, 65, 152, 96
-0.99329, 237, 441, 268, 472
-0.99329, 201, 369, 232, 400
-0.993291, 137, 69, 168, 100
-0.993292, 133, 389, 164, 420
-0.993293, 301, 261, 332, 292
-0.993299, 125, 141, 156, 172
-0.9933, 145, 345, 176, 376
-0.993302, 321, 185, 352, 216
-0.993304, 241, 57, 272, 88
-0.993306, 261, 85, 292, 116
-0.993325, 33, 305, 288, 368
-0.993343, 65, 145, 320, 208
-0.993467, 241, 305, 304, 368
-0.993494, 129, 373, 256, 404
-0.993499, 185, 33, 248, 96
-0.993516, 133, 129, 164, 256
-0.993551, 1, 129, 64, 192
-0.993563, 33, 393, 288, 456
-0.993588, 1, 105, 375, 168
-0.993597, 121, 17, 152, 144
-0.993613, 261, 17, 292, 144
-0.993639, 1, 185, 128, 248
-0.993692, 81, 97, 112, 224
-0.993722, 49, 289, 112, 416
-0.993764, 113, 349, 240, 380
-0.993767, 65, 265, 320, 328
-0.993797, 161, 389, 288, 420
-0.993805, 1, 329, 64, 392
-0.993938, 185, 49, 216, 176
-0.993939, 49, 97, 112, 224
-0.993985, 1, 49, 375, 112
-0.993992, 1, 321, 64, 448
-0.994065, 313, 313, 375, 376
-0.99415, 1, 273, 375, 336
-0.994235, 17, 97, 80, 352
-0.994326, 65, 193, 192, 256
-0.994384, 239, 361, 254, 424
-0.994388, 1, 81, 375, 144
-0.994441, 97, 273, 224, 304
-0.994464, 97, 193, 352, 256
-0.994484, 113, 385, 240, 416
-0.994552, 129, 361, 256, 392
-0.994611, 177, 357, 304, 388
-0.994612, 145, 405, 272, 436
-0.994615, 145, 145, 176, 272
-0.994623, 129, 353, 375, 416
-0.994655, 1, 121, 256, 184
-0.994667, 201, 329, 216, 392
-0.994703, 145, 9, 272, 40
-0.994721, 209, 285, 336, 316
-0.994742, 189, 377, 204, 440
-0.994745, 97, 257, 224, 288
-0.994767, 191, 337, 206, 400
-0.99486, 151, 105, 166, 168
-0.994865, 209, 69, 336, 100
-0.994878, 1, 153, 375, 216
-0.994923, 177, 369, 304, 400
-0.994927, 161, 65, 288, 96
-0.994935, 301, 209, 332, 336
-0.994952, 209, 1, 336, 32
-0.994999, 49, 401, 176, 464
-0.995022, 1, 249, 128, 312
-0.995041, 181, 385, 196, 448
-0.995074, 225, 121, 352, 152
-0.995109, 1, 401, 128, 464
-0.995119, 169, 313, 184, 376
-0.995128, 25, 273, 88, 400
-0.99513, 193, 221, 320, 252
-0.995152, 285, 321, 316, 448
-0.995159, 1, 257, 64, 384
-0.995166, 113, 73, 240, 104
-0.995171, 1, 137, 128, 200
-0.995192, 211, 281, 226, 344
-0.995192, 179, 305, 194, 368
-0.995198, 163, 321, 178, 384
-0.995204, 97, 325, 224, 356
-0.995212, 143, 249, 158, 312
-0.995222, 77, 1, 108, 128
-0.995249, 225, 177, 352, 208
-0.995255, 195, 361, 210, 424
-0.995258, 65, 69, 192, 100
-0.995261, 33, 241, 288, 304
-0.995308, 161, 417, 288, 448
-0.995309, 65, 81, 192, 112
-0.995343, 97, 161, 160, 416
-0.995344, 209, 57, 336, 88
-0.995365, 151, 249, 166, 312
-0.995386, 221, 353, 236, 416
-0.995392, 1, 1, 64, 500
-0.995395, 261, 425, 276, 488
-0.995406, 1, 217, 256, 280
-0.995407, 1, 433, 375, 496
-0.995418, 241, 409, 256, 472
-0.995423, 305, 289, 336, 416
-0.995433, 233, 345, 248, 408
-0.99544, 185, 281, 200, 344
-0.99544, 97, 285, 224, 316
-0.995471, 293, 185, 308, 248
-0.995476, 135, 249, 150, 312
-0.995489, 161, 333, 288, 364
-0.995495, 159, 121, 174, 184
-0.995502, 1, 161, 128, 224
-0.995523, 113, 1, 176, 128
-0.995542, 209, 81, 336, 112
-0.995564, 219, 393, 234, 456
-0.995598, 65, 57, 192, 88
-0.995609, 113, 417, 240, 448
-0.995614, 159, 345, 174, 408
-0.995628, 191, 297, 206, 360
-0.995647, 233, 377, 248, 440
-0.995654, 245, 345, 260, 408
-0.995667, 161, 77, 288, 108
-0.99571, 227, 345, 242, 408
-0.995711, 193, 401, 320, 432
-0.995745, 1, 297, 375, 360
-0.995747, 113, 61, 240, 92
-0.995753, 147, 353, 162, 416
-0.995764, 1, 177, 375, 240
-0.995817, 339, 145, 354, 208
-0.99582, 161, 285, 288, 316
-0.995821, 81, 361, 208, 392
-0.995824, 139, 97, 154, 160
-0.995825, 81, 101, 208, 132
-0.995831, 101, 337, 132, 464
-0.995842, 211, 321, 226, 384
-0.995847, 161, 53, 288, 84
-0.995862, 185, 337, 200, 400
-0.995862, 209, 45, 336, 76
-0.995863, 241, 1, 272, 256
-0.995868, 271, 401, 286, 464
-0.995869, 141, 73, 156, 136
-0.995873, 297, 249, 312, 312
-0.995882, 327, 161, 342, 224
-0.995887, 179, 353, 194, 416
-0.995903, 143, 273, 158, 336
-0.995904, 137, 353, 152, 416
-0.995907, 145, 1, 176, 256
-0.995914, 33, 337, 160, 368
-0.995921, 113, 85, 240, 116
-0.995932, 185, 305, 200, 368
-0.995934, 225, 189, 352, 220
-0.995942, 81, 373, 208, 404
-0.995948, 225, 385, 240, 448
-0.995955, 165, 385, 180, 448
-0.995962, 81, 397, 208, 428
-0.995962, 209, 13, 336, 44
-0.995966, 161, 345, 288, 376
-0.995972, 213, 81, 244, 208
-0.995985, 357, 161, 372, 224
-0.996004, 143, 33, 158, 96
-0.996005, 81, 169, 208, 232
-0.996009, 65, 45, 192, 76
-0.996029, 1, 161, 128, 288
-0.996029, 231, 417, 246, 480
-0.996039, 25, 1, 88, 500
-0.996042, 1, 217, 375, 280
-0.996049, 145, 105, 160, 168
-0.996051, 213, 393, 228, 456
-0.99606, 255, 425, 270, 488
-0.996081, 215, 217, 230, 280
-0.996086, 253, 25, 268, 88
-0.996089, 249, 377, 264, 440
-0.996092, 159, 385, 174, 448
-0.996095, 129, 257, 144, 320
-0.996101, 193, 205, 320, 236
-0.996117, 65, 25, 192, 56
-0.996127, 209, 385, 336, 416
-0.996147, 145, 137, 272, 168
-0.996148, 129, 21, 256, 52
-0.996149, 175, 377, 190, 440
-0.996154, 49, 97, 112, 352
-0.996164, 113, 49, 240, 80
-0.996177, 97, 125, 224, 156
-0.996179, 255, 57, 270, 120
-0.996187, 197, 193, 228, 448
-0.996188, 209, 97, 336, 128
-0.996213, 251, 337, 266, 400
-0.996214, 145, 241, 272, 272
-0.996216, 347, 153, 362, 216
-0.996223, 161, 309, 288, 340
-0.99623, 187, 233, 202, 296
-0.996238, 333, 169, 348, 232
-0.996239, 303, 177, 318, 240
-0.996244, 331, 137, 346, 200
-0.99625, 41, 369, 104, 496
-0.996251, 65, 113, 192, 144
-0.996251, 215, 345, 230, 408
-0.996264, 57, 145, 120, 272
-0.996269, 1, 393, 375, 456
-0.996269, 159, 249, 174, 312
-0.996278, 201, 49, 232, 176
-0.996293, 123, 265, 138, 328
-0.996296, 113, 313, 240, 344
-0.996311, 285, 193, 300, 256
-0.996322, 259, 193, 274, 256
-0.996327, 203, 353, 218, 416
-0.996335, 133, 65, 164, 320
-0.996342, 173, 65, 204, 192
-0.996348, 261, 81, 276, 144
-0.99635, 17, 121, 144, 152
-0.996357, 209, 225, 240, 480
-0.996363, 177, 193, 304, 224
-0.996367, 175, 233, 190, 296
-0.996387, 317, 169, 332, 232
-0.996391, 129, 97, 256, 128
-0.996391, 145, 117, 272, 148
-0.996391, 145, 169, 272, 200
-0.996392, 151, 17, 166, 80
-0.996396, 309, 169, 324, 232
-0.996419, 65, 9, 192, 40
-0.996429, 181, 225, 212, 480
-0.996431, 157, 321, 172, 384
-0.996432, 295, 273, 310, 336
-0.996437, 205, 297, 220, 360
-0.996438, 129, 297, 256, 328
-0.996439, 179, 265, 194, 328
-0.996442, 207, 209, 222, 272
-0.996444, 225, 109, 352, 140
-0.996455, 209, 25, 336, 56
-0.996461, 113, 37, 240, 68
-0.996461, 153, 345, 168, 408
-0.996473, 201, 217, 216, 280
-0.996514, 193, 321, 320, 352
-0.996533, 209, 273, 336, 304
-0.996534, 249, 433, 264, 496
-0.99654, 169, 145, 200, 272
-0.996544, 33, 169, 288, 232
-0.996545, 239, 337, 254, 400
-0.996554, 287, 273, 302, 336
-0.996583, 161, 33, 288, 64
-0.996589, 265, 209, 280, 272
-0.996591, 141, 313, 156, 376
-0.996593, 277, 185, 292, 248
-0.996595, 113, 149, 240, 180
-0.996605, 135, 281, 150, 344
-0.996608, 81, 297, 208, 328
-0.996609, 151, 321, 166, 384
-0.996624, 213, 369, 228, 432
-0.996625, 253, 105, 268, 168
-0.996633, 243, 129, 258, 192
-0.996636, 247, 409, 262, 472
-0.996647, 215, 1, 230, 64
-0.996647, 131, 353, 146, 416
-0.996656, 147, 393, 162, 456
-0.996662, 69, 369, 100, 496
-0.996664, 251, 193, 266, 256
-0.996675, 225, 133, 352, 164
-0.99668, 177, 181, 304, 212
-0.996682, 303, 281, 318, 344
-0.996685, 153, 193, 184, 320
-0.996687, 261, 377, 276, 440
-0.996687, 267, 425, 282, 488
-0.996699, 153, 137, 168, 200
-0.996717, 49, 261, 176, 292
-0.996723, 281, 161, 312, 416
-0.996728, 165, 257, 196, 500
-0.996731, 169, 345, 184, 408
-0.996734, 241, 321, 368, 352
-0.996736, 217, 289, 232, 352
-0.99674, 1, 337, 375, 400
-0.996756, 327, 185, 342, 248
-0.996767, 299, 201, 314, 264
-0.996768, 243, 161, 258, 224
-0.996771, 161, 269, 288, 300
-0.99678, 1, 217, 128, 280
-0.996787, 117, 257, 148, 500
-0.996797, 225, 433, 352, 464
-0.996798, 193, 161, 320, 192
-0.996804, 193, 245, 320, 276
-0.996808, 85, 273, 116, 400
-0.996818, 129, 429, 256, 460
-0.996848, 241, 97, 272, 352
-0.99685, 271, 185, 286, 248
-0.996852, 303, 257, 318, 320
-0.996853, 33, 349, 160, 380
-0.99686, 207, 393, 222, 456
-0.996869, 221, 329, 236, 392
-0.996871, 225, 417, 240, 480
-0.996892, 241, 205, 368, 236
-0.996901, 165, 249, 180, 312
-0.996906, 1, 129, 375, 192
-0.996909, 225, 373, 352, 404
-0.996917, 153, 385, 168, 448
-0.996921, 65, 137, 192, 168
-0.996934, 133, 225, 164, 480
-0.996934, 97, 245, 224, 276
-0.996935, 135, 73, 150, 136
-0.99697, 187, 1, 202, 64
-0.996987, 1, 273, 128, 336
-0.996991, 253, 65, 284, 320
-0.996992, 209, 1, 224, 64
-0.996995, 203, 241, 218, 304
-0.997001, 17, 325, 144, 356
-0.997012, 249, 81, 264, 144
-0.997015, 271, 361, 286, 424
-0.997024, 139, 377, 154, 440
-0.997026, 217, 417, 232, 480
-0.997029, 177, 437, 304, 468
-0.997042, 209, 345, 336, 376
-0.997047, 209, 421, 336, 452
-0.99705, 135, 329, 150, 392
-0.997057, 1, 193, 256, 256
-0.997058, 257, 169, 272, 232
-0.997065, 65, 385, 192, 416
-0.997066, 157, 9, 172, 72
-0.997067, 235, 145, 250, 208
-0.9971, 149, 273, 164, 336
-0.997107, 61, 97, 92, 224
-0.997112, 177, 329, 192, 392
-0.997112, 321, 121, 336, 184
-0.997113, 145, 221, 272, 252
-0.997117, 209, 345, 224, 408
-0.997161, 209, 233, 224, 296
-0.997166, 289, 65, 320, 320
-0.997176, 133, 97, 148, 160
-0.997176, 195, 225, 210, 288
-0.997181, 1, 361, 375, 424
-0.997184, 225, 361, 352, 392
-0.997189, 33, 93, 160, 124
-0.997206, 229, 129, 260, 384
-0.99724, 193, 297, 320, 328
-0.99725, 241, 153, 368, 184
-0.997259, 65, 309, 192, 340
-0.997268, 293, 193, 324, 448
-0.997274, 249, 193, 280, 448
-0.997275, 121, 129, 152, 384
-0.99728, 241, 217, 368, 248
-0.997287, 109, 97, 140, 352
-0.997291, 229, 225, 260, 480
-0.997301, 145, 225, 176, 480
-0.997419, 17, 1, 80, 256
-0.997436, 49, 277, 176, 308
-0.997438, 65, 193, 128, 448
-0.997459, 313, 161, 344, 416
-0.997459, 85, 321, 116, 448
-0.997466, 341, 305, 372, 432
-0.997468, 209, 257, 336, 288
-0.997496, 243, 361, 258, 392
-0.997499, 301, 97, 332, 352
-0.99751, 97, 233, 224, 264
-0.997515, 211, 289, 226, 320
-0.997523, 321, 241, 352, 368
-0.997532, 305, 1, 336, 256
-0.997564, 199, 345, 214, 376
-0.997595, 81, 429, 208, 460
-0.997614, 205, 129, 236, 256
-0.99762, 81, 161, 112, 288
-0.997645, 225, 333, 352, 364
-0.997653, 217, 129, 248, 384
-0.997661, 215, 353, 230, 384
-0.997673, 269, 193, 300, 448
-0.997678, 193, 345, 208, 376
-0.997706, 297, 277, 312, 308
-0.997731, 1, 289, 32, 416
-0.99774, 237, 349, 252, 380
-0.997743, 241, 469, 368, 500
-0.997746, 157, 353, 172, 384
-0.997754, 133, 177, 164, 304
-0.99777, 317, 305, 348, 432
-0.99777, 191, 357, 206, 388
-0.997793, 201, 361, 216, 392
-0.997804, 289, 193, 304, 224
-0.99783, 1, 29, 128, 60
-0.997844, 49, 453, 176, 484
-0.997846, 165, 341, 180, 372
-0.997852, 221, 345, 236, 376
-0.997856, 241, 229, 368, 260
-0.997858, 187, 293, 202, 324
-0.99787, 183, 389, 198, 420
-0.997891, 171, 333, 186, 364
-0.997909, 139, 365, 154, 396
-0.997909, 181, 337, 196, 368
-0.997911, 145, 97, 176, 352
-0.997917, 157, 129, 188, 384
-0.997919, 241, 165, 368, 196
-0.99792, 1, 49, 128, 80
-0.997922, 213, 329, 228, 360
-0.997935, 191, 377, 206, 408
-0.997944, 145, 253, 272, 284
-0.997952, 153, 257, 168, 288
-0.997954, 17, 133, 144, 164
-0.99796, 169, 321, 184, 352
-0.99797, 161, 129, 176, 160
-0.99798, 209, 305, 224, 336
-0.997991, 227, 337, 242, 368
-0.998005, 163, 261, 178, 292
-0.998006, 325, 161, 356, 416
-0.998011, 239, 373, 254, 404
-0.998038, 65, 149, 192, 180
-0.998042, 183, 405, 198, 436
-0.998043, 177, 393, 192, 424
-0.998052, 17, 109, 144, 140
-0.998058, 297, 257, 312, 288
-0.998061, 187, 341, 202, 372
-0.998065, 217, 225, 232, 256
-0.998069, 229, 1, 260, 256
-0.998069, 265, 217, 280, 248
-0.998073, 327, 173, 342, 204
-0.998075, 207, 337, 222, 368
-0.998075, 151, 109, 166, 140
-0.998081, 241, 309, 368, 340
-0.998084, 261, 433, 276, 464
-0.998089, 231, 357, 246, 388
-0.998098, 193, 149, 320, 180
-0.998115, 203, 405, 218, 436
-0.998135, 329, 305, 360, 432
-0.998141, 185, 129, 216, 384
-0.998141, 139, 101, 154, 132
-0.998145, 143, 277, 158, 308
-0.998147, 153, 21, 168, 52
-0.998152, 1, 13, 128, 44
-0.998154, 123, 265, 138, 296
-0.998167, 157, 1, 188, 256
-0.998174, 1, 73, 128, 104
-0.998182, 209, 353, 224, 384
-0.998184, 169, 129, 200, 384
-0.998186, 153, 401, 168, 432
-0.998188, 233, 381, 248, 412
-0.998196, 33, 361, 160, 392
-0.998196, 249, 381, 264, 412
-0.998197, 147, 361, 162, 392
-0.998197, 325, 197, 340, 228
-0.998197, 183, 241, 198, 272
-0.998203, 257, 69, 272, 100
-0.998203, 1, 1, 128, 32
-0.99821, 141, 85, 156, 116
-0.998215, 129, 181, 256, 212
-0.99822, 317, 65, 348, 192
-0.998223, 177, 449, 304, 480
-0.998228, 193, 237, 208, 268
-0.99823, 233, 425, 248, 456
-0.998233, 145, 41, 160, 72
-0.998235, 163, 409, 178, 440
-0.998243, 255, 437, 270, 468
-0.998245, 161, 325, 176, 356
-0.998246, 33, 113, 64, 240
-0.998248, 179, 317, 194, 348
-0.998262, 283, 193, 298, 224
-0.998266, 215, 421, 230, 452
-0.998268, 255, 177, 270, 208
-0.998272, 165, 353, 180, 384
-0.998276, 65, 409, 192, 440
-0.998282, 357, 169, 372, 200
-0.998283, 205, 289, 220, 320
-0.998285, 133, 361, 148, 392
-0.998285, 189, 409, 204, 440
-0.998289, 201, 333, 216, 364
-0.998294, 225, 425, 240, 456
-0.998301, 137, 257, 152, 288
-0.998302, 163, 397, 178, 428
-0.998305, 301, 189, 316, 220
-0.998305, 1, 177, 64, 304
-0.998307, 217, 297, 232, 328
-0.998308, 121, 1, 152, 256
-0.998311, 199, 293, 214, 324
-0.998311, 65, 441, 192, 472
-0.998313, 211, 217, 226, 248
-0.998315, 233, 153, 248, 184
-0.998326, 259, 109, 274, 140
-0.998331, 253, 113, 268, 144
-0.998333, 181, 369, 196, 400
-0.998335, 143, 317, 158, 348
-0.998335, 147, 257, 162, 288
-0.998343, 151, 149, 166, 180
-0.998344, 265, 479, 296, 494
-0.998344, 149, 419, 180, 434
-0.998346, 305, 267, 336, 282
-0.998346, 233, 349, 264, 364
-0.998346, 295, 185, 310, 216
-0.998346, 289, 119, 320, 134
-0.998346, 147, 381, 162, 412
-0.998346, 161, 267, 192, 282
-0.998347, 249, 189, 280, 204
-0.998347, 313, 185, 344, 200
-0.998348, 157, 253, 188, 268
-0.998348, 253, 219, 284, 234
-0.998348, 173, 315, 204, 330
-0.998348, 141, 75, 172, 90
-0.998349, 137, 95, 168, 110
-0.998349, 141, 51, 172, 66
-0.99835, 121, 69, 152, 84
-0.99835, 121, 57, 152, 72
-0.99835, 169, 381, 200, 396
-0.99835, 241, 65, 272, 80
-0.99835, 201, 411, 232, 426
-0.998351, 253, 485, 284, 500
-0.998352, 145, 39, 176, 54
-0.998353, 309, 191, 340, 206
-0.998353, 339, 177, 354, 208
-0.998354, 181, 249, 212, 264
-0.998356, 133, 351, 164, 366
-0.998356, 225, 381, 256, 396
-0.998357, 205, 225, 236, 240
-0.998357, 137, 105, 168, 120
-0.998357, 159, 13, 174, 44
-0.998358, 263, 181, 278, 212
-0.998358, 249, 345, 264, 376
-0.998358, 177, 299, 208, 314
-0.998359, 249, 401, 280, 416
-0.998359, 141, 381, 172, 396
-0.998359, 233, 335, 264, 350
-0.998361, 185, 401, 216, 416
-0.998361, 261, 193, 292, 208
-0.998361, 241, 297, 368, 328
-0.998362, 113, 335, 144, 350
-0.998363, 305, 177, 336, 192
-0.998363, 97, 97, 128, 352
-0.998364, 169, 359, 200, 374
-0.998364, 185, 387, 216, 402
-0.998365, 345, 177, 375, 192
-0.998365, 117, 293, 148, 308
-0.998366, 285, 277, 300, 308
-0.998367, 141, 81, 172, 96
-0.998367, 137, 323, 168, 338
-0.998368, 165, 353, 196, 368
-0.998369, 173, 347, 204, 362
-0.998369, 197, 375, 228, 390
-0.99837, 249, 439, 280, 454
-0.99837, 197, 417, 228, 432
-0.998371, 145, 363, 176, 378
-0.998371, 213, 33, 244, 288
-0.998371, 85, 1, 116, 256
-0.998374, 209, 329, 240, 344
-0.998374, 215, 1, 230, 32
-0.998374, 161, 141, 176, 172
-0.998374, 141, 45, 172, 60
-0.998375, 125, 101, 156, 116
-0.998375, 145, 401, 176, 416
-0.998376, 149, 317, 180, 332
-0.998377, 125, 365, 156, 380
-0.998377, 265, 199, 296, 214
-0.998378, 189, 333, 220, 348
-0.998378, 169, 375, 200, 390
-0.998378, 285, 277, 316, 292
-0.998379, 305, 173, 320, 204
-0.99838, 181, 241, 212, 256
-0.99838, 181, 395, 212, 410
-0.998382, 141, 369, 172, 384
-0.998382, 189, 305, 204, 336
-0.998384, 185, 379, 216, 394
-0.998385, 209, 291, 240, 306
-0.998385, 245, 81, 276, 96
-0.998385, 201, 229, 216, 260
-0.998386, 289, 207, 320, 222
-0.998388, 161, 117, 176, 148
-0.998389, 213, 237, 244, 252
-0.998389, 155, 133, 170, 164
-0.99839, 159, 273, 174, 304
-0.99839, 113, 341, 144, 356
-0.998392, 137, 89, 168, 104
-0.998392, 121, 285, 152, 300
-0.998392, 293, 295, 324, 310
-0.998394, 273, 219, 304, 234
-0.998395, 225, 163, 256, 178
-0.998397, 153, 149, 184, 164
-0.998397, 241, 421, 256, 452
-0.998397, 145, 391, 176, 406
-0.998398, 141, 375, 172, 390
-0.998398, 189, 357, 220, 372
-0.998399, 169, 387, 200, 402
-0.998399, 211, 237, 226, 268
-0.9984, 121, 275, 152, 290
-0.9984, 203, 317, 218, 348
-0.998401, 245, 71, 276, 86
-0.998403, 273, 281, 304, 296
-0.998403, 1, 61, 128, 92
-0.998405, 221, 341, 252, 356
-0.998405, 197, 343, 228, 358
-0.998406, 201, 405, 232, 420
-0.998406, 145, 143, 176, 158
-0.998409, 245, 387, 276, 402
-0.998409, 277, 195, 308, 210
-0.998411, 201, 97, 232, 352
-0.998411, 173, 245, 188, 276
-0.998412, 173, 369, 204, 384
-0.998413, 303, 265, 318, 296
-0.998416, 313, 199, 344, 214
-0.998417, 197, 231, 228, 246
-0.998418, 293, 193, 324, 208
-0.99842, 97, 1, 128, 256
-0.998422, 201, 369, 232, 384
-0.998422, 145, 277, 176, 292
-0.998422, 213, 429, 244, 444
-0.998423, 153, 357, 184, 372
-0.998423, 137, 357, 168, 372
-0.998423, 181, 277, 196, 308
-0.998423, 159, 341, 174, 372
-0.998424, 229, 355, 260, 370
-0.998424, 145, 101, 160, 132
-0.998427, 313, 171, 344, 186
-0.998427, 185, 311, 216, 326
-0.998428, 209, 297, 240, 312
-0.998428, 283, 209, 298, 240
-0.99843, 271, 197, 286, 228
-0.998431, 135, 89, 150, 120
-0.998431, 205, 335, 236, 350
-0.998432, 189, 409, 220, 424
-0.998433, 169, 405, 200, 420
-0.998434, 273, 225, 304, 240
-0.998434, 179, 349, 194, 380
-0.998435, 157, 273, 188, 288
-0.998436, 213, 351, 244, 366
-0.998437, 197, 299, 228, 314
-0.998437, 225, 393, 256, 408
-0.998438, 33, 469, 160, 500
-0.998439, 185, 351, 216, 366
-0.998439, 333, 185, 364, 200
-0.99844, 209, 359, 240, 374
-0.998442, 197, 349, 228, 364
-0.998444, 265, 205, 296, 220
-0.998446, 237, 381, 268, 396
-0.998447, 177, 341, 208, 356
-0.998448, 201, 1, 232, 256
-0.998449, 261, 201, 276, 232
-0.998449, 139, 385, 154, 416
-0.998449, 189, 287, 220, 302
-0.998451, 261, 93, 276, 124
-0.998452, 221, 367, 252, 382
-0.998457, 299, 1, 314, 32
-0.998461, 137, 387, 200, 402
-0.998462, 241, 165, 256, 196
-0.998466, 133, 259, 164, 274
-0.998469, 229, 387, 260, 402
-0.998469, 193, 369, 256, 384
-0.99847, 175, 257, 190, 288
-0.998471, 161, 347, 192, 362
-0.998478, 305, 289, 320, 320
-0.998479, 137, 277, 200, 292
-0.998479, 269, 211, 300, 226
-0.998482, 167, 133, 182, 164
-0.998485, 337, 129, 368, 384
-0.998486, 281, 201, 312, 216
-0.998486, 161, 397, 192, 412
-0.998489, 253, 479, 284, 494
-0.998489, 301, 199, 332, 214
-0.998491, 185, 365, 216, 380
-0.998496, 89, 369, 120, 496
-0.998497, 149, 273, 164, 304
-0.998498, 9, 129, 40, 256
-0.998499, 175, 269, 190, 300
-0.9985, 273, 199, 336, 214
-0.998502, 293, 289, 324, 304
-0.998504, 17, 249, 144, 280
-0.998504, 195, 333, 210, 364
-0.998505, 121, 261, 184, 276
-0.99851, 201, 403, 264, 418
-0.99851, 157, 413, 172, 444
-0.998512, 225, 387, 288, 402
-0.998513, 257, 89, 320, 104
-0.998513, 331, 189, 346, 220
-0.998514, 225, 361, 256, 376
-0.998515, 311, 189, 326, 220
-0.998515, 165, 339, 196, 354
-0.998516, 265, 81, 296, 208
-0.998522, 121, 267, 184, 282
-0.998522, 185, 381, 248, 396
-0.998524, 215, 397, 230, 428
-0.998524, 189, 305, 220, 320
-0.998526, 197, 363, 228, 378
-0.998527, 113, 341, 128, 372
-0.998527, 161, 341, 224, 356
-0.99853, 193, 363, 256, 378
-0.998531, 225, 361, 240, 392
-0.998535, 281, 207, 344, 222
-0.998535, 313, 169, 375, 184
-0.998536, 185, 357, 200, 388
-0.998538, 197, 293, 228, 308
-0.998538, 293, 297, 308, 328
-0.998538, 97, 67, 160, 82
-0.998539, 249, 195, 312, 210
-0.998539, 153, 349, 216, 364
-0.998539, 147, 29, 162, 60
-0.99854, 217, 393, 280, 408
-0.99854, 241, 245, 368, 276
-0.998541, 97, 81, 160, 96
-0.998541, 97, 61, 160, 76
-0.998542, 257, 95, 320, 110
-0.998543, 257, 75, 320, 90
-0.998543, 319, 185, 334, 216
-0.998543, 153, 407, 216, 422
-0.998543, 97, 89, 160, 104
-0.998545, 185, 375, 248, 390
-0.998548, 249, 233, 312, 248
-0.998549, 137, 375, 200, 390
-0.99855, 97, 99, 160, 114
-0.99855, 177, 389, 240, 404
-0.998551, 257, 205, 320, 220
-0.998553, 97, 55, 160, 70
-0.998554, 97, 73, 160, 88
-0.998554, 257, 83, 320, 98
-0.998561, 249, 481, 312, 496
-0.998562, 129, 95, 192, 110
-0.998564, 161, 395, 224, 410
-0.998564, 129, 353, 192, 368
-0.998565, 257, 69, 320, 84
-0.998565, 201, 409, 264, 424
-0.998566, 137, 365, 200, 380
-0.998566, 257, 101, 320, 116
-0.998566, 137, 381, 200, 396
-0.998567, 137, 397, 200, 412
-0.998567, 257, 281, 320, 296
-0.99857, 177, 291, 240, 306
-0.998571, 209, 169, 272, 184
-0.998571, 113, 119, 176, 134
-0.998571, 289, 189, 352, 204
-0.998572, 129, 359, 192, 374
-0.998572, 257, 63, 320, 78
-0.998574, 169, 317, 232, 332
-0.998575, 113, 279, 176, 294
-0.998575, 177, 403, 240, 418
-0.998576, 257, 107, 320, 122
-0.998577, 193, 415, 256, 430
-0.998577, 97, 49, 160, 64
-0.998578, 209, 429, 272, 444
-0.998578, 225, 381, 288, 396
-0.99858, 289, 177, 352, 192
-0.99858, 105, 257, 136, 500
-0.998581, 121, 343, 184, 358
-0.998582, 129, 89, 192, 104
-0.998583, 121, 135, 184, 150
-0.998584, 249, 113, 312, 128
-0.998589, 153, 355, 216, 370
-0.998589, 169, 421, 232, 436
-0.998591, 185, 297, 248, 312
-0.998593, 129, 83, 192, 98
-0.998593, 257, 55, 320, 70
-0.998594, 113, 285, 176, 300
-0.998594, 241, 401, 304, 416
-0.998596, 265, 319, 328, 334
-0.998597, 121, 141, 184, 156
-0.998598, 241, 393, 304, 408
-0.998601, 241, 407, 304, 422
-0.998601, 257, 213, 320, 228
-0.998601, 217, 81, 280, 96
-0.998602, 97, 43, 160, 58
-0.998602, 177, 311, 240, 326
-0.998602, 153, 255, 216, 270
-0.998604, 217, 67, 280, 82
-0.998604, 297, 183, 360, 198
-0.998605, 217, 89, 280, 104
-0.998607, 241, 189, 304, 204
-0.998608, 129, 77, 192, 92
-0.998609, 97, 105, 160, 120
-0.998609, 161, 323, 224, 338
-0.998609, 113, 111, 176, 126
-0.99861, 313, 189, 375, 204
-0.998613, 161, 335, 224, 350
-0.998613, 177, 409, 240, 424
-0.998614, 137, 149, 200, 164
-0.998615, 97, 37, 160, 52
-0.998615, 209, 175, 272, 190
-0.998616, 241, 415, 304, 430
-0.998617, 185, 303, 248, 318
-0.998617, 113, 273, 176, 288
-0.998617, 233, 375, 296, 390
-0.998617, 129, 63, 192, 78
-0.998618, 153, 143, 216, 158
-0.998618, 257, 47, 320, 62
-0.998619, 209, 239, 272, 254
-0.998621, 177, 351, 240, 366
-0.998622, 289, 171, 352, 186
-0.998622, 249, 227, 312, 242
-0.998622, 153, 271, 216, 286
-0.998622, 113, 125, 176, 140
-0.998623, 137, 283, 200, 298
-0.998623, 169, 235, 232, 250
-0.998625, 201, 355, 264, 370
-0.998625, 129, 323, 192, 338
-0.998626, 217, 423, 280, 438
-0.998627, 153, 413, 216, 428
-0.998627, 121, 329, 184, 344
-0.998628, 265, 291, 328, 306
-0.998629, 185, 343, 248, 358
-0.998629, 225, 73, 288, 88
-0.99863, 257, 119, 320, 134
-0.99863, 201, 163, 264, 178
-0.998631, 257, 41, 320, 56
-0.998632, 249, 219, 312, 234
-0.998632, 241, 287, 304, 302
-0.998633, 185, 285, 248, 300
-0.998633, 89, 327, 152, 342
-0.998633, 169, 365, 232, 380
-0.998633, 145, 23, 208, 38
-0.998634, 121, 337, 184, 352
-0.998635, 313, 163, 375, 178
-0.998636, 129, 69, 192, 84
-0.998637, 297, 269, 360, 284
-0.998638, 233, 201, 296, 216
-0.998686, 189, 97, 220, 224
-0.998687, 227, 353, 242, 480
-0.998805, 169, 1, 200, 256
-0.998811, 187, 305, 202, 432
-0.998814, 69, 193, 100, 320
-0.998822, 193, 337, 208, 464
-0.998825, 243, 353, 258, 480
-0.998829, 143, 33, 158, 160
-0.998839, 145, 305, 160, 432
-0.998841, 261, 369, 276, 496
-0.998847, 211, 273, 226, 400
-0.998848, 141, 81, 156, 208
-0.99885, 333, 33, 364, 288
-0.99886, 281, 257, 312, 500
-0.998872, 265, 65, 296, 320
-0.998884, 235, 353, 250, 480
-0.998885, 147, 97, 162, 224
-0.998892, 179, 225, 194, 352
-0.998899, 189, 33, 220, 288
-0.998912, 181, 305, 196, 432
-0.998916, 221, 337, 236, 464
-0.998929, 217, 225, 232, 352
-0.998934, 293, 177, 308, 304
-0.998935, 139, 305, 154, 432
-0.998943, 163, 337, 178, 464
-0.99895, 133, 241, 148, 368
-0.99895, 85, 97, 116, 352
-0.99895, 153, 97, 168, 224
-0.998953, 253, 369, 268, 496
-0.998971, 185, 225, 200, 352
-0.998972, 211, 209, 226, 336
-0.998979, 141, 257, 156, 384
-0.998996, 187, 353, 202, 480
-0.998999, 157, 321, 172, 448
-0.999007, 199, 321, 214, 448
-0.999009, 207, 337, 222, 464
-0.99901, 313, 193, 375, 320
-0.999014, 203, 225, 218, 352
-0.999033, 147, 225, 162, 352
-0.999033, 323, 113, 338, 240
-0.999034, 155, 1, 170, 128
-0.999038, 123, 257, 138, 384
-0.999042, 173, 257, 188, 384
-0.999045, 245, 161, 260, 288
-0.999047, 151, 305, 166, 432
-0.999048, 313, 113, 328, 240
-0.99905, 33, 145, 96, 272
-0.999051, 249, 113, 264, 240
-0.999065, 251, 321, 266, 448
-0.999067, 195, 225, 210, 352
-0.999076, 215, 353, 230, 480
-0.999076, 305, 113, 320, 240
-0.999076, 287, 177, 302, 304
-0.999077, 251, 33, 266, 160
-0.99908, 245, 225, 260, 352
-0.999087, 255, 97, 270, 224
-0.999088, 135, 353, 150, 480
-0.99909, 149, 17, 164, 144
-0.999092, 235, 145, 250, 272
-0.999093, 135, 65, 150, 192
-0.999093, 155, 257, 170, 384
-0.999094, 259, 225, 274, 352
-0.999095, 175, 321, 190, 448
-0.999098, 231, 225, 246, 352
-0.999106, 317, 33, 348, 288
-0.999109, 169, 305, 184, 432
-0.999111, 293, 225, 308, 352
-0.999114, 251, 225, 266, 352
-0.99912, 239, 225, 254, 352
-0.999127, 205, 289, 220, 416
-0.999129, 299, 177, 314, 304
-0.999142, 163, 289, 178, 416
-0.99915, 149, 353, 164, 480
-0.999154, 339, 129, 354, 256
-0.999156, 329, 129, 344, 256
-0.99916, 193, 289, 208, 416
-0.999162, 219, 289, 234, 416
-0.999165, 243, 1, 258, 128
-0.999174, 141, 353, 156, 480
-0.999177, 225, 225, 240, 352
-0.99919, 259, 321, 274, 448
-0.99919, 257, 33, 272, 160
-0.999202, 109, 1, 140, 256
-0.999204, 267, 369, 282, 496
-0.999204, 159, 97, 174, 224
-0.999208, 103, 97, 118, 224
-0.99921, 245, 273, 260, 400
-0.999216, 157, 369, 172, 496
-0.999228, 251, 177, 266, 304
-0.999231, 133, 289, 148, 416
-0.999233, 305, 161, 320, 288
-0.999234, 161, 1, 176, 128
-0.999238, 127, 337, 142, 464
-0.999239, 181, 353, 196, 480
-0.999242, 251, 273, 266, 400
-0.999243, 259, 161, 274, 288
-0.999246, 275, 257, 290, 384
-0.999251, 205, 1, 220, 128
-0.999253, 265, 193, 280, 320
-0.999258, 269, 305, 284, 432
-0.99926, 243, 113, 258, 240
-0.99927, 169, 353, 184, 480
-0.999276, 229, 145, 244, 272
-0.999276, 261, 273, 276, 400
-0.999277, 165, 241, 180, 368
-0.999291, 89, 209, 120, 336
-0.999291, 121, 113, 136, 240
-0.999295, 45, 65, 76, 192
-0.999311, 185, 1, 200, 128
-0.999311, 237, 273, 252, 400
-0.999312, 283, 257, 298, 384
-0.999313, 351, 113, 366, 240
-0.999317, 93, 33, 108, 160
-0.99932, 237, 1, 252, 128
-0.999322, 109, 113, 124, 240
-0.999341, 209, 161, 224, 288
-0.999341, 299, 241, 314, 368
-0.999346, 307, 33, 322, 160
-0.999357, 299, 113, 314, 240
-0.999362, 115, 113, 130, 240
-0.999363, 227, 273, 242, 400
-0.999365, 283, 305, 298, 432
-0.999366, 275, 305, 290, 432
-0.999368, 97, 81, 112, 208
-0.999372, 261, 81, 276, 208
-0.999389, 127, 113, 142, 240
-0.999394, 315, 161, 330, 288
-0.999394, 305, 257, 336, 500
-0.999395, 109, 161, 140, 288
-0.999408, 167, 1, 182, 128
-0.999409, 217, 145, 232, 272
-0.999414, 327, 177, 342, 304
-0.999418, 281, 177, 296, 304
-0.999418, 199, 369, 214, 496
-0.999419, 117, 273, 132, 400
-0.99942, 345, 129, 360, 256
-0.999421, 1, 193, 64, 448
-0.999425, 179, 1, 194, 128
-0.999429, 103, 33, 118, 160
-0.999436, 269, 257, 284, 384
-0.999436, 223, 145, 238, 272
-0.999439, 1, 377, 128, 440
-0.999442, 283, 129, 298, 256
-0.999443, 203, 161, 218, 288
-0.999446, 175, 369, 190, 496
-0.999453, 199, 1, 214, 128
-0.999454, 173, 209, 188, 336
-0.999455, 293, 113, 308, 240
-0.999455, 21, 113, 52, 240
-0.999476, 345, 33, 375, 288
-0.999488, 73, 273, 104, 400
-0.999492, 277, 65, 308, 320
-0.999539, 163, 399, 178, 414
-0.999541, 233, 163, 248, 178
-0.999541, 183, 407, 198, 422
-0.999541, 319, 129, 334, 144
-0.999541, 219, 397, 234, 412
-0.999541, 213, 223, 228, 238
-0.999541, 301, 275, 316, 290
-0.999541, 201, 371, 216, 386
-0.999542, 165, 265, 180, 280
-0.999542, 211, 241, 226, 256
-0.999542, 161, 133, 176, 148
-0.999542, 307, 201, 322, 216
-0.999542, 159, 15, 174, 30
-0.999543, 257, 71, 272, 86
-0.999543, 213, 353, 228, 368
-0.999543, 313, 171, 328, 186
-0.999544, 131, 361, 146, 376
-0.999544, 147, 363, 162, 378
-0.999544, 211, 359, 226, 374
-0.999544, 227, 163, 242, 178
-0.999544, 197, 407, 212, 422
-0.999545, 267, 221, 282, 236
-0.999547, 165, 355, 180, 370
-0.999547, 233, 367, 248, 382
-0.999547, 293, 239, 308, 254
-0.999547, 271, 479, 286, 494
-0.999548, 357, 171, 372, 186
-0.999549, 157, 145, 172, 160
-0.999549, 207, 365, 222, 380
-0.999549, 217, 359, 232, 374
-0.99955, 151, 33, 166, 48
-0.99955, 185, 387, 200, 402
-0.999551, 153, 151, 168, 166
-0.999552, 181, 353, 196, 368
-0.999552, 255, 485, 270, 500
-0.999553, 173, 269, 188, 284
-0.999554, 145, 43, 160, 58
-0.999554, 291, 195, 306, 210
-0.999554, 157, 359, 172, 374
-0.999554, 173, 363, 188, 378
-0.999555, 287, 279, 302, 294
-0.999555, 151, 277, 166, 292
-0.999556, 307, 175, 322, 190
-0.999556, 123, 267, 138, 282
-0.999556, 183, 243, 198, 258
-0.999557, 233, 385, 248, 400
-0.999557, 329, 175, 344, 190
-0.999558, 337, 183, 352, 198
-0.999558, 163, 149, 178, 164
-0.999559, 153, 421, 168, 436
-0.99956, 257, 115, 272, 130
-0.99956, 135, 259, 150, 274
-0.99956, 157, 401, 172, 416
-0.999561, 213, 427, 228, 442
-0.999562, 223, 345, 238, 360
-0.999562, 141, 377, 156, 392
-0.999563, 163, 143, 178, 158
-0.999563, 143, 321, 158, 336
-0.999563, 201, 297, 216, 312
-0.999564, 207, 333, 222, 348
-0.999564, 143, 369, 158, 384
-0.999566, 181, 381, 196, 396
-0.999566, 169, 321, 184, 336
-0.999566, 137, 389, 152, 404
-0.999566, 239, 165, 254, 180
-0.999567, 219, 351, 234, 366
-0.999568, 213, 365, 228, 380
-0.999568, 193, 243, 208, 258
-0.999568, 219, 297, 234, 312
-0.999569, 109, 341, 124, 356
-0.999569, 191, 411, 206, 426
-0.999571, 175, 397, 190, 412
-0.999571, 257, 477, 272, 492
-0.999571, 263, 435, 278, 450
-0.999571, 321, 169, 336, 184
-0.999572, 195, 375, 210, 390
-0.999573, 117, 337, 132, 352
-0.999575, 207, 403, 222, 418
-0.999576, 175, 345, 190, 360
-0.999577, 307, 293, 322, 308
-0.999578, 199, 303, 214, 318
-0.999578, 231, 157, 246, 172
-0.999578, 211, 303, 226, 318
-0.99958, 137, 105, 152, 120
-0.99958, 213, 331, 228, 346
-0.99958, 241, 375, 256, 390
-0.99958, 201, 341, 216, 356
-0.99958, 219, 231, 234, 246
-0.999581, 197, 357, 212, 372
-0.999582, 147, 103, 162, 118
-0.999583, 265, 479, 280, 494
-0.999583, 201, 335, 216, 350
-0.999584, 137, 365, 152, 380
-0.999584, 191, 361, 206, 376
-0.999588, 179, 315, 194, 330
-0.999589, 145, 279, 160, 294
-0.999589, 229, 359, 244, 374
-0.999589, 195, 351, 210, 366
-0.99959, 205, 359, 220, 374
-0.99959, 227, 339, 242, 354
-0.999591, 165, 341, 180, 356
-0.999592, 325, 199, 340, 214
-0.999592, 245, 361, 260, 376
-0.999592, 183, 375, 198, 390
-0.999593, 185, 341, 200, 356
-0.999593, 189, 297, 204, 312
-0.999594, 169, 349, 184, 364
-0.999595, 149, 109, 164, 124
-0.9996, 177, 403, 192, 418
-0.9996, 237, 361, 252, 376
-0.999605, 235, 355, 250, 370
-0.999606, 189, 367, 204, 382
-0.999611, 239, 381, 254, 396
-0.999613, 285, 197, 300, 212
-0.999613, 187, 353, 202, 368
-0.999614, 161, 127, 176, 142
-0.999614, 163, 347, 178, 362
-0.999618, 203, 409, 218, 424
-0.99962, 189, 309, 204, 324
-0.999622, 171, 337, 186, 352
-0.999623, 315, 199, 330, 214
-0.999627, 181, 347, 196, 362
-0.999627, 191, 381, 206, 396
-0.999629, 179, 339, 194, 354
-0.999631, 157, 353, 172, 368
-0.999632, 93, 257, 124, 500
-0.999632, 201, 365, 216, 380
-0.999635, 181, 393, 196, 408
-0.99964, 295, 287, 310, 302
-0.999666, 191, 345, 206, 360
-0.999672, 25, 321, 88, 448
-0.999683, 211, 293, 226, 308
-0.999694, 1, 161, 32, 416
-0.999766, 61, 97, 92, 352
-0.999776, 73, 97, 104, 352
-0.999789, 21, 97, 52, 352
-0.999847, 33, 97, 64, 352
-0.999985, 81, 257, 112, 500
-1.00011, 41, 1, 72, 256
-1.00012, 49, 97, 80, 352
-1.00015, 341, 257, 372, 500
-1.00016, 33, 193, 96, 320
-1.00018, 321, 257, 352, 500
-1.00021, 1, 33, 32, 288
-1.00025, 61, 1, 92, 256
-1.00026, 73, 1, 104, 256
-1.00036, 21, 1, 52, 256
-1.00039, 65, 193, 96, 448
-1.00061, 21, 193, 52, 448
-1.00067, 1, 257, 32, 500
-1.00086, 53, 193, 84, 448
-1.001, 1, 65, 64, 192
-1.00102, 33, 193, 64, 448
-1.00123, 1, 1, 64, 128
-1.00158, 41, 193, 104, 448
-1.00279, 25, 1, 88, 128
-1.00385, 17, 369, 80, 496
-1.00957, 289, 353, 352, 480
-1.01318, 313, 353, 375, 480
