1985
-0.381495, 1, 161, 375, 416
-0.383445, 1, 1, 375, 500
-0.460623, 1, 65, 375, 320
-0.499713, 1, 257, 375, 500
-0.537384, 1, 161, 256, 416
-0.548888, 33, 1, 288, 500
-0.568886, 129, 1, 375, 500
-0.641245, 129, 161, 375, 416
-0.690997, 129, 1, 375, 256
-0.692534, 129, 257, 375, 500
-0.721326, 1, 65, 256, 320
-0.745922, 1, 257, 256, 500
-0.844151, 161, 225, 288, 480
-0.852824, 97, 129, 224, 384
-0.857588, 1, 193, 375, 320
-0.860252, 241, 161, 368, 416
-0.863121, 241, 1, 368, 500
-0.869286, 1, 145, 375, 272
-0.87263, 81, 1, 208, 500
-0.878316, 33, 193, 160, 448
-0.878541, 1, 1, 128, 500
-0.879397, 1, 65, 128, 320
-0.885211, 241, 1, 368, 256
-0.887159, 193, 1, 320, 500
-0.888642, 161, 1, 288, 256
-0.889472, 1, 305, 375, 432
-0.891124, 1, 241, 375, 368
-0.891999, 81, 33, 208, 288
-0.892162, 241, 257, 368, 500
-0.895153, 177, 97, 304, 352
-0.905012, 1, 177, 256, 304
-0.906167, 129, 257, 375, 384
-0.906881, 129, 1, 256, 500
-0.912484, 161, 257, 288, 384
-0.913314, 129, 193, 375, 320
-0.91448, 1, 97, 375, 224
-0.91735, 129, 113, 375, 240
-0.920556, 241, 273, 368, 400
-0.921404, 113, 225, 240, 480
-0.924197, 97, 129, 224, 256
-0.92621, 177, 257, 240, 384
-0.927145, 177, 209, 304, 336
-0.928864, 209, 257, 272, 384
-0.931123, 257, 257, 320, 384
-0.931763, 1, 129, 256, 256
-0.934491, 289, 257, 352, 384
-0.934659, 129, 305, 375, 432
-0.935481, 1, 257, 256, 384
-0.937741, 161, 305, 288, 432
-0.940391, 313, 257, 375, 384
-0.942299, 313, 1, 375, 128
-0.942821, 129, 65, 375, 192
-0.943364, 97, 177, 224, 304
-0.94339, 1, 305, 256, 432
-0.944076, 233, 257, 296, 384
-0.944253, 177, 305, 240, 432
-0.944323, 225, 305, 288, 432
-0.944589, 225, 225, 352, 352
-0.945784, 137, 113, 200, 240
-0.946611, 241, 1, 368, 128
-0.946744, 241, 177, 368, 304
-0.948352, 305, 209, 368, 336
-0.949033, 201, 305, 264, 432
-0.949702, 33, 193, 160, 320
-0.950265, 1, 145, 128, 272
-0.950357, 161, 113, 288, 240
-0.950556, 177, 297, 240, 360
-0.951489, 201, 297, 264, 360
-0.951945, 249, 305, 312, 432
-0.952003, 209, 209, 272, 336
-0.953263, 1, 233, 64, 296
-0.953279, 313, 161, 375, 288
-0.954761, 209, 321, 272, 384
-0.954998, 1, 49, 375, 176
-0.955248, 209, 321, 336, 448
-0.956078, 241, 49, 368, 176
-0.9564, 9, 193, 72, 320
-0.957149, 81, 129, 144, 256
-0.957151, 185, 209, 248, 336
-0.957463, 241, 273, 304, 336
-0.957467, 113, 257, 240, 384
-0.957613, 193, 161, 256, 288
-0.957653, 281, 193, 344, 320
-0.957982, 1, 1, 375, 128
-0.958004, 209, 273, 272, 336
-0.958122, 65, 193, 128, 320
-0.958143, 177, 321, 240, 384
-0.958548, 1, 81, 256, 208
-0.958623, 233, 193, 296, 320
-0.958762, 81, 81, 208, 208
-0.958839, 161, 161, 288, 288
-0.959283, 185, 265, 248, 328
-0.96, 217, 225, 280, 288
-0.960195, 113, 305, 240, 432
-0.960375, 313, 217, 375, 280
-0.960505, 33, 97, 160, 224
-0.960539, 257, 209, 320, 336
-0.960871, 1, 353, 375, 480
-0.961077, 129, 137, 192, 200
-0.961236, 185, 113, 248, 240
-0.961473, 17, 209, 80, 272
-0.961659, 313, 265, 375, 328
-0.962582, 241, 305, 304, 368
-0.962855, 313, 17, 375, 80
-0.96303, 17, 241, 80, 368
-0.963305, 81, 1, 208, 128
-0.963789, 1, 1, 256, 128
-0.963853, 161, 129, 224, 256
-0.963862, 105, 129, 168, 256
-0.964387, 169, 49, 232, 176
-0.964546, 153, 289, 216, 416
-0.965138, 241, 129, 368, 256
-0.965642, 273, 305, 336, 432
-0.965796, 161, 321, 288, 384
-0.965819, 185, 233, 248, 296
-0.966412, 9, 289, 72, 416
-0.966573, 313, 193, 375, 256
-0.966639, 289, 265, 352, 328
-0.966704, 289, 201, 352, 264
-0.966928, 217, 225, 280, 480
-0.967, 1, 241, 128, 368
-0.967229, 177, 225, 240, 480
-0.967257, 41, 193, 104, 320
-0.9676, 33, 145, 96, 272
-0.967811, 49, 185, 112, 248
-0.967822, 193, 177, 256, 240
-0.967837, 189, 257, 220, 384
-0.967887, 313, 113, 375, 240
-0.967992, 233, 145, 296, 272
-0.968057, 289, 1, 352, 128
-0.968165, 129, 353, 375, 480
-0.968766, 121, 113, 184, 176
-0.968966, 33, 49, 160, 176
-0.968972, 1, 185, 64, 248
-0.969398, 57, 145, 120, 272
-0.969464, 185, 153, 248, 216
-0.969698, 81, 201, 144, 264
-0.969726, 313, 241, 375, 304
-0.969756, 161, 65, 288, 192
-0.969856, 253, 257, 284, 384
-0.969886, 193, 1, 256, 128
-0.969895, 161, 297, 288, 360
-0.969946, 313, 257, 344, 384
-0.969967, 161, 1, 288, 128
-0.969988, 297, 337, 360, 464
-0.970264, 161, 177, 224, 304
-0.970324, 1, 113, 64, 240
-0.970337, 233, 329, 296, 392
-0.970375, 281, 257, 312, 384
-0.970649, 193, 209, 256, 272
-0.970795, 97, 81, 160, 208
-0.970834, 265, 201, 328, 264
-0.970917, 49, 145, 176, 272
-0.971106, 293, 257, 324, 384
-0.971131, 105, 1, 168, 128
-0.971131, 89, 177, 152, 304
-0.971242, 129, 1, 375, 128
-0.971245, 153, 321, 216, 384
-0.97132, 205, 257, 236, 384
-0.97148, 313, 65, 375, 128
-0.971545, 49, 225, 112, 288
-0.971717, 145, 49, 208, 176
-0.972031, 193, 265, 320, 328
-0.972134, 265, 257, 296, 384
-0.97216, 265, 265, 328, 328
-0.972201, 9, 273, 72, 336
-0.97237, 297, 161, 360, 224
-0.972442, 225, 297, 352, 360
-0.972443, 1, 161, 64, 416
-0.972617, 81, 129, 144, 192
-0.972844, 337, 1, 368, 128
-0.972887, 153, 137, 216, 200
-0.972916, 229, 273, 260, 400
-0.973058, 313, 65, 375, 192
-0.973079, 237, 313, 268, 376
-0.973391, 305, 89, 368, 152
-0.973563, 297, 137, 360, 200
-0.973614, 241, 289, 272, 416
-0.973664, 161, 233, 288, 296
-0.973744, 97, 105, 160, 168
-0.973837, 193, 209, 224, 336
-0.97387, 289, 1, 352, 64
-0.973962, 1, 233, 128, 296
-0.973964, 257, 345, 320, 408
-0.974071, 153, 129, 216, 384
-0.974087, 17, 337, 80, 464
-0.974402, 89, 153, 152, 216
-0.974408, 297, 193, 360, 448
-0.974429, 245, 265, 276, 328
-0.974455, 17, 1, 144, 128
-0.974478, 97, 137, 224, 200
-0.974505, 97, 169, 224, 232
-0.97461, 313, 337, 375, 400
-0.974624, 341, 257, 372, 384
-0.974743, 289, 145, 352, 272
-0.974887, 41, 241, 104, 368
-0.974914, 225, 273, 256, 336
-0.975144, 181, 297, 212, 360
-0.97523, 217, 201, 280, 264
-0.975558, 201, 297, 232, 360
-0.975637, 1, 353, 256, 480
-0.9757, 241, 201, 304, 264
-0.975949, 265, 145, 328, 272
-0.975953, 217, 289, 248, 416
-0.976405, 241, 233, 304, 296
-0.976431, 121, 49, 184, 176
-0.976569, 177, 121, 240, 184
-0.976839, 209, 345, 272, 408
-0.977013, 337, 17, 368, 80
-0.977076, 289, 241, 352, 304
-0.977138, 1, 337, 128, 464
-0.977168, 257, 161, 320, 224
-0.977226, 265, 225, 328, 288
-0.97737, 177, 257, 208, 384
-0.977487, 281, 305, 344, 368
-0.977548, 313, 97, 375, 352
-0.977617, 17, 345, 80, 408
-0.977622, 225, 193, 352, 256
-0.977642, 209, 97, 272, 224
-0.977676, 329, 273, 360, 400
-0.977791, 81, 1, 144, 128
-0.977801, 129, 1, 192, 256
-0.977903, 241, 257, 368, 320
-0.977938, 137, 1, 200, 128
-0.978101, 5, 217, 36, 280
-0.978111, 313, 41, 375, 104
-0.978178, 1, 177, 128, 240
-0.978187, 129, 137, 160, 200
-0.9782, 241, 17, 304, 144
-0.978275, 205, 305, 236, 432
-0.978305, 281, 345, 344, 408
-0.978323, 305, 1, 368, 256
-0.978421, 217, 1, 280, 128
-0.978485, 333, 209, 364, 336
-0.97856, 105, 33, 168, 96
-0.978568, 1, 65, 64, 192
-0.978597, 225, 169, 288, 232
-0.97865, 213, 265, 244, 328
-0.978689, 125, 129, 156, 256
-0.978735, 241, 233, 368, 296
-0.978752, 49, 249, 112, 312
-0.978784, 189, 265, 220, 328
-0.978806, 1, 65, 64, 320
-0.978817, 81, 65, 144, 320
-0.978836, 209, 321, 336, 384
-0.978842, 161, 185, 224, 248
-0.978906, 161, 273, 224, 336
-0.978963, 97, 177, 160, 240
-0.979025, 177, 161, 304, 224
-0.979124, 33, 209, 160, 272
-0.979163, 253, 305, 284, 432
-0.979386, 145, 273, 272, 336
-0.979413, 97, 193, 224, 256
-0.979438, 201, 353, 264, 480
-0.979547, 313, 1, 375, 500
-0.979681, 257, 225, 320, 480
-0.979704, 313, 265, 344, 328
-0.9798, 73, 177, 136, 240
-0.97985, 9, 257, 72, 500
-0.979864, 153, 297, 216, 360
-0.979921, 33, 1, 96, 64
-0.980119, 193, 97, 256, 352
-0.980144, 241, 17, 368, 80
-0.980156, 49, 193, 112, 448
-0.980174, 153, 161, 216, 224
-0.980199, 161, 209, 288, 272
-0.980203, 345, 129, 375, 256
-0.980233, 261, 209, 292, 336
-0.980242, 145, 113, 208, 176
-0.980343, 1, 129, 64, 192
-0.980348, 185, 353, 248, 416
-0.980415, 321, 209, 352, 336
-0.980677, 257, 265, 288, 328
-0.980711, 193, 305, 224, 432
-0.98074, 209, 329, 240, 392
-0.98075, 197, 329, 228, 392
-0.980879, 113, 305, 240, 368
-0.980923, 181, 321, 212, 384
-0.981071, 169, 129, 200, 192
-0.981095, 225, 305, 256, 368
-0.981112, 185, 1, 248, 256
-0.98117, 337, 217, 368, 280
-0.981187, 25, 97, 88, 352
-0.981202, 5, 193, 36, 320
-0.981222, 209, 345, 336, 408
-0.981243, 1, 97, 64, 160
-0.981261, 249, 305, 280, 368
-0.981266, 105, 65, 168, 320
-0.981281, 241, 121, 368, 184
-0.981424, 161, 353, 288, 480
-0.981456, 145, 1, 208, 64
-0.981503, 25, 233, 88, 296
-0.981624, 209, 145, 272, 208
-0.981627, 165, 97, 196, 224
-0.98163, 145, 41, 208, 104
-0.981708, 265, 33, 328, 160
-0.981722, 225, 225, 256, 352
-0.981794, 5, 241, 36, 304
-0.981914, 197, 233, 228, 296
-0.981952, 113, 65, 176, 128
-0.982021, 1, 161, 64, 224
-0.982039, 33, 153, 160, 216
-0.982063, 113, 329, 240, 392
-0.982091, 161, 345, 224, 408
-0.982093, 109, 169, 140, 232
-0.982098, 289, 97, 352, 224
-0.982106, 65, 105, 192, 168
-0.982156, 65, 57, 128, 120
-0.982195, 1, 129, 128, 192
-0.982215, 45, 209, 76, 272
-0.982262, 57, 233, 88, 296
-0.98228, 333, 241, 364, 304
-0.982448, 241, 161, 368, 224
-0.982458, 41, 193, 72, 320
-0.982494, 245, 177, 276, 304
-0.982623, 281, 33, 344, 96
-0.982667, 161, 129, 288, 192
-0.982748, 85, 185, 116, 248
-0.982844, 273, 209, 304, 336
-0.982916, 81, 41, 208, 104
-0.982919, 313, 113, 375, 176
-0.982977, 1, 289, 128, 416
-0.982987, 241, 41, 304, 104
-0.983039, 109, 113, 140, 240
-0.983098, 193, 25, 256, 88
-0.983098, 89, 65, 152, 128
-0.983173, 73, 33, 136, 96
-0.983238, 177, 185, 304, 248
-0.983269, 209, 105, 272, 168
-0.983281, 213, 289, 244, 352
-0.983284, 33, 145, 96, 208
-0.983327, 233, 137, 296, 200
-0.983362, 169, 49, 232, 112
-0.983499, 181, 305, 212, 432
-0.983586, 217, 249, 280, 312
-0.983603, 41, 257, 72, 384
-0.983614, 269, 273, 300, 336
-0.983653, 325, 1, 356, 64
-0.983669, 97, 177, 128, 240
-0.983678, 141, 113, 172, 176
-0.983681, 81, 65, 208, 128
-0.98374, 153, 225, 216, 352
-0.983779, 1, 257, 128, 320
-0.983821, 29, 241, 60, 368
-0.983843, 177, 145, 208, 272
-0.983876, 153, 1, 216, 256
-0.984011, 265, 9, 328, 72
-0.984031, 17, 193, 48, 320
-0.984031, 193, 49, 256, 176
-0.984041, 305, 209, 336, 336
-0.984115, 49, 185, 176, 248
-0.984127, 337, 41, 368, 104
-0.984149, 53, 225, 84, 352
-0.984167, 285, 209, 316, 336
-0.984171, 65, 49, 128, 176
-0.984191, 169, 321, 200, 384
-0.984354, 129, 97, 192, 352
-0.984406, 249, 329, 280, 392
-0.984423, 161, 1, 224, 128
-0.984449, 17, 105, 144, 168
-0.984496, 129, 105, 160, 168
-0.984498, 317, 201, 348, 264
-0.984533, 265, 305, 296, 432
-0.984567, 273, 201, 304, 264
-0.984622, 261, 233, 292, 296
-0.984646, 161, 345, 288, 408
-0.984696, 241, 81, 368, 144
-0.984751, 137, 97, 168, 224
-0.984821, 313, 313, 375, 376
-0.984861, 33, 273, 96, 336
-0.98487, 161, 225, 224, 288
-0.984876, 233, 97, 296, 160
-0.984891, 345, 161, 375, 224
-0.984918, 77, 161, 108, 288
-0.984933, 73, 161, 136, 416
-0.984958, 33, 97, 96, 224
-0.985026, 33, 273, 64, 336
-0.985122, 197, 161, 228, 288
-0.985196, 301, 265, 332, 328
-0.985213, 305, 289, 368, 352
-0.985219, 277, 305, 308, 432
-0.985234, 177, 81, 208, 208
-0.985246, 25, 185, 88, 248
-0.98528, 221, 329, 252, 392
-0.985301, 9, 273, 40, 400
-0.98531, 341, 185, 372, 248
-0.98536, 321, 1, 352, 128
-0.985498, 177, 273, 208, 336
-0.985509, 261, 305, 292, 368
-0.985512, 241, 9, 304, 72
-0.98552, 321, 177, 352, 240
-0.98557, 293, 305, 324, 432
-0.985616, 237, 289, 268, 352
-0.985644, 97, 129, 128, 256
-0.985652, 5, 145, 36, 272
-0.985674, 289, 97, 352, 352
-0.985681, 233, 97, 296, 224
-0.985682, 137, 89, 200, 152
-0.985702, 5, 193, 36, 256
-0.985756, 337, 273, 368, 336
-0.98592, 149, 137, 180, 200
-0.985922, 9, 65, 72, 128
-0.985933, 225, 1, 288, 500
-0.986006, 345, 321, 375, 448
-0.986019, 249, 1, 312, 500
-0.986058, 109, 129, 140, 192
-0.98607, 281, 265, 312, 328
-0.986088, 321, 337, 352, 400
-0.9861, 113, 1, 240, 64
-0.986101, 217, 1, 280, 256
-0.986113, 285, 1, 316, 64
-0.986114, 17, 1, 144, 64
-0.986118, 145, 1, 208, 500
-0.986189, 253, 201, 284, 264
-0.986218, 153, 129, 184, 256
-0.98622, 193, 1, 256, 500
-0.986238, 33, 65, 160, 128
-0.986241, 69, 217, 100, 280
-0.986274, 121, 177, 184, 240
-0.98632, 273, 345, 304, 408
-0.986337, 17, 281, 48, 344
-0.986379, 65, 1, 128, 64
-0.986397, 229, 321, 260, 448
-0.98645, 105, 1, 136, 128
-0.986493, 57, 145, 120, 208
-0.986565, 129, 433, 192, 496
-0.986566, 97, 193, 128, 320
-0.986659, 201, 265, 232, 328
-0.986664, 17, 1, 80, 500
-0.986665, 161, 33, 288, 96
-0.986694, 241, 41, 368, 104
-0.986742, 17, 209, 48, 272
-0.986815, 145, 65, 208, 128
-0.98683, 257, 137, 320, 200
-0.98684, 297, 201, 328, 264
-0.986849, 177, 353, 240, 480
-0.986873, 73, 97, 136, 160
-0.986888, 281, 1, 344, 500
-0.986901, 193, 113, 224, 240
-0.986907, 257, 65, 320, 128
-0.986931, 33, 25, 160, 88
-0.986939, 305, 305, 336, 432
-0.986941, 49, 1, 112, 256
-0.98697, 213, 209, 244, 336
-0.987014, 45, 257, 76, 320
-0.987118, 29, 193, 60, 320
-0.987126, 169, 97, 232, 160
-0.987135, 109, 105, 140, 168
-0.987146, 49, 129, 176, 192
-0.987149, 181, 185, 212, 248
-0.987201, 161, 249, 224, 312
-0.987297, 1, 41, 64, 104
-0.9873, 261, 145, 292, 272
-0.987331, 325, 265, 356, 328
-0.987411, 245, 225, 276, 288
-0.987411, 33, 121, 96, 184
-0.987424, 25, 369, 88, 432
-0.987425, 65, 209, 96, 336
-0.987484, 233, 353, 296, 416
-0.98755, 41, 25, 104, 88
-0.987555, 81, 209, 112, 272
-0.98759, 321, 337, 352, 464
-0.987604, 201, 177, 232, 240
-0.987608, 57, 1, 120, 500
-0.987608, 109, 161, 140, 288
-0.987677, 41, 321, 72, 448
-0.987695, 49, 97, 112, 352
-0.987741, 37, 233, 68, 296
-0.987741, 1, 1, 64, 128
-0.987755, 229, 233, 260, 296
-0.987777, 181, 193, 212, 320
-0.987793, 265, 161, 296, 224
-0.987793, 233, 193, 264, 256
-0.987807, 17, 321, 80, 384
-0.987891, 241, 97, 304, 352
-0.987943, 53, 1, 84, 64
-0.987946, 1, 1, 64, 64
-0.987969, 53, 177, 84, 304
-0.987984, 145, 105, 272, 168
-0.988022, 169, 1, 232, 500
-0.988097, 277, 33, 308, 160
-0.988118, 57, 201, 88, 264
-0.988147, 201, 209, 232, 272
-0.988172, 49, 233, 176, 296
-0.988192, 233, 161, 264, 224
-0.988194, 333, 337, 364, 400
-0.988226, 321, 129, 352, 256
-0.988241, 297, 345, 328, 408
-0.9883, 17, 241, 48, 304
-0.988301, 109, 201, 140, 264
-0.988301, 285, 345, 316, 408
-0.988312, 189, 145, 220, 208
-0.988344, 317, 241, 348, 304
-0.988346, 209, 81, 272, 144
-0.988393, 149, 81, 180, 208
-0.988393, 113, 241, 240, 304
-0.988433, 41, 337, 104, 464
-0.988453, 209, 49, 272, 112
-0.988516, 185, 113, 216, 176
-0.988564, 177, 1, 240, 64
-0.988589, 185, 33, 216, 160
-0.988589, 201, 301, 264, 332
-0.988594, 209, 241, 240, 304
-0.988631, 345, 137, 375, 200
-0.988663, 113, 353, 240, 480
-0.988681, 153, 337, 216, 464
-0.988694, 261, 345, 292, 408
-0.988699, 113, 177, 176, 304
-0.98871, 85, 113, 116, 240
-0.988721, 285, 177, 316, 240
-0.988782, 345, 337, 375, 400
-0.988786, 305, 1, 336, 128
-0.988802, 257, 97, 320, 224
-0.988804, 177, 57, 304, 120
-0.988811, 201, 1, 264, 64
-0.988817, 1, 225, 375, 288
-0.988837, 65, 161, 96, 288
-0.988843, 281, 1, 344, 256
-0.988845, 193, 9, 320, 72
-0.988867, 285, 201, 316, 264
-0.988982, 89, 1, 152, 64
-0.988989, 57, 97, 120, 224
-0.988989, 97, 161, 160, 416
-0.989059, 345, 249, 375, 312
-0.989071, 5, 153, 36, 216
-0.989083, 281, 305, 312, 368
-0.989104, 153, 105, 184, 168
-0.989176, 333, 65, 364, 128
-0.98919, 177, 305, 240, 336
-0.989224, 129, 57, 256, 120
-0.989237, 97, 201, 128, 264
-0.989239, 41, 57, 104, 120
-0.989242, 177, 321, 240, 352
-0.989331, 121, 177, 152, 240
-0.989364, 333, 161, 364, 288
-0.98938, 241, 241, 272, 368
-0.989391, 185, 25, 216, 88
-0.989411, 169, 105, 200, 168
-0.989425, 333, 321, 364, 448
-0.989468, 69, 177, 100, 240
-0.989524, 137, 345, 200, 408
-0.989535, 325, 137, 356, 200
-0.989542, 29, 321, 60, 448
-0.989551, 233, 145, 264, 272
-0.989585, 17, 233, 80, 264
-0.989602, 297, 9, 328, 72
-0.989618, 5, 265, 36, 328
-0.989634, 133, 1, 164, 128
-0.989647, 21, 113, 52, 240
-0.989649, 309, 337, 340, 400
-0.989688, 225, 353, 288, 480
-0.989705, 81, 1, 144, 500
-0.989707, 329, 113, 360, 176
-0.989726, 85, 49, 116, 176
-0.989738, 297, 177, 328, 240
-0.989741, 209, 337, 272, 368
-0.989791, 49, 289, 176, 416
-0.989803, 33, 201, 288, 264
-0.989806, 113, 217, 240, 280
-0.989807, 185, 345, 216, 408
-0.989827, 213, 161, 244, 224
-0.989885, 281, 73, 344, 136
-0.989888, 169, 153, 200, 216
-0.989915, 9, 265, 72, 296
-0.989937, 25, 221, 88, 252
-0.989942, 201, 313, 264, 344
-0.989959, 185, 265, 248, 296
-0.989978, 289, 49, 352, 176
-0.990001, 65, 1, 192, 64
-0.990001, 137, 133, 200, 164
-0.990031, 257, 1, 320, 256
-0.990032, 1, 201, 375, 264
-0.990041, 209, 325, 272, 356
-0.990061, 201, 221, 264, 252
-0.990075, 237, 345, 268, 408
-0.990077, 9, 285, 72, 316
-0.990107, 1, 221, 64, 252
-0.990141, 313, 269, 375, 300
-0.99015, 293, 305, 324, 368
-0.990178, 49, 97, 112, 160
-0.990191, 313, 229, 375, 260
-0.990211, 49, 241, 176, 368
-0.990245, 121, 49, 152, 176
-0.990255, 113, 1, 176, 500
-0.990339, 233, 65, 296, 128
-0.990349, 289, 269, 352, 300
-0.990354, 153, 257, 216, 500
-0.990356, 193, 197, 256, 228
-0.990389, 133, 25, 164, 88
-0.990404, 241, 337, 272, 464
-0.990444, 1, 245, 64, 276
-0.990459, 313, 217, 375, 248
-0.990523, 305, 257, 368, 288
-0.990524, 49, 201, 112, 232
-0.99054, 1, 89, 32, 152
-0.990571, 129, 265, 375, 328
-0.990593, 241, 305, 304, 336
-0.990607, 81, 145, 112, 208
-0.990613, 205, 353, 236, 416
-0.990614, 217, 97, 280, 352
-0.990614, 289, 113, 352, 176
-0.990617, 329, 65, 360, 192
-0.990623, 313, 241, 375, 272
-0.990623, 181, 49, 212, 112
-0.990631, 33, 241, 288, 304
-0.990631, 41, 49, 104, 176
-0.990667, 225, 349, 288, 380
-0.990669, 233, 137, 264, 200
-0.990671, 165, 289, 196, 416
-0.990726, 241, 269, 304, 300
-0.990743, 73, 213, 136, 244
-0.990747, 177, 345, 240, 376
-0.990753, 1, 113, 32, 176
-0.990775, 193, 209, 256, 240
-0.990809, 265, 33, 296, 160
-0.990821, 185, 253, 248, 284
-0.990841, 217, 209, 248, 272
-0.990853, 185, 173, 248, 204
-0.990857, 225, 233, 288, 264
-0.990878, 81, 433, 208, 496
-0.990894, 313, 101, 375, 132
-0.990919, 297, 193, 360, 224
-0.990927, 13, 321, 44, 448
-0.990928, 313, 29, 375, 60
-0.990955, 289, 221, 352, 252
-0.990983, 281, 257, 344, 288
-0.990991, 297, 5, 360, 36
-0.990996, 129, 305, 375, 368
-0.99101, 249, 113, 280, 240
-0.991022, 209, 273, 272, 304
-0.991037, 177, 289, 240, 320
-0.991046, 185, 185, 248, 216
-0.991047, 249, 341, 312, 372
-0.991048, 249, 353, 312, 384
-0.991093, 69, 113, 100, 240
-0.991098, 185, 277, 248, 308
-0.991119, 297, 205, 360, 236
-0.991125, 89, 177, 152, 208
-0.991127, 137, 145, 200, 176
-0.99113, 217, 337, 248, 464
-0.99115, 129, 81, 256, 144
-0.991168, 97, 273, 224, 336
-0.991183, 49, 337, 176, 400
-0.991189, 161, 297, 192, 360
-0.99119, 185, 333, 248, 364
-0.991197, 185, 241, 248, 272
-0.991217, 97, 177, 352, 240
-0.991218, 305, 345, 368, 376
-0.99122, 169, 25, 232, 88
-0.991224, 245, 1, 276, 128
-0.991226, 177, 153, 240, 184
-0.991234, 33, 193, 64, 256
-0.991238, 49, 221, 112, 252
-0.991251, 89, 137, 152, 168
-0.991252, 233, 293, 296, 324
-0.99126, 297, 177, 360, 208
-0.991266, 273, 113, 304, 240
-0.991309, 129, 233, 375, 296
-0.991314, 305, 153, 368, 184
-0.991314, 233, 197, 296, 228
-0.991325, 305, 305, 336, 368
-0.991335, 129, 321, 192, 384
-0.991343, 201, 289, 264, 320
-0.991353, 45, 345, 76, 408
-0.991363, 25, 49, 56, 112
-0.991366, 193, 361, 256, 392
-0.991382, 297, 165, 360, 196
-0.991399, 1, 281, 128, 344
-0.991401, 153, 321, 216, 352
-0.991408, 289, 245, 352, 276
-0.99141, 81, 189, 144, 220
-0.991427, 113, 353, 240, 416
-0.991442, 313, 89, 375, 120
-0.991452, 345, 105, 375, 168
-0.991462, 177, 141, 240, 172
-0.991469, 137, 49, 168, 176
-0.99147, 281, 349, 344, 380
-0.99147, 113, 9, 176, 72
-0.991479, 89, 165, 152, 196
-0.991504, 313, 17, 375, 48
-0.991516, 137, 333, 200, 364
-0.991538, 257, 257, 320, 288
-0.991543, 185, 241, 216, 304
-0.991548, 345, 81, 375, 208
-0.991565, 273, 161, 304, 288
-0.991591, 249, 153, 280, 216
-0.991595, 101, 17, 132, 80
-0.991601, 225, 209, 288, 240
-0.991604, 33, 113, 64, 240
-0.991606, 121, 1, 152, 128
-0.991608, 1, 197, 64, 228
-0.991612, 165, 49, 196, 176
-0.991614, 113, 137, 176, 168
-0.991629, 209, 261, 272, 292
-0.991646, 313, 65, 375, 96
-0.991652, 177, 229, 240, 260
-0.991657, 81, 113, 112, 176
-0.991658, 49, 245, 112, 276
-0.991659, 41, 233, 104, 264
-0.991672, 89, 149, 152, 180
-0.991676, 1, 209, 64, 240
-0.991709, 249, 245, 312, 276
-0.991727, 305, 281, 368, 312
-0.991734, 97, 201, 160, 232
-0.991736, 313, 49, 375, 80
-0.991736, 313, 77, 375, 108
-0.991737, 153, 349, 216, 380
-0.991783, 305, 141, 368, 172
-0.991785, 273, 205, 336, 236
-0.991804, 305, 113, 368, 144
-0.991805, 1, 185, 64, 216
-0.99182, 265, 269, 328, 300
-0.991821, 297, 225, 328, 288
-0.991829, 1, 145, 256, 208
-0.991846, 25, 1, 88, 128
-0.991854, 177, 1, 240, 32
-0.991856, 293, 17, 324, 144
-0.991873, 233, 97, 264, 224
-0.991874, 265, 229, 328, 260
-0.991877, 201, 349, 264, 380
-0.991893, 209, 165, 272, 196
-0.991911, 1, 257, 375, 320
-0.991913, 5, 97, 36, 224
-0.991924, 177, 125, 240, 156
-0.991966, 1, 157, 64, 188
-0.991994, 113, 125, 176, 156
-0.991997, 73, 1, 136, 32
-0.991998, 161, 265, 224, 296
-0.992012, 145, 309, 208, 340
-0.992015, 153, 189, 216, 220
-0.992038, 25, 209, 88, 240
-0.99205, 305, 125, 368, 156
-0.992051, 241, 317, 304, 348
-0.992053, 285, 113, 316, 240
-0.992065, 105, 49, 168, 80
-0.992088, 1, 361, 128, 424
-0.992118, 249, 209, 312, 240
-0.992125, 153, 157, 216, 188
-0.992128, 1, 105, 64, 136
-0.99214, 1, 129, 64, 160
-0.992164, 237, 49, 268, 176
-0.992168, 145, 169, 208, 200
-0.992172, 33, 1, 96, 32
-0.992173, 265, 189, 328, 220
-0.992183, 169, 365, 232, 396
-0.99219, 193, 17, 256, 48
-0.992198, 41, 277, 104, 308
-0.992221, 81, 49, 144, 80
-0.992222, 169, 49, 232, 80
-0.992227, 241, 221, 304, 252
-0.992231, 161, 209, 224, 240
-0.992246, 161, 333, 224, 364
-0.992247, 193, 105, 256, 136
-0.992253, 137, 121, 200, 152
-0.992264, 1, 145, 64, 176
-0.992269, 121, 193, 184, 224
-0.992278, 105, 105, 168, 136
-0.992289, 233, 165, 296, 196
-0.992294, 233, 281, 296, 312
-0.992304, 249, 153, 312, 184
-0.992317, 217, 297, 248, 328
-0.992322, 33, 133, 96, 164
-0.992411, 345, 209, 375, 336
-0.992425, 33, 289, 96, 416
-0.992434, 1, 169, 375, 232
-0.992441, 229, 305, 260, 336
-0.992465, 293, 65, 324, 192
-0.992547, 129, 153, 375, 216
-0.992548, 1, 169, 256, 232
-0.992549, 1, 321, 375, 384
-0.992564, 225, 1, 256, 128
-0.992579, 161, 321, 288, 352
-0.99259, 57, 213, 88, 244
-0.992634, 169, 133, 200, 164
-0.99264, 1, 49, 32, 176
-0.992658, 9, 277, 40, 308
-0.992679, 33, 285, 64, 316
-0.992683, 217, 161, 248, 288
-0.992709, 333, 113, 364, 240
-0.992722, 341, 25, 372, 56
-0.992733, 197, 301, 228, 332
-0.992737, 181, 317, 212, 348
-0.992754, 193, 261, 224, 292
-0.992773, 1, 321, 32, 448
-0.992783, 229, 317, 260, 348
-0.992801, 69, 225, 100, 256
-0.992803, 217, 49, 280, 176
-0.992805, 205, 1, 236, 128
-0.992806, 5, 229, 36, 260
-0.992814, 5, 217, 36, 248
-0.992821, 309, 257, 340, 288
-0.992828, 253, 269, 284, 300
-0.992832, 81, 209, 112, 336
-0.992845, 181, 305, 212, 336
-0.99285, 49, 225, 80, 256
-0.992871, 325, 169, 356, 200
-0.992871, 129, 141, 160, 172
-0.99288, 213, 81, 244, 208
-0.992885, 37, 273, 68, 304
-0.992916, 37, 217, 68, 248
-0.992925, 21, 289, 52, 320
-0.99293, 201, 229, 232, 260
-0.99293, 321, 201, 352, 232
-0.992935, 341, 49, 372, 80
-0.992937, 17, 213, 48, 244
-0.992943, 241, 305, 272, 336
-0.992945, 85, 197, 116, 228
-0.99295, 181, 349, 212, 380
-0.992951, 197, 285, 228, 316
-0.992955, 153, 137, 184, 168
-0.99296, 17, 225, 48, 256
-0.992973, 245, 345, 276, 376
-0.992986, 105, 185, 136, 216
-0.992988, 81, 217, 112, 248
-0.992991, 209, 317, 240, 348
-0.992994, 345, 165, 375, 196
-0.992995, 205, 273, 236, 304
-0.992998, 329, 269, 360, 300
-0.993, 205, 329, 236, 360
-0.993004, 333, 253, 364, 284
-0.993006, 5, 253, 36, 284
-0.993011, 253, 229, 284, 260
-0.993019, 305, 349, 336, 380
-0.993024, 101, 209, 132, 240
-0.99303, 161, 305, 288, 336
-0.993031, 237, 329, 268, 360
-0.993031, 317, 225, 348, 256
-0.993037, 225, 337, 256, 368
-0.993042, 325, 9, 356, 40
-0.99305, 253, 305, 284, 336
-0.993051, 197, 189, 228, 220
-0.993051, 193, 349, 224, 380
-0.993057, 345, 277, 375, 308
-0.99306, 329, 345, 360, 376
-0.993064, 197, 209, 228, 240
-0.993064, 161, 325, 192, 356
-0.993067, 117, 173, 148, 204
-0.993068, 345, 341, 375, 372
-0.993068, 317, 269, 348, 300
-0.99307, 341, 193, 372, 224
-0.993071, 5, 241, 36, 272
-0.993077, 129, 129, 375, 192
-0.993078, 193, 329, 224, 360
-0.993084, 273, 353, 304, 384
-0.993084, 21, 273, 52, 304
-0.993086, 185, 125, 216, 156
-0.993087, 321, 181, 352, 212
-0.993091, 113, 201, 144, 232
-0.993095, 241, 317, 272, 348
-0.993099, 225, 285, 256, 316
-0.993104, 337, 81, 368, 112
-0.993105, 329, 141, 360, 172
-0.993105, 69, 209, 100, 240
-0.993106, 197, 249, 228, 280
-0.993107, 181, 337, 212, 368
-0.993109, 153, 121, 184, 152
-0.993112, 337, 221, 368, 252
-0.993119, 341, 37, 372, 68
-0.99312, 237, 293, 268, 324
-0.99313, 233, 217, 264, 248
-0.993134, 5, 193, 36, 224
-0.99314, 261, 97, 292, 224
-0.993141, 285, 353, 316, 384
-0.993147, 185, 137, 216, 168
-0.993149, 37, 205, 68, 236
-0.99315, 109, 157, 140, 188
-0.993151, 265, 269, 296, 300
-0.993154, 5, 265, 36, 296
-0.993156, 257, 357, 288, 388
-0.993156, 1, 205, 32, 236
-0.99316, 317, 213, 348, 244
-0.99316, 125, 129, 156, 160
-0.993161, 333, 109, 364, 140
-0.993161, 185, 273, 216, 304
-0.993169, 317, 345, 348, 376
-0.99317, 49, 245, 80, 276
-0.993184, 273, 225, 304, 256
-0.993184, 29, 233, 60, 264
-0.993189, 97, 173, 128, 204
-0.99319, 181, 193, 212, 224
-0.993194, 141, 137, 172, 168
-0.9932, 217, 269, 248, 300
-0.993202, 309, 161, 340, 288
-0.993202, 325, 153, 356, 184
-0.993206, 297, 261, 328, 292
-0.993209, 313, 245, 344, 276
-0.993209, 197, 313, 228, 344
-0.993212, 97, 197, 128, 228
-0.993213, 217, 213, 248, 244
-0.993214, 301, 9, 332, 40
-0.993219, 137, 121, 168, 152
-0.993222, 237, 165, 268, 196
-0.993222, 133, 105, 164, 136
-0.993225, 9, 289, 40, 320
-0.993227, 37, 261, 68, 292
-0.993228, 345, 137, 375, 168
-0.993231, 253, 209, 284, 240
-0.993231, 61, 241, 92, 272
-0.993233, 209, 349, 240, 380
-0.993234, 261, 341, 292, 372
-0.993234, 1, 157, 32, 188
-0.993236, 177, 113, 208, 144
-0.993236, 109, 129, 140, 160
-0.993238, 337, 65, 368, 96
-0.993239, 125, 193, 156, 224
-0.99324, 169, 469, 200, 500
-0.993243, 173, 361, 204, 392
-0.993248, 121, 109, 152, 140
-0.993252, 253, 317, 284, 348
-0.993253, 233, 349, 264, 380
-0.993255, 337, 93, 368, 124
-0.993255, 277, 237, 308, 268
-0.993371, 193, 105, 320, 168
-0.993378, 65, 49, 96, 176
-0.993393, 77, 1, 108, 128
-0.993403, 161, 345, 288, 376
-0.993408, 225, 49, 256, 176
-0.993537, 1, 145, 375, 208
-0.993544, 129, 329, 375, 392
-0.993577, 33, 321, 288, 384
-0.993631, 241, 273, 256, 336
-0.993669, 161, 333, 288, 364
-0.993694, 41, 369, 72, 496
-0.993775, 29, 1, 60, 128
-0.993864, 1, 337, 128, 400
-0.994027, 17, 49, 48, 176
-0.994047, 17, 1, 48, 128
-0.994134, 33, 265, 288, 328
-0.994212, 97, 185, 224, 216
-0.994248, 33, 313, 160, 376
-0.994256, 301, 113, 332, 240
-0.99426, 1, 345, 375, 408
-0.994291, 247, 305, 262, 368
-0.994356, 53, 129, 84, 256
-0.994359, 241, 269, 368, 300
-0.994399, 1, 221, 128, 252
-0.994444, 183, 305, 198, 368
-0.994487, 49, 257, 176, 320
-0.994498, 177, 81, 304, 144
-0.994554, 265, 129, 328, 384
-0.994641, 121, 177, 152, 304
-0.994675, 255, 265, 270, 328
-0.994684, 249, 265, 264, 328
-0.994689, 109, 49, 140, 176
-0.994691, 97, 201, 224, 232
-0.99474, 161, 233, 288, 264
-0.99478, 93, 1, 124, 128
-0.994823, 1, 201, 128, 232
-0.994827, 177, 245, 304, 276
-0.994852, 217, 297, 232, 360
-0.994856, 13, 369, 44, 496
-0.994863, 211, 297, 226, 360
-0.994888, 351, 17, 366, 80
-0.994921, 177, 269, 304, 300
-0.994923, 33, 65, 64, 192
-0.994925, 161, 433, 288, 496
-0.994925, 261, 265, 276, 328
-0.994931, 161, 257, 288, 288
-0.994974, 9, 217, 24, 280
-0.994984, 129, 1, 375, 64
-0.994991, 1, 345, 256, 408
-0.994999, 29, 369, 60, 496
-0.995018, 129, 201, 375, 264
-0.995019, 49, 1, 112, 128
-0.995028, 97, 141, 224, 172
-0.995042, 325, 265, 340, 328
-0.995063, 57, 249, 72, 312
-0.995101, 285, 161, 316, 288
-0.995105, 241, 313, 256, 376
-0.995132, 235, 273, 250, 336
-0.995191, 189, 273, 204, 336
-0.995245, 209, 353, 336, 384
-0.99529, 129, 105, 375, 168
-0.995319, 1, 233, 128, 264
-0.995365, 225, 257, 352, 288
-0.995366, 129, 353, 375, 416
-0.995381, 97, 165, 224, 196
-0.995393, 229, 273, 244, 336
-0.995424, 9, 249, 24, 312
-0.995437, 1, 265, 128, 296
-0.995438, 265, 353, 328, 480
-0.99545, 161, 145, 288, 176
-0.995475, 133, 137, 148, 200
-0.995478, 225, 233, 352, 264
-0.995502, 255, 329, 270, 392
-0.995516, 361, 233, 375, 296
-0.995532, 331, 249, 346, 312
-0.995571, 33, 181, 160, 212
-0.995584, 235, 305, 250, 368
-0.995591, 99, 177, 114, 240
-0.9956, 189, 297, 204, 360
-0.995614, 267, 265, 282, 328
-0.995648, 225, 205, 352, 236
-0.995662, 197, 273, 212, 336
-0.995686, 213, 265, 228, 328
-0.995689, 177, 213, 304, 244
-0.995707, 319, 265, 334, 328
-0.995719, 161, 161, 288, 192
-0.995725, 203, 289, 218, 352
-0.995748, 161, 173, 288, 204
-0.99575, 195, 297, 210, 360
-0.995764, 161, 193, 288, 224
-0.995777, 355, 257, 370, 320
-0.99578, 253, 297, 268, 360
-0.995786, 49, 361, 176, 424
-0.995808, 193, 249, 208, 312
-0.99581, 209, 329, 224, 392
-0.995833, 277, 273, 292, 336
-0.995837, 63, 225, 78, 288
-0.995841, 225, 301, 352, 332
-0.995842, 241, 9, 368, 40
-0.995844, 197, 225, 228, 480
-0.995846, 219, 265, 234, 328
-0.995866, 53, 209, 68, 272
-0.99587, 179, 121, 194, 184
-0.995871, 209, 333, 336, 364
-0.995874, 225, 157, 352, 188
-0.995898, 241, 189, 368, 220
-0.995908, 215, 329, 230, 392
-0.995911, 89, 185, 104, 248
-0.995912, 113, 321, 240, 352
-0.995919, 97, 153, 224, 184
-0.995922, 47, 273, 62, 336
-0.995928, 49, 369, 176, 496
-0.995948, 49, 213, 176, 244
-0.995969, 179, 329, 194, 392
-0.995991, 33, 433, 160, 496
-0.996016, 105, 177, 120, 240
-0.99602, 333, 161, 364, 416
-0.996035, 199, 321, 214, 384
-0.996075, 225, 329, 240, 392
-0.996079, 297, 17, 312, 80
-0.996102, 113, 177, 128, 240
-0.996116, 223, 297, 238, 360
-0.996123, 173, 121, 188, 184
-0.996126, 183, 273, 198, 336
-0.996154, 185, 193, 216, 448
-0.996164, 129, 73, 375, 136
-0.996172, 279, 201, 294, 264
-0.996174, 139, 105, 154, 168
-0.996185, 283, 273, 298, 336
-0.996186, 269, 233, 284, 296
-0.996198, 149, 105, 164, 168
-0.996201, 17, 241, 32, 304
-0.996225, 129, 105, 144, 168
-0.996227, 261, 225, 276, 288
-0.996229, 207, 265, 222, 328
-0.996242, 1, 25, 256, 88
-0.996244, 337, 217, 352, 280
-0.996253, 161, 357, 288, 388
-0.996298, 161, 133, 288, 164
-0.996298, 361, 33, 375, 96
-0.996303, 345, 17, 360, 80
-0.996303, 241, 141, 368, 172
-0.996312, 241, 169, 368, 200
-0.996325, 57, 289, 120, 416
-0.996325, 341, 177, 356, 240
-0.996327, 17, 217, 32, 280
-0.996351, 189, 321, 204, 384
-0.996385, 289, 273, 304, 336
-0.99639, 277, 169, 292, 232
-0.996432, 269, 201, 284, 264
-0.99645, 81, 129, 208, 160
-0.996452, 295, 273, 310, 336
-0.996454, 113, 345, 240, 376
-0.99646, 225, 217, 352, 248
-0.996467, 123, 169, 138, 232
-0.99647, 141, 137, 156, 200
-0.99648, 225, 313, 352, 344
-0.996492, 249, 329, 264, 392
-0.996495, 287, 153, 302, 216
-0.996509, 1, 57, 256, 120
-0.99651, 327, 337, 342, 400
-0.996513, 41, 281, 56, 344
-0.996521, 361, 257, 375, 320
-0.996523, 127, 129, 142, 192
-0.996533, 311, 177, 326, 240
-0.996535, 113, 309, 240, 340
-0.996541, 33, 133, 160, 164
-0.996547, 1, 249, 128, 280
-0.996556, 1, 121, 256, 184
-0.996556, 347, 145, 362, 208
-0.99656, 247, 33, 262, 96
-0.996564, 193, 281, 320, 312
-0.996574, 229, 305, 244, 368
-0.996575, 313, 265, 328, 328
-0.996577, 253, 201, 268, 264
-0.996577, 321, 193, 352, 448
-0.996586, 31, 281, 46, 344
-0.996593, 351, 121, 366, 184
-0.996595, 29, 225, 60, 480
-0.996608, 1, 1, 375, 64
-0.996621, 193, 193, 208, 256
-0.996631, 65, 41, 192, 72
-0.996633, 337, 9, 352, 72
-0.996634, 275, 345, 290, 408
-0.996637, 241, 113, 368, 144
-0.996637, 301, 201, 316, 264
-0.996637, 49, 201, 176, 232
-0.996646, 229, 225, 260, 480
-0.99665, 155, 113, 170, 176
-0.996653, 203, 185, 218, 248
-0.996708, 73, 193, 88, 256
-0.99671, 1, 277, 128, 308
-0.99671, 341, 257, 372, 500
-0.996711, 241, 25, 256, 88
-0.996715, 151, 137, 166, 200
-0.996717, 121, 129, 136, 192
-0.996718, 225, 245, 352, 276
-0.996731, 291, 1, 306, 64
-0.996734, 241, 25, 368, 56
-0.996738, 25, 281, 40, 344
-0.99675, 33, 297, 288, 360
-0.99675, 281, 345, 296, 408
-0.996759, 5, 225, 36, 480
-0.996767, 253, 225, 268, 288
-0.996773, 33, 169, 160, 200
-0.996777, 69, 225, 84, 288
-0.996801, 349, 273, 364, 336
-0.996803, 81, 65, 208, 96
-0.996809, 301, 345, 316, 408
-0.996816, 187, 49, 202, 112
-0.996818, 1, 385, 128, 448
-0.996821, 333, 337, 348, 400
-0.996821, 205, 33, 220, 96
-0.996825, 283, 177, 298, 240
-0.996828, 321, 337, 336, 400
-0.996833, 295, 177, 310, 240
-0.996847, 259, 185, 274, 248
-0.996852, 361, 337, 375, 400
-0.996852, 209, 225, 240, 480
-0.996854, 347, 337, 362, 400
-0.996859, 231, 329, 246, 392
-0.996861, 311, 345, 326, 408
-0.996867, 249, 225, 280, 480
-0.996868, 307, 201, 322, 264
-0.99689, 305, 265, 320, 328
-0.996891, 295, 345, 310, 408
-0.996893, 97, 209, 112, 272
-0.996895, 47, 249, 62, 312
-0.996897, 353, 89, 368, 152
-0.9969, 287, 345, 302, 408
-0.9969, 203, 225, 218, 288
-0.996903, 357, 57, 372, 120
-0.996909, 341, 337, 356, 400
-0.996915, 353, 337, 368, 400
-0.996939, 129, 289, 192, 416
-0.996946, 129, 161, 144, 224
-0.996961, 329, 1, 360, 256
-0.996962, 129, 49, 375, 112
-0.996962, 145, 49, 272, 80
-0.996963, 163, 113, 178, 176
-0.996971, 17, 273, 32, 336
-0.996978, 111, 201, 126, 264
-0.99698, 287, 201, 302, 264
-0.996999, 193, 13, 320, 44
-0.997015, 345, 1, 375, 256
-0.997018, 41, 225, 72, 480
-0.997022, 241, 125, 368, 156
-0.99704, 17, 225, 48, 480
-0.997053, 345, 97, 375, 352
-0.997061, 177, 293, 304, 324
-0.997112, 29, 129, 60, 384
-0.997135, 17, 145, 144, 176
-0.997141, 241, 57, 368, 88
-0.99715, 129, 269, 256, 300
-0.997164, 145, 121, 272, 152
-0.997174, 49, 225, 176, 256
-0.99723, 129, 25, 375, 88
-0.997256, 157, 1, 188, 256
-0.997264, 241, 41, 368, 72
-0.997292, 113, 229, 240, 260
-0.997305, 113, 333, 240, 364
-0.99731, 97, 213, 224, 244
-0.997317, 217, 1, 248, 256
-0.997317, 1, 113, 375, 176
-0.99732, 33, 157, 160, 188
-0.997333, 65, 53, 192, 84
-0.997342, 109, 65, 140, 320
-0.997355, 261, 225, 292, 480
-0.997356, 1, 297, 375, 360
-0.997376, 241, 85, 368, 116
-0.997381, 17, 101, 144, 132
-0.997408, 17, 1, 144, 32
-0.997426, 113, 253, 240, 284
-0.997441, 219, 297, 234, 328
-0.997463, 97, 113, 224, 144
-0.997465, 1, 57, 128, 88
-0.997483, 237, 301, 252, 332
-0.997511, 229, 297, 244, 328
-0.997518, 1, 433, 256, 496
-0.997538, 49, 241, 176, 272
-0.99754, 241, 101, 368, 132
-0.997558, 1, 1, 256, 64
-0.997571, 145, 281, 272, 312
-0.997593, 1, 117, 128, 148
-0.997597, 193, 41, 320, 72
-0.997605, 245, 305, 260, 336
-0.997614, 9, 261, 24, 292
-0.997649, 65, 29, 192, 60
-0.997654, 125, 33, 156, 288
-0.997671, 129, 1, 256, 32
-0.997675, 173, 97, 204, 352
-0.997675, 121, 129, 152, 384
-0.997676, 233, 1, 264, 256
-0.99768, 5, 97, 36, 352
-0.997685, 169, 1, 200, 256
-0.997688, 301, 13, 316, 44
-0.99772, 355, 29, 370, 60
-0.997724, 209, 301, 224, 332
-0.997734, 145, 33, 272, 64
-0.997749, 241, 69, 368, 100
-0.99775, 11, 221, 26, 252
-0.997767, 241, 281, 368, 312
-0.997767, 145, 101, 272, 132
-0.997772, 85, 33, 116, 288
-0.997782, 17, 129, 48, 384
-0.997795, 47, 285, 62, 316
-0.997806, 175, 129, 190, 160
-0.997819, 137, 1, 168, 256
-0.997825, 349, 21, 364, 52
-0.997826, 33, 89, 288, 152
-0.99785, 193, 97, 224, 352
-0.997856, 113, 357, 240, 388
-0.99786, 183, 305, 198, 336
-0.997878, 131, 137, 146, 168
-0.997881, 97, 17, 224, 48
-0.997882, 117, 189, 132, 220
-0.997883, 39, 285, 54, 316
-0.997887, 87, 205, 102, 236
-0.997901, 245, 317, 260, 348
-0.997906, 239, 313, 254, 344
-0.997906, 97, 33, 128, 288
-0.997907, 145, 61, 272, 92
-0.997911, 47, 273, 62, 304
-0.997923, 65, 5, 192, 36
-0.997954, 17, 277, 32, 308
-0.997963, 79, 213, 94, 244
-0.997979, 33, 285, 48, 316
-0.997979, 215, 309, 230, 340
-0.997989, 57, 193, 88, 448
-0.997991, 97, 465, 224, 496
-0.998001, 9, 237, 24, 268
-0.998004, 1, 289, 128, 320
-0.998007, 181, 321, 196, 352
-0.998025, 65, 101, 192, 132
-0.998039, 361, 41, 375, 72
-0.998045, 73, 229, 88, 260
-0.998045, 203, 301, 218, 332
-0.998048, 359, 269, 374, 300
-0.998052, 11, 273, 26, 304
-0.998052, 49, 349, 176, 380
-0.998077, 1, 381, 128, 412
-0.998083, 251, 305, 266, 336
-0.998099, 55, 233, 70, 264
-0.998102, 9, 249, 24, 280
-0.998104, 57, 253, 72, 284
-0.998113, 97, 81, 224, 112
-0.99813, 173, 257, 204, 500
-0.998138, 51, 213, 66, 244
-0.998139, 263, 269, 278, 300
-0.99814, 65, 241, 80, 272
-0.998154, 151, 137, 166, 168
-0.998157, 185, 1, 216, 256
-0.998161, 113, 241, 240, 272
-0.998163, 361, 257, 375, 288
-0.998164, 205, 45, 220, 76
-0.998172, 17, 13, 144, 44
-0.998173, 169, 133, 184, 164
-0.998181, 323, 273, 338, 304
-0.998189, 195, 301, 210, 332
-0.998191, 41, 129, 72, 384
-0.998193, 221, 325, 236, 356
-0.998194, 125, 177, 140, 208
-0.998195, 25, 289, 40, 320
-0.998196, 49, 245, 64, 276
-0.998204, 189, 305, 204, 336
-0.998205, 119, 133, 134, 164
-0.998208, 247, 33, 262, 64
-0.998211, 225, 285, 240, 316
-0.998214, 295, 21, 310, 52
-0.998215, 195, 349, 210, 380
-0.998217, 17, 229, 32, 260
-0.998217, 353, 273, 368, 304
-0.998219, 309, 349, 324, 380
-0.998223, 179, 461, 194, 492
-0.998224, 233, 129, 264, 384
-0.998226, 81, 449, 208, 480
-0.998234, 5, 217, 20, 248
-0.998235, 77, 193, 108, 448
-0.998236, 159, 137, 174, 168
-0.998242, 79, 225, 94, 256
-0.998242, 73, 97, 104, 352
-0.998245, 195, 257, 210, 288
-0.998245, 187, 269, 202, 300
-0.998246, 111, 197, 126, 228
-0.998246, 63, 217, 78, 248
-0.998249, 257, 341, 272, 372
-0.998256, 361, 245, 375, 276
-0.998256, 205, 129, 236, 384
-0.998263, 207, 329, 222, 360
-0.998276, 333, 253, 348, 284
-0.998277, 353, 341, 368, 372
-0.99828, 199, 185, 214, 216
-0.998281, 17, 217, 32, 248
-0.998282, 249, 97, 280, 352
-0.998284, 23, 273, 38, 304
-0.998288, 327, 257, 342, 288
-0.99829, 217, 273, 232, 304
-0.998295, 109, 161, 140, 416
-0.998304, 125, 197, 140, 228
-0.998305, 61, 229, 76, 260
-0.998312, 39, 221, 54, 252
-0.998314, 49, 265, 176, 296
-0.99832, 309, 161, 340, 416
-0.998321, 73, 217, 88, 248
-0.998324, 181, 341, 196, 372
-0.998326, 113, 369, 240, 400
-0.998327, 129, 369, 192, 496
-0.998327, 3, 253, 18, 284
-0.99833, 201, 349, 216, 380
-0.998332, 359, 341, 374, 372
-0.998335, 341, 13, 356, 44
-0.998337, 57, 213, 72, 244
-0.998338, 281, 353, 296, 384
-0.998343, 33, 221, 48, 252
-0.998344, 201, 313, 216, 344
-0.998345, 329, 345, 344, 376
-0.998348, 113, 293, 240, 324
-0.99835, 155, 121, 170, 152
-0.998354, 287, 353, 302, 384
-0.99836, 331, 1, 346, 32
-0.998362, 315, 349, 330, 380
-0.998362, 49, 365, 176, 396
-0.998363, 189, 349, 204, 380
-0.998364, 53, 201, 68, 232
-0.998366, 237, 285, 252, 316
-0.998368, 145, 77, 272, 108
-0.998369, 117, 205, 132, 236
-0.998376, 209, 255, 240, 270
-0.998376, 277, 217, 292, 248
-0.998377, 257, 269, 272, 300
-0.998377, 221, 351, 252, 366
-0.998378, 209, 315, 240, 330
-0.998378, 253, 201, 284, 216
-0.998378, 205, 297, 236, 312
-0.998379, 169, 141, 200, 156
-0.998379, 33, 229, 64, 244
-0.99838, 41, 219, 72, 234
-0.99838, 73, 225, 104, 240
-0.998381, 197, 313, 228, 328
-0.998382, 333, 123, 364, 138
-0.998382, 213, 243, 244, 258
-0.998384, 233, 203, 264, 218
-0.998384, 49, 251, 80, 266
-0.998385, 345, 37, 375, 52
-0.998386, 165, 339, 196, 354
-0.998386, 249, 237, 280, 252
-0.998386, 329, 143, 360, 158
-0.998386, 1, 1, 32, 256
-0.998387, 181, 335, 212, 350
-0.998388, 93, 205, 124, 220
-0.998389, 335, 345, 350, 376
-0.998389, 49, 225, 80, 240
-0.99839, 217, 233, 248, 248
-0.99839, 25, 267, 56, 282
-0.99839, 317, 5, 348, 20
-0.99839, 177, 317, 208, 332
-0.99839, 203, 197, 218, 228
-0.998391, 217, 295, 248, 310
-0.998391, 301, 351, 332, 366
-0.998391, 341, 55, 372, 70
-0.998391, 231, 285, 246, 316
-0.998392, 221, 257, 252, 272
-0.998392, 233, 249, 264, 264
-0.998392, 251, 333, 266, 364
-0.998392, 337, 25, 368, 40
-0.998393, 237, 235, 268, 250
-0.998393, 341, 61, 372, 76
-0.998394, 329, 153, 360, 168
-0.998395, 281, 355, 312, 370
-0.998395, 213, 333, 244, 348
-0.998395, 345, 177, 375, 192
-0.998396, 201, 225, 232, 240
-0.998396, 141, 141, 156, 172
-0.998397, 261, 243, 292, 258
-0.998398, 345, 343, 375, 358
-0.998398, 333, 117, 364, 132
-0.998398, 307, 9, 322, 40
-0.998398, 337, 91, 368, 106
-0.998398, 45, 257, 76, 272
-0.998399, 249, 243, 280, 258
-0.998401, 237, 227, 268, 242
-0.998402, 317, 233, 348, 248
-0.998402, 313, 255, 344, 270
-0.998402, 105, 197, 120, 228
-0.998402, 181, 305, 212, 320
-0.998403, 85, 217, 116, 232
-0.998403, 185, 139, 216, 154
-0.998405, 29, 235, 60, 250
-0.998405, 21, 291, 52, 306
-0.998406, 17, 233, 48, 248
-0.998406, 317, 227, 348, 242
-0.998406, 325, 185, 356, 200
-0.998406, 313, 349, 344, 364
-0.998407, 173, 363, 204, 378
-0.998407, 101, 211, 132, 226
-0.998408, 341, 47, 372, 62
-0.99841, 267, 229, 282, 260
-0.998411, 57, 237, 88, 252
-0.998411, 345, 31, 375, 46
-0.998412, 329, 347, 360, 362
-0.998413, 313, 261, 344, 276
-0.998413, 265, 249, 296, 264
-0.998414, 297, 353, 312, 384
-0.998414, 225, 239, 256, 254
-0.998414, 217, 249, 248, 264
-0.998415, 211, 289, 226, 320
-0.998417, 241, 349, 272, 364
-0.998417, 9, 277, 72, 292
-0.998417, 239, 209, 254, 240
-0.998417, 229, 309, 244, 340
-0.998417, 301, 11, 332, 26
-0.998419, 197, 365, 228, 380
-0.99842, 233, 331, 264, 346
-0.998422, 313, 267, 344, 282
-0.998423, 209, 33, 224, 64
-0.998424, 219, 285, 234, 316
-0.998425, 145, 17, 272, 48
-0.998426, 13, 1, 28, 32
-0.998427, 273, 225, 304, 480
-0.998427, 189, 273, 220, 288
-0.998428, 201, 231, 232, 246
-0.998429, 177, 1, 304, 32
-0.998429, 249, 209, 264, 240
-0.998429, 149, 105, 164, 136
-0.99843, 5, 239, 36, 254
-0.99843, 45, 213, 60, 244
-0.99843, 249, 1, 280, 256
-0.998431, 177, 325, 208, 340
-0.998432, 17, 261, 48, 276
-0.998433, 321, 209, 352, 224
-0.998433, 149, 129, 180, 384
-0.998433, 61, 231, 92, 246
-0.998435, 229, 301, 260, 316
-0.998436, 89, 161, 120, 416
-0.998436, 21, 223, 52, 238
-0.998436, 149, 141, 180, 156
-0.998436, 17, 255, 80, 270
-0.998437, 193, 303, 256, 318
-0.998438, 9, 287, 40, 302
-0.998438, 197, 203, 228, 218
-0.998439, 37, 289, 68, 304
-0.998439, 165, 121, 180, 152
-0.998441, 181, 145, 196, 176
-0.998442, 341, 345, 356, 376
-0.998443, 197, 247, 228, 262
-0.998445, 23, 225, 38, 256
-0.998447, 347, 169, 362, 200
-0.99845, 9, 245, 72, 260
-0.99845, 325, 173, 356, 188
-0.998452, 193, 261, 224, 276
-0.998454, 81, 209, 112, 224
-0.998455, 257, 353, 288, 368
-0.998456, 321, 203, 352, 218
-0.998457, 239, 93, 254, 124
-0.998457, 49, 253, 176, 284
-0.998457, 5, 221, 36, 236
-0.998458, 5, 275, 36, 290
-0.998459, 347, 277, 362, 308
-0.99846, 9, 283, 72, 298
-0.99846, 125, 139, 156, 154
-0.998461, 325, 179, 356, 194
-0.998464, 269, 357, 284, 388
-0.998465, 253, 353, 268, 384
-0.998466, 193, 257, 208, 384
-0.998467, 205, 229, 220, 260
-0.998468, 107, 209, 122, 240
-0.998468, 303, 349, 318, 380
-0.998471, 97, 213, 112, 244
-0.998473, 197, 255, 228, 270
-0.998474, 205, 359, 236, 374
-0.998476, 9, 271, 72, 286
-0.998477, 21, 283, 52, 298
-0.998478, 185, 363, 216, 378
-0.998478, 49, 231, 80, 246
-0.998479, 37, 267, 68, 282
-0.998481, 229, 315, 260, 330
-0.998481, 41, 245, 72, 260
-0.998485, 5, 233, 36, 248
-0.998486, 9, 227, 40, 242
-0.998487, 21, 245, 52, 260
-0.998488, 33, 259, 64, 274
-0.99849, 1, 261, 64, 276
-0.998495, 21, 273, 52, 288
-0.998496, 45, 237, 76, 252
-0.998496, 197, 241, 228, 256
-0.998497, 17, 239, 80, 254
-0.998499, 193, 25, 320, 56
-0.998499, 225, 355, 288, 370
-0.998499, 69, 215, 100, 230
-0.998501, 201, 225, 264, 240
-0.998502, 5, 265, 36, 280
-0.998502, 185, 247, 248, 262
-0.998502, 1, 225, 64, 240
-0.998502, 177, 323, 240, 338
-0.998503, 201, 303, 232, 318
-0.998505, 193, 267, 224, 282
-0.998505, 33, 223, 96, 238
-0.998506, 237, 307, 268, 322
-0.998507, 185, 255, 248, 270
-0.998509, 169, 135, 200, 150
-0.99851, 201, 239, 264, 254
-0.998511, 217, 359, 248, 374
-0.998511, 169, 305, 232, 320
-0.998511, 201, 313, 264, 328
-0.998512, 193, 233, 256, 248
-0.998512, 193, 261, 256, 276
-0.998515, 229, 357, 260, 372
-0.998515, 305, 275, 368, 290
-0.998516, 177, 313, 240, 328
-0.998517, 305, 269, 368, 284
-0.998518, 209, 335, 272, 350
-0.998518, 17, 253, 48, 268
-0.99852, 1, 231, 64, 246
-0.998525, 185, 267, 248, 282
-0.998526, 25, 229, 88, 244
-0.998526, 9, 281, 40, 296
-0.998527, 37, 251, 68, 266
-0.998528, 313, 223, 375, 238
-0.998529, 209, 325, 272, 340
-0.998529, 17, 239, 48, 254
-0.99853, 5, 259, 36, 274
-0.998531, 5, 247, 36, 262
-0.998533, 233, 251, 296, 266
-0.998535, 137, 135, 200, 150
-0.998537, 61, 221, 92, 236
-0.998537, 201, 361, 264, 376
-0.99854, 193, 121, 320, 152
-0.99854, 299, 257, 314, 384
-0.99854, 217, 245, 280, 260
-0.998542, 297, 1, 328, 256
-0.998544, 177, 331, 240, 346
-0.998544, 209, 319, 272, 334
-0.998546, 121, 141, 184, 156
-0.998549, 145, 141, 208, 156
-0.998549, 9, 289, 72, 304
-0.998551, 249, 355, 312, 370
-0.998553, 37, 275, 68, 290
-0.998554, 297, 9, 360, 24
-0.99856, 217, 307, 280, 322
-0.998561, 177, 363, 240, 378
-0.998561, 177, 275, 240, 290
-0.998562, 211, 257, 226, 384
-0.998563, 193, 219, 256, 234
-0.998564, 193, 211, 256, 226
-0.998564, 313, 27, 375, 42
-0.998564, 313, 231, 375, 246
-0.998565, 5, 253, 36, 268
-0.998566, 177, 357, 240, 372
-0.998566, 33, 281, 64, 296
-0.998568, 57, 217, 120, 232
-0.998573, 89, 191, 152, 206
-0.998574, 33, 217, 96, 232
-0.998574, 89, 185, 152, 200
-0.998575, 1, 369, 256, 432
-0.998576, 313, 241, 375, 256
-0.998577, 193, 203, 256, 218
-0.998578, 217, 349, 280, 364
-0.998579, 313, 217, 375, 232
-0.998579, 217, 233, 280, 248
-0.998579, 209, 273, 272, 288
-0.99858, 233, 271, 296, 286
-0.998581, 145, 89, 272, 120
-0.998582, 225, 361, 288, 376
-0.998582, 257, 257, 272, 384
-0.998583, 241, 307, 304, 322
-0.998583, 297, 349, 360, 364
-0.998583, 185, 195, 248, 210
-0.998584, 289, 263, 352, 278
-0.998584, 241, 349, 304, 364
-0.998584, 269, 1, 300, 256
-0.998585, 177, 159, 240, 174
-0.998585, 265, 269, 328, 284
-0.998586, 81, 199, 144, 214
-0.998587, 97, 137, 160, 152
-0.998587, 313, 253, 375, 268
-0.998589, 313, 99, 375, 114
-0.998592, 217, 299, 280, 314
-0.998592, 1, 219, 64, 234
-0.998593, 297, 183, 360, 198
-0.998593, 245, 355, 276, 370
-0.998595, 161, 135, 224, 150
-0.998595, 201, 355, 264, 370
-0.998596, 217, 307, 248, 322
-0.998597, 209, 255, 272, 270
-0.998597, 313, 247, 375, 262
-0.998598, 57, 209, 120, 224
-0.998598, 249, 257, 312, 272
-0.998599, 283, 257, 298, 384
-0.998601, 233, 277, 296, 292
-0.998601, 233, 263, 296, 278
-0.998601, 293, 257, 308, 384
-0.998601, 297, 177, 360, 192
-0.998602, 153, 363, 216, 378
-0.998604, 305, 167, 368, 182
-0.998604, 177, 153, 240, 168
-0.998605, 185, 185, 248, 200
-0.998606, 33, 247, 96, 262
-0.998606, 273, 353, 336, 368
-0.998607, 313, 33, 375, 48
-0.998607, 9, 1, 72, 16
-0.998608, 257, 275, 320, 290
-0.998609, 185, 175, 248, 190
-0.99861, 289, 227, 352, 242
-0.99861, 225, 227, 288, 242
-0.99861, 225, 239, 288, 254
-0.998612, 177, 241, 240, 256
-0.998612, 289, 253, 352, 268
-0.998613, 193, 297, 256, 312
-0.998614, 313, 105, 375, 120
-0.998614, 137, 341, 200, 356
-0.998616, 177, 169, 240, 184
-0.998617, 313, 93, 375, 108
-0.998617, 257, 231, 320, 246
-0.998617, 41, 237, 104, 252
-0.998617, 25, 263, 88, 278
-0.998618, 313, 115, 375, 130
-0.998621, 185, 281, 248, 296
-0.998621, 89, 177, 152, 192
-0.998622, 209, 279, 272, 294
-0.998623, 57, 225, 120, 240
-0.998625, 297, 207, 360, 222
-0.998625, 57, 231, 120, 246
-0.998626, 177, 349, 240, 364
-0.998627, 177, 341, 240, 356
-0.998629, 1, 209, 64, 224
-0.998629, 297, 193, 360, 208
-0.99863, 313, 51, 375, 66
-0.998634, 305, 153, 368, 168
-0.998635, 145, 335, 208, 350
-0.998635, 49, 253, 112, 268
-0.998635, 41, 269, 104, 284
-0.998636, 89, 155, 152, 170
-0.998636, 1, 195, 64, 210
-0.998636, 313, 67, 375, 82
-0.998636, 313, 259, 375, 274
-0.998639, 209, 267, 272, 282
-0.998639, 289, 233, 352, 248
-0.998639, 305, 121, 368, 136
-0.998639, 33, 69, 160, 100
-0.99864, 81, 205, 144, 220
-0.998651, 305, 257, 320, 384
-0.998666, 265, 257, 280, 384
-0.998667, 325, 257, 340, 384
-0.998689, 199, 257, 214, 384
-0.99869, 277, 257, 292, 384
-0.998698, 217, 301, 248, 316
-0.998704, 205, 257, 220, 384
-0.99874, 247, 273, 262, 400
-0.998744, 193, 69, 320, 100
-0.998749, 297, 257, 328, 500
-0.998759, 353, 257, 368, 384
-0.998761, 317, 257, 332, 384
-0.998763, 73, 1, 104, 256
-0.99877, 219, 273, 234, 400
-0.998775, 17, 37, 144, 68
-0.998777, 311, 273, 326, 400
-0.998779, 161, 469, 288, 500
-0.998784, 309, 257, 340, 500
-0.998787, 17, 89, 144, 120
-0.998795, 161, 97, 192, 352
-0.998798, 17, 25, 144, 56
-0.998801, 333, 209, 348, 336
-0.998802, 349, 1, 364, 128
-0.998815, 199, 209, 214, 336
-0.998836, 271, 257, 286, 384
-0.998841, 285, 97, 316, 352
-0.998847, 131, 129, 146, 256
-0.998862, 193, 101, 320, 132
-0.998863, 285, 257, 316, 500
-0.998864, 343, 273, 358, 400
-0.998864, 33, 337, 160, 368
-0.998869, 57, 97, 88, 352
-0.998879, 217, 97, 248, 352
-0.998888, 359, 241, 374, 368
-0.998889, 331, 257, 346, 384
-0.998916, 227, 273, 242, 400
-0.998923, 29, 1, 60, 256
-0.998924, 255, 305, 270, 432
-0.998924, 187, 257, 202, 384
-0.998947, 275, 209, 290, 336
-0.998952, 241, 273, 256, 400
-0.998955, 49, 117, 176, 148
-0.998956, 317, 1, 348, 256
-0.998957, 209, 305, 224, 432
-0.998993, 205, 1, 236, 256
-0.998996, 1, 357, 128, 388
-0.998997, 193, 53, 320, 84
-0.999, 261, 97, 292, 352
-0.999007, 337, 289, 352, 416
-0.99901, 9, 209, 24, 336
-0.999031, 233, 273, 248, 400
-0.999067, 197, 305, 212, 432
-0.99907, 49, 377, 176, 408
-0.999079, 357, 17, 372, 144
-0.999079, 287, 209, 302, 336
-0.99908, 229, 321, 244, 448
-0.999082, 361, 193, 375, 320
-0.999085, 119, 113, 134, 240
-0.999088, 181, 289, 196, 416
-0.999089, 203, 305, 218, 432
-0.999091, 57, 241, 72, 368
-0.999092, 65, 313, 192, 344
-0.999101, 125, 129, 140, 256
-0.999105, 347, 113, 362, 240
-0.99911, 161, 457, 288, 488
-0.999116, 219, 225, 234, 352
-0.999117, 193, 193, 208, 320
-0.999119, 137, 129, 168, 384
-0.999121, 343, 1, 358, 128
-0.999127, 19, 193, 34, 320
-0.999132, 49, 193, 64, 320
-0.999134, 115, 161, 130, 288
-0.999138, 261, 305, 276, 432
-0.999142, 1, 369, 128, 400
-0.999144, 181, 97, 196, 224
-0.999146, 291, 81, 306, 208
-0.999148, 15, 241, 30, 368
-0.999148, 301, 209, 316, 336
-0.999157, 297, 161, 328, 416
-0.999161, 49, 257, 64, 384
-0.999162, 247, 321, 262, 448
-0.999165, 267, 305, 282, 432
-0.999174, 339, 193, 354, 320
-0.999183, 81, 145, 96, 272
-0.999184, 235, 321, 250, 448
-0.999186, 353, 65, 368, 192
-0.999188, 323, 209, 338, 336
-0.999189, 277, 305, 292, 432
-0.999191, 321, 97, 352, 352
-0.999193, 293, 209, 308, 336
-0.999194, 311, 209, 326, 336
-0.999195, 175, 81, 190, 208
-0.999195, 263, 177, 278, 304
-0.999196, 49, 277, 176, 308
-0.999201, 109, 129, 124, 256
-0.999204, 341, 145, 356, 272
-0.999204, 281, 209, 296, 336
-0.999205, 191, 305, 206, 432
-0.99921, 103, 129, 118, 256
-0.999213, 17, 1, 48, 256
-0.999213, 151, 81, 166, 208
-0.999215, 291, 305, 306, 432
-0.999216, 283, 305, 298, 432
-0.999219, 297, 33, 312, 160
-0.999223, 21, 241, 36, 368
-0.999232, 281, 1, 312, 256
-0.999238, 89, 129, 104, 256
-0.999239, 229, 225, 244, 352
-0.99924, 137, 129, 152, 256
-0.999243, 185, 49, 200, 176
-0.999245, 109, 177, 124, 304
-0.999246, 303, 305, 318, 432
-0.999247, 151, 129, 166, 256
-0.999248, 297, 305, 312, 432
-0.999253, 245, 193, 260, 320
-0.999259, 351, 321, 366, 448
-0.999259, 111, 1, 126, 128
-0.999264, 213, 209, 228, 336
-0.999266, 193, 81, 320, 112
-0.999268, 283, 145, 298, 272
-0.999272, 239, 193, 254, 320
-0.999275, 143, 113, 158, 240
-0.999278, 337, 1, 352, 128
-0.999278, 291, 1, 306, 128
-0.999278, 161, 81, 176, 208
-0.999282, 69, 161, 84, 288
-0.999283, 25, 193, 40, 320
-0.999284, 165, 129, 180, 256
-0.999287, 255, 177, 270, 304
-0.999287, 97, 281, 224, 312
-0.999291, 269, 193, 284, 320
-0.999292, 123, 1, 138, 128
-0.999304, 223, 321, 238, 448
-0.999306, 205, 177, 220, 304
-0.999306, 53, 321, 68, 448
-0.99931, 321, 337, 336, 464
-0.99931, 327, 337, 342, 464
-0.999311, 283, 33, 298, 160
-0.999314, 159, 129, 174, 256
-0.999314, 143, 49, 158, 176
-0.999317, 313, 337, 328, 464
-0.999318, 189, 145, 204, 272
-0.999318, 101, 193, 116, 320
-0.999321, 79, 193, 94, 320
-0.999325, 27, 241, 42, 368
-0.999327, 7, 257, 22, 384
-0.999327, 317, 209, 332, 336
-0.999328, 43, 241, 58, 368
-0.999331, 19, 145, 34, 272
-0.999335, 195, 113, 210, 240
-0.999336, 335, 337, 350, 464
-0.999337, 97, 145, 112, 272
-0.999338, 357, 321, 372, 448
-0.99934, 203, 33, 218, 160
-0.99934, 17, 453, 144, 484
-0.99934, 17, 289, 32, 416
-0.999343, 345, 321, 360, 448
-0.999346, 209, 33, 224, 160
-0.999354, 241, 321, 256, 448
-0.999362, 57, 193, 72, 320
-0.999398, 129, 409, 256, 472
-0.999412, 49, 409, 176, 472
-0.999426, 41, 1, 72, 256
-0.999452, 273, 97, 304, 352
-0.999461, 161, 369, 288, 432
-0.999573, 347, 345, 362, 360
-0.999573, 285, 355, 300, 370
-0.999574, 253, 245, 268, 260
-0.999574, 41, 289, 56, 304
-0.999574, 205, 95, 220, 110
-0.999575, 275, 357, 290, 372
-0.999576, 233, 233, 248, 248
-0.999577, 149, 141, 164, 156
-0.999578, 303, 353, 318, 368
-0.999578, 359, 269, 374, 284
-0.999579, 181, 319, 196, 334
-0.99958, 205, 229, 220, 244
-0.99958, 213, 241, 228, 256
-0.999581, 247, 245, 262, 260
-0.999582, 361, 259, 375, 274
-0.999582, 23, 217, 38, 232
-0.999582, 359, 343, 374, 358
-0.999583, 239, 239, 254, 254
-0.999585, 25, 271, 40, 286
-0.999585, 11, 281, 26, 296
-0.999586, 313, 351, 328, 366
-0.999586, 249, 235, 264, 250
-0.999586, 281, 249, 296, 264
-0.999587, 31, 245, 46, 260
-0.999589, 149, 135, 164, 150
-0.999589, 25, 247, 40, 262
-0.999589, 209, 43, 224, 58
-0.99959, 261, 251, 276, 266
-0.99959, 361, 45, 375, 60
-0.99959, 241, 315, 256, 330
-0.99959, 297, 17, 312, 32
-0.999591, 331, 271, 346, 286
-0.999591, 7, 239, 22, 254
-0.999591, 203, 241, 218, 256
-0.999592, 55, 243, 70, 258
-0.999592, 21, 233, 36, 248
-0.999592, 229, 297, 244, 312
-0.999593, 27, 233, 42, 248
-0.999593, 55, 215, 70, 230
-0.999593, 355, 33, 370, 48
-0.999594, 47, 261, 62, 276
-0.999595, 63, 245, 78, 260
-0.999595, 155, 141, 170, 156
-0.999595, 67, 221, 82, 236
-0.999596, 117, 207, 132, 222
-0.999597, 221, 247, 236, 262
-0.999598, 35, 239, 50, 254
-0.999598, 17, 281, 32, 296
-0.999599, 215, 311, 230, 326
-0.999599, 249, 309, 264, 324
-0.9996, 229, 309, 244, 324
-0.9996, 27, 265, 42, 280
-0.999601, 209, 49, 224, 64
-0.999601, 201, 361, 216, 376
-0.999602, 37, 275, 52, 290
-0.999603, 43, 245, 58, 260
-0.999604, 59, 251, 74, 266
-0.999604, 275, 247, 290, 262
-0.999604, 193, 363, 208, 378
-0.999604, 325, 267, 340, 282
-0.999606, 29, 223, 44, 238
-0.999607, 9, 233, 24, 248
-0.99961, 15, 223, 30, 238
-0.999612, 35, 253, 50, 268
-0.999612, 39, 281, 54, 296
-0.999613, 29, 239, 44, 254
-0.999613, 49, 289, 64, 304
-0.999614, 309, 9, 324, 24
-0.999615, 9, 273, 24, 288
-0.999615, 25, 259, 40, 274
-0.999616, 349, 27, 364, 42
-0.999617, 85, 211, 100, 226
-0.999617, 185, 363, 200, 378
-0.999619, 67, 237, 82, 252
-0.99962, 79, 227, 94, 242
-0.999621, 211, 361, 226, 376
-0.999622, 73, 233, 88, 248
-0.999622, 61, 221, 76, 236
-0.999623, 223, 359, 238, 374
-0.999623, 23, 239, 38, 254
-0.999623, 31, 275, 46, 290
-0.999623, 69, 227, 84, 242
-0.999623, 193, 271, 208, 286
-0.999626, 235, 311, 250, 326
-0.999626, 203, 235, 218, 250
-0.999629, 241, 355, 256, 370
-0.999629, 31, 283, 46, 298
-0.999629, 265, 351, 280, 366
-0.999629, 19, 275, 34, 290
-0.99963, 37, 245, 52, 260
-0.999631, 217, 357, 232, 372
-0.999631, 207, 303, 222, 318
-0.999632, 29, 253, 44, 268
-0.999636, 253, 355, 268, 370
-0.999637, 199, 255, 214, 270
-0.999637, 231, 359, 246, 374
-0.999637, 21, 223, 36, 238
-0.999639, 195, 265, 210, 280
-0.999641, 9, 223, 24, 238
-0.999642, 53, 249, 68, 264
-0.999646, 247, 357, 262, 372
-0.999649, 15, 233, 30, 248
-0.999649, 11, 247, 26, 262
-0.999649, 9, 253, 24, 268
-0.999653, 17, 253, 32, 268
-0.999653, 49, 255, 64, 270
-0.999654, 79, 215, 94, 230
-0.999655, 47, 269, 62, 284
-0.999658, 17, 217, 32, 232
-0.999658, 213, 303, 228, 318
-0.999658, 73, 221, 88, 236
-0.999659, 47, 275, 62, 290
-0.999664, 9, 267, 24, 282
-0.999666, 17, 261, 32, 276
-0.999666, 23, 253, 38, 268
-0.999667, 25, 283, 40, 298
-0.999668, 127, 137, 142, 152
-0.999669, 59, 237, 74, 252
-0.99967, 175, 133, 190, 148
-0.999672, 63, 231, 78, 246
-0.99968, 17, 243, 32, 258
-0.99968, 9, 259, 24, 274
-0.999682, 1, 81, 375, 144
-0.999686, 97, 433, 352, 496
-0.999686, 47, 281, 62, 296
-0.99969, 219, 305, 234, 320
-0.999692, 237, 303, 252, 318
-0.999699, 259, 353, 274, 368
-0.9997, 243, 307, 258, 322
-0.999709, 25, 1, 88, 256
-0.999725, 303, 13, 318, 28
-0.999732, 231, 303, 246, 318
-0.999812, 223, 299, 238, 314
-0.999872, 1, 25, 375, 88
-0.999878, 61, 1, 92, 256
-1.00016, 161, 257, 192, 500
-1.00025, 1, 369, 375, 432
-1.00033, 49, 281, 176, 344
-1.00047, 129, 241, 192, 368
-1.0007, 1, 57, 375, 120
-1.00088, 137, 161, 200, 288
-1.00097, 129, 409, 375, 472
-1.00103, 149, 257, 180, 500
-1.00126, 1, 433, 375, 496
-1.00136, 97, 377, 224, 440
-1.00141, 1, 409, 256, 472
-1.00151, 137, 257, 168, 500
-1.0016, 121, 225, 152, 480
-1.00171, 1, 409, 128, 472
-1.00177, 105, 257, 136, 500
-1.00185, 93, 257, 124, 500
-1.00187, 97, 377, 352, 440
-1.00273, 129, 193, 192, 448
-1.00291, 241, 369, 368, 432
-1.00291, 241, 393, 368, 456
-1.00291, 193, 401, 320, 464
-1.00291, 241, 417, 368, 480
-1.00301, 49, 385, 176, 448
-1.00347, 1, 409, 375, 472
-1.00473, 105, 369, 168, 496
-1.00601, 209, 369, 336, 496
-1.00602, 65, 369, 128, 496
-1.00915, 105, 257, 168, 500
-1.01013, 105, 305, 168, 432
-1.01072, 81, 257, 144, 500
-1.01195, 105, 257, 168, 384
-1.01254, 81, 305, 144, 432
-1.01523, 81, 257, 144, 384
