1941
-0.245961, 1, 65, 500, 320
-0.273135, 1, 1, 500, 375
-0.403521, 129, 1, 384, 375
-0.455735, 225, 1, 480, 375
-0.459458, 33, 1, 288, 375
-0.502876, 33, 65, 288, 320
-0.540795, 193, 65, 448, 320
-0.828267, 65, 33, 192, 288
-0.833216, 241, 97, 368, 352
-0.834655, 161, 65, 288, 320
-0.845868, 289, 65, 416, 320
-0.847609, 1, 81, 500, 208
-0.854041, 161, 1, 288, 375
-0.855861, 65, 1, 192, 375
-0.858748, 1, 97, 128, 352
-0.858989, 289, 1, 416, 375
-0.859629, 209, 1, 336, 375
-0.860758, 1, 129, 500, 256
-0.861999, 97, 129, 224, 375
-0.864641, 353, 97, 480, 352
-0.867857, 49, 129, 176, 375
-0.870699, 113, 1, 240, 375
-0.872821, 337, 1, 464, 375
-0.879425, 1, 193, 500, 320
-0.881189, 17, 1, 144, 375
-0.891563, 113, 33, 240, 288
-0.894518, 129, 81, 384, 208
-0.896268, 33, 65, 288, 192
-0.899311, 225, 145, 480, 272
-0.901263, 1, 241, 500, 368
-0.908033, 129, 177, 384, 304
-0.909158, 129, 129, 384, 256
-0.90922, 225, 97, 480, 224
-0.910597, 241, 1, 368, 256
-0.911126, 33, 177, 288, 304
-0.911965, 1, 113, 256, 240
-0.917941, 65, 65, 192, 192
-0.919775, 193, 129, 320, 256
-0.920003, 129, 113, 256, 240
-0.920625, 145, 129, 208, 256
-0.921616, 369, 1, 496, 256
-0.924491, 225, 193, 480, 320
-0.92494, 369, 97, 496, 224
-0.927945, 265, 145, 328, 272
-0.927974, 129, 161, 256, 288
-0.929347, 185, 161, 248, 288
-0.929451, 209, 81, 336, 208
-0.929646, 273, 177, 400, 304
-0.930162, 321, 129, 448, 256
-0.930235, 289, 81, 416, 208
-0.930388, 313, 129, 376, 256
-0.931293, 209, 113, 272, 240
-0.933617, 65, 225, 320, 352
-0.93364, 377, 97, 440, 224
-0.933793, 161, 65, 288, 192
-0.933954, 345, 129, 408, 256
-0.934316, 209, 177, 336, 304
-0.934444, 337, 81, 400, 208
-0.935627, 185, 81, 248, 208
-0.936366, 345, 177, 408, 304
-0.936409, 161, 177, 224, 304
-0.936572, 161, 81, 224, 208
-0.936653, 121, 193, 184, 320
-0.937314, 233, 129, 296, 256
-0.939107, 49, 97, 112, 224
-0.939224, 289, 177, 352, 304
-0.939236, 289, 81, 352, 208
-0.939245, 1, 145, 128, 272
-0.939556, 1, 33, 500, 160
-0.939581, 409, 97, 472, 224
-0.939641, 81, 113, 208, 240
-0.939768, 249, 81, 312, 208
-0.94065, 81, 177, 208, 304
-0.940798, 241, 129, 368, 256
-0.940835, 249, 169, 312, 232
-0.941496, 233, 177, 296, 304
-0.942376, 65, 209, 128, 336
-0.94238, 257, 193, 320, 320
-0.942607, 209, 177, 272, 304
-0.942774, 209, 169, 272, 232
-0.94287, 209, 65, 272, 192
-0.943055, 49, 145, 112, 272
-0.943838, 313, 177, 376, 304
-0.944151, 289, 129, 352, 256
-0.944309, 369, 161, 496, 288
-0.944487, 185, 169, 248, 232
-0.944851, 241, 249, 304, 312
-0.94486, 313, 81, 376, 208
-0.945334, 1, 1, 128, 256
-0.946061, 273, 169, 336, 232
-0.946376, 145, 169, 208, 232
-0.946571, 225, 241, 480, 368
-0.946808, 369, 177, 432, 304
-0.947413, 193, 225, 320, 352
-0.947461, 33, 225, 96, 352
-0.947643, 145, 137, 208, 200
-0.948739, 113, 65, 176, 192
-0.948785, 361, 145, 424, 208
-0.948975, 121, 145, 184, 272
-0.94961, 89, 49, 152, 176
-0.950268, 337, 137, 400, 200
-0.950289, 129, 209, 256, 336
-0.950515, 305, 169, 368, 232
-0.950566, 137, 81, 200, 208
-0.950866, 113, 65, 240, 192
-0.950886, 209, 129, 272, 192
-0.950951, 433, 97, 496, 224
-0.95134, 329, 177, 392, 240
-0.952359, 65, 241, 128, 304
-0.952412, 321, 177, 448, 304
-0.952453, 265, 129, 328, 192
-0.952574, 185, 225, 248, 352
-0.952664, 241, 145, 304, 208
-0.952811, 225, 49, 480, 176
-0.953322, 17, 209, 144, 336
-0.954938, 89, 209, 152, 336
-0.955351, 377, 169, 440, 232
-0.955355, 81, 161, 144, 288
-0.955477, 169, 145, 232, 208
-0.955836, 105, 257, 168, 320
-0.955914, 201, 249, 264, 312
-0.956026, 129, 33, 384, 160
-0.956053, 353, 177, 416, 240
-0.956405, 393, 161, 456, 288
-0.95669, 177, 249, 240, 312
-0.956741, 265, 241, 328, 304
-0.956875, 401, 169, 464, 232
-0.957068, 17, 97, 144, 224
-0.957087, 65, 225, 192, 352
-0.95741, 25, 145, 88, 272
-0.957625, 145, 241, 208, 368
-0.95853, 297, 249, 360, 312
-0.958679, 241, 225, 368, 352
-0.958819, 137, 249, 200, 312
-0.959376, 313, 137, 376, 200
-0.959621, 281, 97, 344, 160
-0.959945, 49, 113, 112, 176
-0.960207, 337, 97, 400, 160
-0.96026, 33, 241, 96, 304
-0.960489, 225, 193, 288, 256
-0.96053, 289, 193, 352, 256
-0.960542, 121, 169, 184, 232
-0.960814, 1, 145, 64, 272
-0.960825, 289, 137, 352, 200
-0.960963, 257, 241, 320, 368
-0.961284, 145, 281, 208, 344
-0.96141, 273, 217, 336, 280
-0.961424, 305, 225, 432, 352
-0.96145, 369, 105, 432, 168
-0.962045, 185, 193, 248, 256
-0.96209, 305, 225, 368, 352
-0.962212, 345, 209, 408, 272
-0.962331, 233, 65, 296, 320
-0.962542, 9, 209, 72, 336
-0.962674, 249, 193, 312, 256
-0.963392, 393, 105, 456, 168
-0.963524, 89, 233, 152, 296
-0.963605, 369, 209, 432, 272
-0.963874, 73, 97, 136, 224
-0.963962, 393, 209, 456, 272
-0.964109, 169, 273, 232, 336
-0.964112, 49, 217, 112, 280
-0.964147, 49, 137, 112, 200
-0.964362, 281, 225, 344, 352
-0.964441, 145, 97, 208, 352
-0.964512, 161, 193, 224, 256
-0.96471, 241, 177, 368, 240
-0.964715, 241, 105, 304, 168
-0.965141, 81, 209, 144, 272
-0.965189, 265, 265, 328, 328
-0.965201, 121, 201, 184, 264
-0.965211, 209, 241, 272, 368
-0.965231, 121, 145, 184, 208
-0.965551, 49, 89, 112, 152
-0.965615, 209, 273, 272, 336
-0.965648, 313, 209, 376, 272
-0.966064, 185, 97, 248, 352
-0.966362, 353, 225, 480, 352
-0.966377, 361, 225, 424, 352
-0.966593, 65, 273, 128, 336
-0.966626, 353, 129, 384, 256
-0.966698, 209, 161, 240, 288
-0.966768, 337, 169, 464, 232
-0.966794, 385, 113, 416, 240
-0.967032, 241, 177, 272, 240
-0.967212, 321, 169, 352, 232
-0.967236, 89, 65, 152, 128
-0.967362, 209, 177, 240, 240
-0.967388, 149, 129, 180, 256
-0.96745, 345, 65, 408, 320
-0.967582, 9, 225, 72, 288
-0.967591, 249, 137, 280, 200
-0.967614, 121, 241, 184, 368
-0.967764, 193, 177, 320, 240
-0.967862, 257, 97, 320, 352
-0.967907, 193, 81, 224, 208
-0.968079, 305, 105, 368, 168
-0.968144, 305, 97, 368, 352
-0.96821, 361, 137, 392, 200
-0.968282, 333, 129, 364, 256
-0.968499, 221, 113, 252, 240
-0.968561, 33, 265, 96, 328
-0.968679, 381, 137, 412, 200
-0.968792, 49, 97, 112, 352
-0.968818, 241, 273, 304, 336
-0.968833, 417, 97, 448, 224
-0.968962, 377, 97, 440, 352
-0.968965, 289, 129, 320, 256
-0.968988, 365, 169, 396, 232
-0.969203, 209, 129, 272, 375
-0.969282, 425, 209, 488, 272
-0.969378, 349, 81, 380, 208
-0.969422, 249, 257, 280, 320
-0.969427, 197, 129, 228, 256
-0.969452, 321, 233, 384, 296
-0.969459, 233, 241, 296, 368
-0.969494, 257, 177, 288, 240
-0.969589, 417, 161, 480, 288
-0.969607, 149, 169, 180, 232
-0.969612, 269, 249, 300, 312
-0.969628, 229, 177, 260, 240
-0.969644, 333, 81, 364, 208
-0.969666, 397, 161, 428, 288
-0.969684, 177, 257, 304, 320
-0.969781, 337, 145, 464, 208
-0.969863, 85, 241, 116, 304
-0.969903, 257, 129, 288, 256
-0.970054, 49, 49, 112, 176
-0.970074, 285, 241, 316, 304
-0.970084, 97, 113, 160, 240
-0.97019, 317, 161, 348, 288
-0.970207, 429, 97, 460, 224
-0.970439, 161, 113, 192, 240
-0.970514, 369, 49, 496, 176
-0.970561, 273, 137, 400, 200
-0.970627, 401, 233, 464, 296
-0.970845, 337, 177, 368, 240
-0.970861, 25, 97, 88, 224
-0.970991, 277, 145, 308, 272
-0.970996, 209, 33, 272, 288
-0.970996, 305, 177, 336, 240
-0.971, 401, 169, 432, 232
-0.971007, 217, 217, 280, 280
-0.971038, 425, 233, 488, 296
-0.971074, 229, 129, 260, 192
-0.971152, 177, 129, 208, 256
-0.971152, 329, 225, 392, 352
-0.971184, 177, 297, 240, 360
-0.971184, 113, 241, 144, 304
-0.971186, 77, 193, 108, 320
-0.971319, 289, 129, 320, 192
-0.971398, 209, 33, 336, 160
-0.971417, 397, 97, 428, 224
-0.971728, 365, 81, 396, 208
-0.971807, 385, 145, 448, 208
-0.971891, 129, 169, 256, 232
-0.972006, 365, 129, 396, 256
-0.972049, 217, 81, 280, 144
-0.972113, 417, 105, 480, 168
-0.972216, 281, 169, 312, 232
-0.972254, 301, 161, 332, 288
-0.972265, 169, 33, 232, 160
-0.972301, 349, 177, 380, 304
-0.972319, 345, 233, 408, 296
-0.972346, 253, 81, 284, 208
-0.972455, 289, 177, 416, 240
-0.972504, 349, 137, 380, 200
-0.972518, 145, 129, 272, 192
-0.972604, 169, 121, 232, 184
-0.972636, 89, 33, 152, 288
-0.97265, 193, 137, 320, 200
-0.972669, 333, 177, 364, 304
-0.972722, 205, 81, 236, 208
-0.97273, 377, 233, 440, 296
-0.97297, 145, 217, 208, 280
-0.973005, 153, 137, 184, 200
-0.973015, 181, 177, 212, 304
-0.973224, 113, 33, 176, 288
-0.973244, 177, 249, 208, 312
-0.97326, 233, 113, 264, 240
-0.97336, 165, 169, 196, 232
-0.973366, 81, 177, 144, 240
-0.973385, 229, 177, 260, 304
-0.973386, 409, 97, 472, 352
-0.973393, 309, 137, 340, 200
-0.973399, 97, 153, 160, 216
-0.97348, 145, 81, 208, 144
-0.973508, 97, 281, 160, 344
-0.973556, 81, 209, 208, 272
-0.973585, 349, 177, 380, 240
-0.973688, 149, 193, 180, 320
-0.973698, 217, 65, 248, 192
-0.973738, 281, 65, 344, 320
-0.973743, 269, 81, 300, 208
-0.973754, 225, 249, 256, 312
-0.97376, 165, 161, 196, 288
-0.97394, 65, 177, 192, 240
-0.974049, 433, 145, 496, 208
-0.974086, 77, 217, 108, 280
-0.974097, 269, 169, 300, 232
-0.9742, 33, 17, 288, 144
-0.974226, 193, 161, 224, 224
-0.97428, 65, 73, 192, 136
-0.974299, 317, 113, 348, 240
-0.974332, 433, 177, 464, 240
-0.974381, 417, 169, 448, 232
-0.974384, 97, 241, 128, 304
-0.974624, 169, 65, 200, 192
-0.974669, 353, 105, 480, 168
-0.974697, 113, 233, 176, 296
-0.974718, 241, 177, 272, 304
-0.974846, 245, 129, 276, 256
-0.97492, 269, 145, 300, 208
-0.974965, 97, 249, 224, 312
-0.974968, 113, 65, 176, 128
-0.974988, 249, 217, 312, 280
-0.975069, 49, 177, 112, 240
-0.97508, 369, 177, 400, 304
-0.975116, 257, 249, 384, 312
-0.975137, 81, 89, 144, 152
-0.97514, 377, 105, 408, 168
-0.975146, 125, 241, 156, 304
-0.975222, 241, 209, 368, 272
-0.975519, 253, 193, 284, 320
-0.975567, 181, 177, 212, 240
-0.975583, 197, 137, 228, 200
-0.975618, 193, 177, 224, 304
-0.975775, 33, 233, 160, 296
-0.975786, 173, 137, 204, 200
-0.975795, 385, 177, 416, 304
-0.975841, 157, 65, 188, 192
-0.975841, 113, 121, 176, 184
-0.975853, 397, 193, 428, 256
-0.975972, 305, 81, 336, 208
-0.975994, 25, 145, 88, 208
-0.976034, 81, 17, 208, 144
-0.976045, 385, 161, 416, 224
-0.976077, 417, 161, 448, 288
-0.976108, 137, 249, 168, 312
-0.976109, 37, 145, 68, 272
-0.976199, 265, 289, 328, 352
-0.976255, 133, 177, 164, 304
-0.976329, 233, 65, 264, 192
-0.976442, 289, 193, 320, 320
-0.97653, 89, 209, 120, 336
-0.976618, 93, 265, 124, 328
-0.976626, 181, 81, 212, 208
-0.976683, 25, 113, 88, 176
-0.97673, 137, 177, 168, 240
-0.976779, 233, 33, 296, 160
-0.9768, 49, 121, 176, 184
-0.976872, 105, 193, 136, 320
-0.976879, 397, 145, 428, 208
-0.976892, 145, 193, 272, 256
-0.976914, 417, 209, 448, 272
-0.976973, 377, 49, 440, 176
-0.976996, 145, 33, 208, 160
-0.977048, 361, 97, 392, 160
-0.977162, 177, 225, 240, 288
-0.977194, 193, 185, 224, 248
-0.977294, 25, 129, 88, 375
-0.977319, 137, 65, 168, 192
-0.977474, 129, 17, 256, 144
-0.97748, 185, 81, 248, 144
-0.977581, 401, 209, 464, 336
-0.977628, 289, 81, 320, 208
-0.977629, 73, 121, 136, 184
-0.977645, 345, 97, 376, 160
-0.97765, 273, 97, 400, 160
-0.977688, 333, 121, 364, 184
-0.977688, 237, 233, 268, 296
-0.977848, 297, 153, 328, 216
-0.977901, 433, 169, 496, 232
-0.978048, 81, 145, 208, 208
-0.978077, 265, 177, 296, 304
-0.978217, 237, 153, 268, 216
-0.978229, 333, 145, 364, 208
-0.978237, 241, 81, 304, 144
-0.978277, 161, 233, 288, 296
-0.978312, 409, 137, 472, 200
-0.978368, 257, 33, 384, 160
-0.978516, 249, 217, 280, 280
-0.978592, 149, 209, 180, 272
-0.978675, 9, 305, 72, 368
-0.978711, 25, 201, 88, 264
-0.978885, 33, 289, 96, 352
-0.97892, 81, 65, 112, 192
-0.978951, 29, 217, 60, 280
-0.978967, 113, 129, 176, 375
-0.979072, 1, 201, 64, 264
-0.979169, 441, 97, 472, 224
-0.979176, 337, 209, 464, 272
-0.979193, 1, 209, 128, 272
-0.979288, 217, 153, 248, 216
-0.979304, 469, 97, 500, 224
-0.979324, 57, 297, 120, 360
-0.979351, 17, 209, 48, 336
-0.979368, 209, 97, 336, 160
-0.97941, 29, 249, 60, 312
-0.979466, 153, 257, 184, 320
-0.97952, 277, 193, 308, 320
-0.979595, 425, 145, 456, 208
-0.979623, 437, 161, 468, 288
-0.979632, 1, 137, 128, 200
-0.979645, 105, 217, 136, 280
-0.979663, 225, 209, 256, 272
-0.979685, 1, 129, 64, 375
-0.979732, 297, 249, 328, 312
-0.979738, 289, 281, 352, 344
-0.979751, 209, 233, 336, 296
-0.979769, 193, 281, 320, 344
-0.979899, 165, 241, 196, 304
-0.979963, 17, 169, 144, 232
-0.980047, 321, 97, 352, 160
-0.980138, 301, 209, 332, 272
-0.98022, 193, 209, 320, 272
-0.980265, 145, 113, 208, 176
-0.98032, 33, 313, 96, 375
-0.980325, 293, 177, 324, 240
-0.980385, 37, 209, 68, 336
-0.980445, 301, 97, 332, 160
-0.980478, 17, 233, 48, 296
-0.980485, 201, 105, 264, 168
-0.980486, 413, 145, 444, 208
-0.980505, 65, 273, 192, 336
-0.980579, 313, 201, 344, 264
-0.98062, 321, 33, 448, 160
-0.980681, 1, 153, 64, 216
-0.980682, 57, 145, 88, 272
-0.980731, 209, 297, 272, 360
-0.980799, 353, 241, 480, 304
-0.980862, 409, 233, 440, 296
-0.980884, 53, 97, 84, 224
-0.981027, 301, 209, 332, 336
-0.981079, 161, 1, 224, 375
-0.981095, 137, 305, 200, 368
-0.981101, 65, 97, 192, 160
-0.981124, 325, 193, 356, 256
-0.981135, 161, 209, 192, 336
-0.981189, 161, 81, 288, 144
-0.981294, 197, 249, 228, 312
-0.98139, 433, 97, 496, 352
-0.981408, 89, 129, 152, 375
-0.981429, 393, 105, 424, 168
-0.981477, 57, 241, 88, 304
-0.98148, 281, 265, 312, 328
-0.981528, 209, 1, 272, 375
-0.981541, 453, 97, 484, 224
-0.981684, 345, 209, 376, 272
-0.981706, 345, 1, 408, 375
-0.98171, 121, 281, 184, 344
-0.981725, 213, 241, 244, 304
-0.981746, 385, 209, 416, 272
-0.981752, 321, 137, 352, 200
-0.981778, 269, 201, 300, 264
-0.981808, 177, 209, 208, 272
-0.981866, 93, 65, 124, 192
-0.981871, 105, 241, 136, 368
-0.981908, 145, 281, 272, 344
-0.981935, 89, 1, 152, 375
-0.981953, 93, 209, 124, 272
-0.981986, 289, 209, 320, 272
-0.982004, 401, 49, 464, 176
-0.982029, 261, 241, 292, 368
-0.982069, 241, 225, 272, 352
-0.982085, 289, 201, 416, 264
-0.982095, 17, 49, 144, 176
-0.982161, 121, 161, 152, 288
-0.982195, 73, 145, 136, 208
-0.982197, 25, 145, 56, 272
-0.98222, 77, 145, 108, 272
-0.982237, 305, 1, 368, 375
-0.982424, 9, 145, 40, 272
-0.982479, 217, 129, 248, 192
-0.982517, 121, 89, 184, 152
-0.982577, 141, 137, 172, 200
-0.982604, 65, 225, 96, 352
-0.982689, 265, 1, 328, 375
-0.982737, 237, 257, 268, 320
-0.982787, 129, 1, 192, 375
-0.98285, 73, 241, 104, 304
-0.982939, 213, 201, 244, 264
-0.98297, 89, 161, 120, 288
-0.983092, 169, 297, 200, 360
-0.983096, 89, 185, 120, 248
-0.983103, 437, 105, 468, 168
-0.983148, 113, 81, 240, 144
-0.983222, 445, 169, 476, 232
-0.983297, 241, 273, 368, 336
-0.983314, 185, 121, 216, 184
-0.98333, 433, 233, 464, 296
-0.983366, 333, 97, 364, 160
-0.983438, 133, 201, 164, 264
-0.983478, 433, 209, 464, 272
-0.983526, 161, 193, 192, 256
-0.983532, 365, 193, 396, 256
-0.983542, 77, 241, 108, 368
-0.983544, 233, 1, 296, 375
-0.983615, 53, 105, 84, 168
-0.983615, 413, 105, 444, 168
-0.983624, 269, 281, 300, 344
-0.983673, 1, 281, 64, 344
-0.983677, 305, 233, 432, 296
-0.983734, 173, 225, 204, 352
-0.983759, 237, 209, 268, 272
-0.983766, 25, 177, 88, 240
-0.98388, 65, 217, 96, 280
-0.983885, 85, 73, 116, 136
-0.983945, 33, 297, 160, 360
-0.983953, 285, 97, 316, 160
-0.98404, 29, 273, 60, 336
-0.984117, 309, 249, 340, 312
-0.984133, 137, 113, 168, 240
-0.984151, 229, 241, 260, 368
-0.984158, 385, 1, 448, 375
-0.98417, 121, 161, 152, 224
-0.984225, 177, 273, 208, 336
-0.984232, 313, 209, 344, 336
-0.984257, 185, 1, 248, 375
-0.984328, 437, 145, 468, 208
-0.984352, 201, 209, 232, 272
-0.984368, 397, 233, 428, 296
-0.984381, 145, 105, 272, 168
-0.984405, 425, 105, 456, 168
-0.984567, 105, 177, 136, 240
-0.984577, 45, 233, 76, 296
-0.984591, 121, 225, 152, 352
-0.984608, 349, 233, 380, 296
-0.984622, 9, 209, 40, 272
-0.984633, 453, 225, 484, 288
-0.98465, 69, 81, 100, 208
-0.984738, 205, 209, 236, 336
-0.984792, 241, 281, 272, 344
-0.984794, 165, 273, 196, 336
-0.984809, 113, 265, 144, 328
-0.984861, 233, 297, 296, 360
-0.984871, 37, 297, 68, 360
-0.985012, 1, 113, 128, 176
-0.985221, 457, 105, 488, 168
-0.985261, 421, 233, 452, 296
-0.985292, 73, 89, 104, 152
-0.985439, 321, 65, 352, 192
-0.985467, 161, 1, 224, 256
-0.985535, 277, 241, 308, 368
-0.985556, 65, 65, 128, 128
-0.98559, 49, 1, 112, 375
-0.985622, 153, 57, 216, 120
-0.985655, 257, 169, 500, 232
-0.985674, 121, 49, 152, 176
-0.985942, 257, 33, 320, 160
-0.986029, 9, 249, 72, 312
-0.986311, 449, 145, 480, 272
-0.9864, 97, 121, 224, 184
-0.986544, 425, 49, 488, 176
-0.986618, 17, 257, 144, 320
-0.986746, 113, 305, 240, 368
-0.987021, 345, 225, 376, 352
-0.987036, 397, 209, 428, 336
-0.987083, 193, 241, 224, 368
-0.987129, 1, 89, 128, 152
-0.987254, 273, 73, 336, 136
-0.987317, 329, 225, 360, 352
-0.987335, 105, 49, 136, 176
-0.987349, 137, 225, 168, 352
-0.987388, 425, 209, 488, 336
-0.987532, 185, 57, 248, 120
-0.98755, 145, 57, 272, 120
-0.987692, 297, 33, 360, 160
-0.987715, 365, 225, 396, 352
-0.987823, 385, 1, 448, 256
-0.9879, 377, 81, 440, 144
-0.987902, 121, 17, 184, 144
-0.988046, 417, 1, 480, 375
-0.988058, 185, 177, 248, 208
-0.988074, 337, 33, 400, 160
-0.988088, 89, 113, 120, 240
-0.988112, 257, 177, 320, 208
-0.988116, 153, 193, 216, 224
-0.988119, 257, 165, 320, 196
-0.98812, 209, 73, 336, 136
-0.988185, 393, 257, 456, 320
-0.988228, 217, 189, 280, 220
-0.988229, 189, 33, 220, 160
-0.98823, 409, 209, 440, 336
-0.988257, 289, 173, 352, 204
-0.988286, 417, 81, 480, 144
-0.98837, 337, 257, 400, 320
-0.988414, 113, 305, 176, 368
-0.988432, 209, 57, 272, 120
-0.988511, 129, 261, 192, 292
-0.988538, 265, 149, 328, 180
-0.988539, 53, 209, 84, 336
-0.988547, 65, 249, 320, 312
-0.988655, 233, 177, 296, 208
-0.988681, 1, 97, 64, 224
-0.988742, 393, 177, 456, 208
-0.988768, 25, 1, 88, 375
-0.988813, 313, 169, 376, 200
-0.988832, 193, 17, 256, 144
-0.988898, 273, 189, 336, 220
-0.988899, 209, 177, 272, 208
-0.988909, 129, 161, 384, 224
-0.988933, 257, 73, 384, 136
-0.988956, 337, 177, 400, 208
-0.988981, 193, 189, 256, 220
-0.988989, 233, 149, 296, 180
-0.989017, 105, 261, 168, 292
-0.989027, 313, 185, 376, 216
-0.989078, 145, 137, 208, 168
-0.989091, 65, 249, 128, 280
-0.989102, 217, 225, 248, 352
-0.989112, 281, 161, 344, 192
-0.989115, 321, 81, 448, 144
-0.989139, 49, 109, 112, 140
-0.989177, 257, 137, 320, 168
-0.989186, 217, 161, 280, 192
-0.989199, 89, 249, 152, 280
-0.989208, 145, 177, 208, 208
-0.989209, 217, 133, 280, 164
-0.989246, 369, 149, 432, 180
-0.989262, 337, 157, 400, 188
-0.989267, 193, 129, 448, 192
-0.989275, 129, 273, 192, 304
-0.989304, 361, 241, 424, 272
-0.989333, 377, 201, 440, 232
-0.989355, 337, 197, 400, 228
-0.989356, 249, 197, 312, 228
-0.989371, 289, 201, 352, 232
-0.989387, 65, 265, 128, 296
-0.989414, 249, 245, 312, 276
-0.989419, 273, 245, 336, 276
-0.989423, 385, 241, 448, 272
-0.989426, 129, 197, 192, 228
-0.989441, 109, 145, 140, 272
-0.989457, 281, 133, 344, 164
-0.989523, 145, 149, 208, 180
-0.989524, 153, 249, 216, 280
-0.989527, 377, 189, 440, 220
-0.98955, 81, 185, 144, 216
-0.989581, 161, 261, 224, 292
-0.989599, 337, 133, 400, 164
-0.989616, 329, 241, 392, 272
-0.989652, 217, 245, 280, 276
-0.989664, 121, 145, 184, 176
-0.989666, 257, 261, 320, 292
-0.989693, 205, 33, 236, 160
-0.989696, 409, 241, 472, 272
-0.989722, 65, 201, 320, 264
-0.989733, 377, 65, 408, 192
-0.989741, 33, 129, 288, 192
-0.989746, 313, 73, 376, 136
-0.989766, 185, 141, 248, 172
-0.989793, 113, 181, 176, 212
-0.989815, 1, 97, 500, 160
-0.989838, 185, 201, 248, 232
-0.989844, 121, 169, 184, 200
-0.989844, 393, 161, 456, 192
-0.989852, 41, 97, 72, 224
-0.989856, 257, 273, 320, 304
-0.989873, 225, 201, 288, 232
-0.989878, 241, 57, 304, 120
-0.98991, 361, 177, 424, 208
-0.989911, 305, 133, 368, 164
-0.989929, 65, 81, 320, 144
-0.98993, 305, 241, 368, 272
-0.989944, 369, 161, 432, 192
-0.989989, 105, 193, 168, 224
-0.990005, 433, 237, 496, 268
-0.990014, 289, 241, 320, 368
-0.990021, 129, 249, 192, 280
-0.990044, 65, 281, 128, 312
-0.990068, 49, 153, 112, 184
-0.990074, 305, 1, 368, 256
-0.990091, 305, 213, 368, 244
-0.990119, 1, 177, 64, 240
-0.990119, 417, 193, 480, 224
-0.990133, 217, 81, 280, 112
-0.99015, 201, 257, 264, 288
-0.990158, 161, 161, 224, 192
-0.990196, 177, 249, 240, 280
-0.990221, 33, 241, 96, 272
-0.990239, 49, 121, 112, 152
-0.99026, 33, 301, 96, 332
-0.990263, 161, 273, 224, 304
-0.990286, 33, 273, 96, 304
-0.990306, 105, 277, 168, 308
-0.990315, 185, 1, 248, 256
-0.990323, 313, 197, 376, 228
-0.990368, 225, 257, 288, 288
-0.990403, 1, 161, 500, 224
-0.990442, 149, 241, 180, 368
-0.990461, 177, 289, 240, 320
-0.990483, 281, 257, 344, 288
-0.990498, 177, 305, 240, 336
-0.990512, 49, 141, 112, 172
-0.990513, 305, 149, 368, 180
-0.990546, 49, 181, 112, 212
-0.990546, 257, 209, 500, 272
-0.990549, 33, 285, 96, 316
-0.990573, 389, 49, 420, 176
-0.990574, 401, 109, 464, 140
-0.990602, 313, 281, 376, 344
-0.990613, 49, 229, 112, 260
-0.990625, 89, 173, 152, 204
-0.990643, 345, 209, 408, 240
-0.990644, 161, 205, 224, 236
-0.990649, 105, 157, 168, 188
-0.990658, 121, 209, 184, 240
-0.990663, 9, 237, 72, 268
-0.990674, 153, 305, 216, 336
-0.990676, 153, 293, 216, 324
-0.990676, 89, 69, 152, 100
-0.990702, 305, 121, 368, 152
-0.990744, 49, 97, 112, 128
-0.990754, 193, 165, 256, 196
-0.9908, 345, 145, 408, 176
-0.990803, 233, 269, 296, 300
-0.990804, 321, 101, 384, 132
-0.990834, 249, 209, 312, 240
-0.990883, 217, 281, 280, 312
-0.990917, 281, 273, 344, 304
-0.990927, 417, 177, 480, 208
-0.990999, 9, 225, 72, 256
-0.991001, 33, 261, 96, 292
-0.991014, 409, 149, 472, 180
-0.991021, 377, 241, 408, 368
-0.991036, 161, 249, 416, 312
-0.991065, 41, 169, 104, 200
-0.991066, 137, 1, 200, 256
-0.991121, 73, 141, 136, 172
-0.991123, 273, 97, 336, 128
-0.991129, 41, 65, 104, 128
-0.991136, 81, 49, 208, 112
-0.991149, 337, 73, 400, 136
-0.99118, 113, 73, 176, 104
-0.991181, 81, 153, 144, 184
-0.991193, 169, 129, 232, 160
-0.991234, 121, 113, 152, 240
-0.991236, 345, 229, 408, 260
-0.991246, 353, 253, 416, 284
-0.99125, 25, 185, 88, 216
-0.991252, 81, 197, 144, 228
-0.991255, 89, 293, 152, 324
-0.991261, 369, 137, 432, 168
-0.991265, 89, 1, 152, 128
-0.991278, 257, 125, 320, 156
-0.991284, 265, 285, 328, 316
-0.991308, 361, 105, 424, 136
-0.991336, 433, 165, 496, 196
-0.991345, 57, 297, 120, 328
-0.991355, 33, 169, 288, 232
-0.991381, 245, 33, 276, 160
-0.991409, 225, 105, 480, 168
-0.99142, 1, 209, 500, 272
-0.991458, 1, 137, 500, 200
-0.991504, 1, 225, 256, 288
-0.99151, 369, 81, 496, 144
-0.991518, 409, 49, 440, 176
-0.991586, 49, 1, 112, 256
-0.991622, 177, 305, 304, 368
-0.991811, 257, 241, 500, 304
-0.99189, 461, 145, 492, 272
-0.991905, 1, 65, 128, 128
-0.992058, 65, 273, 320, 336
-0.992103, 365, 177, 396, 208
-0.992116, 241, 177, 272, 208
-0.992132, 317, 173, 348, 204
-0.992149, 97, 249, 128, 280
-0.992151, 409, 1, 472, 256
-0.992158, 289, 273, 416, 336
-0.992162, 385, 149, 416, 180
-0.992172, 297, 161, 328, 192
-0.992176, 285, 141, 316, 172
-0.992176, 257, 1, 320, 256
-0.992213, 25, 33, 88, 288
-0.992222, 121, 253, 152, 284
-0.992225, 341, 177, 372, 208
-0.992233, 249, 193, 280, 224
-0.992244, 229, 189, 260, 220
-0.992253, 85, 185, 116, 216
-0.992257, 165, 157, 196, 188
-0.992276, 229, 177, 260, 208
-0.992292, 353, 133, 384, 164
-0.992298, 285, 153, 316, 184
-0.992305, 249, 245, 280, 276
-0.992309, 337, 161, 368, 192
-0.992322, 273, 169, 304, 200
-0.992324, 269, 149, 300, 180
-0.992329, 153, 141, 184, 172
-0.99233, 405, 169, 436, 200
-0.992336, 345, 193, 376, 224
-0.992337, 153, 165, 184, 196
-0.992341, 205, 185, 236, 216
-0.992347, 325, 193, 356, 224
-0.992348, 417, 241, 448, 272
-0.992352, 209, 197, 240, 228
-0.992357, 297, 149, 328, 180
-0.99236, 425, 181, 456, 212
-0.992365, 133, 265, 164, 296
-0.992369, 381, 193, 412, 224
-0.992375, 1, 185, 500, 248
-0.992385, 249, 141, 280, 172
-0.992385, 365, 161, 396, 192
-0.992394, 305, 185, 336, 216
-0.992397, 301, 197, 332, 228
-0.992405, 365, 241, 396, 272
-0.992406, 365, 201, 396, 232
-0.99241, 253, 257, 284, 288
-0.992427, 153, 261, 184, 292
-0.992429, 209, 245, 240, 276
-0.99243, 173, 177, 204, 208
-0.99243, 229, 133, 260, 164
-0.992435, 73, 245, 104, 276
-0.992445, 161, 245, 192, 276
-0.992453, 389, 241, 420, 272
-0.992453, 269, 249, 300, 280
-0.992467, 281, 269, 312, 300
-0.992468, 237, 245, 268, 276
-0.99247, 357, 145, 388, 176
-0.992476, 177, 245, 208, 276
-0.992482, 245, 157, 276, 188
-0.99249, 257, 177, 288, 208
-0.992493, 173, 145, 204, 176
-0.992498, 265, 197, 296, 228
-0.992502, 329, 173, 360, 204
-0.992504, 133, 253, 164, 284
-0.992506, 385, 165, 416, 196
-0.992509, 437, 177, 468, 208
-0.99251, 221, 245, 252, 276
-0.992512, 85, 245, 116, 276
-0.992518, 141, 181, 172, 212
-0.99252, 217, 177, 248, 208
-0.992521, 461, 241, 492, 272
-0.992521, 141, 201, 172, 232
-0.992526, 193, 249, 224, 280
-0.992526, 197, 141, 228, 172
-0.992528, 301, 137, 332, 168
-0.992537, 397, 153, 428, 184
-0.99254, 329, 125, 360, 156
-0.992542, 433, 241, 464, 272
-0.992544, 193, 193, 224, 224
-0.992556, 285, 245, 316, 276
-0.992564, 157, 197, 188, 228
-0.992564, 313, 197, 344, 228
-0.992569, 405, 241, 436, 272
-0.992573, 109, 261, 140, 292
-0.992576, 377, 241, 408, 272
-0.992581, 413, 185, 444, 216
-0.9926, 453, 193, 484, 320
-0.992602, 281, 257, 312, 288
-0.992602, 261, 165, 292, 196
-0.992605, 161, 193, 416, 256
-0.992607, 181, 189, 212, 220
-0.992613, 193, 193, 320, 224
-0.992627, 85, 265, 116, 296
-0.992636, 425, 165, 456, 196
-0.992638, 125, 193, 156, 224
-0.992642, 189, 177, 220, 208
-0.992649, 113, 193, 144, 224
-0.992651, 285, 169, 316, 200
-0.992651, 397, 205, 428, 236
-0.992655, 241, 297, 368, 360
-0.992658, 219, 177, 234, 240
-0.992659, 349, 241, 380, 272
-0.99266, 105, 181, 136, 212
-0.992662, 329, 245, 360, 276
-0.992668, 5, 193, 36, 320
-0.992669, 417, 197, 448, 228
-0.992672, 1, 1, 128, 128
-0.992674, 341, 133, 372, 164
-0.992675, 413, 157, 444, 188
-0.992689, 137, 153, 168, 184
-0.992692, 37, 289, 68, 320
-0.992693, 265, 269, 296, 300
-0.992696, 385, 177, 416, 208
-0.992696, 173, 261, 204, 292
-0.992699, 85, 209, 116, 240
-0.9927, 217, 133, 248, 164
-0.992702, 401, 181, 432, 212
-0.992703, 445, 237, 476, 268
-0.992704, 29, 245, 60, 276
-0.992707, 37, 301, 68, 332
-0.992713, 269, 181, 300, 212
-0.992726, 77, 233, 108, 264
-0.992729, 93, 281, 124, 312
-0.99273, 173, 133, 204, 164
-0.992735, 317, 157, 348, 188
-0.992735, 441, 189, 472, 220
-0.992741, 353, 173, 384, 204
-0.992744, 353, 157, 384, 188
-0.992745, 133, 277, 164, 308
-0.992745, 109, 249, 140, 280
-0.992752, 401, 193, 432, 224
-0.992754, 297, 173, 328, 204
-0.992756, 149, 153, 180, 184
-0.992758, 243, 177, 258, 240
-0.992758, 165, 273, 196, 304
-0.992761, 85, 221, 116, 252
-0.992765, 369, 137, 400, 168
-0.992767, 157, 129, 188, 160
-0.992769, 425, 105, 456, 136
-0.992773, 409, 229, 440, 260
-0.992775, 121, 269, 152, 300
-0.992778, 433, 201, 464, 232
-0.992783, 433, 1, 496, 256
-0.992783, 313, 137, 344, 168
-0.992785, 29, 273, 60, 304
-0.992787, 205, 257, 236, 288
-0.992844, 257, 181, 384, 212
-0.992865, 155, 169, 170, 232
-0.992994, 1, 1, 64, 375
-0.993015, 379, 137, 394, 200
-0.993037, 249, 249, 264, 312
-0.993052, 33, 105, 288, 168
-0.993064, 273, 157, 400, 188
-0.99322, 211, 177, 226, 240
-0.993223, 93, 17, 124, 144
-0.993224, 353, 145, 368, 208
-0.993225, 33, 261, 160, 292
-0.993249, 275, 177, 290, 240
-0.993272, 337, 177, 464, 208
-0.993272, 245, 145, 260, 208
-0.993294, 225, 165, 352, 196
-0.993298, 347, 137, 362, 200
-0.993348, 251, 169, 266, 232
-0.993358, 449, 49, 480, 176
-0.993403, 429, 49, 460, 176
-0.993444, 161, 245, 288, 276
-0.993445, 333, 33, 364, 160
-0.993449, 145, 137, 272, 168
-0.993497, 219, 145, 234, 208
-0.993498, 163, 129, 178, 192
-0.993567, 177, 257, 304, 288
-0.993569, 241, 201, 368, 232
-0.993583, 65, 193, 192, 224
-0.993592, 167, 153, 182, 216
-0.993617, 145, 193, 272, 224
-0.993642, 281, 177, 296, 240
-0.993645, 161, 273, 416, 336
-0.993665, 353, 241, 480, 272
-0.993685, 265, 177, 280, 240
-0.993715, 107, 233, 122, 296
-0.993743, 97, 261, 224, 292
-0.993752, 359, 129, 374, 192
-0.993767, 273, 145, 400, 176
-0.993777, 289, 137, 304, 200
-0.993778, 251, 129, 266, 192
-0.993867, 419, 209, 434, 272
-0.993873, 259, 177, 274, 240
-0.993874, 173, 241, 188, 304
-0.993908, 307, 185, 322, 248
-0.993911, 279, 145, 294, 208
-0.993929, 291, 249, 306, 312
-0.993961, 403, 161, 418, 224
-0.993981, 155, 137, 170, 200
-0.993984, 337, 273, 464, 336
-0.994003, 257, 129, 384, 160
-0.994021, 373, 137, 388, 200
-0.994035, 49, 129, 176, 160
-0.994075, 81, 249, 208, 280
-0.994084, 205, 177, 220, 240
-0.994088, 161, 161, 176, 224
-0.994095, 273, 241, 288, 304
-0.994096, 335, 169, 350, 232
-0.994096, 99, 241, 114, 304
-0.994096, 1, 297, 256, 360
-0.994108, 255, 241, 270, 304
-0.994119, 321, 153, 448, 184
-0.994125, 325, 169, 340, 232
-0.994131, 107, 257, 122, 320
-0.994138, 171, 185, 186, 248
-0.994144, 173, 145, 188, 208
-0.994168, 317, 137, 332, 200
-0.994173, 187, 169, 202, 232
-0.994211, 369, 297, 496, 360
-0.994233, 49, 153, 176, 184
-0.994238, 387, 105, 402, 168
-0.994238, 409, 145, 424, 208
-0.994242, 1, 273, 500, 336
-0.994243, 145, 177, 160, 240
-0.994245, 225, 177, 240, 240
-0.994269, 441, 209, 472, 336
-0.994274, 161, 217, 416, 280
-0.994276, 123, 249, 138, 312
-0.994283, 181, 249, 196, 312
-0.99429, 305, 241, 432, 272
-0.994291, 313, 209, 328, 272
-0.994301, 379, 161, 394, 224
-0.994332, 65, 73, 192, 104
-0.99434, 205, 137, 220, 200
-0.994341, 261, 33, 292, 160
-0.994344, 289, 305, 416, 368
-0.994368, 167, 249, 182, 312
-0.994434, 81, 205, 208, 236
-0.994441, 1, 73, 500, 136
-0.994442, 149, 17, 180, 144
-0.994443, 165, 193, 180, 256
-0.994448, 65, 181, 192, 212
-0.994462, 441, 153, 456, 216
-0.994463, 353, 209, 368, 272
-0.994474, 113, 241, 128, 304
-0.994487, 263, 241, 278, 304
-0.994491, 133, 249, 148, 312
-0.994491, 345, 169, 360, 232
-0.994493, 337, 165, 464, 196
-0.994515, 161, 157, 288, 188
-0.994529, 143, 241, 158, 304
-0.994546, 353, 177, 368, 240
-0.994546, 195, 145, 210, 208
-0.994575, 179, 129, 194, 192
-0.994584, 295, 129, 310, 192
-0.994609, 409, 169, 424, 232
-0.994612, 249, 209, 264, 272
-0.994612, 129, 105, 384, 168
-0.994624, 181, 209, 196, 272
-0.994632, 241, 245, 368, 276
-0.99467, 299, 201, 314, 264
-0.99468, 297, 249, 312, 312
-0.994691, 83, 233, 98, 296
-0.994715, 213, 153, 228, 216
-0.994725, 173, 273, 188, 336
-0.994731, 413, 209, 428, 272
-0.994735, 83, 193, 98, 256
-0.994736, 265, 137, 280, 200
-0.994738, 239, 129, 254, 192
-0.994743, 229, 249, 244, 312
-0.994753, 291, 169, 306, 232
-0.994758, 415, 161, 430, 224
-0.994763, 301, 145, 316, 208
-0.994766, 241, 233, 256, 296
-0.994766, 381, 105, 396, 168
-0.994771, 227, 129, 242, 192
-0.994781, 97, 273, 224, 304
-0.994791, 161, 85, 288, 116
-0.994794, 209, 273, 336, 304
-0.994797, 17, 245, 144, 276
-0.9948, 313, 177, 328, 240
-0.99481, 257, 137, 272, 200
-0.994815, 193, 169, 208, 232
-0.994816, 209, 177, 336, 208
-0.994821, 307, 129, 322, 192
-0.994836, 1, 33, 64, 288
-0.994842, 1, 189, 128, 220
-0.994847, 57, 49, 88, 176
-0.994899, 353, 97, 368, 160
-0.994901, 273, 33, 304, 160
-0.994908, 365, 137, 380, 200
-0.994914, 367, 161, 382, 224
-0.994939, 335, 121, 350, 184
-0.994949, 369, 97, 384, 160
-0.994959, 193, 137, 320, 168
-0.994965, 335, 209, 350, 272
-0.99498, 193, 81, 448, 144
-0.994988, 225, 153, 352, 184
-0.995019, 149, 249, 164, 312
-0.995027, 289, 169, 416, 200
-0.995044, 325, 97, 340, 160
-0.99505, 33, 241, 48, 304
-0.995055, 343, 97, 358, 160
-0.995059, 289, 197, 416, 228
-0.995064, 257, 65, 288, 320
-0.99507, 279, 241, 294, 304
-0.995091, 233, 193, 248, 256
-0.995099, 337, 109, 464, 140
-0.995101, 159, 193, 174, 256
-0.995104, 333, 97, 348, 160
-0.995108, 359, 177, 374, 240
-0.995116, 399, 137, 414, 200
-0.995153, 181, 169, 196, 232
-0.995156, 273, 101, 400, 132
-0.995158, 285, 249, 300, 312
-0.995166, 195, 249, 210, 312
-0.995196, 307, 225, 322, 288
-0.995201, 129, 181, 256, 212
-0.995223, 77, 225, 92, 288
-0.995227, 145, 169, 272, 200
-0.995243, 389, 137, 404, 200
-0.995247, 81, 169, 208, 200
-0.995248, 401, 105, 416, 168
-0.99525, 373, 169, 388, 232
-0.995257, 97, 297, 352, 360
-0.995259, 189, 137, 204, 200
-0.995262, 273, 257, 400, 288
-0.995273, 311, 153, 326, 216
-0.995299, 447, 113, 462, 176
-0.995306, 359, 217, 374, 280
-0.995323, 257, 273, 500, 336
-0.995326, 199, 185, 214, 248
-0.995335, 375, 97, 390, 160
-0.995339, 273, 137, 288, 200
-0.99535, 337, 193, 464, 224
-0.995351, 369, 153, 496, 184
-0.995387, 231, 169, 246, 232
-0.995388, 221, 257, 236, 320
-0.995389, 425, 145, 440, 208
-0.995393, 449, 161, 464, 224
-0.995398, 431, 209, 446, 272
-0.995404, 245, 121, 260, 184
-0.995426, 161, 273, 288, 304
-0.995431, 329, 145, 344, 208
-0.995441, 237, 129, 268, 375
-0.995443, 31, 217, 46, 280
-0.995455, 413, 233, 428, 296
-0.995457, 237, 257, 252, 320
-0.995471, 395, 105, 410, 168
-0.995473, 149, 145, 164, 208
-0.995478, 317, 97, 332, 160
-0.995535, 209, 97, 240, 352
-0.995555, 305, 33, 336, 160
-0.995558, 49, 141, 176, 172
-0.995568, 157, 97, 188, 352
-0.995574, 129, 205, 256, 236
-0.995598, 1, 153, 128, 184
-0.995634, 193, 205, 320, 236
-0.995689, 69, 33, 100, 160
-0.995693, 285, 65, 316, 320
-0.995695, 33, 165, 160, 196
-0.995706, 337, 137, 464, 168
-0.995715, 397, 97, 428, 352
-0.995737, 193, 65, 224, 320
-0.995754, 33, 293, 160, 324
-0.995755, 65, 57, 320, 120
-0.99579, 177, 17, 208, 144
-0.99585, 269, 97, 300, 352
-0.995893, 373, 65, 404, 320
-0.995917, 169, 65, 200, 320
-0.995936, 113, 309, 240, 340
-0.995938, 97, 149, 224, 180
-0.995964, 341, 65, 372, 320
-0.995965, 33, 281, 160, 312
-0.995971, 241, 213, 368, 244
-0.995998, 181, 97, 212, 352
-0.99601, 301, 129, 332, 375
-0.996027, 225, 257, 352, 288
-0.996033, 133, 33, 164, 288
-0.996034, 1, 177, 128, 208
-0.996036, 233, 33, 264, 288
-0.996069, 81, 97, 112, 352
-0.996096, 221, 97, 252, 352
-0.996098, 321, 65, 352, 320
-0.996202, 145, 125, 272, 156
-0.996228, 1, 141, 128, 172
-0.996283, 81, 85, 208, 116
-0.996285, 321, 253, 448, 284
-0.996324, 137, 17, 168, 144
-0.996335, 225, 17, 256, 144
-0.996359, 161, 289, 288, 320
-0.99636, 1, 201, 128, 232
-0.996383, 225, 97, 352, 128
-0.996386, 33, 233, 160, 264
-0.996412, 97, 133, 224, 164
-0.996417, 1, 217, 128, 248
-0.996434, 421, 65, 452, 320
-0.996446, 93, 33, 124, 288
-0.996446, 65, 97, 96, 352
-0.99649, 433, 65, 464, 320
-0.996499, 385, 65, 416, 320
-0.996511, 245, 33, 276, 288
-0.996532, 145, 33, 176, 288
-0.996536, 353, 65, 384, 320
-0.996544, 65, 117, 192, 148
-0.996561, 209, 233, 336, 264
-0.996622, 193, 125, 320, 156
-0.996663, 1, 121, 128, 152
-0.996693, 37, 129, 68, 375
-0.996706, 1, 41, 128, 104
-0.996719, 225, 285, 352, 316
-0.996749, 1, 249, 500, 312
-0.996756, 145, 129, 176, 375
-0.996758, 209, 85, 336, 116
-0.996771, 457, 97, 488, 352
-0.99679, 301, 33, 332, 288
-0.996803, 33, 105, 160, 136
-0.996807, 337, 205, 464, 236
-0.996873, 125, 253, 140, 284
-0.996876, 177, 305, 304, 336
-0.996894, 33, 305, 160, 336
-0.996896, 53, 97, 84, 352
-0.996911, 245, 177, 260, 208
-0.996924, 219, 177, 234, 208
-0.996929, 257, 269, 384, 300
-0.996957, 193, 49, 320, 112
-0.997012, 33, 93, 160, 124
-0.997027, 339, 173, 354, 204
-0.997055, 9, 49, 72, 176
-0.997057, 113, 249, 128, 280
-0.997058, 229, 133, 244, 164
-0.997065, 135, 257, 150, 288
-0.997069, 121, 33, 152, 288
-0.997078, 275, 161, 290, 192
-0.997105, 431, 177, 446, 208
-0.997106, 283, 173, 298, 204
-0.997109, 107, 249, 122, 280
-0.997112, 253, 245, 268, 276
-0.997115, 305, 145, 320, 176
-0.997128, 143, 249, 158, 280
-0.997149, 369, 229, 496, 260
-0.997153, 161, 197, 176, 228
-0.997162, 81, 97, 208, 128
-0.997167, 113, 289, 240, 320
-0.997198, 17, 129, 48, 375
-0.997199, 207, 249, 222, 280
-0.99721, 289, 209, 416, 240
-0.997216, 257, 233, 384, 264
-0.997223, 293, 137, 308, 168
-0.997229, 409, 97, 440, 352
-0.997231, 335, 189, 350, 220
-0.997232, 195, 189, 210, 220
-0.997233, 263, 193, 278, 224
-0.997236, 283, 149, 298, 180
-0.997241, 413, 237, 428, 268
-0.997243, 155, 201, 170, 232
-0.997244, 329, 169, 344, 200
-0.997246, 175, 261, 190, 292
-0.997249, 109, 33, 140, 288
-0.997258, 241, 137, 256, 168
-0.997267, 253, 189, 268, 220
-0.997272, 373, 157, 388, 188
-0.997276, 349, 161, 364, 192
-0.997281, 191, 249, 206, 280
-0.997293, 419, 241, 434, 272
-0.997301, 5, 129, 36, 375
-0.997308, 161, 169, 176, 200
-0.997312, 313, 161, 328, 192
-0.997312, 167, 161, 182, 192
-0.997314, 193, 297, 448, 360
-0.997315, 119, 249, 134, 280
-0.99732, 267, 181, 282, 212
-0.997324, 289, 165, 304, 196
-0.997324, 99, 249, 114, 280
-0.997331, 305, 129, 320, 160
-0.997332, 259, 245, 274, 276
-0.997351, 409, 169, 424, 200
-0.997357, 469, 97, 500, 352
-0.997364, 425, 241, 440, 272
-0.997369, 269, 257, 284, 288
-0.997372, 357, 157, 372, 188
-0.997372, 81, 233, 208, 264
-0.997373, 189, 177, 204, 208
-0.997397, 213, 245, 228, 276
-0.9974, 33, 317, 160, 348
-0.997407, 269, 197, 284, 228
-0.997408, 181, 249, 196, 280
-0.997411, 295, 273, 310, 304
-0.997426, 215, 141, 230, 172
-0.997427, 367, 241, 382, 272
-0.997428, 305, 157, 320, 188
-0.997431, 215, 157, 230, 188
-0.997434, 347, 197, 362, 228
-0.997443, 281, 249, 296, 280
-0.997447, 223, 245, 238, 276
-0.997449, 97, 321, 224, 352
-0.99745, 135, 185, 150, 216
-0.99745, 213, 169, 228, 200
-0.997451, 431, 241, 446, 272
-0.997451, 295, 149, 310, 180
-0.997452, 175, 245, 190, 276
-0.997458, 311, 133, 326, 164
-0.997462, 321, 97, 448, 128
-0.997465, 273, 185, 288, 216
-0.997466, 141, 261, 156, 292
-0.997469, 333, 125, 348, 156
-0.997473, 325, 201, 340, 232
-0.997474, 187, 161, 202, 192
-0.997476, 201, 253, 216, 284
-0.997478, 379, 161, 394, 192
-0.99748, 273, 117, 400, 148
-0.997483, 135, 269, 150, 300
-0.997483, 223, 197, 238, 228
-0.997485, 353, 177, 368, 208
-0.997487, 141, 193, 156, 224
-0.997493, 113, 73, 240, 104
-0.997493, 369, 253, 496, 284
-0.997501, 165, 133, 180, 164
-0.997506, 417, 173, 432, 204
-0.997516, 249, 153, 264, 184
-0.99753, 155, 169, 170, 200
-0.997532, 91, 181, 106, 212
-0.997533, 403, 241, 418, 272
-0.997541, 173, 273, 188, 304
-0.997542, 457, 237, 472, 268
-0.997542, 161, 233, 288, 264
-0.997554, 181, 173, 196, 204
-0.997556, 325, 245, 340, 276
-0.997556, 417, 161, 432, 192
-0.997557, 291, 245, 306, 276
-0.997558, 387, 241, 402, 272
-0.997559, 241, 241, 256, 272
-0.997561, 403, 181, 418, 212
-0.997562, 305, 229, 432, 260
-0.997562, 221, 133, 236, 164
-0.997563, 85, 181, 100, 212
-0.997564, 485, 237, 500, 268
-0.997564, 463, 241, 478, 272
-0.99757, 155, 253, 170, 284
-0.997576, 269, 245, 284, 276
-0.997577, 409, 153, 424, 184
-0.99758, 257, 141, 272, 172
-0.99758, 119, 261, 134, 292
-0.997593, 425, 165, 440, 196
-0.997595, 289, 153, 304, 184
-0.9976, 477, 237, 492, 268
-0.9976, 247, 249, 262, 280
-0.9976, 323, 173, 338, 204
-0.997604, 437, 241, 452, 272
-0.997604, 81, 229, 96, 260
-0.997606, 259, 261, 274, 292
-0.997608, 393, 241, 408, 272
-0.997609, 87, 241, 102, 272
-0.997612, 353, 241, 368, 272
-0.997614, 381, 241, 396, 272
-0.997617, 217, 201, 232, 232
-0.997618, 375, 137, 390, 168
-0.997629, 347, 177, 362, 208
-0.997631, 439, 161, 454, 192
-0.997634, 147, 265, 162, 296
-0.997638, 193, 145, 208, 176
-0.997638, 303, 237, 318, 268
-0.997642, 147, 189, 162, 220
-0.997642, 363, 137, 378, 168
-0.997646, 427, 193, 442, 224
-0.997646, 401, 161, 416, 192
-0.997647, 299, 129, 314, 160
-0.997649, 225, 173, 240, 204
-0.99765, 373, 241, 388, 272
-0.997656, 149, 253, 164, 284
-0.997656, 397, 145, 412, 176
-0.997656, 77, 241, 92, 272
-0.997658, 107, 189, 122, 220
-0.997666, 351, 133, 366, 164
-0.997667, 287, 257, 302, 288
-0.997684, 99, 265, 114, 296
-0.997744, 353, 121, 480, 152
-0.99782, 445, 97, 476, 352
-0.997841, 133, 129, 164, 375
-0.997847, 1, 81, 128, 112
-0.997853, 81, 217, 208, 248
-0.997882, 193, 113, 320, 144
-0.997889, 161, 73, 288, 104
-0.997901, 145, 321, 272, 352
-0.997942, 105, 129, 136, 375
-0.998041, 93, 129, 124, 375
-0.998055, 129, 217, 256, 248
-0.998156, 1, 305, 500, 368
-0.998211, 117, 129, 148, 375
-0.998239, 129, 61, 256, 92
-0.998305, 257, 301, 384, 332
-0.998325, 353, 305, 480, 336
-0.998336, 369, 97, 496, 128
-0.998379, 185, 189, 248, 204
-0.998388, 257, 81, 384, 112
-0.998394, 193, 317, 320, 348
-0.9984, 305, 269, 432, 300
-0.998412, 193, 183, 256, 198
-0.998415, 313, 175, 376, 190
-0.998418, 169, 179, 232, 194
-0.99842, 145, 179, 208, 194
-0.998424, 209, 189, 272, 204
-0.998424, 161, 255, 224, 270
-0.998426, 369, 153, 432, 168
-0.998427, 177, 313, 240, 328
-0.998427, 233, 183, 296, 198
-0.998433, 257, 153, 320, 168
-0.998436, 217, 195, 280, 210
-0.998438, 257, 209, 320, 224
-0.998439, 217, 81, 232, 208
-0.99844, 161, 193, 224, 208
-0.998442, 353, 175, 416, 190
-0.998442, 257, 159, 320, 174
-0.998445, 393, 177, 456, 192
-0.998446, 161, 101, 288, 132
-0.998446, 337, 207, 400, 222
-0.998448, 241, 129, 256, 256
-0.998449, 257, 313, 384, 344
-0.998449, 273, 173, 336, 188
-0.998453, 297, 191, 360, 206
-0.998456, 337, 181, 400, 196
-0.998457, 217, 137, 280, 152
-0.998457, 137, 203, 200, 218
-0.998458, 137, 187, 200, 202
-0.998459, 273, 181, 336, 196
-0.998461, 81, 187, 144, 202
-0.998464, 257, 145, 320, 160
-0.998466, 49, 117, 112, 132
-0.998466, 49, 245, 112, 260
-0.998467, 241, 177, 304, 192
-0.99847, 353, 193, 416, 208
-0.99847, 257, 167, 320, 182
-0.998471, 313, 197, 376, 212
-0.998472, 161, 187, 224, 202
-0.998473, 145, 145, 208, 160
-0.998474, 257, 195, 320, 210
-0.998475, 377, 203, 440, 218
-0.998476, 289, 205, 352, 220
-0.998477, 193, 257, 256, 272
-0.998477, 89, 251, 152, 266
-0.998479, 265, 255, 328, 270
-0.998481, 305, 215, 368, 230
-0.998483, 217, 85, 280, 100
-0.998484, 113, 257, 176, 272
-0.998485, 377, 189, 440, 204
-0.998486, 113, 249, 176, 264
-0.99849, 289, 209, 320, 224
-0.998491, 357, 145, 388, 160
-0.998491, 153, 249, 184, 264
-0.998491, 345, 245, 408, 260
-0.998491, 203, 81, 218, 208
-0.998491, 49, 111, 112, 126
-0.998492, 197, 185, 228, 200
-0.998492, 257, 271, 320, 286
-0.998492, 209, 177, 272, 192
-0.998493, 269, 267, 300, 282
-0.998493, 361, 153, 392, 168
-0.998493, 241, 257, 272, 272
-0.998493, 33, 295, 96, 310
-0.998494, 229, 175, 260, 190
-0.998494, 305, 245, 368, 260
-0.998495, 273, 261, 304, 276
-0.998495, 281, 249, 344, 264
-0.998495, 109, 257, 140, 272
-0.998495, 125, 187, 156, 202
-0.998495, 93, 295, 124, 310
-0.998495, 277, 167, 308, 182
-0.998495, 433, 243, 464, 258
-0.998496, 333, 191, 364, 206
-0.998496, 385, 179, 416, 194
-0.998496, 305, 177, 336, 192
-0.998496, 113, 195, 176, 210
-0.998497, 257, 189, 320, 204
-0.998497, 229, 195, 260, 210
-0.998497, 65, 267, 128, 282
-0.998498, 461, 241, 492, 256
-0.998498, 381, 153, 412, 168
-0.998498, 353, 199, 416, 214
-0.998498, 225, 261, 288, 276
-0.998499, 393, 197, 456, 212
-0.998501, 321, 189, 384, 204
-0.998501, 309, 165, 340, 180
-0.998501, 257, 261, 288, 276
-0.998501, 281, 165, 344, 180
-0.998502, 437, 181, 468, 196
-0.998502, 133, 275, 164, 290
-0.998502, 369, 143, 400, 158
-0.998503, 85, 251, 116, 266
-0.998503, 153, 183, 184, 198
-0.998503, 105, 275, 168, 290
-0.998505, 289, 199, 352, 214
-0.998505, 217, 195, 248, 210
-0.998505, 89, 259, 152, 274
-0.998505, 393, 243, 456, 258
-0.998506, 137, 253, 200, 268
-0.998506, 317, 209, 348, 224
-0.998506, 225, 161, 288, 176
-0.998506, 269, 147, 300, 162
-0.998507, 205, 195, 236, 210
-0.998507, 349, 133, 380, 148
-0.998507, 129, 265, 192, 280
-0.998508, 361, 147, 424, 162
-0.998508, 121, 281, 184, 296
-0.998508, 297, 185, 360, 200
-0.998509, 265, 261, 328, 276
-0.998509, 401, 195, 432, 210
-0.998509, 161, 209, 224, 224
-0.99851, 185, 205, 248, 220
-0.99851, 241, 253, 304, 268
-0.99851, 205, 259, 236, 274
-0.998511, 217, 249, 280, 264
-0.998511, 141, 255, 172, 270
-0.998512, 365, 245, 396, 260
-0.998512, 233, 209, 296, 224
-0.998512, 169, 187, 200, 202
-0.998512, 189, 257, 220, 272
-0.998512, 57, 245, 88, 260
-0.998512, 193, 193, 224, 208
-0.998512, 281, 151, 344, 166
-0.998513, 285, 151, 316, 166
-0.998513, 149, 155, 180, 170
-0.998513, 37, 241, 68, 256
-0.998513, 9, 241, 72, 256
-0.998513, 169, 141, 232, 156
-0.998514, 405, 183, 436, 198
-0.998514, 401, 209, 432, 224
-0.998514, 281, 159, 344, 174
-0.998514, 121, 193, 152, 208
-0.998515, 429, 109, 460, 124
-0.998515, 153, 135, 216, 150
-0.998516, 417, 195, 480, 210
-0.998516, 253, 255, 284, 270
-0.998517, 345, 199, 376, 214
-0.998518, 281, 137, 312, 152
-0.998518, 417, 205, 448, 220
-0.998518, 141, 187, 172, 202
-0.998518, 305, 197, 336, 212
-0.998518, 265, 207, 296, 222
-0.998518, 145, 193, 176, 208
-0.998519, 345, 247, 376, 262
-0.998519, 221, 137, 252, 152
-0.998519, 185, 251, 248, 266
-0.99852, 77, 261, 108, 276
-0.99852, 253, 201, 284, 216
-0.99852, 273, 289, 400, 320
-0.998521, 253, 145, 284, 160
-0.998521, 177, 177, 208, 192
-0.998521, 301, 159, 332, 174
-0.998521, 329, 135, 392, 150
-0.998522, 321, 191, 352, 206
-0.998522, 145, 153, 208, 168
-0.998522, 201, 315, 232, 330
-0.998523, 401, 109, 464, 124
-0.998523, 385, 163, 416, 178
-0.998523, 209, 181, 240, 196
-0.998523, 281, 255, 312, 270
-0.998524, 65, 251, 128, 266
-0.998524, 225, 201, 288, 216
-0.998525, 365, 193, 396, 208
-0.998526, 33, 273, 96, 288
-0.998527, 433, 241, 496, 256
-0.998527, 233, 153, 296, 168
-0.998528, 77, 245, 108, 260
-0.998528, 265, 251, 296, 266
-0.998529, 89, 267, 152, 282
-0.998529, 293, 169, 324, 184
-0.99853, 137, 193, 200, 208
-0.99853, 413, 189, 444, 204
-0.99853, 241, 247, 304, 262
-0.998531, 325, 245, 356, 260
-0.998532, 305, 255, 368, 270
-0.998532, 113, 187, 176, 202
-0.998532, 185, 195, 248, 210
-0.998533, 417, 243, 448, 258
-0.998533, 233, 145, 296, 160
-0.998533, 209, 187, 240, 202
-0.998533, 257, 277, 320, 292
-0.998534, 221, 253, 252, 268
-0.998534, 361, 159, 392, 174
-0.998534, 233, 137, 264, 152
-0.998536, 285, 275, 316, 290
-0.998536, 201, 253, 232, 268
-0.998537, 297, 125, 360, 140
-0.998537, 365, 209, 396, 224
-0.998537, 113, 161, 176, 176
-0.998537, 205, 203, 236, 218
-0.998538, 237, 177, 252, 304
-0.998538, 177, 307, 240, 322
-0.998538, 217, 255, 280, 270
-0.998539, 141, 167, 172, 182
-0.998539, 273, 243, 336, 258
-0.99854, 265, 203, 328, 218
-0.998542, 217, 171, 280, 186
-0.998542, 281, 137, 344, 152
-0.998543, 157, 257, 188, 272
-0.998543, 237, 247, 268, 262
-0.998543, 177, 293, 240, 308
-0.998543, 161, 263, 224, 278
-0.998543, 337, 145, 400, 160
-0.998543, 393, 183, 456, 198
-0.998544, 329, 125, 360, 140
-0.998544, 177, 145, 208, 160
-0.998544, 413, 163, 444, 178
-0.998544, 257, 283, 320, 298
-0.998545, 345, 213, 408, 228
-0.998546, 137, 259, 200, 274
-0.998546, 141, 203, 172, 218
-0.998546, 49, 123, 112, 138
-0.998547, 105, 209, 168, 224
-0.998548, 189, 207, 220, 222
-0.998548, 141, 249, 172, 264
-0.998549, 337, 163, 400, 178
-0.998549, 9, 241, 40, 256
-0.99855, 369, 243, 432, 258
-0.998551, 89, 193, 152, 208
-0.998551, 433, 175, 496, 190
-0.998551, 313, 169, 376, 184
-0.998552, 165, 159, 196, 174
-0.998553, 49, 105, 112, 120
-0.998553, 389, 113, 404, 240
-0.998553, 417, 97, 432, 224
-0.998554, 393, 211, 456, 226
-0.998554, 9, 249, 72, 264
-0.998554, 249, 289, 312, 304
-0.998554, 269, 153, 300, 168
-0.998555, 171, 145, 186, 272
-0.998555, 137, 317, 200, 332
-0.998556, 161, 113, 176, 240
-0.998557, 121, 257, 152, 272
-0.998558, 57, 291, 120, 306
-0.998558, 137, 295, 200, 310
-0.99856, 377, 171, 440, 186
-0.998562, 209, 81, 224, 208
-0.998563, 231, 113, 246, 240
-0.998566, 113, 251, 144, 266
-0.998566, 169, 255, 200, 270
-0.998566, 305, 203, 336, 218
-0.998566, 381, 147, 412, 162
-0.998567, 329, 131, 360, 146
-0.998569, 325, 197, 356, 212
-0.998569, 265, 167, 296, 182
-0.998569, 249, 195, 280, 210
-0.998569, 277, 129, 292, 256
-0.99857, 357, 81, 372, 208
-0.998571, 221, 1, 252, 256
-0.998572, 155, 129, 170, 256
-0.998572, 425, 183, 456, 198
-0.998572, 321, 183, 352, 198
-0.998573, 385, 189, 416, 204
-0.998573, 333, 205, 364, 220
-0.998574, 211, 129, 226, 256
-0.998574, 285, 143, 316, 158
-0.998577, 311, 161, 326, 288
-0.998578, 417, 177, 448, 192
-0.998578, 245, 157, 276, 172
-0.998581, 339, 81, 354, 208
-0.998583, 305, 191, 336, 206
-0.998583, 397, 169, 428, 184
-0.998583, 97, 251, 128, 266
-0.998585, 219, 145, 234, 272
-0.998589, 297, 151, 328, 166
-0.998593, 225, 189, 256, 204
-0.998594, 29, 249, 60, 264
-0.998595, 249, 247, 280, 262
-0.998595, 373, 81, 388, 208
-0.998596, 381, 203, 412, 218
-0.998598, 257, 181, 288, 196
-0.9986, 333, 175, 364, 190
-0.998601, 289, 157, 320, 172
-0.998604, 273, 175, 304, 190
-0.998604, 125, 251, 156, 266
-0.998605, 363, 129, 378, 256
-0.998605, 283, 145, 298, 272
-0.998606, 365, 177, 396, 192
-0.998612, 327, 81, 342, 208
-0.998613, 225, 65, 240, 192
-0.998614, 345, 179, 376, 194
-0.998622, 229, 181, 260, 196
-0.998623, 197, 141, 228, 156
-0.998624, 289, 163, 320, 178
-0.998632, 197, 81, 212, 208
-0.998639, 403, 97, 418, 224
-0.998643, 297, 193, 312, 320
-0.998649, 347, 129, 362, 256
-0.998649, 237, 187, 268, 202
-0.99865, 247, 161, 262, 288
-0.998656, 445, 97, 460, 224
-0.998657, 357, 161, 372, 288
-0.998661, 317, 173, 348, 188
-0.998664, 303, 161, 318, 288
-0.998669, 425, 97, 440, 224
-0.998673, 161, 57, 416, 120
-0.998685, 83, 209, 98, 336
-0.998687, 163, 177, 178, 304
-0.998688, 291, 129, 306, 256
-0.998694, 201, 129, 216, 256
-0.998706, 187, 113, 202, 240
-0.998712, 413, 145, 428, 272
-0.998713, 225, 129, 240, 256
-0.998714, 193, 161, 208, 288
-0.998717, 107, 209, 122, 336
-0.998724, 351, 81, 366, 208
-0.998725, 181, 129, 196, 256
-0.998729, 69, 1, 100, 256
-0.998735, 97, 333, 224, 364
-0.998738, 363, 81, 378, 208
-0.998741, 175, 193, 190, 320
-0.998743, 325, 129, 340, 256
-0.998748, 435, 97, 450, 224
-0.998751, 237, 81, 252, 208
-0.998751, 345, 81, 360, 208
-0.998752, 271, 129, 286, 256
-0.998754, 319, 113, 334, 240
-0.998758, 171, 65, 186, 192
-0.99878, 383, 97, 398, 224
-0.998784, 287, 193, 302, 320
-0.998786, 155, 65, 170, 192
-0.998789, 187, 161, 202, 288
-0.998792, 321, 281, 448, 312
-0.998793, 411, 97, 426, 224
-0.998794, 259, 193, 274, 320
-0.998796, 269, 81, 284, 208
-0.998799, 145, 161, 160, 288
-0.9988, 255, 129, 270, 256
-0.998801, 419, 161, 434, 288
-0.998804, 165, 65, 180, 192
-0.998806, 333, 81, 348, 208
-0.998809, 157, 193, 172, 320
-0.998815, 33, 333, 160, 364
-0.99882, 283, 81, 298, 208
-0.99882, 231, 65, 246, 192
-0.998825, 209, 177, 224, 304
-0.998826, 209, 1, 240, 256
-0.998834, 169, 225, 184, 352
-0.998834, 249, 113, 264, 240
-0.998834, 275, 81, 290, 208
-0.998834, 99, 209, 114, 336
-0.998842, 193, 217, 320, 248
-0.998843, 227, 177, 242, 304
-0.998844, 449, 145, 464, 272
-0.998847, 407, 145, 422, 272
-0.998851, 183, 65, 198, 192
-0.998853, 397, 1, 428, 256
-0.998863, 381, 161, 396, 288
-0.998863, 181, 193, 196, 320
-0.998865, 269, 193, 284, 320
-0.998871, 249, 209, 264, 336
-0.998879, 151, 177, 166, 304
-0.998879, 27, 145, 42, 272
-0.99889, 191, 65, 206, 192
-0.99889, 201, 177, 216, 304
-0.99889, 369, 129, 384, 256
-0.998891, 387, 177, 402, 304
-0.9989, 347, 177, 362, 304
-0.998902, 37, 145, 52, 272
-0.998909, 335, 161, 350, 288
-0.998909, 157, 1, 188, 256
-0.998919, 395, 177, 410, 304
-0.998919, 265, 129, 280, 256
-0.998921, 341, 129, 356, 256
-0.998923, 297, 145, 312, 272
-0.998931, 75, 193, 90, 320
-0.998932, 33, 209, 48, 336
-0.998933, 313, 81, 328, 208
-0.998935, 321, 177, 336, 304
-0.998951, 395, 97, 410, 224
-0.998952, 303, 209, 318, 336
-0.998953, 335, 209, 350, 336
-0.998953, 425, 145, 440, 272
-0.998957, 277, 193, 292, 320
-0.998962, 83, 65, 98, 192
-0.998963, 263, 81, 278, 208
-0.998965, 401, 177, 416, 304
-0.998967, 457, 97, 472, 224
-0.99897, 485, 97, 500, 224
-0.99898, 245, 65, 260, 192
-0.99898, 177, 65, 192, 192
-0.998982, 113, 225, 128, 352
-0.998985, 289, 81, 304, 208
-0.998993, 363, 177, 378, 304
-0.998997, 329, 193, 344, 320
-0.999002, 269, 1, 300, 256
-0.999005, 409, 1, 440, 256
-0.999005, 301, 81, 316, 208
-0.99901, 135, 177, 150, 304
-0.999018, 149, 65, 164, 192
-0.999028, 257, 65, 272, 192
-0.999033, 89, 193, 104, 320
-0.999036, 413, 193, 428, 320
-0.999037, 27, 209, 42, 336
-0.999037, 369, 177, 384, 304
-0.999041, 307, 81, 322, 208
-0.999042, 143, 209, 158, 336
-0.999047, 369, 265, 496, 296
-0.999047, 49, 145, 64, 272
-0.999054, 357, 209, 372, 336
-0.999056, 149, 113, 164, 240
-0.99906, 83, 145, 98, 272
-0.999061, 251, 65, 266, 192
-0.999071, 57, 97, 72, 224
-0.99909, 93, 65, 108, 192
-0.999097, 305, 301, 432, 332
-0.999106, 1, 69, 128, 100
-0.999113, 187, 209, 202, 336
-0.999147, 445, 1, 476, 256
-0.999197, 225, 69, 352, 100
-0.999207, 49, 61, 176, 92
-0.999214, 57, 1, 88, 256
-0.999221, 241, 49, 368, 112
-0.999229, 181, 1, 212, 256
-0.999356, 305, 313, 432, 344
-0.999367, 37, 33, 68, 288
-0.999402, 1, 345, 128, 375
-0.999524, 469, 1, 500, 256
-0.999528, 81, 1, 112, 256
-0.999537, 457, 1, 488, 256
-0.999538, 337, 217, 464, 248
-0.999577, 113, 113, 240, 144
-0.999655, 1, 57, 128, 88
-0.99966, 219, 137, 234, 152
-0.99966, 289, 251, 304, 266
-0.999661, 273, 149, 288, 164
-0.999661, 305, 169, 320, 184
-0.999662, 333, 121, 348, 136
-0.999662, 213, 185, 228, 200
-0.999662, 229, 253, 244, 268
-0.999663, 367, 175, 382, 190
-0.999664, 239, 253, 254, 268
-0.999665, 339, 187, 354, 202
-0.999665, 87, 247, 102, 262
-0.999665, 83, 237, 98, 252
-0.999666, 195, 189, 210, 204
-0.999666, 111, 257, 126, 272
-0.999667, 219, 195, 234, 210
-0.999668, 301, 127, 316, 142
-0.999668, 303, 141, 318, 156
-0.999668, 153, 205, 168, 220
-0.999668, 373, 145, 388, 160
-0.999668, 225, 337, 352, 368
-0.999669, 485, 241, 500, 256
-0.99967, 417, 177, 432, 192
-0.999671, 207, 253, 222, 268
-0.999671, 347, 137, 362, 152
-0.999671, 99, 251, 114, 266
-0.999671, 373, 151, 388, 166
-0.999671, 297, 163, 312, 178
-0.999672, 381, 151, 396, 166
-0.999672, 403, 195, 418, 210
-0.999672, 145, 187, 160, 202
-0.999672, 417, 243, 432, 258
-0.999672, 77, 245, 92, 260
-0.999673, 379, 143, 394, 158
-0.999673, 291, 163, 306, 178
-0.999673, 373, 161, 388, 176
-0.999674, 137, 251, 152, 266
-0.999674, 235, 189, 250, 204
-0.999675, 225, 183, 240, 198
-0.999676, 159, 139, 174, 154
-0.999676, 77, 253, 92, 268
-0.999676, 189, 179, 204, 194
-0.999676, 359, 173, 374, 188
-0.999678, 263, 247, 278, 262
-0.999678, 219, 185, 234, 200
-0.999679, 243, 209, 258, 224
-0.99968, 177, 255, 192, 270
-0.99968, 185, 257, 200, 272
-0.99968, 233, 247, 248, 262
-0.999681, 223, 307, 238, 322
-0.999681, 215, 143, 230, 158
-0.999681, 281, 255, 296, 270
-0.999681, 409, 171, 424, 186
-0.999682, 357, 147, 372, 162
-0.999682, 313, 177, 328, 192
-0.999683, 235, 137, 250, 152
-0.999683, 107, 251, 122, 266
-0.999684, 197, 203, 212, 218
-0.999685, 281, 167, 296, 182
-0.999685, 223, 253, 238, 268
-0.999685, 145, 257, 160, 272
-0.999686, 155, 255, 170, 270
-0.999686, 107, 245, 122, 260
-0.999686, 29, 223, 44, 238
-0.999687, 213, 179, 228, 194
-0.999688, 275, 167, 290, 182
-0.999688, 355, 251, 370, 266
-0.999689, 171, 257, 186, 272
-0.999689, 153, 249, 168, 264
-0.999689, 271, 255, 286, 270
-0.999689, 137, 189, 152, 204
-0.99969, 403, 189, 418, 204
-0.99969, 269, 205, 284, 220
-0.99969, 327, 167, 342, 182
-0.999691, 229, 189, 244, 204
-0.999693, 219, 173, 234, 188
-0.999694, 363, 245, 378, 260
-0.999695, 297, 141, 312, 156
-0.999695, 243, 181, 258, 196
-0.999695, 129, 33, 256, 96
-0.999696, 193, 253, 208, 268
-0.999696, 245, 253, 260, 268
-0.999699, 273, 261, 288, 276
-0.9997, 17, 33, 48, 288
-0.9997, 135, 257, 150, 272
-0.9997, 39, 249, 54, 264
-0.999701, 311, 151, 326, 166
-0.999701, 281, 181, 296, 196
-0.999703, 433, 181, 448, 196
-0.999703, 139, 203, 154, 218
-0.999703, 257, 195, 272, 210
-0.999703, 323, 249, 338, 264
-0.999704, 201, 253, 216, 268
-0.999704, 301, 133, 316, 148
-0.999704, 397, 147, 412, 162
-0.999704, 215, 257, 230, 272
-0.999705, 155, 171, 170, 186
-0.999707, 301, 147, 316, 162
-0.999707, 401, 165, 416, 180
-0.99971, 281, 151, 296, 166
-0.999712, 333, 247, 348, 262
-0.999712, 113, 251, 128, 266
-0.999713, 343, 247, 358, 262
-0.999715, 353, 179, 368, 194
-0.999715, 219, 179, 234, 194
-0.999715, 269, 199, 284, 214
-0.999717, 247, 155, 262, 170
-0.999717, 323, 193, 338, 208
-0.999717, 257, 251, 272, 266
-0.999718, 165, 259, 180, 274
-0.999718, 305, 157, 320, 172
-0.999721, 335, 127, 350, 142
-0.999721, 155, 177, 170, 192
-0.999721, 241, 247, 256, 262
-0.999723, 289, 171, 304, 186
-0.999727, 295, 135, 310, 150
-0.999728, 245, 137, 260, 152
-0.99973, 325, 205, 340, 220
-0.99973, 275, 179, 290, 194
-0.999732, 129, 255, 144, 270
-0.999735, 329, 173, 344, 188
-0.999736, 251, 249, 266, 264
-0.999736, 127, 249, 142, 264
-0.999737, 343, 177, 358, 192
-0.999738, 273, 325, 400, 356
-0.999738, 97, 345, 224, 375
-0.999745, 275, 207, 290, 222
-0.999747, 281, 175, 296, 190
-0.999747, 121, 257, 136, 272
-0.999751, 121, 251, 136, 266
-0.999751, 1, 33, 32, 288
-0.999754, 353, 245, 368, 260
-0.999758, 263, 195, 278, 210
-0.999759, 143, 251, 158, 266
-0.999762, 319, 173, 334, 188
-0.999767, 337, 173, 352, 188
-0.99977, 253, 189, 268, 204
-0.999801, 305, 85, 432, 116
-0.999806, 57, 1, 120, 128
-1.00002, 257, 57, 500, 120
-1.00031, 337, 57, 464, 120
-1.00062, 97, 33, 352, 96
-1.00159, 1, 49, 500, 112
-1.00187, 1, 33, 256, 96
-1.00197, 1, 9, 256, 72
-1.00211, 193, 17, 448, 80
-1.00212, 97, 1, 352, 64
-1.00222, 225, 1, 480, 128
-1.00257, 65, 17, 192, 80
-1.00283, 177, 17, 304, 80
-1.00284, 289, 49, 416, 112
-1.00291, 17, 1, 144, 64
-1.00291, 129, 1, 256, 64
-1.00291, 273, 1, 400, 64
-1.00291, 321, 1, 448, 64
-1.00291, 225, 9, 352, 72
-1.00291, 369, 9, 496, 72
-1.00291, 273, 25, 400, 88
-1.00291, 321, 25, 448, 88
-1.00291, 369, 33, 496, 96
-1.00387, 1, 9, 500, 72
-1.00907, 369, 1, 496, 128
-1.01018, 361, 1, 424, 128
-1.01056, 33, 1, 96, 128
-1.01489, 9, 1, 72, 128
-1.01655, 401, 1, 464, 128
-1.01857, 425, 1, 488, 128
