1863
-0.309435, 1, 1, 318, 480
-0.401033, 1, 161, 318, 416
-0.453986, 1, 1, 256, 480
-0.462968, 1, 65, 318, 320
-0.550002, 65, 97, 318, 352
-0.663952, 65, 1, 318, 256
-0.685296, 1, 193, 256, 448
-0.84499, 113, 1, 240, 480
-0.861629, 193, 129, 318, 384
-0.863282, 33, 1, 160, 480
-0.868245, 97, 129, 224, 384
-0.868366, 177, 1, 304, 480
-0.871637, 129, 1, 256, 256
-0.874934, 1, 337, 318, 464
-0.880429, 81, 1, 208, 256
-0.88378, 1, 209, 318, 336
-0.885224, 161, 225, 288, 480
-0.891373, 1, 161, 318, 288
-0.894068, 33, 161, 160, 416
-0.89488, 1, 81, 318, 208
-0.895497, 177, 33, 304, 288
-0.896021, 1, 33, 318, 160
-0.901073, 33, 193, 288, 320
-0.902873, 145, 129, 272, 384
-0.90511, 33, 337, 288, 464
-0.905802, 81, 225, 208, 480
-0.910817, 33, 65, 160, 320
-0.91123, 1, 257, 318, 384
-0.920988, 129, 337, 256, 464
-0.925851, 81, 337, 208, 464
-0.926906, 65, 145, 318, 272
-0.92867, 193, 161, 318, 288
-0.935053, 113, 353, 176, 480
-0.935864, 33, 289, 288, 416
-0.936743, 65, 97, 318, 224
-0.936751, 89, 273, 152, 400
-0.937808, 153, 321, 216, 448
-0.938241, 33, 337, 160, 464
-0.938345, 105, 177, 168, 304
-0.939679, 33, 17, 288, 144
-0.9405, 209, 161, 272, 288
-0.941118, 257, 161, 318, 288
-0.942247, 1, 161, 128, 288
-0.943692, 193, 225, 318, 352
-0.943805, 113, 113, 240, 240
-0.943896, 65, 241, 318, 368
-0.944453, 177, 65, 304, 192
-0.944587, 185, 161, 248, 288
-0.944687, 209, 337, 272, 464
-0.945005, 241, 81, 304, 208
-0.946646, 177, 337, 304, 464
-0.946843, 33, 289, 160, 416
-0.947237, 41, 337, 104, 464
-0.947503, 169, 209, 232, 336
-0.947544, 129, 177, 256, 304
-0.948379, 81, 289, 208, 416
-0.949731, 65, 353, 128, 480
-0.94981, 121, 97, 184, 224
-0.950695, 129, 289, 256, 416
-0.951107, 33, 209, 160, 336
-0.951256, 209, 225, 272, 352
-0.952117, 81, 177, 144, 304
-0.952127, 233, 161, 296, 288
-0.952313, 9, 337, 72, 464
-0.952887, 177, 321, 240, 448
-0.953218, 145, 129, 208, 256
-0.953287, 81, 177, 208, 304
-0.953634, 153, 409, 216, 472
-0.95396, 177, 1, 304, 128
-0.954641, 217, 81, 280, 208
-0.954677, 121, 401, 184, 464
-0.955265, 193, 329, 256, 392
-0.955773, 129, 241, 192, 368
-0.955783, 73, 185, 136, 248
-0.955904, 1, 201, 64, 264
-0.956267, 169, 201, 232, 264
-0.9564, 81, 129, 144, 256
-0.956522, 57, 145, 120, 272
-0.956582, 113, 17, 240, 144
-0.956878, 89, 337, 152, 464
-0.957103, 65, 113, 192, 240
-0.957488, 65, 1, 192, 128
-0.957541, 169, 257, 232, 384
-0.957654, 161, 345, 224, 408
-0.957755, 193, 113, 318, 240
-0.958974, 121, 345, 184, 408
-0.959251, 81, 1, 144, 128
-0.959265, 209, 33, 272, 160
-0.959667, 193, 177, 256, 240
-0.959684, 201, 241, 264, 304
-0.959773, 185, 81, 248, 208
-0.959985, 209, 409, 272, 472
-0.960188, 257, 225, 318, 352
-0.960718, 89, 225, 152, 352
-0.961039, 25, 201, 88, 264
-0.961117, 1, 225, 64, 288
-0.961314, 89, 313, 152, 376
-0.96137, 129, 97, 192, 160
-0.961382, 161, 385, 224, 448
-0.961422, 113, 241, 240, 368
-0.961637, 65, 241, 128, 368
-0.961642, 49, 209, 112, 272
-0.961707, 145, 321, 208, 384
-0.96177, 193, 385, 256, 448
-0.962342, 153, 81, 216, 208
-0.963287, 97, 201, 160, 264
-0.963668, 233, 393, 296, 456
-0.963779, 153, 17, 216, 144
-0.964079, 257, 169, 318, 232
-0.964399, 41, 417, 104, 480
-0.964465, 257, 17, 318, 144
-0.964709, 177, 225, 240, 288
-0.964901, 49, 393, 112, 456
-0.965027, 233, 417, 296, 480
-0.965044, 1, 17, 128, 144
-0.965254, 169, 265, 232, 328
-0.965265, 129, 305, 192, 432
-0.965602, 153, 393, 184, 456
-0.965719, 65, 289, 128, 416
-0.96595, 145, 177, 208, 304
-0.965975, 193, 273, 318, 400
-0.966041, 129, 65, 256, 192
-0.966147, 89, 289, 152, 352
-0.96623, 121, 73, 184, 136
-0.966543, 97, 97, 160, 160
-0.966771, 145, 393, 272, 456
-0.966777, 65, 161, 128, 224
-0.966795, 113, 17, 176, 144
-0.966803, 233, 241, 296, 304
-0.966842, 97, 81, 160, 208
-0.966904, 225, 137, 288, 200
-0.967183, 17, 401, 80, 464
-0.967345, 33, 65, 160, 192
-0.967625, 57, 193, 120, 320
-0.967821, 249, 337, 312, 464
-0.968004, 193, 193, 224, 256
-0.968062, 193, 273, 256, 400
-0.968271, 73, 209, 136, 272
-0.968442, 289, 161, 318, 288
-0.968514, 233, 209, 296, 336
-0.968574, 25, 225, 88, 288
-0.96883, 49, 185, 112, 248
-0.968916, 133, 337, 164, 464
-0.969171, 169, 321, 232, 384
-0.969177, 257, 393, 318, 456
-0.96922, 101, 185, 132, 248
-0.969303, 209, 57, 272, 120
-0.969517, 121, 121, 184, 184
-0.969588, 153, 105, 216, 168
-0.969724, 89, 73, 152, 136
-0.969781, 177, 1, 240, 128
-0.969873, 257, 241, 318, 304
-0.970036, 177, 409, 240, 472
-0.97012, 41, 337, 104, 400
-0.970152, 209, 65, 272, 320
-0.970256, 169, 81, 232, 144
-0.97056, 17, 177, 80, 304
-0.97077, 25, 1, 88, 128
-0.970833, 121, 377, 184, 440
-0.970846, 217, 345, 280, 408
-0.97093, 249, 329, 312, 392
-0.970935, 97, 345, 160, 408
-0.971038, 97, 225, 160, 288
-0.971053, 105, 177, 168, 240
-0.971316, 185, 105, 248, 168
-0.971505, 129, 329, 256, 392
-0.971534, 97, 177, 128, 304
-0.97156, 81, 65, 208, 192
-0.971717, 153, 161, 216, 224
-0.971933, 169, 193, 232, 448
-0.971943, 217, 161, 280, 416
-0.972072, 113, 177, 144, 304
-0.972206, 57, 233, 120, 296
-0.972276, 193, 305, 256, 368
-0.972304, 257, 129, 318, 384
-0.972509, 145, 209, 208, 272
-0.972523, 97, 177, 224, 240
-0.972536, 25, 177, 88, 240
-0.972574, 185, 153, 248, 216
-0.972834, 217, 81, 280, 144
-0.972839, 193, 241, 318, 304
-0.973151, 153, 353, 184, 480
-0.97318, 41, 289, 104, 416
-0.973199, 113, 145, 176, 208
-0.973202, 217, 169, 280, 232
-0.973351, 129, 417, 256, 480
-0.973406, 193, 161, 256, 416
-0.973437, 73, 393, 136, 456
-0.973485, 65, 393, 192, 456
-0.973485, 49, 49, 112, 176
-0.973593, 33, 193, 160, 256
-0.973686, 177, 65, 240, 320
-0.973716, 241, 73, 304, 136
-0.973723, 89, 161, 152, 416
-0.973769, 213, 161, 244, 288
-0.973911, 1, 113, 128, 240
-0.974151, 89, 265, 152, 328
-0.974202, 113, 201, 240, 264
-0.974272, 65, 321, 128, 384
-0.974521, 1, 241, 64, 368
-0.974568, 121, 1, 184, 256
-0.974624, 121, 321, 184, 384
-0.974689, 177, 321, 208, 384
-0.974783, 181, 185, 212, 248
-0.974822, 81, 329, 208, 392
-0.975032, 193, 177, 224, 304
-0.975069, 257, 49, 318, 112
-0.975128, 89, 201, 120, 264
-0.975227, 209, 33, 272, 96
-0.975271, 257, 417, 318, 480
-0.975361, 65, 273, 128, 336
-0.975549, 193, 417, 318, 480
-0.975626, 233, 41, 296, 104
-0.975628, 149, 417, 180, 480
-0.975673, 249, 81, 280, 208
-0.975746, 129, 353, 256, 416
-0.975795, 1, 177, 64, 240
-0.975818, 49, 97, 112, 224
-0.97583, 73, 345, 136, 408
-0.975889, 249, 145, 312, 208
-0.975999, 169, 409, 200, 472
-0.97606, 13, 217, 44, 280
-0.976062, 237, 409, 268, 472
-0.976108, 97, 393, 160, 456
-0.976193, 133, 345, 164, 408
-0.976204, 209, 105, 272, 168
-0.97626, 137, 417, 168, 480
-0.976261, 133, 129, 164, 256
-0.976341, 17, 217, 144, 280
-0.976469, 197, 385, 228, 448
-0.976559, 201, 201, 264, 264
-0.976639, 97, 225, 128, 352
-0.976676, 197, 217, 228, 280
-0.976708, 145, 137, 208, 200
-0.976786, 73, 9, 136, 72
-0.976798, 49, 409, 80, 472
-0.976898, 177, 329, 304, 392
-0.977283, 129, 177, 192, 240
-0.977284, 73, 337, 104, 464
-0.977402, 81, 417, 208, 480
-0.977422, 257, 161, 288, 288
-0.977466, 277, 161, 308, 288
-0.977467, 185, 345, 216, 408
-0.977604, 233, 65, 296, 320
-0.977617, 177, 321, 208, 448
-0.977741, 205, 177, 236, 240
-0.977786, 133, 89, 164, 152
-0.977849, 97, 1, 160, 64
-0.977975, 113, 193, 144, 256
-0.978042, 153, 65, 216, 320
-0.978076, 33, 321, 160, 384
-0.9781, 145, 233, 208, 296
-0.978169, 177, 169, 304, 232
-0.978283, 245, 161, 276, 288
-0.978417, 129, 65, 160, 192
-0.978449, 1, 345, 128, 408
-0.978496, 213, 241, 244, 304
-0.978501, 289, 169, 318, 232
-0.978522, 57, 1, 120, 128
-0.978529, 89, 177, 120, 240
-0.978582, 257, 393, 288, 456
-0.978611, 57, 97, 120, 352
-0.978656, 33, 337, 64, 464
-0.978697, 177, 353, 304, 416
-0.978699, 129, 225, 256, 288
-0.978699, 1, 249, 64, 312
-0.97879, 73, 81, 136, 208
-0.978831, 89, 321, 120, 384
-0.978853, 193, 353, 256, 416
-0.978894, 145, 89, 272, 152
-0.978904, 17, 49, 80, 176
-0.978926, 113, 97, 176, 352
-0.97894, 209, 273, 272, 336
-0.978965, 65, 297, 128, 360
-0.979056, 113, 273, 144, 400
-0.979123, 29, 225, 60, 288
-0.979165, 25, 129, 88, 256
-0.979229, 197, 273, 228, 400
-0.979331, 81, 97, 208, 160
-0.979332, 81, 353, 208, 416
-0.979339, 17, 345, 80, 408
-0.979347, 233, 1, 296, 128
-0.979419, 177, 57, 304, 120
-0.979472, 273, 241, 304, 304
-0.979486, 129, 1, 192, 480
-0.979555, 165, 321, 196, 448
-0.979643, 89, 321, 120, 448
-0.979657, 17, 169, 144, 232
-0.979692, 241, 97, 304, 160
-0.979784, 137, 121, 168, 184
-0.979793, 89, 153, 152, 216
-0.979851, 85, 145, 116, 272
-0.979878, 89, 1, 152, 256
-0.979949, 241, 217, 304, 280
-0.979994, 121, 337, 152, 464
-0.98006, 65, 81, 128, 144
-0.980133, 193, 393, 318, 456
-0.980167, 185, 57, 248, 120
-0.980184, 101, 209, 132, 272
-0.98025, 121, 321, 152, 384
-0.980279, 65, 209, 96, 272
-0.980385, 193, 217, 318, 280
-0.980392, 177, 145, 304, 208
-0.980519, 197, 329, 228, 392
-0.980553, 261, 241, 292, 304
-0.980612, 17, 241, 144, 304
-0.980616, 25, 249, 88, 312
-0.98065, 77, 209, 108, 272
-0.980658, 113, 129, 144, 256
-0.980677, 113, 169, 144, 232
-0.980817, 49, 57, 112, 120
-0.980826, 149, 369, 180, 432
-0.980892, 233, 137, 264, 200
-0.980913, 129, 9, 192, 72
-0.980921, 49, 361, 112, 424
-0.980945, 289, 225, 318, 352
-0.981031, 5, 193, 36, 256
-0.981045, 225, 321, 288, 384
-0.981273, 113, 153, 240, 216
-0.981284, 121, 97, 152, 160
-0.981289, 17, 337, 48, 464
-0.981349, 177, 1, 240, 64
-0.981425, 261, 81, 292, 208
-0.981447, 225, 409, 256, 472
-0.981464, 25, 201, 56, 264
-0.981553, 169, 385, 200, 448
-0.981564, 153, 97, 184, 160
-0.981586, 65, 417, 128, 480
-0.981663, 213, 225, 244, 352
-0.98167, 129, 305, 256, 368
-0.9817, 249, 417, 280, 480
-0.981892, 249, 17, 312, 80
-0.982032, 145, 345, 176, 408
-0.982067, 65, 233, 192, 296
-0.982152, 1, 321, 64, 384
-0.982167, 69, 393, 100, 456
-0.98217, 113, 265, 240, 328
-0.982289, 237, 81, 268, 208
-0.9823, 65, 137, 128, 200
-0.982318, 37, 201, 68, 264
-0.982384, 129, 113, 256, 176
-0.982393, 249, 121, 312, 184
-0.982412, 1, 177, 32, 304
-0.982447, 237, 337, 268, 400
-0.982449, 277, 81, 308, 208
-0.982472, 145, 73, 208, 136
-0.982477, 145, 161, 208, 416
-0.98254, 113, 73, 144, 136
-0.982562, 89, 417, 152, 480
-0.98257, 121, 249, 184, 312
-0.982598, 1, 409, 128, 472
-0.982607, 197, 113, 228, 240
-0.982622, 241, 385, 272, 448
-0.982649, 201, 129, 264, 192
-0.982663, 41, 273, 104, 336
-0.982667, 217, 177, 248, 240
-0.982745, 153, 97, 184, 224
-0.982747, 277, 225, 308, 352
-0.982782, 45, 337, 76, 464
-0.982794, 233, 161, 264, 288
-0.982859, 61, 337, 92, 464
-0.982861, 209, 385, 240, 448
-0.982935, 205, 321, 236, 448
-0.983007, 193, 193, 318, 256
-0.983016, 181, 193, 212, 320
-0.983169, 137, 17, 168, 144
-0.983192, 141, 393, 172, 456
-0.983211, 77, 185, 108, 248
-0.983261, 129, 393, 160, 456
-0.98328, 113, 225, 144, 352
-0.983324, 81, 33, 144, 96
-0.983348, 193, 97, 318, 160
-0.983376, 1, 73, 128, 136
-0.983379, 125, 177, 156, 304
-0.983405, 1, 217, 32, 280
-0.983453, 33, 297, 160, 360
-0.983534, 193, 81, 256, 144
-0.98355, 289, 97, 318, 224
-0.98365, 193, 1, 256, 480
-0.983651, 113, 289, 144, 352
-0.983692, 53, 185, 84, 248
-0.983748, 153, 1, 216, 64
-0.983916, 273, 393, 304, 456
-0.983922, 105, 1, 168, 480
-0.983945, 97, 121, 160, 184
-0.984021, 69, 337, 100, 400
-0.984137, 81, 305, 208, 368
-0.984141, 193, 409, 224, 472
-0.984166, 65, 193, 128, 448
-0.984171, 233, 1, 296, 480
-0.984204, 65, 185, 96, 248
-0.98421, 193, 273, 318, 336
-0.98427, 125, 289, 156, 416
-0.984287, 141, 81, 172, 208
-0.984295, 65, 73, 192, 136
-0.984313, 201, 9, 264, 72
-0.984475, 9, 161, 72, 416
-0.98451, 129, 297, 192, 360
-0.984526, 81, 1, 208, 64
-0.984538, 121, 201, 184, 264
-0.984543, 241, 41, 272, 104
-0.984577, 285, 329, 316, 392
-0.984581, 41, 313, 104, 376
-0.984635, 165, 89, 196, 152
-0.984644, 1, 57, 64, 120
-0.984702, 169, 297, 232, 360
-0.984706, 113, 25, 240, 88
-0.98471, 229, 353, 260, 480
-0.984734, 177, 25, 240, 88
-0.984838, 49, 217, 80, 280
-0.984858, 33, 33, 96, 96
-0.984888, 37, 401, 68, 464
-0.984923, 97, 129, 128, 256
-0.98498, 169, 1, 232, 480
-0.985035, 217, 337, 248, 464
-0.985047, 117, 145, 148, 208
-0.985095, 241, 353, 304, 416
-0.985102, 217, 289, 280, 416
-0.985129, 101, 289, 132, 416
-0.985134, 149, 121, 180, 184
-0.985146, 81, 1, 144, 480
-0.985181, 101, 161, 132, 224
-0.985211, 257, 265, 318, 328
-0.985234, 253, 145, 284, 208
-0.985242, 89, 273, 120, 336
-0.985247, 1, 1, 64, 128
-0.985252, 17, 273, 144, 336
-0.98528, 269, 169, 300, 232
-0.98528, 289, 241, 318, 304
-0.985325, 205, 409, 236, 472
-0.985329, 33, 225, 96, 352
-0.985352, 249, 241, 280, 304
-0.985376, 125, 185, 156, 248
-0.985385, 85, 257, 116, 384
-0.985472, 25, 345, 56, 408
-0.985497, 85, 209, 116, 336
-0.98553, 181, 409, 212, 472
-0.985532, 65, 25, 192, 88
-0.985533, 177, 33, 304, 96
-0.985538, 13, 193, 44, 320
-0.985558, 229, 385, 260, 448
-0.985569, 105, 25, 168, 88
-0.985578, 285, 417, 316, 480
-0.985637, 217, 345, 248, 408
-0.985663, 177, 129, 240, 192
-0.985676, 181, 65, 212, 192
-0.985694, 249, 329, 280, 392
-0.985697, 193, 353, 224, 480
-0.985714, 133, 321, 164, 384
-0.985722, 61, 417, 92, 480
-0.985753, 289, 201, 318, 264
-0.985801, 177, 305, 304, 368
-0.985802, 257, 33, 318, 288
-0.985805, 113, 17, 144, 144
-0.985838, 197, 305, 228, 368
-0.98589, 113, 225, 144, 288
-0.985943, 233, 241, 264, 304
-0.985963, 185, 217, 216, 280
-0.985982, 1, 17, 128, 80
-0.98599, 201, 241, 232, 304
-0.98601, 17, 377, 80, 440
-0.98601, 213, 97, 244, 224
-0.986019, 289, 393, 318, 456
-0.986054, 209, 201, 240, 264
-0.986139, 185, 369, 216, 432
-0.986147, 57, 33, 120, 96
-0.986185, 81, 345, 112, 408
-0.986222, 113, 65, 240, 128
-0.986229, 33, 97, 160, 160
-0.986229, 201, 33, 232, 160
-0.986232, 249, 169, 280, 232
-0.986261, 213, 105, 244, 168
-0.986269, 1, 289, 64, 416
-0.986305, 157, 337, 188, 400
-0.986368, 161, 361, 192, 424
-0.986383, 249, 65, 280, 128
-0.986389, 57, 1, 120, 480
-0.986399, 265, 225, 296, 352
-0.986406, 53, 385, 84, 448
-0.986482, 193, 161, 224, 224
-0.986531, 197, 81, 228, 144
-0.986763, 17, 241, 48, 304
-0.986773, 217, 153, 248, 216
-0.986815, 33, 1, 96, 64
-0.986856, 89, 1, 120, 128
-0.986879, 121, 353, 152, 416
-0.986954, 153, 25, 216, 88
-0.986958, 213, 321, 244, 384
-0.986962, 173, 217, 204, 280
-0.986992, 249, 337, 280, 464
-0.987061, 177, 129, 208, 256
-0.987069, 101, 337, 132, 464
-0.987099, 81, 121, 208, 184
-0.987163, 185, 81, 216, 144
-0.987207, 241, 225, 304, 480
-0.987262, 1, 409, 32, 472
-0.987289, 65, 145, 192, 208
-0.987297, 65, 257, 192, 320
-0.98733, 173, 273, 204, 400
-0.987347, 89, 225, 120, 288
-0.987434, 105, 257, 136, 320
-0.98754, 229, 17, 260, 144
-0.987544, 125, 121, 156, 184
-0.987549, 253, 225, 284, 352
-0.987616, 209, 65, 240, 128
-0.987621, 137, 145, 168, 208
-0.987625, 173, 17, 204, 144
-0.987635, 261, 49, 292, 112
-0.98764, 73, 177, 104, 304
-0.987653, 261, 417, 292, 480
-0.987683, 1, 241, 32, 304
-0.987693, 81, 297, 112, 360
-0.987709, 137, 369, 168, 432
-0.987727, 189, 1, 220, 128
-0.987777, 273, 417, 304, 480
-0.98778, 41, 337, 72, 400
-0.987801, 1, 129, 64, 256
-0.987838, 241, 105, 272, 168
-0.98785, 145, 305, 176, 432
-0.987858, 61, 161, 92, 288
-0.987866, 193, 341, 256, 372
-0.987875, 273, 1, 304, 128
-0.987936, 177, 121, 304, 184
-0.987982, 145, 1, 272, 64
-0.987995, 181, 161, 212, 224
-0.988013, 185, 241, 216, 304
-0.988078, 249, 33, 280, 160
-0.988101, 261, 89, 292, 152
-0.988147, 85, 393, 116, 456
-0.988149, 285, 1, 316, 128
-0.988211, 213, 49, 244, 176
-0.988224, 33, 201, 288, 264
-0.988258, 257, 273, 318, 400
-0.988286, 229, 33, 260, 96
-0.988305, 261, 33, 292, 160
-0.988337, 241, 209, 272, 336
-0.988338, 33, 1, 96, 480
-0.988347, 29, 177, 60, 240
-0.988381, 193, 105, 224, 168
-0.988434, 109, 81, 140, 208
-0.988443, 289, 337, 318, 464
-0.988463, 197, 225, 228, 352
-0.988503, 33, 161, 96, 416
-0.988529, 225, 113, 256, 240
-0.988551, 101, 393, 132, 456
-0.988613, 37, 1, 68, 128
-0.988613, 225, 225, 256, 352
-0.988642, 41, 177, 72, 304
-0.988668, 17, 205, 80, 236
-0.988723, 81, 345, 144, 376
-0.988765, 153, 345, 216, 376
-0.988781, 1, 337, 32, 464
-0.988948, 25, 193, 56, 320
-0.988956, 1, 49, 128, 112
-0.988964, 73, 209, 136, 240
-0.988971, 33, 329, 288, 392
-0.988985, 41, 345, 104, 376
-0.989023, 17, 409, 80, 440
-0.989023, 193, 1, 318, 64
-0.989048, 133, 241, 164, 368
-0.989072, 129, 345, 192, 376
-0.989144, 125, 17, 156, 144
-0.989208, 101, 1, 132, 128
-0.989216, 145, 409, 208, 440
-0.989295, 121, 405, 184, 436
-0.989372, 49, 225, 112, 256
-0.989385, 1, 1, 64, 480
-0.989396, 113, 97, 176, 128
-0.989403, 73, 289, 104, 416
-0.989406, 105, 345, 168, 376
-0.989417, 89, 297, 152, 328
-0.989462, 233, 405, 296, 436
-0.989512, 129, 421, 192, 452
-0.989551, 145, 145, 176, 272
-0.9896, 17, 385, 144, 448
-0.989618, 261, 353, 292, 480
-0.98963, 41, 409, 104, 440
-0.98966, 169, 233, 232, 264
-0.989664, 25, 217, 88, 248
-0.989665, 57, 193, 120, 224
-0.989694, 145, 397, 208, 428
-0.989703, 81, 197, 144, 228
-0.989719, 113, 193, 176, 448
-0.98976, 17, 137, 144, 200
-0.989831, 121, 357, 184, 388
-0.989833, 169, 325, 232, 356
-0.989834, 209, 405, 272, 436
-0.989909, 233, 345, 296, 376
-0.98991, 161, 205, 224, 236
-0.989941, 41, 421, 104, 452
-0.989993, 1, 241, 32, 368
-0.990032, 33, 401, 288, 464
-0.990049, 9, 229, 72, 260
-0.990097, 1, 65, 64, 320
-0.990112, 169, 357, 232, 388
-0.990118, 1, 401, 318, 464
-0.990132, 137, 449, 200, 480
-0.990174, 49, 209, 112, 240
-0.990219, 209, 353, 272, 384
-0.990241, 209, 177, 272, 208
-0.990273, 145, 333, 208, 364
-0.990307, 97, 229, 160, 260
-0.99031, 169, 221, 232, 252
-0.990317, 249, 449, 312, 480
-0.990319, 105, 417, 168, 448
-0.99032, 153, 421, 216, 452
-0.99033, 69, 113, 100, 240
-0.990355, 201, 245, 264, 276
-0.990359, 97, 209, 160, 240
-0.990413, 185, 397, 248, 428
-0.990421, 169, 269, 232, 300
-0.990427, 165, 65, 196, 192
-0.99043, 193, 449, 256, 480
-0.990439, 217, 421, 280, 452
-0.990457, 33, 193, 96, 224
-0.990461, 81, 185, 144, 216
-0.990466, 257, 241, 318, 272
-0.990467, 73, 229, 136, 260
-0.990489, 257, 345, 318, 376
-0.990522, 17, 345, 80, 376
-0.990543, 113, 177, 176, 208
-0.990563, 81, 97, 112, 224
-0.990595, 1, 217, 64, 248
-0.990635, 17, 397, 80, 428
-0.990646, 89, 309, 152, 340
-0.99065, 185, 181, 248, 212
-0.990652, 169, 409, 232, 440
-0.99066, 105, 197, 168, 228
-0.990664, 65, 401, 128, 432
-0.99073, 89, 77, 152, 108
-0.99077, 177, 193, 240, 224
-0.990803, 33, 449, 96, 480
-0.990808, 97, 333, 160, 364
-0.990818, 33, 225, 288, 288
-0.990821, 25, 241, 88, 272
-0.990828, 17, 421, 80, 452
-0.990831, 65, 49, 192, 112
-0.990856, 69, 1, 100, 128
-0.990858, 289, 49, 318, 176
-0.990867, 153, 193, 216, 224
-0.990873, 257, 177, 318, 208
-0.990883, 65, 417, 128, 448
-0.990897, 9, 357, 72, 388
-0.990914, 1, 193, 64, 224
-0.99092, 217, 105, 280, 136
-0.990987, 53, 65, 84, 192
-0.991002, 81, 449, 144, 480
-0.991007, 241, 417, 304, 448
-0.991015, 121, 121, 184, 152
-0.991027, 1, 245, 64, 276
-0.991029, 193, 417, 256, 448
-0.991034, 153, 89, 216, 120
-0.991047, 145, 229, 208, 260
-0.991067, 65, 1, 128, 256
-0.991069, 257, 405, 318, 436
-0.99108, 65, 145, 318, 208
-0.99108, 41, 397, 104, 428
-0.991081, 121, 133, 184, 164
-0.991084, 161, 385, 224, 416
-0.991098, 217, 85, 280, 116
-0.991106, 165, 113, 196, 240
-0.991116, 209, 61, 272, 92
-0.991131, 153, 1, 184, 128
-0.991151, 225, 133, 288, 164
-0.991173, 113, 85, 176, 116
-0.99118, 73, 173, 136, 204
-0.99123, 153, 177, 216, 208
-0.991247, 81, 285, 144, 316
-0.991252, 89, 109, 152, 140
-0.991262, 57, 357, 120, 388
-0.991263, 257, 117, 318, 148
-0.991268, 193, 329, 256, 360
-0.991278, 241, 81, 304, 112
-0.991281, 201, 229, 264, 260
-0.991282, 129, 345, 256, 376
-0.991295, 185, 209, 248, 240
-0.991308, 145, 365, 208, 396
-0.991371, 49, 237, 112, 268
-0.991433, 121, 389, 184, 420
-0.991459, 177, 281, 240, 312
-0.991468, 169, 193, 200, 320
-0.991469, 209, 45, 272, 76
-0.991471, 177, 89, 240, 120
-0.991484, 209, 73, 272, 104
-0.991522, 257, 1, 318, 480
-0.991532, 121, 109, 184, 140
-0.991537, 33, 357, 96, 388
-0.991571, 49, 181, 112, 212
-0.991574, 97, 241, 160, 272
-0.991578, 277, 353, 308, 480
-0.991602, 129, 193, 192, 224
-0.991608, 145, 217, 208, 248
-0.991635, 177, 257, 240, 288
-0.991639, 161, 433, 224, 464
-0.991644, 81, 93, 144, 124
-0.991651, 209, 165, 272, 196
-0.991654, 97, 405, 160, 436
-0.991684, 201, 257, 264, 288
-0.9917, 49, 285, 112, 316
-0.991705, 185, 69, 248, 100
-0.991711, 137, 245, 200, 276
-0.991712, 121, 333, 184, 364
-0.991712, 209, 389, 272, 420
-0.991731, 161, 109, 224, 140
-0.991734, 81, 345, 208, 376
-0.991746, 105, 165, 168, 196
-0.991762, 233, 241, 296, 272
-0.991764, 57, 1, 88, 128
-0.991769, 153, 165, 216, 196
-0.991771, 65, 81, 128, 112
-0.991783, 129, 313, 192, 344
-0.99181, 129, 437, 192, 468
-0.991814, 257, 97, 318, 128
-0.991823, 145, 141, 208, 172
-0.991827, 153, 401, 184, 432
-0.991844, 1, 193, 318, 256
-0.99196, 133, 345, 164, 376
-0.991969, 213, 1, 244, 128
-0.991982, 181, 193, 212, 224
-0.992034, 109, 197, 140, 228
-0.992081, 145, 405, 272, 436
-0.99211, 189, 205, 220, 236
-0.992144, 33, 177, 288, 240
-0.992144, 185, 241, 216, 368
-0.992173, 237, 405, 268, 436
-0.992216, 193, 225, 224, 256
-0.992223, 49, 409, 80, 440
-0.992287, 93, 213, 124, 244
-0.992315, 153, 49, 184, 176
-0.992331, 25, 65, 88, 320
-0.992342, 197, 345, 228, 376
-0.992352, 89, 201, 120, 232
-0.992375, 113, 185, 128, 248
-0.992399, 217, 289, 248, 416
-0.99241, 13, 213, 44, 244
-0.992414, 197, 189, 228, 220
-0.992436, 237, 345, 268, 376
-0.992453, 17, 49, 48, 176
-0.992455, 153, 421, 184, 452
-0.992457, 1, 225, 318, 288
-0.992461, 73, 49, 104, 176
-0.992473, 73, 241, 104, 368
-0.992481, 33, 345, 64, 376
-0.992483, 225, 65, 256, 192
-0.992517, 137, 193, 168, 320
-0.992517, 181, 345, 212, 376
-0.992518, 69, 345, 100, 376
-0.992518, 289, 345, 318, 376
-0.992547, 69, 209, 100, 240
-0.992583, 49, 225, 80, 256
-0.992602, 201, 201, 232, 232
-0.99261, 33, 401, 64, 432
-0.992614, 105, 209, 136, 240
-0.992619, 133, 357, 164, 388
-0.992623, 97, 185, 128, 216
-0.992628, 257, 401, 288, 432
-0.992628, 225, 345, 256, 376
-0.992631, 85, 345, 116, 376
-0.99264, 81, 217, 112, 248
-0.992656, 137, 421, 168, 452
-0.99266, 145, 345, 176, 376
-0.99266, 201, 397, 232, 428
-0.992669, 49, 421, 80, 452
-0.992669, 121, 345, 152, 376
-0.992673, 169, 409, 200, 440
-0.992679, 9, 197, 40, 228
-0.99268, 33, 273, 288, 336
-0.99268, 157, 393, 172, 456
-0.992687, 29, 209, 60, 240
-0.992692, 57, 209, 88, 240
-0.992692, 21, 345, 52, 376
-0.992708, 29, 229, 60, 260
-0.992715, 145, 117, 176, 148
-0.992717, 93, 301, 124, 332
-0.992718, 85, 189, 116, 220
-0.992731, 133, 121, 164, 152
-0.992738, 1, 221, 32, 252
-0.992739, 109, 185, 140, 216
-0.992749, 113, 293, 144, 324
-0.992758, 137, 97, 168, 128
-0.992761, 57, 177, 88, 208
-0.992763, 1, 241, 32, 272
-0.99277, 289, 241, 318, 272
-0.992776, 41, 205, 72, 236
-0.992788, 289, 177, 318, 208
-0.992791, 237, 421, 268, 452
-0.992797, 277, 241, 308, 272
-0.992797, 1, 209, 32, 240
-0.992798, 177, 333, 208, 364
-0.992804, 65, 417, 96, 448
-0.99281, 221, 405, 252, 436
-0.99281, 197, 333, 228, 364
-0.99281, 213, 177, 244, 208
-0.992813, 97, 225, 128, 256
-0.992814, 65, 401, 96, 432
-0.992815, 117, 213, 148, 244
-0.992818, 249, 345, 280, 376
-0.992828, 53, 193, 84, 224
-0.99283, 213, 337, 244, 368
-0.99283, 157, 161, 188, 288
-0.992837, 49, 397, 80, 428
-0.992838, 157, 389, 188, 420
-0.992841, 137, 133, 168, 164
-0.992845, 45, 345, 76, 376
-0.99285, 169, 217, 200, 248
-0.992852, 193, 177, 224, 208
-0.992858, 169, 397, 200, 428
-0.992862, 17, 225, 48, 256
-0.992868, 109, 345, 140, 376
-0.992874, 25, 357, 56, 388
-0.992875, 181, 357, 212, 388
-0.992875, 125, 333, 156, 364
-0.992881, 73, 357, 104, 388
-0.992881, 153, 361, 184, 392
-0.992884, 69, 225, 100, 256
-0.992902, 133, 405, 164, 436
-0.992903, 245, 449, 276, 480
-0.992912, 253, 413, 284, 444
-0.992913, 157, 129, 188, 160
-0.992917, 113, 89, 144, 120
-0.992918, 97, 345, 128, 376
-0.992924, 21, 401, 52, 432
-0.992924, 213, 245, 244, 276
-0.992926, 281, 449, 312, 480
-0.992928, 73, 193, 104, 224
-0.99293, 33, 345, 160, 376
-0.992935, 125, 81, 156, 112
-0.992939, 189, 397, 220, 428
-0.992944, 181, 217, 212, 248
-0.992946, 169, 449, 200, 480
-0.992947, 169, 345, 200, 376
-0.992948, 169, 205, 200, 236
-0.992949, 33, 413, 64, 444
-0.992957, 57, 345, 88, 376
-0.992972, 97, 173, 128, 204
-0.992974, 17, 193, 144, 224
-0.992974, 205, 385, 236, 416
-0.992976, 117, 173, 148, 204
-0.992991, 193, 385, 224, 416
-0.992994, 201, 213, 232, 244
-0.992994, 25, 197, 56, 228
-0.992998, 17, 253, 48, 284
-0.993002, 177, 321, 208, 352
-0.993003, 113, 101, 144, 132
-0.993003, 29, 241, 60, 368
-0.993005, 137, 233, 168, 264
-0.993006, 229, 137, 260, 168
-0.993008, 153, 445, 184, 476
-0.993011, 5, 253, 36, 284
-0.993014, 1, 401, 32, 432
-0.993025, 165, 93, 196, 124
-0.99303, 201, 273, 232, 304
-0.993031, 25, 241, 56, 272
-0.993032, 121, 193, 152, 224
-0.993034, 125, 97, 156, 128
-0.993038, 13, 185, 44, 216
-0.993039, 173, 229, 204, 260
-0.99304, 221, 417, 252, 448
-0.993046, 141, 449, 172, 480
-0.993046, 113, 225, 144, 256
-0.993047, 163, 401, 178, 464
-0.993053, 41, 189, 72, 220
-0.993059, 229, 157, 260, 188
-0.99306, 229, 357, 260, 388
-0.99306, 121, 357, 152, 388
-0.993062, 261, 241, 292, 272
-0.993067, 107, 193, 122, 256
-0.993096, 177, 345, 304, 376
-0.993295, 129, 417, 256, 448
-0.993305, 1, 129, 32, 256
-0.993309, 17, 1, 48, 128
-0.993442, 17, 205, 144, 236
-0.993454, 33, 25, 288, 88
-0.993471, 33, 353, 288, 416
-0.993495, 33, 249, 288, 312
-0.993611, 193, 193, 208, 256
-0.993709, 41, 129, 72, 256
-0.993748, 53, 209, 84, 336
-0.99377, 205, 193, 220, 256
-0.993809, 97, 81, 128, 208
-0.993964, 1, 313, 318, 376
-0.993986, 129, 357, 256, 388
-0.993988, 33, 289, 64, 416
-0.994008, 207, 385, 222, 448
-0.994016, 97, 189, 224, 220
-0.994055, 129, 393, 256, 424
-0.994081, 193, 329, 208, 392
-0.994093, 57, 401, 72, 464
-0.994141, 17, 221, 144, 252
-0.99416, 49, 401, 176, 432
-0.994165, 1, 49, 318, 112
-0.99426, 81, 421, 208, 452
-0.994327, 1, 337, 318, 400
-0.994382, 53, 113, 84, 240
-0.994385, 65, 205, 192, 236
-0.994418, 1, 357, 128, 388
-0.99444, 129, 333, 256, 364
-0.994445, 33, 305, 288, 368
-0.994475, 199, 193, 214, 256
-0.994526, 65, 49, 318, 112
-0.99454, 29, 49, 60, 176
-0.994551, 13, 257, 44, 384
-0.994551, 155, 97, 170, 160
-0.994559, 149, 113, 164, 176
-0.994561, 45, 289, 76, 416
-0.994589, 1, 169, 318, 232
-0.994605, 1, 265, 318, 328
-0.994612, 169, 409, 184, 472
-0.994615, 25, 145, 56, 272
-0.994625, 135, 321, 150, 384
-0.994638, 151, 401, 166, 464
-0.994658, 215, 241, 230, 304
-0.994672, 61, 289, 92, 416
-0.994673, 33, 217, 48, 280
-0.994729, 193, 449, 318, 480
-0.994733, 243, 393, 258, 456
-0.994744, 65, 97, 318, 160
-0.994747, 25, 217, 40, 280
-0.994753, 143, 337, 158, 400
-0.994771, 135, 97, 150, 160
-0.994815, 33, 377, 288, 440
-0.994818, 1, 1, 256, 64
-0.994825, 127, 73, 142, 136
-0.994828, 129, 225, 256, 256
-0.994841, 7, 209, 22, 272
-0.994847, 41, 209, 56, 272
-0.994873, 119, 193, 134, 256
-0.994877, 129, 449, 256, 480
-0.994896, 113, 201, 240, 232
-0.994914, 17, 181, 144, 212
-0.994921, 49, 209, 64, 272
-0.99494, 159, 361, 174, 424
-0.994995, 177, 177, 304, 208
-0.99503, 49, 357, 176, 388
-0.995075, 79, 201, 94, 264
-0.995088, 157, 417, 172, 480
-0.995094, 193, 241, 318, 272
-0.995098, 161, 105, 176, 168
-0.995131, 81, 173, 208, 204
-0.995131, 105, 217, 120, 280
-0.995133, 1, 25, 318, 88
-0.995141, 215, 177, 230, 240
-0.995142, 33, 193, 48, 256
-0.995196, 303, 177, 318, 240
-0.995212, 275, 241, 290, 304
-0.995273, 175, 401, 190, 464
-0.995278, 101, 185, 116, 248
-0.995283, 69, 209, 84, 272
-0.995284, 49, 233, 176, 264
-0.995291, 107, 161, 122, 224
-0.995291, 177, 357, 304, 388
-0.995294, 81, 449, 208, 480
-0.995303, 1, 185, 16, 248
-0.995314, 1, 105, 318, 168
-0.995316, 177, 417, 304, 448
-0.995323, 185, 313, 200, 376
-0.995326, 209, 217, 224, 280
-0.995347, 65, 221, 192, 252
-0.995351, 17, 249, 144, 280
-0.995363, 97, 93, 224, 124
-0.99537, 281, 241, 296, 304
-0.995404, 93, 185, 108, 248
-0.995441, 65, 73, 318, 136
-0.995451, 1, 81, 318, 144
-0.995453, 33, 413, 160, 444
-0.995484, 1, 217, 16, 280
-0.995509, 49, 333, 176, 364
-0.995515, 193, 225, 318, 256
-0.995521, 239, 329, 254, 392
-0.995526, 15, 185, 30, 248
-0.995542, 1, 137, 318, 200
-0.995542, 181, 209, 196, 272
-0.995543, 1, 377, 318, 440
-0.995547, 213, 385, 228, 448
-0.995574, 63, 409, 78, 472
-0.99559, 201, 385, 216, 448
-0.995616, 39, 185, 54, 248
-0.995619, 217, 129, 248, 384
-0.995627, 203, 225, 218, 288
-0.995643, 27, 193, 42, 256
-0.995645, 129, 381, 256, 412
-0.995646, 155, 129, 170, 192
-0.995662, 97, 405, 224, 436
-0.995678, 187, 177, 202, 240
-0.995679, 193, 401, 318, 432
-0.99568, 235, 137, 250, 200
-0.995688, 151, 377, 166, 440
-0.995688, 257, 393, 272, 456
-0.995691, 241, 417, 256, 480
-0.995708, 287, 241, 302, 304
-0.995727, 93, 321, 108, 384
-0.995728, 269, 241, 284, 304
-0.99574, 161, 241, 192, 368
-0.99575, 69, 185, 84, 248
-0.995763, 267, 401, 282, 464
-0.995764, 251, 417, 266, 480
-0.995764, 169, 385, 184, 448
-0.995771, 113, 213, 240, 244
-0.995796, 69, 393, 84, 456
-0.995798, 149, 353, 164, 416
-0.995802, 59, 185, 74, 248
-0.995803, 81, 105, 208, 136
-0.995851, 301, 337, 316, 400
-0.995853, 213, 409, 228, 472
-0.99587, 17, 217, 32, 280
-0.995885, 113, 209, 128, 272
-0.995905, 129, 237, 256, 268
-0.995908, 197, 161, 228, 416
-0.995928, 87, 185, 102, 248
-0.99593, 145, 417, 160, 480
-0.995934, 221, 241, 236, 304
-0.995937, 13, 145, 44, 272
-0.995955, 97, 149, 224, 180
-0.995956, 51, 409, 66, 472
-0.99596, 1, 401, 128, 432
-0.995961, 273, 393, 288, 456
-0.995984, 177, 73, 304, 104
-0.996001, 99, 321, 114, 384
-0.996001, 99, 217, 114, 280
-0.996019, 113, 129, 144, 384
-0.996026, 263, 241, 278, 304
-0.996055, 205, 65, 236, 320
-0.996055, 135, 353, 150, 416
-0.996068, 1, 233, 128, 264
-0.99608, 251, 393, 266, 456
-0.996088, 85, 209, 100, 272
-0.99609, 119, 169, 134, 232
-0.996093, 149, 89, 164, 152
-0.996107, 59, 217, 74, 280
-0.996112, 97, 161, 128, 416
-0.996116, 127, 105, 142, 168
-0.996124, 33, 449, 160, 480
-0.996126, 177, 333, 304, 364
-0.996143, 195, 353, 210, 416
-0.996146, 293, 241, 308, 304
-0.996161, 85, 345, 100, 408
-0.996172, 33, 425, 160, 456
-0.996177, 175, 193, 190, 256
-0.996187, 233, 409, 248, 472
-0.9962, 9, 409, 24, 472
-0.996213, 35, 345, 50, 408
-0.996216, 129, 369, 256, 400
-0.996229, 243, 145, 258, 208
-0.996248, 1, 17, 32, 144
-0.996255, 231, 385, 246, 448
-0.996257, 145, 97, 272, 128
-0.996275, 203, 409, 218, 472
-0.996279, 145, 393, 160, 456
-0.996281, 187, 225, 202, 288
-0.996284, 249, 329, 264, 392
-0.996286, 193, 49, 318, 80
-0.99629, 157, 337, 172, 400
-0.996292, 269, 129, 300, 384
-0.996295, 141, 113, 156, 176
-0.996299, 145, 165, 272, 196
-0.9963, 289, 289, 318, 416
-0.996301, 65, 121, 318, 184
-0.996306, 281, 169, 296, 232
-0.996314, 7, 233, 22, 296
-0.996318, 273, 169, 288, 232
-0.996321, 245, 241, 260, 304
-0.996325, 193, 201, 318, 232
-0.996345, 251, 145, 266, 208
-0.996347, 229, 65, 260, 320
-0.996359, 113, 161, 128, 224
-0.996368, 145, 85, 272, 116
-0.996378, 301, 393, 316, 456
-0.996396, 93, 217, 108, 280
-0.996401, 295, 417, 310, 480
-0.996405, 79, 337, 94, 400
-0.996413, 135, 73, 150, 136
-0.996417, 187, 409, 202, 472
-0.996422, 7, 185, 22, 248
-0.996424, 221, 409, 236, 472
-0.996424, 295, 393, 310, 456
-0.996426, 285, 129, 316, 384
-0.996427, 287, 393, 302, 456
-0.996431, 113, 305, 240, 336
-0.996434, 197, 409, 212, 472
-0.996437, 193, 273, 318, 304
-0.996439, 303, 201, 318, 264
-0.996476, 193, 105, 318, 136
-0.996479, 51, 185, 66, 248
-0.996494, 101, 161, 116, 224
-0.996499, 209, 265, 224, 328
-0.996505, 145, 137, 272, 168
-0.996525, 3, 409, 18, 472
-0.996526, 247, 33, 262, 96
-0.996555, 289, 169, 304, 232
-0.99656, 81, 13, 208, 44
-0.996561, 201, 169, 216, 232
-0.996563, 169, 361, 184, 424
-0.996577, 33, 169, 160, 200
-0.996642, 129, 125, 256, 156
-0.996655, 81, 269, 208, 300
-0.996673, 177, 389, 304, 420
-0.996683, 145, 345, 160, 376
-0.996691, 33, 105, 160, 136
-0.996692, 145, 113, 272, 144
-0.996712, 113, 285, 240, 316
-0.996714, 97, 161, 224, 192
-0.996739, 1, 289, 318, 352
-0.996758, 111, 189, 126, 220
-0.996761, 193, 85, 318, 116
-0.996766, 109, 1, 140, 256
-0.996766, 193, 117, 318, 148
-0.996781, 109, 213, 124, 244
-0.996786, 161, 189, 288, 220
-0.9968, 193, 257, 318, 288
-0.996801, 81, 389, 208, 420
-0.996814, 33, 285, 160, 316
-0.996815, 129, 429, 256, 460
-0.996845, 257, 97, 288, 352
-0.996849, 117, 201, 132, 232
-0.996864, 129, 177, 256, 208
-0.996897, 1, 273, 128, 304
-0.99692, 207, 205, 222, 236
-0.996925, 129, 317, 256, 348
-0.996925, 181, 129, 212, 384
-0.996938, 111, 201, 126, 232
-0.996959, 217, 225, 248, 480
-0.996964, 1, 1, 318, 64
-0.996964, 81, 117, 208, 148
-0.996991, 193, 345, 208, 376
-0.997015, 35, 345, 50, 376
-0.997023, 177, 61, 304, 92
-0.997028, 161, 1, 192, 256
-0.997029, 1, 333, 128, 364
-0.997031, 199, 193, 214, 224
-0.997033, 137, 345, 152, 376
-0.997034, 1, 57, 128, 88
-0.997064, 1, 1, 128, 32
-0.997065, 129, 17, 256, 48
-0.997075, 229, 161, 260, 416
-0.997085, 49, 313, 176, 344
-0.997094, 1, 17, 128, 48
-0.997096, 103, 201, 118, 232
-0.997097, 245, 97, 276, 352
-0.99712, 49, 93, 176, 124
-0.997121, 85, 345, 100, 376
-0.997128, 181, 1, 212, 256
-0.997152, 25, 213, 40, 244
-0.997169, 137, 1, 168, 256
-0.997174, 81, 77, 208, 108
-0.997175, 239, 345, 254, 376
-0.997193, 65, 249, 192, 280
-0.997217, 129, 97, 160, 352
-0.99722, 163, 401, 178, 432
-0.997222, 193, 13, 318, 44
-0.997229, 61, 209, 76, 240
-0.997241, 113, 29, 240, 60
-0.997251, 97, 137, 224, 168
-0.99726, 1, 213, 16, 244
-0.99727, 33, 213, 48, 244
-0.997288, 303, 345, 318, 376
-0.997291, 73, 209, 88, 240
-0.997308, 161, 37, 288, 68
-0.99731, 1, 81, 128, 112
-0.997344, 67, 213, 82, 244
-0.997355, 193, 213, 318, 244
-0.997356, 155, 401, 170, 432
-0.997371, 97, 1, 224, 32
-0.997372, 57, 405, 72, 436
-0.997373, 103, 213, 118, 244
-0.997403, 97, 1, 128, 256
-0.997406, 49, 297, 176, 328
-0.997415, 193, 189, 208, 220
-0.99743, 49, 1, 176, 32
-0.997431, 195, 209, 210, 240
-0.997443, 81, 209, 96, 240
-0.997443, 181, 213, 196, 244
-0.997474, 33, 229, 48, 260
-0.997492, 193, 165, 318, 196
-0.997501, 205, 221, 220, 252
-0.997502, 243, 405, 258, 436
-0.997508, 17, 153, 144, 184
-0.997553, 57, 221, 72, 252
-0.997571, 209, 397, 224, 428
-0.997575, 163, 425, 178, 456
-0.997583, 65, 29, 192, 60
-0.997587, 217, 33, 248, 288
-0.997594, 147, 121, 162, 152
-0.997594, 191, 333, 206, 364
-0.997596, 7, 221, 22, 252
-0.9976, 117, 189, 132, 220
-0.997601, 177, 149, 304, 180
-0.997604, 3, 241, 18, 272
-0.997604, 85, 129, 116, 384
-0.997606, 19, 213, 34, 244
-0.997622, 177, 377, 304, 408
-0.997629, 131, 345, 146, 376
-0.997634, 113, 65, 240, 96
-0.997635, 113, 257, 240, 288
-0.997643, 7, 209, 22, 240
-0.997644, 33, 201, 48, 232
-0.997651, 39, 213, 54, 244
-0.997658, 123, 197, 138, 228
-0.997658, 303, 177, 318, 208
-0.997673, 173, 409, 188, 440
-0.997676, 51, 221, 66, 252
-0.99768, 201, 345, 216, 376
-0.997682, 147, 421, 162, 452
-0.997683, 45, 409, 60, 440
-0.997689, 55, 205, 70, 236
-0.997693, 193, 129, 318, 160
-0.997694, 185, 201, 200, 232
-0.997696, 149, 137, 164, 168
-0.997697, 215, 245, 230, 276
-0.997701, 125, 1, 156, 256
-0.997703, 121, 213, 136, 244
-0.997703, 49, 133, 176, 164
-0.997712, 145, 49, 272, 80
-0.997713, 95, 213, 110, 244
-0.99772, 159, 361, 174, 392
-0.997724, 201, 205, 216, 236
-0.997724, 289, 33, 318, 288
-0.997729, 135, 97, 150, 128
-0.997772, 193, 357, 208, 388
-0.997777, 257, 193, 288, 448
-0.997779, 299, 241, 314, 272
-0.997786, 145, 1, 272, 32
-0.997788, 105, 225, 120, 256
-0.997795, 175, 201, 190, 232
-0.997796, 1, 261, 128, 292
-0.9978, 207, 385, 222, 416
-0.997807, 39, 225, 54, 256
-0.997813, 1, 201, 16, 232
-0.99783, 241, 193, 272, 448
-0.997839, 159, 385, 174, 416
-0.997855, 159, 129, 174, 160
-0.997855, 173, 225, 204, 480
-0.997855, 27, 349, 42, 380
-0.997867, 25, 197, 40, 228
-0.997888, 295, 345, 310, 376
-0.997896, 9, 245, 24, 276
-0.997897, 95, 201, 110, 232
-0.997898, 95, 345, 110, 376
-0.997902, 203, 397, 218, 428
-0.997902, 43, 345, 58, 376
-0.997903, 17, 389, 144, 420
-0.997903, 193, 285, 318, 316
-0.997905, 45, 205, 60, 236
-0.997905, 43, 397, 58, 428
-0.997909, 77, 345, 92, 376
-0.997911, 67, 417, 82, 448
-0.997919, 65, 177, 80, 208
-0.997921, 155, 345, 170, 376
-0.997924, 249, 405, 264, 436
-0.997924, 73, 221, 88, 252
-0.997926, 145, 269, 272, 300
-0.997928, 235, 405, 250, 436
-0.997928, 193, 1, 224, 256
-0.997929, 249, 345, 264, 376
-0.997939, 185, 345, 200, 376
-0.997941, 157, 117, 172, 148
-0.997949, 229, 345, 244, 376
-0.997952, 13, 209, 28, 240
-0.997958, 139, 125, 154, 156
-0.997966, 175, 397, 190, 428
-0.997969, 187, 185, 202, 216
-0.997972, 193, 1, 318, 32
-0.997973, 215, 397, 230, 428
-0.997973, 137, 333, 152, 364
-0.997977, 81, 377, 208, 408
-0.997994, 39, 201, 54, 232
-0.997995, 101, 189, 116, 220
-0.998, 19, 249, 34, 280
-0.998001, 153, 425, 168, 456
-0.998007, 125, 345, 140, 376
-0.998009, 49, 437, 176, 468
-0.998009, 33, 401, 48, 432
-0.998011, 207, 189, 222, 220
-0.998015, 279, 241, 294, 272
-0.99802, 115, 213, 130, 244
-0.998022, 89, 213, 104, 244
-0.998024, 67, 401, 82, 432
-0.99803, 65, 61, 192, 92
-0.998032, 147, 405, 162, 436
-0.998034, 1, 29, 128, 60
-0.998042, 253, 417, 268, 448
-0.998043, 255, 405, 270, 436
-0.998043, 193, 297, 318, 328
-0.998047, 185, 225, 200, 256
-0.998047, 149, 237, 164, 268
-0.998048, 9, 189, 24, 220
-0.998049, 1, 69, 128, 100
-0.998051, 127, 81, 142, 112
-0.998052, 155, 97, 170, 128
-0.998053, 1, 225, 16, 256
-0.998057, 133, 193, 164, 448
-0.998061, 63, 225, 78, 256
-0.998063, 49, 345, 64, 376
-0.998066, 295, 449, 310, 480
-0.998066, 57, 193, 72, 224
-0.998068, 93, 305, 108, 336
-0.998072, 119, 345, 134, 376
-0.998075, 165, 389, 180, 420
-0.998076, 51, 405, 66, 436
-0.998085, 185, 321, 200, 352
-0.998094, 59, 177, 74, 208
-0.998099, 293, 241, 308, 272
-0.998102, 61, 417, 76, 448
-0.998114, 187, 449, 202, 480
-0.998115, 27, 225, 42, 256
-0.998121, 169, 129, 200, 384
-0.998175, 249, 1, 280, 256
-0.998218, 149, 1, 180, 256
-0.998225, 193, 309, 318, 340
-0.998236, 153, 97, 184, 352
-0.998248, 145, 225, 176, 480
-0.998263, 277, 33, 308, 288
-0.998277, 45, 129, 76, 384
-0.998344, 269, 225, 300, 480
-0.998352, 73, 129, 104, 384
-0.998369, 185, 349, 248, 364
-0.998377, 89, 351, 152, 366
-0.998381, 193, 463, 256, 478
-0.998403, 41, 461, 104, 476
-0.998415, 89, 463, 152, 478
-0.998429, 193, 355, 256, 370
-0.99843, 193, 407, 224, 422
-0.99843, 145, 349, 208, 364
-0.998433, 133, 123, 164, 138
-0.998434, 145, 459, 208, 474
-0.998435, 1, 197, 32, 212
-0.998437, 113, 295, 144, 310
-0.998437, 57, 219, 88, 234
-0.998441, 149, 365, 180, 380
-0.998441, 193, 235, 224, 250
-0.998443, 33, 355, 96, 370
-0.998443, 153, 413, 184, 428
-0.998443, 189, 401, 220, 416
-0.998445, 73, 217, 136, 232
-0.998445, 1, 411, 32, 426
-0.998445, 33, 203, 64, 218
-0.998445, 25, 411, 88, 426
-0.998445, 193, 211, 224, 226
-0.998446, 153, 133, 184, 148
-0.998446, 201, 217, 232, 232
-0.998448, 169, 417, 200, 432
-0.99845, 97, 197, 128, 212
-0.99845, 45, 463, 76, 478
-0.998451, 285, 459, 316, 474
-0.998453, 173, 401, 204, 416
-0.998453, 125, 343, 156, 358
-0.998453, 61, 355, 92, 370
-0.998454, 133, 419, 164, 434
-0.998455, 237, 411, 268, 426
-0.998456, 213, 245, 244, 260
-0.998457, 145, 355, 176, 370
-0.998458, 1, 405, 32, 420
-0.998458, 113, 105, 144, 120
-0.998459, 49, 427, 80, 442
-0.99846, 253, 417, 284, 432
-0.99846, 133, 361, 164, 376
-0.99846, 89, 307, 120, 322
-0.998461, 49, 229, 80, 244
-0.998461, 1, 463, 64, 478
-0.998461, 109, 217, 140, 232
-0.998462, 289, 465, 318, 480
-0.998462, 145, 407, 208, 422
-0.998462, 85, 353, 116, 368
-0.998464, 1, 93, 128, 124
-0.998464, 237, 425, 268, 440
-0.998464, 1, 351, 64, 366
-0.998465, 185, 343, 216, 358
-0.998465, 209, 347, 272, 362
-0.998465, 253, 401, 284, 416
-0.998465, 45, 403, 76, 418
-0.998466, 1, 411, 64, 426
-0.998466, 233, 459, 296, 474
-0.998467, 41, 349, 104, 364
-0.998467, 217, 355, 248, 370
-0.998467, 65, 419, 96, 434
-0.998468, 197, 341, 228, 356
-0.998468, 213, 181, 244, 196
-0.998469, 1, 191, 32, 206
-0.99847, 113, 97, 176, 112
-0.99847, 177, 191, 208, 206
-0.998471, 89, 211, 120, 226
-0.998473, 13, 405, 44, 420
-0.998474, 185, 343, 248, 358
-0.998475, 41, 225, 104, 240
-0.998475, 217, 349, 248, 364
-0.998475, 237, 417, 268, 432
-0.998476, 177, 349, 208, 364
-0.998476, 97, 199, 160, 214
-0.998478, 249, 353, 280, 368
-0.998478, 161, 211, 224, 226
-0.998478, 289, 177, 318, 192
-0.998479, 41, 355, 72, 370
-0.99848, 81, 207, 144, 222
-0.998481, 73, 219, 104, 234
-0.998481, 213, 401, 244, 416
-0.998481, 121, 353, 152, 368
-0.998482, 137, 465, 200, 480
-0.998483, 145, 463, 176, 478
-0.998485, 217, 407, 248, 422
-0.998485, 153, 425, 184, 440
-0.998485, 249, 459, 280, 474
-0.998488, 97, 227, 128, 242
-0.998488, 73, 193, 136, 208
-0.998488, 289, 243, 318, 258
-0.99849, 137, 133, 168, 148
-0.998491, 181, 357, 212, 372
-0.998491, 25, 219, 88, 234
-0.998491, 121, 349, 184, 364
-0.998491, 109, 191, 140, 206
-0.998492, 169, 401, 232, 416
-0.998492, 193, 185, 224, 200
-0.998492, 229, 465, 260, 480
-0.998494, 49, 415, 80, 430
-0.998497, 49, 419, 112, 434
-0.998497, 173, 407, 204, 422
-0.998498, 21, 213, 52, 228
-0.998498, 93, 465, 124, 480
-0.998499, 13, 411, 44, 426
-0.998502, 237, 353, 268, 368
-0.998502, 201, 349, 232, 364
-0.998503, 97, 191, 128, 206
-0.998504, 121, 355, 184, 370
-0.998504, 193, 401, 256, 416
-0.998504, 129, 425, 192, 440
-0.998505, 89, 205, 120, 220
-0.998505, 97, 45, 224, 76
-0.998505, 9, 405, 72, 420
-0.998505, 209, 457, 272, 472
-0.998506, 121, 419, 184, 434
-0.998507, 9, 357, 40, 372
-0.998507, 89, 299, 152, 314
-0.998508, 145, 401, 208, 416
-0.998509, 137, 95, 168, 110
-0.99851, 137, 343, 200, 358
-0.99851, 73, 223, 136, 238
-0.998511, 209, 407, 272, 422
-0.998511, 1, 357, 64, 372
-0.998511, 225, 353, 288, 368
-0.998512, 69, 213, 100, 228
-0.998512, 33, 403, 64, 418
-0.998513, 233, 465, 296, 480
-0.998514, 169, 407, 232, 422
-0.998516, 185, 225, 216, 480
-0.998517, 289, 353, 318, 368
-0.998517, 169, 465, 200, 480
-0.998518, 169, 233, 232, 248
-0.998518, 1, 221, 32, 236
-0.99852, 153, 419, 184, 434
-0.998521, 25, 207, 88, 222
-0.998521, 5, 215, 36, 230
-0.998521, 13, 351, 44, 366
-0.998522, 49, 421, 80, 436
-0.998522, 257, 459, 318, 474
-0.998523, 29, 359, 60, 374
-0.998524, 197, 355, 228, 370
-0.998524, 153, 355, 216, 370
-0.998525, 193, 229, 224, 244
-0.998527, 177, 457, 240, 472
-0.998527, 189, 461, 220, 476
-0.998528, 241, 465, 272, 480
-0.998528, 33, 411, 64, 426
-0.998528, 73, 357, 104, 372
-0.998529, 209, 179, 272, 194
-0.99853, 29, 161, 60, 416
-0.998531, 1, 305, 128, 336
-0.998531, 145, 417, 208, 432
-0.998531, 169, 267, 232, 282
-0.998531, 181, 209, 212, 224
-0.998532, 233, 347, 296, 362
-0.998533, 145, 123, 176, 138
-0.998533, 237, 405, 268, 420
-0.998534, 25, 421, 88, 436
-0.998535, 197, 205, 228, 220
-0.998535, 121, 459, 184, 474
-0.998536, 153, 407, 184, 422
-0.998536, 225, 459, 256, 474
-0.998537, 289, 347, 318, 362
-0.998538, 249, 353, 312, 368
-0.99854, 21, 463, 52, 478
-0.99854, 201, 401, 232, 416
-0.998543, 49, 219, 112, 234
-0.998544, 109, 225, 140, 480
-0.998545, 65, 461, 128, 476
-0.998545, 57, 211, 120, 226
-0.998546, 89, 305, 152, 320
-0.998547, 233, 403, 296, 418
-0.998547, 49, 243, 112, 258
-0.998548, 193, 223, 224, 238
-0.998548, 177, 429, 304, 460
-0.998549, 89, 315, 152, 330
-0.99855, 1, 213, 64, 228
-0.99855, 57, 357, 120, 372
-0.99855, 233, 417, 296, 432
-0.99855, 121, 461, 152, 476
-0.998551, 69, 461, 100, 476
-0.998553, 41, 427, 104, 442
-0.998553, 181, 197, 212, 212
-0.998553, 257, 177, 318, 192
-0.998555, 73, 349, 104, 364
-0.998556, 121, 401, 184, 416
-0.998556, 73, 229, 136, 244
-0.998556, 97, 193, 160, 208
-0.998557, 1, 221, 64, 236
-0.998558, 17, 229, 80, 244
-0.998558, 169, 335, 232, 350
-0.998558, 169, 225, 232, 240
-0.998558, 169, 275, 232, 290
-0.998559, 201, 245, 264, 260
-0.998561, 169, 329, 232, 344
-0.998562, 73, 187, 136, 202
-0.998562, 29, 351, 60, 366
-0.998562, 105, 193, 120, 320
-0.998565, 81, 81, 144, 96
-0.998565, 89, 357, 152, 372
-0.998566, 49, 409, 80, 424
-0.998566, 113, 207, 144, 222
-0.998567, 105, 183, 168, 198
-0.998568, 81, 345, 144, 360
-0.998568, 89, 457, 152, 472
-0.998568, 257, 347, 318, 362
-0.998571, 101, 203, 132, 218
-0.998571, 41, 405, 104, 420
-0.998571, 169, 189, 232, 204
-0.998572, 97, 225, 160, 240
-0.998573, 145, 227, 208, 242
-0.998574, 169, 465, 232, 480
-0.998575, 233, 347, 264, 362
-0.998575, 169, 361, 232, 376
-0.998576, 169, 417, 232, 432
-0.998577, 13, 221, 44, 236
-0.998578, 1, 197, 64, 212
-0.998578, 233, 423, 296, 438
-0.998578, 257, 465, 318, 480
-0.998579, 1, 205, 64, 220
-0.998579, 105, 207, 168, 222
-0.99858, 181, 203, 212, 218
-0.998583, 101, 211, 132, 226
-0.998583, 121, 103, 184, 118
-0.998583, 33, 463, 64, 478
-0.998584, 209, 417, 272, 432
-0.998586, 121, 413, 184, 428
-0.998586, 137, 133, 200, 148
-0.998586, 237, 459, 268, 474
-0.998587, 169, 205, 232, 220
-0.998588, 153, 93, 216, 108
-0.998588, 121, 109, 184, 124
-0.998588, 169, 239, 232, 254
-0.99859, 121, 361, 184, 376
-0.998591, 57, 203, 120, 218
-0.998591, 105, 343, 168, 358
-0.998592, 25, 247, 88, 262
-0.998592, 177, 281, 240, 296
-0.998592, 233, 411, 296, 426
-0.998593, 121, 123, 184, 138
-0.998593, 49, 413, 112, 428
-0.998594, 105, 213, 168, 228
-0.998595, 301, 161, 316, 288
-0.998595, 105, 177, 168, 192
-0.998595, 93, 217, 124, 232
-0.998596, 133, 355, 164, 370
-0.998596, 81, 287, 144, 302
-0.998597, 257, 243, 318, 258
-0.998598, 89, 293, 152, 308
-0.998599, 13, 161, 44, 416
-0.998599, 177, 321, 304, 352
-0.998599, 185, 197, 248, 212
-0.9986, 1, 191, 64, 206
-0.998601, 89, 245, 152, 260
-0.998602, 1, 417, 64, 432
-0.998603, 177, 459, 208, 474
-0.998604, 89, 93, 152, 108
-0.998604, 161, 343, 224, 358
-0.998604, 153, 431, 216, 446
-0.998604, 189, 217, 220, 232
-0.998604, 81, 461, 112, 476
-0.998605, 177, 219, 240, 234
-0.998605, 201, 271, 264, 286
-0.998606, 121, 201, 184, 216
-0.998606, 1, 239, 64, 254
-0.998609, 133, 461, 164, 476
-0.998616, 193, 191, 224, 206
-0.99862, 153, 401, 184, 416
-0.998626, 189, 349, 220, 364
-0.998638, 193, 197, 224, 212
-0.998641, 215, 161, 230, 288
-0.998646, 81, 33, 112, 288
-0.998653, 109, 197, 140, 212
-0.998659, 147, 337, 162, 464
-0.998671, 1, 193, 32, 448
-0.998672, 1, 45, 128, 76
-0.998694, 281, 225, 312, 480
-0.998709, 133, 349, 164, 364
-0.998731, 111, 177, 126, 304
-0.998757, 161, 225, 192, 480
-0.998763, 137, 321, 152, 448
-0.998766, 261, 1, 292, 256
-0.998781, 165, 353, 180, 480
-0.998791, 49, 49, 176, 80
-0.998805, 275, 161, 290, 288
-0.998818, 289, 161, 304, 288
-0.998823, 155, 353, 170, 480
-0.998851, 119, 193, 134, 320
-0.998856, 281, 161, 296, 288
-0.99886, 13, 65, 44, 320
-0.998878, 295, 161, 310, 288
-0.998878, 193, 177, 208, 304
-0.998885, 269, 161, 284, 288
-0.998912, 251, 161, 266, 288
-0.998917, 193, 321, 208, 448
-0.998918, 209, 193, 224, 320
-0.998923, 255, 81, 270, 208
-0.998926, 61, 129, 92, 384
-0.998928, 261, 161, 276, 288
-0.998949, 99, 177, 114, 304
-0.998962, 145, 129, 160, 256
-0.998965, 1, 141, 128, 172
-0.998966, 199, 177, 214, 304
-0.998976, 85, 337, 100, 464
-0.998985, 283, 225, 298, 352
-0.998996, 177, 25, 304, 56
-0.998997, 245, 161, 260, 288
-0.999005, 221, 161, 236, 288
-0.999009, 153, 97, 168, 224
-0.999017, 301, 225, 316, 352
-0.999022, 249, 81, 264, 208
-0.999032, 171, 321, 186, 448
-0.999034, 289, 225, 304, 352
-0.999052, 295, 225, 310, 352
-0.999055, 217, 225, 232, 352
-0.99906, 121, 129, 136, 256
-0.999065, 93, 161, 108, 288
-0.999067, 131, 305, 146, 432
-0.99907, 111, 225, 126, 352
-0.999073, 183, 305, 198, 432
-0.999079, 35, 337, 50, 464
-0.999082, 279, 81, 294, 208
-0.999093, 105, 145, 120, 272
-0.999097, 79, 337, 94, 464
-0.999098, 227, 161, 242, 288
-0.999102, 133, 97, 148, 224
-0.99912, 1, 193, 16, 320
-0.99912, 99, 225, 114, 352
-0.999124, 91, 353, 106, 480
-0.999135, 57, 337, 72, 464
-0.999136, 273, 81, 288, 208
-0.999136, 277, 225, 292, 352
-0.99914, 127, 177, 142, 304
-0.999146, 101, 321, 116, 448
-0.999147, 45, 337, 60, 464
-0.999148, 159, 97, 174, 224
-0.999154, 261, 97, 276, 224
-0.999155, 125, 337, 140, 464
-0.999156, 1, 65, 32, 320
-0.999158, 245, 353, 260, 480
-0.999159, 295, 97, 310, 224
-0.999165, 239, 161, 254, 288
-0.999167, 285, 1, 300, 128
-0.999185, 289, 81, 304, 208
-0.999193, 29, 337, 44, 464
-0.999194, 105, 241, 120, 368
-0.999194, 221, 97, 236, 224
-0.999198, 7, 177, 22, 304
-0.999201, 69, 337, 84, 464
-0.999202, 95, 305, 110, 432
-0.999205, 271, 225, 286, 352
-0.999208, 233, 161, 248, 288
-0.999227, 107, 289, 122, 416
-0.999231, 205, 129, 220, 256
-0.999233, 151, 49, 166, 176
-0.999237, 267, 81, 282, 208
-0.999242, 207, 321, 222, 448
-0.999245, 17, 177, 32, 304
-0.999246, 139, 81, 154, 208
-0.999248, 301, 113, 316, 240
-0.999249, 195, 65, 210, 192
-0.99925, 87, 177, 102, 304
-0.999253, 139, 129, 154, 256
-0.999254, 131, 353, 146, 480
-0.999256, 125, 81, 140, 208
-0.999259, 125, 289, 140, 416
-0.999259, 127, 17, 142, 144
-0.999259, 33, 65, 64, 320
-0.999259, 111, 129, 126, 256
-0.999261, 113, 337, 128, 464
-0.999263, 99, 129, 114, 256
-0.999263, 141, 17, 156, 144
-0.999268, 51, 321, 66, 448
-0.999274, 45, 33, 76, 288
-0.999275, 177, 321, 192, 448
-0.999276, 63, 337, 78, 464
-0.999276, 199, 353, 214, 480
-0.999291, 213, 97, 228, 224
-0.999294, 133, 49, 148, 176
-0.999297, 23, 337, 38, 464
-0.999298, 85, 225, 116, 480
-0.999303, 113, 273, 128, 400
-0.999308, 233, 337, 248, 464
-0.999311, 243, 81, 258, 208
-0.999315, 1, 241, 16, 368
-0.999315, 265, 225, 280, 352
-0.999319, 193, 1, 208, 128
-0.99932, 25, 193, 40, 320
-0.999322, 217, 289, 232, 416
-0.999324, 215, 33, 230, 160
-0.999325, 195, 113, 210, 240
-0.999325, 185, 65, 200, 192
-0.999332, 253, 17, 268, 144
-0.999341, 119, 337, 134, 464
-0.999343, 215, 337, 230, 464
-0.999345, 187, 161, 202, 288
-0.999346, 93, 241, 108, 368
-0.999346, 183, 257, 198, 384
-0.999346, 149, 177, 164, 304
-0.99935, 107, 353, 122, 480
-0.99935, 11, 337, 26, 464
-0.999353, 87, 289, 102, 416
-0.999356, 187, 17, 202, 144
-0.999357, 101, 1, 116, 128
-0.999358, 301, 33, 316, 160
-0.999359, 251, 337, 266, 464
-0.999364, 207, 257, 222, 384
-0.999366, 257, 353, 272, 480
-0.999371, 167, 65, 182, 192
-0.999373, 259, 225, 274, 352
-0.999373, 303, 353, 318, 480
-0.999376, 3, 337, 18, 464
-0.999377, 201, 17, 216, 144
-0.999378, 245, 225, 260, 352
-0.999378, 65, 33, 96, 288
-0.999381, 253, 225, 268, 352
-0.999436, 141, 97, 172, 352
-0.999548, 121, 225, 152, 480
-0.999626, 173, 417, 188, 432
-0.999626, 229, 355, 244, 370
-0.999627, 191, 341, 206, 356
-0.999628, 1, 219, 16, 234
-0.999628, 87, 219, 102, 234
-0.999629, 75, 355, 90, 370
-0.999629, 3, 411, 18, 426
-0.99963, 175, 203, 190, 218
-0.99963, 29, 405, 44, 420
-0.99963, 295, 347, 310, 362
-0.99963, 55, 405, 70, 420
-0.999632, 179, 459, 194, 474
-0.999632, 231, 401, 246, 416
-0.999632, 1, 243, 16, 258
-0.999633, 139, 143, 154, 158
-0.999633, 295, 459, 310, 474
-0.999634, 21, 405, 36, 420
-0.999634, 97, 211, 112, 226
-0.999635, 205, 229, 220, 244
-0.999635, 201, 355, 216, 370
-0.999635, 249, 459, 264, 474
-0.999636, 43, 405, 58, 420
-0.999637, 101, 223, 116, 238
-0.999637, 1, 405, 16, 420
-0.999637, 43, 355, 58, 370
-0.999638, 45, 463, 60, 478
-0.999638, 9, 247, 24, 262
-0.999638, 231, 407, 246, 422
-0.999639, 175, 401, 190, 416
-0.999639, 241, 401, 256, 416
-0.99964, 35, 411, 50, 426
-0.99964, 215, 245, 230, 260
-0.999641, 201, 401, 216, 416
-0.999642, 125, 207, 140, 222
-0.999643, 249, 353, 264, 368
-0.999644, 297, 465, 312, 480
-0.999644, 7, 405, 22, 420
-0.999644, 201, 205, 216, 220
-0.999645, 189, 199, 204, 214
-0.999646, 205, 191, 220, 206
-0.999647, 295, 353, 310, 368
-0.999647, 179, 211, 194, 226
-0.999647, 239, 353, 254, 368
-0.999648, 127, 463, 142, 478
-0.999648, 93, 353, 108, 368
-0.999649, 27, 465, 42, 480
-0.99965, 15, 411, 30, 426
-0.99965, 145, 461, 160, 476
-0.999651, 65, 211, 80, 226
-0.999651, 49, 225, 80, 480
-0.999651, 43, 225, 58, 240
-0.999651, 35, 355, 50, 370
-0.999652, 9, 215, 24, 230
-0.999652, 71, 225, 86, 240
-0.999653, 93, 465, 108, 480
-0.999653, 15, 405, 30, 420
-0.999654, 189, 465, 204, 480
-0.999654, 83, 211, 98, 226
-0.999655, 157, 131, 172, 146
-0.999655, 29, 209, 44, 224
-0.999655, 103, 203, 118, 218
-0.999655, 127, 355, 142, 370
-0.999656, 193, 357, 208, 372
-0.999657, 303, 243, 318, 258
-0.999657, 113, 205, 128, 220
-0.999659, 175, 407, 190, 422
-0.99966, 137, 355, 152, 370
-0.99966, 19, 215, 34, 230
-0.99966, 303, 179, 318, 194
-0.999661, 9, 411, 24, 426
-0.999662, 197, 461, 212, 476
-0.999663, 303, 353, 318, 368
-0.999663, 249, 465, 264, 480
-0.999663, 227, 349, 242, 364
-0.999663, 147, 135, 162, 150
-0.999665, 85, 357, 100, 372
-0.999666, 181, 465, 196, 480
-0.999666, 183, 223, 198, 238
-0.999667, 35, 217, 50, 232
-0.99967, 25, 223, 40, 238
-0.99967, 213, 401, 228, 416
-0.999672, 93, 217, 108, 232
-0.999674, 189, 189, 204, 204
-0.999677, 75, 213, 90, 228
-0.999677, 47, 219, 62, 234
-0.999678, 1, 213, 16, 228
-0.999678, 207, 221, 222, 236
-0.999679, 149, 123, 164, 138
-0.99968, 55, 217, 70, 232
-0.999682, 241, 465, 256, 480
-0.999685, 7, 221, 22, 236
-0.999686, 165, 401, 180, 416
-0.99969, 45, 411, 60, 426
-0.999691, 207, 209, 222, 224
-0.999692, 25, 355, 40, 370
-0.999693, 57, 225, 72, 240
-0.999694, 107, 225, 122, 240
-0.999698, 145, 355, 160, 370
-0.999698, 117, 215, 132, 230
-0.999704, 195, 207, 210, 222
-0.999706, 109, 199, 124, 214
-0.999709, 159, 401, 174, 416
-0.999711, 201, 349, 216, 364
-0.999713, 17, 221, 32, 236
-0.999714, 105, 211, 120, 226
-0.999717, 79, 219, 94, 234
-0.99972, 239, 347, 254, 362
-0.999722, 25, 215, 40, 230
-0.999723, 71, 219, 86, 234
-0.999725, 207, 401, 222, 416
-0.999727, 111, 211, 126, 226
-0.999734, 195, 193, 210, 208
-0.999737, 33, 349, 48, 364
-0.999738, 205, 215, 220, 230
-0.999739, 61, 219, 76, 234
-0.999745, 85, 349, 100, 364
-0.999747, 101, 217, 116, 232
-0.99975, 135, 349, 150, 364
-0.999755, 199, 199, 214, 214
-0.999756, 121, 197, 136, 212
-0.999757, 145, 349, 160, 364
-0.999758, 35, 463, 50, 478
-0.999765, 303, 347, 318, 362
-0.999765, 113, 193, 128, 208
-0.999778, 109, 219, 124, 234
-0.999779, 137, 461, 152, 476
-0.999784, 119, 205, 134, 220
-0.999786, 85, 461, 100, 476
-0.999791, 241, 459, 256, 474
-0.999796, 189, 459, 204, 474
-0.99981, 193, 347, 208, 362
-0.999839, 69, 225, 100, 480
