1752
-0.33643, 1, 33, 432, 286
-0.392444, 1, 1, 432, 286
-0.512459, 1, 1, 256, 286
-0.567953, 1, 33, 256, 286
-0.625085, 129, 1, 384, 286
-0.660845, 193, 33, 432, 286
-0.669988, 97, 33, 352, 286
-0.851261, 1, 49, 432, 176
-0.85852, 1, 97, 432, 224
-0.863596, 17, 33, 144, 286
-0.864683, 17, 1, 144, 286
-0.869454, 225, 33, 352, 286
-0.876238, 273, 33, 400, 286
-0.88237, 113, 33, 240, 286
-0.886807, 65, 33, 192, 286
-0.888695, 65, 1, 192, 286
-0.891512, 129, 1, 256, 286
-0.900499, 241, 1, 368, 286
-0.90143, 177, 33, 304, 286
-0.903554, 305, 1, 432, 286
-0.903657, 1, 49, 256, 176
-0.907394, 193, 1, 320, 286
-0.914077, 193, 49, 432, 176
-0.922391, 1, 97, 256, 224
-0.925142, 1, 161, 432, 286
-0.9348, 97, 65, 352, 192
-0.935141, 1, 1, 432, 128
-0.941052, 193, 161, 432, 286
-0.941893, 17, 97, 144, 224
-0.944108, 241, 49, 368, 176
-0.944595, 1, 145, 256, 272
-0.945386, 17, 33, 144, 160
-0.946174, 129, 65, 256, 192
-0.946647, 369, 97, 432, 224
-0.948732, 97, 113, 352, 240
-0.949171, 169, 65, 232, 192
-0.949242, 289, 49, 416, 176
-0.951032, 305, 97, 432, 224
-0.951124, 177, 65, 304, 192
-0.951634, 25, 49, 88, 176
-0.952201, 65, 33, 192, 160
-0.952409, 249, 49, 312, 176
-0.952675, 321, 49, 384, 176
-0.952954, 1, 145, 128, 272
-0.953654, 89, 33, 152, 160
-0.953815, 129, 49, 192, 176
-0.954812, 217, 81, 280, 208
-0.955203, 345, 65, 408, 192
-0.955469, 49, 33, 112, 160
-0.956183, 17, 145, 80, 272
-0.956222, 193, 97, 432, 224
-0.956668, 337, 65, 400, 128
-0.958214, 49, 49, 112, 112
-0.958269, 65, 1, 320, 128
-0.958471, 97, 49, 160, 112
-0.958978, 297, 33, 360, 160
-0.959067, 233, 65, 296, 128
-0.959526, 25, 97, 88, 224
-0.959626, 345, 113, 408, 240
-0.959911, 25, 57, 88, 120
-0.960227, 201, 81, 264, 144
-0.960479, 113, 113, 240, 240
-0.960571, 273, 33, 336, 160
-0.96078, 161, 73, 224, 136
-0.961054, 297, 81, 360, 208
-0.961135, 65, 97, 192, 224
-0.961166, 225, 97, 352, 224
-0.961442, 121, 57, 184, 120
-0.961758, 73, 81, 136, 208
-0.961793, 193, 81, 256, 208
-0.961818, 161, 113, 288, 240
-0.961844, 313, 57, 376, 120
-0.962046, 289, 161, 416, 286
-0.962943, 49, 97, 112, 224
-0.963441, 25, 89, 88, 152
-0.963523, 257, 57, 320, 120
-0.963708, 73, 49, 136, 112
-0.963763, 25, 137, 88, 200
-0.964105, 273, 81, 336, 208
-0.964973, 65, 161, 192, 286
-0.965604, 369, 105, 432, 168
-0.965775, 241, 161, 368, 286
-0.966201, 97, 161, 352, 286
-0.966329, 113, 161, 240, 286
-0.966802, 289, 49, 352, 112
-0.968321, 17, 161, 80, 224
-0.968877, 161, 17, 288, 144
-0.969596, 161, 1, 416, 128
-0.969709, 193, 161, 320, 286
-0.969776, 41, 145, 104, 272
-0.969953, 49, 73, 112, 136
-0.970891, 337, 161, 400, 286
-0.97092, 25, 113, 88, 176
-0.970935, 233, 161, 296, 286
-0.970998, 49, 105, 112, 168
-0.971549, 113, 97, 176, 224
-0.971622, 33, 49, 160, 112
-0.971678, 49, 137, 112, 200
-0.971691, 225, 33, 288, 160
-0.97174, 249, 97, 312, 224
-0.97181, 305, 161, 368, 286
-0.972137, 257, 57, 384, 120
-0.972405, 65, 145, 128, 272
-0.972475, 201, 145, 264, 272
-0.972715, 1, 105, 128, 168
-0.972932, 17, 137, 144, 200
-0.972993, 193, 33, 256, 160
-0.973273, 345, 89, 408, 152
-0.973359, 257, 145, 320, 272
-0.973581, 97, 145, 160, 272
-0.973742, 145, 161, 208, 286
-0.974073, 177, 145, 240, 272
-0.974205, 25, 33, 88, 286
-0.974256, 249, 65, 280, 128
-0.974334, 161, 105, 224, 168
-0.97456, 369, 161, 432, 286
-0.974562, 357, 65, 388, 128
-0.97468, 73, 89, 136, 152
-0.974843, 321, 97, 384, 224
-0.974887, 137, 113, 200, 240
-0.975043, 153, 17, 216, 144
-0.975212, 273, 81, 336, 144
-0.975237, 201, 105, 264, 168
-0.975484, 29, 57, 60, 120
-0.975497, 81, 153, 144, 216
-0.975563, 129, 49, 160, 112
-0.975626, 137, 81, 200, 144
-0.975713, 113, 65, 240, 128
-0.975994, 257, 1, 384, 128
-0.976226, 225, 97, 288, 160
-0.976234, 241, 33, 304, 286
-0.97634, 181, 65, 212, 192
-0.976362, 337, 169, 400, 232
-0.976644, 177, 81, 304, 144
-0.976711, 121, 161, 184, 224
-0.976797, 249, 89, 312, 152
-0.976828, 1, 97, 64, 224
-0.976879, 101, 49, 132, 112
-0.977092, 57, 49, 88, 112
-0.977215, 297, 81, 360, 144
-0.977255, 89, 129, 152, 192
-0.977356, 329, 33, 392, 286
-0.977448, 341, 57, 372, 120
-0.977703, 29, 49, 60, 176
-0.977867, 353, 33, 416, 286
-0.977969, 145, 49, 208, 112
-0.978054, 169, 49, 200, 176
-0.97812, 185, 73, 216, 136
-0.978147, 217, 33, 280, 286
-0.978168, 1, 65, 64, 128
-0.978183, 273, 33, 336, 286
-0.978348, 113, 33, 176, 286
-0.978401, 57, 33, 120, 286
-0.978482, 265, 137, 328, 200
-0.978492, 97, 225, 160, 286
-0.978513, 373, 81, 404, 208
-0.978563, 41, 49, 72, 112
-0.9786, 297, 137, 360, 200
-0.978607, 113, 17, 240, 144
-0.978628, 49, 89, 176, 152
-0.978874, 237, 73, 268, 136
-0.978894, 261, 57, 292, 120
-0.978974, 361, 209, 424, 272
-0.979153, 113, 137, 176, 200
-0.979186, 361, 65, 392, 192
-0.979225, 321, 97, 384, 160
-0.979396, 29, 97, 60, 224
-0.979501, 1, 169, 128, 232
-0.979831, 113, 97, 176, 160
-0.979869, 209, 57, 272, 120
-0.979892, 97, 73, 160, 136
-0.980054, 281, 161, 344, 286
-0.980073, 1, 73, 128, 136
-0.980155, 301, 49, 332, 112
-0.980186, 145, 57, 176, 120
-0.980227, 289, 81, 416, 144
-0.98025, 117, 49, 148, 112
-0.980281, 77, 49, 108, 112
-0.980501, 49, 105, 80, 168
-0.980553, 369, 33, 432, 160
-0.980576, 229, 81, 260, 208
-0.980647, 209, 57, 336, 120
-0.980767, 201, 137, 264, 200
-0.980849, 273, 57, 304, 120
-0.980861, 89, 33, 152, 286
-0.980872, 65, 137, 192, 200
-0.98103, 377, 105, 408, 168
-0.981101, 281, 33, 312, 160
-0.981174, 217, 81, 248, 144
-0.981225, 77, 33, 108, 160
-0.981766, 353, 145, 416, 208
-0.981834, 297, 33, 360, 286
-0.981899, 45, 81, 76, 144
-0.981941, 245, 81, 276, 208
-0.982027, 305, 105, 432, 168
-0.98215, 57, 33, 88, 160
-0.982186, 209, 105, 336, 168
-0.982217, 349, 49, 380, 176
-0.98223, 273, 105, 336, 168
-0.982291, 241, 137, 304, 200
-0.982336, 161, 33, 224, 286
-0.982381, 137, 137, 200, 200
-0.982416, 13, 169, 44, 232
-0.982421, 29, 129, 60, 192
-0.982443, 121, 97, 152, 224
-0.9825, 205, 73, 236, 136
-0.982552, 141, 49, 172, 176
-0.982552, 205, 65, 236, 192
-0.982634, 369, 81, 432, 144
-0.982646, 161, 105, 288, 168
-0.982674, 93, 33, 124, 160
-0.982678, 385, 97, 416, 224
-0.982701, 161, 57, 192, 120
-0.982703, 285, 73, 316, 136
-0.982724, 69, 89, 100, 152
-0.982731, 73, 225, 136, 286
-0.982784, 217, 169, 280, 232
-0.982844, 129, 161, 160, 224
-0.982913, 329, 121, 392, 184
-0.982918, 389, 105, 420, 168
-0.98293, 369, 81, 400, 144
-0.983018, 193, 65, 224, 192
-0.98303, 81, 41, 208, 104
-0.983064, 89, 49, 120, 112
-0.983285, 401, 97, 432, 224
-0.983513, 49, 225, 112, 286
-0.983564, 185, 57, 248, 120
-0.983581, 137, 105, 200, 168
-0.983594, 65, 1, 128, 286
-0.983613, 113, 153, 240, 216
-0.98363, 273, 145, 400, 208
-0.983632, 137, 33, 200, 286
-0.983717, 305, 33, 336, 160
-0.983794, 217, 81, 248, 208
-0.983795, 29, 89, 60, 152
-0.983962, 337, 217, 400, 280
-0.983966, 77, 81, 108, 208
-0.983973, 153, 225, 216, 286
-0.983976, 313, 169, 376, 232
-0.984051, 161, 153, 224, 216
-0.984069, 25, 153, 56, 216
-0.984154, 113, 113, 240, 176
-0.984178, 41, 33, 72, 160
-0.984191, 13, 161, 44, 286
-0.984253, 25, 145, 56, 272
-0.984326, 57, 177, 120, 240
-0.984359, 241, 81, 368, 144
-0.984383, 109, 33, 140, 160
-0.984386, 293, 33, 324, 160
-0.984386, 361, 161, 392, 286
-0.984397, 241, 161, 304, 224
-0.984481, 225, 129, 352, 192
-0.984497, 317, 33, 348, 160
-0.984509, 121, 33, 152, 160
-0.984529, 105, 145, 136, 208
-0.984619, 249, 113, 312, 176
-0.984624, 129, 1, 192, 128
-0.984669, 65, 161, 192, 224
-0.984687, 89, 81, 120, 208
-0.984755, 73, 25, 136, 88
-0.984802, 57, 73, 88, 136
-0.984817, 1, 137, 64, 200
-0.984857, 1, 33, 64, 286
-0.985041, 313, 49, 344, 112
-0.985054, 265, 49, 296, 176
-0.985112, 157, 49, 188, 176
-0.985131, 301, 81, 332, 208
-0.985173, 121, 33, 184, 96
-0.985176, 321, 145, 384, 208
-0.985261, 401, 105, 432, 168
-0.985304, 329, 57, 360, 120
-0.98538, 25, 225, 88, 286
-0.985458, 121, 225, 184, 286
-0.985476, 297, 105, 360, 168
-0.985479, 1, 105, 64, 168
-0.98558, 337, 49, 368, 176
-0.985582, 281, 225, 344, 286
-0.985643, 81, 177, 144, 240
-0.985762, 289, 49, 320, 112
-0.985766, 265, 81, 296, 144
-0.985801, 193, 177, 256, 240
-0.985935, 49, 225, 176, 286
-0.986003, 249, 1, 312, 128
-0.986005, 173, 73, 204, 136
-0.986054, 177, 137, 304, 200
-0.986081, 277, 105, 308, 168
-0.986362, 253, 33, 284, 160
-0.986383, 1, 49, 64, 176
-0.986404, 121, 161, 184, 286
-0.986468, 305, 177, 432, 240
-0.986473, 41, 81, 72, 208
-0.98649, 349, 97, 380, 224
-0.986543, 153, 177, 216, 240
-0.98658, 125, 145, 156, 272
-0.986592, 209, 1, 336, 128
-0.986616, 149, 97, 180, 224
-0.986636, 281, 177, 344, 240
-0.986769, 121, 137, 152, 200
-0.986854, 61, 113, 92, 176
-0.986888, 389, 161, 420, 286
-0.986905, 69, 137, 100, 200
-0.987018, 161, 49, 288, 112
-0.987086, 337, 193, 400, 256
-0.987136, 225, 225, 288, 286
-0.987183, 329, 1, 392, 128
-0.987197, 49, 25, 112, 88
-0.987204, 1, 177, 32, 240
-0.987221, 145, 225, 272, 286
-0.987234, 281, 81, 312, 208
-0.987249, 105, 81, 136, 208
-0.987287, 313, 33, 376, 96
-0.98731, 313, 225, 376, 286
-0.987347, 1, 185, 64, 248
-0.987364, 37, 153, 68, 216
-0.98738, 305, 217, 432, 280
-0.987514, 97, 89, 224, 152
-0.987519, 17, 33, 80, 96
-0.987535, 57, 81, 88, 208
-0.987555, 265, 33, 328, 96
-0.987602, 257, 105, 384, 168
-0.98761, 65, 113, 192, 176
-0.987694, 33, 1, 96, 286
-0.987745, 313, 81, 344, 208
-0.987764, 301, 105, 332, 168
-0.987776, 161, 129, 224, 192
-0.987797, 97, 25, 160, 88
-0.98781, 369, 185, 432, 248
-0.987859, 361, 177, 392, 240
-0.987932, 89, 97, 120, 160
-0.987958, 41, 129, 72, 192
-0.988149, 125, 73, 156, 136
-0.988191, 305, 57, 432, 120
-0.988237, 261, 97, 292, 224
-0.988286, 1, 217, 64, 280
-0.988341, 41, 145, 72, 272
-0.988367, 229, 97, 260, 160
-0.988564, 25, 185, 88, 248
-0.988599, 349, 161, 380, 224
-0.988644, 313, 73, 344, 136
-0.988683, 89, 129, 120, 192
-0.988753, 225, 169, 352, 232
-0.988753, 1, 57, 256, 120
-0.988778, 225, 225, 352, 286
-0.988781, 113, 177, 240, 240
-0.9888, 377, 209, 408, 272
-0.988812, 77, 113, 108, 176
-0.988821, 185, 1, 248, 286
-0.988828, 25, 1, 88, 128
-0.98891, 97, 225, 224, 286
-0.988951, 81, 73, 112, 136
-0.988976, 245, 129, 276, 256
-0.988984, 289, 105, 320, 168
-0.988991, 325, 81, 356, 208
-0.988993, 329, 1, 392, 286
-0.989018, 337, 41, 400, 104
-0.989025, 161, 113, 192, 240
-0.989071, 253, 89, 284, 152
-0.989097, 265, 1, 328, 286
-0.989119, 77, 161, 108, 286
-0.989159, 89, 1, 152, 286
-0.989166, 109, 129, 140, 256
-0.989169, 1, 161, 32, 286
-0.989183, 329, 137, 360, 200
-0.98924, 121, 61, 184, 92
-0.989265, 193, 33, 256, 286
-0.989352, 161, 1, 224, 286
-0.989353, 97, 73, 128, 136
-0.989355, 205, 97, 236, 160
-0.989478, 193, 65, 432, 128
-0.989479, 121, 1, 184, 286
-0.989484, 337, 97, 368, 224
-0.989495, 17, 73, 80, 104
-0.989506, 293, 137, 324, 200
-0.989532, 369, 109, 432, 140
-0.989602, 225, 77, 288, 108
-0.989604, 245, 169, 276, 232
-0.989608, 241, 33, 272, 160
-0.989643, 33, 25, 160, 88
-0.989666, 141, 177, 172, 240
-0.989683, 329, 161, 360, 286
-0.989689, 373, 161, 404, 286
-0.989714, 141, 225, 172, 286
-0.989748, 209, 1, 272, 286
-0.989807, 293, 161, 324, 286
-0.989812, 177, 81, 240, 112
-0.989867, 361, 113, 392, 240
-0.989869, 205, 161, 236, 286
-0.989882, 177, 201, 240, 264
-0.989948, 1, 57, 432, 120
-0.989958, 201, 85, 264, 116
-0.989965, 13, 113, 44, 240
-0.989971, 137, 201, 200, 264
-0.990004, 97, 53, 160, 84
-0.990018, 257, 61, 320, 92
-0.990039, 121, 97, 152, 160
-0.99005, 145, 69, 208, 100
-0.990094, 33, 53, 96, 84
-0.99013, 257, 33, 384, 96
-0.990151, 321, 61, 384, 92
-0.990183, 225, 161, 256, 286
-0.99019, 109, 89, 140, 152
-0.990215, 353, 1, 416, 286
-0.990239, 257, 145, 288, 272
-0.990262, 109, 121, 140, 184
-0.99027, 177, 161, 304, 224
-0.990339, 337, 97, 368, 160
-0.99035, 201, 113, 232, 240
-0.990385, 17, 165, 80, 196
-0.99048, 73, 49, 136, 80
-0.990528, 141, 145, 172, 208
-0.990557, 313, 129, 344, 192
-0.990563, 57, 145, 88, 272
-0.990564, 25, 93, 88, 124
-0.990577, 337, 77, 400, 108
-0.990589, 369, 49, 432, 112
-0.990603, 289, 57, 352, 88
-0.990619, 133, 97, 164, 224
-0.990711, 345, 89, 408, 120
-0.990719, 153, 177, 184, 240
-0.990734, 201, 97, 264, 128
-0.990746, 257, 77, 320, 108
-0.990779, 181, 113, 212, 240
-0.990817, 289, 1, 352, 286
-0.990821, 129, 201, 256, 264
-0.990837, 357, 97, 388, 160
-0.990838, 97, 65, 352, 128
-0.990851, 25, 113, 88, 144
-0.990876, 129, 225, 160, 286
-0.990926, 25, 133, 88, 164
-0.990959, 233, 65, 296, 96
-0.99098, 89, 153, 120, 216
-0.991014, 25, 149, 88, 180
-0.991041, 49, 85, 112, 116
-0.991042, 241, 97, 272, 160
-0.991048, 141, 161, 172, 286
-0.991066, 81, 25, 112, 88
-0.991073, 241, 1, 304, 286
-0.991088, 57, 73, 120, 104
-0.991137, 81, 89, 144, 120
-0.991148, 13, 65, 44, 128
-0.991148, 57, 145, 88, 208
-0.991192, 177, 97, 240, 128
-0.991194, 169, 69, 232, 100
-0.991218, 81, 249, 144, 280
-0.991219, 93, 145, 124, 272
-0.99126, 173, 97, 204, 160
-0.991271, 137, 249, 200, 280
-0.991274, 113, 169, 144, 232
-0.991299, 245, 145, 276, 208
-0.991317, 361, 145, 392, 208
-0.991362, 49, 253, 112, 284
-0.991398, 49, 125, 112, 156
-0.991411, 137, 89, 200, 120
-0.991415, 85, 177, 116, 240
-0.991421, 81, 169, 144, 200
-0.991426, 9, 61, 72, 92
-0.991439, 17, 177, 80, 208
-0.991448, 305, 97, 368, 128
-0.991489, 345, 101, 408, 132
-0.991496, 225, 89, 288, 120
-0.9915, 201, 73, 264, 104
-0.991507, 281, 77, 344, 108
-0.991508, 49, 201, 176, 264
-0.991526, 121, 173, 184, 204
-0.991527, 121, 77, 184, 108
-0.991533, 1, 225, 128, 286
-0.991545, 301, 73, 332, 136
-0.991547, 105, 249, 168, 280
-0.99157, 313, 145, 344, 272
-0.991597, 97, 73, 160, 104
-0.991657, 225, 169, 256, 232
-0.991661, 161, 109, 224, 140
-0.991669, 41, 169, 104, 200
-0.991687, 385, 49, 416, 176
-0.991717, 249, 97, 312, 128
-0.99172, 73, 129, 136, 160
-0.991739, 113, 161, 176, 192
-0.991744, 13, 145, 44, 208
-0.991744, 105, 149, 168, 180
-0.991757, 329, 133, 392, 164
-0.991763, 141, 33, 172, 96
-0.991763, 145, 57, 208, 88
-0.99177, 313, 77, 376, 108
-0.991773, 137, 101, 200, 132
-0.991774, 249, 225, 312, 286
-0.991801, 185, 109, 248, 140
-0.991807, 273, 89, 336, 120
-0.991809, 313, 165, 376, 196
-0.991815, 377, 129, 408, 192
-0.991817, 81, 181, 144, 212
-0.99183, 49, 97, 112, 128
-0.991846, 73, 177, 104, 240
-0.991853, 41, 241, 104, 272
-0.991857, 313, 201, 376, 264
-0.991925, 105, 93, 168, 124
-0.991928, 225, 57, 256, 120
-0.991931, 121, 49, 184, 80
-0.991936, 369, 97, 432, 128
-0.991954, 153, 161, 184, 286
-0.991959, 57, 181, 120, 212
-0.992039, 225, 101, 288, 132
-0.992056, 49, 113, 112, 144
-0.992069, 1, 89, 256, 152
-0.99207, 341, 161, 372, 286
-0.992076, 265, 249, 328, 280
-0.992083, 337, 173, 400, 204
-0.992107, 281, 237, 344, 268
-0.992107, 141, 89, 172, 152
-0.992117, 201, 225, 264, 286
-0.992117, 193, 185, 256, 216
-0.992121, 17, 249, 80, 280
-0.992122, 353, 189, 416, 220
-0.99213, 249, 165, 312, 196
-0.992165, 73, 117, 136, 148
-0.992179, 181, 17, 212, 144
-0.992196, 57, 61, 120, 92
-0.992207, 129, 145, 192, 176
-0.992208, 385, 73, 416, 136
-0.992239, 345, 117, 408, 148
-0.992239, 273, 117, 336, 148
-0.992244, 265, 133, 328, 164
-0.992252, 337, 149, 400, 180
-0.992254, 97, 237, 160, 268
-0.992267, 297, 153, 360, 184
-0.992272, 289, 133, 352, 164
-0.992286, 49, 137, 112, 168
-0.992306, 177, 245, 240, 276
-0.992348, 25, 65, 56, 96
-0.992364, 353, 201, 416, 232
-0.992366, 209, 113, 272, 144
-0.992377, 225, 161, 288, 192
-0.992383, 65, 157, 128, 188
-0.992391, 321, 233, 384, 264
-0.992394, 289, 45, 352, 76
-0.992395, 241, 237, 304, 268
-0.992397, 245, 69, 276, 100
-0.992406, 209, 145, 272, 176
-0.99243, 357, 121, 388, 184
-0.992441, 121, 133, 184, 164
-0.992441, 265, 149, 328, 180
-0.992443, 217, 177, 280, 208
-0.992445, 57, 25, 88, 88
-0.992451, 149, 61, 180, 92
-0.99246, 177, 225, 240, 286
-0.992471, 289, 169, 352, 200
-0.992478, 29, 1, 60, 128
-0.992488, 37, 57, 68, 88
-0.992488, 217, 233, 280, 264
-0.992491, 345, 65, 408, 96
-0.992495, 161, 81, 192, 144
-0.992503, 73, 145, 136, 176
-0.992509, 1, 145, 256, 208
-0.992511, 25, 177, 56, 240
-0.992528, 1, 133, 64, 164
-0.992535, 337, 161, 400, 192
-0.992539, 313, 177, 376, 208
-0.992546, 121, 237, 184, 268
-0.992559, 201, 125, 264, 156
-0.992577, 129, 53, 160, 84
-0.992588, 353, 129, 416, 160
-0.992588, 345, 61, 376, 92
-0.992596, 269, 145, 300, 272
-0.992613, 73, 237, 136, 268
-0.992614, 389, 209, 420, 272
-0.992628, 313, 49, 376, 80
-0.99263, 257, 185, 320, 248
-0.992632, 241, 129, 304, 160
-0.992632, 241, 249, 304, 280
-0.992636, 265, 105, 296, 168
-0.992637, 297, 121, 360, 152
-0.992648, 113, 185, 176, 248
-0.992657, 137, 157, 200, 188
-0.992657, 273, 225, 336, 256
-0.992661, 1, 153, 64, 184
-0.992661, 169, 185, 232, 216
-0.992674, 213, 85, 244, 116
-0.992682, 161, 65, 192, 96
-0.992684, 261, 61, 292, 92
-0.99269, 1, 85, 64, 116
-0.992692, 1, 81, 432, 144
-0.992695, 237, 81, 268, 112
-0.992698, 217, 253, 280, 284
-0.992699, 97, 133, 160, 164
-0.9927, 1, 101, 64, 132
-0.992705, 353, 221, 416, 252
-0.992714, 25, 173, 56, 204
-0.992718, 281, 129, 312, 192
-0.99272, 241, 117, 304, 148
-0.992727, 193, 97, 224, 160
-0.992727, 193, 61, 256, 92
-0.992728, 161, 257, 224, 286
-0.992738, 389, 109, 420, 140
-0.992744, 273, 33, 304, 96
-0.992753, 357, 69, 388, 100
-0.992759, 257, 57, 384, 88
-0.992781, 41, 93, 72, 124
-0.992788, 257, 49, 320, 80
-0.992793, 233, 41, 296, 104
-0.992796, 249, 177, 312, 208
-0.992804, 177, 145, 240, 176
-0.992804, 225, 77, 256, 108
-0.992806, 257, 77, 288, 108
-0.992808, 365, 217, 396, 280
-0.992814, 129, 169, 160, 200
-0.992819, 369, 233, 432, 264
-0.992822, 49, 53, 80, 84
-0.992823, 113, 105, 176, 136
-0.992832, 365, 89, 396, 120
-0.992833, 109, 53, 140, 84
-0.992833, 333, 57, 364, 88
-0.992838, 273, 105, 336, 136
-0.992839, 49, 73, 80, 104
-0.992856, 29, 77, 60, 108
-0.992859, 317, 97, 348, 160
-0.992864, 61, 105, 92, 136
-0.992875, 61, 169, 92, 232
-0.992875, 69, 225, 100, 286
-0.992891, 273, 57, 304, 88
-0.992892, 25, 161, 56, 192
-0.992897, 193, 89, 432, 152
-0.992899, 29, 129, 60, 160
-0.992904, 201, 81, 232, 112
-0.992912, 185, 81, 216, 112
-0.99294, 269, 93, 300, 124
-0.992942, 73, 129, 104, 160
-0.992943, 61, 53, 92, 84
-0.992947, 13, 173, 44, 204
-0.992948, 177, 193, 304, 256
-0.992962, 173, 69, 204, 100
-0.992962, 1, 201, 128, 264
-0.992966, 281, 73, 312, 104
-0.992976, 77, 49, 108, 80
-0.99298, 225, 89, 256, 120
-0.992989, 377, 105, 408, 136
-0.992991, 369, 181, 400, 212
-0.992991, 297, 53, 328, 84
-0.992997, 113, 149, 144, 180
-0.992999, 41, 165, 72, 196
-0.993001, 29, 145, 60, 176
-0.993009, 365, 101, 396, 132
-0.993009, 49, 113, 80, 144
-0.993028, 269, 77, 300, 108
-0.993028, 109, 165, 140, 196
-0.993041, 29, 101, 60, 132
-0.993045, 157, 153, 188, 216
-0.993059, 61, 69, 92, 100
-0.99306, 29, 113, 60, 144
-0.993063, 321, 57, 352, 88
-0.993069, 401, 109, 432, 140
-0.993073, 69, 93, 100, 124
-0.993074, 349, 173, 380, 204
-0.993074, 281, 85, 312, 116
-0.993082, 249, 41, 280, 104
-0.99309, 77, 73, 108, 104
-0.993092, 93, 125, 124, 156
-0.993093, 265, 137, 296, 200
-0.993095, 105, 133, 136, 164
-0.993097, 297, 77, 328, 108
-0.9931, 97, 73, 128, 104
-0.993114, 209, 97, 240, 128
-0.993115, 285, 57, 316, 88
-0.993126, 141, 249, 172, 280
-0.993128, 129, 73, 160, 104
-0.993129, 97, 169, 128, 200
-0.993131, 241, 173, 272, 204
-0.993143, 89, 137, 120, 168
-0.993144, 121, 93, 152, 124
-0.993145, 57, 93, 88, 124
-0.993146, 113, 177, 144, 208
-0.993154, 257, 93, 288, 124
-0.993158, 341, 137, 372, 200
-0.993158, 145, 73, 176, 104
-0.993161, 281, 105, 312, 136
-0.993164, 385, 93, 416, 124
-0.993168, 201, 113, 232, 144
-0.993169, 57, 161, 88, 192
-0.993177, 61, 121, 92, 152
-0.99318, 53, 133, 84, 164
-0.993192, 113, 249, 144, 280
-0.993193, 141, 49, 172, 80
-0.993194, 73, 169, 104, 200
-0.993195, 97, 53, 128, 84
-0.993197, 61, 173, 92, 204
-0.993203, 77, 117, 108, 148
-0.993203, 285, 133, 316, 164
-0.993209, 125, 157, 156, 188
-0.99321, 237, 93, 268, 124
-0.993213, 77, 181, 108, 212
-0.993216, 313, 77, 344, 108
-0.993222, 141, 173, 172, 204
-0.993227, 125, 249, 156, 280
-0.993229, 61, 81, 92, 112
-0.99323, 173, 113, 204, 144
-0.993247, 229, 17, 260, 144
-0.993248, 153, 249, 184, 280
-0.993249, 309, 53, 340, 84
-0.99325, 17, 49, 48, 176
-0.993252, 89, 249, 120, 280
-0.993258, 337, 153, 368, 184
-0.993259, 69, 241, 100, 272
-0.993261, 345, 77, 376, 108
-0.993267, 249, 161, 280, 192
-0.993269, 381, 201, 412, 232
-0.993273, 141, 97, 172, 128
-0.993275, 101, 253, 132, 284
-0.993276, 261, 165, 292, 196
-0.993279, 301, 137, 332, 168
-0.993281, 293, 97, 324, 128
-0.993281, 69, 253, 100, 284
-0.993281, 29, 89, 60, 120
-0.993283, 41, 249, 72, 280
-0.993286, 109, 93, 140, 124
-0.993287, 325, 165, 356, 196
-0.993291, 93, 181, 124, 212
-0.993292, 53, 241, 84, 272
-0.993293, 361, 165, 392, 196
-0.993293, 369, 201, 400, 232
-0.993294, 109, 73, 140, 104
-0.993295, 349, 101, 380, 132
-0.993306, 277, 237, 308, 268
-0.993307, 69, 141, 100, 172
-0.993311, 281, 117, 312, 148
-0.993312, 1, 181, 32, 212
-0.993325, 13, 69, 44, 100
-0.993329, 153, 177, 184, 208
-0.99333, 373, 177, 404, 240
-0.993335, 329, 129, 360, 160
-0.993335, 289, 237, 320, 268
-0.993342, 93, 149, 124, 180
-0.993344, 333, 77, 364, 108
-0.993348, 221, 177, 252, 208
-0.99335, 57, 253, 88, 284
-0.993357, 165, 101, 196, 132
-0.993358, 173, 161, 204, 286
-0.993402, 105, 25, 136, 88
-0.993402, 217, 113, 248, 176
-0.993408, 205, 161, 236, 224
-0.993453, 33, 53, 160, 84
-0.993485, 193, 77, 320, 108
-0.993531, 305, 33, 432, 96
-0.993547, 321, 161, 352, 224
-0.993574, 1, 153, 432, 216
-0.993617, 57, 225, 88, 286
-0.993647, 9, 1, 72, 286
-0.993661, 357, 41, 388, 104
-0.993717, 301, 177, 332, 240
-0.993721, 361, 17, 392, 144
-0.993787, 1, 1, 64, 128
-0.993798, 49, 201, 112, 264
-0.993831, 229, 129, 260, 192
-0.993855, 1, 105, 432, 168
-0.99387, 117, 225, 148, 286
-0.993888, 89, 201, 152, 264
-0.993891, 145, 25, 272, 88
-0.994043, 333, 161, 364, 224
-0.994084, 373, 33, 404, 160
-0.994098, 373, 153, 404, 216
-0.994217, 53, 49, 68, 112
-0.994225, 325, 33, 356, 96
-0.994268, 81, 225, 112, 286
-0.99427, 97, 225, 128, 286
-0.994297, 101, 169, 132, 232
-0.994347, 389, 177, 420, 240
-0.994374, 133, 201, 164, 264
-0.994431, 97, 105, 352, 168
-0.99451, 17, 165, 144, 196
-0.994617, 289, 97, 416, 128
-0.994619, 345, 1, 376, 128
-0.99467, 1, 129, 432, 192
-0.994696, 193, 17, 224, 144
-0.994727, 269, 57, 284, 120
-0.994741, 157, 1, 188, 128
-0.994815, 47, 49, 62, 112
-0.994817, 371, 65, 386, 128
-0.994841, 217, 33, 248, 160
-0.994867, 121, 49, 136, 112
-0.99488, 225, 193, 352, 256
-0.9949, 145, 49, 160, 112
-0.994903, 281, 129, 312, 256
-0.994907, 193, 89, 320, 120
-0.994929, 377, 81, 392, 144
-0.994949, 17, 125, 144, 156
-0.994952, 131, 49, 146, 112
-0.994962, 113, 77, 240, 108
-0.994963, 1, 113, 128, 144
-0.994967, 29, 57, 44, 120
-0.994972, 329, 1, 360, 128
-0.994991, 233, 201, 296, 264
-0.995005, 161, 41, 416, 104
-0.995013, 1, 169, 256, 232
-0.995018, 129, 225, 384, 286
-0.995061, 193, 161, 224, 286
-0.995062, 259, 65, 274, 128
-0.995075, 249, 65, 264, 128
-0.995084, 63, 105, 78, 168
-0.995099, 1, 113, 256, 176
-0.995104, 59, 49, 74, 112
-0.99514, 153, 57, 168, 120
-0.995152, 17, 141, 144, 172
-0.995206, 17, 89, 144, 120
-0.995229, 81, 105, 96, 168
-0.995238, 273, 69, 400, 100
-0.995245, 193, 177, 432, 240
-0.995251, 201, 201, 264, 264
-0.995254, 265, 1, 296, 128
-0.995257, 185, 73, 200, 136
-0.995274, 355, 57, 370, 120
-0.995417, 97, 153, 352, 216
-0.995419, 233, 81, 248, 144
-0.995426, 81, 61, 208, 92
-0.995448, 99, 49, 114, 112
-0.995482, 1, 225, 256, 286
-0.9955, 107, 49, 122, 112
-0.995515, 65, 33, 320, 96
-0.995567, 299, 49, 314, 112
-0.995576, 161, 57, 176, 120
-0.995584, 129, 65, 256, 96
-0.995594, 221, 81, 236, 144
-0.995604, 193, 65, 320, 96
-0.995644, 1, 177, 128, 208
-0.995646, 243, 73, 258, 136
-0.995678, 347, 57, 362, 120
-0.995689, 17, 153, 144, 184
-0.995705, 213, 73, 228, 136
-0.995706, 67, 49, 82, 112
-0.995708, 193, 101, 320, 132
-0.99572, 65, 249, 192, 280
-0.99573, 1, 73, 128, 104
-0.995734, 289, 25, 352, 88
-0.995734, 113, 49, 128, 112
-0.995739, 41, 57, 56, 120
-0.995784, 277, 57, 292, 120
-0.995797, 341, 57, 356, 120
-0.995809, 129, 129, 384, 192
-0.995853, 55, 73, 70, 136
-0.995855, 307, 49, 322, 112
-0.995869, 35, 57, 50, 120
-0.995891, 1, 101, 128, 132
-0.995916, 145, 93, 272, 124
-0.995919, 137, 49, 152, 112
-0.995923, 205, 17, 236, 144
-0.995927, 361, 57, 376, 120
-0.995938, 27, 169, 42, 232
-0.99594, 77, 49, 92, 112
-0.995949, 325, 49, 340, 112
-0.99595, 403, 105, 418, 168
-0.995961, 85, 137, 100, 200
-0.995983, 209, 33, 336, 96
-0.995998, 87, 49, 102, 112
-0.99602, 209, 33, 272, 96
-0.996024, 227, 81, 242, 144
-0.996031, 315, 49, 330, 112
-0.996079, 61, 73, 76, 136
-0.996118, 29, 33, 60, 286
-0.996165, 49, 73, 176, 104
-0.996189, 57, 105, 72, 168
-0.996237, 17, 245, 144, 276
-0.996254, 241, 93, 368, 124
-0.996262, 293, 49, 308, 112
-0.996264, 207, 73, 222, 136
-0.996279, 49, 89, 64, 152
-0.996322, 387, 105, 402, 168
-0.996352, 103, 137, 118, 200
-0.996363, 33, 145, 48, 208
-0.996383, 195, 73, 210, 136
-0.996384, 333, 57, 348, 120
-0.996398, 257, 81, 384, 112
-0.996423, 1, 177, 432, 240
-0.99644, 193, 201, 432, 264
-0.996492, 55, 137, 70, 200
-0.996519, 393, 105, 408, 168
-0.996523, 113, 253, 240, 284
-0.996524, 33, 201, 288, 264
-0.996527, 21, 169, 36, 232
-0.996534, 137, 1, 168, 128
-0.996538, 225, 113, 352, 144
-0.996551, 285, 81, 300, 144
-0.996552, 277, 81, 292, 144
-0.996559, 93, 49, 108, 112
-0.996575, 285, 105, 300, 168
-0.996576, 87, 105, 102, 168
-0.99658, 73, 89, 88, 152
-0.99658, 35, 97, 50, 160
-0.996588, 97, 165, 224, 196
-0.996625, 65, 97, 192, 128
-0.996629, 201, 73, 216, 136
-0.996634, 91, 129, 106, 192
-0.996638, 271, 89, 286, 152
-0.996662, 397, 49, 428, 176
-0.996672, 1, 217, 432, 280
-0.996681, 305, 109, 432, 140
-0.996687, 303, 105, 318, 168
-0.996692, 293, 73, 308, 136
-0.996703, 65, 237, 192, 268
-0.996721, 409, 105, 424, 168
-0.996725, 381, 105, 396, 168
-0.996726, 145, 113, 272, 144
-0.996732, 65, 129, 192, 160
-0.996741, 73, 137, 88, 200
-0.996763, 305, 1, 432, 128
-0.996778, 287, 49, 302, 112
-0.99679, 9, 177, 24, 240
-0.99686, 65, 177, 192, 208
-0.996866, 307, 137, 322, 200
-0.996877, 81, 81, 96, 144
-0.996884, 241, 33, 272, 286
-0.996895, 79, 137, 94, 200
-0.996896, 177, 241, 304, 272
-0.996899, 49, 129, 64, 192
-0.996907, 145, 53, 272, 84
-0.996946, 15, 177, 30, 240
-0.996953, 27, 137, 42, 200
-0.996974, 123, 169, 138, 232
-0.996978, 123, 137, 138, 200
-0.996983, 145, 125, 272, 156
-0.996989, 133, 153, 148, 216
-0.997009, 121, 89, 136, 152
-0.997013, 145, 33, 176, 286
-0.997014, 143, 73, 158, 136
-0.997022, 383, 209, 398, 272
-0.99703, 1, 177, 16, 240
-0.997049, 75, 113, 90, 176
-0.997057, 401, 161, 432, 286
-0.997072, 281, 201, 344, 264
-0.997079, 299, 73, 314, 136
-0.997079, 145, 161, 160, 224
-0.997085, 23, 65, 38, 128
-0.997092, 373, 177, 388, 240
-0.997114, 91, 153, 106, 216
-0.997115, 417, 113, 432, 176
-0.997125, 279, 105, 294, 168
-0.997128, 239, 97, 254, 160
-0.997152, 323, 137, 338, 200
-0.99716, 155, 177, 170, 240
-0.997163, 1, 33, 432, 96
-0.997165, 247, 161, 262, 224
-0.997165, 383, 81, 398, 144
-0.997173, 69, 33, 100, 286
-0.997176, 109, 137, 124, 200
-0.997181, 257, 237, 384, 268
-0.9972, 65, 141, 192, 172
-0.997208, 273, 157, 400, 188
-0.997227, 159, 61, 174, 92
-0.997228, 299, 137, 314, 200
-0.997244, 127, 89, 142, 152
-0.997249, 39, 137, 54, 200
-0.997261, 49, 33, 80, 286
-0.997279, 289, 33, 320, 286
-0.997282, 175, 65, 190, 128
-0.997311, 143, 225, 158, 286
-0.997314, 133, 33, 164, 286
-0.997324, 193, 137, 320, 168
-0.997325, 205, 105, 220, 168
-0.997328, 305, 81, 320, 144
-0.997328, 385, 185, 400, 248
-0.997337, 91, 73, 106, 136
-0.997339, 309, 113, 324, 176
-0.997345, 229, 33, 260, 286
-0.99735, 241, 137, 256, 200
-0.997365, 29, 81, 44, 144
-0.997368, 97, 145, 112, 208
-0.997377, 89, 33, 120, 286
-0.99738, 29, 105, 44, 168
-0.997382, 265, 81, 280, 144
-0.997383, 239, 77, 254, 108
-0.997393, 17, 257, 144, 286
-0.997399, 33, 169, 48, 232
-0.997408, 175, 105, 190, 168
-0.99741, 293, 97, 308, 160
-0.997411, 315, 113, 330, 176
-0.997418, 353, 33, 384, 286
-0.997419, 289, 133, 416, 164
-0.997443, 65, 109, 192, 140
-0.99745, 121, 33, 152, 286
-0.997453, 213, 113, 228, 176
-0.997454, 341, 97, 356, 160
-0.997458, 93, 105, 108, 168
-0.997466, 389, 209, 404, 272
-0.997484, 87, 177, 102, 240
-0.997486, 81, 49, 208, 80
-0.997494, 133, 129, 148, 192
-0.997503, 247, 69, 262, 100
-0.997506, 133, 225, 148, 286
-0.997506, 289, 169, 416, 200
-0.997519, 111, 161, 126, 224
-0.997519, 257, 249, 384, 280
-0.99752, 153, 57, 168, 88
-0.997524, 343, 145, 358, 208
-0.997525, 43, 113, 58, 176
-0.997534, 45, 57, 60, 88
-0.997536, 29, 65, 44, 96
-0.997539, 193, 153, 432, 216
-0.99754, 241, 129, 368, 160
-0.997553, 277, 33, 308, 286
-0.997557, 289, 145, 416, 176
-0.997566, 317, 33, 348, 286
-0.997576, 265, 61, 280, 92
-0.997595, 177, 149, 304, 180
-0.997598, 225, 177, 352, 208
-0.997605, 141, 53, 156, 84
-0.997628, 229, 85, 244, 116
-0.997633, 101, 33, 132, 286
-0.997647, 27, 173, 42, 204
-0.997664, 359, 65, 374, 96
-0.99767, 63, 101, 78, 132
-0.997683, 81, 17, 208, 80
-0.997683, 305, 33, 336, 286
-0.997687, 259, 65, 274, 96
-0.997697, 369, 69, 384, 100
-0.9977, 37, 61, 52, 92
-0.997709, 351, 61, 366, 92
-0.997728, 97, 153, 224, 184
-0.997732, 273, 181, 400, 212
-0.997747, 51, 53, 66, 84
-0.997764, 127, 53, 142, 84
-0.997782, 135, 57, 150, 88
-0.997795, 145, 161, 272, 192
-0.99781, 253, 69, 268, 100
-0.997816, 129, 241, 256, 272
-0.997816, 345, 57, 360, 88
-0.997818, 177, 253, 304, 284
-0.99782, 113, 137, 240, 168
-0.997821, 217, 81, 232, 112
-0.997855, 329, 33, 360, 286
-0.997868, 257, 33, 288, 286
-0.997871, 305, 81, 432, 112
-0.997872, 305, 241, 432, 272
-0.997904, 341, 33, 372, 286
-0.997904, 267, 77, 282, 108
-0.997921, 271, 61, 286, 92
-0.997926, 375, 73, 390, 104
-0.997929, 1, 113, 32, 240
-0.997935, 223, 81, 238, 112
-0.997937, 165, 61, 180, 92
-0.997941, 113, 177, 240, 208
-0.997942, 157, 33, 188, 286
-0.997943, 51, 73, 66, 104
-0.997963, 147, 57, 162, 88
-0.997967, 193, 125, 320, 156
-0.997973, 239, 89, 254, 120
-0.997974, 97, 177, 352, 240
-0.997982, 369, 33, 400, 286
-0.998016, 401, 105, 416, 136
-0.998022, 207, 81, 222, 112
-0.998026, 245, 81, 260, 112
-0.998034, 225, 225, 352, 256
-0.998045, 277, 57, 292, 88
-0.998056, 209, 161, 336, 192
-0.998062, 181, 33, 212, 286
-0.998066, 53, 89, 68, 120
-0.998081, 297, 73, 312, 104
-0.998093, 57, 53, 72, 84
-0.998093, 339, 57, 354, 88
-0.998104, 171, 65, 186, 96
-0.998119, 305, 57, 432, 88
-0.998156, 377, 85, 392, 116
-0.998164, 145, 229, 272, 260
-0.998166, 305, 229, 432, 260
-0.998168, 161, 73, 176, 104
-0.998171, 275, 77, 290, 108
-0.998171, 273, 93, 288, 124
-0.998175, 33, 41, 160, 72
-0.998186, 285, 105, 300, 136
-0.998192, 109, 49, 124, 80
-0.998193, 65, 85, 192, 116
-0.998193, 27, 161, 42, 192
-0.998194, 121, 53, 136, 84
-0.998196, 61, 73, 76, 104
-0.998205, 289, 57, 304, 88
-0.998205, 295, 57, 310, 88
-0.99821, 385, 193, 400, 224
-0.998212, 407, 109, 422, 140
-0.998227, 381, 105, 396, 136
-0.998227, 17, 229, 144, 260
-0.998232, 327, 57, 342, 88
-0.998234, 241, 145, 368, 176
-0.998242, 35, 153, 50, 184
-0.998246, 177, 69, 192, 100
-0.998246, 17, 181, 32, 212
-0.998255, 79, 49, 94, 80
-0.998258, 115, 169, 130, 200
-0.998267, 77, 129, 92, 160
-0.998271, 153, 69, 168, 100
-0.998287, 83, 133, 98, 164
-0.998295, 99, 69, 114, 100
-0.998312, 391, 109, 406, 140
-0.998321, 305, 193, 432, 224
-0.998324, 161, 173, 288, 204
-0.99833, 125, 177, 140, 208
-0.998335, 23, 69, 38, 100
-0.998335, 41, 171, 72, 186
-0.998335, 113, 263, 144, 278
-0.998336, 93, 145, 124, 160
-0.998336, 109, 69, 140, 84
-0.998339, 353, 103, 384, 118
-0.998339, 117, 151, 148, 166
-0.99834, 105, 89, 136, 104
-0.99834, 245, 93, 276, 108
-0.99834, 297, 53, 328, 68
-0.99834, 345, 97, 376, 112
-0.998341, 201, 121, 232, 136
-0.998342, 169, 257, 200, 272
-0.998342, 41, 165, 72, 180
-0.998342, 161, 99, 192, 114
-0.998344, 241, 179, 272, 194
-0.998344, 149, 259, 180, 274
-0.998344, 109, 179, 140, 194
-0.998344, 205, 89, 236, 104
-0.998344, 141, 179, 172, 194
-0.998345, 113, 143, 144, 158
-0.998345, 71, 53, 86, 84
-0.998346, 181, 115, 212, 130
-0.998346, 57, 91, 88, 106
-0.998347, 129, 93, 160, 108
-0.998347, 103, 49, 118, 80
-0.998348, 105, 171, 136, 186
-0.998349, 129, 71, 160, 86
-0.998349, 85, 69, 116, 84
-0.99835, 281, 247, 312, 262
-0.99835, 121, 161, 152, 176
-0.998351, 125, 61, 156, 76
-0.998351, 301, 137, 332, 152
-0.998351, 25, 99, 56, 114
-0.998351, 313, 75, 344, 90
-0.998352, 221, 119, 252, 134
-0.998352, 205, 97, 236, 112
-0.998352, 49, 115, 80, 130
-0.998353, 41, 69, 72, 84
-0.998354, 93, 89, 124, 104
-0.998354, 29, 155, 60, 170
-0.998354, 241, 101, 272, 116
-0.998354, 261, 79, 292, 94
-0.998354, 53, 241, 84, 256
-0.998354, 261, 73, 292, 88
-0.998355, 69, 99, 100, 114
-0.998355, 121, 175, 152, 190
-0.998355, 285, 135, 316, 150
-0.998355, 289, 121, 416, 152
-0.998355, 29, 85, 60, 100
-0.998357, 141, 99, 172, 114
-0.998357, 93, 133, 124, 148
-0.998359, 145, 73, 160, 104
-0.99836, 249, 163, 280, 178
-0.99836, 109, 135, 140, 150
-0.998361, 29, 91, 60, 106
-0.998362, 135, 169, 150, 200
-0.998363, 69, 241, 100, 256
-0.998363, 13, 175, 44, 190
-0.998364, 141, 167, 172, 182
-0.998364, 29, 111, 60, 126
-0.998365, 229, 75, 260, 90
-0.998366, 269, 247, 300, 262
-0.998367, 285, 73, 300, 104
-0.998368, 45, 75, 76, 90
-0.998369, 117, 129, 132, 160
-0.998369, 61, 133, 92, 148
-0.99837, 25, 75, 56, 90
-0.998371, 277, 93, 308, 108
-0.998371, 29, 119, 60, 134
-0.998372, 29, 127, 60, 142
-0.998372, 25, 179, 56, 194
-0.998374, 109, 129, 140, 144
-0.998376, 73, 93, 88, 124
-0.998377, 81, 133, 112, 148
-0.998378, 65, 71, 96, 86
-0.998378, 201, 81, 216, 112
-0.998378, 257, 89, 288, 104
-0.998378, 233, 97, 248, 128
-0.998379, 117, 91, 148, 106
-0.998379, 349, 175, 380, 190
-0.99838, 201, 113, 232, 128
-0.998381, 97, 71, 128, 86
-0.998381, 161, 75, 192, 90
-0.998381, 181, 81, 212, 96
-0.998384, 241, 173, 272, 188
-0.998385, 29, 139, 60, 154
-0.998385, 261, 99, 292, 114
-0.998387, 61, 111, 92, 126
-0.998388, 385, 103, 416, 118
-0.998388, 229, 97, 260, 112
-0.998389, 127, 85, 142, 116
-0.99839, 365, 105, 396, 120
-0.998391, 365, 79, 396, 94
-0.998391, 281, 75, 312, 90
-0.998392, 5, 181, 36, 196
-0.998395, 389, 33, 420, 286
-0.998396, 205, 113, 220, 144
-0.998396, 109, 53, 140, 68
-0.998397, 249, 79, 280, 94
-0.998398, 365, 91, 396, 106
-0.998398, 307, 137, 322, 168
-0.998399, 245, 87, 276, 102
-0.998401, 29, 145, 60, 160
-0.998402, 29, 163, 60, 178
-0.998402, 185, 69, 200, 100
-0.998404, 365, 85, 396, 100
-0.998404, 41, 95, 72, 110
-0.998406, 93, 139, 124, 154
-0.99841, 249, 67, 280, 82
-0.998413, 45, 165, 60, 196
-0.998414, 33, 63, 64, 78
-0.998414, 73, 139, 104, 154
-0.998415, 233, 91, 264, 106
-0.998418, 369, 183, 400, 198
-0.998418, 329, 59, 360, 74
-0.998419, 401, 113, 432, 128
-0.998419, 107, 137, 122, 168
-0.99842, 161, 63, 192, 78
-0.99842, 353, 67, 384, 82
-0.998423, 281, 107, 312, 122
-0.998427, 369, 109, 432, 124
-0.998428, 49, 105, 80, 120
-0.998429, 283, 57, 298, 88
-0.998431, 155, 177, 170, 208
-0.998432, 63, 53, 78, 84
-0.998432, 45, 85, 60, 116
-0.998432, 173, 71, 204, 86
-0.998432, 417, 117, 432, 148
-0.998434, 97, 53, 112, 84
-0.99844, 133, 173, 164, 188
-0.99844, 53, 53, 84, 68
-0.99844, 317, 53, 332, 84
-0.99844, 29, 133, 60, 148
-0.998441, 365, 99, 396, 114
-0.998447, 261, 63, 292, 78
-0.998449, 377, 109, 408, 124
-0.998452, 285, 89, 300, 120
-0.998453, 237, 81, 268, 96
-0.998454, 221, 89, 252, 104
-0.998455, 43, 69, 58, 100
-0.998455, 205, 83, 236, 98
-0.998457, 41, 57, 72, 72
-0.998458, 75, 169, 90, 200
-0.998459, 109, 165, 124, 196
-0.99846, 145, 59, 176, 74
-0.99846, 333, 57, 348, 88
-0.998462, 91, 137, 106, 168
-0.998462, 137, 65, 168, 80
-0.998463, 357, 73, 388, 88
-0.998463, 127, 141, 142, 172
-0.998466, 125, 55, 156, 70
-0.998467, 25, 173, 56, 188
-0.998471, 149, 249, 164, 280
-0.998472, 273, 59, 304, 74
-0.998472, 61, 105, 92, 120
-0.998474, 55, 137, 70, 168
-0.998476, 267, 89, 282, 120
-0.998476, 137, 249, 152, 280
-0.998477, 225, 81, 256, 96
-0.998478, 261, 77, 276, 108
-0.998479, 95, 181, 110, 212
-0.998479, 45, 129, 60, 160
-0.998485, 77, 69, 92, 100
-0.998488, 149, 71, 180, 86
-0.998493, 119, 249, 134, 280
-0.998494, 249, 165, 264, 196
-0.998495, 83, 181, 98, 212
-0.998498, 387, 93, 402, 124
-0.9985, 63, 113, 78, 144
-0.998501, 341, 61, 372, 76
-0.998501, 145, 169, 160, 200
-0.998508, 117, 77, 132, 108
-0.99851, 299, 137, 314, 168
-0.99851, 59, 85, 74, 116
-0.998511, 97, 125, 112, 156
-0.998512, 161, 249, 176, 280
-0.998514, 17, 71, 80, 86
-0.998516, 17, 33, 48, 286
-0.998519, 129, 65, 192, 80
-0.99852, 131, 249, 146, 280
-0.998522, 307, 81, 322, 112
-0.998522, 145, 71, 208, 86
-0.998526, 29, 77, 44, 108
-0.998527, 333, 165, 348, 196
-0.998527, 115, 49, 130, 80
-0.998528, 75, 241, 90, 272
-0.99853, 233, 79, 296, 94
-0.998534, 31, 141, 46, 172
-0.998535, 307, 117, 322, 148
-0.998535, 195, 77, 210, 108
-0.998536, 113, 59, 176, 74
-0.998536, 89, 181, 104, 212
-0.998537, 69, 125, 84, 156
-0.998538, 25, 69, 56, 84
-0.998542, 389, 109, 420, 124
-0.998543, 177, 83, 240, 98
-0.998544, 279, 89, 294, 120
-0.998549, 69, 241, 84, 272
-0.998549, 285, 245, 300, 276
-0.998549, 245, 73, 276, 88
-0.99855, 89, 73, 104, 104
-0.99855, 53, 253, 68, 284
-0.99855, 369, 115, 432, 130
-0.998554, 17, 171, 80, 186
-0.998554, 313, 61, 376, 76
-0.998557, 321, 67, 384, 82
-0.998563, 161, 69, 192, 84
-0.998569, 289, 55, 352, 70
-0.998569, 241, 73, 304, 88
-0.998569, 33, 61, 96, 76
-0.998573, 337, 73, 400, 88
-0.998574, 201, 85, 264, 100
-0.998576, 209, 77, 272, 92
-0.998578, 149, 65, 180, 80
-0.998582, 345, 99, 408, 114
-0.998583, 97, 53, 160, 68
-0.998584, 257, 61, 320, 76
-0.998584, 225, 85, 288, 100
-0.998586, 25, 93, 88, 108
-0.998587, 249, 67, 312, 82
-0.998587, 41, 241, 104, 256
-0.998588, 17, 165, 80, 180
-0.998589, 49, 53, 112, 68
-0.998589, 17, 77, 80, 92
-0.99859, 17, 87, 80, 102
-0.998592, 345, 91, 408, 106
-0.998593, 201, 91, 264, 106
-0.998595, 97, 189, 224, 220
-0.998599, 25, 181, 88, 196
-0.998602, 121, 71, 184, 86
-0.998604, 201, 101, 264, 116
-0.998604, 345, 105, 408, 120
-0.998605, 49, 89, 112, 104
-0.998605, 257, 79, 320, 94
-0.998606, 73, 89, 136, 104
-0.998607, 25, 147, 88, 162
-0.99861, 25, 103, 88, 118
-0.998611, 25, 135, 88, 150
-0.998614, 161, 77, 224, 92
-0.998616, 25, 113, 88, 128
-0.998618, 81, 263, 144, 278
-0.99862, 25, 157, 88, 172
-0.99862, 105, 261, 168, 276
-0.998622, 73, 51, 136, 66
-0.998623, 201, 107, 264, 122
-0.998623, 145, 257, 208, 272
-0.998624, 305, 97, 368, 112
-0.998627, 73, 129, 136, 144
-0.998628, 89, 69, 152, 84
-0.998631, 161, 107, 224, 122
-0.998632, 265, 247, 328, 262
-0.998633, 57, 267, 120, 282
-0.998635, 177, 99, 240, 114
-0.998635, 25, 55, 88, 70
-0.998636, 1, 181, 64, 196
-0.998636, 337, 79, 400, 94
-0.998637, 49, 135, 112, 150
-0.998639, 9, 271, 72, 286
-0.998639, 17, 141, 80, 156
-0.99864, 121, 171, 184, 186
-0.99864, 201, 113, 264, 128
-0.99864, 81, 95, 144, 110
-0.99864, 49, 71, 112, 86
-0.998643, 265, 93, 328, 108
-0.998644, 345, 177, 408, 192
-0.998644, 49, 105, 112, 120
-0.998645, 25, 125, 88, 140
-0.998645, 177, 93, 240, 108
-0.998646, 257, 45, 384, 76
-0.998646, 273, 73, 336, 88
-0.998647, 353, 199, 416, 214
-0.99865, 105, 163, 168, 178
-0.99865, 337, 85, 400, 100
-0.998651, 177, 253, 240, 268
-0.998652, 33, 269, 96, 284
-0.998652, 297, 91, 360, 106
-0.998652, 9, 65, 72, 80
-0.998652, 65, 241, 128, 256
-0.998652, 225, 91, 288, 106
-0.998653, 81, 171, 144, 186
-0.998653, 313, 75, 376, 90
-0.998655, 281, 135, 344, 150
-0.998655, 113, 91, 176, 106
-0.998657, 241, 97, 304, 112
-0.998657, 137, 99, 200, 114
-0.998659, 137, 91, 200, 106
-0.99866, 161, 113, 224, 128
-0.99866, 121, 177, 184, 192
-0.998661, 329, 135, 392, 150
-0.998661, 49, 99, 112, 114
-0.998663, 1, 189, 128, 220
-0.998663, 49, 83, 112, 98
-0.998664, 145, 249, 208, 264
-0.998664, 1, 265, 64, 280
-0.998664, 369, 103, 432, 118
-0.998664, 41, 141, 104, 156
-0.998667, 225, 161, 288, 176
-0.998668, 137, 105, 200, 120
-0.998668, 241, 169, 304, 184
-0.998668, 249, 163, 312, 178
-0.998669, 205, 1, 236, 256
-0.998669, 273, 87, 336, 102
-0.998669, 265, 129, 328, 144
-0.99867, 249, 85, 312, 100
-0.998672, 241, 249, 304, 264
-0.998672, 337, 163, 400, 178
-0.998673, 321, 171, 384, 186
-0.998673, 297, 69, 360, 84
-0.998674, 113, 253, 176, 268
-0.998676, 129, 147, 192, 162
-0.998677, 89, 179, 152, 194
-0.998677, 241, 107, 304, 122
-0.998677, 153, 197, 216, 212
-0.998679, 25, 119, 88, 134
-0.998679, 137, 85, 200, 100
-0.998679, 289, 129, 352, 144
-0.998679, 257, 179, 320, 194
-0.99868, 273, 107, 336, 122
-0.99868, 17, 247, 80, 262
-0.998682, 193, 183, 256, 198
-0.998682, 265, 55, 328, 70
-0.998683, 337, 143, 400, 158
-0.998683, 265, 141, 328, 156
-0.998683, 105, 149, 168, 164
-0.998684, 25, 263, 88, 278
-0.998684, 49, 179, 112, 194
-0.998685, 105, 85, 168, 100
-0.998685, 65, 159, 128, 174
-0.998686, 41, 165, 104, 180
-0.998687, 305, 137, 368, 152
-0.998687, 137, 77, 200, 92
-0.998715, 217, 33, 248, 286
-0.99873, 169, 33, 200, 286
-0.99876, 161, 185, 288, 216
-0.998769, 305, 217, 432, 248
-0.998817, 305, 205, 432, 236
-0.998839, 145, 217, 272, 248
-0.998868, 177, 197, 304, 228
-0.998893, 185, 65, 200, 192
-0.998919, 305, 45, 432, 76
-0.999023, 175, 49, 190, 176
-0.999026, 379, 81, 394, 208
-0.999036, 369, 65, 384, 192
-0.999038, 31, 49, 46, 176
-0.999042, 83, 33, 98, 160
-0.999062, 155, 49, 170, 176
-0.999066, 199, 65, 214, 192
-0.999071, 97, 225, 224, 256
-0.999076, 387, 97, 402, 224
-0.999083, 193, 65, 208, 192
-0.999086, 305, 9, 432, 72
-0.999097, 97, 33, 112, 160
-0.999099, 235, 81, 250, 208
-0.999111, 297, 33, 312, 160
-0.999122, 225, 213, 352, 244
-0.999126, 1, 201, 128, 232
-0.999132, 227, 65, 242, 192
-0.999138, 213, 65, 228, 192
-0.999139, 399, 97, 414, 224
-0.999146, 305, 33, 320, 160
-0.99915, 285, 33, 300, 160
-0.999152, 75, 33, 90, 160
-0.999154, 89, 33, 104, 160
-0.999154, 401, 33, 432, 286
-0.999165, 341, 49, 356, 176
-0.999165, 207, 65, 222, 192
-0.999172, 131, 97, 146, 224
-0.999178, 361, 49, 376, 176
-0.999186, 57, 33, 72, 160
-0.999191, 249, 65, 264, 192
-0.999191, 255, 49, 270, 176
-0.999193, 161, 65, 176, 192
-0.999196, 113, 205, 240, 236
-0.999199, 125, 113, 140, 240
-0.999202, 83, 81, 98, 208
-0.999202, 409, 97, 424, 224
-0.999203, 393, 97, 408, 224
-0.999204, 29, 97, 44, 224
-0.99921, 123, 33, 138, 160
-0.99922, 45, 81, 60, 208
-0.999221, 69, 33, 84, 160
-0.999223, 119, 81, 134, 208
-0.999224, 111, 33, 126, 160
-0.999225, 39, 49, 54, 176
-0.999226, 241, 81, 256, 208
-0.99923, 269, 81, 284, 208
-0.999231, 209, 53, 336, 84
-0.999234, 317, 33, 332, 160
-0.999242, 137, 33, 152, 160
-0.999249, 89, 81, 104, 208
-0.99925, 351, 49, 366, 176
-0.999252, 105, 33, 120, 160
-0.999253, 77, 97, 92, 224
-0.999255, 303, 81, 318, 208
-0.999266, 169, 49, 184, 176
-0.999269, 193, 33, 224, 286
-0.999273, 23, 161, 38, 286
-0.999274, 311, 33, 326, 160
-0.999274, 129, 41, 256, 72
-0.999279, 49, 189, 176, 220
-0.999286, 221, 65, 236, 192
-0.999291, 371, 161, 386, 286
-0.999294, 333, 33, 348, 160
-0.999296, 7, 161, 22, 286
-0.999297, 51, 33, 66, 160
-0.9993, 63, 33, 78, 160
-0.999303, 43, 145, 58, 272
-0.999309, 117, 33, 132, 160
-0.999312, 295, 81, 310, 208
-0.999312, 35, 97, 50, 224
-0.999315, 131, 33, 146, 160
-0.999316, 279, 49, 294, 176
-0.999325, 291, 33, 306, 160
-0.999334, 261, 81, 276, 208
-0.999342, 385, 161, 400, 286
-0.999342, 327, 33, 342, 160
-0.999344, 29, 145, 44, 272
-0.999346, 1, 161, 16, 286
-0.999346, 51, 97, 66, 224
-0.999351, 13, 161, 28, 286
-0.999356, 267, 33, 282, 160
-0.999359, 273, 33, 288, 160
-0.999361, 49, 145, 64, 272
-0.999368, 341, 97, 356, 224
-0.999368, 309, 81, 324, 208
-0.999368, 143, 49, 158, 176
-0.99937, 33, 217, 160, 248
-0.999372, 241, 193, 368, 224
-0.999374, 149, 49, 164, 176
-0.999375, 119, 129, 134, 256
-0.999383, 249, 161, 264, 286
-0.999385, 83, 161, 98, 286
-0.999386, 417, 113, 432, 240
-0.999397, 363, 97, 378, 224
-0.999401, 305, 253, 432, 284
-0.999406, 71, 97, 86, 224
-0.999406, 275, 97, 290, 224
-0.999407, 57, 81, 72, 208
-0.999408, 95, 81, 110, 208
-0.999419, 169, 113, 184, 240
-0.999421, 137, 97, 152, 224
-0.999421, 351, 97, 366, 224
-0.99943, 113, 81, 128, 208
-0.999435, 335, 81, 350, 208
-0.999437, 243, 145, 258, 272
-0.999437, 113, 145, 128, 272
-0.999439, 223, 113, 238, 240
-0.999441, 309, 161, 324, 286
-0.999444, 261, 33, 276, 160
-0.999445, 77, 161, 92, 286
-0.999445, 35, 145, 50, 272
-0.999449, 25, 49, 40, 176
-0.999453, 45, 33, 60, 160
-0.999458, 89, 145, 104, 272
-0.999458, 335, 145, 350, 272
-0.999462, 105, 81, 120, 208
-0.99947, 379, 161, 394, 286
-0.99947, 265, 145, 280, 272
-0.999473, 55, 145, 70, 272
-0.999475, 23, 97, 38, 224
-0.999476, 249, 113, 264, 240
-0.999482, 175, 97, 190, 224
-0.999483, 327, 81, 342, 208
-0.999484, 393, 161, 408, 286
-0.999484, 145, 97, 160, 224
-0.999485, 373, 113, 388, 240
-0.999492, 375, 33, 390, 160
-0.999493, 203, 161, 218, 286
-0.999494, 315, 97, 330, 224
-0.999495, 329, 145, 344, 272
-0.999497, 155, 145, 170, 272
-0.9995, 357, 161, 372, 286
-0.999501, 187, 161, 202, 286
-0.999502, 203, 113, 218, 240
-0.999508, 221, 161, 236, 286
-0.999509, 185, 17, 200, 144
-0.99951, 289, 81, 304, 208
-0.999512, 255, 97, 270, 224
-0.999519, 301, 161, 316, 286
-0.999524, 181, 161, 196, 286
-0.999525, 217, 113, 232, 240
-0.999526, 145, 25, 208, 88
-0.999527, 161, 17, 176, 144
-0.999538, 325, 55, 340, 70
-0.999538, 115, 129, 130, 144
-0.999538, 373, 181, 388, 196
-0.999538, 73, 107, 88, 122
-0.999538, 33, 163, 48, 178
-0.999539, 385, 185, 400, 200
-0.999539, 209, 113, 224, 128
-0.99954, 47, 95, 62, 110
-0.99954, 127, 145, 142, 160
-0.99954, 61, 53, 76, 68
-0.99954, 139, 61, 154, 76
-0.999541, 239, 75, 254, 90
-0.999542, 121, 133, 136, 148
-0.999542, 315, 137, 330, 152
-0.999542, 387, 99, 402, 114
-0.999542, 67, 241, 82, 256
-0.999543, 101, 143, 116, 158
-0.999543, 297, 55, 312, 70
-0.999544, 45, 129, 60, 144
-0.999544, 55, 87, 70, 102
-0.999545, 109, 69, 124, 84
-0.999545, 139, 97, 154, 112
-0.999545, 359, 101, 374, 116
-0.999545, 141, 69, 156, 84
-0.999546, 167, 73, 182, 88
-0.999547, 279, 73, 294, 88
-0.999548, 39, 71, 54, 86
-0.999548, 53, 95, 68, 110
-0.999548, 205, 81, 220, 96
-0.999549, 281, 59, 296, 74
-0.999549, 291, 135, 306, 150
-0.999549, 413, 115, 428, 130
-0.99955, 341, 93, 356, 108
-0.99955, 77, 139, 92, 154
-0.99955, 63, 135, 78, 150
-0.99955, 27, 183, 42, 198
-0.99955, 247, 87, 262, 102
-0.999551, 245, 93, 260, 108
-0.999551, 119, 89, 134, 104
-0.999551, 283, 247, 298, 262
-0.999552, 133, 95, 148, 110
-0.999552, 271, 91, 286, 106
-0.999553, 77, 133, 92, 148
-0.999555, 119, 95, 134, 110
-0.999555, 45, 69, 60, 84
-0.999557, 331, 59, 346, 74
-0.999557, 31, 147, 46, 162
-0.999558, 123, 179, 138, 194
-0.999558, 99, 69, 114, 84
-0.999559, 29, 75, 44, 90
-0.99956, 265, 73, 280, 88
-0.99956, 203, 111, 218, 126
-0.999561, 55, 143, 70, 158
-0.999561, 55, 241, 70, 256
-0.999561, 117, 53, 132, 68
-0.999563, 55, 53, 70, 68
-0.999563, 379, 105, 394, 120
-0.999563, 19, 73, 34, 88
-0.999563, 289, 75, 304, 90
-0.999563, 83, 141, 98, 156
-0.999563, 31, 97, 46, 112
-0.999564, 109, 135, 124, 150
-0.999564, 379, 99, 394, 114
-0.999565, 325, 139, 340, 154
-0.999565, 147, 171, 162, 186
-0.999565, 55, 137, 70, 152
-0.999566, 385, 197, 400, 212
-0.999567, 287, 59, 302, 74
-0.999567, 213, 83, 228, 98
-0.999567, 339, 59, 354, 74
-0.999568, 277, 139, 292, 154
-0.999569, 71, 137, 86, 152
-0.99957, 17, 181, 32, 196
-0.999571, 249, 81, 264, 96
-0.999572, 259, 69, 274, 84
-0.999573, 299, 75, 314, 90
-0.999574, 81, 241, 96, 256
-0.999575, 127, 53, 142, 68
-0.999575, 377, 87, 392, 102
-0.999577, 185, 73, 200, 88
-0.999579, 133, 53, 148, 68
-0.99958, 299, 139, 314, 154
-0.99958, 395, 109, 410, 124
-0.999581, 49, 87, 64, 102
-0.999582, 273, 59, 288, 74
-0.999584, 225, 91, 240, 106
-0.999585, 125, 91, 140, 106
-0.999585, 93, 143, 108, 158
-0.999588, 221, 83, 236, 98
-0.999589, 387, 109, 402, 124
-0.999592, 145, 63, 160, 78
-0.999596, 307, 137, 322, 152
-0.999597, 83, 135, 98, 150
-0.999598, 93, 133, 108, 148
-0.9996, 357, 63, 372, 78
-0.999602, 227, 85, 242, 100
-0.999605, 285, 107, 300, 122
-0.999607, 345, 59, 360, 74
-0.999608, 233, 97, 248, 112
-0.999608, 375, 75, 390, 90
-0.999612, 155, 71, 170, 86
-0.999613, 239, 97, 254, 112
-0.999616, 49, 55, 64, 70
-0.999616, 263, 63, 278, 78
-0.999622, 103, 137, 118, 152
-0.999623, 351, 61, 366, 76
-0.999624, 155, 59, 170, 74
-0.999626, 179, 71, 194, 86
-0.999633, 375, 81, 390, 96
-0.999634, 407, 111, 422, 126
-0.999634, 27, 173, 42, 188
-0.999635, 39, 61, 54, 76
-0.999637, 139, 55, 154, 70
-0.999642, 363, 69, 378, 84
-0.99965, 233, 89, 248, 104
-0.999651, 63, 105, 78, 120
-0.999656, 401, 107, 416, 122
-0.999658, 161, 71, 176, 86
-0.999663, 81, 37, 208, 68
-0.999666, 173, 69, 188, 84
-0.999667, 253, 69, 268, 84
-0.999667, 239, 91, 254, 106
-0.999669, 31, 65, 46, 80
-0.999669, 151, 65, 166, 80
-0.999669, 145, 57, 160, 72
-0.999672, 239, 81, 254, 96
-0.99968, 25, 69, 40, 84
-0.999692, 5, 33, 36, 286
-0.999712, 369, 73, 384, 88
-0.999712, 245, 73, 260, 88
-0.999722, 161, 65, 176, 80
-0.999733, 193, 41, 320, 72
-0.999745, 167, 67, 182, 82
-0.999794, 169, 1, 200, 128
-0.999839, 49, 201, 176, 232
-0.999871, 209, 9, 336, 72
-1.00031, 9, 1, 40, 128
-1.00052, 161, 17, 416, 80
-1.00053, 361, 25, 424, 88
-1.00053, 305, 33, 432, 64
-1.00055, 1, 29, 128, 60
-1.0008, 65, 9, 320, 72
-1.00086, 257, 29, 384, 60
-1.00087, 161, 1, 288, 32
-1.00091, 17, 5, 144, 36
-1.00091, 241, 13, 368, 44
-1.00093, 1, 17, 128, 48
-1.00094, 209, 1, 336, 32
-1.00094, 161, 13, 288, 44
-1.00094, 305, 17, 432, 48
-1.00099, 65, 21, 192, 52
-1.00099, 81, 1, 208, 32
-1.001, 177, 25, 304, 56
-1.00101, 257, 1, 384, 32
-1.00102, 305, 5, 432, 36
-1.00106, 113, 17, 240, 48
-1.00128, 129, 29, 256, 60
-1.00137, 169, 33, 232, 96
-1.00173, 337, 17, 400, 80
-1.00187, 1, 1, 128, 64
-1.00197, 257, 1, 384, 64
-1.00235, 233, 17, 296, 80
-1.00237, 17, 9, 80, 72
-1.00311, 5, 49, 36, 176
-1.00327, 1, 9, 432, 72
-1.00453, 129, 1, 256, 64
-1.0047, 121, 9, 184, 72
-1.00664, 385, 1, 416, 128
-1.00686, 313, 9, 376, 72
-1.00693, 265, 9, 328, 72
-1.00834, 369, 1, 432, 64
-1.00903, 89, 1, 152, 64
-1.00922, 41, 1, 104, 64
-1.00929, 193, 1, 256, 64
-1.01076, 397, 1, 428, 128
-1.01106, 169, 1, 232, 64
-1.01127, 65, 1, 128, 64
-1.01186, 145, 1, 208, 64
-1.01296, 289, 1, 352, 64
