1877
-0.442876, 1, 65, 500, 320
-0.592596, 1, 1, 500, 335
-0.659102, 129, 1, 384, 335
-0.678784, 257, 1, 500, 335
-0.686994, 129, 65, 384, 320
-0.713395, 1, 1, 256, 335
-0.821423, 257, 1, 500, 256
-0.864002, 1, 65, 256, 320
-0.890716, 225, 65, 352, 320
-0.900918, 1, 161, 500, 288
-0.906269, 1, 209, 500, 335
-0.908361, 257, 1, 384, 335
-0.908387, 305, 1, 432, 335
-0.919103, 1, 65, 500, 192
-0.920522, 305, 65, 432, 320
-0.920602, 161, 209, 416, 335
-0.923034, 81, 1, 208, 335
-0.92362, 17, 1, 144, 335
-0.924417, 209, 1, 336, 335
-0.92503, 81, 65, 208, 320
-0.926732, 1, 113, 500, 240
-0.929679, 161, 65, 288, 320
-0.930825, 129, 145, 384, 272
-0.932851, 1, 65, 128, 320
-0.933939, 369, 1, 496, 335
-0.937957, 161, 1, 288, 335
-0.938723, 129, 97, 384, 224
-0.94058, 257, 193, 384, 320
-0.940812, 97, 209, 224, 335
-0.94134, 105, 209, 168, 335
-0.943974, 1, 1, 500, 128
-0.945579, 313, 209, 376, 335
-0.950396, 65, 193, 320, 320
-0.95111, 257, 65, 500, 192
-0.952407, 225, 113, 352, 240
-0.954073, 369, 1, 496, 256
-0.956692, 137, 209, 200, 335
-0.958093, 49, 209, 176, 335
-0.958164, 297, 161, 360, 288
-0.958996, 225, 161, 480, 288
-0.96035, 65, 49, 320, 176
-0.96116, 105, 233, 168, 296
-0.961427, 81, 209, 144, 335
-0.962573, 313, 265, 376, 328
-0.963305, 193, 65, 320, 192
-0.96373, 81, 161, 208, 288
-0.96404, 33, 129, 288, 256
-0.964363, 313, 233, 376, 296
-0.964422, 145, 129, 272, 256
-0.964789, 273, 113, 336, 240
-0.966413, 177, 193, 304, 320
-0.966642, 265, 249, 328, 312
-0.967257, 249, 65, 312, 192
-0.967511, 137, 225, 200, 288
-0.967981, 81, 273, 144, 335
-0.968231, 297, 193, 360, 256
-0.968288, 225, 113, 480, 240
-0.968296, 121, 257, 184, 320
-0.96879, 289, 81, 416, 208
-0.969214, 281, 153, 344, 216
-0.970185, 257, 113, 320, 176
-0.971085, 105, 161, 168, 288
-0.97209, 81, 241, 144, 304
-0.972289, 105, 209, 168, 272
-0.972738, 257, 209, 500, 335
-0.973207, 241, 65, 368, 192
-0.973254, 273, 209, 336, 335
-0.973267, 81, 225, 208, 288
-0.973284, 113, 209, 144, 335
-0.97349, 73, 209, 136, 272
-0.973636, 257, 17, 500, 144
-0.974087, 305, 209, 432, 335
-0.974954, 109, 241, 140, 304
-0.975038, 257, 265, 384, 328
-0.975088, 273, 145, 400, 272
-0.975296, 345, 233, 376, 296
-0.975684, 1, 177, 128, 304
-0.976111, 241, 73, 304, 136
-0.976361, 225, 153, 352, 216
-0.976597, 153, 257, 216, 320
-0.97694, 129, 161, 192, 288
-0.977601, 273, 241, 400, 304
-0.977608, 289, 225, 352, 288
-0.977979, 281, 273, 344, 335
-0.978055, 81, 257, 208, 320
-0.978332, 321, 145, 448, 272
-0.979161, 57, 193, 120, 320
-0.97917, 249, 113, 312, 240
-0.97982, 209, 105, 336, 168
-0.980062, 141, 209, 172, 335
-0.980164, 273, 217, 400, 280
-0.980172, 257, 193, 384, 256
-0.98035, 137, 201, 200, 264
-0.980416, 337, 241, 400, 304
-0.98116, 305, 81, 368, 208
-0.981191, 249, 185, 312, 248
-0.981299, 89, 185, 152, 248
-0.98132, 289, 113, 320, 176
-0.981325, 225, 97, 288, 224
-0.981577, 57, 241, 120, 304
-0.981612, 161, 129, 224, 256
-0.981645, 165, 225, 196, 288
-0.981708, 161, 49, 416, 176
-0.981806, 233, 105, 296, 168
-0.981851, 81, 113, 208, 240
-0.982064, 309, 161, 340, 224
-0.982123, 325, 177, 356, 304
-0.982196, 97, 241, 128, 304
-0.982214, 265, 225, 328, 288
-0.982273, 353, 265, 416, 328
-0.982367, 313, 161, 344, 288
-0.982421, 81, 201, 208, 264
-0.982562, 341, 209, 372, 335
-0.982656, 321, 201, 384, 264
-0.98267, 257, 17, 384, 144
-0.982705, 1, 113, 128, 240
-0.982755, 109, 209, 140, 272
-0.982859, 129, 209, 160, 335
-0.983072, 161, 233, 224, 296
-0.983189, 93, 217, 124, 280
-0.983257, 249, 177, 312, 304
-0.983301, 225, 49, 288, 176
-0.983305, 97, 1, 352, 128
-0.983679, 329, 145, 392, 272
-0.983982, 225, 129, 352, 192
-0.984076, 289, 249, 352, 312
-0.984084, 81, 65, 208, 192
-0.984088, 257, 137, 320, 200
-0.984106, 33, 233, 160, 296
-0.984328, 161, 209, 224, 335
-0.984397, 325, 193, 356, 256
-0.984434, 145, 137, 272, 200
-0.984444, 81, 161, 144, 288
-0.984598, 249, 161, 312, 224
-0.984615, 353, 209, 416, 335
-0.984802, 285, 113, 316, 240
-0.984947, 337, 241, 464, 304
-0.984964, 249, 65, 312, 320
-0.984969, 225, 209, 288, 335
-0.985136, 289, 65, 352, 320
-0.985201, 1, 1, 128, 128
-0.985342, 281, 49, 344, 176
-0.985365, 281, 81, 344, 144
-0.985691, 153, 209, 184, 335
-0.985709, 201, 129, 264, 256
-0.985737, 273, 161, 336, 288
-0.985804, 113, 273, 144, 335
-0.985806, 161, 241, 288, 304
-0.985826, 177, 257, 240, 320
-0.986084, 289, 121, 416, 184
-0.986125, 129, 265, 160, 328
-0.98614, 129, 169, 192, 232
-0.986436, 81, 177, 208, 240
-0.986438, 313, 257, 344, 320
-0.986718, 353, 193, 480, 320
-0.986849, 337, 273, 464, 335
-0.986864, 305, 169, 368, 232
-0.986869, 301, 265, 332, 328
-0.986891, 129, 225, 160, 288
-0.987015, 233, 137, 296, 200
-0.98709, 329, 161, 392, 224
-0.987091, 305, 1, 432, 128
-0.9871, 161, 137, 224, 200
-0.987276, 273, 161, 400, 224
-0.987282, 201, 121, 264, 184
-0.98733, 93, 193, 124, 320
-0.987471, 225, 81, 352, 144
-0.987528, 57, 81, 120, 208
-0.987682, 17, 65, 144, 192
-0.987778, 293, 145, 324, 208
-0.987814, 337, 209, 464, 272
-0.987839, 273, 89, 400, 152
-0.987875, 281, 129, 344, 192
-0.988044, 1, 209, 128, 272
-0.988087, 329, 65, 392, 320
-0.98816, 233, 265, 296, 328
-0.988161, 165, 209, 196, 335
-0.988379, 17, 257, 144, 320
-0.98841, 97, 265, 128, 328
-0.988431, 333, 225, 364, 288
-0.988501, 369, 33, 496, 160
-0.988515, 353, 217, 416, 280
-0.98854, 305, 121, 368, 184
-0.988543, 301, 241, 332, 304
-0.988559, 225, 161, 288, 288
-0.988594, 261, 65, 292, 128
-0.988625, 161, 217, 288, 280
-0.988626, 149, 257, 180, 320
-0.98864, 301, 129, 332, 256
-0.988684, 161, 185, 288, 248
-0.9887, 209, 265, 336, 328
-0.988726, 261, 49, 292, 176
-0.988895, 1, 113, 64, 240
-0.988949, 109, 161, 140, 288
-0.989099, 145, 81, 272, 208
-0.98911, 125, 161, 156, 288
-0.989121, 105, 185, 136, 248
-0.989152, 285, 249, 316, 312
-0.989152, 341, 257, 372, 320
-0.989393, 161, 185, 224, 248
-0.989583, 177, 73, 304, 136
-0.989585, 273, 105, 304, 168
-0.989597, 265, 261, 328, 292
-0.989799, 57, 113, 120, 176
-0.98986, 145, 161, 272, 224
-0.989868, 97, 265, 160, 296
-0.989915, 321, 177, 448, 240
-0.989926, 313, 269, 376, 300
-0.989936, 33, 81, 96, 208
-0.990042, 129, 261, 192, 292
-0.990049, 321, 169, 352, 232
-0.990227, 149, 161, 180, 288
-0.990271, 97, 249, 160, 280
-0.990335, 97, 97, 160, 224
-0.990349, 209, 153, 272, 216
-0.990403, 273, 177, 336, 240
-0.990432, 65, 185, 128, 248
-0.990434, 209, 241, 336, 304
-0.990457, 209, 177, 336, 240
-0.990487, 65, 65, 128, 320
-0.990497, 1, 113, 128, 176
-0.990544, 273, 241, 304, 304
-0.99055, 129, 265, 256, 328
-0.990558, 313, 301, 376, 332
-0.99057, 321, 253, 384, 284
-0.990657, 337, 201, 368, 264
-0.990731, 153, 225, 184, 288
-0.990753, 153, 253, 216, 284
-0.990787, 177, 249, 208, 312
-0.990794, 33, 89, 96, 152
-0.990845, 393, 17, 456, 144
-0.990866, 57, 1, 120, 128
-0.990867, 241, 217, 304, 280
-0.990873, 265, 97, 296, 224
-0.990947, 297, 197, 360, 228
-0.99095, 313, 289, 376, 320
-0.99096, 81, 145, 208, 208
-0.990983, 313, 237, 376, 268
-0.990994, 297, 253, 360, 284
-0.991108, 281, 209, 312, 335
-0.991205, 305, 1, 368, 335
-0.991238, 97, 209, 160, 240
-0.991244, 281, 165, 344, 196
-0.991245, 361, 241, 424, 304
-0.991266, 97, 65, 160, 320
-0.991271, 249, 113, 312, 144
-0.991292, 129, 145, 192, 208
-0.991301, 97, 237, 160, 268
-0.991338, 365, 249, 396, 312
-0.991385, 265, 133, 328, 164
-0.991393, 65, 221, 128, 252
-0.991424, 273, 201, 336, 264
-0.991447, 289, 209, 320, 272
-0.991448, 265, 149, 328, 180
-0.99145, 345, 1, 408, 128
-0.99145, 73, 245, 136, 276
-0.99152, 73, 265, 136, 296
-0.991531, 137, 113, 200, 240
-0.991538, 281, 177, 344, 208
-0.991555, 329, 1, 392, 335
-0.991661, 313, 233, 344, 296
-0.991666, 1, 89, 64, 152
-0.991723, 137, 233, 200, 264
-0.991743, 1, 89, 128, 152
-0.991749, 273, 277, 336, 308
-0.991759, 305, 225, 368, 256
-0.991767, 141, 225, 172, 288
-0.991775, 289, 213, 352, 244
-0.991802, 129, 249, 192, 280
-0.991848, 361, 273, 392, 335
-0.99186, 77, 209, 108, 272
-0.991865, 249, 97, 280, 224
-0.991907, 289, 241, 352, 272
-0.991919, 241, 97, 304, 128
-0.991924, 353, 257, 416, 288
-0.991931, 177, 209, 240, 272
-0.991959, 49, 217, 112, 280
-0.991972, 321, 153, 448, 216
-0.991996, 97, 225, 160, 256
-0.99201, 353, 277, 416, 308
-0.992018, 265, 249, 328, 280
-0.992025, 337, 217, 400, 248
-0.992031, 89, 281, 152, 312
-0.992064, 73, 209, 136, 240
-0.99208, 353, 245, 416, 276
-0.99208, 273, 289, 336, 320
-0.992096, 345, 289, 408, 320
-0.992128, 161, 209, 416, 272
-0.992211, 153, 301, 216, 332
-0.99223, 289, 265, 352, 296
-0.992265, 241, 85, 304, 116
-0.992288, 345, 305, 408, 335
-0.992311, 329, 205, 392, 236
-0.992316, 177, 245, 240, 276
-0.992319, 321, 181, 384, 212
-0.99239, 89, 193, 120, 256
-0.992407, 153, 269, 216, 300
-0.992409, 241, 73, 304, 104
-0.992431, 65, 233, 128, 264
-0.992465, 249, 189, 312, 220
-0.992481, 89, 193, 152, 224
-0.992501, 297, 141, 360, 172
-0.992501, 273, 1, 336, 335
-0.992556, 273, 93, 336, 124
-0.99257, 137, 221, 200, 252
-0.992571, 253, 105, 284, 168
-0.992588, 249, 201, 312, 232
-0.992588, 225, 145, 288, 176
-0.992593, 109, 257, 140, 288
-0.992611, 161, 233, 416, 296
-0.992619, 129, 301, 192, 332
-0.992621, 121, 209, 184, 240
-0.99263, 273, 121, 336, 152
-0.992638, 345, 161, 376, 288
-0.992666, 177, 257, 240, 288
-0.992676, 65, 197, 128, 228
-0.992698, 309, 81, 340, 208
-0.992701, 305, 257, 336, 288
-0.992716, 129, 197, 192, 228
-0.992721, 109, 245, 140, 276
-0.992752, 281, 305, 344, 335
-0.992758, 269, 153, 300, 216
-0.99276, 57, 273, 120, 335
-0.992762, 273, 65, 400, 128
-0.99279, 329, 193, 392, 224
-0.992792, 129, 145, 384, 208
-0.992797, 109, 269, 140, 300
-0.992807, 97, 241, 128, 272
-0.992822, 57, 89, 120, 152
-0.99284, 137, 65, 200, 320
-0.992843, 345, 237, 376, 268
-0.992853, 353, 229, 416, 260
-0.992857, 57, 121, 120, 152
-0.992874, 265, 213, 328, 244
-0.992875, 325, 201, 356, 232
-0.992896, 169, 253, 200, 284
-0.99291, 305, 165, 336, 196
-0.992913, 65, 1, 128, 335
-0.992916, 297, 129, 360, 160
-0.992929, 129, 265, 160, 296
-0.992929, 305, 209, 336, 335
-0.99293, 249, 1, 312, 335
-0.992931, 257, 177, 320, 208
-0.992937, 273, 105, 336, 136
-0.992946, 273, 189, 336, 220
-0.992954, 289, 265, 320, 296
-0.992968, 225, 181, 288, 212
-0.992971, 161, 173, 224, 204
-0.992984, 217, 125, 280, 156
-0.992994, 305, 153, 368, 184
-0.993, 281, 253, 312, 284
-0.993005, 65, 277, 128, 308
-0.993008, 129, 181, 192, 212
-0.993012, 113, 277, 176, 308
-0.993015, 289, 121, 320, 152
-0.993023, 285, 65, 316, 192
-0.993033, 285, 81, 316, 144
-0.993044, 33, 185, 160, 248
-0.993049, 81, 297, 144, 328
-0.993052, 161, 17, 288, 144
-0.99307, 297, 245, 328, 276
-0.993076, 361, 1, 424, 64
-0.993079, 177, 233, 240, 264
-0.993088, 105, 213, 136, 244
-0.993093, 241, 157, 304, 188
-0.993103, 241, 133, 304, 164
-0.993104, 345, 253, 376, 284
-0.99311, 177, 297, 240, 328
-0.99311, 153, 201, 184, 264
-0.993112, 209, 97, 272, 160
-0.993112, 161, 177, 416, 240
-0.993119, 341, 269, 372, 300
-0.993121, 105, 305, 168, 335
-0.993124, 253, 193, 284, 320
-0.99313, 97, 265, 128, 296
-0.993134, 301, 217, 332, 280
-0.993142, 97, 253, 128, 284
-0.993143, 233, 281, 296, 312
-0.993154, 1, 193, 500, 256
-0.993161, 225, 57, 352, 120
-0.993179, 313, 269, 344, 300
-0.993182, 157, 253, 188, 284
-0.993194, 153, 289, 216, 320
-0.993198, 1, 249, 500, 312
-0.993201, 141, 257, 172, 288
-0.993204, 273, 225, 336, 256
-0.99321, 165, 229, 196, 260
-0.993212, 193, 257, 448, 320
-0.993214, 289, 145, 320, 176
-0.993221, 225, 169, 288, 200
-0.993224, 249, 237, 312, 268
-0.993228, 109, 233, 140, 264
-0.993236, 361, 265, 392, 296
-0.993239, 333, 225, 364, 256
-0.993245, 301, 269, 332, 300
-0.993247, 85, 221, 116, 252
-0.993256, 321, 169, 384, 200
-0.993281, 41, 305, 104, 335
-0.993289, 357, 301, 388, 332
-0.993292, 325, 213, 356, 244
-0.993294, 361, 277, 392, 308
-0.993297, 345, 213, 376, 244
-0.993298, 81, 81, 144, 144
-0.993309, 365, 249, 396, 280
-0.993312, 241, 257, 304, 288
-0.993317, 169, 241, 200, 272
-0.993322, 293, 161, 324, 192
-0.993326, 317, 181, 348, 212
-0.993327, 305, 1, 432, 64
-0.993333, 269, 257, 300, 288
-0.993338, 273, 113, 304, 144
-0.993343, 161, 209, 224, 240
-0.993346, 193, 133, 256, 164
-0.993349, 317, 169, 348, 200
-0.993353, 165, 301, 196, 332
-0.993355, 97, 229, 128, 260
-0.993357, 321, 257, 352, 288
-0.993358, 297, 117, 360, 148
-0.993368, 1, 225, 500, 288
-0.993371, 121, 253, 152, 284
-0.993377, 273, 81, 336, 112
-0.993377, 129, 169, 192, 200
-0.993381, 93, 277, 124, 308
-0.99339, 357, 289, 388, 320
-0.993399, 161, 145, 224, 176
-0.9934, 149, 209, 180, 240
-0.9934, 41, 205, 104, 236
-0.993405, 129, 229, 160, 260
-0.993413, 165, 265, 196, 328
-0.993413, 289, 133, 320, 164
-0.993416, 225, 177, 288, 240
-0.993428, 89, 201, 120, 232
-0.993428, 309, 149, 340, 180
-0.993429, 225, 113, 288, 144
-0.993432, 253, 181, 284, 212
-0.993434, 301, 281, 332, 312
-0.993437, 201, 165, 264, 196
-0.993437, 209, 101, 272, 132
-0.99344, 177, 269, 208, 300
-0.993442, 241, 141, 272, 172
-0.993443, 193, 285, 256, 316
-0.993449, 77, 209, 108, 240
-0.993453, 313, 245, 344, 276
-0.993458, 265, 185, 296, 216
-0.993459, 49, 121, 176, 184
-0.993461, 241, 297, 304, 328
-0.993462, 341, 281, 372, 312
-0.993468, 109, 285, 140, 316
-0.993468, 97, 161, 160, 192
-0.993473, 229, 125, 260, 156
-0.993474, 225, 269, 288, 300
-0.993478, 265, 69, 296, 100
-0.99348, 17, 125, 80, 156
-0.993491, 365, 237, 396, 268
-0.993495, 341, 293, 372, 324
-0.993517, 97, 181, 160, 212
-0.993519, 133, 213, 164, 244
-0.993522, 117, 209, 148, 240
-0.993524, 65, 225, 320, 288
-0.993529, 353, 65, 416, 320
-0.993533, 281, 101, 312, 132
-0.993538, 185, 253, 216, 284
-0.993538, 73, 221, 104, 252
-0.99354, 277, 185, 308, 216
-0.993541, 225, 193, 288, 224
-0.993549, 177, 301, 208, 332
-0.993552, 265, 101, 296, 132
-0.993553, 265, 145, 296, 176
-0.993553, 113, 193, 144, 224
-0.993555, 313, 193, 344, 224
-0.993556, 305, 233, 336, 264
-0.99356, 285, 241, 316, 272
-0.993563, 293, 217, 324, 248
-0.993566, 245, 129, 276, 160
-0.993569, 253, 113, 284, 144
-0.993569, 137, 305, 168, 335
-0.993577, 185, 241, 216, 272
-0.993577, 289, 197, 320, 228
-0.993577, 305, 137, 336, 168
-0.993578, 289, 185, 320, 216
-0.993592, 101, 197, 132, 228
-0.993593, 237, 153, 268, 184
-0.993599, 265, 197, 296, 228
-0.993599, 337, 305, 368, 335
-0.993604, 201, 177, 264, 208
-0.993604, 309, 125, 340, 156
-0.993613, 49, 253, 112, 284
-0.993617, 281, 229, 312, 260
-0.993619, 281, 217, 312, 248
-0.993623, 153, 221, 184, 252
-0.993627, 309, 293, 340, 324
-0.993628, 329, 185, 360, 216
-0.993632, 85, 241, 116, 272
-0.993633, 333, 253, 364, 284
-0.993633, 153, 301, 184, 332
-0.993634, 169, 209, 200, 240
-0.993634, 253, 193, 284, 224
-0.993634, 185, 289, 216, 320
-0.993635, 265, 293, 296, 324
-0.993636, 257, 277, 288, 308
-0.993638, 361, 5, 424, 36
-0.993641, 41, 225, 104, 256
-0.993645, 253, 145, 284, 176
-0.993648, 225, 205, 288, 236
-0.99365, 273, 241, 304, 272
-0.993654, 285, 89, 316, 120
-0.993654, 245, 169, 276, 200
-0.993654, 345, 225, 376, 256
-0.993656, 57, 129, 120, 256
-0.993661, 293, 109, 324, 140
-0.993661, 201, 145, 264, 176
-0.993663, 337, 201, 368, 232
-0.993666, 133, 245, 164, 276
-0.993667, 157, 265, 188, 296
-0.993668, 89, 301, 120, 332
-0.993671, 161, 161, 224, 192
-0.993674, 357, 225, 388, 256
-0.993678, 301, 177, 332, 208
-0.993687, 265, 173, 296, 204
-0.993689, 189, 301, 220, 332
-0.99369, 325, 305, 356, 335
-0.99369, 285, 173, 316, 204
-0.993694, 321, 281, 352, 312
-0.993694, 153, 241, 184, 272
-0.993697, 85, 121, 116, 152
-0.993698, 129, 201, 160, 232
-0.993701, 301, 205, 332, 236
-0.993701, 321, 225, 352, 256
-0.993703, 113, 305, 144, 335
-0.993703, 125, 305, 156, 335
-0.993707, 229, 141, 260, 172
-0.993708, 57, 17, 120, 48
-0.993712, 157, 169, 188, 200
-0.993713, 153, 181, 184, 212
-0.993716, 393, 57, 456, 88
-0.993721, 249, 225, 312, 256
-0.993726, 161, 197, 224, 228
-0.993734, 97, 133, 160, 164
-0.993739, 305, 129, 336, 192
-0.993746, 297, 105, 360, 136
-0.993787, 325, 249, 356, 312
-0.993797, 161, 133, 224, 164
-0.993802, 177, 269, 240, 300
-0.993804, 393, 45, 456, 76
-0.993807, 97, 149, 160, 180
-0.993808, 1, 121, 64, 184
-0.993809, 169, 221, 232, 252
-0.993817, 345, 193, 408, 256
-0.99385, 273, 201, 336, 232
-0.993856, 121, 137, 184, 168
-0.993872, 225, 245, 288, 276
-0.99389, 121, 201, 152, 264
-0.993905, 1, 273, 500, 335
-0.993924, 81, 229, 208, 260
-0.993927, 161, 113, 288, 176
-0.993929, 93, 145, 124, 272
-0.994006, 97, 161, 160, 224
-0.994026, 225, 129, 256, 192
-0.994031, 129, 113, 384, 176
-0.994102, 161, 161, 224, 224
-0.99416, 285, 185, 316, 248
-0.994284, 265, 145, 296, 272
-0.994284, 365, 209, 396, 335
-0.994301, 165, 129, 196, 256
-0.994313, 177, 209, 208, 335
-0.994318, 261, 177, 292, 240
-0.994353, 81, 261, 208, 292
-0.994354, 137, 161, 168, 288
-0.994383, 273, 253, 400, 284
-0.994485, 209, 209, 336, 272
-0.994522, 329, 97, 392, 224
-0.994542, 113, 241, 128, 304
-0.994677, 305, 97, 368, 160
-0.994683, 241, 241, 304, 304
-0.994688, 305, 41, 432, 104
-0.994696, 81, 241, 208, 272
-0.994701, 9, 65, 72, 192
-0.994708, 369, 81, 496, 208
-0.994711, 293, 193, 324, 320
-0.994724, 109, 209, 124, 272
-0.994745, 369, 1, 432, 335
-0.994767, 33, 1, 96, 128
-0.994772, 161, 65, 224, 320
-0.994794, 1, 1, 128, 64
-0.994819, 369, 33, 496, 96
-0.994832, 177, 273, 208, 335
-0.994833, 257, 265, 384, 296
-0.994857, 257, 89, 500, 152
-0.994859, 257, 277, 384, 308
-0.994877, 349, 201, 380, 264
-0.994909, 105, 1, 168, 335
-0.99493, 185, 233, 248, 296
-0.995008, 97, 137, 160, 200
-0.995011, 357, 233, 372, 296
-0.995033, 369, 1, 432, 128
-0.995068, 49, 81, 176, 144
-0.995103, 273, 49, 304, 176
-0.995111, 41, 65, 104, 320
-0.995118, 185, 225, 216, 288
-0.995157, 107, 241, 122, 304
-0.99523, 209, 113, 336, 144
-0.995238, 97, 113, 224, 176
-0.99524, 97, 113, 160, 176
-0.995248, 377, 1, 440, 256
-0.995293, 33, 121, 96, 184
-0.995303, 1, 1, 256, 128
-0.995429, 297, 81, 328, 208
-0.995442, 273, 241, 400, 272
-0.99545, 393, 41, 456, 104
-0.995481, 165, 137, 196, 200
-0.995481, 1, 249, 256, 312
-0.995494, 313, 249, 328, 312
-0.995513, 225, 161, 352, 192
-0.995519, 257, 289, 384, 320
-0.995539, 209, 65, 272, 320
-0.995561, 201, 177, 264, 240
-0.995567, 65, 177, 320, 240
-0.995571, 369, 1, 496, 64
-0.995607, 273, 81, 304, 144
-0.995647, 257, 301, 384, 332
-0.995651, 261, 265, 292, 328
-0.995668, 241, 193, 368, 224
-0.995675, 149, 161, 180, 224
-0.995679, 369, 57, 496, 120
-0.995686, 361, 49, 424, 176
-0.995725, 17, 161, 144, 224
-0.995728, 185, 209, 248, 335
-0.99575, 339, 201, 354, 264
-0.995754, 237, 121, 268, 184
-0.995763, 1, 169, 500, 232
-0.995824, 365, 225, 396, 288
-0.995835, 245, 153, 276, 216
-0.995851, 281, 57, 344, 120
-0.995942, 257, 169, 500, 232
-0.995965, 325, 129, 356, 256
-0.99599, 257, 233, 500, 296
-0.996, 137, 1, 200, 335
-0.996002, 217, 1, 280, 335
-0.996002, 65, 201, 320, 264
-0.996019, 257, 205, 384, 236
-0.996031, 281, 161, 312, 224
-0.996073, 81, 213, 208, 244
-0.996092, 257, 221, 384, 252
-0.996093, 177, 233, 192, 296
-0.996108, 137, 185, 168, 248
-0.996108, 305, 185, 336, 248
-0.996109, 257, 121, 500, 184
-0.996117, 119, 241, 134, 304
-0.99616, 33, 253, 160, 284
-0.996172, 161, 1, 224, 335
-0.996195, 113, 273, 128, 335
-0.996204, 1, 65, 64, 320
-0.996217, 97, 89, 352, 152
-0.996253, 119, 209, 134, 272
-0.996303, 385, 65, 448, 128
-0.996307, 65, 17, 128, 80
-0.996307, 241, 181, 368, 212
-0.996317, 305, 241, 320, 304
-0.996332, 103, 217, 118, 280
-0.99639, 393, 1, 456, 64
-0.99639, 169, 185, 200, 248
-0.996404, 225, 149, 352, 180
-0.996423, 85, 81, 116, 208
-0.996443, 273, 217, 304, 280
-0.996451, 193, 1, 256, 335
-0.99651, 309, 105, 340, 168
-0.99653, 385, 65, 448, 192
-0.996554, 353, 25, 416, 88
-0.996574, 347, 233, 362, 296
-0.996581, 393, 1, 456, 335
-0.996582, 325, 169, 340, 232
-0.996583, 217, 113, 248, 240
-0.996587, 127, 265, 142, 328
-0.996599, 117, 177, 148, 240
-0.996609, 315, 161, 330, 224
-0.996614, 209, 125, 336, 156
-0.996621, 315, 273, 330, 335
-0.996668, 129, 253, 256, 284
-0.996674, 367, 249, 382, 312
-0.996678, 17, 1, 80, 64
-0.996685, 307, 265, 322, 328
-0.996686, 281, 105, 344, 168
-0.996694, 229, 113, 260, 240
-0.996709, 1, 97, 32, 224
-0.996718, 97, 65, 352, 128
-0.996726, 337, 265, 464, 296
-0.996754, 109, 185, 124, 248
-0.996771, 257, 145, 500, 208
-0.99678, 81, 113, 112, 176
-0.996782, 217, 241, 280, 304
-0.996783, 193, 65, 448, 128
-0.996797, 133, 265, 148, 328
-0.99681, 33, 265, 160, 296
-0.996822, 361, 273, 376, 335
-0.996832, 185, 145, 248, 208
-0.99685, 257, 273, 320, 335
-0.996855, 301, 113, 316, 176
-0.99689, 1, 97, 500, 160
-0.996903, 353, 65, 416, 128
-0.996927, 241, 97, 272, 160
-0.996928, 113, 273, 240, 304
-0.996938, 133, 225, 148, 288
-0.996948, 337, 253, 464, 284
-0.996952, 337, 289, 464, 320
-0.996961, 331, 177, 346, 240
-0.997008, 81, 49, 144, 176
-0.997009, 337, 277, 464, 308
-0.997019, 33, 137, 288, 200
-0.997027, 81, 25, 208, 88
-0.997032, 325, 273, 356, 335
-0.997032, 183, 241, 198, 304
-0.99704, 139, 225, 154, 288
-0.997048, 1, 73, 500, 136
-0.99706, 65, 217, 96, 280
-0.997064, 381, 1, 412, 128
-0.997066, 81, 1, 208, 64
-0.997067, 125, 233, 140, 296
-0.99709, 9, 1, 72, 335
-0.997096, 53, 81, 84, 208
-0.997101, 249, 177, 280, 240
-0.997104, 209, 137, 336, 168
-0.99712, 97, 257, 352, 320
-0.997143, 17, 221, 144, 252
-0.997143, 165, 257, 180, 320
-0.997145, 49, 17, 176, 144
-0.99715, 307, 137, 322, 200
-0.997151, 99, 193, 114, 256
-0.997152, 81, 201, 208, 232
-0.997171, 257, 145, 288, 208
-0.997171, 337, 241, 464, 272
-0.99719, 353, 161, 416, 288
-0.997205, 81, 193, 112, 320
-0.99721, 155, 257, 170, 320
-0.997211, 119, 265, 134, 328
-0.997225, 41, 81, 72, 208
-0.997229, 149, 225, 164, 288
-0.997231, 321, 265, 336, 328
-0.997234, 257, 33, 384, 96
-0.99725, 341, 225, 356, 288
-0.997254, 107, 265, 122, 328
-0.997254, 397, 17, 428, 144
-0.997257, 25, 81, 56, 208
-0.997278, 291, 113, 306, 176
-0.997293, 65, 57, 128, 120
-0.997309, 209, 261, 336, 292
-0.997309, 337, 301, 464, 332
-0.997356, 337, 225, 464, 256
-0.997372, 277, 65, 292, 128
-0.99739, 257, 209, 500, 272
-0.997394, 313, 225, 328, 288
-0.997403, 287, 81, 302, 144
-0.997404, 217, 73, 280, 136
-0.997431, 161, 81, 224, 208
-0.997433, 273, 141, 400, 172
-0.997434, 321, 73, 448, 136
-0.997443, 33, 241, 160, 272
-0.997448, 171, 225, 186, 288
-0.997448, 359, 241, 374, 272
-0.997476, 299, 241, 314, 304
-0.997489, 305, 181, 432, 212
-0.997495, 257, 97, 384, 128
-0.997496, 165, 225, 180, 288
-0.997509, 289, 125, 416, 156
-0.997515, 337, 213, 464, 244
-0.997532, 145, 257, 160, 320
-0.997532, 353, 257, 368, 320
-0.997536, 1, 137, 500, 200
-0.997543, 177, 245, 304, 276
-0.997545, 97, 217, 112, 280
-0.997546, 121, 121, 184, 184
-0.997553, 17, 49, 144, 112
-0.997575, 97, 1, 224, 128
-0.997581, 369, 81, 496, 144
-0.997583, 303, 209, 318, 272
-0.997585, 293, 241, 308, 304
-0.997588, 241, 145, 272, 272
-0.997592, 65, 305, 192, 335
-0.997603, 155, 225, 170, 288
-0.997639, 177, 285, 304, 316
-0.997642, 283, 105, 298, 168
-0.997642, 277, 257, 292, 320
-0.997643, 113, 253, 128, 284
-0.997672, 347, 209, 362, 272
-0.997675, 233, 153, 264, 216
-0.997683, 41, 1, 104, 335
-0.997692, 131, 201, 146, 264
-0.997704, 225, 73, 352, 104
-0.997707, 113, 241, 128, 272
-0.997712, 309, 161, 324, 224
-0.997733, 69, 81, 100, 208
-0.997737, 175, 265, 190, 328
-0.997748, 101, 241, 116, 304
-0.99775, 337, 177, 352, 240
-0.997755, 193, 101, 320, 132
-0.997761, 177, 129, 208, 256
-0.997764, 273, 193, 304, 256
-0.997771, 337, 201, 352, 232
-0.99778, 269, 193, 300, 320
-0.997781, 107, 245, 122, 276
-0.997783, 225, 85, 352, 116
-0.997804, 65, 285, 192, 316
-0.997826, 297, 89, 328, 152
-0.997827, 249, 49, 280, 176
-0.99783, 77, 241, 108, 304
-0.997834, 145, 145, 272, 176
-0.997839, 293, 201, 308, 264
-0.997839, 305, 169, 432, 200
-0.997848, 185, 81, 248, 208
-0.997855, 113, 265, 128, 296
-0.997869, 273, 1, 336, 128
-0.997874, 17, 25, 144, 88
-0.997882, 125, 209, 140, 272
-0.997886, 333, 201, 348, 264
-0.997897, 321, 81, 352, 208
-0.9979, 277, 105, 292, 168
-0.997901, 133, 265, 148, 296
-0.997903, 327, 257, 342, 320
-0.997908, 319, 241, 334, 304
-0.997911, 305, 145, 368, 208
-0.997916, 181, 265, 196, 328
-0.997933, 165, 185, 180, 248
-0.997937, 321, 97, 448, 160
-0.997956, 177, 49, 304, 112
-0.997957, 177, 105, 240, 168
-0.997958, 1, 25, 500, 88
-0.997964, 287, 217, 302, 280
-0.997969, 313, 121, 328, 184
-0.997971, 113, 301, 240, 332
-0.997976, 249, 129, 264, 192
-0.997988, 281, 145, 296, 208
-0.997999, 161, 173, 288, 204
-0.998004, 93, 169, 124, 232
-0.998005, 369, 121, 496, 184
-0.998016, 269, 153, 284, 216
-0.998018, 241, 49, 304, 112
-0.998019, 61, 89, 92, 152
-0.998032, 271, 257, 286, 320
-0.998034, 303, 253, 318, 284
-0.998034, 161, 209, 288, 240
-0.998042, 115, 185, 130, 248
-0.998043, 81, 209, 96, 272
-0.998044, 309, 257, 324, 288
-0.998049, 297, 261, 312, 292
-0.998052, 309, 65, 340, 320
-0.998052, 185, 65, 248, 320
-0.998054, 189, 249, 204, 312
-0.998055, 139, 201, 154, 264
-0.998058, 263, 177, 278, 240
-0.998069, 289, 193, 416, 224
-0.998071, 253, 105, 268, 168
-0.998078, 33, 209, 160, 240
-0.99808, 1, 121, 128, 152
-0.998082, 243, 121, 258, 184
-0.99809, 319, 165, 334, 196
-0.998095, 275, 233, 290, 296
-0.9981, 281, 161, 312, 288
-0.99811, 261, 65, 276, 128
-0.998138, 301, 265, 316, 328
-0.99814, 341, 177, 372, 240
-0.998144, 259, 105, 274, 168
-0.998153, 17, 301, 144, 332
-0.998154, 289, 273, 320, 335
-0.998158, 209, 273, 336, 304
-0.998162, 303, 265, 318, 296
-0.99817, 103, 233, 118, 264
-0.998182, 369, 225, 384, 288
-0.998193, 145, 193, 272, 224
-0.998193, 289, 153, 416, 184
-0.998197, 317, 273, 332, 304
-0.998208, 315, 257, 330, 288
-0.998218, 81, 89, 112, 152
-0.998219, 109, 213, 124, 244
-0.998224, 289, 113, 416, 144
-0.998244, 295, 249, 310, 280
-0.998247, 161, 221, 288, 252
-0.998248, 257, 41, 500, 104
-0.998249, 9, 89, 40, 152
-0.99825, 301, 185, 316, 248
-0.998253, 237, 121, 252, 184
-0.998258, 139, 257, 154, 320
-0.998258, 345, 219, 376, 234
-0.998259, 305, 245, 336, 260
-0.998259, 81, 121, 112, 136
-0.998259, 113, 311, 144, 326
-0.998259, 233, 127, 264, 142
-0.99826, 185, 269, 216, 284
-0.99826, 241, 147, 272, 162
-0.99826, 317, 181, 348, 196
-0.99826, 305, 297, 336, 312
-0.998262, 293, 219, 324, 234
-0.998262, 333, 191, 364, 206
-0.998262, 281, 105, 312, 120
-0.998263, 153, 265, 184, 280
-0.998263, 321, 263, 352, 278
-0.998264, 269, 265, 300, 280
-0.998266, 289, 127, 320, 142
-0.998266, 265, 191, 296, 206
-0.998267, 337, 309, 368, 324
-0.998267, 265, 161, 296, 176
-0.998267, 313, 191, 344, 206
-0.998268, 333, 253, 364, 268
-0.998268, 105, 209, 136, 224
-0.998268, 345, 209, 376, 224
-0.998269, 133, 309, 164, 324
-0.998269, 309, 131, 340, 146
-0.998269, 121, 283, 152, 298
-0.998269, 305, 251, 336, 266
-0.998271, 153, 305, 184, 320
-0.998271, 265, 71, 296, 86
-0.998272, 105, 225, 136, 240
-0.998272, 365, 239, 396, 254
-0.998275, 153, 211, 184, 226
-0.998276, 145, 133, 272, 164
-0.998278, 353, 231, 384, 246
-0.998279, 289, 187, 320, 202
-0.998281, 73, 213, 104, 228
-0.998282, 249, 183, 280, 198
-0.998284, 309, 153, 340, 168
-0.998286, 241, 141, 272, 156
-0.998286, 341, 303, 372, 318
-0.998288, 33, 113, 288, 176
-0.998291, 129, 269, 160, 284
-0.998292, 89, 215, 120, 230
-0.998292, 185, 253, 216, 268
-0.998293, 89, 317, 120, 332
-0.998293, 173, 265, 204, 280
-0.998295, 145, 161, 272, 192
-0.998295, 289, 193, 320, 208
-0.998296, 325, 209, 356, 224
-0.998299, 313, 175, 344, 190
-0.998301, 301, 279, 332, 294
-0.998301, 101, 315, 132, 330
-0.998301, 317, 253, 348, 268
-0.998302, 337, 315, 368, 330
-0.998302, 73, 223, 104, 238
-0.998303, 121, 257, 152, 272
-0.998303, 277, 187, 308, 202
-0.998303, 177, 253, 192, 284
-0.998304, 287, 169, 302, 232
-0.998305, 97, 277, 128, 292
-0.998306, 173, 271, 204, 286
-0.998306, 165, 247, 196, 262
-0.998307, 149, 225, 180, 240
-0.998308, 133, 257, 164, 272
-0.998308, 289, 135, 320, 150
-0.998309, 341, 297, 372, 312
-0.998314, 109, 287, 140, 302
-0.998316, 353, 317, 384, 332
-0.998317, 261, 185, 292, 200
-0.998317, 345, 283, 376, 298
-0.998318, 365, 247, 396, 262
-0.998321, 321, 269, 352, 284
-0.998321, 325, 217, 356, 232
-0.998322, 185, 247, 216, 262
-0.998323, 289, 147, 320, 162
-0.998323, 169, 303, 200, 318
-0.998324, 81, 181, 208, 212
-0.998325, 341, 289, 372, 304
-0.998326, 1, 273, 256, 335
-0.998326, 357, 303, 388, 318
-0.998326, 345, 225, 376, 240
-0.998328, 157, 259, 188, 274
-0.998329, 361, 279, 392, 294
-0.99833, 365, 255, 396, 270
-0.998331, 365, 263, 396, 278
-0.998333, 269, 113, 300, 128
-0.998333, 297, 273, 328, 288
-0.998333, 161, 231, 192, 246
-0.998334, 81, 49, 208, 112
-0.998335, 357, 297, 388, 312
-0.998337, 93, 283, 124, 298
-0.998338, 361, 287, 392, 302
-0.998338, 97, 267, 128, 282
-0.998338, 357, 309, 388, 324
-0.998339, 317, 197, 348, 212
-0.99834, 153, 253, 184, 268
-0.99834, 181, 241, 196, 272
-0.998342, 295, 89, 310, 152
-0.998346, 169, 259, 200, 274
-0.998347, 345, 239, 376, 254
-0.998347, 289, 159, 320, 174
-0.998348, 309, 169, 340, 184
-0.998348, 97, 257, 128, 272
-0.998349, 105, 215, 136, 230
-0.99835, 347, 233, 362, 264
-0.998352, 105, 231, 136, 246
-0.998352, 337, 321, 368, 335
-0.998353, 345, 277, 376, 292
-0.998354, 89, 239, 120, 254
-0.998354, 357, 261, 372, 292
-0.998354, 289, 153, 320, 168
-0.998355, 1, 121, 32, 184
-0.998355, 361, 269, 392, 284
-0.998356, 325, 225, 356, 240
-0.998356, 97, 169, 224, 200
-0.998356, 319, 137, 334, 200
-0.998362, 261, 217, 292, 280
-0.99837, 333, 231, 364, 246
-0.998371, 87, 201, 102, 264
-0.998373, 167, 261, 182, 292
-0.998374, 289, 121, 320, 136
-0.998375, 109, 239, 140, 254
-0.998377, 349, 257, 380, 272
-0.998378, 289, 265, 320, 280
-0.998382, 97, 251, 128, 266
-0.998382, 281, 253, 312, 268
-0.998385, 275, 137, 290, 200
-0.998385, 319, 293, 334, 324
-0.998387, 349, 251, 380, 266
-0.99839, 243, 145, 258, 208
-0.998391, 103, 169, 118, 232
-0.998394, 345, 265, 376, 280
-0.998394, 133, 231, 164, 246
-0.998395, 93, 65, 124, 320
-0.998395, 325, 203, 356, 218
-0.998396, 171, 201, 186, 264
-0.998397, 311, 145, 326, 176
-0.998397, 129, 263, 160, 278
-0.998399, 353, 237, 368, 268
-0.998399, 349, 245, 380, 260
-0.998401, 283, 249, 298, 312
-0.998402, 109, 245, 140, 260
-0.998404, 193, 297, 320, 328
-0.998407, 341, 65, 372, 320
-0.998411, 145, 259, 176, 274
-0.998411, 293, 251, 324, 266
-0.998413, 85, 221, 116, 236
-0.998413, 313, 275, 344, 290
-0.998416, 109, 251, 140, 266
-0.998418, 345, 271, 376, 286
-0.998422, 305, 163, 336, 178
-0.998438, 109, 277, 140, 292
-0.998447, 169, 253, 200, 268
-0.99845, 97, 245, 128, 260
-0.998454, 107, 257, 122, 288
-0.998457, 301, 257, 332, 272
-0.99846, 281, 259, 312, 274
-0.998464, 315, 201, 330, 264
-0.998466, 337, 49, 400, 176
-0.998469, 301, 267, 332, 282
-0.99847, 293, 177, 308, 240
-0.998471, 125, 185, 140, 248
-0.998474, 119, 237, 134, 268
-0.998475, 97, 259, 160, 274
-0.998479, 161, 269, 288, 300
-0.998481, 287, 145, 302, 208
-0.998484, 97, 265, 160, 280
-0.998491, 331, 197, 346, 228
-0.998493, 353, 209, 368, 272
-0.9985, 165, 145, 180, 208
-0.998503, 309, 277, 324, 308
-0.998504, 33, 273, 96, 335
-0.998506, 313, 275, 376, 290
-0.99851, 385, 1, 416, 64
-0.998511, 265, 105, 280, 168
-0.998515, 145, 257, 208, 272
-0.998516, 109, 269, 140, 284
-0.998517, 109, 229, 124, 260
-0.998529, 109, 261, 140, 276
-0.998529, 177, 89, 304, 120
-0.998531, 313, 269, 376, 284
-0.998533, 97, 253, 160, 268
-0.998535, 341, 221, 356, 252
-0.998538, 313, 289, 376, 304
-0.998539, 121, 261, 184, 276
-0.998541, 99, 217, 114, 248
-0.998547, 313, 307, 376, 322
-0.998555, 123, 257, 138, 288
-0.998557, 265, 273, 328, 288
-0.998561, 97, 271, 160, 286
-0.998562, 13, 81, 44, 208
-0.998568, 369, 249, 384, 280
-0.998568, 347, 217, 362, 248
-0.99857, 365, 269, 380, 300
-0.998573, 71, 217, 86, 280
-0.998575, 265, 261, 328, 276
-0.998578, 189, 273, 204, 335
-0.998578, 321, 253, 384, 268
-0.998584, 313, 295, 376, 310
-0.998584, 313, 263, 376, 278
-0.998586, 309, 161, 324, 192
-0.998588, 97, 277, 160, 292
-0.998589, 361, 297, 376, 328
-0.998592, 289, 255, 352, 270
-0.998593, 323, 269, 338, 300
-0.998595, 65, 221, 128, 236
-0.998598, 313, 301, 376, 316
-0.998599, 301, 241, 316, 272
-0.998601, 139, 257, 154, 288
-0.998603, 313, 313, 376, 328
-0.998606, 97, 231, 160, 246
-0.998607, 273, 163, 336, 178
-0.998609, 269, 185, 284, 248
-0.998611, 281, 217, 296, 280
-0.998611, 389, 65, 420, 192
-0.998612, 277, 169, 292, 232
-0.998612, 321, 247, 384, 262
-0.998613, 129, 231, 192, 246
-0.998613, 297, 203, 360, 218
-0.998616, 313, 235, 376, 250
-0.998616, 289, 189, 352, 204
-0.998617, 289, 195, 352, 210
-0.998619, 107, 269, 122, 300
-0.998621, 241, 113, 304, 128
-0.998623, 289, 263, 352, 278
-0.998624, 297, 227, 360, 242
-0.998624, 121, 267, 184, 282
-0.998625, 313, 319, 376, 334
-0.998627, 265, 147, 328, 162
-0.998627, 265, 267, 328, 282
-0.998628, 97, 239, 160, 254
-0.998629, 153, 251, 216, 266
-0.998629, 275, 261, 290, 292
-0.99863, 265, 181, 280, 212
-0.998631, 313, 283, 376, 298
-0.998634, 265, 157, 328, 172
-0.998634, 363, 281, 378, 312
-0.998634, 137, 305, 200, 320
-0.998635, 73, 251, 136, 266
-0.998635, 289, 181, 352, 196
-0.998636, 193, 189, 320, 220
-0.998637, 353, 265, 416, 280
-0.998638, 97, 215, 160, 230
-0.998639, 289, 269, 352, 284
-0.99864, 241, 105, 304, 120
-0.99864, 97, 225, 160, 240
-0.998642, 325, 65, 356, 320
-0.998644, 329, 223, 392, 238
-0.998645, 73, 263, 136, 278
-0.998647, 353, 279, 416, 294
-0.998648, 291, 117, 306, 148
-0.998648, 265, 133, 328, 148
-0.998648, 73, 245, 136, 260
-0.99865, 265, 141, 328, 156
-0.998651, 73, 257, 136, 272
-0.998652, 327, 177, 342, 208
-0.998653, 313, 241, 376, 256
-0.998654, 353, 273, 416, 288
-0.998656, 309, 185, 324, 248
-0.998656, 289, 249, 352, 264
-0.998658, 241, 99, 304, 114
-0.998658, 249, 185, 312, 200
-0.99866, 353, 251, 416, 266
-0.998661, 347, 185, 362, 248
-0.998661, 281, 169, 344, 184
-0.998661, 147, 257, 162, 288
-0.998662, 177, 247, 240, 262
-0.998662, 345, 289, 408, 304
-0.998663, 353, 259, 416, 274
-0.998663, 97, 247, 160, 262
-0.998664, 345, 319, 408, 334
-0.998664, 81, 313, 144, 328
-0.998666, 73, 281, 136, 296
-0.998667, 345, 305, 408, 320
-0.998669, 265, 255, 328, 270
-0.99867, 345, 299, 408, 314
-0.99867, 345, 311, 408, 326
-0.99867, 273, 291, 336, 306
-0.998671, 297, 221, 360, 236
-0.998671, 353, 245, 416, 260
-0.998671, 301, 121, 316, 152
-0.998672, 89, 287, 152, 302
-0.998674, 73, 269, 136, 284
-0.998676, 241, 191, 304, 206
-0.998677, 273, 285, 336, 300
-0.998677, 301, 89, 316, 152
-0.99868, 165, 249, 180, 280
-0.99868, 361, 209, 376, 272
-0.998681, 281, 175, 344, 190
-0.998681, 145, 263, 208, 278
-0.998681, 265, 123, 328, 138
-0.998681, 265, 279, 328, 294
-0.998683, 241, 93, 304, 108
-0.998684, 321, 193, 384, 208
-0.998684, 297, 153, 360, 168
-0.998688, 297, 215, 360, 230
-0.99869, 177, 253, 240, 268
-0.99869, 65, 227, 128, 242
-0.99869, 337, 229, 400, 244
-0.998691, 121, 211, 184, 226
-0.998692, 73, 215, 136, 230
-0.998693, 129, 205, 192, 220
-0.998695, 327, 253, 342, 284
-0.998696, 177, 73, 304, 104
-0.998698, 87, 89, 102, 152
-0.998698, 113, 307, 176, 322
-0.998699, 93, 241, 108, 304
-0.998701, 73, 275, 136, 290
-0.998701, 233, 149, 296, 164
-0.998701, 273, 301, 336, 316
-0.998701, 249, 205, 312, 220
-0.998702, 329, 217, 392, 232
-0.998703, 273, 309, 336, 324
-0.998703, 65, 209, 128, 224
-0.998704, 121, 255, 184, 270
-0.998706, 305, 209, 368, 224
-0.998707, 273, 105, 336, 120
-0.998707, 57, 317, 120, 332
-0.998707, 73, 239, 136, 254
-0.998709, 321, 187, 384, 202
-0.998709, 241, 87, 304, 102
-0.99871, 289, 275, 352, 290
-0.99871, 137, 245, 200, 260
-0.99871, 353, 239, 416, 254
-0.998711, 57, 123, 120, 138
-0.998712, 113, 283, 176, 298
-0.998713, 329, 199, 392, 214
-0.998713, 177, 241, 240, 256
-0.998714, 329, 207, 392, 222
-0.998714, 161, 301, 224, 316
-0.998715, 297, 147, 360, 162
-0.998715, 177, 265, 240, 280
-0.998715, 281, 321, 344, 335
-0.998715, 225, 183, 288, 198
-0.998716, 265, 191, 328, 206
-0.998716, 241, 197, 304, 212
-0.998716, 137, 225, 200, 240
-0.998717, 233, 165, 296, 180
-0.998718, 275, 193, 290, 256
-0.998718, 41, 217, 104, 232
-0.998719, 283, 113, 298, 144
-0.99872, 97, 209, 160, 224
-0.99872, 301, 149, 316, 180
-0.99872, 127, 269, 142, 300
-0.99872, 241, 71, 304, 86
-0.998721, 181, 201, 212, 264
-0.998721, 153, 273, 216, 288
-0.998721, 73, 233, 136, 248
-0.998722, 177, 233, 304, 264
-0.998726, 175, 229, 190, 260
-0.998728, 285, 101, 300, 132
-0.99873, 255, 153, 270, 216
-0.998733, 65, 161, 128, 224
-0.998733, 341, 249, 356, 312
-0.998737, 353, 273, 368, 304
-0.998744, 37, 89, 68, 152
-0.998745, 301, 145, 316, 208
-0.998746, 227, 129, 242, 192
-0.998751, 93, 193, 108, 256
-0.998764, 321, 305, 336, 335
-0.998765, 131, 177, 146, 240
-0.998766, 301, 137, 316, 168
-0.998767, 255, 169, 270, 200
-0.998771, 289, 245, 304, 276
-0.998773, 185, 137, 216, 200
-0.998775, 131, 253, 146, 284
-0.998776, 335, 241, 350, 304
-0.998782, 265, 257, 280, 320
-0.998783, 77, 89, 92, 152
-0.9988, 213, 129, 244, 192
-0.9988, 343, 205, 358, 236
-0.9988, 181, 301, 196, 332
-0.998804, 95, 89, 110, 152
-0.998805, 119, 269, 134, 300
-0.998807, 43, 89, 58, 152
-0.998807, 77, 213, 92, 244
-0.998811, 173, 177, 188, 240
-0.998816, 101, 245, 116, 276
-0.998824, 269, 129, 284, 192
-0.998827, 1, 121, 16, 184
-0.998834, 403, 41, 418, 104
-0.998842, 273, 81, 400, 112
-0.998843, 225, 245, 352, 276
-0.998845, 153, 257, 168, 288
-0.998848, 113, 285, 240, 316
-0.998852, 49, 89, 80, 152
-0.998856, 159, 249, 174, 280
-0.998857, 311, 129, 326, 160
-0.998862, 189, 253, 204, 284
-0.998864, 109, 281, 124, 312
-0.998865, 81, 157, 208, 188
-0.998875, 321, 257, 336, 288
-0.998875, 107, 201, 122, 232
-0.998878, 115, 209, 130, 335
-0.998878, 363, 257, 378, 288
-0.998878, 305, 21, 432, 52
-0.998882, 129, 233, 144, 264
-0.99889, 1, 81, 256, 144
-0.998894, 33, 197, 160, 228
-0.998902, 325, 165, 340, 196
-0.998904, 183, 253, 198, 284
-0.998908, 289, 193, 304, 224
-0.998908, 129, 241, 256, 272
-0.99891, 209, 209, 336, 240
-0.998914, 171, 249, 186, 280
-0.998917, 237, 125, 252, 156
-0.998918, 115, 285, 130, 316
-0.998921, 243, 141, 258, 172
-0.998921, 315, 245, 330, 276
-0.998923, 105, 81, 136, 208
-0.998925, 313, 289, 328, 320
-0.998927, 269, 273, 284, 304
-0.99894, 333, 185, 348, 216
-0.998942, 305, 209, 320, 240
-0.998943, 303, 161, 318, 192
-0.998943, 337, 201, 464, 232
-0.998945, 97, 145, 224, 176
-0.998946, 225, 9, 480, 72
-0.998948, 277, 69, 292, 100
-0.998953, 309, 245, 324, 276
-0.998958, 113, 193, 128, 224
-0.99896, 89, 17, 120, 144
-0.998962, 99, 197, 114, 228
-0.998964, 287, 89, 302, 120
-0.998968, 269, 141, 284, 172
-0.998968, 145, 209, 160, 335
-0.998974, 1, 277, 128, 308
-0.998982, 77, 185, 108, 248
-0.998985, 335, 213, 350, 244
-0.998985, 287, 181, 302, 212
-0.998985, 83, 205, 98, 236
-0.998989, 299, 209, 314, 240
-0.99899, 299, 189, 314, 220
-0.998991, 25, 89, 56, 152
-0.998995, 159, 261, 174, 292
-0.998997, 273, 285, 288, 316
-0.998998, 163, 301, 178, 332
-0.999002, 333, 257, 348, 288
-0.999014, 191, 301, 206, 332
-0.999018, 259, 185, 274, 216
-0.999022, 125, 245, 140, 276
-0.999024, 9, 217, 72, 280
-0.999026, 275, 193, 290, 224
-0.999037, 361, 229, 376, 260
-0.999037, 341, 233, 356, 264
-0.999038, 277, 101, 292, 132
-0.999038, 153, 213, 168, 244
-0.99904, 247, 125, 262, 156
-0.999044, 143, 305, 158, 335
-0.99905, 323, 281, 338, 312
-0.999056, 325, 293, 340, 324
-0.999062, 309, 221, 324, 252
-0.999063, 349, 305, 364, 335
-0.999069, 257, 113, 272, 144
-0.999069, 263, 141, 278, 172
-0.999074, 117, 209, 132, 240
-0.999075, 369, 237, 384, 268
-0.99908, 143, 213, 158, 244
-0.99908, 279, 297, 294, 328
-0.999082, 351, 285, 366, 316
-0.999089, 135, 209, 150, 335
-0.999091, 81, 133, 208, 164
-0.999093, 281, 65, 312, 320
-0.999097, 167, 213, 182, 244
-0.999098, 137, 213, 152, 244
-0.999099, 123, 213, 138, 244
-0.9991, 297, 65, 328, 320
-0.999107, 347, 253, 362, 284
-0.99911, 169, 301, 184, 332
-0.999121, 353, 209, 384, 335
-0.999135, 1, 161, 64, 224
-0.999136, 123, 193, 138, 320
-0.999151, 337, 193, 352, 320
-0.999157, 393, 1, 424, 256
-0.99917, 265, 33, 296, 288
-0.99917, 97, 41, 352, 104
-0.999175, 97, 89, 128, 152
-0.999197, 357, 209, 372, 335
-0.999209, 257, 61, 384, 92
-0.999215, 107, 193, 122, 320
-0.999245, 321, 5, 448, 36
-0.999247, 129, 193, 144, 320
-0.999257, 249, 17, 312, 144
-0.999265, 323, 161, 338, 288
-0.999271, 177, 209, 192, 335
-0.999274, 225, 233, 352, 264
-0.99928, 317, 145, 332, 272
-0.999284, 329, 161, 344, 288
-0.999284, 1, 49, 500, 112
-0.999303, 157, 209, 172, 335
-0.999312, 305, 41, 432, 72
-0.999313, 69, 1, 100, 256
-0.999319, 105, 65, 136, 320
-0.999324, 343, 193, 358, 320
-0.999337, 165, 65, 196, 320
-0.999337, 305, 69, 432, 100
-0.999337, 151, 209, 166, 335
-0.999346, 49, 121, 176, 152
-0.999346, 17, 13, 144, 44
-0.999368, 167, 209, 182, 335
-0.999369, 305, 53, 432, 84
-0.999369, 311, 145, 326, 272
-0.999384, 237, 65, 268, 192
-0.99939, 33, 165, 160, 196
-0.999395, 299, 113, 314, 240
-0.999395, 17, 289, 144, 320
-0.999401, 353, 65, 384, 320
-0.999401, 81, 1, 112, 256
-0.999412, 107, 145, 122, 272
-0.999413, 137, 161, 168, 224
-0.999415, 305, 193, 320, 320
-0.999417, 153, 137, 184, 200
-0.999421, 101, 193, 116, 320
-0.999425, 143, 161, 158, 288
-0.999432, 369, 53, 496, 84
-0.999434, 277, 129, 308, 192
-0.99944, 97, 9, 352, 72
-0.999451, 369, 41, 496, 72
-0.999456, 117, 161, 132, 288
-0.999469, 49, 145, 176, 176
-0.999473, 305, 129, 320, 256
-0.999474, 279, 65, 294, 192
-0.99948, 97, 17, 224, 48
-0.999481, 285, 105, 300, 120
-0.999481, 1, 1, 500, 64
-0.999482, 161, 121, 288, 152
-0.999482, 349, 315, 364, 330
-0.999482, 311, 249, 326, 264
-0.999482, 353, 299, 368, 314
-0.999482, 337, 197, 352, 212
-0.999482, 133, 271, 148, 286
-0.999483, 305, 249, 320, 264
-0.999484, 351, 209, 366, 335
-0.999484, 191, 299, 206, 314
-0.999485, 119, 287, 134, 302
-0.999486, 351, 307, 366, 322
-0.999486, 295, 247, 310, 262
-0.999486, 75, 225, 90, 240
-0.999487, 105, 277, 120, 292
-0.999487, 243, 143, 258, 158
-0.999488, 89, 221, 104, 236
-0.999489, 167, 265, 182, 280
-0.999489, 291, 185, 306, 200
-0.99949, 329, 251, 344, 266
-0.99949, 329, 265, 344, 280
-0.999491, 175, 231, 190, 246
-0.999491, 99, 211, 114, 226
-0.999492, 83, 223, 98, 238
-0.999492, 189, 267, 204, 282
-0.999493, 321, 253, 336, 268
-0.999493, 301, 149, 316, 164
-0.999493, 101, 247, 116, 262
-0.999495, 119, 251, 134, 266
-0.999495, 299, 189, 314, 204
-0.999495, 311, 149, 326, 164
-0.999495, 339, 209, 354, 224
-0.999496, 265, 183, 280, 198
-0.999496, 299, 195, 314, 210
-0.9995, 77, 219, 92, 234
-0.9995, 105, 315, 120, 330
-0.999501, 289, 113, 304, 240
-0.999503, 309, 155, 324, 170
-0.999504, 353, 289, 368, 304
-0.999504, 321, 279, 336, 294
-0.999504, 283, 185, 298, 200
-0.999504, 361, 249, 376, 264
-0.999505, 119, 241, 134, 256
-0.999506, 333, 153, 364, 216
-0.999506, 153, 255, 168, 270
-0.999507, 305, 161, 320, 176
-0.999507, 113, 287, 128, 302
-0.999508, 357, 277, 372, 292
-0.999508, 107, 211, 122, 226
-0.999511, 145, 105, 272, 136
-0.999512, 321, 173, 336, 188
-0.999512, 107, 269, 122, 284
-0.999512, 177, 257, 192, 272
-0.999512, 181, 301, 196, 316
-0.999514, 343, 233, 358, 248
-0.999514, 301, 155, 316, 170
-0.999515, 303, 137, 318, 152
-0.999515, 187, 251, 202, 266
-0.999516, 325, 271, 340, 286
-0.999516, 271, 265, 286, 280
-0.999516, 363, 285, 378, 300
-0.999517, 129, 89, 256, 152
-0.999517, 365, 209, 380, 335
-0.999517, 401, 49, 432, 112
-0.999518, 127, 267, 142, 282
-0.99952, 107, 283, 122, 298
-0.999521, 355, 283, 370, 298
-0.999522, 347, 223, 362, 238
-0.999522, 261, 49, 276, 176
-0.999522, 131, 259, 146, 274
-0.999523, 299, 269, 314, 284
-0.999523, 359, 255, 374, 270
-0.999524, 337, 217, 352, 232
-0.999525, 369, 251, 384, 266
-0.999527, 293, 121, 308, 136
-0.999529, 171, 253, 186, 268
-0.999529, 349, 321, 364, 335
-0.999529, 245, 65, 276, 320
-0.999531, 153, 261, 168, 276
-0.999532, 181, 245, 196, 260
-0.999533, 301, 143, 316, 158
-0.999533, 323, 303, 338, 318
-0.999533, 165, 253, 180, 268
-0.999533, 313, 259, 328, 274
-0.999533, 291, 191, 306, 206
-0.999534, 319, 271, 334, 286
-0.999535, 363, 291, 378, 306
-0.999536, 361, 297, 376, 312
-0.999536, 305, 255, 320, 270
-0.999537, 367, 267, 382, 282
-0.999537, 365, 273, 380, 288
-0.999537, 331, 199, 346, 214
-0.999539, 283, 113, 298, 128
-0.999539, 313, 97, 328, 224
-0.99954, 357, 319, 372, 334
-0.99954, 361, 303, 376, 318
-0.999541, 365, 279, 380, 294
-0.999543, 299, 193, 314, 320
-0.999543, 107, 217, 122, 232
-0.999545, 369, 257, 384, 272
-0.999545, 359, 313, 374, 328
-0.999546, 321, 309, 336, 324
-0.99955, 149, 161, 164, 288
-0.999551, 159, 257, 174, 272
-0.999553, 97, 1, 160, 64
-0.999554, 311, 163, 326, 178
-0.999556, 103, 241, 118, 256
-0.999556, 107, 263, 122, 278
-0.999558, 143, 229, 158, 244
-0.999558, 339, 227, 354, 242
-0.999559, 319, 295, 334, 310
-0.999559, 113, 279, 128, 294
-0.999559, 349, 235, 364, 250
-0.99956, 109, 235, 124, 250
-0.999561, 123, 261, 138, 276
-0.999566, 313, 289, 328, 304
-0.999568, 309, 281, 324, 296
-0.999569, 133, 231, 148, 246
-0.999569, 137, 161, 152, 288
-0.999569, 355, 239, 370, 254
-0.999571, 1, 177, 128, 208
-0.999572, 147, 259, 162, 274
-0.999574, 285, 65, 300, 192
-0.999575, 181, 251, 196, 266
-0.999575, 357, 271, 372, 286
-0.999576, 165, 259, 180, 274
-0.999577, 139, 261, 154, 276
-0.999579, 369, 65, 496, 96
-0.999579, 359, 261, 374, 276
-0.999587, 273, 49, 288, 176
-0.999588, 17, 93, 144, 124
-0.999588, 305, 271, 320, 286
-0.99959, 255, 97, 270, 224
-0.999591, 99, 217, 114, 232
-0.999596, 289, 255, 304, 270
-0.999598, 133, 265, 148, 280
-0.999599, 107, 253, 122, 268
-0.9996, 209, 221, 336, 252
-0.9996, 307, 265, 322, 280
-0.999604, 299, 253, 314, 268
-0.999605, 337, 203, 352, 218
-0.999607, 321, 209, 336, 335
-0.999609, 313, 269, 328, 284
-0.99961, 319, 167, 334, 182
-0.999611, 327, 113, 342, 240
-0.999613, 163, 161, 178, 288
-0.999613, 311, 209, 326, 335
-0.999616, 335, 145, 350, 272
-0.999617, 113, 269, 128, 284
-0.999621, 185, 65, 216, 320
-0.999622, 319, 81, 334, 208
-0.999623, 113, 243, 128, 258
-0.999627, 295, 261, 310, 276
-0.999628, 41, 1, 72, 128
-0.99963, 301, 261, 316, 276
-0.999631, 401, 33, 416, 160
-0.999634, 107, 247, 122, 262
-0.999639, 49, 1, 176, 32
-0.999639, 369, 77, 496, 108
-0.99964, 361, 243, 376, 258
-0.999642, 155, 161, 170, 288
-0.999645, 381, 65, 412, 320
-0.999645, 315, 277, 330, 292
-0.999647, 263, 177, 278, 304
-0.999652, 183, 209, 198, 335
-0.999656, 113, 253, 128, 268
-0.999659, 267, 49, 282, 176
-0.999661, 281, 209, 296, 335
-0.999662, 407, 1, 422, 128
-0.999662, 307, 81, 322, 208
-0.999665, 291, 209, 306, 335
-0.999665, 269, 209, 284, 335
-0.999673, 189, 113, 220, 240
-0.999674, 123, 145, 138, 272
-0.999675, 171, 129, 186, 256
-0.999676, 101, 145, 116, 272
-0.999676, 371, 209, 386, 335
-0.999677, 269, 97, 284, 224
-0.999682, 287, 161, 302, 288
-0.999688, 395, 65, 410, 192
-0.999692, 261, 97, 276, 224
-0.999692, 3, 81, 18, 208
-0.999695, 131, 145, 146, 272
-0.999695, 275, 193, 290, 320
-0.999697, 113, 261, 128, 276
-0.999698, 349, 161, 364, 288
-0.999703, 281, 161, 296, 288
-0.999708, 69, 81, 84, 208
-0.99971, 297, 65, 312, 192
-0.999713, 331, 209, 346, 335
-0.999717, 97, 121, 224, 152
-0.999722, 37, 81, 52, 208
-0.999722, 73, 1, 104, 128
-0.999725, 59, 81, 74, 208
-0.999726, 189, 209, 204, 335
-0.999727, 97, 81, 112, 208
-0.999728, 97, 29, 224, 60
-0.999731, 161, 25, 288, 88
-0.999734, 75, 81, 90, 208
-0.999734, 53, 81, 68, 208
-0.999736, 45, 81, 60, 208
-0.999743, 369, 29, 496, 60
-0.999745, 29, 81, 44, 208
-0.999747, 203, 129, 218, 256
-0.999749, 81, 81, 96, 208
-0.99975, 239, 97, 254, 224
-0.99975, 181, 129, 196, 256
-0.999751, 283, 113, 298, 240
-0.999757, 231, 113, 246, 240
-0.999757, 17, 25, 144, 56
-0.99976, 23, 81, 38, 208
-0.999763, 15, 81, 30, 208
-0.99977, 343, 145, 358, 272
-0.999778, 177, 61, 304, 92
-0.99978, 245, 161, 260, 288
-0.999781, 245, 113, 260, 240
-0.999782, 17, 77, 144, 108
-0.999788, 255, 177, 270, 304
-0.99979, 105, 33, 120, 160
-0.99979, 95, 177, 110, 304
-0.999791, 291, 65, 306, 192
-0.999792, 165, 113, 180, 240
-0.999794, 223, 113, 238, 240
-0.999796, 277, 113, 292, 240
-0.999801, 109, 81, 124, 208
-0.999801, 255, 49, 270, 176
-0.999803, 9, 113, 24, 240
-0.999804, 369, 1, 496, 32
-0.999806, 269, 161, 284, 288
-0.999807, 213, 113, 228, 240
-0.999808, 81, 109, 208, 140
-0.999813, 41, 9, 104, 72
-0.999815, 89, 97, 104, 224
-0.999817, 305, 93, 432, 124
-0.999834, 1, 137, 128, 200
-0.999836, 47, 1, 62, 128
-0.999838, 361, 161, 376, 288
-0.999839, 369, 145, 496, 208
-0.999854, 75, 1, 90, 128
-0.999857, 293, 161, 308, 288
-0.999857, 389, 97, 404, 224
-0.999862, 197, 113, 212, 240
-0.999865, 53, 1, 68, 128
-0.999867, 393, 1, 408, 128
-0.999869, 187, 129, 202, 256
-0.999874, 69, 1, 84, 128
-0.999876, 103, 81, 118, 208
-0.999876, 59, 1, 74, 128
-0.999877, 1, 109, 128, 140
-0.99988, 189, 193, 220, 320
-0.999881, 9, 65, 24, 192
-0.999883, 239, 161, 254, 288
-0.999885, 327, 65, 342, 192
-0.999885, 83, 193, 98, 320
-0.999895, 145, 65, 176, 320
-0.999897, 89, 177, 104, 304
-0.999898, 115, 113, 130, 240
-0.999899, 87, 49, 102, 176
-0.999901, 95, 33, 110, 160
-0.999903, 405, 25, 436, 88
-0.999905, 151, 113, 166, 240
-0.999906, 379, 81, 394, 208
-0.999909, 285, 17, 300, 144
-0.99991, 83, 1, 98, 128
-0.99991, 369, 65, 400, 320
-0.999911, 333, 97, 348, 224
-0.999912, 385, 49, 400, 176
-0.999915, 197, 257, 228, 320
-0.999917, 355, 161, 370, 288
-0.999924, 225, 65, 256, 320
-0.999925, 249, 65, 264, 192
-0.999925, 321, 81, 448, 112
-0.999927, 169, 161, 200, 224
-0.999932, 211, 65, 226, 192
-0.999936, 229, 65, 244, 192
-0.999942, 369, 89, 496, 120
-0.999961, 81, 85, 208, 116
-0.999981, 57, 1, 88, 256
-0.999989, 253, 145, 284, 272
-1, 317, 137, 348, 200
-1.00001, 369, 145, 496, 176
-1.00001, 149, 113, 180, 240
-1.00002, 1, 153, 128, 184
-1.00002, 213, 65, 244, 320
-1.00002, 433, 1, 496, 335
-1.00005, 9, 33, 40, 288
-1.00005, 225, 105, 256, 168
-1.00005, 17, 45, 144, 76
-1.00006, 65, 137, 128, 200
-1.00006, 17, 61, 144, 92
-1.00007, 81, 73, 208, 104
-1.00008, 405, 1, 436, 256
-1.00009, 85, 273, 116, 335
-1.00011, 285, 57, 316, 120
-1.00011, 17, 133, 144, 164
-1.00012, 125, 65, 156, 320
-1.00013, 81, 61, 208, 92
-1.00013, 81, 49, 208, 80
-1.00015, 197, 65, 228, 320
-1.00015, 9, 265, 72, 328
-1.00018, 369, 17, 496, 48
-1.00019, 21, 65, 52, 320
-1.0002, 1, 57, 256, 120
-1.00023, 53, 1, 84, 128
-1.00024, 237, 177, 268, 240
-1.00024, 241, 33, 368, 64
-1.00025, 369, 101, 496, 132
-1.00025, 193, 33, 320, 64
-1.00027, 1, 1, 128, 32
-1.00028, 37, 65, 68, 320
-1.0003, 1, 9, 256, 72
-1.00036, 109, 145, 140, 208
-1.00045, 97, 1, 160, 128
-1.00052, 353, 89, 416, 152
-1.00054, 69, 113, 100, 176
-1.00054, 229, 161, 260, 288
-1.00059, 129, 57, 256, 120
-1.0006, 313, 209, 344, 272
-1.00061, 105, 49, 168, 112
-1.00064, 141, 137, 172, 200
-1.00066, 209, 25, 336, 88
-1.00067, 409, 1, 440, 128
-1.00069, 201, 113, 232, 240
-1.00073, 97, 25, 160, 88
-1.00076, 369, 177, 496, 240
-1.00077, 41, 193, 104, 256
-1.00077, 13, 121, 44, 184
-1.0008, 273, 33, 336, 96
-1.0008, 29, 1, 60, 64
-1.00082, 33, 121, 64, 184
-1.00089, 285, 17, 316, 144
-1.0009, 333, 81, 364, 208
-1.00091, 177, 1, 304, 64
-1.00093, 261, 1, 292, 128
-1.00094, 369, 65, 400, 192
-1.00096, 69, 273, 100, 335
-1.00098, 249, 65, 280, 128
-1.00099, 49, 121, 80, 184
-1.00101, 377, 89, 440, 152
-1.00111, 265, 41, 296, 104
-1.00113, 469, 1, 500, 256
-1.00114, 249, 233, 280, 296
-1.00116, 153, 113, 216, 176
-1.00117, 257, 1, 384, 64
-1.00119, 209, 49, 272, 112
-1.00121, 421, 1, 452, 256
-1.00121, 197, 129, 228, 192
-1.00123, 405, 1, 436, 64
-1.00124, 129, 1, 256, 64
-1.0013, 433, 1, 464, 256
-1.00134, 453, 1, 484, 256
-1.00138, 125, 113, 156, 240
-1.0014, 1, 33, 256, 96
-1.00148, 209, 65, 240, 192
-1.00156, 401, 1, 464, 256
-1.00163, 397, 73, 428, 136
-1.00164, 165, 81, 196, 208
-1.00169, 105, 113, 136, 176
-1.00169, 217, 201, 280, 264
-1.00172, 249, 201, 280, 264
-1.0018, 241, 193, 272, 320
-1.00184, 309, 81, 340, 144
-1.00184, 101, 33, 132, 160
-1.00189, 361, 97, 424, 224
-1.00193, 301, 33, 332, 160
-1.00198, 361, 201, 392, 264
-1.00199, 105, 73, 168, 136
-1.00202, 89, 17, 120, 80
-1.00208, 305, 73, 368, 136
-1.00212, 121, 145, 152, 208
-1.00213, 81, 129, 112, 256
-1.00219, 305, 33, 368, 160
-1.00222, 237, 17, 268, 144
-1.00222, 41, 1, 72, 64
-1.00223, 137, 113, 168, 240
-1.00234, 17, 241, 80, 304
-1.00237, 381, 73, 412, 136
-1.0024, 201, 209, 232, 335
-1.00241, 1, 185, 64, 248
-1.00246, 69, 193, 100, 320
-1.00252, 209, 17, 336, 144
-1.00256, 1, 49, 32, 176
-1.00258, 201, 33, 264, 160
-1.00258, 201, 265, 264, 328
-1.00264, 189, 161, 220, 224
-1.00267, 89, 137, 120, 200
-1.00273, 33, 129, 96, 256
-1.00274, 357, 145, 388, 272
-1.00283, 9, 145, 40, 272
-1.00286, 13, 33, 44, 160
-1.00291, 221, 65, 252, 192
-1.00301, 329, 81, 392, 144
-1.00307, 9, 209, 72, 335
-1.00312, 349, 65, 380, 192
-1.00313, 29, 33, 60, 160
-1.00313, 1, 209, 32, 335
-1.00315, 321, 17, 384, 80
-1.0032, 333, 33, 364, 160
-1.00333, 177, 65, 208, 192
-1.00342, 129, 97, 192, 160
-1.00362, 377, 129, 440, 192
-1.00364, 1, 65, 64, 128
-1.00369, 121, 65, 184, 192
-1.00372, 41, 169, 104, 232
-1.00374, 369, 1, 400, 128
-1.00376, 197, 65, 228, 192
-1.00377, 225, 209, 256, 335
-1.00381, 61, 129, 92, 256
-1.00384, 113, 1, 144, 128
-1.00386, 381, 113, 412, 240
-1.00391, 373, 161, 404, 288
-1.004, 369, 129, 496, 256
-1.00404, 349, 1, 380, 128
-1.00406, 321, 33, 352, 160
-1.00407, 57, 209, 88, 335
-1.00422, 201, 161, 232, 288
-1.00435, 345, 113, 408, 176
-1.00444, 9, 1, 72, 128
-1.00453, 217, 25, 280, 88
-1.00457, 241, 25, 304, 88
-1.00458, 25, 57, 88, 120
-1.00458, 121, 1, 184, 64
-1.00464, 49, 129, 80, 256
-1.0047, 213, 209, 244, 335
-1.00473, 25, 129, 56, 256
-1.00476, 9, 161, 72, 288
-1.00487, 217, 161, 248, 288
-1.005, 21, 209, 52, 335
-1.005, 433, 113, 496, 176
-1.00505, 37, 129, 68, 256
-1.00506, 369, 177, 432, 240
-1.00509, 297, 25, 360, 88
-1.00514, 249, 1, 280, 128
-1.00516, 369, 153, 432, 216
-1.00522, 153, 65, 184, 192
-1.0053, 329, 137, 392, 200
-1.00555, 273, 1, 304, 128
-1.00558, 169, 25, 232, 88
-1.00566, 225, 1, 288, 128
-1.00569, 145, 1, 208, 64
-1.00594, 401, 65, 432, 192
-1.00616, 33, 209, 64, 335
-1.0063, 469, 81, 500, 208
-1.00647, 433, 1, 496, 256
-1.00654, 45, 209, 76, 335
-1.00683, 33, 209, 96, 335
-1.00693, 345, 113, 376, 240
-1.00701, 125, 1, 156, 128
-1.0072, 129, 65, 160, 192
-1.00735, 425, 1, 456, 128
-1.00735, 449, 1, 480, 128
-1.00742, 369, 113, 400, 240
-1.00752, 461, 1, 492, 128
-1.00755, 437, 1, 468, 128
-1.00777, 141, 65, 172, 192
-1.00784, 137, 1, 168, 128
-1.00792, 117, 49, 148, 176
-1.00795, 161, 1, 192, 128
-1.00827, 177, 1, 208, 128
-1.00833, 1, 1, 32, 128
-1.00834, 429, 145, 460, 272
-1.009, 377, 145, 440, 272
-1.00913, 425, 1, 488, 128
-1.00941, 121, 1, 184, 128
-1.01021, 161, 33, 224, 160
-1.0115, 409, 145, 472, 272
-1.01182, 433, 97, 496, 224
-1.01331, 425, 49, 488, 176
-1.01335, 409, 97, 472, 224
-1.01351, 433, 145, 496, 272
-1.01471, 401, 209, 464, 335
-1.01481, 433, 209, 496, 335
-1.01516, 377, 209, 440, 335
