1882
-0.284905, 1, 1, 500, 332
-0.314059, 1, 65, 500, 320
-0.372039, 161, 1, 416, 332
-0.420932, 33, 1, 288, 332
-0.476974, 257, 1, 500, 332
-0.573397, 193, 33, 448, 288
-0.601116, 97, 33, 352, 288
-0.709637, 1, 65, 256, 320
-0.822718, 145, 1, 272, 332
-0.846785, 273, 33, 400, 288
-0.849187, 193, 1, 320, 332
-0.849551, 193, 33, 320, 288
-0.855158, 353, 65, 480, 320
-0.856574, 145, 65, 272, 320
-0.859549, 65, 1, 192, 332
-0.866799, 1, 129, 500, 256
-0.872991, 257, 1, 384, 332
-0.881446, 1, 209, 500, 332
-0.885149, 1, 65, 128, 320
-0.886666, 1, 1, 128, 332
-0.890284, 1, 49, 500, 176
-0.895242, 65, 1, 192, 256
-0.897202, 305, 1, 432, 332
-0.898708, 369, 1, 496, 332
-0.914923, 225, 81, 480, 208
-0.917764, 97, 33, 352, 160
-0.922351, 65, 193, 320, 320
-0.923933, 1, 1, 500, 128
-0.924175, 1, 97, 256, 224
-0.925951, 65, 193, 192, 320
-0.928818, 97, 129, 352, 256
-0.929721, 417, 97, 480, 224
-0.932885, 257, 177, 500, 304
-0.932958, 257, 129, 500, 256
-0.934433, 1, 17, 256, 144
-0.935975, 353, 97, 480, 224
-0.93734, 257, 65, 384, 192
-0.937733, 161, 177, 416, 304
-0.937909, 393, 81, 456, 208
-0.938314, 81, 193, 144, 320
-0.938471, 193, 209, 320, 332
-0.938662, 273, 81, 336, 208
-0.939008, 193, 113, 320, 240
-0.939425, 193, 33, 448, 160
-0.940343, 65, 145, 192, 272
-0.940517, 241, 49, 304, 176
-0.940552, 297, 65, 360, 192
-0.941323, 17, 209, 144, 332
-0.941455, 145, 129, 272, 256
-0.943346, 265, 129, 328, 256
-0.944098, 193, 49, 320, 176
-0.945096, 369, 81, 432, 208
-0.945798, 113, 145, 176, 272
-0.946111, 1, 129, 128, 256
-0.946134, 305, 81, 432, 208
-0.94648, 201, 233, 264, 296
-0.946698, 433, 145, 496, 272
-0.946985, 97, 81, 352, 208
-0.947817, 409, 105, 472, 168
-0.947965, 369, 129, 432, 256
-0.948382, 345, 81, 408, 208
-0.948454, 369, 145, 496, 272
-0.948623, 241, 209, 304, 332
-0.948784, 1, 209, 64, 332
-0.94929, 1, 65, 128, 192
-0.949575, 41, 193, 104, 320
-0.949962, 273, 177, 336, 304
-0.950139, 97, 81, 224, 208
-0.950143, 257, 161, 384, 288
-0.950403, 225, 97, 288, 224
-0.950488, 145, 177, 272, 304
-0.951084, 145, 33, 272, 160
-0.952222, 305, 113, 368, 240
-0.952296, 377, 97, 440, 160
-0.95233, 105, 97, 168, 224
-0.952439, 321, 65, 384, 192
-0.95259, 1, 1, 128, 128
-0.952635, 201, 65, 264, 192
-0.952695, 233, 225, 296, 288
-0.952857, 137, 97, 200, 224
-0.953111, 145, 81, 272, 208
-0.95333, 169, 241, 232, 304
-0.953333, 73, 145, 136, 272
-0.95378, 393, 129, 456, 256
-0.95414, 257, 113, 384, 240
-0.95424, 417, 49, 480, 176
-0.954387, 225, 105, 288, 168
-0.954701, 297, 57, 360, 120
-0.955225, 33, 145, 96, 272
-0.956068, 425, 129, 488, 192
-0.956127, 305, 33, 432, 160
-0.956318, 177, 1, 240, 128
-0.956325, 401, 129, 464, 192
-0.956458, 329, 81, 392, 144
-0.956496, 129, 193, 192, 320
-0.956867, 57, 81, 120, 208
-0.957198, 161, 97, 224, 224
-0.957422, 265, 33, 328, 160
-0.957623, 401, 81, 464, 144
-0.957832, 137, 145, 200, 272
-0.957872, 377, 193, 440, 320
-0.959104, 193, 129, 256, 256
-0.959512, 353, 49, 480, 176
-0.959526, 9, 145, 72, 272
-0.959787, 241, 209, 368, 332
-0.959939, 65, 1, 192, 128
-0.959949, 193, 257, 256, 320
-0.960096, 233, 201, 296, 264
-0.96024, 1, 145, 256, 272
-0.960244, 337, 129, 400, 256
-0.960688, 49, 65, 176, 192
-0.960753, 193, 161, 320, 288
-0.96103, 305, 129, 432, 256
-0.961035, 169, 145, 232, 272
-0.961277, 113, 129, 176, 192
-0.961713, 273, 73, 336, 136
-0.961792, 369, 193, 496, 320
-0.961862, 201, 121, 264, 184
-0.961873, 193, 209, 256, 332
-0.961966, 361, 33, 424, 160
-0.962302, 337, 17, 400, 144
-0.962318, 233, 145, 296, 272
-0.962467, 33, 225, 96, 288
-0.962507, 153, 1, 216, 128
-0.96261, 1, 209, 64, 272
-0.962731, 353, 105, 416, 168
-0.962866, 241, 129, 304, 192
-0.963266, 17, 257, 80, 320
-0.963423, 49, 257, 112, 320
-0.963447, 153, 209, 216, 332
-0.963709, 409, 177, 472, 304
-0.963977, 249, 73, 312, 136
-0.96403, 249, 49, 312, 112
-0.964909, 433, 169, 496, 232
-0.965287, 377, 121, 440, 184
-0.965392, 273, 97, 336, 160
-0.965532, 217, 257, 280, 320
-0.965557, 161, 265, 224, 328
-0.965653, 429, 89, 460, 152
-0.965736, 73, 201, 136, 264
-0.965973, 1, 233, 64, 296
-0.965998, 201, 97, 264, 160
-0.966002, 217, 17, 280, 144
-0.966062, 9, 49, 72, 176
-0.966144, 113, 153, 176, 216
-0.966326, 145, 129, 208, 192
-0.966422, 1, 137, 64, 200
-0.96655, 385, 33, 448, 160
-0.966853, 433, 97, 496, 160
-0.966904, 113, 97, 176, 160
-0.966932, 257, 33, 320, 288
-0.967015, 305, 81, 368, 144
-0.967237, 33, 193, 96, 256
-0.967499, 1, 97, 64, 224
-0.967574, 217, 209, 280, 332
-0.967812, 105, 193, 168, 320
-0.9679, 89, 129, 152, 192
-0.967998, 273, 49, 336, 112
-0.968159, 369, 73, 432, 136
-0.968447, 281, 65, 344, 320
-0.968646, 249, 249, 312, 312
-0.968994, 265, 161, 328, 224
-0.969053, 57, 121, 120, 184
-0.969081, 17, 113, 80, 176
-0.969128, 17, 1, 80, 128
-0.96913, 193, 233, 320, 296
-0.969189, 129, 185, 192, 248
-0.969328, 265, 201, 328, 264
-0.969552, 201, 145, 264, 208
-0.969628, 137, 153, 200, 216
-0.969835, 281, 121, 344, 184
-0.970175, 465, 129, 496, 256
-0.970315, 73, 33, 136, 160
-0.970573, 369, 65, 432, 320
-0.970602, 401, 177, 464, 240
-0.970617, 225, 49, 288, 112
-0.970683, 425, 65, 456, 192
-0.970723, 145, 249, 272, 312
-0.970882, 225, 73, 288, 136
-0.97089, 409, 81, 440, 208
-0.970957, 321, 49, 384, 112
-0.971012, 401, 89, 432, 152
-0.971181, 217, 241, 248, 304
-0.971184, 401, 201, 464, 264
-0.971197, 193, 1, 320, 128
-0.971264, 329, 65, 392, 320
-0.971437, 177, 1, 240, 64
-0.971462, 417, 121, 448, 184
-0.971471, 425, 73, 488, 136
-0.9715, 25, 97, 88, 224
-0.971567, 321, 89, 448, 152
-0.97157, 457, 137, 488, 200
-0.971787, 297, 177, 360, 304
-0.971919, 337, 129, 400, 192
-0.971991, 429, 113, 460, 240
-0.971997, 97, 1, 160, 128
-0.972142, 73, 225, 136, 288
-0.972201, 445, 81, 476, 208
-0.972241, 25, 145, 88, 208
-0.97227, 197, 241, 228, 304
-0.972296, 153, 49, 216, 176
-0.97245, 161, 217, 224, 280
-0.972498, 353, 81, 384, 208
-0.972556, 453, 129, 484, 256
-0.972606, 333, 65, 364, 128
-0.972627, 177, 49, 240, 176
-0.972627, 73, 249, 136, 312
-0.972773, 321, 177, 448, 304
-0.972875, 233, 33, 296, 288
-0.972917, 177, 113, 240, 176
-0.972942, 233, 169, 296, 232
-0.972982, 241, 17, 368, 144
-0.973156, 321, 65, 352, 192
-0.973183, 85, 193, 116, 320
-0.9732, 1, 137, 128, 200
-0.973286, 381, 81, 412, 208
-0.973441, 129, 65, 192, 128
-0.97356, 433, 193, 496, 256
-0.973683, 201, 33, 264, 288
-0.973786, 433, 193, 496, 320
-0.97389, 381, 81, 412, 144
-0.974132, 33, 169, 96, 232
-0.974204, 313, 129, 376, 192
-0.974309, 437, 129, 468, 192
-0.974317, 153, 105, 216, 168
-0.974409, 101, 129, 132, 192
-0.974419, 441, 129, 472, 256
-0.974501, 65, 201, 192, 264
-0.974609, 369, 145, 432, 208
-0.974686, 333, 81, 364, 208
-0.974773, 469, 145, 500, 208
-0.974826, 353, 249, 416, 312
-0.974902, 237, 249, 268, 312
-0.974927, 321, 105, 384, 168
-0.975012, 213, 121, 244, 184
-0.975026, 369, 73, 496, 136
-0.975036, 417, 65, 480, 320
-0.975043, 217, 97, 248, 224
-0.975078, 41, 1, 104, 128
-0.975086, 369, 273, 432, 332
-0.975223, 161, 81, 224, 144
-0.975313, 409, 153, 472, 216
-0.975408, 397, 113, 428, 240
-0.975419, 309, 65, 340, 192
-0.975489, 41, 65, 104, 320
-0.975505, 377, 185, 440, 248
-0.975526, 129, 49, 192, 176
-0.975573, 229, 105, 260, 168
-0.975626, 145, 241, 208, 304
-0.975638, 105, 49, 168, 176
-0.975662, 89, 153, 152, 216
-0.975745, 445, 105, 476, 168
-0.975747, 97, 193, 160, 256
-0.975826, 249, 105, 312, 168
-0.975857, 121, 121, 152, 184
-0.975883, 369, 105, 496, 168
-0.97592, 353, 129, 480, 192
-0.975947, 177, 121, 304, 184
-0.975949, 265, 113, 296, 240
-0.975961, 233, 65, 264, 192
-0.976077, 417, 129, 448, 256
-0.976133, 349, 81, 380, 144
-0.976145, 17, 89, 80, 152
-0.976157, 413, 97, 444, 160
-0.976199, 261, 121, 292, 184
-0.976214, 129, 265, 192, 328
-0.976272, 201, 1, 264, 332
-0.976509, 237, 129, 268, 256
-0.976579, 457, 81, 488, 208
-0.976646, 305, 65, 368, 320
-0.976688, 177, 209, 304, 272
-0.976698, 41, 97, 104, 160
-0.976767, 297, 161, 360, 224
-0.976784, 313, 17, 376, 144
-0.976922, 129, 121, 256, 184
-0.976943, 193, 97, 224, 224
-0.976951, 81, 129, 208, 192
-0.97708, 273, 73, 400, 136
-0.977198, 313, 57, 344, 120
-0.9772, 193, 57, 320, 120
-0.977203, 393, 265, 456, 328
-0.977264, 365, 105, 396, 168
-0.977365, 245, 113, 276, 176
-0.977387, 73, 89, 136, 152
-0.977415, 253, 49, 284, 176
-0.977525, 141, 145, 172, 208
-0.977573, 1, 169, 64, 232
-0.977628, 177, 145, 304, 208
-0.97773, 225, 121, 352, 184
-0.977838, 133, 145, 164, 272
-0.978043, 17, 113, 144, 176
-0.978176, 269, 193, 300, 256
-0.978254, 105, 73, 168, 136
-0.978305, 353, 209, 416, 332
-0.97836, 25, 209, 56, 272
-0.978472, 369, 177, 496, 240
-0.978487, 281, 73, 312, 136
-0.978498, 101, 129, 132, 256
-0.978522, 185, 73, 248, 136
-0.978665, 361, 81, 392, 144
-0.978696, 337, 41, 368, 104
-0.978704, 1, 233, 128, 296
-0.97872, 65, 225, 192, 288
-0.978735, 121, 113, 152, 240
-0.978789, 153, 9, 216, 72
-0.978868, 253, 145, 284, 272
-0.978876, 401, 113, 432, 176
-0.978963, 225, 209, 256, 272
-0.978993, 329, 153, 392, 216
-0.979008, 17, 65, 80, 128
-0.979112, 209, 201, 272, 264
-0.979147, 225, 1, 288, 332
-0.979327, 369, 49, 400, 176
-0.979387, 1, 89, 128, 152
-0.979444, 389, 121, 420, 184
-0.97948, 41, 257, 72, 320
-0.97957, 193, 257, 320, 320
-0.979623, 269, 209, 300, 332
-0.979644, 329, 177, 392, 304
-0.979679, 41, 73, 104, 136
-0.979732, 177, 1, 240, 256
-0.979758, 113, 65, 176, 320
-0.979759, 5, 233, 36, 296
-0.979788, 81, 217, 112, 280
-0.97988, 49, 153, 176, 216
-0.979921, 17, 33, 80, 96
-0.980007, 81, 65, 144, 320
-0.980076, 81, 193, 112, 256
-0.980121, 305, 121, 432, 184
-0.980124, 285, 81, 316, 208
-0.980131, 225, 97, 352, 160
-0.980139, 89, 49, 152, 112
-0.980164, 49, 145, 112, 208
-0.980194, 393, 65, 456, 320
-0.980207, 177, 97, 304, 160
-0.980243, 393, 65, 424, 192
-0.980304, 317, 113, 348, 240
-0.980328, 241, 49, 368, 112
-0.980339, 241, 1, 304, 128
-0.98035, 241, 257, 368, 320
-0.980442, 65, 249, 192, 312
-0.980445, 225, 129, 256, 192
-0.980497, 121, 1, 184, 128
-0.9805, 81, 97, 144, 224
-0.98051, 369, 153, 496, 216
-0.98051, 129, 217, 192, 280
-0.98054, 417, 145, 448, 208
-0.980588, 33, 49, 96, 176
-0.98059, 89, 145, 120, 272
-0.980616, 153, 177, 184, 304
-0.980704, 365, 97, 396, 224
-0.980744, 209, 97, 240, 160
-0.980748, 1, 257, 128, 320
-0.980802, 129, 217, 256, 280
-0.98081, 1, 25, 128, 88
-0.980838, 265, 33, 296, 160
-0.980857, 201, 17, 264, 80
-0.98087, 297, 49, 328, 176
-0.980878, 213, 49, 244, 176
-0.980953, 1, 201, 128, 264
-0.981127, 241, 273, 304, 332
-0.981137, 129, 145, 256, 208
-0.981162, 261, 233, 292, 296
-0.981185, 257, 209, 288, 332
-0.981212, 253, 97, 284, 224
-0.981257, 225, 177, 256, 304
-0.981276, 49, 65, 80, 192
-0.981309, 289, 17, 352, 144
-0.981336, 153, 97, 184, 224
-0.981389, 73, 273, 136, 332
-0.981444, 225, 145, 352, 208
-0.981463, 177, 169, 240, 232
-0.981507, 161, 33, 288, 96
-0.981592, 413, 177, 444, 304
-0.981635, 429, 65, 460, 128
-0.981667, 49, 49, 112, 112
-0.981674, 205, 129, 236, 256
-0.981674, 21, 241, 52, 304
-0.981731, 177, 145, 240, 208
-0.981778, 185, 49, 248, 112
-0.981789, 289, 169, 416, 232
-0.981804, 269, 73, 300, 136
-0.981876, 141, 97, 172, 224
-0.98189, 329, 265, 392, 328
-0.981928, 133, 121, 164, 184
-0.981945, 153, 121, 184, 184
-0.981975, 225, 209, 352, 272
-0.982003, 257, 225, 320, 288
-0.982058, 1, 177, 128, 240
-0.982086, 321, 81, 352, 144
-0.982121, 61, 129, 92, 192
-0.982227, 469, 185, 500, 248
-0.98223, 273, 249, 336, 312
-0.98224, 1, 33, 64, 288
-0.982295, 129, 145, 160, 208
-0.982326, 449, 169, 480, 232
-0.982378, 33, 233, 64, 296
-0.982399, 41, 121, 72, 184
-0.982427, 129, 1, 256, 64
-0.982437, 105, 273, 168, 332
-0.982469, 97, 209, 128, 332
-0.982517, 13, 193, 44, 256
-0.98256, 73, 177, 136, 240
-0.982631, 33, 209, 64, 332
-0.982643, 345, 49, 408, 112
-0.982732, 57, 273, 88, 332
-0.982743, 333, 33, 364, 160
-0.982796, 161, 177, 288, 240
-0.982817, 121, 241, 184, 304
-0.982823, 253, 57, 284, 120
-0.982917, 269, 97, 300, 160
-0.98296, 441, 65, 472, 128
-0.982996, 277, 145, 308, 272
-0.983022, 297, 33, 360, 96
-0.983031, 257, 201, 288, 264
-0.98305, 257, 233, 384, 296
-0.983052, 177, 1, 240, 332
-0.983064, 405, 265, 436, 328
-0.983186, 453, 81, 484, 144
-0.983211, 1, 201, 32, 264
-0.983252, 113, 193, 240, 256
-0.983293, 65, 273, 192, 332
-0.983356, 273, 137, 304, 200
-0.983357, 17, 161, 48, 288
-0.983425, 185, 249, 216, 312
-0.983441, 393, 65, 424, 128
-0.983485, 209, 265, 240, 328
-0.983502, 305, 145, 432, 208
-0.983507, 173, 233, 204, 296
-0.983526, 69, 257, 100, 320
-0.983528, 277, 33, 308, 160
-0.983584, 89, 25, 152, 88
-0.983621, 237, 81, 268, 144
-0.983634, 1, 57, 128, 120
-0.983654, 265, 49, 296, 112
-0.983677, 305, 257, 368, 320
-0.983735, 349, 33, 380, 160
-0.983756, 329, 1, 392, 332
-0.98379, 129, 57, 256, 120
-0.983825, 153, 1, 216, 332
-0.983893, 101, 153, 132, 216
-0.983894, 1, 1, 128, 64
-0.983957, 265, 1, 328, 332
-0.983957, 89, 113, 120, 176
-0.983959, 129, 273, 256, 332
-0.983965, 333, 89, 364, 152
-0.98402, 49, 1, 112, 64
-0.984044, 1, 161, 32, 224
-0.984108, 321, 65, 448, 128
-0.984127, 401, 161, 432, 224
-0.984143, 305, 265, 432, 328
-0.98417, 289, 49, 320, 112
-0.984194, 429, 185, 460, 248
-0.984206, 53, 105, 84, 168
-0.984206, 285, 161, 316, 224
-0.984228, 97, 97, 224, 160
-0.984256, 113, 25, 240, 88
-0.984259, 277, 49, 308, 112
-0.98427, 429, 161, 460, 288
-0.984307, 469, 177, 500, 304
-0.984319, 125, 97, 156, 160
-0.984332, 181, 1, 212, 64
-0.98435, 273, 97, 400, 160
-0.984352, 249, 89, 280, 152
-0.984461, 1, 257, 32, 320
-0.984531, 345, 121, 376, 184
-0.984541, 301, 65, 332, 128
-0.98459, 237, 225, 268, 288
-0.984606, 401, 57, 464, 120
-0.98463, 445, 177, 476, 304
-0.984696, 177, 193, 240, 256
-0.984753, 145, 65, 208, 320
-0.984825, 225, 265, 256, 328
-0.984836, 297, 153, 328, 216
-0.984852, 197, 129, 228, 192
-0.984866, 469, 81, 500, 208
-0.984867, 437, 161, 468, 224
-0.984879, 61, 81, 92, 208
-0.984908, 13, 169, 44, 232
-0.984945, 309, 97, 340, 160
-0.984989, 281, 97, 312, 160
-0.984998, 409, 185, 440, 248
-0.985026, 365, 129, 396, 192
-0.985037, 41, 1, 104, 332
-0.985059, 57, 81, 88, 144
-0.98506, 197, 265, 228, 328
-0.985068, 121, 65, 152, 192
-0.985092, 325, 41, 356, 104
-0.985151, 397, 185, 428, 248
-0.985183, 353, 169, 416, 232
-0.985192, 237, 137, 268, 200
-0.985287, 77, 113, 108, 176
-0.985294, 161, 33, 224, 96
-0.985294, 249, 265, 280, 328
-0.985314, 97, 81, 128, 208
-0.985333, 381, 145, 412, 208
-0.985365, 433, 217, 496, 280
-0.985376, 377, 105, 408, 168
-0.985398, 109, 193, 140, 320
-0.985467, 177, 9, 304, 72
-0.985554, 1, 145, 32, 272
-0.985556, 1, 1, 64, 332
-0.985556, 49, 57, 176, 120
-0.98558, 305, 113, 336, 240
-0.985587, 225, 65, 256, 128
-0.985603, 469, 209, 500, 272
-0.985669, 225, 185, 352, 248
-0.985687, 349, 49, 380, 112
-0.985687, 249, 137, 280, 200
-0.985726, 5, 209, 36, 332
-0.985838, 381, 33, 412, 160
-0.985845, 177, 177, 208, 304
-0.985862, 49, 25, 112, 88
-0.985877, 81, 1, 144, 332
-0.985884, 137, 73, 168, 136
-0.985953, 381, 185, 412, 248
-0.985969, 13, 137, 44, 200
-0.986081, 417, 209, 448, 272
-0.986091, 73, 209, 104, 332
-0.986116, 317, 161, 348, 288
-0.986151, 153, 153, 184, 216
-0.986205, 241, 49, 272, 112
-0.98622, 49, 81, 176, 144
-0.986261, 129, 17, 192, 80
-0.986261, 285, 137, 316, 200
-0.986276, 229, 17, 260, 144
-0.986291, 413, 73, 444, 136
-0.986303, 73, 81, 104, 208
-0.986308, 37, 145, 68, 272
-0.986408, 117, 145, 148, 208
-0.986419, 313, 161, 344, 224
-0.986424, 49, 33, 176, 96
-0.986429, 409, 241, 472, 304
-0.986499, 401, 161, 432, 288
-0.986499, 149, 97, 180, 160
-0.986567, 321, 33, 448, 96
-0.986582, 109, 105, 140, 168
-0.986587, 213, 145, 244, 208
-0.986608, 377, 209, 440, 272
-0.986653, 457, 177, 488, 304
-0.986675, 369, 201, 496, 264
-0.986704, 289, 185, 352, 248
-0.986712, 385, 241, 448, 304
-0.986793, 329, 241, 392, 304
-0.9868, 13, 113, 44, 240
-0.986809, 89, 33, 120, 160
-0.986811, 65, 177, 192, 240
-0.986885, 97, 201, 128, 264
-0.986887, 305, 1, 368, 332
-0.986892, 333, 129, 364, 256
-0.986894, 137, 49, 168, 176
-0.986905, 189, 97, 220, 160
-0.986916, 429, 209, 460, 272
-0.986937, 113, 1, 176, 332
-0.98696, 233, 185, 264, 248
-0.986968, 41, 65, 72, 128
-0.986975, 205, 1, 236, 128
-0.986982, 165, 113, 196, 240
-0.987009, 401, 209, 432, 332
-0.987033, 17, 9, 80, 72
-0.987103, 393, 273, 424, 332
-0.987194, 21, 209, 52, 332
-0.987219, 333, 121, 364, 184
-0.987288, 305, 193, 432, 256
-0.987338, 369, 1, 400, 128
-0.987352, 281, 209, 312, 332
-0.98738, 249, 225, 280, 288
-0.987397, 49, 145, 80, 208
-0.987442, 25, 185, 56, 248
-0.987451, 189, 49, 220, 176
-0.987488, 193, 1, 224, 128
-0.98751, 37, 81, 68, 208
-0.987557, 9, 33, 40, 160
-0.987561, 353, 257, 480, 320
-0.98768, 377, 1, 440, 332
-0.987851, 77, 129, 108, 256
-0.987956, 113, 169, 240, 232
-0.987979, 401, 97, 464, 128
-0.988006, 49, 129, 80, 256
-0.988079, 81, 1, 208, 64
-0.988097, 377, 129, 408, 256
-0.98812, 193, 253, 256, 284
-0.988129, 205, 209, 236, 332
-0.988207, 369, 225, 496, 288
-0.988307, 237, 209, 268, 332
-0.98836, 141, 193, 172, 320
-0.988475, 25, 81, 56, 208
-0.98867, 165, 1, 196, 128
-0.988672, 381, 193, 412, 320
-0.988685, 169, 261, 232, 292
-0.988715, 121, 209, 152, 332
-0.988728, 409, 113, 472, 144
-0.988736, 289, 129, 320, 256
-0.988751, 181, 1, 212, 128
-0.988759, 425, 85, 488, 116
-0.988779, 109, 81, 140, 208
-0.988806, 1, 97, 32, 224
-0.98882, 305, 241, 432, 304
-0.988865, 65, 145, 96, 272
-0.988902, 317, 17, 348, 144
-0.988926, 301, 193, 332, 320
-0.989023, 401, 1, 464, 332
-0.989059, 429, 209, 460, 332
-0.989093, 377, 97, 440, 128
-0.989144, 209, 265, 272, 296
-0.989162, 353, 89, 416, 120
-0.989299, 225, 121, 480, 184
-0.98935, 169, 249, 232, 280
-0.989466, 105, 149, 168, 180
-0.989515, 385, 109, 448, 140
-0.989525, 9, 249, 72, 280
-0.989535, 409, 125, 472, 156
-0.989541, 305, 73, 368, 104
-0.989592, 33, 245, 96, 276
-0.989595, 321, 89, 384, 120
-0.989681, 353, 105, 416, 136
-0.989749, 57, 193, 88, 320
-0.989803, 369, 121, 432, 152
-0.989807, 233, 233, 296, 264
-0.98984, 241, 17, 272, 144
-0.989889, 169, 237, 232, 268
-0.989912, 433, 145, 496, 176
-0.989936, 233, 129, 296, 160
-0.989968, 233, 217, 296, 248
-0.989974, 201, 125, 264, 156
-0.990011, 233, 201, 296, 232
-0.990014, 273, 81, 336, 112
-0.99002, 209, 229, 272, 260
-0.99002, 41, 233, 104, 264
-0.990033, 1, 209, 64, 240
-0.990056, 401, 85, 464, 116
-0.990067, 145, 153, 208, 184
-0.990091, 73, 209, 136, 240
-0.9901, 241, 85, 304, 116
-0.990148, 353, 1, 480, 128
-0.990156, 257, 205, 320, 236
-0.990166, 97, 137, 160, 168
-0.990215, 193, 241, 256, 272
-0.990243, 33, 209, 96, 240
-0.990269, 33, 197, 96, 228
-0.990314, 425, 101, 488, 132
-0.990351, 25, 145, 88, 176
-0.990351, 257, 25, 384, 88
-0.990357, 273, 69, 336, 100
-0.990369, 249, 73, 312, 104
-0.990369, 9, 261, 72, 292
-0.990376, 233, 261, 296, 292
-0.990378, 49, 133, 112, 164
-0.990397, 45, 1, 76, 128
-0.990427, 17, 129, 80, 160
-0.990472, 329, 77, 392, 108
-0.990479, 73, 229, 136, 260
-0.99053, 41, 261, 104, 292
-0.990534, 425, 1, 488, 332
-0.990535, 201, 137, 264, 168
-0.990542, 345, 129, 376, 256
-0.990554, 409, 161, 472, 192
-0.990585, 29, 1, 60, 128
-0.990609, 369, 149, 432, 180
-0.990611, 281, 93, 344, 124
-0.990613, 1, 233, 256, 296
-0.990655, 137, 141, 200, 172
-0.990668, 65, 117, 128, 148
-0.990674, 281, 117, 344, 148
-0.990679, 201, 89, 264, 120
-0.990681, 201, 109, 264, 140
-0.990695, 241, 141, 304, 172
-0.990714, 225, 65, 288, 96
-0.990724, 241, 249, 304, 280
-0.990733, 41, 221, 104, 252
-0.990745, 433, 133, 496, 164
-0.990746, 9, 237, 72, 268
-0.990754, 225, 189, 288, 220
-0.990755, 353, 261, 416, 292
-0.99076, 281, 129, 344, 160
-0.990768, 433, 185, 496, 216
-0.990775, 249, 117, 312, 148
-0.990779, 113, 125, 176, 156
-0.990796, 97, 137, 352, 200
-0.990819, 193, 145, 224, 272
-0.990826, 401, 189, 464, 220
-0.990852, 233, 97, 296, 128
-0.990869, 297, 105, 360, 136
-0.990877, 249, 53, 312, 84
-0.990887, 401, 137, 464, 168
-0.990897, 273, 105, 336, 136
-0.990915, 225, 89, 480, 152
-0.990928, 329, 105, 392, 136
-0.99093, 225, 117, 288, 148
-0.99093, 73, 129, 136, 160
-0.990941, 169, 105, 232, 136
-0.99095, 149, 49, 180, 176
-0.99095, 9, 157, 72, 188
-0.990965, 121, 97, 184, 128
-0.990967, 69, 1, 100, 128
-0.990979, 377, 197, 440, 228
-0.990983, 313, 61, 376, 92
-0.990983, 377, 85, 440, 116
-0.990999, 385, 265, 448, 296
-0.991003, 217, 77, 280, 108
-0.991023, 73, 241, 136, 272
-0.991028, 177, 133, 240, 164
-0.991034, 369, 161, 432, 192
-0.991049, 401, 201, 464, 232
-0.991051, 265, 193, 328, 224
-0.991063, 417, 173, 480, 204
-0.991078, 185, 149, 248, 180
-0.99117, 9, 225, 72, 256
-0.99118, 201, 49, 232, 176
-0.991181, 17, 117, 80, 148
-0.991192, 17, 65, 80, 96
-0.99121, 49, 145, 112, 176
-0.991231, 161, 1, 224, 32
-0.991245, 161, 225, 224, 256
-0.991256, 1, 197, 64, 228
-0.991264, 97, 249, 352, 312
-0.991266, 193, 1, 256, 32
-0.99128, 25, 105, 88, 136
-0.991286, 145, 257, 208, 288
-0.991288, 369, 133, 432, 164
-0.991303, 117, 1, 148, 128
-0.991304, 305, 117, 368, 148
-0.991313, 121, 161, 152, 288
-0.991314, 177, 273, 240, 304
-0.99134, 401, 149, 464, 180
-0.99135, 49, 273, 112, 304
-0.991369, 337, 137, 400, 168
-0.991385, 73, 145, 136, 176
-0.991388, 137, 189, 200, 220
-0.991391, 273, 153, 336, 184
-0.991425, 257, 129, 320, 160
-0.991448, 121, 161, 184, 192
-0.99146, 1, 181, 64, 212
-0.991463, 257, 261, 320, 292
-0.991483, 129, 85, 192, 116
-0.991494, 193, 77, 256, 108
-0.9915, 153, 165, 216, 196
-0.991501, 265, 217, 328, 248
-0.991511, 433, 157, 496, 188
-0.991513, 313, 149, 376, 180
-0.991524, 49, 89, 112, 120
-0.991525, 329, 177, 360, 304
-0.991538, 401, 73, 464, 104
-0.991545, 433, 205, 496, 236
-0.991553, 73, 197, 136, 228
-0.991556, 49, 105, 112, 136
-0.991558, 1, 141, 64, 172
-0.99156, 97, 97, 160, 128
-0.991583, 129, 57, 384, 120
-0.991668, 181, 97, 212, 224
-0.991748, 257, 169, 500, 232
-0.991791, 65, 105, 320, 168
-0.991826, 153, 1, 184, 128
-0.991862, 405, 33, 436, 160
-0.991901, 225, 265, 480, 328
-0.991903, 225, 145, 480, 208
-0.991986, 161, 49, 192, 176
-0.992039, 217, 249, 248, 280
-0.992083, 165, 193, 196, 320
-0.992095, 197, 249, 228, 280
-0.992108, 1, 273, 500, 332
-0.992248, 429, 101, 460, 132
-0.99227, 193, 241, 448, 304
-0.992277, 413, 113, 444, 144
-0.99229, 129, 1, 160, 128
-0.992297, 405, 97, 436, 128
-0.992305, 85, 81, 116, 208
-0.992315, 445, 81, 476, 112
-0.992331, 37, 257, 68, 288
-0.992352, 365, 177, 396, 304
-0.992356, 265, 205, 296, 236
-0.992371, 65, 201, 320, 264
-0.992373, 105, 137, 136, 168
-0.992373, 237, 261, 268, 292
-0.992377, 209, 125, 240, 156
-0.99238, 373, 85, 404, 116
-0.992382, 381, 101, 412, 132
-0.992395, 393, 89, 424, 120
-0.992402, 341, 73, 372, 104
-0.992404, 469, 149, 500, 180
-0.992404, 217, 137, 248, 168
-0.992429, 413, 125, 444, 156
-0.992439, 137, 145, 168, 176
-0.992458, 397, 117, 428, 148
-0.9925, 425, 89, 456, 120
-0.992542, 457, 141, 488, 172
-0.992554, 393, 105, 424, 136
-0.992556, 197, 261, 228, 292
-0.99256, 433, 113, 464, 144
-0.992582, 369, 17, 496, 80
-0.992583, 65, 25, 320, 88
-0.99259, 229, 129, 260, 160
-0.992596, 277, 77, 308, 108
-0.992608, 121, 141, 152, 172
-0.992612, 393, 77, 424, 108
-0.992636, 411, 89, 426, 152
-0.992636, 21, 201, 52, 232
-0.992644, 25, 249, 56, 280
-0.992644, 81, 209, 112, 240
-0.992651, 217, 1, 248, 128
-0.992652, 209, 109, 240, 140
-0.992656, 1, 157, 32, 188
-0.992661, 245, 129, 276, 160
-0.992662, 441, 133, 472, 164
-0.992662, 429, 129, 460, 160
-0.992666, 241, 141, 272, 172
-0.992679, 265, 129, 296, 160
-0.992683, 93, 141, 124, 172
-0.992684, 229, 245, 260, 276
-0.992694, 333, 85, 364, 116
-0.992695, 253, 69, 284, 100
-0.992698, 129, 129, 160, 160
-0.992701, 201, 237, 232, 268
-0.992704, 229, 93, 260, 124
-0.992704, 221, 261, 252, 292
-0.992721, 37, 241, 68, 272
-0.992723, 1, 129, 256, 192
-0.992729, 313, 73, 344, 104
-0.992741, 225, 73, 256, 104
-0.992743, 53, 125, 84, 156
-0.992759, 353, 109, 384, 140
-0.99276, 353, 81, 384, 112
-0.992763, 273, 141, 304, 172
-0.992764, 329, 97, 360, 128
-0.992767, 253, 221, 284, 252
-0.992771, 1, 173, 32, 204
-0.992782, 49, 113, 80, 144
-0.992784, 417, 145, 448, 176
-0.992784, 413, 197, 444, 228
-0.992786, 453, 93, 484, 124
-0.992787, 449, 33, 480, 160
-0.99279, 417, 101, 448, 132
-0.992803, 13, 221, 44, 252
-0.992807, 429, 185, 460, 216
-0.992807, 105, 149, 136, 180
-0.992808, 293, 157, 324, 188
-0.992811, 237, 77, 268, 108
-0.992812, 329, 73, 360, 104
-0.992816, 353, 93, 384, 124
-0.992819, 221, 229, 252, 260
-0.992821, 401, 129, 432, 160
-0.992831, 41, 129, 72, 160
-0.992836, 85, 197, 116, 228
-0.992837, 365, 113, 396, 144
-0.992841, 53, 285, 84, 316
-0.992841, 365, 97, 396, 128
-0.992842, 353, 1, 416, 332
-0.992847, 181, 257, 212, 288
-0.992847, 241, 89, 272, 120
-0.992849, 233, 205, 264, 236
-0.992856, 445, 165, 476, 196
-0.992863, 105, 1, 136, 128
-0.992864, 69, 117, 100, 148
-0.992865, 29, 221, 60, 252
-0.99287, 9, 145, 40, 176
-0.992874, 1, 209, 32, 240
-0.992882, 253, 81, 284, 112
-0.992887, 265, 85, 296, 116
-0.99289, 457, 165, 488, 196
-0.99289, 209, 265, 240, 296
-0.992893, 229, 141, 260, 172
-0.992894, 81, 221, 112, 252
-0.992894, 117, 129, 148, 160
-0.992894, 137, 89, 168, 120
-0.992904, 317, 209, 348, 332
-0.992906, 445, 113, 476, 144
-0.992906, 441, 69, 472, 100
-0.992907, 125, 117, 156, 148
-0.992907, 1, 257, 32, 288
-0.992908, 269, 53, 300, 84
-0.99291, 21, 261, 52, 292
-0.992912, 253, 193, 284, 224
-0.992912, 269, 97, 300, 128
-0.992917, 465, 185, 496, 216
-0.992924, 429, 173, 460, 204
-0.992924, 261, 117, 292, 148
-0.992928, 337, 113, 368, 144
-0.992932, 457, 153, 488, 184
-0.992935, 317, 89, 348, 120
-0.992936, 285, 133, 316, 164
-0.992939, 49, 141, 80, 172
-0.992943, 281, 153, 312, 184
-0.992944, 233, 233, 264, 264
-0.992945, 229, 105, 260, 136
-0.992946, 417, 157, 448, 188
-0.99295, 405, 161, 436, 192
-0.992951, 301, 65, 332, 96
-0.992951, 233, 117, 264, 148
-0.992952, 13, 249, 44, 280
-0.992955, 425, 197, 456, 228
-0.992958, 25, 237, 56, 268
-0.99296, 1, 137, 500, 200
-0.992969, 269, 65, 300, 96
-0.99297, 117, 93, 148, 124
-0.992972, 57, 253, 88, 284
-0.992985, 413, 181, 444, 212
-0.992985, 389, 261, 420, 292
-0.992988, 81, 145, 112, 176
-0.992988, 249, 269, 280, 300
-0.992989, 365, 141, 396, 172
-0.99299, 237, 57, 268, 88
-0.992992, 221, 189, 252, 220
-0.992992, 265, 193, 296, 224
-0.992996, 469, 169, 500, 200
-0.993134, 33, 273, 288, 332
-0.993199, 321, 217, 448, 280
-0.993303, 273, 201, 288, 264
-0.993327, 145, 249, 272, 280
-0.993357, 129, 273, 384, 332
-0.993398, 265, 161, 296, 288
-0.993446, 427, 113, 442, 176
-0.993452, 257, 193, 500, 256
-0.993458, 437, 33, 468, 160
-0.99352, 417, 89, 432, 152
-0.993559, 147, 145, 162, 208
-0.993644, 193, 241, 320, 272
-0.993718, 145, 261, 272, 292
-0.993756, 117, 129, 132, 192
-0.99379, 199, 249, 214, 312
-0.993796, 1, 141, 128, 172
-0.99383, 435, 97, 450, 160
-0.993855, 377, 81, 392, 144
-0.993862, 447, 89, 462, 152
-0.99396, 1, 249, 500, 312
-0.99404, 129, 161, 384, 224
-0.994064, 483, 145, 498, 208
-0.994089, 453, 105, 468, 168
-0.994107, 471, 137, 486, 200
-0.994158, 1, 217, 500, 280
-0.994183, 229, 241, 244, 304
-0.994195, 421, 113, 436, 176
-0.9942, 439, 65, 454, 128
-0.994206, 1, 193, 500, 256
-0.994206, 1, 49, 500, 112
-0.99421, 337, 49, 352, 112
-0.994219, 267, 193, 282, 256
-0.994222, 233, 113, 248, 176
-0.994226, 405, 89, 420, 152
-0.994258, 385, 89, 400, 152
-0.994276, 161, 33, 416, 96
-0.994294, 371, 89, 386, 152
-0.994309, 193, 261, 320, 292
-0.99432, 443, 129, 458, 192
-0.994327, 1, 113, 500, 176
-0.994332, 161, 209, 416, 272
-0.994356, 193, 117, 320, 148
-0.99439, 85, 193, 100, 256
-0.99446, 237, 249, 252, 312
-0.994476, 459, 145, 474, 208
-0.994494, 423, 89, 438, 152
-0.994526, 1, 73, 500, 136
-0.994533, 193, 149, 320, 180
-0.994574, 153, 145, 168, 208
-0.994586, 193, 229, 320, 260
-0.994593, 361, 73, 376, 136
-0.994603, 327, 89, 342, 152
-0.994615, 37, 225, 52, 288
-0.994645, 379, 105, 394, 168
-0.994649, 351, 49, 366, 112
-0.99465, 223, 105, 238, 168
-0.994662, 81, 141, 208, 172
-0.994671, 223, 249, 238, 312
-0.994714, 1, 205, 128, 236
-0.99474, 287, 65, 302, 128
-0.994747, 161, 209, 288, 240
-0.994759, 1, 129, 128, 160
-0.994763, 451, 129, 466, 192
-0.994805, 477, 145, 492, 208
-0.99482, 1, 1, 256, 64
-0.994823, 441, 97, 456, 160
-0.994823, 1, 81, 256, 144
-0.994839, 339, 73, 354, 136
-0.994847, 369, 81, 496, 112
-0.994868, 465, 137, 480, 200
-0.994868, 231, 209, 246, 272
-0.994875, 1, 161, 500, 224
-0.994877, 415, 129, 430, 192
-0.99488, 1, 177, 256, 240
-0.994884, 245, 233, 260, 296
-0.994906, 369, 133, 496, 164
-0.994914, 209, 129, 336, 160
-0.994916, 105, 137, 120, 200
-0.994942, 317, 65, 332, 128
-0.994958, 257, 41, 500, 104
-0.99496, 91, 193, 106, 256
-0.994975, 49, 121, 64, 184
-0.995009, 145, 233, 272, 264
-0.995022, 209, 241, 224, 304
-0.99503, 267, 113, 282, 176
-0.995036, 145, 133, 272, 164
-0.99504, 257, 65, 500, 128
-0.995055, 161, 9, 416, 72
-0.99506, 27, 209, 42, 272
-0.995076, 391, 81, 406, 144
-0.99508, 275, 233, 290, 296
-0.995088, 231, 185, 246, 248
-0.995104, 237, 209, 252, 272
-0.995119, 353, 97, 480, 128
-0.995142, 325, 57, 340, 120
-0.99515, 305, 113, 432, 144
-0.995157, 65, 245, 192, 276
-0.995178, 257, 77, 384, 108
-0.995199, 33, 49, 288, 112
-0.9952, 355, 81, 370, 144
-0.995206, 399, 89, 414, 152
-0.995224, 123, 129, 138, 192
-0.995233, 239, 121, 254, 184
-0.995237, 409, 129, 424, 192
-0.99526, 305, 77, 432, 108
-0.995278, 161, 185, 416, 248
-0.995283, 15, 201, 30, 264
-0.995287, 85, 217, 100, 280
-0.995308, 43, 217, 58, 280
-0.995315, 129, 81, 384, 144
-0.995319, 369, 41, 496, 104
-0.995327, 331, 57, 346, 120
-0.995329, 65, 225, 192, 256
-0.995332, 35, 193, 50, 256
-0.995337, 345, 65, 360, 128
-0.995382, 21, 233, 36, 296
-0.995389, 145, 145, 272, 176
-0.995397, 453, 169, 468, 232
-0.995397, 257, 121, 384, 152
-0.995429, 55, 121, 70, 184
-0.995438, 145, 121, 160, 184
-0.995441, 111, 129, 126, 192
-0.995445, 305, 89, 432, 120
-0.995446, 211, 113, 226, 176
-0.995473, 235, 89, 250, 152
-0.995477, 241, 109, 368, 140
-0.99548, 437, 129, 452, 192
-0.995509, 241, 145, 256, 208
-0.995523, 321, 125, 448, 156
-0.995534, 215, 233, 230, 296
-0.995538, 253, 121, 268, 184
-0.995547, 241, 257, 368, 288
-0.995572, 1, 217, 128, 248
-0.995578, 287, 137, 302, 200
-0.995579, 267, 137, 282, 200
-0.99558, 253, 265, 268, 328
-0.995583, 261, 113, 276, 176
-0.995586, 141, 145, 156, 208
-0.995598, 225, 129, 240, 192
-0.995605, 473, 169, 488, 232
-0.995617, 61, 121, 76, 184
-0.995637, 445, 65, 460, 128
-0.995639, 9, 169, 24, 232
-0.995651, 205, 105, 220, 168
-0.995653, 367, 65, 382, 128
-0.995656, 97, 129, 224, 160
-0.995683, 27, 249, 42, 312
-0.99569, 235, 145, 250, 208
-0.995701, 227, 65, 242, 128
-0.995707, 277, 121, 292, 184
-0.995721, 193, 101, 320, 132
-0.995721, 409, 1, 472, 128
-0.995731, 221, 225, 236, 288
-0.995738, 483, 185, 498, 248
-0.99574, 49, 233, 64, 296
-0.995758, 33, 153, 160, 184
-0.99576, 1, 237, 128, 268
-0.995768, 257, 217, 500, 280
-0.995772, 65, 209, 192, 240
-0.995774, 65, 257, 192, 288
-0.995782, 369, 173, 496, 204
-0.995783, 21, 193, 36, 256
-0.995793, 153, 121, 168, 184
-0.995793, 17, 137, 32, 200
-0.995795, 353, 153, 480, 184
-0.995796, 365, 97, 380, 160
-0.995801, 381, 65, 412, 320
-0.995807, 193, 249, 208, 312
-0.99581, 217, 89, 232, 152
-0.99581, 241, 141, 368, 172
-0.995814, 333, 81, 348, 144
-0.995825, 307, 89, 322, 152
-0.995833, 429, 81, 444, 144
-0.995838, 49, 129, 176, 160
-0.995841, 33, 249, 48, 312
-0.995852, 105, 113, 120, 176
-0.995852, 273, 177, 288, 240
-0.995853, 145, 169, 160, 232
-0.99586, 359, 121, 374, 184
-0.995861, 399, 65, 414, 128
-0.995872, 277, 97, 292, 160
-0.995873, 69, 89, 84, 152
-0.995875, 1, 101, 128, 132
-0.995876, 137, 65, 152, 128
-0.995881, 193, 89, 320, 120
-0.995883, 279, 201, 294, 264
-0.995888, 59, 273, 74, 332
-0.995901, 433, 1, 496, 128
-0.995909, 241, 65, 256, 128
-0.99591, 245, 33, 276, 288
-0.99592, 431, 137, 446, 200
-0.995925, 297, 153, 312, 216
-0.995929, 219, 129, 234, 192
-0.99595, 435, 185, 450, 248
-0.995951, 281, 73, 296, 136
-0.995963, 19, 169, 34, 232
-0.995973, 255, 49, 270, 112
-0.995978, 369, 109, 496, 140
-0.995981, 1, 265, 128, 296
-0.995982, 401, 113, 416, 176
-0.995992, 457, 81, 472, 144
-0.995996, 245, 97, 260, 160
-0.995998, 369, 121, 496, 152
-0.995998, 217, 33, 248, 288
-0.996025, 95, 153, 110, 216
-0.996027, 161, 197, 288, 228
-0.996027, 467, 177, 482, 240
-0.996031, 81, 193, 208, 224
-0.996038, 145, 221, 272, 252
-0.996063, 229, 33, 260, 288
-0.996079, 193, 65, 320, 96
-0.996092, 1, 65, 128, 96
-0.996093, 113, 117, 240, 148
-0.99612, 321, 253, 448, 284
-0.996142, 97, 97, 224, 128
-0.99616, 353, 69, 480, 100
-0.996168, 241, 201, 368, 232
-0.996198, 1, 117, 128, 148
-0.996221, 241, 89, 368, 120
-0.996234, 33, 281, 160, 312
-0.996238, 361, 65, 392, 320
-0.996267, 1, 33, 128, 64
-0.996276, 305, 1, 336, 256
-0.996307, 333, 65, 364, 320
-0.996328, 445, 65, 476, 320
-0.996339, 1, 77, 128, 108
-0.996346, 33, 89, 160, 120
-0.996358, 145, 105, 272, 136
-0.996368, 177, 53, 304, 84
-0.996369, 97, 269, 224, 300
-0.99637, 269, 33, 300, 288
-0.996389, 321, 265, 448, 296
-0.996392, 81, 77, 208, 108
-0.9964, 281, 33, 312, 288
-0.996443, 49, 113, 176, 144
-0.996445, 289, 161, 416, 192
-0.996477, 305, 101, 432, 132
-0.996477, 353, 193, 480, 224
-0.996479, 177, 37, 304, 68
-0.996483, 81, 153, 208, 184
-0.996538, 241, 269, 368, 300
-0.996561, 145, 89, 272, 120
-0.996581, 193, 77, 320, 108
-0.996592, 257, 213, 384, 244
-0.996595, 393, 65, 424, 320
-0.996596, 257, 49, 384, 80
-0.996605, 145, 273, 272, 304
-0.996608, 113, 13, 240, 44
-0.996642, 257, 65, 384, 96
-0.99667, 433, 65, 464, 320
-0.99668, 241, 189, 368, 220
-0.996715, 97, 1, 224, 32
-0.996748, 33, 293, 160, 324
-0.996761, 1, 153, 256, 216
-0.996775, 177, 185, 304, 216
-0.996807, 289, 145, 416, 176
-0.996829, 209, 217, 336, 248
-0.996833, 1, 53, 128, 84
-0.996833, 1, 193, 128, 224
-0.996858, 209, 161, 336, 192
-0.99687, 321, 65, 352, 320
-0.996879, 199, 249, 214, 280
-0.996885, 81, 65, 208, 96
-0.996903, 81, 25, 208, 56
-0.996928, 1, 17, 128, 48
-0.996934, 349, 65, 380, 320
-0.996954, 129, 57, 256, 88
-0.996964, 257, 245, 384, 276
-0.996985, 211, 125, 226, 156
-0.996986, 415, 93, 430, 124
-0.996986, 145, 69, 272, 100
-0.997005, 17, 249, 144, 280
-0.997012, 1, 1, 500, 64
-0.99702, 49, 101, 176, 132
-0.997024, 269, 201, 284, 232
-0.997032, 457, 65, 488, 320
-0.997042, 405, 65, 436, 320
-0.997051, 369, 265, 496, 296
-0.997064, 145, 1, 272, 32
-0.997089, 483, 149, 498, 180
-0.997116, 289, 185, 416, 216
-0.997121, 115, 133, 130, 164
-0.997124, 257, 33, 288, 288
-0.997132, 241, 261, 256, 292
-0.997145, 161, 25, 288, 56
-0.997148, 467, 137, 482, 168
-0.997151, 321, 37, 448, 68
-0.997175, 345, 73, 360, 104
-0.997193, 145, 169, 272, 200
-0.997207, 205, 1, 236, 256
-0.997213, 293, 65, 324, 320
-0.99723, 405, 101, 420, 132
-0.997238, 145, 141, 160, 172
-0.997249, 359, 77, 374, 108
-0.997252, 29, 257, 44, 288
-0.997252, 423, 109, 438, 140
-0.997262, 257, 233, 384, 264
-0.997265, 369, 205, 496, 236
-0.997266, 209, 173, 336, 204
-0.997268, 447, 113, 462, 144
-0.997274, 417, 65, 448, 320
-0.997279, 285, 73, 300, 104
-0.997287, 105, 141, 120, 172
-0.99729, 1, 25, 500, 88
-0.997291, 129, 45, 256, 76
-0.997313, 339, 77, 354, 108
-0.997352, 447, 97, 462, 128
-0.997361, 391, 85, 406, 116
-0.997367, 381, 89, 396, 120
-0.997367, 155, 149, 170, 180
-0.997384, 439, 81, 454, 112
-0.997385, 271, 213, 286, 244
-0.997386, 407, 113, 422, 144
-0.997401, 193, 273, 320, 304
-0.997419, 49, 65, 80, 320
-0.99742, 17, 181, 144, 212
-0.997426, 229, 253, 244, 284
-0.997429, 407, 89, 422, 120
-0.997429, 223, 137, 238, 168
-0.997438, 423, 97, 438, 128
-0.997443, 415, 109, 430, 140
-0.997451, 35, 245, 50, 276
-0.997452, 85, 197, 100, 228
-0.997452, 49, 241, 64, 272
-0.997473, 473, 141, 488, 172
-0.997485, 441, 97, 456, 128
-0.997486, 353, 77, 368, 108
-0.997488, 209, 253, 224, 284
-0.997492, 415, 129, 430, 160
-0.997494, 433, 97, 448, 128
-0.997499, 37, 201, 52, 232
-0.997504, 9, 165, 24, 196
-0.997505, 275, 225, 290, 256
-0.997526, 233, 189, 248, 220
-0.997532, 329, 89, 344, 120
-0.997537, 113, 209, 240, 240
-0.997544, 231, 137, 246, 168
-0.997547, 235, 261, 250, 292
-0.997557, 227, 125, 242, 156
-0.99756, 97, 1, 128, 256
-0.997576, 399, 105, 414, 136
-0.997578, 121, 129, 136, 160
-0.997583, 85, 209, 100, 240
-0.997587, 247, 261, 262, 292
-0.99759, 461, 81, 476, 112
-0.997596, 461, 165, 476, 196
-0.997601, 283, 129, 298, 160
-0.997602, 443, 129, 458, 160
-0.997604, 55, 129, 70, 160
-0.997604, 49, 53, 176, 84
-0.997617, 297, 153, 312, 184
-0.99762, 5, 153, 20, 184
-0.99762, 381, 101, 396, 132
-0.997623, 61, 113, 76, 144
-0.997626, 429, 109, 444, 140
-0.997629, 65, 13, 192, 44
-0.997645, 279, 81, 294, 112
-0.997645, 91, 197, 106, 228
-0.997653, 41, 221, 56, 252
-0.997663, 369, 25, 496, 56
-0.997667, 425, 121, 440, 152
-0.997674, 217, 249, 232, 280
-0.997675, 35, 229, 50, 260
-0.997677, 365, 73, 380, 104
-0.997681, 237, 137, 252, 168
-0.997686, 1, 165, 16, 196
-0.997687, 387, 105, 402, 136
-0.997687, 99, 141, 114, 172
-0.997689, 359, 65, 374, 96
-0.997697, 409, 125, 424, 156
-0.9977, 223, 253, 238, 284
-0.997715, 221, 125, 236, 156
-0.997715, 11, 201, 26, 232
-0.997718, 81, 37, 208, 68
-0.997722, 137, 65, 168, 320
-0.997725, 15, 161, 30, 192
-0.997734, 431, 121, 446, 152
-0.997734, 205, 105, 220, 136
-0.99774, 17, 169, 144, 200
-0.997744, 157, 1, 188, 256
-0.997744, 265, 221, 280, 252
-0.997749, 1, 5, 128, 36
-0.99776, 371, 101, 386, 132
-0.997763, 161, 13, 288, 44
-0.997765, 39, 257, 54, 288
-0.997766, 237, 249, 252, 280
-0.997778, 123, 141, 138, 172
-0.997779, 445, 85, 460, 116
-0.997784, 233, 125, 248, 156
-0.997792, 397, 93, 412, 124
-0.997793, 351, 65, 366, 96
-0.9978, 323, 85, 338, 116
-0.997804, 467, 89, 482, 120
-0.997811, 401, 121, 416, 152
-0.997812, 215, 233, 230, 264
-0.997815, 317, 69, 332, 100
-0.997815, 65, 65, 96, 320
-0.997817, 323, 101, 338, 132
-0.997817, 285, 141, 300, 172
-0.997818, 375, 89, 390, 120
-0.99782, 291, 77, 306, 108
-0.997823, 129, 181, 256, 212
-0.997823, 217, 137, 232, 168
-0.997826, 439, 173, 454, 204
-0.997828, 211, 265, 226, 296
-0.99783, 275, 201, 290, 232
-0.997831, 81, 281, 208, 312
-0.997834, 61, 129, 76, 160
-0.997838, 449, 129, 464, 160
-0.997844, 441, 69, 456, 100
-0.997849, 129, 157, 256, 188
-0.997862, 405, 261, 420, 292
-0.997868, 271, 73, 286, 104
-0.997868, 321, 1, 448, 64
-0.997868, 273, 189, 288, 220
-0.997869, 23, 201, 38, 232
-0.997873, 139, 145, 154, 176
-0.997874, 85, 65, 116, 320
-0.99788, 369, 217, 496, 248
-0.997886, 231, 209, 246, 240
-0.997887, 291, 133, 306, 164
-0.997887, 461, 149, 476, 180
-0.997893, 455, 133, 470, 164
-0.997906, 205, 241, 220, 272
-0.997911, 449, 161, 464, 192
-0.997917, 151, 137, 166, 168
-0.997925, 405, 273, 420, 304
-0.997937, 33, 65, 64, 320
-0.99795, 261, 137, 276, 168
-0.997951, 385, 73, 400, 104
-0.997951, 31, 217, 46, 248
-0.997953, 479, 161, 494, 192
-0.997958, 273, 37, 400, 68
-0.99796, 55, 109, 70, 140
-0.997961, 369, 253, 496, 284
-0.997962, 369, 85, 384, 116
-0.997969, 15, 173, 30, 204
-0.997969, 257, 173, 384, 204
-0.99797, 259, 65, 274, 96
-0.997971, 121, 65, 152, 320
-0.997972, 29, 241, 44, 272
-0.997975, 417, 193, 432, 224
-0.997977, 413, 161, 428, 192
-0.997977, 449, 69, 464, 100
-0.998008, 305, 197, 432, 228
-0.998043, 9, 65, 40, 320
-0.998064, 65, 181, 192, 212
-0.998131, 21, 65, 52, 320
-0.998138, 81, 165, 208, 196
-0.998145, 305, 61, 432, 92
-0.998159, 369, 237, 496, 268
-0.998175, 469, 65, 500, 320
-0.998186, 321, 173, 448, 204
-0.998218, 109, 33, 140, 288
-0.998268, 189, 33, 220, 288
-0.99838, 193, 263, 256, 278
-0.998381, 169, 263, 232, 278
-0.998404, 209, 269, 272, 284
-0.998414, 385, 101, 448, 116
-0.998425, 361, 95, 424, 110
-0.998434, 161, 253, 224, 268
-0.998441, 409, 103, 472, 118
-0.998444, 401, 121, 464, 136
-0.998447, 245, 65, 276, 80
-0.998448, 361, 105, 424, 120
-0.998448, 421, 133, 452, 148
-0.998449, 457, 101, 488, 116
-0.998449, 329, 45, 360, 60
-0.998449, 229, 73, 260, 88
-0.99845, 9, 241, 40, 256
-0.99845, 469, 161, 500, 176
-0.998451, 289, 89, 320, 104
-0.998451, 13, 263, 44, 278
-0.998451, 249, 111, 280, 126
-0.998451, 253, 77, 284, 92
-0.998452, 1, 217, 32, 232
-0.998454, 177, 253, 208, 268
-0.998455, 281, 133, 312, 148
-0.998455, 321, 79, 352, 94
-0.998455, 177, 65, 208, 320
-0.998455, 49, 113, 80, 128
-0.998456, 433, 145, 496, 160
-0.998456, 93, 157, 124, 172
-0.998456, 353, 89, 384, 104
-0.998456, 245, 101, 276, 116
-0.998457, 401, 119, 432, 134
-0.998457, 437, 97, 468, 112
-0.998458, 29, 255, 60, 270
-0.998459, 233, 93, 264, 108
-0.998459, 417, 159, 448, 174
-0.99846, 217, 149, 248, 164
-0.99846, 49, 69, 80, 84
-0.998461, 393, 113, 456, 128
-0.998461, 373, 85, 404, 100
-0.998461, 441, 177, 472, 192
-0.998461, 5, 231, 36, 246
-0.998461, 221, 271, 252, 286
-0.998462, 229, 127, 260, 142
-0.998462, 97, 145, 160, 160
-0.998462, 33, 243, 64, 258
-0.998462, 193, 257, 256, 272
-0.998463, 81, 211, 112, 226
-0.998465, 433, 127, 464, 142
-0.998465, 125, 135, 156, 150
-0.998466, 233, 271, 264, 286
-0.998466, 53, 297, 84, 312
-0.998467, 237, 147, 268, 162
-0.998468, 365, 91, 396, 106
-0.998469, 441, 65, 456, 192
-0.998469, 361, 103, 392, 118
-0.998469, 41, 139, 72, 154
-0.998471, 469, 187, 500, 202
-0.998471, 385, 115, 416, 130
-0.998471, 357, 83, 388, 98
-0.998471, 245, 137, 276, 152
-0.998472, 225, 133, 288, 148
-0.998472, 457, 155, 488, 170
-0.998472, 49, 127, 80, 142
-0.998472, 165, 95, 196, 110
-0.998473, 353, 95, 384, 110
-0.998473, 21, 201, 52, 216
-0.998473, 245, 89, 276, 104
-0.998476, 297, 157, 328, 172
-0.998477, 417, 95, 480, 110
-0.998477, 81, 151, 112, 166
-0.998477, 253, 201, 284, 216
-0.998478, 453, 165, 484, 180
-0.998478, 417, 111, 448, 126
-0.998479, 105, 153, 136, 168
-0.998479, 105, 153, 168, 168
-0.99848, 313, 101, 376, 116
-0.99848, 385, 97, 416, 112
-0.998481, 1, 171, 32, 186
-0.998481, 29, 235, 60, 250
-0.998481, 313, 95, 376, 110
-0.998482, 201, 245, 232, 260
-0.998483, 5, 177, 36, 192
-0.998483, 469, 97, 500, 112
-0.998484, 21, 269, 52, 284
-0.998484, 57, 139, 88, 154
-0.998484, 269, 197, 300, 212
-0.998488, 41, 253, 104, 268
-0.998489, 121, 141, 152, 156
-0.998489, 285, 159, 316, 174
-0.99849, 305, 77, 368, 92
-0.99849, 369, 117, 432, 132
-0.99849, 385, 95, 448, 110
-0.998491, 249, 133, 312, 148
-0.998491, 453, 137, 484, 152
-0.998492, 397, 97, 428, 112
-0.998493, 201, 143, 264, 158
-0.998493, 341, 89, 372, 104
-0.998494, 469, 129, 484, 256
-0.998495, 221, 133, 252, 148
-0.998496, 269, 93, 300, 108
-0.998496, 261, 123, 292, 138
-0.998497, 249, 127, 312, 142
-0.998497, 349, 69, 380, 84
-0.998498, 265, 69, 296, 84
-0.998499, 417, 137, 480, 152
-0.9985, 201, 127, 264, 142
-0.998501, 353, 111, 384, 126
-0.998501, 169, 269, 232, 284
-0.998502, 225, 139, 288, 154
-0.998502, 213, 257, 244, 272
-0.998503, 397, 125, 428, 140
-0.998504, 281, 87, 344, 102
-0.998506, 329, 73, 360, 88
-0.998507, 281, 95, 344, 110
-0.998507, 93, 151, 124, 166
-0.998508, 137, 159, 200, 174
-0.998508, 201, 135, 264, 150
-0.998508, 161, 243, 224, 258
-0.998509, 361, 89, 424, 104
-0.998509, 233, 203, 296, 218
-0.99851, 225, 263, 288, 278
-0.998511, 217, 247, 248, 262
-0.998512, 373, 97, 404, 112
-0.998512, 185, 249, 248, 264
-0.998512, 17, 133, 80, 148
-0.998512, 241, 93, 304, 108
-0.998513, 249, 71, 280, 86
-0.998513, 329, 83, 392, 98
-0.998514, 385, 127, 448, 142
-0.998515, 265, 129, 296, 144
-0.998515, 197, 257, 228, 272
-0.998516, 337, 97, 400, 112
-0.998516, 265, 207, 296, 222
-0.998517, 109, 147, 140, 162
-0.998518, 265, 199, 328, 214
-0.998518, 273, 75, 304, 90
-0.99852, 445, 103, 476, 118
-0.99852, 245, 131, 276, 146
-0.998521, 233, 225, 296, 240
-0.998521, 321, 89, 384, 104
-0.998521, 413, 105, 444, 120
-0.998523, 233, 269, 296, 284
-0.998523, 33, 245, 96, 260
-0.998523, 121, 91, 184, 106
-0.998524, 289, 49, 352, 64
-0.998524, 249, 77, 312, 92
-0.998525, 1, 227, 64, 242
-0.998525, 97, 145, 128, 160
-0.998526, 193, 1, 256, 16
-0.998526, 49, 133, 80, 148
-0.998527, 385, 87, 448, 102
-0.998528, 385, 83, 416, 98
-0.998528, 37, 263, 68, 278
-0.998528, 9, 249, 72, 264
-0.998529, 73, 237, 136, 252
-0.998529, 333, 81, 364, 96
-0.998529, 1, 221, 64, 236
-0.998529, 337, 111, 400, 126
-0.99853, 9, 263, 72, 278
-0.99853, 217, 103, 280, 118
-0.998531, 1, 257, 64, 272
-0.998531, 41, 259, 104, 274
-0.998531, 425, 87, 488, 102
-0.998531, 281, 101, 344, 116
-0.998532, 209, 127, 240, 142
-0.998532, 289, 67, 352, 82
-0.998532, 385, 107, 448, 122
-0.998533, 257, 213, 320, 228
-0.998536, 209, 233, 272, 248
-0.998536, 1, 161, 32, 176
-0.998537, 409, 129, 440, 144
-0.998537, 257, 87, 320, 102
-0.998537, 41, 225, 104, 240
-0.998538, 433, 161, 496, 176
-0.998538, 41, 231, 104, 246
-0.99854, 225, 195, 288, 210
-0.99854, 429, 89, 460, 104
-0.99854, 393, 105, 424, 120
-0.998542, 353, 267, 416, 282
-0.998542, 57, 137, 120, 152
-0.998543, 393, 91, 424, 106
-0.998543, 425, 97, 456, 112
-0.998543, 137, 145, 168, 160
-0.998544, 33, 211, 96, 226
-0.998545, 433, 103, 496, 118
-0.998545, 341, 75, 372, 90
-0.998545, 137, 153, 200, 168
-0.998546, 225, 119, 288, 134
-0.998547, 233, 209, 296, 224
-0.998548, 281, 79, 344, 94
-0.998549, 217, 217, 280, 232
-0.998549, 469, 149, 500, 164
-0.998549, 409, 127, 472, 142
-0.99855, 345, 81, 376, 96
-0.998551, 41, 239, 104, 254
-0.998551, 393, 133, 456, 148
-0.998552, 241, 99, 304, 114
-0.998552, 125, 147, 156, 162
-0.998552, 233, 239, 296, 254
-0.998553, 217, 265, 248, 280
-0.998553, 225, 125, 288, 140
-0.998554, 217, 93, 280, 108
-0.998554, 425, 117, 488, 132
-0.998555, 1, 213, 64, 228
-0.998556, 445, 131, 476, 146
-0.998557, 105, 139, 168, 154
-0.998561, 425, 155, 488, 170
-0.998562, 113, 159, 176, 174
-0.998563, 353, 39, 416, 54
-0.998563, 337, 103, 400, 118
-0.998563, 409, 161, 472, 176
-0.998564, 393, 267, 456, 282
-0.998564, 431, 81, 446, 208
-0.998564, 73, 221, 136, 236
-0.998565, 241, 111, 304, 126
-0.998565, 209, 247, 272, 262
-0.998565, 405, 113, 436, 128
-0.998565, 41, 265, 104, 280
-0.998565, 57, 131, 120, 146
-0.998565, 129, 147, 192, 162
-0.998566, 313, 61, 376, 76
-0.998566, 369, 153, 432, 168
-0.998566, 225, 81, 288, 96
-0.998567, 417, 29, 480, 44
-0.998568, 17, 125, 80, 140
-0.998568, 273, 127, 336, 142
-0.998569, 145, 165, 208, 180
-0.998569, 1, 207, 64, 222
-0.99857, 129, 141, 192, 156
-0.998571, 329, 43, 392, 58
-0.998572, 433, 181, 496, 196
-0.998572, 225, 71, 288, 86
-0.998572, 73, 227, 136, 242
-0.998572, 177, 135, 240, 150
-0.998573, 377, 197, 440, 212
-0.998573, 141, 155, 172, 170
-0.998575, 201, 121, 264, 136
-0.998575, 433, 133, 464, 148
-0.998576, 105, 133, 168, 148
-0.998576, 73, 143, 136, 158
-0.998576, 73, 245, 136, 260
-0.998578, 241, 57, 304, 72
-0.998578, 401, 201, 464, 216
-0.998579, 461, 143, 492, 158
-0.99858, 121, 97, 184, 112
-0.99858, 345, 119, 408, 134
-0.998581, 17, 67, 80, 82
-0.998582, 249, 261, 312, 276
-0.998582, 217, 61, 280, 76
-0.998584, 441, 77, 472, 92
-0.998584, 213, 143, 244, 158
-0.998589, 105, 139, 136, 154
-0.998593, 209, 137, 240, 152
-0.998597, 413, 121, 444, 136
-0.998598, 85, 209, 100, 332
-0.998599, 229, 141, 260, 156
-0.9986, 197, 263, 228, 278
-0.998601, 429, 103, 460, 118
-0.998601, 445, 85, 476, 100
-0.998603, 265, 213, 296, 228
-0.998608, 421, 127, 452, 142
-0.998619, 433, 111, 464, 126
-0.998625, 197, 251, 228, 266
-0.998631, 409, 95, 440, 110
-0.998653, 323, 81, 338, 208
-0.998656, 237, 265, 268, 280
-0.998663, 447, 97, 462, 224
-0.998694, 461, 65, 476, 192
-0.998711, 483, 129, 498, 256
-0.998723, 241, 1, 368, 64
-0.99874, 421, 97, 436, 224
-0.998745, 409, 81, 424, 208
-0.998762, 329, 97, 344, 224
-0.998765, 459, 129, 474, 256
-0.998785, 391, 65, 406, 192
-0.998792, 453, 97, 468, 224
-0.998804, 275, 193, 290, 320
-0.998809, 117, 129, 132, 256
-0.998811, 477, 129, 492, 256
-0.998814, 431, 129, 446, 256
-0.998821, 337, 81, 352, 208
-0.998822, 469, 81, 484, 208
-0.998827, 257, 49, 272, 176
-0.998846, 415, 81, 430, 208
-0.998862, 311, 49, 326, 176
-0.998873, 437, 113, 452, 240
-0.998894, 403, 97, 418, 224
-0.99892, 383, 81, 398, 208
-0.998924, 251, 97, 266, 224
-0.998924, 91, 193, 106, 320
-0.998927, 231, 129, 246, 256
-0.998928, 361, 65, 376, 192
-0.99893, 209, 81, 224, 208
-0.998935, 279, 129, 294, 256
-0.99894, 97, 145, 112, 272
-0.998952, 103, 145, 118, 272
-0.998952, 345, 81, 360, 208
-0.998954, 239, 129, 254, 256
-0.998955, 263, 97, 278, 224
-0.998955, 217, 65, 232, 192
-0.998956, 145, 145, 160, 272
-0.998998, 413, 145, 428, 272
-0.999, 377, 65, 392, 192
-0.999001, 225, 65, 240, 192
-0.999009, 273, 129, 288, 256
-0.99902, 421, 145, 436, 272
-0.999025, 323, 129, 338, 256
-0.999027, 317, 65, 332, 192
-0.999038, 101, 209, 116, 332
-0.999039, 245, 65, 260, 192
-0.999043, 397, 113, 412, 240
-0.999063, 139, 145, 154, 272
-0.999065, 257, 97, 272, 224
-0.999069, 9, 145, 24, 272
-0.99907, 397, 65, 412, 192
-0.999076, 123, 129, 138, 256
-0.999076, 355, 49, 370, 176
-0.999078, 199, 97, 214, 224
-0.999078, 329, 49, 344, 176
-0.999087, 153, 129, 168, 256
-0.999089, 269, 209, 284, 332
-0.999105, 91, 145, 106, 272
-0.999105, 367, 33, 382, 160
-0.999105, 111, 145, 126, 272
-0.999106, 231, 177, 246, 304
-0.999108, 217, 129, 232, 256
-0.999109, 239, 65, 254, 192
-0.999111, 31, 177, 46, 304
-0.999113, 283, 81, 298, 208
-0.999118, 263, 145, 278, 272
-0.99912, 113, 81, 128, 208
-0.999124, 367, 81, 382, 208
-0.999125, 39, 209, 54, 332
-0.999128, 305, 81, 320, 208
-0.999129, 251, 49, 266, 176
-0.999131, 263, 49, 278, 176
-0.999133, 233, 81, 248, 208
-0.999138, 43, 145, 58, 272
-0.999139, 165, 97, 180, 224
-0.999141, 237, 177, 252, 304
-0.999147, 129, 81, 144, 208
-0.999148, 475, 81, 490, 208
-0.999154, 257, 145, 272, 272
-0.99916, 377, 113, 392, 240
-0.999167, 299, 81, 314, 208
-0.999167, 145, 97, 160, 224
-0.999167, 245, 129, 260, 256
-0.999171, 271, 49, 286, 176
-0.999171, 53, 65, 68, 192
-0.999171, 23, 145, 38, 272
-0.999173, 79, 209, 94, 332
-0.999177, 449, 161, 464, 288
-0.999184, 201, 1, 216, 128
-0.999186, 293, 81, 308, 208
-0.999189, 381, 17, 396, 144
-0.999193, 113, 193, 128, 320
-0.999194, 349, 33, 364, 160
-0.999194, 63, 65, 78, 192
-0.9992, 15, 209, 30, 332
-0.999204, 383, 129, 398, 256
-0.999208, 69, 81, 84, 208
-0.99921, 339, 33, 354, 160
-0.999211, 429, 33, 444, 160
-0.999215, 47, 81, 62, 208
-0.999218, 1, 145, 16, 272
-0.999223, 107, 209, 122, 332
-0.999224, 225, 129, 240, 256
-0.999233, 281, 193, 296, 320
-0.999235, 49, 209, 64, 332
-0.999239, 155, 81, 170, 208
-0.999241, 439, 161, 454, 288
-0.999257, 37, 145, 52, 272
-0.999259, 315, 129, 330, 256
-0.999261, 427, 177, 442, 304
-0.999269, 133, 145, 148, 272
-0.999271, 279, 33, 294, 160
-0.999271, 139, 97, 154, 224
-0.999276, 167, 177, 182, 304
-0.999277, 421, 193, 436, 320
-0.999278, 447, 49, 462, 176
-0.99929, 407, 145, 422, 272
-0.999292, 103, 97, 118, 224
-0.999295, 211, 129, 226, 256
-0.999295, 473, 177, 488, 304
-0.999301, 479, 177, 494, 304
-0.999302, 9, 193, 24, 320
-0.999303, 351, 97, 366, 224
-0.999306, 323, 33, 338, 160
-0.999311, 147, 193, 162, 320
-0.999313, 403, 193, 418, 320
-0.999314, 285, 129, 300, 256
-0.999318, 251, 145, 266, 272
-0.999325, 257, 17, 500, 80
-0.999655, 289, 79, 304, 94
-0.999655, 113, 133, 128, 148
-0.999656, 323, 65, 338, 80
-0.999656, 219, 247, 234, 262
-0.999656, 477, 145, 492, 160
-0.999656, 223, 131, 238, 146
-0.999657, 141, 153, 156, 168
-0.999658, 39, 229, 54, 244
-0.999658, 225, 251, 240, 266
-0.999658, 409, 127, 424, 142
-0.999659, 131, 145, 146, 160
-0.999659, 407, 103, 422, 118
-0.99966, 15, 165, 30, 180
-0.99966, 351, 83, 366, 98
-0.999661, 427, 115, 442, 130
-0.999661, 453, 105, 468, 120
-0.999662, 437, 71, 452, 86
-0.999662, 85, 199, 100, 214
-0.999662, 237, 247, 252, 262
-0.999662, 325, 91, 340, 106
-0.999663, 205, 261, 220, 276
-0.999663, 265, 71, 280, 86
-0.999664, 9, 173, 24, 188
-0.999664, 377, 97, 392, 112
-0.999665, 399, 85, 414, 100
-0.999665, 203, 245, 218, 260
-0.999665, 155, 161, 170, 176
-0.999665, 215, 125, 230, 140
-0.999666, 319, 85, 334, 100
-0.999667, 459, 153, 474, 168
-0.999667, 421, 113, 436, 128
-0.999668, 235, 191, 250, 206
-0.999668, 279, 209, 294, 224
-0.999671, 403, 97, 418, 112
-0.999672, 103, 139, 118, 154
-0.999672, 417, 131, 432, 146
-0.999673, 31, 231, 46, 246
-0.999673, 367, 93, 382, 108
-0.999673, 61, 133, 76, 148
-0.999674, 251, 79, 266, 94
-0.999674, 331, 89, 346, 104
-0.999675, 279, 91, 294, 106
-0.999676, 55, 129, 70, 144
-0.999676, 461, 79, 476, 94
-0.999678, 433, 123, 448, 138
-0.999679, 99, 153, 114, 168
-0.999679, 275, 227, 290, 242
-0.999679, 111, 145, 126, 160
-0.99968, 417, 107, 432, 122
-0.99968, 415, 115, 430, 130
-0.999681, 147, 147, 162, 162
-0.999681, 9, 179, 24, 194
-0.999682, 233, 197, 248, 212
-0.999682, 381, 89, 396, 104
-0.999683, 285, 73, 300, 88
-0.999683, 397, 79, 412, 94
-0.999684, 449, 81, 464, 96
-0.999685, 91, 199, 106, 214
-0.999685, 259, 129, 274, 144
-0.999685, 227, 245, 242, 260
-0.999685, 333, 101, 348, 116
-0.999685, 425, 105, 440, 120
-0.999685, 357, 81, 372, 96
-0.999686, 29, 267, 44, 282
-0.999687, 447, 109, 462, 124
-0.999687, 85, 205, 100, 220
-0.999688, 297, 159, 312, 174
-0.999689, 145, 141, 160, 156
-0.999689, 467, 149, 482, 164
-0.99969, 441, 91, 456, 106
-0.99969, 431, 103, 446, 118
-0.99969, 439, 81, 454, 96
-0.99969, 323, 97, 338, 112
-0.999691, 389, 99, 404, 114
-0.999691, 273, 221, 288, 236
-0.999691, 199, 259, 214, 274
-0.999692, 97, 147, 112, 162
-0.999693, 415, 121, 430, 136
-0.999694, 209, 125, 224, 140
-0.999695, 3, 161, 18, 176
-0.999695, 119, 137, 134, 152
-0.999696, 453, 133, 468, 148
-0.999697, 267, 213, 282, 228
-0.999697, 363, 81, 378, 96
-0.999697, 233, 203, 248, 218
-0.999698, 217, 257, 232, 272
-0.999702, 397, 93, 412, 108
-0.999703, 105, 151, 120, 166
-0.999706, 425, 127, 440, 142
-0.999706, 407, 121, 422, 136
-0.999707, 485, 151, 500, 166
-0.999709, 103, 145, 118, 160
-0.999714, 377, 105, 392, 120
-0.999714, 431, 97, 446, 112
-0.999715, 409, 115, 424, 130
-0.999716, 273, 207, 288, 222
-0.999717, 15, 179, 30, 194
-0.999717, 391, 79, 406, 94
-0.999718, 485, 161, 500, 176
-0.999719, 141, 147, 156, 162
-0.99972, 147, 153, 162, 168
-0.999721, 471, 143, 486, 158
-0.999721, 347, 75, 362, 90
-0.999722, 409, 91, 424, 106
-0.999723, 415, 97, 430, 112
-0.999724, 223, 137, 238, 152
-0.999726, 367, 99, 382, 114
-0.999726, 339, 83, 354, 98
-0.999727, 455, 77, 470, 92
-0.999727, 423, 97, 438, 112
-0.999728, 273, 197, 288, 212
-0.999729, 461, 85, 476, 100
-0.999729, 245, 265, 260, 280
-0.99973, 389, 85, 404, 100
-0.999731, 275, 233, 290, 248
-0.999732, 237, 141, 252, 156
-0.999732, 361, 73, 376, 88
-0.999736, 211, 265, 226, 280
-0.999738, 231, 139, 246, 154
-0.999739, 447, 103, 462, 118
-0.999739, 443, 131, 458, 146
-0.999739, 437, 97, 452, 112
-0.999741, 421, 121, 436, 136
-0.999743, 443, 73, 458, 88
-0.999749, 199, 253, 214, 268
-0.99975, 109, 139, 124, 154
-0.999752, 409, 97, 424, 112
-0.999755, 237, 265, 252, 280
-0.99976, 437, 103, 452, 118
-0.999768, 465, 139, 480, 154
