1889
-0.567393, 1, 65, 500, 320
-0.687069, 193, 1, 448, 333
-0.694078, 1, 1, 500, 333
-0.765451, 65, 1, 320, 333
-0.804545, 193, 65, 448, 320
-0.848886, 97, 65, 352, 320
-0.893081, 1, 65, 256, 320
-0.897945, 1, 129, 500, 256
-0.905228, 177, 65, 304, 320
-0.917693, 1, 177, 500, 304
-0.919229, 225, 65, 352, 320
-0.919542, 273, 65, 400, 320
-0.923336, 129, 65, 256, 320
-0.928036, 129, 145, 384, 272
-0.928474, 241, 1, 368, 333
-0.9318, 97, 1, 224, 333
-0.93267, 145, 1, 272, 333
-0.934264, 225, 145, 480, 272
-0.93521, 145, 129, 272, 256
-0.935855, 321, 65, 448, 320
-0.936918, 81, 65, 208, 320
-0.938911, 17, 65, 144, 320
-0.939582, 17, 1, 144, 333
-0.94157, 225, 145, 352, 272
-0.945477, 1, 161, 256, 288
-0.945544, 193, 1, 320, 333
-0.946596, 305, 1, 432, 333
-0.947108, 369, 65, 496, 320
-0.948752, 305, 145, 432, 272
-0.949929, 289, 145, 352, 272
-0.95009, 321, 145, 384, 272
-0.954877, 97, 161, 224, 288
-0.955579, 201, 129, 264, 256
-0.955605, 265, 145, 328, 272
-0.956624, 193, 193, 448, 320
-0.957734, 153, 145, 216, 272
-0.957874, 161, 97, 416, 224
-0.958515, 33, 113, 288, 240
-0.9586, 241, 145, 304, 272
-0.958858, 1, 81, 500, 208
-0.959445, 201, 129, 264, 192
-0.961528, 369, 1, 496, 333
-0.962918, 121, 161, 184, 288
-0.963976, 225, 193, 352, 320
-0.964145, 377, 145, 440, 272
-0.965053, 361, 153, 424, 216
-0.965529, 249, 145, 312, 208
-0.965579, 289, 153, 352, 216
-0.965888, 153, 153, 216, 216
-0.966078, 273, 193, 400, 320
-0.966272, 353, 145, 416, 272
-0.967638, 65, 209, 320, 333
-0.968074, 321, 153, 384, 216
-0.968628, 353, 145, 480, 272
-0.969944, 225, 145, 288, 208
-0.970299, 281, 185, 344, 248
-0.970336, 49, 177, 176, 304
-0.97042, 161, 145, 288, 208
-0.970518, 289, 193, 352, 320
-0.97063, 121, 169, 184, 232
-0.970877, 249, 177, 312, 240
-0.971227, 257, 97, 500, 224
-0.972284, 177, 129, 240, 256
-0.973474, 33, 113, 160, 240
-0.97376, 97, 177, 160, 304
-0.974471, 193, 97, 320, 224
-0.975104, 129, 97, 192, 224
-0.975223, 153, 97, 216, 224
-0.975778, 253, 145, 284, 208
-0.975846, 97, 113, 224, 240
-0.975991, 289, 153, 416, 216
-0.976378, 177, 145, 240, 208
-0.976572, 241, 153, 368, 216
-0.976842, 401, 177, 464, 304
-0.977397, 225, 177, 352, 240
-0.977419, 153, 129, 216, 192
-0.977467, 281, 153, 312, 216
-0.977568, 289, 129, 352, 192
-0.977574, 249, 201, 312, 264
-0.977737, 305, 97, 432, 224
-0.977755, 369, 193, 496, 320
-0.977847, 161, 177, 288, 304
-0.977964, 329, 145, 360, 272
-0.977998, 377, 233, 440, 296
-0.978121, 241, 97, 368, 224
-0.9783, 225, 193, 288, 320
-0.978306, 225, 201, 352, 264
-0.97835, 321, 177, 384, 240
-0.978412, 321, 209, 448, 333
-0.978428, 273, 145, 304, 272
-0.978481, 217, 113, 248, 176
-0.978598, 161, 121, 288, 184
-0.978786, 401, 145, 464, 208
-0.978869, 249, 97, 312, 224
-0.979045, 1, 161, 128, 288
-0.979104, 1, 209, 128, 333
-0.9792, 305, 153, 336, 216
-0.97935, 321, 193, 384, 320
-0.979688, 145, 81, 272, 208
-0.979697, 249, 121, 312, 184
-0.979849, 377, 177, 440, 240
-0.979879, 309, 161, 340, 288
-0.979899, 225, 193, 288, 256
-0.980054, 105, 113, 168, 240
-0.980099, 297, 145, 328, 272
-0.980123, 329, 153, 360, 216
-0.98075, 225, 129, 352, 192
-0.980834, 265, 145, 296, 208
-0.981051, 305, 177, 432, 240
-0.981232, 245, 145, 276, 272
-0.981274, 393, 153, 424, 216
-0.981277, 313, 129, 376, 192
-0.981374, 281, 209, 344, 272
-0.981503, 401, 129, 464, 256
-0.981521, 257, 193, 320, 320
-0.981561, 121, 145, 184, 208
-0.981709, 357, 153, 388, 216
-0.981787, 73, 193, 136, 320
-0.982253, 209, 105, 272, 168
-0.982427, 353, 153, 480, 216
-0.982712, 345, 225, 408, 288
-0.982875, 177, 113, 240, 176
-0.982954, 381, 153, 412, 216
-0.983088, 353, 129, 416, 192
-0.983179, 241, 145, 272, 208
-0.983204, 145, 177, 208, 240
-0.983231, 1, 65, 256, 192
-0.983322, 89, 177, 152, 240
-0.983327, 81, 113, 144, 240
-0.983441, 433, 193, 496, 320
-0.983657, 341, 153, 372, 216
-0.983775, 201, 81, 264, 208
-0.983813, 357, 145, 388, 272
-0.983839, 177, 145, 208, 208
-0.983951, 161, 161, 192, 224
-0.984018, 369, 161, 400, 224
-0.984026, 401, 225, 464, 288
-0.984036, 353, 97, 416, 224
-0.984048, 293, 153, 324, 216
-0.984162, 273, 129, 400, 192
-0.984218, 113, 193, 176, 256
-0.984225, 385, 145, 416, 272
-0.984237, 81, 153, 208, 216
-0.984426, 141, 169, 172, 232
-0.984531, 161, 145, 192, 272
-0.984564, 317, 153, 348, 216
-0.984576, 409, 169, 472, 232
-0.984654, 425, 217, 488, 280
-0.984726, 401, 161, 432, 288
-0.984932, 289, 97, 352, 224
-0.984967, 129, 161, 160, 288
-0.985125, 353, 193, 416, 320
-0.985219, 225, 169, 288, 232
-0.985226, 201, 209, 264, 333
-0.985438, 113, 177, 240, 240
-0.985462, 129, 169, 160, 232
-0.985466, 389, 233, 420, 296
-0.985495, 353, 225, 480, 288
-0.985525, 345, 161, 376, 288
-0.985558, 33, 169, 160, 232
-0.985625, 285, 129, 316, 256
-0.985864, 249, 169, 280, 232
-0.98587, 305, 209, 432, 272
-0.985925, 185, 145, 216, 272
-0.985933, 329, 201, 392, 264
-0.985976, 197, 137, 228, 200
-0.986014, 201, 65, 264, 320
-0.986021, 81, 201, 144, 264
-0.986065, 229, 129, 260, 192
-0.986079, 353, 185, 416, 248
-0.986278, 245, 121, 276, 184
-0.986283, 217, 113, 248, 240
-0.986463, 173, 145, 204, 272
-0.986485, 81, 129, 208, 192
-0.986537, 373, 145, 404, 272
-0.986565, 321, 225, 384, 288
-0.986587, 293, 177, 324, 240
-0.986638, 229, 129, 260, 256
-0.986861, 321, 97, 384, 224
-0.986996, 225, 81, 288, 208
-0.987, 305, 233, 432, 296
-0.987029, 401, 233, 432, 296
-0.987055, 309, 177, 340, 240
-0.987168, 57, 177, 120, 240
-0.987198, 65, 193, 192, 256
-0.987233, 281, 129, 312, 192
-0.987257, 269, 121, 300, 184
-0.987294, 377, 201, 440, 264
-0.987357, 293, 129, 324, 192
-0.987613, 269, 177, 300, 240
-0.987754, 33, 145, 96, 272
-0.98782, 25, 209, 88, 333
-0.987929, 377, 209, 440, 333
-0.987974, 161, 177, 288, 240
-0.98816, 353, 249, 416, 312
-0.988182, 309, 129, 340, 192
-0.988228, 177, 81, 240, 208
-0.988258, 261, 161, 292, 288
-0.988484, 197, 129, 228, 256
-0.988534, 141, 161, 172, 288
-0.988578, 397, 113, 428, 240
-0.988584, 241, 65, 304, 320
-0.988645, 353, 177, 480, 240
-0.988821, 1, 177, 64, 304
-0.988867, 201, 133, 264, 164
-0.989056, 377, 97, 440, 224
-0.989068, 321, 129, 448, 192
-0.989085, 25, 217, 88, 280
-0.989092, 281, 177, 312, 240
-0.989198, 309, 113, 340, 240
-0.98931, 433, 169, 496, 232
-0.989403, 9, 153, 72, 216
-0.989424, 369, 249, 496, 312
-0.989424, 33, 177, 96, 240
-0.989449, 321, 153, 384, 184
-0.989498, 369, 97, 496, 224
-0.989636, 281, 65, 344, 320
-0.989654, 281, 165, 344, 196
-0.989762, 289, 153, 352, 184
-0.989803, 305, 257, 432, 320
-0.989809, 405, 161, 436, 224
-0.989938, 129, 173, 192, 204
-0.989962, 377, 65, 440, 320
-0.989989, 329, 177, 360, 240
-0.99001, 177, 201, 304, 264
-0.990056, 33, 145, 160, 208
-0.990056, 369, 161, 432, 192
-0.990084, 249, 153, 312, 184
-0.990163, 225, 217, 288, 280
-0.990206, 321, 249, 384, 312
-0.990243, 137, 113, 168, 240
-0.990251, 345, 113, 376, 240
-0.990279, 137, 145, 168, 208
-0.990287, 161, 153, 224, 184
-0.990325, 281, 201, 344, 232
-0.990346, 329, 65, 392, 320
-0.990357, 129, 153, 384, 216
-0.990371, 329, 165, 392, 196
-0.990375, 329, 129, 360, 192
-0.990385, 81, 153, 144, 216
-0.990471, 17, 201, 144, 264
-0.990472, 205, 113, 236, 176
-0.990479, 249, 165, 312, 196
-0.990577, 169, 97, 200, 224
-0.990628, 257, 225, 384, 288
-0.990656, 149, 113, 180, 240
-0.990688, 285, 177, 316, 304
-0.990709, 201, 145, 264, 176
-0.990734, 249, 181, 312, 212
-0.990739, 185, 97, 216, 224
-0.990795, 369, 173, 432, 204
-0.990836, 201, 121, 264, 152
-0.990836, 49, 193, 112, 320
-0.990997, 153, 65, 216, 320
-0.991003, 409, 165, 472, 196
-0.991005, 409, 153, 472, 184
-0.991021, 113, 177, 144, 304
-0.991085, 413, 225, 444, 288
-0.991104, 161, 129, 192, 192
-0.991151, 225, 149, 288, 180
-0.991164, 185, 121, 216, 184
-0.991169, 1, 17, 500, 144
-0.991192, 305, 165, 368, 196
-0.991242, 417, 193, 480, 256
-0.991276, 241, 205, 304, 236
-0.991308, 129, 161, 192, 192
-0.99131, 113, 105, 240, 168
-0.991317, 353, 65, 416, 320
-0.991324, 57, 145, 120, 272
-0.991358, 241, 133, 304, 164
-0.991359, 249, 225, 312, 288
-0.991363, 201, 201, 264, 264
-0.991375, 365, 129, 396, 192
-0.991386, 129, 121, 192, 184
-0.991399, 113, 189, 176, 220
-0.991401, 117, 177, 148, 240
-0.991426, 361, 149, 424, 180
-0.991434, 273, 209, 304, 272
-0.991459, 281, 233, 344, 296
-0.991495, 153, 169, 216, 200
-0.991514, 341, 129, 372, 192
-0.991515, 225, 145, 480, 208
-0.991542, 377, 237, 440, 268
-0.991666, 309, 201, 340, 264
-0.991725, 393, 129, 424, 192
-0.991741, 1, 241, 128, 304
-0.991764, 233, 193, 296, 224
-0.991774, 97, 65, 224, 192
-0.991802, 389, 209, 420, 272
-0.991817, 377, 225, 440, 256
-0.99184, 169, 129, 232, 160
-0.991857, 289, 213, 352, 244
-0.991865, 325, 193, 356, 320
-0.991898, 105, 177, 168, 208
-0.991906, 377, 225, 408, 288
-0.991926, 225, 105, 352, 168
-0.991961, 177, 141, 240, 172
-0.991987, 353, 233, 416, 264
-0.991996, 313, 141, 376, 172
-0.992031, 1, 225, 64, 288
-0.992052, 297, 177, 360, 208
-0.99207, 89, 193, 152, 224
-0.992084, 97, 177, 352, 240
-0.992131, 377, 249, 440, 280
-0.992143, 217, 121, 248, 152
-0.992249, 321, 177, 384, 208
-0.992275, 117, 113, 148, 240
-0.992281, 353, 137, 416, 168
-0.992287, 433, 241, 496, 304
-0.992299, 393, 177, 456, 208
-0.992302, 249, 149, 280, 180
-0.992313, 289, 141, 352, 172
-0.992318, 353, 249, 416, 280
-0.992321, 269, 149, 300, 180
-0.99235, 1, 129, 64, 256
-0.992351, 417, 217, 480, 248
-0.992352, 273, 181, 336, 212
-0.992367, 265, 97, 296, 224
-0.992417, 177, 65, 240, 320
-0.992431, 281, 165, 312, 196
-0.992472, 129, 177, 160, 208
-0.99248, 225, 161, 288, 192
-0.992486, 353, 153, 384, 184
-0.992495, 237, 177, 268, 240
-0.992504, 329, 153, 360, 184
-0.992511, 129, 129, 384, 192
-0.992522, 329, 217, 392, 248
-0.992542, 385, 153, 416, 184
-0.99256, 249, 217, 312, 248
-0.992572, 309, 153, 340, 184
-0.992579, 265, 141, 328, 172
-0.99258, 293, 153, 324, 184
-0.992581, 341, 161, 372, 192
-0.99259, 161, 209, 224, 333
-0.992606, 129, 65, 192, 320
-0.992608, 145, 165, 176, 196
-0.99263, 65, 201, 128, 232
-0.992634, 385, 145, 448, 176
-0.992668, 261, 161, 292, 192
-0.992677, 217, 205, 280, 236
-0.992691, 393, 177, 424, 240
-0.992708, 257, 193, 320, 224
-0.992715, 225, 181, 288, 212
-0.992723, 33, 121, 96, 184
-0.992723, 397, 161, 428, 192
-0.992731, 161, 169, 192, 200
-0.992742, 281, 153, 312, 184
-0.99275, 1, 157, 64, 188
-0.992751, 413, 137, 444, 200
-0.992778, 305, 65, 368, 320
-0.992786, 321, 229, 384, 260
-0.992788, 425, 237, 488, 268
-0.992798, 369, 185, 432, 216
-0.992807, 177, 149, 208, 180
-0.992816, 365, 153, 396, 184
-0.992823, 137, 185, 200, 216
-0.992826, 81, 181, 144, 212
-0.992837, 161, 157, 192, 188
-0.992841, 249, 169, 280, 200
-0.992851, 225, 121, 288, 152
-0.992855, 329, 169, 360, 200
-0.992866, 141, 177, 172, 208
-0.992869, 97, 209, 224, 333
-0.992878, 177, 117, 240, 148
-0.99289, 145, 225, 272, 288
-0.992896, 433, 169, 496, 200
-0.992931, 417, 129, 448, 256
-0.992933, 233, 137, 264, 168
-0.992938, 345, 177, 408, 208
-0.992939, 305, 165, 336, 196
-0.992951, 413, 177, 444, 304
-0.992952, 353, 129, 384, 192
-0.992985, 189, 149, 220, 180
-0.992991, 269, 177, 300, 208
-0.993, 357, 165, 388, 196
-0.993009, 273, 205, 304, 236
-0.993021, 289, 177, 320, 208
-0.993022, 369, 165, 400, 196
-0.993032, 289, 197, 320, 228
-0.993033, 401, 229, 464, 260
-0.993035, 377, 213, 440, 244
-0.993043, 317, 165, 348, 196
-0.993044, 33, 121, 160, 184
-0.993056, 385, 237, 416, 268
-0.99307, 289, 225, 352, 256
-0.993086, 425, 253, 488, 284
-0.99309, 201, 141, 232, 172
-0.993114, 409, 161, 440, 192
-0.993121, 401, 245, 464, 276
-0.993122, 201, 193, 264, 224
-0.993128, 233, 177, 264, 304
-0.99313, 33, 149, 96, 180
-0.993133, 385, 165, 416, 196
-0.993144, 117, 181, 148, 212
-0.993147, 405, 229, 436, 260
-0.993153, 253, 133, 284, 164
-0.993166, 173, 165, 204, 196
-0.993166, 405, 173, 436, 204
-0.993174, 193, 129, 224, 160
-0.99318, 245, 181, 276, 212
-0.993183, 153, 185, 184, 248
-0.993191, 329, 245, 392, 276
-0.993199, 137, 141, 200, 172
-0.99321, 353, 221, 416, 252
-0.99321, 81, 169, 144, 200
-0.99321, 321, 197, 384, 228
-0.993212, 377, 257, 440, 320
-0.993224, 457, 193, 488, 320
-0.993226, 369, 229, 400, 260
-0.993227, 369, 261, 432, 292
-0.99323, 305, 201, 368, 264
-0.993236, 393, 141, 424, 172
-0.993239, 1, 241, 64, 272
-0.993243, 341, 149, 372, 180
-0.993247, 193, 213, 256, 244
-0.993253, 385, 249, 416, 280
-0.993261, 293, 165, 324, 196
-0.993262, 129, 189, 160, 220
-0.993268, 309, 201, 340, 232
-0.993272, 237, 157, 268, 188
-0.993275, 417, 173, 448, 204
-0.993286, 317, 177, 348, 208
-0.993286, 49, 185, 112, 216
-0.993288, 365, 141, 396, 172
-0.993289, 349, 137, 380, 168
-0.993292, 285, 209, 316, 240
-0.993292, 117, 153, 148, 216
-0.993297, 289, 141, 320, 172
-0.993304, 153, 181, 184, 212
-0.99331, 25, 229, 88, 260
-0.993311, 265, 193, 296, 224
-0.993313, 281, 265, 344, 296
-0.993313, 213, 137, 244, 168
-0.993316, 389, 225, 420, 256
-0.993322, 301, 177, 332, 208
-0.993326, 297, 257, 360, 320
-0.993335, 389, 209, 420, 333
-0.993338, 257, 181, 288, 212
-0.993346, 117, 193, 148, 224
-0.993348, 345, 173, 376, 204
-0.99335, 329, 141, 360, 172
-0.993351, 105, 197, 136, 228
-0.993361, 105, 165, 168, 196
-0.993363, 93, 201, 124, 232
-0.99338, 405, 241, 436, 272
-0.99339, 285, 201, 316, 264
-0.993392, 413, 145, 444, 176
-0.993394, 357, 181, 388, 212
-0.993395, 149, 145, 180, 208
-0.993407, 377, 141, 408, 172
-0.993415, 89, 205, 152, 236
-0.993415, 133, 165, 164, 196
-0.993427, 273, 137, 304, 168
-0.993435, 1, 153, 500, 216
-0.993437, 49, 201, 112, 264
-0.993454, 273, 217, 304, 248
-0.993461, 393, 189, 456, 220
-0.99347, 249, 201, 280, 232
-0.993474, 185, 157, 248, 188
-0.993476, 317, 137, 348, 168
-0.993476, 397, 185, 428, 216
-0.993491, 237, 205, 268, 236
-0.993496, 301, 141, 332, 172
-0.993497, 329, 181, 360, 212
-0.993518, 453, 237, 484, 268
-0.993524, 81, 201, 112, 232
-0.993532, 313, 213, 344, 244
-0.993542, 141, 189, 172, 220
-0.993545, 441, 237, 472, 268
-0.993547, 257, 265, 320, 296
-0.993548, 149, 153, 180, 184
-0.993553, 445, 177, 476, 304
-0.993554, 217, 221, 280, 252
-0.993556, 453, 169, 484, 200
-0.993556, 385, 185, 416, 216
-0.993559, 225, 109, 288, 140
-0.993564, 425, 221, 456, 252
-0.993565, 237, 117, 268, 148
-0.993568, 445, 217, 476, 248
-0.99357, 9, 177, 72, 240
-0.993572, 377, 129, 408, 192
-0.993573, 225, 177, 480, 240
-0.993574, 465, 241, 496, 272
-0.993575, 369, 249, 400, 280
-0.993575, 13, 225, 44, 256
-0.993582, 117, 165, 148, 196
-0.993587, 457, 257, 488, 288
-0.993588, 249, 229, 312, 260
-0.993589, 237, 169, 268, 200
-0.993591, 369, 181, 400, 212
-0.993598, 329, 229, 360, 260
-0.993601, 25, 209, 88, 240
-0.993603, 277, 193, 308, 224
-0.993617, 405, 201, 436, 264
-0.993619, 285, 221, 316, 252
-0.99362, 197, 117, 228, 148
-0.993629, 413, 185, 444, 216
-0.993646, 353, 201, 480, 264
-0.993648, 441, 153, 472, 184
-0.99365, 101, 185, 132, 216
-0.993651, 457, 209, 488, 240
-0.993651, 345, 261, 408, 292
-0.993658, 333, 213, 364, 244
-0.993664, 165, 145, 196, 176
-0.993664, 33, 173, 96, 204
-0.993667, 9, 189, 72, 220
-0.993674, 105, 193, 136, 256
-0.993681, 445, 249, 476, 280
-0.993685, 357, 229, 388, 260
-0.993691, 105, 153, 168, 184
-0.993697, 233, 189, 264, 220
-0.993703, 313, 257, 376, 288
-0.993707, 317, 225, 348, 256
-0.993712, 425, 237, 456, 268
-0.993717, 397, 253, 428, 284
-0.993718, 101, 193, 132, 320
-0.99372, 305, 189, 336, 220
-0.993722, 25, 153, 56, 184
-0.993727, 181, 137, 212, 168
-0.993727, 425, 253, 456, 284
-0.993736, 9, 241, 40, 272
-0.993737, 213, 109, 244, 140
-0.993738, 261, 205, 292, 236
-0.993742, 369, 217, 400, 248
-0.993742, 221, 149, 252, 180
-0.993742, 409, 253, 440, 284
-0.993742, 165, 181, 196, 212
-0.993742, 293, 265, 324, 296
-0.993743, 329, 193, 360, 224
-0.993749, 433, 205, 496, 236
-0.993749, 1, 209, 64, 240
-0.993751, 313, 265, 344, 296
-0.993752, 377, 261, 408, 292
-0.993752, 401, 257, 464, 288
-0.993767, 417, 185, 480, 216
-0.993771, 225, 201, 480, 264
-0.99378, 297, 189, 360, 220
-0.993792, 409, 141, 472, 172
-0.993797, 161, 229, 224, 260
-0.99381, 57, 245, 120, 276
-0.993813, 209, 137, 240, 200
-0.993815, 25, 161, 88, 192
-0.993823, 1, 141, 64, 172
-0.993841, 161, 149, 288, 180
-0.993856, 1, 225, 64, 256
-0.993866, 201, 153, 264, 216
-0.993867, 225, 265, 288, 296
-0.993875, 57, 261, 120, 292
-0.993882, 281, 245, 344, 276
-0.993883, 273, 129, 336, 160
-0.993884, 201, 173, 264, 204
-0.993885, 113, 201, 176, 232
-0.993919, 193, 225, 256, 256
-0.993931, 137, 129, 200, 160
-0.993938, 369, 129, 496, 192
-0.993941, 409, 205, 472, 236
-0.993948, 161, 181, 224, 212
-0.993957, 193, 1, 256, 333
-0.993983, 41, 197, 104, 228
-0.993999, 193, 225, 320, 288
-0.994008, 33, 245, 96, 276
-0.994022, 377, 133, 440, 164
-0.994031, 217, 245, 280, 276
-0.99404, 33, 137, 96, 168
-0.994044, 137, 293, 200, 324
-0.994052, 417, 269, 480, 300
-0.994054, 249, 245, 312, 276
-0.994054, 57, 165, 120, 196
-0.994057, 65, 125, 128, 156
-0.994075, 305, 245, 368, 276
-0.994091, 201, 265, 264, 296
-0.994093, 177, 261, 240, 292
-0.9941, 169, 105, 232, 136
-0.994134, 245, 97, 276, 224
-0.994177, 105, 65, 168, 320
-0.994196, 297, 201, 328, 264
-0.994212, 365, 225, 396, 288
-0.994244, 253, 193, 284, 256
-0.994282, 257, 121, 288, 184
-0.994293, 313, 209, 344, 333
-0.994306, 457, 217, 488, 280
-0.99437, 105, 129, 136, 256
-0.994405, 241, 153, 368, 184
-0.994422, 225, 257, 352, 320
-0.994478, 329, 225, 360, 288
-0.994623, 289, 153, 416, 184
-0.994625, 325, 97, 356, 224
-0.994644, 81, 65, 144, 320
-0.994655, 97, 129, 160, 192
-0.99466, 369, 193, 400, 320
-0.994743, 457, 249, 488, 312
-0.994754, 161, 1, 224, 333
-0.99478, 249, 145, 264, 208
-0.994801, 1, 121, 64, 184
-0.994832, 233, 201, 264, 264
-0.994918, 225, 201, 352, 232
-0.994922, 209, 241, 272, 304
-0.994935, 113, 201, 240, 264
-0.994936, 289, 145, 304, 208
-0.995005, 385, 153, 400, 216
-0.995013, 225, 121, 480, 184
-0.995015, 259, 145, 274, 208
-0.995025, 65, 201, 320, 264
-0.995054, 163, 153, 178, 216
-0.995074, 425, 217, 456, 280
-0.995077, 193, 133, 320, 164
-0.995149, 373, 185, 404, 248
-0.995152, 401, 121, 464, 184
-0.995159, 241, 1, 304, 333
-0.995185, 323, 153, 338, 216
-0.99529, 241, 165, 368, 196
-0.995295, 89, 193, 120, 320
-0.995325, 337, 153, 352, 216
-0.995329, 309, 153, 324, 216
-0.995336, 249, 265, 312, 328
-0.995354, 281, 153, 296, 216
-0.995363, 305, 165, 432, 196
-0.995375, 145, 265, 272, 328
-0.995387, 377, 129, 440, 192
-0.995415, 297, 153, 312, 216
-0.995435, 271, 145, 286, 208
-0.99545, 225, 49, 480, 176
-0.995456, 221, 113, 236, 176
-0.995483, 169, 89, 232, 152
-0.995509, 265, 145, 280, 208
-0.995525, 345, 153, 360, 216
-0.995545, 297, 193, 328, 320
-0.995672, 33, 145, 96, 208
-0.995704, 401, 153, 416, 216
-0.99571, 357, 177, 388, 240
-0.995716, 65, 249, 192, 312
-0.995717, 1, 177, 500, 240
-0.995722, 371, 153, 386, 216
-0.995731, 407, 153, 422, 216
-0.995735, 365, 97, 396, 224
-0.995737, 433, 177, 464, 304
-0.995745, 317, 153, 332, 216
-0.995752, 361, 1, 424, 333
-0.995762, 425, 145, 488, 208
-0.9958, 303, 153, 318, 216
-0.995821, 213, 65, 244, 192
-0.995838, 9, 177, 40, 304
-0.995845, 355, 161, 370, 224
-0.995846, 361, 153, 376, 216
-0.99587, 1, 129, 256, 192
-0.995885, 329, 153, 344, 216
-0.995902, 377, 161, 392, 224
-0.995938, 155, 153, 170, 216
-0.995961, 89, 201, 120, 264
-0.995963, 1, 177, 256, 240
-0.995972, 401, 249, 464, 312
-0.995974, 395, 153, 410, 216
-0.995995, 133, 193, 164, 256
-0.996004, 273, 265, 336, 328
-0.996025, 173, 121, 204, 184
-0.996027, 145, 169, 272, 200
-0.996079, 241, 177, 368, 208
-0.996099, 65, 217, 192, 280
-0.996125, 453, 169, 484, 232
-0.996133, 413, 161, 428, 224
-0.99614, 49, 177, 176, 208
-0.99617, 417, 161, 448, 224
-0.996173, 357, 193, 388, 320
-0.996207, 57, 121, 120, 184
-0.996265, 225, 213, 352, 244
-0.996306, 117, 201, 148, 264
-0.996343, 161, 225, 416, 288
-0.996365, 171, 145, 186, 208
-0.99637, 33, 153, 288, 216
-0.996378, 143, 153, 158, 216
-0.996415, 81, 157, 208, 188
-0.996415, 189, 145, 204, 208
-0.996423, 233, 97, 296, 160
-0.996439, 169, 233, 232, 296
-0.996491, 1, 201, 500, 264
-0.996494, 353, 157, 480, 188
-0.996494, 211, 129, 226, 192
-0.996501, 153, 177, 168, 240
-0.996507, 305, 181, 432, 212
-0.996507, 113, 1, 176, 333
-0.996517, 373, 249, 404, 312
-0.996533, 253, 169, 268, 232
-0.996547, 1, 201, 64, 264
-0.996582, 271, 169, 286, 232
-0.99659, 1, 265, 128, 328
-0.996591, 243, 145, 258, 208
-0.996598, 235, 129, 250, 192
-0.996607, 233, 105, 264, 168
-0.996611, 297, 177, 312, 240
-0.996614, 281, 129, 296, 192
-0.996624, 97, 181, 224, 212
-0.996638, 49, 65, 112, 320
-0.996645, 205, 145, 220, 208
-0.996646, 153, 257, 216, 320
-0.996655, 183, 145, 198, 208
-0.996668, 401, 65, 464, 320
-0.996678, 145, 129, 272, 160
-0.996705, 259, 121, 274, 184
-0.996729, 137, 1, 200, 333
-0.99673, 469, 241, 500, 304
-0.996754, 133, 153, 148, 216
-0.996757, 327, 129, 342, 192
-0.996759, 133, 177, 148, 240
-0.996761, 317, 225, 348, 288
-0.996784, 229, 121, 244, 184
-0.996829, 1, 129, 500, 192
-0.996835, 353, 249, 480, 280
-0.996854, 57, 257, 120, 320
-0.996855, 77, 193, 108, 320
-0.996876, 305, 141, 432, 172
-0.996884, 353, 137, 368, 200
-0.996892, 241, 133, 368, 164
-0.9969, 297, 129, 312, 192
-0.996906, 225, 189, 352, 220
-0.996951, 193, 161, 320, 192
-0.996953, 377, 137, 392, 200
-0.996963, 193, 121, 320, 152
-0.996979, 345, 177, 376, 240
-0.996993, 377, 97, 408, 224
-0.996997, 303, 129, 318, 192
-0.997005, 369, 237, 496, 268
-0.997012, 369, 169, 496, 200
-0.99702, 289, 209, 304, 272
-0.997043, 469, 177, 500, 304
-0.99705, 407, 233, 422, 296
-0.997061, 303, 177, 318, 240
-0.997064, 413, 137, 428, 200
-0.997074, 217, 1, 280, 333
-0.997084, 139, 177, 154, 240
-0.997092, 233, 81, 264, 208
-0.997102, 323, 177, 338, 240
-0.997127, 329, 1, 392, 333
-0.997129, 1, 249, 64, 312
-0.997136, 65, 1, 128, 333
-0.99714, 273, 209, 400, 240
-0.997145, 289, 169, 304, 232
-0.997146, 125, 153, 140, 216
-0.997163, 401, 233, 416, 296
-0.997171, 411, 161, 426, 192
-0.997172, 281, 153, 296, 184
-0.997173, 105, 161, 136, 224
-0.997176, 305, 249, 432, 280
-0.99719, 33, 145, 64, 272
-0.997208, 147, 177, 162, 240
-0.997223, 81, 193, 208, 224
-0.997235, 333, 129, 348, 192
-0.997237, 229, 153, 260, 216
-0.99725, 309, 129, 324, 192
-0.997256, 333, 177, 348, 240
-0.997257, 93, 145, 124, 272
-0.997263, 65, 105, 320, 168
-0.997263, 195, 129, 210, 192
-0.997268, 271, 157, 286, 188
-0.997268, 319, 129, 334, 192
-0.997273, 339, 129, 354, 192
-0.997287, 257, 225, 500, 288
-0.997294, 407, 129, 422, 192
-0.997316, 457, 193, 488, 256
-0.99732, 281, 177, 296, 240
-0.997325, 265, 169, 280, 232
-0.997329, 197, 65, 228, 192
-0.997331, 21, 145, 52, 272
-0.997333, 177, 153, 192, 216
-0.997335, 141, 173, 156, 204
-0.997344, 323, 157, 338, 188
-0.997349, 163, 157, 178, 188
-0.997366, 177, 129, 192, 192
-0.997366, 275, 121, 290, 184
-0.997385, 201, 121, 216, 184
-0.997401, 253, 121, 268, 184
-0.997403, 369, 145, 496, 176
-0.99742, 149, 153, 164, 216
-0.997425, 121, 193, 136, 256
-0.997437, 163, 129, 178, 192
-0.997445, 193, 177, 320, 208
-0.997446, 339, 153, 354, 184
-0.99745, 289, 1, 352, 333
-0.99746, 259, 177, 274, 240
-0.997461, 97, 169, 224, 200
-0.997462, 245, 121, 260, 184
-0.997477, 393, 177, 408, 240
-0.997486, 57, 169, 88, 232
-0.99749, 305, 229, 432, 260
-0.99749, 193, 177, 256, 240
-0.997492, 263, 149, 278, 180
-0.997501, 33, 1, 96, 333
-0.997504, 171, 157, 186, 188
-0.997507, 133, 177, 148, 208
-0.997507, 9, 241, 40, 304
-0.997509, 295, 153, 310, 184
-0.997522, 9, 217, 40, 280
-0.997522, 391, 129, 406, 192
-0.997529, 89, 1, 152, 333
-0.99753, 363, 153, 378, 184
-0.997545, 113, 145, 240, 176
-0.997563, 333, 165, 348, 196
-0.997564, 265, 121, 280, 184
-0.997573, 37, 209, 68, 333
-0.997573, 387, 153, 402, 184
-0.997574, 345, 129, 360, 192
-0.997575, 347, 157, 362, 188
-0.997575, 441, 209, 472, 272
-0.99759, 145, 181, 272, 212
-0.997593, 225, 265, 288, 328
-0.997597, 373, 161, 388, 192
-0.9976, 311, 177, 326, 240
-0.997617, 433, 265, 496, 328
-0.997618, 309, 153, 324, 184
-0.997624, 265, 161, 280, 192
-0.997626, 359, 129, 374, 192
-0.997632, 369, 225, 496, 256
-0.997635, 225, 257, 480, 320
-0.997658, 317, 177, 332, 240
-0.997658, 333, 225, 348, 288
-0.997686, 287, 149, 302, 180
-0.997687, 221, 117, 236, 148
-0.997687, 469, 209, 500, 272
-0.99769, 287, 161, 302, 192
-0.997723, 177, 201, 304, 232
-0.997723, 387, 177, 402, 240
-0.997728, 323, 201, 338, 264
-0.997734, 353, 161, 368, 192
-0.997737, 285, 233, 316, 296
-0.997757, 401, 1, 464, 333
-0.997758, 257, 153, 272, 184
-0.997766, 189, 121, 204, 184
-0.997767, 81, 273, 208, 333
-0.99777, 383, 225, 398, 288
-0.997775, 33, 161, 160, 192
-0.997786, 57, 153, 120, 216
-0.997791, 249, 145, 264, 176
-0.997804, 285, 205, 300, 236
-0.99783, 297, 97, 328, 224
-0.997832, 17, 189, 144, 220
-0.997838, 159, 185, 174, 248
-0.997839, 197, 153, 212, 216
-0.997839, 399, 177, 414, 240
-0.99784, 287, 121, 302, 184
-0.997844, 367, 129, 382, 192
-0.997849, 321, 209, 448, 240
-0.997851, 425, 225, 440, 288
-0.997859, 1, 113, 32, 240
-0.997869, 405, 185, 420, 248
-0.997874, 441, 153, 472, 216
-0.997891, 221, 209, 252, 333
-0.997907, 163, 173, 178, 204
-0.997911, 33, 201, 160, 232
-0.997912, 129, 193, 256, 224
-0.997917, 333, 153, 348, 184
-0.997918, 315, 153, 330, 184
-0.997923, 241, 137, 256, 168
-0.997935, 145, 117, 272, 148
-0.997939, 81, 265, 144, 328
-0.997941, 171, 169, 186, 232
-0.997948, 399, 153, 414, 184
-0.99795, 361, 165, 376, 196
-0.997986, 271, 145, 286, 176
-0.998006, 413, 225, 428, 288
-0.99801, 339, 169, 354, 200
-0.998017, 169, 169, 184, 200
-0.998018, 283, 201, 298, 264
-0.998024, 247, 169, 262, 232
-0.998028, 373, 185, 388, 248
-0.998032, 127, 177, 142, 240
-0.998034, 49, 145, 80, 272
-0.998036, 395, 225, 410, 288
-0.998051, 117, 153, 132, 216
-0.998053, 301, 157, 316, 188
-0.99806, 179, 153, 194, 184
-0.998066, 183, 121, 198, 184
-0.998068, 273, 197, 400, 228
-0.998071, 281, 165, 296, 196
-0.99808, 419, 161, 434, 224
-0.998085, 65, 225, 320, 288
-0.99809, 403, 165, 418, 196
-0.998099, 103, 201, 118, 264
-0.9981, 193, 265, 256, 328
-0.998108, 389, 233, 404, 296
-0.998108, 73, 177, 104, 240
-0.998113, 375, 225, 390, 288
-0.998126, 189, 149, 204, 180
-0.998133, 1, 225, 500, 288
-0.998136, 253, 169, 268, 200
-0.998137, 347, 169, 362, 200
-0.998145, 209, 141, 224, 172
-0.998156, 367, 177, 382, 240
-0.998157, 209, 105, 224, 168
-0.998159, 225, 225, 352, 256
-0.998161, 461, 177, 476, 240
-0.998166, 153, 129, 168, 192
-0.998171, 177, 217, 304, 248
-0.998172, 153, 169, 168, 200
-0.998172, 381, 153, 396, 184
-0.998173, 411, 173, 426, 204
-0.998174, 151, 181, 166, 212
-0.99818, 301, 177, 316, 208
-0.998199, 383, 169, 398, 200
-0.998201, 293, 165, 308, 196
-0.998202, 275, 173, 290, 204
-0.998204, 171, 121, 186, 184
-0.998216, 77, 201, 108, 264
-0.998221, 471, 249, 486, 312
-0.998225, 369, 181, 496, 212
-0.998231, 135, 129, 150, 192
-0.998244, 165, 177, 180, 240
-0.998244, 235, 129, 250, 160
-0.998247, 115, 193, 130, 256
-0.99825, 465, 241, 480, 304
-0.998251, 353, 145, 368, 176
-0.998251, 397, 129, 412, 192
-0.99826, 383, 229, 398, 260
-0.99826, 385, 151, 416, 166
-0.998261, 365, 253, 396, 268
-0.998262, 327, 145, 342, 176
-0.998262, 293, 145, 324, 160
-0.998264, 381, 185, 396, 248
-0.998265, 205, 119, 236, 134
-0.998265, 109, 205, 140, 220
-0.998266, 329, 149, 360, 164
-0.998267, 377, 179, 408, 194
-0.998269, 357, 169, 388, 184
-0.998269, 377, 171, 408, 186
-0.998269, 133, 195, 164, 210
-0.998272, 109, 193, 140, 208
-0.998274, 297, 183, 328, 198
-0.998276, 433, 223, 464, 238
-0.998277, 385, 185, 416, 200
-0.998278, 449, 169, 480, 184
-0.998279, 127, 185, 142, 216
-0.99828, 237, 171, 268, 186
-0.99828, 241, 141, 272, 156
-0.998281, 349, 177, 364, 240
-0.998281, 457, 235, 488, 250
-0.998281, 237, 127, 268, 142
-0.998281, 409, 227, 440, 242
-0.998281, 401, 249, 432, 264
-0.998282, 259, 177, 274, 208
-0.998282, 421, 225, 452, 240
-0.998284, 293, 213, 324, 228
-0.998284, 259, 201, 274, 264
-0.998284, 285, 183, 316, 198
-0.998284, 421, 165, 436, 196
-0.998285, 341, 149, 372, 164
-0.998285, 237, 205, 268, 220
-0.998287, 241, 155, 272, 170
-0.998287, 373, 185, 404, 200
-0.998293, 241, 193, 256, 256
-0.998293, 311, 165, 326, 196
-0.998294, 217, 117, 248, 132
-0.998294, 197, 127, 228, 142
-0.998297, 133, 189, 164, 204
-0.998298, 309, 149, 340, 164
-0.998299, 417, 179, 448, 194
-0.998299, 329, 181, 360, 196
-0.998299, 273, 147, 304, 162
-0.9983, 265, 1, 328, 333
-0.998301, 25, 97, 88, 224
-0.998301, 373, 237, 404, 252
-0.998303, 389, 227, 420, 242
-0.998303, 373, 151, 404, 166
-0.998304, 295, 201, 310, 264
-0.998304, 197, 141, 228, 156
-0.998305, 265, 193, 280, 256
-0.998305, 393, 153, 408, 184
-0.998306, 185, 145, 216, 160
-0.998307, 385, 257, 416, 272
-0.998309, 49, 65, 176, 192
-0.998309, 353, 151, 384, 166
-0.99831, 419, 137, 434, 200
-0.998311, 305, 163, 336, 178
-0.998311, 97, 197, 128, 212
-0.998312, 383, 129, 398, 192
-0.998312, 353, 177, 384, 192
-0.998313, 145, 165, 176, 180
-0.998313, 367, 169, 382, 200
-0.998313, 265, 201, 296, 216
-0.998318, 261, 147, 292, 162
-0.998318, 417, 171, 448, 186
-0.998318, 149, 185, 180, 200
-0.99832, 401, 185, 432, 200
-0.998321, 285, 219, 316, 234
-0.998323, 405, 233, 436, 248
-0.998326, 165, 155, 196, 170
-0.998327, 253, 201, 284, 216
-0.998327, 365, 175, 396, 190
-0.998328, 291, 197, 306, 228
-0.998328, 297, 151, 328, 166
-0.99833, 241, 177, 272, 192
-0.99833, 1, 65, 64, 320
-0.998333, 249, 147, 280, 162
-0.998335, 65, 193, 96, 320
-0.998339, 273, 213, 304, 228
-0.99834, 111, 161, 126, 224
-0.99834, 139, 185, 154, 216
-0.998341, 309, 203, 340, 218
-0.998344, 467, 185, 482, 248
-0.998345, 389, 239, 420, 254
-0.998346, 121, 179, 152, 194
-0.998348, 333, 201, 364, 264
-0.998348, 81, 203, 112, 218
-0.99835, 1, 1, 64, 333
-0.99835, 385, 165, 416, 180
-0.998353, 345, 209, 376, 333
-0.998354, 397, 177, 428, 192
-0.998355, 229, 121, 244, 152
-0.998355, 349, 183, 380, 198
-0.998358, 317, 167, 348, 182
-0.998361, 369, 163, 400, 178
-0.998363, 241, 133, 272, 148
-0.998363, 121, 195, 152, 210
-0.998364, 309, 181, 340, 196
-0.998373, 121, 185, 152, 200
-0.998373, 369, 231, 400, 246
-0.998373, 273, 177, 304, 192
-0.998379, 197, 133, 228, 148
-0.998379, 401, 239, 432, 254
-0.99838, 289, 199, 320, 214
-0.998383, 155, 157, 170, 188
-0.998384, 327, 169, 342, 200
-0.998384, 213, 143, 244, 158
-0.998384, 201, 147, 232, 162
-0.998384, 253, 163, 284, 178
-0.998389, 329, 167, 360, 182
-0.998391, 389, 165, 404, 196
-0.998391, 409, 163, 440, 178
-0.998391, 385, 249, 416, 264
-0.998393, 253, 179, 284, 194
-0.998393, 341, 177, 372, 192
-0.998394, 273, 207, 304, 222
-0.998395, 289, 177, 320, 192
-0.998396, 249, 171, 280, 186
-0.998401, 161, 175, 192, 190
-0.998401, 389, 233, 420, 248
-0.998402, 309, 173, 340, 188
-0.998404, 361, 183, 392, 198
-0.998406, 317, 161, 348, 176
-0.998407, 97, 203, 128, 218
-0.998408, 169, 169, 200, 184
-0.998408, 229, 143, 260, 158
-0.998408, 221, 135, 252, 150
-0.998412, 357, 163, 388, 178
-0.998413, 291, 209, 306, 240
-0.998415, 321, 201, 352, 264
-0.998418, 177, 201, 240, 264
-0.998418, 215, 133, 230, 164
-0.998419, 267, 181, 282, 212
-0.998424, 161, 161, 192, 176
-0.998426, 209, 49, 336, 176
-0.998427, 109, 199, 140, 214
-0.998429, 125, 129, 156, 192
-0.998431, 203, 149, 218, 180
-0.998432, 137, 183, 168, 198
-0.998432, 345, 167, 376, 182
-0.998434, 365, 157, 396, 172
-0.998434, 189, 151, 220, 166
-0.998435, 289, 163, 320, 178
-0.998435, 121, 197, 136, 228
-0.998435, 411, 145, 426, 176
-0.998436, 201, 135, 264, 150
-0.998438, 237, 149, 268, 164
-0.998438, 177, 151, 208, 166
-0.998441, 317, 165, 332, 196
-0.998447, 201, 141, 264, 156
-0.998447, 297, 197, 312, 228
-0.998448, 1, 241, 128, 272
-0.998449, 397, 157, 428, 172
-0.998451, 369, 149, 384, 180
-0.998453, 253, 133, 268, 164
-0.998454, 113, 197, 128, 228
-0.998455, 397, 169, 412, 200
-0.998463, 341, 155, 372, 170
-0.998463, 377, 141, 392, 172
-0.998469, 397, 167, 428, 182
-0.998469, 249, 153, 312, 168
-0.998471, 269, 155, 300, 170
-0.998475, 297, 225, 328, 288
-0.998475, 285, 181, 300, 212
-0.998475, 149, 179, 180, 194
-0.998478, 305, 155, 368, 170
-0.998481, 297, 157, 328, 172
-0.998481, 333, 177, 348, 208
-0.998482, 97, 129, 224, 160
-0.998488, 337, 161, 368, 176
-0.998491, 329, 175, 360, 190
-0.998502, 217, 123, 248, 138
-0.998503, 309, 155, 340, 170
-0.998506, 129, 177, 192, 192
-0.998509, 201, 129, 264, 144
-0.99851, 177, 165, 192, 196
-0.998511, 265, 161, 296, 176
-0.998513, 149, 171, 180, 186
-0.998516, 277, 163, 308, 178
-0.998517, 261, 171, 292, 186
-0.998526, 291, 185, 306, 216
-0.998527, 385, 157, 416, 172
-0.998532, 129, 209, 192, 333
-0.998533, 65, 145, 192, 176
-0.998534, 281, 171, 312, 186
-0.998536, 361, 157, 424, 172
-0.998537, 273, 155, 336, 170
-0.998539, 217, 129, 248, 144
-0.998541, 337, 157, 400, 172
-0.998542, 253, 153, 284, 168
-0.998553, 353, 157, 384, 172
-0.998556, 321, 163, 384, 178
-0.998557, 201, 147, 264, 162
-0.998557, 281, 153, 312, 168
-0.99856, 281, 203, 344, 218
-0.99856, 369, 175, 432, 190
-0.99856, 329, 155, 360, 170
-0.998562, 403, 181, 418, 212
-0.998562, 407, 229, 422, 260
-0.998563, 241, 179, 304, 194
-0.998565, 249, 163, 312, 178
-0.998573, 353, 177, 368, 208
-0.998578, 247, 133, 262, 164
-0.99858, 313, 175, 376, 190
-0.99858, 241, 203, 304, 218
-0.998581, 133, 177, 164, 192
-0.998581, 405, 153, 420, 184
-0.998582, 297, 161, 360, 176
-0.998582, 45, 169, 76, 232
-0.998584, 225, 153, 288, 168
-0.998587, 249, 171, 312, 186
-0.998592, 157, 181, 172, 212
-0.998594, 195, 149, 210, 180
-0.998598, 145, 159, 208, 174
-0.998603, 29, 209, 60, 272
-0.998605, 137, 171, 200, 186
-0.998607, 393, 141, 408, 172
-0.998609, 289, 173, 352, 188
-0.99861, 369, 273, 496, 333
-0.998611, 377, 231, 440, 246
-0.998611, 177, 151, 240, 166
-0.998611, 369, 181, 432, 196
-0.998612, 281, 209, 344, 224
-0.998612, 273, 163, 336, 178
-0.998614, 261, 137, 276, 168
-0.998615, 409, 167, 472, 182
-0.998615, 233, 135, 296, 150
-0.998617, 369, 163, 432, 178
-0.998623, 169, 133, 232, 148
-0.998623, 259, 165, 274, 196
-0.998626, 337, 231, 400, 246
-0.99863, 321, 145, 336, 176
-0.998631, 145, 229, 272, 260
-0.998632, 445, 241, 476, 304
-0.998633, 225, 147, 288, 162
-0.998634, 209, 129, 224, 160
-0.998638, 369, 213, 496, 244
-0.99864, 225, 161, 288, 176
-0.99864, 377, 249, 440, 264
-0.998641, 129, 165, 192, 180
-0.998641, 273, 209, 304, 333
-0.998642, 325, 181, 340, 212
-0.998643, 97, 197, 160, 212
-0.998644, 345, 145, 360, 176
-0.998648, 337, 175, 400, 190
-0.99865, 113, 183, 176, 198
-0.998651, 185, 123, 248, 138
-0.998651, 401, 153, 464, 168
-0.998653, 73, 201, 136, 216
-0.998653, 249, 209, 312, 224
-0.998656, 321, 261, 448, 292
-0.998656, 225, 97, 480, 160
-0.998657, 105, 177, 168, 192
-0.998657, 141, 161, 156, 192
-0.998658, 463, 169, 478, 200
-0.998659, 121, 193, 184, 208
-0.99866, 337, 181, 400, 196
-0.99866, 401, 227, 464, 242
-0.99866, 409, 173, 472, 188
-0.998662, 361, 237, 424, 252
-0.998662, 305, 181, 368, 196
-0.998662, 209, 123, 272, 138
-0.998663, 281, 215, 344, 230
-0.998664, 409, 161, 472, 176
-0.998665, 265, 181, 328, 196
-0.998669, 265, 197, 328, 212
-0.99867, 129, 197, 144, 228
-0.99867, 133, 161, 148, 192
-0.998671, 233, 129, 296, 144
-0.998672, 169, 139, 232, 154
-0.998673, 319, 181, 334, 212
-0.998673, 361, 261, 424, 276
-0.998673, 323, 205, 338, 236
-0.998675, 161, 169, 224, 184
-0.998675, 89, 185, 152, 200
-0.998676, 289, 149, 352, 164
-0.998677, 401, 241, 416, 272
-0.998679, 353, 151, 416, 166
-0.998684, 161, 175, 224, 190
-0.998684, 353, 253, 416, 268
-0.998685, 401, 233, 464, 248
-0.998687, 153, 153, 216, 168
-0.998687, 1, 155, 64, 170
-0.998687, 225, 211, 288, 226
-0.998688, 377, 173, 392, 204
-0.998692, 465, 245, 480, 276
-0.998694, 393, 181, 456, 196
-0.998694, 107, 201, 122, 232
-0.998695, 425, 237, 488, 252
-0.998696, 425, 231, 488, 246
-0.998696, 345, 163, 408, 178
-0.998697, 225, 171, 288, 186
-0.998699, 389, 241, 404, 272
-0.9987, 397, 229, 412, 260
-0.9987, 265, 147, 328, 162
-0.998701, 377, 225, 440, 240
-0.998702, 321, 169, 384, 184
-0.998702, 105, 203, 168, 218
-0.998704, 377, 169, 440, 184
-0.998705, 177, 145, 240, 160
-0.998706, 393, 243, 456, 258
-0.998707, 137, 187, 200, 202
-0.99871, 121, 185, 136, 216
-0.998711, 93, 177, 124, 240
-0.998711, 353, 169, 416, 184
-0.998711, 289, 225, 352, 240
-0.998711, 409, 221, 472, 236
-0.998712, 241, 141, 304, 156
-0.998712, 225, 65, 256, 320
-0.998712, 377, 255, 440, 270
-0.998714, 97, 191, 160, 206
-0.998716, 81, 129, 112, 256
-0.998717, 249, 219, 312, 234
-0.998719, 337, 259, 400, 274
-0.998719, 217, 177, 280, 192
-0.998722, 105, 161, 168, 176
-0.998722, 321, 149, 384, 164
-0.998722, 49, 203, 112, 218
-0.998722, 391, 177, 406, 208
-0.998723, 353, 243, 416, 258
-0.998726, 217, 203, 280, 218
-0.998726, 209, 197, 272, 212
-0.998728, 415, 229, 430, 260
-0.998728, 321, 221, 384, 236
-0.998729, 233, 191, 296, 206
-0.998729, 241, 197, 304, 212
-0.998731, 225, 217, 288, 232
-0.998731, 297, 167, 360, 182
-0.998732, 425, 251, 488, 266
-0.998732, 393, 261, 456, 276
-0.998732, 321, 213, 384, 228
-0.998733, 377, 187, 440, 202
-0.998736, 433, 215, 496, 230
-0.998739, 401, 253, 464, 268
-0.998739, 161, 127, 224, 142
-0.998741, 145, 185, 160, 216
-0.998742, 433, 221, 496, 236
-0.998742, 33, 257, 96, 320
-0.998744, 281, 193, 296, 224
-0.998745, 201, 209, 264, 224
-0.998747, 89, 209, 152, 224
-0.998748, 289, 231, 352, 246
-0.998748, 393, 147, 456, 162
-0.998751, 337, 237, 400, 252
-0.998751, 113, 171, 176, 186
-0.998752, 153, 181, 216, 196
-0.998752, 129, 149, 192, 164
-0.998754, 329, 253, 392, 268
-0.998756, 321, 207, 384, 222
-0.998756, 313, 231, 376, 246
-0.998756, 81, 175, 144, 190
-0.998756, 149, 157, 164, 188
-0.998758, 169, 163, 232, 178
-0.998759, 33, 153, 48, 184
-0.998759, 425, 245, 488, 260
-0.99876, 33, 151, 96, 166
-0.998761, 321, 201, 384, 216
-0.998761, 247, 157, 262, 188
-0.998761, 193, 215, 256, 230
-0.998764, 17, 213, 144, 244
-0.998764, 241, 185, 304, 200
-0.998766, 73, 195, 136, 210
-0.998766, 297, 237, 360, 252
-0.998769, 315, 141, 330, 172
-0.998771, 401, 65, 432, 320
-0.998772, 405, 141, 420, 172
-0.998773, 309, 181, 324, 212
-0.998773, 309, 65, 340, 320
-0.998774, 417, 177, 432, 208
-0.998776, 365, 137, 380, 168
-0.99878, 147, 169, 162, 200
-0.998793, 277, 141, 292, 172
-0.998798, 339, 181, 354, 212
-0.998799, 293, 141, 308, 172
-0.998806, 213, 65, 244, 320
-0.998811, 387, 141, 402, 172
-0.998816, 301, 145, 316, 176
-0.998818, 421, 153, 436, 184
-0.998842, 129, 265, 384, 328
-0.998845, 333, 229, 348, 260
-0.998865, 321, 105, 448, 168
-0.998894, 149, 121, 180, 184
-0.998895, 353, 225, 384, 288
-0.998898, 289, 65, 320, 320
-0.99891, 49, 193, 80, 320
-0.998916, 81, 209, 208, 240
-0.998954, 25, 65, 88, 320
-0.998957, 205, 209, 236, 333
-0.998962, 109, 129, 140, 192
-0.998989, 273, 233, 304, 296
-0.998995, 373, 65, 404, 320
-0.998996, 389, 65, 420, 320
-0.999005, 89, 121, 120, 184
-0.999018, 49, 245, 176, 276
-0.999023, 319, 145, 334, 272
-0.999032, 469, 185, 500, 248
-0.999032, 337, 65, 368, 320
-0.999034, 161, 65, 192, 320
-0.999034, 327, 145, 342, 272
-0.99904, 249, 65, 280, 320
-0.999061, 177, 65, 208, 320
-0.999063, 253, 225, 284, 288
-0.999071, 245, 209, 276, 333
-0.999088, 333, 145, 348, 272
-0.999092, 341, 145, 356, 272
-0.999099, 241, 265, 368, 296
-0.999102, 289, 145, 304, 272
-0.999105, 321, 197, 448, 228
-0.999111, 217, 201, 248, 264
-0.999114, 121, 241, 184, 304
-0.999115, 401, 145, 416, 272
-0.999118, 301, 145, 316, 272
-0.999133, 165, 209, 196, 333
-0.999134, 257, 245, 384, 276
-0.999136, 267, 161, 282, 288
-0.999141, 201, 65, 232, 320
-0.999147, 361, 65, 392, 320
-0.999163, 311, 161, 326, 288
-0.999182, 407, 145, 422, 272
-0.999183, 349, 65, 380, 320
-0.999188, 249, 145, 264, 272
-0.99919, 385, 145, 400, 272
-0.999191, 363, 145, 378, 272
-0.999214, 395, 145, 410, 272
-0.999223, 173, 145, 188, 272
-0.999223, 369, 145, 384, 272
-0.999231, 1, 257, 128, 288
-0.999234, 163, 145, 178, 272
-0.999235, 357, 161, 372, 288
-0.999239, 1, 177, 128, 208
-0.999241, 325, 65, 356, 320
-0.999245, 413, 145, 428, 272
-0.999246, 25, 193, 56, 320
-0.999247, 133, 65, 164, 320
-0.999252, 187, 145, 202, 272
-0.999256, 369, 197, 496, 228
-0.999261, 347, 161, 362, 288
-0.999261, 33, 257, 288, 320
-0.999261, 379, 161, 394, 288
-0.999267, 425, 145, 488, 272
-0.999271, 295, 161, 310, 288
-0.999277, 285, 81, 316, 208
-0.999293, 61, 145, 92, 272
-0.999294, 277, 145, 292, 272
-0.9993, 255, 129, 270, 256
-0.9993, 179, 145, 194, 272
-0.999301, 261, 145, 276, 272
-0.999301, 17, 229, 144, 260
-0.999303, 199, 145, 214, 272
-0.999308, 239, 129, 254, 256
-0.999309, 193, 145, 208, 272
-0.999309, 237, 65, 268, 320
-0.999322, 433, 185, 464, 248
-0.999329, 153, 113, 168, 240
-0.999336, 145, 65, 176, 320
-0.999342, 153, 193, 184, 320
-0.999347, 157, 161, 172, 288
-0.999352, 273, 105, 400, 168
-0.999354, 211, 129, 226, 256
-0.999359, 125, 177, 140, 304
-0.999373, 231, 113, 246, 240
-0.999374, 257, 209, 288, 333
-0.999379, 347, 113, 362, 240
-0.999387, 141, 161, 156, 288
-0.999402, 131, 145, 146, 272
-0.999409, 377, 113, 392, 240
-0.999416, 193, 265, 320, 296
-0.999423, 283, 145, 298, 272
-0.999427, 353, 113, 368, 240
-0.999436, 309, 113, 324, 240
-0.999438, 401, 209, 432, 333
-0.99944, 201, 97, 216, 224
-0.999442, 141, 113, 156, 240
-0.999451, 205, 145, 220, 272
-0.999457, 325, 193, 340, 320
-0.99946, 183, 97, 198, 224
-0.999462, 167, 97, 182, 224
-0.999468, 221, 113, 236, 240
-0.99947, 195, 97, 210, 224
-0.999474, 189, 65, 220, 320
-0.99948, 147, 161, 162, 288
-0.999483, 369, 261, 496, 292
-0.999484, 189, 97, 204, 224
-0.99949, 177, 97, 192, 224
-0.999505, 289, 97, 304, 224
-0.999506, 267, 113, 282, 240
-0.999509, 459, 177, 474, 304
-0.999511, 319, 97, 334, 224
-0.999523, 129, 213, 256, 244
-0.999523, 161, 97, 176, 224
-0.999524, 125, 113, 140, 240
-0.99953, 147, 113, 162, 240
-0.999531, 269, 65, 300, 320
-0.999532, 245, 133, 260, 148
-0.999533, 199, 145, 214, 160
-0.999533, 277, 149, 292, 164
-0.999534, 349, 181, 364, 196
-0.999535, 331, 181, 346, 196
-0.999536, 101, 157, 116, 172
-0.999537, 291, 199, 306, 214
-0.999537, 393, 157, 408, 172
-0.999539, 181, 165, 196, 180
-0.999539, 157, 157, 172, 172
-0.999539, 183, 153, 198, 168
-0.99954, 297, 169, 312, 184
-0.99954, 357, 171, 372, 186
-0.99954, 81, 257, 208, 288
-0.999543, 17, 155, 32, 170
-0.999545, 329, 97, 344, 224
-0.999545, 383, 179, 398, 194
-0.999545, 33, 155, 48, 170
-0.999546, 229, 225, 260, 288
-0.999547, 273, 169, 288, 184
-0.999547, 231, 127, 246, 142
-0.999547, 421, 171, 436, 186
-0.999547, 1, 145, 128, 176
-0.999547, 377, 151, 392, 166
-0.999548, 117, 159, 132, 174
-0.999548, 371, 157, 386, 172
-0.999551, 347, 175, 362, 190
-0.999551, 373, 171, 388, 186
-0.999551, 401, 173, 416, 188
-0.999551, 237, 139, 252, 154
-0.999552, 213, 145, 228, 160
-0.999552, 227, 121, 242, 136
-0.999553, 317, 155, 332, 170
-0.999556, 25, 155, 40, 170
-0.999556, 125, 159, 140, 174
-0.999556, 129, 197, 144, 212
-0.999556, 421, 113, 436, 240
-0.999557, 139, 191, 154, 206
-0.999558, 405, 239, 420, 254
-0.999558, 285, 171, 300, 186
-0.999559, 277, 97, 292, 224
-0.99956, 127, 181, 142, 196
-0.99956, 301, 97, 316, 224
-0.99956, 381, 231, 396, 246
-0.999561, 433, 241, 464, 304
-0.999561, 209, 133, 224, 148
-0.999561, 395, 165, 410, 180
-0.999564, 139, 159, 154, 174
-0.999564, 297, 163, 312, 178
-0.999564, 405, 157, 420, 172
-0.999564, 171, 175, 186, 190
-0.999566, 361, 165, 376, 180
-0.999568, 401, 251, 416, 266
-0.999568, 319, 179, 334, 194
-0.999569, 383, 165, 398, 180
-0.999569, 331, 193, 346, 320
-0.99957, 95, 157, 110, 172
-0.99957, 217, 139, 232, 154
-0.999571, 177, 155, 192, 170
-0.999571, 259, 163, 274, 178
-0.999571, 133, 159, 148, 174
-0.999572, 317, 163, 332, 178
-0.999572, 199, 153, 214, 168
-0.999572, 355, 151, 370, 166
-0.999573, 235, 133, 250, 148
-0.999573, 17, 125, 144, 156
-0.999573, 377, 177, 392, 192
-0.999573, 411, 97, 426, 224
-0.999573, 273, 163, 288, 178
-0.999574, 379, 157, 394, 172
-0.999574, 287, 213, 302, 228
-0.999574, 463, 167, 478, 182
-0.999576, 243, 177, 258, 304
-0.999579, 155, 173, 170, 188
-0.999581, 147, 187, 162, 202
-0.999582, 373, 165, 388, 180
-0.999585, 355, 163, 370, 178
-0.999586, 151, 161, 166, 176
-0.999586, 95, 203, 110, 218
-0.999586, 171, 159, 186, 174
-0.999586, 289, 193, 304, 320
-0.999586, 465, 193, 480, 320
-0.999586, 333, 157, 348, 172
-0.999587, 401, 165, 416, 180
-0.999588, 355, 177, 370, 192
-0.999588, 261, 169, 276, 184
-0.999589, 309, 173, 324, 188
-0.999592, 131, 187, 146, 202
-0.999592, 285, 207, 300, 222
-0.999593, 105, 201, 120, 216
-0.999594, 253, 175, 268, 190
-0.999596, 291, 173, 306, 188
-0.999596, 207, 147, 222, 162
-0.999597, 323, 161, 338, 176
-0.9996, 419, 161, 434, 288
-0.999603, 133, 97, 148, 224
-0.999604, 123, 197, 138, 212
-0.999607, 115, 203, 130, 218
-0.999607, 243, 143, 258, 158
-0.999608, 137, 185, 152, 200
-0.999608, 169, 169, 184, 184
-0.999609, 189, 151, 204, 166
-0.999609, 365, 181, 380, 196
-0.99961, 453, 177, 468, 304
-0.99961, 387, 173, 402, 188
-0.999612, 245, 97, 260, 224
-0.999613, 103, 193, 118, 320
-0.999613, 347, 167, 362, 182
-0.999614, 289, 153, 304, 168
-0.999615, 341, 193, 356, 320
-0.999616, 403, 97, 418, 224
-0.999616, 175, 169, 190, 184
-0.999616, 301, 157, 316, 172
-0.999618, 341, 165, 356, 180
-0.999619, 407, 167, 422, 182
-0.999619, 413, 177, 428, 192
-0.999622, 119, 145, 134, 272
-0.999624, 109, 193, 124, 320
-0.999628, 399, 209, 414, 333
-0.999628, 277, 157, 292, 172
-0.99963, 165, 177, 180, 192
-0.999631, 353, 157, 368, 172
-0.999631, 145, 181, 160, 196
-0.999631, 115, 193, 130, 320
-0.999637, 325, 173, 340, 188
-0.999637, 395, 97, 410, 224
-0.999638, 163, 161, 178, 176
-0.999638, 267, 171, 282, 186
-0.999638, 305, 129, 432, 160
-0.999639, 277, 175, 292, 190
-0.999639, 301, 177, 316, 192
-0.99964, 163, 171, 178, 186
-0.99964, 265, 153, 280, 168
-0.999641, 209, 81, 224, 208
-0.999642, 365, 97, 380, 224
-0.999642, 339, 97, 354, 224
-0.999643, 339, 175, 354, 190
-0.999646, 93, 193, 108, 320
-0.999648, 225, 109, 352, 140
-0.999649, 295, 155, 310, 170
-0.99965, 333, 175, 348, 190
-0.999651, 249, 147, 264, 162
-0.999652, 281, 165, 296, 180
-0.999653, 347, 161, 362, 176
-0.999653, 259, 153, 274, 168
-0.999654, 311, 155, 326, 170
-0.999654, 133, 179, 148, 194
-0.999654, 209, 245, 336, 276
-0.999657, 409, 193, 424, 320
-0.999658, 155, 181, 170, 196
-0.999658, 129, 261, 256, 292
-0.999664, 295, 113, 310, 240
-0.999665, 365, 155, 380, 170
-0.999666, 447, 177, 462, 304
-0.999667, 399, 157, 414, 172
-0.999668, 49, 293, 176, 324
-0.999669, 345, 155, 360, 170
-0.999674, 267, 161, 282, 176
-0.999676, 373, 193, 388, 320
-0.999676, 141, 175, 156, 190
-0.999679, 353, 133, 480, 164
-0.999684, 13, 177, 28, 304
-0.999685, 105, 65, 136, 320
-0.999686, 471, 193, 486, 320
-0.999687, 271, 153, 286, 168
-0.999688, 431, 177, 446, 304
-0.999689, 283, 153, 298, 168
-0.999689, 221, 119, 236, 134
-0.99969, 185, 209, 216, 333
-0.999693, 145, 245, 272, 276
-0.999694, 411, 161, 426, 176
-0.999698, 323, 155, 338, 170
-0.9997, 109, 113, 124, 240
-0.9997, 339, 155, 354, 170
-0.999707, 333, 167, 348, 182
-0.999707, 387, 157, 402, 172
-0.999712, 413, 65, 444, 320
-0.999712, 441, 177, 456, 304
-0.999719, 1, 177, 16, 304
-0.999719, 291, 163, 306, 178
-0.999729, 15, 113, 30, 240
-0.99973, 363, 193, 378, 320
-0.99973, 387, 193, 402, 320
-0.999731, 317, 193, 332, 320
-0.999732, 383, 97, 398, 224
-0.999733, 23, 145, 38, 272
-0.999735, 393, 193, 408, 320
-0.99974, 295, 209, 310, 333
-0.999741, 349, 209, 364, 333
-0.999741, 97, 293, 224, 324
-0.999742, 47, 145, 62, 272
-0.999742, 237, 193, 252, 320
-0.999756, 87, 193, 102, 320
-0.999758, 227, 65, 242, 192
-0.99976, 255, 81, 270, 208
-0.999761, 37, 145, 52, 272
-0.999761, 389, 97, 404, 224
-0.999762, 477, 193, 492, 320
-0.999763, 239, 81, 254, 208
-0.999765, 3, 113, 18, 240
-0.999766, 101, 129, 116, 256
-0.999766, 359, 97, 374, 224
-0.999766, 221, 65, 236, 192
-0.999767, 73, 193, 88, 320
-0.999768, 425, 177, 440, 304
-0.999771, 9, 113, 24, 240
-0.999771, 215, 65, 230, 192
-0.999773, 1, 297, 128, 328
-0.999776, 121, 65, 152, 320
-0.999776, 273, 277, 400, 308
-0.999779, 301, 209, 316, 333
-0.999786, 37, 193, 52, 320
-0.999786, 131, 193, 146, 320
-0.999791, 7, 161, 22, 288
-0.999795, 193, 277, 320, 308
-0.999798, 63, 193, 78, 320
-0.999798, 429, 129, 444, 256
-0.999798, 283, 193, 298, 320
-0.999799, 311, 209, 326, 333
-0.999804, 269, 209, 284, 333
-0.999814, 97, 245, 224, 276
-0.999824, 241, 289, 368, 320
-0.999871, 81, 277, 208, 308
-0.999871, 397, 257, 428, 320
-0.999884, 193, 289, 320, 320
-0.999886, 421, 257, 452, 320
-0.999887, 97, 229, 224, 260
-0.999893, 93, 65, 124, 320
-0.999903, 353, 273, 480, 304
-0.999903, 129, 277, 256, 308
-0.999905, 309, 265, 340, 328
-0.999921, 217, 241, 248, 304
-0.999924, 113, 105, 240, 136
-0.999932, 241, 121, 368, 152
-0.999933, 97, 117, 224, 148
-0.999945, 129, 273, 192, 333
-0.999988, 65, 65, 96, 320
-1.00004, 33, 97, 160, 160
-1.00004, 113, 81, 240, 144
-1.00006, 29, 97, 60, 224
-1.00006, 369, 289, 496, 320
-1.00006, 37, 65, 68, 320
-1.00008, 321, 285, 448, 316
-1.00008, 9, 65, 40, 320
-1.00008, 145, 293, 272, 324
-1.00011, 77, 65, 108, 320
-1.00012, 49, 65, 80, 320
-1.00014, 89, 153, 120, 216
-1.00015, 1, 285, 128, 316
-1.00018, 13, 121, 44, 184
-1.00019, 425, 65, 456, 320
-1.0002, 65, 225, 128, 288
-1.00022, 145, 233, 208, 296
-1.00023, 25, 65, 56, 320
-1.00026, 193, 301, 320, 332
-1.00027, 33, 269, 160, 300
-1.00028, 269, 265, 300, 328
-1.00028, 1, 113, 128, 144
-1.00028, 417, 193, 448, 256
-1.00029, 321, 297, 448, 328
-1.00029, 409, 81, 440, 208
-1.00033, 13, 97, 44, 224
-1.00034, 341, 257, 372, 320
-1.00035, 429, 145, 460, 208
-1.00036, 1, 265, 500, 328
-1.00037, 49, 113, 176, 144
-1.00041, 297, 265, 328, 328
-1.00042, 241, 301, 368, 332
-1.00046, 369, 121, 496, 152
-1.00047, 173, 169, 204, 232
-1.00051, 369, 301, 496, 332
-1.00054, 1, 273, 64, 333
-1.00054, 161, 97, 288, 160
-1.00056, 457, 145, 488, 272
-1.00056, 461, 65, 492, 320
-1.00057, 281, 265, 312, 328
-1.00059, 289, 117, 416, 148
-1.00061, 29, 121, 60, 184
-1.00061, 41, 121, 72, 184
-1.00063, 69, 121, 100, 184
-1.00063, 341, 233, 372, 296
-1.00065, 429, 129, 460, 256
-1.00074, 193, 97, 320, 128
-1.00074, 441, 65, 472, 320
-1.00075, 153, 209, 216, 272
-1.00085, 1, 81, 256, 144
-1.00098, 145, 93, 272, 124
-1.001, 273, 33, 400, 64
-1.001, 209, 49, 336, 80
-1.00103, 369, 13, 496, 44
-1.00103, 193, 21, 320, 52
-1.00103, 225, 33, 352, 64
-1.00103, 273, 49, 400, 80
-1.00103, 369, 73, 496, 104
-1.00103, 337, 1, 464, 32
-1.00103, 305, 21, 432, 52
-1.00103, 369, 25, 496, 56
-1.00103, 177, 37, 304, 68
-1.00103, 337, 61, 464, 92
-1.00103, 241, 65, 368, 96
-1.00103, 289, 65, 416, 96
-1.00106, 241, 5, 368, 36
-1.00106, 193, 9, 320, 40
-1.00106, 289, 9, 416, 40
-1.00106, 241, 17, 368, 48
-1.00106, 353, 49, 480, 80
-1.00106, 193, 61, 320, 92
-1.00107, 321, 89, 448, 120
-1.00107, 33, 93, 160, 124
-1.00107, 81, 93, 208, 124
-1.00107, 369, 93, 496, 124
-1.00107, 273, 101, 400, 132
-1.00107, 321, 101, 448, 132
-1.00107, 369, 105, 496, 136
-1.00111, 433, 65, 496, 320
-1.00118, 409, 81, 472, 208
-1.00125, 225, 81, 352, 144
-1.0014, 225, 73, 480, 136
-1.00165, 281, 105, 344, 168
-1.0017, 97, 81, 352, 144
-1.00176, 257, 17, 500, 80
-1.00187, 193, 49, 448, 112
-1.00187, 441, 129, 472, 256
-1.00188, 1, 105, 500, 168
-1.00191, 41, 97, 72, 224
-1.00193, 89, 241, 152, 304
-1.00193, 105, 273, 168, 333
-1.00193, 401, 273, 464, 333
-1.00198, 161, 1, 416, 64
-1.00201, 97, 57, 352, 120
-1.00205, 1, 9, 256, 72
-1.0021, 161, 25, 416, 88
-1.00212, 1, 49, 256, 112
-1.00216, 49, 97, 112, 224
-1.00235, 1, 81, 64, 208
-1.0024, 177, 65, 304, 128
-1.00241, 321, 105, 384, 168
-1.00241, 17, 97, 80, 160
-1.00251, 425, 1, 488, 333
-1.00251, 397, 65, 428, 192
-1.00253, 53, 97, 84, 224
-1.00259, 369, 25, 496, 88
-1.00259, 321, 33, 448, 96
-1.00262, 321, 57, 448, 120
-1.00262, 121, 217, 184, 280
-1.00267, 129, 57, 256, 120
-1.00271, 1, 81, 500, 144
-1.00274, 321, 9, 448, 72
-1.00274, 369, 65, 496, 128
-1.0028, 169, 177, 232, 240
-1.00288, 369, 1, 496, 64
-1.00291, 225, 1, 352, 64
-1.00291, 33, 9, 160, 72
-1.00291, 81, 9, 208, 72
-1.00291, 129, 9, 256, 72
-1.00291, 177, 17, 304, 80
-1.00291, 273, 17, 400, 80
-1.00291, 225, 25, 352, 88
-1.00291, 33, 33, 160, 96
-1.00291, 81, 33, 208, 96
-1.00291, 129, 33, 256, 96
-1.00291, 177, 41, 304, 104
-1.00291, 273, 41, 400, 104
-1.00291, 225, 49, 352, 112
-1.00291, 33, 57, 160, 120
-1.00291, 81, 57, 208, 120
-1.00291, 273, 65, 400, 128
-1.00294, 369, 105, 496, 168
-1.0031, 97, 105, 160, 168
-1.00313, 69, 97, 100, 224
-1.00317, 141, 65, 172, 192
-1.00326, 345, 65, 376, 192
-1.00328, 1, 57, 500, 120
-1.00333, 1, 1, 500, 64
-1.00333, 1, 33, 500, 96
-1.00334, 321, 81, 448, 144
-1.00334, 97, 49, 352, 176
-1.00343, 337, 273, 400, 333
-1.00367, 153, 65, 184, 192
-1.00372, 141, 209, 172, 333
-1.00384, 49, 97, 112, 160
-1.00384, 73, 97, 136, 160
-1.00387, 213, 161, 244, 288
-1.00387, 1, 65, 128, 192
-1.00387, 93, 97, 124, 224
-1.00424, 309, 65, 340, 192
-1.00447, 421, 81, 452, 208
-1.0046, 469, 129, 500, 256
-1.00473, 81, 65, 112, 192
-1.00476, 1, 65, 32, 192
-1.00478, 433, 121, 496, 184
-1.00515, 121, 65, 152, 192
-1.00516, 125, 209, 156, 333
-1.00573, 145, 89, 208, 152
-1.00575, 121, 89, 184, 152
-1.00595, 105, 81, 136, 208
-1.00595, 185, 49, 216, 176
-1.00611, 209, 81, 272, 144
-1.00614, 457, 97, 488, 224
-1.00625, 97, 65, 160, 192
-1.00639, 153, 49, 216, 176
-1.00648, 377, 105, 440, 168
-1.00655, 169, 49, 200, 176
-1.00688, 233, 33, 264, 160
-1.00713, 41, 49, 72, 176
-1.00728, 61, 49, 92, 176
-1.00728, 253, 49, 284, 176
-1.00734, 13, 49, 44, 176
-1.00736, 353, 97, 416, 160
-1.0074, 433, 81, 464, 208
-1.00741, 225, 33, 288, 160
-1.00745, 93, 49, 124, 176
-1.00747, 413, 33, 444, 160
-1.00748, 257, 89, 320, 152
-1.00755, 321, 49, 448, 176
-1.00766, 29, 49, 60, 176
-1.00776, 389, 1, 420, 128
-1.00782, 433, 97, 496, 224
-1.00787, 97, 81, 160, 144
-1.00788, 105, 33, 136, 160
-1.00791, 257, 1, 500, 128
-1.00794, 185, 65, 248, 128
-1.0087, 73, 65, 136, 192
-1.00882, 297, 33, 328, 160
-1.00887, 217, 57, 280, 120
-1.00888, 145, 33, 272, 160
-1.00895, 445, 81, 476, 208
-1.00903, 177, 1, 240, 64
-1.00903, 201, 1, 264, 64
-1.00903, 297, 1, 360, 64
-1.00903, 321, 1, 384, 64
-1.00903, 369, 17, 432, 80
-1.00903, 417, 17, 480, 80
-1.00903, 385, 41, 448, 104
-1.00903, 409, 41, 472, 104
-1.00903, 433, 65, 496, 128
-1.0091, 97, 1, 352, 128
-1.0092, 433, 41, 496, 104
-1.00924, 417, 97, 480, 160
-1.00924, 129, 65, 192, 128
-1.00924, 153, 65, 216, 128
-1.00929, 357, 33, 388, 160
-1.00929, 409, 73, 472, 136
-1.0094, 325, 33, 356, 160
-1.00941, 205, 17, 236, 144
-1.00943, 1, 17, 32, 144
-1.00943, 77, 17, 108, 144
-1.00946, 153, 17, 184, 144
-1.00951, 425, 33, 456, 160
-1.00952, 177, 33, 240, 160
-1.00952, 129, 49, 192, 176
-1.00953, 309, 1, 340, 128
-1.00953, 469, 17, 500, 144
-1.00954, 217, 1, 248, 128
-1.00956, 457, 17, 488, 144
-1.00991, 81, 17, 208, 144
-1.01002, 33, 49, 96, 176
-1.01002, 257, 1, 384, 128
-1.01011, 1, 17, 128, 144
-1.01038, 321, 1, 448, 128
-1.01038, 369, 1, 496, 128
-1.01044, 209, 1, 336, 128
-1.0114, 249, 49, 312, 176
-1.01163, 377, 49, 440, 176
-1.01178, 9, 33, 72, 160
-1.01208, 257, 49, 384, 176
-1.01262, 1, 17, 256, 144
-1.01285, 369, 49, 496, 176
-1.01371, 425, 1, 488, 128
-1.014, 385, 1, 448, 128
-1.01402, 65, 17, 128, 144
-1.01442, 249, 1, 312, 128
-1.01444, 321, 33, 384, 160
-1.01473, 105, 17, 168, 144
-1.01478, 273, 1, 336, 128
-1.01478, 297, 1, 360, 128
-1.01478, 361, 1, 424, 128
-1.01489, 201, 17, 264, 144
-1.01493, 433, 49, 496, 176
-1.01592, 281, 49, 344, 176
-1.01604, 41, 1, 104, 128
-1.01659, 353, 49, 416, 176
-1.01688, 145, 1, 208, 128
