1650
-0.391514, 1, 1, 500, 216
-0.632614, 129, 1, 384, 216
-0.754136, 257, 1, 500, 216
-0.75577, 33, 1, 288, 216
-0.864064, 129, 1, 256, 216
-0.869298, 1, 1, 500, 128
-0.869604, 81, 1, 208, 216
-0.874412, 289, 1, 416, 216
-0.879176, 177, 1, 304, 216
-0.888611, 241, 1, 368, 216
-0.89596, 353, 1, 480, 216
-0.903878, 1, 97, 500, 216
-0.914117, 33, 1, 160, 216
-0.915376, 1, 49, 500, 176
-0.919652, 193, 97, 448, 216
-0.924586, 145, 65, 208, 192
-0.92473, 129, 49, 384, 176
-0.927635, 65, 1, 320, 128
-0.931489, 177, 1, 240, 128
-0.933983, 145, 65, 272, 192
-0.936584, 33, 97, 288, 216
-0.938361, 129, 1, 256, 128
-0.938452, 81, 33, 208, 160
-0.941086, 193, 49, 320, 176
-0.941185, 289, 97, 416, 216
-0.942572, 257, 49, 500, 176
-0.944652, 145, 17, 208, 144
-0.945548, 97, 81, 224, 208
-0.946379, 145, 65, 208, 128
-0.948441, 297, 97, 360, 216
-0.950262, 225, 1, 480, 128
-0.95169, 105, 49, 168, 176
-0.952483, 105, 1, 168, 128
-0.95288, 321, 97, 384, 216
-0.953589, 337, 49, 464, 176
-0.953944, 153, 89, 216, 152
-0.954707, 297, 17, 360, 144
-0.955077, 169, 65, 232, 192
-0.955154, 177, 1, 304, 128
-0.955557, 273, 1, 400, 128
-0.955769, 1, 49, 256, 176
-0.955855, 225, 97, 352, 216
-0.956279, 193, 97, 256, 216
-0.956703, 185, 121, 248, 184
-0.957363, 273, 97, 336, 216
-0.958507, 217, 49, 280, 176
-0.959029, 273, 49, 400, 176
-0.960257, 185, 81, 248, 144
-0.960587, 97, 97, 160, 216
-0.961129, 385, 49, 448, 176
-0.961424, 33, 1, 160, 128
-0.961779, 289, 105, 352, 168
-0.96347, 105, 65, 168, 128
-0.964051, 129, 41, 192, 104
-0.964254, 361, 49, 424, 176
-0.964898, 1, 65, 128, 192
-0.965346, 337, 49, 400, 176
-0.965616, 321, 1, 448, 128
-0.965875, 177, 1, 240, 64
-0.965915, 153, 113, 216, 176
-0.967658, 33, 33, 96, 160
-0.967718, 105, 41, 168, 104
-0.968204, 193, 49, 256, 176
-0.968262, 297, 1, 360, 216
-0.968323, 73, 1, 136, 128
-0.968453, 73, 33, 136, 96
-0.968552, 145, 1, 208, 216
-0.968617, 129, 89, 192, 152
-0.968971, 257, 49, 320, 176
-0.969324, 1, 1, 64, 128
-0.969411, 185, 57, 248, 120
-0.969716, 41, 33, 104, 96
-0.970299, 297, 73, 360, 136
-0.970516, 121, 97, 184, 216
-0.970677, 313, 105, 376, 168
-0.971075, 105, 17, 168, 80
-0.971134, 113, 113, 176, 176
-0.972344, 217, 97, 280, 216
-0.972377, 297, 17, 360, 80
-0.972475, 81, 49, 144, 176
-0.972604, 105, 1, 168, 216
-0.972607, 173, 65, 204, 192
-0.972773, 217, 105, 280, 168
-0.973107, 401, 97, 464, 216
-0.973141, 173, 65, 204, 128
-0.973527, 81, 57, 144, 120
-0.973655, 177, 1, 240, 216
-0.973752, 81, 57, 208, 120
-0.974332, 273, 105, 400, 168
-0.974335, 49, 81, 176, 208
-0.974663, 129, 113, 256, 176
-0.974857, 393, 1, 456, 128
-0.975087, 105, 89, 168, 152
-0.975354, 53, 33, 84, 96
-0.975394, 337, 97, 400, 160
-0.975676, 345, 97, 408, 216
-0.976189, 401, 121, 464, 184
-0.976196, 145, 65, 272, 128
-0.97657, 385, 49, 448, 112
-0.976585, 337, 97, 464, 216
-0.976662, 377, 97, 440, 216
-0.976791, 65, 9, 128, 72
-0.977008, 129, 137, 192, 200
-0.977361, 97, 137, 160, 200
-0.977441, 301, 97, 332, 216
-0.977456, 129, 25, 256, 88
-0.977497, 145, 17, 208, 80
-0.977575, 169, 17, 200, 144
-0.97764, 81, 81, 208, 144
-0.977801, 209, 81, 336, 144
-0.978258, 385, 1, 448, 216
-0.978282, 393, 17, 456, 80
-0.978468, 161, 57, 192, 120
-0.978542, 217, 49, 280, 112
-0.978728, 49, 57, 112, 120
-0.97884, 129, 89, 256, 152
-0.978931, 81, 1, 208, 64
-0.979114, 409, 145, 472, 208
-0.979121, 73, 97, 136, 216
-0.979123, 65, 33, 96, 96
-0.979132, 185, 25, 248, 88
-0.979247, 205, 121, 236, 184
-0.979265, 149, 65, 180, 192
-0.979447, 313, 97, 344, 216
-0.979455, 297, 105, 328, 168
-0.979499, 81, 33, 208, 96
-0.979503, 33, 33, 160, 96
-0.97979, 177, 97, 208, 160
-0.979831, 257, 33, 320, 96
-0.979851, 157, 1, 188, 128
-0.98002, 329, 97, 360, 216
-0.980052, 113, 49, 144, 176
-0.980265, 205, 97, 236, 216
-0.980292, 153, 137, 216, 200
-0.980427, 189, 121, 220, 184
-0.980528, 149, 65, 180, 128
-0.980606, 1, 41, 64, 104
-0.980666, 361, 49, 424, 112
-0.980935, 265, 105, 328, 168
-0.980968, 153, 41, 216, 104
-0.981098, 209, 57, 336, 120
-0.981196, 209, 33, 336, 96
-0.981327, 273, 25, 400, 88
-0.981463, 313, 105, 344, 168
-0.981495, 193, 1, 320, 64
-0.981496, 337, 73, 400, 136
-0.981508, 81, 1, 144, 216
-0.981618, 205, 1, 236, 64
-0.981669, 121, 97, 152, 216
-0.981672, 113, 57, 144, 120
-0.981742, 205, 1, 236, 128
-0.981796, 297, 49, 360, 112
-0.981847, 185, 81, 216, 208
-0.981945, 273, 1, 336, 216
-0.982103, 133, 97, 164, 216
-0.982124, 129, 1, 256, 64
-0.982163, 185, 1, 216, 128
-0.982304, 217, 121, 248, 184
-0.982326, 201, 1, 264, 128
-0.982338, 241, 121, 304, 184
-0.982343, 1, 17, 64, 80
-0.982509, 201, 1, 264, 216
-0.982518, 161, 65, 192, 192
-0.982845, 81, 137, 208, 200
-0.982908, 81, 105, 208, 168
-0.982991, 257, 1, 320, 128
-0.982992, 129, 145, 256, 208
-0.983132, 57, 17, 88, 144
-0.983172, 177, 113, 304, 176
-0.983256, 289, 81, 416, 144
-0.983295, 209, 137, 336, 200
-0.983342, 137, 49, 168, 176
-0.98364, 25, 57, 88, 120
-0.983747, 217, 97, 248, 216
-0.983816, 217, 129, 280, 192
-0.983835, 33, 153, 160, 216
-0.983859, 65, 153, 128, 216
-0.983862, 321, 1, 384, 216
-0.983875, 9, 49, 72, 176
-0.983885, 429, 113, 460, 176
-0.983907, 133, 73, 164, 136
-0.984144, 133, 1, 164, 128
-0.984231, 1, 73, 128, 136
-0.984249, 345, 1, 408, 128
-0.984406, 125, 49, 156, 176
-0.984423, 1, 97, 64, 216
-0.984568, 337, 49, 464, 112
-0.984599, 153, 33, 184, 96
-0.984623, 257, 65, 320, 128
-0.984722, 377, 121, 440, 184
-0.984776, 57, 49, 120, 176
-0.984966, 377, 97, 440, 160
-0.984976, 273, 57, 400, 120
-0.985237, 89, 113, 152, 176
-0.985341, 189, 81, 220, 144
-0.985358, 41, 145, 104, 208
-0.985443, 177, 145, 240, 208
-0.985448, 217, 73, 280, 136
-0.985489, 321, 17, 448, 80
-0.985497, 325, 105, 356, 168
-0.985534, 165, 89, 196, 152
-0.98554, 341, 97, 372, 216
-0.985563, 225, 105, 352, 168
-0.985683, 217, 25, 280, 88
-0.985692, 33, 9, 160, 72
-0.985747, 133, 97, 164, 160
-0.985866, 337, 105, 368, 168
-0.985919, 145, 89, 176, 152
-0.985992, 137, 49, 168, 112
-0.985998, 225, 1, 352, 128
-0.986069, 57, 57, 88, 120
-0.986081, 289, 97, 320, 216
-0.986101, 345, 25, 408, 88
-0.98616, 321, 105, 448, 168
-0.986536, 9, 153, 72, 216
-0.986561, 257, 145, 320, 208
-0.986729, 49, 1, 112, 216
-0.986773, 225, 97, 256, 160
-0.986838, 145, 145, 176, 208
-0.986958, 133, 121, 164, 184
-0.986971, 385, 49, 416, 176
-0.986982, 249, 97, 312, 216
-0.986992, 417, 17, 480, 144
-0.987052, 369, 1, 496, 128
-0.987133, 329, 17, 360, 144
-0.987275, 429, 97, 460, 216
-0.987304, 69, 57, 100, 120
-0.987318, 425, 97, 488, 216
-0.987332, 1, 129, 128, 192
-0.987739, 145, 69, 208, 100
-0.987802, 393, 49, 424, 112
-0.987855, 345, 1, 408, 216
-0.987996, 289, 129, 352, 192
-0.988001, 113, 1, 144, 128
-0.988014, 305, 129, 432, 192
-0.988062, 405, 1, 436, 128
-0.988118, 145, 113, 176, 176
-0.988252, 353, 49, 384, 176
-0.988272, 369, 1, 432, 128
-0.988334, 1, 105, 128, 168
-0.988361, 341, 49, 372, 176
-0.988541, 37, 33, 68, 96
-0.988569, 301, 17, 332, 144
-0.988587, 341, 81, 372, 144
-0.988796, 217, 1, 280, 64
-0.988847, 353, 129, 480, 192
-0.988862, 205, 97, 236, 160
-0.98893, 369, 25, 432, 88
-0.988938, 225, 1, 288, 216
-0.988974, 249, 1, 312, 216
-0.989041, 193, 1, 224, 64
-0.98911, 409, 1, 472, 216
-0.989301, 397, 49, 428, 176
-0.98933, 337, 81, 464, 144
-0.989388, 417, 33, 480, 96
-0.989444, 413, 49, 444, 176
-0.989475, 125, 145, 156, 208
-0.989499, 145, 81, 208, 112
-0.989502, 385, 145, 448, 208
-0.989539, 9, 129, 72, 192
-0.989586, 185, 85, 248, 116
-0.989629, 145, 93, 208, 124
-0.989636, 365, 97, 396, 216
-0.989639, 301, 17, 332, 80
-0.98964, 353, 153, 480, 216
-0.989653, 109, 97, 140, 216
-0.989691, 121, 89, 152, 152
-0.989718, 217, 153, 280, 216
-0.989856, 129, 57, 192, 88
-0.989908, 185, 97, 248, 128
-0.989917, 301, 81, 332, 144
-0.990028, 105, 69, 168, 100
-0.990068, 185, 121, 248, 152
-0.990121, 173, 17, 204, 80
-0.99013, 365, 105, 396, 168
-0.990138, 25, 1, 88, 216
-0.990141, 153, 109, 216, 140
-0.990207, 177, 121, 208, 184
-0.990208, 225, 49, 256, 176
-0.990233, 185, 73, 248, 104
-0.990241, 45, 17, 76, 144
-0.990249, 361, 73, 424, 136
-0.99027, 317, 17, 348, 144
-0.990277, 65, 153, 96, 216
-0.990438, 1, 89, 64, 152
-0.990468, 337, 49, 400, 112
-0.99058, 329, 81, 360, 144
-0.990592, 105, 57, 168, 88
-0.99063, 185, 109, 248, 140
-0.990643, 297, 105, 360, 136
-0.990686, 185, 61, 248, 92
-0.990741, 273, 1, 400, 64
-0.990777, 285, 49, 316, 176
-0.990832, 209, 49, 240, 176
-0.99087, 41, 37, 104, 68
-0.990895, 177, 9, 240, 40
-0.990921, 105, 81, 168, 112
-0.990931, 81, 57, 144, 88
-0.990953, 129, 117, 192, 148
-0.990988, 65, 29, 128, 60
-0.99104, 353, 97, 384, 216
-0.991053, 65, 105, 128, 168
-0.991055, 369, 25, 496, 88
-0.991072, 105, 45, 168, 76
-0.991078, 433, 121, 496, 184
-0.991092, 41, 61, 104, 92
-0.991112, 289, 25, 352, 56
-0.991131, 401, 97, 464, 160
-0.991146, 65, 129, 128, 192
-0.991176, 209, 125, 272, 156
-0.991185, 429, 137, 460, 200
-0.991187, 41, 49, 104, 80
-0.991199, 105, 33, 168, 64
-0.991247, 45, 57, 76, 120
-0.99126, 57, 185, 120, 216
-0.991278, 97, 173, 160, 204
-0.991285, 297, 85, 360, 116
-0.991297, 161, 121, 224, 152
-0.9913, 129, 105, 192, 136
-0.991332, 1, 25, 500, 88
-0.991335, 193, 105, 448, 168
-0.991335, 385, 57, 448, 88
-0.991353, 105, 21, 168, 52
-0.991386, 101, 17, 132, 144
-0.991397, 53, 9, 84, 72
-0.991431, 289, 153, 352, 216
-0.991432, 217, 61, 280, 92
-0.991442, 113, 129, 176, 160
-0.991452, 73, 81, 136, 144
-0.99147, 105, 105, 168, 136
-0.991485, 365, 49, 396, 176
-0.991493, 173, 41, 204, 104
-0.991495, 409, 161, 472, 192
-0.991545, 113, 141, 176, 172
-0.99155, 65, 45, 128, 76
-0.991572, 113, 93, 176, 124
-0.991579, 217, 113, 280, 144
-0.991622, 137, 165, 200, 196
-0.991637, 177, 21, 240, 52
-0.991651, 257, 49, 288, 176
-0.991701, 109, 105, 140, 168
-0.991711, 129, 45, 192, 76
-0.991714, 401, 133, 464, 164
-0.991721, 153, 133, 216, 164
-0.991729, 321, 101, 384, 132
-0.991732, 145, 13, 208, 44
-0.991744, 321, 1, 384, 128
-0.991744, 113, 33, 144, 96
-0.991744, 113, 145, 144, 208
-0.991762, 369, 105, 496, 168
-0.991774, 321, 17, 384, 80
-0.991778, 249, 121, 312, 152
-0.991781, 113, 185, 176, 216
-0.991781, 153, 57, 216, 88
-0.991811, 97, 117, 160, 148
-0.99182, 401, 149, 464, 180
-0.991835, 217, 49, 280, 80
-0.991836, 401, 25, 432, 88
-0.991842, 217, 137, 280, 168
-0.991842, 81, 185, 144, 216
-0.991848, 349, 105, 380, 168
-0.991857, 65, 17, 128, 48
-0.991859, 281, 129, 344, 160
-0.991873, 73, 173, 136, 204
-0.991874, 105, 5, 168, 36
-0.991892, 361, 57, 424, 88
-0.991938, 1, 49, 64, 80
-0.991963, 65, 69, 128, 100
-0.991984, 129, 81, 384, 144
-0.991985, 105, 153, 168, 184
-0.99199, 133, 25, 164, 88
-0.992003, 217, 73, 280, 104
-0.992042, 401, 121, 464, 152
-0.992086, 285, 97, 316, 160
-0.992096, 257, 65, 320, 96
-0.992144, 385, 37, 448, 68
-0.992151, 289, 141, 352, 172
-0.992151, 69, 33, 100, 160
-0.992152, 145, 145, 208, 176
-0.99216, 257, 53, 320, 84
-0.992167, 337, 113, 400, 144
-0.992181, 33, 177, 96, 208
-0.992184, 157, 129, 188, 192
-0.992202, 289, 13, 352, 44
-0.99223, 297, 73, 360, 104
-0.992244, 121, 113, 152, 176
-0.992266, 257, 133, 320, 164
-0.992283, 273, 105, 336, 136
-0.992289, 345, 45, 408, 76
-0.992293, 289, 49, 352, 80
-0.992295, 173, 73, 204, 104
-0.992309, 89, 93, 152, 124
-0.992312, 185, 141, 248, 172
-0.992317, 377, 121, 440, 152
-0.992322, 177, 49, 240, 80
-0.992328, 1, 37, 64, 68
-0.992355, 41, 73, 104, 104
-0.992388, 137, 177, 200, 208
-0.992395, 9, 173, 72, 204
-0.992416, 17, 61, 80, 92
-0.992429, 57, 153, 120, 184
-0.992452, 257, 37, 320, 68
-0.992463, 277, 129, 308, 192
-0.992475, 89, 129, 152, 160
-0.992481, 25, 25, 88, 56
-0.992485, 1, 49, 500, 112
-0.992485, 205, 125, 236, 156
-0.992539, 145, 25, 208, 56
-0.99256, 173, 85, 204, 116
-0.992562, 393, 25, 456, 56
-0.992587, 165, 61, 196, 92
-0.992588, 241, 121, 272, 184
-0.992589, 145, 1, 208, 32
-0.99259, 9, 185, 72, 216
-0.992599, 1, 21, 64, 52
-0.992606, 217, 37, 280, 68
-0.99261, 337, 89, 400, 120
-0.992621, 81, 161, 144, 192
-0.992627, 409, 173, 472, 204
-0.992629, 297, 61, 360, 92
-0.992635, 377, 105, 440, 136
-0.992666, 289, 37, 352, 68
-0.992666, 153, 65, 184, 96
-0.992683, 33, 25, 288, 88
-0.992686, 113, 61, 144, 92
-0.992688, 257, 9, 320, 72
-0.99269, 65, 113, 320, 176
-0.992699, 281, 117, 344, 148
-0.992709, 169, 173, 232, 204
-0.992709, 53, 33, 84, 64
-0.992723, 69, 181, 100, 212
-0.992724, 73, 141, 136, 172
-0.992773, 313, 141, 376, 172
-0.992776, 289, 153, 352, 184
-0.992781, 209, 177, 272, 208
-0.992789, 101, 49, 132, 112
-0.992798, 189, 125, 220, 156
-0.992805, 65, 81, 128, 112
-0.992811, 153, 49, 184, 80
-0.992814, 377, 133, 440, 164
-0.992815, 193, 49, 448, 112
-0.992817, 1, 153, 64, 184
-0.99282, 149, 85, 180, 116
-0.992821, 133, 73, 164, 104
-0.992823, 177, 113, 208, 144
-0.992835, 377, 157, 440, 188
-0.992847, 217, 101, 280, 132
-0.992865, 377, 169, 440, 200
-0.992871, 41, 9, 104, 72
-0.992876, 321, 105, 352, 136
-0.992891, 329, 17, 392, 48
-0.992896, 409, 45, 472, 76
-0.992901, 425, 133, 488, 164
-0.992905, 1, 73, 64, 104
-0.99291, 125, 169, 156, 200
-0.992913, 257, 185, 320, 216
-0.99292, 65, 57, 96, 88
-0.992929, 393, 57, 424, 88
-0.992932, 257, 93, 320, 124
-0.992936, 53, 49, 84, 80
-0.992937, 1, 89, 64, 120
-0.992959, 161, 81, 192, 112
-0.992965, 169, 161, 232, 192
-0.992971, 201, 5, 264, 36
-0.992981, 429, 129, 460, 160
-0.992985, 57, 185, 88, 216
-0.992988, 133, 93, 164, 124
-0.992991, 73, 5, 136, 36
-0.992994, 337, 61, 400, 92
-0.992997, 193, 157, 256, 188
-0.992997, 333, 101, 364, 132
-0.993002, 217, 85, 280, 116
-0.993006, 217, 125, 248, 156
-0.993017, 305, 117, 368, 148
-0.993049, 165, 97, 196, 128
-0.993052, 137, 173, 168, 204
-0.993052, 137, 61, 168, 92
-0.993057, 133, 105, 164, 136
-0.993064, 225, 1, 288, 128
-0.993082, 145, 113, 176, 144
-0.993083, 317, 81, 348, 144
-0.993102, 185, 9, 216, 40
-0.993103, 65, 41, 96, 72
-0.993107, 145, 97, 176, 128
-0.993112, 205, 5, 236, 36
-0.993123, 145, 161, 176, 192
-0.993123, 265, 125, 296, 156
-0.993125, 133, 117, 164, 148
-0.993126, 133, 49, 164, 80
-0.993136, 145, 125, 176, 156
-0.993147, 189, 109, 220, 140
-0.993147, 309, 109, 340, 140
-0.993157, 417, 153, 448, 184
-0.993174, 185, 89, 216, 120
-0.993179, 133, 129, 164, 160
-0.993188, 77, 61, 108, 92
-0.993189, 177, 125, 208, 156
-0.99319, 105, 173, 136, 204
-0.9932, 205, 113, 236, 144
-0.993212, 53, 61, 84, 92
-0.993223, 145, 137, 176, 168
-0.993242, 225, 113, 256, 144
-0.993246, 145, 149, 176, 180
-0.993247, 41, 45, 72, 76
-0.993247, 429, 117, 460, 148
-0.99325, 149, 173, 180, 204
-0.993254, 177, 61, 208, 92
-0.993254, 113, 73, 144, 104
-0.993257, 405, 57, 436, 88
-0.99326, 297, 105, 328, 136
-0.993263, 429, 141, 460, 172
-0.993265, 157, 133, 188, 164
-0.99327, 413, 137, 444, 200
-0.993272, 173, 9, 204, 40
-0.993272, 125, 61, 156, 92
-0.993273, 381, 57, 412, 88
-0.993277, 109, 185, 140, 216
-0.993282, 113, 97, 144, 128
-0.993288, 397, 45, 428, 76
-0.993298, 241, 129, 272, 160
-0.993301, 113, 85, 144, 116
-0.993315, 89, 57, 120, 88
-0.993317, 109, 133, 140, 164
-0.993317, 185, 73, 216, 104
-0.993324, 121, 109, 152, 140
-0.993326, 153, 37, 184, 68
-0.99333, 205, 17, 236, 48
-0.993335, 77, 49, 108, 80
-0.993345, 129, 141, 160, 172
-0.993357, 277, 125, 308, 156
-0.993359, 129, 185, 160, 216
-0.993362, 253, 121, 284, 152
-0.993366, 177, 101, 208, 132
-0.993371, 409, 141, 440, 172
-0.993376, 345, 97, 376, 128
-0.993377, 225, 137, 256, 168
-0.993379, 121, 129, 152, 160
-0.993384, 301, 93, 332, 124
-0.993385, 41, 57, 72, 88
-0.993385, 369, 113, 400, 144
-0.993386, 73, 73, 104, 104
-0.993386, 113, 49, 144, 80
-0.993405, 377, 45, 408, 76
-0.993406, 341, 113, 372, 144
-0.99341, 141, 185, 172, 216
-0.99341, 85, 185, 116, 216
-0.993416, 313, 129, 376, 192
-0.993417, 161, 109, 192, 140
-0.993425, 429, 153, 460, 184
-0.993427, 109, 117, 140, 148
-0.993428, 301, 21, 332, 52
-0.99343, 93, 45, 124, 76
-0.99344, 121, 153, 152, 184
-0.993443, 401, 169, 432, 200
-0.993445, 341, 1, 372, 128
-0.993457, 289, 133, 320, 164
-0.993464, 257, 185, 288, 216
-0.993464, 321, 141, 352, 172
-0.993465, 161, 145, 192, 176
-0.993465, 157, 161, 188, 192
-0.993466, 297, 129, 328, 192
-0.993472, 53, 21, 84, 52
-0.993472, 169, 21, 200, 52
-0.993477, 341, 17, 372, 48
-0.993477, 353, 113, 384, 144
-0.993478, 41, 33, 72, 64
-0.993482, 65, 29, 96, 60
-0.993484, 153, 21, 184, 52
-0.993487, 309, 129, 340, 160
-0.993494, 289, 121, 320, 152
-0.993498, 225, 61, 256, 92
-0.993501, 101, 57, 132, 88
-0.993503, 441, 161, 472, 192
-0.993505, 425, 9, 488, 72
-0.993506, 73, 169, 104, 200
-0.993513, 277, 141, 308, 172
-0.993519, 301, 145, 332, 176
-0.993519, 257, 53, 288, 84
-0.993519, 321, 25, 352, 56
-0.993527, 89, 173, 120, 204
-0.993532, 229, 125, 260, 156
-0.993537, 245, 57, 276, 88
-0.993538, 425, 45, 456, 76
-0.993539, 109, 149, 140, 180
-0.993542, 173, 49, 204, 80
-0.993545, 45, 185, 76, 216
-0.993546, 69, 153, 100, 184
-0.993601, 197, 49, 228, 176
-0.993689, 145, 1, 176, 128
-0.993706, 33, 65, 288, 128
-0.99376, 193, 25, 448, 88
-0.993799, 81, 61, 208, 92
-0.993813, 353, 81, 384, 144
-0.993815, 209, 25, 240, 88
-0.993838, 153, 9, 184, 72
-0.993846, 1, 1, 500, 64
-0.993901, 413, 17, 444, 80
-0.993905, 145, 69, 272, 100
-0.993941, 187, 73, 202, 136
-0.993966, 1, 137, 256, 200
-0.993969, 109, 81, 140, 144
-0.994, 405, 97, 436, 216
-0.994014, 405, 49, 436, 112
-0.994091, 77, 25, 108, 88
-0.994161, 97, 1, 352, 64
-0.994176, 179, 65, 194, 128
-0.994207, 389, 97, 420, 216
-0.994209, 257, 145, 384, 208
-0.994229, 321, 17, 352, 80
-0.994344, 129, 81, 256, 112
-0.994347, 89, 49, 120, 112
-0.99435, 377, 97, 408, 216
-0.994359, 369, 1, 496, 64
-0.994382, 57, 65, 88, 192
-0.994389, 145, 121, 272, 152
-0.994418, 219, 121, 234, 184
-0.994469, 1, 65, 64, 128
-0.99456, 393, 1, 424, 128
-0.994589, 417, 97, 448, 216
-0.994655, 433, 97, 496, 160
-0.994707, 1, 113, 500, 176
-0.994743, 55, 33, 70, 96
-0.994775, 129, 97, 256, 128
-0.994806, 125, 57, 140, 120
-0.994817, 89, 25, 120, 88
-0.994847, 189, 97, 204, 160
-0.994878, 5, 1, 36, 64
-0.994893, 33, 81, 96, 208
-0.994916, 173, 57, 188, 120
-0.994921, 225, 33, 256, 96
-0.994937, 433, 1, 496, 216
-0.99494, 345, 121, 408, 184
-0.994944, 161, 57, 288, 88
-0.994962, 81, 85, 208, 116
-0.99501, 113, 109, 240, 140
-0.995018, 81, 73, 208, 104
-0.995056, 305, 153, 432, 216
-0.995059, 229, 97, 260, 216
-0.995097, 69, 33, 84, 96
-0.995117, 5, 1, 36, 128
-0.995148, 197, 121, 212, 184
-0.99517, 241, 97, 272, 216
-0.995198, 129, 137, 384, 200
-0.995203, 217, 145, 248, 208
-0.995206, 129, 25, 256, 56
-0.995246, 9, 65, 40, 128
-0.995249, 441, 153, 472, 216
-0.995258, 153, 65, 168, 128
-0.995266, 345, 1, 408, 64
-0.995311, 333, 17, 364, 80
-0.995316, 33, 41, 160, 72
-0.995366, 381, 41, 412, 104
-0.995375, 213, 121, 228, 184
-0.995409, 245, 49, 276, 176
-0.995431, 1, 89, 256, 152
-0.995455, 303, 105, 318, 168
-0.995468, 97, 13, 224, 44
-0.995506, 161, 109, 288, 140
-0.99551, 209, 65, 336, 96
-0.99554, 49, 81, 112, 144
-0.995554, 81, 41, 96, 104
-0.995575, 81, 97, 208, 128
-0.995598, 167, 57, 182, 120
-0.995611, 209, 53, 336, 84
-0.995622, 225, 129, 480, 192
-0.995633, 209, 97, 336, 128
-0.995648, 225, 57, 256, 120
-0.995648, 9, 89, 40, 152
-0.995656, 49, 153, 80, 216
-0.995665, 81, 29, 208, 60
-0.995674, 81, 1, 208, 32
-0.995683, 113, 9, 144, 72
-0.995709, 257, 1, 500, 64
-0.995732, 195, 89, 210, 152
-0.995737, 337, 105, 352, 168
-0.995758, 207, 121, 222, 184
-0.995821, 273, 105, 400, 136
-0.995854, 49, 173, 176, 204
-0.995878, 173, 1, 204, 216
-0.995878, 75, 33, 90, 96
-0.995911, 265, 121, 296, 184
-0.995929, 421, 1, 452, 128
-0.995931, 81, 45, 208, 76
-0.995934, 193, 57, 224, 120
-0.995957, 157, 153, 188, 216
-0.996018, 61, 25, 76, 88
-0.996042, 129, 169, 256, 200
-0.996053, 173, 145, 204, 208
-0.996054, 301, 1, 332, 216
-0.996056, 89, 153, 120, 216
-0.996065, 101, 25, 132, 88
-0.996103, 217, 1, 232, 64
-0.996108, 41, 121, 104, 184
-0.996111, 159, 73, 174, 136
-0.996111, 209, 37, 336, 68
-0.996112, 309, 105, 324, 168
-0.996119, 1, 53, 128, 84
-0.996134, 145, 133, 272, 164
-0.996135, 433, 113, 448, 176
-0.996157, 343, 105, 358, 168
-0.99617, 327, 105, 342, 168
-0.996174, 81, 145, 208, 176
-0.996193, 161, 13, 288, 44
-0.996212, 319, 105, 334, 168
-0.996219, 125, 49, 156, 112
-0.996258, 417, 49, 448, 112
-0.996266, 389, 97, 420, 160
-0.996296, 63, 49, 78, 112
-0.9963, 177, 85, 304, 116
-0.996308, 1, 145, 500, 208
-0.996313, 151, 105, 166, 168
-0.996315, 261, 97, 292, 216
-0.996319, 1, 1, 256, 64
-0.996345, 237, 145, 268, 208
-0.996354, 1, 1, 64, 216
-0.996362, 273, 49, 400, 80
-0.996387, 129, 45, 256, 76
-0.996421, 191, 121, 206, 184
-0.99644, 253, 113, 284, 176
-0.996448, 433, 33, 464, 160
-0.996459, 225, 141, 352, 172
-0.996479, 321, 1, 352, 216
-0.996479, 1, 157, 128, 188
-0.99648, 273, 85, 400, 116
-0.996501, 153, 41, 168, 104
-0.996502, 1, 73, 128, 104
-0.996507, 249, 49, 280, 112
-0.996517, 89, 1, 120, 128
-0.996519, 205, 145, 236, 208
-0.99653, 219, 97, 234, 160
-0.996532, 361, 145, 424, 208
-0.996545, 71, 57, 86, 120
-0.996546, 9, 113, 40, 176
-0.996549, 179, 41, 194, 104
-0.99655, 81, 73, 112, 136
-0.996566, 9, 49, 40, 176
-0.996576, 273, 21, 400, 52
-0.996589, 225, 9, 256, 72
-0.996591, 159, 105, 174, 168
-0.996597, 33, 29, 160, 60
-0.996638, 65, 9, 96, 72
-0.996648, 157, 129, 172, 192
-0.996653, 241, 125, 368, 156
-0.996655, 289, 117, 416, 148
-0.996661, 403, 49, 418, 112
-0.996681, 257, 61, 384, 92
-0.996686, 129, 145, 256, 176
-0.996697, 45, 65, 76, 192
-0.996718, 81, 157, 208, 188
-0.996742, 225, 121, 240, 184
-0.996742, 337, 53, 464, 84
-0.996743, 55, 57, 70, 120
-0.996748, 149, 145, 164, 208
-0.996786, 377, 1, 408, 128
-0.996794, 401, 153, 432, 216
-0.996801, 209, 25, 336, 56
-0.996807, 171, 81, 186, 144
-0.996824, 1, 81, 500, 144
-0.996831, 321, 41, 448, 72
-0.996848, 225, 1, 256, 128
-0.996848, 9, 97, 40, 216
-0.996909, 181, 89, 196, 152
-0.99691, 389, 17, 420, 80
-0.996913, 397, 49, 412, 112
-0.996928, 343, 81, 358, 144
-0.996929, 281, 65, 312, 128
-0.996934, 97, 121, 224, 152
-0.996938, 209, 13, 336, 44
-0.996951, 211, 1, 226, 64
-0.996956, 193, 121, 320, 152
-0.996956, 129, 157, 256, 188
-0.996995, 185, 145, 216, 208
-0.997013, 353, 121, 480, 152
-0.997014, 173, 33, 188, 96
-0.997039, 205, 1, 220, 64
-0.997041, 389, 129, 420, 192
-0.997044, 297, 105, 312, 168
-0.99705, 273, 73, 400, 104
-0.997083, 303, 81, 318, 144
-0.997089, 349, 105, 364, 168
-0.997092, 185, 25, 216, 88
-0.99712, 1, 85, 128, 116
-0.997122, 65, 133, 192, 164
-0.99713, 165, 81, 180, 144
-0.997146, 377, 105, 408, 168
-0.99715, 403, 25, 418, 88
-0.997168, 305, 137, 432, 168
-0.997174, 321, 97, 448, 128
-0.997179, 277, 97, 308, 216
-0.997195, 131, 57, 146, 120
-0.997213, 269, 49, 300, 176
-0.997214, 337, 81, 352, 144
-0.997219, 417, 105, 448, 168
-0.99722, 81, 65, 96, 128
-0.99724, 229, 97, 244, 160
-0.997241, 439, 113, 454, 176
-0.997248, 187, 85, 202, 116
-0.997265, 433, 153, 496, 216
-0.997274, 143, 145, 158, 208
-0.997278, 209, 97, 224, 160
-0.997287, 5, 25, 36, 88
-0.9973, 185, 49, 200, 112
-0.997305, 209, 109, 336, 140
-0.997305, 81, 185, 208, 216
-0.997309, 257, 73, 500, 136
-0.997326, 229, 121, 260, 184
-0.997329, 1, 141, 128, 172
-0.997361, 1, 185, 128, 216
-0.997374, 219, 125, 234, 156
-0.997391, 179, 61, 194, 92
-0.997395, 317, 145, 348, 208
-0.9974, 205, 1, 236, 216
-0.997408, 33, 1, 64, 128
-0.997434, 273, 37, 400, 68
-0.997461, 1, 1, 128, 32
-0.997469, 49, 33, 64, 96
-0.997495, 333, 1, 364, 216
-0.997499, 165, 113, 180, 176
-0.997509, 61, 73, 76, 136
-0.997529, 175, 1, 190, 64
-0.997536, 197, 125, 212, 156
-0.997536, 289, 17, 320, 80
-0.997549, 1, 105, 128, 136
-0.997557, 117, 57, 132, 120
-0.997573, 303, 17, 318, 80
-0.997578, 185, 69, 200, 100
-0.997584, 429, 33, 460, 96
-0.997586, 125, 1, 156, 216
-0.997604, 199, 1, 214, 64
-0.997605, 423, 137, 438, 200
-0.997606, 359, 105, 374, 168
-0.997609, 349, 81, 364, 144
-0.997618, 129, 181, 256, 212
-0.997642, 101, 1, 132, 64
-0.997644, 193, 1, 320, 32
-0.997649, 369, 105, 384, 168
-0.997654, 89, 129, 120, 192
-0.997655, 153, 65, 168, 96
-0.997672, 129, 145, 144, 208
-0.997683, 1, 13, 128, 44
-0.997686, 337, 29, 464, 60
-0.9977, 157, 153, 172, 216
-0.997704, 291, 137, 306, 200
-0.997713, 175, 137, 190, 200
-0.997725, 127, 61, 142, 92
-0.997726, 145, 1, 176, 216
-0.997727, 183, 17, 198, 80
-0.99774, 311, 81, 326, 144
-0.997752, 147, 65, 162, 128
-0.997763, 49, 17, 176, 48
-0.997767, 345, 9, 360, 72
-0.997776, 243, 129, 258, 192
-0.997776, 55, 9, 70, 72
-0.997788, 397, 57, 412, 88
-0.997798, 185, 113, 200, 144
-0.997801, 241, 97, 304, 160
-0.997802, 409, 1, 440, 216
-0.997806, 55, 41, 70, 72
-0.997812, 113, 1, 144, 216
-0.997813, 337, 105, 352, 136
-0.997817, 183, 113, 198, 176
-0.997822, 331, 81, 346, 144
-0.997822, 173, 61, 188, 92
-0.997845, 125, 105, 140, 168
-0.997859, 73, 9, 88, 72
-0.997865, 219, 25, 234, 88
-0.997868, 165, 33, 180, 96
-0.997878, 75, 37, 90, 68
-0.997891, 379, 105, 394, 168
-0.997899, 1, 169, 128, 200
-0.997904, 409, 49, 424, 112
-0.997907, 353, 133, 480, 164
-0.997908, 141, 169, 156, 200
-0.997908, 69, 153, 84, 216
-0.99791, 179, 73, 194, 104
-0.99792, 1, 129, 128, 160
-0.997922, 397, 25, 412, 88
-0.997928, 321, 17, 448, 48
-0.997931, 207, 121, 222, 152
-0.997942, 223, 1, 238, 64
-0.997954, 101, 153, 132, 216
-0.997955, 173, 85, 188, 116
-0.997959, 1, 117, 128, 148
-0.99796, 353, 153, 480, 184
-0.99796, 77, 61, 92, 92
-0.997965, 403, 57, 418, 88
-0.997972, 219, 145, 234, 208
-0.997972, 385, 73, 448, 136
-0.997975, 369, 41, 496, 72
-0.997976, 115, 33, 130, 96
-0.997976, 159, 49, 174, 112
-0.997977, 429, 137, 444, 200
-0.997991, 65, 29, 80, 60
-0.997992, 279, 121, 294, 184
-0.998004, 87, 49, 102, 112
-0.99801, 25, 81, 88, 144
-0.998023, 55, 29, 70, 60
-0.998037, 119, 173, 134, 204
-0.998038, 225, 153, 352, 184
-0.998045, 295, 81, 310, 144
-0.99805, 191, 125, 206, 156
-0.998055, 67, 49, 82, 80
-0.998063, 185, 97, 200, 128
-0.998064, 209, 73, 240, 136
-0.998065, 203, 97, 218, 160
-0.998068, 185, 1, 216, 216
-0.998077, 195, 109, 210, 140
-0.998079, 81, 181, 96, 212
-0.99808, 7, 1, 22, 64
-0.99808, 49, 57, 64, 120
-0.998082, 55, 57, 70, 88
-0.998105, 65, 109, 192, 140
-0.99811, 163, 81, 178, 112
-0.998112, 125, 81, 140, 144
-0.998115, 169, 73, 184, 104
-0.998117, 257, 153, 500, 216
-0.99812, 289, 1, 320, 216
-0.998123, 129, 1, 256, 32
-0.998128, 175, 105, 190, 168
-0.998137, 321, 65, 448, 96
-0.998141, 149, 173, 164, 204
-0.998141, 71, 181, 86, 212
-0.998148, 137, 105, 152, 168
-0.99817, 163, 69, 178, 100
-0.998174, 325, 81, 340, 144
-0.998179, 147, 25, 162, 88
-0.99818, 335, 17, 350, 80
-0.998181, 161, 1, 192, 216
-0.998181, 145, 121, 160, 184
-0.998182, 83, 53, 98, 84
-0.998187, 81, 145, 96, 208
-0.998196, 309, 17, 324, 80
-0.998208, 433, 117, 448, 148
-0.998215, 409, 17, 424, 80
-0.998217, 193, 1, 208, 64
-0.998219, 305, 149, 432, 180
-0.998223, 317, 81, 332, 144
-0.998245, 13, 153, 44, 216
-0.998249, 137, 73, 152, 136
-0.99825, 329, 105, 344, 136
-0.998255, 57, 153, 72, 216
-0.998256, 355, 81, 370, 144
-0.99826, 301, 57, 332, 120
-0.998264, 209, 49, 240, 112
-0.998266, 153, 53, 168, 84
-0.998267, 121, 145, 136, 208
-0.998268, 157, 89, 172, 120
-0.998281, 303, 105, 318, 136
-0.998283, 369, 173, 496, 204
-0.998292, 61, 53, 76, 84
-0.998292, 185, 133, 200, 164
-0.998297, 257, 49, 272, 112
-0.998306, 445, 129, 460, 192
-0.998312, 109, 135, 140, 150
-0.998313, 105, 173, 136, 188
-0.998315, 169, 141, 200, 156
-0.998315, 401, 169, 432, 184
-0.998315, 61, 79, 92, 94
-0.998315, 249, 199, 280, 214
-0.998317, 429, 141, 460, 156
-0.998317, 45, 63, 76, 78
-0.998317, 193, 91, 224, 106
-0.998318, 157, 137, 188, 152
-0.99832, 429, 155, 460, 170
-0.99832, 165, 93, 180, 124
-0.99832, 41, 53, 72, 68
-0.998321, 113, 119, 144, 134
-0.998321, 333, 103, 364, 118
-0.998322, 169, 19, 200, 34
-0.998325, 145, 131, 176, 146
-0.998325, 153, 35, 184, 50
-0.998326, 145, 185, 176, 200
-0.998326, 425, 17, 440, 80
-0.998327, 185, 21, 216, 36
-0.998327, 213, 125, 228, 156
-0.998327, 257, 193, 288, 208
-0.998328, 113, 127, 144, 142
-0.998329, 57, 193, 88, 208
-0.998329, 281, 127, 312, 142
-0.998329, 415, 145, 430, 208
-0.99833, 279, 125, 294, 156
-0.99833, 123, 185, 138, 216
-0.99833, 109, 143, 140, 158
-0.99833, 125, 169, 156, 184
-0.998331, 71, 61, 86, 92
-0.998331, 65, 43, 96, 58
-0.998331, 113, 113, 144, 128
-0.998331, 225, 137, 256, 152
-0.998331, 129, 143, 160, 158
-0.998331, 121, 103, 152, 118
-0.998332, 65, 37, 96, 52
-0.998333, 145, 145, 176, 160
-0.998333, 321, 77, 448, 108
-0.998334, 77, 197, 108, 212
-0.998334, 77, 49, 92, 80
-0.998335, 113, 97, 144, 112
-0.998336, 133, 135, 164, 150
-0.998337, 415, 17, 430, 80
-0.998338, 285, 121, 300, 184
-0.998339, 225, 119, 256, 134
-0.998339, 89, 71, 120, 86
-0.99834, 113, 59, 144, 74
-0.998341, 113, 77, 144, 92
-0.998341, 377, 59, 408, 74
-0.998343, 113, 87, 144, 102
-0.998344, 153, 173, 184, 188
-0.998344, 145, 117, 176, 132
-0.998344, 241, 139, 272, 154
-0.998346, 129, 129, 160, 144
-0.998346, 165, 77, 196, 92
-0.998346, 145, 137, 176, 152
-0.998347, 165, 101, 196, 116
-0.998348, 217, 125, 248, 140
-0.998348, 145, 125, 176, 140
-0.998349, 145, 163, 176, 178
-0.99835, 1, 57, 16, 120
-0.99835, 393, 53, 424, 68
-0.998351, 145, 101, 176, 116
-0.998351, 133, 123, 164, 138
-0.998351, 195, 89, 210, 120
-0.998351, 57, 201, 88, 216
-0.998352, 265, 127, 296, 142
-0.998353, 149, 179, 180, 194
-0.998355, 205, 17, 236, 32
-0.998356, 65, 1, 80, 64
-0.998356, 135, 173, 150, 204
-0.998357, 429, 129, 460, 144
-0.998358, 249, 133, 280, 148
-0.998358, 343, 105, 358, 136
-0.99836, 173, 13, 204, 28
-0.998361, 353, 109, 480, 140
-0.998362, 151, 113, 166, 144
-0.998362, 163, 145, 178, 208
-0.998363, 145, 69, 208, 84
-0.998363, 57, 69, 88, 84
-0.998365, 101, 201, 132, 216
-0.998365, 69, 189, 100, 204
-0.998365, 271, 121, 286, 184
-0.998366, 53, 49, 84, 64
-0.998367, 153, 77, 168, 108
-0.998367, 73, 75, 104, 90
-0.998367, 205, 119, 236, 134
-0.998368, 57, 185, 88, 200
-0.998368, 405, 59, 436, 74
-0.998371, 113, 71, 144, 86
-0.998371, 89, 65, 120, 80
-0.998373, 137, 169, 168, 184
-0.998373, 191, 73, 206, 104
-0.998374, 121, 181, 152, 196
-0.998374, 177, 101, 208, 116
-0.998376, 133, 105, 164, 120
-0.998376, 333, 109, 364, 124
-0.998376, 205, 11, 236, 26
-0.998378, 133, 117, 164, 132
-0.998378, 173, 117, 204, 132
-0.998379, 153, 41, 184, 56
-0.998383, 301, 109, 332, 124
-0.998383, 441, 129, 472, 192
-0.998384, 173, 111, 204, 126
-0.998386, 161, 69, 192, 84
-0.998387, 185, 11, 216, 26
-0.998389, 133, 99, 164, 114
-0.998389, 145, 107, 176, 122
-0.99839, 133, 111, 164, 126
-0.998391, 177, 123, 208, 138
-0.998392, 261, 135, 292, 150
-0.998392, 225, 1, 256, 216
-0.998393, 65, 69, 80, 100
-0.998394, 429, 135, 460, 150
-0.998402, 153, 55, 184, 70
-0.998404, 133, 61, 164, 76
-0.998406, 153, 47, 184, 62
-0.998406, 149, 95, 180, 110
-0.99841, 133, 93, 164, 108
-0.998411, 133, 75, 164, 90
-0.998413, 345, 1, 376, 216
-0.998417, 321, 109, 352, 124
-0.998418, 149, 77, 180, 92
-0.998418, 151, 93, 166, 124
-0.998423, 165, 83, 196, 98
-0.998424, 165, 95, 196, 110
-0.998426, 69, 183, 100, 198
-0.998427, 133, 87, 164, 102
-0.998427, 185, 9, 200, 40
-0.99843, 53, 57, 84, 72
-0.99843, 159, 105, 174, 136
-0.998431, 201, 5, 216, 36
-0.998432, 65, 53, 96, 68
-0.998432, 53, 43, 84, 58
-0.998433, 265, 113, 280, 176
-0.998435, 117, 175, 148, 190
-0.998436, 345, 33, 360, 96
-0.998436, 315, 17, 330, 80
-0.998438, 149, 83, 180, 98
-0.998438, 153, 61, 184, 76
-0.998441, 209, 165, 336, 196
-0.998442, 133, 81, 164, 96
-0.998443, 145, 85, 208, 100
-0.998446, 137, 175, 168, 190
-0.998447, 193, 125, 224, 140
-0.998449, 145, 77, 208, 92
-0.998451, 149, 69, 180, 84
-0.998452, 177, 95, 208, 110
-0.998452, 133, 181, 164, 196
-0.998453, 133, 67, 164, 82
-0.998457, 113, 65, 144, 80
-0.99846, 57, 63, 88, 78
-0.99846, 189, 119, 220, 134
-0.998463, 391, 57, 406, 88
-0.998465, 53, 37, 84, 52
-0.998465, 385, 1, 416, 216
-0.998468, 73, 61, 104, 76
-0.998475, 145, 91, 208, 106
-0.998479, 69, 69, 100, 84
-0.99848, 185, 89, 248, 104
-0.998486, 241, 185, 368, 216
-0.998487, 393, 59, 424, 74
-0.998487, 377, 17, 408, 80
-0.99849, 145, 63, 208, 78
-0.998491, 185, 111, 248, 126
-0.998492, 175, 49, 190, 80
-0.998496, 153, 117, 216, 132
-0.998497, 149, 89, 180, 104
-0.998498, 173, 71, 204, 86
-0.998498, 165, 89, 196, 104
-0.998501, 185, 125, 248, 140
-0.998501, 145, 99, 208, 114
-0.998501, 185, 103, 248, 118
-0.998502, 57, 31, 88, 46
-0.998502, 165, 63, 196, 78
-0.998503, 301, 153, 332, 216
-0.998504, 167, 57, 182, 88
-0.998504, 65, 65, 128, 80
-0.998505, 105, 65, 168, 80
-0.998508, 185, 83, 248, 98
-0.998508, 185, 95, 248, 110
-0.998508, 75, 25, 90, 56
-0.998509, 177, 81, 208, 96
-0.998512, 399, 45, 414, 76
-0.998514, 225, 85, 352, 116
-0.998519, 219, 113, 234, 144
-0.998522, 105, 71, 168, 86
-0.998532, 185, 77, 248, 92
-0.998534, 41, 71, 104, 86
-0.998534, 57, 69, 72, 100
-0.998537, 177, 145, 304, 176
-0.998539, 145, 107, 208, 122
-0.998541, 185, 117, 248, 132
-0.998545, 217, 5, 232, 36
-0.998546, 65, 35, 128, 50
-0.998547, 205, 125, 236, 140
-0.99855, 185, 71, 248, 86
-0.99855, 313, 109, 328, 140
-0.998551, 65, 71, 128, 86
-0.998553, 105, 79, 168, 94
-0.998554, 321, 105, 336, 136
-0.998554, 343, 13, 358, 44
-0.998557, 153, 123, 216, 138
-0.998566, 141, 181, 156, 212
-0.998566, 121, 89, 184, 104
-0.998567, 287, 129, 302, 160
-0.998567, 105, 45, 168, 60
-0.998568, 157, 141, 172, 172
-0.998572, 41, 61, 104, 76
-0.998574, 385, 57, 448, 72
-0.998575, 177, 11, 240, 26
-0.998579, 209, 5, 224, 36
-0.998581, 73, 59, 136, 74
-0.998584, 151, 125, 166, 156
-0.998585, 105, 37, 168, 52
-0.998586, 217, 123, 280, 138
-0.998587, 177, 21, 240, 36
-0.998588, 71, 73, 86, 104
-0.998589, 195, 9, 210, 40
-0.998591, 41, 35, 104, 50
-0.998592, 129, 117, 192, 132
-0.998593, 65, 45, 128, 60
-0.998594, 77, 145, 108, 208
-0.998596, 297, 107, 360, 122
-0.998596, 41, 53, 104, 68
-0.998596, 105, 59, 168, 74
-0.998598, 129, 57, 192, 72
-0.998598, 65, 181, 80, 212
-0.9986, 145, 15, 208, 30
-0.9986, 105, 51, 168, 66
-0.998605, 129, 123, 192, 138
-0.998606, 105, 113, 168, 128
-0.998607, 105, 119, 168, 134
-0.998607, 173, 13, 188, 44
-0.998608, 129, 129, 192, 144
-0.998609, 105, 31, 168, 46
-0.998609, 65, 51, 128, 66
-0.998609, 177, 87, 208, 102
-0.99861, 217, 137, 280, 152
-0.99861, 185, 65, 248, 80
-0.998613, 145, 141, 208, 156
-0.998615, 217, 73, 280, 88
-0.998615, 321, 5, 448, 36
-0.998616, 65, 27, 128, 42
-0.998617, 217, 67, 280, 82
-0.998618, 179, 89, 194, 120
-0.998618, 289, 25, 352, 40
-0.99862, 41, 43, 104, 58
-0.998621, 105, 99, 168, 114
-0.998622, 257, 57, 272, 88
-0.998622, 217, 59, 280, 74
-0.998624, 423, 157, 438, 188
-0.998625, 257, 125, 320, 140
-0.998625, 129, 135, 192, 150
-0.998627, 259, 185, 274, 216
-0.998627, 113, 177, 176, 192
-0.998627, 297, 97, 360, 112
-0.998629, 195, 137, 210, 168
-0.99863, 157, 125, 172, 156
-0.99863, 105, 19, 168, 34
-0.99863, 105, 25, 168, 40
-0.998633, 97, 125, 160, 140
-0.998634, 105, 107, 168, 122
-0.998635, 129, 171, 192, 186
-0.998635, 17, 63, 80, 78
-0.998635, 41, 183, 104, 198
-0.998638, 105, 139, 168, 154
-0.998638, 361, 59, 424, 74
-0.998639, 217, 131, 280, 146
-0.998639, 57, 193, 120, 208
-0.998645, 49, 57, 64, 88
-0.998646, 401, 135, 464, 150
-0.998646, 175, 125, 190, 156
-0.998646, 73, 77, 136, 92
-0.998648, 105, 13, 168, 28
-0.998649, 137, 1, 168, 64
-0.99865, 97, 131, 160, 146
-0.99865, 257, 131, 320, 146
-0.99865, 217, 53, 280, 68
-0.99865, 401, 129, 464, 144
-0.998653, 113, 183, 176, 198
-0.998653, 97, 85, 160, 100
-0.998654, 257, 67, 320, 82
-0.998654, 145, 39, 208, 54
-0.998655, 155, 157, 170, 188
-0.998655, 297, 87, 360, 102
-0.998655, 145, 179, 208, 194
-0.998655, 321, 105, 384, 120
-0.998655, 177, 131, 240, 146
-0.998657, 89, 179, 152, 194
-0.998658, 325, 145, 340, 176
-0.998658, 145, 159, 208, 174
-0.998658, 409, 169, 472, 184
-0.998659, 305, 161, 432, 192
-0.998659, 217, 117, 280, 132
-0.998659, 337, 113, 400, 128
-0.99866, 105, 5, 168, 20
-0.998663, 113, 145, 176, 160
-0.998664, 401, 141, 464, 156
-0.998664, 281, 135, 344, 150
-0.998666, 89, 91, 152, 106
-0.998668, 113, 165, 176, 180
-0.998668, 385, 51, 448, 66
-0.998668, 145, 147, 208, 162
-0.998668, 1, 37, 64, 52
-0.998669, 85, 69, 100, 100
-0.998671, 1, 45, 64, 60
-0.998671, 217, 47, 280, 62
-0.998671, 121, 151, 184, 166
-0.998671, 177, 59, 240, 74
-0.998672, 105, 171, 168, 186
-0.998672, 257, 73, 320, 88
-0.998672, 129, 47, 192, 62
-0.998673, 217, 79, 280, 94
-0.998673, 345, 53, 408, 68
-0.998674, 257, 49, 320, 64
-0.998675, 1, 53, 64, 68
-0.998675, 297, 81, 360, 96
-0.998675, 105, 157, 168, 172
-0.998675, 145, 153, 208, 168
-0.998676, 177, 145, 240, 160
-0.998677, 1, 29, 64, 44
-0.998677, 41, 29, 104, 44
-0.998678, 341, 41, 372, 104
-0.998678, 73, 187, 136, 202
-0.998678, 241, 137, 304, 152
-0.998678, 65, 181, 128, 196
-0.998679, 401, 123, 464, 138
-0.998679, 73, 201, 136, 216
-0.99868, 145, 25, 208, 40
-0.998681, 289, 51, 352, 66
-0.998682, 177, 137, 240, 152
-0.998682, 137, 165, 200, 180
-0.998682, 87, 181, 102, 212
-0.998682, 153, 173, 216, 188
-0.998683, 347, 93, 362, 124
-0.998684, 177, 185, 304, 216
-0.998685, 229, 117, 244, 148
-0.998686, 201, 113, 216, 144
-0.998689, 175, 101, 190, 132
-0.998693, 49, 41, 64, 72
-0.998697, 57, 1, 88, 216
-0.998703, 257, 9, 384, 40
-0.998704, 117, 61, 132, 92
-0.998706, 159, 53, 174, 84
-0.998708, 415, 161, 430, 192
-0.998709, 377, 81, 408, 144
-0.998712, 185, 65, 200, 192
-0.998725, 273, 125, 288, 156
-0.998727, 147, 185, 162, 216
-0.998728, 101, 1, 132, 216
-0.998728, 421, 1, 452, 216
-0.998729, 149, 161, 164, 192
-0.998729, 153, 49, 168, 176
-0.998735, 397, 1, 428, 216
-0.998738, 365, 81, 396, 144
-0.998749, 113, 169, 128, 200
-0.998754, 361, 1, 392, 216
-0.998756, 429, 149, 444, 180
-0.998758, 175, 1, 190, 128
-0.998765, 81, 49, 112, 176
-0.998769, 179, 113, 194, 144
-0.998771, 409, 57, 424, 88
-0.998773, 439, 117, 454, 148
-0.998786, 259, 121, 274, 152
-0.998786, 409, 157, 424, 188
-0.998789, 337, 21, 352, 52
-0.998794, 185, 57, 200, 88
-0.9988, 213, 113, 228, 144
-0.998805, 77, 73, 92, 104
-0.998808, 147, 45, 162, 76
-0.998812, 243, 133, 258, 164
-0.998813, 299, 129, 314, 160
-0.99882, 179, 49, 194, 176
-0.998834, 325, 133, 340, 164
-0.998834, 251, 125, 266, 156
-0.998836, 89, 57, 104, 88
-0.998836, 161, 157, 176, 188
-0.998838, 349, 113, 364, 144
-0.998847, 431, 161, 446, 192
-0.99885, 267, 121, 282, 152
-0.998852, 149, 145, 164, 176
-0.998855, 267, 133, 282, 164
-0.998858, 163, 117, 178, 148
-0.998866, 381, 113, 396, 144
-0.998867, 65, 17, 80, 48
-0.998871, 165, 133, 180, 164
-0.998872, 141, 157, 156, 188
-0.998874, 175, 137, 190, 168
-0.998877, 33, 9, 64, 72
-0.998881, 285, 41, 316, 104
-0.998892, 369, 17, 496, 48
-0.998908, 301, 97, 316, 216
-0.998924, 185, 17, 200, 144
-0.998938, 125, 49, 140, 176
-0.998961, 433, 1, 464, 216
-0.998965, 319, 97, 334, 216
-0.998971, 173, 49, 188, 176
-0.998985, 325, 97, 340, 216
-0.998996, 167, 49, 182, 176
-0.999, 333, 97, 348, 216
-0.999011, 219, 97, 234, 216
-0.999049, 49, 121, 176, 152
-0.999051, 57, 17, 72, 144
-0.99906, 313, 97, 328, 216
-0.999068, 277, 1, 308, 216
-0.999078, 197, 97, 212, 216
-0.999095, 159, 49, 174, 176
-0.999098, 149, 97, 164, 216
-0.999099, 307, 97, 322, 216
-0.999115, 213, 97, 228, 216
-0.999124, 373, 1, 404, 216
-0.999153, 343, 97, 358, 216
-0.999179, 191, 81, 206, 208
-0.999183, 67, 17, 82, 144
-0.999192, 219, 1, 234, 128
-0.999216, 169, 1, 184, 128
-0.999234, 397, 49, 412, 176
-0.999235, 159, 97, 174, 216
-0.999238, 433, 97, 448, 216
-0.999249, 97, 97, 128, 216
-0.999253, 207, 97, 222, 216
-0.999278, 225, 97, 240, 216
-0.999287, 257, 173, 384, 204
-0.999289, 337, 17, 352, 144
-0.999292, 195, 1, 210, 128
-0.999297, 403, 49, 418, 176
-0.999313, 219, 49, 234, 176
-0.999321, 349, 97, 364, 216
-0.999343, 51, 17, 66, 144
-0.999345, 45, 1, 76, 216
-0.999348, 445, 97, 476, 216
-0.999355, 143, 97, 158, 216
-0.999356, 369, 185, 496, 216
-0.99936, 135, 97, 150, 216
-0.999364, 343, 1, 358, 128
-0.999372, 77, 33, 92, 160
-0.999383, 153, 1, 168, 128
-0.999388, 405, 1, 420, 128
-0.999399, 369, 97, 384, 216
-0.999402, 355, 49, 370, 176
-0.999409, 303, 49, 318, 176
-0.999412, 347, 49, 362, 176
-0.999417, 363, 97, 378, 216
-0.999429, 295, 97, 310, 216
-0.999435, 337, 153, 400, 216
-0.999438, 305, 173, 432, 204
-0.999444, 123, 97, 138, 216
-0.999446, 163, 1, 178, 128
-0.999449, 425, 49, 440, 176
-0.99945, 373, 49, 388, 176
-0.999451, 59, 65, 74, 192
-0.999454, 131, 49, 146, 176
-0.999468, 357, 97, 372, 216
-0.999469, 115, 17, 130, 144
-0.999469, 331, 17, 346, 144
-0.999469, 361, 49, 376, 176
-0.999471, 367, 49, 382, 176
-0.999476, 165, 97, 180, 216
-0.999483, 295, 49, 310, 176
-0.999487, 129, 97, 144, 216
-0.999488, 203, 1, 218, 128
-0.99949, 125, 1, 140, 128
-0.999494, 379, 97, 394, 216
-0.999497, 257, 49, 272, 176
-0.999499, 409, 49, 424, 176
-0.999507, 177, 97, 192, 216
-0.99951, 69, 1, 100, 216
-0.999511, 415, 1, 430, 128
-0.999515, 139, 49, 154, 176
-0.99952, 369, 5, 496, 36
-0.999528, 151, 109, 166, 124
-0.999528, 309, 49, 324, 176
-0.999528, 49, 57, 64, 72
-0.999528, 69, 79, 84, 94
-0.999529, 117, 179, 132, 194
-0.999531, 159, 115, 174, 130
-0.999531, 151, 95, 166, 110
-0.999531, 263, 49, 278, 176
-0.999531, 87, 59, 102, 74
-0.999531, 147, 173, 162, 188
-0.999531, 81, 43, 96, 58
-0.999531, 151, 127, 166, 142
-0.999532, 379, 49, 394, 176
-0.999533, 71, 195, 86, 210
-0.999533, 151, 61, 166, 76
-0.999533, 183, 19, 198, 34
-0.999533, 167, 101, 182, 116
-0.999534, 75, 77, 90, 92
-0.999534, 255, 57, 270, 72
-0.999534, 191, 143, 206, 158
-0.999535, 175, 19, 190, 34
-0.999536, 175, 137, 190, 152
-0.999536, 147, 49, 162, 176
-0.999537, 147, 165, 162, 180
-0.999537, 193, 13, 208, 28
-0.999537, 259, 199, 274, 214
-0.999537, 415, 169, 430, 184
-0.999537, 277, 133, 292, 148
-0.999538, 115, 201, 130, 216
-0.999538, 153, 81, 168, 96
-0.99954, 197, 49, 212, 176
-0.99954, 1, 33, 16, 160
-0.99954, 179, 77, 194, 92
-0.999541, 217, 9, 232, 24
-0.999541, 251, 133, 266, 148
-0.999542, 203, 11, 218, 26
-0.999543, 125, 185, 140, 200
-0.999544, 117, 97, 132, 216
-0.999545, 75, 181, 90, 196
-0.999547, 153, 73, 168, 88
-0.999547, 325, 17, 340, 144
-0.999548, 399, 97, 414, 216
-0.999548, 317, 109, 332, 124
-0.999549, 53, 33, 68, 48
-0.999549, 81, 195, 96, 210
-0.999551, 57, 75, 72, 90
-0.999551, 159, 87, 174, 102
-0.999552, 181, 13, 196, 28
-0.999552, 421, 173, 436, 188
-0.999552, 81, 65, 96, 80
-0.999553, 433, 115, 448, 130
-0.999554, 267, 133, 282, 148
-0.999554, 283, 133, 298, 148
-0.999554, 229, 49, 244, 176
-0.999555, 219, 119, 234, 134
-0.999555, 189, 129, 204, 144
-0.999556, 395, 53, 410, 68
-0.999556, 169, 69, 184, 84
-0.999556, 169, 93, 184, 108
-0.999556, 67, 43, 82, 58
-0.999556, 187, 75, 202, 90
-0.999557, 323, 109, 338, 124
-0.999559, 63, 77, 78, 92
-0.999559, 303, 109, 318, 124
-0.999559, 85, 71, 100, 86
-0.99956, 141, 167, 156, 182
-0.999561, 153, 47, 168, 62
-0.999561, 315, 49, 330, 176
-0.999561, 195, 93, 210, 108
-0.999563, 75, 61, 90, 76
-0.999563, 5, 81, 20, 208
-0.999566, 391, 59, 406, 74
-0.999567, 261, 135, 276, 150
-0.999567, 421, 1, 436, 128
-0.999567, 57, 69, 72, 84
-0.999568, 209, 1, 224, 128
-0.999568, 55, 47, 70, 62
-0.999568, 431, 49, 446, 176
-0.999569, 71, 51, 86, 66
-0.999569, 333, 109, 348, 124
-0.999569, 151, 87, 166, 102
-0.99957, 391, 49, 406, 176
-0.99957, 67, 183, 82, 198
-0.99957, 161, 69, 176, 84
-0.999571, 123, 173, 138, 188
-0.999572, 195, 135, 210, 150
-0.999572, 169, 61, 184, 76
-0.999573, 185, 121, 200, 136
-0.999573, 81, 183, 96, 198
-0.999574, 145, 183, 160, 198
-0.999576, 433, 121, 448, 136
-0.999577, 71, 201, 86, 216
-0.999578, 279, 127, 294, 142
-0.999579, 71, 29, 86, 44
-0.99958, 195, 115, 210, 130
-0.999581, 187, 81, 202, 96
-0.999582, 157, 59, 172, 74
-0.999582, 65, 57, 80, 72
-0.999582, 159, 107, 174, 122
-0.999583, 403, 57, 418, 72
-0.999584, 117, 173, 132, 188
-0.999585, 339, 109, 354, 124
-0.999586, 169, 79, 184, 94
-0.999587, 75, 41, 90, 56
-0.99959, 189, 135, 204, 150
-0.99959, 185, 99, 200, 114
-0.999591, 55, 53, 70, 68
-0.999593, 159, 93, 174, 108
-0.999593, 77, 51, 92, 66
-0.999593, 165, 87, 180, 102
-0.999594, 437, 33, 452, 160
-0.999595, 135, 181, 150, 196
-0.9996, 69, 73, 84, 88
-0.999602, 171, 85, 186, 100
-0.999604, 143, 1, 158, 128
-0.999607, 269, 49, 284, 176
-0.999608, 259, 193, 274, 208
-0.99961, 407, 97, 422, 216
-0.999614, 179, 85, 194, 100
-0.999614, 181, 63, 196, 78
-0.999615, 81, 59, 96, 74
-0.999616, 187, 115, 202, 130
-0.999616, 201, 123, 216, 138
-0.999617, 65, 31, 80, 46
-0.999619, 251, 49, 266, 176
-0.99962, 211, 125, 226, 140
-0.999622, 83, 49, 98, 176
-0.999629, 187, 105, 202, 120
-0.999629, 151, 179, 166, 194
-0.99963, 289, 81, 304, 208
-0.99963, 79, 71, 94, 86
-0.999631, 135, 1, 150, 128
-0.999633, 55, 39, 70, 54
-0.999633, 67, 63, 82, 78
-0.999635, 61, 63, 76, 78
-0.999636, 153, 67, 168, 82
-0.999637, 53, 63, 68, 78
-0.999649, 393, 1, 408, 128
-0.99965, 257, 1, 288, 216
-0.99965, 75, 35, 90, 50
-0.99965, 185, 69, 200, 84
-0.999651, 179, 69, 194, 84
-0.999651, 185, 93, 200, 108
-0.999652, 231, 97, 246, 216
-0.999652, 415, 49, 430, 176
-0.999654, 65, 37, 80, 52
-0.999656, 175, 91, 190, 106
-0.999656, 303, 1, 318, 128
-0.999657, 71, 65, 86, 192
-0.999658, 195, 121, 210, 136
-0.999658, 385, 49, 400, 176
-0.99966, 73, 67, 88, 82
-0.999662, 279, 97, 294, 216
-0.999667, 393, 97, 408, 216
-0.999669, 195, 127, 210, 142
-0.999673, 63, 71, 78, 86
-0.999683, 141, 173, 156, 188
-0.999684, 439, 97, 454, 216
-0.999686, 219, 125, 234, 140
-0.999689, 175, 63, 190, 78
-0.999689, 397, 59, 412, 74
-0.999692, 399, 1, 414, 128
-0.999692, 427, 1, 442, 128
-0.999694, 353, 1, 384, 128
-0.999694, 127, 65, 142, 80
-0.999698, 171, 97, 186, 216
-0.999701, 53, 65, 68, 192
-0.999702, 83, 1, 98, 128
-0.999704, 263, 97, 278, 216
-0.999706, 249, 97, 264, 216
-0.999711, 385, 97, 400, 216
-0.999713, 111, 97, 126, 216
-0.999714, 213, 49, 228, 176
-0.999723, 9, 1, 24, 128
-0.999726, 427, 97, 442, 216
-0.99973, 415, 97, 430, 216
-0.999735, 15, 81, 30, 208
-0.999735, 421, 97, 436, 216
-0.999741, 189, 87, 204, 102
-0.999741, 59, 31, 74, 46
-0.99975, 65, 65, 80, 192
-0.999752, 445, 97, 460, 216
-0.999756, 271, 97, 286, 216
-0.999763, 255, 97, 270, 216
-0.999764, 107, 1, 122, 128
-0.999782, 243, 97, 258, 216
-0.999782, 279, 49, 294, 176
-0.999789, 225, 1, 240, 128
-0.999791, 451, 97, 466, 216
-0.999792, 245, 1, 276, 216
-0.999792, 9, 1, 40, 216
-0.999802, 309, 1, 324, 128
-0.99981, 77, 81, 92, 208
-0.999812, 245, 49, 260, 176
-0.999886, 369, 1, 432, 64
-0.999942, 321, 185, 448, 216
-0.999964, 313, 153, 376, 216
-0.99998, 445, 1, 476, 216
-1.00005, 89, 1, 120, 216
-1.00018, 369, 97, 496, 128
-1.00031, 285, 1, 316, 128
-1.00031, 369, 65, 496, 96
-1.00046, 369, 81, 496, 112
-1.00065, 457, 1, 488, 216
-1.00069, 69, 97, 100, 216
-1.00087, 457, 97, 488, 216
-1.00111, 25, 1, 56, 216
-1.00116, 249, 1, 280, 128
-1.00117, 365, 1, 396, 128
-1.00139, 273, 1, 304, 128
-1.00154, 33, 49, 64, 176
-1.00154, 21, 1, 52, 128
-1.00155, 469, 1, 500, 216
-1.00317, 237, 1, 268, 128
-1.00328, 261, 1, 292, 128
-1.00328, 85, 97, 116, 216
-1.00346, 445, 49, 476, 176
-1.0038, 25, 97, 56, 216
-1.00393, 409, 57, 472, 120
-1.00526, 433, 73, 496, 136
-1.00575, 449, 1, 480, 128
-1.00603, 21, 49, 52, 176
-1.00741, 465, 17, 496, 144
-1.00781, 469, 65, 500, 192
