1964
-0.391311, 1, 129, 500, 375
-0.461539, 1, 1, 500, 256
-0.46749, 1, 1, 500, 375
-0.470681, 1, 1, 256, 375
-0.485591, 225, 1, 480, 375
-0.534133, 129, 1, 384, 375
-0.602461, 225, 1, 480, 256
-0.658922, 257, 97, 500, 352
-0.664559, 97, 1, 352, 256
-0.69444, 33, 97, 288, 352
-0.736874, 129, 97, 384, 352
-0.823457, 1, 1, 256, 256
-0.8504, 33, 1, 160, 375
-0.863918, 273, 1, 400, 256
-0.875579, 145, 1, 272, 375
-0.876838, 161, 1, 288, 256
-0.878775, 321, 129, 448, 375
-0.880662, 257, 1, 384, 375
-0.882065, 369, 33, 496, 288
-0.883861, 113, 33, 240, 288
-0.885427, 1, 225, 500, 352
-0.885524, 321, 1, 448, 256
-0.888413, 161, 97, 288, 352
-0.888775, 337, 1, 464, 375
-0.891342, 49, 129, 176, 375
-0.895122, 225, 65, 352, 320
-0.897161, 1, 1, 500, 128
-0.897193, 209, 1, 336, 375
-0.897906, 97, 1, 224, 375
-0.900741, 1, 177, 500, 304
-0.905698, 65, 81, 320, 208
-0.90698, 1, 65, 500, 192
-0.908206, 65, 33, 192, 288
-0.920635, 161, 49, 416, 176
-0.924151, 161, 97, 416, 224
-0.92526, 17, 225, 80, 352
-0.926366, 97, 129, 224, 375
-0.927105, 225, 177, 480, 304
-0.927519, 65, 33, 320, 160
-0.934265, 1, 113, 500, 240
-0.935171, 17, 1, 144, 256
-0.937663, 369, 129, 496, 375
-0.938223, 97, 97, 160, 224
-0.938515, 273, 97, 400, 352
-0.938649, 1, 241, 256, 368
-0.939667, 121, 65, 184, 192
-0.940104, 409, 225, 472, 352
-0.940249, 1, 193, 256, 320
-0.940868, 65, 129, 320, 256
-0.94108, 225, 1, 480, 128
-0.942813, 161, 81, 288, 208
-0.944603, 321, 177, 448, 304
-0.944891, 1, 225, 128, 352
-0.945567, 225, 97, 288, 224
-0.946106, 257, 49, 500, 176
-0.946256, 225, 1, 352, 128
-0.946415, 1, 129, 128, 375
-0.946716, 65, 193, 192, 320
-0.947221, 257, 97, 500, 224
-0.947413, 49, 81, 176, 208
-0.948297, 257, 113, 384, 240
-0.949407, 57, 113, 120, 240
-0.949777, 225, 241, 480, 368
-0.950265, 145, 33, 272, 160
-0.951234, 337, 1, 464, 128
-0.951816, 129, 17, 192, 144
-0.951847, 89, 1, 152, 128
-0.951952, 225, 65, 352, 192
-0.952039, 305, 241, 432, 368
-0.952311, 353, 113, 480, 240
-0.952372, 33, 1, 160, 128
-0.95272, 25, 249, 88, 312
-0.953393, 337, 129, 400, 256
-0.953757, 73, 49, 136, 176
-0.953902, 361, 1, 424, 128
-0.954133, 129, 113, 192, 240
-0.954206, 129, 129, 256, 256
-0.954591, 369, 241, 496, 368
-0.954875, 337, 1, 400, 64
-0.955217, 41, 225, 104, 352
-0.955703, 49, 145, 176, 272
-0.956657, 129, 177, 384, 304
-0.956749, 289, 33, 416, 160
-0.956797, 249, 65, 312, 192
-0.957641, 169, 65, 232, 192
-0.957838, 337, 177, 400, 240
-0.957914, 385, 9, 448, 72
-0.958129, 321, 1, 384, 128
-0.958206, 113, 81, 240, 208
-0.958616, 137, 161, 200, 288
-0.958726, 433, 193, 496, 320
-0.958994, 97, 1, 224, 128
-0.959666, 193, 65, 256, 192
-0.959777, 177, 145, 304, 272
-0.959866, 1, 113, 128, 240
-0.960031, 305, 81, 432, 208
-0.9601, 121, 89, 184, 152
-0.960823, 105, 161, 168, 288
-0.960824, 273, 161, 400, 288
-0.960942, 321, 177, 384, 304
-0.961084, 145, 209, 272, 336
-0.961185, 297, 113, 360, 240
-0.961528, 209, 17, 272, 144
-0.961681, 385, 241, 448, 368
-0.961898, 393, 1, 456, 128
-0.962007, 97, 145, 160, 208
-0.962038, 169, 89, 232, 152
-0.962078, 81, 113, 144, 176
-0.962219, 401, 233, 464, 296
-0.962252, 1, 297, 64, 360
-0.962451, 113, 177, 176, 240
-0.962499, 89, 1, 152, 64
-0.96261, 313, 1, 376, 64
-0.962929, 281, 1, 344, 128
-0.963025, 249, 17, 312, 144
-0.963424, 337, 81, 400, 208
-0.963761, 353, 25, 416, 88
-0.964089, 249, 161, 312, 288
-0.965141, 417, 1, 480, 128
-0.965206, 153, 1, 216, 128
-0.965316, 361, 113, 424, 240
-0.965353, 49, 121, 112, 184
-0.96538, 209, 97, 272, 160
-0.965384, 361, 225, 424, 352
-0.96543, 137, 57, 200, 120
-0.965749, 409, 9, 472, 72
-0.965958, 137, 169, 200, 232
-0.966422, 345, 97, 408, 160
-0.966432, 57, 273, 120, 336
-0.966433, 25, 33, 88, 160
-0.966464, 65, 161, 128, 288
-0.966587, 385, 97, 448, 224
-0.966782, 89, 169, 152, 232
-0.9668, 361, 1, 424, 64
-0.967047, 201, 65, 264, 128
-0.967139, 49, 225, 80, 352
-0.967728, 25, 297, 88, 360
-0.96786, 25, 225, 88, 288
-0.967882, 369, 249, 432, 312
-0.968177, 385, 121, 448, 184
-0.968192, 65, 209, 128, 336
-0.968574, 409, 257, 472, 320
-0.968593, 209, 145, 272, 272
-0.968603, 345, 177, 376, 240
-0.968705, 145, 65, 208, 192
-0.968884, 1, 241, 32, 368
-0.969134, 169, 177, 232, 240
-0.969522, 201, 161, 264, 224
-0.969608, 225, 161, 352, 288
-0.969643, 129, 1, 192, 64
-0.969732, 117, 153, 148, 216
-0.96995, 433, 217, 496, 280
-0.97005, 129, 241, 384, 368
-0.970074, 137, 193, 200, 256
-0.970089, 73, 137, 136, 200
-0.97034, 233, 193, 296, 256
-0.970534, 57, 1, 120, 128
-0.97075, 1, 249, 64, 312
-0.9708, 345, 177, 408, 304
-0.970917, 33, 97, 96, 224
-0.971183, 321, 241, 384, 368
-0.971217, 305, 129, 368, 192
-0.971269, 153, 113, 216, 240
-0.971295, 177, 17, 240, 144
-0.971323, 65, 9, 128, 72
-0.971337, 177, 177, 240, 304
-0.971487, 281, 273, 344, 336
-0.971749, 177, 65, 240, 128
-0.972081, 121, 209, 184, 336
-0.972163, 337, 9, 464, 72
-0.972186, 49, 241, 176, 368
-0.972224, 305, 153, 368, 216
-0.972361, 369, 1, 400, 64
-0.972456, 145, 81, 208, 144
-0.972486, 413, 241, 444, 368
-0.972509, 337, 153, 400, 216
-0.972559, 21, 225, 52, 352
-0.972577, 349, 129, 380, 256
-0.972638, 125, 177, 156, 240
-0.972827, 209, 1, 272, 256
-0.972834, 201, 185, 264, 248
-0.972846, 273, 97, 336, 224
-0.972872, 129, 113, 192, 176
-0.972918, 297, 177, 360, 304
-0.97293, 313, 177, 376, 240
-0.973286, 233, 129, 296, 192
-0.973619, 161, 1, 224, 256
-0.973661, 117, 113, 148, 240
-0.973885, 137, 177, 168, 240
-0.973931, 433, 1, 496, 64
-0.974085, 121, 33, 184, 288
-0.974151, 225, 41, 288, 104
-0.974209, 65, 249, 128, 312
-0.974242, 233, 169, 296, 232
-0.974259, 37, 225, 68, 352
-0.97429, 25, 177, 88, 304
-0.974325, 297, 225, 360, 352
-0.974398, 305, 265, 368, 328
-0.974458, 97, 177, 224, 240
-0.974481, 361, 49, 424, 176
-0.974522, 177, 201, 240, 264
-0.974532, 369, 65, 496, 192
-0.97455, 257, 1, 384, 64
-0.974686, 25, 273, 88, 336
-0.974712, 305, 257, 432, 320
-0.974749, 357, 1, 388, 64
-0.974797, 77, 121, 108, 184
-0.974958, 281, 1, 344, 64
-0.974991, 113, 1, 144, 64
-0.975181, 313, 1, 376, 256
-0.975215, 385, 97, 448, 160
-0.975301, 257, 65, 320, 128
-0.975333, 377, 33, 440, 96
-0.975412, 129, 137, 192, 200
-0.975413, 253, 97, 284, 224
-0.975424, 321, 201, 384, 264
-0.975522, 1, 289, 128, 352
-0.975561, 433, 241, 496, 368
-0.975616, 105, 121, 168, 184
-0.975651, 357, 177, 388, 240
-0.975652, 337, 177, 368, 304
-0.975697, 329, 121, 392, 184
-0.975765, 225, 65, 288, 128
-0.975803, 257, 273, 320, 336
-0.975881, 417, 49, 480, 176
-0.975932, 1, 289, 32, 352
-0.976053, 97, 49, 160, 176
-0.976133, 153, 209, 216, 336
-0.976237, 257, 113, 320, 176
-0.976244, 113, 65, 176, 128
-0.97634, 257, 1, 320, 64
-0.976437, 377, 1, 440, 256
-0.976461, 361, 129, 424, 192
-0.976473, 153, 1, 216, 64
-0.976494, 209, 121, 272, 184
-0.976537, 97, 65, 160, 320
-0.976587, 185, 65, 248, 320
-0.976637, 249, 113, 312, 240
-0.976723, 137, 161, 168, 288
-0.976841, 349, 153, 380, 216
-0.976873, 305, 33, 432, 96
-0.976889, 185, 129, 248, 256
-0.976903, 329, 25, 392, 88
-0.976933, 17, 129, 80, 375
-0.976961, 265, 153, 328, 216
-0.976963, 305, 49, 368, 176
-0.977042, 9, 313, 40, 375
-0.977057, 81, 1, 208, 64
-0.977061, 401, 289, 464, 352
-0.977162, 145, 57, 272, 120
-0.977206, 421, 1, 452, 64
-0.97722, 97, 241, 224, 368
-0.97723, 145, 97, 208, 352
-0.977231, 9, 1, 72, 64
-0.977346, 257, 1, 320, 256
-0.977388, 257, 153, 384, 216
-0.977392, 393, 313, 456, 375
-0.977637, 113, 177, 144, 240
-0.977703, 97, 81, 224, 144
-0.977753, 81, 41, 144, 104
-0.9779, 73, 97, 104, 224
-0.977906, 81, 89, 144, 152
-0.977969, 413, 233, 444, 296
-0.977983, 209, 65, 336, 128
-0.977994, 1, 177, 64, 304
-0.978023, 381, 1, 412, 64
-0.978192, 305, 281, 432, 344
-0.978196, 369, 273, 432, 336
-0.978219, 369, 113, 400, 240
-0.978351, 113, 201, 176, 264
-0.978398, 225, 209, 352, 336
-0.978554, 357, 1, 388, 128
-0.978586, 369, 193, 496, 320
-0.97871, 237, 65, 268, 192
-0.978866, 173, 81, 204, 144
-0.978975, 169, 33, 200, 160
-0.979008, 409, 1, 472, 256
-0.979025, 53, 249, 84, 312
-0.979094, 177, 41, 240, 104
-0.979132, 249, 41, 312, 104
-0.979148, 49, 145, 112, 208
-0.979211, 297, 105, 360, 168
-0.979231, 409, 1, 440, 64
-0.979239, 161, 97, 288, 160
-0.979243, 369, 233, 496, 296
-0.979297, 353, 25, 384, 88
-0.979399, 149, 1, 180, 128
-0.9794, 201, 41, 264, 104
-0.979541, 249, 209, 312, 336
-0.979544, 57, 129, 120, 375
-0.979575, 333, 177, 364, 240
-0.979664, 65, 113, 96, 176
-0.979742, 409, 105, 472, 168
-0.979744, 149, 113, 180, 240
-0.979821, 153, 145, 216, 208
-0.979828, 25, 113, 88, 176
-0.980022, 233, 89, 296, 152
-0.980035, 121, 17, 152, 144
-0.980059, 385, 49, 448, 176
-0.980081, 185, 113, 248, 176
-0.980098, 113, 129, 240, 192
-0.980159, 217, 193, 280, 320
-0.980183, 1, 249, 128, 312
-0.980189, 233, 1, 296, 64
-0.98019, 33, 1, 160, 64
-0.980192, 325, 1, 356, 64
-0.98022, 201, 209, 264, 272
-0.980257, 65, 265, 192, 328
-0.980291, 289, 105, 416, 168
-0.980379, 109, 1, 140, 128
-0.980443, 133, 65, 164, 192
-0.980641, 305, 41, 368, 104
-0.980653, 361, 153, 424, 216
-0.980706, 353, 1, 416, 256
-0.980729, 381, 25, 412, 88
-0.980742, 65, 105, 192, 168
-0.98077, 241, 113, 272, 240
-0.980772, 97, 145, 128, 208
-0.980792, 129, 25, 192, 88
-0.980843, 145, 65, 176, 128
-0.980896, 321, 97, 384, 160
-0.980916, 49, 177, 176, 240
-0.98092, 397, 17, 428, 80
-0.981038, 389, 121, 420, 184
-0.981039, 369, 1, 400, 128
-0.98104, 129, 65, 160, 128
-0.981061, 321, 185, 448, 248
-0.981063, 101, 169, 132, 232
-0.981095, 457, 193, 488, 320
-0.981108, 97, 201, 224, 264
-0.981145, 177, 225, 240, 288
-0.981297, 209, 97, 272, 352
-0.981319, 365, 161, 396, 288
-0.981471, 129, 89, 160, 152
-0.981529, 273, 49, 336, 176
-0.981544, 193, 137, 320, 200
-0.981612, 369, 313, 432, 375
-0.981642, 297, 81, 360, 144
-0.981646, 381, 1, 412, 128
-0.98168, 321, 305, 384, 368
-0.981729, 17, 1, 80, 375
-0.98174, 185, 33, 216, 160
-0.981747, 1, 313, 128, 375
-0.981819, 257, 33, 384, 96
-0.981883, 425, 1, 456, 128
-0.981942, 33, 1, 96, 64
-0.981984, 129, 1, 256, 64
-0.981987, 405, 105, 436, 168
-0.982091, 97, 113, 128, 240
-0.982093, 365, 25, 396, 88
-0.982205, 177, 225, 240, 352
-0.982209, 209, 41, 336, 104
-0.982239, 369, 153, 400, 216
-0.982241, 233, 97, 296, 352
-0.982278, 369, 225, 432, 288
-0.982313, 377, 97, 440, 352
-0.982323, 137, 225, 200, 288
-0.982366, 49, 297, 112, 360
-0.982374, 65, 225, 128, 288
-0.982388, 297, 201, 360, 264
-0.982424, 165, 81, 196, 208
-0.98245, 145, 177, 272, 240
-0.982473, 289, 1, 352, 256
-0.982478, 369, 177, 432, 304
-0.982478, 225, 113, 352, 176
-0.982495, 177, 137, 240, 200
-0.982526, 369, 105, 496, 168
-0.982552, 257, 185, 320, 248
-0.982623, 1, 225, 64, 288
-0.982678, 169, 57, 200, 120
-0.982798, 185, 1, 248, 64
-0.982866, 65, 241, 192, 304
-0.98289, 205, 33, 236, 160
-0.982973, 341, 25, 372, 88
-0.982977, 1, 249, 32, 312
-0.983031, 345, 1, 376, 64
-0.983039, 257, 161, 288, 224
-0.983043, 97, 1, 128, 64
-0.983141, 1, 273, 64, 336
-0.983155, 413, 257, 444, 320
-0.983172, 25, 297, 56, 360
-0.983236, 97, 57, 224, 120
-0.983244, 149, 49, 180, 176
-0.983291, 65, 169, 128, 232
-0.983294, 273, 41, 336, 104
-0.983299, 417, 81, 480, 144
-0.983309, 329, 257, 392, 320
-0.983313, 61, 113, 92, 240
-0.98334, 189, 57, 220, 120
-0.983355, 353, 129, 416, 375
-0.983355, 125, 161, 156, 288
-0.983366, 149, 169, 180, 232
-0.983377, 153, 25, 216, 88
-0.983415, 321, 305, 448, 368
-0.983427, 97, 153, 224, 216
-0.983432, 89, 241, 152, 368
-0.983433, 257, 273, 384, 336
-0.983442, 301, 273, 332, 336
-0.98346, 297, 241, 360, 304
-0.983491, 105, 257, 168, 320
-0.983501, 469, 193, 500, 320
-0.98357, 249, 137, 280, 200
-0.983574, 221, 65, 252, 128
-0.983574, 401, 177, 464, 304
-0.983663, 209, 9, 336, 72
-0.983724, 353, 265, 480, 328
-0.983756, 69, 265, 100, 328
-0.98381, 237, 177, 268, 240
-0.983833, 13, 289, 44, 352
-0.983899, 393, 241, 424, 304
-0.983907, 245, 97, 276, 160
-0.983969, 17, 249, 48, 312
-0.984023, 145, 201, 272, 264
-0.984069, 161, 113, 224, 176
-0.984101, 33, 25, 96, 88
-0.984114, 349, 241, 380, 368
-0.984119, 213, 97, 244, 160
-0.98412, 369, 313, 496, 375
-0.984123, 381, 113, 412, 240
-0.984144, 49, 225, 80, 288
-0.984149, 209, 17, 272, 80
-0.984197, 365, 49, 396, 176
-0.984225, 441, 209, 472, 336
-0.984237, 169, 9, 200, 72
-0.984303, 321, 129, 448, 192
-0.984307, 345, 1, 376, 128
-0.984321, 349, 177, 380, 304
-0.984322, 53, 297, 84, 360
-0.984336, 217, 17, 248, 144
-0.98434, 109, 113, 140, 176
-0.984341, 145, 33, 272, 96
-0.984366, 41, 1, 104, 375
-0.984425, 93, 113, 124, 176
-0.984426, 241, 89, 368, 152
-0.98448, 393, 1, 424, 128
-0.984498, 257, 89, 320, 152
-0.984541, 225, 65, 256, 192
-0.984556, 129, 153, 160, 216
-0.984609, 73, 49, 104, 176
-0.984618, 297, 313, 360, 375
-0.984668, 77, 1, 108, 64
-0.984675, 261, 33, 292, 160
-0.984708, 417, 105, 448, 168
-0.984741, 133, 201, 164, 264
-0.9848, 225, 129, 256, 256
-0.984835, 321, 233, 448, 296
-0.984896, 325, 1, 356, 128
-0.984896, 133, 113, 164, 240
-0.984962, 149, 1, 180, 64
-0.985016, 337, 97, 368, 224
-0.985053, 121, 113, 152, 176
-0.985075, 121, 65, 152, 192
-0.985077, 1, 1, 64, 128
-0.985108, 125, 17, 156, 80
-0.985114, 33, 41, 160, 104
-0.985114, 289, 273, 320, 336
-0.985175, 29, 249, 60, 312
-0.985219, 425, 241, 456, 368
-0.985287, 257, 177, 384, 240
-0.985289, 113, 105, 240, 168
-0.985301, 161, 129, 192, 256
-0.985318, 85, 129, 116, 256
-0.985324, 385, 65, 448, 128
-0.98534, 161, 105, 192, 168
-0.98539, 361, 177, 424, 240
-0.985418, 89, 193, 152, 256
-0.985464, 53, 273, 84, 336
-0.985501, 189, 81, 220, 144
-0.985511, 241, 17, 272, 144
-0.985512, 61, 241, 92, 368
-0.985522, 85, 145, 116, 208
-0.985578, 333, 201, 364, 264
-0.985596, 265, 97, 328, 352
-0.985617, 369, 177, 400, 240
-0.985644, 373, 129, 404, 192
-0.985674, 425, 233, 456, 296
-0.985704, 233, 65, 264, 128
-0.985706, 297, 1, 360, 375
-0.985726, 345, 297, 408, 360
-0.98582, 49, 289, 176, 352
-0.985826, 269, 145, 300, 272
-0.98589, 261, 1, 292, 64
-0.985907, 65, 129, 192, 192
-0.985908, 49, 209, 176, 272
-0.986006, 193, 169, 224, 232
-0.986063, 393, 81, 424, 208
-0.98608, 233, 1, 296, 256
-0.986088, 353, 41, 480, 104
-0.986166, 237, 41, 268, 104
-0.986179, 437, 1, 468, 128
-0.986233, 105, 25, 168, 88
-0.986251, 409, 97, 472, 352
-0.986265, 433, 257, 496, 320
-0.986343, 133, 17, 164, 144
-0.986417, 345, 257, 376, 320
-0.986509, 405, 17, 436, 144
-0.986514, 321, 81, 448, 144
-0.986524, 145, 153, 272, 216
-0.986544, 273, 145, 336, 272
-0.986558, 437, 225, 468, 288
-0.986566, 201, 65, 232, 128
-0.986597, 409, 1, 472, 375
-0.986651, 193, 193, 320, 256
-0.98667, 17, 1, 48, 64
-0.986682, 333, 113, 364, 176
-0.986701, 37, 297, 68, 360
-0.986717, 433, 1, 464, 64
-0.986728, 193, 161, 320, 224
-0.986783, 433, 1, 496, 375
-0.986815, 273, 233, 400, 296
-0.986895, 245, 65, 276, 128
-0.986909, 73, 1, 136, 375
-0.986939, 381, 97, 412, 160
-0.986982, 409, 41, 472, 104
-0.986984, 289, 1, 320, 128
-0.986987, 273, 129, 400, 192
-0.986999, 65, 1, 128, 256
-0.987001, 401, 241, 432, 368
-0.987033, 1, 177, 128, 304
-0.987033, 205, 81, 236, 208
-0.987139, 17, 121, 144, 184
-0.987189, 257, 65, 384, 128
-0.98719, 209, 161, 240, 224
-0.987231, 233, 89, 264, 152
-0.987307, 417, 81, 448, 144
-0.987334, 41, 33, 104, 288
-0.987357, 249, 41, 280, 104
-0.987359, 405, 81, 436, 208
-0.987377, 149, 89, 180, 152
-0.987416, 17, 153, 144, 216
-0.987435, 121, 129, 184, 375
-0.987458, 101, 161, 132, 288
-0.987471, 337, 161, 464, 224
-0.987498, 201, 97, 232, 160
-0.987522, 161, 225, 288, 288
-0.98764, 433, 1, 496, 256
-0.987699, 181, 17, 212, 80
-0.987861, 133, 41, 164, 104
-0.987882, 209, 273, 336, 336
-0.987895, 161, 1, 224, 375
-0.987973, 117, 81, 148, 144
-0.988015, 397, 313, 428, 375
-0.988027, 313, 1, 344, 64
-0.988039, 49, 65, 176, 128
-0.988075, 181, 177, 212, 240
-0.988139, 269, 161, 300, 224
-0.988192, 325, 273, 356, 336
-0.988242, 453, 1, 484, 64
-0.988276, 249, 193, 280, 256
-0.988307, 257, 145, 288, 272
-0.988317, 349, 97, 380, 160
-0.988329, 237, 129, 268, 192
-0.988332, 61, 137, 92, 200
-0.988348, 353, 25, 416, 56
-0.98835, 357, 257, 388, 320
-0.988356, 1, 65, 128, 192
-0.98836, 257, 97, 288, 160
-0.988377, 449, 217, 480, 280
-0.988408, 181, 209, 212, 336
-0.98842, 329, 181, 392, 212
-0.988422, 409, 281, 440, 344
-0.988452, 377, 1, 440, 375
-0.988489, 377, 1, 440, 32
-0.988489, 309, 89, 340, 152
-0.988511, 97, 1, 160, 375
-0.988514, 85, 81, 116, 208
-0.988583, 273, 305, 400, 368
-0.98864, 149, 161, 180, 288
-0.988641, 433, 1, 496, 32
-0.988685, 229, 17, 260, 144
-0.988693, 349, 81, 380, 208
-0.988705, 97, 33, 224, 96
-0.98873, 209, 1, 272, 375
-0.988752, 313, 281, 344, 344
-0.988791, 153, 41, 184, 104
-0.988855, 461, 209, 492, 272
-0.98886, 105, 181, 168, 212
-0.988862, 297, 113, 328, 176
-0.98889, 89, 33, 120, 160
-0.988897, 273, 65, 304, 192
-0.988917, 113, 161, 144, 288
-0.988924, 209, 209, 240, 272
-0.988935, 25, 249, 88, 280
-0.988958, 177, 81, 208, 208
-0.988988, 321, 1, 384, 32
-0.989034, 241, 177, 272, 304
-0.989036, 17, 225, 48, 288
-0.989055, 161, 193, 192, 320
-0.989068, 137, 173, 200, 204
-0.989156, 369, 289, 496, 352
-0.989168, 49, 49, 80, 176
-0.989197, 297, 97, 360, 352
-0.989221, 381, 161, 412, 224
-0.989245, 225, 145, 256, 208
-0.989258, 73, 125, 136, 156
-0.989288, 425, 49, 456, 176
-0.989307, 261, 41, 292, 104
-0.989323, 145, 249, 272, 312
-0.989334, 321, 1, 384, 375
-0.98938, 201, 137, 232, 200
-0.989417, 173, 105, 204, 168
-0.98942, 345, 37, 408, 68
-0.989446, 161, 177, 192, 240
-0.98945, 177, 89, 240, 120
-0.989459, 385, 117, 448, 148
-0.989475, 261, 65, 292, 128
-0.989489, 369, 129, 496, 192
-0.989516, 353, 13, 416, 44
-0.98952, 17, 301, 80, 332
-0.989533, 205, 41, 236, 104
-0.989537, 393, 97, 424, 160
-0.989539, 97, 65, 352, 128
-0.989552, 273, 1, 304, 64
-0.98957, 325, 113, 356, 240
-0.989575, 129, 185, 192, 216
-0.989606, 321, 209, 448, 272
-0.989638, 129, 85, 192, 116
-0.989647, 229, 201, 260, 264
-0.989661, 225, 225, 352, 288
-0.989698, 305, 33, 336, 160
-0.989729, 185, 1, 248, 375
-0.98975, 49, 125, 112, 156
-0.989784, 409, 5, 472, 36
-0.9898, 353, 1, 416, 32
-0.989832, 65, 1, 96, 128
-0.989909, 153, 89, 216, 120
-0.989912, 273, 241, 336, 368
-0.989966, 17, 97, 144, 160
-0.989969, 105, 193, 168, 224
-0.990022, 121, 1, 184, 375
-0.990042, 273, 17, 304, 144
-0.990048, 409, 97, 472, 224
-0.990063, 409, 261, 472, 292
-0.990072, 213, 129, 244, 256
-0.990128, 337, 193, 400, 224
-0.990153, 217, 105, 280, 136
-0.990185, 1, 313, 64, 344
-0.990224, 393, 17, 456, 48
-0.990227, 265, 1, 328, 32
-0.990234, 9, 193, 40, 320
-0.990239, 61, 65, 92, 192
-0.990255, 185, 77, 248, 108
-0.990259, 385, 105, 448, 136
-0.990281, 409, 109, 472, 140
-0.990294, 337, 49, 368, 176
-0.990319, 49, 177, 80, 304
-0.990348, 453, 241, 484, 368
-0.990377, 1, 225, 128, 288
-0.990411, 121, 9, 184, 40
-0.990451, 89, 5, 152, 36
-0.990461, 433, 97, 496, 352
-0.990473, 345, 109, 408, 140
-0.990496, 49, 49, 112, 176
-0.99051, 229, 177, 260, 304
-0.990519, 73, 137, 136, 168
-0.990523, 325, 161, 356, 288
-0.990526, 49, 137, 112, 168
-0.990531, 389, 241, 420, 368
-0.990541, 401, 237, 464, 268
-0.990546, 65, 89, 320, 152
-0.990615, 297, 1, 360, 32
-0.990649, 369, 253, 432, 284
-0.990653, 25, 289, 88, 320
-0.990688, 313, 197, 376, 228
-0.990691, 121, 97, 184, 128
-0.990696, 465, 241, 496, 368
-0.990759, 209, 89, 272, 120
-0.990759, 385, 129, 448, 160
-0.990775, 273, 201, 400, 264
-0.990779, 113, 169, 176, 200
-0.990782, 353, 137, 416, 168
-0.99079, 153, 77, 216, 108
-0.990819, 417, 193, 448, 320
-0.990832, 101, 49, 132, 176
-0.990838, 321, 33, 384, 64
-0.990843, 313, 13, 376, 44
-0.990857, 273, 1, 336, 375
-0.990878, 97, 113, 352, 176
-0.990905, 121, 73, 184, 104
-0.990905, 81, 177, 144, 208
-0.990909, 337, 153, 400, 184
-0.99092, 377, 33, 440, 64
-0.990948, 249, 129, 312, 160
-0.990951, 265, 69, 328, 100
-0.991016, 429, 193, 460, 320
-0.991027, 361, 241, 392, 368
-0.991031, 97, 137, 160, 168
-0.991056, 129, 197, 192, 228
-0.991073, 1, 249, 64, 280
-0.991079, 65, 265, 128, 296
-0.991082, 113, 109, 176, 140
-0.991099, 57, 293, 120, 324
-0.991104, 161, 9, 224, 40
-0.99114, 209, 133, 272, 164
-0.991171, 209, 117, 272, 148
-0.991189, 309, 241, 340, 368
-0.991213, 193, 101, 256, 132
-0.991262, 225, 297, 352, 360
-0.991269, 409, 249, 472, 280
-0.99127, 25, 237, 88, 268
-0.991279, 233, 197, 296, 228
-0.991335, 241, 1, 304, 375
-0.991344, 249, 105, 312, 136
-0.991357, 369, 81, 496, 144
-0.991375, 201, 221, 264, 252
-0.99138, 25, 261, 88, 292
-0.991406, 297, 309, 360, 340
-0.991429, 177, 221, 240, 252
-0.99143, 393, 321, 456, 352
-0.991433, 313, 261, 376, 292
-0.991441, 25, 121, 88, 152
-0.991443, 369, 281, 432, 312
-0.991458, 169, 101, 232, 132
-0.991467, 193, 249, 320, 312
-0.991475, 97, 149, 160, 180
-0.991484, 433, 13, 496, 44
-0.991489, 353, 121, 416, 152
-0.991489, 401, 309, 464, 340
-0.991517, 65, 113, 128, 144
-0.991537, 305, 57, 432, 120
-0.991541, 345, 1, 408, 375
-0.991544, 273, 13, 336, 44
-0.991572, 1, 325, 64, 356
-0.991591, 89, 17, 152, 48
-0.991595, 161, 61, 224, 92
-0.991605, 305, 181, 368, 212
-0.991613, 81, 189, 144, 220
-0.991622, 241, 169, 304, 200
-0.991633, 57, 5, 120, 36
-0.991647, 225, 153, 288, 184
-0.991661, 153, 113, 216, 144
-0.991669, 97, 77, 160, 108
-0.991678, 369, 293, 432, 324
-0.991678, 153, 185, 216, 216
-0.991689, 289, 73, 352, 104
-0.991695, 433, 217, 496, 248
-0.9917, 41, 1, 72, 128
-0.9917, 169, 237, 232, 268
-0.991708, 209, 201, 272, 232
-0.99171, 361, 169, 424, 200
-0.991711, 321, 109, 384, 140
-0.991713, 377, 241, 440, 272
-0.991725, 1, 17, 64, 48
-0.991728, 65, 277, 128, 308
-0.991745, 369, 265, 432, 296
-0.991758, 417, 121, 480, 152
-0.991761, 233, 117, 296, 148
-0.991764, 285, 65, 316, 192
-0.991768, 233, 1, 296, 32
-0.991779, 353, 181, 416, 212
-0.99178, 313, 137, 376, 168
-0.991794, 185, 273, 248, 304
-0.991796, 129, 273, 256, 336
-0.991816, 97, 125, 160, 156
-0.99182, 137, 221, 200, 252
-0.991824, 57, 249, 120, 280
-0.991843, 425, 97, 488, 128
-0.991847, 209, 77, 272, 108
-0.991857, 25, 277, 88, 308
-0.991865, 129, 129, 192, 160
-0.991866, 289, 281, 352, 312
-0.991869, 329, 169, 392, 200
-0.991877, 401, 273, 464, 304
-0.991891, 185, 9, 248, 40
-0.991911, 193, 241, 256, 272
-0.991921, 169, 209, 232, 240
-0.991922, 337, 301, 400, 332
-0.991941, 17, 345, 80, 375
-0.991942, 433, 249, 496, 280
-0.99195, 113, 265, 176, 296
-0.991951, 33, 13, 96, 44
-0.991951, 241, 13, 304, 44
-0.991995, 65, 121, 96, 152
-0.992051, 377, 241, 408, 368
-0.992057, 1, 313, 32, 344
-0.992072, 225, 97, 480, 160
-0.992097, 345, 181, 376, 212
-0.992138, 361, 33, 392, 64
-0.992149, 189, 81, 220, 208
-0.992164, 381, 49, 412, 176
-0.992198, 377, 161, 408, 288
-0.992202, 413, 109, 444, 140
-0.992202, 113, 177, 144, 208
-0.992219, 125, 185, 156, 216
-0.99223, 381, 25, 412, 56
-0.992249, 397, 121, 428, 152
-0.992265, 369, 185, 496, 248
-0.992267, 225, 273, 480, 336
-0.992291, 137, 185, 168, 216
-0.992298, 69, 193, 100, 320
-0.992305, 33, 177, 64, 304
-0.992329, 357, 181, 388, 212
-0.992358, 5, 301, 36, 332
-0.992359, 129, 197, 160, 228
-0.992376, 345, 37, 376, 68
-0.992381, 1, 281, 500, 344
-0.992395, 73, 133, 104, 164
-0.992403, 49, 249, 80, 280
-0.992436, 369, 5, 400, 36
-0.992437, 169, 89, 200, 120
-0.99244, 361, 21, 392, 52
-0.992441, 141, 177, 156, 240
-0.992457, 325, 1, 356, 32
-0.99246, 29, 301, 60, 332
-0.992462, 225, 241, 480, 304
-0.992556, 417, 5, 448, 36
-0.992609, 465, 1, 496, 32
-0.992616, 189, 89, 220, 120
-0.992641, 381, 37, 412, 68
-0.992643, 109, 141, 140, 172
-0.992651, 367, 1, 382, 64
-0.992653, 245, 197, 276, 228
-0.992655, 85, 129, 116, 160
-0.992663, 221, 89, 252, 120
-0.99267, 389, 1, 420, 32
-0.992683, 113, 189, 144, 220
-0.992683, 321, 1, 448, 32
-0.992686, 1, 97, 500, 160
-0.99269, 129, 73, 160, 104
-0.992693, 193, 17, 448, 80
-0.992694, 281, 1, 312, 32
-0.992702, 169, 5, 200, 36
-0.992707, 17, 301, 48, 332
-0.992715, 333, 185, 364, 216
-0.992722, 109, 5, 140, 36
-0.992723, 253, 173, 284, 204
-0.99273, 209, 73, 240, 104
-0.992733, 353, 5, 384, 36
-0.992744, 409, 121, 440, 152
-0.992747, 245, 117, 276, 148
-0.992747, 129, 89, 160, 120
-0.992751, 85, 145, 116, 176
-0.992758, 125, 209, 156, 336
-0.992763, 265, 193, 296, 224
-0.992765, 153, 177, 184, 208
-0.992769, 345, 25, 376, 56
-0.992769, 145, 5, 176, 36
-0.992774, 337, 197, 368, 228
-0.992777, 1, 257, 500, 320
-0.992778, 181, 53, 212, 84
-0.992787, 169, 285, 200, 316
-0.992796, 33, 257, 288, 320
-0.992798, 393, 109, 424, 140
-0.9928, 293, 69, 324, 100
-0.992802, 413, 237, 444, 268
-0.99281, 377, 169, 408, 200
-0.992813, 141, 197, 172, 228
-0.992814, 397, 29, 428, 60
-0.992814, 325, 305, 356, 336
-0.992819, 1, 185, 128, 248
-0.99282, 417, 97, 448, 224
-0.992821, 349, 109, 380, 140
-0.992823, 197, 77, 228, 108
-0.992828, 325, 197, 356, 228
-0.992829, 425, 113, 456, 144
-0.992832, 385, 121, 416, 152
-0.992837, 209, 177, 240, 304
-0.99285, 305, 77, 336, 108
-0.992856, 13, 321, 44, 352
-0.99286, 393, 193, 424, 320
-0.992861, 1, 113, 256, 176
-0.992868, 237, 133, 268, 164
-0.99287, 257, 113, 288, 144
-0.99287, 1, 333, 32, 364
-0.992875, 413, 261, 444, 292
-0.992876, 269, 1, 300, 32
-0.992878, 185, 77, 216, 108
-0.992887, 401, 1, 432, 32
-0.992891, 429, 9, 460, 40
-0.992895, 9, 345, 40, 375
-0.992903, 265, 169, 296, 200
-0.992903, 345, 149, 376, 180
-0.992905, 353, 197, 384, 228
-0.992907, 233, 201, 264, 232
-0.992908, 117, 161, 148, 192
-0.992908, 109, 241, 140, 368
-0.992912, 173, 77, 204, 108
-0.992913, 181, 1, 212, 32
-0.992915, 97, 137, 128, 168
-0.992916, 53, 233, 84, 264
-0.992918, 1, 9, 32, 40
-0.992923, 145, 77, 176, 108
-0.992926, 309, 1, 340, 32
-0.992931, 365, 253, 396, 284
-0.992933, 29, 17, 60, 144
-0.992947, 441, 1, 472, 32
-0.992947, 197, 53, 228, 84
-0.992958, 185, 273, 216, 304
-0.992958, 209, 85, 240, 116
-0.992967, 53, 285, 84, 316
-0.992971, 249, 129, 280, 160
-0.992974, 453, 1, 484, 32
-0.992979, 237, 101, 268, 132
-0.992984, 113, 225, 240, 288
-0.992985, 393, 249, 424, 280
-0.992985, 381, 13, 412, 44
-0.992986, 385, 133, 416, 164
-0.992993, 53, 305, 84, 336
-0.992994, 397, 17, 428, 48
-0.992999, 153, 201, 184, 232
-0.993009, 345, 137, 376, 168
-0.993024, 261, 13, 292, 44
-0.993034, 253, 157, 284, 188
-0.993036, 145, 165, 176, 196
-0.993037, 181, 41, 212, 72
-0.993038, 173, 189, 204, 220
-0.993038, 37, 249, 68, 280
-0.993039, 17, 249, 48, 280
-0.993042, 117, 201, 148, 232
-0.993045, 281, 69, 312, 100
-0.993048, 117, 77, 148, 108
-0.993048, 409, 309, 440, 340
-0.993049, 293, 1, 324, 32
-0.99305, 393, 41, 424, 72
-0.993056, 121, 133, 152, 164
-0.993059, 357, 265, 388, 296
-0.99306, 121, 13, 152, 44
-0.993064, 161, 189, 192, 220
-0.993068, 197, 41, 228, 72
-0.99307, 125, 173, 156, 204
-0.993071, 233, 121, 264, 152
-0.993072, 97, 5, 128, 36
-0.993074, 357, 149, 388, 180
-0.993081, 97, 149, 128, 180
-0.993083, 69, 269, 100, 300
-0.993083, 365, 137, 396, 168
-0.993087, 101, 177, 132, 208
-0.993087, 225, 201, 480, 264
-0.993099, 113, 117, 144, 148
-0.993099, 221, 77, 252, 108
-0.993107, 347, 177, 362, 240
-0.99316, 461, 33, 492, 160
-0.993182, 65, 41, 320, 104
-0.993203, 321, 97, 384, 352
-0.99321, 369, 209, 496, 272
-0.99322, 337, 109, 464, 140
-0.993449, 135, 177, 150, 240
-0.993556, 117, 169, 132, 232
-0.9936, 177, 129, 208, 256
-0.993609, 1, 233, 256, 296
-0.993661, 361, 177, 376, 240
-0.993663, 337, 13, 464, 44
-0.993675, 379, 1, 394, 64
-0.993755, 1, 121, 500, 184
-0.993803, 77, 1, 108, 128
-0.993806, 321, 301, 448, 332
-0.99381, 281, 113, 312, 240
-0.993815, 161, 177, 416, 240
-0.993875, 225, 73, 480, 136
-0.99389, 225, 297, 480, 360
-0.993922, 217, 241, 280, 368
-0.993957, 169, 97, 184, 160
-0.993958, 373, 1, 388, 64
-0.993995, 49, 97, 80, 224
-0.994044, 89, 129, 104, 192
-0.994064, 257, 1, 384, 32
-0.994071, 361, 153, 376, 216
-0.994122, 1, 289, 16, 352
-0.994132, 1, 289, 256, 352
-0.994178, 355, 177, 370, 240
-0.99419, 367, 169, 382, 232
-0.994196, 257, 121, 500, 184
-0.994216, 361, 1, 376, 64
-0.994224, 1, 137, 256, 200
-0.994239, 289, 109, 416, 140
-0.994241, 65, 17, 320, 80
-0.994243, 49, 121, 176, 152
-0.994255, 241, 189, 368, 220
-0.994265, 1, 225, 500, 288
-0.994274, 1, 305, 128, 336
-0.994323, 337, 29, 464, 60
-0.994383, 369, 121, 496, 152
-0.994399, 127, 1, 142, 64
-0.994407, 15, 313, 30, 375
-0.994409, 129, 153, 384, 216
-0.99441, 127, 153, 142, 216
-0.994459, 415, 233, 430, 296
-0.994521, 193, 41, 448, 104
-0.994563, 1, 1, 500, 64
-0.99458, 9, 305, 24, 368
-0.994606, 81, 113, 96, 176
-0.994625, 441, 161, 472, 288
-0.994666, 17, 33, 80, 288
-0.99467, 369, 25, 384, 88
-0.994689, 369, 1, 496, 32
-0.994698, 147, 185, 162, 248
-0.994765, 73, 241, 104, 368
-0.994834, 225, 89, 352, 120
-0.994835, 377, 25, 392, 88
-0.994847, 97, 77, 224, 108
-0.994879, 65, 177, 320, 240
-0.994889, 113, 89, 240, 120
-0.994916, 21, 313, 36, 375
-0.994923, 341, 193, 356, 256
-0.994957, 65, 269, 192, 300
-0.994973, 123, 97, 138, 160
-0.994977, 289, 13, 416, 44
-0.994982, 49, 281, 176, 312
-0.994993, 387, 17, 402, 80
-0.99502, 141, 153, 156, 216
-0.995021, 321, 185, 448, 216
-0.995026, 81, 181, 208, 212
-0.995041, 437, 1, 452, 64
-0.995045, 97, 297, 224, 360
-0.995046, 359, 25, 374, 88
-0.995048, 113, 1, 128, 64
-0.99507, 355, 153, 370, 216
-0.995077, 127, 177, 142, 240
-0.995087, 63, 249, 78, 312
-0.995103, 119, 1, 134, 64
-0.995104, 129, 189, 256, 220
-0.995106, 255, 89, 270, 152
-0.995106, 285, 241, 316, 368
-0.995115, 423, 1, 438, 64
-0.995137, 393, 1, 408, 64
-0.995175, 449, 1, 480, 128
-0.99518, 1, 293, 128, 324
-0.995185, 15, 289, 30, 352
-0.995195, 161, 101, 288, 132
-0.995251, 3, 313, 18, 375
-0.995257, 415, 105, 430, 168
-0.99526, 49, 293, 176, 324
-0.995278, 321, 261, 448, 292
-0.995283, 249, 169, 264, 232
-0.995302, 129, 57, 256, 88
-0.995314, 393, 25, 408, 88
-0.995322, 49, 313, 176, 375
-0.995418, 407, 105, 422, 168
-0.995427, 321, 249, 448, 280
-0.995428, 321, 41, 448, 72
-0.995442, 129, 89, 144, 152
-0.995453, 163, 1, 178, 64
-0.995455, 193, 209, 224, 336
-0.995459, 21, 177, 52, 304
-0.99546, 373, 169, 388, 232
-0.995468, 133, 113, 148, 176
-0.9955, 1, 253, 128, 284
-0.995517, 305, 273, 320, 336
-0.99553, 275, 161, 290, 224
-0.995536, 209, 77, 336, 108
-0.995542, 289, 25, 416, 56
-0.995557, 349, 153, 364, 216
-0.99557, 305, 121, 432, 152
-0.99557, 273, 177, 400, 208
-0.995571, 95, 129, 110, 192
-0.995572, 135, 65, 150, 128
-0.995583, 141, 209, 172, 336
-0.995592, 129, 273, 384, 336
-0.995616, 73, 113, 88, 176
-0.995622, 321, 277, 448, 308
-0.995661, 321, 289, 448, 320
-0.995675, 415, 257, 430, 320
-0.9957, 273, 1, 288, 64
-0.995704, 305, 313, 432, 344
-0.995737, 399, 17, 414, 80
-0.995742, 81, 9, 208, 40
-0.995755, 177, 201, 304, 232
-0.995764, 329, 241, 360, 368
-0.99577, 225, 101, 352, 132
-0.995782, 405, 193, 436, 320
-0.995784, 19, 249, 34, 312
-0.995786, 133, 137, 148, 200
-0.995813, 161, 89, 288, 120
-0.995828, 3, 249, 18, 312
-0.995837, 429, 1, 444, 64
-0.995841, 53, 1, 84, 128
-0.995873, 129, 225, 384, 288
-0.995874, 95, 1, 110, 64
-0.995874, 193, 65, 320, 96
-0.995882, 153, 169, 168, 232
-0.995892, 125, 129, 140, 192
-0.995894, 21, 289, 36, 352
-0.995901, 105, 153, 120, 216
-0.995908, 29, 249, 44, 312
-0.99592, 297, 241, 328, 368
-0.995939, 161, 9, 288, 40
-0.995953, 253, 113, 268, 176
-0.995961, 343, 113, 358, 176
-0.995961, 213, 97, 228, 160
-0.995965, 417, 1, 432, 64
-0.995977, 1, 65, 256, 128
-0.995993, 175, 185, 190, 248
-0.996001, 327, 1, 342, 64
-0.996005, 13, 249, 28, 312
-0.996014, 161, 273, 288, 304
-0.996018, 161, 221, 288, 252
-0.996023, 407, 9, 422, 72
-0.996027, 177, 73, 192, 136
-0.996033, 129, 65, 144, 128
-0.996038, 17, 5, 144, 36
-0.996053, 139, 201, 154, 264
-0.99606, 369, 249, 496, 280
-0.996063, 353, 237, 480, 268
-0.996074, 119, 145, 134, 208
-0.996091, 161, 177, 288, 208
-0.996107, 387, 129, 402, 192
-0.996108, 225, 269, 352, 300
-0.996113, 145, 65, 160, 128
-0.996118, 255, 65, 270, 128
-0.996131, 209, 117, 336, 148
-0.996134, 353, 25, 368, 88
-0.996137, 399, 113, 414, 176
-0.996138, 469, 113, 500, 240
-0.996139, 267, 169, 282, 232
-0.99614, 141, 41, 156, 104
-0.996145, 49, 253, 176, 284
-0.996149, 425, 233, 440, 296
-0.99616, 305, 141, 432, 172
-0.996163, 229, 65, 244, 128
-0.996168, 407, 241, 422, 304
-0.996169, 111, 177, 126, 240
-0.996176, 209, 1, 336, 32
-0.996176, 161, 89, 176, 152
-0.996182, 161, 121, 288, 152
-0.996183, 431, 233, 446, 296
-0.996193, 189, 57, 204, 120
-0.996194, 113, 133, 240, 164
-0.996198, 313, 81, 344, 208
-0.996204, 243, 185, 258, 248
-0.996207, 133, 1, 148, 64
-0.996225, 81, 169, 208, 200
-0.996231, 195, 57, 210, 120
-0.996231, 273, 97, 400, 128
-0.996231, 209, 129, 336, 160
-0.99624, 139, 89, 154, 152
-0.99626, 247, 113, 262, 176
-0.996266, 405, 313, 420, 375
-0.99627, 129, 165, 256, 196
-0.996281, 121, 257, 136, 320
-0.996285, 181, 1, 196, 64
-0.996303, 203, 169, 218, 232
-0.996309, 65, 225, 80, 288
-0.996313, 299, 273, 314, 336
-0.996321, 57, 297, 72, 360
-0.996326, 217, 65, 232, 128
-0.996331, 347, 201, 362, 264
-0.996355, 381, 129, 396, 192
-0.996356, 441, 225, 456, 288
-0.996365, 87, 105, 102, 168
-0.996374, 33, 297, 48, 360
-0.996374, 89, 1, 104, 64
-0.996389, 145, 285, 272, 316
-0.996394, 421, 105, 436, 168
-0.996394, 393, 121, 408, 184
-0.996399, 249, 65, 264, 128
-0.996401, 1, 201, 500, 264
-0.996404, 1, 73, 500, 136
-0.996405, 321, 1, 336, 64
-0.996415, 207, 105, 222, 168
-0.996417, 363, 257, 378, 320
-0.996427, 183, 97, 198, 160
-0.996433, 485, 257, 500, 320
-0.996434, 113, 109, 240, 140
-0.996436, 65, 273, 80, 336
-0.996439, 161, 77, 288, 108
-0.996439, 379, 161, 394, 224
-0.996441, 129, 201, 384, 264
-0.99645, 163, 121, 178, 184
-0.996452, 367, 145, 382, 208
-0.996461, 259, 113, 274, 176
-0.996461, 335, 161, 350, 224
-0.996462, 197, 81, 212, 144
-0.996466, 273, 37, 400, 68
-0.996486, 249, 89, 264, 152
-0.996486, 219, 97, 234, 160
-0.996501, 241, 13, 368, 44
-0.996534, 413, 1, 444, 256
-0.996591, 1, 73, 128, 136
-0.99661, 145, 237, 272, 268
-0.996618, 1, 305, 500, 368
-0.996646, 49, 133, 176, 164
-0.996652, 129, 201, 256, 232
-0.996656, 225, 145, 352, 176
-0.9967, 321, 173, 448, 204
-0.996709, 257, 177, 500, 240
-0.996714, 121, 65, 152, 320
-0.996718, 257, 285, 384, 316
-0.996721, 49, 193, 176, 224
-0.996721, 139, 181, 154, 212
-0.996726, 161, 45, 288, 76
-0.996743, 225, 201, 352, 232
-0.996768, 97, 285, 224, 316
-0.99677, 145, 249, 272, 280
-0.996771, 65, 241, 192, 272
-0.996779, 369, 317, 496, 348
-0.996782, 77, 121, 92, 152
-0.996794, 257, 125, 384, 156
-0.996811, 117, 177, 132, 208
-0.996819, 347, 181, 362, 212
-0.996829, 129, 249, 384, 312
-0.996842, 33, 109, 160, 140
-0.996851, 305, 197, 432, 228
-0.996853, 1, 317, 128, 348
-0.996854, 17, 17, 144, 48
-0.996872, 321, 97, 448, 128
-0.996888, 161, 153, 288, 184
-0.996893, 83, 125, 98, 156
-0.996893, 257, 345, 384, 375
-0.996911, 425, 145, 488, 272
-0.996916, 49, 157, 176, 188
-0.996943, 89, 129, 104, 160
-0.996972, 241, 305, 368, 336
-0.996987, 359, 181, 374, 212
-0.996993, 1, 281, 128, 312
-0.997001, 209, 221, 336, 252
-0.997008, 21, 301, 36, 332
-0.997011, 97, 121, 224, 152
-0.997017, 1, 313, 256, 375
-0.997018, 369, 261, 496, 292
-0.997023, 305, 1, 336, 256
-0.997023, 137, 1, 168, 256
-0.997024, 305, 337, 432, 368
-0.997034, 399, 29, 414, 60
-0.997046, 189, 1, 220, 256
-0.997064, 131, 189, 146, 220
-0.997066, 33, 73, 160, 104
-0.99707, 1, 133, 128, 164
-0.997073, 113, 41, 240, 72
-0.99708, 33, 177, 160, 208
-0.997086, 5, 313, 20, 344
-0.997105, 249, 65, 280, 320
-0.997121, 389, 1, 420, 256
-0.997128, 241, 165, 368, 196
-0.997131, 269, 1, 300, 256
-0.997155, 69, 117, 84, 148
-0.997156, 369, 181, 384, 212
-0.99717, 21, 129, 52, 375
-0.99718, 317, 1, 348, 256
-0.997196, 213, 1, 244, 256
-0.997197, 257, 233, 384, 264
-0.997223, 401, 121, 416, 152
-0.997233, 257, 117, 272, 148
-0.997238, 49, 129, 80, 375
-0.997243, 359, 25, 374, 56
-0.997252, 125, 109, 140, 140
-0.997272, 383, 33, 398, 64
-0.997288, 165, 1, 196, 256
-0.997304, 289, 157, 416, 188
-0.997304, 393, 25, 408, 56
-0.99731, 341, 189, 356, 220
-0.997312, 33, 129, 64, 375
-0.997313, 15, 345, 30, 375
-0.997313, 375, 33, 390, 64
-0.997325, 391, 125, 406, 156
-0.997329, 379, 5, 394, 36
-0.997337, 421, 109, 436, 140
-0.997344, 425, 1, 456, 256
-0.99735, 273, 73, 400, 104
-0.997354, 387, 21, 402, 52
-0.997365, 137, 197, 152, 228
-0.997368, 1, 201, 256, 264
-0.997369, 1, 33, 500, 96
-0.997372, 401, 1, 432, 256
-0.997373, 113, 153, 240, 184
-0.997377, 273, 1, 288, 32
-0.997382, 73, 1, 104, 256
-0.997385, 305, 229, 432, 260
-0.997396, 113, 265, 240, 296
-0.9974, 353, 133, 480, 164
-0.997401, 369, 41, 496, 72
-0.997413, 389, 1, 404, 32
-0.997414, 65, 45, 192, 76
-0.997417, 273, 269, 400, 300
-0.99742, 157, 97, 188, 352
-0.997421, 135, 73, 150, 104
-0.997421, 95, 133, 110, 164
-0.997423, 305, 85, 432, 116
-0.997427, 11, 297, 26, 328
-0.997428, 365, 33, 380, 64
-0.997428, 65, 209, 192, 240
-0.997433, 413, 97, 444, 352
-0.997433, 177, 189, 304, 220
-0.997441, 273, 257, 400, 288
-0.997447, 125, 141, 140, 172
-0.997451, 149, 189, 164, 220
-0.997455, 201, 1, 232, 256
-0.997456, 249, 197, 264, 228
-0.997458, 411, 117, 426, 148
-0.997472, 1, 345, 128, 375
-0.997484, 371, 1, 386, 32
-0.99749, 65, 249, 80, 280
-0.997515, 225, 177, 352, 208
-0.997515, 83, 137, 98, 168
-0.997517, 365, 5, 380, 36
-0.997541, 13, 333, 28, 364
-0.99755, 133, 89, 148, 120
-0.997551, 477, 1, 492, 32
-0.997553, 353, 181, 368, 212
-0.997554, 161, 133, 288, 164
-0.997557, 347, 201, 362, 232
-0.997561, 5, 297, 20, 328
-0.997563, 15, 309, 30, 340
-0.997563, 327, 1, 342, 32
-0.997581, 253, 129, 268, 160
-0.997588, 465, 1, 496, 256
-0.997592, 161, 297, 288, 360
-0.997593, 365, 21, 380, 52
-0.997597, 183, 1, 198, 32
-0.997597, 209, 41, 336, 72
-0.997599, 225, 145, 480, 208
-0.99761, 411, 105, 426, 136
-0.997612, 123, 189, 138, 220
-0.997615, 49, 305, 176, 336
-0.997615, 69, 129, 84, 160
-0.997617, 33, 89, 160, 120
-0.997621, 369, 329, 496, 360
-0.997626, 109, 1, 140, 256
-0.997634, 415, 237, 430, 268
-0.997635, 433, 5, 448, 36
-0.99764, 353, 197, 368, 228
-0.997643, 1, 265, 128, 296
-0.997648, 225, 257, 352, 288
-0.997649, 33, 145, 160, 176
-0.997661, 121, 5, 136, 36
-0.997664, 415, 1, 430, 32
-0.997666, 241, 25, 368, 56
-0.997676, 361, 1, 392, 256
-0.997677, 1, 169, 500, 232
-0.997677, 307, 73, 322, 104
-0.997688, 193, 241, 320, 272
-0.997699, 97, 1, 128, 256
-0.997704, 405, 109, 420, 140
-0.997709, 33, 301, 48, 332
-0.997718, 223, 89, 238, 120
-0.99773, 7, 333, 22, 364
-0.997736, 339, 1, 354, 32
-0.997741, 125, 97, 140, 128
-0.997761, 113, 213, 240, 244
-0.997775, 313, 73, 328, 104
-0.997778, 1, 241, 128, 272
-0.997781, 113, 193, 128, 224
-0.997781, 95, 145, 110, 176
-0.997783, 399, 109, 414, 140
-0.99779, 321, 325, 448, 356
-0.997813, 173, 89, 188, 120
-0.997816, 427, 113, 442, 144
-0.997816, 123, 177, 138, 208
-0.997824, 393, 37, 408, 68
-0.997838, 363, 193, 378, 224
-0.997842, 209, 89, 224, 120
-0.997847, 133, 97, 164, 352
-0.997858, 373, 21, 388, 52
-0.997863, 1, 121, 128, 152
-0.997866, 357, 145, 372, 176
-0.997878, 123, 121, 138, 152
-0.997881, 191, 85, 206, 116
-0.997882, 349, 33, 364, 64
-0.997885, 373, 1, 404, 256
-0.997886, 167, 113, 182, 144
-0.997888, 289, 53, 416, 84
-0.997892, 131, 13, 146, 44
-0.997908, 187, 41, 202, 72
-0.997909, 359, 37, 374, 68
-0.997912, 407, 33, 422, 64
-0.997914, 81, 65, 208, 96
-0.997917, 333, 1, 348, 32
-0.99792, 27, 301, 42, 332
-0.997933, 121, 17, 136, 48
-0.997935, 23, 321, 38, 352
-0.997936, 263, 197, 278, 228
-0.997939, 229, 85, 244, 116
-0.997944, 381, 133, 396, 164
-0.997944, 167, 97, 182, 128
-0.997947, 201, 77, 216, 108
-0.997953, 111, 177, 126, 208
-0.997954, 133, 129, 148, 160
-0.997955, 415, 261, 430, 292
-0.997959, 89, 141, 104, 172
-0.997963, 125, 265, 140, 296
-0.997963, 123, 201, 138, 232
-0.997966, 459, 1, 474, 32
-0.997967, 369, 97, 496, 128
-0.997968, 199, 89, 214, 120
-0.997978, 209, 97, 240, 352
-0.997978, 113, 5, 128, 36
-0.997981, 269, 193, 284, 224
-0.997982, 105, 149, 120, 180
-0.997984, 407, 17, 422, 48
-0.997985, 129, 73, 144, 104
-0.997986, 295, 1, 310, 32
-0.997986, 207, 77, 222, 108
-0.997992, 243, 201, 258, 232
-0.997997, 361, 265, 376, 296
-0.998008, 387, 137, 402, 168
-0.998011, 453, 1, 484, 256
-0.998013, 263, 113, 278, 144
-0.998017, 181, 53, 196, 84
-0.998022, 381, 21, 396, 52
-0.998024, 333, 1, 364, 256
-0.998025, 129, 177, 144, 208
-0.998027, 217, 73, 232, 104
-0.998035, 225, 1, 256, 256
-0.998037, 397, 97, 428, 352
-0.99804, 171, 173, 186, 204
-0.998042, 143, 193, 158, 224
-0.998042, 111, 165, 126, 196
-0.998045, 259, 101, 274, 132
-0.998058, 375, 177, 390, 208
-0.998062, 427, 9, 442, 40
-0.998065, 69, 129, 100, 375
-0.998073, 295, 69, 310, 100
-0.998092, 197, 53, 212, 84
-0.998101, 381, 173, 396, 204
-0.998104, 161, 1, 176, 32
-0.998105, 251, 105, 266, 136
-0.998132, 365, 97, 396, 352
-0.998143, 197, 97, 228, 352
-0.998185, 149, 1, 180, 256
-0.998188, 129, 297, 384, 360
-0.998223, 237, 97, 268, 352
-0.998259, 145, 129, 176, 375
-0.998287, 433, 97, 496, 224
-0.998344, 177, 1, 208, 256
-0.99835, 425, 97, 456, 352
-0.998353, 341, 97, 372, 352
-0.998363, 329, 187, 392, 202
-0.998364, 237, 1, 268, 256
-0.998398, 105, 185, 168, 200
-0.998398, 393, 121, 456, 136
-0.998399, 9, 129, 40, 375
-0.998401, 73, 131, 136, 146
-0.998406, 1, 145, 500, 208
-0.998413, 113, 201, 176, 216
-0.998425, 245, 133, 276, 148
-0.998428, 53, 299, 84, 314
-0.998428, 197, 77, 228, 92
-0.998428, 385, 109, 416, 124
-0.998429, 405, 127, 436, 142
-0.998429, 101, 179, 132, 194
-0.998429, 105, 191, 168, 206
-0.998429, 353, 37, 416, 52
-0.998432, 129, 93, 160, 108
-0.998432, 249, 167, 280, 182
-0.998432, 41, 305, 72, 320
-0.998433, 53, 255, 84, 270
-0.998434, 305, 13, 336, 28
-0.998434, 409, 5, 440, 20
-0.998437, 117, 143, 148, 158
-0.998437, 125, 79, 156, 94
-0.998438, 261, 9, 292, 24
-0.998439, 217, 155, 248, 170
-0.998439, 181, 9, 212, 24
-0.998439, 9, 361, 40, 375
-0.998441, 1, 319, 32, 334
-0.998442, 169, 87, 200, 102
-0.998442, 141, 203, 172, 218
-0.998442, 281, 275, 312, 290
-0.998443, 97, 17, 128, 32
-0.998443, 157, 9, 188, 24
-0.998443, 433, 13, 496, 28
-0.998445, 213, 75, 244, 90
-0.998447, 353, 5, 384, 20
-0.998447, 161, 167, 192, 182
-0.998448, 345, 113, 376, 128
-0.998448, 1, 13, 32, 28
-0.998448, 309, 211, 340, 226
-0.998451, 1, 333, 32, 348
-0.998452, 369, 9, 400, 24
-0.998453, 441, 65, 472, 320
-0.998453, 409, 13, 472, 28
-0.998453, 241, 205, 272, 220
-0.998454, 441, 11, 472, 26
-0.998454, 305, 7, 336, 22
-0.998454, 297, 273, 328, 288
-0.998454, 149, 83, 180, 98
-0.998454, 325, 115, 356, 130
-0.998455, 329, 181, 392, 196
-0.998456, 249, 175, 280, 190
-0.998456, 325, 153, 356, 168
-0.998456, 57, 129, 88, 144
-0.998456, 361, 145, 392, 160
-0.998457, 389, 121, 420, 136
-0.998457, 109, 19, 140, 34
-0.998457, 261, 129, 292, 375
-0.998459, 381, 41, 412, 56
-0.998462, 105, 145, 136, 160
-0.998462, 365, 259, 396, 274
-0.998462, 381, 5, 412, 20
-0.998463, 233, 199, 264, 214
-0.998463, 333, 199, 364, 214
-0.998463, 269, 15, 300, 30
-0.998465, 201, 95, 232, 110
-0.998466, 273, 5, 304, 20
-0.998467, 381, 25, 412, 40
-0.998468, 357, 189, 388, 204
-0.998469, 129, 17, 192, 32
-0.998471, 145, 9, 176, 24
-0.998471, 349, 153, 380, 168
-0.998473, 345, 203, 376, 218
-0.998473, 253, 123, 284, 138
-0.998474, 229, 131, 260, 146
-0.998474, 189, 93, 220, 108
-0.998474, 273, 169, 304, 184
-0.998475, 377, 109, 440, 124
-0.998475, 361, 265, 392, 280
-0.998476, 117, 201, 148, 216
-0.998477, 337, 5, 400, 20
-0.998477, 353, 25, 416, 40
-0.998478, 377, 137, 408, 152
-0.998478, 109, 7, 140, 22
-0.99848, 213, 99, 244, 114
-0.998482, 229, 101, 260, 116
-0.998482, 261, 165, 292, 180
-0.998483, 177, 95, 240, 110
-0.998484, 193, 53, 224, 68
-0.998484, 129, 73, 160, 88
-0.998485, 93, 11, 124, 26
-0.998486, 301, 285, 332, 300
-0.998487, 329, 193, 392, 208
-0.998488, 241, 127, 272, 142
-0.998488, 405, 115, 436, 130
-0.99849, 385, 5, 448, 20
-0.998491, 345, 43, 376, 58
-0.998491, 105, 179, 168, 194
-0.998492, 61, 137, 92, 152
-0.998492, 129, 185, 192, 200
-0.998492, 357, 27, 388, 42
-0.998493, 257, 199, 288, 214
-0.998493, 209, 103, 272, 118
-0.998493, 133, 87, 164, 102
-0.998494, 49, 249, 80, 264
-0.998498, 25, 303, 56, 318
-0.998499, 165, 93, 196, 108
-0.9985, 49, 127, 112, 142
-0.998501, 161, 15, 192, 30
-0.998502, 89, 137, 120, 152
-0.998502, 25, 251, 88, 266
-0.998503, 393, 127, 424, 142
-0.998504, 25, 305, 88, 320
-0.998504, 245, 105, 276, 120
-0.998504, 329, 199, 392, 214
-0.998504, 109, 13, 140, 28
-0.998507, 413, 109, 444, 124
-0.998507, 297, 13, 360, 28
-0.998508, 41, 137, 104, 152
-0.998508, 181, 87, 212, 102
-0.99851, 129, 195, 192, 210
-0.99851, 429, 115, 460, 130
-0.998511, 361, 43, 392, 58
-0.998511, 89, 151, 120, 166
-0.998512, 297, 77, 328, 92
-0.998514, 169, 9, 200, 24
-0.998515, 389, 35, 420, 50
-0.998515, 137, 87, 200, 102
-0.998516, 89, 9, 152, 24
-0.998517, 121, 9, 184, 24
-0.998517, 357, 197, 388, 212
-0.998518, 73, 137, 136, 152
-0.998518, 1, 355, 64, 370
-0.998519, 353, 111, 416, 126
-0.99852, 409, 115, 472, 130
-0.99852, 353, 43, 416, 58
-0.998521, 385, 127, 448, 142
-0.998522, 313, 5, 376, 20
-0.998523, 121, 95, 184, 110
-0.998523, 353, 31, 416, 46
-0.998523, 257, 7, 320, 22
-0.998524, 113, 187, 144, 202
-0.998524, 273, 13, 336, 28
-0.998525, 313, 151, 376, 166
-0.998533, 337, 155, 400, 170
-0.998534, 121, 15, 152, 30
-0.998535, 325, 309, 356, 324
-0.998536, 393, 19, 456, 34
-0.998536, 137, 197, 168, 212
-0.998537, 85, 145, 116, 160
-0.998537, 281, 7, 344, 22
-0.998538, 89, 143, 152, 158
-0.99854, 417, 115, 448, 130
-0.99854, 1, 325, 32, 340
-0.99854, 305, 197, 368, 212
-0.99854, 249, 191, 280, 206
-0.99854, 249, 171, 312, 186
-0.998543, 345, 183, 376, 198
-0.998544, 73, 125, 136, 140
-0.998544, 233, 199, 296, 214
-0.998544, 261, 171, 292, 186
-0.998544, 153, 93, 216, 108
-0.998547, 417, 11, 448, 26
-0.998547, 145, 9, 208, 24
-0.998548, 265, 193, 296, 208
-0.998548, 169, 97, 200, 352
-0.998551, 169, 101, 232, 116
-0.998552, 153, 17, 216, 32
-0.998553, 265, 75, 328, 90
-0.998555, 373, 33, 404, 48
-0.998555, 137, 175, 200, 190
-0.998555, 345, 11, 408, 26
-0.998556, 409, 7, 472, 22
-0.998558, 281, 1, 312, 256
-0.998559, 201, 97, 264, 112
-0.998559, 325, 5, 356, 20
-0.998559, 85, 1, 116, 256
-0.998561, 129, 203, 160, 218
-0.998562, 433, 5, 496, 20
-0.998563, 369, 15, 432, 30
-0.998563, 377, 35, 440, 50
-0.998564, 81, 129, 112, 144
-0.998565, 113, 181, 144, 196
-0.998565, 345, 127, 408, 142
-0.998566, 297, 211, 360, 226
-0.998567, 241, 191, 304, 206
-0.998568, 113, 269, 176, 284
-0.998568, 57, 299, 120, 314
-0.998569, 361, 261, 424, 276
-0.998569, 25, 295, 88, 310
-0.99857, 365, 3, 396, 18
-0.99857, 185, 77, 248, 92
-0.99857, 89, 17, 152, 32
-0.998571, 401, 237, 464, 252
-0.998571, 97, 149, 160, 164
-0.998571, 9, 311, 40, 326
-0.998572, 1, 303, 64, 318
-0.998572, 65, 147, 128, 162
-0.998573, 177, 83, 240, 98
-0.998574, 65, 265, 128, 280
-0.998574, 9, 323, 72, 338
-0.998574, 201, 131, 264, 146
-0.998575, 297, 309, 360, 324
-0.998577, 121, 1, 184, 16
-0.998577, 153, 167, 216, 182
-0.998578, 357, 183, 388, 198
-0.998579, 25, 257, 88, 272
-0.998581, 133, 187, 164, 202
-0.998582, 385, 133, 448, 148
-0.998583, 293, 1, 324, 256
-0.998584, 313, 205, 376, 220
-0.998585, 137, 81, 200, 96
-0.998586, 121, 101, 184, 116
-0.998586, 233, 125, 296, 140
-0.998586, 265, 275, 328, 290
-0.998587, 265, 285, 328, 300
-0.998587, 81, 1, 144, 16
-0.998588, 65, 273, 128, 288
-0.998589, 313, 43, 376, 58
-0.998589, 369, 121, 432, 136
-0.99859, 369, 297, 432, 312
-0.99859, 177, 89, 240, 104
-0.99859, 341, 193, 372, 208
-0.998591, 73, 137, 104, 152
-0.998592, 245, 199, 276, 214
-0.998594, 1, 329, 64, 344
-0.998594, 361, 5, 424, 20
-0.998594, 289, 285, 352, 300
-0.998596, 321, 15, 384, 30
-0.998596, 313, 263, 376, 278
-0.998598, 1, 241, 16, 368
-0.998599, 329, 113, 392, 128
-0.998599, 209, 193, 272, 208
-0.9986, 181, 53, 212, 68
-0.9986, 209, 75, 272, 90
-0.9986, 217, 205, 280, 220
-0.998601, 409, 263, 472, 278
-0.998601, 73, 119, 136, 134
-0.998602, 169, 177, 232, 192
-0.998602, 401, 121, 432, 136
-0.998602, 209, 123, 272, 138
-0.998603, 369, 273, 432, 288
-0.998603, 153, 107, 216, 122
-0.998603, 63, 209, 78, 336
-0.998603, 25, 129, 88, 144
-0.998604, 257, 269, 320, 284
-0.998604, 233, 133, 296, 148
-0.998604, 153, 191, 216, 206
-0.998605, 1, 313, 64, 328
-0.998606, 265, 193, 328, 208
-0.998606, 281, 129, 344, 144
-0.998608, 417, 109, 480, 124
-0.998608, 297, 157, 360, 172
-0.998608, 57, 17, 120, 32
-0.99861, 321, 35, 384, 50
-0.998611, 177, 235, 240, 250
-0.998611, 65, 259, 128, 274
-0.998611, 65, 279, 128, 294
-0.998612, 89, 197, 152, 212
-0.998612, 297, 115, 360, 130
-0.998612, 109, 151, 140, 166
-0.998614, 121, 75, 184, 90
-0.998615, 137, 201, 200, 216
-0.998615, 233, 165, 296, 180
-0.998622, 65, 121, 96, 136
-0.998624, 185, 97, 216, 352
-0.998627, 117, 195, 148, 210
-0.998634, 353, 35, 384, 50
-0.998665, 413, 121, 444, 136
-0.998668, 69, 131, 100, 146
-0.998679, 167, 97, 182, 224
-0.99869, 5, 355, 36, 370
-0.998691, 453, 97, 484, 352
-0.998697, 13, 241, 28, 368
-0.998697, 469, 97, 500, 352
-0.998699, 347, 161, 362, 288
-0.998709, 73, 97, 88, 224
-0.99871, 47, 225, 62, 352
-0.998717, 417, 225, 432, 352
-0.99873, 7, 241, 22, 368
-0.99874, 353, 97, 384, 352
-0.998761, 53, 225, 68, 352
-0.998762, 37, 225, 52, 352
-0.998779, 25, 225, 40, 352
-0.998791, 125, 17, 140, 144
-0.998792, 19, 241, 34, 368
-0.998808, 31, 225, 46, 352
-0.998841, 357, 129, 372, 256
-0.998843, 143, 161, 158, 288
-0.998943, 81, 129, 112, 375
-0.998945, 131, 113, 146, 240
-0.998946, 141, 97, 156, 224
-0.998956, 173, 49, 188, 176
-0.998966, 355, 177, 370, 304
-0.998969, 249, 65, 264, 192
-0.998972, 137, 145, 152, 272
-0.998998, 131, 65, 146, 192
-0.999007, 349, 1, 380, 256
-0.999009, 137, 17, 152, 144
-0.999011, 123, 97, 138, 224
-0.999011, 119, 1, 134, 128
-0.999017, 183, 1, 198, 128
-0.99902, 253, 113, 268, 240
-0.999022, 363, 145, 378, 272
-0.999029, 259, 97, 274, 224
-0.99905, 207, 33, 222, 160
-0.999053, 327, 1, 342, 128
-0.99906, 103, 129, 118, 256
-0.999065, 381, 1, 396, 128
-0.99907, 381, 129, 412, 375
-0.999071, 221, 97, 252, 352
-0.999076, 369, 113, 384, 240
-0.999082, 341, 113, 356, 240
-0.999089, 463, 193, 478, 320
-0.99909, 243, 65, 258, 192
-0.999094, 361, 1, 376, 128
-0.999095, 79, 97, 94, 224
-0.999095, 131, 17, 146, 144
-0.999098, 61, 33, 92, 288
-0.999108, 367, 1, 382, 128
-0.99911, 385, 113, 400, 240
-0.999112, 67, 97, 82, 224
-0.999115, 349, 113, 364, 240
-0.999123, 91, 113, 106, 240
-0.999133, 341, 161, 356, 288
-0.999136, 297, 97, 328, 352
-0.999136, 479, 193, 494, 320
-0.999138, 423, 241, 438, 368
-0.999139, 265, 97, 280, 224
-0.999144, 123, 241, 138, 368
-0.999144, 429, 241, 444, 368
-0.999146, 151, 113, 166, 240
-0.999158, 365, 241, 380, 368
-0.99916, 427, 1, 442, 128
-0.999162, 379, 129, 394, 256
-0.999165, 101, 97, 132, 352
-0.99917, 69, 241, 84, 368
-0.999171, 157, 113, 172, 240
-0.999172, 417, 33, 432, 160
-0.999175, 469, 193, 484, 320
-0.999175, 85, 65, 100, 192
-0.999176, 359, 241, 374, 368
-0.999176, 275, 145, 290, 272
-0.999177, 273, 1, 288, 128
-0.999179, 457, 193, 472, 320
-0.999183, 147, 65, 162, 192
-0.999183, 97, 129, 112, 256
-0.999183, 257, 33, 272, 160
-0.99919, 375, 1, 390, 128
-0.999193, 117, 145, 132, 272
-0.999195, 405, 225, 420, 352
-0.999198, 161, 49, 176, 176
-0.9992, 239, 113, 254, 240
-0.9992, 109, 113, 124, 240
-0.999201, 387, 1, 402, 128
-0.999203, 167, 49, 182, 176
-0.999204, 157, 1, 172, 128
-0.999214, 213, 49, 228, 176
-0.999215, 149, 161, 164, 288
-0.999217, 191, 33, 206, 160
-0.99922, 363, 97, 378, 224
-0.999221, 219, 33, 234, 160
-0.999222, 485, 193, 500, 320
-0.999222, 227, 17, 242, 144
-0.999224, 435, 225, 450, 352
-0.999224, 197, 49, 212, 176
-0.999225, 97, 81, 112, 208
-0.999234, 113, 1, 128, 128
-0.999237, 181, 49, 196, 176
-0.999241, 137, 193, 152, 320
-0.999244, 235, 65, 250, 192
-0.999252, 263, 49, 278, 176
-0.999255, 395, 1, 410, 128
-0.999256, 157, 161, 172, 288
-0.999259, 409, 1, 424, 128
-0.999265, 411, 241, 426, 368
-0.999268, 151, 1, 166, 128
-0.999271, 417, 81, 432, 208
-0.999272, 409, 81, 424, 208
-0.999273, 439, 1, 454, 128
-0.999273, 143, 17, 158, 144
-0.999279, 79, 49, 94, 176
-0.999281, 107, 1, 122, 128
-0.999284, 131, 177, 146, 304
-0.999285, 69, 49, 84, 176
-0.999286, 243, 17, 258, 144
-0.999292, 7, 193, 22, 320
-0.999296, 357, 49, 372, 176
-0.999298, 379, 81, 394, 208
-0.999298, 247, 129, 262, 256
-0.999299, 445, 1, 460, 128
-0.999301, 335, 129, 350, 256
-0.999302, 451, 209, 466, 336
-0.999303, 441, 209, 456, 336
-0.999303, 249, 17, 264, 144
-0.999303, 175, 177, 190, 304
-0.999305, 297, 1, 312, 128
-0.999308, 273, 97, 288, 224
-0.999314, 231, 129, 246, 256
-0.999315, 219, 81, 234, 208
-0.999318, 115, 193, 130, 320
-0.999324, 367, 193, 382, 320
-0.999325, 163, 1, 178, 128
-0.99934, 205, 81, 220, 208
-0.999347, 423, 49, 438, 176
-0.99935, 169, 145, 184, 272
-0.999352, 369, 49, 384, 176
-0.999354, 249, 177, 264, 304
-0.999356, 233, 17, 248, 144
-0.999411, 1, 49, 64, 176
-0.999438, 281, 97, 312, 352
-0.999533, 329, 129, 360, 375
-0.999632, 253, 109, 268, 124
-0.999632, 165, 131, 180, 146
-0.999633, 65, 249, 80, 264
-0.999633, 173, 189, 188, 204
-0.999634, 399, 29, 414, 44
-0.999635, 9, 333, 24, 348
-0.999635, 115, 173, 130, 188
-0.999635, 353, 181, 368, 196
-0.999635, 361, 43, 376, 58
-0.999635, 129, 199, 144, 214
-0.999635, 115, 189, 130, 204
-0.999636, 129, 99, 144, 114
-0.999637, 99, 153, 114, 168
-0.999637, 365, 263, 380, 278
-0.999638, 171, 115, 186, 130
-0.999638, 9, 327, 24, 342
-0.999638, 337, 1, 352, 16
-0.999639, 177, 93, 192, 108
-0.999639, 329, 3, 344, 18
-0.999639, 417, 115, 432, 130
-0.99964, 347, 111, 362, 126
-0.999641, 145, 205, 160, 220
-0.999641, 111, 149, 126, 164
-0.999643, 359, 263, 374, 278
-0.999643, 369, 189, 384, 204
-0.999643, 295, 271, 310, 286
-0.999644, 125, 205, 140, 220
-0.999645, 395, 131, 410, 146
-0.999645, 365, 151, 380, 166
-0.999645, 241, 201, 256, 216
-0.999646, 125, 111, 140, 126
-0.999646, 303, 273, 318, 288
-0.999646, 139, 85, 154, 100
-0.999647, 373, 195, 388, 210
-0.999647, 253, 175, 268, 190
-0.999647, 187, 87, 202, 102
-0.999649, 161, 7, 176, 22
-0.999649, 313, 77, 328, 92
-0.999652, 423, 109, 438, 124
-0.999653, 355, 145, 370, 160
-0.999653, 405, 127, 420, 142
-0.999653, 197, 53, 212, 68
-0.999654, 347, 203, 362, 218
-0.999655, 189, 55, 204, 70
-0.999655, 167, 109, 182, 124
-0.999657, 21, 311, 36, 326
-0.999658, 275, 193, 290, 208
-0.999658, 127, 263, 142, 278
-0.999658, 247, 125, 262, 140
-0.999658, 221, 97, 236, 112
-0.999659, 359, 193, 374, 208
-0.999659, 121, 19, 136, 34
-0.99966, 183, 53, 198, 68
-0.999661, 273, 7, 288, 22
-0.999661, 69, 119, 84, 134
-0.999661, 121, 191, 136, 206
-0.999662, 1, 315, 16, 330
-0.999662, 259, 203, 274, 218
-0.999662, 123, 137, 138, 152
-0.999665, 75, 137, 90, 152
-0.999665, 89, 145, 104, 160
-0.999667, 211, 95, 226, 110
-0.999668, 265, 167, 280, 182
-0.99967, 433, 11, 448, 26
-0.999671, 125, 151, 140, 166
-0.999672, 253, 193, 268, 208
-0.999672, 183, 9, 198, 24
-0.999673, 127, 105, 142, 120
-0.999675, 115, 197, 130, 212
-0.999675, 175, 87, 190, 102
-0.999675, 277, 165, 292, 180
-0.999676, 23, 323, 38, 338
-0.999677, 249, 131, 264, 146
-0.999678, 381, 135, 396, 150
-0.999678, 419, 121, 434, 136
-0.999679, 353, 203, 368, 218
-0.999679, 381, 7, 396, 22
-0.999679, 265, 173, 280, 188
-0.99968, 363, 181, 378, 196
-0.99968, 341, 197, 356, 212
-0.99968, 135, 73, 150, 88
-0.999684, 303, 285, 318, 300
-0.999685, 129, 75, 144, 90
-0.999686, 411, 115, 426, 130
-0.999687, 9, 355, 24, 370
-0.999687, 397, 35, 412, 50
-0.999688, 75, 121, 90, 136
-0.999689, 369, 43, 384, 58
-0.999692, 257, 121, 272, 136
-0.999692, 269, 191, 284, 206
-0.999693, 389, 135, 404, 150
-0.999693, 89, 139, 104, 154
-0.999693, 427, 121, 442, 136
-0.999694, 265, 197, 280, 212
-0.999694, 163, 169, 178, 184
-0.999696, 367, 5, 382, 20
-0.999696, 129, 193, 144, 208
-0.999697, 423, 115, 438, 130
-0.999698, 389, 35, 404, 50
-0.999699, 413, 121, 428, 136
-0.9997, 431, 115, 446, 130
-0.999703, 131, 17, 146, 32
-0.999705, 69, 129, 84, 144
-0.999705, 117, 179, 132, 194
-0.999708, 123, 199, 138, 214
-0.999708, 399, 125, 414, 140
-0.999708, 307, 75, 322, 90
-0.999712, 95, 147, 110, 162
-0.999716, 259, 195, 274, 210
-0.999717, 83, 125, 98, 140
-0.999717, 105, 151, 120, 166
-0.999718, 69, 135, 84, 150
-0.99972, 253, 199, 268, 214
-0.999722, 347, 185, 362, 200
-0.999722, 369, 35, 384, 50
-0.999724, 271, 167, 286, 182
-0.999729, 255, 127, 270, 142
-0.999731, 377, 35, 392, 50
-0.999733, 373, 1, 388, 16
-0.999733, 259, 171, 274, 186
-0.999735, 139, 183, 154, 198
-0.999735, 309, 97, 340, 352
-0.999738, 359, 35, 374, 50
-0.999744, 405, 121, 420, 136
-0.999751, 383, 35, 398, 50
-0.999756, 135, 203, 150, 218
-0.999758, 75, 131, 90, 146
-0.999774, 87, 131, 102, 146
-0.999778, 29, 33, 60, 288
-0.999782, 15, 353, 30, 368
-0.999813, 81, 135, 96, 150
-0.999843, 247, 199, 262, 214
-0.999858, 45, 33, 76, 288
-1.00021, 9, 33, 40, 288
-1.00252, 1, 113, 64, 240
-1.00423, 273, 193, 336, 320
