1951
-0.349415, 1, 97, 500, 352
-0.566983, 1, 1, 500, 353
-0.612054, 1, 1, 500, 256
-0.642862, 161, 97, 416, 352
-0.650964, 33, 97, 288, 352
-0.652389, 97, 1, 352, 353
-0.72834, 257, 97, 500, 352
-0.732956, 257, 1, 500, 353
-0.782758, 1, 1, 256, 353
-0.866609, 65, 97, 192, 352
-0.868024, 1, 129, 500, 256
-0.87988, 1, 193, 500, 320
-0.879935, 273, 97, 400, 352
-0.883489, 97, 1, 352, 256
-0.895436, 1, 1, 256, 256
-0.895449, 161, 97, 288, 352
-0.900672, 369, 97, 496, 352
-0.903953, 113, 97, 240, 352
-0.904708, 225, 97, 352, 352
-0.908342, 257, 1, 500, 256
-0.90837, 81, 1, 208, 353
-0.909551, 17, 97, 144, 352
-0.915914, 289, 1, 416, 353
-0.918859, 177, 1, 304, 353
-0.920179, 33, 113, 288, 240
-0.920601, 321, 97, 448, 352
-0.922339, 257, 113, 500, 240
-0.922691, 1, 81, 500, 208
-0.930498, 1, 1, 128, 353
-0.930735, 129, 1, 256, 353
-0.93323, 353, 1, 480, 353
-0.936761, 241, 1, 368, 353
-0.938156, 161, 113, 416, 240
-0.938344, 81, 97, 208, 224
-0.939888, 369, 177, 496, 304
-0.942326, 1, 1, 128, 256
-0.943127, 33, 225, 288, 352
-0.943314, 209, 1, 336, 256
-0.943495, 353, 225, 480, 352
-0.943562, 1, 177, 256, 304
-0.943676, 145, 1, 272, 256
-0.947373, 369, 129, 496, 256
-0.948356, 353, 1, 480, 256
-0.948744, 81, 1, 208, 256
-0.949454, 273, 1, 400, 256
-0.949532, 193, 177, 448, 304
-0.950153, 33, 193, 160, 320
-0.950531, 257, 225, 500, 352
-0.952595, 57, 177, 120, 304
-0.953399, 161, 113, 288, 240
-0.953413, 225, 97, 352, 224
-0.954184, 57, 129, 120, 256
-0.955448, 369, 193, 432, 320
-0.955658, 305, 113, 432, 240
-0.955983, 433, 129, 496, 256
-0.956053, 409, 129, 472, 256
-0.956283, 289, 113, 352, 240
-0.956836, 1, 129, 128, 256
-0.957194, 129, 65, 384, 192
-0.957233, 433, 177, 496, 304
-0.958696, 57, 193, 120, 256
-0.959067, 393, 193, 456, 256
-0.9601, 345, 113, 408, 240
-0.960305, 137, 97, 200, 160
-0.960439, 81, 193, 208, 320
-0.960706, 161, 161, 288, 288
-0.961054, 409, 177, 472, 304
-0.961259, 313, 113, 376, 240
-0.961742, 97, 193, 160, 320
-0.961824, 97, 113, 160, 240
-0.962107, 105, 105, 168, 168
-0.963426, 121, 81, 184, 208
-0.963566, 417, 177, 480, 240
-0.963909, 385, 129, 448, 256
-0.964341, 433, 201, 496, 264
-0.964702, 97, 177, 352, 304
-0.965598, 393, 225, 456, 352
-0.965665, 97, 145, 224, 272
-0.965888, 289, 177, 416, 304
-0.965888, 145, 209, 272, 336
-0.966146, 169, 113, 232, 240
-0.966651, 273, 113, 336, 176
-0.966774, 217, 97, 280, 224
-0.966808, 57, 217, 120, 280
-0.967119, 201, 145, 264, 272
-0.967327, 265, 97, 328, 224
-0.96798, 121, 193, 184, 320
-0.96842, 129, 225, 384, 352
-0.968617, 241, 113, 304, 176
-0.968621, 81, 193, 144, 256
-0.968785, 65, 225, 128, 352
-0.968927, 313, 121, 376, 184
-0.969618, 57, 169, 120, 232
-0.969859, 225, 145, 352, 272
-0.970348, 33, 209, 96, 336
-0.970534, 433, 145, 496, 208
-0.970656, 345, 193, 408, 320
-0.970709, 9, 177, 72, 304
-0.970846, 97, 217, 160, 280
-0.970952, 377, 217, 440, 280
-0.971175, 33, 65, 288, 192
-0.971278, 145, 81, 208, 208
-0.971414, 17, 113, 80, 240
-0.971593, 225, 145, 288, 272
-0.971734, 425, 225, 488, 288
-0.971893, 369, 217, 496, 280
-0.972207, 257, 145, 320, 272
-0.972289, 469, 201, 500, 264
-0.972458, 185, 201, 248, 264
-0.973915, 177, 65, 304, 192
-0.973948, 121, 209, 184, 272
-0.974966, 145, 145, 208, 272
-0.975097, 369, 185, 432, 248
-0.976018, 33, 161, 96, 288
-0.976069, 305, 225, 432, 352
-0.976229, 41, 273, 104, 336
-0.976308, 97, 105, 224, 168
-0.976316, 469, 129, 500, 256
-0.976385, 149, 89, 180, 152
-0.97655, 361, 121, 424, 184
-0.976568, 49, 145, 176, 272
-0.976714, 345, 185, 408, 248
-0.976837, 417, 225, 480, 352
-0.976954, 73, 97, 136, 352
-0.976973, 241, 97, 304, 224
-0.977124, 169, 209, 232, 336
-0.977211, 465, 177, 496, 240
-0.977336, 241, 145, 304, 208
-0.977407, 33, 233, 96, 296
-0.977424, 393, 169, 456, 232
-0.977447, 393, 129, 424, 256
-0.977594, 437, 177, 468, 240
-0.977596, 217, 113, 280, 176
-0.977781, 225, 193, 288, 256
-0.977815, 65, 241, 128, 304
-0.977868, 289, 65, 416, 192
-0.977869, 65, 281, 96, 344
-0.977882, 361, 97, 424, 352
-0.977935, 369, 193, 496, 256
-0.97797, 393, 177, 424, 304
-0.978265, 193, 97, 256, 224
-0.978275, 25, 177, 88, 240
-0.978471, 281, 137, 344, 200
-0.978586, 97, 97, 160, 352
-0.978616, 393, 201, 424, 264
-0.978717, 129, 65, 256, 192
-0.978779, 385, 129, 448, 192
-0.978817, 81, 265, 144, 328
-0.97886, 449, 177, 480, 240
-0.979064, 385, 289, 448, 352
-0.979138, 345, 281, 408, 344
-0.979361, 209, 153, 272, 216
-0.979429, 33, 233, 160, 296
-0.979473, 469, 137, 500, 200
-0.979527, 89, 193, 120, 256
-0.979581, 93, 113, 124, 240
-0.979593, 225, 65, 480, 192
-0.979622, 65, 209, 192, 272
-0.979662, 209, 113, 336, 176
-0.979785, 161, 113, 224, 176
-0.979803, 401, 257, 464, 320
-0.979804, 121, 65, 184, 320
-0.979851, 433, 81, 496, 208
-0.980075, 57, 145, 120, 208
-0.980127, 321, 97, 384, 352
-0.980174, 105, 209, 136, 272
-0.980201, 289, 97, 352, 352
-0.980542, 353, 217, 416, 280
-0.980724, 201, 209, 264, 336
-0.980755, 317, 113, 348, 240
-0.980867, 17, 257, 80, 320
-0.98091, 129, 249, 192, 312
-0.980922, 289, 121, 320, 184
-0.980936, 353, 81, 480, 208
-0.980963, 321, 121, 352, 184
-0.98098, 341, 113, 372, 240
-0.981002, 241, 193, 368, 320
-0.981055, 145, 225, 208, 288
-0.981176, 425, 177, 456, 240
-0.981215, 153, 81, 184, 208
-0.981215, 1, 185, 128, 248
-0.981234, 81, 121, 144, 184
-0.981247, 57, 209, 88, 336
-0.981274, 1, 161, 128, 224
-0.981305, 457, 201, 488, 264
-0.981372, 81, 233, 208, 296
-0.981398, 433, 289, 496, 352
-0.981404, 73, 185, 104, 248
-0.981407, 169, 65, 232, 192
-0.98146, 153, 193, 216, 256
-0.98147, 177, 177, 240, 240
-0.981603, 273, 121, 400, 184
-0.981679, 145, 65, 208, 320
-0.981691, 469, 177, 500, 304
-0.981863, 177, 97, 240, 352
-0.981879, 149, 225, 180, 288
-0.981958, 369, 161, 496, 224
-0.982147, 129, 201, 256, 264
-0.982279, 445, 201, 476, 264
-0.982347, 413, 193, 444, 256
-0.982407, 73, 161, 104, 288
-0.982411, 437, 129, 468, 256
-0.982513, 225, 209, 288, 336
-0.982578, 393, 81, 456, 208
-0.98262, 377, 241, 440, 304
-0.98289, 409, 137, 472, 200
-0.982932, 453, 177, 484, 304
-0.982944, 277, 121, 308, 184
-0.982971, 433, 121, 496, 184
-0.982978, 353, 273, 480, 336
-0.982979, 321, 177, 384, 304
-0.983021, 281, 225, 344, 352
-0.983027, 33, 209, 96, 272
-0.983103, 49, 185, 176, 248
-0.983105, 169, 225, 232, 288
-0.983145, 337, 137, 400, 200
-0.98315, 377, 113, 408, 240
-0.983222, 113, 105, 144, 168
-0.983249, 369, 161, 432, 224
-0.983266, 65, 289, 128, 352
-0.983358, 289, 185, 416, 248
-0.983366, 433, 97, 496, 352
-0.983392, 145, 209, 208, 336
-0.983493, 193, 209, 320, 336
-0.983511, 81, 257, 208, 320
-0.983579, 353, 241, 480, 304
-0.983638, 209, 129, 240, 256
-0.983716, 1, 65, 128, 192
-0.98372, 9, 153, 72, 216
-0.983749, 305, 225, 368, 352
-0.983754, 313, 65, 376, 192
-0.983892, 377, 193, 408, 320
-0.983934, 17, 97, 80, 352
-0.98395, 177, 161, 240, 288
-0.983976, 65, 241, 96, 304
-0.984127, 1, 33, 500, 160
-0.984137, 345, 257, 408, 320
-0.984166, 161, 105, 288, 168
-0.984246, 93, 121, 124, 184
-0.984285, 433, 201, 464, 264
-0.984373, 89, 177, 120, 304
-0.984386, 457, 129, 488, 256
-0.984421, 225, 153, 352, 216
-0.984422, 369, 137, 496, 200
-0.984515, 433, 257, 496, 320
-0.984523, 405, 193, 436, 320
-0.984642, 225, 97, 256, 224
-0.984783, 89, 241, 152, 304
-0.984867, 193, 193, 320, 256
-0.984895, 457, 137, 488, 200
-0.984902, 41, 81, 104, 208
-0.985015, 313, 265, 376, 328
-0.985019, 33, 289, 160, 352
-0.98509, 225, 97, 288, 352
-0.985309, 9, 129, 72, 192
-0.985317, 97, 49, 160, 176
-0.985324, 109, 97, 140, 224
-0.985345, 113, 81, 176, 144
-0.985345, 289, 97, 320, 224
-0.985403, 77, 161, 108, 224
-0.985403, 257, 209, 320, 336
-0.98541, 301, 113, 332, 176
-0.985453, 341, 121, 372, 184
-0.985466, 65, 129, 192, 192
-0.985474, 301, 97, 332, 224
-0.985529, 413, 129, 444, 256
-0.985536, 57, 161, 88, 224
-0.985553, 101, 193, 132, 320
-0.985696, 305, 177, 368, 240
-0.985751, 129, 225, 256, 288
-0.985761, 273, 273, 336, 336
-0.985837, 193, 113, 256, 176
-0.985852, 161, 89, 192, 152
-0.985859, 17, 209, 144, 272
-0.985965, 393, 177, 424, 240
-0.986138, 245, 129, 276, 256
-0.986218, 457, 225, 488, 288
-0.986242, 53, 161, 84, 288
-0.986292, 61, 185, 92, 248
-0.986447, 321, 289, 384, 352
-0.986495, 113, 185, 176, 248
-0.986579, 1, 193, 64, 256
-0.986613, 117, 225, 148, 288
-0.98667, 321, 161, 448, 224
-0.986697, 161, 89, 224, 152
-0.98673, 93, 225, 124, 288
-0.986754, 229, 145, 260, 272
-0.98676, 141, 193, 172, 320
-0.986802, 401, 97, 464, 352
-0.986845, 257, 97, 320, 352
-0.98688, 129, 113, 160, 176
-0.986906, 81, 49, 208, 176
-0.987, 401, 217, 464, 280
-0.987022, 69, 209, 100, 272
-0.987068, 1, 129, 128, 192
-0.98714, 189, 113, 220, 240
-0.987149, 217, 201, 248, 264
-0.987158, 313, 97, 376, 160
-0.987175, 137, 209, 168, 272
-0.987257, 49, 97, 112, 352
-0.987257, 369, 265, 432, 328
-0.987263, 137, 89, 168, 152
-0.987267, 225, 281, 352, 344
-0.987283, 321, 217, 448, 280
-0.987317, 353, 113, 384, 240
-0.987408, 337, 105, 400, 168
-0.987439, 185, 145, 248, 208
-0.987516, 177, 153, 304, 216
-0.987568, 253, 145, 284, 208
-0.987581, 165, 97, 196, 224
-0.987609, 49, 105, 176, 168
-0.987611, 177, 113, 208, 240
-0.987625, 81, 145, 144, 208
-0.987628, 265, 161, 328, 224
-0.987658, 97, 289, 160, 352
-0.987722, 417, 177, 448, 304
-0.987793, 381, 217, 412, 280
-0.987833, 449, 225, 480, 352
-0.987855, 33, 257, 160, 320
-0.987858, 101, 185, 132, 248
-0.987895, 329, 113, 360, 240
-0.987999, 69, 209, 100, 336
-0.98805, 97, 177, 224, 240
-0.988066, 49, 185, 80, 248
-0.988091, 393, 121, 424, 184
-0.988129, 201, 177, 264, 240
-0.988146, 277, 113, 308, 240
-0.988179, 321, 129, 448, 192
-0.988203, 49, 105, 112, 168
-0.988211, 281, 89, 344, 152
-0.988228, 105, 265, 168, 328
-0.988268, 409, 281, 472, 344
-0.988331, 129, 81, 256, 144
-0.988412, 249, 113, 280, 176
-0.988422, 9, 225, 72, 288
-0.98846, 161, 225, 192, 288
-0.988489, 297, 161, 360, 288
-0.988511, 53, 217, 84, 280
-0.988524, 273, 257, 400, 320
-0.988549, 265, 145, 296, 208
-0.988626, 297, 289, 360, 352
-0.98863, 261, 145, 292, 272
-0.988705, 305, 289, 432, 352
-0.988788, 153, 209, 184, 336
-0.988877, 53, 257, 84, 320
-0.988907, 41, 145, 72, 272
-0.988927, 241, 185, 368, 248
-0.988942, 81, 289, 208, 352
-0.988974, 457, 265, 488, 328
-0.989001, 365, 113, 396, 240
-0.989007, 77, 273, 108, 336
-0.989056, 241, 169, 304, 232
-0.989082, 9, 225, 72, 352
-0.989083, 265, 113, 296, 176
-0.989094, 205, 193, 236, 256
-0.989191, 225, 49, 352, 176
-0.989256, 201, 97, 264, 352
-0.989264, 141, 81, 172, 208
-0.989273, 121, 145, 184, 272
-0.989313, 409, 161, 440, 224
-0.989398, 137, 73, 200, 136
-0.98944, 445, 153, 476, 216
-0.989465, 137, 257, 168, 320
-0.989516, 13, 97, 44, 224
-0.989558, 469, 241, 500, 304
-0.989585, 393, 225, 424, 352
-0.989596, 129, 1, 192, 353
-0.989606, 413, 217, 444, 280
-0.98961, 365, 177, 396, 304
-0.989616, 237, 113, 268, 176
-0.989649, 381, 185, 412, 248
-0.989696, 113, 193, 144, 320
-0.989711, 41, 225, 72, 352
-0.989742, 337, 161, 400, 224
-0.989756, 437, 225, 468, 352
-0.989765, 469, 113, 500, 176
-0.98979, 381, 129, 412, 192
-0.989919, 409, 185, 472, 216
-0.989963, 129, 97, 192, 128
-0.989997, 165, 145, 196, 272
-0.990029, 89, 169, 152, 232
-0.990076, 425, 113, 456, 240
-0.990094, 273, 117, 336, 148
-0.990099, 57, 189, 120, 220
-0.990106, 441, 281, 472, 344
-0.990163, 105, 113, 168, 144
-0.990197, 273, 145, 400, 208
-0.990229, 57, 205, 120, 236
-0.990256, 257, 97, 384, 160
-0.990271, 401, 197, 464, 228
-0.990289, 17, 281, 80, 344
-0.99029, 81, 81, 208, 144
-0.990313, 145, 129, 272, 192
-0.990317, 305, 145, 368, 208
-0.990318, 313, 129, 376, 160
-0.99045, 353, 125, 416, 156
-0.990465, 1, 105, 128, 168
-0.990499, 57, 177, 120, 208
-0.99051, 49, 153, 176, 216
-0.990524, 393, 105, 456, 168
-0.99054, 469, 225, 500, 352
-0.990562, 425, 245, 488, 276
-0.990582, 249, 177, 280, 240
-0.990592, 41, 233, 72, 296
-0.990606, 209, 217, 272, 280
-0.99062, 129, 109, 192, 140
-0.990637, 69, 113, 100, 240
-0.990666, 49, 221, 112, 252
-0.990701, 81, 225, 112, 352
-0.99071, 377, 217, 440, 248
-0.990712, 433, 177, 496, 208
-0.990712, 169, 201, 200, 264
-0.990762, 125, 193, 156, 320
-0.990788, 249, 193, 312, 256
-0.990831, 233, 109, 296, 140
-0.99087, 97, 105, 352, 168
-0.990903, 301, 145, 332, 208
-0.99092, 361, 137, 424, 168
-0.990921, 433, 205, 496, 236
-0.990952, 81, 113, 112, 240
-0.990963, 277, 153, 308, 216
-0.990995, 281, 185, 344, 248
-0.991003, 81, 225, 144, 256
-0.991027, 165, 193, 196, 320
-0.991037, 89, 125, 152, 156
-0.991045, 297, 117, 360, 148
-0.991066, 129, 113, 160, 240
-0.991071, 261, 185, 292, 248
-0.991149, 197, 177, 228, 304
-0.991161, 385, 185, 448, 216
-0.991171, 401, 169, 464, 200
-0.991192, 81, 97, 144, 160
-0.991214, 137, 289, 200, 352
-0.991239, 89, 209, 152, 240
-0.991239, 105, 101, 168, 132
-0.991277, 81, 137, 112, 200
-0.991305, 401, 233, 432, 296
-0.99137, 57, 273, 120, 304
-0.991371, 261, 97, 292, 224
-0.991375, 81, 217, 112, 280
-0.991383, 41, 285, 104, 316
-0.9914, 145, 177, 272, 240
-0.991461, 105, 233, 136, 296
-0.991477, 45, 161, 76, 224
-0.991485, 365, 225, 396, 352
-0.991486, 121, 217, 184, 248
-0.991493, 185, 213, 248, 244
-0.991554, 341, 169, 372, 232
-0.991566, 53, 281, 84, 344
-0.991593, 409, 261, 472, 292
-0.9916, 49, 165, 112, 196
-0.991619, 25, 185, 88, 216
-0.991628, 249, 185, 312, 216
-0.991671, 57, 233, 120, 264
-0.991676, 5, 185, 36, 248
-0.991684, 273, 129, 336, 160
-0.991684, 433, 137, 496, 168
-0.991689, 401, 129, 464, 160
-0.991692, 385, 261, 448, 292
-0.991695, 153, 201, 216, 232
-0.991706, 233, 289, 296, 352
-0.991729, 369, 197, 432, 228
-0.991732, 329, 309, 392, 340
-0.991739, 201, 113, 264, 144
-0.991755, 185, 201, 248, 232
-0.991763, 377, 125, 440, 156
-0.991776, 1, 193, 500, 256
-0.991845, 433, 233, 496, 264
-0.991858, 289, 65, 352, 192
-0.991859, 345, 197, 408, 228
-0.991862, 89, 169, 120, 232
-0.991869, 433, 149, 496, 180
-0.991896, 81, 193, 144, 224
-0.991905, 369, 237, 432, 268
-0.991908, 113, 265, 144, 328
-0.991916, 121, 201, 152, 264
-0.991934, 57, 261, 120, 292
-0.991939, 9, 173, 72, 204
-0.99194, 225, 201, 288, 232
-0.991955, 425, 153, 456, 216
-0.99196, 425, 313, 488, 344
-0.991961, 353, 225, 384, 352
-0.991972, 425, 161, 488, 192
-0.991979, 385, 141, 448, 172
-0.991985, 153, 117, 216, 148
-0.991986, 81, 281, 144, 312
-0.99199, 57, 305, 120, 336
-0.991996, 257, 105, 320, 136
-0.992008, 409, 209, 472, 240
-0.992024, 209, 289, 272, 352
-0.992033, 57, 321, 120, 352
-0.992047, 33, 185, 64, 248
-0.992053, 297, 305, 360, 336
-0.992054, 153, 93, 184, 124
-0.992056, 17, 265, 80, 296
-0.992061, 121, 229, 184, 260
-0.992067, 33, 253, 96, 284
-0.992083, 313, 321, 376, 352
-0.992086, 193, 121, 448, 184
-0.992097, 389, 257, 420, 320
-0.992113, 217, 185, 280, 216
-0.99212, 337, 137, 400, 168
-0.992139, 209, 177, 240, 304
-0.992141, 265, 145, 328, 176
-0.992146, 81, 261, 144, 292
-0.99215, 433, 301, 496, 332
-0.992168, 33, 321, 96, 352
-0.992184, 385, 321, 448, 352
-0.992192, 241, 121, 304, 152
-0.992216, 17, 237, 80, 268
-0.992234, 409, 293, 472, 324
-0.992247, 97, 317, 160, 348
-0.992251, 9, 161, 72, 192
-0.99226, 57, 249, 120, 280
-0.992268, 169, 101, 232, 132
-0.992282, 297, 161, 360, 192
-0.992289, 217, 145, 248, 208
-0.992291, 401, 221, 464, 252
-0.992318, 345, 297, 408, 328
-0.992344, 265, 321, 328, 352
-0.992349, 369, 249, 432, 280
-0.99235, 433, 285, 496, 316
-0.992353, 257, 173, 320, 204
-0.992366, 241, 145, 272, 208
-0.992383, 281, 193, 344, 224
-0.9924, 145, 225, 208, 256
-0.992406, 401, 281, 464, 312
-0.992409, 9, 133, 72, 164
-0.99241, 193, 189, 256, 220
-0.992418, 301, 117, 332, 148
-0.992422, 337, 105, 464, 168
-0.992424, 25, 225, 88, 256
-0.992428, 361, 185, 424, 216
-0.992433, 313, 289, 376, 320
-0.992433, 1, 321, 64, 352
-0.992435, 361, 281, 424, 312
-0.992441, 89, 137, 152, 168
-0.992452, 49, 149, 112, 180
-0.992456, 413, 189, 444, 220
-0.992475, 89, 237, 152, 268
-0.99249, 273, 157, 336, 188
-0.992499, 345, 261, 408, 292
-0.992499, 297, 181, 360, 212
-0.9925, 401, 305, 464, 336
-0.992517, 297, 149, 360, 180
-0.992517, 337, 209, 400, 240
-0.992521, 321, 117, 384, 148
-0.992531, 345, 233, 408, 264
-0.99254, 173, 225, 204, 288
-0.992544, 321, 201, 384, 264
-0.992549, 25, 145, 56, 272
-0.99255, 401, 157, 464, 188
-0.992552, 233, 89, 296, 152
-0.992558, 85, 185, 116, 216
-0.99256, 137, 253, 200, 284
-0.99257, 9, 149, 72, 180
-0.992588, 445, 233, 476, 296
-0.992602, 193, 201, 224, 264
-0.992606, 397, 209, 428, 240
-0.992613, 401, 249, 464, 280
-0.992631, 185, 225, 248, 256
-0.992642, 321, 241, 384, 304
-0.992653, 469, 205, 500, 236
-0.99267, 433, 181, 464, 212
-0.992683, 433, 189, 496, 220
-0.992687, 1, 241, 256, 304
-0.99269, 169, 237, 232, 268
-0.992694, 25, 201, 88, 232
-0.992697, 49, 137, 112, 168
-0.992707, 25, 213, 88, 244
-0.992719, 433, 125, 496, 156
-0.992723, 305, 1, 368, 353
-0.99273, 169, 185, 232, 216
-0.992732, 441, 177, 472, 304
-0.99274, 469, 81, 500, 208
-0.992744, 425, 273, 488, 304
-0.992745, 433, 221, 496, 252
-0.992757, 289, 113, 320, 144
-0.992761, 97, 1, 160, 256
-0.992769, 81, 113, 144, 144
-0.992771, 241, 149, 304, 180
-0.992788, 25, 309, 88, 340
-0.992794, 209, 213, 272, 244
-0.992794, 317, 121, 348, 152
-0.992798, 73, 293, 136, 324
-0.992802, 377, 173, 440, 204
-0.992823, 121, 281, 184, 312
-0.99283, 105, 265, 168, 296
-0.992836, 397, 185, 428, 216
-0.992837, 221, 113, 252, 176
-0.992838, 65, 273, 96, 304
-0.99284, 149, 201, 180, 264
-0.992849, 145, 257, 272, 320
-0.992858, 245, 81, 276, 208
-0.992861, 381, 125, 412, 156
-0.992865, 157, 249, 188, 312
-0.992872, 273, 225, 400, 288
-0.992885, 73, 173, 104, 204
-0.992889, 369, 129, 400, 160
-0.992895, 345, 161, 376, 288
-0.992906, 469, 161, 500, 192
-0.992907, 77, 273, 108, 304
-0.992941, 109, 113, 140, 144
-0.992945, 161, 289, 224, 352
-0.992963, 9, 145, 40, 272
-0.992964, 381, 137, 412, 168
-0.992966, 177, 217, 304, 280
-0.992968, 401, 197, 432, 228
-0.99297, 269, 117, 300, 148
-0.992976, 381, 273, 412, 304
-0.992976, 365, 285, 396, 316
-0.992977, 153, 249, 216, 312
-0.992984, 345, 301, 376, 332
-0.992989, 457, 241, 488, 272
-0.992993, 85, 201, 116, 232
-0.993016, 249, 109, 280, 140
-0.993026, 333, 313, 364, 344
-0.993026, 321, 321, 352, 352
-0.993041, 429, 317, 460, 348
-0.993044, 105, 221, 136, 252
-0.993046, 449, 177, 480, 208
-0.993047, 133, 113, 164, 144
-0.993048, 61, 185, 92, 216
-0.993049, 341, 125, 372, 156
-0.993051, 421, 177, 452, 208
-0.993057, 445, 297, 476, 328
-0.993065, 469, 225, 500, 256
-0.993065, 385, 221, 416, 252
-0.993066, 45, 173, 76, 204
-0.993072, 101, 193, 132, 224
-0.993073, 229, 109, 260, 140
-0.993079, 377, 273, 408, 336
-0.993084, 381, 193, 412, 224
-0.993085, 57, 169, 88, 200
-0.993085, 73, 185, 104, 216
-0.993085, 397, 261, 428, 292
-0.993086, 101, 125, 132, 156
-0.993086, 65, 261, 96, 292
-0.993092, 57, 225, 88, 256
-0.993096, 161, 225, 192, 256
-0.993106, 397, 129, 428, 160
-0.99311, 465, 173, 496, 204
-0.993112, 125, 89, 156, 152
-0.993124, 73, 201, 104, 232
-0.993135, 345, 137, 376, 168
-0.993138, 449, 201, 480, 232
-0.99314, 469, 145, 500, 176
-0.993148, 205, 193, 236, 224
-0.99316, 345, 65, 408, 192
-0.99316, 209, 205, 240, 236
-0.993161, 65, 285, 96, 316
-0.993172, 409, 173, 440, 204
-0.993177, 417, 201, 448, 232
-0.993182, 129, 213, 160, 244
-0.993184, 409, 257, 440, 288
-0.993194, 81, 225, 112, 256
-0.993195, 441, 309, 472, 340
-0.993196, 45, 233, 76, 264
-0.993201, 53, 265, 84, 296
-0.993203, 21, 177, 52, 240
-0.993208, 121, 113, 152, 144
-0.993217, 129, 97, 160, 128
-0.993221, 77, 301, 108, 332
-0.993234, 197, 205, 228, 236
-0.99324, 453, 285, 484, 316
-0.993241, 281, 125, 312, 156
-0.993245, 357, 297, 388, 328
-0.993247, 101, 209, 132, 240
-0.993254, 153, 105, 184, 136
-0.993255, 469, 129, 500, 160
-0.993256, 353, 125, 384, 156
-0.993257, 33, 137, 96, 200
-0.993262, 453, 165, 484, 196
-0.993262, 437, 201, 468, 232
-0.993264, 409, 129, 440, 160
-0.993265, 93, 281, 124, 312
-0.993268, 457, 221, 488, 252
-0.99327, 141, 113, 172, 176
-0.993274, 429, 165, 460, 196
-0.993274, 141, 97, 172, 128
-0.993276, 49, 313, 80, 344
-0.993277, 65, 213, 96, 244
-0.993277, 65, 305, 96, 336
-0.993279, 41, 261, 72, 292
-0.993283, 149, 237, 180, 268
-0.993295, 393, 141, 424, 172
-0.993297, 337, 289, 368, 320
-0.993301, 297, 145, 328, 272
-0.993301, 469, 253, 500, 284
-0.993303, 25, 321, 56, 352
-0.993305, 129, 121, 192, 184
-0.993307, 265, 185, 296, 216
-0.993309, 221, 209, 252, 240
-0.993309, 417, 313, 448, 344
-0.99331, 69, 161, 100, 192
-0.993311, 345, 1, 408, 256
-0.993312, 33, 289, 288, 352
-0.993323, 397, 241, 428, 272
-0.993327, 85, 261, 116, 292
-0.993329, 437, 221, 468, 252
-0.99333, 401, 257, 432, 320
-0.993331, 129, 225, 160, 256
-0.993341, 253, 185, 284, 216
-0.993342, 149, 217, 180, 248
-0.993343, 297, 181, 328, 212
-0.993349, 117, 101, 148, 132
-0.99335, 173, 241, 204, 272
-0.993353, 437, 241, 468, 272
-0.993365, 121, 33, 184, 160
-0.993365, 413, 221, 444, 252
-0.993366, 173, 101, 204, 132
-0.993368, 429, 293, 460, 324
-0.993369, 133, 265, 164, 296
-0.993372, 453, 273, 484, 304
-0.993377, 465, 265, 496, 296
-0.993382, 437, 281, 468, 312
-0.993383, 261, 105, 292, 136
-0.993388, 117, 289, 148, 320
-0.99339, 457, 145, 488, 176
-0.99339, 65, 237, 96, 268
-0.993392, 361, 121, 392, 184
-0.993392, 41, 185, 72, 216
-0.993393, 329, 121, 360, 152
-0.993393, 293, 141, 324, 172
-0.993394, 85, 173, 116, 204
-0.993398, 117, 209, 148, 240
-0.993398, 53, 285, 84, 316
-0.9934, 321, 133, 352, 164
-0.993406, 153, 253, 184, 284
-0.993406, 61, 249, 92, 280
-0.993408, 281, 137, 312, 168
-0.99341, 441, 165, 472, 196
-0.993413, 369, 229, 400, 260
-0.993468, 369, 193, 400, 256
-0.993521, 65, 193, 320, 256
-0.993552, 225, 177, 480, 240
-0.993572, 105, 1, 168, 353
-0.993573, 225, 265, 288, 328
-0.993584, 17, 81, 144, 144
-0.993608, 177, 1, 240, 353
-0.993617, 229, 193, 260, 256
-0.993636, 353, 281, 384, 344
-0.993669, 1, 217, 256, 280
-0.99369, 153, 1, 216, 353
-0.993694, 153, 65, 184, 128
-0.993696, 325, 97, 356, 160
-0.993708, 225, 225, 352, 288
-0.993724, 57, 113, 88, 240
-0.993779, 401, 1, 464, 353
-0.993795, 169, 65, 232, 128
-0.993798, 273, 249, 336, 312
-0.993799, 397, 145, 428, 208
-0.99383, 225, 257, 352, 320
-0.993848, 177, 289, 304, 352
-0.993856, 201, 121, 232, 184
-0.99389, 1, 289, 500, 352
-0.993892, 361, 1, 424, 353
-0.993918, 25, 97, 56, 224
-0.993995, 13, 153, 44, 216
-0.993995, 429, 281, 460, 344
-0.994044, 445, 129, 476, 192
-0.994069, 277, 177, 308, 240
-0.994074, 213, 225, 244, 352
-0.99408, 153, 161, 216, 224
-0.994127, 33, 129, 288, 192
-0.994139, 369, 81, 432, 208
-0.99416, 229, 153, 260, 216
-0.994215, 25, 153, 56, 216
-0.994215, 33, 265, 288, 328
-0.994235, 65, 169, 320, 232
-0.994258, 241, 1, 304, 353
-0.994287, 429, 233, 460, 296
-0.994305, 483, 201, 498, 264
-0.994307, 257, 265, 500, 328
-0.994311, 177, 225, 208, 352
-0.994318, 85, 249, 116, 312
-0.99433, 129, 233, 160, 296
-0.994344, 1, 265, 500, 328
-0.994345, 257, 81, 320, 144
-0.994374, 289, 145, 320, 208
-0.99438, 257, 145, 500, 208
-0.994467, 409, 129, 440, 192
-0.994488, 329, 289, 360, 352
-0.994497, 81, 1, 144, 353
-0.994518, 229, 209, 260, 336
-0.994541, 61, 137, 92, 200
-0.994587, 241, 49, 304, 176
-0.994606, 13, 129, 44, 192
-0.994608, 93, 281, 124, 344
-0.994612, 265, 1, 328, 353
-0.994625, 329, 1, 392, 353
-0.994669, 257, 1, 320, 256
-0.994671, 57, 1, 120, 353
-0.994683, 177, 65, 208, 192
-0.994687, 457, 81, 488, 208
-0.994694, 417, 289, 448, 352
-0.994722, 365, 289, 396, 352
-0.99473, 201, 169, 232, 232
-0.994757, 1, 97, 256, 160
-0.994759, 81, 221, 208, 252
-0.99476, 1, 121, 500, 184
-0.994842, 81, 113, 208, 144
-0.994888, 377, 249, 408, 312
-0.994908, 225, 289, 480, 352
-0.994909, 169, 113, 200, 176
-0.994912, 249, 265, 312, 328
-0.994915, 1, 169, 500, 232
-0.994916, 49, 209, 176, 240
-0.994993, 369, 221, 496, 252
-0.995002, 459, 177, 474, 240
-0.995041, 209, 89, 272, 152
-0.995067, 257, 241, 500, 304
-0.995093, 125, 265, 156, 328
-0.995108, 177, 81, 208, 144
-0.995112, 129, 145, 384, 208
-0.995122, 189, 113, 220, 176
-0.995134, 41, 257, 72, 320
-0.995134, 437, 257, 468, 320
-0.995136, 151, 89, 166, 152
-0.995153, 209, 81, 240, 208
-0.995164, 471, 169, 486, 232
-0.995169, 177, 81, 304, 144
-0.995189, 209, 113, 336, 144
-0.995192, 439, 193, 454, 256
-0.995208, 249, 241, 312, 304
-0.995252, 101, 97, 132, 160
-0.995298, 99, 185, 114, 248
-0.995316, 217, 1, 280, 353
-0.99532, 1, 225, 500, 288
-0.99533, 453, 177, 468, 240
-0.995353, 129, 281, 256, 344
-0.995364, 1, 145, 500, 208
-0.995369, 273, 193, 304, 320
-0.995378, 129, 49, 160, 176
-0.995474, 477, 177, 492, 240
-0.995488, 81, 233, 208, 264
-0.995506, 109, 209, 124, 272
-0.995523, 105, 145, 136, 272
-0.995528, 1, 185, 128, 216
-0.995533, 473, 201, 488, 264
-0.995538, 37, 97, 68, 224
-0.995545, 407, 201, 422, 264
-0.995554, 467, 201, 482, 264
-0.995562, 369, 205, 496, 236
-0.995586, 129, 101, 256, 132
-0.99559, 129, 289, 384, 352
-0.995602, 369, 193, 496, 224
-0.995633, 161, 201, 416, 264
-0.995647, 285, 113, 300, 176
-0.995647, 185, 89, 248, 152
-0.995648, 461, 201, 476, 264
-0.995669, 289, 1, 352, 256
-0.995688, 477, 137, 492, 200
-0.995705, 333, 65, 364, 192
-0.99571, 483, 177, 498, 240
-0.995723, 129, 201, 256, 232
-0.995731, 291, 121, 306, 184
-0.995737, 115, 209, 130, 272
-0.995786, 33, 221, 160, 252
-0.995841, 353, 129, 480, 160
-0.995866, 161, 113, 288, 144
-0.995885, 433, 177, 448, 240
-0.995893, 465, 169, 480, 232
-0.995895, 257, 121, 384, 152
-0.995901, 471, 137, 486, 200
-0.995923, 333, 193, 364, 320
-0.995924, 69, 161, 84, 224
-0.995927, 447, 177, 462, 240
-0.995973, 79, 177, 94, 240
-0.995998, 93, 193, 108, 256
-0.99602, 163, 225, 178, 288
-0.996023, 313, 65, 344, 192
-0.996034, 301, 225, 332, 352
-0.996042, 325, 121, 340, 184
-0.996068, 9, 105, 72, 168
-0.996078, 421, 225, 452, 352
-0.996085, 449, 201, 464, 264
-0.996099, 129, 265, 384, 328
-0.996101, 49, 197, 176, 228
-0.996113, 79, 265, 94, 328
-0.996132, 449, 289, 464, 352
-0.996163, 33, 257, 160, 288
-0.996175, 469, 97, 500, 352
-0.996186, 455, 201, 470, 264
-0.996193, 433, 201, 448, 264
-0.996209, 241, 193, 272, 320
-0.99622, 63, 185, 78, 248
-0.996231, 33, 233, 160, 264
-0.996239, 169, 89, 184, 152
-0.996241, 349, 121, 364, 184
-0.99626, 121, 209, 136, 272
-0.996265, 251, 113, 266, 176
-0.996281, 65, 293, 192, 324
-0.996299, 401, 209, 416, 272
-0.996311, 467, 241, 482, 304
-0.996322, 67, 241, 82, 304
-0.996329, 177, 161, 208, 288
-0.996346, 1, 173, 128, 204
-0.99635, 393, 217, 408, 280
-0.996366, 63, 281, 78, 344
-0.996379, 145, 105, 160, 168
-0.996397, 103, 217, 118, 280
-0.996399, 97, 129, 112, 192
-0.996412, 321, 189, 448, 220
-0.996417, 369, 269, 496, 300
-0.996422, 455, 281, 470, 344
-0.996424, 409, 233, 424, 296
-0.99643, 393, 185, 408, 248
-0.996435, 289, 133, 416, 164
-0.996447, 473, 225, 488, 288
-0.996455, 33, 269, 160, 300
-0.99647, 145, 17, 272, 144
-0.996504, 369, 245, 496, 276
-0.996504, 71, 281, 86, 344
-0.996513, 59, 161, 74, 224
-0.996528, 419, 185, 434, 248
-0.996544, 73, 185, 88, 248
-0.996546, 161, 89, 176, 152
-0.996547, 353, 169, 480, 200
-0.996562, 97, 153, 224, 216
-0.996592, 475, 249, 490, 312
-0.996595, 259, 105, 274, 168
-0.996596, 59, 217, 74, 280
-0.996598, 353, 281, 480, 312
-0.996601, 85, 177, 100, 240
-0.996605, 427, 177, 442, 240
-0.996612, 65, 129, 192, 160
-0.99662, 353, 233, 480, 264
-0.996638, 73, 81, 136, 208
-0.996659, 439, 169, 454, 232
-0.99666, 97, 225, 352, 288
-0.996679, 129, 105, 144, 168
-0.996732, 481, 241, 496, 304
-0.996745, 399, 121, 414, 184
-0.996747, 177, 193, 304, 224
-0.996752, 445, 81, 476, 208
-0.996767, 409, 177, 424, 240
-0.996772, 105, 121, 120, 184
-0.996773, 355, 121, 370, 184
-0.996781, 463, 273, 478, 336
-0.996791, 485, 113, 500, 176
-0.996794, 443, 289, 458, 352
-0.996796, 337, 309, 464, 340
-0.9968, 255, 153, 270, 216
-0.996812, 49, 1, 112, 256
-0.996819, 113, 105, 128, 168
-0.996823, 87, 145, 102, 208
-0.996826, 97, 81, 352, 144
-0.996833, 145, 129, 176, 256
-0.99684, 343, 121, 358, 184
-0.996847, 257, 97, 500, 160
-0.99685, 145, 33, 208, 160
-0.996868, 1, 313, 128, 344
-0.996868, 417, 217, 432, 280
-0.996877, 297, 129, 312, 192
-0.996877, 121, 233, 136, 296
-0.99689, 185, 289, 248, 352
-0.996893, 297, 241, 360, 304
-0.996905, 81, 97, 208, 128
-0.996912, 233, 1, 296, 256
-0.996915, 97, 97, 128, 352
-0.996936, 81, 245, 208, 276
-0.996943, 57, 265, 72, 328
-0.996948, 315, 113, 330, 176
-0.996951, 279, 145, 294, 208
-0.996955, 169, 1, 232, 256
-0.99698, 369, 181, 496, 212
-0.996986, 119, 97, 134, 160
-0.997004, 1, 161, 128, 192
-0.997007, 401, 177, 416, 240
-0.997008, 429, 177, 460, 304
-0.997014, 387, 193, 402, 256
-0.997022, 133, 241, 148, 304
-0.997023, 1, 97, 32, 224
-0.997034, 285, 145, 300, 208
-0.997037, 267, 153, 282, 216
-0.99705, 389, 97, 420, 352
-0.997055, 97, 189, 224, 220
-0.997055, 369, 257, 496, 288
-0.99706, 459, 233, 474, 296
-0.997069, 155, 217, 170, 280
-0.997075, 261, 209, 292, 336
-0.997086, 201, 49, 264, 176
-0.997086, 427, 201, 442, 264
-0.997091, 109, 233, 124, 296
-0.997128, 229, 201, 244, 264
-0.99713, 209, 185, 224, 248
-0.997131, 485, 137, 500, 200
-0.997144, 337, 297, 464, 328
-0.997155, 73, 209, 88, 272
-0.997157, 139, 113, 154, 176
-0.997159, 105, 185, 120, 248
-0.99716, 469, 265, 484, 328
-0.997171, 215, 193, 230, 256
-0.997179, 129, 225, 256, 256
-0.997202, 221, 193, 236, 256
-0.997211, 293, 49, 324, 176
-0.997213, 313, 209, 344, 336
-0.997215, 459, 153, 474, 216
-0.99722, 115, 233, 130, 296
-0.997227, 443, 309, 458, 340
-0.997231, 65, 217, 80, 280
-0.997252, 257, 217, 500, 280
-0.997257, 161, 213, 288, 244
-0.997258, 127, 225, 142, 288
-0.997269, 333, 129, 348, 192
-0.997275, 143, 257, 158, 320
-0.997277, 353, 145, 480, 176
-0.997279, 209, 133, 336, 164
-0.997282, 57, 185, 72, 248
-0.99729, 345, 97, 376, 352
-0.997304, 97, 217, 112, 280
-0.997308, 245, 105, 260, 168
-0.997316, 197, 65, 228, 192
-0.997332, 273, 185, 288, 248
-0.997338, 81, 269, 208, 300
-0.997339, 209, 145, 336, 176
-0.997344, 1, 281, 128, 312
-0.997363, 393, 121, 408, 184
-0.997363, 387, 225, 402, 288
-0.997381, 435, 321, 450, 352
-0.9974, 117, 49, 148, 176
-0.997409, 353, 157, 480, 188
-0.99741, 321, 201, 448, 232
-0.99741, 149, 33, 180, 160
-0.997413, 263, 177, 278, 240
-0.997413, 117, 97, 148, 352
-0.997427, 409, 121, 424, 184
-0.997433, 25, 1, 88, 256
-0.997442, 441, 217, 456, 280
-0.997443, 17, 129, 144, 160
-0.997446, 81, 257, 208, 288
-0.99745, 317, 97, 348, 352
-0.99745, 479, 113, 494, 176
-0.99746, 51, 225, 66, 288
-0.997464, 91, 169, 106, 232
-0.997477, 153, 65, 184, 320
-0.997481, 85, 201, 100, 264
-0.997484, 279, 121, 294, 184
-0.997485, 33, 245, 160, 276
-0.997486, 453, 293, 468, 324
-0.997493, 289, 217, 416, 248
-0.997497, 273, 145, 288, 208
-0.997518, 53, 161, 68, 224
-0.997532, 149, 209, 164, 272
-0.997533, 447, 153, 462, 216
-0.997536, 1, 205, 128, 236
-0.997541, 79, 241, 94, 304
-0.997553, 465, 145, 480, 208
-0.997557, 273, 321, 400, 352
-0.997559, 161, 237, 288, 268
-0.997563, 139, 89, 154, 152
-0.997579, 355, 129, 370, 160
-0.99758, 309, 113, 324, 176
-0.997585, 339, 289, 354, 352
-0.997588, 1, 97, 500, 160
-0.997589, 289, 177, 416, 208
-0.997598, 439, 145, 454, 208
-0.997606, 359, 289, 374, 352
-0.997613, 131, 201, 146, 264
-0.997615, 85, 97, 116, 352
-0.997619, 361, 97, 424, 160
-0.997624, 321, 321, 448, 352
-0.997654, 417, 189, 432, 220
-0.997655, 443, 181, 458, 212
-0.997677, 1, 117, 128, 148
-0.997693, 79, 169, 94, 200
-0.997693, 65, 145, 192, 176
-0.997695, 153, 93, 168, 124
-0.997695, 49, 317, 176, 348
-0.997696, 167, 93, 182, 124
-0.997702, 49, 185, 176, 216
-0.997702, 409, 201, 424, 232
-0.997706, 429, 321, 444, 352
-0.997722, 169, 97, 200, 352
-0.997733, 97, 189, 112, 220
-0.997735, 433, 185, 448, 216
-0.99775, 305, 257, 432, 288
-0.997754, 289, 145, 416, 176
-0.997758, 437, 305, 452, 336
-0.997761, 17, 301, 144, 332
-0.997769, 209, 181, 336, 212
-0.997781, 463, 277, 478, 308
-0.997801, 225, 301, 352, 332
-0.997803, 447, 297, 462, 328
-0.997804, 1, 145, 128, 176
-0.997808, 81, 281, 208, 312
-0.997815, 305, 229, 432, 260
-0.997839, 425, 1, 488, 353
-0.997848, 313, 117, 328, 148
-0.997856, 1, 1, 64, 353
-0.997859, 145, 249, 272, 280
-0.99786, 483, 205, 498, 236
-0.997861, 141, 65, 172, 320
-0.997868, 225, 193, 352, 224
-0.997893, 357, 97, 388, 352
-0.997899, 305, 81, 432, 144
-0.997913, 129, 129, 256, 160
-0.997914, 99, 201, 114, 232
-0.997921, 129, 97, 160, 352
-0.997928, 427, 189, 442, 220
-0.997943, 305, 121, 432, 152
-0.997946, 25, 1, 88, 353
-0.997957, 79, 273, 94, 304
-0.997958, 457, 281, 472, 312
-0.997972, 153, 137, 216, 200
-0.997983, 257, 289, 384, 320
-0.997992, 49, 169, 176, 200
-0.997993, 369, 321, 496, 352
-0.998015, 361, 65, 392, 192
-0.998018, 357, 301, 372, 332
-0.99803, 433, 97, 496, 160
-0.998036, 305, 97, 336, 352
-0.998055, 323, 121, 338, 152
-0.998056, 265, 49, 328, 176
-0.998064, 307, 113, 322, 144
-0.998094, 61, 225, 76, 256
-0.998097, 65, 97, 96, 352
-0.998111, 163, 221, 178, 252
-0.998111, 333, 321, 348, 352
-0.998119, 75, 185, 90, 216
-0.998122, 209, 321, 336, 352
-0.998124, 343, 309, 358, 340
-0.998125, 287, 113, 302, 144
-0.998129, 321, 1, 384, 256
-0.99813, 105, 193, 120, 224
-0.998133, 457, 97, 488, 352
-0.998133, 225, 157, 352, 188
-0.998133, 101, 125, 116, 156
-0.998139, 321, 269, 448, 300
-0.998146, 329, 97, 360, 352
-0.998155, 409, 189, 424, 220
-0.998156, 485, 117, 500, 148
-0.998156, 397, 129, 412, 160
-0.998156, 113, 113, 128, 144
-0.998159, 241, 253, 368, 284
-0.998164, 87, 173, 102, 204
-0.998168, 377, 97, 408, 352
-0.998183, 449, 185, 464, 216
-0.998185, 389, 221, 404, 252
-0.99819, 29, 193, 60, 320
-0.998197, 289, 309, 416, 340
-0.99821, 209, 205, 336, 236
-0.998214, 399, 209, 414, 240
-0.998217, 189, 97, 220, 352
-0.998222, 301, 113, 316, 144
-0.998229, 281, 113, 296, 144
-0.998231, 221, 205, 236, 236
-0.998233, 481, 249, 496, 280
-0.998235, 305, 241, 432, 272
-0.998235, 397, 81, 428, 208
-0.998237, 351, 301, 366, 332
-0.998239, 81, 185, 96, 216
-0.998242, 67, 165, 82, 196
-0.998256, 419, 201, 434, 232
-0.998258, 107, 117, 122, 148
-0.998258, 395, 193, 410, 224
-0.998259, 403, 181, 418, 212
-0.998261, 225, 101, 352, 132
-0.998261, 293, 97, 324, 352
-0.998269, 469, 261, 484, 292
-0.998285, 277, 97, 308, 352
-0.998303, 459, 205, 474, 236
-0.998303, 89, 185, 104, 216
-0.998304, 419, 249, 434, 280
-0.998305, 95, 133, 110, 164
-0.99831, 61, 165, 76, 196
-0.998317, 17, 105, 144, 136
-0.998322, 475, 253, 490, 284
-0.998323, 471, 173, 486, 204
-0.998323, 391, 125, 406, 156
-0.998323, 383, 129, 398, 160
-0.998324, 243, 109, 258, 140
-0.998329, 371, 289, 386, 320
-0.998331, 97, 321, 224, 352
-0.998335, 469, 205, 484, 236
-0.998336, 393, 269, 408, 300
-0.998339, 161, 321, 288, 352
-0.998339, 129, 99, 160, 114
-0.998339, 469, 167, 500, 182
-0.998339, 265, 185, 296, 200
-0.99834, 101, 225, 132, 240
-0.99834, 61, 337, 92, 352
-0.998342, 325, 125, 356, 140
-0.998342, 441, 187, 472, 202
-0.998342, 425, 309, 456, 324
-0.998343, 97, 201, 128, 216
-0.998346, 361, 291, 392, 306
-0.998346, 413, 327, 444, 342
-0.998348, 445, 199, 476, 214
-0.998348, 101, 333, 132, 348
-0.998349, 225, 153, 256, 168
-0.998349, 289, 157, 416, 188
-0.998353, 467, 225, 482, 256
-0.998353, 201, 241, 264, 304
-0.998353, 477, 133, 492, 164
-0.998353, 149, 225, 180, 240
-0.998353, 385, 1, 448, 256
-0.998353, 265, 193, 296, 208
-0.998354, 453, 141, 484, 156
-0.998354, 417, 207, 448, 222
-0.998354, 269, 155, 300, 170
-0.998354, 73, 333, 104, 348
-0.998354, 89, 269, 104, 300
-0.998355, 129, 233, 160, 248
-0.998355, 169, 229, 184, 260
-0.998357, 393, 219, 424, 234
-0.998358, 77, 283, 108, 298
-0.998359, 345, 143, 376, 158
-0.998359, 445, 173, 476, 188
-0.99836, 457, 249, 488, 264
-0.99836, 65, 171, 96, 186
-0.998361, 141, 237, 172, 252
-0.998361, 453, 169, 468, 200
-0.998362, 469, 137, 500, 152
-0.998362, 67, 177, 82, 208
-0.998363, 109, 237, 140, 252
-0.998364, 389, 269, 420, 284
-0.998364, 349, 125, 364, 156
-0.998364, 421, 335, 452, 350
-0.998364, 449, 293, 480, 308
-0.998366, 445, 299, 476, 314
-0.998366, 429, 323, 460, 338
-0.998367, 317, 327, 348, 342
-0.998367, 209, 201, 240, 216
-0.998367, 73, 179, 104, 194
-0.998367, 49, 97, 80, 352
-0.998369, 441, 305, 472, 320
-0.99837, 129, 105, 160, 120
-0.998371, 433, 317, 464, 332
-0.998371, 257, 109, 272, 140
-0.998372, 327, 321, 342, 352
-0.998373, 425, 329, 456, 344
-0.998373, 421, 183, 452, 198
-0.998373, 197, 203, 228, 218
-0.998374, 49, 185, 80, 200
-0.998374, 45, 317, 76, 332
-0.998374, 273, 269, 400, 300
-0.998374, 219, 193, 234, 224
-0.998375, 343, 133, 358, 164
-0.998375, 453, 287, 484, 302
-0.998375, 293, 121, 308, 152
-0.998375, 129, 115, 160, 130
-0.998375, 157, 237, 188, 252
-0.998376, 361, 297, 392, 312
-0.998377, 81, 305, 112, 320
-0.998378, 365, 293, 380, 324
-0.998378, 73, 205, 104, 220
-0.998379, 61, 185, 92, 200
-0.998379, 81, 235, 112, 250
-0.998381, 261, 119, 292, 134
-0.998383, 57, 313, 88, 328
-0.998384, 325, 131, 356, 146
-0.998385, 89, 65, 120, 192
-0.998385, 161, 145, 288, 176
-0.998386, 241, 111, 272, 126
-0.998386, 85, 195, 116, 210
-0.998387, 149, 231, 180, 246
-0.998387, 65, 157, 192, 188
-0.998388, 161, 225, 192, 240
-0.998388, 5, 333, 36, 348
-0.998389, 457, 281, 488, 296
-0.99839, 65, 287, 96, 302
-0.99839, 305, 337, 336, 352
-0.99839, 81, 229, 112, 244
-0.99839, 381, 281, 412, 296
-0.99839, 1, 73, 256, 136
-0.99839, 469, 147, 500, 162
-0.998391, 45, 265, 76, 280
-0.998391, 389, 275, 420, 290
-0.998392, 437, 311, 468, 326
-0.998392, 25, 323, 56, 338
-0.998392, 57, 265, 88, 280
-0.998392, 89, 337, 120, 352
-0.998393, 297, 125, 328, 140
-0.998394, 253, 113, 284, 128
-0.998394, 433, 197, 464, 212
-0.998394, 225, 211, 256, 226
-0.998395, 101, 127, 132, 142
-0.998397, 49, 235, 80, 250
-0.998397, 373, 287, 404, 302
-0.998398, 205, 151, 236, 166
-0.998398, 469, 205, 500, 220
-0.998398, 121, 293, 152, 308
-0.9984, 405, 97, 436, 352
-0.998401, 341, 131, 372, 146
-0.998405, 365, 129, 380, 160
-0.998405, 337, 317, 368, 332
-0.998406, 65, 305, 192, 336
-0.998408, 53, 167, 84, 182
-0.998408, 353, 303, 384, 318
-0.998409, 313, 127, 344, 142
-0.998409, 465, 243, 496, 258
-0.99841, 267, 185, 282, 216
-0.998411, 409, 259, 440, 274
-0.998413, 329, 323, 360, 338
-0.998413, 383, 229, 398, 260
-0.998414, 153, 105, 184, 120
-0.998416, 161, 231, 192, 246
-0.998421, 405, 207, 436, 222
-0.998421, 17, 329, 48, 344
-0.998421, 409, 187, 440, 202
-0.998422, 341, 137, 372, 152
-0.998423, 409, 257, 424, 288
-0.998429, 361, 131, 392, 146
-0.998429, 445, 181, 476, 196
-0.998432, 69, 309, 100, 324
-0.998432, 309, 121, 340, 136
-0.998432, 285, 129, 300, 160
-0.998436, 225, 113, 256, 128
-0.998436, 77, 271, 108, 286
-0.998436, 249, 109, 264, 140
-0.998439, 345, 309, 376, 324
-0.998441, 433, 179, 464, 194
-0.998442, 393, 191, 424, 206
-0.998443, 77, 277, 108, 292
-0.998446, 211, 201, 226, 232
-0.998448, 65, 271, 96, 286
-0.998448, 285, 123, 316, 138
-0.99845, 385, 139, 416, 154
-0.998451, 353, 135, 416, 150
-0.998453, 383, 277, 398, 308
-0.998454, 113, 113, 144, 128
-0.998454, 469, 179, 500, 194
-0.998454, 317, 333, 348, 348
-0.998456, 237, 109, 252, 140
-0.998457, 73, 201, 88, 232
-0.998458, 57, 177, 72, 208
-0.998459, 373, 135, 404, 150
-0.998462, 65, 189, 80, 220
-0.998463, 49, 169, 64, 200
-0.998467, 401, 265, 432, 280
-0.998467, 133, 113, 148, 144
-0.998468, 409, 201, 440, 216
-0.998469, 201, 1, 264, 256
-0.998471, 65, 281, 96, 296
-0.998472, 145, 113, 160, 144
-0.998473, 261, 97, 292, 352
-0.998473, 401, 131, 432, 146
-0.998473, 429, 189, 460, 204
-0.998473, 227, 197, 242, 228
-0.998476, 473, 241, 488, 272
-0.998484, 273, 121, 336, 136
-0.998485, 397, 213, 428, 228
-0.998487, 399, 265, 414, 296
-0.998489, 201, 97, 232, 352
-0.99849, 213, 209, 244, 224
-0.998498, 385, 129, 416, 144
-0.998499, 105, 115, 168, 130
-0.998501, 281, 117, 312, 132
-0.998501, 413, 195, 444, 210
-0.998505, 85, 189, 116, 204
-0.998507, 453, 201, 468, 232
-0.998507, 103, 221, 118, 252
-0.998509, 305, 109, 432, 140
-0.998509, 161, 285, 288, 316
-0.998517, 153, 213, 168, 244
-0.998518, 377, 131, 440, 146
-0.998519, 465, 169, 480, 200
-0.998523, 433, 179, 496, 194
-0.998529, 129, 111, 192, 126
-0.998529, 457, 177, 488, 192
-0.998534, 421, 177, 436, 208
-0.998535, 161, 93, 176, 124
-0.998536, 289, 127, 352, 142
-0.998536, 469, 173, 500, 188
-0.998536, 401, 189, 464, 204
-0.998538, 277, 185, 292, 216
-0.998541, 467, 245, 482, 276
-0.998541, 49, 231, 112, 246
-0.998546, 137, 97, 200, 112
-0.99855, 297, 119, 328, 134
-0.998554, 353, 129, 416, 144
-0.998554, 217, 111, 280, 126
-0.998555, 483, 165, 498, 196
-0.998558, 377, 285, 392, 316
-0.998558, 361, 141, 424, 156
-0.998558, 67, 269, 82, 300
-0.99856, 89, 201, 104, 232
-0.998563, 49, 187, 112, 202
-0.998564, 475, 205, 490, 236
-0.998565, 129, 105, 192, 120
-0.998567, 55, 225, 70, 256
-0.998567, 313, 137, 376, 152
-0.998568, 57, 205, 120, 220
-0.99857, 409, 195, 472, 210
-0.998571, 485, 141, 500, 172
-0.998571, 81, 233, 144, 248
-0.998571, 385, 217, 448, 232
-0.998575, 185, 203, 248, 218
-0.998575, 257, 115, 320, 130
-0.998576, 403, 141, 418, 172
-0.998578, 49, 57, 176, 120
-0.998579, 105, 209, 120, 240
-0.998581, 65, 213, 80, 244
-0.998581, 377, 125, 392, 156
-0.998581, 401, 135, 464, 150
-0.998582, 83, 289, 98, 320
-0.998583, 377, 195, 440, 210
-0.998584, 55, 261, 70, 292
-0.998585, 229, 209, 244, 240
-0.998586, 401, 179, 464, 194
-0.998586, 177, 101, 192, 132
-0.998589, 385, 323, 448, 338
-0.998589, 359, 289, 374, 320
-0.99859, 161, 233, 176, 264
-0.998592, 133, 221, 148, 252
-0.998594, 433, 247, 496, 262
-0.998595, 105, 107, 168, 122
-0.998596, 233, 117, 296, 132
-0.998597, 401, 297, 464, 312
-0.998597, 97, 127, 160, 142
-0.998599, 81, 225, 144, 240
-0.998599, 347, 289, 362, 320
-0.998601, 457, 181, 472, 212
-0.998604, 377, 189, 440, 204
-0.998605, 87, 301, 102, 332
-0.998605, 329, 131, 392, 146
-0.998606, 57, 219, 120, 234
-0.998606, 425, 185, 488, 200
-0.998606, 297, 121, 360, 136
-0.998608, 49, 181, 112, 196
-0.998609, 377, 223, 440, 238
-0.998609, 185, 209, 248, 224
-0.99861, 393, 309, 456, 324
-0.998612, 49, 171, 112, 186
-0.998612, 33, 237, 96, 252
-0.998614, 433, 173, 448, 204
-0.998614, 483, 225, 498, 256
-0.998614, 57, 273, 120, 288
-0.998614, 433, 205, 496, 220
-0.998615, 377, 335, 440, 350
-0.998615, 57, 279, 120, 294
-0.998616, 153, 95, 184, 110
-0.998617, 393, 203, 456, 218
-0.998618, 57, 225, 120, 240
-0.998618, 225, 207, 288, 222
-0.998618, 9, 179, 72, 194
-0.998619, 57, 193, 120, 208
-0.99862, 477, 229, 492, 260
-0.99862, 129, 117, 192, 132
-0.998623, 417, 273, 480, 288
-0.998624, 161, 205, 224, 220
-0.998625, 193, 153, 256, 168
-0.998626, 353, 197, 416, 212
-0.998626, 123, 109, 138, 140
-0.998626, 57, 237, 120, 252
-0.998627, 97, 121, 160, 136
-0.998627, 433, 129, 496, 144
-0.998627, 1, 335, 64, 350
-0.998628, 97, 239, 160, 254
-0.998629, 121, 231, 184, 246
-0.998629, 409, 285, 472, 300
-0.998629, 33, 337, 96, 352
-0.998633, 105, 101, 168, 116
-0.998634, 185, 115, 248, 130
-0.998635, 433, 137, 496, 152
-0.998636, 289, 175, 352, 190
-0.998637, 97, 335, 160, 350
-0.998638, 33, 317, 96, 332
-0.998638, 145, 237, 208, 252
-0.998639, 241, 123, 304, 138
-0.998639, 417, 329, 480, 344
-0.99864, 433, 167, 496, 182
-0.99864, 73, 337, 136, 352
-0.998641, 385, 211, 448, 226
-0.998641, 369, 229, 432, 244
-0.998641, 97, 197, 160, 212
-0.998644, 217, 153, 280, 168
-0.998645, 401, 173, 464, 188
-0.998645, 169, 109, 232, 124
-0.998645, 433, 305, 496, 320
-0.998647, 321, 321, 384, 336
-0.998647, 425, 317, 488, 332
-0.998648, 121, 219, 184, 234
-0.998648, 17, 269, 80, 284
-0.998648, 241, 195, 304, 210
-0.998649, 81, 267, 144, 282
-0.998649, 1, 327, 64, 342
-0.998649, 49, 285, 112, 300
-0.998649, 57, 313, 120, 328
-0.998649, 241, 155, 304, 170
-0.998649, 81, 287, 144, 302
-0.99865, 49, 265, 112, 280
-0.998652, 41, 291, 104, 306
-0.998652, 425, 259, 488, 274
-0.998653, 217, 199, 280, 214
-0.998653, 337, 303, 400, 318
-0.998655, 25, 185, 88, 200
-0.998655, 25, 323, 88, 338
-0.998656, 101, 49, 132, 176
-0.998657, 385, 143, 448, 158
-0.998657, 281, 321, 344, 336
-0.998658, 209, 119, 272, 134
-0.998658, 377, 279, 440, 294
-0.998659, 185, 217, 248, 232
-0.998659, 121, 289, 184, 304
-0.998661, 257, 337, 320, 352
-0.998662, 353, 289, 416, 304
-0.998662, 57, 307, 120, 322
-0.998662, 433, 241, 496, 256
-0.998662, 273, 187, 336, 202
-0.998663, 193, 197, 256, 212
-0.998664, 57, 327, 120, 342
-0.998665, 433, 173, 496, 188
-0.998665, 321, 125, 384, 140
-0.998665, 273, 327, 336, 342
-0.998665, 57, 213, 120, 228
-0.998666, 305, 337, 368, 352
-0.998667, 409, 221, 472, 236
-0.998667, 97, 213, 160, 228
-0.998669, 385, 273, 448, 288
-0.99867, 313, 301, 376, 316
-0.99867, 313, 327, 376, 342
-0.99867, 313, 307, 376, 322
-0.998671, 89, 133, 152, 148
-0.998671, 89, 297, 152, 312
-0.998672, 337, 309, 400, 324
-0.998673, 241, 179, 304, 194
-0.998673, 153, 225, 216, 240
-0.998675, 229, 97, 260, 352
-0.998681, 321, 161, 352, 288
-0.998701, 105, 57, 168, 120
-0.998711, 273, 189, 400, 220
-0.998782, 209, 281, 336, 312
-0.998807, 13, 65, 44, 320
-0.998812, 241, 65, 272, 320
-0.99882, 177, 309, 304, 340
-0.998834, 97, 177, 224, 208
-0.998872, 193, 265, 320, 296
-0.998895, 129, 89, 256, 120
-0.998913, 305, 285, 432, 316
-0.998924, 417, 97, 448, 352
-0.998938, 129, 17, 384, 144
-0.998944, 99, 113, 114, 240
-0.998948, 369, 113, 496, 144
-0.998978, 25, 97, 56, 352
-0.998983, 399, 129, 414, 256
-0.998992, 113, 141, 240, 172
-0.999005, 477, 113, 492, 240
-0.999012, 91, 129, 106, 256
-0.999014, 177, 265, 240, 328
-0.999025, 161, 181, 288, 212
-0.999031, 193, 249, 320, 280
-0.999043, 481, 161, 496, 288
-0.999047, 485, 97, 500, 224
-0.999054, 355, 113, 370, 240
-0.999072, 65, 209, 80, 336
-0.999078, 213, 129, 228, 256
-0.999082, 49, 85, 176, 116
-0.999087, 213, 97, 244, 352
-0.999091, 229, 49, 260, 176
-0.999092, 129, 145, 192, 208
-0.999098, 475, 177, 490, 304
-0.999103, 113, 297, 240, 328
-0.999107, 471, 129, 486, 256
-0.999117, 273, 201, 400, 232
-0.999122, 405, 177, 420, 304
-0.999127, 391, 129, 406, 256
-0.999135, 257, 241, 384, 272
-0.999143, 169, 81, 184, 208
-0.999145, 459, 177, 474, 304
-0.999148, 221, 145, 236, 272
-0.999154, 129, 261, 256, 292
-0.999159, 1, 65, 32, 320
-0.999164, 177, 297, 304, 328
-0.999165, 387, 193, 402, 320
-0.999173, 103, 177, 118, 304
-0.999174, 59, 177, 74, 304
-0.999175, 177, 101, 304, 132
-0.999184, 405, 129, 420, 256
-0.999193, 425, 1, 488, 256
-0.999196, 395, 193, 410, 320
-0.999211, 331, 113, 346, 240
-0.999214, 125, 1, 156, 256
-0.999216, 467, 177, 482, 304
-0.999217, 109, 193, 124, 320
-0.999229, 485, 209, 500, 336
-0.999239, 73, 1, 136, 256
-0.999241, 247, 97, 262, 224
-0.999242, 291, 97, 306, 224
-0.999242, 209, 169, 336, 200
-0.999245, 311, 97, 326, 224
-0.999251, 379, 177, 394, 304
-0.999258, 225, 97, 240, 224
-0.999258, 347, 113, 362, 240
-0.999261, 257, 229, 384, 260
-0.999263, 105, 113, 120, 240
-0.999263, 457, 225, 472, 352
-0.999267, 97, 1, 128, 256
-0.999276, 177, 157, 304, 188
-0.999278, 451, 225, 466, 352
-0.999279, 385, 113, 400, 240
-0.999283, 229, 145, 244, 272
-0.999288, 461, 129, 476, 256
-0.999291, 113, 309, 240, 340
-0.999294, 445, 65, 476, 320
-0.999296, 175, 97, 190, 224
-0.999297, 65, 33, 128, 160
-0.999298, 153, 81, 168, 208
-0.9993, 163, 81, 178, 208
-0.999301, 97, 177, 112, 304
-0.999303, 115, 193, 130, 320
-0.999304, 415, 129, 430, 256
-0.999307, 73, 145, 88, 272
-0.999311, 411, 193, 426, 320
-0.999313, 325, 113, 340, 240
-0.999322, 65, 161, 80, 288
-0.999329, 265, 129, 280, 256
-0.999333, 273, 65, 304, 192
-0.999334, 203, 113, 218, 240
-0.999335, 181, 113, 196, 240
-0.999336, 237, 145, 252, 272
-0.999336, 111, 97, 126, 224
-0.99935, 163, 209, 178, 336
-0.999354, 71, 193, 86, 320
-0.999355, 85, 161, 100, 288
-0.999356, 463, 225, 478, 352
-0.999358, 319, 113, 334, 240
-0.99936, 451, 129, 466, 256
-0.99936, 247, 145, 262, 272
-0.999369, 91, 177, 106, 304
-0.99937, 257, 73, 384, 136
-0.999381, 283, 145, 298, 272
-0.999386, 121, 193, 136, 320
-0.999387, 57, 225, 72, 352
-0.999388, 417, 177, 432, 304
-0.999389, 219, 97, 234, 224
-0.999394, 255, 129, 270, 256
-0.999396, 435, 113, 450, 240
-0.999405, 441, 129, 456, 256
-0.999407, 271, 129, 286, 256
-0.999408, 79, 129, 94, 256
-0.99941, 301, 97, 316, 224
-0.999414, 241, 97, 256, 224
-0.999417, 285, 193, 316, 320
-0.999418, 129, 97, 144, 224
-0.999418, 371, 193, 386, 320
-0.999421, 139, 97, 154, 224
-0.999424, 445, 225, 460, 352
-0.999424, 191, 113, 206, 240
-0.99943, 177, 225, 304, 256
-0.999436, 37, 97, 68, 352
-0.99944, 337, 1, 368, 256
-0.999453, 337, 113, 352, 240
-0.999453, 103, 225, 118, 352
-0.999458, 13, 129, 28, 256
-0.999459, 147, 81, 162, 208
-0.999461, 51, 129, 66, 256
-0.999462, 453, 177, 468, 304
-0.999463, 381, 225, 396, 352
-0.999466, 215, 177, 230, 304
-0.999469, 277, 145, 292, 272
-0.999469, 85, 113, 100, 240
-0.999476, 41, 177, 56, 304
-0.999476, 409, 81, 440, 208
-0.999478, 231, 97, 246, 224
-0.99948, 197, 113, 212, 240
-0.999483, 129, 57, 256, 120
-0.999484, 379, 113, 394, 240
-0.999487, 127, 193, 142, 320
-0.999494, 469, 225, 484, 352
-0.999496, 51, 225, 66, 352
-0.999497, 365, 193, 380, 320
-0.999501, 77, 193, 92, 320
-0.999504, 149, 193, 164, 320
-0.999507, 129, 273, 256, 304
-0.99951, 425, 113, 440, 240
-0.999512, 67, 113, 82, 240
-0.999513, 53, 177, 68, 304
-0.999516, 119, 97, 134, 224
-0.999524, 29, 97, 44, 224
-0.999524, 297, 217, 360, 280
-0.999525, 365, 113, 380, 240
-0.999527, 257, 81, 272, 208
-0.999528, 85, 209, 100, 336
-0.999528, 157, 209, 172, 336
-0.999528, 77, 1, 108, 256
-0.999529, 285, 97, 300, 224
-0.999533, 61, 113, 76, 240
-0.999539, 435, 225, 450, 352
-0.99954, 97, 225, 112, 352
-0.999541, 209, 177, 224, 304
-0.999542, 373, 113, 388, 240
-0.999543, 403, 225, 418, 352
-0.999553, 171, 193, 186, 320
-0.999554, 433, 65, 464, 320
-0.999555, 165, 33, 196, 160
-0.99956, 19, 97, 34, 224
-0.999563, 65, 179, 80, 194
-0.999563, 387, 127, 402, 142
-0.999563, 471, 139, 486, 154
-0.999564, 89, 189, 104, 204
-0.999565, 433, 197, 448, 212
-0.999565, 343, 129, 358, 144
-0.999565, 235, 211, 250, 226
-0.999566, 469, 171, 484, 186
-0.999566, 83, 181, 98, 196
-0.999566, 345, 135, 360, 150
-0.999566, 77, 283, 92, 298
-0.999567, 443, 189, 458, 204
-0.999567, 95, 187, 110, 202
-0.999568, 223, 153, 238, 168
-0.999568, 103, 129, 118, 144
-0.999568, 241, 217, 304, 280
-0.999568, 229, 113, 244, 128
-0.999569, 483, 205, 498, 220
-0.999569, 297, 145, 312, 272
-0.99957, 347, 305, 362, 320
-0.99957, 175, 145, 190, 272
-0.99957, 79, 167, 94, 182
-0.999571, 221, 201, 236, 216
-0.999571, 27, 145, 42, 272
-0.999572, 423, 251, 438, 266
-0.999572, 479, 253, 494, 268
-0.999573, 477, 243, 492, 258
-0.999574, 283, 155, 298, 170
-0.999575, 313, 125, 328, 140
-0.999575, 249, 115, 264, 130
-0.999576, 409, 191, 424, 206
-0.999576, 77, 173, 92, 188
-0.999576, 7, 333, 22, 348
-0.999576, 257, 153, 272, 168
-0.999576, 217, 211, 232, 226
-0.999576, 303, 145, 318, 272
-0.999577, 113, 113, 128, 128
-0.999577, 73, 309, 88, 324
-0.999577, 407, 133, 422, 148
-0.999578, 377, 289, 392, 304
-0.999578, 71, 187, 86, 202
-0.999578, 395, 275, 410, 290
-0.999578, 457, 279, 472, 294
-0.999578, 93, 337, 108, 352
-0.99958, 83, 307, 98, 322
-0.99958, 125, 293, 140, 308
-0.99958, 89, 179, 104, 194
-0.99958, 159, 237, 174, 252
-0.999581, 119, 295, 134, 310
-0.999581, 469, 275, 484, 290
-0.999582, 485, 131, 500, 146
-0.999582, 57, 165, 72, 180
-0.999582, 279, 97, 294, 224
-0.999582, 59, 229, 74, 244
-0.999582, 135, 177, 150, 304
-0.999582, 55, 265, 70, 280
-0.999582, 433, 161, 448, 288
-0.999583, 59, 171, 74, 186
-0.999583, 367, 297, 382, 312
-0.999585, 13, 331, 28, 346
-0.999585, 427, 177, 442, 304
-0.999586, 37, 113, 52, 240
-0.999586, 453, 285, 468, 300
-0.999588, 303, 117, 318, 132
-0.999589, 455, 297, 470, 312
-0.999589, 225, 225, 240, 352
-0.999589, 129, 287, 144, 302
-0.999592, 485, 125, 500, 140
-0.999593, 409, 207, 424, 222
-0.999596, 477, 141, 492, 156
-0.999596, 431, 191, 446, 206
-0.999598, 35, 177, 50, 304
-0.999599, 69, 167, 84, 182
-0.999599, 419, 257, 434, 272
-0.999601, 417, 189, 432, 204
-0.999602, 285, 117, 300, 132
-0.999606, 99, 193, 114, 208
-0.999609, 185, 225, 200, 352
-0.999609, 461, 177, 476, 192
-0.999609, 99, 203, 114, 218
-0.99961, 355, 135, 370, 150
-0.999612, 419, 205, 434, 220
-0.999613, 289, 123, 304, 138
-0.999613, 351, 129, 366, 144
-0.999613, 181, 161, 196, 288
-0.999614, 385, 133, 400, 148
-0.999616, 111, 145, 126, 272
-0.99962, 445, 313, 460, 328
-0.999621, 469, 269, 484, 284
-0.999622, 223, 209, 238, 224
-0.999624, 143, 193, 158, 320
-0.999626, 483, 173, 498, 188
-0.999627, 229, 209, 244, 224
-0.999628, 297, 117, 312, 132
-0.999628, 163, 227, 178, 242
-0.999629, 467, 177, 482, 192
-0.99963, 401, 129, 416, 144
-0.99963, 413, 259, 428, 274
-0.999631, 443, 301, 458, 316
-0.999631, 79, 277, 94, 292
-0.999633, 407, 263, 422, 278
-0.999634, 437, 189, 452, 204
-0.999634, 425, 195, 440, 210
-0.999634, 209, 237, 336, 268
-0.999636, 393, 129, 408, 144
-0.999639, 323, 123, 338, 138
-0.999639, 453, 177, 468, 192
-0.999639, 409, 201, 424, 216
-0.99964, 417, 195, 432, 210
-0.999641, 381, 283, 396, 298
-0.999645, 399, 269, 414, 284
-0.999646, 371, 291, 386, 306
-0.999646, 389, 277, 404, 292
-0.99965, 309, 117, 324, 132
-0.999652, 429, 323, 444, 338
-0.999655, 1, 1, 128, 32
-0.999657, 153, 95, 168, 110
-0.999659, 315, 119, 330, 134
-0.99966, 447, 179, 462, 194
-0.99966, 167, 95, 182, 110
-0.999661, 425, 329, 440, 344
-0.999661, 423, 187, 438, 202
-0.999665, 341, 315, 356, 330
-0.999665, 327, 327, 342, 342
-0.999667, 79, 271, 94, 286
-0.999667, 473, 177, 488, 192
-0.999668, 421, 337, 436, 352
-0.999673, 361, 299, 376, 314
-0.999673, 395, 135, 410, 150
-0.999673, 347, 311, 362, 326
-0.999673, 449, 295, 464, 310
-0.999676, 441, 181, 456, 196
-0.999678, 433, 317, 448, 332
-0.99968, 439, 311, 454, 326
-0.999682, 431, 185, 446, 200
-0.999682, 333, 323, 348, 338
-0.999684, 353, 305, 368, 320
-0.999688, 463, 277, 478, 292
-0.99969, 315, 337, 330, 352
-0.999704, 321, 333, 336, 348
-0.999704, 321, 1, 352, 256
-0.999704, 177, 1, 208, 256
-0.99971, 459, 285, 474, 300
-0.999736, 449, 301, 464, 316
-0.999739, 427, 335, 442, 350
-0.999745, 439, 317, 454, 332
-0.999746, 445, 307, 460, 322
-0.999748, 455, 291, 470, 306
-0.99975, 273, 225, 336, 288
-0.99976, 301, 1, 332, 256
-0.999765, 431, 329, 446, 344
-0.999765, 435, 323, 450, 338
-0.99978, 273, 1, 304, 256
-0.999819, 109, 1, 140, 256
-0.999819, 161, 169, 288, 200
-0.999856, 361, 1, 392, 256
-0.999856, 209, 1, 336, 32
-0.999887, 401, 1, 432, 256
-0.999891, 49, 1, 176, 32
-0.999939, 161, 1, 288, 32
-0.99998, 273, 1, 400, 32
-1, 217, 1, 248, 256
-1.00004, 1, 93, 128, 124
-1.00006, 113, 153, 240, 184
-1.00008, 253, 1, 284, 256
-1.0001, 97, 1, 224, 32
-1.00011, 289, 1, 320, 256
-1.00012, 201, 265, 264, 328
-1.00013, 241, 217, 368, 248
-1.00017, 353, 1, 480, 32
-1.00017, 373, 1, 404, 256
-1.00018, 465, 1, 496, 256
-1.00023, 229, 1, 260, 256
-1.00026, 369, 33, 496, 160
-1.00027, 201, 1, 232, 256
-1.00027, 29, 1, 60, 256
-1.00029, 165, 1, 196, 256
-1.00032, 1, 193, 32, 320
-1.00038, 349, 1, 380, 256
-1.00041, 189, 1, 220, 256
-1.00042, 193, 73, 448, 136
-1.0005, 65, 1, 96, 256
-1.00054, 385, 1, 416, 256
-1.00055, 49, 1, 80, 256
-1.00055, 421, 1, 452, 256
-1.00083, 349, 65, 380, 192
-1.00086, 189, 225, 220, 352
-1.00088, 421, 65, 452, 192
-1.00101, 373, 65, 404, 192
-1.00103, 1, 81, 64, 144
-1.00108, 1, 65, 64, 192
-1.00128, 117, 145, 148, 272
-1.00132, 369, 81, 496, 144
-1.00139, 97, 49, 352, 112
-1.00141, 309, 161, 340, 288
-1.00149, 385, 65, 416, 192
-1.00157, 81, 73, 144, 136
-1.00169, 225, 241, 288, 304
-1.0017, 17, 193, 48, 320
-1.00208, 1, 49, 256, 112
-1.00212, 65, 1, 320, 64
-1.00212, 161, 1, 416, 64
-1.00212, 257, 17, 500, 80
-1.00212, 65, 25, 320, 88
-1.00212, 161, 25, 416, 88
-1.00212, 257, 41, 500, 104
-1.00232, 97, 33, 224, 96
-1.00234, 209, 57, 336, 120
-1.00248, 1, 65, 500, 128
-1.00258, 73, 65, 104, 192
-1.00274, 1, 57, 128, 120
-1.00279, 1, 17, 256, 144
-1.00285, 1, 25, 128, 88
-1.00291, 17, 1, 144, 64
-1.00291, 65, 1, 192, 64
-1.00291, 177, 1, 304, 64
-1.00291, 321, 1, 448, 64
-1.00291, 113, 9, 240, 72
-1.00291, 225, 9, 352, 72
-1.00291, 369, 9, 496, 72
-1.00291, 273, 17, 400, 80
-1.00291, 49, 25, 176, 88
-1.00291, 161, 25, 288, 88
-1.00291, 321, 25, 448, 88
-1.00291, 209, 33, 336, 96
-1.00291, 369, 33, 496, 96
-1.00291, 257, 41, 384, 104
-1.00291, 305, 49, 432, 112
-1.00291, 353, 57, 480, 120
-1.00314, 201, 225, 232, 352
-1.00324, 5, 49, 36, 176
-1.00359, 33, 17, 160, 144
-1.00364, 1, 1, 64, 256
-1.00373, 53, 65, 84, 192
-1.00373, 433, 65, 464, 192
-1.00382, 17, 49, 48, 176
-1.00387, 1, 17, 500, 80
-1.00395, 257, 49, 288, 176
-1.00419, 1, 41, 500, 104
-1.00419, 465, 33, 496, 160
-1.0048, 377, 33, 440, 160
-1.00519, 177, 17, 208, 144
-1.00546, 169, 17, 232, 144
-1.0056, 33, 49, 64, 176
-1.00589, 245, 17, 276, 144
-1.0059, 209, 33, 240, 160
-1.00698, 433, 33, 496, 160
-1.00767, 273, 17, 400, 144
-1.00987, 225, 17, 480, 144
-1.00997, 97, 1, 160, 128
-1.01022, 81, 1, 208, 128
-1.01122, 25, 33, 88, 160
-1.0115, 297, 17, 360, 144
-1.01229, 225, 1, 352, 128
-1.01424, 209, 1, 272, 128
-1.01428, 401, 1, 464, 128
-1.01444, 1, 17, 64, 144
-1.01445, 321, 17, 448, 144
-1.01506, 345, 1, 408, 128
-1.01515, 233, 1, 296, 128
-1.01664, 273, 1, 336, 128
-1.0205, 321, 17, 384, 144
