1989
-0.418159, 1, 129, 500, 375
-0.438247, 129, 97, 384, 352
-0.571893, 33, 129, 288, 375
-0.605122, 129, 1, 384, 375
-0.661485, 225, 129, 480, 375
-0.68742, 1, 1, 256, 375
-0.718045, 225, 1, 480, 375
-0.728303, 1, 1, 500, 375
-0.761786, 1, 33, 500, 288
-0.822965, 145, 97, 272, 352
-0.831214, 225, 97, 352, 352
-0.862912, 97, 129, 224, 375
-0.879958, 161, 1, 288, 375
-0.882049, 225, 33, 480, 288
-0.886247, 1, 225, 500, 352
-0.887804, 129, 113, 384, 240
-0.888387, 273, 129, 400, 375
-0.892257, 1, 177, 500, 304
-0.893203, 129, 161, 384, 288
-0.897849, 65, 209, 320, 336
-0.898407, 209, 1, 336, 375
-0.91092, 161, 209, 416, 336
-0.912666, 97, 1, 352, 256
-0.916557, 1, 33, 256, 288
-0.917214, 209, 129, 336, 256
-0.917909, 97, 1, 224, 375
-0.919389, 257, 1, 384, 375
-0.920659, 145, 129, 272, 256
-0.920688, 161, 113, 224, 240
-0.920914, 177, 1, 304, 256
-0.921003, 49, 129, 176, 375
-0.923301, 265, 193, 328, 320
-0.923967, 129, 177, 256, 304
-0.924181, 257, 225, 500, 352
-0.926407, 225, 193, 352, 320
-0.927945, 273, 113, 336, 240
-0.928206, 145, 241, 272, 368
-0.929704, 161, 193, 224, 320
-0.930126, 225, 129, 288, 256
-0.930487, 1, 129, 128, 375
-0.931253, 185, 161, 248, 288
-0.93266, 177, 193, 304, 320
-0.933129, 97, 241, 224, 368
-0.933799, 49, 1, 176, 375
-0.935662, 305, 1, 432, 375
-0.935805, 33, 161, 288, 288
-0.936177, 321, 97, 448, 352
-0.936278, 193, 209, 256, 336
-0.936325, 185, 113, 248, 240
-0.936512, 177, 81, 304, 208
-0.937029, 241, 177, 304, 304
-0.93764, 217, 209, 280, 336
-0.937917, 225, 161, 480, 288
-0.9392, 81, 193, 208, 320
-0.940106, 129, 81, 256, 208
-0.940943, 113, 193, 176, 320
-0.945837, 225, 129, 288, 192
-0.946085, 217, 81, 280, 208
-0.946116, 185, 121, 248, 184
-0.946589, 161, 241, 224, 368
-0.946599, 273, 225, 400, 352
-0.946638, 241, 225, 304, 352
-0.947455, 209, 241, 336, 368
-0.948001, 153, 137, 216, 200
-0.948635, 249, 129, 312, 256
-0.948657, 161, 105, 224, 168
-0.948892, 185, 193, 248, 256
-0.949269, 65, 33, 192, 288
-0.949288, 273, 241, 336, 368
-0.949795, 1, 129, 500, 256
-0.949953, 265, 121, 328, 184
-0.950678, 1, 209, 128, 336
-0.950764, 137, 225, 200, 352
-0.9508, 225, 1, 352, 256
-0.951282, 161, 161, 224, 224
-0.951524, 257, 201, 320, 264
-0.951583, 305, 225, 368, 352
-0.95159, 129, 1, 256, 256
-0.95172, 1, 113, 256, 240
-0.951961, 1, 225, 64, 352
-0.952292, 217, 105, 280, 168
-0.952899, 161, 217, 224, 280
-0.953016, 201, 241, 264, 304
-0.953084, 257, 145, 320, 208
-0.953364, 353, 1, 480, 375
-0.954151, 241, 241, 304, 304
-0.954197, 369, 225, 496, 352
-0.954253, 257, 129, 384, 256
-0.954264, 225, 113, 480, 240
-0.954728, 241, 81, 304, 208
-0.954818, 273, 177, 400, 304
-0.955102, 97, 129, 224, 256
-0.95513, 233, 97, 296, 352
-0.955353, 57, 225, 120, 352
-0.95539, 289, 177, 352, 304
-0.955947, 145, 193, 208, 256
-0.956, 265, 249, 328, 312
-0.956158, 281, 161, 344, 224
-0.956334, 1, 1, 128, 375
-0.956407, 137, 177, 200, 304
-0.956671, 369, 129, 496, 375
-0.957291, 265, 225, 328, 288
-0.958222, 225, 81, 352, 208
-0.958282, 161, 249, 224, 312
-0.958458, 225, 201, 288, 264
-0.958504, 209, 153, 272, 216
-0.958554, 217, 177, 280, 240
-0.958991, 41, 281, 104, 344
-0.959163, 209, 265, 272, 328
-0.959236, 201, 217, 264, 280
-0.960161, 185, 145, 248, 208
-0.960275, 185, 169, 248, 232
-0.960381, 273, 33, 400, 288
-0.960716, 377, 233, 440, 296
-0.960891, 65, 273, 128, 336
-0.961119, 153, 129, 216, 375
-0.961244, 273, 129, 336, 375
-0.961538, 281, 201, 344, 264
-0.961589, 257, 169, 320, 232
-0.962151, 321, 225, 448, 352
-0.962197, 137, 129, 200, 256
-0.962224, 289, 241, 352, 304
-0.96313, 265, 273, 328, 336
-0.963191, 89, 209, 152, 336
-0.963642, 145, 113, 272, 176
-0.963677, 209, 129, 272, 375
-0.963786, 49, 241, 176, 368
-0.963837, 161, 273, 224, 336
-0.963849, 401, 209, 464, 336
-0.964103, 185, 65, 248, 192
-0.96424, 193, 113, 224, 240
-0.96438, 97, 65, 352, 192
-0.964932, 293, 121, 324, 184
-0.965425, 377, 225, 440, 352
-0.966048, 89, 265, 152, 328
-0.966352, 205, 113, 236, 240
-0.966415, 9, 241, 72, 304
-0.966453, 165, 113, 196, 176
-0.966462, 9, 217, 72, 280
-0.966517, 241, 105, 304, 168
-0.966995, 433, 225, 496, 352
-0.96701, 209, 201, 336, 264
-0.967012, 113, 265, 176, 328
-0.967056, 177, 137, 304, 200
-0.967316, 185, 129, 248, 375
-0.967332, 73, 297, 136, 360
-0.967708, 113, 209, 176, 272
-0.968125, 121, 233, 184, 296
-0.968202, 225, 129, 352, 192
-0.968601, 41, 249, 104, 312
-0.968789, 33, 225, 96, 352
-0.968863, 253, 209, 284, 336
-0.968985, 289, 137, 352, 200
-0.969187, 229, 193, 260, 320
-0.969236, 261, 121, 292, 184
-0.969257, 129, 137, 256, 200
-0.969298, 113, 241, 176, 368
-0.969575, 233, 153, 296, 216
-0.969833, 185, 97, 216, 160
-0.970019, 205, 129, 236, 192
-0.970052, 345, 241, 408, 304
-0.970061, 353, 225, 416, 352
-0.97007, 409, 217, 472, 280
-0.97011, 145, 249, 272, 312
-0.970364, 65, 225, 128, 288
-0.970389, 217, 129, 248, 192
-0.97042, 113, 297, 176, 360
-0.970556, 137, 113, 200, 176
-0.970936, 209, 161, 336, 224
-0.971108, 273, 145, 304, 208
-0.971156, 97, 249, 224, 312
-0.971195, 137, 289, 200, 352
-0.971208, 313, 177, 376, 304
-0.97129, 241, 105, 272, 168
-0.971292, 137, 257, 200, 320
-0.971322, 273, 113, 304, 240
-0.971392, 289, 209, 320, 272
-0.971414, 313, 241, 376, 304
-0.971436, 137, 169, 200, 232
-0.971447, 129, 193, 256, 256
-0.9715, 305, 129, 336, 256
-0.971545, 185, 265, 248, 328
-0.97155, 277, 201, 308, 264
-0.971602, 185, 97, 248, 160
-0.971775, 305, 137, 336, 200
-0.971873, 225, 233, 352, 296
-0.972052, 241, 273, 304, 336
-0.972087, 245, 97, 276, 224
-0.972132, 177, 177, 208, 304
-0.972145, 9, 265, 72, 328
-0.972214, 41, 305, 104, 368
-0.972366, 129, 169, 256, 232
-0.972374, 189, 193, 220, 256
-0.972377, 425, 257, 488, 320
-0.972465, 297, 241, 328, 304
-0.972487, 293, 209, 324, 336
-0.972511, 165, 225, 196, 352
-0.972632, 161, 113, 192, 240
-0.972786, 185, 153, 216, 216
-0.972993, 273, 193, 304, 320
-0.973061, 153, 65, 216, 192
-0.973316, 257, 129, 288, 256
-0.973436, 185, 129, 216, 192
-0.973563, 213, 209, 244, 272
-0.973571, 289, 153, 320, 216
-0.973615, 217, 129, 248, 256
-0.973835, 65, 249, 128, 312
-0.973876, 229, 129, 260, 256
-0.974055, 289, 265, 352, 328
-0.974094, 193, 193, 224, 320
-0.974204, 433, 297, 496, 360
-0.974259, 253, 209, 284, 272
-0.974312, 433, 233, 496, 296
-0.974403, 205, 177, 236, 304
-0.974418, 181, 113, 212, 240
-0.974421, 157, 137, 188, 200
-0.974458, 169, 241, 200, 304
-0.974494, 41, 225, 104, 288
-0.974524, 145, 225, 272, 288
-0.974566, 289, 289, 352, 352
-0.974804, 229, 129, 260, 192
-0.974809, 217, 249, 248, 312
-0.974842, 33, 281, 160, 344
-0.974876, 293, 97, 324, 224
-0.974923, 145, 273, 272, 336
-0.974925, 241, 193, 272, 320
-0.975137, 193, 65, 448, 192
-0.975407, 197, 169, 228, 232
-0.975408, 205, 257, 236, 320
-0.97542, 273, 121, 304, 184
-0.975445, 329, 225, 392, 352
-0.975474, 245, 129, 276, 192
-0.975635, 57, 265, 88, 328
-0.97564, 17, 257, 144, 320
-0.975844, 213, 153, 244, 216
-0.976168, 201, 193, 232, 256
-0.976231, 113, 145, 176, 272
-0.976236, 17, 177, 80, 304
-0.97624, 305, 185, 336, 248
-0.976255, 209, 257, 336, 320
-0.97629, 273, 217, 400, 280
-0.97645, 257, 249, 288, 312
-0.976519, 73, 281, 104, 344
-0.976636, 1, 65, 256, 192
-0.976671, 97, 273, 224, 336
-0.976806, 197, 105, 228, 168
-0.976814, 237, 241, 268, 304
-0.976823, 297, 129, 360, 256
-0.976898, 273, 241, 400, 304
-0.976974, 45, 281, 76, 344
-0.977026, 305, 217, 368, 280
-0.977131, 97, 217, 224, 280
-0.977197, 205, 225, 236, 352
-0.977218, 177, 193, 208, 256
-0.97722, 285, 145, 316, 272
-0.977442, 289, 185, 320, 248
-0.977649, 309, 233, 340, 296
-0.977746, 237, 201, 268, 264
-0.978037, 309, 193, 340, 320
-0.978164, 313, 265, 376, 328
-0.978186, 273, 313, 336, 375
-0.978188, 217, 193, 248, 320
-0.978396, 93, 281, 124, 344
-0.97846, 97, 297, 224, 360
-0.978487, 165, 177, 196, 304
-0.978631, 265, 193, 296, 256
-0.978729, 225, 153, 256, 216
-0.978902, 213, 105, 244, 168
-0.978965, 41, 177, 104, 304
-0.979078, 269, 273, 300, 336
-0.979162, 197, 233, 228, 296
-0.979166, 1, 217, 128, 280
-0.97917, 17, 297, 80, 360
-0.97929, 321, 241, 448, 304
-0.97931, 149, 177, 180, 304
-0.979332, 109, 257, 140, 320
-0.979342, 153, 313, 216, 375
-0.979382, 225, 209, 256, 272
-0.97949, 193, 105, 320, 168
-0.979493, 185, 241, 216, 368
-0.979543, 17, 33, 144, 288
-0.979655, 153, 225, 184, 352
-0.979717, 157, 161, 188, 224
-0.979763, 369, 233, 496, 296
-0.979804, 1, 81, 500, 208
-0.9799, 229, 81, 260, 208
-0.97994, 49, 233, 176, 296
-0.979985, 401, 241, 464, 304
-0.980022, 173, 137, 204, 200
-0.980115, 305, 161, 336, 224
-0.980137, 273, 137, 400, 200
-0.980147, 313, 257, 344, 320
-0.98015, 165, 209, 196, 272
-0.980163, 17, 305, 144, 368
-0.98031, 301, 273, 332, 336
-0.980486, 269, 233, 300, 296
-0.980574, 257, 273, 384, 336
-0.980711, 69, 257, 100, 320
-0.98076, 305, 129, 432, 256
-0.981005, 101, 209, 132, 336
-0.981019, 369, 257, 496, 320
-0.981067, 249, 313, 312, 375
-0.981132, 277, 177, 308, 240
-0.981252, 241, 145, 272, 272
-0.981287, 229, 105, 260, 168
-0.981404, 213, 177, 244, 240
-0.981458, 389, 233, 420, 296
-0.981535, 405, 233, 436, 296
-0.98157, 25, 209, 56, 336
-0.981571, 89, 225, 152, 288
-0.981686, 149, 257, 180, 320
-0.981761, 273, 241, 304, 368
-0.981834, 129, 145, 192, 208
-0.981879, 249, 81, 312, 144
-0.981912, 157, 185, 188, 248
-0.981913, 89, 209, 120, 336
-0.98201, 193, 281, 320, 344
-0.982034, 185, 217, 216, 280
-0.982191, 257, 177, 384, 240
-0.982194, 253, 153, 284, 216
-0.98222, 177, 65, 208, 192
-0.982241, 1, 241, 32, 304
-0.982264, 305, 241, 336, 368
-0.982533, 245, 177, 276, 240
-0.982557, 281, 257, 312, 320
-0.98257, 185, 313, 248, 375
-0.982576, 129, 129, 192, 375
-0.982591, 169, 161, 200, 224
-0.982596, 241, 265, 272, 328
-0.982619, 65, 209, 96, 336
-0.982721, 265, 65, 328, 192
-0.982813, 193, 257, 224, 320
-0.982974, 45, 225, 76, 352
-0.982995, 101, 225, 132, 288
-0.983012, 193, 289, 256, 352
-0.983071, 229, 273, 260, 336
-0.983082, 65, 177, 128, 304
-0.98316, 305, 161, 368, 224
-0.983342, 289, 113, 352, 176
-0.983347, 253, 97, 284, 160
-0.983387, 281, 313, 312, 375
-0.983412, 309, 209, 340, 272
-0.983418, 121, 209, 152, 336
-0.983488, 221, 241, 252, 368
-0.98353, 81, 129, 208, 192
-0.983574, 169, 313, 200, 375
-0.98364, 77, 209, 108, 336
-0.983662, 185, 33, 248, 288
-0.983709, 145, 89, 272, 152
-0.983752, 165, 273, 196, 336
-0.983812, 17, 161, 144, 288
-0.983848, 73, 305, 104, 368
-0.983876, 69, 225, 100, 288
-0.983885, 137, 193, 168, 320
-0.983996, 97, 249, 128, 312
-0.984, 197, 65, 228, 192
-0.984126, 273, 81, 400, 208
-0.984144, 429, 217, 460, 280
-0.984267, 61, 305, 92, 368
-0.98439, 105, 289, 136, 352
-0.984428, 369, 241, 400, 304
-0.984632, 285, 281, 316, 344
-0.984651, 233, 177, 264, 240
-0.984661, 45, 241, 76, 304
-0.984764, 321, 209, 352, 336
-0.984776, 241, 153, 272, 216
-0.984793, 369, 257, 432, 320
-0.984858, 81, 177, 208, 240
-0.984937, 113, 185, 176, 248
-0.984953, 297, 129, 360, 375
-0.985095, 233, 241, 264, 368
-0.985149, 85, 233, 116, 296
-0.985243, 81, 65, 208, 192
-0.985324, 157, 233, 188, 296
-0.985328, 177, 313, 304, 375
-0.985391, 193, 33, 320, 160
-0.985469, 305, 113, 336, 176
-0.985508, 377, 177, 440, 304
-0.985553, 149, 281, 180, 344
-0.985662, 285, 233, 316, 296
-0.985706, 137, 209, 168, 272
-0.985728, 409, 225, 440, 352
-0.985752, 217, 81, 248, 208
-0.98583, 317, 145, 348, 208
-0.985874, 321, 177, 448, 304
-0.986058, 117, 281, 148, 344
-0.986069, 205, 281, 236, 344
-0.986137, 181, 273, 212, 336
-0.986282, 465, 297, 496, 360
-0.986283, 1, 225, 32, 352
-0.986414, 81, 257, 112, 320
-0.986435, 393, 265, 456, 328
-0.986581, 257, 33, 320, 288
-0.986611, 393, 225, 424, 352
-0.986651, 305, 185, 368, 248
-0.986651, 217, 273, 248, 336
-0.986789, 173, 89, 204, 152
-0.986819, 417, 217, 448, 280
-0.986845, 429, 209, 460, 336
-0.986873, 257, 289, 288, 352
-0.986934, 49, 209, 176, 272
-0.986957, 209, 33, 272, 288
-0.986966, 97, 105, 224, 168
-0.986971, 93, 305, 124, 368
-0.987082, 357, 241, 388, 304
-0.987205, 97, 153, 352, 216
-0.987356, 273, 305, 400, 368
-0.987393, 297, 313, 360, 375
-0.987535, 177, 1, 240, 375
-0.987571, 257, 81, 288, 208
-0.987595, 217, 1, 280, 375
-0.987678, 181, 241, 212, 304
-0.987724, 345, 265, 408, 328
-0.987782, 265, 133, 328, 164
-0.987816, 169, 149, 232, 180
-0.987845, 257, 149, 320, 180
-0.98785, 313, 289, 376, 352
-0.987879, 17, 209, 48, 272
-0.987884, 185, 313, 216, 375
-0.987931, 381, 225, 412, 352
-0.987945, 273, 65, 304, 192
-0.987989, 225, 157, 288, 188
-0.988079, 185, 201, 248, 232
-0.988099, 185, 221, 248, 252
-0.988185, 145, 161, 208, 192
-0.988192, 149, 209, 180, 272
-0.988201, 317, 145, 348, 272
-0.988214, 217, 137, 280, 168
-0.98825, 325, 241, 356, 304
-0.988267, 49, 113, 176, 240
-0.988298, 201, 161, 264, 192
-0.988305, 281, 153, 344, 184
-0.988313, 161, 217, 416, 280
-0.988338, 153, 1, 216, 375
-0.988435, 241, 137, 304, 168
-0.988492, 145, 33, 208, 288
-0.988529, 433, 177, 496, 304
-0.988535, 97, 129, 352, 192
-0.988609, 241, 225, 304, 256
-0.988645, 257, 205, 320, 236
-0.988648, 305, 193, 432, 256
-0.988656, 217, 209, 280, 240
-0.988686, 217, 125, 280, 156
-0.98869, 301, 313, 332, 375
-0.988733, 13, 233, 44, 296
-0.988753, 177, 125, 240, 156
-0.988756, 57, 233, 88, 296
-0.98879, 273, 1, 336, 375
-0.988797, 257, 121, 320, 152
-0.988884, 257, 161, 320, 192
-0.988894, 209, 81, 272, 144
-0.988918, 161, 241, 224, 272
-0.988968, 369, 225, 400, 352
-0.988987, 193, 141, 256, 172
-0.988997, 209, 241, 272, 272
-0.989002, 65, 129, 128, 375
-0.989014, 169, 161, 232, 192
-0.989016, 145, 141, 208, 172
-0.989088, 57, 285, 120, 316
-0.989095, 265, 277, 328, 308
-0.989111, 313, 137, 376, 200
-0.989141, 265, 177, 328, 208
-0.989152, 469, 233, 500, 296
-0.989159, 269, 313, 300, 375
-0.989168, 265, 169, 296, 232
-0.989178, 65, 297, 128, 328
-0.989188, 161, 273, 224, 304
-0.989191, 81, 153, 208, 216
-0.989199, 217, 273, 280, 304
-0.989208, 465, 225, 496, 352
-0.989215, 153, 177, 216, 208
-0.989243, 97, 177, 352, 240
-0.989247, 417, 241, 448, 304
-0.989284, 321, 217, 352, 280
-0.98932, 29, 209, 60, 272
-0.989329, 441, 225, 472, 288
-0.989332, 149, 129, 180, 256
-0.989342, 209, 221, 272, 252
-0.989371, 153, 125, 216, 156
-0.989373, 305, 161, 432, 224
-0.989387, 281, 97, 312, 160
-0.989412, 305, 265, 432, 328
-0.989413, 145, 209, 208, 240
-0.989431, 241, 105, 368, 168
-0.989435, 281, 165, 344, 196
-0.989493, 217, 113, 280, 144
-0.989519, 369, 177, 496, 304
-0.989542, 157, 313, 188, 375
-0.989597, 113, 225, 144, 288
-0.989602, 105, 129, 168, 375
-0.989613, 145, 197, 208, 228
-0.989615, 161, 229, 224, 260
-0.989618, 177, 113, 240, 144
-0.989628, 281, 209, 344, 240
-0.98965, 41, 297, 104, 328
-0.989668, 313, 281, 344, 344
-0.989742, 337, 217, 400, 280
-0.989744, 161, 81, 224, 144
-0.989756, 201, 173, 264, 204
-0.989762, 369, 281, 496, 344
-0.989768, 273, 193, 336, 224
-0.989775, 185, 233, 248, 264
-0.989795, 185, 273, 248, 304
-0.989854, 273, 245, 336, 276
-0.98991, 129, 273, 160, 336
-0.990051, 225, 169, 288, 200
-0.990064, 225, 197, 288, 228
-0.990069, 201, 257, 264, 288
-0.990079, 273, 325, 336, 356
-0.990149, 185, 189, 248, 220
-0.990149, 49, 305, 80, 368
-0.990166, 265, 233, 328, 264
-0.990174, 249, 1, 312, 375
-0.990175, 225, 261, 288, 292
-0.990186, 169, 137, 232, 168
-0.990197, 89, 293, 152, 324
-0.99021, 145, 233, 176, 296
-0.990251, 281, 261, 344, 292
-0.990285, 161, 253, 224, 284
-0.990292, 241, 277, 304, 308
-0.990303, 153, 329, 216, 360
-0.990316, 33, 285, 96, 316
-0.990318, 265, 221, 328, 252
-0.990339, 97, 81, 224, 144
-0.990375, 369, 209, 432, 272
-0.990379, 177, 173, 240, 204
-0.990425, 41, 309, 104, 340
-0.990428, 361, 241, 424, 272
-0.990446, 13, 209, 44, 336
-0.990486, 257, 249, 500, 312
-0.990495, 289, 273, 352, 304
-0.990543, 33, 281, 288, 344
-0.990561, 25, 273, 56, 336
-0.990564, 289, 141, 352, 172
-0.990587, 249, 265, 312, 296
-0.990608, 121, 237, 184, 268
-0.990612, 145, 285, 208, 316
-0.990614, 121, 253, 184, 284
-0.990644, 141, 241, 172, 368
-0.99065, 125, 217, 156, 280
-0.990675, 313, 241, 376, 272
-0.99076, 249, 253, 312, 284
-0.990768, 241, 109, 304, 140
-0.990782, 233, 237, 296, 268
-0.990808, 89, 265, 152, 296
-0.99083, 137, 269, 200, 300
-0.990916, 153, 341, 216, 372
-0.990943, 89, 161, 152, 288
-0.990945, 1, 245, 64, 276
-0.99095, 353, 209, 480, 272
-0.990961, 113, 285, 176, 316
-0.990961, 417, 129, 480, 375
-0.990992, 185, 285, 248, 316
-0.991027, 249, 321, 312, 352
-0.991062, 249, 193, 312, 224
-0.991078, 81, 309, 144, 340
-0.991078, 57, 265, 120, 296
-0.99108, 129, 325, 192, 356
-0.991084, 305, 261, 368, 292
-0.991086, 385, 241, 448, 272
-0.991086, 161, 273, 416, 336
-0.991093, 33, 257, 288, 320
-0.991093, 105, 161, 168, 224
-0.9911, 273, 289, 336, 320
-0.991103, 233, 1, 296, 256
-0.991105, 321, 289, 448, 352
-0.991134, 33, 265, 96, 296
-0.991172, 281, 121, 344, 152
-0.991181, 209, 285, 272, 316
-0.991237, 433, 305, 496, 336
-0.991242, 369, 313, 496, 375
-0.99127, 289, 65, 352, 192
-0.991272, 9, 257, 72, 288
-0.991283, 33, 129, 96, 375
-0.991288, 81, 281, 144, 312
-0.99129, 153, 105, 216, 136
-0.991299, 201, 101, 264, 132
-0.991331, 289, 221, 352, 252
-0.991356, 297, 193, 360, 224
-0.991361, 129, 241, 384, 304
-0.991367, 313, 281, 376, 312
-0.991369, 425, 261, 488, 292
-0.991387, 273, 313, 336, 344
-0.991403, 1, 277, 64, 308
-0.991414, 121, 221, 184, 252
-0.99142, 225, 313, 352, 375
-0.991421, 357, 225, 388, 352
-0.991437, 113, 269, 176, 300
-0.991447, 57, 253, 120, 284
-0.991471, 409, 225, 472, 256
-0.991496, 121, 161, 184, 192
-0.991528, 41, 225, 104, 256
-0.991529, 453, 225, 484, 352
-0.991531, 97, 221, 160, 252
-0.991553, 337, 245, 400, 276
-0.991558, 9, 233, 72, 264
-0.991579, 177, 101, 240, 132
-0.991588, 225, 185, 288, 216
-0.991695, 9, 221, 72, 252
-0.991718, 17, 297, 80, 328
-0.991721, 1, 289, 500, 352
-0.991738, 113, 297, 176, 328
-0.991781, 177, 157, 208, 188
-0.991802, 121, 209, 184, 240
-0.991816, 289, 181, 352, 212
-0.99182, 177, 333, 240, 364
-0.991848, 293, 157, 324, 188
-0.991908, 33, 249, 96, 280
-0.991926, 289, 233, 352, 264
-0.991948, 185, 245, 248, 276
-0.991963, 245, 157, 276, 188
-0.991981, 65, 225, 128, 256
-0.991981, 177, 161, 304, 192
-0.991987, 193, 137, 448, 200
-0.992002, 305, 161, 336, 192
-0.992008, 233, 289, 296, 320
-0.992016, 81, 193, 144, 256
-0.992031, 221, 161, 252, 192
-0.992036, 305, 169, 368, 200
-0.992039, 401, 257, 464, 288
-0.992039, 41, 201, 104, 264
-0.992059, 369, 281, 432, 344
-0.992071, 293, 129, 324, 160
-0.992085, 157, 157, 188, 188
-0.992086, 129, 177, 192, 208
-0.992088, 297, 313, 360, 344
-0.992099, 265, 133, 296, 164
-0.992117, 189, 169, 220, 200
-0.992136, 281, 133, 312, 164
-0.992139, 225, 117, 256, 148
-0.992144, 121, 133, 184, 164
-0.992145, 425, 249, 488, 280
-0.992162, 245, 137, 276, 168
-0.992166, 213, 217, 244, 248
-0.992172, 209, 161, 240, 192
-0.992178, 161, 141, 288, 172
-0.992178, 205, 201, 236, 232
-0.992179, 273, 145, 304, 176
-0.99218, 245, 109, 276, 140
-0.992183, 281, 161, 312, 192
-0.992195, 293, 173, 324, 204
-0.9922, 193, 321, 256, 352
-0.992201, 441, 225, 472, 352
-0.99221, 197, 153, 228, 184
-0.992222, 225, 149, 352, 180
-0.992238, 1, 217, 256, 280
-0.992239, 257, 217, 288, 248
-0.992255, 301, 273, 332, 304
-0.992265, 185, 145, 216, 176
-0.992272, 213, 133, 244, 164
-0.992276, 209, 81, 336, 144
-0.992279, 285, 321, 316, 352
-0.992279, 261, 145, 292, 176
-0.992289, 245, 225, 276, 256
-0.992302, 193, 217, 224, 248
-0.992305, 261, 121, 292, 152
-0.992327, 165, 121, 196, 152
-0.992329, 169, 173, 200, 204
-0.99233, 305, 141, 336, 172
-0.992334, 225, 213, 256, 244
-0.992344, 257, 233, 288, 264
-0.992355, 85, 285, 116, 316
-0.992359, 217, 289, 280, 352
-0.992386, 285, 205, 316, 236
-0.992389, 181, 205, 212, 236
-0.992399, 221, 149, 252, 180
-0.992403, 233, 157, 264, 188
-0.992404, 281, 33, 344, 288
-0.992411, 213, 233, 244, 264
-0.992414, 173, 145, 204, 176
-0.992421, 233, 141, 264, 172
-0.992421, 49, 285, 80, 316
-0.992423, 265, 161, 296, 192
-0.992427, 45, 297, 76, 328
-0.992454, 1, 257, 500, 320
-0.992464, 305, 185, 336, 216
-0.992466, 129, 153, 256, 184
-0.992467, 93, 297, 124, 328
-0.992473, 165, 269, 196, 300
-0.992475, 69, 293, 100, 324
-0.992492, 213, 173, 244, 204
-0.992506, 157, 145, 188, 176
-0.992507, 245, 121, 276, 152
-0.992507, 225, 129, 256, 160
-0.992517, 181, 101, 212, 132
-0.992523, 189, 273, 220, 304
-0.992525, 225, 229, 256, 260
-0.992529, 257, 209, 500, 272
-0.99253, 257, 205, 288, 236
-0.992532, 285, 145, 316, 176
-0.992536, 217, 201, 248, 232
-0.992542, 137, 145, 168, 272
-0.992548, 281, 277, 312, 308
-0.99256, 97, 285, 128, 316
-0.99256, 257, 33, 288, 160
-0.992571, 205, 189, 236, 220
-0.992574, 273, 117, 304, 148
-0.992577, 241, 169, 272, 200
-0.992587, 309, 233, 340, 264
-0.992589, 273, 201, 304, 232
-0.992595, 227, 121, 242, 184
-0.992596, 193, 205, 224, 236
-0.992605, 305, 197, 336, 228
-0.992613, 169, 325, 200, 356
-0.992614, 233, 245, 264, 276
-0.99262, 205, 117, 236, 148
-0.992626, 249, 245, 280, 276
-0.992632, 1, 305, 256, 368
-0.992632, 317, 261, 348, 292
-0.992636, 173, 229, 204, 260
-0.992649, 145, 125, 272, 156
-0.992657, 277, 173, 308, 204
-0.992659, 305, 173, 336, 204
-0.992668, 301, 285, 332, 316
-0.992668, 293, 117, 324, 148
-0.992668, 289, 113, 416, 176
-0.992671, 209, 149, 240, 180
-0.992681, 113, 81, 176, 208
-0.99269, 197, 141, 228, 172
-0.992695, 169, 285, 200, 316
-0.992697, 181, 329, 212, 360
-0.992703, 285, 193, 316, 224
-0.992705, 269, 217, 300, 248
-0.992708, 193, 181, 224, 212
-0.992709, 289, 225, 320, 256
-0.992709, 157, 197, 188, 228
-0.992712, 305, 209, 336, 240
-0.992715, 197, 229, 228, 260
-0.99272, 237, 273, 268, 304
-0.992722, 209, 265, 240, 296
-0.992724, 237, 205, 268, 236
-0.992725, 225, 137, 352, 168
-0.992728, 333, 225, 364, 352
-0.992732, 157, 173, 188, 204
-0.992732, 189, 113, 220, 144
-0.992737, 297, 325, 328, 356
-0.992738, 225, 169, 352, 200
-0.992756, 225, 273, 256, 304
-0.99276, 261, 277, 292, 308
-0.992771, 1, 245, 32, 276
-0.992775, 161, 245, 192, 276
-0.992783, 181, 193, 212, 224
-0.992785, 253, 265, 284, 296
-0.992793, 161, 225, 192, 256
-0.992795, 277, 233, 308, 264
-0.992802, 173, 133, 204, 164
-0.992802, 385, 241, 416, 272
-0.992809, 413, 241, 444, 272
-0.992814, 101, 265, 132, 296
-0.992823, 81, 297, 112, 328
-0.992828, 265, 173, 296, 204
-0.992831, 301, 261, 332, 292
-0.992837, 261, 245, 292, 276
-0.992844, 185, 133, 216, 164
-0.992846, 253, 169, 284, 200
-0.992848, 425, 221, 456, 252
-0.992851, 65, 305, 96, 336
-0.992856, 45, 177, 76, 304
-0.992858, 177, 217, 208, 248
-0.992865, 209, 209, 336, 240
-0.992868, 313, 277, 344, 308
-0.992868, 229, 173, 260, 204
-0.992874, 105, 297, 136, 328
-0.9929, 309, 245, 340, 276
-0.992902, 249, 277, 280, 308
-0.992904, 209, 105, 240, 136
-0.992904, 181, 181, 212, 212
-0.992913, 273, 321, 304, 352
-0.992915, 229, 105, 260, 136
-0.992919, 305, 129, 336, 160
-0.992919, 145, 281, 176, 312
-0.99292, 149, 233, 180, 264
-0.992922, 397, 241, 428, 272
-0.992926, 1, 233, 500, 296
-0.992927, 49, 253, 80, 284
-0.992988, 291, 169, 306, 232
-0.993068, 225, 185, 480, 248
-0.993082, 129, 205, 256, 236
-0.993114, 97, 105, 352, 168
-0.993178, 241, 209, 256, 272
-0.993223, 319, 137, 334, 200
-0.993247, 277, 121, 292, 184
-0.993267, 221, 129, 236, 192
-0.993274, 297, 121, 312, 184
-0.993351, 309, 129, 324, 192
-0.993374, 241, 49, 272, 176
-0.993406, 313, 113, 376, 176
-0.99342, 165, 49, 196, 176
-0.993456, 129, 173, 256, 204
-0.993532, 145, 245, 272, 276
-0.993532, 301, 209, 316, 272
-0.993561, 337, 177, 400, 304
-0.993618, 261, 137, 276, 200
-0.993627, 161, 233, 288, 264
-0.993702, 97, 313, 352, 375
-0.993717, 33, 185, 160, 248
-0.993717, 313, 81, 376, 208
-0.99374, 193, 221, 320, 252
-0.993776, 305, 81, 336, 208
-0.993785, 137, 81, 200, 144
-0.993791, 163, 129, 178, 192
-0.99382, 9, 129, 72, 375
-0.993879, 1, 193, 256, 256
-0.993904, 1, 33, 500, 160
-0.993918, 269, 201, 284, 264
-0.993939, 287, 145, 302, 208
-0.993947, 291, 201, 306, 264
-0.993949, 253, 121, 268, 184
-0.993949, 97, 281, 224, 312
-0.99395, 215, 129, 230, 192
-0.993957, 281, 161, 296, 224
-0.993971, 297, 161, 312, 224
-0.993992, 185, 73, 248, 136
-0.994, 257, 305, 500, 368
-0.994013, 321, 313, 448, 375
-0.994062, 33, 285, 160, 316
-0.994098, 253, 209, 268, 272
-0.994103, 169, 113, 184, 176
-0.994111, 235, 129, 250, 192
-0.99412, 219, 193, 234, 256
-0.994131, 321, 97, 384, 352
-0.994142, 183, 193, 198, 256
-0.994145, 193, 97, 208, 160
-0.994153, 193, 121, 320, 152
-0.994191, 319, 257, 334, 320
-0.994203, 209, 181, 336, 212
-0.994218, 311, 241, 326, 304
-0.994227, 369, 33, 496, 288
-0.994229, 193, 161, 448, 224
-0.994245, 321, 1, 448, 256
-0.994249, 313, 1, 376, 375
-0.994251, 145, 273, 272, 304
-0.994265, 113, 217, 240, 248
-0.994266, 297, 185, 312, 248
-0.994271, 227, 209, 242, 272
-0.994273, 217, 257, 232, 320
-0.994285, 197, 121, 212, 184
-0.994286, 405, 177, 436, 304
-0.994292, 245, 233, 260, 296
-0.994297, 279, 193, 294, 256
-0.994318, 221, 161, 236, 224
-0.994337, 241, 97, 272, 352
-0.994353, 191, 201, 206, 264
-0.994355, 319, 233, 334, 296
-0.994379, 257, 281, 500, 344
-0.994393, 267, 137, 282, 200
-0.994398, 269, 249, 284, 312
-0.994421, 213, 209, 228, 272
-0.994444, 195, 161, 210, 224
-0.994449, 303, 113, 318, 176
-0.994457, 1, 129, 256, 192
-0.994496, 81, 265, 208, 296
-0.994501, 185, 121, 200, 184
-0.994528, 307, 153, 322, 216
-0.994565, 97, 141, 224, 172
-0.994572, 145, 261, 272, 292
-0.994591, 207, 121, 222, 184
-0.994614, 189, 161, 204, 224
-0.994637, 257, 233, 384, 264
-0.99465, 145, 113, 272, 144
-0.994671, 211, 177, 226, 240
-0.994673, 345, 225, 376, 352
-0.99468, 113, 97, 176, 160
-0.994683, 285, 313, 300, 375
-0.994698, 201, 145, 216, 208
-0.994714, 285, 201, 300, 264
-0.994723, 97, 253, 224, 284
-0.994743, 225, 197, 352, 228
-0.994753, 251, 97, 266, 160
-0.994786, 17, 305, 144, 336
-0.994797, 269, 97, 300, 352
-0.994798, 305, 249, 320, 312
-0.9948, 105, 1, 168, 375
-0.994817, 209, 241, 336, 272
-0.994835, 85, 281, 100, 344
-0.994836, 203, 193, 218, 256
-0.994853, 209, 249, 224, 312
-0.994853, 179, 153, 194, 216
-0.994858, 1, 201, 500, 264
-0.994859, 67, 265, 82, 328
-0.994899, 193, 277, 320, 308
-0.994927, 17, 193, 80, 256
-0.99494, 129, 1, 192, 375
-0.994945, 177, 201, 192, 264
-0.994956, 227, 153, 242, 216
-0.99496, 213, 153, 228, 216
-0.994974, 259, 113, 274, 176
-0.994974, 61, 265, 76, 328
-0.99498, 129, 189, 256, 220
-0.994981, 193, 265, 320, 296
-0.995016, 291, 121, 306, 184
-0.995035, 117, 273, 132, 336
-0.995044, 263, 265, 278, 328
-0.995045, 269, 225, 284, 288
-0.995051, 321, 313, 384, 375
-0.995066, 353, 241, 480, 272
-0.995073, 209, 33, 272, 160
-0.995076, 111, 273, 126, 336
-0.995081, 79, 281, 94, 344
-0.995094, 263, 209, 278, 272
-0.995146, 163, 249, 178, 312
-0.995167, 221, 129, 252, 375
-0.995195, 205, 97, 236, 352
-0.995199, 263, 241, 278, 304
-0.995199, 169, 241, 184, 304
-0.99522, 275, 273, 290, 336
-0.995236, 235, 233, 250, 296
-0.995244, 257, 97, 288, 352
-0.995272, 203, 233, 218, 296
-0.995275, 49, 105, 176, 168
-0.99528, 193, 321, 320, 352
-0.995296, 265, 113, 280, 176
-0.995302, 283, 121, 298, 184
-0.995304, 97, 293, 224, 324
-0.995308, 241, 33, 304, 160
-0.995331, 91, 273, 106, 336
-0.99537, 177, 193, 304, 224
-0.995376, 275, 241, 290, 304
-0.995379, 295, 225, 310, 288
-0.99538, 275, 161, 290, 224
-0.995407, 273, 161, 400, 192
-0.995419, 225, 241, 240, 304
-0.995419, 1, 169, 256, 232
-0.995441, 285, 233, 300, 296
-0.995451, 73, 281, 88, 344
-0.995467, 159, 153, 174, 216
-0.995483, 169, 137, 184, 200
-0.995493, 97, 281, 112, 344
-0.995495, 241, 113, 256, 176
-0.995502, 255, 153, 270, 216
-0.995503, 241, 265, 368, 296
-0.995505, 205, 169, 220, 232
-0.995513, 197, 193, 212, 256
-0.995514, 213, 105, 228, 168
-0.995515, 345, 289, 408, 352
-0.995522, 165, 97, 196, 352
-0.995525, 179, 113, 194, 176
-0.995562, 191, 137, 206, 200
-0.995567, 111, 249, 126, 312
-0.99557, 273, 277, 400, 308
-0.995588, 263, 185, 278, 248
-0.995599, 215, 233, 230, 296
-0.995603, 103, 281, 118, 344
-0.995609, 183, 233, 198, 296
-0.995653, 329, 161, 360, 288
-0.995654, 247, 201, 262, 264
-0.995657, 97, 129, 224, 160
-0.995684, 9, 241, 24, 304
-0.995685, 281, 129, 312, 375
-0.995687, 33, 269, 160, 300
-0.995699, 53, 273, 68, 336
-0.9957, 193, 129, 224, 375
-0.995718, 187, 97, 202, 160
-0.995722, 235, 201, 250, 264
-0.995745, 247, 177, 262, 240
-0.995775, 325, 241, 340, 304
-0.995794, 291, 313, 306, 375
-0.995796, 303, 185, 318, 248
-0.9958, 313, 265, 328, 328
-0.995836, 231, 177, 246, 240
-0.995857, 241, 137, 256, 200
-0.995878, 113, 161, 144, 288
-0.99588, 301, 97, 332, 352
-0.995889, 401, 161, 464, 288
-0.995901, 207, 145, 222, 208
-0.995903, 179, 313, 194, 375
-0.995906, 1, 257, 128, 288
-0.995907, 413, 233, 428, 296
-0.995909, 171, 161, 186, 224
-0.995914, 171, 273, 186, 336
-0.995926, 271, 113, 286, 176
-0.995927, 123, 257, 138, 320
-0.995936, 319, 161, 334, 224
-0.995943, 391, 233, 406, 296
-0.995955, 309, 217, 324, 280
-0.995969, 285, 273, 300, 336
-0.995976, 299, 249, 314, 312
-0.995988, 161, 101, 288, 132
-0.995998, 309, 185, 324, 248
-0.996003, 85, 305, 100, 368
-0.996007, 225, 113, 480, 176
-0.996012, 199, 97, 214, 160
-0.996013, 251, 249, 266, 312
-0.99602, 221, 217, 236, 280
-0.996026, 117, 297, 132, 360
-0.996027, 61, 289, 76, 352
-0.996031, 157, 233, 172, 296
-0.99605, 111, 297, 126, 360
-0.996056, 209, 253, 336, 284
-0.996089, 273, 141, 400, 172
-0.996113, 181, 97, 212, 352
-0.996137, 305, 245, 432, 276
-0.996198, 97, 325, 224, 356
-0.996216, 241, 125, 368, 156
-0.996263, 145, 33, 272, 160
-0.996267, 257, 245, 384, 276
-0.996303, 193, 289, 320, 320
-0.996365, 145, 285, 272, 316
-0.996367, 273, 321, 400, 352
-0.996383, 145, 337, 272, 368
-0.996413, 179, 157, 194, 188
-0.996477, 113, 229, 240, 260
-0.996481, 199, 153, 214, 184
-0.996484, 305, 157, 320, 188
-0.996496, 81, 161, 208, 192
-0.996565, 191, 157, 206, 188
-0.996567, 65, 241, 192, 272
-0.996608, 225, 161, 240, 192
-0.996614, 273, 197, 400, 228
-0.996623, 1, 225, 128, 256
-0.996625, 207, 157, 222, 188
-0.996634, 299, 161, 314, 192
-0.996635, 369, 129, 432, 375
-0.996639, 1, 1, 64, 375
-0.996642, 263, 149, 278, 180
-0.996662, 209, 169, 224, 200
-0.996692, 251, 101, 266, 132
-0.996726, 257, 289, 384, 320
-0.996761, 299, 117, 314, 148
-0.99677, 65, 1, 128, 375
-0.996784, 297, 89, 360, 152
-0.996797, 163, 141, 178, 172
-0.996809, 285, 321, 300, 352
-0.996809, 215, 161, 230, 192
-0.996811, 311, 161, 326, 192
-0.996825, 153, 129, 184, 375
-0.996829, 17, 317, 144, 348
-0.996835, 65, 229, 192, 260
-0.996841, 319, 141, 334, 172
-0.996846, 171, 153, 186, 184
-0.996852, 289, 173, 416, 204
-0.996854, 201, 169, 216, 200
-0.996897, 305, 169, 320, 200
-0.996916, 273, 133, 288, 164
-0.996943, 257, 153, 272, 184
-0.996946, 321, 129, 384, 256
-0.996954, 25, 161, 56, 288
-0.996955, 207, 141, 222, 172
-0.996957, 1, 177, 32, 304
-0.996959, 235, 153, 250, 184
-0.996962, 257, 209, 384, 240
-0.996964, 393, 177, 424, 304
-0.997007, 285, 133, 300, 164
-0.997018, 321, 257, 448, 288
-0.99702, 273, 309, 400, 340
-0.997021, 227, 225, 242, 256
-0.997026, 305, 225, 432, 256
-0.997029, 369, 281, 496, 312
-0.99703, 289, 161, 304, 192
-0.997062, 269, 161, 284, 192
-0.997076, 279, 145, 294, 176
-0.997083, 221, 213, 236, 244
-0.997086, 1, 313, 500, 375
-0.997096, 185, 169, 200, 200
-0.997101, 241, 153, 256, 184
-0.997112, 113, 121, 176, 184
-0.997115, 251, 157, 266, 188
-0.997136, 369, 229, 496, 260
-0.997164, 279, 133, 294, 164
-0.997176, 229, 117, 244, 148
-0.997177, 81, 197, 208, 228
-0.997179, 219, 133, 234, 164
-0.997188, 219, 149, 234, 180
-0.9972, 313, 269, 328, 300
-0.9972, 241, 221, 368, 252
-0.997204, 17, 245, 144, 276
-0.997206, 285, 145, 300, 176
-0.997209, 201, 141, 216, 172
-0.997211, 239, 117, 254, 148
-0.997215, 319, 161, 334, 192
-0.997219, 223, 117, 238, 148
-0.997221, 263, 225, 278, 256
-0.997222, 313, 241, 328, 272
-0.997229, 253, 233, 268, 264
-0.997246, 101, 285, 116, 316
-0.997249, 189, 145, 204, 176
-0.997249, 65, 305, 192, 336
-0.99725, 211, 225, 226, 256
-0.997255, 269, 145, 284, 176
-0.997255, 163, 237, 178, 268
-0.997257, 113, 101, 240, 132
-0.997259, 87, 285, 102, 316
-0.997275, 309, 145, 324, 176
-0.997277, 319, 257, 334, 288
-0.997277, 53, 285, 68, 316
-0.997278, 275, 161, 290, 192
-0.997278, 299, 173, 314, 204
-0.997293, 225, 333, 352, 364
-0.997298, 309, 133, 324, 164
-0.997298, 257, 133, 272, 164
-0.9973, 297, 193, 312, 224
-0.997309, 369, 261, 496, 292
-0.997315, 219, 201, 234, 232
-0.997317, 269, 233, 284, 264
-0.997318, 231, 209, 246, 240
-0.99732, 251, 221, 266, 252
-0.997329, 1, 97, 256, 160
-0.997333, 257, 165, 272, 196
-0.997356, 101, 161, 132, 288
-0.997363, 263, 245, 278, 276
-0.997367, 181, 209, 196, 240
-0.997374, 289, 185, 416, 216
-0.997375, 65, 213, 192, 244
-0.997378, 291, 321, 306, 352
-0.997388, 89, 161, 120, 288
-0.997398, 277, 197, 292, 228
-0.997398, 229, 129, 244, 160
-0.997399, 283, 161, 298, 192
-0.997399, 81, 185, 208, 216
-0.9974, 299, 149, 314, 180
-0.997401, 159, 153, 174, 184
-0.997403, 247, 121, 262, 152
-0.997419, 259, 213, 274, 244
-0.997421, 247, 137, 262, 168
-0.997429, 271, 205, 286, 236
-0.997431, 105, 297, 120, 328
-0.997433, 243, 233, 258, 264
-0.997437, 167, 121, 182, 152
-0.997448, 213, 149, 228, 180
-0.997449, 225, 149, 240, 180
-0.997456, 109, 285, 124, 316
-0.997456, 319, 245, 334, 276
-0.997458, 295, 205, 310, 236
-0.997464, 177, 169, 192, 200
-0.997468, 165, 253, 180, 284
-0.997473, 209, 109, 336, 140
-0.997474, 307, 181, 322, 212
-0.997482, 221, 225, 236, 256
-0.997489, 67, 285, 82, 316
-0.997494, 235, 129, 250, 160
-0.997494, 205, 201, 220, 232
-0.997495, 165, 161, 180, 192
-0.997495, 211, 181, 226, 212
-0.997514, 233, 169, 248, 200
-0.997514, 225, 201, 240, 232
-0.997517, 235, 141, 250, 172
-0.997517, 193, 93, 208, 124
-0.997521, 215, 245, 230, 276
-0.997529, 385, 1, 448, 375
-0.997535, 279, 121, 294, 152
-0.997539, 263, 137, 278, 168
-0.99754, 239, 165, 254, 196
-0.997541, 293, 149, 308, 180
-0.997544, 319, 269, 334, 300
-0.997549, 217, 173, 232, 204
-0.997556, 211, 213, 226, 244
-0.99756, 291, 129, 306, 160
-0.997569, 95, 285, 110, 316
-0.99757, 417, 177, 448, 304
-0.997579, 305, 121, 320, 152
-0.997579, 47, 285, 62, 316
-0.997584, 47, 297, 62, 328
-0.997595, 221, 237, 236, 268
-0.997595, 245, 245, 260, 276
-0.997598, 247, 169, 262, 200
-0.997599, 97, 297, 112, 328
-0.997614, 337, 1, 400, 375
-0.997614, 79, 293, 94, 324
-0.997617, 263, 161, 278, 192
-0.997623, 175, 325, 190, 356
-0.997626, 59, 285, 74, 316
-0.997633, 73, 293, 88, 324
-0.99764, 213, 201, 228, 232
-0.99764, 297, 321, 312, 352
-0.997641, 253, 113, 268, 144
-0.997642, 277, 217, 292, 248
-0.99766, 241, 141, 256, 172
-0.997662, 241, 129, 256, 160
-0.997664, 313, 129, 344, 375
-0.997666, 169, 141, 184, 172
-0.997671, 167, 269, 182, 300
-0.997677, 57, 297, 72, 328
-0.99768, 97, 117, 224, 148
-0.997697, 177, 309, 304, 340
-0.9977, 245, 109, 260, 140
-0.997703, 187, 229, 202, 260
-0.997781, 113, 305, 240, 336
-0.997895, 369, 293, 496, 324
-0.99791, 321, 277, 448, 308
-0.997955, 417, 1, 480, 375
-0.998025, 209, 313, 272, 375
-0.998031, 145, 325, 272, 356
-0.998032, 381, 177, 412, 304
-0.998086, 409, 193, 472, 256
-0.998107, 1, 213, 128, 244
-0.998121, 81, 173, 208, 204
-0.998122, 305, 213, 432, 244
-0.998159, 433, 209, 496, 272
-0.998161, 193, 33, 224, 288
-0.998174, 25, 1, 88, 375
-0.99818, 97, 341, 224, 372
-0.998226, 369, 337, 496, 368
-0.998253, 289, 33, 320, 288
-0.99826, 321, 293, 448, 324
-0.998284, 429, 161, 460, 288
-0.998286, 441, 177, 472, 304
-0.998292, 393, 129, 456, 375
-0.99832, 229, 33, 260, 160
-0.998346, 241, 169, 304, 184
-0.998366, 193, 89, 448, 152
-0.99837, 281, 167, 344, 182
-0.998373, 369, 309, 496, 340
-0.998378, 207, 113, 222, 240
-0.99838, 201, 169, 264, 184
-0.998384, 265, 173, 328, 188
-0.998385, 257, 149, 320, 164
-0.998385, 177, 89, 304, 120
-0.998386, 241, 163, 304, 178
-0.99839, 153, 173, 216, 188
-0.998391, 281, 147, 344, 162
-0.998391, 185, 229, 248, 244
-0.998396, 233, 141, 296, 156
-0.9984, 185, 139, 248, 154
-0.998405, 199, 113, 214, 240
-0.998415, 257, 209, 320, 224
-0.998418, 265, 281, 328, 296
-0.998424, 241, 155, 304, 170
-0.998425, 281, 161, 344, 176
-0.998429, 145, 161, 208, 176
-0.998429, 161, 279, 224, 294
-0.998431, 153, 143, 216, 158
-0.998432, 185, 125, 248, 140
-0.998432, 233, 147, 296, 162
-0.998432, 273, 137, 336, 152
-0.998436, 289, 345, 416, 375
-0.998438, 209, 153, 272, 168
-0.998438, 209, 163, 272, 178
-0.998439, 177, 171, 240, 186
-0.998443, 169, 165, 232, 180
-0.998445, 321, 137, 448, 200
-0.998446, 185, 285, 248, 300
-0.99845, 209, 241, 272, 256
-0.998452, 225, 285, 288, 300
-0.998452, 265, 131, 328, 146
-0.99846, 249, 227, 312, 242
-0.99846, 209, 279, 272, 294
-0.998461, 201, 215, 264, 230
-0.998462, 281, 199, 344, 214
-0.998463, 193, 147, 256, 162
-0.998464, 273, 325, 336, 340
-0.998465, 281, 179, 344, 194
-0.998466, 209, 131, 272, 146
-0.998469, 257, 235, 320, 250
-0.998469, 169, 151, 232, 166
-0.99847, 177, 209, 240, 224
-0.998471, 289, 125, 416, 156
-0.998472, 209, 139, 272, 154
-0.998473, 157, 205, 188, 220
-0.998474, 305, 225, 336, 240
-0.998474, 257, 283, 288, 298
-0.998474, 193, 123, 224, 138
-0.998476, 209, 175, 240, 190
-0.998477, 169, 157, 232, 172
-0.998478, 257, 233, 288, 248
-0.998478, 281, 225, 344, 240
-0.998479, 181, 199, 212, 214
-0.998479, 281, 153, 344, 168
-0.998479, 313, 281, 344, 296
-0.99848, 281, 199, 312, 214
-0.998482, 217, 257, 248, 272
-0.998483, 217, 127, 248, 142
-0.998485, 233, 175, 264, 190
-0.998485, 261, 175, 292, 190
-0.998485, 297, 123, 328, 138
-0.998486, 165, 273, 196, 288
-0.998486, 245, 257, 276, 272
-0.998487, 161, 287, 224, 302
-0.998487, 257, 257, 320, 272
-0.998487, 225, 175, 288, 190
-0.998487, 189, 235, 220, 250
-0.998488, 265, 287, 328, 302
-0.998488, 185, 277, 248, 292
-0.998488, 165, 287, 196, 302
-0.998488, 169, 219, 232, 234
-0.998489, 285, 333, 316, 348
-0.99849, 225, 219, 288, 234
-0.99849, 185, 279, 216, 294
-0.998491, 153, 237, 216, 252
-0.998491, 209, 231, 272, 246
-0.998491, 169, 247, 232, 262
-0.998492, 173, 237, 204, 252
-0.998492, 177, 201, 240, 216
-0.998493, 93, 301, 124, 316
-0.998493, 157, 237, 188, 252
-0.998493, 185, 139, 216, 154
-0.998493, 145, 209, 208, 224
-0.998494, 209, 219, 240, 234
-0.998495, 301, 327, 332, 342
-0.998495, 209, 257, 272, 272
-0.998495, 153, 135, 216, 150
-0.998497, 217, 251, 280, 266
-0.998498, 233, 131, 264, 146
-0.998498, 245, 121, 276, 136
-0.998499, 169, 123, 200, 138
-0.998501, 245, 219, 276, 234
-0.998501, 201, 175, 264, 190
-0.998502, 209, 203, 240, 218
-0.998502, 177, 145, 208, 160
-0.998502, 145, 167, 208, 182
-0.998502, 161, 151, 192, 166
-0.998503, 289, 279, 352, 294
-0.998503, 185, 333, 216, 348
-0.998503, 157, 255, 188, 270
-0.998504, 209, 251, 240, 266
-0.998504, 153, 199, 216, 214
-0.998504, 153, 127, 216, 142
-0.998505, 261, 131, 292, 146
-0.998506, 297, 151, 328, 166
-0.998507, 1, 329, 128, 360
-0.998507, 233, 215, 264, 230
-0.998507, 209, 117, 240, 132
-0.998508, 281, 281, 312, 296
-0.998511, 281, 133, 312, 148
-0.998511, 213, 287, 244, 302
-0.998512, 269, 227, 300, 242
-0.998512, 281, 127, 312, 142
-0.998513, 245, 243, 276, 258
-0.998513, 205, 153, 236, 168
-0.998513, 241, 135, 304, 150
-0.998513, 225, 211, 288, 226
-0.998514, 81, 299, 144, 314
-0.998514, 221, 113, 236, 240
-0.998515, 65, 265, 128, 280
-0.998515, 41, 299, 104, 314
-0.998515, 245, 237, 276, 252
-0.998516, 257, 123, 320, 138
-0.998516, 145, 155, 208, 170
-0.998517, 205, 225, 236, 240
-0.998518, 145, 149, 208, 164
-0.998518, 65, 305, 128, 320
-0.998518, 209, 291, 272, 306
-0.998519, 217, 123, 280, 138
-0.998519, 245, 151, 276, 166
-0.998519, 253, 289, 284, 304
-0.99852, 229, 153, 260, 168
-0.99852, 173, 231, 204, 246
-0.99852, 177, 133, 240, 148
-0.998521, 161, 259, 224, 274
-0.998521, 257, 143, 320, 158
-0.998522, 257, 239, 288, 254
-0.998523, 241, 137, 272, 152
-0.998523, 257, 243, 320, 258
-0.998524, 305, 187, 336, 202
-0.998524, 245, 145, 276, 160
-0.998524, 273, 331, 336, 346
-0.998524, 221, 133, 252, 148
-0.998524, 45, 299, 76, 314
-0.998527, 241, 279, 304, 294
-0.998527, 257, 215, 320, 230
-0.998527, 279, 177, 294, 304
-0.998527, 281, 257, 344, 272
-0.99853, 281, 219, 344, 234
-0.998531, 41, 305, 104, 320
-0.998532, 153, 179, 216, 194
-0.998532, 153, 329, 216, 344
-0.998532, 153, 193, 216, 208
-0.998534, 161, 173, 192, 188
-0.998534, 297, 179, 328, 194
-0.998535, 205, 163, 236, 178
-0.998535, 273, 273, 336, 288
-0.998535, 17, 263, 80, 278
-0.998535, 245, 111, 276, 126
-0.998537, 153, 231, 216, 246
-0.998537, 217, 225, 280, 240
-0.998537, 257, 203, 320, 218
-0.998538, 201, 209, 264, 224
-0.998538, 177, 151, 208, 166
-0.99854, 193, 191, 224, 206
-0.998541, 217, 117, 280, 132
-0.998541, 285, 207, 316, 222
-0.998541, 161, 145, 192, 160
-0.998542, 185, 235, 248, 250
-0.998542, 233, 243, 296, 258
-0.998542, 193, 179, 224, 194
-0.998543, 1, 169, 500, 232
-0.998543, 289, 229, 320, 244
-0.998543, 221, 215, 252, 230
-0.998544, 153, 185, 216, 200
-0.998544, 233, 229, 264, 244
-0.998544, 273, 333, 400, 364
-0.998544, 305, 257, 336, 272
-0.998545, 185, 241, 248, 256
-0.998545, 309, 179, 340, 194
-0.998546, 225, 203, 288, 218
-0.998546, 185, 263, 248, 278
-0.998546, 177, 57, 304, 120
-0.998546, 233, 235, 264, 250
-0.998546, 161, 121, 224, 136
-0.998547, 257, 179, 320, 194
-0.998547, 193, 153, 224, 168
-0.998549, 425, 263, 488, 278
-0.998551, 233, 235, 296, 250
-0.998552, 69, 303, 100, 318
-0.998552, 289, 173, 352, 188
-0.998553, 137, 279, 200, 294
-0.998553, 221, 243, 252, 258
-0.998553, 301, 287, 332, 302
-0.998554, 217, 233, 248, 248
-0.998555, 233, 129, 296, 144
-0.998555, 161, 273, 224, 288
-0.998556, 277, 113, 292, 240
-0.998556, 285, 147, 316, 162
-0.998556, 137, 215, 200, 230
-0.998557, 193, 147, 224, 162
-0.998558, 161, 253, 224, 268
-0.99856, 297, 273, 328, 288
-0.99856, 281, 231, 344, 246
-0.998562, 185, 257, 248, 272
-0.998562, 213, 209, 244, 224
-0.998564, 281, 263, 344, 278
-0.998565, 213, 139, 244, 154
-0.998566, 241, 251, 304, 266
-0.998566, 213, 147, 244, 162
-0.998566, 177, 195, 240, 210
-0.998568, 193, 229, 224, 244
-0.998568, 65, 161, 96, 288
-0.998568, 305, 173, 336, 188
-0.998569, 121, 261, 184, 276
-0.998569, 221, 173, 252, 188
-0.99857, 309, 149, 340, 164
-0.99857, 177, 209, 208, 224
-0.99857, 281, 211, 344, 226
-0.99857, 201, 203, 264, 218
-0.998571, 145, 265, 208, 280
-0.998572, 245, 157, 276, 172
-0.998572, 193, 221, 256, 236
-0.998573, 369, 325, 496, 356
-0.998573, 41, 263, 104, 278
-0.998573, 137, 287, 200, 302
-0.998573, 193, 81, 208, 208
-0.998574, 229, 159, 260, 174
-0.998575, 281, 185, 344, 200
-0.998576, 145, 225, 208, 240
-0.998576, 241, 263, 304, 278
-0.998576, 253, 227, 284, 242
-0.998576, 305, 159, 336, 174
-0.998577, 161, 335, 224, 350
-0.998577, 249, 325, 312, 340
-0.998578, 141, 129, 172, 375
-0.998578, 217, 193, 280, 208
-0.99858, 201, 269, 264, 284
-0.998582, 213, 193, 228, 320
-0.998583, 289, 235, 320, 250
-0.998583, 301, 139, 332, 154
-0.998583, 273, 175, 304, 190
-0.998584, 205, 241, 236, 256
-0.998585, 277, 153, 308, 168
-0.998585, 269, 137, 300, 152
-0.998585, 215, 145, 230, 272
-0.998589, 229, 119, 260, 134
-0.998592, 197, 171, 228, 186
-0.998592, 177, 163, 208, 178
-0.998592, 189, 99, 220, 114
-0.998594, 285, 179, 316, 194
-0.998596, 257, 153, 288, 168
-0.9986, 157, 157, 188, 172
-0.998601, 261, 163, 292, 178
-0.998602, 253, 169, 284, 184
-0.998604, 233, 241, 264, 256
-0.998613, 293, 113, 308, 240
-0.998618, 177, 157, 208, 172
-0.998622, 273, 163, 304, 178
-0.998623, 293, 129, 324, 144
-0.998625, 285, 49, 316, 176
-0.998628, 309, 165, 340, 180
-0.998629, 177, 173, 208, 188
-0.998633, 253, 137, 284, 152
-0.998637, 157, 167, 188, 182
-0.99864, 113, 33, 176, 288
-0.998641, 225, 193, 240, 320
-0.998641, 293, 157, 324, 172
-0.998641, 165, 279, 196, 294
-0.998644, 273, 113, 400, 144
-0.998645, 301, 279, 332, 294
-0.998646, 209, 169, 240, 184
-0.99865, 293, 163, 324, 178
-0.998652, 265, 169, 296, 184
-0.998655, 229, 167, 260, 182
-0.998657, 267, 145, 282, 272
-0.998659, 245, 163, 276, 178
-0.998662, 251, 81, 266, 208
-0.998666, 255, 209, 270, 336
-0.998667, 227, 145, 242, 272
-0.99867, 289, 173, 320, 188
-0.998673, 49, 129, 176, 160
-0.998685, 221, 33, 252, 288
-0.998687, 219, 209, 234, 336
-0.99869, 267, 193, 282, 320
-0.998691, 277, 169, 308, 184
-0.998693, 283, 113, 298, 240
-0.998693, 45, 129, 76, 375
-0.998695, 241, 169, 272, 184
-0.998697, 237, 129, 252, 256
-0.998706, 281, 325, 312, 340
-0.998706, 265, 147, 296, 162
-0.998716, 247, 193, 262, 320
-0.998717, 169, 225, 184, 352
-0.998724, 187, 97, 202, 224
-0.998744, 233, 193, 248, 320
-0.998749, 213, 33, 244, 160
-0.998775, 303, 209, 318, 336
-0.998778, 203, 177, 218, 304
-0.998796, 239, 193, 254, 320
-0.998799, 193, 145, 208, 272
-0.998805, 207, 225, 222, 352
-0.998806, 245, 113, 260, 240
-0.998808, 319, 209, 334, 336
-0.998823, 319, 129, 334, 256
-0.998826, 213, 97, 228, 224
-0.998834, 307, 113, 322, 240
-0.998838, 361, 1, 424, 375
-0.998844, 273, 225, 288, 352
-0.998846, 311, 225, 326, 352
-0.998848, 97, 89, 224, 120
-0.998875, 261, 193, 276, 320
-0.998883, 301, 97, 316, 224
-0.998885, 259, 129, 274, 256
-0.998888, 159, 129, 174, 256
-0.998888, 161, 225, 176, 352
-0.998902, 175, 209, 190, 336
-0.998933, 165, 177, 180, 304
-0.998938, 203, 65, 218, 192
-0.998946, 287, 177, 302, 304
-0.998959, 229, 97, 244, 224
-0.998964, 251, 129, 266, 256
-0.998978, 195, 193, 210, 320
-0.998982, 115, 209, 130, 336
-0.998991, 261, 1, 292, 256
-0.999002, 175, 97, 190, 224
-0.999018, 181, 177, 196, 304
-0.999029, 25, 129, 56, 375
-0.99903, 293, 177, 308, 304
-0.999034, 321, 305, 448, 336
-0.999039, 225, 301, 352, 332
-0.999042, 301, 145, 316, 272
-0.99905, 273, 177, 288, 304
-0.999051, 189, 241, 204, 368
-0.999059, 485, 241, 500, 368
-0.999061, 105, 209, 120, 336
-0.999067, 165, 113, 180, 240
-0.999068, 257, 81, 272, 208
-0.999081, 287, 225, 302, 352
-0.999083, 39, 209, 54, 336
-0.999091, 313, 177, 328, 304
-0.999097, 325, 177, 340, 304
-0.999107, 199, 241, 214, 368
-0.999111, 239, 81, 254, 208
-0.999124, 271, 97, 286, 224
-0.999125, 65, 129, 96, 375
-0.999125, 225, 241, 240, 368
-0.999137, 181, 97, 196, 224
-0.999137, 49, 145, 176, 176
-0.999152, 187, 145, 202, 272
-0.999153, 407, 225, 422, 352
-0.999158, 151, 193, 166, 320
-0.999158, 159, 177, 174, 304
-0.999166, 313, 129, 328, 256
-0.999168, 181, 1, 212, 256
-0.999176, 231, 241, 246, 368
-0.999177, 49, 329, 176, 360
-0.999194, 353, 217, 480, 248
-0.999198, 245, 1, 276, 256
-0.999198, 85, 209, 100, 336
-0.999206, 225, 345, 352, 375
-0.999209, 325, 97, 356, 224
-0.999213, 47, 225, 62, 352
-0.999218, 99, 225, 114, 352
-0.999226, 189, 193, 204, 320
-0.999238, 69, 209, 84, 336
-0.999242, 59, 225, 74, 352
-0.999242, 101, 129, 132, 375
-0.999243, 477, 225, 492, 352
-0.999246, 125, 225, 140, 352
-0.999248, 293, 241, 308, 368
-0.999252, 279, 225, 294, 352
-0.999271, 413, 225, 428, 352
-0.999273, 77, 161, 108, 288
-0.999274, 393, 289, 456, 352
-0.999281, 325, 97, 356, 352
-0.999289, 257, 33, 384, 160
-0.999293, 265, 97, 280, 224
-0.999295, 325, 225, 340, 352
-0.9993, 423, 209, 438, 336
-0.9993, 21, 209, 36, 336
-0.999302, 433, 209, 448, 336
-0.999303, 183, 241, 198, 368
-0.999312, 135, 193, 150, 320
-0.999314, 3, 225, 18, 352
-0.999315, 77, 129, 108, 375
-0.999319, 29, 193, 44, 320
-0.999339, 393, 225, 408, 352
-0.999339, 79, 209, 94, 336
-0.999344, 245, 241, 260, 368
-0.999345, 153, 145, 168, 272
-0.999346, 93, 225, 108, 352
-0.999355, 53, 241, 68, 368
-0.999356, 381, 225, 396, 352
-0.999357, 33, 201, 160, 232
-0.999362, 371, 225, 386, 352
-0.999362, 401, 225, 416, 352
-0.999373, 267, 241, 282, 368
-0.999373, 387, 225, 402, 352
-0.999379, 237, 241, 252, 368
-0.999382, 49, 117, 176, 148
-0.9994, 13, 209, 28, 336
-0.9994, 141, 193, 156, 320
-0.999408, 257, 81, 384, 144
-0.999412, 175, 161, 190, 288
-0.999414, 245, 65, 260, 192
-0.999415, 219, 65, 234, 192
-0.999418, 281, 65, 296, 192
-0.999425, 471, 241, 486, 368
-0.999438, 449, 209, 464, 336
-0.999452, 465, 225, 480, 352
-0.999453, 331, 225, 346, 352
-0.999462, 325, 129, 340, 256
-0.999474, 129, 129, 160, 375
-0.999489, 321, 329, 448, 360
-0.999492, 307, 161, 322, 288
-0.999494, 213, 241, 228, 368
-0.999498, 441, 209, 456, 336
-0.999506, 181, 49, 196, 176
-0.999515, 461, 177, 492, 304
-0.99952, 261, 241, 276, 368
-0.999521, 89, 129, 120, 375
-0.999529, 293, 65, 308, 192
-0.999532, 287, 65, 302, 192
-0.999534, 319, 81, 334, 208
-0.999534, 155, 241, 170, 368
-0.999552, 117, 129, 148, 375
-0.999553, 313, 81, 328, 208
-0.99956, 229, 49, 244, 176
-0.999561, 321, 157, 448, 188
-0.999563, 365, 225, 380, 352
-0.999564, 277, 1, 308, 256
-0.999568, 345, 225, 360, 352
-0.999577, 437, 129, 468, 375
-0.999583, 357, 225, 372, 352
-0.999587, 337, 225, 352, 352
-0.999607, 149, 65, 180, 192
-0.999619, 97, 57, 224, 120
-0.999625, 1, 145, 500, 208
-0.999628, 369, 177, 400, 304
-0.999645, 417, 129, 448, 375
-0.99966, 13, 129, 44, 375
-0.999669, 309, 173, 324, 188
-0.999669, 211, 193, 226, 208
-0.999669, 319, 245, 334, 260
-0.99967, 259, 227, 274, 242
-0.99967, 257, 101, 384, 132
-0.999671, 275, 175, 290, 190
-0.999671, 297, 325, 312, 340
-0.999671, 295, 141, 310, 156
-0.999671, 213, 239, 228, 254
-0.999672, 321, 163, 336, 178
-0.999673, 165, 125, 180, 140
-0.999674, 177, 231, 192, 246
-0.999674, 227, 137, 242, 152
-0.999675, 237, 241, 252, 256
-0.999679, 227, 149, 242, 164
-0.999679, 237, 129, 252, 144
-0.99968, 219, 247, 234, 262
-0.999681, 291, 147, 306, 162
-0.999683, 221, 203, 236, 218
-0.999683, 303, 177, 318, 192
-0.999683, 311, 149, 326, 164
-0.999684, 227, 175, 242, 190
-0.999685, 229, 129, 244, 144
-0.999686, 257, 135, 272, 150
-0.999687, 227, 217, 242, 232
-0.999688, 241, 119, 256, 134
-0.999689, 229, 249, 244, 264
-0.999689, 281, 201, 296, 216
-0.999692, 217, 219, 232, 234
-0.999693, 313, 239, 328, 254
-0.999698, 219, 147, 234, 162
-0.999698, 163, 151, 178, 166
-0.999698, 319, 145, 334, 160
-0.999698, 311, 163, 326, 178
-0.999699, 211, 219, 226, 234
-0.999701, 167, 161, 182, 176
-0.999702, 263, 235, 278, 250
-0.999704, 243, 241, 258, 256
-0.999704, 291, 133, 306, 148
-0.999707, 233, 165, 248, 180
-0.999707, 229, 209, 244, 224
-0.999708, 165, 257, 180, 272
-0.999708, 283, 137, 298, 152
-0.999708, 241, 163, 256, 178
-0.999709, 253, 229, 268, 244
-0.99971, 303, 227, 318, 242
-0.999711, 233, 147, 248, 162
-0.999711, 263, 143, 278, 158
-0.999712, 307, 131, 322, 146
-0.999713, 193, 171, 208, 186
-0.999713, 271, 139, 286, 154
-0.999715, 157, 157, 172, 172
-0.999716, 213, 163, 228, 178
-0.999717, 319, 179, 334, 194
-0.999717, 297, 193, 312, 208
-0.999718, 263, 149, 278, 164
-0.999718, 179, 163, 194, 178
-0.999719, 313, 247, 328, 262
-0.999719, 167, 167, 182, 182
-0.99972, 179, 279, 194, 294
-0.99972, 231, 121, 246, 136
-0.99972, 299, 155, 314, 170
-0.999721, 221, 129, 236, 144
-0.999721, 313, 257, 328, 272
-0.999724, 277, 137, 292, 152
-0.999725, 269, 147, 284, 162
-0.999726, 207, 161, 222, 176
-0.999726, 231, 241, 246, 256
-0.999726, 187, 157, 202, 172
-0.999727, 263, 241, 278, 256
-0.999728, 185, 229, 200, 244
-0.999731, 311, 179, 326, 194
-0.999733, 219, 241, 234, 256
-0.999733, 303, 281, 318, 296
-0.999734, 207, 145, 222, 160
-0.999735, 287, 153, 302, 168
-0.999735, 205, 191, 220, 206
-0.999736, 165, 1, 196, 256
-0.999737, 265, 163, 280, 178
-0.999738, 281, 153, 296, 168
-0.999739, 209, 171, 224, 186
-0.999739, 285, 323, 300, 338
-0.999741, 233, 153, 248, 168
-0.999741, 1, 73, 256, 136
-0.999743, 209, 153, 224, 168
-0.999744, 179, 157, 194, 172
-0.999745, 283, 175, 298, 190
-0.999745, 199, 163, 214, 178
-0.999745, 247, 111, 262, 126
-0.999747, 223, 163, 238, 178
-0.999748, 299, 163, 314, 178
-0.999748, 249, 163, 264, 178
-0.999748, 313, 279, 328, 294
-0.999748, 173, 163, 188, 178
-0.999748, 183, 173, 198, 188
-0.999748, 289, 165, 304, 180
-0.999749, 233, 171, 248, 186
-0.99975, 297, 227, 312, 242
-0.999751, 259, 155, 274, 170
-0.999751, 321, 145, 448, 176
-0.999753, 321, 317, 448, 348
-0.999755, 167, 277, 182, 292
-0.999755, 305, 163, 320, 178
-0.999756, 283, 163, 298, 178
-0.999759, 225, 233, 240, 248
-0.99976, 199, 147, 214, 162
-0.99976, 297, 171, 312, 186
-0.999763, 215, 171, 230, 186
-0.999767, 273, 159, 288, 174
-0.999768, 177, 173, 192, 188
-0.999772, 199, 173, 214, 188
-0.999772, 259, 163, 274, 178
-0.999774, 225, 243, 240, 258
-0.999775, 275, 147, 290, 162
-0.999776, 269, 153, 284, 168
-0.999777, 255, 239, 270, 254
-0.999781, 193, 97, 208, 112
-0.999782, 249, 235, 264, 250
-0.999783, 303, 171, 318, 186
-0.999785, 199, 153, 214, 168
-0.999787, 227, 169, 242, 184
-0.999788, 163, 145, 178, 160
-0.999793, 307, 157, 322, 172
-0.999794, 241, 169, 256, 184
-0.999803, 267, 171, 282, 186
-0.999803, 221, 169, 236, 184
-0.999803, 301, 121, 316, 136
-0.999806, 285, 145, 300, 160
-0.999812, 273, 169, 288, 184
-0.999813, 281, 169, 296, 184
-0.999814, 173, 157, 188, 172
-0.99982, 251, 103, 266, 118
-0.999822, 465, 129, 496, 375
-0.999824, 259, 169, 274, 184
-0.99984, 249, 169, 264, 184
-0.999858, 291, 171, 306, 186
-0.999869, 233, 1, 264, 256
-0.999889, 153, 33, 184, 288
-0.999942, 125, 161, 156, 288
-0.999947, 357, 177, 388, 304
-0.999961, 449, 129, 480, 375
-0.999975, 345, 129, 408, 375
-0.999978, 301, 1, 332, 256
-0.999982, 141, 33, 172, 288
-0.999996, 1, 129, 32, 375
-1.00003, 397, 129, 428, 375
-1.00003, 209, 1, 240, 256
-1.00011, 49, 345, 176, 375
-1.00013, 393, 313, 456, 375
-1.00019, 65, 105, 192, 136
-1.00021, 377, 129, 408, 375
-1.00023, 97, 17, 224, 144
-1.00026, 365, 129, 396, 375
-1.00027, 161, 65, 416, 128
-1.00029, 337, 129, 368, 375
-1.00029, 137, 97, 168, 224
-1.00029, 313, 33, 344, 288
-1.00035, 349, 129, 380, 375
-1.0004, 321, 201, 448, 232
-1.00041, 321, 81, 448, 208
-1.00043, 1, 121, 500, 184
-1.00055, 161, 77, 288, 108
-1.00068, 1, 341, 128, 372
-1.00075, 97, 77, 224, 108
-1.00084, 225, 89, 352, 120
-1.00086, 305, 1, 368, 256
-1.00091, 13, 161, 44, 288
-1.00092, 369, 201, 496, 232
-1.00093, 33, 161, 160, 192
-1.001, 1, 189, 128, 220
-1.00101, 337, 129, 464, 160
-1.00103, 129, 65, 256, 96
-1.00103, 177, 65, 304, 96
-1.00103, 65, 1, 192, 32
-1.00103, 321, 1, 448, 32
-1.00103, 369, 1, 496, 32
-1.00103, 17, 177, 144, 208
-1.00115, 101, 33, 132, 288
-1.0012, 129, 33, 160, 288
-1.0012, 45, 33, 76, 288
-1.00121, 113, 33, 144, 288
-1.00126, 17, 33, 48, 288
-1.00127, 65, 33, 96, 288
-1.00129, 429, 33, 460, 288
-1.00131, 161, 17, 416, 144
-1.00142, 1, 33, 32, 288
-1.00146, 29, 33, 60, 288
-1.00146, 89, 33, 120, 288
-1.00146, 325, 1, 356, 256
-1.00156, 453, 33, 484, 288
-1.00159, 25, 129, 88, 256
-1.0016, 409, 33, 440, 288
-1.0016, 353, 185, 480, 248
-1.00162, 345, 177, 376, 304
-1.00166, 441, 33, 472, 288
-1.00166, 77, 33, 108, 288
-1.00168, 305, 89, 432, 152
-1.00179, 381, 33, 412, 288
-1.00181, 357, 33, 388, 288
-1.00182, 469, 33, 500, 288
-1.00183, 65, 49, 320, 112
-1.00189, 345, 33, 376, 288
-1.0019, 393, 33, 424, 288
-1.00193, 369, 33, 400, 288
-1.00201, 161, 33, 416, 96
-1.00212, 65, 1, 320, 64
-1.00212, 161, 9, 416, 72
-1.00212, 257, 17, 500, 80
-1.00212, 65, 25, 320, 88
-1.00212, 257, 41, 500, 104
-1.0022, 369, 313, 432, 375
-1.00246, 1, 97, 500, 160
-1.00251, 189, 17, 220, 144
-1.00259, 49, 81, 176, 144
-1.00264, 129, 33, 256, 96
-1.00264, 177, 33, 304, 96
-1.00269, 369, 161, 496, 224
-1.0027, 137, 57, 200, 120
-1.00273, 33, 145, 160, 208
-1.00276, 257, 65, 500, 128
-1.00283, 289, 57, 416, 120
-1.00288, 225, 41, 352, 104
-1.00291, 81, 1, 208, 64
-1.00291, 129, 9, 256, 72
-1.00291, 177, 9, 304, 72
-1.00291, 273, 9, 400, 72
-1.00291, 321, 9, 448, 72
-1.00291, 33, 17, 160, 80
-1.00291, 225, 17, 352, 80
-1.00291, 369, 17, 496, 80
-1.00291, 81, 25, 208, 88
-1.00291, 273, 33, 400, 96
-1.00291, 321, 33, 448, 96
-1.00291, 1, 41, 128, 104
-1.00291, 369, 41, 496, 104
-1.00291, 49, 49, 176, 112
-1.00291, 1, 65, 128, 128
-1.00291, 369, 65, 496, 128
-1.00291, 1, 89, 128, 152
-1.00291, 369, 89, 496, 152
-1.00291, 1, 113, 128, 176
-1.00291, 369, 113, 496, 176
-1.00291, 369, 137, 496, 200
-1.00343, 177, 17, 208, 144
-1.00364, 1, 73, 500, 136
-1.00375, 1, 49, 500, 112
-1.00381, 1, 9, 500, 72
-1.00428, 345, 313, 408, 375
-1.00463, 1, 17, 256, 144
-1.00493, 317, 49, 348, 176
-1.00517, 129, 33, 192, 160
-1.00532, 41, 129, 72, 256
-1.00539, 57, 177, 120, 240
-1.00543, 297, 33, 328, 160
-1.00551, 433, 185, 496, 248
-1.00555, 153, 17, 216, 144
-1.00561, 385, 177, 448, 240
-1.00604, 345, 193, 408, 256
-1.00654, 209, 57, 272, 120
-1.00658, 273, 89, 336, 152
-1.00661, 81, 33, 144, 288
-1.00665, 33, 33, 96, 288
-1.00718, 201, 17, 232, 144
-1.00729, 161, 57, 224, 120
-1.00739, 281, 65, 344, 128
-1.00745, 249, 57, 312, 120
-1.00746, 153, 17, 184, 144
-1.00779, 413, 129, 444, 256
-1.00779, 1, 129, 32, 256
-1.00793, 377, 33, 440, 288
-1.00794, 53, 129, 84, 256
-1.00821, 449, 129, 480, 256
-1.00827, 121, 113, 152, 240
-1.00848, 9, 161, 72, 224
-1.00856, 165, 1, 196, 128
-1.00861, 29, 113, 60, 240
-1.00869, 185, 17, 248, 144
-1.00871, 57, 33, 120, 288
-1.00874, 137, 49, 168, 176
-1.00878, 169, 33, 232, 96
-1.00878, 89, 137, 152, 200
-1.00878, 337, 145, 400, 208
-1.00878, 57, 153, 120, 216
-1.00894, 409, 169, 472, 232
-1.00894, 9, 137, 72, 200
-1.00894, 17, 113, 48, 240
-1.00903, 425, 1, 488, 64
-1.00913, 337, 113, 368, 240
-1.00924, 401, 129, 432, 256
-1.00925, 417, 33, 480, 288
-1.00927, 337, 65, 368, 192
-1.00932, 289, 17, 352, 144
-1.00936, 41, 65, 72, 192
-1.00936, 53, 65, 84, 192
-1.00939, 133, 1, 164, 128
-1.00939, 33, 17, 64, 144
-1.00939, 57, 17, 88, 144
-1.00946, 273, 17, 304, 144
-1.00947, 77, 81, 108, 208
-1.00947, 89, 81, 120, 208
-1.0095, 5, 65, 36, 192
-1.0095, 17, 65, 48, 192
-1.0095, 413, 81, 444, 208
-1.0095, 425, 81, 456, 208
-1.0095, 245, 1, 276, 128
-1.00953, 389, 97, 420, 224
-1.00953, 465, 97, 496, 224
-1.00955, 33, 65, 160, 192
-1.00965, 305, 33, 432, 160
-1.0099, 57, 129, 120, 256
-1.00992, 369, 97, 496, 224
-1.01012, 1, 33, 64, 288
-1.01032, 1, 17, 128, 144
-1.01032, 369, 49, 496, 176
-1.01038, 369, 1, 496, 128
-1.0104, 433, 129, 496, 256
-1.01089, 1, 113, 64, 240
-1.01091, 353, 33, 416, 288
-1.01146, 377, 129, 440, 256
-1.01345, 329, 1, 392, 256
-1.01357, 49, 17, 176, 144
-1.01386, 401, 97, 464, 224
-1.01388, 1, 113, 128, 240
-1.01393, 89, 113, 152, 240
-1.014, 97, 1, 160, 128
-1.01414, 313, 33, 376, 160
-1.01429, 257, 17, 500, 144
-1.01429, 49, 81, 112, 208
-1.01442, 73, 1, 136, 128
-1.01442, 393, 1, 456, 128
-1.01442, 417, 1, 480, 128
-1.01452, 337, 81, 400, 208
-1.01458, 377, 81, 440, 208
-1.01465, 25, 49, 88, 176
-1.01471, 1, 33, 64, 160
-1.01471, 73, 65, 136, 192
-1.01471, 433, 81, 496, 208
-1.01478, 25, 1, 88, 128
-1.01478, 49, 33, 112, 160
-1.01478, 345, 33, 408, 160
-1.01478, 369, 33, 432, 160
-1.01478, 409, 49, 472, 176
-1.01592, 265, 1, 328, 128
-1.01718, 353, 129, 416, 256
