1886
-0.296029, 1, 65, 500, 320
-0.469589, 1, 1, 500, 333
-0.536343, 193, 65, 448, 320
-0.546056, 33, 1, 288, 333
-0.550006, 129, 1, 384, 333
-0.558292, 225, 1, 480, 333
-0.595783, 33, 65, 288, 320
-0.850173, 129, 65, 256, 320
-0.850962, 177, 65, 304, 320
-0.855378, 1, 145, 500, 272
-0.857919, 65, 65, 192, 320
-0.858472, 1, 97, 500, 224
-0.866763, 289, 65, 416, 320
-0.871037, 241, 33, 368, 288
-0.879945, 113, 1, 240, 333
-0.881231, 33, 1, 160, 333
-0.882264, 337, 65, 464, 320
-0.882716, 161, 1, 288, 333
-0.885156, 241, 1, 368, 333
-0.889802, 305, 1, 432, 333
-0.891268, 1, 209, 500, 333
-0.895131, 369, 1, 496, 333
-0.899648, 17, 65, 144, 320
-0.904687, 225, 97, 480, 224
-0.909918, 65, 97, 320, 224
-0.918778, 65, 145, 320, 272
-0.92038, 281, 81, 344, 208
-0.923237, 225, 145, 480, 272
-0.924615, 1, 49, 500, 176
-0.927776, 321, 97, 448, 224
-0.928925, 329, 97, 392, 224
-0.928938, 113, 97, 240, 224
-0.931042, 257, 81, 384, 208
-0.931975, 49, 161, 176, 288
-0.932817, 33, 193, 288, 320
-0.933945, 121, 97, 184, 224
-0.936378, 225, 193, 480, 320
-0.937957, 65, 113, 192, 240
-0.94124, 353, 97, 416, 224
-0.94221, 305, 113, 368, 240
-0.942567, 81, 113, 144, 240
-0.942944, 273, 129, 400, 256
-0.942973, 393, 193, 456, 320
-0.94417, 49, 161, 112, 288
-0.944904, 377, 113, 440, 240
-0.945166, 193, 65, 320, 192
-0.94587, 369, 177, 432, 304
-0.945968, 161, 49, 416, 176
-0.946634, 209, 113, 336, 240
-0.946945, 129, 193, 384, 320
-0.947263, 369, 81, 496, 208
-0.947564, 401, 97, 464, 224
-0.948396, 257, 113, 320, 240
-0.948814, 281, 129, 344, 256
-0.949325, 297, 129, 360, 192
-0.949403, 89, 121, 152, 184
-0.949946, 321, 145, 448, 272
-0.950066, 369, 209, 496, 333
-0.950096, 1, 193, 128, 320
-0.950508, 177, 97, 240, 224
-0.952157, 89, 161, 152, 288
-0.95236, 337, 105, 400, 168
-0.95285, 417, 193, 480, 320
-0.953694, 273, 145, 336, 208
-0.954604, 81, 177, 144, 240
-0.954751, 41, 177, 104, 240
-0.954783, 137, 105, 200, 168
-0.954832, 129, 193, 256, 320
-0.955199, 289, 97, 352, 160
-0.9552, 417, 129, 480, 192
-0.955238, 409, 145, 472, 272
-0.955722, 81, 145, 144, 208
-0.955997, 369, 105, 432, 168
-0.956057, 233, 97, 296, 224
-0.956822, 57, 113, 120, 240
-0.957098, 137, 193, 200, 320
-0.958812, 1, 129, 64, 256
-0.958832, 385, 137, 448, 200
-0.958902, 113, 145, 240, 272
-0.959249, 177, 161, 304, 288
-0.959282, 289, 193, 416, 320
-0.959443, 113, 105, 176, 168
-0.959489, 161, 113, 288, 240
-0.959507, 377, 65, 440, 192
-0.959553, 385, 201, 448, 264
-0.95971, 393, 105, 456, 168
-0.959726, 65, 209, 192, 333
-0.959803, 369, 129, 496, 256
-0.960053, 113, 145, 176, 272
-0.960285, 265, 89, 328, 152
-0.960452, 353, 161, 416, 224
-0.960556, 17, 113, 144, 240
-0.960741, 225, 161, 352, 288
-0.960761, 257, 49, 500, 176
-0.960847, 313, 97, 376, 160
-0.960976, 169, 89, 232, 152
-0.961084, 153, 97, 216, 224
-0.961266, 305, 81, 336, 208
-0.96142, 25, 177, 88, 304
-0.961808, 409, 225, 472, 288
-0.961996, 65, 49, 320, 176
-0.962638, 105, 161, 168, 224
-0.962904, 345, 193, 408, 320
-0.962956, 241, 169, 304, 232
-0.963788, 201, 97, 264, 224
-0.963853, 305, 161, 368, 288
-0.963965, 433, 145, 496, 272
-0.964474, 329, 129, 392, 192
-0.964604, 321, 169, 384, 232
-0.964833, 297, 153, 360, 216
-0.965006, 377, 177, 440, 240
-0.965238, 1, 1, 500, 128
-0.965246, 65, 201, 128, 264
-0.965804, 33, 65, 160, 192
-0.966363, 433, 97, 496, 224
-0.966364, 89, 201, 152, 264
-0.966417, 97, 209, 160, 333
-0.966528, 297, 177, 360, 240
-0.966543, 361, 129, 424, 192
-0.966743, 161, 193, 224, 320
-0.966858, 329, 273, 392, 333
-0.96703, 305, 49, 368, 176
-0.967035, 185, 145, 248, 272
-0.967038, 353, 129, 480, 192
-0.967062, 65, 105, 128, 168
-0.967116, 217, 65, 280, 320
-0.967142, 329, 49, 392, 176
-0.967312, 289, 161, 416, 224
-0.967711, 417, 105, 480, 168
-0.967712, 129, 65, 192, 320
-0.967835, 433, 217, 496, 280
-0.967893, 409, 201, 472, 264
-0.968085, 193, 65, 256, 320
-0.968296, 241, 145, 304, 208
-0.968544, 317, 81, 348, 208
-0.968582, 81, 65, 144, 192
-0.968607, 241, 161, 304, 288
-0.968626, 57, 153, 120, 216
-0.968657, 129, 161, 192, 224
-0.96868, 289, 33, 416, 160
-0.968773, 257, 65, 320, 192
-0.968886, 265, 169, 328, 232
-0.96892, 217, 145, 280, 272
-0.969303, 1, 177, 64, 304
-0.96936, 293, 81, 324, 208
-0.969956, 113, 201, 176, 264
-0.970185, 193, 105, 256, 168
-0.970241, 17, 1, 80, 64
-0.970705, 353, 273, 416, 333
-0.970708, 285, 145, 316, 208
-0.970737, 33, 113, 96, 240
-0.970782, 89, 137, 120, 200
-0.970788, 49, 209, 112, 333
-0.970977, 65, 161, 192, 224
-0.971111, 297, 273, 360, 333
-0.97116, 317, 137, 348, 200
-0.971203, 373, 97, 404, 160
-0.971644, 217, 105, 280, 168
-0.971648, 145, 209, 208, 272
-0.971686, 217, 169, 280, 232
-0.971845, 353, 185, 416, 248
-0.972011, 185, 169, 248, 232
-0.972133, 137, 185, 200, 248
-0.972151, 305, 105, 432, 168
-0.97217, 113, 137, 144, 200
-0.972307, 429, 193, 460, 256
-0.972309, 433, 153, 496, 216
-0.97238, 81, 105, 208, 168
-0.972382, 33, 137, 160, 200
-0.9724, 341, 97, 372, 224
-0.972465, 105, 113, 136, 176
-0.972475, 273, 121, 336, 184
-0.972552, 433, 193, 496, 256
-0.972592, 401, 177, 464, 240
-0.972629, 317, 129, 348, 256
-0.972645, 281, 177, 344, 304
-0.972652, 337, 193, 464, 256
-0.972665, 89, 97, 152, 160
-0.972671, 193, 193, 256, 320
-0.972741, 153, 161, 216, 224
-0.97281, 329, 97, 360, 224
-0.973, 345, 65, 408, 320
-0.973041, 17, 185, 80, 248
-0.973285, 313, 97, 344, 160
-0.97334, 305, 129, 336, 256
-0.973441, 77, 161, 108, 288
-0.973636, 241, 65, 304, 320
-0.973737, 241, 105, 304, 168
-0.973807, 113, 161, 240, 224
-0.97389, 393, 121, 424, 184
-0.973909, 89, 105, 120, 168
-0.973969, 305, 129, 336, 192
-0.974021, 281, 113, 312, 240
-0.974041, 241, 145, 368, 208
-0.97418, 385, 113, 416, 240
-0.97419, 321, 209, 384, 333
-0.974237, 241, 89, 368, 152
-0.974251, 41, 201, 104, 264
-0.974299, 409, 153, 472, 216
-0.974405, 337, 249, 400, 312
-0.974412, 301, 89, 332, 152
-0.97447, 133, 97, 164, 224
-0.974622, 73, 177, 104, 240
-0.974724, 89, 177, 120, 240
-0.974786, 169, 65, 232, 320
-0.974812, 137, 273, 200, 333
-0.974819, 77, 113, 108, 240
-0.974908, 353, 49, 416, 176
-0.974933, 453, 129, 484, 192
-0.974948, 137, 145, 200, 272
-0.975055, 401, 49, 464, 176
-0.975103, 397, 177, 428, 304
-0.975125, 161, 97, 192, 160
-0.97528, 9, 105, 72, 168
-0.97533, 113, 177, 144, 240
-0.975338, 121, 137, 184, 200
-0.975415, 289, 137, 416, 200
-0.975491, 17, 105, 48, 168
-0.975505, 365, 97, 396, 224
-0.975536, 273, 145, 304, 208
-0.975538, 241, 169, 368, 232
-0.975546, 441, 201, 472, 264
-0.975637, 313, 33, 376, 288
-0.975697, 273, 33, 336, 288
-0.97585, 161, 185, 224, 248
-0.976042, 73, 209, 136, 333
-0.976086, 101, 177, 132, 240
-0.976104, 241, 209, 368, 333
-0.976199, 89, 97, 120, 224
-0.976297, 297, 169, 328, 232
-0.9763, 217, 145, 280, 208
-0.976342, 49, 129, 112, 192
-0.976346, 57, 65, 120, 320
-0.976374, 17, 177, 144, 240
-0.976431, 337, 145, 400, 272
-0.976464, 369, 249, 432, 312
-0.97649, 193, 145, 320, 208
-0.976511, 77, 137, 108, 200
-0.976514, 129, 49, 256, 176
-0.97657, 385, 81, 448, 144
-0.976602, 121, 49, 184, 176
-0.976707, 49, 201, 176, 264
-0.976812, 369, 33, 496, 160
-0.976857, 169, 113, 232, 176
-0.97691, 125, 113, 156, 176
-0.97691, 437, 129, 468, 192
-0.976925, 9, 153, 72, 216
-0.977009, 353, 105, 480, 168
-0.977023, 241, 33, 368, 160
-0.977025, 177, 169, 304, 232
-0.977152, 385, 209, 416, 333
-0.977182, 185, 209, 248, 272
-0.977202, 417, 105, 448, 168
-0.977411, 25, 33, 88, 160
-0.977494, 113, 97, 144, 224
-0.977598, 433, 81, 496, 144
-0.977613, 181, 89, 212, 152
-0.977695, 429, 105, 460, 168
-0.977741, 409, 145, 440, 272
-0.977795, 393, 185, 424, 248
-0.977812, 369, 217, 496, 280
-0.977843, 193, 81, 256, 144
-0.977912, 33, 153, 96, 216
-0.977994, 177, 105, 304, 168
-0.978, 145, 105, 176, 168
-0.978067, 117, 161, 148, 288
-0.978085, 325, 97, 356, 160
-0.978106, 49, 1, 112, 64
-0.978111, 233, 49, 296, 176
-0.978178, 125, 161, 156, 224
-0.978235, 161, 145, 224, 272
-0.978326, 193, 49, 256, 176
-0.978362, 465, 129, 496, 192
-0.978368, 425, 65, 488, 320
-0.978374, 61, 161, 92, 288
-0.978563, 357, 105, 388, 168
-0.978575, 369, 153, 496, 216
-0.978642, 341, 105, 372, 168
-0.978722, 129, 113, 256, 176
-0.978738, 425, 217, 456, 280
-0.978754, 329, 145, 360, 208
-0.978866, 265, 169, 296, 232
-0.978876, 65, 113, 96, 240
-0.979137, 177, 209, 304, 333
-0.979162, 137, 81, 200, 144
-0.979221, 57, 225, 120, 288
-0.979283, 93, 201, 124, 264
-0.979378, 77, 201, 108, 264
-0.979457, 113, 209, 240, 272
-0.979509, 425, 193, 456, 320
-0.979538, 1, 97, 128, 160
-0.979695, 309, 169, 340, 232
-0.979776, 369, 65, 432, 320
-0.979803, 377, 129, 408, 192
-0.979853, 397, 129, 428, 256
-0.979927, 25, 225, 88, 288
-0.980082, 105, 65, 168, 320
-0.980171, 353, 81, 384, 208
-0.980262, 33, 1, 96, 256
-0.980298, 185, 145, 248, 208
-0.980339, 97, 185, 224, 248
-0.98043, 377, 153, 408, 216
-0.980445, 393, 97, 424, 160
-0.980538, 241, 73, 304, 136
-0.980794, 409, 193, 440, 256
-0.980804, 369, 225, 432, 288
-0.980841, 289, 81, 320, 144
-0.980859, 153, 49, 216, 176
-0.980874, 33, 1, 288, 128
-0.98091, 177, 273, 240, 333
-0.980931, 49, 177, 80, 304
-0.980985, 385, 1, 448, 128
-0.981035, 425, 129, 456, 192
-0.981106, 105, 161, 136, 288
-0.981125, 345, 81, 408, 144
-0.981127, 9, 81, 72, 208
-0.981197, 57, 169, 88, 232
-0.981205, 81, 137, 208, 200
-0.981219, 225, 209, 288, 272
-0.981341, 293, 129, 324, 256
-0.981361, 381, 177, 412, 240
-0.981362, 277, 185, 308, 248
-0.981362, 413, 209, 444, 333
-0.981383, 177, 81, 208, 208
-0.981416, 241, 121, 368, 184
-0.981566, 121, 201, 152, 264
-0.981686, 409, 129, 440, 192
-0.981715, 341, 161, 372, 224
-0.981933, 265, 97, 296, 224
-0.982041, 105, 241, 168, 304
-0.982044, 253, 169, 284, 232
-0.982071, 421, 81, 452, 208
-0.982108, 373, 209, 404, 333
-0.982121, 145, 249, 208, 312
-0.982127, 77, 113, 108, 176
-0.982197, 433, 81, 464, 208
-0.982217, 105, 201, 136, 264
-0.98223, 329, 201, 392, 264
-0.982244, 405, 81, 436, 208
-0.98227, 405, 105, 436, 168
-0.982367, 49, 17, 176, 144
-0.982397, 393, 249, 456, 312
-0.98243, 89, 145, 120, 272
-0.982436, 113, 81, 176, 144
-0.982464, 201, 81, 232, 208
-0.982573, 45, 1, 76, 64
-0.982603, 265, 65, 328, 128
-0.982654, 241, 105, 272, 168
-0.982747, 137, 193, 168, 320
-0.982828, 345, 225, 408, 288
-0.982897, 453, 209, 484, 272
-0.982901, 265, 193, 328, 256
-0.982965, 401, 65, 464, 320
-0.982969, 333, 145, 364, 272
-0.982987, 217, 81, 280, 144
-0.983038, 81, 209, 112, 333
-0.983136, 365, 161, 396, 224
-0.983161, 293, 121, 324, 184
-0.983211, 221, 113, 252, 240
-0.983253, 369, 265, 400, 328
-0.983256, 289, 73, 352, 136
-0.983278, 381, 65, 412, 192
-0.983411, 289, 185, 416, 248
-0.983495, 357, 257, 388, 320
-0.983544, 313, 249, 376, 312
-0.983572, 49, 257, 112, 320
-0.983729, 445, 145, 476, 272
-0.983784, 69, 65, 100, 192
-0.983789, 45, 169, 76, 232
-0.983847, 193, 81, 224, 144
-0.98388, 49, 49, 112, 176
-0.983889, 313, 73, 376, 136
-0.983907, 5, 105, 36, 168
-0.983948, 281, 33, 344, 160
-0.984017, 321, 169, 352, 232
-0.984021, 369, 241, 496, 304
-0.984088, 437, 225, 468, 288
-0.984166, 189, 97, 220, 224
-0.984212, 61, 193, 92, 256
-0.984263, 129, 137, 256, 200
-0.984276, 201, 265, 264, 328
-0.984297, 41, 1, 104, 333
-0.984314, 261, 145, 292, 208
-0.984367, 217, 193, 280, 320
-0.984371, 453, 97, 484, 224
-0.984372, 253, 105, 284, 168
-0.984415, 305, 273, 432, 333
-0.984433, 233, 97, 264, 224
-0.984435, 169, 193, 200, 320
-0.98447, 433, 49, 496, 176
-0.984477, 165, 81, 196, 208
-0.98455, 161, 265, 288, 328
-0.984577, 461, 153, 492, 216
-0.984722, 385, 161, 416, 288
-0.984742, 137, 161, 168, 224
-0.984742, 393, 161, 424, 224
-0.98476, 49, 33, 80, 96
-0.984772, 153, 185, 184, 248
-0.984793, 161, 209, 288, 272
-0.984887, 81, 33, 144, 288
-0.984898, 81, 225, 144, 288
-0.984925, 57, 1, 88, 64
-0.984941, 1, 129, 64, 192
-0.984945, 149, 161, 180, 224
-0.984976, 17, 249, 80, 312
-0.984983, 229, 105, 260, 168
-0.984998, 297, 33, 328, 160
-0.985041, 277, 65, 308, 192
-0.985087, 369, 161, 400, 288
-0.985123, 33, 81, 96, 144
-0.985125, 193, 81, 320, 144
-0.98514, 269, 145, 300, 272
-0.985151, 17, 97, 48, 224
-0.985163, 145, 97, 176, 224
-0.985231, 217, 169, 248, 232
-0.985243, 101, 137, 132, 200
-0.985272, 213, 65, 244, 192
-0.985295, 153, 1, 216, 333
-0.985342, 161, 209, 192, 272
-0.985422, 109, 89, 140, 152
-0.985461, 193, 17, 320, 144
-0.985489, 33, 225, 160, 288
-0.985567, 185, 273, 216, 333
-0.985586, 133, 185, 164, 248
-0.985656, 165, 161, 196, 224
-0.985658, 197, 105, 228, 168
-0.985678, 441, 177, 472, 240
-0.985685, 337, 265, 368, 328
-0.985797, 213, 105, 244, 168
-0.985814, 413, 217, 444, 280
-0.985829, 461, 105, 492, 168
-0.985847, 189, 193, 220, 320
-0.985888, 149, 193, 180, 320
-0.9859, 341, 129, 372, 192
-0.985904, 1, 1, 128, 128
-0.985945, 129, 145, 160, 272
-0.985988, 65, 81, 128, 144
-0.986031, 181, 177, 212, 240
-0.986071, 353, 193, 384, 320
-0.986079, 197, 177, 228, 240
-0.986087, 153, 137, 216, 200
-0.986178, 25, 25, 88, 88
-0.986298, 33, 105, 96, 168
-0.986328, 5, 129, 36, 256
-0.986334, 425, 129, 456, 256
-0.986339, 257, 1, 500, 128
-0.98639, 93, 193, 124, 320
-0.986416, 249, 113, 280, 240
-0.986472, 89, 265, 152, 328
-0.986503, 233, 161, 264, 224
-0.986518, 337, 49, 368, 176
-0.986529, 385, 1, 448, 333
-0.986656, 141, 209, 172, 272
-0.986785, 353, 265, 480, 328
-0.986945, 393, 65, 424, 192
-0.986993, 181, 113, 212, 176
-0.98702, 365, 129, 396, 192
-0.987101, 33, 185, 64, 248
-0.987142, 449, 153, 480, 216
-0.98721, 101, 113, 132, 240
-0.987258, 105, 1, 168, 333
-0.987275, 237, 145, 268, 272
-0.987281, 257, 265, 384, 328
-0.987302, 277, 81, 308, 144
-0.98736, 253, 65, 284, 192
-0.987442, 133, 137, 164, 200
-0.987462, 169, 185, 200, 248
-0.987506, 441, 105, 472, 168
-0.987548, 113, 249, 240, 312
-0.987584, 257, 137, 500, 200
-0.987591, 37, 161, 68, 288
-0.987616, 129, 89, 256, 152
-0.987655, 1, 201, 128, 264
-0.987661, 289, 249, 352, 312
-0.987671, 45, 193, 76, 256
-0.987683, 125, 89, 156, 152
-0.987722, 305, 249, 432, 312
-0.987796, 113, 273, 240, 333
-0.987797, 9, 129, 40, 192
-0.987811, 353, 1, 416, 333
-0.987827, 425, 1, 488, 333
-0.987843, 369, 49, 400, 176
-0.987902, 185, 1, 248, 333
-0.987903, 225, 105, 480, 168
-0.987927, 209, 145, 240, 272
-0.987969, 173, 209, 204, 272
-0.987976, 437, 209, 468, 333
-0.98798, 129, 1, 192, 333
-0.988014, 53, 113, 84, 240
-0.988104, 353, 169, 384, 232
-0.988195, 385, 241, 416, 304
-0.988242, 269, 105, 300, 168
-0.988321, 265, 93, 328, 124
-0.988348, 365, 185, 396, 248
-0.988354, 449, 193, 480, 320
-0.988395, 273, 1, 336, 333
-0.988433, 1, 105, 500, 168
-0.988447, 369, 81, 496, 144
-0.988482, 465, 161, 496, 288
-0.988524, 29, 153, 60, 216
-0.988584, 249, 169, 312, 200
-0.988586, 281, 133, 344, 164
-0.988596, 433, 241, 496, 304
-0.988602, 225, 161, 256, 288
-0.988621, 409, 161, 440, 224
-0.988651, 177, 169, 240, 200
-0.98866, 209, 1, 272, 333
-0.988663, 65, 113, 320, 176
-0.988674, 305, 81, 432, 144
-0.988692, 129, 169, 192, 200
-0.988723, 433, 137, 496, 168
-0.988737, 1, 161, 500, 224
-0.988738, 205, 81, 236, 144
-0.988768, 201, 169, 264, 200
-0.988798, 321, 225, 448, 288
-0.988798, 153, 169, 216, 200
-0.988818, 409, 73, 472, 136
-0.988832, 329, 121, 360, 184
-0.988833, 249, 145, 280, 208
-0.988856, 89, 161, 152, 192
-0.988886, 289, 153, 352, 184
-0.988893, 317, 33, 348, 160
-0.989023, 377, 113, 440, 144
-0.989061, 105, 209, 136, 333
-0.989102, 385, 133, 448, 164
-0.989114, 89, 133, 152, 164
-0.989162, 241, 193, 368, 256
-0.989168, 161, 97, 224, 128
-0.989169, 81, 1, 144, 333
-0.989219, 105, 113, 168, 144
-0.989248, 65, 161, 320, 224
-0.989267, 297, 1, 360, 333
-0.989301, 281, 161, 312, 288
-0.989322, 225, 169, 288, 200
-0.989365, 337, 105, 400, 136
-0.989367, 409, 201, 472, 232
-0.989374, 313, 173, 376, 204
-0.989437, 361, 125, 424, 156
-0.989452, 337, 161, 400, 192
-0.989476, 57, 177, 120, 208
-0.989502, 65, 273, 192, 333
-0.989564, 401, 241, 464, 272
-0.989564, 225, 161, 480, 224
-0.989589, 137, 273, 168, 333
-0.989608, 129, 105, 192, 136
-0.989625, 377, 101, 440, 132
-0.989631, 81, 117, 144, 148
-0.989635, 89, 149, 152, 180
-0.989677, 409, 133, 472, 164
-0.989716, 41, 193, 104, 224
-0.989721, 429, 169, 460, 232
-0.989735, 265, 81, 296, 144
-0.989736, 361, 181, 424, 212
-0.989749, 321, 289, 384, 320
-0.98977, 241, 209, 304, 333
-0.98977, 233, 1, 296, 333
-0.989778, 17, 1, 80, 333
-0.989788, 113, 157, 176, 188
-0.989827, 401, 213, 464, 244
-0.989832, 1, 209, 64, 272
-0.989847, 289, 173, 352, 204
-0.989861, 401, 145, 464, 176
-0.989888, 197, 145, 228, 272
-0.98989, 377, 193, 440, 224
-0.989904, 453, 185, 484, 248
-0.989987, 165, 121, 196, 184
-0.989989, 297, 93, 360, 124
-0.989999, 125, 209, 156, 333
-0.990018, 369, 241, 400, 304
-0.990087, 189, 209, 220, 272
-0.9901, 369, 165, 432, 196
-0.990106, 157, 129, 188, 256
-0.990117, 357, 81, 388, 144
-0.990118, 213, 209, 244, 272
-0.990151, 321, 177, 352, 304
-0.990179, 325, 265, 356, 328
-0.99019, 141, 145, 172, 272
-0.9902, 337, 177, 400, 208
-0.990202, 169, 109, 232, 140
-0.990205, 377, 201, 408, 264
-0.990225, 177, 297, 240, 328
-0.990246, 417, 225, 480, 256
-0.990277, 209, 273, 336, 333
-0.990279, 5, 81, 36, 208
-0.990285, 329, 121, 392, 152
-0.990304, 233, 109, 296, 140
-0.990332, 57, 165, 120, 196
-0.990349, 433, 113, 496, 144
-0.990375, 305, 141, 368, 172
-0.990383, 33, 177, 96, 208
-0.990392, 305, 201, 368, 264
-0.990442, 345, 273, 408, 304
-0.990449, 65, 129, 128, 160
-0.99045, 81, 181, 144, 212
-0.99046, 401, 101, 464, 132
-0.990478, 9, 1, 72, 256
-0.990485, 81, 205, 144, 236
-0.990498, 81, 81, 208, 144
-0.990508, 433, 149, 496, 180
-0.990555, 17, 249, 80, 280
-0.990578, 401, 189, 464, 220
-0.990593, 289, 105, 352, 136
-0.990631, 265, 157, 328, 188
-0.990634, 469, 113, 500, 240
-0.990638, 401, 117, 464, 148
-0.99064, 125, 49, 156, 176
-0.990649, 153, 49, 184, 176
-0.990662, 241, 81, 304, 112
-0.990675, 265, 105, 328, 136
-0.990704, 25, 13, 88, 44
-0.99072, 433, 197, 496, 228
-0.990732, 377, 257, 440, 288
-0.990733, 257, 145, 320, 176
-0.990751, 377, 221, 440, 252
-0.990752, 337, 133, 400, 164
-0.990759, 337, 149, 400, 180
-0.99077, 97, 137, 352, 200
-0.990774, 433, 125, 496, 156
-0.990817, 129, 285, 192, 316
-0.990832, 425, 213, 488, 244
-0.990832, 433, 33, 464, 160
-0.990846, 169, 145, 200, 272
-0.990871, 301, 177, 332, 304
-0.990874, 257, 17, 320, 144
-0.990874, 313, 105, 376, 136
-0.990901, 193, 101, 256, 132
-0.99091, 145, 157, 208, 188
-0.990921, 337, 189, 400, 220
-0.990955, 105, 173, 168, 204
-0.990961, 465, 209, 496, 333
-0.990981, 17, 189, 80, 220
-0.991016, 113, 273, 176, 333
-0.991018, 89, 269, 152, 300
-0.991024, 193, 113, 256, 144
-0.991029, 177, 85, 240, 116
-0.991036, 321, 301, 384, 332
-0.991048, 305, 129, 368, 160
-0.991077, 297, 185, 360, 216
-0.991095, 153, 297, 216, 328
-0.991132, 361, 149, 424, 180
-0.991166, 57, 205, 120, 236
-0.991173, 393, 161, 456, 192
-0.991175, 113, 125, 176, 156
-0.991191, 65, 145, 128, 176
-0.991217, 353, 241, 416, 272
-0.991252, 297, 301, 360, 332
-0.991269, 257, 185, 500, 248
-0.99127, 329, 257, 392, 288
-0.991277, 49, 249, 176, 312
-0.991281, 49, 257, 112, 288
-0.991282, 233, 149, 296, 180
-0.991288, 265, 181, 328, 212
-0.991292, 353, 93, 416, 124
-0.991332, 9, 177, 72, 208
-0.991359, 433, 165, 496, 196
-0.991363, 121, 205, 184, 236
-0.991379, 329, 1, 392, 333
-0.991403, 181, 145, 212, 272
-0.991422, 49, 13, 112, 44
-0.99143, 225, 181, 288, 212
-0.991481, 377, 233, 440, 264
-0.991503, 121, 229, 184, 260
-0.991504, 241, 93, 304, 124
-0.991518, 401, 173, 464, 204
-0.991519, 265, 121, 328, 152
-0.991528, 273, 81, 336, 112
-0.99154, 201, 193, 232, 320
-0.991559, 9, 1, 72, 32
-0.991565, 57, 113, 120, 144
-0.991568, 249, 161, 280, 288
-0.991569, 185, 157, 248, 188
-0.991582, 425, 97, 488, 128
-0.991593, 17, 105, 80, 136
-0.991596, 297, 117, 360, 148
-0.991622, 33, 117, 96, 148
-0.991622, 97, 225, 160, 256
-0.99163, 313, 157, 376, 188
-0.991664, 9, 125, 72, 156
-0.991674, 333, 209, 364, 333
-0.991682, 353, 201, 416, 232
-0.991687, 1, 1, 128, 64
-0.991751, 361, 137, 424, 168
-0.991753, 353, 253, 416, 284
-0.991774, 329, 93, 392, 124
-0.99179, 121, 145, 184, 176
-0.991792, 145, 209, 208, 240
-0.991811, 57, 1, 120, 32
-0.991822, 25, 237, 88, 268
-0.991843, 33, 165, 96, 196
-0.991872, 177, 285, 240, 316
-0.991883, 425, 185, 488, 216
-0.991897, 73, 101, 136, 132
-0.991899, 201, 181, 264, 212
-0.991932, 57, 1, 120, 128
-0.991939, 1, 185, 500, 248
-0.991959, 1, 201, 256, 264
-0.991965, 257, 65, 384, 128
-0.99203, 377, 113, 408, 144
-0.992064, 169, 249, 232, 312
-0.992071, 457, 137, 488, 168
-0.992083, 97, 117, 128, 148
-0.992087, 9, 177, 40, 304
-0.992092, 177, 97, 208, 128
-0.992108, 265, 49, 296, 176
-0.992114, 313, 133, 344, 164
-0.992151, 289, 89, 320, 120
-0.992175, 285, 149, 316, 180
-0.992191, 165, 101, 196, 132
-0.992202, 1, 129, 500, 192
-0.992206, 17, 73, 144, 136
-0.99222, 305, 93, 336, 124
-0.992227, 205, 169, 236, 200
-0.992234, 193, 169, 224, 200
-0.992242, 149, 169, 180, 200
-0.99225, 297, 149, 328, 180
-0.992257, 181, 169, 212, 200
-0.992261, 393, 129, 424, 160
-0.992292, 169, 169, 200, 200
-0.992313, 1, 265, 128, 328
-0.992327, 469, 141, 500, 172
-0.992333, 217, 169, 248, 200
-0.992345, 281, 169, 312, 200
-0.99235, 81, 161, 112, 192
-0.992352, 277, 93, 308, 124
-0.992359, 97, 185, 352, 248
-0.992362, 229, 169, 260, 200
-0.992367, 133, 169, 164, 200
-0.992368, 121, 165, 152, 196
-0.992376, 413, 133, 444, 164
-0.992385, 153, 105, 184, 136
-0.992402, 81, 121, 112, 152
-0.992412, 441, 133, 472, 164
-0.992419, 305, 169, 336, 200
-0.992438, 293, 133, 324, 164
-0.992438, 201, 241, 264, 304
-0.992438, 241, 169, 272, 200
-0.992453, 357, 105, 388, 136
-0.992457, 429, 229, 460, 260
-0.992459, 253, 169, 284, 200
-0.992463, 393, 113, 424, 144
-0.992466, 101, 161, 132, 192
-0.99247, 181, 297, 212, 328
-0.99247, 421, 201, 452, 232
-0.992473, 101, 133, 132, 164
-0.992502, 49, 17, 80, 144
-0.992509, 429, 133, 460, 164
-0.992509, 377, 101, 408, 132
-0.992523, 97, 169, 224, 200
-0.992524, 381, 129, 412, 160
-0.992525, 317, 169, 348, 200
-0.992528, 385, 177, 416, 208
-0.992529, 265, 169, 296, 200
-0.992531, 437, 197, 468, 228
-0.992536, 113, 149, 144, 180
-0.992548, 413, 241, 444, 272
-0.992553, 321, 153, 352, 184
-0.992577, 17, 109, 48, 140
-0.992581, 437, 213, 468, 244
-0.992588, 437, 145, 468, 176
-0.992589, 113, 113, 144, 144
-0.992609, 85, 109, 116, 140
-0.992616, 57, 177, 88, 208
-0.99263, 277, 81, 308, 112
-0.992631, 293, 169, 324, 200
-0.992631, 449, 149, 480, 180
-0.992637, 49, 25, 112, 88
-0.99264, 397, 193, 428, 224
-0.992649, 53, 13, 84, 44
-0.992657, 53, 189, 84, 220
-0.992661, 189, 93, 220, 124
-0.992665, 17, 121, 48, 152
-0.992667, 133, 113, 164, 144
-0.992674, 65, 193, 96, 224
-0.992675, 469, 161, 500, 192
-0.992676, 425, 217, 456, 248
-0.992677, 417, 229, 448, 260
-0.99268, 405, 117, 436, 148
-0.992693, 85, 201, 116, 232
-0.992711, 289, 101, 320, 132
-0.992713, 377, 269, 408, 300
-0.992713, 437, 113, 468, 144
-0.992721, 333, 289, 364, 320
-0.992722, 81, 113, 208, 144
-0.992723, 325, 141, 356, 172
-0.992739, 1, 237, 32, 268
-0.992741, 77, 133, 108, 164
-0.992751, 365, 121, 396, 152
-0.992754, 209, 169, 336, 200
-0.992764, 241, 109, 272, 140
-0.992768, 469, 129, 500, 160
-0.992772, 281, 137, 312, 168
-0.992772, 357, 257, 388, 288
-0.992773, 45, 177, 76, 208
-0.992774, 341, 157, 372, 188
-0.992776, 389, 257, 420, 288
-0.992785, 457, 125, 488, 156
-0.992786, 317, 101, 348, 132
-0.99279, 181, 113, 212, 144
-0.992796, 253, 109, 284, 140
-0.992797, 349, 289, 380, 320
-0.992799, 289, 173, 416, 204
-0.992804, 373, 185, 404, 216
-0.992807, 93, 173, 124, 204
-0.992808, 169, 113, 200, 144
-0.992809, 89, 133, 120, 164
-0.992825, 273, 153, 304, 184
-0.992831, 113, 137, 144, 168
-0.992844, 301, 181, 332, 212
-0.992846, 265, 101, 296, 132
-0.992854, 341, 105, 372, 136
-0.992857, 69, 165, 100, 196
-0.992861, 433, 101, 464, 132
-0.992864, 405, 145, 436, 176
-0.992868, 393, 157, 424, 188
-0.992869, 449, 189, 480, 220
-0.992874, 69, 113, 100, 144
-0.992874, 317, 301, 348, 332
-0.992879, 205, 101, 236, 132
-0.992879, 337, 173, 368, 204
-0.992879, 361, 169, 392, 200
-0.992882, 309, 157, 340, 188
-0.992888, 265, 89, 296, 120
-0.992892, 97, 145, 128, 176
-0.992893, 81, 181, 112, 212
-0.992894, 453, 113, 484, 144
-0.992902, 137, 157, 168, 188
-0.992902, 393, 101, 424, 132
-0.992907, 149, 157, 180, 188
-0.992908, 421, 149, 452, 180
-0.992915, 381, 161, 412, 192
-0.992921, 365, 269, 396, 300
-0.992924, 425, 113, 456, 144
-0.992929, 197, 113, 228, 144
-0.992934, 297, 121, 328, 152
-0.992935, 409, 193, 440, 224
-0.992937, 105, 173, 136, 204
-0.992945, 37, 189, 68, 220
-0.992946, 105, 101, 136, 132
-0.992947, 413, 217, 444, 248
-0.992953, 5, 113, 36, 144
-0.99296, 453, 77, 484, 108
-0.992995, 273, 105, 400, 136
-0.993032, 305, 121, 432, 152
-0.993101, 65, 157, 192, 188
-0.993141, 145, 169, 272, 200
-0.993169, 309, 145, 324, 208
-0.993228, 105, 49, 136, 176
-0.993238, 49, 169, 176, 200
-0.993255, 241, 153, 368, 184
-0.993267, 353, 129, 384, 256
-0.993288, 9, 81, 72, 144
-0.993304, 257, 233, 384, 296
-0.993307, 417, 33, 448, 160
-0.993332, 443, 201, 458, 264
-0.993381, 361, 1, 424, 128
-0.993442, 69, 209, 100, 333
-0.993486, 93, 137, 108, 200
-0.993511, 129, 89, 384, 152
-0.993547, 169, 65, 232, 128
-0.993555, 225, 249, 288, 312
-0.993555, 1, 209, 500, 272
-0.993588, 369, 145, 496, 176
-0.993601, 377, 273, 440, 333
-0.993603, 1, 17, 64, 144
-0.99361, 57, 1, 72, 64
-0.993617, 327, 97, 342, 160
-0.99366, 353, 133, 480, 164
-0.993743, 213, 193, 244, 320
-0.993759, 457, 129, 472, 192
-0.993767, 333, 145, 348, 208
-0.993782, 209, 249, 336, 312
-0.993793, 287, 145, 302, 208
-0.993842, 387, 97, 402, 160
-0.993863, 89, 169, 104, 232
-0.993929, 289, 149, 416, 180
-0.993944, 209, 217, 336, 280
-0.993959, 265, 265, 328, 328
-0.993961, 305, 161, 432, 192
-0.994015, 125, 113, 140, 176
-0.99402, 111, 113, 126, 176
-0.994031, 273, 137, 400, 168
-0.994046, 119, 105, 134, 168
-0.994092, 105, 121, 120, 184
-0.994095, 125, 177, 140, 240
-0.994128, 435, 201, 450, 264
-0.99414, 193, 85, 320, 116
-0.99414, 125, 137, 140, 200
-0.994152, 193, 273, 448, 333
-0.994175, 97, 169, 112, 232
-0.994191, 353, 101, 480, 132
-0.994196, 357, 33, 388, 160
-0.994205, 25, 161, 56, 288
-0.994217, 169, 97, 184, 160
-0.99424, 185, 89, 200, 152
-0.994267, 177, 33, 208, 160
-0.994296, 119, 137, 134, 200
-0.994301, 313, 89, 328, 152
-0.994304, 369, 113, 496, 144
-0.994305, 449, 201, 464, 264
-0.994364, 321, 129, 336, 192
-0.99439, 257, 93, 384, 124
-0.994395, 153, 105, 168, 168
-0.994427, 97, 209, 352, 272
-0.994434, 1, 25, 128, 88
-0.994449, 475, 129, 490, 192
-0.994452, 29, 113, 60, 240
-0.994459, 137, 49, 168, 176
-0.994466, 433, 105, 448, 168
-0.994467, 457, 49, 488, 176
-0.994483, 303, 145, 318, 208
-0.994486, 225, 49, 256, 176
-0.994496, 451, 129, 466, 192
-0.994543, 161, 241, 288, 304
-0.994556, 353, 185, 480, 216
-0.994561, 107, 161, 122, 224
-0.994567, 225, 209, 480, 272
-0.994581, 133, 161, 148, 224
-0.994596, 49, 17, 176, 80
-0.994618, 423, 121, 438, 184
-0.994638, 119, 177, 134, 240
-0.994655, 277, 161, 292, 224
-0.994662, 225, 273, 288, 333
-0.994663, 145, 97, 272, 128
-0.99467, 131, 113, 146, 176
-0.994676, 301, 169, 316, 232
-0.994677, 57, 65, 88, 192
-0.994682, 309, 169, 324, 232
-0.994683, 83, 169, 98, 232
-0.994684, 375, 97, 390, 160
-0.994704, 99, 137, 114, 200
-0.994768, 97, 101, 224, 132
-0.99481, 467, 129, 482, 192
-0.994857, 225, 105, 352, 136
-0.994875, 95, 201, 110, 264
-0.9949, 297, 129, 312, 192
-0.99491, 401, 177, 416, 240
-0.994917, 33, 181, 160, 212
-0.994964, 71, 169, 86, 232
-0.995015, 1, 125, 128, 156
-0.995025, 25, 129, 88, 192
-0.995025, 27, 97, 42, 160
-0.995041, 353, 165, 480, 196
-0.995055, 159, 105, 174, 168
-0.995059, 295, 169, 310, 232
-0.995071, 431, 129, 446, 192
-0.995084, 427, 201, 442, 264
-0.995087, 99, 113, 114, 176
-0.995113, 481, 129, 496, 192
-0.995119, 381, 105, 396, 168
-0.995123, 77, 177, 92, 240
-0.995138, 367, 105, 382, 168
-0.995148, 321, 97, 336, 160
-0.995157, 225, 81, 480, 144
-0.995162, 87, 137, 102, 200
-0.995179, 261, 193, 292, 320
-0.995188, 321, 161, 336, 224
-0.995193, 1, 137, 256, 200
-0.995207, 241, 49, 272, 176
-0.995211, 49, 129, 176, 160
-0.995217, 333, 97, 348, 160
-0.995222, 145, 113, 272, 144
-0.995254, 113, 161, 128, 224
-0.995264, 393, 105, 408, 168
-0.995275, 189, 49, 220, 176
-0.995348, 271, 169, 286, 232
-0.995364, 307, 89, 322, 152
-0.995365, 341, 105, 356, 168
-0.995371, 89, 113, 104, 176
-0.995384, 405, 33, 436, 160
-0.995391, 147, 105, 162, 168
-0.995405, 395, 177, 410, 240
-0.995408, 337, 201, 464, 232
-0.995444, 417, 105, 432, 168
-0.995446, 209, 1, 336, 64
-0.995455, 111, 137, 126, 200
-0.995459, 83, 193, 98, 256
-0.995469, 225, 137, 352, 168
-0.995483, 395, 153, 410, 216
-0.995496, 49, 205, 176, 236
-0.995498, 89, 201, 104, 264
-0.995511, 273, 189, 400, 220
-0.995521, 361, 105, 376, 168
-0.995526, 315, 169, 330, 232
-0.995529, 21, 97, 36, 160
-0.995529, 335, 121, 350, 184
-0.995541, 391, 129, 406, 192
-0.995578, 229, 65, 260, 320
-0.99559, 339, 145, 354, 208
-0.995598, 439, 225, 454, 288
-0.99562, 445, 129, 460, 192
-0.995632, 403, 121, 418, 184
-0.995633, 433, 225, 448, 288
-0.995635, 129, 157, 256, 188
-0.995659, 1, 225, 256, 288
-0.995688, 389, 177, 404, 240
-0.995695, 315, 145, 330, 208
-0.995716, 1, 161, 128, 192
-0.995724, 455, 209, 470, 272
-0.99573, 311, 121, 326, 184
-0.995771, 237, 193, 268, 320
-0.995773, 137, 65, 168, 320
-0.995788, 285, 185, 300, 248
-0.9958, 411, 113, 426, 176
-0.995801, 245, 65, 276, 320
-0.995803, 345, 161, 360, 224
-0.995812, 179, 89, 194, 152
-0.995822, 353, 213, 480, 244
-0.995831, 107, 201, 122, 264
-0.995836, 83, 113, 98, 176
-0.995837, 17, 193, 144, 224
-0.995839, 205, 81, 220, 144
-0.995842, 33, 141, 160, 172
-0.995845, 439, 121, 454, 184
-0.995858, 471, 153, 486, 216
-0.995859, 239, 105, 254, 168
-0.995864, 301, 81, 316, 144
-0.995888, 421, 217, 436, 280
-0.995895, 265, 169, 280, 232
-0.995913, 1, 89, 256, 152
-0.99592, 149, 65, 180, 320
-0.995921, 279, 185, 294, 248
-0.99593, 193, 181, 320, 212
-0.995945, 97, 289, 224, 320
-0.995965, 1, 109, 128, 140
-0.995966, 33, 57, 96, 120
-0.99597, 9, 113, 24, 176
-0.995972, 247, 105, 262, 168
-0.99598, 127, 201, 142, 264
-0.995987, 253, 105, 268, 168
-0.995994, 385, 129, 400, 192
-0.995996, 33, 273, 288, 333
-0.995997, 141, 105, 156, 168
-0.996003, 259, 105, 274, 168
-0.996016, 119, 201, 134, 264
-0.996035, 89, 73, 152, 136
-0.996044, 407, 185, 422, 248
-0.996065, 177, 157, 304, 188
-0.996069, 209, 65, 240, 320
-0.996073, 261, 65, 292, 320
-0.996084, 129, 301, 256, 332
-0.996087, 321, 273, 448, 304
-0.996093, 383, 153, 398, 216
-0.996094, 143, 161, 158, 224
-0.996097, 193, 241, 448, 304
-0.9961, 445, 177, 460, 240
-0.996101, 135, 201, 150, 264
-0.996104, 347, 105, 362, 168
-0.996154, 355, 105, 370, 168
-0.996158, 249, 241, 312, 304
-0.99616, 353, 233, 480, 264
-0.996171, 399, 97, 414, 160
-0.99618, 259, 169, 274, 232
-0.996186, 111, 89, 126, 152
-0.996195, 153, 161, 168, 224
-0.996198, 97, 209, 224, 240
-0.996205, 101, 201, 116, 264
-0.996222, 455, 185, 470, 248
-0.996223, 41, 177, 56, 240
-0.996225, 305, 93, 432, 124
-0.996229, 249, 217, 312, 280
-0.996235, 377, 129, 392, 192
-0.996241, 289, 293, 416, 324
-0.996246, 377, 161, 392, 224
-0.99625, 209, 105, 224, 168
-0.996252, 59, 33, 74, 96
-0.996256, 161, 177, 176, 240
-0.996262, 193, 65, 224, 320
-0.996264, 65, 249, 320, 312
-0.996269, 71, 193, 86, 256
-0.99629, 167, 177, 182, 240
-0.996313, 195, 105, 210, 168
-0.99632, 369, 257, 496, 288
-0.996361, 161, 65, 192, 320
-0.996377, 225, 121, 352, 152
-0.996413, 225, 209, 256, 333
-0.996456, 145, 65, 272, 128
-0.99648, 41, 113, 72, 240
-0.996519, 81, 17, 144, 144
-0.996578, 193, 57, 320, 120
-0.996607, 377, 65, 408, 320
-0.996611, 81, 181, 208, 212
-0.996621, 1, 49, 128, 112
-0.996622, 181, 65, 212, 320
-0.996651, 177, 289, 304, 320
-0.996661, 97, 125, 224, 156
-0.996708, 369, 41, 496, 104
-0.996716, 307, 93, 322, 124
-0.996733, 321, 253, 448, 284
-0.996745, 301, 33, 332, 288
-0.996752, 385, 113, 400, 144
-0.996778, 179, 97, 194, 128
-0.996782, 393, 117, 408, 148
-0.996806, 129, 277, 256, 308
-0.996806, 281, 33, 312, 288
-0.996824, 301, 169, 316, 200
-0.996837, 473, 137, 488, 168
-0.996856, 169, 101, 184, 132
-0.996856, 1, 233, 500, 296
-0.996869, 377, 109, 392, 140
-0.99687, 341, 65, 372, 320
-0.996926, 107, 117, 122, 148
-0.99693, 187, 93, 202, 124
-0.996932, 401, 125, 416, 156
-0.996947, 467, 137, 482, 168
-0.996957, 321, 33, 352, 288
-0.996966, 211, 169, 226, 200
-0.996988, 107, 165, 122, 196
-0.996991, 33, 97, 160, 128
-0.996994, 297, 153, 312, 184
-0.996997, 289, 205, 416, 236
-0.996997, 295, 89, 310, 120
-0.996998, 201, 169, 216, 200
-0.997005, 209, 301, 336, 332
-0.997016, 459, 133, 474, 164
-0.997017, 221, 169, 236, 200
-0.997028, 189, 169, 204, 200
-0.997036, 195, 169, 210, 200
-0.997038, 361, 65, 392, 320
-0.997049, 453, 133, 468, 164
-0.997053, 227, 169, 242, 200
-0.997055, 309, 173, 324, 204
-0.997076, 295, 169, 310, 200
-0.997078, 1, 225, 128, 256
-0.997079, 163, 169, 178, 200
-0.997081, 37, 209, 68, 333
-0.997082, 17, 237, 144, 268
-0.997087, 169, 169, 184, 200
-0.997092, 97, 121, 112, 152
-0.997092, 183, 169, 198, 200
-0.997099, 153, 169, 168, 200
-0.997101, 175, 169, 190, 200
-0.997107, 273, 217, 336, 280
-0.997123, 49, 1, 80, 256
-0.997133, 301, 89, 316, 120
-0.997145, 305, 57, 432, 120
-0.997149, 387, 125, 402, 156
-0.997157, 319, 173, 334, 204
-0.997157, 317, 93, 332, 124
-0.997169, 147, 169, 162, 200
-0.997177, 113, 145, 240, 176
-0.997181, 145, 209, 272, 240
-0.997182, 59, 9, 74, 40
-0.997207, 425, 133, 440, 164
-0.997219, 481, 137, 496, 168
-0.99722, 1, 257, 128, 288
-0.997222, 321, 133, 336, 164
-0.997228, 409, 129, 424, 160
-0.997247, 369, 245, 496, 276
-0.997247, 163, 105, 178, 136
-0.997258, 335, 145, 350, 176
-0.997267, 301, 101, 316, 132
-0.997268, 1, 1, 128, 32
-0.997272, 273, 209, 304, 333
-0.997272, 1, 81, 500, 144
-0.997272, 303, 133, 318, 164
-0.99728, 129, 1, 384, 128
-0.997287, 307, 149, 322, 180
-0.997294, 393, 1, 424, 128
-0.997299, 25, 273, 88, 333
-0.997301, 443, 201, 458, 232
-0.997308, 287, 93, 302, 124
-0.997318, 453, 65, 484, 320
-0.997325, 253, 169, 268, 200
-0.997326, 125, 65, 156, 320
-0.997341, 447, 133, 462, 164
-0.997343, 273, 281, 400, 312
-0.997345, 33, 273, 160, 304
-0.997345, 107, 129, 122, 160
-0.997346, 437, 197, 452, 228
-0.99735, 311, 133, 326, 164
-0.997355, 233, 169, 248, 200
-0.997357, 283, 81, 298, 112
-0.997368, 117, 161, 132, 192
-0.997372, 329, 137, 344, 168
-0.997374, 113, 117, 128, 148
-0.99738, 369, 105, 384, 136
-0.997384, 259, 169, 274, 200
-0.997398, 273, 261, 400, 292
-0.997398, 141, 169, 156, 200
-0.9974, 49, 217, 176, 248
-0.997401, 241, 169, 256, 200
-0.997406, 275, 169, 290, 200
-0.997412, 97, 165, 112, 196
-0.997413, 273, 81, 400, 112
-0.997415, 431, 229, 446, 260
-0.997415, 265, 169, 280, 200
-0.997433, 201, 17, 232, 144
-0.997439, 441, 217, 456, 248
-0.997449, 247, 169, 262, 200
-0.997449, 383, 97, 398, 128
-0.997485, 157, 109, 172, 140
-0.997496, 291, 137, 306, 168
-0.997497, 91, 113, 106, 144
-0.997498, 441, 133, 456, 164
-0.997499, 313, 153, 328, 184
-0.9975, 129, 181, 256, 212
-0.997506, 97, 149, 112, 180
-0.997514, 277, 89, 292, 120
-0.99752, 477, 125, 492, 156
-0.997522, 85, 49, 116, 176
-0.997528, 27, 101, 42, 132
-0.997532, 433, 133, 448, 164
-0.997552, 285, 149, 300, 180
-0.997554, 483, 149, 498, 180
-0.997554, 93, 133, 108, 164
-0.997556, 391, 105, 406, 136
-0.997561, 89, 65, 120, 320
-0.997567, 135, 169, 150, 200
-0.997578, 399, 113, 414, 144
-0.997581, 369, 9, 496, 72
-0.997584, 187, 297, 202, 328
-0.997589, 89, 161, 104, 192
-0.997592, 57, 177, 72, 208
-0.997592, 121, 117, 136, 148
-0.997597, 297, 133, 312, 164
-0.997604, 403, 181, 418, 212
-0.997605, 379, 269, 394, 300
-0.997611, 431, 205, 446, 236
-0.997613, 429, 65, 460, 320
-0.997615, 257, 41, 384, 104
-0.997627, 151, 109, 166, 140
-0.997629, 49, 41, 176, 104
-0.997634, 419, 133, 434, 164
-0.997636, 59, 21, 74, 52
-0.997643, 131, 113, 146, 144
-0.997645, 395, 129, 410, 160
-0.997654, 249, 209, 280, 333
-0.997657, 471, 125, 486, 156
-0.997673, 193, 93, 208, 124
-0.997682, 95, 201, 110, 232
-0.997687, 61, 33, 92, 288
-0.997694, 117, 133, 132, 164
-0.997706, 405, 109, 420, 140
-0.997713, 377, 97, 392, 128
-0.997714, 305, 237, 432, 268
-0.997718, 415, 121, 430, 152
-0.997719, 447, 145, 462, 176
-0.997724, 99, 109, 114, 140
-0.997725, 77, 65, 108, 320
-0.997734, 79, 197, 94, 228
-0.997737, 125, 145, 140, 176
-0.997743, 33, 65, 288, 128
-0.997743, 385, 269, 400, 300
-0.997761, 453, 145, 468, 176
-0.997771, 107, 145, 122, 176
-0.997772, 477, 149, 492, 180
-0.997773, 321, 149, 336, 180
-0.997778, 143, 281, 158, 312
-0.99778, 65, 233, 192, 264
-0.997793, 375, 121, 390, 152
-0.997807, 193, 209, 320, 240
-0.99781, 99, 133, 114, 164
-0.997812, 275, 101, 290, 132
-0.997815, 453, 113, 468, 144
-0.99782, 177, 145, 304, 176
-0.997821, 81, 161, 96, 192
-0.997825, 67, 177, 82, 208
-0.997826, 435, 145, 450, 176
-0.997834, 145, 197, 272, 228
-0.997836, 259, 109, 274, 140
-0.99784, 139, 113, 154, 144
-0.997844, 289, 81, 304, 112
-0.997845, 307, 113, 322, 144
-0.997848, 355, 285, 370, 316
-0.997852, 369, 269, 496, 300
-0.997861, 289, 9, 416, 72
-0.997864, 181, 293, 196, 324
-0.997864, 451, 213, 466, 244
-0.997864, 307, 161, 322, 192
-0.997953, 81, 277, 208, 308
-0.997991, 445, 33, 476, 160
-0.998015, 97, 221, 224, 252
-0.998022, 405, 65, 436, 320
-0.998024, 177, 129, 304, 160
-0.998035, 417, 65, 448, 320
-0.998037, 97, 197, 224, 228
-0.998041, 177, 73, 304, 104
-0.998093, 81, 265, 208, 296
-0.998104, 65, 245, 192, 276
-0.998131, 129, 265, 256, 296
-0.998141, 441, 65, 472, 320
-0.998146, 465, 65, 496, 320
-0.998165, 145, 85, 272, 116
-0.998173, 241, 209, 368, 240
-0.998182, 389, 65, 420, 320
-0.998183, 337, 285, 464, 316
-0.998183, 213, 17, 244, 144
-0.998187, 1, 273, 500, 333
-0.998203, 225, 193, 352, 224
-0.998232, 129, 233, 256, 264
-0.998262, 5, 33, 36, 160
-0.998263, 337, 301, 464, 332
-0.998296, 177, 277, 304, 308
-0.998317, 353, 89, 480, 120
-0.998331, 335, 97, 350, 224
-0.998342, 317, 81, 332, 208
-0.998361, 311, 81, 326, 208
-0.99838, 305, 1, 368, 128
-0.998395, 129, 111, 192, 126
-0.998408, 273, 161, 336, 176
-0.998414, 265, 105, 328, 120
-0.998422, 297, 171, 360, 186
-0.998425, 289, 135, 352, 150
-0.998429, 289, 101, 352, 116
-0.99843, 273, 151, 336, 166
-0.99843, 303, 81, 318, 208
-0.998432, 369, 125, 432, 140
-0.998434, 97, 89, 224, 120
-0.998446, 273, 167, 336, 182
-0.998448, 129, 65, 384, 128
-0.998449, 297, 155, 360, 170
-0.99845, 69, 17, 100, 144
-0.998451, 289, 139, 320, 154
-0.998452, 369, 167, 400, 182
-0.998453, 425, 113, 456, 128
-0.998454, 89, 161, 152, 176
-0.998454, 81, 135, 112, 150
-0.998454, 281, 181, 344, 196
-0.998455, 209, 87, 240, 102
-0.998455, 233, 173, 264, 188
-0.998456, 301, 99, 332, 114
-0.998457, 297, 313, 360, 328
-0.998457, 453, 75, 484, 90
-0.998457, 69, 173, 100, 188
-0.998457, 437, 127, 468, 142
-0.998459, 249, 173, 312, 188
-0.998459, 465, 203, 496, 218
-0.998459, 469, 119, 500, 134
-0.998459, 369, 119, 432, 134
-0.998459, 89, 149, 152, 164
-0.99846, 369, 163, 432, 178
-0.99846, 433, 139, 496, 154
-0.998461, 441, 163, 472, 178
-0.998462, 425, 201, 488, 216
-0.998462, 109, 117, 140, 132
-0.998463, 13, 111, 44, 126
-0.998463, 273, 85, 304, 100
-0.998463, 413, 243, 444, 258
-0.998464, 413, 101, 444, 116
-0.998465, 205, 111, 236, 126
-0.998465, 445, 207, 476, 222
-0.998465, 77, 129, 108, 144
-0.998466, 361, 109, 392, 124
-0.998468, 341, 167, 372, 182
-0.99847, 437, 109, 468, 124
-0.998471, 109, 145, 140, 160
-0.998472, 33, 195, 96, 210
-0.998472, 437, 223, 468, 238
-0.998474, 169, 301, 232, 316
-0.998474, 181, 115, 212, 130
-0.998474, 321, 149, 352, 164
-0.998474, 273, 95, 336, 110
-0.998475, 425, 129, 456, 144
-0.998475, 21, 249, 52, 264
-0.998477, 413, 235, 444, 250
-0.998477, 401, 131, 464, 146
-0.998477, 153, 107, 216, 122
-0.998477, 73, 133, 136, 148
-0.998478, 409, 207, 472, 222
-0.998479, 297, 165, 360, 180
-0.998479, 393, 113, 456, 128
-0.998479, 337, 169, 400, 184
-0.998479, 465, 167, 496, 182
-0.998479, 73, 175, 136, 190
-0.998482, 425, 149, 488, 164
-0.998483, 1, 241, 32, 256
-0.998483, 41, 179, 104, 194
-0.998484, 129, 171, 192, 186
-0.998484, 17, 127, 48, 142
-0.998485, 349, 291, 380, 306
-0.998486, 17, 117, 48, 132
-0.998487, 113, 151, 144, 166
-0.998488, 445, 137, 476, 152
-0.998488, 377, 131, 408, 146
-0.998489, 393, 125, 456, 140
-0.998489, 377, 131, 440, 146
-0.998489, 133, 171, 164, 186
-0.998489, 213, 171, 244, 186
-0.99849, 381, 103, 412, 118
-0.99849, 297, 149, 360, 164
-0.998491, 285, 145, 316, 160
-0.998493, 337, 157, 400, 172
-0.998494, 365, 123, 396, 138
-0.998495, 301, 105, 332, 120
-0.998495, 413, 125, 444, 140
-0.998495, 53, 13, 84, 28
-0.998496, 277, 169, 308, 184
-0.998496, 177, 171, 240, 186
-0.998496, 289, 179, 320, 194
-0.998497, 273, 145, 336, 160
-0.998497, 153, 171, 216, 186
-0.998499, 377, 105, 440, 120
-0.998499, 137, 285, 168, 300
-0.998499, 201, 171, 232, 186
-0.9985, 89, 155, 152, 170
-0.998502, 65, 113, 128, 128
-0.998503, 105, 111, 168, 126
-0.998503, 425, 119, 488, 134
-0.998504, 417, 207, 448, 222
-0.998505, 445, 197, 476, 212
-0.998505, 429, 201, 460, 216
-0.998506, 337, 109, 400, 124
-0.998506, 105, 171, 168, 186
-0.998508, 129, 109, 160, 124
-0.998508, 361, 113, 424, 128
-0.998509, 389, 135, 420, 150
-0.998509, 441, 215, 472, 230
-0.998509, 181, 299, 212, 314
-0.99851, 393, 123, 424, 138
-0.998511, 193, 109, 256, 124
-0.998512, 323, 81, 338, 208
-0.998512, 165, 117, 196, 132
-0.998513, 309, 181, 340, 196
-0.998513, 81, 115, 112, 130
-0.998513, 385, 195, 448, 210
-0.998514, 353, 99, 416, 114
-0.998514, 37, 195, 68, 210
-0.998515, 329, 97, 344, 224
-0.998516, 17, 135, 48, 150
-0.998517, 429, 207, 460, 222
-0.998518, 189, 171, 220, 186
-0.998518, 177, 171, 208, 186
-0.998519, 361, 185, 424, 200
-0.99852, 313, 103, 376, 118
-0.998521, 321, 313, 352, 328
-0.998521, 393, 119, 456, 134
-0.998522, 385, 163, 416, 178
-0.998522, 373, 113, 404, 128
-0.998522, 1, 137, 32, 152
-0.998522, 97, 117, 160, 132
-0.998523, 217, 109, 248, 124
-0.998523, 325, 171, 356, 186
-0.998524, 149, 171, 180, 186
-0.998524, 17, 189, 80, 204
-0.998524, 165, 171, 196, 186
-0.998525, 161, 101, 224, 116
-0.998527, 185, 93, 216, 108
-0.998527, 161, 115, 224, 130
-0.998528, 97, 119, 128, 134
-0.998529, 413, 135, 444, 150
-0.998529, 109, 111, 140, 126
-0.99853, 281, 157, 312, 172
-0.99853, 345, 273, 408, 288
-0.998531, 273, 103, 304, 118
-0.998531, 257, 89, 320, 104
-0.998533, 433, 229, 464, 244
-0.998533, 401, 235, 464, 250
-0.998533, 49, 201, 112, 216
-0.998534, 313, 101, 344, 116
-0.998534, 345, 121, 408, 136
-0.998534, 17, 251, 80, 266
-0.998534, 409, 215, 472, 230
-0.998534, 321, 293, 384, 308
-0.998534, 17, 11, 80, 26
-0.998535, 185, 89, 248, 104
-0.998536, 417, 225, 480, 240
-0.998536, 305, 143, 368, 158
-0.998536, 377, 201, 440, 216
-0.998537, 85, 159, 116, 174
-0.998537, 377, 99, 440, 114
-0.998538, 201, 173, 264, 188
-0.998539, 469, 147, 500, 162
-0.99854, 113, 1, 144, 256
-0.99854, 165, 105, 196, 120
-0.99854, 73, 167, 136, 182
-0.99854, 141, 111, 172, 126
-0.998541, 101, 173, 132, 188
-0.998542, 337, 163, 400, 178
-0.998542, 117, 165, 148, 180
-0.998543, 73, 121, 136, 136
-0.998543, 225, 83, 288, 98
-0.998545, 173, 99, 204, 114
-0.998546, 393, 111, 424, 126
-0.998548, 197, 91, 228, 106
-0.998549, 249, 165, 312, 180
-0.998549, 337, 177, 400, 192
-0.998549, 41, 189, 104, 204
-0.998551, 457, 139, 488, 154
-0.998551, 457, 115, 488, 130
-0.998552, 97, 147, 128, 162
-0.998552, 113, 163, 176, 178
-0.998552, 281, 95, 312, 110
-0.998554, 437, 119, 468, 134
-0.998555, 285, 87, 316, 102
-0.998555, 437, 147, 468, 162
-0.998556, 301, 133, 332, 148
-0.998556, 37, 189, 68, 204
-0.998558, 377, 271, 408, 286
-0.998559, 117, 157, 148, 172
-0.998559, 217, 111, 280, 126
-0.99856, 97, 133, 128, 148
-0.99856, 329, 183, 392, 198
-0.99856, 409, 137, 472, 152
-0.998563, 321, 157, 352, 172
-0.998564, 305, 163, 336, 178
-0.998565, 417, 195, 480, 210
-0.998565, 417, 163, 480, 178
-0.998565, 469, 141, 500, 156
-0.998567, 457, 147, 488, 162
-0.998567, 401, 189, 464, 204
-0.998567, 185, 115, 248, 130
-0.998569, 401, 103, 464, 118
-0.998569, 97, 153, 128, 168
-0.998569, 93, 113, 124, 128
-0.998571, 81, 167, 112, 182
-0.998571, 121, 117, 184, 132
-0.998572, 345, 127, 408, 142
-0.998572, 321, 163, 352, 178
-0.998573, 317, 139, 348, 154
-0.998573, 89, 143, 152, 158
-0.998573, 313, 177, 376, 192
-0.998574, 1, 213, 128, 244
-0.998576, 329, 139, 392, 154
-0.998576, 225, 173, 288, 188
-0.998577, 9, 195, 72, 210
-0.998579, 177, 95, 240, 110
-0.99858, 273, 175, 336, 190
-0.998581, 241, 185, 304, 200
-0.998583, 73, 127, 136, 142
-0.998584, 185, 181, 248, 196
-0.998584, 385, 137, 448, 152
-0.998586, 249, 83, 312, 98
-0.998586, 65, 195, 96, 210
-0.998587, 57, 195, 120, 210
-0.998588, 285, 151, 316, 166
-0.998589, 433, 217, 496, 232
-0.99859, 425, 237, 456, 252
-0.998591, 241, 105, 304, 120
-0.998591, 289, 103, 320, 118
-0.998591, 201, 83, 264, 98
-0.998592, 377, 243, 440, 258
-0.998592, 49, 125, 112, 140
-0.998592, 425, 125, 488, 140
-0.998592, 361, 179, 424, 194
-0.998593, 401, 143, 464, 158
-0.998593, 285, 163, 316, 178
-0.998593, 113, 153, 176, 168
-0.998593, 241, 113, 304, 128
-0.998594, 301, 93, 332, 108
-0.998594, 101, 163, 132, 178
-0.998594, 417, 109, 480, 124
-0.998595, 85, 123, 116, 138
-0.998595, 377, 227, 440, 242
-0.998596, 249, 95, 312, 110
-0.998596, 393, 221, 456, 236
-0.998596, 321, 149, 384, 164
-0.998597, 401, 243, 464, 258
-0.998599, 321, 131, 384, 146
-0.9986, 301, 155, 332, 170
-0.998601, 289, 107, 352, 122
-0.998602, 385, 157, 448, 172
-0.998604, 369, 271, 432, 286
-0.998604, 85, 173, 116, 188
-0.998607, 297, 95, 360, 110
-0.998607, 381, 125, 412, 140
-0.998608, 177, 307, 240, 322
-0.998609, 217, 183, 280, 198
-0.99861, 25, 19, 88, 34
-0.998611, 377, 169, 440, 184
-0.998611, 433, 207, 496, 222
-0.998626, 49, 191, 80, 206
-0.998633, 81, 301, 208, 332
-0.998649, 273, 249, 400, 280
-0.998649, 153, 109, 184, 124
-0.998656, 393, 129, 424, 144
-0.998661, 225, 257, 352, 288
-0.998665, 301, 147, 332, 162
-0.998673, 305, 169, 336, 184
-0.998674, 1, 1, 32, 256
-0.998676, 85, 113, 100, 240
-0.998682, 377, 119, 408, 134
-0.998685, 383, 81, 398, 208
-0.998717, 289, 113, 304, 240
-0.998719, 345, 97, 360, 224
-0.998735, 161, 1, 288, 64
-0.998754, 89, 161, 104, 288
-0.99876, 295, 97, 310, 224
-0.998792, 127, 97, 142, 224
-0.998805, 323, 129, 338, 256
-0.998808, 101, 33, 132, 288
-0.998814, 91, 97, 106, 224
-0.998827, 1, 13, 128, 44
-0.998827, 113, 245, 240, 276
-0.998839, 377, 97, 392, 224
-0.998861, 405, 193, 420, 320
-0.998879, 389, 81, 404, 208
-0.99888, 1, 85, 128, 116
-0.99888, 305, 225, 432, 256
-0.998881, 307, 129, 322, 256
-0.998893, 49, 1, 176, 32
-0.998896, 313, 129, 328, 256
-0.998911, 411, 177, 426, 304
-0.998915, 177, 253, 304, 284
-0.998916, 455, 97, 470, 224
-0.998918, 127, 145, 142, 272
-0.99892, 401, 113, 416, 240
-0.998933, 133, 97, 148, 224
-0.998938, 177, 81, 192, 208
-0.998947, 417, 209, 432, 333
-0.998948, 95, 161, 110, 288
-0.998959, 121, 97, 136, 224
-0.998972, 225, 277, 352, 308
-0.99899, 369, 81, 384, 208
-0.998994, 363, 81, 378, 208
-0.998996, 393, 193, 408, 320
-0.999004, 387, 209, 402, 333
-0.99901, 283, 113, 298, 240
-0.999027, 211, 81, 226, 208
-0.999028, 409, 113, 424, 240
-0.999033, 79, 113, 94, 240
-0.999039, 97, 209, 112, 333
-0.99904, 37, 1, 68, 256
-0.999046, 257, 69, 384, 100
-0.999052, 81, 77, 208, 108
-0.999071, 419, 81, 434, 208
-0.999073, 423, 209, 438, 333
-0.999076, 369, 73, 496, 104
-0.999076, 399, 193, 414, 320
-0.999077, 81, 161, 96, 288
-0.99908, 277, 97, 292, 224
-0.999082, 25, 65, 56, 320
-0.999096, 445, 177, 460, 304
-0.9991, 357, 81, 372, 208
-0.999102, 229, 113, 244, 240
-0.999103, 337, 145, 352, 272
-0.999103, 101, 161, 116, 288
-0.999109, 419, 145, 434, 272
-0.999117, 97, 113, 112, 240
-0.999125, 107, 161, 122, 288
-0.999125, 311, 33, 326, 160
-0.999129, 73, 145, 88, 272
-0.999133, 351, 97, 366, 224
-0.999133, 51, 161, 66, 288
-0.999134, 139, 81, 154, 208
-0.999136, 239, 97, 254, 224
-0.999136, 33, 65, 160, 96
-0.999141, 301, 145, 316, 272
-0.999142, 431, 177, 446, 304
-0.999151, 177, 265, 304, 296
-0.999153, 199, 97, 214, 224
-0.999157, 57, 177, 72, 304
-0.999158, 121, 161, 136, 288
-0.999159, 115, 161, 130, 288
-0.999166, 393, 129, 408, 256
-0.99917, 133, 161, 148, 288
-0.999174, 437, 193, 452, 320
-0.999177, 147, 97, 162, 224
-0.999179, 141, 193, 156, 320
-0.999181, 331, 49, 346, 176
-0.999181, 205, 97, 220, 224
-0.999187, 67, 145, 82, 272
-0.99919, 165, 113, 180, 240
-0.999192, 193, 97, 208, 224
-0.999195, 171, 113, 186, 240
-0.999199, 49, 17, 176, 48
-0.9992, 223, 113, 238, 240
-0.9992, 445, 113, 460, 240
-0.9992, 289, 65, 304, 192
-0.999205, 91, 209, 106, 333
-0.999207, 395, 81, 410, 208
-0.99921, 451, 161, 466, 288
-0.999215, 149, 193, 164, 320
-0.999218, 381, 209, 396, 333
-0.999218, 157, 97, 172, 224
-0.99923, 103, 113, 118, 240
-0.999234, 217, 81, 232, 208
-0.999249, 187, 97, 202, 224
-0.999254, 245, 97, 260, 224
-0.999258, 13, 129, 28, 256
-0.99926, 3, 97, 18, 224
-0.999261, 373, 193, 388, 320
-0.999264, 283, 65, 298, 192
-0.999269, 163, 193, 178, 320
-0.999272, 73, 65, 88, 192
-0.99928, 173, 193, 188, 320
-0.999283, 339, 49, 354, 176
-0.999289, 157, 193, 172, 320
-0.999292, 191, 193, 206, 320
-0.999292, 1, 25, 128, 56
-0.999293, 457, 161, 472, 288
-0.999294, 103, 209, 118, 333
-0.999294, 385, 129, 400, 256
-0.999294, 445, 65, 460, 192
-0.999296, 301, 33, 316, 160
-0.999296, 171, 65, 186, 192
-0.999297, 1, 209, 16, 333
-0.999298, 279, 161, 294, 288
-0.9993, 317, 33, 332, 160
-0.999302, 433, 65, 448, 192
-0.999303, 115, 81, 130, 208
-0.999311, 49, 289, 176, 320
-0.999321, 271, 113, 286, 240
-0.999321, 251, 97, 266, 224
-0.999323, 343, 145, 358, 272
-0.999324, 439, 145, 454, 272
-0.999324, 197, 193, 212, 320
-0.999329, 185, 193, 200, 320
-0.999329, 243, 145, 258, 272
-0.999331, 377, 49, 392, 176
-0.999332, 227, 65, 242, 192
-0.999333, 233, 161, 248, 288
-0.999335, 345, 49, 360, 176
-0.999335, 261, 65, 276, 192
-0.999339, 329, 145, 344, 272
-0.999341, 265, 113, 280, 240
-0.999343, 177, 241, 304, 272
-0.999344, 139, 129, 154, 256
-0.99935, 379, 161, 394, 288
-0.99935, 63, 193, 78, 320
-0.999351, 11, 81, 26, 208
-0.999353, 179, 193, 194, 320
-0.999355, 295, 145, 310, 272
-0.999356, 45, 161, 60, 288
-0.99937, 21, 97, 36, 224
-0.999371, 129, 69, 256, 100
-0.999383, 257, 237, 384, 268
-0.999435, 13, 65, 44, 320
-0.999462, 225, 33, 352, 64
-0.999467, 353, 61, 480, 92
-0.999486, 33, 41, 288, 104
-0.999492, 209, 13, 336, 44
-0.999512, 225, 1, 352, 32
-0.999524, 145, 221, 272, 252
-0.999572, 225, 289, 352, 320
-0.999582, 289, 25, 416, 56
-0.999656, 307, 93, 322, 108
-0.999656, 471, 167, 486, 182
-0.999656, 451, 215, 466, 230
-0.999657, 411, 131, 426, 146
-0.999657, 235, 109, 250, 124
-0.999657, 391, 117, 406, 132
-0.999657, 107, 119, 122, 134
-0.999658, 229, 107, 244, 122
-0.999658, 475, 153, 490, 168
-0.999658, 285, 161, 300, 176
-0.999659, 125, 109, 140, 124
-0.999659, 1, 139, 16, 154
-0.999659, 205, 89, 220, 104
-0.99966, 319, 179, 334, 194
-0.999661, 419, 135, 434, 150
-0.999661, 343, 167, 358, 182
-0.999662, 323, 173, 338, 188
-0.999663, 75, 197, 90, 212
-0.999663, 313, 163, 328, 178
-0.999663, 117, 155, 132, 170
-0.999665, 309, 105, 324, 120
-0.999665, 115, 163, 130, 178
-0.999666, 301, 89, 316, 104
-0.999666, 403, 255, 418, 270
-0.999666, 287, 95, 302, 110
-0.999666, 207, 171, 222, 186
-0.999667, 289, 103, 304, 118
-0.999668, 117, 171, 132, 186
-0.999668, 395, 107, 410, 122
-0.999669, 211, 105, 226, 120
-0.999669, 309, 147, 324, 162
-0.99967, 173, 117, 188, 132
-0.999672, 91, 173, 106, 188
-0.999672, 91, 159, 106, 174
-0.999673, 435, 129, 450, 144
-0.999675, 159, 171, 174, 186
-0.999676, 149, 171, 164, 186
-0.999676, 61, 259, 76, 274
-0.999676, 201, 171, 216, 186
-0.999677, 103, 167, 118, 182
-0.999677, 115, 111, 130, 126
-0.999681, 447, 195, 462, 210
-0.999682, 313, 153, 328, 168
-0.999682, 443, 221, 458, 236
-0.999683, 483, 119, 498, 134
-0.999683, 473, 201, 488, 216
-0.999684, 197, 91, 212, 106
-0.999684, 195, 171, 210, 186
-0.999685, 391, 129, 406, 144
-0.999686, 189, 171, 204, 186
-0.999686, 171, 171, 186, 186
-0.999687, 183, 171, 198, 186
-0.999687, 307, 159, 322, 174
-0.999688, 465, 167, 480, 182
-0.999688, 169, 103, 184, 118
-0.999689, 177, 171, 192, 186
-0.999689, 307, 167, 322, 182
-0.99969, 1, 53, 128, 84
-0.99969, 99, 271, 114, 286
-0.99969, 165, 171, 180, 186
-0.99969, 321, 149, 336, 164
-0.999691, 61, 29, 76, 44
-0.999691, 485, 145, 500, 160
-0.999692, 97, 113, 112, 128
-0.999692, 157, 109, 172, 124
-0.999693, 221, 109, 236, 124
-0.999693, 91, 113, 106, 128
-0.999696, 89, 125, 104, 140
-0.999696, 381, 271, 396, 286
-0.999696, 151, 111, 166, 126
-0.999697, 95, 123, 110, 138
-0.999698, 111, 147, 126, 162
-0.999699, 419, 241, 434, 256
-0.999699, 97, 157, 112, 172
-0.9997, 191, 93, 206, 108
-0.999701, 109, 165, 124, 180
-0.999701, 97, 147, 112, 162
-0.999701, 11, 137, 26, 152
-0.999701, 1, 239, 16, 254
-0.999701, 385, 111, 400, 126
-0.999702, 49, 53, 176, 84
-0.999704, 177, 101, 192, 116
-0.999704, 311, 181, 326, 196
-0.999706, 435, 205, 450, 220
-0.999706, 185, 95, 200, 110
-0.999706, 69, 195, 84, 210
-0.999708, 275, 103, 290, 118
-0.999708, 39, 191, 54, 206
-0.999711, 313, 95, 328, 110
-0.999711, 57, 11, 72, 26
-0.999712, 315, 147, 330, 162
-0.999713, 471, 139, 486, 154
-0.999714, 321, 135, 336, 150
-0.999715, 385, 125, 400, 140
-0.999717, 295, 159, 310, 174
-0.999717, 105, 143, 120, 158
-0.999718, 29, 249, 44, 264
-0.999719, 307, 153, 322, 168
-0.999719, 473, 147, 488, 162
-0.999721, 399, 131, 414, 146
-0.999722, 445, 119, 460, 134
-0.999723, 433, 231, 448, 246
-0.999726, 293, 97, 308, 112
-0.999726, 459, 115, 474, 130
-0.999731, 105, 173, 120, 188
-0.999731, 301, 179, 316, 194
-0.999732, 323, 157, 338, 172
-0.999735, 327, 139, 342, 154
-0.999735, 479, 147, 494, 162
-0.999739, 257, 41, 500, 104
-0.999739, 49, 189, 64, 204
-0.999741, 97, 165, 112, 180
-0.999742, 317, 173, 332, 188
-0.999745, 391, 123, 406, 138
-0.999745, 97, 171, 112, 186
-0.999748, 111, 175, 126, 190
-0.999748, 441, 199, 456, 214
-0.99975, 321, 167, 336, 182
-0.999752, 385, 117, 400, 132
-0.999757, 405, 127, 420, 142
-0.999758, 63, 193, 78, 208
-0.999764, 311, 173, 326, 188
-0.999767, 479, 141, 494, 156
-0.999768, 299, 153, 314, 168
-0.99977, 161, 9, 288, 40
-0.999776, 55, 191, 70, 206
-0.999779, 303, 103, 318, 118
-0.99978, 377, 119, 392, 134
-0.999781, 303, 147, 318, 162
-0.999788, 163, 107, 178, 122
-0.999788, 301, 169, 316, 184
-0.999788, 451, 117, 466, 132
-0.999789, 301, 159, 316, 174
-0.999795, 193, 221, 320, 252
-0.999816, 397, 125, 412, 140
-0.99983, 1, 17, 256, 80
-0.999851, 1, 37, 128, 68
-0.999851, 257, 225, 384, 256
-0.999887, 49, 29, 176, 60
-1, 273, 37, 400, 68
-1.00016, 129, 1, 384, 64
-1.00025, 97, 1, 224, 64
-1.0003, 209, 33, 336, 96
-1.00062, 425, 1, 488, 128
-1.0007, 225, 1, 480, 64
-1.00117, 129, 33, 384, 96
-1.00132, 113, 25, 240, 88
-1.00133, 321, 33, 448, 96
-1.00147, 1, 57, 500, 120
-1.00153, 1, 9, 500, 72
-1.00214, 97, 57, 224, 120
-1.00218, 1, 33, 500, 96
-1.00262, 97, 1, 224, 128
-1.00313, 161, 25, 288, 88
-1.0039, 209, 1, 272, 128
-1.00405, 169, 1, 232, 128
-1.00517, 145, 1, 272, 128
-1.00779, 113, 1, 176, 128
-1.00883, 233, 1, 296, 128
-1.01043, 145, 1, 208, 128
-1.01167, 337, 1, 400, 128
