1977
-0.286007, 1, 1, 500, 375
-0.296453, 129, 1, 384, 375
-0.310471, 1, 97, 500, 352
-0.458183, 129, 33, 384, 288
-0.506348, 1, 1, 500, 256
-0.510448, 33, 1, 288, 375
-0.548593, 1, 129, 256, 375
-0.589057, 225, 1, 480, 375
-0.625856, 161, 129, 416, 375
-0.719197, 257, 129, 500, 375
-0.741279, 33, 1, 288, 256
-0.796715, 225, 33, 480, 288
-0.83266, 209, 1, 336, 375
-0.842966, 161, 1, 288, 375
-0.847389, 225, 33, 352, 288
-0.84828, 1, 113, 500, 240
-0.851752, 49, 129, 176, 375
-0.852074, 145, 65, 272, 320
-0.865625, 257, 1, 384, 375
-0.869592, 81, 1, 208, 375
-0.877489, 1, 177, 500, 304
-0.886485, 273, 97, 400, 352
-0.889207, 129, 49, 384, 176
-0.891483, 97, 65, 224, 320
-0.895193, 193, 129, 320, 375
-0.895872, 1, 49, 500, 176
-0.89758, 161, 145, 416, 272
-0.899943, 1, 161, 256, 288
-0.902248, 1, 241, 500, 368
-0.90503, 1, 129, 128, 375
-0.915796, 129, 97, 384, 224
-0.916801, 33, 1, 160, 375
-0.919928, 321, 1, 448, 375
-0.921714, 33, 113, 288, 240
-0.923111, 49, 33, 176, 288
-0.92559, 321, 97, 448, 352
-0.926688, 33, 209, 288, 336
-0.926995, 225, 193, 480, 320
-0.929397, 209, 49, 336, 176
-0.931117, 129, 129, 256, 256
-0.932452, 33, 129, 160, 256
-0.932705, 145, 65, 272, 192
-0.934925, 257, 33, 320, 160
-0.935229, 161, 241, 416, 368
-0.935859, 273, 1, 400, 256
-0.937356, 257, 241, 500, 368
-0.937554, 49, 129, 112, 256
-0.938213, 241, 113, 368, 240
-0.940153, 81, 161, 208, 288
-0.940413, 81, 113, 208, 240
-0.940922, 225, 33, 288, 160
-0.941732, 153, 65, 216, 192
-0.943491, 297, 97, 360, 224
-0.944112, 177, 177, 304, 304
-0.944417, 401, 241, 464, 368
-0.94454, 129, 193, 384, 320
-0.94518, 145, 145, 208, 272
-0.945321, 1, 33, 128, 288
-0.945557, 33, 65, 288, 192
-0.945569, 33, 177, 160, 304
-0.945883, 337, 241, 464, 368
-0.946808, 201, 145, 264, 272
-0.948943, 321, 1, 448, 256
-0.94897, 305, 193, 432, 320
-0.949159, 57, 137, 120, 200
-0.949775, 25, 193, 88, 320
-0.950206, 225, 97, 480, 224
-0.950713, 257, 241, 384, 368
-0.950971, 1, 241, 128, 368
-0.951242, 185, 65, 248, 192
-0.952776, 161, 73, 224, 136
-0.953137, 81, 65, 208, 192
-0.955754, 177, 129, 304, 256
-0.956331, 369, 129, 496, 375
-0.956421, 129, 1, 384, 128
-0.957072, 265, 241, 328, 368
-0.957537, 257, 145, 500, 272
-0.958978, 49, 161, 112, 224
-0.959249, 201, 145, 264, 208
-0.959603, 17, 241, 80, 368
-0.959813, 297, 33, 360, 160
-0.959813, 233, 97, 296, 224
-0.959918, 241, 177, 304, 304
-0.959927, 137, 169, 200, 232
-0.960542, 145, 17, 272, 144
-0.960587, 257, 161, 384, 288
-0.961225, 401, 273, 464, 336
-0.961481, 369, 1, 496, 375
-0.961634, 169, 145, 232, 208
-0.961656, 177, 193, 240, 320
-0.961962, 401, 305, 464, 368
-0.962088, 225, 57, 288, 120
-0.962184, 273, 249, 336, 312
-0.96262, 297, 97, 360, 160
-0.962724, 249, 41, 312, 104
-0.962811, 377, 241, 440, 368
-0.962873, 169, 17, 232, 144
-0.963272, 113, 209, 240, 336
-0.963322, 345, 313, 408, 375
-0.963377, 33, 193, 96, 256
-0.963387, 169, 145, 232, 272
-0.963718, 225, 49, 480, 176
-0.965297, 209, 169, 272, 232
-0.9653, 193, 81, 256, 144
-0.965312, 17, 281, 80, 344
-0.965322, 265, 81, 328, 144
-0.965383, 353, 289, 416, 352
-0.966046, 193, 17, 256, 144
-0.966639, 313, 161, 376, 288
-0.966682, 33, 1, 288, 128
-0.966713, 73, 129, 136, 256
-0.966879, 25, 225, 88, 288
-0.966887, 209, 241, 336, 368
-0.966904, 273, 193, 336, 320
-0.966969, 297, 73, 360, 136
-0.966987, 161, 105, 224, 168
-0.967399, 257, 49, 384, 176
-0.967504, 321, 97, 384, 224
-0.967686, 201, 57, 264, 120
-0.968776, 209, 49, 336, 112
-0.968839, 225, 1, 288, 256
-0.968884, 369, 313, 432, 375
-0.969482, 145, 137, 208, 200
-0.969533, 161, 33, 224, 288
-0.969688, 49, 241, 176, 368
-0.969711, 209, 97, 272, 224
-0.96973, 289, 97, 416, 224
-0.969789, 1, 1, 500, 128
-0.969817, 145, 145, 272, 208
-0.969834, 73, 177, 136, 304
-0.970046, 25, 249, 88, 312
-0.970085, 337, 305, 464, 368
-0.97028, 145, 73, 272, 136
-0.970284, 321, 97, 384, 160
-0.970457, 225, 97, 288, 160
-0.970616, 305, 241, 368, 368
-0.970992, 161, 225, 288, 352
-0.971046, 49, 137, 176, 200
-0.971288, 297, 65, 360, 320
-0.971358, 113, 97, 176, 224
-0.971393, 337, 161, 400, 288
-0.971512, 177, 201, 240, 264
-0.971516, 193, 1, 320, 128
-0.971678, 265, 33, 328, 288
-0.971794, 257, 1, 500, 128
-0.971833, 329, 177, 392, 240
-0.971912, 33, 161, 160, 224
-0.971976, 113, 177, 176, 304
-0.972377, 153, 225, 216, 352
-0.97267, 161, 169, 224, 232
-0.972728, 201, 1, 264, 256
-0.97302, 297, 153, 360, 216
-0.973045, 33, 129, 96, 375
-0.973323, 89, 177, 152, 240
-0.973411, 265, 81, 328, 208
-0.973555, 297, 129, 360, 192
-0.973827, 241, 89, 368, 152
-0.97385, 305, 145, 432, 272
-0.973949, 9, 305, 72, 368
-0.974173, 425, 241, 488, 368
-0.974212, 77, 113, 108, 240
-0.974234, 49, 241, 112, 368
-0.974256, 377, 273, 440, 336
-0.974442, 25, 145, 88, 272
-0.974482, 33, 185, 160, 248
-0.974542, 369, 193, 432, 320
-0.974894, 337, 281, 464, 344
-0.97508, 193, 169, 224, 232
-0.975376, 113, 129, 176, 192
-0.975394, 241, 153, 304, 216
-0.975476, 81, 129, 112, 192
-0.975551, 137, 113, 200, 176
-0.975638, 145, 193, 208, 256
-0.975758, 185, 121, 248, 184
-0.97592, 177, 177, 304, 240
-0.976223, 325, 97, 356, 224
-0.97643, 241, 145, 368, 208
-0.976448, 185, 33, 248, 96
-0.976476, 153, 49, 216, 112
-0.976542, 153, 129, 216, 375
-0.976584, 57, 129, 120, 375
-0.97663, 49, 209, 176, 272
-0.976743, 209, 193, 272, 256
-0.97675, 65, 129, 96, 256
-0.976819, 325, 89, 356, 152
-0.976893, 289, 145, 352, 272
-0.97691, 97, 137, 224, 200
-0.977115, 241, 1, 368, 128
-0.977208, 97, 153, 160, 216
-0.977221, 65, 113, 192, 176
-0.977237, 145, 97, 272, 160
-0.977271, 233, 185, 296, 248
-0.977319, 81, 161, 208, 224
-0.977332, 137, 81, 200, 144
-0.977335, 257, 265, 384, 328
-0.977395, 145, 121, 272, 184
-0.977443, 253, 33, 284, 160
-0.977611, 197, 209, 228, 272
-0.977616, 145, 17, 208, 144
-0.977817, 201, 193, 264, 320
-0.977875, 273, 33, 304, 160
-0.97793, 81, 185, 208, 248
-0.978051, 157, 97, 188, 160
-0.978079, 425, 241, 456, 368
-0.978127, 353, 241, 416, 368
-0.978202, 201, 97, 264, 352
-0.97827, 145, 217, 208, 280
-0.978302, 357, 305, 388, 368
-0.978311, 161, 145, 192, 208
-0.97848, 129, 97, 192, 352
-0.9785, 229, 49, 260, 176
-0.978641, 153, 241, 216, 304
-0.978676, 181, 193, 212, 320
-0.978754, 265, 1, 328, 375
-0.978778, 329, 49, 392, 176
-0.978816, 273, 169, 400, 232
-0.978816, 217, 65, 248, 192
-0.97885, 229, 57, 260, 120
-0.979003, 433, 289, 464, 352
-0.979006, 321, 305, 384, 368
-0.979056, 257, 273, 320, 336
-0.979092, 273, 177, 336, 240
-0.979169, 161, 65, 192, 192
-0.979191, 285, 33, 316, 160
-0.979205, 225, 1, 288, 375
-0.979331, 185, 225, 216, 288
-0.979349, 197, 145, 228, 272
-0.979392, 265, 145, 328, 272
-0.97943, 21, 241, 52, 368
-0.979434, 129, 185, 256, 248
-0.97944, 297, 49, 360, 112
-0.979524, 53, 145, 84, 272
-0.979545, 153, 1, 216, 375
-0.979631, 273, 265, 304, 328
-0.97966, 89, 121, 152, 184
-0.980016, 149, 145, 180, 272
-0.98006, 73, 201, 136, 264
-0.980066, 321, 49, 448, 176
-0.980146, 329, 121, 392, 184
-0.980272, 241, 33, 272, 160
-0.980359, 413, 241, 444, 368
-0.980411, 49, 193, 112, 320
-0.980441, 337, 97, 464, 224
-0.980505, 1, 281, 128, 344
-0.980563, 213, 129, 244, 256
-0.980648, 209, 89, 240, 152
-0.980679, 181, 201, 212, 264
-0.980825, 337, 81, 368, 208
-0.980895, 425, 289, 488, 352
-0.980919, 369, 33, 496, 288
-0.980942, 49, 305, 80, 368
-0.980968, 33, 313, 96, 375
-0.980975, 213, 137, 244, 200
-0.980981, 113, 89, 176, 152
-0.981095, 185, 177, 248, 240
-0.981265, 289, 297, 416, 360
-0.981497, 193, 201, 320, 264
-0.98155, 165, 73, 196, 136
-0.981561, 1, 225, 128, 288
-0.98177, 201, 1, 264, 375
-0.981822, 297, 257, 360, 320
-0.981907, 197, 193, 228, 320
-0.981957, 65, 17, 192, 144
-0.982028, 257, 65, 384, 128
-0.982033, 285, 241, 316, 368
-0.982044, 241, 241, 304, 368
-0.982065, 161, 49, 288, 112
-0.982067, 185, 49, 216, 176
-0.982166, 281, 281, 344, 344
-0.982217, 41, 177, 72, 304
-0.982345, 241, 297, 368, 360
-0.982363, 289, 209, 352, 272
-0.982439, 177, 145, 208, 272
-0.982507, 337, 97, 368, 160
-0.9826, 241, 121, 368, 184
-0.982662, 1, 137, 128, 200
-0.982677, 225, 177, 352, 240
-0.982691, 193, 145, 320, 208
-0.982691, 145, 177, 176, 240
-0.982716, 65, 233, 128, 296
-0.982738, 1, 257, 128, 320
-0.982808, 197, 81, 228, 144
-0.982816, 193, 89, 320, 152
-0.982895, 57, 81, 120, 208
-0.982941, 177, 225, 240, 288
-0.983073, 197, 65, 228, 192
-0.983106, 225, 129, 288, 375
-0.983194, 193, 281, 320, 344
-0.983279, 333, 145, 364, 272
-0.983312, 225, 121, 288, 184
-0.983337, 177, 225, 304, 288
-0.983377, 69, 129, 100, 192
-0.983387, 121, 217, 184, 280
-0.983416, 401, 249, 464, 312
-0.983419, 129, 209, 256, 272
-0.983419, 401, 241, 432, 368
-0.98352, 129, 225, 192, 352
-0.983534, 185, 65, 216, 128
-0.983578, 229, 145, 260, 272
-0.983634, 217, 65, 248, 128
-0.983655, 57, 145, 88, 208
-0.983662, 57, 257, 120, 320
-0.983834, 249, 241, 312, 304
-0.983918, 289, 193, 416, 256
-0.983949, 165, 145, 196, 272
-0.983953, 289, 1, 416, 128
-0.984005, 97, 81, 224, 144
-0.984059, 273, 57, 336, 120
-0.984097, 309, 193, 340, 320
-0.984151, 329, 129, 392, 375
-0.984163, 65, 225, 96, 352
-0.984251, 221, 89, 252, 152
-0.984309, 281, 41, 312, 104
-0.984329, 233, 265, 296, 328
-0.984371, 185, 137, 216, 200
-0.984414, 81, 177, 112, 304
-0.984462, 313, 281, 376, 344
-0.984498, 197, 113, 228, 176
-0.984581, 333, 161, 364, 224
-0.984593, 409, 273, 440, 336
-0.984619, 321, 153, 384, 216
-0.984646, 325, 121, 356, 184
-0.984649, 89, 129, 120, 256
-0.984681, 65, 233, 192, 296
-0.984691, 113, 233, 240, 296
-0.984696, 137, 177, 168, 304
-0.984732, 425, 313, 488, 375
-0.984747, 309, 249, 340, 312
-0.984783, 425, 249, 488, 312
-0.984805, 297, 241, 328, 368
-0.984809, 269, 41, 300, 104
-0.984881, 225, 33, 288, 96
-0.984933, 205, 17, 236, 144
-0.984954, 1, 81, 128, 208
-0.984968, 201, 57, 232, 120
-0.98504, 181, 1, 212, 128
-0.985047, 113, 177, 176, 240
-0.985099, 257, 41, 288, 104
-0.98511, 397, 305, 428, 368
-0.98521, 433, 313, 464, 375
-0.985287, 193, 257, 320, 320
-0.985315, 409, 305, 440, 368
-0.985321, 321, 113, 448, 176
-0.985333, 373, 289, 404, 352
-0.985335, 285, 265, 316, 328
-0.985372, 177, 1, 240, 375
-0.985414, 313, 105, 344, 168
-0.985416, 377, 313, 408, 375
-0.985429, 113, 49, 176, 176
-0.985519, 257, 209, 320, 272
-0.985612, 29, 193, 60, 320
-0.985613, 241, 201, 368, 264
-0.985662, 289, 1, 352, 375
-0.985749, 1, 313, 128, 375
-0.985749, 241, 49, 272, 112
-0.985797, 201, 145, 232, 208
-0.985804, 265, 105, 328, 168
-0.985838, 285, 241, 316, 304
-0.985854, 265, 129, 328, 375
-0.986054, 317, 49, 348, 176
-0.986074, 257, 177, 288, 304
-0.986096, 261, 89, 292, 152
-0.986169, 321, 257, 384, 320
-0.986201, 145, 25, 272, 88
-0.986264, 173, 65, 204, 192
-0.986334, 145, 145, 176, 208
-0.986483, 81, 97, 144, 352
-0.98651, 393, 281, 424, 344
-0.986647, 297, 257, 328, 320
-0.98667, 49, 169, 80, 232
-0.986706, 313, 97, 344, 224
-0.986713, 241, 161, 272, 288
-0.986823, 169, 169, 200, 232
-0.986854, 57, 313, 120, 375
-0.986881, 245, 153, 276, 216
-0.986896, 241, 241, 368, 304
-0.986976, 305, 257, 432, 320
-0.987116, 129, 97, 384, 160
-0.987122, 157, 241, 188, 304
-0.987134, 81, 193, 112, 256
-0.98717, 421, 305, 452, 368
-0.987211, 349, 169, 380, 232
-0.987231, 145, 81, 176, 208
-0.987233, 129, 57, 384, 120
-0.987344, 177, 129, 240, 375
-0.987367, 161, 121, 192, 184
-0.987403, 129, 241, 192, 304
-0.987419, 321, 169, 448, 232
-0.987419, 49, 257, 176, 320
-0.987534, 421, 281, 452, 344
-0.987536, 209, 193, 240, 256
-0.987615, 353, 193, 480, 320
-0.987615, 249, 17, 312, 80
-0.987623, 173, 225, 204, 288
-0.987707, 169, 209, 200, 336
-0.987756, 129, 1, 192, 375
-0.987768, 225, 161, 256, 224
-0.987797, 345, 313, 376, 375
-0.987902, 1, 193, 64, 320
-0.987939, 289, 89, 416, 152
-0.988074, 329, 241, 392, 368
-0.988108, 245, 97, 276, 224
-0.98814, 209, 25, 336, 88
-0.988166, 17, 281, 48, 344
-0.988178, 1, 257, 64, 320
-0.98824, 305, 33, 336, 160
-0.988297, 49, 33, 112, 288
-0.98834, 193, 121, 320, 184
-0.98836, 209, 113, 240, 176
-0.988379, 145, 121, 176, 184
-0.988422, 309, 241, 340, 368
-0.988453, 389, 241, 420, 368
-0.988472, 337, 73, 400, 136
-0.988482, 169, 17, 200, 144
-0.988556, 361, 201, 424, 264
-0.988624, 161, 153, 416, 216
-0.9887, 221, 113, 252, 176
-0.988707, 201, 217, 264, 280
-0.988776, 297, 193, 328, 320
-0.988783, 101, 97, 132, 224
-0.988786, 245, 185, 276, 248
-0.988791, 185, 41, 216, 104
-0.988848, 41, 193, 72, 256
-0.988853, 153, 73, 184, 136
-0.988875, 53, 241, 84, 368
-0.988879, 93, 177, 124, 240
-0.988931, 297, 97, 360, 128
-0.988935, 57, 149, 120, 180
-0.988939, 73, 217, 104, 280
-0.988958, 321, 137, 448, 200
-0.989145, 89, 81, 152, 208
-0.989172, 161, 77, 224, 108
-0.989186, 161, 17, 224, 80
-0.989186, 1, 193, 256, 256
-0.989233, 25, 257, 56, 320
-0.989307, 1, 169, 256, 232
-0.989333, 273, 241, 304, 368
-0.989417, 169, 41, 200, 104
-0.98942, 157, 17, 188, 144
-0.989445, 281, 193, 312, 320
-0.989492, 241, 89, 272, 152
-0.989529, 257, 97, 288, 224
-0.989529, 261, 265, 292, 328
-0.98955, 273, 33, 336, 96
-0.989562, 345, 325, 408, 356
-0.989575, 321, 193, 352, 320
-0.989612, 137, 1, 200, 256
-0.989627, 57, 137, 120, 168
-0.989638, 49, 313, 176, 375
-0.989654, 1, 145, 256, 208
-0.989664, 129, 185, 160, 248
-0.989686, 353, 257, 480, 320
-0.989694, 113, 49, 240, 112
-0.989697, 33, 225, 64, 288
-0.98972, 345, 161, 376, 288
-0.989746, 9, 185, 72, 248
-0.989777, 201, 157, 264, 188
-0.989795, 293, 89, 324, 152
-0.989846, 181, 169, 212, 232
-0.989873, 173, 137, 204, 200
-0.989891, 81, 1, 144, 375
-0.989893, 1, 177, 500, 240
-0.989917, 209, 185, 272, 216
-0.989948, 249, 49, 312, 80
-0.989953, 1, 209, 64, 272
-0.989966, 257, 297, 320, 360
-0.989974, 305, 177, 368, 240
-0.989974, 49, 281, 112, 344
-0.989984, 401, 309, 464, 340
-0.990002, 229, 97, 260, 224
-0.99001, 269, 177, 300, 304
-0.990021, 265, 97, 328, 128
-0.99003, 49, 173, 112, 204
-0.99005, 105, 65, 168, 320
-0.990051, 57, 113, 120, 176
-0.990063, 193, 97, 256, 128
-0.99007, 101, 153, 132, 216
-0.990099, 81, 153, 112, 216
-0.990105, 289, 41, 416, 104
-0.990111, 57, 161, 120, 192
-0.990112, 25, 245, 88, 276
-0.990155, 429, 257, 460, 320
-0.990157, 153, 149, 216, 180
-0.99016, 17, 161, 80, 224
-0.990161, 145, 225, 176, 288
-0.990195, 145, 225, 208, 256
-0.990226, 321, 233, 448, 296
-0.990268, 17, 277, 80, 308
-0.990286, 273, 281, 336, 312
-0.990324, 193, 1, 224, 128
-0.99034, 33, 213, 96, 244
-0.990345, 17, 129, 80, 192
-0.990358, 101, 121, 132, 184
-0.990386, 145, 105, 208, 136
-0.990429, 301, 97, 332, 224
-0.990441, 305, 109, 368, 140
-0.990456, 293, 49, 324, 112
-0.990482, 169, 177, 232, 208
-0.990509, 337, 33, 400, 288
-0.99051, 65, 57, 192, 120
-0.990534, 145, 161, 208, 192
-0.990548, 257, 269, 320, 300
-0.990549, 129, 49, 192, 112
-0.990556, 41, 189, 104, 220
-0.990598, 273, 257, 336, 288
-0.990646, 193, 145, 256, 176
-0.990659, 297, 85, 360, 116
-0.99066, 25, 233, 88, 264
-0.990662, 137, 181, 200, 212
-0.990671, 65, 241, 96, 304
-0.990675, 1, 129, 64, 256
-0.990693, 393, 281, 456, 312
-0.99071, 9, 297, 72, 328
-0.990743, 309, 73, 340, 136
-0.990759, 17, 265, 80, 296
-0.990773, 225, 93, 288, 124
-0.990794, 401, 193, 464, 320
-0.990798, 185, 65, 248, 96
-0.990812, 41, 201, 104, 232
-0.990823, 177, 209, 240, 240
-0.990838, 153, 117, 216, 148
-0.990851, 225, 53, 288, 84
-0.990872, 161, 201, 416, 264
-0.990889, 285, 289, 316, 352
-0.990901, 217, 241, 280, 368
-0.990919, 149, 225, 180, 352
-0.990988, 337, 189, 400, 220
-0.990993, 297, 121, 360, 152
-0.990995, 265, 85, 328, 116
-0.991, 161, 89, 224, 120
-0.991003, 97, 177, 352, 240
-0.991025, 1, 129, 500, 192
-0.991027, 273, 241, 304, 304
-0.991039, 225, 105, 288, 136
-0.991066, 61, 265, 92, 328
-0.991077, 169, 161, 232, 192
-0.991077, 353, 301, 416, 332
-0.991078, 241, 25, 272, 88
-0.991087, 201, 169, 264, 200
-0.991093, 97, 177, 160, 208
-0.991102, 169, 233, 232, 264
-0.991112, 305, 169, 368, 200
-0.991144, 321, 97, 384, 128
-0.991155, 401, 297, 464, 328
-0.991173, 129, 121, 384, 184
-0.991185, 437, 241, 468, 368
-0.991209, 321, 145, 352, 272
-0.991244, 185, 85, 248, 116
-0.991247, 185, 109, 248, 140
-0.991253, 229, 1, 260, 128
-0.991263, 25, 345, 88, 375
-0.991358, 9, 309, 72, 340
-0.991377, 49, 281, 80, 344
-0.99139, 233, 193, 296, 224
-0.991408, 369, 317, 432, 348
-0.991408, 257, 185, 288, 248
-0.991441, 145, 241, 208, 272
-0.991461, 273, 293, 336, 324
-0.99148, 97, 157, 160, 188
-0.991515, 33, 217, 288, 280
-0.99152, 89, 189, 152, 220
-0.991537, 169, 137, 232, 168
-0.991548, 321, 337, 384, 368
-0.991571, 257, 273, 500, 336
-0.991574, 241, 293, 304, 324
-0.991579, 233, 173, 296, 204
-0.991597, 177, 197, 240, 228
-0.99161, 281, 109, 344, 140
-0.991616, 321, 257, 352, 320
-0.99162, 313, 1, 376, 375
-0.991632, 297, 257, 360, 288
-0.991636, 25, 65, 88, 192
-0.991651, 185, 53, 248, 84
-0.991652, 1, 341, 64, 372
-0.991655, 33, 333, 96, 364
-0.991658, 209, 177, 240, 304
-0.991666, 297, 153, 360, 184
-0.991672, 377, 241, 408, 368
-0.991684, 225, 149, 288, 180
-0.991704, 273, 193, 336, 224
-0.991711, 113, 125, 176, 156
-0.991717, 137, 213, 200, 244
-0.991719, 329, 121, 392, 152
-0.991719, 337, 121, 368, 184
-0.991738, 133, 209, 164, 272
-0.991803, 329, 109, 392, 140
-0.991812, 161, 65, 224, 96
-0.991822, 385, 193, 416, 320
-0.991828, 1, 201, 500, 264
-0.991837, 105, 1, 168, 375
-0.99185, 217, 9, 280, 72
-0.991853, 89, 129, 152, 160
-0.991868, 201, 197, 264, 228
-0.991877, 241, 281, 304, 312
-0.991889, 49, 1, 112, 375
-0.991895, 145, 133, 208, 164
-0.991901, 1, 329, 64, 360
-0.991905, 297, 73, 360, 104
-0.99191, 137, 201, 200, 232
-0.991915, 1, 153, 500, 216
-0.991921, 217, 81, 280, 112
-0.991921, 121, 101, 184, 132
-0.991963, 313, 293, 376, 324
-0.991979, 121, 165, 184, 196
-0.991981, 289, 133, 352, 164
-0.992007, 353, 241, 384, 368
-0.992013, 345, 337, 408, 368
-0.992015, 401, 333, 464, 364
-0.992018, 281, 269, 344, 300
-0.992031, 81, 201, 144, 232
-0.992044, 369, 289, 432, 320
-0.992096, 73, 213, 136, 244
-0.992099, 241, 161, 304, 192
-0.992119, 185, 97, 216, 160
-0.99214, 445, 297, 476, 360
-0.992156, 225, 137, 288, 168
-0.992163, 177, 221, 240, 252
-0.992193, 193, 297, 448, 360
-0.992202, 217, 65, 280, 96
-0.992207, 89, 141, 152, 172
-0.99221, 265, 73, 328, 104
-0.992215, 297, 61, 360, 92
-0.992229, 121, 233, 184, 264
-0.99223, 249, 37, 312, 68
-0.992236, 209, 41, 272, 72
-0.992237, 105, 221, 168, 252
-0.992244, 113, 113, 176, 144
-0.992246, 161, 209, 192, 272
-0.992267, 337, 313, 400, 344
-0.992275, 13, 305, 44, 368
-0.992291, 297, 281, 328, 344
-0.992299, 225, 137, 256, 200
-0.99232, 409, 321, 472, 352
-0.992323, 137, 77, 200, 108
-0.99234, 329, 177, 392, 208
-0.992343, 329, 97, 360, 128
-0.992353, 233, 269, 296, 300
-0.99236, 425, 297, 488, 328
-0.992368, 121, 137, 184, 168
-0.992376, 345, 113, 408, 240
-0.9924, 257, 61, 320, 92
-0.992402, 305, 305, 368, 336
-0.992406, 33, 321, 96, 352
-0.992419, 193, 305, 320, 368
-0.992433, 449, 241, 480, 368
-0.992455, 57, 261, 120, 292
-0.992461, 313, 321, 376, 352
-0.992463, 77, 133, 108, 164
-0.992472, 61, 313, 92, 375
-0.992481, 257, 109, 320, 140
-0.99251, 65, 241, 128, 272
-0.99251, 105, 201, 168, 232
-0.992511, 129, 89, 192, 120
-0.992525, 249, 253, 312, 284
-0.992526, 305, 201, 368, 232
-0.992537, 425, 193, 488, 320
-0.992541, 73, 225, 136, 256
-0.992548, 289, 49, 352, 80
-0.992605, 385, 225, 448, 288
-0.992612, 169, 97, 200, 160
-0.992618, 189, 213, 220, 244
-0.992621, 161, 165, 192, 196
-0.992626, 185, 225, 216, 256
-0.992636, 217, 17, 248, 144
-0.992651, 25, 1, 88, 375
-0.992692, 353, 145, 416, 208
-0.992722, 353, 333, 384, 364
-0.992738, 193, 181, 224, 212
-0.992744, 213, 97, 244, 128
-0.992744, 185, 237, 216, 268
-0.992753, 213, 145, 244, 176
-0.99276, 189, 201, 220, 232
-0.992766, 49, 281, 176, 344
-0.992768, 145, 257, 272, 320
-0.992791, 157, 105, 188, 136
-0.992793, 49, 89, 176, 152
-0.992814, 317, 113, 348, 144
-0.992818, 1, 105, 500, 168
-0.992837, 1, 233, 64, 296
-0.992842, 237, 129, 268, 192
-0.992844, 309, 93, 340, 124
-0.992847, 433, 317, 464, 348
-0.992849, 281, 177, 312, 240
-0.99286, 229, 57, 260, 88
-0.992864, 173, 233, 204, 264
-0.992873, 145, 185, 176, 216
-0.992899, 165, 77, 196, 108
-0.992916, 157, 117, 188, 148
-0.992922, 209, 73, 240, 104
-0.992926, 49, 313, 80, 344
-0.992931, 125, 161, 156, 288
-0.992932, 181, 69, 212, 100
-0.992941, 37, 345, 68, 375
-0.992942, 433, 297, 464, 328
-0.992956, 285, 249, 316, 280
-0.992961, 309, 257, 340, 288
-0.992966, 197, 225, 228, 256
-0.99297, 225, 97, 256, 128
-0.992976, 185, 165, 216, 196
-0.99299, 289, 289, 320, 320
-0.992995, 177, 153, 208, 184
-0.992997, 329, 109, 360, 140
-0.993011, 289, 265, 320, 296
-0.993018, 349, 177, 380, 208
-0.993023, 201, 89, 232, 120
-0.993027, 201, 213, 232, 244
-0.993029, 193, 177, 448, 240
-0.99303, 65, 145, 96, 176
-0.993044, 257, 45, 288, 76
-0.993044, 217, 85, 248, 116
-0.993055, 241, 97, 272, 128
-0.993056, 269, 277, 300, 308
-0.99306, 165, 145, 196, 176
-0.993069, 173, 177, 204, 208
-0.99307, 373, 325, 404, 356
-0.993077, 429, 285, 460, 316
-0.993085, 41, 329, 72, 360
-0.993088, 289, 89, 320, 120
-0.993089, 297, 209, 328, 272
-0.99309, 301, 277, 332, 308
-0.993092, 149, 157, 180, 188
-0.993106, 245, 53, 276, 84
-0.993107, 57, 161, 88, 192
-0.993111, 173, 245, 204, 276
-0.993119, 337, 169, 368, 200
-0.993121, 353, 313, 384, 344
-0.993125, 269, 45, 300, 76
-0.993133, 193, 141, 224, 172
-0.993133, 189, 105, 220, 136
-0.993137, 201, 101, 232, 132
-0.99315, 241, 153, 272, 184
-0.993155, 197, 165, 228, 196
-0.993158, 141, 173, 172, 204
-0.99316, 173, 221, 204, 252
-0.99316, 277, 265, 308, 296
-0.993161, 213, 197, 244, 228
-0.993162, 369, 145, 496, 272
-0.993162, 281, 45, 312, 76
-0.993177, 329, 157, 360, 188
-0.993178, 397, 313, 428, 344
-0.993181, 165, 129, 196, 160
-0.993182, 101, 177, 132, 208
-0.993184, 385, 317, 416, 348
-0.993185, 321, 125, 352, 156
-0.993186, 145, 233, 176, 264
-0.993192, 253, 93, 284, 124
-0.993199, 177, 109, 208, 140
-0.993203, 53, 173, 84, 204
-0.993204, 93, 193, 124, 224
-0.993205, 149, 141, 180, 172
-0.993206, 53, 333, 84, 364
-0.993208, 1, 113, 128, 176
-0.993209, 201, 153, 232, 184
-0.993211, 257, 197, 288, 228
-0.993212, 221, 109, 252, 140
-0.993215, 17, 293, 48, 324
-0.993222, 157, 241, 188, 272
-0.99323, 337, 121, 368, 152
-0.993232, 49, 345, 80, 375
-0.993233, 201, 193, 232, 224
-0.993239, 261, 289, 292, 320
-0.993245, 297, 25, 360, 88
-0.99325, 341, 341, 372, 372
-0.993262, 145, 129, 176, 160
-0.993264, 233, 141, 264, 172
-0.993268, 189, 85, 220, 116
-0.99327, 201, 61, 232, 92
-0.993271, 305, 105, 336, 136
-0.993273, 45, 189, 76, 220
-0.993278, 325, 145, 356, 176
-0.993284, 157, 225, 188, 256
-0.993295, 101, 141, 132, 172
-0.993296, 145, 93, 176, 124
-0.993299, 21, 281, 52, 312
-0.9933, 277, 289, 308, 320
-0.993303, 157, 169, 188, 232
-0.993305, 137, 117, 168, 148
-0.993307, 133, 225, 164, 256
-0.993309, 33, 121, 288, 184
-0.993309, 297, 253, 328, 284
-0.993309, 81, 145, 112, 176
-0.993311, 245, 165, 276, 196
-0.993311, 173, 165, 204, 196
-0.993314, 289, 277, 320, 308
-0.993315, 157, 89, 188, 120
-0.993317, 129, 213, 160, 244
-0.993318, 325, 201, 356, 232
-0.993323, 245, 193, 276, 224
-0.993328, 345, 101, 376, 132
-0.993329, 265, 93, 296, 124
-0.993331, 217, 133, 248, 164
-0.993335, 225, 161, 256, 192
-0.993343, 225, 69, 256, 100
-0.993357, 41, 205, 72, 236
-0.993357, 417, 309, 448, 340
-0.993357, 289, 57, 320, 88
-0.993361, 101, 161, 132, 192
-0.993363, 301, 301, 332, 332
-0.993365, 361, 301, 392, 332
-0.993369, 261, 105, 292, 136
-0.99337, 217, 185, 248, 216
-0.99337, 233, 181, 264, 212
-0.993372, 37, 217, 68, 248
-0.993375, 257, 273, 288, 304
-0.993376, 257, 185, 288, 216
-0.993378, 177, 197, 208, 228
-0.993402, 225, 249, 480, 312
-0.993418, 413, 241, 444, 304
-0.993473, 265, 289, 296, 352
-0.993483, 261, 65, 292, 128
-0.99349, 33, 177, 160, 208
-0.993491, 145, 81, 272, 112
-0.993511, 101, 145, 132, 272
-0.993515, 205, 33, 236, 96
-0.993627, 273, 17, 400, 80
-0.993698, 181, 241, 212, 368
-0.993711, 209, 57, 336, 88
-0.993749, 49, 149, 176, 180
-0.993805, 33, 105, 96, 168
-0.993809, 129, 241, 384, 304
-0.993827, 309, 273, 340, 336
-0.993919, 369, 233, 496, 296
-0.993986, 445, 249, 476, 312
-0.994013, 33, 193, 160, 224
-0.994013, 145, 153, 272, 184
-0.994014, 1, 73, 500, 136
-0.994021, 337, 313, 464, 344
-0.994037, 1, 289, 500, 352
-0.994094, 65, 137, 192, 168
-0.994114, 337, 89, 352, 152
-0.994162, 321, 241, 352, 368
-0.994199, 37, 313, 68, 375
-0.994213, 377, 249, 440, 312
-0.994262, 225, 233, 288, 296
-0.994269, 313, 201, 376, 264
-0.994287, 253, 17, 284, 80
-0.994372, 1, 313, 500, 375
-0.994428, 325, 201, 356, 264
-0.994472, 209, 73, 336, 104
-0.994476, 201, 257, 264, 320
-0.994496, 309, 209, 340, 272
-0.994534, 161, 273, 416, 336
-0.994537, 225, 73, 480, 136
-0.994546, 33, 73, 288, 136
-0.994567, 33, 165, 160, 196
-0.99458, 257, 209, 500, 272
-0.994625, 33, 241, 288, 304
-0.994627, 269, 177, 300, 240
-0.994633, 97, 201, 160, 264
-0.994643, 269, 17, 300, 80
-0.994646, 33, 205, 160, 236
-0.994673, 65, 225, 192, 256
-0.994673, 297, 233, 360, 296
-0.994706, 225, 49, 480, 112
-0.994718, 281, 17, 312, 80
-0.994751, 293, 177, 324, 240
-0.994761, 405, 193, 436, 320
-0.994762, 81, 185, 208, 216
-0.994782, 233, 185, 264, 248
-0.99479, 209, 85, 336, 116
-0.994801, 353, 293, 480, 324
-0.994846, 81, 161, 208, 192
-0.994873, 129, 33, 384, 96
-0.99488, 337, 185, 368, 248
-0.9949, 65, 125, 192, 156
-0.994909, 337, 1, 400, 375
-0.994914, 305, 65, 432, 128
-0.994919, 257, 161, 288, 224
-0.99496, 285, 217, 316, 280
-0.994979, 345, 73, 376, 136
-0.995, 249, 249, 280, 312
-0.995032, 349, 97, 380, 224
-0.995035, 173, 249, 204, 312
-0.995082, 337, 325, 464, 356
-0.995102, 329, 97, 344, 160
-0.995109, 137, 25, 200, 88
-0.995113, 445, 289, 460, 352
-0.995127, 145, 93, 272, 124
-0.995135, 357, 313, 372, 375
-0.995156, 343, 97, 358, 160
-0.995159, 249, 129, 312, 192
-0.99516, 145, 113, 272, 144
-0.995164, 161, 81, 176, 144
-0.995177, 97, 149, 224, 180
-0.995193, 33, 265, 288, 328
-0.995249, 81, 173, 208, 204
-0.995263, 241, 97, 368, 128
-0.99527, 89, 97, 152, 160
-0.995286, 177, 249, 240, 312
-0.995288, 145, 141, 272, 172
-0.995337, 261, 241, 292, 368
-0.995339, 129, 165, 256, 196
-0.995359, 353, 281, 480, 312
-0.99536, 161, 177, 288, 208
-0.995373, 189, 201, 204, 264
-0.995389, 177, 197, 304, 228
-0.995419, 233, 289, 296, 352
-0.995419, 225, 121, 480, 184
-0.995453, 205, 169, 220, 232
-0.995482, 17, 225, 144, 256
-0.995494, 207, 81, 222, 144
-0.995515, 93, 129, 108, 192
-0.995527, 209, 45, 336, 76
-0.995531, 33, 241, 64, 368
-0.995535, 113, 209, 240, 240
-0.995545, 269, 113, 300, 240
-0.99558, 65, 33, 192, 96
-0.995587, 195, 193, 210, 256
-0.995613, 345, 161, 360, 224
-0.995615, 1, 265, 500, 328
-0.995624, 231, 57, 246, 120
-0.995635, 273, 185, 400, 216
-0.995639, 289, 265, 304, 328
-0.99564, 113, 281, 240, 344
-0.995651, 353, 337, 480, 368
-0.99567, 165, 145, 180, 208
-0.995682, 167, 73, 182, 136
-0.995723, 365, 241, 396, 368
-0.995733, 241, 269, 368, 300
-0.995764, 223, 73, 238, 136
-0.99579, 1, 285, 128, 316
-0.995794, 291, 241, 306, 304
-0.995844, 377, 129, 440, 375
-0.995848, 363, 305, 378, 368
-0.995856, 145, 69, 272, 100
-0.995873, 297, 305, 360, 368
-0.995882, 279, 265, 294, 328
-0.995886, 185, 225, 200, 288
-0.995888, 313, 257, 328, 320
-0.995899, 241, 281, 368, 312
-0.995923, 293, 145, 324, 272
-0.995926, 197, 225, 212, 288
-0.995965, 159, 129, 174, 192
-0.995965, 211, 153, 226, 216
-0.995974, 257, 85, 384, 116
-0.995997, 231, 97, 246, 160
-0.996, 201, 289, 264, 352
-0.996005, 201, 81, 216, 144
-0.996011, 257, 173, 384, 204
-0.996021, 369, 169, 496, 232
-0.996044, 339, 121, 354, 184
-0.996045, 17, 237, 144, 268
-0.996051, 81, 65, 112, 192
-0.99606, 71, 137, 86, 200
-0.996072, 81, 197, 208, 228
-0.996072, 185, 169, 200, 232
-0.996075, 81, 17, 144, 80
-0.996077, 237, 33, 268, 288
-0.996092, 193, 281, 320, 312
-0.996093, 215, 185, 230, 248
-0.996098, 33, 97, 288, 160
-0.996104, 129, 221, 256, 252
-0.996122, 445, 313, 460, 375
-0.996125, 271, 41, 286, 104
-0.996128, 77, 97, 108, 352
-0.996147, 241, 145, 368, 176
-0.996148, 395, 313, 410, 375
-0.99616, 65, 145, 80, 208
-0.996171, 1, 257, 128, 288
-0.996182, 193, 157, 320, 188
-0.996183, 153, 281, 216, 344
-0.996184, 79, 129, 94, 192
-0.996196, 55, 161, 70, 224
-0.996215, 289, 329, 416, 360
-0.996216, 289, 197, 416, 228
-0.996222, 221, 105, 236, 168
-0.996228, 97, 9, 224, 72
-0.996237, 61, 305, 76, 368
-0.996241, 265, 153, 328, 216
-0.996253, 173, 1, 204, 256
-0.996253, 173, 73, 188, 136
-0.996261, 149, 185, 164, 248
-0.996316, 237, 161, 252, 224
-0.996319, 369, 305, 384, 368
-0.996346, 411, 305, 426, 368
-0.996366, 1, 273, 128, 304
-0.996369, 193, 97, 320, 128
-0.996376, 53, 129, 84, 375
-0.996387, 145, 125, 272, 156
-0.996397, 49, 177, 64, 240
-0.996403, 209, 201, 224, 264
-0.996428, 205, 57, 220, 120
-0.996447, 81, 217, 96, 280
-0.996448, 289, 97, 416, 128
-0.996449, 195, 65, 210, 128
-0.996454, 225, 193, 352, 224
-0.996463, 281, 145, 312, 272
-0.996471, 241, 109, 368, 140
-0.996471, 323, 249, 338, 312
-0.996474, 91, 193, 106, 256
-0.996474, 333, 193, 364, 320
-0.996482, 125, 113, 156, 240
-0.996484, 241, 257, 368, 288
-0.996485, 67, 313, 82, 375
-0.99649, 285, 41, 300, 104
-0.996495, 177, 145, 192, 208
-0.996495, 353, 169, 368, 232
-0.9965, 289, 81, 320, 208
-0.996501, 161, 97, 192, 352
-0.996512, 305, 145, 336, 272
-0.996517, 57, 81, 88, 208
-0.996523, 267, 89, 282, 152
-0.996528, 249, 1, 280, 256
-0.996541, 177, 209, 304, 240
-0.996543, 237, 49, 252, 112
-0.996549, 221, 1, 252, 256
-0.996558, 159, 153, 174, 216
-0.996571, 271, 265, 286, 328
-0.996572, 353, 177, 416, 240
-0.996576, 193, 1, 320, 64
-0.996576, 177, 225, 304, 256
-0.996579, 65, 237, 192, 268
-0.996581, 245, 225, 276, 352
-0.996585, 241, 133, 368, 164
-0.996588, 1, 145, 128, 176
-0.996595, 241, 161, 368, 192
-0.996602, 193, 145, 208, 208
-0.996607, 163, 105, 178, 168
-0.996608, 301, 265, 316, 328
-0.996633, 105, 1, 168, 128
-0.996638, 215, 97, 230, 160
-0.99664, 203, 217, 218, 280
-0.99665, 277, 41, 292, 104
-0.99665, 439, 281, 454, 344
-0.996658, 65, 97, 96, 352
-0.996659, 401, 313, 416, 375
-0.996663, 81, 1, 144, 256
-0.996687, 289, 273, 416, 304
-0.996692, 225, 97, 480, 160
-0.996697, 285, 1, 316, 256
-0.99671, 43, 193, 58, 256
-0.99671, 177, 241, 192, 304
-0.996715, 273, 97, 288, 160
-0.996737, 149, 225, 164, 288
-0.996753, 65, 113, 192, 144
-0.996768, 145, 45, 272, 76
-0.996768, 75, 233, 90, 296
-0.99677, 19, 281, 34, 344
-0.996786, 193, 145, 320, 176
-0.996787, 433, 305, 448, 368
-0.996801, 257, 293, 384, 324
-0.996812, 225, 137, 240, 200
-0.996814, 425, 305, 440, 368
-0.996817, 419, 305, 434, 368
-0.996826, 85, 129, 100, 192
-0.996827, 193, 33, 224, 288
-0.996828, 231, 145, 246, 208
-0.99684, 389, 313, 404, 375
-0.99684, 97, 85, 224, 116
-0.996855, 253, 49, 268, 112
-0.99686, 193, 293, 320, 324
-0.996862, 69, 249, 84, 312
-0.996865, 263, 41, 278, 104
-0.996865, 409, 209, 472, 272
-0.996876, 291, 41, 306, 104
-0.996886, 431, 281, 446, 344
-0.996908, 379, 313, 394, 375
-0.996911, 295, 265, 310, 328
-0.996921, 423, 273, 438, 336
-0.996933, 153, 121, 168, 184
-0.996941, 297, 49, 312, 112
-0.996955, 273, 9, 336, 72
-0.996962, 1, 49, 500, 112
-0.996974, 373, 193, 404, 320
-0.996974, 305, 129, 432, 160
-0.996976, 217, 145, 232, 208
-0.996977, 439, 305, 454, 368
-0.996983, 33, 289, 288, 352
-0.996986, 199, 169, 214, 232
-0.996988, 149, 161, 164, 224
-0.996993, 155, 233, 170, 296
-0.996998, 161, 57, 288, 88
-0.997001, 187, 41, 202, 104
-0.997011, 353, 209, 480, 272
-0.997015, 1, 297, 128, 328
-0.997029, 233, 209, 296, 272
-0.99703, 273, 1, 304, 256
-0.99703, 339, 93, 354, 124
-0.997034, 337, 89, 464, 152
-0.997038, 137, 129, 168, 256
-0.997039, 411, 273, 426, 336
-0.997048, 379, 289, 394, 352
-0.997061, 181, 73, 196, 136
-0.997064, 139, 185, 154, 248
-0.997067, 243, 49, 258, 112
-0.997075, 261, 1, 292, 256
-0.997075, 209, 113, 224, 176
-0.997076, 175, 121, 190, 184
-0.997076, 33, 25, 288, 88
-0.997086, 261, 81, 276, 144
-0.997119, 1, 133, 128, 164
-0.99712, 33, 233, 48, 296
-0.997124, 247, 153, 262, 216
-0.997126, 305, 117, 432, 148
-0.997131, 325, 65, 356, 320
-0.997132, 145, 33, 176, 160
-0.997139, 201, 113, 216, 176
-0.997141, 25, 265, 40, 328
-0.997144, 333, 129, 348, 192
-0.997145, 169, 97, 184, 160
-0.997157, 97, 185, 112, 248
-0.997167, 339, 153, 354, 216
-0.997175, 1, 313, 128, 344
-0.997184, 65, 97, 192, 128
-0.997208, 113, 241, 240, 272
-0.997224, 199, 145, 214, 208
-0.99723, 389, 281, 404, 344
-0.997233, 257, 25, 500, 88
-0.99724, 185, 313, 248, 375
-0.997255, 189, 65, 204, 128
-0.997259, 37, 209, 52, 272
-0.997265, 1, 337, 128, 368
-0.997266, 103, 169, 118, 232
-0.997272, 193, 169, 208, 232
-0.997272, 351, 313, 366, 375
-0.997272, 55, 305, 70, 368
-0.997277, 341, 33, 372, 160
-0.99728, 273, 61, 400, 92
-0.997283, 49, 261, 176, 292
-0.997283, 297, 289, 312, 352
-0.997288, 325, 273, 340, 336
-0.99729, 307, 281, 322, 344
-0.997296, 273, 313, 400, 344
-0.9973, 177, 241, 240, 368
-0.997304, 267, 185, 282, 248
-0.997305, 289, 73, 416, 104
-0.997307, 307, 249, 322, 312
-0.997324, 213, 73, 228, 136
-0.997327, 337, 65, 352, 128
-0.997328, 201, 193, 216, 256
-0.997332, 401, 129, 464, 375
-0.997335, 231, 121, 246, 184
-0.997336, 205, 65, 236, 320
-0.99734, 285, 241, 300, 304
-0.997358, 305, 341, 432, 372
-0.997376, 33, 313, 288, 375
-0.997383, 257, 209, 384, 240
-0.997397, 149, 97, 180, 352
-0.99741, 241, 121, 368, 152
-0.997435, 73, 1, 136, 128
-0.99745, 129, 189, 256, 220
-0.997467, 177, 237, 304, 268
-0.997499, 329, 33, 360, 160
-0.997529, 305, 301, 432, 332
-0.997558, 305, 209, 432, 240
-0.997575, 41, 129, 72, 375
-0.997599, 181, 129, 212, 375
-0.9976, 161, 269, 288, 300
-0.997629, 49, 249, 176, 280
-0.997643, 321, 185, 448, 216
-0.997652, 321, 153, 448, 184
-0.997653, 227, 93, 242, 124
-0.997658, 97, 73, 224, 104
-0.997675, 69, 177, 100, 304
-0.99768, 189, 225, 204, 256
-0.997689, 1, 325, 128, 356
-0.997712, 97, 257, 224, 320
-0.997725, 321, 233, 384, 296
-0.997731, 273, 49, 400, 80
-0.997733, 257, 341, 384, 372
-0.997755, 257, 145, 500, 208
-0.997763, 193, 193, 208, 224
-0.997767, 1, 225, 500, 288
-0.99779, 333, 101, 348, 132
-0.997793, 217, 97, 232, 128
-0.997794, 417, 193, 448, 320
-0.997807, 321, 165, 448, 196
-0.997818, 209, 173, 336, 204
-0.997826, 185, 9, 248, 72
-0.997847, 187, 237, 202, 268
-0.997856, 195, 233, 210, 264
-0.997878, 163, 161, 178, 192
-0.997883, 305, 289, 432, 320
-0.997885, 313, 97, 344, 352
-0.997891, 89, 97, 120, 352
-0.99793, 1, 89, 128, 152
-0.99796, 299, 297, 314, 328
-0.997964, 269, 273, 284, 304
-0.99797, 49, 273, 176, 304
-0.997972, 337, 65, 368, 320
-0.997983, 93, 129, 108, 160
-0.997984, 185, 97, 216, 224
-0.997988, 261, 129, 292, 375
-0.99799, 307, 297, 322, 328
-0.997992, 137, 225, 168, 352
-0.998, 229, 129, 260, 375
-0.998001, 193, 249, 320, 280
-0.99801, 45, 333, 60, 364
-0.99801, 147, 185, 162, 216
-0.998021, 71, 141, 86, 172
-0.998024, 159, 113, 174, 144
-0.998032, 181, 233, 196, 264
-0.998033, 297, 33, 328, 288
-0.998039, 355, 341, 370, 372
-0.998053, 199, 209, 214, 240
-0.998054, 275, 273, 290, 304
-0.998056, 353, 129, 416, 375
-0.998059, 193, 109, 320, 140
-0.998064, 159, 101, 174, 132
-0.998065, 339, 117, 354, 148
-0.998072, 287, 285, 302, 316
-0.998073, 447, 317, 462, 348
-0.998076, 209, 89, 224, 120
-0.998095, 97, 305, 224, 368
-0.998101, 305, 141, 432, 172
-0.998105, 197, 165, 212, 196
-0.998106, 445, 293, 460, 324
-0.99811, 165, 81, 180, 112
-0.998114, 77, 137, 92, 168
-0.998114, 189, 213, 204, 244
-0.998139, 235, 101, 250, 132
-0.998142, 187, 177, 202, 208
-0.998156, 357, 145, 388, 272
-0.998156, 273, 285, 288, 316
-0.998158, 61, 313, 76, 344
-0.998168, 281, 277, 296, 308
-0.998171, 361, 337, 376, 368
-0.998172, 233, 57, 248, 88
-0.998172, 237, 165, 252, 196
-0.998195, 203, 161, 218, 192
-0.9982, 223, 141, 238, 172
-0.998202, 241, 129, 272, 375
-0.998214, 169, 105, 184, 136
-0.998217, 49, 333, 176, 364
-0.99822, 65, 149, 80, 180
-0.99822, 305, 261, 432, 292
-0.998238, 149, 229, 164, 260
-0.998239, 323, 257, 338, 288
-0.99825, 93, 197, 108, 228
-0.998252, 195, 221, 210, 252
-0.998253, 273, 37, 400, 68
-0.998255, 179, 245, 194, 276
-0.998255, 265, 285, 280, 316
-0.998257, 197, 181, 212, 212
-0.998257, 155, 129, 170, 160
-0.998258, 41, 129, 72, 256
-0.998258, 289, 245, 304, 276
-0.998271, 367, 333, 382, 364
-0.998287, 233, 153, 248, 184
-0.998291, 293, 297, 308, 328
-0.998293, 57, 165, 72, 196
-0.998294, 327, 109, 342, 140
-0.998298, 241, 245, 368, 276
-0.9983, 345, 109, 360, 140
-0.998302, 203, 197, 218, 228
-0.998304, 245, 157, 260, 188
-0.99831, 239, 145, 254, 176
-0.998311, 357, 313, 372, 344
-0.99832, 227, 109, 242, 140
-0.998327, 315, 277, 330, 308
-0.998328, 201, 221, 216, 252
-0.998336, 213, 205, 228, 236
-0.998337, 285, 249, 316, 264
-0.998337, 213, 107, 244, 122
-0.998337, 65, 337, 80, 368
-0.998337, 53, 173, 84, 188
-0.998338, 137, 233, 168, 248
-0.998339, 213, 157, 244, 172
-0.998339, 353, 343, 384, 358
-0.998339, 305, 301, 336, 316
-0.998339, 145, 239, 176, 254
-0.99834, 83, 133, 98, 164
-0.998341, 169, 241, 200, 256
-0.998341, 341, 119, 372, 134
-0.998341, 57, 165, 88, 180
-0.998341, 301, 295, 332, 310
-0.998342, 257, 199, 288, 214
-0.998342, 217, 97, 248, 352
-0.998342, 293, 93, 324, 108
-0.998343, 197, 91, 228, 106
-0.998343, 337, 125, 368, 140
-0.998344, 305, 283, 336, 298
-0.998344, 197, 143, 228, 158
-0.998344, 345, 111, 376, 126
-0.998344, 257, 101, 288, 116
-0.998346, 241, 99, 272, 114
-0.998346, 61, 157, 92, 172
-0.998346, 433, 301, 464, 316
-0.998347, 309, 115, 340, 130
-0.998347, 233, 149, 264, 164
-0.998347, 169, 111, 200, 126
-0.998347, 297, 251, 328, 266
-0.998349, 261, 107, 292, 122
-0.998349, 365, 331, 396, 346
-0.99835, 197, 163, 228, 178
-0.99835, 409, 281, 440, 296
-0.99835, 447, 305, 462, 336
-0.998351, 305, 271, 336, 286
-0.998351, 189, 85, 220, 100
-0.998351, 177, 153, 192, 184
-0.998352, 65, 151, 96, 166
-0.998352, 101, 187, 132, 202
-0.998353, 201, 185, 232, 200
-0.998353, 397, 315, 428, 330
-0.998353, 285, 265, 300, 296
-0.998354, 201, 111, 232, 126
-0.998354, 153, 103, 184, 118
-0.998355, 353, 333, 384, 348
-0.998357, 201, 207, 232, 222
-0.998357, 321, 125, 352, 140
-0.998357, 269, 47, 300, 62
-0.998357, 105, 1, 136, 128
-0.998359, 429, 287, 460, 302
-0.998361, 69, 145, 100, 160
-0.998361, 209, 215, 240, 230
-0.998363, 215, 193, 230, 224
-0.998363, 157, 127, 188, 142
-0.998365, 157, 241, 188, 256
-0.998365, 289, 289, 320, 304
-0.998365, 185, 239, 216, 254
-0.998365, 69, 65, 100, 192
-0.998365, 257, 95, 288, 110
-0.998366, 153, 159, 184, 174
-0.998367, 193, 149, 224, 164
-0.998367, 53, 353, 84, 368
-0.998368, 161, 141, 192, 156
-0.998368, 185, 73, 216, 88
-0.998368, 173, 163, 204, 178
-0.998369, 353, 187, 384, 202
-0.998369, 353, 325, 384, 340
-0.99837, 221, 145, 252, 160
-0.998373, 313, 97, 344, 112
-0.998373, 285, 259, 316, 274
-0.998375, 257, 51, 288, 66
-0.998376, 49, 315, 80, 330
-0.998376, 165, 149, 196, 164
-0.998376, 189, 107, 220, 122
-0.998377, 181, 147, 212, 162
-0.998378, 313, 109, 344, 124
-0.998379, 193, 191, 224, 206
-0.99838, 211, 157, 226, 188
-0.99838, 413, 311, 444, 326
-0.99838, 289, 271, 320, 286
-0.998381, 273, 285, 304, 300
-0.998382, 205, 101, 236, 116
-0.998382, 329, 95, 360, 110
-0.998383, 309, 257, 324, 288
-0.998384, 289, 279, 320, 294
-0.998385, 159, 241, 174, 272
-0.998385, 205, 223, 236, 238
-0.998385, 315, 257, 330, 288
-0.998389, 373, 329, 388, 360
-0.99839, 433, 315, 464, 330
-0.99839, 285, 265, 316, 280
-0.99839, 433, 307, 464, 322
-0.998392, 203, 85, 218, 116
-0.998392, 245, 55, 276, 70
-0.998392, 305, 101, 368, 116
-0.998393, 41, 337, 72, 352
-0.998393, 49, 329, 80, 344
-0.998393, 261, 293, 292, 308
-0.998396, 269, 275, 300, 290
-0.998398, 37, 353, 68, 368
-0.998398, 153, 165, 168, 196
-0.9984, 99, 185, 114, 216
-0.9984, 301, 285, 316, 316
-0.9984, 213, 89, 244, 104
-0.998403, 157, 117, 188, 132
-0.998406, 237, 159, 268, 174
-0.998406, 313, 257, 344, 272
-0.998406, 207, 217, 222, 248
-0.998407, 169, 247, 200, 262
-0.998407, 185, 167, 216, 182
-0.998408, 141, 177, 172, 192
-0.998408, 293, 301, 324, 316
-0.998408, 167, 145, 182, 176
-0.998409, 349, 169, 364, 200
-0.99841, 205, 79, 236, 94
-0.99841, 241, 105, 272, 120
-0.998411, 293, 269, 308, 300
-0.998412, 41, 343, 72, 358
-0.998412, 161, 145, 176, 176
-0.998413, 197, 179, 228, 194
-0.998414, 279, 289, 294, 320
-0.998415, 305, 277, 336, 292
-0.998417, 229, 61, 260, 76
-0.998418, 269, 45, 284, 76
-0.998418, 273, 269, 304, 284
-0.998418, 193, 233, 224, 248
-0.998419, 225, 109, 256, 124
-0.998419, 157, 109, 188, 124
-0.998419, 169, 165, 184, 196
-0.998423, 181, 179, 212, 194
-0.998423, 263, 93, 278, 124
-0.998425, 77, 139, 108, 154
-0.998427, 145, 187, 176, 202
-0.998428, 165, 79, 196, 94
-0.998429, 261, 285, 292, 300
-0.99843, 281, 297, 312, 312
-0.99843, 159, 85, 174, 116
-0.998431, 65, 359, 96, 374
-0.998431, 213, 95, 244, 110
-0.998437, 355, 173, 370, 204
-0.99844, 217, 101, 248, 116
-0.99844, 309, 103, 340, 118
-0.998441, 219, 85, 234, 116
-0.998441, 193, 197, 224, 212
-0.998443, 165, 177, 196, 192
-0.998446, 189, 203, 220, 218
-0.998449, 325, 117, 356, 132
-0.99845, 331, 129, 346, 160
-0.998451, 309, 1, 340, 256
-0.998452, 277, 291, 308, 306
-0.998452, 57, 155, 120, 170
-0.998453, 297, 107, 360, 122
-0.998455, 185, 173, 216, 188
-0.998465, 153, 165, 184, 180
-0.998467, 57, 149, 120, 164
-0.998471, 383, 325, 398, 356
-0.998474, 343, 157, 358, 188
-0.998475, 161, 79, 224, 94
-0.998477, 195, 69, 210, 100
-0.998478, 173, 235, 204, 250
-0.998479, 401, 313, 464, 328
-0.998479, 213, 151, 244, 166
-0.998481, 189, 209, 220, 224
-0.998487, 391, 321, 406, 352
-0.998491, 301, 253, 316, 284
-0.998494, 185, 221, 216, 236
-0.998495, 51, 177, 66, 208
-0.998497, 297, 95, 360, 110
-0.998499, 81, 133, 112, 148
-0.9985, 161, 171, 192, 186
-0.9985, 297, 117, 360, 132
-0.998502, 275, 45, 290, 76
-0.998502, 357, 325, 372, 356
-0.998503, 217, 145, 232, 176
-0.998504, 57, 161, 120, 176
-0.998505, 141, 209, 156, 240
-0.998507, 175, 165, 190, 196
-0.99851, 189, 215, 220, 230
-0.998511, 287, 45, 302, 76
-0.998512, 265, 103, 328, 118
-0.998514, 325, 109, 356, 124
-0.998516, 305, 89, 320, 120
-0.998517, 57, 143, 120, 158
-0.99852, 393, 283, 456, 298
-0.99852, 273, 105, 288, 136
-0.99852, 209, 177, 224, 208
-0.998522, 197, 105, 212, 136
-0.998523, 185, 227, 216, 242
-0.998526, 209, 189, 272, 204
-0.998526, 201, 157, 264, 172
-0.998527, 249, 51, 312, 66
-0.998528, 21, 145, 52, 272
-0.998531, 105, 177, 120, 208
-0.998532, 25, 357, 88, 372
-0.998533, 49, 169, 112, 184
-0.998536, 193, 163, 256, 178
-0.998537, 209, 99, 272, 114
-0.998537, 137, 177, 200, 192
-0.998539, 193, 133, 320, 164
-0.998541, 249, 53, 264, 84
-0.998545, 145, 233, 208, 248
-0.998549, 245, 185, 260, 216
-0.998549, 281, 45, 296, 76
-0.99855, 17, 285, 80, 300
-0.99855, 25, 249, 88, 264
-0.99855, 145, 115, 208, 130
-0.998551, 177, 33, 304, 64
-0.998553, 153, 85, 216, 100
-0.998553, 9, 305, 72, 320
-0.998553, 171, 241, 186, 272
-0.998557, 329, 101, 360, 116
-0.998558, 257, 285, 320, 300
-0.998558, 189, 65, 204, 96
-0.99856, 25, 243, 88, 258
-0.99856, 281, 259, 344, 274
-0.998561, 17, 17, 144, 80
-0.998561, 257, 275, 320, 290
-0.998563, 59, 345, 74, 375
-0.998563, 17, 279, 80, 294
-0.998564, 25, 255, 88, 270
-0.998565, 201, 169, 264, 184
-0.998565, 33, 223, 96, 238
-0.998565, 17, 273, 80, 288
-0.998566, 49, 175, 112, 190
-0.998567, 161, 149, 224, 164
-0.998568, 97, 181, 160, 196
-0.998569, 65, 137, 128, 152
-0.99857, 25, 261, 88, 276
-0.998572, 209, 195, 272, 210
-0.998572, 19, 293, 34, 324
-0.998573, 177, 73, 240, 88
-0.998573, 41, 205, 104, 220
-0.998573, 33, 217, 96, 232
-0.998573, 33, 235, 96, 250
-0.998574, 323, 289, 338, 320
-0.998576, 33, 229, 96, 244
-0.998576, 265, 193, 280, 224
-0.998577, 193, 105, 256, 120
-0.998579, 183, 221, 198, 252
-0.998581, 25, 351, 88, 366
-0.998582, 153, 109, 216, 124
-0.998582, 225, 105, 288, 120
-0.998583, 239, 57, 254, 88
-0.998583, 185, 97, 248, 112
-0.998583, 273, 295, 336, 310
-0.998583, 321, 107, 384, 122
-0.998584, 257, 49, 272, 80
-0.998584, 299, 273, 314, 304
-0.998584, 153, 155, 216, 170
-0.998585, 41, 211, 104, 226
-0.998585, 55, 329, 70, 360
-0.998585, 329, 257, 344, 288
-0.998586, 297, 123, 360, 138
-0.998586, 273, 93, 288, 124
-0.998586, 17, 291, 80, 306
-0.998587, 153, 169, 216, 184
-0.998587, 265, 269, 328, 284
-0.99859, 311, 93, 326, 124
-0.998591, 193, 79, 256, 94
-0.998593, 17, 267, 80, 282
-0.998594, 193, 179, 256, 194
-0.998594, 49, 321, 176, 352
-0.998594, 169, 177, 232, 192
-0.998595, 185, 147, 248, 162
-0.998595, 145, 161, 208, 176
-0.998596, 9, 297, 72, 312
-0.998597, 49, 183, 112, 198
-0.998597, 41, 199, 104, 214
-0.998598, 217, 93, 280, 108
-0.998599, 145, 227, 208, 242
-0.998599, 83, 221, 98, 252
-0.998601, 185, 111, 248, 126
-0.998602, 337, 339, 400, 354
-0.998602, 265, 97, 328, 112
-0.998603, 169, 161, 232, 176
-0.998604, 41, 193, 104, 208
-0.998605, 89, 191, 152, 206
-0.998607, 209, 151, 272, 166
-0.998609, 265, 109, 328, 124
-0.998609, 225, 157, 288, 172
-0.99861, 225, 57, 288, 72
-0.99861, 265, 89, 328, 104
-0.998611, 221, 193, 252, 320
-0.998612, 185, 67, 248, 82
-0.998612, 297, 49, 312, 80
-0.998614, 353, 311, 416, 326
-0.998615, 281, 279, 344, 294
-0.998616, 337, 195, 400, 210
-0.998617, 185, 141, 248, 156
-0.998617, 353, 333, 416, 348
-0.998618, 289, 129, 352, 144
-0.998619, 137, 219, 200, 234
-0.998621, 9, 311, 72, 326
-0.998621, 185, 91, 248, 106
-0.998622, 297, 89, 360, 104
-0.998622, 169, 183, 232, 198
-0.998625, 177, 211, 240, 226
-0.998627, 145, 245, 208, 260
-0.998628, 97, 171, 160, 186
-0.99863, 409, 307, 472, 322
-0.99863, 137, 141, 200, 156
-0.99863, 153, 73, 216, 88
-0.998631, 193, 201, 256, 216
-0.998631, 273, 301, 336, 316
-0.998631, 145, 183, 208, 198
-0.998632, 321, 113, 384, 128
-0.998634, 329, 127, 392, 142
-0.998634, 113, 123, 176, 138
-0.998635, 33, 331, 96, 346
-0.998636, 241, 189, 304, 204
-0.998636, 233, 99, 296, 114
-0.998636, 153, 121, 216, 136
-0.998636, 289, 265, 352, 280
-0.998637, 401, 335, 464, 350
-0.998637, 337, 99, 400, 114
-0.998638, 1, 351, 64, 366
-0.998638, 201, 85, 264, 100
-0.99864, 153, 91, 216, 106
-0.998641, 233, 163, 296, 178
-0.998641, 97, 165, 160, 180
-0.998641, 145, 103, 208, 118
-0.998642, 233, 201, 296, 216
-0.998642, 97, 159, 160, 174
-0.998642, 225, 111, 288, 126
-0.998643, 1, 329, 64, 344
-0.998643, 93, 113, 108, 240
-0.998643, 137, 205, 200, 220
-0.998643, 185, 57, 248, 72
-0.998644, 129, 9, 384, 72
-0.998646, 313, 177, 376, 192
-0.998647, 129, 171, 192, 186
-0.998647, 169, 205, 232, 220
-0.998647, 169, 199, 232, 214
-0.998648, 9, 321, 72, 336
-0.998649, 273, 205, 336, 220
-0.998653, 369, 129, 432, 256
-0.998657, 81, 61, 208, 92
-0.998658, 1, 49, 256, 112
-0.998674, 241, 329, 368, 360
-0.998704, 273, 129, 304, 375
-0.998712, 337, 101, 464, 132
-0.998713, 53, 193, 84, 320
-0.998734, 433, 193, 464, 320
-0.998737, 157, 1, 188, 256
-0.998764, 305, 249, 432, 280
-0.99877, 145, 305, 272, 368
-0.998783, 267, 33, 282, 160
-0.998785, 369, 1, 432, 375
-0.998788, 137, 129, 168, 375
-0.998792, 193, 129, 224, 375
-0.998804, 17, 33, 144, 160
-0.998828, 321, 221, 448, 252
-0.99883, 97, 13, 224, 44
-0.99884, 339, 81, 354, 208
-0.998886, 369, 269, 496, 300
-0.998907, 273, 33, 288, 160
-0.998918, 1, 65, 64, 320
-0.998926, 49, 301, 176, 332
-0.998926, 65, 25, 192, 56
-0.998953, 225, 313, 288, 375
-0.998957, 231, 49, 246, 176
-0.998962, 49, 81, 176, 112
-0.998982, 321, 85, 448, 116
-0.998984, 345, 145, 360, 272
-0.998984, 191, 129, 206, 256
-0.998985, 401, 1, 464, 375
-0.998987, 279, 33, 294, 160
-0.998993, 259, 33, 274, 160
-0.998993, 427, 241, 442, 368
-0.999025, 333, 97, 348, 224
-0.999036, 9, 193, 40, 320
-0.999045, 433, 241, 448, 368
-0.999047, 81, 113, 96, 240
-0.999049, 309, 241, 324, 368
-0.999055, 87, 113, 102, 240
-0.999056, 189, 193, 204, 320
-0.999061, 1, 1, 64, 375
-0.99908, 421, 241, 436, 368
-0.999094, 133, 65, 164, 192
-0.999098, 73, 129, 88, 256
-0.999099, 169, 65, 184, 192
-0.9991, 161, 21, 288, 52
-0.999103, 321, 237, 448, 268
-0.999116, 145, 1, 176, 256
-0.999118, 285, 129, 316, 375
-0.999119, 237, 49, 252, 176
-0.999122, 211, 81, 226, 208
-0.999122, 201, 161, 216, 288
-0.999126, 149, 177, 164, 304
-0.99913, 225, 49, 240, 176
-0.99913, 315, 193, 330, 320
-0.999134, 301, 129, 332, 375
-0.999134, 235, 145, 250, 272
-0.999135, 195, 177, 210, 304
-0.999138, 285, 33, 300, 160
-0.99914, 253, 33, 268, 160
-0.999155, 405, 241, 420, 368
-0.999163, 415, 241, 430, 368
-0.999167, 219, 65, 234, 192
-0.999173, 439, 241, 454, 368
-0.999179, 369, 257, 496, 288
-0.999183, 49, 285, 176, 316
-0.999184, 71, 225, 86, 352
-0.999188, 177, 65, 192, 192
-0.999188, 293, 33, 308, 160
-0.999188, 187, 49, 202, 176
-0.999191, 193, 49, 208, 176
-0.999191, 67, 129, 82, 256
-0.999193, 243, 49, 258, 176
-0.999197, 177, 341, 304, 372
-0.999199, 199, 65, 214, 192
-0.999201, 159, 65, 174, 192
-0.999203, 369, 241, 496, 272
-0.999209, 345, 81, 360, 208
-0.999215, 215, 129, 230, 256
-0.999217, 339, 129, 354, 256
-0.999226, 41, 193, 56, 320
-0.999244, 303, 241, 318, 368
-0.999251, 159, 129, 174, 256
-0.999253, 73, 1, 104, 256
-0.999265, 235, 97, 250, 224
-0.999275, 49, 161, 64, 288
-0.999276, 315, 241, 330, 368
-0.999277, 283, 241, 298, 368
-0.999279, 299, 33, 314, 160
-0.999282, 185, 1, 200, 128
-0.999283, 57, 145, 72, 272
-0.999284, 155, 177, 170, 304
-0.999285, 89, 177, 104, 304
-0.999286, 33, 225, 48, 352
-0.999288, 445, 241, 460, 368
-0.999289, 183, 145, 198, 272
-0.999292, 345, 249, 408, 312
-0.999297, 183, 209, 198, 336
-0.999298, 177, 329, 304, 360
-0.999309, 83, 193, 98, 320
-0.999309, 99, 129, 114, 256
-0.99931, 229, 129, 244, 256
-0.999311, 207, 177, 222, 304
-0.999312, 291, 225, 306, 352
-0.999313, 143, 177, 158, 304
-0.999315, 261, 177, 276, 304
-0.999319, 297, 225, 312, 352
-0.999323, 323, 193, 338, 320
-0.999325, 255, 177, 270, 304
-0.999329, 201, 209, 216, 336
-0.99933, 309, 193, 324, 320
-0.999334, 113, 281, 240, 312
-0.999334, 193, 305, 320, 336
-0.999334, 27, 241, 42, 368
-0.999342, 267, 177, 282, 304
-0.999342, 211, 1, 226, 128
-0.999344, 153, 81, 168, 208
-0.999344, 95, 177, 110, 304
-0.999347, 241, 145, 256, 272
-0.999352, 329, 49, 344, 176
-0.999353, 327, 97, 342, 224
-0.999356, 177, 145, 192, 272
-0.999358, 191, 1, 206, 128
-0.999365, 77, 209, 92, 336
-0.999369, 311, 97, 326, 224
-0.99937, 93, 1, 124, 256
-0.999371, 205, 65, 220, 192
-0.999376, 65, 241, 80, 368
-0.999377, 209, 129, 224, 256
-0.999378, 173, 17, 188, 144
-0.999378, 281, 193, 296, 320
-0.99938, 153, 129, 168, 256
-0.999383, 197, 1, 212, 128
-0.999385, 305, 33, 320, 160
-0.99939, 223, 129, 238, 256
-0.999393, 399, 241, 414, 368
-0.999394, 205, 17, 220, 144
-0.999397, 177, 225, 192, 352
-0.9994, 241, 97, 256, 224
-0.999403, 247, 1, 262, 128
-0.999406, 319, 113, 334, 240
-0.999414, 269, 97, 284, 224
-0.999416, 271, 241, 286, 368
-0.999427, 303, 193, 318, 320
-0.999429, 323, 241, 338, 368
-0.999438, 351, 161, 366, 288
-0.999441, 213, 177, 228, 304
-0.999449, 179, 1, 194, 128
-0.999449, 263, 97, 278, 224
-0.999451, 171, 225, 186, 352
-0.999462, 247, 145, 262, 272
-0.999465, 165, 17, 180, 144
-0.999468, 273, 177, 288, 304
-0.99947, 201, 113, 216, 240
-0.999471, 59, 241, 74, 368
-0.999471, 311, 33, 326, 160
-0.999475, 53, 33, 84, 288
-0.999475, 239, 1, 254, 128
-0.999478, 277, 241, 292, 368
-0.999481, 333, 145, 348, 272
-0.999488, 169, 145, 184, 272
-0.999494, 329, 193, 344, 320
-0.999495, 219, 17, 234, 144
-0.999503, 317, 49, 332, 176
-0.999503, 339, 33, 354, 160
-0.999505, 305, 81, 320, 208
-0.99952, 393, 241, 408, 368
-0.999523, 147, 129, 162, 256
-0.999526, 161, 177, 176, 304
-0.999528, 379, 241, 394, 368
-0.999538, 387, 241, 402, 368
-0.999538, 163, 225, 178, 352
-0.999539, 291, 279, 306, 294
-0.99954, 355, 341, 370, 356
-0.99954, 381, 327, 396, 342
-0.99954, 303, 255, 318, 270
-0.999541, 245, 191, 260, 206
-0.999541, 331, 121, 346, 136
-0.999542, 275, 105, 290, 120
-0.999542, 229, 103, 244, 118
-0.999542, 293, 307, 308, 322
-0.999543, 201, 85, 216, 100
-0.999543, 227, 115, 242, 130
-0.999544, 211, 215, 226, 230
-0.999545, 173, 113, 188, 128
-0.999545, 273, 297, 288, 312
-0.999545, 187, 145, 202, 160
-0.999545, 157, 139, 172, 154
-0.999545, 375, 329, 390, 344
-0.999545, 69, 149, 84, 164
-0.999547, 187, 185, 202, 200
-0.999547, 193, 173, 208, 188
-0.999547, 307, 271, 322, 286
-0.999547, 221, 117, 236, 132
-0.999547, 401, 317, 416, 332
-0.999547, 179, 147, 194, 162
-0.999547, 263, 281, 278, 296
-0.999548, 217, 87, 232, 102
-0.999549, 187, 171, 202, 186
-0.99955, 311, 297, 326, 312
-0.99955, 339, 123, 354, 138
-0.99955, 261, 101, 276, 116
-0.999551, 47, 331, 62, 346
-0.999552, 361, 337, 376, 352
-0.999552, 217, 109, 232, 124
-0.999552, 271, 47, 286, 62
-0.999553, 293, 293, 308, 308
-0.999553, 301, 271, 316, 286
-0.999554, 347, 111, 362, 126
-0.999555, 215, 153, 230, 168
-0.999555, 263, 95, 278, 110
-0.999555, 9, 241, 40, 368
-0.999556, 163, 245, 178, 260
-0.999557, 215, 207, 230, 222
-0.999558, 285, 297, 300, 312
-0.999558, 207, 89, 222, 104
-0.999559, 447, 319, 462, 334
-0.999559, 297, 265, 312, 280
-0.999559, 169, 161, 184, 176
-0.99956, 63, 317, 78, 332
-0.99956, 237, 147, 252, 162
-0.99956, 319, 273, 334, 288
-0.999561, 313, 275, 328, 290
-0.999561, 333, 103, 348, 118
-0.999561, 103, 187, 118, 202
-0.999562, 447, 309, 462, 324
-0.999562, 209, 159, 224, 174
-0.999563, 243, 159, 258, 174
-0.999565, 367, 333, 382, 348
-0.999566, 217, 103, 232, 118
-0.999566, 159, 111, 174, 126
-0.999568, 343, 117, 358, 132
-0.999568, 201, 209, 216, 224
-0.999568, 75, 139, 90, 154
-0.999568, 93, 131, 108, 146
-0.99957, 291, 245, 306, 260
-0.999573, 309, 309, 324, 324
-0.999573, 169, 79, 184, 94
-0.999574, 43, 341, 58, 356
-0.999574, 179, 247, 194, 262
-0.999575, 277, 269, 292, 284
-0.999575, 211, 95, 226, 110
-0.999575, 63, 353, 78, 368
-0.999576, 155, 239, 170, 254
-0.999576, 81, 135, 96, 150
-0.999577, 183, 179, 198, 194
-0.999577, 193, 237, 208, 252
-0.999578, 199, 223, 214, 238
-0.999578, 175, 175, 190, 190
-0.999578, 205, 177, 220, 192
-0.999578, 355, 331, 370, 346
-0.999579, 65, 335, 80, 350
-0.99958, 163, 105, 178, 120
-0.999581, 235, 59, 250, 74
-0.999581, 239, 153, 254, 168
-0.999582, 149, 231, 164, 246
-0.999583, 235, 107, 250, 122
-0.999584, 221, 93, 236, 108
-0.999584, 155, 177, 170, 192
-0.999585, 293, 301, 308, 316
-0.999586, 191, 211, 206, 226
-0.999587, 177, 167, 192, 182
-0.999587, 203, 163, 218, 178
-0.999587, 339, 103, 354, 118
-0.999588, 271, 291, 286, 306
-0.999588, 187, 245, 202, 260
-0.999588, 269, 275, 284, 290
-0.999589, 199, 215, 214, 230
-0.99959, 235, 101, 250, 116
-0.999591, 301, 295, 316, 310
-0.999592, 181, 239, 196, 254
-0.999593, 263, 107, 278, 122
-0.999593, 195, 195, 210, 210
-0.999595, 299, 309, 314, 324
-0.999596, 193, 203, 208, 218
-0.999597, 75, 361, 90, 375
-0.999598, 227, 109, 242, 124
-0.999598, 169, 107, 184, 122
-0.999598, 287, 273, 302, 288
-0.999598, 69, 357, 84, 372
-0.9996, 189, 219, 204, 234
-0.999601, 161, 159, 176, 174
-0.999603, 269, 105, 284, 120
-0.999603, 227, 97, 242, 112
-0.999605, 197, 229, 212, 244
-0.999607, 289, 287, 304, 302
-0.999609, 287, 267, 302, 282
-0.999611, 279, 277, 294, 292
-0.999613, 263, 287, 278, 302
-0.999613, 181, 173, 196, 188
-0.99962, 147, 187, 162, 202
-0.99962, 223, 145, 238, 160
-0.999621, 191, 231, 206, 246
-0.999624, 271, 285, 286, 300
-0.999625, 279, 285, 294, 300
-0.999626, 171, 169, 186, 184
-0.999627, 193, 181, 208, 196
-0.999632, 305, 301, 320, 316
-0.999644, 279, 291, 294, 306
-0.999648, 299, 303, 314, 318
-0.99965, 187, 225, 202, 240
-0.999655, 29, 129, 60, 375
-0.999655, 17, 65, 144, 128
-0.999657, 187, 237, 202, 252
-0.999671, 337, 241, 368, 368
-0.999714, 339, 97, 354, 112
-0.999715, 125, 65, 156, 320
-0.999749, 349, 1, 380, 256
-0.999778, 101, 97, 132, 352
-0.999857, 349, 129, 380, 375
-0.999942, 361, 129, 392, 375
-0.99995, 397, 129, 428, 375
-0.999962, 113, 97, 144, 224
-1.00004, 381, 129, 412, 375
-1.00004, 417, 129, 448, 375
-1.00018, 113, 97, 144, 352
-1.00022, 193, 241, 224, 368
-1.00024, 433, 129, 464, 375
-1.00028, 17, 129, 48, 375
-1.00033, 41, 33, 72, 288
-1.00035, 97, 49, 128, 176
-1.00038, 105, 1, 136, 256
-1.00044, 233, 241, 264, 368
-1.00055, 369, 145, 400, 272
-1.00067, 205, 241, 236, 368
-1.00068, 445, 129, 476, 375
-1.00073, 5, 129, 36, 375
-1.00095, 365, 33, 396, 288
-1.00101, 25, 33, 56, 288
-1.00109, 145, 1, 272, 64
-1.00111, 25, 33, 88, 288
-1.00115, 381, 33, 412, 288
-1.0012, 33, 1, 288, 64
-1.00131, 425, 1, 488, 375
-1.00132, 469, 129, 500, 375
-1.00132, 225, 1, 480, 64
-1.00143, 13, 33, 44, 288
-1.00147, 1, 25, 500, 88
-1.00149, 385, 129, 416, 256
-1.0015, 445, 193, 476, 320
-1.00151, 393, 33, 424, 288
-1.00154, 1, 1, 32, 256
-1.00164, 77, 225, 108, 352
-1.00173, 457, 97, 488, 352
-1.00179, 321, 17, 448, 80
-1.00183, 469, 33, 500, 288
-1.00184, 457, 1, 488, 256
-1.0019, 337, 41, 464, 104
-1.00193, 405, 33, 436, 288
-1.00196, 429, 1, 460, 256
-1.00197, 445, 1, 476, 256
-1.00197, 417, 1, 448, 256
-1.00198, 45, 81, 76, 208
-1.00199, 369, 145, 496, 208
-1.002, 113, 161, 144, 288
-1.00203, 17, 41, 144, 104
-1.00208, 353, 65, 480, 128
-1.0024, 369, 113, 496, 176
-1.00246, 425, 129, 488, 375
-1.00266, 29, 97, 60, 224
-1.00286, 361, 97, 392, 224
-1.00291, 369, 17, 496, 80
-1.00306, 1, 1, 500, 64
-1.00357, 93, 193, 124, 320
-1.00383, 397, 145, 428, 272
-1.00393, 461, 241, 492, 368
-1.00406, 117, 209, 148, 336
-1.00407, 329, 1, 392, 128
-1.00443, 401, 145, 464, 272
-1.00526, 105, 225, 168, 352
-1.00599, 73, 225, 136, 352
-1.00627, 361, 33, 424, 288
-1.00664, 1, 81, 64, 208
-1.0092, 393, 33, 456, 288
-1.00963, 369, 49, 496, 176
-1.0099, 337, 1, 464, 128
-1.01027, 49, 33, 112, 160
-1.01166, 433, 1, 496, 256
-1.01234, 9, 17, 72, 144
-1.0124, 353, 17, 416, 144
-1.01246, 369, 81, 432, 208
-1.01322, 393, 65, 456, 192
-1.01409, 377, 17, 440, 144
-1.01453, 425, 145, 488, 272
-1.01478, 433, 1, 496, 128
-1.01478, 409, 17, 472, 144
-1.01478, 433, 49, 496, 176
-1.01478, 433, 97, 496, 224
