1943
-0.208257, 1, 1, 500, 375
-0.32068, 1, 1, 500, 256
-0.407843, 1, 97, 500, 352
-0.431612, 65, 1, 320, 375
-0.450124, 225, 1, 480, 375
-0.577993, 225, 65, 480, 320
-0.668979, 33, 1, 288, 256
-0.672534, 65, 129, 320, 375
-0.760046, 129, 1, 384, 256
-0.844952, 33, 1, 160, 375
-0.855768, 161, 1, 288, 375
-0.858696, 209, 1, 336, 375
-0.861683, 289, 1, 416, 375
-0.86218, 241, 65, 368, 320
-0.867434, 1, 209, 500, 336
-0.868871, 113, 1, 240, 375
-0.87181, 193, 129, 320, 375
-0.872551, 337, 65, 464, 320
-0.874034, 337, 1, 464, 375
-0.875603, 177, 1, 304, 256
-0.875762, 289, 65, 416, 320
-0.875877, 33, 1, 160, 256
-0.876724, 17, 97, 144, 352
-0.878457, 1, 161, 500, 288
-0.879514, 1, 49, 500, 176
-0.888501, 97, 129, 224, 375
-0.894033, 145, 129, 272, 375
-0.904298, 97, 1, 224, 256
-0.920617, 161, 161, 416, 288
-0.923752, 1, 1, 500, 128
-0.925566, 225, 209, 480, 336
-0.92648, 257, 81, 500, 208
-0.929403, 33, 225, 288, 352
-0.929872, 33, 177, 288, 304
-0.932248, 1, 97, 500, 224
-0.935686, 257, 161, 500, 288
-0.937521, 209, 193, 336, 320
-0.939043, 129, 161, 256, 288
-0.939107, 337, 161, 400, 288
-0.939984, 209, 145, 336, 272
-0.940153, 201, 177, 264, 304
-0.940695, 289, 193, 416, 320
-0.943843, 297, 193, 360, 320
-0.944715, 17, 145, 144, 272
-0.945481, 65, 129, 320, 256
-0.94574, 25, 145, 88, 272
-0.94581, 377, 161, 440, 288
-0.946054, 161, 161, 224, 288
-0.946317, 161, 65, 416, 192
-0.947307, 129, 225, 384, 352
-0.947669, 241, 177, 304, 304
-0.948585, 401, 193, 464, 320
-0.950041, 1, 17, 256, 144
-0.950087, 337, 177, 464, 304
-0.951991, 401, 97, 464, 224
-0.952373, 225, 17, 480, 144
-0.952817, 321, 65, 448, 192
-0.953129, 361, 225, 424, 352
-0.953553, 97, 17, 352, 144
-0.953787, 217, 161, 280, 224
-0.954065, 65, 161, 192, 288
-0.954333, 145, 225, 272, 352
-0.95463, 337, 209, 400, 336
-0.954751, 201, 225, 264, 352
-0.955686, 121, 145, 184, 272
-0.956464, 361, 233, 424, 296
-0.957091, 17, 225, 144, 352
-0.957188, 369, 97, 496, 224
-0.957655, 425, 113, 488, 240
-0.957912, 273, 209, 336, 336
-0.958653, 25, 161, 88, 224
-0.958918, 377, 169, 440, 232
-0.959074, 97, 225, 224, 352
-0.959313, 225, 49, 352, 176
-0.959465, 97, 161, 160, 288
-0.95963, 161, 113, 416, 240
-0.960301, 313, 145, 376, 272
-0.960539, 329, 169, 392, 232
-0.960842, 385, 209, 448, 272
-0.960844, 217, 129, 280, 256
-0.960956, 297, 217, 360, 280
-0.961038, 217, 33, 280, 160
-0.96106, 257, 145, 384, 272
-0.961175, 289, 241, 416, 368
-0.961294, 65, 225, 128, 352
-0.96131, 1, 81, 256, 208
-0.961624, 177, 161, 240, 224
-0.962348, 241, 241, 368, 368
-0.96236, 273, 33, 336, 160
-0.962652, 361, 49, 424, 176
-0.962694, 337, 225, 400, 288
-0.962794, 49, 161, 112, 288
-0.963501, 321, 249, 384, 312
-0.963533, 17, 97, 144, 224
-0.963552, 289, 145, 352, 272
-0.963789, 193, 241, 320, 368
-0.964184, 17, 209, 80, 336
-0.964321, 177, 33, 304, 160
-0.964344, 337, 225, 464, 352
-0.964366, 321, 33, 384, 160
-0.964511, 73, 177, 136, 304
-0.964767, 305, 17, 432, 144
-0.964827, 337, 193, 400, 256
-0.964936, 401, 145, 464, 272
-0.96502, 425, 161, 488, 288
-0.965206, 329, 81, 392, 208
-0.965328, 137, 153, 200, 216
-0.965402, 273, 81, 400, 208
-0.965797, 49, 1, 176, 128
-0.965822, 113, 97, 240, 224
-0.965908, 401, 177, 464, 240
-0.9661, 113, 225, 176, 352
-0.966372, 113, 153, 176, 216
-0.966475, 353, 169, 416, 232
-0.966582, 41, 225, 104, 352
-0.966601, 17, 49, 144, 176
-0.966713, 233, 241, 296, 368
-0.96676, 297, 65, 360, 192
-0.967243, 1, 97, 64, 224
-0.9674, 49, 153, 112, 216
-0.967408, 305, 169, 368, 232
-0.967622, 257, 41, 320, 104
-0.967674, 177, 225, 240, 352
-0.967699, 161, 113, 288, 240
-0.967965, 233, 185, 296, 248
-0.96797, 249, 65, 312, 192
-0.967976, 241, 1, 368, 128
-0.967999, 209, 41, 272, 104
-0.968286, 273, 177, 336, 240
-0.968414, 201, 185, 264, 248
-0.968645, 369, 97, 432, 224
-0.968883, 241, 129, 304, 256
-0.968969, 377, 65, 440, 320
-0.969101, 337, 65, 400, 128
-0.969568, 41, 1, 104, 128
-0.969599, 161, 1, 224, 128
-0.969714, 129, 1, 256, 128
-0.969774, 201, 233, 264, 296
-0.969986, 249, 17, 312, 144
-0.97011, 297, 241, 360, 304
-0.970213, 137, 177, 200, 240
-0.970548, 89, 225, 152, 352
-0.970712, 265, 161, 328, 288
-0.970775, 17, 225, 80, 288
-0.971192, 137, 225, 200, 352
-0.971195, 185, 129, 248, 256
-0.971308, 401, 233, 464, 296
-0.971567, 201, 209, 264, 272
-0.971771, 33, 49, 96, 176
-0.972166, 409, 201, 472, 264
-0.972233, 401, 65, 464, 320
-0.972241, 289, 49, 352, 112
-0.972344, 401, 105, 464, 168
-0.972454, 9, 1, 72, 128
-0.97276, 361, 193, 424, 256
-0.972983, 73, 153, 136, 216
-0.973071, 297, 193, 360, 256
-0.973106, 241, 153, 304, 216
-0.973152, 1, 145, 64, 208
-0.973177, 233, 177, 264, 304
-0.973376, 361, 65, 424, 128
-0.973399, 1, 1, 128, 128
-0.973729, 249, 65, 312, 320
-0.973775, 369, 97, 432, 160
-0.973802, 257, 265, 320, 328
-0.973957, 41, 233, 104, 296
-0.973965, 337, 169, 464, 232
-0.973969, 113, 153, 240, 216
-0.974145, 33, 17, 96, 80
-0.974253, 105, 17, 168, 144
-0.974254, 313, 57, 376, 120
-0.974258, 25, 129, 88, 375
-0.974282, 329, 89, 392, 152
-0.974374, 209, 169, 336, 232
-0.974442, 217, 129, 280, 375
-0.974464, 145, 177, 272, 240
-0.974537, 321, 113, 448, 240
-0.974572, 361, 1, 424, 128
-0.974686, 281, 265, 344, 328
-0.9747, 65, 1, 128, 128
-0.974743, 9, 257, 72, 320
-0.97489, 65, 25, 128, 88
-0.974946, 33, 153, 160, 216
-0.975178, 289, 81, 352, 144
-0.975218, 393, 49, 456, 176
-0.975289, 49, 129, 112, 375
-0.975476, 257, 177, 384, 240
-0.975551, 273, 233, 336, 296
-0.975558, 413, 201, 444, 264
-0.975662, 161, 113, 224, 240
-0.975689, 249, 73, 312, 136
-0.975752, 241, 233, 368, 296
-0.975947, 1, 1, 64, 256
-0.976046, 221, 161, 252, 224
-0.976226, 177, 185, 240, 248
-0.976408, 1, 1, 64, 64
-0.976486, 321, 249, 448, 312
-0.976503, 245, 169, 276, 232
-0.976563, 417, 177, 448, 304
-0.976653, 433, 113, 496, 176
-0.976724, 33, 41, 96, 104
-0.976736, 233, 233, 296, 296
-0.976763, 217, 137, 280, 200
-0.976796, 353, 17, 480, 144
-0.976974, 321, 217, 448, 280
-0.977016, 161, 153, 288, 216
-0.977219, 37, 153, 68, 216
-0.977234, 57, 97, 120, 224
-0.977277, 221, 161, 252, 288
-0.977311, 257, 209, 320, 272
-0.977499, 225, 1, 288, 256
-0.977606, 177, 241, 240, 304
-0.97762, 193, 217, 320, 280
-0.977634, 345, 65, 408, 320
-0.9777, 341, 193, 372, 320
-0.977903, 329, 193, 360, 320
-0.977913, 273, 257, 400, 320
-0.977938, 137, 97, 200, 224
-0.977992, 433, 97, 464, 224
-0.978035, 321, 193, 448, 256
-0.978038, 233, 41, 296, 104
-0.978121, 209, 97, 336, 224
-0.97814, 193, 129, 256, 375
-0.978313, 353, 257, 416, 320
-0.978421, 353, 145, 416, 208
-0.978427, 17, 233, 144, 296
-0.978547, 265, 113, 328, 240
-0.978617, 317, 193, 348, 256
-0.978649, 273, 201, 400, 264
-0.978693, 113, 177, 176, 240
-0.978812, 365, 177, 396, 240
-0.978899, 297, 17, 360, 144
-0.978901, 333, 169, 364, 232
-0.978901, 1, 177, 128, 240
-0.978914, 425, 97, 488, 352
-0.979, 25, 97, 88, 224
-0.979062, 341, 145, 372, 272
-0.979103, 385, 161, 416, 288
-0.979105, 317, 193, 348, 320
-0.979258, 177, 137, 240, 200
-0.979294, 65, 113, 192, 240
-0.979302, 1, 193, 64, 256
-0.979315, 313, 65, 376, 320
-0.979337, 321, 65, 448, 128
-0.97942, 105, 25, 168, 88
-0.979548, 361, 193, 392, 320
-0.979576, 233, 153, 264, 216
-0.979638, 241, 49, 368, 112
-0.979687, 29, 177, 60, 304
-0.979863, 313, 241, 376, 368
-0.979905, 201, 81, 264, 208
-0.980057, 217, 1, 280, 375
-0.980122, 25, 1, 88, 256
-0.980171, 161, 1, 224, 256
-0.980227, 161, 217, 224, 280
-0.980262, 297, 209, 328, 336
-0.980279, 145, 153, 176, 216
-0.980283, 1, 49, 64, 176
-0.980308, 245, 145, 276, 272
-0.980321, 361, 249, 392, 312
-0.980389, 209, 161, 240, 288
-0.980523, 421, 177, 452, 240
-0.98053, 385, 241, 448, 368
-0.980566, 1, 257, 128, 320
-0.980578, 201, 153, 232, 216
-0.980605, 233, 225, 264, 352
-0.980619, 17, 177, 48, 240
-0.980645, 209, 193, 336, 256
-0.980672, 321, 169, 352, 232
-0.980717, 417, 153, 480, 216
-0.980727, 37, 129, 68, 256
-0.980741, 377, 257, 440, 320
-0.98089, 25, 137, 88, 200
-0.980949, 169, 25, 232, 88
-0.981083, 345, 169, 376, 232
-0.981116, 397, 161, 428, 288
-0.981132, 329, 145, 392, 208
-0.981156, 153, 145, 184, 272
-0.981306, 289, 65, 352, 320
-0.981327, 137, 201, 200, 264
-0.981343, 17, 1, 48, 128
-0.981417, 233, 209, 296, 272
-0.981478, 425, 177, 488, 240
-0.98151, 89, 1, 152, 256
-0.981526, 233, 273, 296, 336
-0.981557, 381, 169, 412, 232
-0.981574, 153, 129, 216, 192
-0.981589, 25, 185, 88, 248
-0.981608, 389, 249, 420, 312
-0.981655, 337, 1, 400, 375
-0.981657, 237, 193, 268, 256
-0.98168, 81, 177, 144, 240
-0.981688, 37, 177, 68, 240
-0.981759, 145, 201, 272, 264
-0.981777, 229, 225, 260, 288
-0.981825, 73, 129, 136, 375
-0.981913, 285, 209, 316, 336
-0.981918, 25, 153, 56, 216
-0.981997, 429, 201, 460, 264
-0.981998, 97, 233, 160, 296
-0.982007, 57, 1, 120, 256
-0.982076, 41, 265, 104, 328
-0.982093, 173, 161, 204, 288
-0.982116, 361, 81, 392, 208
-0.982137, 145, 233, 272, 296
-0.982139, 305, 89, 432, 152
-0.982145, 97, 129, 160, 375
-0.982164, 373, 249, 404, 312
-0.982204, 1, 121, 64, 184
-0.982206, 169, 1, 232, 375
-0.98224, 293, 161, 324, 288
-0.982267, 161, 129, 224, 375
-0.982292, 449, 113, 480, 240
-0.982351, 65, 273, 128, 336
-0.982356, 33, 1, 96, 375
-0.982437, 25, 233, 56, 296
-0.982459, 409, 225, 440, 288
-0.982464, 17, 25, 144, 88
-0.982574, 397, 209, 428, 336
-0.982576, 129, 161, 160, 288
-0.982576, 141, 161, 172, 288
-0.982621, 193, 1, 256, 256
-0.982638, 193, 265, 320, 328
-0.982645, 241, 81, 368, 144
-0.982648, 161, 33, 288, 96
-0.98266, 257, 161, 288, 224
-0.98267, 409, 169, 440, 232
-0.982734, 65, 233, 128, 296
-0.982783, 97, 97, 160, 224
-0.982862, 429, 177, 460, 304
-0.982879, 353, 97, 480, 160
-0.982898, 201, 265, 264, 328
-0.982903, 57, 161, 88, 288
-0.982919, 433, 201, 496, 264
-0.982927, 1, 97, 64, 352
-0.982928, 361, 1, 424, 375
-0.982944, 165, 153, 196, 216
-0.982972, 81, 1, 144, 64
-0.983029, 301, 257, 332, 320
-0.98307, 377, 145, 440, 208
-0.98309, 405, 97, 436, 224
-0.983149, 341, 193, 372, 256
-0.983149, 57, 209, 88, 336
-0.983182, 317, 145, 348, 272
-0.983239, 449, 113, 480, 176
-0.983245, 245, 241, 276, 368
-0.983317, 193, 161, 224, 288
-0.983322, 177, 65, 240, 192
-0.983342, 305, 145, 368, 208
-0.983377, 25, 65, 88, 128
-0.983577, 1, 41, 64, 104
-0.983589, 81, 49, 208, 176
-0.983605, 133, 169, 164, 232
-0.98362, 265, 145, 328, 208
-0.983746, 81, 177, 208, 240
-0.983801, 209, 145, 336, 208
-0.983878, 321, 217, 352, 280
-0.983966, 241, 1, 304, 375
-0.983986, 105, 201, 168, 264
-0.984079, 385, 73, 448, 136
-0.984094, 193, 241, 320, 304
-0.9841, 189, 153, 220, 216
-0.984142, 221, 209, 252, 336
-0.98421, 305, 65, 336, 192
-0.984299, 17, 1, 144, 64
-0.984323, 249, 17, 312, 80
-0.984379, 341, 257, 372, 320
-0.984386, 305, 281, 368, 344
-0.984454, 1, 161, 64, 288
-0.984459, 433, 105, 464, 168
-0.984475, 365, 153, 396, 216
-0.984478, 73, 57, 136, 120
-0.984509, 85, 161, 116, 288
-0.984536, 381, 225, 412, 288
-0.984538, 193, 17, 256, 144
-0.984614, 57, 153, 88, 216
-0.984702, 245, 145, 276, 208
-0.984706, 257, 65, 288, 192
-0.984804, 329, 241, 360, 304
-0.984916, 73, 225, 104, 352
-0.984921, 89, 1, 152, 375
-0.984966, 313, 1, 376, 375
-0.984991, 309, 169, 340, 232
-0.985006, 17, 57, 144, 120
-0.985018, 261, 33, 292, 96
-0.985023, 81, 17, 208, 80
-0.985033, 209, 225, 240, 352
-0.985105, 121, 97, 184, 352
-0.985124, 357, 89, 388, 152
-0.985148, 373, 177, 404, 304
-0.98516, 73, 177, 104, 304
-0.985164, 9, 1, 72, 375
-0.985227, 369, 233, 496, 296
-0.985239, 193, 65, 320, 128
-0.985244, 377, 65, 408, 128
-0.985304, 177, 1, 240, 64
-0.985342, 405, 97, 436, 160
-0.985393, 241, 233, 272, 296
-0.985408, 209, 241, 240, 304
-0.985417, 57, 1, 120, 375
-0.985453, 225, 185, 256, 248
-0.985485, 393, 1, 456, 375
-0.985491, 397, 225, 428, 288
-0.985577, 25, 209, 56, 272
-0.985591, 357, 65, 388, 128
-0.985608, 137, 17, 200, 144
-0.985736, 409, 81, 472, 144
-0.985835, 153, 1, 216, 64
-0.985851, 361, 33, 392, 160
-0.985879, 193, 1, 256, 375
-0.985883, 289, 265, 320, 328
-0.985935, 93, 225, 124, 352
-0.985971, 137, 233, 200, 296
-0.985992, 81, 233, 208, 296
-0.985993, 1, 169, 64, 232
-0.986021, 21, 17, 52, 80
-0.986073, 177, 169, 208, 232
-0.986108, 293, 65, 324, 192
-0.986126, 233, 129, 264, 256
-0.98617, 241, 25, 368, 88
-0.986234, 41, 177, 72, 304
-0.986242, 301, 233, 332, 296
-0.986243, 289, 153, 416, 216
-0.986254, 429, 225, 460, 288
-0.986323, 1, 73, 64, 136
-0.986324, 269, 169, 300, 232
-0.986356, 289, 1, 352, 375
-0.986358, 97, 201, 224, 264
-0.986369, 345, 57, 376, 120
-0.986374, 361, 145, 392, 272
-0.986455, 121, 169, 152, 232
-0.986484, 417, 97, 448, 224
-0.986527, 41, 33, 72, 96
-0.986533, 353, 25, 416, 88
-0.986564, 49, 233, 80, 296
-0.98667, 321, 81, 352, 144
-0.986694, 149, 177, 180, 240
-0.986701, 101, 153, 132, 216
-0.986755, 377, 81, 408, 208
-0.986769, 433, 177, 464, 240
-0.986786, 385, 225, 416, 352
-0.986794, 321, 81, 352, 208
-0.986798, 245, 193, 276, 320
-0.986831, 121, 225, 152, 352
-0.986853, 133, 145, 164, 208
-0.986854, 349, 81, 380, 208
-0.986933, 25, 129, 56, 256
-0.98701, 341, 241, 372, 368
-0.987018, 293, 193, 324, 256
-0.987039, 389, 81, 420, 208
-0.987048, 245, 33, 276, 160
-0.987057, 425, 233, 488, 296
-0.987061, 257, 145, 288, 272
-0.987063, 269, 65, 300, 192
-0.987105, 265, 1, 328, 375
-0.987118, 81, 153, 112, 216
-0.98714, 65, 17, 96, 80
-0.987151, 217, 17, 280, 80
-0.987201, 377, 97, 408, 160
-0.987223, 281, 33, 312, 160
-0.987248, 145, 1, 208, 375
-0.987293, 145, 129, 272, 192
-0.987295, 397, 161, 428, 224
-0.987331, 197, 241, 228, 368
-0.987352, 165, 177, 196, 240
-0.987352, 29, 257, 60, 320
-0.987363, 113, 1, 176, 375
-0.987383, 369, 209, 496, 272
-0.987497, 349, 33, 380, 160
-0.987498, 333, 65, 364, 192
-0.987637, 369, 225, 400, 288
-0.987723, 277, 73, 308, 136
-0.987764, 101, 161, 132, 288
-0.987776, 293, 169, 324, 232
-0.987789, 329, 145, 360, 272
-0.987828, 197, 177, 228, 240
-0.987887, 49, 129, 112, 192
-0.987895, 161, 225, 192, 352
-0.987919, 413, 225, 444, 352
-0.987929, 141, 225, 172, 352
-0.987957, 321, 273, 448, 336
-0.987977, 241, 33, 272, 96
-0.987983, 373, 225, 404, 352
-0.988017, 305, 81, 336, 144
-0.988018, 461, 97, 492, 224
-0.988028, 425, 65, 488, 192
-0.988035, 37, 225, 68, 288
-0.988065, 113, 1, 176, 256
-0.988067, 341, 89, 372, 152
-0.988118, 33, 129, 160, 192
-0.98816, 105, 1, 168, 64
-0.988223, 205, 65, 236, 192
-0.988242, 285, 233, 316, 296
-0.988247, 193, 17, 224, 144
-0.988257, 249, 193, 280, 256
-0.98841, 225, 65, 288, 128
-0.988448, 101, 25, 132, 88
-0.988506, 25, 225, 56, 352
-0.988529, 273, 209, 304, 336
-0.988559, 37, 81, 68, 208
-0.988576, 113, 161, 144, 288
-0.988605, 93, 1, 124, 128
-0.988684, 393, 73, 424, 136
-0.988694, 109, 225, 140, 352
-0.988704, 213, 185, 244, 248
-0.988779, 277, 41, 308, 104
-0.988853, 273, 281, 400, 344
-0.988895, 33, 1, 64, 64
-0.988926, 37, 17, 68, 144
-0.988946, 293, 17, 324, 144
-0.989037, 13, 161, 44, 288
-0.98907, 137, 1, 200, 256
-0.989084, 393, 97, 424, 160
-0.989102, 337, 237, 400, 268
-0.989124, 25, 89, 88, 152
-0.989128, 89, 25, 120, 88
-0.989143, 217, 173, 280, 204
-0.989153, 45, 225, 76, 352
-0.989163, 421, 105, 452, 168
-0.989167, 257, 73, 288, 136
-0.989184, 217, 157, 280, 188
-0.989188, 161, 9, 288, 72
-0.989203, 17, 181, 80, 212
-0.989222, 305, 41, 432, 104
-0.989244, 97, 129, 160, 192
-0.989288, 169, 57, 232, 120
-0.989294, 261, 1, 292, 128
-0.989408, 429, 153, 460, 216
-0.989409, 361, 249, 424, 280
-0.989413, 341, 233, 372, 296
-0.989453, 325, 57, 356, 120
-0.989474, 313, 273, 344, 336
-0.989474, 377, 233, 440, 264
-0.98948, 85, 233, 116, 296
-0.989488, 293, 81, 324, 144
-0.989523, 313, 49, 344, 112
-0.989532, 17, 165, 80, 196
-0.989583, 461, 113, 492, 176
-0.98961, 433, 89, 496, 152
-0.989626, 121, 145, 152, 208
-0.989635, 221, 33, 252, 96
-0.989652, 293, 49, 324, 112
-0.989661, 1, 97, 64, 160
-0.989697, 77, 25, 108, 88
-0.989718, 57, 193, 120, 256
-0.989724, 369, 257, 496, 320
-0.989766, 9, 249, 40, 312
-0.989797, 401, 229, 464, 260
-0.989804, 321, 261, 384, 292
-0.989819, 369, 121, 496, 184
-0.989824, 61, 233, 92, 296
-0.989852, 261, 209, 292, 336
-0.98987, 321, 17, 448, 80
-0.989889, 137, 193, 168, 256
-0.989923, 33, 153, 96, 184
-0.989934, 401, 249, 432, 312
-0.989936, 253, 273, 284, 336
-0.989978, 181, 225, 212, 352
-0.99002, 289, 209, 352, 240
-0.990061, 57, 1, 120, 64
-0.99007, 369, 73, 496, 136
-0.990075, 269, 273, 300, 336
-0.990086, 201, 185, 264, 216
-0.990102, 89, 177, 152, 208
-0.990111, 397, 185, 428, 248
-0.990115, 117, 17, 148, 144
-0.990115, 309, 241, 340, 368
-0.990191, 241, 173, 304, 204
-0.990195, 305, 161, 336, 288
-0.990198, 273, 161, 304, 288
-0.990207, 337, 225, 400, 256
-0.99022, 37, 129, 68, 192
-0.990221, 329, 201, 392, 232
-0.990249, 241, 189, 304, 220
-0.990284, 329, 273, 392, 336
-0.990288, 17, 81, 144, 144
-0.990326, 337, 249, 400, 280
-0.990328, 201, 241, 264, 272
-0.99033, 393, 213, 456, 244
-0.990345, 137, 25, 200, 88
-0.99035, 221, 17, 252, 144
-0.99036, 265, 193, 296, 256
-0.990367, 317, 33, 348, 160
-0.990373, 33, 201, 160, 264
-0.99039, 21, 81, 52, 208
-0.990414, 69, 1, 100, 128
-0.990425, 225, 297, 352, 360
-0.990427, 273, 177, 336, 208
-0.990439, 161, 173, 224, 204
-0.990448, 297, 221, 360, 252
-0.990463, 81, 201, 144, 264
-0.990493, 129, 173, 192, 204
-0.990529, 49, 169, 112, 200
-0.990557, 357, 225, 388, 288
-0.990612, 393, 197, 456, 228
-0.990624, 257, 41, 320, 72
-0.990634, 177, 185, 240, 216
-0.990646, 13, 153, 44, 216
-0.990649, 297, 241, 360, 272
-0.990657, 65, 49, 192, 112
-0.990669, 185, 225, 216, 288
-0.990677, 249, 297, 312, 360
-0.990684, 361, 221, 424, 252
-0.990693, 341, 145, 372, 208
-0.990712, 17, 193, 80, 224
-0.99072, 201, 65, 264, 128
-0.99073, 377, 177, 440, 208
-0.990737, 1, 105, 128, 168
-0.990754, 33, 289, 160, 352
-0.990763, 401, 181, 464, 212
-0.99078, 329, 189, 392, 220
-0.990782, 401, 109, 464, 140
-0.990785, 89, 273, 152, 336
-0.990798, 193, 161, 256, 192
-0.990803, 161, 169, 416, 232
-0.990806, 289, 197, 352, 228
-0.990833, 337, 145, 464, 208
-0.990856, 173, 113, 204, 240
-0.990888, 97, 129, 224, 192
-0.990923, 1, 261, 64, 292
-0.990924, 361, 1, 424, 64
-0.990944, 1, 241, 500, 304
-0.990955, 5, 1, 36, 128
-0.990973, 369, 197, 432, 228
-0.990974, 225, 233, 480, 296
-0.990991, 1, 233, 256, 296
-0.991022, 9, 149, 72, 180
-0.991041, 97, 49, 160, 112
-0.991055, 401, 241, 464, 272
-0.99106, 129, 1, 192, 64
-0.991063, 169, 1, 200, 128
-0.991085, 1, 1, 32, 64
-0.991088, 193, 205, 256, 236
-0.991095, 369, 101, 432, 132
-0.991103, 265, 81, 328, 112
-0.991121, 73, 233, 104, 296
-0.991131, 193, 173, 256, 204
-0.991144, 233, 201, 296, 232
-0.991154, 65, 181, 128, 212
-0.991179, 417, 193, 480, 224
-0.991195, 217, 57, 280, 88
-0.99121, 97, 157, 160, 188
-0.99121, 121, 129, 184, 192
-0.991212, 273, 297, 336, 360
-0.991219, 297, 253, 360, 284
-0.991224, 17, 237, 80, 268
-0.991224, 137, 157, 200, 188
-0.991248, 169, 161, 232, 192
-0.991259, 257, 169, 500, 232
-0.991268, 425, 209, 488, 336
-0.991344, 445, 89, 476, 152
-0.991349, 161, 201, 192, 264
-0.991352, 65, 273, 128, 304
-0.991354, 25, 17, 88, 48
-0.991354, 217, 41, 280, 72
-0.991364, 73, 165, 136, 196
-0.991367, 193, 113, 224, 240
-0.991377, 429, 81, 460, 144
-0.991389, 25, 265, 88, 296
-0.9914, 281, 273, 344, 304
-0.991402, 241, 161, 304, 192
-0.991403, 265, 205, 328, 236
-0.991409, 337, 93, 400, 124
-0.991428, 41, 181, 104, 212
-0.991444, 233, 237, 296, 268
-0.991444, 25, 65, 88, 96
-0.991447, 381, 145, 412, 208
-0.99147, 401, 49, 432, 176
-0.991473, 145, 257, 272, 320
-0.991474, 329, 213, 392, 244
-0.991474, 201, 253, 264, 284
-0.991483, 69, 153, 100, 216
-0.991486, 221, 137, 252, 200
-0.991492, 9, 5, 72, 36
-0.991508, 113, 25, 144, 88
-0.991526, 137, 185, 200, 216
-0.991532, 233, 221, 296, 252
-0.991555, 377, 17, 408, 144
-0.991559, 297, 89, 360, 120
-0.991559, 65, 153, 320, 216
-0.991561, 265, 193, 328, 224
-0.991567, 241, 257, 304, 288
-0.991585, 353, 181, 416, 212
-0.991598, 313, 169, 376, 200
-0.991603, 241, 77, 304, 108
-0.991647, 89, 189, 152, 220
-0.991653, 409, 145, 440, 208
-0.991674, 5, 185, 36, 248
-0.991719, 49, 1, 80, 64
-0.991736, 65, 29, 128, 60
-0.991751, 221, 113, 252, 240
-0.991753, 385, 253, 448, 284
-0.99178, 1, 25, 64, 56
-0.99178, 41, 33, 104, 64
-0.99181, 417, 121, 480, 152
-0.991812, 49, 17, 112, 48
-0.991815, 361, 209, 424, 240
-0.991829, 201, 221, 264, 252
-0.991847, 241, 129, 304, 192
-0.991935, 113, 185, 176, 216
-0.99194, 225, 29, 288, 60
-0.991942, 257, 269, 320, 300
-0.991945, 273, 257, 336, 288
-0.991952, 249, 29, 312, 60
-0.991964, 297, 181, 360, 212
-0.991979, 105, 33, 168, 64
-0.991985, 161, 241, 224, 272
-0.992, 225, 81, 288, 208
-0.992031, 73, 17, 136, 48
-0.99204, 257, 233, 320, 264
-0.992045, 361, 53, 424, 84
-0.992083, 65, 297, 128, 360
-0.992099, 217, 69, 280, 100
-0.992102, 417, 1, 480, 375
-0.992132, 33, 45, 96, 76
-0.99215, 417, 205, 480, 236
-0.992154, 1, 137, 64, 168
-0.992167, 217, 265, 280, 296
-0.992172, 21, 189, 52, 220
-0.992179, 129, 17, 192, 48
-0.992193, 313, 281, 376, 312
-0.992203, 33, 5, 96, 36
-0.992209, 329, 33, 392, 96
-0.992224, 57, 145, 120, 176
-0.992232, 265, 165, 328, 196
-0.992236, 353, 169, 416, 200
-0.99225, 257, 221, 320, 252
-0.992261, 161, 25, 224, 56
-0.992274, 1, 73, 500, 136
-0.992275, 257, 53, 320, 84
-0.99228, 105, 17, 136, 144
-0.992285, 257, 65, 320, 96
-0.992302, 105, 17, 168, 48
-0.992322, 337, 69, 400, 100
-0.992336, 177, 149, 240, 180
-0.99235, 433, 97, 496, 128
-0.99237, 57, 193, 120, 224
-0.99239, 361, 73, 424, 104
-0.992401, 81, 281, 208, 344
-0.99241, 425, 177, 488, 208
-0.992415, 401, 97, 464, 128
-0.992424, 17, 225, 80, 256
-0.992436, 425, 229, 488, 260
-0.992436, 21, 177, 52, 208
-0.992438, 1, 97, 32, 224
-0.992454, 37, 149, 68, 180
-0.992485, 65, 33, 320, 96
-0.99251, 401, 169, 464, 200
-0.992512, 25, 81, 88, 112
-0.992515, 1, 249, 64, 280
-0.99254, 217, 145, 280, 176
-0.992542, 433, 217, 496, 248
-0.992546, 9, 185, 40, 216
-0.992555, 193, 29, 256, 60
-0.992571, 369, 269, 432, 300
-0.992577, 1, 105, 64, 136
-0.992583, 329, 241, 360, 368
-0.992602, 241, 189, 272, 220
-0.992602, 221, 189, 252, 220
-0.992632, 221, 173, 252, 204
-0.992659, 317, 209, 348, 240
-0.992661, 37, 165, 68, 196
-0.992673, 37, 181, 68, 212
-0.992686, 229, 201, 260, 232
-0.992687, 237, 157, 268, 188
-0.992696, 369, 49, 496, 112
-0.992698, 417, 225, 448, 256
-0.992704, 449, 121, 480, 152
-0.992706, 21, 205, 52, 236
-0.992708, 225, 305, 288, 368
-0.99271, 401, 249, 432, 280
-0.992715, 417, 197, 448, 228
-0.99273, 253, 161, 284, 192
-0.992747, 245, 173, 276, 204
-0.99275, 429, 181, 460, 212
-0.992788, 57, 161, 88, 192
-0.992794, 233, 241, 264, 272
-0.992802, 341, 241, 372, 272
-0.992804, 241, 201, 272, 232
-0.992813, 365, 181, 396, 212
-0.992815, 9, 197, 40, 228
-0.992837, 233, 177, 264, 208
-0.992844, 433, 101, 464, 132
-0.992847, 257, 173, 288, 204
-0.992848, 305, 17, 336, 144
-0.99286, 221, 161, 252, 192
-0.99286, 429, 197, 460, 228
-0.99286, 433, 113, 464, 144
-0.992875, 305, 261, 336, 292
-0.992881, 101, 177, 132, 208
-0.992889, 193, 165, 224, 196
-0.992903, 417, 181, 448, 212
-0.992913, 237, 221, 268, 252
-0.992916, 417, 241, 448, 272
-0.992927, 277, 177, 308, 208
-0.99293, 429, 225, 460, 256
-0.992939, 257, 89, 500, 152
-0.992941, 245, 241, 276, 272
-0.992943, 333, 261, 364, 292
-0.992944, 365, 169, 396, 200
-0.992949, 201, 181, 232, 212
-0.992964, 81, 161, 112, 192
-0.992965, 377, 253, 408, 284
-0.992969, 417, 213, 448, 244
-0.99298, 21, 165, 52, 196
-0.992994, 365, 193, 396, 224
-0.993001, 337, 205, 368, 236
-0.993008, 25, 261, 56, 292
-0.993016, 421, 109, 452, 140
-0.993019, 389, 101, 420, 132
-0.993022, 361, 253, 392, 284
-0.993028, 409, 105, 440, 136
-0.993029, 117, 177, 148, 208
-0.993039, 321, 225, 352, 256
-0.993048, 349, 93, 380, 124
-0.993048, 93, 49, 124, 80
-0.993062, 181, 173, 212, 204
-0.993075, 9, 173, 40, 204
-0.993076, 345, 189, 376, 220
-0.993082, 129, 169, 160, 200
-0.993084, 77, 173, 108, 204
-0.993084, 261, 77, 292, 108
-0.993084, 257, 37, 288, 68
-0.993088, 237, 253, 268, 284
-0.993088, 377, 181, 408, 212
-0.993088, 141, 185, 172, 216
-0.993094, 13, 209, 44, 336
-0.993096, 225, 229, 256, 260
-0.993097, 293, 205, 324, 236
-0.9931, 325, 89, 356, 120
-0.993103, 321, 253, 352, 284
-0.993109, 325, 193, 356, 224
-0.993114, 345, 261, 376, 292
-0.993118, 57, 21, 88, 52
-0.993124, 37, 265, 68, 296
-0.993128, 369, 97, 400, 128
-0.993131, 289, 269, 320, 300
-0.993132, 205, 169, 236, 200
-0.993133, 217, 241, 248, 272
-0.993134, 81, 49, 144, 176
-0.993134, 285, 81, 316, 112
-0.99314, 365, 241, 396, 272
-0.993141, 321, 269, 352, 300
-0.993145, 205, 69, 236, 100
-0.993145, 109, 33, 140, 64
-0.993146, 313, 197, 344, 228
-0.993146, 309, 85, 340, 116
-0.993152, 101, 157, 132, 188
-0.993154, 345, 177, 376, 208
-0.993159, 285, 257, 316, 288
-0.993159, 429, 241, 460, 272
-0.993164, 297, 177, 328, 208
-0.993166, 225, 217, 256, 248
-0.993167, 89, 177, 120, 208
-0.993171, 177, 161, 208, 192
-0.993175, 41, 37, 72, 68
-0.993179, 1, 13, 32, 44
-0.993181, 129, 181, 160, 212
-0.993182, 389, 249, 420, 280
-0.993183, 25, 229, 56, 260
-0.993184, 177, 305, 304, 368
-0.993184, 161, 173, 192, 204
-0.99319, 13, 257, 44, 288
-0.993191, 21, 17, 52, 48
-0.993193, 57, 177, 88, 208
-0.993194, 405, 237, 436, 268
-0.993195, 273, 193, 304, 224
-0.993199, 141, 173, 172, 204
-0.9932, 37, 193, 68, 224
-0.9932, 413, 169, 444, 200
-0.993204, 237, 37, 268, 68
-0.993207, 53, 149, 84, 180
-0.993211, 73, 17, 104, 48
-0.993211, 209, 157, 240, 188
-0.993222, 361, 241, 392, 368
-0.993226, 321, 241, 352, 272
-0.993233, 393, 233, 424, 264
-0.993237, 181, 17, 212, 144
-0.993244, 25, 145, 56, 176
-0.993248, 317, 173, 348, 204
-0.993248, 225, 253, 256, 284
-0.993249, 61, 65, 92, 96
-0.993259, 381, 233, 412, 264
-0.993259, 121, 25, 152, 56
-0.99326, 257, 201, 500, 264
-0.993261, 301, 193, 332, 224
-0.993263, 205, 245, 236, 276
-0.993265, 405, 189, 436, 220
-0.993265, 273, 77, 304, 108
-0.993276, 149, 25, 180, 56
-0.993277, 405, 213, 436, 244
-0.993283, 177, 205, 208, 236
-0.993287, 257, 57, 288, 88
-0.993347, 65, 257, 320, 320
-0.993393, 417, 49, 448, 176
-0.993461, 129, 17, 160, 144
-0.993484, 225, 57, 480, 120
-0.993519, 1, 169, 500, 232
-0.993519, 389, 17, 420, 144
-0.993534, 257, 257, 500, 320
-0.993681, 441, 161, 472, 288
-0.99377, 241, 193, 256, 256
-0.993772, 321, 253, 448, 284
-0.993781, 161, 145, 416, 208
-0.993835, 1, 41, 500, 104
-0.993883, 429, 193, 444, 256
-0.993904, 161, 173, 288, 204
-0.993946, 393, 1, 456, 128
-0.993956, 209, 113, 240, 240
-0.993978, 161, 97, 192, 224
-0.994008, 293, 113, 324, 240
-0.99401, 177, 189, 304, 220
-0.994044, 277, 113, 308, 240
-0.994053, 65, 177, 320, 240
-0.99407, 1, 217, 500, 280
-0.99417, 333, 17, 364, 144
-0.994206, 1, 181, 128, 212
-0.994291, 161, 201, 416, 264
-0.994299, 273, 261, 400, 292
-0.994358, 113, 41, 240, 104
-0.994385, 241, 153, 256, 216
-0.994489, 225, 33, 480, 96
-0.994522, 161, 161, 288, 192
-0.99453, 205, 17, 236, 144
-0.994567, 33, 185, 48, 248
-0.99457, 305, 113, 336, 240
-0.994648, 257, 129, 384, 192
-0.994666, 101, 97, 132, 224
-0.994675, 239, 217, 254, 280
-0.994698, 17, 193, 144, 224
-0.994715, 17, 165, 144, 196
-0.994735, 157, 17, 188, 144
-0.994749, 379, 233, 394, 296
-0.994758, 161, 105, 288, 168
-0.994766, 209, 173, 336, 204
-0.994814, 1, 265, 500, 328
-0.994818, 57, 97, 88, 224
-0.994828, 81, 177, 208, 208
-0.994834, 161, 265, 416, 328
-0.994868, 33, 161, 48, 224
-0.994882, 321, 189, 448, 220
-0.994898, 421, 217, 436, 280
-0.994955, 129, 189, 256, 220
-0.994973, 1, 193, 500, 256
-0.994997, 257, 177, 384, 208
-0.995005, 97, 305, 224, 368
-0.995006, 241, 209, 368, 240
-0.995016, 223, 153, 238, 216
-0.995023, 85, 49, 116, 176
-0.995039, 337, 169, 352, 232
-0.995064, 429, 49, 460, 176
-0.995064, 81, 257, 208, 320
-0.995091, 429, 169, 444, 232
-0.99511, 249, 161, 264, 224
-0.995128, 217, 161, 232, 224
-0.995129, 225, 193, 352, 224
-0.995138, 359, 169, 374, 232
-0.995175, 445, 65, 476, 192
-0.995264, 421, 169, 436, 232
-0.995274, 289, 205, 416, 236
-0.995291, 369, 25, 496, 88
-0.995321, 225, 233, 352, 264
-0.995387, 157, 153, 172, 216
-0.995391, 1, 153, 128, 184
-0.995393, 343, 241, 358, 304
-0.995404, 161, 81, 416, 144
-0.995426, 25, 169, 40, 232
-0.99544, 61, 153, 76, 216
-0.995441, 409, 241, 424, 304
-0.995441, 333, 209, 348, 272
-0.995452, 1, 201, 256, 264
-0.995473, 225, 249, 352, 280
-0.995481, 371, 233, 386, 296
-0.995486, 257, 153, 272, 216
-0.995498, 249, 185, 264, 248
-0.995521, 327, 169, 342, 232
-0.995522, 235, 153, 250, 216
-0.995531, 369, 201, 384, 264
-0.995542, 415, 225, 430, 288
-0.995577, 177, 201, 304, 232
-0.995585, 97, 57, 352, 120
-0.99559, 421, 193, 436, 256
-0.995593, 305, 233, 432, 264
-0.995598, 145, 65, 272, 128
-0.995602, 241, 53, 368, 84
-0.995648, 385, 169, 400, 232
-0.995672, 247, 233, 262, 296
-0.995676, 459, 113, 474, 176
-0.995729, 57, 1, 88, 128
-0.995748, 97, 233, 352, 296
-0.995751, 33, 1, 288, 64
-0.995768, 147, 169, 162, 232
-0.995775, 31, 209, 46, 272
-0.99578, 133, 169, 148, 232
-0.995782, 349, 169, 364, 232
-0.995788, 113, 165, 240, 196
-0.995831, 167, 153, 182, 216
-0.995832, 229, 153, 244, 216
-0.995834, 425, 1, 488, 256
-0.995842, 257, 1, 384, 64
-0.995855, 321, 177, 448, 208
-0.995863, 437, 201, 452, 264
-0.995888, 41, 161, 56, 224
-0.995896, 377, 193, 392, 256
-0.995899, 27, 233, 42, 296
-0.995911, 209, 161, 336, 192
-0.995925, 197, 153, 212, 216
-0.995927, 399, 249, 414, 312
-0.995931, 257, 145, 500, 208
-0.995939, 241, 105, 368, 168
-0.995967, 355, 257, 370, 320
-0.995972, 391, 249, 406, 312
-0.995978, 231, 177, 246, 240
-0.995999, 343, 193, 358, 256
-0.996009, 207, 161, 222, 224
-0.99601, 37, 137, 52, 200
-0.996018, 343, 169, 358, 232
-0.996019, 53, 153, 68, 216
-0.996027, 263, 33, 278, 96
-0.996031, 1, 129, 256, 192
-0.996038, 141, 169, 156, 232
-0.996059, 443, 89, 458, 152
-0.996079, 33, 17, 160, 48
-0.99611, 191, 153, 206, 216
-0.996121, 73, 129, 104, 256
-0.99614, 409, 65, 440, 320
-0.996147, 81, 153, 208, 184
-0.996158, 81, 1, 112, 128
-0.996164, 265, 161, 280, 224
-0.996166, 137, 97, 168, 224
-0.99618, 365, 233, 380, 296
-0.996182, 305, 97, 432, 128
-0.996195, 17, 269, 144, 300
-0.99623, 353, 105, 480, 136
-0.996246, 411, 185, 426, 248
-0.996252, 411, 161, 426, 224
-0.996253, 47, 145, 62, 208
-0.99628, 139, 145, 154, 208
-0.996281, 273, 189, 400, 220
-0.996285, 145, 241, 272, 272
-0.996296, 129, 201, 256, 232
-0.996297, 369, 65, 384, 128
-0.996304, 341, 89, 356, 152
-0.996306, 453, 113, 468, 176
-0.99633, 185, 153, 200, 216
-0.99634, 385, 233, 400, 296
-0.996344, 81, 193, 208, 224
-0.996345, 147, 145, 162, 208
-0.996352, 337, 201, 464, 232
-0.996354, 173, 153, 188, 216
-0.996357, 289, 217, 416, 248
-0.996368, 257, 65, 288, 320
-0.996376, 225, 9, 480, 72
-0.996379, 367, 161, 382, 224
-0.996386, 1, 97, 500, 160
-0.996409, 337, 249, 352, 312
-0.996409, 241, 273, 368, 304
-0.996424, 437, 177, 452, 240
-0.996428, 241, 81, 368, 112
-0.996445, 311, 169, 326, 232
-0.99645, 1, 57, 256, 120
-0.996456, 17, 237, 144, 268
-0.996459, 223, 241, 238, 304
-0.99646, 395, 225, 410, 288
-0.996464, 67, 153, 82, 216
-0.996466, 395, 161, 410, 224
-0.996472, 313, 225, 328, 288
-0.996475, 179, 153, 194, 216
-0.996475, 233, 225, 248, 288
-0.996476, 411, 97, 426, 160
-0.996476, 301, 265, 316, 328
-0.996479, 233, 129, 264, 375
-0.996492, 397, 65, 428, 320
-0.996495, 429, 97, 460, 352
-0.99651, 319, 81, 334, 144
-0.996513, 361, 257, 376, 320
-0.996524, 167, 177, 182, 240
-0.996552, 369, 89, 384, 152
-0.996556, 349, 257, 364, 320
-0.996559, 25, 193, 40, 256
-0.996568, 193, 73, 320, 104
-0.996582, 381, 65, 412, 320
-0.996587, 71, 17, 86, 80
-0.996609, 383, 65, 398, 128
-0.996618, 123, 153, 138, 216
-0.996621, 241, 197, 256, 228
-0.996625, 33, 33, 160, 64
-0.996632, 49, 313, 176, 375
-0.996659, 37, 233, 52, 296
-0.996659, 347, 89, 362, 152
-0.996672, 31, 189, 46, 220
-0.996673, 103, 153, 118, 216
-0.996682, 95, 153, 110, 216
-0.996683, 317, 169, 332, 232
-0.99669, 65, 281, 320, 344
-0.996691, 93, 25, 108, 88
-0.996697, 321, 73, 448, 104
-0.996704, 303, 201, 318, 264
-0.996721, 271, 169, 286, 232
-0.996722, 375, 65, 390, 128
-0.996726, 369, 181, 496, 212
-0.996729, 225, 41, 352, 72
-0.996729, 361, 65, 376, 128
-0.996729, 381, 97, 396, 160
-0.996738, 361, 89, 376, 152
-0.996744, 107, 25, 122, 88
-0.996746, 449, 97, 480, 352
-0.996747, 1, 5, 128, 36
-0.996748, 43, 225, 58, 288
-0.996748, 305, 169, 320, 232
-0.996749, 177, 177, 192, 240
-0.996754, 295, 265, 310, 328
-0.996759, 115, 25, 130, 88
-0.996759, 375, 89, 390, 152
-0.996783, 225, 261, 352, 292
-0.996796, 217, 241, 232, 304
-0.996804, 33, 129, 64, 375
-0.996807, 201, 177, 216, 240
-0.996813, 153, 185, 168, 248
-0.996815, 369, 1, 496, 64
-0.996815, 445, 185, 460, 248
-0.996819, 447, 113, 462, 176
-0.99682, 133, 145, 148, 208
-0.996821, 401, 225, 416, 288
-0.996825, 209, 233, 224, 296
-0.996829, 403, 97, 418, 160
-0.996833, 281, 169, 296, 232
-0.996837, 33, 17, 48, 80
-0.996845, 39, 185, 54, 248
-0.996852, 401, 161, 416, 224
-0.996855, 327, 193, 342, 256
-0.996856, 355, 89, 370, 152
-0.996859, 417, 97, 432, 160
-0.996862, 221, 129, 252, 375
-0.996887, 25, 257, 40, 320
-0.996895, 241, 209, 256, 240
-0.996897, 177, 253, 304, 284
-0.996898, 161, 213, 288, 244
-0.996911, 397, 97, 412, 160
-0.996912, 273, 245, 400, 276
-0.996916, 331, 81, 346, 144
-0.996917, 285, 273, 300, 336
-0.99694, 273, 65, 400, 96
-0.996988, 225, 221, 352, 252
-0.997015, 337, 221, 464, 252
-0.997039, 25, 185, 40, 216
-0.99705, 31, 205, 46, 236
-0.997058, 205, 129, 236, 375
-0.997064, 129, 281, 256, 344
-0.997071, 239, 221, 254, 252
-0.997081, 245, 33, 276, 288
-0.997092, 361, 97, 392, 352
-0.997094, 145, 33, 272, 64
-0.997099, 81, 25, 208, 56
-0.9971, 257, 281, 500, 344
-0.99711, 269, 65, 300, 320
-0.99712, 353, 241, 480, 272
-0.997131, 129, 49, 256, 176
-0.997134, 65, 129, 96, 375
-0.99716, 31, 173, 46, 204
-0.99716, 241, 181, 256, 212
-0.99717, 17, 61, 144, 92
-0.997183, 245, 129, 276, 375
-0.997198, 97, 241, 224, 272
-0.997227, 185, 1, 216, 256
-0.997234, 1, 17, 500, 80
-0.997235, 369, 253, 496, 284
-0.99724, 321, 45, 448, 76
-0.997272, 177, 265, 304, 296
-0.997277, 341, 65, 372, 320
-0.997295, 89, 129, 120, 375
-0.997312, 53, 129, 84, 375
-0.997318, 81, 13, 208, 44
-0.997329, 321, 165, 448, 196
-0.99734, 161, 149, 288, 180
-0.997351, 321, 65, 352, 320
-0.997353, 289, 65, 320, 320
-0.997366, 17, 49, 144, 80
-0.997391, 177, 61, 304, 92
-0.997398, 321, 273, 448, 304
-0.997439, 419, 229, 434, 260
-0.997444, 239, 237, 254, 268
-0.997447, 97, 73, 224, 136
-0.99745, 113, 105, 240, 168
-0.997452, 37, 33, 68, 288
-0.997487, 181, 129, 212, 375
-0.997506, 1, 145, 500, 208
-0.997521, 145, 225, 272, 256
-0.997545, 439, 225, 454, 256
-0.997547, 117, 1, 148, 256
-0.997567, 343, 249, 358, 280
-0.997584, 23, 197, 38, 228
-0.997596, 459, 121, 474, 152
-0.997614, 161, 297, 416, 360
-0.997616, 309, 65, 340, 320
-0.997624, 353, 117, 480, 148
-0.997633, 51, 149, 66, 180
-0.997645, 249, 189, 264, 220
-0.997656, 73, 1, 104, 256
-0.997671, 215, 69, 230, 100
-0.997673, 1, 257, 128, 288
-0.997714, 249, 241, 264, 272
-0.997718, 37, 149, 52, 180
-0.997728, 193, 129, 224, 375
-0.997735, 429, 197, 444, 228
-0.997742, 1, 289, 500, 352
-0.997755, 1, 205, 128, 236
-0.997765, 253, 173, 268, 204
-0.997772, 225, 29, 352, 60
-0.997779, 1, 105, 256, 168
-0.99778, 379, 241, 394, 272
-0.997783, 341, 205, 356, 236
-0.9978, 249, 157, 264, 188
-0.997803, 65, 53, 192, 84
-0.997804, 81, 1, 208, 32
-0.997826, 257, 165, 384, 196
-0.997839, 77, 129, 108, 375
-0.997874, 101, 129, 132, 375
-0.997877, 101, 1, 132, 256
-0.99789, 331, 205, 346, 236
-0.997893, 161, 21, 288, 52
-0.997894, 161, 45, 288, 76
-0.997899, 445, 101, 460, 132
-0.997904, 429, 181, 444, 212
-0.997907, 173, 1, 204, 256
-0.997908, 225, 149, 352, 180
-0.997918, 39, 181, 54, 212
-0.997922, 201, 1, 232, 256
-0.997924, 231, 189, 246, 220
-0.99793, 25, 173, 40, 204
-0.997932, 235, 201, 250, 232
-0.997937, 461, 97, 492, 352
-0.99794, 239, 249, 254, 280
-0.99794, 257, 113, 500, 176
-0.997968, 221, 1, 252, 256
-0.997977, 13, 185, 28, 216
-0.997978, 453, 117, 468, 148
-0.997981, 33, 161, 48, 192
-0.997981, 241, 157, 256, 188
-0.997984, 71, 21, 86, 52
-0.99799, 17, 141, 144, 172
-0.998006, 247, 173, 262, 204
-0.998017, 67, 65, 82, 96
-0.998019, 289, 285, 416, 316
-0.998027, 1, 225, 128, 256
-0.998027, 233, 1, 264, 256
-0.99803, 435, 185, 450, 216
-0.998035, 97, 225, 224, 256
-0.998038, 447, 113, 462, 144
-0.998051, 65, 177, 80, 208
-0.998079, 97, 37, 224, 68
-0.998089, 255, 157, 270, 188
-0.998092, 45, 149, 60, 180
-0.998095, 257, 93, 384, 124
-0.998095, 37, 193, 52, 224
-0.998101, 235, 157, 250, 188
-0.998102, 369, 265, 496, 296
-0.998102, 429, 225, 444, 256
-0.998104, 17, 81, 144, 112
-0.998121, 409, 249, 424, 280
-0.998122, 217, 173, 232, 204
-0.998126, 31, 217, 46, 248
-0.998132, 207, 181, 222, 212
-0.998137, 429, 245, 444, 276
-0.998137, 225, 301, 352, 332
-0.998138, 401, 249, 416, 280
-0.998141, 183, 173, 198, 204
-0.998148, 101, 177, 116, 208
-0.998152, 19, 177, 34, 208
-0.998152, 57, 149, 72, 180
-0.99816, 369, 229, 384, 260
-0.998163, 85, 1, 116, 256
-0.998164, 233, 241, 248, 272
-0.998165, 279, 177, 294, 208
-0.998171, 375, 201, 390, 232
-0.998174, 177, 161, 192, 192
-0.998177, 365, 241, 380, 272
-0.998178, 337, 193, 352, 224
-0.998182, 333, 221, 348, 252
-0.998186, 241, 169, 256, 200
-0.998197, 29, 261, 44, 292
-0.998199, 223, 157, 238, 188
-0.998201, 65, 165, 192, 196
-0.998204, 419, 197, 434, 228
-0.998206, 169, 129, 200, 375
-0.998211, 41, 165, 56, 196
-0.998212, 95, 161, 110, 192
-0.998213, 231, 173, 246, 204
-0.998228, 385, 181, 400, 212
-0.998231, 421, 181, 436, 212
-0.998234, 233, 213, 248, 244
-0.998238, 217, 189, 232, 220
-0.998239, 261, 157, 276, 188
-0.998243, 331, 193, 346, 224
-0.998247, 23, 257, 38, 288
-0.998247, 13, 1, 44, 256
-0.998248, 173, 177, 188, 208
-0.998248, 355, 261, 370, 292
-0.99825, 429, 213, 444, 244
-0.998252, 125, 177, 140, 208
-0.998258, 369, 57, 496, 88
-0.998259, 371, 245, 386, 276
-0.99827, 163, 169, 178, 200
-0.998271, 117, 33, 132, 64
-0.998277, 65, 313, 320, 375
-0.998282, 57, 49, 120, 176
-0.998283, 369, 217, 384, 248
-0.998288, 249, 201, 264, 232
-0.998288, 389, 253, 404, 284
-0.998292, 357, 1, 388, 256
-0.998317, 191, 161, 206, 192
-0.998318, 17, 93, 144, 124
-0.998321, 311, 261, 326, 292
-0.998321, 117, 129, 148, 375
-0.998321, 415, 249, 430, 280
-0.998324, 377, 229, 392, 260
-0.998327, 51, 165, 66, 196
-0.99833, 111, 177, 126, 208
-0.99833, 367, 189, 382, 220
-0.998331, 369, 129, 496, 160
-0.998336, 193, 177, 208, 208
-0.998337, 129, 253, 256, 284
-0.998342, 349, 261, 364, 292
-0.998346, 207, 165, 222, 196
-0.998353, 375, 189, 390, 220
-0.998357, 431, 109, 446, 140
-0.998357, 61, 161, 76, 192
-0.998362, 421, 209, 436, 240
-0.998362, 369, 169, 496, 200
-0.998364, 193, 201, 224, 216
-0.998365, 133, 171, 164, 186
-0.998365, 249, 199, 280, 214
-0.998366, 69, 193, 100, 208
-0.998368, 273, 177, 304, 192
-0.998368, 413, 177, 444, 192
-0.998369, 217, 203, 248, 218
-0.99837, 241, 219, 272, 234
-0.99837, 49, 65, 80, 80
-0.99837, 385, 253, 416, 268
-0.998371, 233, 157, 264, 172
-0.998371, 73, 27, 104, 42
-0.998371, 205, 245, 236, 260
-0.998371, 241, 235, 272, 250
-0.998372, 329, 265, 360, 280
-0.998374, 433, 225, 464, 240
-0.998374, 245, 177, 276, 192
-0.998374, 365, 201, 396, 216
-0.998375, 181, 181, 212, 196
-0.998377, 351, 93, 366, 124
-0.998377, 319, 205, 334, 236
-0.998378, 371, 97, 386, 128
-0.998379, 145, 35, 176, 50
-0.998379, 413, 237, 428, 268
-0.99838, 129, 195, 160, 210
-0.99838, 341, 263, 372, 278
-0.99838, 21, 97, 52, 352
-0.998381, 1, 117, 16, 148
-0.998381, 383, 253, 398, 284
-0.998382, 257, 77, 288, 92
-0.998382, 433, 105, 464, 120
-0.998383, 97, 179, 128, 194
-0.998384, 201, 161, 232, 176
-0.998384, 395, 253, 410, 284
-0.998384, 57, 157, 88, 172
-0.998385, 65, 171, 96, 186
-0.998385, 359, 189, 374, 220
-0.998387, 421, 205, 452, 220
-0.998387, 437, 109, 452, 140
-0.998387, 249, 183, 280, 198
-0.998387, 401, 105, 432, 120
-0.998387, 365, 187, 396, 202
-0.998388, 405, 223, 436, 238
-0.99839, 321, 259, 352, 274
-0.99839, 169, 177, 200, 192
-0.998391, 93, 193, 124, 208
-0.998393, 167, 25, 182, 56
-0.998393, 75, 169, 90, 200
-0.998394, 361, 259, 392, 274
-0.998394, 317, 219, 348, 234
-0.998394, 343, 261, 358, 292
-0.998396, 241, 247, 272, 262
-0.998396, 377, 101, 408, 116
-0.998397, 413, 247, 444, 262
-0.998398, 5, 181, 36, 196
-0.998398, 55, 181, 70, 212
-0.998398, 41, 41, 72, 56
-0.9984, 417, 213, 448, 228
-0.9984, 321, 229, 352, 244
-0.998401, 37, 189, 68, 204
-0.998402, 361, 253, 392, 268
-0.998402, 153, 199, 184, 214
-0.998402, 317, 89, 348, 104
-0.998403, 345, 95, 376, 110
-0.998404, 133, 173, 148, 204
-0.998404, 277, 77, 292, 108
-0.998405, 445, 119, 476, 134
-0.998406, 65, 65, 96, 80
-0.998406, 155, 173, 170, 204
-0.998406, 373, 255, 404, 270
-0.998408, 285, 173, 300, 204
-0.998408, 113, 195, 144, 210
-0.998409, 57, 177, 88, 192
-0.99841, 241, 207, 272, 222
-0.998411, 317, 173, 348, 188
-0.998412, 37, 261, 52, 292
-0.998413, 253, 41, 268, 72
-0.998413, 81, 193, 112, 208
-0.998414, 305, 265, 336, 280
-0.998414, 193, 175, 224, 190
-0.998414, 129, 177, 160, 192
-0.998414, 429, 191, 460, 206
-0.998414, 5, 15, 36, 30
-0.998415, 413, 235, 444, 250
-0.998415, 247, 213, 262, 244
-0.998415, 417, 219, 448, 234
-0.998415, 389, 103, 420, 118
-0.998416, 17, 197, 32, 228
-0.998418, 345, 89, 360, 120
-0.998418, 269, 81, 300, 96
-0.998419, 129, 1, 160, 256
-0.998419, 201, 67, 232, 82
-0.998419, 317, 201, 348, 216
-0.998419, 417, 109, 448, 124
-0.99842, 237, 191, 268, 206
-0.99842, 429, 185, 460, 200
-0.998421, 143, 181, 158, 212
-0.998422, 157, 129, 188, 375
-0.998422, 229, 221, 260, 236
-0.998423, 443, 189, 458, 220
-0.998423, 245, 229, 260, 260
-0.998424, 353, 85, 480, 116
-0.998424, 425, 105, 440, 136
-0.998424, 213, 69, 244, 84
-0.998426, 193, 183, 224, 198
-0.998426, 333, 93, 364, 108
-0.998428, 365, 93, 380, 124
-0.998429, 257, 43, 288, 58
-0.998429, 365, 99, 396, 114
-0.99843, 365, 175, 396, 190
-0.998431, 233, 241, 264, 256
-0.998431, 429, 197, 460, 212
-0.998431, 29, 203, 60, 218
-0.998432, 305, 87, 336, 102
-0.998432, 221, 197, 252, 212
-0.998432, 345, 173, 376, 188
-0.998433, 293, 85, 324, 100
-0.998434, 9, 195, 40, 210
-0.998435, 93, 51, 124, 66
-0.998437, 17, 175, 48, 190
-0.998438, 281, 83, 312, 98
-0.998438, 73, 159, 104, 174
-0.998438, 21, 211, 52, 226
-0.99844, 341, 251, 372, 266
-0.998442, 257, 173, 288, 188
-0.998442, 29, 177, 60, 192
-0.998442, 157, 175, 188, 190
-0.998443, 57, 163, 88, 178
-0.998444, 1, 1, 32, 256
-0.998444, 225, 213, 256, 228
-0.998446, 237, 39, 268, 54
-0.998448, 417, 199, 448, 214
-0.998449, 433, 113, 464, 128
-0.99845, 397, 251, 428, 266
-0.998451, 337, 247, 400, 262
-0.998453, 229, 207, 260, 222
-0.998454, 237, 185, 268, 200
-0.998456, 181, 175, 212, 190
-0.998457, 245, 159, 276, 174
-0.998458, 21, 17, 52, 32
-0.998461, 217, 159, 280, 174
-0.998463, 33, 265, 64, 280
-0.998464, 337, 205, 368, 220
-0.998465, 297, 271, 328, 286
-0.998465, 325, 207, 356, 222
-0.998467, 201, 191, 264, 206
-0.998469, 425, 231, 456, 246
-0.998471, 249, 193, 280, 208
-0.998476, 413, 241, 444, 256
-0.998479, 337, 237, 400, 252
-0.998483, 221, 191, 252, 206
-0.998483, 161, 179, 224, 194
-0.998484, 221, 159, 252, 174
-0.998484, 365, 181, 396, 196
-0.998485, 361, 243, 424, 258
-0.998487, 1, 81, 256, 144
-0.998488, 313, 207, 344, 222
-0.998488, 361, 253, 424, 268
-0.998489, 237, 213, 268, 228
-0.998489, 317, 213, 348, 228
-0.998493, 17, 193, 80, 208
-0.998494, 201, 197, 264, 212
-0.998496, 37, 151, 68, 166
-0.998504, 9, 189, 40, 204
-0.998504, 17, 203, 48, 218
-0.998507, 193, 175, 256, 190
-0.998511, 449, 125, 480, 140
-0.998514, 241, 191, 304, 206
-0.998516, 337, 253, 400, 268
-0.99852, 17, 183, 80, 198
-0.998521, 237, 199, 268, 214
-0.998524, 129, 9, 384, 72
-0.998525, 329, 205, 392, 220
-0.998526, 337, 231, 400, 246
-0.998527, 393, 227, 456, 242
-0.998528, 417, 225, 448, 240
-0.998532, 177, 185, 240, 200
-0.998532, 49, 161, 112, 176
-0.998537, 225, 197, 288, 212
-0.998539, 21, 197, 52, 212
-0.99854, 377, 233, 440, 248
-0.998541, 37, 183, 68, 198
-0.998542, 297, 219, 360, 234
-0.998542, 113, 195, 176, 210
-0.99855, 321, 57, 448, 88
-0.998551, 1, 263, 64, 278
-0.998552, 249, 45, 312, 60
-0.998556, 33, 153, 96, 168
-0.998558, 137, 183, 200, 198
-0.998561, 89, 181, 152, 196
-0.998562, 201, 243, 264, 258
-0.998562, 401, 243, 464, 258
-0.998562, 17, 181, 48, 196
-0.998563, 33, 293, 160, 324
-0.998564, 17, 177, 80, 192
-0.998564, 73, 193, 136, 208
-0.998564, 297, 247, 360, 262
-0.998565, 217, 41, 280, 56
-0.998566, 401, 197, 464, 212
-0.998567, 377, 201, 440, 216
-0.99857, 25, 167, 88, 182
-0.998571, 289, 201, 352, 216
-0.998571, 145, 173, 208, 188
-0.998572, 289, 209, 352, 224
-0.998572, 337, 225, 400, 240
-0.998572, 321, 121, 448, 184
-0.998573, 217, 175, 280, 190
-0.998573, 313, 173, 376, 188
-0.998573, 401, 237, 464, 252
-0.998573, 201, 185, 264, 200
-0.998574, 225, 185, 288, 200
-0.998574, 161, 197, 224, 212
-0.998574, 265, 83, 328, 98
-0.998575, 113, 181, 176, 196
-0.998575, 193, 169, 256, 184
-0.998576, 281, 273, 344, 288
-0.998577, 393, 217, 456, 232
-0.998578, 49, 175, 112, 190
-0.998578, 297, 241, 360, 256
-0.998579, 305, 89, 368, 104
-0.998579, 193, 207, 256, 222
-0.99858, 241, 173, 304, 188
-0.99858, 393, 207, 456, 222
-0.998581, 297, 233, 360, 248
-0.998581, 1, 15, 64, 30
-0.998584, 273, 177, 336, 192
-0.998585, 201, 255, 264, 270
-0.998587, 361, 225, 424, 240
-0.998587, 297, 257, 360, 272
-0.998588, 241, 203, 304, 218
-0.998588, 81, 205, 208, 236
-0.998589, 401, 109, 464, 124
-0.998589, 137, 189, 200, 204
-0.998589, 361, 63, 424, 78
-0.998591, 217, 71, 280, 86
-0.998591, 369, 195, 432, 210
-0.998592, 193, 157, 256, 172
-0.998592, 401, 187, 464, 202
-0.998598, 233, 213, 296, 228
-0.9986, 305, 85, 432, 116
-0.9986, 241, 269, 304, 284
-0.9986, 297, 227, 360, 242
-0.998601, 25, 67, 88, 82
-0.998601, 17, 281, 144, 312
-0.998601, 113, 201, 176, 216
-0.998602, 257, 51, 320, 66
-0.998602, 321, 261, 384, 276
-0.998603, 81, 199, 144, 214
-0.998605, 329, 211, 392, 226
-0.99861, 241, 179, 304, 194
-0.998611, 161, 191, 224, 206
-0.998611, 25, 199, 88, 214
-0.998612, 337, 95, 400, 110
-0.998613, 329, 191, 392, 206
-0.998614, 49, 167, 112, 182
-0.998615, 385, 177, 448, 192
-0.998617, 73, 29, 136, 44
-0.998617, 21, 191, 52, 206
-0.998619, 17, 235, 80, 250
-0.99862, 137, 203, 200, 218
-0.99862, 25, 161, 88, 176
-0.998621, 137, 195, 200, 210
-0.998623, 217, 61, 280, 76
-0.998623, 113, 189, 176, 204
-0.998623, 401, 249, 464, 264
-0.998624, 1, 1, 64, 16
-0.998624, 409, 115, 472, 130
-0.998624, 369, 207, 432, 222
-0.998625, 369, 101, 432, 116
-0.998625, 113, 175, 176, 190
-0.998625, 41, 31, 104, 46
-0.998627, 89, 159, 152, 174
-0.998627, 33, 21, 96, 36
-0.998628, 417, 123, 480, 138
-0.998629, 217, 169, 280, 184
-0.998629, 9, 151, 72, 166
-0.998629, 9, 9, 72, 24
-0.99863, 161, 33, 224, 48
-0.998631, 33, 271, 96, 286
-0.998631, 241, 79, 304, 94
-0.998631, 329, 219, 392, 234
-0.998633, 401, 99, 464, 114
-0.998634, 33, 11, 96, 26
-0.998634, 233, 239, 296, 254
-0.998635, 353, 175, 416, 190
-0.998637, 329, 197, 392, 212
-0.998637, 265, 171, 328, 186
-0.998637, 313, 179, 376, 194
-0.998639, 233, 219, 296, 234
-0.998639, 361, 219, 424, 234
-0.998641, 169, 173, 232, 188
-0.998642, 409, 181, 472, 196
-0.998643, 193, 215, 256, 230
-0.998643, 353, 201, 416, 216
-0.998643, 25, 73, 88, 88
-0.998644, 265, 209, 328, 224
-0.998647, 17, 29, 80, 44
-0.998647, 201, 267, 264, 282
-0.998648, 177, 163, 240, 178
-0.998648, 273, 219, 336, 234
-0.998653, 369, 1, 400, 256
-0.998664, 239, 193, 254, 320
-0.998666, 209, 1, 336, 64
-0.998669, 129, 97, 160, 352
-0.99867, 321, 33, 448, 64
-0.998714, 249, 177, 264, 304
-0.998714, 1, 105, 128, 136
-0.998721, 65, 257, 192, 288
-0.998747, 61, 1, 92, 256
-0.998755, 31, 177, 46, 304
-0.998757, 161, 109, 288, 140
-0.998781, 157, 1, 188, 256
-0.998837, 1, 313, 128, 375
-0.998841, 65, 141, 192, 172
-0.998857, 161, 121, 288, 152
-0.998863, 335, 193, 350, 320
-0.998869, 321, 13, 448, 44
-0.998877, 233, 177, 248, 304
-0.998898, 429, 1, 460, 256
-0.998898, 161, 137, 288, 168
-0.998898, 25, 1, 56, 256
-0.99891, 193, 277, 320, 308
-0.998912, 375, 193, 390, 320
-0.998923, 385, 161, 400, 288
-0.998941, 239, 145, 254, 272
-0.998942, 409, 161, 424, 288
-0.998945, 65, 65, 192, 96
-0.998948, 343, 193, 358, 320
-0.99897, 421, 177, 436, 304
-0.998974, 367, 193, 382, 320
-0.998977, 305, 113, 432, 144
-0.998986, 321, 1, 448, 32
-0.999004, 161, 121, 416, 184
-0.999006, 221, 177, 236, 304
-0.999006, 273, 297, 400, 328
-0.999008, 227, 177, 242, 304
-0.999009, 31, 129, 46, 256
-0.999009, 429, 161, 444, 288
-0.999016, 451, 97, 466, 224
-0.999026, 207, 161, 222, 288
-0.999044, 311, 209, 326, 336
-0.999044, 65, 281, 192, 312
-0.999045, 215, 177, 230, 304
-0.999047, 177, 161, 192, 288
-0.999049, 97, 269, 224, 300
-0.999052, 145, 129, 176, 375
-0.999053, 359, 161, 374, 288
-0.999057, 177, 309, 304, 340
-0.999071, 349, 193, 364, 320
-0.999073, 17, 129, 144, 160
-0.999085, 37, 129, 52, 256
-0.999088, 437, 97, 452, 224
-0.99909, 375, 49, 390, 176
-0.999097, 161, 9, 288, 40
-0.9991, 37, 177, 52, 304
-0.9991, 163, 161, 178, 288
-0.999102, 413, 209, 428, 336
-0.999106, 443, 97, 458, 224
-0.999108, 399, 161, 414, 288
-0.999111, 249, 225, 264, 352
-0.999128, 405, 225, 420, 352
-0.999132, 145, 161, 160, 288
-0.999135, 1, 117, 128, 148
-0.999137, 137, 145, 152, 272
-0.999143, 49, 225, 176, 256
-0.999149, 153, 161, 168, 288
-0.999151, 65, 145, 80, 272
-0.999152, 291, 209, 306, 336
-0.999161, 329, 193, 344, 320
-0.999162, 225, 137, 352, 168
-0.999163, 437, 177, 452, 304
-0.99917, 337, 145, 352, 272
-0.99917, 171, 161, 186, 288
-0.999172, 97, 161, 112, 288
-0.999189, 303, 241, 318, 368
-0.999195, 427, 97, 442, 224
-0.999199, 53, 129, 68, 256
-0.9992, 343, 145, 358, 272
-0.999206, 233, 225, 248, 352
-0.999206, 65, 105, 192, 168
-0.99921, 97, 117, 224, 148
-0.999217, 373, 145, 388, 272
-0.999218, 399, 225, 414, 352
-0.999221, 43, 129, 58, 256
-0.999223, 413, 97, 428, 224
-0.999229, 243, 241, 258, 368
-0.999233, 369, 157, 496, 188
-0.999233, 285, 241, 300, 368
-0.999234, 309, 65, 324, 192
-0.999235, 421, 97, 436, 224
-0.999236, 59, 161, 74, 288
-0.999237, 79, 177, 94, 304
-0.999238, 381, 225, 396, 352
-0.999239, 141, 1, 172, 256
-0.999239, 367, 33, 382, 160
-0.99924, 87, 177, 102, 304
-0.999241, 39, 81, 54, 208
-0.999243, 131, 145, 146, 272
-0.999243, 255, 145, 270, 272
-0.999247, 89, 225, 104, 352
-0.999249, 71, 1, 86, 128
-0.999249, 103, 161, 118, 288
-0.999249, 61, 209, 76, 336
-0.999249, 301, 177, 316, 304
-0.999252, 31, 1, 46, 128
-0.999252, 361, 225, 376, 352
-0.999252, 273, 65, 288, 192
-0.999252, 25, 193, 40, 320
-0.999253, 353, 81, 368, 208
-0.999257, 223, 225, 238, 352
-0.999262, 393, 161, 408, 288
-0.999262, 297, 225, 312, 352
-0.999264, 263, 65, 278, 192
-0.999268, 187, 145, 202, 272
-0.999269, 83, 225, 98, 352
-0.999272, 209, 225, 224, 352
-0.999272, 73, 161, 88, 288
-0.999272, 341, 241, 356, 368
-0.999273, 331, 145, 346, 272
-0.999273, 199, 161, 214, 288
-0.999274, 249, 129, 264, 256
-0.999276, 317, 33, 332, 160
-0.999278, 115, 161, 130, 288
-0.999283, 215, 225, 230, 352
-0.999283, 381, 81, 396, 208
-0.999288, 345, 81, 360, 208
-0.999289, 255, 241, 270, 368
-0.999289, 407, 81, 422, 208
-0.99929, 367, 81, 382, 208
-0.99929, 315, 145, 330, 272
-0.99929, 307, 161, 322, 288
-0.999296, 203, 241, 218, 368
-0.999297, 415, 161, 430, 288
-0.999299, 445, 1, 476, 256
-0.9993, 299, 33, 314, 160
-0.999303, 233, 129, 248, 256
-0.999305, 95, 225, 110, 352
-0.999307, 367, 145, 382, 272
-0.999307, 109, 225, 124, 352
-0.999308, 333, 65, 348, 192
-0.999311, 215, 81, 230, 208
-0.999314, 173, 225, 188, 352
-0.999314, 69, 209, 84, 336
-0.999315, 121, 225, 136, 352
-0.999316, 393, 81, 408, 208
-0.999318, 285, 33, 300, 160
-0.999323, 81, 293, 208, 324
-0.999326, 379, 145, 394, 272
-0.999332, 77, 225, 92, 352
-0.999332, 393, 225, 408, 352
-0.999334, 293, 33, 308, 160
-0.999336, 167, 209, 182, 336
-0.999337, 193, 145, 208, 272
-0.999338, 151, 225, 166, 352
-0.999339, 359, 81, 374, 208
-0.99934, 399, 81, 414, 208
-0.99934, 461, 97, 476, 224
-0.999344, 343, 33, 358, 160
-0.999347, 387, 225, 402, 352
-0.999353, 357, 33, 372, 160
-0.999353, 143, 225, 158, 352
-0.999355, 121, 161, 136, 288
-0.999356, 133, 225, 148, 352
-0.99936, 273, 33, 400, 64
-0.99936, 157, 225, 172, 352
-0.999364, 327, 81, 342, 208
-0.999365, 355, 225, 370, 352
-0.999365, 109, 177, 124, 304
-0.999419, 49, 309, 176, 340
-0.999455, 97, 313, 224, 344
-0.999471, 241, 113, 368, 144
-0.999533, 257, 17, 384, 48
-0.999534, 113, 61, 240, 92
-0.999553, 353, 141, 480, 172
-0.999555, 461, 1, 492, 256
-0.999572, 369, 5, 496, 36
-0.999576, 249, 193, 264, 208
-0.999576, 427, 239, 442, 254
-0.999576, 9, 97, 40, 352
-0.999576, 419, 107, 434, 122
-0.999576, 209, 201, 224, 216
-0.999576, 33, 167, 48, 182
-0.999577, 425, 109, 440, 124
-0.999577, 343, 247, 358, 262
-0.999578, 201, 181, 216, 196
-0.999578, 145, 195, 160, 210
-0.999578, 25, 209, 40, 224
-0.999579, 165, 197, 180, 212
-0.999579, 383, 249, 398, 264
-0.999579, 207, 183, 222, 198
-0.999582, 325, 89, 340, 104
-0.999582, 29, 19, 44, 34
-0.999582, 419, 245, 434, 260
-0.999583, 369, 203, 384, 218
-0.999584, 271, 173, 286, 188
-0.999584, 143, 173, 158, 188
-0.999584, 301, 85, 316, 100
-0.999585, 451, 125, 466, 140
-0.999585, 73, 27, 88, 42
-0.999585, 295, 83, 310, 98
-0.999585, 41, 265, 56, 280
-0.999585, 289, 83, 304, 98
-0.999585, 39, 197, 54, 212
-0.999585, 187, 173, 202, 188
-0.999586, 409, 105, 424, 120
-0.999586, 355, 261, 370, 276
-0.999586, 443, 107, 458, 122
-0.999586, 151, 199, 166, 214
-0.999586, 399, 103, 414, 118
-0.999586, 245, 199, 260, 214
-0.999587, 261, 41, 276, 56
-0.999588, 183, 181, 198, 196
-0.999588, 99, 51, 114, 66
-0.999588, 459, 119, 474, 134
-0.999589, 357, 95, 372, 110
-0.999589, 103, 179, 118, 194
-0.999589, 247, 237, 262, 252
-0.99959, 379, 255, 394, 270
-0.99959, 277, 81, 292, 96
-0.99959, 407, 251, 422, 266
-0.99959, 157, 173, 172, 188
-0.99959, 333, 221, 348, 236
-0.999591, 333, 201, 348, 216
-0.999591, 251, 157, 266, 172
-0.999591, 379, 243, 394, 258
-0.999591, 337, 91, 352, 106
-0.999592, 15, 185, 30, 200
-0.999593, 33, 225, 48, 240
-0.999595, 233, 217, 248, 232
-0.999595, 379, 99, 394, 114
-0.999595, 389, 101, 404, 116
-0.999595, 307, 85, 322, 100
-0.999596, 283, 81, 298, 96
-0.999597, 429, 233, 444, 248
-0.999597, 95, 193, 110, 208
-0.999597, 429, 219, 444, 234
-0.999598, 65, 73, 80, 88
-0.999598, 347, 93, 362, 108
-0.999598, 247, 175, 262, 190
-0.999599, 215, 75, 230, 90
-0.9996, 35, 183, 50, 198
-0.999601, 223, 157, 238, 172
-0.999601, 429, 193, 444, 208
-0.999601, 435, 111, 450, 126
-0.999601, 51, 151, 66, 166
-0.999602, 247, 205, 262, 220
-0.999602, 317, 87, 332, 102
-0.999604, 365, 251, 380, 266
-0.999604, 261, 159, 276, 174
-0.999605, 159, 197, 174, 212
-0.999605, 69, 21, 84, 36
-0.999606, 331, 213, 346, 228
-0.999607, 37, 151, 52, 166
-0.999607, 67, 165, 82, 180
-0.999608, 171, 175, 186, 190
-0.999609, 35, 265, 50, 280
-0.999611, 235, 205, 250, 220
-0.999611, 379, 237, 394, 252
-0.999613, 375, 201, 390, 216
-0.999614, 437, 239, 452, 254
-0.999614, 413, 247, 428, 262
-0.999615, 419, 239, 434, 254
-0.999615, 439, 231, 454, 246
-0.999617, 451, 119, 466, 134
-0.999618, 239, 243, 254, 258
-0.999618, 47, 265, 62, 280
-0.999618, 25, 203, 40, 218
-0.99962, 23, 17, 38, 32
-0.999622, 249, 245, 264, 260
-0.999625, 375, 249, 390, 264
-0.999627, 249, 181, 264, 196
-0.999628, 421, 233, 436, 248
-0.999629, 343, 253, 358, 268
-0.99963, 41, 183, 56, 198
-0.999633, 239, 237, 254, 252
-0.999633, 231, 191, 246, 206
-0.999635, 429, 225, 444, 240
-0.999639, 115, 51, 130, 66
-0.999642, 339, 205, 354, 220
-0.999644, 31, 217, 46, 232
-0.99965, 243, 193, 258, 208
-0.999651, 203, 175, 218, 190
-0.999657, 239, 227, 254, 242
-0.999662, 67, 65, 82, 80
-0.999664, 459, 125, 474, 140
-0.999668, 93, 53, 108, 68
-0.999669, 445, 113, 460, 128
-0.99967, 23, 181, 38, 196
-0.999672, 105, 53, 120, 68
-0.999672, 49, 1, 80, 256
-0.999672, 193, 175, 208, 190
-0.999673, 439, 225, 454, 240
-0.999684, 29, 185, 44, 200
-0.999692, 429, 199, 444, 214
-0.9997, 241, 185, 256, 200
-0.999702, 217, 67, 232, 82
-0.999702, 421, 227, 436, 242
-0.999707, 329, 207, 344, 222
-0.999709, 33, 177, 48, 192
-0.999724, 31, 197, 46, 212
-0.999728, 241, 221, 256, 236
-0.999729, 31, 211, 46, 226
-0.999755, 241, 207, 256, 222
-0.99976, 31, 191, 46, 206
-0.999762, 25, 193, 40, 208
-0.999824, 239, 199, 254, 214
-0.999832, 31, 203, 46, 218
-0.999858, 239, 213, 254, 228
-1.00024, 273, 305, 400, 368
-1.00043, 1, 121, 500, 184
-1.00088, 257, 305, 500, 368
-1.00092, 1, 313, 500, 375
-1.00242, 353, 297, 480, 360
-1.00376, 417, 17, 480, 144
