1886
-0.525604, 1, 65, 500, 320
-0.618665, 1, 1, 500, 333
-0.620138, 257, 65, 500, 320
-0.642285, 1, 1, 256, 333
-0.703205, 257, 1, 500, 333
-0.710057, 161, 1, 416, 333
-0.722622, 161, 65, 416, 320
-0.794169, 65, 65, 320, 320
-0.860989, 257, 65, 384, 320
-0.875828, 369, 65, 496, 320
-0.891642, 1, 113, 500, 240
-0.89806, 321, 65, 448, 320
-0.899998, 257, 97, 500, 224
-0.901733, 1, 161, 500, 288
-0.907657, 289, 1, 416, 333
-0.909074, 369, 1, 496, 333
-0.909647, 1, 1, 128, 333
-0.915387, 1, 33, 128, 288
-0.918479, 177, 65, 304, 320
-0.919075, 225, 145, 480, 272
-0.921426, 209, 1, 336, 333
-0.923005, 65, 65, 192, 320
-0.925159, 241, 129, 368, 256
-0.925822, 81, 1, 208, 333
-0.927454, 129, 161, 384, 288
-0.929115, 129, 65, 256, 320
-0.929596, 129, 113, 384, 240
-0.931605, 1, 209, 500, 333
-0.932542, 33, 145, 288, 272
-0.933438, 145, 1, 272, 333
-0.933805, 265, 129, 328, 256
-0.934321, 1, 65, 500, 192
-0.935503, 353, 97, 480, 224
-0.938877, 305, 97, 368, 224
-0.940645, 289, 97, 416, 224
-0.941837, 345, 97, 408, 224
-0.946564, 177, 145, 304, 272
-0.949015, 289, 145, 416, 272
-0.94956, 33, 97, 288, 224
-0.950237, 393, 81, 456, 208
-0.950599, 313, 145, 376, 272
-0.950755, 241, 129, 304, 256
-0.952453, 209, 145, 272, 272
-0.952931, 369, 81, 432, 208
-0.95298, 433, 97, 496, 224
-0.954303, 289, 145, 352, 272
-0.954616, 225, 209, 480, 333
-0.955226, 225, 177, 352, 304
-0.956309, 73, 145, 136, 272
-0.956885, 129, 145, 256, 272
-0.95703, 233, 177, 296, 304
-0.957445, 337, 145, 400, 272
-0.957856, 281, 81, 344, 208
-0.957989, 329, 153, 392, 216
-0.958199, 33, 161, 160, 288
-0.959521, 73, 81, 136, 208
-0.960193, 361, 161, 424, 288
-0.960611, 49, 161, 112, 288
-0.961534, 289, 145, 352, 208
-0.961687, 289, 193, 416, 320
-0.961781, 177, 97, 304, 224
-0.962521, 185, 145, 248, 272
-0.962858, 393, 89, 456, 152
-0.963933, 57, 161, 120, 224
-0.963983, 1, 145, 64, 208
-0.964342, 353, 145, 480, 272
-0.964345, 161, 145, 224, 272
-0.964549, 49, 113, 176, 240
-0.964595, 65, 209, 320, 333
-0.965204, 185, 177, 248, 240
-0.965826, 25, 153, 88, 216
-0.965963, 241, 81, 368, 208
-0.966455, 129, 65, 384, 192
-0.967735, 385, 145, 448, 272
-0.967743, 289, 185, 352, 248
-0.968493, 241, 113, 304, 176
-0.968801, 49, 65, 112, 192
-0.969424, 233, 177, 296, 240
-0.969921, 257, 177, 320, 304
-0.970728, 233, 81, 296, 208
-0.970872, 249, 201, 312, 264
-0.971086, 265, 105, 328, 168
-0.971103, 257, 137, 320, 200
-0.971127, 113, 129, 176, 256
-0.971262, 305, 193, 368, 320
-0.971398, 129, 97, 256, 224
-0.971438, 1, 65, 128, 192
-0.971744, 369, 169, 432, 232
-0.971867, 81, 161, 208, 288
-0.972193, 97, 81, 160, 208
-0.972342, 417, 161, 480, 288
-0.972433, 209, 201, 272, 264
-0.97262, 265, 177, 328, 240
-0.972735, 257, 49, 500, 176
-0.972853, 177, 193, 304, 320
-0.972872, 25, 161, 88, 288
-0.972949, 209, 97, 272, 224
-0.973007, 137, 145, 200, 272
-0.973048, 97, 153, 160, 216
-0.973291, 309, 97, 340, 224
-0.973573, 289, 97, 352, 160
-0.973657, 393, 153, 456, 216
-0.973831, 333, 97, 364, 224
-0.973854, 1, 209, 128, 333
-0.974223, 129, 193, 256, 320
-0.974251, 145, 185, 208, 248
-0.974256, 325, 153, 356, 216
-0.974306, 353, 153, 384, 216
-0.974358, 297, 121, 360, 184
-0.97443, 33, 113, 96, 240
-0.974569, 313, 185, 376, 248
-0.974744, 65, 137, 128, 200
-0.974779, 417, 113, 480, 176
-0.974925, 321, 97, 352, 224
-0.974983, 305, 145, 336, 208
-0.975076, 297, 65, 360, 320
-0.975253, 417, 153, 480, 216
-0.975299, 1, 113, 128, 240
-0.975372, 361, 137, 424, 200
-0.97552, 321, 161, 448, 224
-0.975621, 273, 209, 336, 272
-0.975823, 41, 209, 104, 333
-0.976024, 1, 17, 500, 144
-0.976168, 241, 177, 368, 240
-0.976264, 329, 217, 392, 280
-0.976515, 1, 161, 64, 288
-0.976529, 209, 177, 272, 240
-0.976834, 297, 97, 328, 224
-0.976844, 445, 97, 476, 224
-0.976934, 273, 153, 400, 216
-0.97696, 353, 97, 384, 224
-0.977229, 209, 129, 336, 192
-0.977488, 257, 129, 288, 256
-0.977506, 321, 145, 352, 272
-0.977886, 321, 121, 384, 184
-0.978169, 177, 193, 240, 320
-0.97827, 281, 193, 344, 320
-0.978302, 321, 177, 352, 240
-0.978394, 1, 153, 128, 216
-0.978411, 89, 129, 152, 192
-0.978442, 273, 65, 336, 320
-0.978452, 297, 209, 360, 272
-0.978464, 217, 121, 280, 184
-0.97859, 49, 209, 176, 333
-0.9787, 269, 129, 300, 256
-0.978752, 469, 97, 500, 224
-0.978875, 373, 97, 404, 224
-0.978887, 81, 153, 112, 216
-0.979129, 209, 153, 272, 216
-0.979153, 241, 201, 368, 264
-0.979212, 281, 105, 312, 168
-0.979259, 49, 57, 112, 120
-0.979306, 353, 97, 416, 160
-0.979307, 309, 161, 340, 288
-0.979322, 329, 49, 392, 176
-0.979324, 61, 153, 92, 216
-0.979339, 81, 177, 144, 240
-0.97934, 129, 177, 256, 240
-0.979411, 353, 97, 480, 160
-0.979465, 297, 145, 328, 272
-0.979492, 169, 97, 232, 224
-0.979546, 257, 81, 320, 208
-0.979591, 273, 97, 400, 160
-0.979626, 329, 65, 392, 320
-0.979905, 393, 65, 456, 320
-0.980035, 93, 129, 124, 256
-0.980089, 337, 193, 400, 320
-0.980124, 313, 97, 376, 160
-0.980146, 145, 153, 208, 216
-0.980148, 73, 161, 104, 288
-0.980165, 65, 161, 192, 224
-0.98019, 249, 65, 312, 320
-0.980297, 285, 97, 316, 224
-0.980376, 153, 209, 216, 333
-0.980441, 457, 113, 488, 240
-0.980447, 177, 201, 304, 264
-0.980477, 421, 81, 452, 208
-0.980493, 17, 121, 144, 184
-0.980532, 33, 129, 96, 192
-0.980561, 241, 145, 272, 272
-0.980704, 177, 177, 304, 240
-0.980707, 289, 185, 416, 248
-0.980806, 281, 137, 312, 200
-0.980894, 385, 81, 416, 208
-0.980927, 353, 49, 480, 176
-0.981063, 337, 153, 368, 216
-0.981173, 377, 169, 408, 232
-0.981264, 193, 145, 224, 272
-0.981334, 41, 185, 104, 248
-0.981412, 73, 209, 136, 333
-0.981539, 289, 49, 416, 176
-0.981542, 353, 137, 480, 200
-0.981811, 425, 65, 488, 320
-0.981849, 369, 65, 432, 320
-0.98213, 65, 65, 192, 192
-0.982213, 433, 97, 464, 224
-0.982308, 333, 145, 364, 272
-0.982351, 377, 225, 440, 288
-0.982391, 289, 121, 416, 184
-0.982439, 345, 145, 376, 272
-0.982554, 93, 153, 124, 216
-0.982648, 433, 49, 496, 176
-0.982695, 293, 105, 324, 168
-0.982698, 229, 145, 260, 272
-0.982809, 361, 145, 392, 272
-0.982814, 209, 105, 336, 168
-0.982926, 25, 49, 88, 112
-0.982928, 237, 121, 268, 184
-0.982988, 441, 121, 472, 184
-0.983009, 41, 209, 104, 272
-0.983059, 9, 209, 72, 272
-0.983072, 293, 137, 324, 200
-0.983116, 5, 145, 36, 208
-0.983123, 433, 81, 496, 144
-0.983175, 113, 177, 176, 304
-0.983191, 269, 113, 300, 176
-0.983207, 33, 49, 288, 176
-0.983309, 113, 129, 176, 192
-0.983346, 413, 89, 444, 152
-0.983516, 129, 137, 256, 200
-0.983593, 25, 33, 88, 160
-0.983677, 17, 177, 144, 240
-0.98374, 137, 97, 200, 224
-0.983773, 49, 153, 80, 216
-0.983967, 185, 145, 248, 208
-0.983967, 249, 113, 280, 176
-0.98401, 393, 121, 456, 184
-0.984016, 289, 209, 416, 272
-0.98402, 337, 185, 400, 248
-0.984036, 193, 177, 224, 240
-0.984095, 269, 201, 300, 264
-0.98435, 253, 177, 284, 304
-0.984388, 57, 161, 88, 288
-0.984554, 73, 33, 136, 160
-0.98461, 301, 185, 332, 248
-0.984673, 369, 161, 496, 224
-0.984674, 213, 145, 244, 272
-0.984888, 81, 121, 208, 184
-0.984912, 377, 145, 408, 208
-0.984936, 93, 81, 124, 208
-0.984941, 405, 81, 436, 208
-0.985003, 225, 153, 352, 216
-0.985076, 385, 97, 416, 160
-0.985119, 81, 185, 208, 248
-0.985337, 289, 185, 320, 248
-0.985374, 33, 217, 160, 280
-0.985379, 73, 81, 104, 208
-0.985383, 241, 193, 272, 256
-0.985397, 365, 153, 396, 216
-0.985425, 233, 225, 296, 288
-0.985464, 377, 209, 440, 333
-0.98555, 305, 49, 368, 176
-0.985599, 9, 121, 72, 184
-0.985601, 105, 153, 136, 216
-0.985602, 81, 65, 144, 320
-0.985695, 17, 209, 80, 333
-0.985711, 305, 121, 336, 184
-0.985782, 89, 201, 152, 264
-0.98592, 253, 201, 284, 264
-0.98594, 353, 209, 416, 272
-0.985967, 253, 177, 284, 240
-0.986215, 185, 201, 248, 264
-0.986249, 225, 225, 352, 288
-0.986276, 417, 273, 480, 333
-0.986383, 453, 113, 484, 176
-0.986388, 217, 177, 248, 240
-0.986413, 441, 153, 472, 216
-0.986414, 281, 145, 312, 272
-0.986579, 81, 273, 144, 333
-0.986589, 21, 145, 52, 208
-0.986643, 185, 65, 248, 320
-0.986661, 401, 209, 464, 333
-0.986701, 313, 201, 344, 264
-0.986912, 401, 161, 432, 288
-0.987037, 233, 153, 296, 216
-0.987068, 41, 1, 104, 256
-0.98713, 373, 145, 404, 272
-0.987289, 177, 153, 304, 216
-0.987323, 429, 153, 460, 216
-0.987366, 337, 193, 464, 320
-0.987393, 33, 249, 96, 312
-0.987399, 173, 145, 204, 272
-0.987431, 389, 145, 420, 272
-0.98746, 337, 225, 464, 288
-0.987482, 65, 217, 128, 280
-0.987521, 81, 129, 112, 192
-0.987529, 137, 121, 200, 184
-0.987585, 353, 241, 416, 304
-0.987615, 397, 161, 428, 224
-0.987676, 225, 65, 288, 320
-0.987788, 265, 177, 296, 304
-0.987793, 85, 81, 116, 144
-0.987798, 45, 161, 76, 288
-0.987855, 17, 1, 80, 256
-0.987927, 333, 177, 364, 240
-0.987971, 49, 1, 176, 128
-0.987989, 97, 129, 128, 192
-0.987992, 265, 177, 296, 240
-0.987993, 137, 273, 200, 333
-0.988108, 301, 209, 332, 272
-0.988188, 469, 145, 500, 272
-0.988235, 305, 233, 368, 296
-0.988248, 65, 113, 128, 176
-0.988274, 321, 121, 352, 184
-0.988278, 117, 129, 148, 192
-0.988294, 305, 97, 336, 160
-0.988329, 121, 153, 184, 216
-0.988349, 245, 97, 276, 224
-0.988356, 1, 17, 128, 144
-0.988361, 17, 177, 80, 240
-0.988369, 65, 97, 192, 160
-0.988389, 277, 177, 308, 240
-0.988389, 9, 113, 72, 240
-0.988407, 361, 273, 424, 333
-0.988415, 393, 273, 456, 333
-0.988454, 49, 17, 112, 144
-0.988487, 69, 177, 100, 240
-0.988519, 161, 145, 192, 272
-0.988524, 229, 193, 260, 256
-0.988654, 121, 177, 184, 240
-0.988666, 177, 185, 208, 248
-0.988687, 233, 97, 264, 224
-0.9887, 57, 273, 120, 333
-0.98875, 33, 145, 64, 208
-0.988752, 397, 89, 428, 152
-0.988778, 1, 65, 128, 128
-0.988846, 73, 81, 136, 144
-0.988975, 193, 121, 256, 184
-0.989082, 453, 153, 484, 216
-0.989126, 137, 145, 168, 272
-0.98922, 121, 201, 184, 264
-0.989244, 225, 129, 288, 160
-0.989254, 329, 209, 360, 272
-0.989259, 17, 1, 80, 333
-0.989315, 161, 129, 224, 192
-0.989354, 385, 161, 448, 192
-0.989452, 113, 209, 240, 272
-0.989485, 17, 89, 144, 152
-0.989495, 385, 33, 448, 160
-0.989497, 289, 233, 416, 296
-0.989517, 57, 161, 120, 192
-0.989552, 85, 177, 116, 240
-0.989557, 49, 257, 176, 320
-0.989585, 161, 209, 224, 272
-0.989619, 1, 149, 64, 180
-0.989662, 433, 165, 496, 196
-0.989666, 329, 193, 360, 320
-0.989676, 265, 137, 296, 200
-0.989704, 345, 217, 376, 280
-0.989704, 233, 117, 296, 148
-0.989739, 25, 157, 88, 188
-0.989819, 345, 177, 376, 240
-0.989837, 109, 97, 140, 224
-0.989841, 345, 157, 408, 188
-0.989888, 25, 161, 56, 288
-0.989902, 249, 129, 312, 160
-0.98991, 209, 181, 272, 212
-0.989915, 101, 97, 132, 160
-0.989925, 49, 1, 112, 333
-0.989952, 369, 273, 496, 333
-0.989992, 385, 93, 448, 124
-0.989999, 409, 161, 472, 192
-0.990003, 273, 169, 336, 200
-0.990049, 213, 137, 244, 200
-0.990062, 177, 193, 240, 224
-0.990097, 469, 105, 500, 168
-0.990114, 205, 177, 236, 240
-0.990167, 257, 105, 500, 168
-0.990196, 401, 233, 464, 296
-0.990222, 61, 97, 92, 224
-0.990231, 193, 145, 224, 208
-0.990274, 201, 193, 264, 320
-0.990319, 289, 209, 320, 272
-0.990352, 297, 205, 360, 236
-0.990378, 145, 181, 208, 212
-0.990387, 233, 181, 296, 212
-0.990441, 389, 225, 420, 288
-0.990466, 413, 161, 444, 288
-0.990486, 249, 165, 312, 196
-0.990487, 433, 113, 496, 144
-0.990535, 81, 161, 144, 192
-0.990546, 273, 181, 336, 212
-0.990572, 313, 177, 376, 208
-0.990593, 313, 153, 376, 184
-0.990604, 57, 177, 88, 240
-0.990627, 241, 161, 272, 224
-0.990649, 13, 145, 44, 272
-0.990685, 65, 173, 128, 204
-0.990688, 177, 49, 304, 176
-0.990688, 193, 97, 256, 160
-0.990696, 33, 169, 96, 200
-0.99076, 353, 73, 416, 136
-0.99077, 257, 109, 320, 140
-0.99077, 161, 105, 288, 168
-0.99077, 145, 197, 208, 228
-0.990784, 241, 205, 304, 236
-0.99083, 177, 225, 304, 288
-0.990837, 337, 89, 368, 152
-0.990889, 425, 89, 456, 152
-0.990909, 329, 221, 392, 252
-0.990928, 273, 193, 336, 224
-0.99096, 337, 113, 368, 176
-0.99096, 265, 141, 328, 172
-0.990998, 289, 149, 352, 180
-0.991017, 297, 101, 360, 132
-0.991025, 393, 137, 424, 200
-0.991035, 25, 25, 88, 88
-0.991063, 129, 145, 384, 208
-0.991066, 169, 265, 232, 328
-0.991093, 273, 209, 336, 240
-0.991099, 261, 81, 292, 208
-0.991133, 169, 161, 200, 224
-0.991166, 385, 1, 448, 333
-0.991199, 105, 265, 168, 328
-0.991202, 113, 197, 176, 228
-0.991207, 1, 41, 128, 104
-0.991222, 401, 109, 464, 140
-0.991224, 217, 201, 248, 264
-0.991229, 313, 189, 376, 220
-0.991244, 361, 169, 424, 200
-0.991246, 429, 113, 460, 176
-0.991251, 225, 165, 288, 196
-0.991269, 217, 205, 280, 236
-0.991274, 201, 125, 264, 156
-0.991297, 257, 81, 320, 144
-0.991306, 297, 73, 360, 136
-0.991309, 281, 121, 344, 152
-0.99133, 225, 121, 256, 184
-0.991335, 221, 97, 252, 224
-0.991356, 97, 105, 160, 168
-0.991373, 349, 121, 380, 184
-0.991377, 409, 173, 472, 204
-0.991425, 353, 225, 416, 256
-0.991434, 169, 181, 232, 212
-0.991435, 49, 149, 112, 180
-0.991482, 321, 73, 448, 136
-0.991482, 377, 229, 440, 260
-0.991512, 337, 177, 400, 208
-0.991556, 225, 153, 480, 216
-0.991568, 69, 65, 100, 128
-0.99157, 209, 141, 272, 172
-0.991578, 25, 145, 88, 176
-0.991578, 233, 89, 296, 152
-0.991584, 273, 65, 304, 192
-0.991626, 81, 213, 144, 244
-0.991655, 357, 89, 388, 152
-0.991655, 441, 145, 472, 272
-0.991669, 1, 161, 64, 192
-0.991679, 361, 101, 424, 132
-0.991679, 229, 161, 260, 224
-0.991705, 105, 177, 168, 208
-0.991745, 425, 97, 488, 128
-0.99178, 329, 241, 392, 304
-0.991781, 73, 97, 136, 128
-0.991786, 149, 145, 180, 272
-0.991801, 105, 157, 168, 188
-0.991805, 297, 165, 360, 196
-0.991813, 393, 149, 456, 180
-0.99183, 377, 249, 440, 312
-0.991844, 305, 217, 368, 248
-0.991861, 321, 101, 384, 132
-0.991863, 465, 153, 496, 216
-0.991898, 105, 65, 168, 320
-0.991903, 129, 177, 384, 240
-0.991905, 345, 145, 408, 176
-0.991911, 1, 249, 128, 312
-0.991925, 73, 145, 136, 176
-0.991943, 193, 213, 256, 244
-0.991958, 73, 185, 136, 216
-0.991964, 105, 293, 168, 324
-0.991993, 161, 201, 416, 264
-0.992011, 181, 145, 212, 208
-0.992017, 97, 257, 224, 320
-0.992017, 33, 273, 96, 333
-0.99203, 145, 169, 208, 200
-0.992037, 33, 177, 288, 240
-0.992047, 105, 209, 168, 240
-0.992048, 433, 149, 496, 180
-0.99207, 361, 293, 424, 324
-0.992071, 201, 169, 264, 200
-0.992081, 365, 129, 396, 192
-0.992097, 369, 149, 432, 180
-0.992103, 65, 73, 192, 136
-0.992104, 57, 85, 120, 116
-0.992117, 249, 137, 280, 200
-0.99212, 89, 225, 152, 288
-0.992123, 329, 273, 392, 333
-0.992135, 233, 129, 264, 160
-0.992138, 337, 193, 464, 256
-0.992142, 337, 197, 400, 228
-0.992149, 61, 209, 92, 333
-0.992155, 209, 193, 272, 224
-0.992197, 57, 73, 120, 104
-0.992208, 1, 137, 64, 168
-0.992208, 33, 53, 96, 84
-0.992234, 289, 273, 352, 333
-0.992259, 97, 121, 160, 152
-0.992281, 393, 201, 456, 264
-0.992282, 177, 169, 240, 200
-0.992286, 233, 193, 296, 224
-0.992335, 185, 141, 248, 172
-0.992343, 137, 213, 200, 244
-0.992352, 329, 209, 392, 240
-0.992377, 65, 33, 128, 96
-0.99239, 433, 161, 464, 192
-0.992391, 433, 177, 496, 208
-0.992397, 297, 229, 360, 260
-0.992404, 273, 129, 304, 160
-0.992422, 217, 217, 280, 248
-0.992433, 69, 129, 100, 192
-0.992435, 389, 161, 420, 192
-0.992437, 1, 137, 500, 200
-0.992443, 345, 237, 408, 268
-0.992444, 417, 129, 480, 160
-0.992446, 305, 137, 368, 168
-0.992457, 13, 149, 44, 180
-0.992463, 57, 49, 88, 112
-0.99247, 249, 121, 280, 152
-0.992484, 81, 161, 112, 192
-0.992492, 257, 225, 320, 256
-0.992495, 321, 293, 384, 324
-0.992504, 61, 157, 92, 188
-0.992533, 469, 161, 500, 192
-0.992538, 137, 65, 200, 320
-0.992543, 405, 165, 436, 196
-0.992544, 417, 177, 480, 240
-0.992555, 145, 281, 208, 312
-0.992559, 81, 109, 144, 140
-0.99258, 169, 213, 232, 244
-0.992581, 385, 177, 448, 208
-0.992588, 233, 145, 296, 176
-0.992602, 321, 233, 384, 264
-0.992604, 149, 169, 180, 232
-0.992604, 77, 217, 108, 280
-0.992615, 1, 209, 64, 240
-0.992616, 393, 281, 456, 312
-0.992625, 361, 157, 392, 188
-0.992627, 41, 181, 104, 212
-0.992631, 41, 209, 72, 272
-0.992642, 393, 121, 456, 152
-0.992649, 445, 161, 476, 192
-0.992653, 69, 169, 100, 200
-0.992656, 25, 121, 56, 184
-0.992668, 321, 177, 352, 208
-0.99267, 345, 153, 376, 184
-0.992673, 221, 129, 252, 160
-0.992683, 169, 129, 232, 160
-0.992703, 9, 45, 72, 76
-0.992711, 193, 209, 224, 333
-0.992715, 401, 233, 464, 264
-0.992716, 361, 113, 424, 144
-0.992718, 1, 145, 32, 176
-0.992737, 261, 117, 292, 148
-0.992742, 261, 129, 292, 160
-0.992747, 41, 217, 104, 248
-0.992765, 65, 301, 128, 332
-0.992767, 73, 201, 136, 232
-0.992767, 137, 125, 200, 156
-0.992772, 9, 301, 72, 332
-0.992788, 121, 97, 184, 160
-0.992789, 457, 161, 488, 192
-0.992791, 81, 149, 112, 180
-0.992795, 417, 93, 448, 124
-0.9928, 421, 165, 452, 196
-0.992805, 321, 189, 352, 220
-0.992808, 97, 133, 160, 164
-0.992812, 29, 157, 60, 188
-0.992813, 93, 157, 124, 188
-0.992817, 449, 113, 480, 144
-0.992818, 193, 129, 320, 160
-0.992821, 285, 177, 316, 208
-0.992829, 217, 185, 248, 216
-0.992833, 301, 169, 332, 200
-0.992838, 285, 165, 316, 196
-0.992842, 257, 169, 288, 200
-0.992844, 49, 205, 112, 236
-0.992845, 309, 197, 340, 228
-0.992853, 121, 281, 184, 312
-0.992855, 273, 97, 336, 128
-0.992859, 325, 97, 356, 160
-0.992859, 377, 173, 408, 204
-0.992864, 237, 117, 268, 148
-0.992867, 433, 265, 496, 296
-0.992868, 89, 173, 120, 204
-0.99287, 285, 137, 316, 168
-0.992873, 309, 149, 340, 180
-0.992874, 1, 153, 256, 216
-0.992877, 9, 173, 72, 204
-0.99288, 137, 145, 168, 208
-0.992896, 169, 273, 232, 304
-0.992896, 241, 141, 272, 172
-0.992902, 353, 213, 416, 244
-0.992903, 469, 109, 500, 140
-0.992904, 105, 157, 136, 188
-0.992905, 297, 301, 360, 332
-0.992919, 349, 177, 380, 208
-0.992935, 309, 181, 340, 212
-0.992941, 241, 181, 272, 212
-0.992941, 173, 181, 204, 212
-0.992943, 361, 189, 424, 220
-0.992943, 385, 97, 416, 128
-0.992943, 369, 241, 432, 272
-0.992946, 377, 157, 408, 188
-0.992947, 89, 85, 120, 116
-0.992948, 269, 165, 300, 196
-0.992952, 257, 185, 288, 216
-0.992957, 129, 157, 192, 188
-0.992957, 445, 173, 476, 204
-0.99296, 49, 153, 80, 184
-0.992962, 433, 113, 464, 144
-0.992963, 337, 89, 400, 120
-0.992963, 41, 165, 72, 196
-0.992963, 217, 197, 248, 228
-0.992964, 333, 157, 364, 188
-0.992972, 361, 281, 424, 312
-0.992974, 425, 85, 488, 116
-0.992975, 193, 177, 224, 208
-0.992991, 81, 233, 208, 296
-0.992992, 33, 249, 96, 280
-0.992993, 353, 249, 480, 312
-0.992997, 289, 209, 320, 240
-0.993003, 221, 141, 252, 172
-0.993005, 253, 141, 284, 172
-0.993008, 421, 153, 452, 184
-0.99301, 229, 185, 260, 216
-0.99301, 173, 197, 204, 228
-0.993021, 297, 197, 328, 228
-0.993023, 209, 97, 240, 224
-0.993035, 321, 201, 352, 232
-0.993037, 273, 181, 304, 212
-0.993041, 281, 109, 312, 140
-0.993042, 109, 145, 140, 272
-0.993044, 57, 169, 88, 200
-0.993046, 197, 129, 228, 160
-0.993047, 25, 145, 56, 176
-0.993055, 337, 121, 400, 152
-0.993063, 333, 177, 364, 208
-0.993063, 305, 209, 336, 240
-0.993073, 409, 33, 472, 160
-0.993076, 1, 157, 32, 188
-0.993076, 73, 289, 136, 320
-0.993077, 241, 205, 272, 236
-0.993084, 141, 193, 172, 224
-0.993091, 297, 145, 328, 176
-0.993099, 305, 113, 368, 144
-0.993103, 361, 177, 392, 208
-0.993107, 321, 153, 352, 184
-0.993114, 341, 221, 372, 252
-0.99313, 361, 225, 392, 256
-0.993134, 153, 197, 184, 228
-0.993135, 277, 209, 308, 240
-0.993138, 101, 169, 132, 200
-0.993143, 225, 177, 480, 240
-0.99315, 441, 145, 472, 176
-0.993153, 433, 173, 464, 204
-0.993157, 229, 205, 260, 236
-0.993159, 329, 73, 392, 136
-0.99316, 369, 97, 400, 160
-0.99316, 361, 201, 392, 264
-0.993169, 93, 145, 124, 176
-0.993173, 97, 1, 160, 333
-0.993177, 441, 129, 472, 160
-0.993178, 297, 181, 328, 212
-0.993178, 409, 153, 440, 184
-0.993182, 241, 165, 272, 196
-0.993184, 97, 97, 128, 128
-0.993189, 321, 101, 352, 132
-0.993193, 65, 201, 320, 264
-0.993193, 329, 217, 360, 248
-0.993193, 413, 153, 444, 216
-0.993197, 377, 145, 408, 176
-0.993199, 269, 141, 300, 172
-0.993201, 337, 101, 368, 132
-0.993203, 293, 105, 324, 136
-0.993209, 285, 125, 316, 156
-0.993211, 301, 129, 332, 160
-0.993222, 345, 193, 376, 320
-0.993222, 409, 233, 440, 264
-0.993223, 185, 197, 216, 228
-0.99323, 405, 93, 436, 124
-0.993239, 97, 125, 128, 156
-0.993241, 305, 101, 336, 132
-0.993243, 73, 69, 104, 100
-0.993244, 37, 145, 68, 176
-0.993249, 153, 181, 184, 212
-0.993249, 265, 197, 296, 228
-0.993253, 257, 157, 288, 188
-0.993255, 253, 201, 284, 232
-0.993257, 457, 173, 488, 204
-0.993257, 205, 197, 236, 228
-0.993257, 377, 225, 408, 256
-0.993263, 225, 81, 352, 144
-0.99327, 465, 149, 496, 180
-0.993278, 285, 149, 316, 180
-0.993279, 13, 161, 44, 192
-0.993294, 185, 97, 216, 224
-0.993296, 389, 229, 420, 260
-0.993297, 89, 177, 120, 304
-0.993299, 53, 49, 84, 80
-0.993301, 285, 197, 316, 228
-0.993303, 93, 185, 124, 216
-0.99331, 421, 105, 452, 136
-0.993311, 193, 141, 224, 172
-0.993315, 25, 209, 56, 272
-0.993323, 205, 141, 236, 172
-0.993325, 205, 185, 236, 216
-0.993335, 121, 117, 152, 148
-0.993336, 65, 49, 192, 112
-0.993336, 209, 213, 240, 244
-0.993339, 129, 201, 160, 232
-0.993346, 217, 173, 248, 204
-0.993361, 137, 177, 168, 208
-0.993409, 161, 241, 224, 304
-0.993445, 33, 129, 288, 192
-0.993451, 321, 273, 448, 333
-0.993462, 357, 177, 388, 240
-0.993508, 209, 181, 336, 212
-0.993542, 377, 65, 440, 128
-0.99356, 129, 121, 384, 184
-0.993597, 233, 217, 264, 280
-0.993602, 429, 161, 460, 288
-0.993617, 49, 129, 80, 192
-0.993627, 457, 65, 488, 192
-0.993644, 289, 161, 320, 224
-0.993645, 197, 97, 228, 224
-0.993662, 161, 65, 224, 320
-0.993691, 289, 157, 416, 188
-0.993709, 125, 129, 156, 256
-0.993719, 281, 233, 344, 296
-0.993734, 1, 25, 64, 88
-0.993734, 433, 249, 496, 312
-0.993773, 205, 193, 236, 320
-0.993773, 405, 209, 436, 333
-0.993792, 1, 161, 32, 288
-0.993793, 1, 193, 500, 256
-0.993798, 353, 97, 480, 128
-0.993802, 97, 177, 128, 240
-0.993834, 225, 225, 480, 288
-0.99387, 165, 185, 196, 248
-0.993889, 401, 225, 432, 288
-0.993903, 161, 97, 192, 224
-0.993916, 305, 209, 336, 333
-0.993918, 9, 209, 40, 272
-0.993997, 145, 249, 272, 312
-0.994024, 65, 217, 96, 280
-0.994053, 117, 153, 148, 216
-0.994062, 49, 113, 80, 240
-0.994083, 353, 161, 480, 192
-0.994083, 1, 1, 64, 128
-0.994085, 249, 1, 312, 333
-0.994099, 145, 189, 272, 220
-0.994121, 361, 49, 392, 176
-0.994177, 113, 97, 240, 160
-0.994195, 225, 129, 480, 192
-0.994201, 1, 249, 64, 312
-0.994204, 329, 153, 344, 216
-0.994216, 193, 1, 256, 333
-0.99422, 29, 113, 60, 240
-0.994255, 161, 17, 416, 144
-0.994299, 149, 97, 180, 224
-0.994311, 53, 209, 84, 272
-0.994316, 17, 169, 48, 232
-0.994338, 339, 153, 354, 216
-0.994348, 173, 97, 204, 224
-0.994374, 369, 73, 496, 136
-0.994384, 57, 33, 88, 160
-0.994393, 145, 273, 272, 333
-0.99442, 1, 273, 128, 333
-0.994426, 121, 225, 184, 288
-0.994442, 377, 201, 408, 264
-0.994451, 361, 1, 424, 333
-0.994469, 37, 169, 68, 232
-0.994491, 49, 209, 80, 333
-0.99453, 329, 1, 392, 333
-0.994587, 65, 241, 128, 304
-0.994596, 1, 225, 500, 288
-0.994611, 377, 121, 408, 184
-0.994621, 253, 225, 284, 288
-0.994646, 369, 241, 400, 304
-0.994693, 313, 225, 344, 288
-0.994696, 321, 145, 336, 208
-0.9947, 209, 197, 336, 228
-0.994763, 41, 105, 104, 168
-0.994833, 457, 177, 488, 304
-0.994844, 169, 105, 232, 168
-0.994857, 157, 145, 188, 208
-0.994859, 17, 1, 80, 64
-0.994875, 367, 153, 382, 216
-0.994896, 241, 149, 368, 180
-0.994921, 189, 201, 220, 264
-0.994966, 1, 165, 128, 196
-0.994967, 325, 177, 340, 240
-0.995024, 445, 89, 476, 152
-0.995029, 257, 209, 384, 240
-0.995046, 1, 149, 128, 180
-0.995069, 129, 249, 192, 312
-0.995103, 353, 153, 368, 216
-0.995104, 289, 1, 352, 333
-0.995128, 261, 89, 292, 152
-0.995133, 379, 161, 394, 224
-0.99516, 441, 49, 472, 176
-0.995196, 73, 209, 104, 333
-0.995214, 361, 193, 392, 320
-0.995225, 49, 161, 176, 192
-0.995287, 1, 169, 500, 232
-0.995287, 401, 273, 432, 333
-0.995288, 177, 193, 208, 320
-0.995297, 373, 161, 388, 224
-0.995302, 273, 73, 400, 136
-0.995328, 73, 1, 136, 333
-0.995337, 305, 145, 320, 208
-0.995338, 83, 161, 98, 224
-0.995348, 209, 209, 336, 240
-0.995369, 297, 137, 312, 200
-0.995378, 241, 169, 368, 200
-0.995386, 369, 173, 496, 204
-0.995461, 445, 113, 460, 176
-0.995468, 273, 225, 304, 288
-0.995476, 315, 145, 330, 208
-0.995538, 95, 153, 110, 216
-0.995541, 225, 265, 352, 328
-0.995549, 73, 161, 88, 224
-0.995577, 297, 105, 312, 168
-0.995622, 303, 121, 318, 184
-0.995629, 173, 121, 204, 184
-0.995632, 305, 49, 336, 176
-0.995647, 341, 49, 372, 176
-0.995671, 409, 1, 472, 333
-0.9957, 305, 177, 432, 208
-0.99571, 385, 73, 416, 136
-0.995768, 133, 121, 164, 184
-0.995773, 81, 177, 208, 208
-0.995773, 129, 201, 256, 232
-0.995785, 273, 125, 400, 156
-0.995805, 361, 153, 376, 216
-0.995814, 137, 193, 168, 320
-0.995824, 89, 153, 104, 216
-0.995831, 65, 153, 80, 216
-0.995835, 129, 193, 160, 256
-0.995842, 319, 185, 334, 248
-0.995851, 81, 197, 208, 228
-0.995853, 105, 153, 120, 216
-0.995889, 321, 225, 448, 256
-0.995909, 1, 17, 128, 80
-0.995947, 281, 105, 296, 168
-0.995954, 257, 233, 320, 296
-0.995972, 37, 209, 68, 333
-0.995989, 1, 1, 256, 128
-0.99599, 253, 113, 268, 176
-0.996003, 97, 125, 224, 156
-0.996032, 353, 109, 480, 140
-0.996038, 17, 145, 32, 208
-0.996043, 331, 177, 346, 240
-0.996071, 449, 177, 480, 240
-0.996075, 353, 149, 480, 180
-0.99611, 325, 49, 356, 176
-0.996111, 193, 257, 256, 320
-0.996116, 385, 161, 400, 224
-0.996149, 287, 105, 302, 168
-0.996153, 273, 101, 400, 132
-0.996155, 161, 1, 224, 333
-0.996161, 25, 81, 88, 144
-0.996166, 445, 137, 460, 200
-0.996175, 45, 41, 76, 104
-0.99619, 43, 145, 58, 208
-0.996194, 345, 153, 360, 216
-0.996202, 177, 161, 304, 192
-0.996208, 129, 177, 256, 208
-0.996218, 57, 241, 88, 304
-0.99622, 439, 113, 454, 176
-0.996228, 49, 25, 176, 88
-0.996257, 1, 225, 256, 288
-0.996262, 409, 89, 424, 152
-0.996266, 77, 265, 108, 328
-0.996281, 247, 121, 262, 184
-0.996291, 23, 145, 38, 208
-0.996296, 243, 193, 258, 256
-0.996363, 333, 233, 364, 296
-0.996374, 277, 201, 292, 264
-0.996392, 257, 193, 384, 224
-0.996411, 299, 185, 314, 248
-0.99642, 1, 113, 500, 176
-0.996428, 453, 153, 468, 216
-0.996428, 253, 201, 268, 264
-0.99643, 451, 113, 466, 176
-0.996431, 1, 113, 32, 240
-0.996438, 265, 201, 280, 264
-0.996451, 111, 153, 126, 216
-0.996453, 241, 113, 368, 144
-0.996471, 271, 201, 286, 264
-0.996482, 193, 141, 320, 172
-0.996487, 59, 153, 74, 216
-0.996494, 385, 97, 400, 160
-0.996495, 317, 209, 348, 333
-0.996513, 273, 221, 400, 252
-0.996525, 437, 153, 452, 216
-0.996554, 209, 225, 272, 288
-0.996554, 263, 121, 278, 184
-0.996574, 303, 97, 318, 160
-0.996574, 313, 121, 328, 184
-0.996577, 99, 129, 114, 192
-0.99659, 73, 57, 136, 120
-0.996595, 237, 193, 252, 256
-0.996604, 77, 33, 108, 160
-0.996609, 257, 81, 500, 144
-0.996629, 259, 201, 274, 264
-0.996634, 257, 181, 384, 212
-0.996645, 109, 97, 124, 160
-0.996648, 273, 273, 400, 333
-0.99665, 283, 201, 298, 264
-0.996651, 145, 213, 272, 244
-0.996652, 31, 145, 46, 208
-0.996667, 317, 209, 332, 272
-0.996672, 195, 177, 210, 240
-0.996677, 289, 193, 320, 320
-0.996685, 129, 141, 256, 172
-0.996688, 267, 177, 282, 240
-0.996709, 109, 129, 124, 192
-0.996709, 381, 193, 412, 320
-0.996709, 433, 1, 496, 333
-0.996711, 403, 97, 418, 160
-0.996717, 269, 113, 284, 176
-0.996727, 235, 121, 250, 184
-0.996751, 425, 225, 488, 288
-0.996771, 65, 213, 192, 244
-0.996779, 293, 185, 308, 248
-0.996781, 291, 137, 306, 200
-0.996823, 457, 113, 472, 176
-0.996826, 161, 97, 416, 160
-0.99683, 333, 65, 364, 320
-0.996835, 241, 193, 272, 320
-0.996839, 343, 177, 358, 240
-0.99684, 459, 137, 474, 200
-0.996842, 275, 113, 290, 176
-0.996855, 37, 145, 52, 208
-0.996893, 305, 177, 320, 240
-0.996893, 393, 177, 456, 240
-0.996902, 313, 177, 328, 240
-0.996904, 33, 181, 160, 212
-0.996912, 349, 177, 364, 240
-0.996916, 65, 89, 320, 152
-0.996919, 319, 121, 334, 184
-0.996922, 307, 201, 322, 264
-0.996922, 177, 81, 304, 144
-0.996927, 137, 97, 168, 224
-0.996928, 325, 121, 340, 184
-0.996929, 93, 129, 108, 192
-0.996954, 419, 89, 434, 152
-0.996969, 225, 177, 240, 240
-0.996977, 393, 161, 408, 224
-0.996979, 281, 129, 296, 192
-0.996986, 273, 137, 400, 168
-0.996987, 77, 57, 92, 120
-0.99699, 383, 137, 398, 200
-0.996992, 17, 137, 144, 168
-0.997008, 193, 117, 320, 148
-0.997015, 13, 193, 44, 320
-0.997032, 231, 177, 246, 240
-0.997033, 331, 209, 346, 272
-0.997038, 393, 97, 408, 160
-0.99704, 325, 201, 340, 264
-0.997045, 245, 125, 260, 156
-0.99705, 299, 209, 314, 272
-0.997076, 77, 137, 92, 200
-0.997086, 97, 33, 160, 160
-0.997091, 249, 177, 264, 240
-0.99711, 345, 89, 360, 152
-0.99711, 291, 209, 306, 272
-0.997112, 463, 113, 478, 176
-0.997114, 469, 105, 484, 168
-0.997114, 427, 89, 442, 152
-0.997119, 331, 121, 346, 184
-0.997146, 241, 121, 256, 184
-0.997154, 1, 209, 32, 333
-0.997155, 129, 225, 384, 288
-0.997163, 253, 125, 268, 156
-0.997175, 305, 297, 432, 328
-0.997178, 433, 89, 448, 152
-0.997182, 377, 137, 392, 200
-0.997186, 11, 145, 26, 208
-0.997191, 87, 73, 102, 136
-0.997196, 373, 185, 388, 248
-0.997201, 235, 129, 250, 160
-0.997208, 195, 145, 210, 208
-0.997213, 399, 153, 414, 216
-0.997221, 337, 209, 352, 272
-0.997222, 201, 177, 216, 240
-0.997226, 189, 185, 204, 248
-0.997236, 225, 225, 352, 256
-0.997242, 437, 161, 452, 192
-0.997249, 101, 89, 116, 152
-0.997252, 321, 213, 448, 244
-0.997254, 309, 97, 324, 160
-0.997262, 389, 137, 404, 200
-0.997264, 1, 213, 128, 244
-0.997273, 459, 161, 474, 224
-0.997275, 225, 1, 288, 333
-0.997309, 125, 81, 156, 208
-0.99731, 273, 177, 288, 240
-0.997324, 353, 217, 368, 280
-0.997325, 51, 145, 66, 208
-0.997326, 73, 185, 88, 248
-0.99733, 89, 161, 104, 192
-0.997335, 65, 149, 192, 180
-0.99734, 281, 177, 296, 240
-0.997348, 219, 177, 234, 240
-0.997352, 465, 65, 496, 320
-0.997354, 401, 225, 416, 288
-0.997366, 379, 97, 394, 160
-0.997385, 131, 129, 146, 192
-0.997395, 321, 65, 352, 320
-0.997405, 351, 89, 366, 152
-0.997405, 479, 97, 494, 160
-0.997418, 113, 73, 240, 136
-0.997418, 17, 145, 32, 176
-0.997429, 5, 145, 20, 208
-0.997432, 263, 129, 278, 160
-0.997432, 339, 89, 354, 152
-0.997433, 485, 105, 500, 168
-0.997445, 379, 201, 394, 264
-0.997447, 81, 165, 96, 196
-0.997459, 363, 121, 378, 184
-0.997459, 261, 177, 276, 240
-0.997463, 49, 169, 64, 232
-0.997471, 255, 177, 270, 240
-0.997509, 221, 209, 252, 333
-0.997522, 281, 65, 312, 320
-0.997528, 353, 281, 480, 312
-0.997542, 483, 161, 498, 192
-0.997551, 101, 209, 132, 333
-0.99756, 443, 161, 458, 192
-0.99756, 327, 177, 342, 208
-0.99757, 399, 161, 414, 192
-0.997586, 257, 201, 500, 264
-0.997591, 449, 161, 464, 192
-0.997591, 377, 161, 392, 192
-0.997605, 353, 137, 480, 168
-0.997612, 23, 149, 38, 180
-0.997618, 273, 233, 400, 264
-0.997639, 321, 201, 448, 232
-0.99765, 99, 161, 114, 192
-0.997655, 277, 129, 292, 160
-0.99766, 269, 129, 284, 160
-0.997663, 75, 165, 90, 196
-0.997668, 445, 113, 460, 144
-0.997668, 321, 189, 448, 220
-0.997675, 1, 273, 64, 333
-0.997678, 369, 65, 400, 320
-0.997697, 457, 161, 472, 192
-0.997709, 259, 117, 274, 148
-0.997718, 295, 137, 310, 168
-0.997736, 265, 117, 280, 148
-0.997741, 419, 161, 434, 192
-0.997751, 43, 153, 58, 184
-0.997761, 349, 65, 380, 320
-0.997769, 33, 117, 160, 148
-0.997772, 65, 157, 80, 188
-0.997775, 149, 193, 180, 320
-0.997778, 409, 165, 424, 196
-0.997779, 381, 65, 412, 320
-0.997789, 99, 173, 114, 204
-0.9978, 369, 177, 384, 208
-0.997803, 371, 157, 386, 188
-0.997803, 429, 165, 444, 196
-0.99781, 321, 177, 336, 208
-0.997814, 337, 237, 464, 268
-0.997824, 31, 149, 46, 180
-0.997826, 301, 65, 332, 320
-0.997834, 261, 65, 292, 320
-0.997845, 285, 169, 300, 200
-0.997883, 425, 65, 456, 320
-0.997889, 319, 149, 334, 180
-0.997892, 359, 153, 374, 184
-0.997895, 485, 105, 500, 136
-0.997899, 305, 145, 320, 176
-0.997902, 325, 189, 340, 220
-0.997916, 379, 173, 394, 204
-0.997921, 129, 1, 192, 333
-0.997925, 95, 85, 110, 116
-0.997928, 391, 161, 406, 192
-0.997932, 217, 273, 280, 333
-0.997934, 297, 165, 312, 196
-0.997942, 373, 49, 404, 176
-0.997946, 277, 113, 292, 144
-0.997957, 277, 181, 292, 212
-0.997958, 185, 181, 200, 212
-0.997965, 385, 157, 400, 188
-0.997973, 439, 113, 454, 144
-0.997976, 369, 121, 496, 152
-0.997977, 239, 117, 254, 148
-0.99798, 287, 129, 302, 160
-0.997981, 33, 201, 160, 232
-0.997986, 33, 105, 160, 136
-0.997995, 447, 133, 462, 164
-0.997999, 253, 137, 268, 168
-0.998002, 105, 157, 120, 188
-0.998005, 65, 289, 192, 320
-0.998006, 1, 249, 256, 312
-0.998016, 463, 161, 478, 192
-0.998018, 453, 65, 484, 320
-0.998027, 25, 209, 56, 333
-0.998031, 103, 93, 118, 124
-0.998036, 75, 153, 90, 184
-0.998041, 87, 77, 102, 108
-0.998041, 1, 73, 128, 104
-0.998046, 343, 177, 358, 208
-0.99805, 477, 161, 492, 192
-0.998065, 333, 153, 348, 184
-0.998069, 455, 113, 470, 144
-0.998083, 271, 113, 286, 144
-0.998095, 349, 153, 364, 184
-0.998098, 69, 169, 84, 200
-0.998102, 351, 173, 366, 204
-0.998104, 291, 177, 306, 208
-0.998108, 9, 149, 24, 180
-0.998113, 77, 65, 92, 96
-0.998115, 37, 153, 52, 184
-0.998116, 33, 89, 160, 120
-0.998119, 469, 161, 484, 192
-0.998124, 291, 165, 306, 196
-0.998125, 313, 149, 328, 180
-0.998128, 125, 177, 156, 304
-0.998128, 433, 93, 448, 124
-0.998129, 145, 125, 272, 156
-0.998131, 85, 177, 100, 208
-0.998135, 455, 173, 470, 204
-0.998137, 105, 173, 120, 204
-0.998142, 109, 101, 124, 132
-0.998148, 365, 157, 380, 188
-0.998148, 313, 197, 328, 228
-0.99815, 81, 33, 112, 288
-0.998151, 145, 109, 272, 140
-0.99816, 95, 149, 110, 180
-0.998161, 49, 301, 176, 332
-0.998161, 289, 89, 416, 120
-0.998161, 373, 189, 388, 220
-0.998161, 129, 165, 256, 196
-0.998174, 55, 157, 70, 188
-0.998185, 279, 165, 294, 196
-0.998186, 299, 177, 314, 208
-0.998192, 293, 209, 308, 240
-0.998194, 189, 193, 204, 224
-0.998196, 115, 105, 130, 136
-0.998197, 99, 125, 114, 156
-0.998198, 243, 205, 258, 236
-0.998202, 479, 105, 494, 136
-0.998221, 471, 109, 486, 140
-0.998224, 229, 129, 244, 160
-0.998227, 215, 137, 230, 168
-0.998233, 221, 197, 236, 228
-0.998237, 343, 157, 358, 188
-0.998241, 49, 149, 64, 180
-0.998245, 285, 113, 300, 144
-0.99825, 3, 149, 18, 180
-0.998252, 225, 101, 352, 132
-0.998261, 333, 177, 348, 208
-0.998264, 437, 149, 452, 180
-0.99827, 231, 185, 246, 216
-0.998274, 161, 265, 416, 328
-0.998288, 323, 201, 338, 232
-0.998291, 151, 193, 166, 224
-0.998294, 259, 185, 274, 216
-0.998294, 305, 285, 432, 316
-0.998294, 179, 197, 194, 228
-0.998296, 49, 277, 176, 308
-0.998296, 447, 173, 462, 204
-0.998302, 101, 137, 116, 168
-0.998302, 235, 197, 250, 228
-0.998308, 219, 185, 234, 216
-0.998315, 33, 159, 96, 174
-0.998326, 303, 209, 318, 240
-0.99834, 389, 97, 404, 128
-0.998349, 225, 185, 240, 216
-0.998352, 199, 137, 214, 168
-0.998356, 393, 65, 424, 320
-0.998357, 303, 197, 318, 228
-0.998358, 93, 217, 124, 232
-0.998359, 433, 161, 464, 176
-0.99836, 369, 151, 400, 166
-0.99836, 441, 135, 472, 150
-0.99836, 277, 209, 308, 224
-0.998361, 265, 181, 296, 196
-0.998361, 413, 175, 444, 190
-0.998362, 109, 171, 140, 186
-0.998362, 97, 129, 128, 144
-0.998363, 261, 115, 292, 130
-0.998365, 241, 147, 272, 162
-0.998366, 281, 201, 312, 216
-0.998367, 65, 65, 96, 80
-0.998367, 365, 105, 396, 120
-0.998368, 81, 219, 112, 234
-0.998368, 193, 183, 224, 198
-0.998368, 461, 173, 476, 204
-0.99837, 73, 181, 104, 196
-0.99837, 61, 153, 92, 168
-0.99837, 73, 77, 104, 92
-0.99837, 461, 171, 492, 186
-0.998371, 405, 97, 436, 112
-0.998373, 163, 197, 178, 228
-0.998373, 353, 183, 384, 198
-0.998374, 105, 217, 136, 232
-0.998374, 385, 169, 400, 200
-0.998375, 221, 131, 252, 146
-0.998377, 125, 129, 156, 144
-0.998378, 213, 195, 244, 210
-0.99838, 111, 157, 126, 188
-0.998381, 253, 121, 284, 136
-0.998382, 65, 71, 96, 86
-0.998383, 77, 83, 108, 98
-0.998385, 373, 169, 404, 184
-0.998385, 337, 215, 368, 230
-0.998386, 233, 183, 264, 198
-0.998387, 77, 151, 108, 166
-0.998388, 373, 177, 404, 192
-0.998388, 273, 169, 288, 200
-0.998388, 419, 93, 434, 124
-0.998388, 129, 201, 160, 216
-0.998389, 85, 89, 116, 104
-0.99839, 61, 313, 92, 328
-0.998391, 141, 197, 172, 212
-0.998392, 1, 161, 32, 176
-0.998392, 283, 181, 298, 212
-0.998393, 73, 169, 104, 184
-0.998393, 281, 173, 312, 188
-0.998393, 83, 65, 98, 96
-0.998394, 93, 173, 108, 204
-0.998394, 315, 177, 330, 208
-0.998396, 301, 175, 332, 190
-0.998397, 243, 141, 258, 172
-0.998397, 45, 165, 60, 196
-0.998398, 133, 153, 164, 168
-0.998398, 113, 153, 240, 184
-0.998398, 437, 65, 468, 320
-0.998401, 237, 141, 252, 172
-0.998401, 97, 103, 128, 118
-0.998401, 293, 105, 324, 120
-0.998403, 173, 183, 204, 198
-0.998403, 161, 199, 192, 214
-0.998404, 365, 157, 396, 172
-0.998404, 245, 185, 276, 200
-0.998404, 401, 161, 432, 176
-0.998405, 321, 191, 352, 206
-0.998405, 1, 145, 32, 160
-0.998406, 301, 205, 332, 220
-0.998406, 85, 169, 116, 184
-0.998406, 321, 207, 352, 222
-0.998408, 93, 175, 124, 190
-0.998411, 389, 169, 420, 184
-0.998411, 295, 125, 310, 156
-0.998411, 301, 199, 332, 214
-0.998411, 465, 159, 496, 174
-0.998412, 249, 131, 280, 146
-0.998412, 269, 203, 300, 218
-0.998414, 333, 157, 364, 172
-0.998414, 105, 163, 136, 178
-0.998414, 249, 205, 264, 236
-0.998414, 121, 155, 152, 170
-0.998419, 353, 301, 480, 332
-0.998422, 425, 173, 456, 188
-0.998423, 33, 53, 160, 84
-0.998427, 297, 145, 328, 160
-0.998428, 49, 165, 112, 180
-0.998429, 249, 179, 280, 194
-0.998429, 213, 189, 244, 204
-0.998432, 61, 177, 92, 192
-0.998432, 49, 151, 80, 166
-0.998435, 317, 153, 348, 168
-0.998436, 289, 207, 320, 222
-0.998437, 409, 167, 440, 182
-0.998438, 341, 177, 372, 192
-0.998439, 9, 153, 72, 168
-0.998439, 89, 95, 120, 110
-0.99844, 225, 139, 256, 154
-0.998442, 273, 113, 304, 128
-0.998442, 249, 179, 312, 194
-0.998446, 13, 147, 44, 162
-0.998447, 385, 99, 416, 114
-0.998448, 285, 49, 316, 176
-0.99845, 193, 189, 224, 204
-0.998451, 261, 133, 292, 148
-0.998454, 285, 137, 316, 152
-0.998455, 373, 163, 404, 178
-0.998456, 245, 65, 276, 320
-0.998458, 305, 151, 336, 166
-0.998459, 89, 181, 120, 196
-0.998459, 73, 161, 136, 176
-0.99846, 441, 117, 472, 132
-0.998461, 417, 95, 448, 110
-0.998461, 17, 167, 80, 182
-0.998465, 261, 175, 292, 190
-0.998473, 273, 179, 336, 194
-0.998477, 269, 141, 300, 156
-0.998478, 317, 179, 348, 194
-0.998478, 209, 65, 240, 320
-0.998478, 401, 167, 464, 182
-0.998479, 37, 151, 68, 166
-0.998479, 433, 165, 496, 180
-0.998479, 265, 273, 328, 333
-0.99848, 237, 123, 268, 138
-0.99848, 61, 169, 92, 184
-0.998482, 73, 157, 104, 172
-0.998485, 449, 171, 480, 186
-0.998486, 97, 169, 128, 184
-0.998486, 33, 233, 160, 264
-0.998488, 197, 141, 228, 156
-0.99849, 9, 161, 72, 176
-0.998492, 17, 167, 48, 182
-0.998496, 457, 113, 488, 128
-0.998497, 233, 131, 264, 146
-0.998498, 213, 141, 244, 156
-0.998499, 285, 143, 316, 158
-0.9985, 241, 139, 272, 154
-0.998501, 305, 113, 432, 144
-0.998511, 93, 161, 124, 176
-0.998514, 241, 133, 304, 148
-0.998515, 49, 157, 80, 172
-0.998516, 13, 161, 44, 176
-0.998516, 41, 167, 72, 182
-0.998518, 425, 171, 488, 186
-0.99852, 313, 177, 376, 192
-0.998522, 301, 181, 332, 196
-0.998522, 281, 205, 344, 220
-0.998523, 385, 97, 448, 112
-0.998523, 29, 167, 60, 182
-0.998524, 421, 167, 452, 182
-0.998524, 253, 139, 284, 154
-0.998525, 321, 157, 384, 172
-0.998526, 273, 135, 304, 150
-0.998526, 1, 155, 32, 170
-0.998527, 229, 65, 260, 320
-0.998527, 433, 167, 464, 182
-0.998529, 353, 157, 384, 172
-0.998529, 437, 173, 468, 188
-0.998532, 249, 139, 312, 154
-0.998533, 433, 111, 496, 126
-0.998535, 1, 49, 64, 112
-0.998536, 405, 65, 436, 320
-0.998542, 377, 157, 408, 172
-0.998542, 377, 169, 440, 184
-0.998543, 329, 179, 360, 194
-0.998544, 97, 65, 128, 320
-0.998551, 469, 111, 500, 126
-0.998553, 81, 175, 112, 190
-0.998553, 65, 175, 128, 190
-0.998555, 353, 177, 384, 192
-0.998559, 233, 123, 296, 138
-0.998566, 185, 189, 248, 204
-0.998567, 21, 153, 52, 168
-0.998567, 33, 153, 96, 168
-0.998568, 81, 169, 144, 184
-0.998571, 49, 315, 112, 330
-0.998573, 169, 195, 232, 210
-0.998573, 425, 105, 488, 120
-0.998573, 337, 179, 400, 194
-0.998576, 73, 309, 136, 324
-0.998579, 289, 105, 352, 120
-0.99858, 389, 163, 420, 178
-0.998581, 401, 175, 464, 190
-0.998582, 65, 155, 128, 170
-0.998582, 209, 187, 272, 202
-0.998584, 453, 165, 484, 180
-0.998585, 41, 175, 104, 190
-0.998585, 81, 163, 112, 178
-0.998586, 145, 197, 208, 212
-0.998587, 89, 217, 152, 232
-0.998589, 281, 179, 312, 194
-0.99859, 465, 165, 496, 180
-0.998591, 273, 199, 336, 214
-0.998592, 433, 117, 496, 132
-0.998592, 273, 173, 336, 188
-0.998593, 113, 155, 176, 170
-0.998595, 393, 161, 456, 176
-0.998595, 49, 183, 112, 198
-0.998596, 289, 151, 352, 166
-0.998597, 401, 111, 464, 126
-0.998597, 345, 159, 408, 174
-0.9986, 265, 33, 328, 160
-0.9986, 209, 181, 272, 196
-0.998602, 241, 203, 304, 218
-0.998603, 209, 131, 272, 146
-0.998603, 241, 173, 304, 188
-0.998606, 81, 181, 144, 196
-0.998606, 209, 139, 272, 154
-0.998607, 165, 209, 196, 333
-0.998609, 33, 59, 96, 74
-0.998611, 249, 117, 312, 132
-0.998611, 337, 105, 400, 120
-0.998612, 289, 211, 352, 226
-0.998612, 265, 111, 328, 126
-0.998615, 273, 185, 336, 200
-0.998615, 193, 217, 256, 232
-0.998616, 25, 161, 56, 176
-0.998616, 369, 163, 432, 178
-0.998617, 353, 169, 416, 184
-0.998617, 385, 235, 448, 250
-0.998617, 265, 145, 328, 160
-0.998617, 89, 125, 152, 140
-0.998618, 65, 137, 192, 168
-0.99862, 297, 183, 360, 198
-0.998624, 113, 213, 176, 228
-0.998624, 305, 203, 368, 218
-0.998625, 361, 99, 424, 114
-0.998625, 161, 189, 224, 204
-0.998625, 1, 293, 128, 324
-0.998625, 369, 157, 432, 172
-0.998626, 97, 163, 160, 178
-0.998626, 361, 229, 424, 244
-0.998627, 233, 185, 296, 200
-0.998629, 289, 193, 352, 208
-0.998629, 41, 71, 104, 86
-0.998631, 121, 175, 184, 190
-0.998633, 281, 129, 344, 144
-0.998635, 89, 131, 152, 146
-0.998636, 17, 173, 80, 188
-0.998637, 161, 183, 224, 198
-0.99864, 37, 157, 68, 172
-0.99864, 185, 141, 248, 156
-0.99864, 305, 117, 368, 132
-0.998641, 209, 123, 272, 138
-0.998642, 1, 147, 64, 162
-0.998643, 121, 197, 184, 212
-0.998644, 65, 99, 128, 114
-0.998644, 321, 185, 384, 200
-0.998644, 361, 177, 424, 192
-0.998644, 329, 223, 392, 238
-0.998647, 433, 181, 496, 196
-0.998647, 65, 93, 128, 108
-0.998648, 409, 117, 472, 132
-0.998649, 33, 65, 96, 80
-0.998649, 81, 189, 144, 204
-0.998651, 65, 217, 128, 232
-0.998651, 313, 209, 376, 224
-0.998651, 393, 127, 456, 142
-0.998652, 433, 159, 496, 174
-0.998652, 209, 195, 272, 210
-0.998653, 49, 77, 112, 92
-0.998655, 137, 209, 200, 224
-0.998656, 249, 213, 312, 228
-0.998657, 305, 219, 368, 234
-0.998659, 337, 237, 400, 252
-0.998661, 113, 297, 176, 312
-0.998661, 89, 303, 152, 318
-0.998662, 185, 179, 248, 194
-0.998663, 417, 135, 480, 150
-0.998663, 97, 197, 160, 212
-0.998665, 57, 85, 120, 100
-0.998668, 241, 197, 304, 212
-0.998669, 329, 115, 392, 130
-0.99867, 313, 191, 376, 206
-0.998673, 297, 231, 360, 246
-0.998677, 425, 99, 488, 114
-0.998678, 97, 175, 160, 190
-0.998678, 401, 315, 464, 330
-0.998678, 265, 123, 328, 138
-0.998679, 265, 227, 328, 242
-0.99868, 225, 219, 288, 234
-0.99868, 33, 307, 96, 322
-0.99868, 393, 105, 456, 120
-0.99868, 81, 149, 144, 164
-0.998681, 121, 203, 184, 218
-0.998681, 385, 245, 448, 260
-0.998682, 177, 201, 240, 216
-0.998686, 345, 153, 408, 168
-0.998686, 361, 301, 424, 316
-0.998687, 161, 73, 416, 136
-0.998687, 161, 277, 224, 292
-0.998687, 137, 191, 200, 206
-0.998687, 281, 309, 344, 324
-0.998696, 61, 159, 92, 174
-0.998704, 1, 273, 500, 333
-0.998714, 81, 105, 208, 136
-0.99872, 389, 33, 420, 160
-0.998725, 65, 245, 192, 276
-0.998741, 369, 225, 496, 256
-0.998754, 1, 1, 32, 256
-0.998756, 49, 1, 80, 256
-0.998757, 329, 97, 344, 224
-0.99876, 113, 65, 144, 320
-0.998766, 1, 249, 500, 312
-0.998767, 81, 225, 208, 256
-0.998773, 189, 65, 220, 320
-0.998778, 337, 85, 464, 116
-0.998784, 425, 209, 488, 333
-0.998792, 81, 85, 208, 116
-0.998793, 315, 97, 330, 224
-0.998801, 97, 301, 224, 332
-0.998805, 371, 97, 386, 224
-0.998807, 1, 89, 500, 152
-0.998814, 277, 193, 308, 320
-0.998817, 339, 97, 354, 224
-0.998829, 65, 273, 320, 333
-0.998829, 257, 301, 384, 332
-0.998844, 393, 209, 424, 333
-0.998852, 89, 33, 120, 160
-0.998859, 323, 97, 338, 224
-0.998871, 257, 249, 500, 312
-0.998872, 65, 265, 192, 296
-0.998878, 145, 269, 272, 300
-0.998893, 365, 97, 380, 224
-0.998895, 271, 129, 286, 256
-0.998901, 347, 97, 362, 224
-0.998918, 49, 73, 176, 104
-0.998929, 113, 285, 240, 316
-0.998946, 355, 97, 370, 224
-0.998947, 307, 97, 322, 224
-0.998949, 381, 97, 396, 224
-0.998951, 455, 97, 470, 224
-0.998955, 1, 249, 128, 280
-0.99896, 413, 33, 444, 160
-0.998961, 177, 225, 304, 256
-0.998975, 445, 97, 460, 224
-0.99898, 313, 161, 328, 288
-0.998991, 481, 97, 496, 224
-0.999001, 257, 129, 272, 256
-0.999001, 361, 33, 424, 160
-0.99902, 333, 145, 348, 272
-0.999022, 369, 269, 496, 300
-0.999027, 113, 257, 240, 288
-0.999029, 319, 145, 334, 272
-0.999031, 301, 97, 316, 224
-0.999037, 95, 129, 110, 256
-0.999038, 37, 1, 68, 256
-0.99904, 193, 257, 320, 288
-0.99904, 387, 81, 402, 208
-0.99904, 283, 129, 298, 256
-0.999049, 263, 145, 278, 272
-0.999066, 375, 145, 390, 272
-0.999068, 339, 145, 354, 272
-0.999087, 113, 245, 240, 276
-0.9991, 255, 177, 270, 304
-0.999103, 251, 129, 266, 256
-0.999103, 437, 97, 452, 224
-0.999103, 69, 65, 100, 320
-0.999124, 369, 145, 384, 272
-0.999133, 257, 281, 384, 312
-0.999134, 461, 113, 476, 240
-0.999136, 353, 253, 480, 284
-0.999138, 71, 161, 86, 288
-0.999138, 77, 161, 92, 288
-0.999139, 409, 81, 424, 208
-0.99914, 475, 97, 490, 224
-0.999147, 239, 145, 254, 272
-0.999149, 325, 145, 340, 272
-0.99915, 321, 269, 448, 300
-0.999152, 195, 145, 210, 272
-0.999154, 347, 145, 362, 272
-0.999159, 427, 81, 442, 208
-0.99917, 291, 97, 306, 224
-0.999181, 207, 145, 222, 272
-0.999182, 307, 145, 322, 272
-0.999188, 245, 129, 260, 256
-0.99919, 217, 145, 232, 272
-0.99919, 277, 113, 292, 240
-0.999204, 65, 161, 80, 288
-0.999209, 469, 113, 484, 240
-0.999211, 249, 177, 264, 304
-0.999214, 233, 145, 248, 272
-0.999217, 353, 145, 368, 272
-0.999218, 49, 1, 112, 64
-0.999219, 85, 161, 100, 288
-0.999229, 93, 81, 108, 208
-0.999233, 269, 177, 284, 304
-0.999236, 409, 65, 472, 128
-0.999236, 395, 81, 410, 208
-0.999257, 101, 81, 116, 208
-0.999262, 419, 81, 434, 208
-0.999266, 177, 97, 304, 128
-0.999269, 265, 97, 280, 224
-0.999271, 97, 57, 160, 120
-0.999271, 227, 145, 242, 272
-0.999275, 201, 145, 216, 272
-0.999288, 485, 145, 500, 272
-0.999296, 275, 177, 290, 304
-0.999298, 147, 145, 162, 272
-0.999302, 401, 81, 416, 208
-0.999307, 33, 41, 160, 72
-0.999317, 111, 97, 126, 224
-0.999328, 177, 301, 304, 332
-0.99933, 85, 97, 100, 224
-0.999335, 165, 65, 196, 320
-0.99934, 381, 145, 396, 272
-0.999345, 125, 65, 156, 320
-0.999348, 177, 65, 208, 320
-0.999349, 183, 145, 198, 272
-0.999353, 59, 161, 74, 288
-0.999373, 13, 65, 44, 320
-0.999384, 291, 145, 306, 272
-0.999385, 359, 145, 374, 272
-0.999396, 189, 145, 204, 272
-0.9994, 301, 145, 316, 272
-0.999405, 341, 193, 356, 320
-0.999406, 417, 161, 432, 288
-0.999407, 53, 161, 68, 288
-0.999411, 71, 209, 86, 333
-0.999414, 73, 113, 88, 240
-0.999416, 113, 49, 240, 176
-0.999418, 169, 145, 184, 272
-0.999418, 27, 161, 42, 288
-0.999422, 399, 129, 414, 256
-0.999424, 389, 145, 404, 272
-0.999426, 407, 161, 422, 288
-0.999432, 177, 145, 192, 272
-0.999446, 163, 145, 178, 272
-0.999452, 47, 161, 62, 288
-0.999454, 1, 29, 128, 60
-0.999454, 321, 125, 448, 156
-0.999454, 113, 145, 128, 272
-0.999454, 1, 17, 256, 80
-0.999456, 323, 193, 338, 320
-0.999463, 107, 145, 122, 272
-0.999471, 41, 161, 56, 288
-0.999473, 423, 161, 438, 288
-0.999482, 239, 97, 254, 224
-0.999488, 101, 129, 116, 256
-0.99949, 195, 209, 210, 333
-0.999493, 233, 97, 248, 224
-0.999493, 277, 65, 292, 192
-0.999495, 225, 89, 352, 120
-0.999499, 79, 65, 94, 192
-0.999506, 65, 209, 80, 333
-0.999507, 375, 193, 390, 320
-0.999509, 141, 113, 156, 240
-0.999516, 445, 145, 460, 272
-0.999525, 451, 145, 466, 272
-0.999525, 7, 161, 22, 288
-0.99953, 257, 273, 500, 333
-0.999531, 153, 145, 168, 272
-0.999533, 91, 177, 106, 304
-0.999533, 335, 193, 350, 320
-0.999535, 77, 209, 92, 333
-0.999536, 369, 193, 384, 320
-0.999538, 207, 97, 222, 224
-0.999543, 307, 193, 322, 320
-0.999544, 25, 1, 56, 256
-0.999545, 79, 113, 94, 240
-0.999551, 195, 97, 210, 224
-0.999553, 19, 129, 34, 256
-0.999553, 123, 113, 138, 240
-0.999555, 55, 209, 70, 333
-0.999559, 227, 97, 242, 224
-0.999559, 35, 161, 50, 288
-0.999562, 201, 97, 216, 224
-0.999563, 225, 245, 352, 276
-0.999564, 97, 81, 160, 144
-0.999567, 201, 209, 216, 333
-0.999569, 241, 33, 368, 160
-0.999571, 189, 193, 204, 320
-0.999571, 261, 193, 276, 320
-0.999571, 347, 193, 362, 320
-0.999574, 117, 81, 132, 208
-0.999576, 413, 209, 428, 333
-0.999578, 161, 241, 288, 272
-0.999584, 119, 161, 134, 288
-0.999588, 133, 129, 148, 256
-0.999588, 315, 209, 330, 333
-0.999592, 421, 209, 452, 333
-0.999592, 469, 159, 484, 174
-0.999592, 97, 181, 112, 196
-0.999593, 77, 177, 92, 192
-0.999594, 409, 167, 424, 182
-0.999594, 449, 135, 464, 150
-0.999594, 135, 155, 150, 170
-0.999595, 285, 81, 300, 208
-0.999595, 261, 133, 276, 148
-0.999596, 175, 97, 190, 224
-0.999596, 281, 177, 296, 304
-0.999597, 109, 129, 124, 144
-0.999598, 269, 117, 284, 132
-0.999599, 361, 177, 376, 192
-0.999599, 305, 151, 320, 166
-0.999599, 433, 173, 448, 188
-0.9996, 15, 145, 30, 160
-0.9996, 49, 1, 176, 64
-0.999601, 21, 167, 36, 182
-0.999601, 89, 181, 104, 196
-0.999601, 217, 97, 232, 224
-0.999601, 353, 177, 368, 192
-0.999602, 381, 155, 396, 170
-0.999602, 251, 131, 266, 146
-0.999602, 77, 165, 92, 180
-0.999602, 255, 179, 270, 194
-0.999603, 15, 159, 30, 174
-0.999604, 279, 113, 294, 128
-0.999605, 285, 135, 300, 150
-0.999605, 323, 193, 338, 208
-0.999605, 53, 155, 68, 170
-0.999606, 439, 115, 454, 130
-0.999606, 373, 161, 388, 176
-0.999607, 129, 229, 256, 260
-0.999607, 391, 157, 406, 172
-0.999607, 343, 157, 358, 172
-0.999608, 109, 161, 124, 176
-0.999609, 469, 171, 484, 186
-0.999609, 105, 169, 120, 184
-0.99961, 99, 129, 114, 144
-0.999611, 421, 167, 436, 182
-0.999611, 465, 113, 480, 128
-0.999611, 235, 131, 250, 146
-0.999611, 457, 171, 472, 186
-0.999612, 51, 167, 66, 182
-0.999612, 387, 101, 402, 116
-0.999613, 71, 167, 86, 182
-0.999614, 137, 65, 168, 320
-0.999615, 279, 181, 294, 196
-0.999615, 263, 143, 278, 158
-0.999616, 333, 155, 348, 170
-0.999617, 285, 203, 300, 218
-0.999618, 225, 141, 240, 156
-0.999619, 309, 179, 324, 194
-0.999622, 83, 173, 98, 188
-0.999623, 99, 167, 114, 182
-0.999624, 7, 157, 22, 172
-0.999625, 245, 143, 260, 158
-0.999625, 325, 201, 340, 216
-0.999626, 249, 121, 264, 136
-0.999626, 391, 169, 406, 184
-0.999627, 455, 117, 470, 132
-0.999627, 79, 157, 94, 172
-0.999627, 61, 163, 76, 178
-0.999628, 325, 153, 340, 168
-0.999629, 249, 183, 264, 198
-0.99963, 243, 121, 258, 136
-0.999631, 415, 167, 430, 182
-0.999635, 451, 171, 466, 186
-0.999638, 83, 179, 98, 194
-0.999638, 153, 65, 184, 320
-0.999638, 25, 151, 40, 166
-0.999638, 109, 101, 124, 116
-0.999639, 185, 225, 248, 288
-0.99964, 365, 157, 380, 172
-0.999642, 243, 131, 258, 146
-0.999644, 429, 167, 444, 182
-0.999644, 303, 179, 318, 194
-0.999649, 331, 179, 346, 194
-0.999649, 45, 167, 60, 182
-0.99965, 99, 161, 114, 176
-0.99965, 89, 163, 104, 178
-0.99965, 295, 143, 310, 158
-0.999653, 15, 153, 30, 168
-0.999653, 347, 179, 362, 194
-0.999654, 45, 151, 60, 166
-0.999655, 27, 167, 42, 182
-0.999655, 315, 151, 330, 166
-0.999656, 477, 111, 492, 126
-0.999663, 89, 175, 104, 190
-0.999664, 83, 163, 98, 178
-0.999666, 33, 167, 48, 182
-0.999667, 325, 179, 340, 194
-0.999667, 483, 165, 498, 180
-0.999668, 297, 179, 312, 194
-0.999673, 199, 141, 214, 156
-0.999674, 103, 95, 118, 110
-0.999674, 287, 179, 302, 194
-0.999674, 369, 179, 384, 194
-0.999675, 445, 173, 460, 188
-0.999676, 269, 139, 284, 154
-0.999676, 445, 115, 460, 130
-0.999676, 1, 277, 128, 308
-0.999677, 341, 179, 356, 194
-0.999679, 315, 181, 330, 196
-0.999679, 81, 71, 96, 86
-0.999679, 73, 159, 88, 174
-0.99968, 75, 65, 90, 80
-0.999681, 237, 123, 252, 138
-0.999682, 399, 165, 414, 180
-0.999682, 33, 155, 48, 170
-0.999684, 39, 167, 54, 182
-0.999687, 453, 165, 468, 180
-0.999687, 485, 107, 500, 122
-0.999689, 225, 249, 288, 312
-0.999689, 97, 73, 224, 104
-0.999689, 439, 173, 454, 188
-0.999693, 1, 13, 128, 44
-0.999693, 55, 161, 70, 176
-0.999694, 471, 113, 486, 128
-0.999694, 97, 89, 112, 104
-0.999694, 85, 77, 100, 92
-0.999694, 291, 137, 306, 152
-0.999696, 217, 139, 232, 154
-0.999697, 91, 83, 106, 98
-0.9997, 303, 145, 318, 160
-0.999703, 369, 209, 496, 240
-0.999704, 21, 161, 36, 176
-0.999707, 279, 133, 294, 148
-0.999707, 97, 173, 112, 188
-0.999714, 393, 163, 408, 178
-0.999715, 437, 167, 452, 182
-0.999717, 477, 165, 492, 180
-0.999718, 459, 165, 474, 180
-0.999723, 445, 167, 460, 182
-0.999723, 1, 49, 256, 112
-0.999727, 39, 151, 54, 166
-0.999729, 61, 157, 76, 172
-0.999731, 253, 139, 268, 154
-0.999734, 383, 161, 398, 176
-0.999734, 193, 273, 320, 304
-0.999738, 45, 157, 60, 172
-0.999738, 67, 157, 82, 172
-0.999746, 27, 161, 42, 176
-0.999749, 467, 165, 482, 180
-0.99975, 235, 139, 250, 154
-0.999774, 273, 269, 400, 300
-0.999778, 37, 161, 52, 176
-0.999855, 1, 265, 128, 296
-0.999871, 49, 81, 112, 144
-0.999877, 17, 1, 144, 32
-0.999915, 209, 289, 336, 320
-0.999919, 81, 57, 208, 88
-0.999991, 113, 49, 144, 176
-1.00001, 49, 13, 176, 44
-1.00008, 1, 65, 32, 192
-1.00009, 241, 257, 368, 288
-1.00012, 113, 193, 144, 320
-1.00014, 469, 193, 500, 320
-1.00021, 49, 29, 176, 60
-1.00023, 289, 245, 416, 276
-1.00024, 369, 193, 496, 224
-1.00025, 17, 97, 48, 224
-1.00026, 129, 85, 256, 116
-1.00029, 289, 77, 416, 108
-1.0003, 225, 57, 352, 120
-1.00031, 17, 1, 48, 128
-1.00056, 81, 45, 208, 76
-1.00057, 45, 33, 76, 160
-1.00063, 97, 9, 224, 72
-1.00067, 113, 49, 240, 112
-1.00068, 161, 285, 288, 316
-1.0007, 177, 85, 304, 116
-1.00071, 97, 29, 224, 60
-1.00072, 145, 97, 208, 160
-1.00072, 1, 65, 64, 192
-1.00073, 145, 73, 272, 104
-1.00073, 113, 1, 240, 32
-1.00075, 289, 257, 416, 288
-1.00075, 97, 17, 224, 48
-1.00075, 193, 69, 320, 100
-1.00075, 429, 33, 460, 160
-1.00077, 337, 73, 464, 104
-1.00078, 145, 61, 272, 92
-1.00089, 1, 65, 500, 128
-1.00099, 469, 49, 500, 176
-1.00105, 29, 1, 60, 128
-1.00128, 97, 17, 352, 80
-1.0013, 433, 201, 496, 264
-1.00143, 401, 33, 432, 160
-1.00147, 193, 49, 448, 112
-1.00152, 97, 41, 352, 104
-1.00156, 161, 49, 288, 112
-1.0016, 169, 81, 232, 144
-1.00166, 193, 9, 448, 72
-1.00173, 321, 49, 448, 112
-1.00193, 193, 9, 320, 72
-1.00196, 129, 49, 192, 176
-1.00203, 145, 1, 272, 64
-1.00211, 1, 1, 500, 64
-1.00212, 1, 1, 32, 128
-1.00223, 145, 25, 272, 88
-1.00242, 257, 33, 384, 96
-1.00243, 29, 65, 60, 192
-1.00246, 1, 33, 500, 96
-1.00253, 249, 49, 280, 176
-1.00256, 369, 33, 496, 96
-1.00258, 209, 33, 336, 96
-1.0026, 433, 209, 464, 333
-1.00268, 241, 1, 368, 64
-1.00271, 321, 25, 448, 88
-1.00276, 305, 1, 432, 64
-1.00291, 369, 9, 496, 72
-1.00305, 101, 1, 132, 128
-1.00436, 445, 193, 476, 320
-1.00442, 17, 49, 48, 176
-1.00519, 289, 1, 416, 128
-1.0062, 201, 49, 264, 176
-1.00633, 225, 33, 288, 160
-1.00645, 97, 1, 224, 128
-1.00663, 161, 49, 224, 176
-1.00848, 161, 1, 288, 128
-1.01041, 121, 1, 184, 128
-1.01197, 353, 1, 480, 128
-1.01214, 177, 1, 240, 128
-1.01228, 337, 1, 400, 128
-1.01253, 145, 1, 208, 128
-1.01413, 257, 1, 500, 128
-1.01432, 201, 1, 264, 128
-1.01457, 433, 1, 496, 128
-1.01731, 305, 1, 368, 128
