1967
-0.576103, 1, 129, 500, 375
-0.681579, 1, 1, 500, 256
-0.736714, 225, 1, 480, 375
-0.782432, 129, 129, 384, 375
-0.786515, 33, 1, 288, 375
-0.796686, 1, 1, 500, 375
-0.826598, 129, 1, 384, 375
-0.831527, 257, 129, 500, 375
-0.876108, 33, 97, 288, 352
-0.878077, 257, 33, 500, 288
-0.888272, 177, 97, 304, 352
-0.905489, 225, 129, 352, 375
-0.923928, 1, 225, 500, 352
-0.927641, 129, 129, 256, 375
-0.930875, 321, 97, 448, 352
-0.931631, 193, 1, 320, 375
-0.937342, 353, 1, 480, 375
-0.942505, 225, 225, 352, 352
-0.942765, 241, 1, 368, 375
-0.944328, 129, 225, 384, 352
-0.944402, 113, 1, 240, 375
-0.94541, 161, 145, 416, 272
-0.945886, 1, 113, 500, 240
-0.94853, 1, 177, 500, 304
-0.949388, 369, 1, 496, 256
-0.951776, 193, 145, 320, 272
-0.951822, 297, 273, 360, 336
-0.952385, 65, 113, 320, 240
-0.953534, 225, 193, 480, 320
-0.954494, 225, 97, 480, 224
-0.955392, 305, 1, 432, 375
-0.955773, 161, 193, 288, 320
-0.955957, 241, 225, 304, 352
-0.956636, 209, 113, 272, 240
-0.95784, 113, 33, 240, 288
-0.957954, 265, 209, 328, 336
-0.95821, 65, 129, 192, 375
-0.958567, 33, 241, 288, 368
-0.959263, 33, 1, 288, 256
-0.960035, 297, 225, 360, 352
-0.960174, 65, 1, 192, 375
-0.960376, 369, 129, 496, 375
-0.960596, 257, 145, 500, 272
-0.960671, 145, 241, 272, 368
-0.960683, 257, 161, 320, 288
-0.961255, 185, 145, 248, 272
-0.961272, 177, 1, 304, 256
-0.962503, 241, 177, 368, 304
-0.962623, 257, 249, 320, 312
-0.962894, 217, 177, 280, 304
-0.963556, 17, 1, 144, 375
-0.963835, 233, 113, 296, 240
-0.96454, 273, 33, 400, 288
-0.964555, 241, 217, 304, 280
-0.964942, 273, 129, 400, 375
-0.965045, 225, 241, 480, 368
-0.96569, 281, 249, 344, 312
-0.966723, 193, 97, 320, 224
-0.966846, 225, 121, 288, 184
-0.967131, 201, 241, 264, 368
-0.967535, 185, 121, 248, 184
-0.968163, 337, 241, 464, 368
-0.968546, 201, 313, 264, 375
-0.968932, 289, 177, 352, 304
-0.969214, 281, 185, 344, 248
-0.969214, 233, 273, 296, 336
-0.969237, 169, 193, 232, 320
-0.969403, 401, 161, 464, 288
-0.969799, 225, 33, 352, 288
-0.96981, 281, 225, 344, 288
-0.970024, 289, 209, 416, 336
-0.970408, 161, 33, 416, 288
-0.970533, 113, 145, 240, 272
-0.971152, 209, 185, 272, 248
-0.971259, 1, 65, 500, 192
-0.971515, 153, 305, 216, 368
-0.972266, 97, 241, 224, 368
-0.972269, 185, 153, 248, 216
-0.972412, 1, 1, 500, 128
-0.972456, 257, 185, 320, 248
-0.972698, 225, 153, 288, 216
-0.974012, 385, 113, 448, 240
-0.974148, 145, 241, 208, 368
-0.974162, 417, 209, 480, 336
-0.974362, 65, 177, 320, 304
-0.974377, 17, 129, 144, 375
-0.974638, 337, 193, 464, 320
-0.975501, 337, 113, 464, 240
-0.975687, 177, 289, 240, 352
-0.97599, 217, 217, 280, 280
-0.976212, 65, 33, 192, 288
-0.97668, 177, 121, 304, 184
-0.976953, 113, 97, 240, 224
-0.977039, 169, 209, 232, 272
-0.977082, 209, 281, 336, 344
-0.977198, 233, 241, 296, 304
-0.977472, 257, 113, 320, 240
-0.977478, 265, 289, 328, 352
-0.9775, 257, 265, 384, 328
-0.977873, 241, 129, 368, 256
-0.978028, 337, 281, 400, 344
-0.978239, 305, 297, 368, 360
-0.97837, 33, 65, 288, 192
-0.978412, 321, 177, 384, 304
-0.978492, 305, 249, 368, 312
-0.978626, 113, 193, 240, 320
-0.978795, 401, 169, 464, 232
-0.978807, 241, 201, 368, 264
-0.979229, 273, 241, 304, 304
-0.979239, 193, 177, 320, 240
-0.979376, 285, 265, 316, 328
-0.979676, 289, 217, 320, 280
-0.979882, 321, 1, 448, 256
-0.979919, 409, 113, 472, 240
-0.980066, 409, 209, 472, 272
-0.980075, 161, 113, 224, 240
-0.980094, 293, 193, 324, 320
-0.980133, 329, 273, 360, 336
-0.980297, 329, 241, 392, 368
-0.980502, 385, 65, 448, 192
-0.980553, 201, 65, 264, 192
-0.980578, 301, 201, 332, 264
-0.980664, 289, 161, 416, 288
-0.980684, 193, 193, 256, 320
-0.98077, 269, 209, 300, 336
-0.980879, 97, 297, 224, 360
-0.981118, 145, 305, 272, 368
-0.981195, 417, 249, 480, 312
-0.981348, 225, 233, 352, 296
-0.981503, 249, 209, 280, 336
-0.981516, 253, 209, 284, 272
-0.981539, 201, 289, 264, 352
-0.981614, 209, 249, 272, 312
-0.981652, 129, 273, 192, 336
-0.981691, 213, 113, 244, 240
-0.981816, 393, 257, 456, 320
-0.981946, 201, 121, 232, 184
-0.982026, 161, 129, 224, 192
-0.982361, 209, 257, 336, 320
-0.982384, 249, 145, 312, 208
-0.982618, 425, 161, 488, 288
-0.982688, 177, 241, 240, 368
-0.982714, 209, 305, 336, 368
-0.982738, 241, 97, 304, 352
-0.982742, 161, 201, 288, 264
-0.982803, 301, 257, 332, 320
-0.982823, 433, 225, 496, 288
-0.983127, 321, 185, 384, 248
-0.983201, 393, 209, 456, 336
-0.983356, 257, 313, 384, 375
-0.983457, 193, 145, 224, 272
-0.983537, 177, 129, 240, 375
-0.98362, 193, 153, 320, 216
-0.98372, 281, 313, 344, 375
-0.983843, 161, 241, 288, 304
-0.98386, 385, 73, 448, 136
-0.983864, 269, 193, 300, 256
-0.983955, 185, 185, 248, 248
-0.98405, 121, 241, 184, 368
-0.984112, 261, 145, 292, 272
-0.984131, 281, 225, 312, 352
-0.984222, 105, 289, 168, 352
-0.984255, 305, 209, 336, 336
-0.984302, 409, 33, 472, 160
-0.984419, 385, 145, 448, 208
-0.984433, 145, 193, 208, 320
-0.984505, 209, 97, 272, 352
-0.984573, 305, 177, 432, 240
-0.984619, 225, 49, 480, 176
-0.984743, 201, 313, 232, 375
-0.985004, 337, 305, 400, 368
-0.98502, 289, 289, 416, 352
-0.985131, 329, 241, 360, 368
-0.985255, 321, 265, 448, 328
-0.985257, 201, 97, 232, 224
-0.985344, 241, 177, 368, 240
-0.985347, 213, 145, 244, 208
-0.985386, 337, 289, 464, 352
-0.985501, 249, 233, 280, 296
-0.985726, 225, 305, 288, 368
-0.985802, 253, 97, 284, 224
-0.985825, 377, 161, 440, 288
-0.985878, 229, 305, 260, 368
-0.985958, 161, 265, 288, 328
-0.985984, 261, 249, 292, 312
-0.985993, 161, 233, 224, 296
-0.986155, 237, 113, 268, 240
-0.986268, 337, 297, 368, 360
-0.986346, 281, 177, 312, 240
-0.986357, 213, 121, 244, 184
-0.986418, 361, 97, 424, 224
-0.986486, 17, 33, 144, 288
-0.986498, 265, 273, 296, 336
-0.986505, 305, 209, 368, 272
-0.986508, 253, 113, 284, 176
-0.98653, 233, 193, 296, 256
-0.986584, 229, 241, 260, 368
-0.986639, 129, 305, 192, 368
-0.986811, 153, 273, 216, 336
-0.986954, 425, 185, 488, 248
-0.986965, 269, 217, 300, 280
-0.987022, 345, 257, 408, 320
-0.987068, 421, 209, 452, 336
-0.987099, 281, 177, 312, 304
-0.987188, 309, 281, 340, 344
-0.987204, 429, 161, 460, 288
-0.987247, 309, 177, 340, 240
-0.987275, 433, 241, 464, 368
-0.987378, 229, 169, 260, 232
-0.98741, 65, 177, 192, 304
-0.987515, 225, 129, 256, 192
-0.987519, 225, 65, 288, 192
-0.987598, 145, 177, 272, 240
-0.987757, 193, 225, 256, 288
-0.987789, 385, 201, 448, 264
-0.987903, 401, 49, 464, 112
-0.987911, 265, 129, 328, 375
-0.987951, 353, 161, 480, 224
-0.988018, 225, 113, 256, 240
-0.988023, 165, 209, 196, 336
-0.98807, 213, 297, 244, 360
-0.988093, 309, 161, 340, 288
-0.988197, 289, 289, 320, 352
-0.988221, 113, 273, 240, 336
-0.988296, 257, 169, 288, 232
-0.988409, 113, 121, 240, 184
-0.988478, 393, 289, 456, 352
-0.988505, 249, 161, 280, 288
-0.988578, 377, 169, 440, 232
-0.988624, 137, 233, 200, 296
-0.988648, 113, 145, 240, 208
-0.988707, 201, 153, 232, 216
-0.988856, 345, 169, 408, 232
-0.988895, 369, 33, 496, 160
-0.988994, 353, 193, 480, 256
-0.989142, 313, 249, 344, 312
-0.989164, 225, 97, 288, 160
-0.989288, 393, 129, 456, 375
-0.989301, 441, 193, 472, 320
-0.989371, 273, 225, 400, 288
-0.989378, 377, 121, 440, 184
-0.989381, 89, 313, 152, 375
-0.989497, 229, 161, 260, 288
-0.989554, 317, 225, 348, 352
-0.989638, 305, 277, 368, 308
-0.989739, 241, 145, 368, 208
-0.989774, 337, 241, 464, 304
-0.98979, 217, 225, 248, 352
-0.989827, 293, 177, 324, 240
-0.989848, 289, 129, 352, 375
-0.989867, 165, 225, 196, 288
-0.989879, 421, 249, 452, 312
-0.989903, 257, 121, 320, 184
-0.989951, 249, 313, 312, 375
-0.989956, 245, 185, 276, 248
-0.989977, 213, 169, 244, 232
-0.990029, 281, 205, 344, 236
-0.990042, 393, 233, 456, 296
-0.990103, 289, 241, 320, 304
-0.990181, 185, 125, 248, 156
-0.990186, 249, 277, 312, 308
-0.99019, 265, 249, 328, 280
-0.990192, 241, 265, 272, 328
-0.990215, 313, 225, 344, 288
-0.990234, 433, 113, 496, 240
-0.990257, 349, 281, 380, 344
-0.99026, 273, 265, 336, 296
-0.990271, 317, 305, 348, 368
-0.990329, 369, 265, 496, 328
-0.990368, 113, 217, 240, 280
-0.990429, 209, 161, 240, 288
-0.990431, 181, 305, 212, 368
-0.990441, 393, 73, 424, 136
-0.99045, 201, 97, 264, 160
-0.990516, 225, 285, 288, 316
-0.990525, 249, 213, 312, 244
-0.990563, 177, 97, 304, 160
-0.990581, 241, 245, 304, 276
-0.990594, 429, 217, 460, 280
-0.99062, 281, 285, 344, 316
-0.990763, 401, 105, 464, 168
-0.990787, 257, 289, 320, 320
-0.990791, 417, 273, 480, 336
-0.990932, 177, 265, 240, 328
-0.990979, 249, 265, 312, 296
-0.990982, 433, 185, 464, 248
-0.990985, 249, 197, 312, 228
-0.99107, 233, 173, 296, 204
-0.991094, 297, 309, 360, 340
-0.991102, 281, 217, 344, 248
-0.991106, 161, 153, 224, 216
-0.991126, 201, 289, 232, 352
-0.991135, 161, 273, 192, 336
-0.99114, 297, 297, 360, 328
-0.991162, 177, 193, 208, 320
-0.991191, 245, 153, 276, 216
-0.991266, 201, 329, 264, 360
-0.9913, 281, 129, 344, 256
-0.991304, 233, 121, 296, 152
-0.991311, 293, 241, 324, 368
-0.991316, 177, 313, 240, 375
-0.991322, 249, 225, 312, 256
-0.991369, 201, 317, 264, 348
-0.991379, 241, 345, 304, 375
-0.991393, 185, 297, 248, 328
-0.991438, 297, 261, 360, 292
-0.991454, 113, 177, 176, 304
-0.991455, 241, 81, 368, 208
-0.991478, 413, 113, 444, 240
-0.991509, 209, 209, 272, 240
-0.991525, 225, 273, 288, 304
-0.991531, 241, 121, 272, 184
-0.991532, 153, 309, 216, 340
-0.991535, 425, 1, 488, 256
-0.991545, 385, 313, 448, 375
-0.991564, 401, 1, 464, 375
-0.991577, 209, 185, 272, 216
-0.99158, 225, 157, 288, 188
-0.991589, 341, 241, 372, 368
-0.991628, 265, 137, 296, 200
-0.991643, 201, 173, 264, 204
-0.991645, 161, 297, 192, 360
-0.991716, 321, 313, 448, 375
-0.991734, 425, 33, 488, 96
-0.991749, 417, 129, 480, 192
-0.991781, 209, 221, 272, 252
-0.991804, 281, 193, 344, 224
-0.991834, 209, 197, 272, 228
-0.991863, 153, 225, 184, 352
-0.991876, 425, 245, 488, 276
-0.991885, 345, 285, 408, 316
-0.991898, 169, 221, 232, 252
-0.991933, 301, 313, 332, 375
-0.991937, 441, 225, 472, 288
-0.991937, 225, 233, 288, 264
-0.991944, 181, 129, 212, 256
-0.991947, 241, 289, 272, 352
-0.991949, 49, 241, 176, 368
-0.991953, 281, 229, 344, 260
-0.991978, 393, 65, 424, 192
-0.992009, 301, 225, 332, 288
-0.992045, 229, 249, 260, 312
-0.992075, 225, 137, 288, 168
-0.992096, 297, 321, 360, 352
-0.992098, 409, 189, 472, 220
-0.992102, 433, 1, 496, 64
-0.992107, 321, 325, 384, 356
-0.992123, 49, 289, 176, 352
-0.992131, 185, 341, 248, 372
-0.992166, 369, 273, 432, 336
-0.992188, 249, 185, 312, 216
-0.992195, 409, 209, 472, 240
-0.992206, 209, 125, 272, 156
-0.992237, 201, 149, 264, 180
-0.992251, 321, 177, 352, 304
-0.992273, 321, 201, 384, 232
-0.99229, 205, 225, 236, 352
-0.992298, 345, 273, 408, 304
-0.992331, 337, 297, 400, 328
-0.992343, 217, 245, 280, 276
-0.992343, 169, 149, 232, 180
-0.992346, 185, 137, 248, 168
-0.992356, 225, 257, 288, 288
-0.992359, 49, 313, 176, 375
-0.992368, 193, 289, 448, 352
-0.992382, 401, 173, 464, 204
-0.992397, 169, 209, 232, 240
-0.992409, 409, 225, 472, 256
-0.992411, 393, 269, 456, 300
-0.992426, 289, 181, 352, 212
-0.992519, 417, 261, 480, 292
-0.992525, 297, 245, 360, 276
-0.992549, 385, 337, 448, 368
-0.992566, 201, 161, 264, 192
-0.992571, 177, 321, 240, 352
-0.99258, 321, 313, 384, 344
-0.992597, 289, 333, 352, 364
-0.992605, 361, 81, 424, 144
-0.992607, 185, 129, 216, 192
-0.992609, 161, 233, 224, 264
-0.99263, 65, 313, 128, 375
-0.992632, 121, 301, 184, 332
-0.992635, 285, 277, 316, 308
-0.99266, 161, 185, 224, 248
-0.992663, 257, 121, 384, 184
-0.992693, 241, 209, 272, 272
-0.992698, 321, 213, 384, 244
-0.992702, 129, 289, 160, 352
-0.992713, 305, 161, 368, 224
-0.992719, 241, 333, 304, 364
-0.992721, 433, 1, 496, 128
-0.992729, 253, 273, 284, 304
-0.992734, 433, 205, 496, 236
-0.992755, 385, 85, 448, 116
-0.992755, 265, 145, 328, 176
-0.992759, 301, 265, 332, 296
-0.992761, 397, 113, 428, 240
-0.992763, 393, 281, 456, 312
-0.99277, 273, 245, 304, 276
-0.992777, 217, 1, 280, 375
-0.992807, 177, 193, 240, 224
-0.992811, 257, 173, 320, 204
-0.992811, 337, 261, 400, 292
-0.992812, 429, 273, 460, 336
-0.992815, 333, 273, 364, 304
-0.992823, 393, 293, 456, 324
-0.992842, 305, 205, 336, 236
-0.992855, 253, 213, 284, 244
-0.992855, 129, 289, 192, 320
-0.992862, 401, 161, 464, 192
-0.992867, 201, 233, 264, 264
-0.992868, 325, 209, 356, 272
-0.992869, 177, 169, 240, 200
-0.992876, 265, 285, 296, 316
-0.992877, 257, 301, 320, 332
-0.992877, 73, 325, 136, 356
-0.992881, 289, 113, 416, 240
-0.992883, 289, 213, 320, 244
-0.992889, 185, 113, 248, 144
-0.992895, 201, 285, 264, 316
-0.992898, 41, 345, 104, 375
-0.992908, 153, 249, 216, 280
-0.992911, 225, 305, 288, 336
-0.992917, 277, 265, 308, 296
-0.992919, 153, 137, 216, 168
-0.992924, 361, 333, 424, 364
-0.992936, 197, 121, 228, 152
-0.992937, 145, 209, 208, 272
-0.99295, 229, 177, 260, 208
-0.992957, 209, 317, 240, 348
-0.992957, 105, 321, 168, 352
-0.992964, 385, 73, 448, 104
-0.992964, 417, 285, 480, 316
-0.992967, 305, 285, 336, 316
-0.99298, 129, 313, 192, 344
-0.99298, 33, 305, 288, 368
-0.992994, 265, 321, 328, 352
-0.992997, 241, 277, 272, 308
-0.992997, 153, 261, 216, 292
-0.99301, 385, 201, 448, 232
-0.993018, 201, 257, 264, 288
-0.993019, 421, 161, 452, 224
-0.99302, 113, 225, 176, 288
-0.993025, 433, 221, 496, 252
-0.993033, 285, 297, 316, 328
-0.993035, 313, 185, 376, 216
-0.99304, 257, 157, 320, 188
-0.993044, 265, 273, 296, 304
-0.993046, 145, 213, 208, 244
-0.993047, 321, 337, 384, 368
-0.993049, 145, 277, 208, 308
-0.993054, 393, 253, 456, 284
-0.993056, 377, 169, 440, 200
-0.993065, 277, 217, 308, 248
-0.993065, 185, 245, 248, 276
-0.99307, 289, 253, 320, 284
-0.993073, 249, 177, 280, 208
-0.993074, 193, 337, 224, 368
-0.993079, 149, 273, 180, 336
-0.993086, 273, 345, 336, 375
-0.993088, 273, 205, 304, 236
-0.993088, 257, 225, 288, 256
-0.993092, 217, 109, 280, 140
-0.993098, 425, 129, 488, 375
-0.9931, 161, 297, 224, 328
-0.993108, 433, 233, 496, 264
-0.993108, 293, 201, 324, 232
-0.99311, 213, 161, 244, 192
-0.99311, 353, 177, 416, 208
-0.993116, 185, 193, 216, 256
-0.993117, 257, 201, 288, 232
-0.993134, 333, 317, 364, 348
-0.99315, 393, 121, 456, 152
-0.993151, 249, 345, 280, 375
-0.993155, 313, 317, 344, 348
-0.993158, 153, 125, 216, 156
-0.993161, 385, 325, 448, 356
-0.993165, 301, 217, 332, 248
-0.993181, 217, 345, 280, 375
-0.993183, 201, 269, 264, 300
-0.993196, 245, 121, 276, 152
-0.9932, 233, 329, 264, 360
-0.993218, 409, 141, 472, 172
-0.993221, 153, 333, 216, 364
-0.993226, 401, 241, 464, 272
-0.993232, 197, 321, 228, 352
-0.993233, 237, 189, 268, 220
-0.993234, 249, 289, 280, 320
-0.993236, 425, 1, 488, 375
-0.993238, 249, 237, 280, 268
-0.993241, 229, 165, 260, 196
-0.993241, 289, 225, 320, 256
-0.993243, 209, 149, 240, 180
-0.993249, 217, 297, 248, 328
-0.993254, 289, 265, 320, 296
-0.993255, 433, 161, 496, 192
-0.993271, 317, 277, 348, 308
-0.993281, 237, 289, 268, 320
-0.993283, 217, 125, 248, 156
-0.993283, 329, 329, 360, 360
-0.993283, 281, 185, 312, 216
-0.993286, 401, 61, 464, 92
-0.993287, 297, 345, 360, 375
-0.99329, 209, 173, 240, 204
-0.993304, 253, 153, 284, 184
-0.993306, 337, 137, 464, 200
-0.993312, 349, 293, 380, 324
-0.993319, 313, 261, 344, 292
-0.993323, 313, 225, 376, 256
-0.993329, 261, 257, 292, 288
-0.99333, 97, 309, 160, 340
-0.993335, 257, 189, 288, 220
-0.99334, 241, 205, 272, 236
-0.993342, 265, 133, 328, 164
-0.993344, 425, 245, 456, 276
-0.993347, 421, 257, 452, 288
-0.993348, 97, 193, 224, 256
-0.99335, 221, 317, 252, 348
-0.993351, 257, 121, 288, 152
-0.993353, 261, 173, 292, 204
-0.993354, 181, 141, 212, 172
-0.993361, 385, 109, 448, 140
-0.993363, 345, 305, 376, 336
-0.993368, 165, 305, 196, 336
-0.993374, 377, 157, 440, 188
-0.993377, 441, 237, 472, 268
-0.993377, 321, 305, 352, 336
-0.99338, 337, 189, 400, 220
-0.993384, 445, 249, 476, 280
-0.993385, 317, 209, 348, 240
-0.993388, 433, 197, 464, 228
-0.993388, 241, 161, 272, 192
-0.993389, 273, 229, 304, 260
-0.993401, 201, 137, 232, 168
-0.993402, 61, 333, 92, 364
-0.993408, 305, 193, 336, 224
-0.993408, 329, 261, 360, 292
-0.993409, 333, 305, 364, 336
-0.993413, 441, 221, 472, 252
-0.993413, 357, 277, 388, 308
-0.993417, 253, 137, 284, 168
-0.99342, 213, 333, 244, 364
-0.993423, 233, 317, 264, 348
-0.993429, 329, 209, 360, 240
-0.993436, 293, 241, 324, 272
-0.993439, 405, 69, 436, 100
-0.99344, 293, 181, 324, 212
-0.993443, 321, 189, 352, 220
-0.993446, 193, 157, 224, 188
-0.993455, 393, 81, 424, 112
-0.993461, 173, 221, 204, 252
-0.993466, 409, 257, 440, 320
-0.993466, 309, 305, 340, 336
-0.993467, 169, 237, 200, 268
-0.99347, 425, 157, 456, 188
-0.993471, 429, 277, 460, 308
-0.993473, 273, 137, 304, 168
-0.993476, 153, 309, 184, 340
-0.993481, 317, 333, 348, 364
-0.993484, 245, 225, 276, 256
-0.993486, 181, 129, 212, 160
-0.993489, 229, 129, 260, 160
-0.993497, 293, 317, 324, 348
-0.993498, 369, 333, 400, 364
-0.9935, 433, 249, 464, 312
-0.993506, 93, 313, 124, 344
-0.993512, 413, 333, 444, 364
-0.993516, 253, 333, 284, 364
-0.993521, 245, 249, 276, 280
-0.993526, 225, 153, 256, 184
-0.993526, 369, 65, 496, 128
-0.993529, 329, 289, 360, 320
-0.99353, 81, 321, 112, 352
-0.993533, 213, 185, 244, 216
-0.993533, 165, 253, 196, 284
-0.993536, 425, 169, 456, 200
-0.993541, 349, 261, 380, 292
-0.993545, 441, 209, 472, 240
-0.993547, 181, 341, 212, 372
-0.993549, 341, 177, 372, 208
-0.993549, 57, 345, 88, 375
-0.993551, 225, 189, 256, 220
-0.993553, 421, 297, 452, 328
-0.993556, 281, 345, 312, 375
-0.993557, 453, 237, 484, 268
-0.993559, 345, 281, 376, 312
-0.993562, 417, 53, 448, 84
-0.993564, 417, 285, 448, 316
-0.993564, 421, 345, 452, 375
-0.993571, 281, 161, 344, 224
-0.993577, 225, 113, 256, 144
-0.993579, 193, 189, 224, 220
-0.99358, 421, 137, 452, 168
-0.99358, 229, 277, 260, 308
-0.993585, 313, 221, 344, 252
-0.99359, 433, 257, 464, 288
-0.993591, 321, 177, 352, 208
-0.993591, 421, 209, 452, 240
-0.993596, 433, 65, 496, 192
-0.993597, 229, 257, 260, 288
-0.993627, 305, 201, 432, 264
-0.993666, 145, 105, 208, 168
-0.993727, 293, 145, 324, 272
-0.993797, 401, 33, 464, 288
-0.993809, 97, 249, 224, 312
-0.993818, 333, 249, 364, 312
-0.99397, 369, 105, 496, 168
-0.993995, 225, 217, 480, 280
-0.994044, 193, 313, 448, 375
-0.994061, 177, 125, 304, 156
-0.994107, 281, 129, 312, 256
-0.994215, 257, 277, 384, 308
-0.994217, 277, 289, 308, 352
-0.994227, 329, 185, 360, 248
-0.994316, 421, 137, 452, 200
-0.99434, 229, 281, 260, 344
-0.994341, 425, 113, 456, 240
-0.994361, 225, 177, 480, 240
-0.994386, 333, 193, 364, 320
-0.994452, 313, 201, 344, 264
-0.994457, 405, 137, 436, 200
-0.994473, 353, 217, 480, 280
-0.994486, 197, 185, 228, 248
-0.994533, 417, 161, 448, 288
-0.994594, 97, 97, 224, 160
-0.994596, 189, 153, 220, 216
-0.994629, 417, 297, 448, 360
-0.994683, 73, 289, 136, 352
-0.994705, 449, 1, 480, 128
-0.994807, 161, 265, 416, 328
-0.994816, 241, 1, 304, 375
-0.994837, 97, 145, 352, 208
-0.994875, 173, 273, 204, 336
-0.994962, 225, 265, 352, 296
-0.995012, 417, 201, 448, 264
-0.995018, 1, 313, 500, 375
-0.995082, 369, 313, 496, 375
-0.995108, 265, 97, 296, 224
-0.995133, 241, 209, 368, 240
-0.995149, 329, 233, 392, 296
-0.995153, 209, 285, 336, 316
-0.995186, 213, 193, 244, 256
-0.995229, 33, 121, 288, 184
-0.995263, 409, 169, 440, 232
-0.995297, 1, 281, 500, 344
-0.99531, 269, 169, 300, 232
-0.995319, 225, 145, 480, 208
-0.995368, 405, 57, 436, 120
-0.995402, 129, 201, 384, 264
-0.995404, 149, 305, 180, 368
-0.995415, 73, 241, 136, 368
-0.995449, 321, 113, 448, 176
-0.995466, 93, 297, 124, 360
-0.99548, 129, 233, 384, 296
-0.995497, 161, 65, 224, 192
-0.995502, 353, 241, 416, 368
-0.995534, 249, 313, 280, 375
-0.995567, 345, 161, 408, 288
-0.995567, 97, 225, 160, 352
-0.995582, 193, 121, 448, 184
-0.995582, 353, 257, 384, 320
-0.995609, 1, 241, 128, 368
-0.995665, 369, 41, 496, 104
-0.995692, 253, 281, 284, 344
-0.995707, 193, 185, 320, 216
-0.995737, 377, 1, 440, 375
-0.995752, 409, 241, 440, 368
-0.995774, 201, 121, 216, 184
-0.995808, 209, 297, 336, 328
-0.995837, 177, 217, 208, 280
-0.995849, 307, 257, 322, 320
-0.995907, 289, 153, 416, 216
-0.995917, 293, 217, 308, 280
-0.995924, 313, 113, 376, 240
-0.995947, 121, 201, 184, 264
-0.995959, 445, 249, 476, 312
-0.995974, 405, 49, 436, 176
-0.995993, 65, 225, 192, 288
-0.99604, 137, 177, 200, 240
-0.996049, 275, 241, 290, 304
-0.996056, 97, 169, 224, 232
-0.996063, 113, 281, 144, 344
-0.996074, 193, 201, 320, 232
-0.996098, 129, 169, 384, 232
-0.99611, 265, 113, 296, 176
-0.996114, 177, 337, 304, 368
-0.996147, 241, 197, 368, 228
-0.996164, 33, 249, 160, 312
-0.996167, 65, 273, 320, 336
-0.996168, 321, 65, 448, 128
-0.996172, 297, 265, 312, 328
-0.99621, 225, 153, 240, 216
-0.996212, 161, 49, 288, 176
-0.99622, 263, 209, 278, 272
-0.996237, 255, 193, 270, 256
-0.996252, 229, 121, 244, 184
-0.996257, 289, 289, 416, 320
-0.996275, 169, 97, 232, 160
-0.996285, 347, 273, 362, 336
-0.996296, 305, 193, 320, 256
-0.996299, 145, 297, 272, 328
-0.996308, 287, 257, 302, 320
-0.996326, 97, 309, 224, 340
-0.99634, 41, 313, 104, 375
-0.996398, 433, 161, 496, 224
-0.996428, 213, 313, 228, 375
-0.996428, 339, 265, 354, 328
-0.99643, 385, 113, 416, 240
-0.996451, 227, 297, 242, 360
-0.996457, 177, 1, 240, 375
-0.996459, 457, 1, 488, 64
-0.996465, 229, 209, 260, 272
-0.996471, 213, 121, 228, 184
-0.996485, 161, 213, 288, 244
-0.996491, 149, 249, 180, 312
-0.996516, 177, 145, 304, 176
-0.996518, 209, 309, 336, 340
-0.996529, 417, 297, 480, 360
-0.996556, 283, 225, 298, 288
-0.996559, 177, 273, 304, 304
-0.996582, 225, 105, 256, 168
-0.996582, 299, 185, 314, 248
-0.996586, 153, 129, 216, 375
-0.996587, 305, 277, 432, 308
-0.996594, 129, 129, 192, 375
-0.996641, 233, 305, 248, 368
-0.996647, 347, 297, 362, 360
-0.996682, 219, 161, 234, 224
-0.996685, 217, 65, 248, 192
-0.996685, 241, 221, 368, 252
-0.996752, 337, 289, 464, 320
-0.996756, 113, 225, 144, 352
-0.996768, 207, 313, 222, 375
-0.996804, 205, 153, 220, 216
-0.996805, 221, 113, 236, 176
-0.996813, 265, 1, 328, 375
-0.996817, 303, 225, 318, 288
-0.996819, 269, 249, 284, 312
-0.99682, 405, 193, 436, 320
-0.99683, 269, 209, 284, 272
-0.996871, 117, 305, 148, 368
-0.99688, 181, 241, 212, 368
-0.996882, 233, 65, 264, 192
-0.996884, 339, 313, 354, 375
-0.996887, 305, 193, 432, 224
-0.996891, 145, 313, 272, 344
-0.9969, 1, 257, 500, 320
-0.996904, 193, 173, 320, 204
-0.996919, 405, 97, 436, 160
-0.996939, 267, 113, 282, 176
-0.996946, 315, 249, 330, 312
-0.99695, 361, 193, 424, 256
-0.996958, 445, 201, 476, 264
-0.996966, 337, 265, 464, 296
-0.996966, 381, 169, 412, 232
-0.997007, 445, 193, 460, 256
-0.99702, 241, 185, 368, 216
-0.997029, 231, 169, 246, 232
-0.997051, 257, 265, 500, 328
-0.997059, 179, 209, 194, 272
-0.99706, 205, 225, 236, 288
-0.997069, 219, 313, 234, 375
-0.997077, 257, 301, 384, 332
-0.997079, 221, 289, 236, 352
-0.997082, 161, 225, 288, 256
-0.997089, 257, 97, 384, 160
-0.997098, 253, 217, 268, 280
-0.997098, 433, 249, 448, 312
-0.997115, 279, 201, 294, 264
-0.997128, 1, 305, 128, 368
-0.997128, 311, 201, 326, 264
-0.997128, 257, 113, 272, 176
-0.997137, 353, 173, 480, 204
-0.997155, 177, 157, 304, 188
-0.997156, 207, 121, 222, 184
-0.997168, 113, 249, 176, 312
-0.997191, 279, 273, 294, 336
-0.997204, 277, 137, 292, 200
-0.997204, 433, 161, 464, 224
-0.997208, 177, 261, 304, 292
-0.997214, 173, 281, 188, 344
-0.997239, 195, 121, 210, 184
-0.997251, 261, 185, 276, 248
-0.997262, 249, 185, 264, 248
-0.997266, 197, 97, 228, 160
-0.997274, 239, 129, 254, 192
-0.997295, 247, 121, 262, 184
-0.997303, 241, 281, 256, 344
-0.997304, 377, 49, 440, 112
-0.997321, 169, 233, 184, 296
-0.997321, 225, 253, 352, 284
-0.997339, 353, 105, 416, 168
-0.997344, 353, 193, 480, 224
-0.997374, 287, 177, 302, 240
-0.997383, 417, 49, 448, 112
-0.997384, 243, 249, 258, 312
-0.997393, 249, 249, 264, 312
-0.997398, 311, 281, 326, 344
-0.997402, 441, 217, 456, 280
-0.997414, 265, 273, 280, 336
-0.997423, 323, 209, 338, 272
-0.997426, 97, 321, 224, 352
-0.997429, 113, 49, 240, 176
-0.997438, 267, 153, 282, 216
-0.997442, 167, 273, 182, 336
-0.997456, 137, 145, 200, 272
-0.997469, 225, 241, 352, 272
-0.997471, 225, 345, 352, 375
-0.997473, 353, 281, 368, 344
-0.997474, 177, 237, 304, 268
-0.997476, 215, 289, 230, 352
-0.997477, 321, 301, 448, 332
-0.997482, 289, 317, 416, 348
-0.997488, 297, 1, 360, 375
-0.997489, 293, 177, 308, 240
-0.997491, 333, 201, 348, 264
-0.997494, 213, 169, 228, 232
-0.997496, 277, 137, 308, 200
-0.997512, 385, 17, 448, 144
-0.997515, 145, 249, 272, 280
-0.997533, 243, 177, 258, 240
-0.997536, 389, 105, 420, 168
-0.997569, 353, 169, 384, 232
-0.997576, 259, 265, 274, 328
-0.9976, 289, 313, 320, 375
-0.997615, 397, 169, 428, 232
-0.997632, 105, 313, 136, 375
-0.997639, 443, 249, 458, 312
-0.997644, 263, 233, 278, 296
-0.997648, 301, 289, 316, 352
-0.997651, 273, 265, 400, 296
-0.997655, 129, 169, 256, 200
-0.997664, 241, 333, 368, 364
-0.997664, 185, 201, 200, 264
-0.997674, 277, 177, 292, 240
-0.997677, 145, 193, 272, 224
-0.997679, 299, 281, 314, 312
-0.997684, 247, 153, 262, 216
-0.997687, 253, 153, 268, 216
-0.997687, 81, 313, 112, 375
-0.997715, 315, 177, 330, 240
-0.997715, 177, 325, 304, 356
-0.997722, 369, 233, 432, 296
-0.997723, 321, 89, 448, 152
-0.997725, 271, 185, 286, 248
-0.997756, 441, 17, 472, 80
-0.997772, 361, 313, 424, 375
-0.997772, 217, 273, 248, 336
-0.997782, 197, 145, 212, 208
-0.997787, 335, 289, 350, 352
-0.997789, 305, 205, 432, 236
-0.997791, 113, 285, 240, 316
-0.997807, 285, 289, 300, 352
-0.99781, 225, 97, 480, 160
-0.99781, 289, 281, 304, 312
-0.997818, 207, 289, 222, 352
-0.997824, 399, 73, 414, 136
-0.997825, 129, 125, 256, 156
-0.99783, 341, 169, 372, 232
-0.997837, 153, 177, 184, 304
-0.997843, 241, 321, 368, 352
-0.997844, 307, 313, 322, 375
-0.997856, 213, 145, 228, 208
-0.997862, 169, 305, 184, 368
-0.997863, 333, 265, 348, 328
-0.997891, 441, 169, 456, 232
-0.997891, 247, 209, 262, 272
-0.997899, 293, 241, 308, 304
-0.997912, 237, 161, 252, 224
-0.997926, 219, 137, 234, 200
-0.997929, 329, 305, 344, 368
-0.997941, 241, 165, 368, 196
-0.997943, 323, 273, 338, 336
-0.997943, 309, 265, 324, 296
-0.997958, 271, 273, 286, 336
-0.997971, 249, 277, 264, 308
-0.997972, 287, 201, 302, 264
-0.997976, 317, 201, 332, 264
-0.997991, 261, 213, 276, 244
-0.997998, 153, 201, 184, 264
-0.997999, 277, 277, 292, 308
-0.998, 273, 345, 400, 375
-0.998006, 323, 185, 338, 248
-0.998017, 259, 161, 274, 224
-0.998019, 257, 97, 288, 352
-0.998024, 315, 225, 330, 288
-0.998025, 113, 145, 240, 176
-0.998025, 113, 221, 240, 252
-0.998031, 289, 333, 416, 364
-0.998033, 249, 289, 264, 352
-0.998036, 175, 305, 190, 368
-0.998036, 289, 181, 416, 212
-0.998042, 177, 113, 304, 144
-0.998048, 195, 305, 210, 368
-0.998051, 201, 313, 216, 375
-0.998058, 223, 193, 238, 256
-0.998059, 291, 289, 306, 352
-0.99806, 259, 273, 274, 304
-0.998063, 429, 297, 460, 360
-0.998063, 321, 233, 336, 296
-0.998065, 179, 273, 194, 336
-0.998065, 225, 241, 480, 304
-0.998068, 239, 305, 254, 368
-0.998071, 297, 213, 312, 244
-0.998073, 277, 113, 292, 176
-0.998079, 137, 313, 168, 375
-0.998083, 33, 185, 160, 248
-0.998089, 33, 209, 288, 272
-0.998091, 353, 277, 480, 308
-0.998102, 313, 129, 376, 375
-0.998103, 201, 329, 216, 360
-0.998111, 447, 225, 462, 288
-0.998111, 353, 209, 384, 336
-0.998116, 33, 249, 288, 312
-0.998118, 265, 273, 280, 304
-0.998119, 431, 297, 446, 360
-0.99812, 1, 145, 256, 208
-0.998131, 299, 269, 314, 300
-0.998132, 305, 169, 320, 232
-0.998136, 353, 337, 480, 368
-0.998143, 425, 129, 456, 375
-0.998143, 425, 33, 456, 160
-0.998147, 153, 1, 216, 375
-0.998153, 165, 161, 196, 288
-0.998154, 349, 281, 364, 312
-0.998157, 147, 289, 162, 352
-0.998158, 435, 217, 450, 280
-0.998163, 161, 285, 288, 316
-0.998167, 353, 257, 368, 320
-0.998169, 293, 265, 308, 296
-0.99818, 93, 241, 124, 368
-0.998196, 429, 137, 444, 200
-0.998196, 281, 249, 296, 312
-0.998196, 349, 297, 364, 328
-0.998207, 431, 273, 446, 336
-0.998208, 141, 289, 156, 352
-0.99821, 295, 293, 310, 324
-0.998216, 429, 33, 460, 96
-0.99823, 283, 265, 298, 296
-0.998232, 195, 337, 210, 368
-0.998236, 207, 321, 222, 352
-0.99824, 419, 153, 434, 216
-0.998242, 253, 205, 268, 236
-0.998257, 409, 105, 424, 168
-0.998267, 141, 225, 172, 352
-0.998268, 233, 169, 248, 200
-0.998271, 307, 289, 322, 320
-0.998276, 345, 249, 360, 312
-0.998277, 261, 177, 292, 192
-0.998277, 189, 349, 220, 364
-0.998278, 369, 65, 432, 320
-0.998278, 441, 233, 472, 248
-0.99828, 437, 219, 468, 234
-0.99828, 357, 287, 388, 302
-0.99828, 265, 129, 296, 144
-0.99828, 345, 311, 376, 326
-0.99828, 453, 225, 484, 288
-0.998281, 445, 255, 476, 270
-0.998281, 421, 267, 452, 282
-0.998281, 369, 17, 496, 80
-0.998281, 437, 213, 468, 228
-0.998283, 421, 257, 436, 320
-0.998283, 169, 237, 200, 252
-0.998284, 297, 229, 328, 244
-0.998285, 421, 291, 452, 306
-0.998286, 285, 229, 316, 244
-0.998286, 213, 167, 244, 182
-0.998286, 181, 145, 212, 160
-0.998287, 161, 221, 192, 236
-0.998287, 209, 1, 272, 256
-0.998287, 297, 279, 328, 294
-0.998287, 437, 247, 468, 262
-0.998287, 145, 305, 176, 320
-0.998288, 453, 241, 484, 256
-0.998288, 237, 209, 268, 224
-0.998288, 229, 119, 260, 134
-0.998289, 221, 155, 252, 170
-0.998289, 253, 289, 284, 304
-0.998289, 345, 305, 376, 320
-0.998289, 257, 197, 288, 212
-0.998289, 241, 191, 272, 206
-0.99829, 225, 129, 256, 144
-0.99829, 169, 305, 200, 320
-0.998291, 333, 311, 364, 326
-0.998293, 333, 319, 364, 334
-0.998293, 303, 257, 318, 288
-0.998293, 213, 187, 244, 202
-0.998293, 353, 293, 384, 308
-0.998293, 297, 217, 328, 232
-0.998295, 221, 333, 252, 348
-0.998295, 357, 279, 388, 294
-0.998295, 289, 249, 320, 264
-0.998297, 309, 317, 340, 332
-0.998297, 129, 181, 256, 212
-0.998297, 249, 177, 264, 208
-0.998298, 323, 297, 338, 360
-0.998301, 253, 149, 284, 164
-0.998302, 329, 305, 360, 320
-0.998302, 329, 325, 360, 340
-0.998302, 273, 229, 304, 244
-0.998303, 293, 201, 324, 216
-0.998303, 229, 171, 260, 186
-0.998303, 257, 137, 288, 152
-0.998304, 233, 97, 264, 352
-0.998306, 241, 173, 272, 188
-0.998307, 425, 261, 456, 276
-0.998307, 257, 203, 288, 218
-0.998307, 273, 275, 304, 290
-0.998308, 349, 299, 380, 314
-0.998308, 93, 319, 124, 334
-0.998309, 269, 293, 300, 308
-0.998309, 433, 207, 464, 222
-0.99831, 205, 325, 236, 340
-0.99831, 305, 293, 336, 308
-0.998311, 1, 233, 500, 296
-0.998312, 349, 273, 380, 288
-0.998313, 273, 243, 304, 258
-0.998314, 309, 217, 340, 232
-0.998314, 437, 241, 468, 256
-0.998314, 257, 211, 288, 226
-0.998316, 425, 255, 456, 270
-0.998317, 449, 249, 480, 264
-0.998317, 249, 345, 280, 360
-0.998317, 191, 193, 206, 256
-0.998319, 253, 243, 284, 258
-0.998319, 241, 125, 272, 140
-0.998321, 293, 257, 324, 272
-0.998322, 213, 173, 244, 188
-0.998324, 157, 305, 188, 320
-0.998325, 229, 189, 260, 204
-0.998327, 321, 315, 352, 330
-0.998329, 455, 209, 470, 272
-0.998329, 317, 323, 348, 338
-0.998329, 411, 137, 426, 200
-0.99833, 309, 281, 340, 296
-0.998331, 285, 209, 316, 224
-0.998331, 269, 265, 300, 280
-0.998331, 49, 321, 176, 352
-0.998332, 329, 331, 360, 346
-0.998332, 201, 149, 232, 164
-0.998332, 233, 333, 264, 348
-0.998333, 241, 185, 272, 200
-0.998333, 297, 211, 328, 226
-0.998333, 213, 161, 244, 176
-0.998333, 157, 289, 172, 352
-0.998333, 217, 123, 248, 138
-0.998334, 249, 351, 280, 366
-0.998336, 65, 297, 192, 328
-0.998336, 289, 223, 320, 238
-0.99834, 205, 157, 220, 188
-0.998342, 273, 211, 304, 226
-0.998342, 301, 263, 332, 278
-0.998343, 333, 329, 348, 360
-0.998346, 245, 215, 276, 230
-0.998346, 253, 155, 284, 170
-0.998347, 313, 267, 344, 282
-0.998349, 305, 287, 336, 302
-0.998349, 271, 273, 286, 304
-0.99835, 253, 283, 284, 298
-0.99835, 453, 177, 484, 240
-0.99835, 273, 259, 304, 274
-0.998351, 297, 273, 328, 288
-0.998351, 261, 275, 292, 290
-0.998352, 249, 227, 280, 242
-0.998352, 197, 337, 228, 352
-0.998352, 337, 283, 368, 298
-0.998353, 253, 121, 284, 136
-0.998354, 229, 177, 260, 192
-0.998355, 165, 311, 196, 326
-0.998356, 309, 211, 340, 226
-0.998358, 249, 179, 280, 194
-0.99836, 163, 305, 178, 368
-0.998363, 269, 217, 300, 232
-0.998364, 193, 125, 224, 140
-0.998365, 217, 193, 232, 256
-0.998367, 199, 121, 214, 152
-0.998373, 281, 269, 312, 284
-0.998374, 305, 205, 336, 220
-0.998374, 305, 223, 336, 238
-0.998375, 209, 155, 240, 170
-0.998375, 205, 123, 236, 138
-0.998381, 257, 361, 288, 375
-0.998381, 133, 289, 148, 352
-0.998382, 285, 291, 316, 306
-0.998382, 277, 357, 308, 372
-0.998383, 33, 185, 288, 248
-0.998386, 241, 285, 272, 300
-0.998388, 313, 329, 344, 344
-0.99839, 209, 319, 240, 334
-0.998395, 193, 343, 224, 358
-0.998406, 201, 331, 232, 346
-0.998407, 229, 183, 260, 198
-0.998407, 253, 341, 268, 372
-0.998409, 275, 245, 290, 276
-0.998409, 285, 279, 316, 294
-0.99841, 269, 223, 300, 238
-0.998414, 285, 129, 316, 375
-0.998416, 283, 277, 298, 308
-0.998416, 285, 297, 316, 312
-0.998422, 331, 209, 346, 240
-0.998422, 217, 241, 248, 304
-0.998426, 113, 233, 240, 264
-0.998428, 265, 281, 296, 296
-0.998432, 267, 229, 282, 260
-0.998434, 285, 217, 316, 232
-0.998436, 401, 25, 464, 88
-0.998437, 321, 209, 336, 240
-0.998441, 253, 217, 268, 248
-0.998442, 257, 141, 384, 172
-0.998444, 265, 287, 296, 302
-0.99845, 289, 263, 320, 278
-0.998453, 161, 249, 192, 312
-0.998455, 257, 217, 288, 232
-0.99846, 393, 129, 424, 192
-0.99846, 305, 253, 432, 284
-0.998464, 353, 245, 480, 276
-0.998468, 249, 277, 280, 292
-0.998471, 243, 277, 258, 308
-0.998474, 273, 249, 304, 264
-0.998477, 309, 201, 324, 232
-0.998479, 449, 129, 480, 256
-0.998494, 291, 217, 306, 248
-0.998495, 289, 253, 304, 284
-0.998496, 129, 341, 256, 372
-0.998499, 1, 97, 256, 160
-0.998507, 221, 169, 236, 200
-0.998515, 329, 275, 360, 290
-0.998518, 113, 209, 240, 240
-0.99852, 285, 285, 316, 300
-0.998526, 217, 317, 232, 348
-0.998527, 185, 125, 248, 140
-0.998529, 313, 279, 376, 294
-0.998535, 241, 173, 256, 204
-0.998545, 267, 217, 282, 248
-0.998551, 345, 233, 376, 296
-0.998554, 273, 285, 336, 300
-0.998554, 231, 125, 246, 156
-0.998554, 355, 285, 370, 316
-0.998555, 281, 215, 344, 230
-0.998559, 233, 289, 296, 304
-0.998561, 265, 259, 328, 274
-0.998562, 259, 201, 274, 232
-0.998564, 233, 181, 248, 212
-0.998566, 257, 217, 320, 232
-0.998567, 241, 279, 304, 294
-0.998567, 209, 335, 272, 350
-0.998569, 297, 305, 360, 320
-0.998573, 245, 97, 276, 352
-0.998576, 257, 267, 320, 282
-0.998578, 341, 317, 356, 348
-0.998583, 297, 313, 360, 328
-0.998585, 307, 213, 322, 244
-0.998585, 247, 125, 262, 156
-0.998587, 281, 223, 344, 238
-0.99859, 125, 241, 156, 368
-0.998593, 247, 329, 262, 360
-0.998593, 281, 209, 344, 224
-0.998593, 231, 317, 246, 348
-0.998594, 241, 249, 304, 264
-0.998601, 297, 319, 360, 334
-0.998603, 281, 271, 344, 286
-0.998605, 249, 207, 312, 222
-0.998607, 249, 361, 312, 375
-0.998607, 305, 285, 368, 300
-0.998608, 97, 113, 224, 144
-0.998611, 129, 305, 192, 320
-0.998612, 223, 317, 238, 348
-0.998613, 181, 213, 196, 244
-0.998614, 273, 277, 336, 292
-0.998614, 265, 249, 328, 264
-0.998615, 247, 213, 262, 244
-0.998616, 265, 173, 280, 204
-0.998617, 249, 223, 312, 238
-0.998618, 201, 319, 264, 334
-0.998619, 273, 361, 336, 375
-0.998621, 225, 121, 288, 136
-0.998623, 289, 217, 416, 248
-0.998623, 297, 299, 360, 314
-0.998624, 289, 201, 352, 216
-0.998625, 129, 49, 384, 176
-0.998626, 271, 261, 286, 292
-0.998627, 297, 325, 360, 340
-0.998628, 221, 121, 236, 152
-0.99863, 297, 293, 360, 308
-0.998633, 255, 285, 270, 316
-0.998637, 381, 65, 412, 192
-0.998637, 209, 153, 272, 168
-0.998638, 345, 287, 408, 302
-0.99864, 331, 317, 346, 348
-0.998641, 241, 355, 304, 370
-0.998642, 273, 291, 336, 306
-0.998644, 225, 219, 288, 234
-0.998644, 227, 165, 242, 196
-0.998644, 129, 157, 256, 188
-0.998644, 173, 193, 204, 256
-0.998645, 281, 265, 344, 280
-0.998646, 225, 177, 288, 192
-0.998647, 175, 305, 190, 336
-0.998647, 249, 201, 312, 216
-0.998648, 217, 185, 280, 200
-0.998649, 425, 245, 488, 260
-0.99865, 229, 301, 244, 332
-0.99865, 217, 245, 280, 260
-0.998651, 225, 257, 288, 272
-0.998651, 369, 169, 400, 232
-0.998651, 257, 297, 320, 312
-0.998651, 209, 225, 272, 240
-0.998652, 169, 225, 232, 240
-0.998652, 185, 131, 248, 146
-0.998655, 1, 129, 500, 192
-0.998656, 241, 273, 304, 288
-0.998658, 241, 243, 304, 258
-0.998659, 129, 273, 256, 304
-0.998659, 193, 297, 256, 312
-0.99866, 241, 229, 304, 244
-0.998661, 185, 341, 248, 356
-0.998662, 259, 177, 274, 208
-0.998666, 209, 341, 272, 356
-0.998667, 169, 231, 232, 246
-0.998668, 225, 159, 288, 174
-0.998668, 303, 201, 318, 232
-0.99867, 241, 349, 304, 364
-0.99867, 201, 159, 264, 174
-0.998671, 217, 191, 280, 206
-0.998671, 265, 355, 328, 370
-0.998671, 217, 171, 280, 186
-0.998673, 437, 337, 452, 368
-0.998675, 241, 127, 304, 142
-0.998675, 409, 217, 472, 232
-0.998675, 169, 215, 232, 230
-0.998676, 345, 293, 408, 308
-0.998676, 209, 213, 272, 228
-0.998676, 177, 149, 240, 164
-0.998677, 401, 191, 464, 206
-0.998678, 161, 311, 224, 326
-0.998679, 193, 141, 208, 172
-0.99868, 291, 229, 306, 260
-0.998681, 201, 179, 264, 194
-0.998682, 345, 281, 408, 296
-0.998683, 289, 259, 352, 274
-0.998684, 177, 155, 240, 170
-0.998684, 193, 303, 256, 318
-0.998684, 185, 139, 248, 154
-0.998685, 217, 251, 280, 266
-0.998685, 321, 331, 384, 346
-0.998686, 409, 197, 472, 212
-0.998686, 185, 335, 248, 350
-0.998688, 281, 229, 344, 244
-0.998688, 369, 105, 496, 136
-0.998688, 273, 233, 400, 264
-0.998688, 193, 327, 256, 342
-0.998689, 341, 265, 356, 296
-0.998689, 241, 185, 304, 200
-0.998689, 337, 303, 400, 318
-0.998689, 283, 245, 298, 276
-0.99869, 409, 203, 472, 218
-0.99869, 225, 361, 288, 375
-0.99869, 269, 97, 300, 352
-0.998691, 345, 275, 408, 290
-0.998691, 287, 297, 302, 328
-0.998692, 209, 233, 272, 248
-0.998692, 409, 209, 472, 224
-0.998692, 277, 125, 292, 156
-0.998693, 409, 73, 472, 136
-0.998693, 265, 33, 328, 288
-0.998693, 297, 331, 360, 346
-0.998694, 209, 199, 272, 214
-0.998695, 265, 243, 328, 258
-0.998695, 265, 195, 328, 210
-0.998697, 321, 273, 384, 288
-0.998697, 305, 267, 368, 282
-0.998698, 161, 337, 224, 352
-0.998698, 193, 191, 256, 206
-0.998699, 225, 147, 288, 162
-0.998699, 193, 171, 256, 186
-0.998699, 281, 185, 344, 200
-0.9987, 289, 195, 352, 210
-0.9987, 393, 285, 456, 300
-0.998701, 209, 207, 272, 222
-0.998702, 193, 185, 256, 200
-0.998702, 225, 165, 288, 180
-0.998702, 201, 119, 264, 134
-0.998703, 321, 215, 384, 230
-0.998703, 417, 263, 480, 278
-0.998703, 425, 251, 488, 266
-0.998704, 209, 287, 272, 302
-0.998705, 337, 309, 400, 324
-0.998706, 217, 239, 280, 254
-0.998706, 385, 333, 448, 348
-0.998706, 33, 357, 96, 372
-0.998708, 215, 149, 230, 180
-0.998708, 225, 149, 240, 180
-0.998708, 439, 241, 454, 272
-0.998709, 185, 249, 248, 264
-0.998709, 241, 235, 304, 250
-0.99871, 105, 323, 168, 338
-0.99871, 321, 297, 384, 312
-0.998711, 217, 279, 280, 294
-0.998711, 129, 299, 192, 314
-0.998711, 321, 209, 384, 224
-0.998711, 393, 297, 456, 312
-0.998712, 361, 335, 424, 350
-0.998712, 417, 257, 480, 272
-0.998712, 177, 209, 240, 224
-0.998713, 217, 127, 280, 142
-0.998713, 233, 135, 296, 150
-0.998713, 249, 153, 312, 168
-0.998713, 393, 269, 456, 284
-0.998714, 241, 343, 304, 358
-0.998714, 385, 339, 448, 354
-0.998718, 401, 171, 464, 186
-0.998731, 277, 265, 292, 296
-0.998732, 259, 225, 274, 256
-0.998734, 323, 225, 338, 256
-0.998737, 301, 297, 316, 328
-0.998738, 297, 201, 312, 232
-0.998739, 213, 97, 244, 352
-0.998739, 261, 285, 276, 316
-0.99874, 247, 265, 262, 296
-0.998742, 305, 277, 320, 308
-0.998747, 279, 137, 294, 168
-0.998749, 347, 309, 362, 340
-0.99875, 1, 281, 128, 344
-0.998751, 353, 205, 480, 236
-0.998759, 333, 273, 348, 304
-0.99876, 351, 269, 366, 300
-0.998763, 279, 225, 294, 256
-0.998764, 313, 253, 328, 284
-0.998764, 269, 285, 284, 316
-0.998767, 437, 17, 468, 144
-0.998768, 335, 305, 350, 336
-0.99878, 227, 181, 242, 212
-0.998789, 257, 129, 384, 160
-0.998798, 257, 121, 272, 152
-0.998805, 285, 225, 300, 256
-0.998811, 279, 289, 294, 320
-0.998813, 243, 185, 258, 216
-0.998817, 251, 193, 266, 224
-0.998817, 197, 97, 228, 352
-0.99882, 49, 333, 176, 364
-0.998821, 65, 121, 192, 184
-0.998824, 353, 161, 480, 192
-0.998825, 325, 277, 340, 308
-0.998828, 445, 225, 460, 256
-0.998828, 301, 181, 316, 212
-0.998832, 425, 97, 488, 160
-0.998835, 303, 225, 318, 256
-0.998835, 257, 97, 320, 160
-0.99884, 353, 325, 480, 356
-0.998843, 169, 309, 184, 340
-0.998846, 169, 241, 184, 272
-0.998854, 253, 165, 268, 196
-0.998857, 193, 193, 224, 320
-0.998857, 273, 225, 288, 256
-0.998862, 65, 145, 192, 208
-0.998867, 241, 153, 368, 184
-0.998869, 271, 121, 286, 152
-0.998874, 343, 277, 358, 308
-0.998875, 315, 209, 330, 240
-0.998879, 305, 313, 320, 344
-0.998881, 217, 337, 232, 368
-0.998883, 33, 129, 160, 256
-0.998886, 207, 121, 222, 152
-0.998889, 199, 145, 214, 176
-0.99889, 201, 341, 216, 372
-0.998891, 233, 157, 248, 188
-0.998892, 295, 241, 310, 272
-0.998892, 189, 341, 204, 372
-0.998897, 287, 205, 302, 236
-0.998897, 399, 73, 414, 104
-0.998902, 295, 253, 310, 284
-0.998904, 337, 201, 352, 232
-0.998906, 253, 229, 268, 260
-0.998907, 215, 229, 230, 260
-0.998908, 269, 133, 284, 164
-0.998914, 453, 241, 468, 272
-0.998915, 375, 333, 390, 364
-0.998918, 75, 333, 90, 364
-0.998919, 317, 265, 332, 296
-0.998919, 97, 261, 224, 292
-0.99892, 265, 257, 280, 288
-0.99892, 273, 213, 288, 244
-0.99892, 253, 329, 268, 360
-0.998921, 279, 205, 294, 236
-0.998951, 305, 129, 336, 375
-0.999008, 97, 245, 224, 276
-0.99903, 97, 197, 224, 228
-0.999039, 337, 313, 464, 344
-0.999048, 177, 129, 208, 375
-0.999052, 49, 345, 176, 375
-0.999053, 369, 93, 496, 124
-0.99907, 213, 113, 228, 240
-0.999072, 305, 33, 432, 96
-0.999084, 297, 193, 312, 320
-0.999093, 281, 193, 296, 320
-0.999097, 255, 209, 270, 336
-0.999102, 321, 161, 352, 224
-0.999112, 303, 209, 318, 336
-0.999125, 49, 309, 176, 340
-0.999158, 207, 113, 222, 240
-0.999161, 257, 117, 384, 148
-0.999175, 1, 209, 500, 272
-0.999176, 273, 209, 288, 336
-0.999185, 249, 209, 264, 336
-0.999189, 397, 65, 428, 320
-0.99919, 221, 113, 236, 240
-0.999192, 441, 273, 472, 336
-0.999195, 343, 241, 358, 368
-0.999213, 369, 61, 496, 92
-0.999213, 337, 129, 464, 160
-0.999224, 227, 113, 242, 240
-0.999234, 65, 233, 192, 264
-0.999241, 291, 209, 306, 336
-0.999241, 201, 113, 216, 240
-0.999245, 243, 241, 258, 368
-0.999247, 405, 289, 436, 352
-0.999252, 443, 161, 458, 288
-0.999254, 429, 1, 460, 256
-0.999266, 65, 209, 192, 240
-0.999266, 265, 209, 280, 336
-0.99927, 335, 241, 350, 368
-0.99927, 309, 177, 324, 304
-0.999288, 369, 77, 496, 108
-0.999298, 353, 149, 480, 180
-0.999308, 303, 161, 318, 288
-0.999313, 317, 129, 348, 375
-0.999319, 249, 113, 264, 240
-0.999325, 259, 161, 274, 288
-0.999328, 235, 113, 250, 240
-0.99933, 177, 209, 192, 336
-0.999338, 271, 145, 286, 272
-0.999344, 255, 113, 270, 240
-0.999344, 433, 193, 448, 320
-0.999352, 369, 117, 496, 148
-0.999353, 409, 65, 440, 320
-0.999358, 81, 273, 208, 304
-0.999371, 169, 225, 184, 352
-0.999372, 445, 145, 476, 208
-0.999374, 265, 97, 280, 224
-0.999382, 309, 225, 324, 352
-0.999387, 277, 145, 292, 272
-0.999402, 349, 241, 364, 368
-0.999402, 287, 161, 302, 288
-0.999408, 183, 193, 198, 320
-0.99941, 441, 1, 472, 256
-0.999412, 329, 241, 344, 368
-0.999416, 1, 345, 128, 375
-0.999423, 1, 169, 500, 232
-0.999423, 433, 241, 448, 368
-0.999427, 437, 113, 468, 240
-0.999434, 177, 33, 240, 288
-0.99945, 297, 145, 312, 272
-0.999453, 221, 225, 236, 352
-0.999464, 243, 113, 258, 240
-0.999464, 33, 285, 160, 316
-0.999465, 223, 161, 238, 288
-0.999467, 315, 225, 330, 352
-0.999478, 9, 313, 72, 375
-0.999479, 437, 129, 468, 375
-0.99948, 145, 225, 176, 288
-0.999481, 97, 97, 352, 160
-0.999483, 217, 161, 232, 288
-0.999487, 233, 225, 248, 352
-0.999493, 169, 311, 184, 326
-0.999493, 207, 327, 222, 342
-0.999493, 305, 195, 320, 210
-0.999493, 353, 217, 480, 248
-0.999493, 255, 337, 270, 352
-0.999494, 181, 217, 196, 232
-0.999494, 221, 317, 236, 332
-0.999494, 183, 211, 198, 226
-0.999495, 385, 337, 400, 352
-0.999495, 345, 279, 360, 294
-0.999495, 217, 339, 232, 354
-0.999495, 335, 317, 350, 332
-0.999495, 255, 187, 270, 202
-0.999495, 453, 245, 468, 260
-0.999496, 297, 181, 312, 196
-0.999496, 187, 345, 202, 360
-0.999496, 305, 117, 432, 148
-0.999496, 195, 129, 210, 256
-0.999497, 205, 333, 220, 348
-0.999498, 293, 281, 308, 296
-0.999498, 207, 343, 222, 358
-0.999499, 347, 311, 362, 326
-0.9995, 279, 143, 294, 158
-0.9995, 201, 151, 216, 166
-0.9995, 305, 49, 432, 176
-0.999501, 437, 347, 452, 362
-0.999502, 273, 361, 288, 375
-0.999502, 307, 281, 322, 296
-0.999503, 231, 185, 246, 200
-0.999503, 283, 293, 298, 308
-0.999503, 243, 175, 258, 190
-0.999504, 337, 205, 352, 220
-0.999504, 279, 241, 294, 256
-0.999504, 211, 155, 226, 170
-0.999505, 277, 129, 292, 144
-0.999505, 277, 291, 292, 306
-0.999507, 327, 329, 342, 344
-0.999508, 307, 217, 322, 232
-0.999509, 327, 205, 342, 220
-0.999509, 401, 73, 416, 88
-0.99951, 307, 209, 322, 224
-0.99951, 339, 331, 354, 346
-0.99951, 251, 287, 266, 302
-0.999511, 65, 221, 192, 252
-0.999511, 1, 317, 128, 348
-0.999511, 343, 321, 358, 336
-0.999511, 279, 225, 294, 240
-0.999512, 357, 291, 372, 306
-0.999513, 441, 241, 456, 368
-0.999515, 217, 169, 232, 184
-0.999515, 167, 305, 182, 320
-0.999515, 349, 303, 364, 318
-0.999515, 253, 153, 268, 168
-0.999515, 253, 225, 268, 240
-0.999515, 313, 261, 328, 276
-0.999515, 333, 211, 348, 226
-0.999516, 293, 261, 308, 276
-0.999516, 349, 269, 364, 284
-0.999516, 185, 281, 216, 344
-0.999517, 261, 229, 276, 244
-0.999517, 351, 275, 366, 290
-0.999517, 227, 171, 242, 186
-0.999517, 331, 335, 346, 350
-0.999517, 265, 289, 280, 304
-0.999517, 227, 333, 242, 348
-0.999518, 235, 127, 250, 142
-0.999518, 227, 155, 242, 170
-0.999518, 237, 173, 252, 188
-0.999518, 247, 215, 262, 230
-0.999518, 287, 299, 302, 314
-0.999519, 241, 129, 256, 144
-0.99952, 301, 297, 316, 312
-0.99952, 257, 121, 272, 136
-0.99952, 299, 291, 314, 306
-0.99952, 253, 343, 268, 358
-0.999522, 295, 229, 310, 244
-0.999522, 201, 345, 216, 360
-0.999522, 299, 207, 314, 222
-0.999523, 235, 179, 250, 194
-0.999524, 249, 333, 264, 348
-0.999524, 33, 97, 160, 160
-0.999526, 281, 357, 296, 372
-0.999526, 81, 133, 208, 164
-0.999527, 247, 185, 262, 200
-0.999527, 335, 323, 350, 338
-0.999528, 279, 219, 294, 234
-0.999528, 285, 249, 300, 264
-0.999528, 261, 219, 276, 234
-0.999529, 321, 193, 336, 320
-0.999532, 249, 125, 264, 140
-0.999533, 175, 311, 190, 326
-0.999534, 253, 161, 268, 288
-0.999534, 263, 177, 278, 192
-0.999534, 323, 211, 338, 226
-0.999535, 329, 277, 344, 292
-0.999536, 331, 177, 346, 304
-0.999536, 323, 241, 338, 368
-0.999536, 307, 201, 322, 216
-0.999537, 333, 329, 348, 344
-0.999538, 281, 271, 296, 286
-0.999538, 251, 209, 266, 224
-0.999539, 209, 321, 224, 336
-0.999539, 409, 97, 424, 224
-0.999539, 289, 219, 304, 234
-0.99954, 259, 207, 274, 222
-0.99954, 353, 297, 368, 312
-0.999541, 211, 161, 226, 288
-0.999542, 309, 267, 324, 282
-0.999542, 229, 125, 244, 140
-0.999542, 315, 177, 330, 304
-0.999543, 459, 1, 474, 128
-0.999543, 335, 273, 350, 288
-0.999545, 205, 159, 220, 174
-0.999546, 215, 317, 230, 332
-0.999547, 199, 337, 214, 352
-0.999547, 245, 285, 260, 300
-0.999548, 303, 273, 318, 288
-0.999548, 399, 65, 414, 192
-0.999549, 197, 125, 212, 140
-0.99955, 285, 241, 300, 368
-0.999552, 275, 249, 290, 264
-0.999554, 259, 283, 274, 298
-0.999555, 451, 193, 466, 320
-0.999555, 267, 219, 282, 234
-0.999555, 281, 283, 296, 298
-0.999556, 1, 333, 128, 364
-0.999557, 255, 277, 270, 292
-0.999557, 305, 291, 320, 306
-0.999558, 173, 305, 188, 320
-0.999559, 249, 179, 264, 194
-0.999559, 221, 123, 236, 138
-0.99956, 227, 241, 242, 368
-0.999561, 291, 269, 306, 284
-0.999564, 163, 225, 178, 352
-0.999568, 275, 285, 290, 300
-0.999569, 307, 261, 322, 276
-0.999569, 341, 273, 356, 288
-0.999569, 305, 169, 432, 200
-0.99957, 129, 1, 192, 375
-0.99957, 419, 113, 434, 240
-0.999571, 429, 129, 444, 256
-0.999572, 295, 219, 310, 234
-0.999573, 265, 161, 280, 288
-0.999576, 193, 343, 208, 358
-0.999577, 271, 273, 286, 288
-0.999578, 297, 275, 312, 290
-0.999591, 287, 287, 302, 302
-0.999591, 231, 161, 246, 288
-0.999593, 295, 297, 310, 312
-0.999594, 351, 283, 366, 298
-0.999598, 263, 275, 278, 290
-0.999598, 287, 279, 302, 294
-0.999598, 435, 145, 450, 272
-0.999599, 279, 241, 294, 368
-0.999599, 247, 161, 262, 288
-0.999599, 265, 281, 280, 296
-0.9996, 249, 277, 264, 292
-0.999601, 297, 241, 312, 368
-0.999602, 427, 241, 442, 368
-0.999602, 299, 285, 314, 300
-0.999605, 299, 267, 314, 282
-0.999606, 281, 277, 296, 292
-0.999607, 273, 279, 288, 294
-0.99961, 401, 113, 416, 240
-0.999613, 257, 213, 272, 228
-0.99962, 215, 241, 230, 368
-0.999621, 189, 177, 204, 304
-0.999623, 239, 161, 254, 288
-0.999624, 265, 65, 328, 192
-0.999626, 301, 213, 316, 228
-0.999638, 81, 185, 208, 216
-0.99964, 271, 97, 286, 224
-0.999643, 417, 105, 448, 168
-0.999646, 423, 193, 438, 320
-0.999647, 205, 161, 220, 288
-0.999654, 353, 233, 480, 264
-0.999658, 407, 49, 422, 176
-0.999661, 321, 101, 448, 132
-0.999664, 203, 65, 218, 192
-0.99968, 211, 65, 226, 192
-0.999687, 257, 49, 500, 112
-0.999692, 217, 65, 232, 192
-0.999695, 337, 193, 352, 320
-0.999695, 421, 241, 436, 368
-0.99971, 413, 145, 428, 272
-0.999714, 105, 241, 120, 368
-0.999714, 453, 1, 468, 128
-0.999715, 277, 97, 292, 224
-0.999718, 33, 273, 160, 304
-0.999721, 309, 129, 324, 256
-0.999722, 351, 193, 366, 320
-0.999731, 343, 193, 358, 320
-0.999731, 225, 65, 240, 192
-0.999731, 189, 129, 204, 256
-0.999741, 395, 113, 410, 240
-0.999741, 73, 217, 136, 280
-0.999748, 205, 241, 220, 368
-0.999756, 427, 49, 442, 176
-0.999757, 445, 17, 460, 144
-0.999763, 441, 113, 456, 240
-0.999764, 157, 241, 172, 368
-0.999767, 179, 145, 194, 272
-0.999769, 151, 241, 166, 368
-0.99977, 283, 113, 298, 240
-0.999771, 171, 177, 186, 304
-0.999773, 321, 145, 336, 272
-0.999774, 393, 65, 408, 192
-0.999776, 355, 241, 370, 368
-0.999783, 415, 65, 430, 192
-0.999783, 455, 145, 470, 272
-0.999787, 447, 241, 462, 368
-0.999791, 233, 65, 248, 192
-0.999792, 257, 65, 272, 192
-0.999792, 247, 65, 262, 192
-0.999799, 465, 1, 480, 128
-0.999823, 49, 253, 176, 284
-0.999824, 415, 241, 430, 368
-0.999825, 447, 113, 462, 240
-0.999826, 321, 73, 448, 104
-0.999828, 417, 193, 432, 320
-0.99983, 49, 197, 176, 228
-0.99983, 439, 33, 454, 160
-0.999831, 183, 241, 198, 368
-0.999833, 321, 61, 448, 92
-0.999836, 421, 65, 436, 192
-0.999836, 145, 225, 160, 352
-0.999837, 333, 129, 364, 375
-0.999839, 113, 241, 128, 368
-0.999847, 197, 65, 212, 192
-0.999848, 189, 225, 204, 352
-0.999852, 241, 65, 256, 192
-0.999852, 435, 81, 450, 208
-0.999858, 303, 113, 318, 240
-0.99986, 195, 177, 210, 304
-0.999862, 369, 1, 496, 32
-0.999872, 353, 25, 480, 56
-0.999874, 407, 145, 422, 272
-0.999882, 127, 225, 142, 352
-0.999882, 401, 161, 416, 288
-0.999885, 395, 161, 410, 288
-0.999887, 357, 193, 372, 320
-0.99989, 289, 113, 304, 240
-0.999896, 315, 129, 330, 256
-0.999897, 383, 145, 398, 272
-0.999928, 353, 41, 480, 72
-0.999933, 153, 129, 184, 375
-0.999942, 369, 301, 496, 332
-0.999944, 17, 217, 144, 280
-0.999944, 181, 65, 212, 192
-0.99996, 65, 41, 192, 104
-0.999976, 257, 1, 500, 64
-1.00002, 165, 129, 196, 375
-1.00002, 81, 173, 208, 204
-1.00003, 65, 33, 192, 160
-1.00003, 1, 305, 128, 336
-1.00005, 349, 161, 380, 288
-1.00006, 321, 89, 448, 120
-1.00009, 81, 157, 208, 188
-1.00011, 201, 49, 232, 176
-1.00013, 385, 33, 416, 288
-1.00018, 33, 73, 160, 136
-1.00019, 33, 185, 160, 216
-1.00019, 369, 13, 496, 44
-1.0002, 329, 1, 392, 375
-1.0002, 249, 1, 280, 256
-1.0002, 141, 129, 172, 375
-1.00021, 65, 145, 192, 176
-1.00021, 93, 129, 124, 375
-1.00021, 257, 105, 384, 136
-1.00022, 17, 229, 144, 260
-1.00026, 449, 97, 480, 352
-1.00026, 321, 9, 448, 72
-1.00026, 17, 1, 144, 64
-1.00026, 97, 101, 224, 132
-1.00027, 33, 157, 160, 188
-1.00027, 213, 1, 244, 256
-1.00029, 33, 173, 160, 204
-1.0003, 33, 121, 160, 152
-1.00031, 177, 101, 304, 132
-1.00033, 129, 129, 160, 375
-1.00034, 109, 129, 140, 375
-1.00037, 257, 25, 500, 88
-1.00037, 237, 1, 268, 256
-1.00038, 65, 1, 192, 64
-1.00044, 197, 1, 228, 256
-1.00046, 461, 1, 492, 128
-1.00049, 105, 1, 168, 375
-1.0005, 345, 49, 408, 112
-1.0005, 33, 1, 288, 64
-1.00054, 389, 161, 420, 288
-1.00054, 1, 73, 500, 136
-1.00056, 453, 1, 484, 256
-1.00058, 257, 73, 500, 136
-1.00058, 453, 177, 484, 304
-1.00061, 225, 1, 256, 256
-1.00061, 17, 145, 144, 208
-1.00063, 49, 241, 112, 368
-1.00064, 465, 33, 496, 288
-1.00064, 177, 33, 208, 288
-1.00064, 269, 1, 300, 256
-1.00065, 285, 33, 316, 288
-1.00066, 73, 249, 136, 312
-1.00066, 145, 33, 208, 288
-1.00068, 353, 129, 384, 375
-1.00075, 73, 1, 136, 375
-1.00076, 97, 73, 352, 136
-1.00076, 17, 121, 144, 184
-1.00077, 393, 1, 456, 64
-1.00078, 109, 1, 140, 256
-1.00079, 89, 33, 120, 288
-1.00092, 373, 145, 404, 272
-1.00093, 337, 145, 400, 208
-1.00093, 445, 241, 476, 368
-1.00093, 297, 33, 328, 288
-1.00095, 33, 25, 288, 88
-1.00097, 345, 33, 408, 160
-1.00099, 165, 33, 196, 288
-1.00102, 145, 73, 272, 136
-1.00103, 337, 145, 368, 272
-1.00103, 69, 129, 100, 375
-1.00104, 33, 49, 288, 112
-1.00108, 33, 1, 288, 128
-1.00108, 17, 49, 144, 112
-1.00111, 385, 129, 416, 375
-1.00112, 353, 1, 416, 375
-1.00112, 73, 185, 136, 248
-1.00116, 17, 25, 144, 88
-1.00117, 1, 73, 256, 136
-1.00118, 125, 33, 156, 288
-1.00119, 105, 129, 168, 375
-1.0012, 437, 65, 468, 192
-1.00122, 465, 129, 496, 375
-1.00122, 45, 129, 76, 375
-1.00122, 313, 33, 344, 288
-1.00126, 129, 49, 384, 112
-1.00126, 65, 81, 192, 208
-1.00131, 129, 9, 384, 72
-1.00134, 373, 1, 404, 256
-1.00135, 45, 33, 76, 288
-1.00137, 61, 1, 92, 256
-1.00139, 149, 33, 180, 288
-1.00139, 17, 65, 48, 320
-1.00142, 77, 33, 108, 288
-1.00144, 365, 129, 396, 375
-1.00148, 345, 129, 408, 375
-1.00148, 329, 209, 392, 272
-1.00149, 133, 177, 164, 304
-1.0015, 461, 65, 492, 192
-1.00152, 1, 129, 32, 375
-1.00153, 81, 129, 112, 375
-1.00158, 337, 1, 368, 256
-1.00158, 33, 129, 64, 375
-1.00159, 113, 177, 144, 304
-1.00162, 33, 1, 64, 256
-1.00163, 1, 33, 32, 288
-1.00165, 361, 33, 392, 288
-1.00166, 97, 73, 224, 136
-1.00167, 1, 97, 500, 160
-1.00167, 49, 289, 112, 352
-1.00168, 1, 17, 500, 80
-1.00169, 137, 1, 168, 256
-1.00169, 377, 25, 440, 88
-1.0017, 257, 1, 500, 128
-1.00171, 361, 145, 424, 208
-1.00171, 325, 33, 356, 288
-1.00173, 57, 97, 88, 352
-1.00173, 161, 49, 288, 112
-1.0018, 113, 49, 240, 112
-1.00182, 9, 1, 72, 375
-1.00184, 161, 1, 288, 64
-1.00185, 1, 41, 500, 104
-1.00186, 389, 241, 420, 368
-1.00187, 349, 1, 380, 256
-1.00188, 309, 113, 340, 240
-1.00195, 193, 241, 224, 368
-1.00201, 253, 49, 284, 176
-1.00201, 77, 241, 108, 368
-1.00202, 161, 25, 288, 88
-1.00211, 233, 1, 296, 256
-1.0022, 433, 73, 496, 136
-1.00224, 113, 17, 240, 80
-1.00231, 273, 57, 400, 120
-1.00236, 33, 1, 96, 375
-1.00248, 361, 145, 392, 272
-1.00248, 73, 161, 136, 224
-1.00253, 109, 129, 140, 256
-1.00259, 73, 193, 136, 320
-1.00259, 105, 177, 168, 240
-1.0026, 17, 193, 144, 320
-1.00263, 321, 129, 352, 256
-1.00264, 73, 129, 136, 375
-1.00265, 225, 73, 352, 136
-1.00265, 89, 129, 152, 192
-1.00267, 93, 177, 124, 304
-1.00276, 225, 1, 352, 64
-1.00276, 273, 1, 400, 64
-1.00277, 449, 65, 480, 192
-1.00291, 209, 25, 336, 88
-1.00291, 257, 25, 384, 88
-1.00291, 225, 49, 352, 112
-1.00302, 393, 17, 424, 144
-1.00322, 281, 113, 344, 176
-1.00323, 89, 129, 120, 256
-1.00347, 365, 193, 396, 320
-1.00348, 241, 33, 368, 160
-1.00353, 405, 1, 436, 128
-1.0036, 73, 129, 136, 256
-1.00363, 105, 153, 168, 216
-1.00373, 89, 9, 152, 72
-1.00378, 277, 81, 308, 208
-1.00395, 105, 1, 136, 128
-1.00398, 89, 97, 152, 160
-1.004, 97, 201, 160, 264
-1.0041, 377, 241, 408, 368
-1.00412, 165, 113, 196, 240
-1.00412, 109, 81, 140, 208
-1.0042, 469, 225, 500, 352
-1.00425, 133, 129, 164, 256
-1.00427, 321, 1, 448, 128
-1.00435, 297, 97, 328, 224
-1.00435, 65, 241, 96, 368
-1.00436, 89, 49, 120, 176
-1.00441, 377, 193, 408, 320
-1.00442, 73, 33, 136, 96
-1.00446, 349, 113, 380, 240
-1.00453, 17, 49, 144, 176
-1.00454, 65, 1, 128, 64
-1.0046, 105, 33, 168, 96
-1.00466, 169, 73, 232, 136
-1.00468, 49, 137, 112, 200
-1.00471, 337, 73, 400, 136
-1.00472, 65, 113, 128, 176
-1.00476, 377, 17, 408, 144
-1.00479, 89, 57, 152, 120
-1.00482, 257, 73, 320, 136
-1.00483, 209, 73, 272, 136
-1.00494, 89, 1, 120, 128
-1.00502, 17, 1, 144, 128
-1.00511, 465, 161, 496, 288
-1.00513, 25, 289, 88, 352
-1.00514, 113, 129, 176, 192
-1.00515, 337, 113, 400, 240
-1.00521, 457, 225, 488, 352
-1.00523, 469, 113, 500, 240
-1.00525, 153, 129, 184, 256
-1.00527, 265, 49, 296, 176
-1.0053, 129, 1, 384, 128
-1.00536, 49, 241, 80, 368
-1.00541, 89, 1, 152, 256
-1.00567, 129, 49, 160, 176
-1.00587, 137, 97, 200, 224
-1.00606, 365, 241, 396, 368
-1.0061, 65, 97, 96, 224
-1.00613, 65, 193, 96, 320
-1.0062, 89, 33, 152, 160
-1.00623, 129, 1, 160, 128
-1.00626, 121, 97, 152, 224
-1.00626, 45, 177, 76, 304
-1.00629, 57, 33, 120, 288
-1.0063, 105, 113, 168, 240
-1.00635, 21, 241, 52, 368
-1.00639, 45, 113, 76, 240
-1.00644, 65, 145, 96, 272
-1.00653, 361, 97, 392, 224
-1.00659, 57, 65, 120, 192
-1.00676, 77, 81, 108, 208
-1.00682, 81, 177, 112, 304
-1.00684, 17, 113, 48, 240
-1.00692, 313, 33, 376, 288
-1.00696, 121, 33, 184, 288
-1.00713, 289, 33, 352, 288
-1.00719, 1, 225, 32, 352
-1.00722, 21, 193, 52, 320
-1.00723, 61, 49, 92, 176
-1.00726, 33, 129, 96, 375
-1.0073, 45, 65, 76, 192
-1.00731, 117, 33, 148, 160
-1.00733, 65, 1, 96, 128
-1.00739, 345, 1, 408, 256
-1.0075, 65, 17, 128, 144
-1.00754, 9, 65, 72, 320
-1.00844, 17, 97, 80, 224
-1.00844, 49, 113, 112, 240
-1.00848, 177, 1, 304, 128
-1.00852, 33, 33, 96, 288
-1.0086, 81, 81, 144, 208
-1.00883, 25, 177, 88, 304
-1.00896, 129, 33, 192, 160
-1.00994, 49, 161, 112, 288
-1.01009, 25, 225, 88, 352
-1.01015, 113, 1, 240, 128
-1.01016, 9, 49, 72, 176
-1.01059, 1, 161, 64, 288
-1.01086, 169, 17, 232, 144
-1.0109, 1, 241, 64, 368
-1.01128, 257, 17, 320, 144
-1.01167, 289, 81, 352, 208
-1.01202, 25, 1, 88, 128
-1.0125, 33, 49, 96, 176
-1.01286, 209, 17, 272, 144
-1.01315, 1, 1, 64, 128
-1.01452, 289, 33, 352, 160
-1.01478, 321, 33, 384, 160
-1.01556, 233, 17, 296, 144
