2036
-0.383703, 1, 1, 500, 429
-0.413884, 1, 161, 500, 416
-0.434813, 1, 65, 500, 320
-0.470138, 97, 1, 352, 429
-0.570301, 257, 1, 500, 429
-0.621388, 193, 161, 448, 416
-0.621596, 97, 129, 352, 384
-0.63739, 1, 1, 256, 429
-0.680925, 97, 33, 352, 288
-0.694792, 193, 1, 448, 256
-0.730421, 1, 161, 256, 416
-0.754825, 1, 65, 256, 320
-0.858496, 1, 193, 500, 320
-0.858628, 209, 1, 336, 429
-0.858865, 257, 1, 384, 429
-0.862332, 145, 1, 272, 429
-0.868263, 305, 161, 432, 416
-0.876666, 241, 129, 368, 384
-0.877504, 193, 1, 320, 256
-0.879136, 193, 161, 320, 416
-0.885656, 65, 1, 192, 429
-0.886971, 321, 33, 448, 288
-0.887337, 113, 161, 240, 416
-0.888484, 257, 33, 384, 288
-0.891121, 65, 97, 192, 352
-0.897853, 353, 161, 480, 416
-0.899132, 305, 1, 432, 429
-0.902077, 17, 1, 144, 429
-0.902388, 193, 193, 448, 320
-0.903045, 369, 1, 496, 429
-0.903243, 129, 65, 256, 320
-0.90573, 1, 241, 500, 368
-0.90615, 17, 161, 144, 416
-0.907711, 1, 145, 500, 272
-0.907712, 369, 1, 496, 256
-0.910657, 97, 177, 352, 304
-0.911236, 33, 1, 160, 256
-0.916215, 1, 1, 500, 128
-0.92551, 193, 177, 320, 304
-0.925566, 193, 241, 448, 368
-0.929636, 1, 177, 256, 304
-0.931153, 193, 1, 448, 128
-0.932189, 289, 193, 416, 320
-0.933835, 97, 225, 352, 352
-0.934251, 145, 177, 272, 304
-0.937166, 49, 177, 176, 304
-0.937892, 1, 97, 500, 224
-0.938746, 241, 177, 304, 304
-0.939495, 361, 193, 424, 320
-0.940183, 265, 177, 328, 304
-0.940619, 81, 1, 208, 256
-0.94118, 241, 193, 368, 320
-0.941672, 1, 49, 500, 176
-0.942737, 145, 177, 208, 304
-0.944834, 193, 145, 448, 272
-0.944862, 369, 241, 432, 368
-0.945054, 65, 1, 320, 128
-0.945184, 209, 177, 272, 304
-0.946369, 1, 225, 256, 352
-0.947413, 369, 209, 496, 336
-0.947431, 97, 209, 224, 336
-0.948222, 185, 177, 248, 304
-0.948765, 321, 193, 384, 256
-0.949382, 33, 129, 288, 256
-0.949557, 265, 201, 328, 264
-0.950547, 193, 225, 320, 352
-0.950643, 321, 241, 448, 368
-0.950856, 369, 209, 432, 272
-0.951077, 225, 49, 480, 176
-0.951448, 257, 145, 384, 272
-0.951464, 337, 193, 400, 320
-0.951478, 113, 177, 176, 304
-0.951693, 145, 185, 208, 248
-0.952098, 169, 209, 232, 272
-0.953605, 257, 177, 320, 240
-0.954431, 1, 289, 500, 416
-0.9566, 105, 185, 168, 248
-0.956661, 393, 209, 456, 336
-0.957516, 369, 17, 496, 144
-0.957656, 369, 185, 432, 248
-0.957928, 313, 193, 376, 320
-0.957972, 209, 225, 272, 352
-0.958404, 49, 193, 112, 320
-0.959095, 225, 217, 288, 280
-0.959104, 345, 201, 408, 264
-0.959232, 1, 49, 256, 176
-0.959361, 289, 201, 352, 264
-0.959625, 289, 1, 416, 128
-0.959692, 361, 233, 424, 296
-0.959721, 145, 225, 272, 352
-0.959811, 233, 169, 296, 232
-0.95993, 97, 161, 224, 288
-0.960293, 305, 145, 432, 272
-0.960648, 177, 129, 304, 256
-0.961009, 97, 49, 352, 176
-0.961142, 193, 185, 256, 248
-0.961315, 89, 177, 152, 304
-0.961415, 225, 1, 352, 128
-0.961419, 369, 257, 496, 384
-0.962099, 289, 193, 352, 320
-0.962247, 1, 193, 128, 320
-0.962611, 273, 201, 400, 264
-0.963043, 49, 129, 176, 256
-0.963087, 193, 217, 256, 280
-0.96375, 225, 193, 288, 256
-0.964035, 321, 145, 384, 272
-0.964058, 321, 1, 384, 128
-0.964184, 425, 1, 488, 128
-0.964298, 121, 209, 184, 272
-0.964488, 345, 241, 408, 368
-0.964679, 265, 225, 328, 288
-0.964787, 233, 1, 296, 64
-0.965037, 65, 201, 128, 264
-0.965482, 321, 49, 448, 176
-0.965496, 145, 225, 208, 288
-0.965645, 177, 129, 240, 256
-0.96585, 209, 185, 336, 248
-0.966116, 393, 257, 456, 384
-0.96685, 369, 161, 496, 288
-0.96697, 281, 241, 344, 368
-0.966986, 249, 225, 312, 352
-0.967387, 25, 161, 88, 288
-0.967653, 377, 41, 440, 104
-0.967722, 145, 1, 272, 128
-0.968222, 185, 225, 248, 352
-0.968227, 241, 1, 304, 128
-0.968337, 145, 225, 208, 352
-0.968568, 385, 233, 448, 296
-0.968574, 289, 225, 352, 288
-0.968589, 73, 1, 136, 128
-0.9686, 49, 145, 112, 272
-0.968659, 385, 17, 448, 144
-0.968831, 233, 129, 296, 256
-0.969102, 289, 145, 352, 272
-0.969158, 285, 193, 316, 256
-0.969186, 265, 1, 328, 64
-0.969285, 257, 241, 384, 368
-0.969287, 129, 97, 384, 224
-0.96951, 361, 145, 424, 272
-0.969513, 377, 193, 408, 320
-0.969541, 137, 129, 200, 256
-0.969629, 417, 225, 480, 352
-0.969855, 33, 17, 160, 144
-0.970191, 297, 1, 360, 128
-0.970192, 33, 241, 160, 368
-0.970354, 281, 177, 344, 240
-0.97068, 241, 241, 304, 304
-0.970725, 321, 217, 384, 280
-0.970864, 257, 97, 384, 224
-0.970981, 81, 185, 208, 248
-0.971001, 129, 1, 192, 128
-0.971017, 393, 201, 456, 264
-0.971113, 257, 289, 500, 416
-0.971175, 225, 97, 480, 224
-0.971278, 389, 209, 420, 336
-0.97133, 233, 1, 296, 256
-0.971607, 297, 193, 328, 256
-0.971928, 273, 177, 304, 240
-0.971942, 81, 17, 208, 144
-0.972097, 361, 17, 424, 144
-0.972139, 225, 209, 352, 272
-0.972157, 81, 177, 144, 240
-0.972278, 1, 145, 128, 272
-0.97244, 373, 201, 404, 264
-0.972641, 277, 177, 308, 304
-0.972649, 57, 17, 120, 80
-0.97266, 321, 201, 448, 264
-0.97268, 137, 33, 200, 96
-0.97294, 217, 241, 280, 304
-0.973016, 425, 1, 488, 64
-0.973048, 401, 49, 464, 112
-0.973323, 161, 201, 288, 264
-0.973325, 401, 209, 432, 336
-0.973409, 353, 41, 416, 104
-0.973494, 97, 1, 160, 128
-0.973508, 433, 273, 496, 400
-0.973668, 209, 233, 336, 296
-0.973777, 209, 1, 272, 64
-0.973872, 89, 129, 152, 256
-0.973919, 17, 17, 80, 80
-0.973982, 1, 1, 64, 128
-0.974082, 289, 225, 416, 288
-0.97412, 385, 161, 448, 288
-0.974176, 257, 33, 320, 96
-0.974258, 225, 49, 352, 176
-0.974413, 209, 129, 272, 384
-0.974637, 409, 225, 472, 288
-0.974678, 169, 185, 232, 248
-0.974801, 33, 177, 96, 240
-0.974856, 305, 169, 368, 232
-0.974859, 209, 129, 272, 256
-0.974872, 233, 129, 296, 384
-0.97493, 293, 177, 324, 304
-0.975007, 169, 161, 232, 416
-0.975045, 181, 177, 212, 304
-0.975132, 41, 217, 104, 280
-0.975575, 17, 225, 80, 352
-0.975585, 273, 201, 304, 264
-0.975597, 145, 161, 208, 416
-0.975604, 185, 33, 248, 96
-0.975731, 353, 201, 384, 264
-0.975737, 289, 17, 352, 80
-0.975754, 365, 193, 396, 320
-0.975764, 337, 161, 400, 416
-0.975837, 225, 217, 256, 280
-0.975847, 277, 225, 308, 288
-0.975848, 345, 17, 408, 80
-0.975906, 97, 289, 352, 416
-0.975947, 89, 25, 152, 88
-0.975979, 281, 249, 344, 312
-0.976151, 129, 225, 256, 288
-0.976255, 49, 209, 176, 272
-0.976338, 397, 209, 428, 272
-0.976353, 377, 257, 440, 320
-0.976357, 265, 129, 328, 256
-0.976366, 217, 1, 280, 128
-0.976388, 257, 161, 320, 416
-0.976414, 257, 177, 384, 240
-0.976464, 337, 241, 400, 304
-0.976521, 97, 257, 224, 384
-0.976566, 293, 217, 324, 280
-0.976616, 337, 49, 400, 176
-0.976814, 129, 177, 160, 240
-0.976837, 73, 225, 136, 352
-0.977493, 225, 25, 288, 88
-0.977518, 177, 1, 240, 64
-0.977532, 265, 33, 328, 288
-0.977577, 409, 161, 472, 288
-0.977596, 169, 233, 232, 296
-0.977644, 1, 273, 256, 400
-0.977647, 265, 1, 328, 128
-0.977751, 321, 289, 448, 416
-0.977772, 433, 25, 496, 88
-0.977833, 385, 17, 448, 80
-0.977879, 189, 193, 220, 256
-0.97809, 97, 1, 160, 64
-0.978174, 193, 17, 256, 144
-0.978237, 233, 81, 296, 208
-0.978263, 361, 161, 424, 416
-0.978303, 121, 1, 184, 64
-0.978328, 281, 41, 344, 104
-0.978375, 389, 233, 420, 296
-0.978418, 153, 1, 216, 64
-0.978464, 313, 25, 376, 88
-0.978476, 337, 193, 368, 256
-0.97852, 165, 177, 196, 304
-0.978526, 121, 225, 184, 352
-0.978604, 369, 65, 496, 192
-0.97863, 369, 305, 496, 429
-0.978633, 353, 161, 416, 224
-0.978648, 129, 161, 192, 224
-0.978654, 161, 177, 288, 240
-0.978678, 141, 177, 172, 304
-0.978731, 145, 177, 176, 240
-0.97882, 97, 225, 160, 288
-0.978823, 377, 241, 408, 368
-0.978879, 177, 9, 304, 72
-0.978891, 129, 97, 256, 224
-0.978895, 241, 33, 368, 96
-0.978922, 201, 201, 232, 264
-0.978959, 389, 185, 420, 248
-0.978971, 329, 49, 392, 112
-0.978989, 273, 49, 400, 176
-0.97905, 217, 177, 248, 304
-0.97905, 265, 177, 296, 304
-0.979055, 177, 49, 304, 176
-0.97912, 337, 49, 464, 112
-0.979153, 261, 201, 292, 264
-0.979153, 313, 1, 376, 64
-0.979275, 169, 1, 232, 128
-0.979289, 49, 241, 112, 368
-0.979324, 197, 209, 228, 336
-0.97934, 261, 177, 292, 240
-0.979359, 237, 209, 268, 272
-0.979377, 17, 153, 80, 216
-0.979473, 177, 201, 208, 264
-0.979574, 305, 49, 368, 112
-0.979581, 97, 49, 160, 176
-0.979642, 193, 241, 256, 304
-0.979853, 313, 241, 376, 304
-0.979869, 273, 153, 336, 216
-0.980057, 249, 169, 280, 232
-0.980126, 325, 201, 356, 264
-0.980158, 177, 65, 240, 320
-0.980185, 369, 289, 432, 416
-0.980201, 209, 81, 272, 208
-0.980262, 245, 177, 276, 304
-0.980307, 305, 25, 432, 88
-0.980315, 353, 113, 480, 240
-0.980322, 105, 161, 168, 416
-0.98041, 365, 233, 396, 296
-0.980418, 265, 225, 296, 288
-0.980431, 433, 289, 496, 352
-0.980435, 265, 1, 296, 64
-0.980462, 361, 1, 424, 256
-0.980742, 241, 1, 368, 64
-0.980782, 137, 65, 200, 320
-0.980848, 389, 161, 420, 288
-0.980873, 361, 65, 424, 192
-0.9809, 185, 153, 248, 216
-0.980956, 177, 57, 240, 120
-0.980999, 321, 257, 384, 384
-0.981028, 33, 81, 160, 208
-0.98112, 221, 185, 252, 248
-0.981175, 225, 145, 288, 208
-0.981193, 209, 1, 272, 256
-0.98128, 161, 193, 192, 256
-0.981317, 329, 169, 392, 232
-0.981392, 213, 217, 244, 280
-0.981405, 389, 257, 420, 384
-0.981419, 313, 129, 376, 384
-0.981475, 377, 161, 440, 224
-0.981524, 289, 97, 352, 224
-0.981753, 249, 217, 280, 280
-0.98176, 409, 161, 472, 224
-0.981783, 413, 209, 444, 336
-0.981791, 353, 225, 480, 288
-0.981845, 369, 185, 496, 248
-0.981945, 409, 25, 472, 88
-0.981946, 257, 153, 384, 216
-0.981965, 281, 49, 344, 176
-0.981969, 153, 209, 184, 336
-0.982045, 425, 49, 488, 112
-0.982105, 321, 177, 448, 240
-0.982109, 353, 265, 416, 328
-0.982171, 161, 25, 224, 88
-0.982182, 353, 193, 384, 320
-0.982205, 233, 49, 296, 112
-0.982221, 317, 193, 348, 320
-0.982235, 193, 33, 320, 96
-0.982271, 369, 1, 496, 64
-0.982285, 129, 49, 256, 176
-0.982393, 53, 225, 84, 288
-0.982452, 17, 129, 80, 192
-0.982471, 73, 97, 136, 352
-0.982508, 33, 185, 160, 248
-0.982674, 1, 161, 64, 288
-0.982686, 25, 1, 88, 256
-0.9827, 289, 129, 352, 384
-0.982717, 209, 161, 336, 224
-0.982789, 393, 161, 456, 416
-0.982808, 401, 257, 464, 320
-0.982839, 157, 225, 188, 288
-0.98287, 121, 233, 184, 296
-0.982938, 137, 57, 200, 120
-0.983032, 313, 201, 344, 264
-0.983127, 385, 281, 448, 344
-0.983272, 289, 57, 416, 120
-0.983285, 129, 177, 160, 304
-0.983302, 305, 249, 432, 312
-0.983346, 369, 249, 496, 312
-0.983346, 461, 1, 492, 64
-0.983385, 233, 177, 264, 240
-0.983404, 129, 153, 256, 216
-0.983406, 161, 289, 288, 416
-0.983431, 145, 209, 176, 272
-0.983449, 153, 161, 184, 288
-0.983514, 305, 225, 336, 352
-0.983569, 17, 233, 80, 296
-0.983583, 289, 241, 320, 304
-0.983637, 73, 241, 136, 304
-0.983704, 81, 25, 208, 88
-0.983736, 77, 177, 108, 304
-0.983784, 285, 169, 316, 232
-0.983789, 65, 49, 128, 176
-0.983844, 1, 217, 128, 280
-0.983887, 401, 257, 432, 384
-0.983924, 385, 33, 448, 288
-0.983971, 257, 249, 384, 312
-0.983984, 57, 161, 88, 288
-0.983985, 57, 177, 120, 240
-0.984111, 41, 1, 104, 128
-0.984129, 389, 41, 420, 104
-0.984178, 61, 209, 92, 336
-0.984198, 129, 33, 256, 96
-0.984284, 113, 129, 176, 256
-0.984299, 321, 33, 384, 288
-0.984311, 117, 185, 148, 248
-0.984328, 89, 177, 120, 304
-0.984356, 257, 305, 384, 429
-0.984409, 377, 233, 408, 296
-0.984519, 257, 65, 320, 192
-0.984623, 229, 225, 260, 352
-0.984629, 41, 241, 104, 304
-0.984666, 41, 49, 104, 112
-0.984741, 305, 1, 432, 64
-0.984764, 401, 305, 464, 429
-0.984814, 401, 185, 432, 248
-0.984826, 81, 1, 208, 64
-0.98483, 201, 65, 264, 128
-0.984836, 49, 97, 112, 224
-0.984842, 405, 25, 436, 88
-0.984857, 161, 65, 288, 128
-0.984858, 41, 113, 104, 176
-0.984867, 81, 233, 208, 296
-0.984888, 73, 201, 104, 264
-0.984937, 73, 153, 136, 216
-0.985117, 129, 1, 256, 64
-0.985156, 33, 25, 160, 88
-0.985161, 65, 41, 128, 104
-0.985174, 197, 161, 228, 288
-0.985179, 1, 1, 128, 64
-0.985191, 229, 161, 260, 288
-0.985203, 97, 153, 160, 216
-0.985204, 9, 89, 72, 152
-0.985213, 277, 25, 308, 88
-0.98529, 317, 225, 348, 288
-0.985294, 89, 49, 152, 112
-0.985294, 409, 281, 472, 344
-0.9853, 401, 161, 432, 288
-0.985307, 313, 49, 376, 176
-0.985383, 369, 25, 496, 88
-0.985408, 241, 73, 304, 136
-0.985487, 385, 65, 448, 192
-0.985594, 277, 1, 308, 64
-0.985601, 189, 217, 220, 280
-0.98564, 113, 57, 176, 120
-0.985715, 329, 1, 360, 128
-0.985726, 285, 225, 316, 352
-0.985789, 401, 249, 432, 312
-0.985797, 265, 65, 328, 128
-0.985812, 129, 201, 160, 264
-0.985844, 97, 241, 160, 368
-0.985845, 253, 9, 284, 72
-0.985868, 289, 1, 352, 256
-0.98593, 17, 49, 80, 112
-0.98595, 49, 1, 112, 256
-0.985993, 253, 241, 284, 304
-0.986056, 1, 49, 64, 176
-0.986091, 105, 1, 136, 128
-0.986099, 305, 177, 336, 304
-0.986117, 217, 1, 280, 429
-0.986122, 17, 113, 80, 240
-0.986145, 209, 305, 272, 429
-0.986273, 41, 97, 104, 352
-0.98628, 281, 1, 344, 429
-0.986299, 33, 241, 160, 304
-0.986357, 305, 225, 336, 288
-0.986358, 369, 281, 496, 344
-0.986462, 129, 49, 192, 176
-0.986557, 389, 17, 420, 144
-0.986611, 433, 265, 496, 328
-0.986618, 361, 145, 392, 272
-0.986638, 365, 169, 396, 232
-0.986644, 193, 1, 256, 429
-0.986657, 385, 209, 416, 272
-0.986729, 269, 153, 300, 216
-0.986773, 249, 145, 312, 208
-0.986806, 17, 1, 80, 429
-0.986857, 281, 113, 312, 240
-0.986875, 409, 49, 472, 176
-0.986889, 309, 177, 340, 240
-0.986905, 337, 169, 368, 232
-0.98691, 409, 225, 440, 288
-0.98707, 405, 49, 436, 112
-0.987086, 361, 1, 424, 429
-0.987103, 221, 241, 252, 304
-0.987139, 353, 65, 416, 128
-0.987166, 305, 273, 432, 336
-0.987191, 333, 193, 364, 320
-0.987194, 417, 41, 448, 104
-0.987207, 9, 201, 72, 264
-0.987253, 209, 225, 240, 352
-0.987257, 321, 73, 384, 136
-0.987277, 417, 273, 448, 400
-0.987379, 241, 57, 368, 120
-0.987394, 17, 289, 144, 416
-0.98748, 85, 185, 116, 248
-0.987496, 289, 1, 320, 64
-0.987544, 273, 129, 336, 192
-0.987572, 113, 25, 176, 88
-0.987601, 257, 129, 288, 256
-0.987602, 161, 249, 288, 312
-0.987621, 209, 305, 336, 429
-0.987637, 61, 177, 92, 240
-0.987642, 33, 153, 160, 216
-0.987645, 41, 49, 104, 176
-0.987652, 73, 1, 136, 429
-0.987671, 73, 97, 136, 160
-0.987747, 265, 25, 296, 88
-0.987771, 321, 153, 448, 216
-0.987778, 257, 1, 320, 429
-0.987782, 33, 89, 96, 152
-0.987807, 145, 249, 208, 312
-0.98785, 97, 65, 160, 320
-0.987878, 193, 105, 256, 168
-0.987886, 41, 17, 72, 80
-0.987945, 113, 57, 240, 120
-0.987979, 409, 1, 472, 256
-0.988028, 173, 177, 204, 240
-0.988059, 453, 1, 484, 128
-0.988072, 225, 217, 480, 280
-0.988142, 1, 1, 64, 256
-0.988154, 241, 241, 272, 304
-0.988209, 401, 161, 432, 224
-0.98824, 241, 225, 272, 352
-0.988267, 389, 17, 420, 80
-0.988279, 185, 81, 248, 208
-0.988315, 377, 17, 408, 80
-0.988372, 305, 97, 432, 224
-0.988376, 441, 1, 472, 128
-0.988395, 241, 173, 304, 204
-0.988397, 257, 193, 320, 224
-0.988427, 433, 161, 496, 416
-0.988437, 377, 17, 408, 144
-0.988452, 117, 177, 148, 304
-0.988487, 345, 145, 376, 272
-0.988501, 97, 193, 128, 256
-0.988543, 289, 73, 352, 136
-0.988568, 169, 225, 200, 288
-0.988601, 413, 249, 444, 312
-0.988604, 249, 193, 280, 256
-0.988627, 121, 1, 184, 429
-0.988632, 201, 225, 232, 288
-0.988634, 153, 49, 216, 176
-0.988634, 241, 305, 304, 429
-0.988648, 289, 197, 352, 228
-0.988657, 45, 161, 76, 288
-0.988674, 369, 225, 432, 256
-0.988717, 345, 321, 408, 384
-0.988732, 365, 241, 396, 368
-0.98875, 201, 129, 264, 192
-0.988769, 101, 1, 132, 64
-0.988796, 297, 113, 360, 176
-0.988796, 369, 129, 432, 192
-0.988812, 325, 17, 356, 80
-0.988839, 161, 1, 224, 429
-0.988845, 273, 225, 304, 352
-0.988879, 469, 289, 500, 352
-0.988889, 145, 189, 208, 220
-0.988938, 121, 181, 184, 212
-0.98894, 81, 161, 208, 224
-0.988945, 181, 129, 212, 256
-0.988946, 93, 1, 124, 128
-0.988968, 81, 65, 208, 192
-0.988976, 49, 57, 176, 120
-0.98898, 257, 145, 288, 208
-0.988995, 169, 225, 200, 352
-0.989015, 425, 1, 456, 128
-0.989029, 209, 257, 336, 320
-0.989043, 321, 197, 384, 228
-0.989053, 433, 225, 496, 288
-0.989054, 1, 113, 128, 176
-0.989054, 89, 185, 152, 216
-0.989066, 217, 181, 280, 212
-0.989075, 417, 201, 480, 264
-0.989078, 345, 41, 376, 104
-0.989081, 341, 1, 372, 128
-0.989121, 97, 249, 160, 312
-0.989123, 353, 205, 416, 236
-0.989138, 413, 193, 444, 256
-0.989155, 185, 205, 248, 236
-0.989168, 9, 129, 72, 384
-0.98917, 145, 201, 208, 232
-0.989183, 369, 153, 496, 216
-0.989185, 185, 225, 216, 352
-0.989249, 253, 1, 284, 128
-0.989269, 269, 49, 300, 112
-0.989281, 265, 209, 328, 240
-0.989294, 73, 1, 136, 256
-0.989374, 209, 137, 336, 200
-0.989398, 193, 33, 224, 96
-0.989443, 177, 217, 240, 248
-0.989464, 249, 105, 312, 168
-0.989478, 321, 209, 384, 240
-0.989484, 97, 1, 160, 429
-0.989494, 233, 197, 296, 228
-0.989501, 161, 153, 224, 216
-0.989525, 429, 273, 460, 400
-0.989538, 9, 1, 40, 128
-0.989624, 273, 81, 400, 144
-0.989628, 129, 185, 384, 248
-0.98964, 413, 161, 444, 288
-0.989649, 265, 181, 328, 212
-0.989659, 245, 145, 276, 208
-0.989678, 321, 137, 384, 200
-0.989705, 185, 289, 248, 416
-0.989751, 393, 137, 456, 200
-0.989775, 33, 289, 96, 416
-0.989784, 237, 1, 268, 64
-0.989784, 377, 41, 408, 104
-0.989786, 209, 209, 272, 240
-0.989798, 209, 1, 240, 64
-0.989817, 129, 153, 160, 216
-0.989834, 337, 1, 368, 64
-0.989847, 185, 193, 248, 224
-0.989863, 105, 97, 168, 160
-0.989876, 1, 57, 128, 120
-0.989887, 385, 161, 416, 224
-0.989935, 433, 137, 496, 200
-0.989936, 313, 305, 376, 429
-0.989947, 433, 177, 496, 304
-0.989953, 317, 1, 348, 128
-0.989957, 129, 105, 256, 168
-0.989987, 73, 225, 104, 352
-0.990006, 5, 1, 36, 64
-0.99001, 33, 217, 288, 280
-0.990032, 145, 225, 208, 256
-0.990095, 145, 213, 208, 244
-0.990095, 465, 25, 496, 88
-0.990124, 377, 213, 440, 244
-0.990135, 209, 193, 272, 224
-0.990148, 345, 193, 408, 224
-0.99015, 305, 121, 432, 184
-0.990167, 353, 225, 384, 288
-0.990176, 421, 225, 452, 288
-0.99018, 109, 225, 140, 288
-0.990206, 321, 1, 384, 429
-0.990207, 401, 17, 432, 144
-0.990215, 401, 1, 432, 64
-0.990255, 353, 241, 416, 272
-0.990265, 377, 189, 440, 220
-0.990273, 165, 1, 196, 128
-0.990277, 249, 245, 312, 276
-0.990279, 77, 17, 108, 80
-0.990282, 345, 221, 408, 252
-0.990297, 225, 113, 352, 176
-0.990316, 349, 177, 380, 240
-0.990329, 185, 181, 248, 212
-0.990344, 385, 257, 416, 320
-0.990344, 345, 289, 408, 416
-0.99037, 377, 49, 440, 80
-0.990407, 321, 145, 352, 272
-0.990416, 449, 225, 480, 352
-0.990429, 225, 225, 288, 256
-0.990444, 49, 113, 176, 176
-0.990474, 433, 49, 496, 176
-0.990484, 385, 1, 448, 429
-0.990488, 233, 1, 296, 32
-0.990517, 353, 45, 416, 76
-0.990554, 297, 129, 328, 256
-0.990555, 209, 241, 272, 272
-0.990592, 233, 33, 264, 160
-0.990602, 61, 201, 92, 264
-0.990604, 101, 177, 132, 304
-0.990617, 225, 145, 256, 208
-0.990651, 125, 1, 156, 128
-0.990659, 289, 209, 352, 240
-0.99066, 281, 245, 344, 276
-0.990673, 181, 41, 212, 104
-0.990674, 257, 13, 320, 44
-0.990699, 361, 269, 424, 300
-0.990702, 165, 1, 196, 64
-0.990703, 385, 261, 448, 292
-0.990708, 393, 225, 456, 256
-0.99072, 121, 193, 184, 224
-0.990727, 337, 233, 368, 296
-0.990731, 221, 1, 252, 64
-0.990785, 185, 229, 248, 260
-0.990786, 113, 49, 144, 176
-0.990789, 193, 1, 224, 64
-0.990796, 353, 253, 416, 284
-0.990815, 49, 225, 112, 256
-0.990816, 225, 89, 352, 152
-0.990827, 329, 49, 392, 80
-0.990834, 41, 1, 104, 429
-0.990834, 141, 153, 172, 216
-0.990846, 465, 225, 496, 352
-0.990867, 385, 237, 448, 268
-0.990872, 233, 209, 296, 240
-0.990943, 313, 97, 376, 224
-0.990997, 1, 89, 128, 152
-0.990997, 105, 213, 168, 244
-0.991005, 249, 37, 312, 68
-0.991014, 49, 241, 112, 272
-0.991019, 73, 177, 104, 240
-0.991073, 333, 49, 364, 112
-0.991074, 353, 121, 480, 184
-0.99108, 217, 169, 280, 200
-0.99109, 429, 49, 460, 112
-0.991095, 233, 13, 296, 44
-0.9911, 449, 17, 480, 80
-0.991117, 289, 37, 352, 68
-0.991122, 445, 273, 476, 400
-0.991129, 369, 73, 496, 136
-0.991132, 85, 225, 116, 352
-0.991145, 273, 1, 336, 32
-0.991151, 401, 273, 464, 304
-0.991153, 73, 197, 136, 228
-0.991161, 49, 181, 112, 212
-0.991163, 1, 201, 500, 264
-0.991179, 289, 185, 352, 216
-0.991208, 417, 1, 480, 429
-0.991214, 145, 249, 208, 280
-0.991262, 401, 53, 464, 84
-0.991268, 97, 37, 160, 68
-0.991268, 65, 49, 128, 80
-0.991277, 145, 177, 208, 208
-0.991307, 129, 225, 160, 288
-0.991322, 377, 201, 440, 232
-0.991344, 225, 193, 480, 256
-0.991349, 145, 1, 176, 64
-0.991351, 177, 61, 240, 92
-0.991354, 49, 225, 80, 352
-0.991378, 105, 245, 168, 276
-0.991382, 273, 249, 304, 312
-0.991382, 25, 45, 88, 76
-0.991383, 193, 241, 448, 304
-0.991387, 1, 9, 64, 40
-0.991393, 353, 313, 480, 376
-0.991401, 97, 225, 128, 288
-0.991411, 361, 41, 392, 104
-0.991412, 65, 209, 128, 240
-0.991415, 241, 313, 368, 376
-0.991416, 417, 225, 480, 256
-0.991422, 113, 229, 176, 260
-0.991424, 289, 313, 416, 376
-0.991425, 57, 25, 88, 88
-0.991426, 305, 229, 368, 260
-0.991427, 273, 221, 336, 252
-0.991429, 289, 201, 416, 232
-0.991441, 425, 285, 488, 316
-0.991446, 273, 25, 336, 56
-0.991452, 33, 193, 288, 256
-0.991454, 129, 33, 160, 96
-0.991463, 65, 37, 128, 68
-0.991468, 337, 265, 400, 296
-0.991482, 153, 33, 216, 64
-0.991491, 105, 169, 136, 232
-0.991492, 41, 225, 72, 288
-0.991508, 241, 257, 304, 288
-0.991512, 297, 161, 328, 224
-0.991512, 305, 245, 368, 276
-0.991517, 121, 29, 184, 60
-0.991528, 241, 161, 304, 192
-0.991552, 145, 233, 176, 296
-0.991555, 153, 237, 216, 268
-0.991564, 253, 241, 284, 368
-0.991576, 321, 65, 384, 96
-0.991577, 353, 57, 416, 88
-0.991618, 97, 129, 224, 192
-0.991631, 177, 105, 304, 168
-0.991647, 9, 153, 40, 216
-0.991649, 417, 1, 480, 32
-0.991661, 97, 53, 160, 84
-0.991666, 121, 53, 184, 84
-0.991681, 353, 29, 416, 60
-0.991688, 161, 33, 192, 96
-0.991702, 97, 197, 160, 228
-0.991702, 333, 145, 364, 272
-0.991705, 221, 17, 252, 144
-0.991727, 217, 257, 280, 288
-0.991728, 269, 129, 300, 256
-0.991729, 301, 1, 332, 64
-0.991733, 273, 157, 336, 188
-0.991738, 249, 25, 312, 56
-0.991746, 209, 5, 272, 36
-0.991761, 281, 261, 344, 292
-0.991762, 81, 25, 144, 56
-0.991781, 289, 305, 352, 429
-0.991784, 57, 57, 88, 120
-0.991797, 201, 177, 232, 240
-0.991797, 193, 253, 256, 284
-0.991804, 185, 17, 248, 48
-0.991827, 41, 5, 104, 36
-0.991841, 425, 209, 456, 336
-0.991846, 401, 213, 464, 244
-0.991849, 385, 37, 448, 68
-0.991859, 201, 65, 264, 96
-0.991872, 17, 237, 80, 268
-0.991878, 385, 249, 448, 280
-0.991896, 329, 33, 392, 64
-0.991901, 377, 61, 440, 92
-0.991904, 73, 245, 136, 276
-0.991912, 141, 225, 172, 352
-0.991913, 281, 233, 344, 264
-0.991915, 241, 129, 272, 256
-0.991921, 225, 37, 288, 68
-0.991949, 309, 25, 340, 88
-0.99195, 329, 233, 392, 264
-0.991958, 73, 233, 136, 264
-0.991961, 353, 257, 384, 384
-0.991973, 1, 157, 64, 188
-0.991978, 433, 273, 496, 304
-0.99198, 313, 265, 376, 296
-0.991987, 161, 25, 416, 88
-0.992002, 281, 181, 312, 212
-0.992004, 41, 17, 104, 48
-0.992008, 297, 53, 360, 84
-0.992011, 377, 21, 440, 52
-0.99202, 217, 25, 280, 56
-0.992022, 373, 145, 404, 272
-0.992023, 25, 225, 88, 256
-0.992024, 185, 241, 248, 272
-0.992075, 33, 193, 96, 224
-0.99208, 261, 189, 292, 220
-0.992081, 169, 253, 232, 284
-0.992088, 249, 229, 312, 260
-0.992099, 409, 169, 472, 200
-0.992104, 433, 1, 496, 256
-0.992111, 177, 49, 240, 80
-0.992111, 353, 13, 416, 44
-0.992132, 145, 49, 208, 80
-0.992144, 293, 197, 324, 228
-0.992155, 425, 49, 488, 80
-0.992184, 81, 173, 144, 204
-0.992187, 133, 129, 164, 256
-0.992188, 177, 29, 240, 60
-0.992198, 437, 225, 468, 352
-0.992219, 129, 1, 384, 64
-0.992224, 241, 81, 272, 208
-0.992233, 353, 1, 384, 128
-0.992238, 269, 177, 300, 208
-0.992261, 281, 193, 312, 224
-0.99233, 1, 225, 500, 288
-0.992331, 141, 181, 172, 212
-0.992361, 373, 205, 404, 236
-0.992367, 337, 197, 368, 228
-0.992372, 185, 193, 216, 224
-0.9924, 401, 225, 432, 256
-0.992421, 397, 237, 428, 268
-0.992457, 209, 197, 336, 228
-0.99248, 249, 169, 280, 200
-0.992497, 353, 197, 384, 228
-0.992501, 309, 201, 340, 232
-0.992506, 113, 81, 240, 144
-0.992516, 261, 201, 292, 232
-0.992522, 149, 197, 180, 228
-0.992525, 213, 209, 244, 240
-0.992526, 129, 181, 160, 212
-0.99253, 321, 81, 448, 144
-0.992541, 129, 209, 384, 272
-0.992543, 181, 213, 212, 244
-0.992545, 97, 257, 224, 320
-0.992564, 49, 89, 176, 152
-0.99258, 173, 189, 204, 220
-0.992593, 281, 205, 312, 236
-0.992597, 389, 205, 420, 236
-0.992598, 225, 181, 256, 212
-0.992632, 85, 189, 116, 220
-0.992635, 1, 33, 256, 96
-0.99264, 173, 201, 204, 232
-0.992655, 113, 185, 144, 216
-0.992658, 389, 225, 420, 256
-0.992665, 289, 213, 416, 244
-0.992675, 377, 221, 408, 252
-0.992675, 325, 197, 356, 228
-0.992677, 265, 213, 296, 244
-0.99268, 69, 129, 100, 256
-0.992691, 161, 185, 192, 216
-0.992707, 109, 225, 140, 352
-0.992707, 241, 209, 272, 240
-0.992709, 153, 1, 184, 128
-0.992711, 297, 213, 328, 244
-0.992713, 385, 45, 416, 76
-0.992738, 385, 253, 416, 284
-0.992756, 305, 1, 336, 128
-0.99276, 201, 217, 232, 248
-0.992761, 57, 289, 120, 416
-0.992761, 385, 237, 416, 268
-0.992763, 465, 273, 496, 400
-0.992778, 237, 177, 268, 208
-0.992784, 53, 221, 84, 252
-0.992786, 193, 305, 320, 368
-0.992795, 265, 9, 296, 40
-0.992795, 249, 197, 280, 228
-0.992799, 213, 197, 244, 228
-0.992804, 225, 225, 256, 256
-0.992804, 401, 209, 432, 240
-0.99281, 197, 197, 228, 228
-0.992824, 317, 225, 348, 256
-0.992827, 209, 233, 240, 264
-0.992834, 381, 189, 412, 220
-0.992842, 389, 269, 420, 300
-0.99285, 249, 185, 280, 216
-0.99285, 165, 213, 196, 244
-0.992853, 97, 181, 128, 212
-0.992855, 397, 49, 428, 80
-0.992856, 161, 201, 192, 232
-0.992858, 229, 241, 260, 272
-0.992859, 397, 253, 428, 284
-0.992861, 349, 209, 380, 240
-0.992864, 253, 245, 284, 276
-0.992872, 225, 197, 256, 228
-0.992872, 317, 213, 348, 244
-0.992882, 285, 241, 316, 272
-0.992889, 277, 225, 308, 256
-0.992901, 257, 225, 288, 256
-0.992911, 153, 217, 184, 248
-0.992916, 413, 1, 444, 128
-0.992916, 297, 245, 328, 276
-0.992925, 401, 185, 432, 216
-0.992929, 297, 229, 328, 260
-0.992931, 337, 209, 368, 240
-0.992933, 277, 1, 308, 32
-0.992935, 125, 193, 156, 224
-0.992942, 369, 237, 400, 268
-0.992945, 165, 229, 196, 260
-0.992959, 77, 201, 108, 232
-0.992968, 241, 245, 272, 276
-0.992972, 49, 297, 176, 360
-0.992978, 269, 37, 300, 68
-0.99298, 265, 241, 296, 272
-0.992985, 453, 1, 484, 32
-0.992987, 265, 21, 296, 52
-0.992993, 317, 245, 348, 276
-0.993003, 57, 241, 88, 272
-0.993004, 1, 33, 500, 96
-0.993005, 277, 13, 308, 44
-0.993014, 413, 49, 444, 80
-0.993019, 237, 197, 268, 228
-0.993034, 225, 49, 480, 112
-0.993042, 253, 17, 284, 48
-0.99305, 149, 249, 180, 280
-0.993052, 57, 45, 88, 76
-0.993053, 225, 213, 256, 244
-0.993054, 145, 229, 176, 260
-0.993056, 69, 181, 100, 212
-0.993057, 357, 221, 388, 252
-0.99306, 213, 221, 244, 252
-0.993061, 417, 225, 448, 256
-0.993061, 173, 177, 204, 208
-0.993071, 373, 45, 404, 76
-0.993085, 265, 165, 296, 196
-0.993086, 385, 57, 416, 88
-0.993088, 189, 225, 220, 256
-0.993088, 209, 217, 336, 248
-0.993091, 249, 1, 280, 32
-0.993092, 281, 41, 312, 72
-0.993094, 461, 277, 492, 308
-0.993095, 193, 181, 320, 212
-0.993097, 377, 269, 408, 300
-0.993108, 81, 185, 208, 216
-0.993111, 357, 49, 388, 80
-0.993111, 277, 25, 308, 56
-0.993118, 333, 245, 364, 276
-0.993122, 305, 189, 336, 220
-0.993123, 249, 157, 280, 188
-0.993134, 449, 277, 480, 308
-0.993135, 97, 241, 352, 304
-0.993138, 257, 37, 288, 68
-0.993143, 129, 53, 160, 84
-0.993143, 397, 37, 428, 68
-0.993146, 425, 273, 456, 304
-0.993148, 229, 1, 260, 32
-0.993152, 169, 33, 200, 64
-0.993153, 109, 37, 140, 68
-0.993158, 357, 233, 388, 264
-0.993161, 141, 217, 172, 248
-0.993161, 65, 209, 96, 240
-0.993166, 413, 209, 444, 240
-0.993169, 129, 205, 160, 236
-0.99317, 249, 257, 280, 288
-0.993173, 73, 45, 104, 76
-0.993173, 369, 193, 400, 224
-0.993173, 33, 225, 64, 352
-0.993173, 97, 193, 128, 224
-0.993174, 165, 129, 196, 256
-0.993189, 409, 261, 440, 292
-0.993195, 109, 245, 140, 276
-0.993197, 133, 233, 164, 264
-0.9932, 237, 165, 268, 196
-0.993203, 161, 249, 192, 280
-0.993203, 93, 37, 124, 68
-0.993212, 341, 261, 372, 292
-0.993244, 129, 297, 256, 360
-0.993245, 89, 129, 120, 256
-0.99326, 161, 273, 288, 336
-0.993272, 257, 1, 500, 64
-0.99329, 289, 225, 416, 256
-0.993388, 229, 97, 260, 224
-0.993402, 225, 265, 480, 328
-0.993404, 33, 1, 288, 64
-0.993412, 257, 161, 500, 224
-0.993427, 177, 1, 208, 128
-0.993446, 401, 113, 464, 240
-0.993452, 287, 185, 302, 248
-0.993524, 363, 193, 378, 256
-0.993535, 265, 305, 328, 429
-0.993609, 125, 49, 156, 176
-0.993617, 465, 1, 496, 128
-0.993628, 1, 289, 128, 352
-0.993671, 321, 257, 352, 384
-0.993691, 121, 273, 184, 400
-0.993705, 97, 289, 160, 416
-0.993752, 97, 241, 128, 368
-0.993835, 257, 273, 384, 336
-0.993872, 145, 129, 272, 192
-0.993878, 293, 185, 308, 248
-0.99388, 129, 201, 256, 232
-0.993886, 265, 1, 296, 128
-0.993932, 305, 193, 320, 256
-0.993944, 321, 49, 448, 80
-0.993963, 1, 177, 500, 240
-0.994029, 285, 1, 316, 128
-0.994057, 129, 189, 256, 220
-0.994078, 225, 245, 352, 276
-0.994079, 33, 161, 64, 288
-0.994093, 129, 57, 384, 120
-0.994123, 161, 289, 224, 416
-0.994224, 341, 257, 372, 384
-0.994228, 161, 213, 288, 244
-0.99425, 97, 153, 352, 216
-0.994291, 299, 193, 314, 256
-0.994308, 393, 65, 424, 192
-0.994309, 433, 97, 496, 224
-0.994392, 209, 229, 336, 260
-0.994422, 49, 265, 176, 328
-0.994429, 121, 225, 152, 352
-0.994468, 197, 257, 228, 384
-0.994506, 311, 201, 326, 264
-0.994547, 357, 193, 372, 256
-0.994582, 65, 197, 192, 228
-0.994591, 129, 225, 256, 256
-0.994598, 139, 185, 154, 248
-0.994613, 279, 225, 294, 288
-0.994617, 257, 189, 384, 220
-0.994624, 273, 177, 288, 240
-0.994633, 1, 1, 500, 64
-0.994668, 121, 129, 152, 256
-0.99469, 383, 201, 398, 264
-0.994694, 279, 201, 294, 264
-0.994696, 337, 217, 464, 248
-0.994698, 137, 1, 168, 128
-0.994715, 365, 1, 396, 128
-0.99472, 49, 217, 176, 248
-0.99478, 101, 129, 132, 256
-0.994829, 365, 49, 396, 176
-0.994833, 321, 217, 336, 280
-0.994862, 161, 237, 288, 268
-0.994863, 279, 169, 294, 232
-0.994888, 369, 201, 384, 264
-0.994889, 333, 201, 348, 264
-0.994893, 33, 1, 64, 128
-0.994966, 289, 241, 416, 272
-0.995007, 297, 217, 312, 280
-0.995026, 161, 49, 192, 176
-0.995026, 257, 25, 500, 88
-0.995031, 287, 217, 302, 280
-0.995041, 225, 217, 240, 280
-0.995042, 209, 281, 336, 344
-0.995049, 41, 113, 72, 240
-0.995057, 57, 113, 88, 240
-0.995066, 81, 1, 112, 128
-0.99507, 193, 193, 208, 256
-0.995101, 33, 65, 288, 128
-0.995116, 209, 129, 240, 256
-0.99513, 289, 257, 416, 288
-0.995148, 1, 249, 500, 312
-0.99515, 173, 217, 188, 280
-0.995158, 163, 193, 178, 256
-0.995192, 217, 81, 248, 208
-0.995193, 231, 217, 246, 280
-0.99521, 145, 177, 272, 208
-0.99527, 337, 193, 464, 224
-0.995273, 309, 49, 340, 176
-0.995276, 1, 153, 256, 216
-0.995295, 381, 65, 412, 192
-0.995303, 147, 177, 162, 240
-0.995304, 337, 205, 464, 236
-0.99531, 131, 177, 146, 240
-0.995321, 257, 137, 500, 200
-0.995353, 167, 217, 182, 280
-0.995354, 21, 1, 52, 128
-0.995357, 237, 217, 252, 280
-0.99539, 1, 145, 500, 208
-0.995432, 287, 161, 302, 224
-0.995439, 219, 217, 234, 280
-0.99544, 1, 353, 128, 416
-0.995459, 393, 233, 408, 296
-0.995468, 421, 49, 452, 176
-0.99547, 329, 65, 360, 192
-0.995483, 377, 201, 392, 264
-0.995504, 369, 97, 496, 160
-0.995532, 411, 209, 426, 272
-0.995565, 469, 1, 484, 64
-0.995569, 193, 13, 320, 44
-0.995575, 273, 37, 400, 68
-0.995594, 209, 17, 240, 144
-0.995653, 183, 185, 198, 248
-0.995675, 401, 201, 416, 264
-0.995676, 9, 289, 72, 416
-0.995685, 257, 5, 384, 36
-0.995697, 259, 225, 274, 288
-0.995705, 321, 269, 448, 300
-0.995724, 1, 181, 128, 212
-0.995739, 279, 1, 294, 64
-0.995753, 303, 217, 318, 280
-0.99577, 65, 337, 192, 400
-0.995786, 401, 241, 416, 304
-0.995804, 49, 245, 176, 276
-0.995808, 289, 241, 304, 304
-0.995817, 113, 213, 240, 244
-0.995821, 269, 209, 284, 272
-0.995842, 1, 241, 256, 304
-0.995863, 177, 193, 192, 256
-0.995863, 371, 225, 386, 288
-0.995876, 49, 37, 176, 68
-0.995881, 327, 201, 342, 264
-0.995904, 97, 29, 224, 60
-0.995921, 309, 225, 324, 288
-0.995923, 225, 45, 352, 76
-0.995938, 389, 201, 404, 264
-0.995948, 369, 277, 496, 308
-0.995951, 411, 185, 426, 248
-0.995963, 153, 177, 168, 240
-0.995971, 377, 233, 392, 296
-0.995992, 351, 185, 366, 248
-0.995993, 339, 193, 354, 256
-0.996011, 145, 253, 272, 284
-0.996013, 273, 233, 288, 296
-0.996044, 213, 225, 228, 288
-0.996056, 177, 25, 304, 56
-0.996064, 273, 1, 288, 64
-0.99607, 171, 193, 186, 256
-0.996072, 1, 265, 128, 328
-0.996091, 241, 261, 368, 292
-0.996094, 219, 193, 234, 256
-0.996099, 73, 209, 88, 272
-0.996108, 337, 245, 464, 276
-0.996108, 161, 225, 176, 288
-0.996117, 253, 217, 268, 280
-0.996137, 417, 225, 432, 288
-0.996149, 125, 185, 140, 248
-0.996165, 147, 209, 162, 272
-0.996184, 67, 217, 82, 280
-0.996187, 199, 217, 214, 280
-0.996192, 337, 97, 400, 224
-0.996196, 369, 49, 496, 80
-0.996201, 263, 9, 278, 72
-0.996214, 277, 25, 292, 88
-0.996227, 351, 209, 366, 272
-0.996232, 345, 185, 360, 248
-0.996245, 33, 49, 160, 80
-0.996264, 273, 49, 400, 80
-0.996266, 97, 249, 224, 280
-0.996275, 271, 25, 286, 88
-0.996277, 187, 209, 202, 272
-0.996287, 153, 217, 168, 280
-0.996293, 297, 161, 312, 224
-0.996304, 305, 25, 432, 56
-0.996312, 411, 249, 426, 312
-0.996319, 237, 177, 252, 240
-0.996335, 357, 217, 372, 280
-0.996346, 395, 185, 410, 248
-0.996346, 383, 241, 398, 304
-0.99636, 81, 233, 208, 264
-0.996361, 297, 241, 312, 304
-0.996375, 257, 161, 384, 192
-0.996378, 199, 193, 214, 256
-0.996385, 61, 225, 76, 288
-0.996386, 401, 41, 416, 104
-0.996388, 33, 105, 288, 168
-0.996399, 129, 113, 384, 176
-0.996402, 179, 217, 194, 280
-0.99642, 337, 257, 464, 288
-0.996425, 209, 169, 336, 200
-0.996435, 285, 1, 300, 64
-0.996446, 257, 361, 384, 424
-0.996461, 243, 209, 258, 272
-0.996477, 267, 169, 282, 232
-0.996479, 193, 257, 320, 288
-0.996492, 393, 17, 408, 80
-0.996494, 369, 17, 496, 48
-0.9965, 357, 169, 372, 232
-0.9965, 259, 201, 274, 264
-0.996502, 245, 177, 260, 240
-0.996508, 395, 41, 410, 104
-0.996522, 33, 229, 160, 260
-0.996525, 369, 229, 496, 260
-0.996526, 209, 201, 224, 264
-0.996527, 161, 37, 288, 68
-0.996535, 177, 161, 208, 416
-0.996536, 1, 57, 500, 120
-0.996537, 193, 1, 320, 32
-0.996541, 79, 201, 94, 264
-0.996543, 117, 217, 132, 280
-0.996552, 421, 41, 436, 104
-0.996554, 283, 25, 298, 88
-0.996562, 71, 177, 86, 240
-0.996562, 265, 233, 280, 296
-0.996573, 353, 61, 480, 92
-0.996574, 161, 81, 416, 144
-0.99659, 273, 65, 400, 96
-0.996602, 49, 361, 176, 424
-0.996604, 107, 185, 122, 248
-0.996608, 227, 185, 242, 248
-0.996637, 317, 193, 332, 256
-0.99666, 407, 25, 422, 88
-0.996664, 315, 225, 330, 288
-0.996667, 463, 1, 478, 64
-0.996673, 273, 177, 400, 208
-0.996682, 257, 81, 500, 144
-0.996686, 257, 25, 384, 56
-0.996689, 1, 241, 128, 272
-0.996694, 277, 1, 308, 256
-0.996698, 145, 13, 272, 44
-0.996703, 417, 193, 432, 256
-0.996704, 303, 241, 318, 304
-0.996707, 251, 241, 266, 304
-0.99671, 321, 37, 448, 68
-0.996712, 475, 1, 490, 64
-0.996713, 55, 225, 70, 288
-0.996722, 273, 129, 304, 384
-0.996722, 427, 41, 442, 104
-0.996729, 399, 17, 414, 80
-0.99673, 363, 217, 378, 280
-0.996742, 33, 25, 160, 56
-0.996769, 415, 41, 430, 104
-0.996798, 405, 169, 420, 232
-0.996803, 81, 53, 208, 84
-0.996842, 279, 193, 294, 224
-0.996855, 1, 37, 128, 68
-0.99686, 1, 129, 256, 192
-0.99686, 261, 1, 292, 256
-0.996871, 417, 249, 432, 312
-0.996885, 237, 129, 268, 384
-0.996892, 65, 305, 192, 429
-0.996908, 369, 37, 496, 68
-0.996918, 331, 225, 346, 288
-0.99692, 1, 105, 500, 168
-0.996921, 389, 41, 404, 104
-0.996921, 141, 209, 156, 272
-0.996931, 193, 313, 448, 376
-0.996955, 123, 217, 138, 280
-0.996963, 33, 169, 160, 200
-0.996986, 349, 41, 364, 104
-0.996993, 297, 189, 312, 220
-0.996994, 387, 17, 402, 80
-0.996996, 287, 181, 302, 212
-0.997011, 253, 161, 268, 224
-0.997013, 193, 217, 208, 280
-0.997016, 261, 129, 292, 384
-0.99702, 65, 33, 80, 96
-0.997022, 97, 193, 112, 256
-0.997038, 245, 241, 260, 304
-0.997052, 377, 161, 408, 416
-0.997065, 365, 161, 396, 416
-0.997065, 277, 145, 292, 208
-0.997086, 307, 197, 322, 228
-0.997094, 147, 153, 162, 216
-0.997097, 241, 145, 256, 208
-0.997101, 77, 177, 92, 240
-0.997105, 161, 61, 288, 92
-0.99712, 423, 201, 438, 264
-0.997137, 285, 197, 300, 228
-0.997144, 245, 1, 276, 256
-0.997146, 225, 57, 352, 88
-0.997167, 369, 5, 496, 36
-0.99717, 305, 369, 432, 429
-0.997193, 17, 193, 144, 224
-0.997197, 113, 1, 240, 32
-0.997207, 189, 161, 220, 416
-0.997222, 17, 329, 144, 392
-0.997223, 129, 161, 160, 416
-0.997231, 81, 173, 208, 204
-0.997258, 249, 129, 280, 384
-0.997278, 113, 41, 240, 72
-0.997294, 385, 33, 416, 288
-0.997303, 129, 345, 256, 408
-0.997323, 217, 97, 248, 352
-0.997338, 393, 161, 424, 416
-0.997342, 275, 173, 290, 204
-0.99735, 165, 161, 196, 416
-0.997355, 181, 189, 196, 220
-0.99736, 341, 197, 356, 228
-0.997373, 331, 197, 346, 228
-0.997376, 347, 197, 362, 228
-0.99738, 155, 181, 170, 212
-0.997383, 295, 201, 310, 232
-0.997399, 281, 177, 296, 208
-0.997415, 285, 161, 316, 416
-0.997417, 401, 237, 416, 268
-0.997434, 361, 197, 376, 228
-0.997465, 207, 213, 222, 244
-0.997471, 149, 181, 164, 212
-0.997473, 279, 225, 294, 256
-0.997476, 373, 201, 388, 232
-0.997492, 1, 13, 128, 44
-0.997495, 209, 73, 336, 104
-0.997496, 315, 201, 330, 232
-0.997497, 353, 153, 480, 184
-0.997515, 235, 177, 250, 208
-0.997517, 411, 225, 426, 256
-0.997526, 273, 189, 288, 220
-0.997538, 173, 201, 188, 232
-0.997539, 321, 181, 448, 212
-0.997545, 353, 161, 384, 416
-0.997551, 135, 181, 150, 212
-0.997553, 225, 113, 480, 176
-0.997561, 355, 197, 370, 228
-0.997568, 305, 9, 432, 40
-0.997585, 191, 189, 206, 220
-0.997592, 125, 181, 140, 212
-0.997599, 301, 201, 316, 232
-0.997602, 173, 213, 188, 244
-0.997604, 49, 1, 176, 32
-0.997605, 289, 1, 320, 256
-0.997607, 229, 181, 244, 212
-0.997609, 311, 229, 326, 260
-0.997616, 393, 249, 408, 280
-0.99762, 221, 197, 236, 228
-0.997624, 241, 181, 256, 212
-0.997648, 365, 65, 396, 320
-0.99765, 281, 209, 296, 240
-0.997669, 129, 265, 384, 328
-0.997673, 263, 197, 278, 228
-0.997673, 325, 201, 340, 232
-0.997682, 165, 185, 180, 216
-0.997685, 305, 149, 432, 180
-0.997705, 65, 13, 192, 44
-0.997705, 357, 209, 372, 240
-0.997706, 363, 213, 378, 244
-0.997717, 267, 185, 282, 216
-0.997721, 395, 45, 410, 76
-0.997723, 219, 217, 234, 248
-0.997725, 209, 361, 336, 424
-0.997757, 305, 317, 432, 348
-0.997763, 213, 217, 228, 248
-0.997768, 141, 181, 156, 212
-0.99777, 227, 221, 242, 252
-0.99778, 257, 289, 500, 352
-0.997782, 413, 209, 428, 240
-0.997786, 145, 97, 176, 352
-0.997792, 129, 321, 256, 384
-0.9978, 1, 153, 128, 184
-0.997801, 223, 237, 238, 268
-0.997808, 213, 1, 244, 256
-0.99781, 213, 205, 228, 236
-0.997818, 241, 145, 368, 176
-0.997823, 311, 213, 326, 244
-0.997824, 305, 77, 432, 108
-0.997826, 369, 217, 384, 248
-0.997829, 323, 213, 338, 244
-0.997844, 383, 209, 398, 240
-0.997856, 233, 225, 248, 256
-0.997858, 305, 345, 432, 408
-0.997858, 93, 189, 108, 220
-0.997858, 395, 221, 410, 252
-0.997873, 277, 1, 292, 32
-0.997873, 119, 181, 134, 212
-0.997875, 367, 197, 382, 228
-0.997891, 405, 161, 436, 416
-0.997891, 257, 309, 384, 340
-0.997895, 201, 161, 232, 416
-0.997896, 171, 185, 186, 216
-0.997907, 269, 173, 284, 204
-0.99791, 235, 205, 250, 236
-0.997912, 183, 201, 198, 232
-0.997918, 163, 201, 178, 232
-0.997922, 287, 209, 302, 240
-0.997925, 331, 209, 346, 240
-0.997931, 389, 193, 404, 224
-0.997935, 395, 205, 410, 236
-0.997945, 401, 225, 416, 256
-0.997949, 391, 237, 406, 268
-0.997954, 101, 181, 116, 212
-0.997954, 109, 185, 124, 216
-0.997954, 161, 133, 288, 164
-0.997954, 255, 245, 270, 276
-0.997956, 261, 245, 276, 276
-0.997959, 389, 45, 404, 76
-0.99796, 201, 201, 216, 232
-0.997963, 401, 205, 416, 236
-0.997964, 369, 169, 496, 200
-0.997964, 309, 249, 324, 280
-0.997968, 113, 65, 240, 96
-0.997969, 49, 1, 80, 256
-0.997973, 61, 225, 76, 256
-0.997974, 225, 85, 352, 116
-0.997994, 253, 193, 268, 224
-0.997996, 129, 165, 256, 196
-0.998004, 81, 129, 208, 160
-0.998005, 305, 213, 320, 244
-0.998011, 321, 165, 448, 196
-0.998015, 203, 225, 218, 256
-0.998017, 297, 129, 328, 384
-0.998017, 321, 129, 352, 384
-0.998018, 267, 245, 282, 276
-0.998019, 1, 117, 128, 148
-0.99802, 209, 157, 336, 188
-0.99802, 271, 209, 286, 240
-0.998021, 287, 225, 302, 256
-0.998021, 407, 241, 422, 272
-0.998021, 117, 97, 148, 352
-0.998028, 271, 9, 286, 40
-0.998034, 1, 209, 128, 240
-0.998037, 225, 209, 240, 240
-0.998038, 87, 189, 102, 220
-0.998039, 97, 305, 352, 368
-0.99804, 161, 49, 288, 80
-0.998042, 369, 345, 496, 408
-0.998042, 139, 197, 154, 228
-0.998046, 99, 193, 114, 224
-0.998051, 283, 1, 298, 32
-0.998055, 409, 49, 424, 80
-0.998064, 193, 65, 224, 320
-0.998065, 401, 45, 416, 76
-0.998075, 393, 269, 408, 300
-0.998075, 131, 193, 146, 224
-0.998078, 235, 189, 250, 220
-0.998079, 229, 241, 244, 272
-0.998085, 189, 209, 204, 240
-0.998087, 247, 173, 262, 204
-0.998095, 261, 185, 276, 216
-0.998095, 161, 305, 288, 336
-0.998096, 151, 197, 166, 228
-0.998102, 209, 309, 336, 340
-0.998115, 165, 233, 180, 264
-0.998122, 321, 229, 336, 260
-0.998125, 303, 241, 318, 272
-0.998126, 399, 249, 414, 280
-0.99813, 233, 1, 264, 256
-0.998132, 399, 269, 414, 300
-0.998135, 149, 217, 164, 248
-0.998136, 171, 229, 186, 260
-0.998136, 225, 337, 352, 400
-0.998136, 389, 225, 404, 256
-0.998137, 297, 241, 312, 272
-0.998138, 79, 205, 94, 236
-0.998143, 405, 261, 420, 292
-0.998147, 321, 281, 448, 312
-0.998152, 73, 213, 88, 244
-0.998153, 303, 229, 318, 260
-0.998155, 291, 245, 306, 276
-0.998157, 353, 65, 384, 320
-0.998159, 407, 213, 422, 244
-0.99816, 277, 237, 292, 268
-0.998165, 89, 129, 120, 384
-0.998175, 279, 37, 294, 68
-0.998178, 417, 225, 432, 256
-0.998194, 209, 97, 336, 128
-0.9982, 101, 161, 132, 416
-0.998201, 261, 225, 276, 256
-0.99821, 235, 241, 250, 272
-0.998218, 389, 213, 404, 244
-0.998219, 245, 241, 260, 272
-0.998222, 351, 209, 366, 240
-0.998224, 279, 13, 294, 44
-0.998224, 217, 229, 232, 260
-0.998226, 397, 33, 428, 288
-0.998227, 169, 65, 200, 320
-0.998227, 197, 189, 212, 220
-0.998235, 183, 221, 198, 252
-0.998239, 33, 133, 160, 164
-0.998249, 37, 1, 68, 256
-0.99825, 353, 317, 480, 348
-0.998263, 289, 137, 416, 168
-0.998276, 333, 129, 364, 384
-0.998278, 309, 129, 340, 384
-0.998307, 177, 337, 304, 400
-0.998314, 369, 81, 496, 112
-0.998328, 77, 129, 108, 384
-0.998353, 193, 145, 320, 176
-0.998366, 257, 193, 320, 208
-0.998387, 161, 81, 288, 112
-0.998393, 209, 133, 336, 164
-0.998394, 261, 239, 292, 254
-0.998395, 373, 227, 404, 242
-0.998395, 217, 181, 248, 196
-0.998396, 137, 249, 168, 264
-0.998396, 281, 203, 344, 218
-0.998396, 265, 261, 296, 276
-0.998397, 397, 247, 428, 262
-0.998398, 125, 55, 156, 70
-0.998399, 341, 267, 372, 282
-0.998399, 333, 247, 364, 262
-0.9984, 401, 185, 432, 200
-0.9984, 45, 181, 76, 196
-0.998401, 389, 47, 420, 62
-0.998401, 145, 231, 176, 246
-0.998402, 417, 55, 448, 70
-0.998402, 353, 211, 384, 226
-0.998403, 213, 195, 244, 210
-0.998406, 277, 261, 308, 276
-0.998406, 253, 259, 284, 274
-0.998406, 297, 205, 328, 220
-0.998411, 57, 183, 88, 198
-0.998411, 369, 181, 496, 212
-0.998412, 181, 229, 212, 244
-0.998412, 401, 207, 432, 222
-0.998412, 377, 271, 408, 286
-0.998413, 361, 221, 424, 236
-0.998414, 257, 197, 288, 212
-0.998414, 153, 203, 184, 218
-0.998414, 1, 1, 128, 32
-0.998415, 265, 219, 296, 234
-0.998417, 257, 39, 288, 54
-0.998418, 157, 251, 188, 266
-0.998418, 53, 225, 84, 240
-0.998419, 377, 209, 408, 224
-0.998419, 321, 305, 448, 336
-0.998421, 57, 243, 88, 258
-0.998422, 317, 211, 348, 226
-0.998423, 257, 11, 288, 26
-0.998424, 113, 183, 176, 198
-0.998431, 129, 185, 160, 200
-0.998432, 185, 213, 216, 228
-0.998433, 317, 243, 348, 258
-0.998434, 193, 229, 224, 244
-0.998434, 365, 269, 396, 284
-0.998435, 173, 185, 204, 200
-0.998435, 405, 53, 436, 68
-0.998437, 225, 211, 256, 226
-0.998438, 377, 197, 408, 212
-0.99844, 261, 209, 292, 224
-0.998441, 353, 207, 416, 222
-0.998442, 181, 65, 212, 320
-0.998444, 273, 241, 304, 256
-0.998444, 225, 197, 256, 212
-0.998444, 209, 237, 240, 252
-0.998446, 293, 193, 324, 208
-0.998446, 329, 209, 360, 224
-0.998448, 205, 219, 236, 234
-0.998448, 397, 199, 428, 214
-0.998449, 373, 221, 404, 236
-0.998449, 389, 235, 420, 250
-0.998449, 169, 221, 200, 236
-0.998451, 177, 227, 240, 242
-0.998453, 389, 273, 420, 288
-0.998454, 73, 187, 104, 202
-0.998455, 257, 207, 320, 222
-0.998455, 377, 235, 408, 250
-0.998456, 145, 225, 176, 240
-0.998457, 185, 205, 248, 220
-0.998457, 313, 209, 376, 224
-0.998458, 369, 227, 432, 242
-0.998461, 89, 189, 152, 204
-0.998461, 385, 241, 416, 256
-0.998462, 261, 203, 292, 218
-0.998463, 281, 43, 312, 58
-0.998463, 225, 181, 288, 196
-0.998463, 417, 227, 448, 242
-0.998464, 353, 217, 384, 232
-0.998464, 261, 185, 292, 200
-0.998464, 249, 183, 312, 198
-0.998465, 409, 1, 440, 256
-0.998466, 229, 187, 260, 202
-0.998466, 233, 173, 296, 188
-0.998466, 321, 199, 384, 214
-0.998467, 173, 211, 204, 226
-0.998467, 117, 185, 148, 200
-0.99847, 145, 189, 208, 204
-0.998471, 285, 241, 316, 256
-0.998472, 269, 41, 300, 56
-0.998473, 193, 199, 224, 214
-0.998473, 273, 203, 304, 218
-0.998473, 241, 201, 304, 216
-0.998474, 373, 215, 404, 230
-0.998474, 221, 217, 252, 232
-0.998475, 301, 33, 332, 288
-0.998476, 1, 305, 500, 368
-0.99848, 137, 201, 200, 216
-0.998481, 369, 199, 432, 214
-0.998481, 401, 237, 432, 252
-0.998481, 241, 211, 272, 226
-0.998482, 85, 187, 116, 202
-0.998482, 169, 231, 200, 246
-0.998483, 317, 217, 348, 232
-0.998484, 297, 239, 328, 254
-0.998485, 345, 199, 376, 214
-0.998485, 361, 215, 424, 230
-0.998485, 193, 211, 256, 226
-0.998488, 305, 197, 336, 212
-0.99849, 181, 193, 212, 208
-0.99849, 45, 97, 76, 352
-0.998491, 405, 225, 436, 240
-0.998492, 265, 175, 296, 190
-0.998492, 269, 13, 300, 28
-0.998492, 217, 191, 280, 206
-0.998493, 193, 223, 224, 238
-0.998494, 145, 195, 208, 210
-0.998497, 153, 187, 184, 202
-0.998498, 389, 209, 420, 224
-0.998498, 233, 205, 264, 220
-0.998499, 169, 199, 232, 214
-0.998502, 221, 227, 252, 242
-0.998502, 277, 211, 308, 226
-0.998503, 245, 195, 276, 210
-0.998504, 165, 193, 196, 208
-0.998506, 129, 225, 192, 240
-0.998506, 225, 209, 288, 224
-0.998506, 329, 199, 360, 214
-0.998509, 345, 201, 408, 216
-0.998509, 249, 169, 280, 184
-0.998509, 157, 225, 188, 240
-0.998509, 89, 195, 120, 210
-0.99851, 169, 203, 200, 218
-0.998511, 201, 211, 232, 226
-0.998512, 113, 191, 144, 206
-0.998513, 49, 297, 176, 328
-0.998515, 389, 217, 420, 232
-0.998517, 313, 203, 344, 218
-0.998518, 145, 211, 208, 226
-0.998518, 281, 195, 344, 210
-0.99852, 369, 237, 432, 252
-0.99852, 337, 269, 400, 284
-0.998521, 145, 197, 176, 212
-0.998523, 185, 207, 216, 222
-0.998524, 241, 181, 272, 196
-0.998524, 213, 201, 244, 216
-0.998524, 181, 223, 212, 238
-0.998525, 121, 195, 184, 210
-0.998527, 145, 231, 208, 246
-0.998527, 389, 227, 420, 242
-0.99853, 153, 225, 216, 240
-0.99853, 269, 195, 300, 210
-0.998531, 321, 215, 384, 230
-0.998532, 281, 209, 344, 224
-0.998532, 393, 227, 456, 242
-0.998534, 357, 201, 388, 216
-0.998535, 301, 213, 332, 228
-0.998535, 365, 207, 396, 222
-0.998536, 265, 241, 328, 256
-0.998536, 89, 195, 152, 210
-0.998537, 169, 219, 232, 234
-0.998537, 181, 199, 212, 214
-0.998538, 233, 11, 296, 26
-0.998539, 341, 209, 372, 224
-0.998539, 297, 219, 328, 234
-0.99854, 401, 231, 432, 246
-0.99854, 169, 211, 232, 226
-0.99854, 389, 193, 404, 320
-0.998541, 145, 217, 208, 232
-0.998541, 273, 181, 304, 196
-0.998542, 137, 191, 168, 206
-0.998542, 193, 221, 256, 236
-0.998543, 217, 203, 280, 218
-0.998544, 113, 249, 176, 264
-0.998544, 249, 261, 312, 276
-0.998546, 257, 213, 320, 228
-0.998547, 161, 205, 224, 220
-0.998548, 205, 231, 236, 246
-0.998548, 57, 187, 120, 202
-0.998549, 285, 205, 316, 220
-0.998549, 1, 81, 500, 144
-0.99855, 217, 197, 280, 212
-0.998551, 225, 259, 288, 274
-0.998552, 185, 187, 248, 202
-0.998552, 225, 217, 288, 232
-0.998553, 193, 199, 256, 214
-0.998555, 417, 229, 480, 244
-0.998556, 137, 251, 200, 266
-0.998557, 161, 253, 224, 268
-0.998559, 65, 245, 128, 260
-0.998559, 389, 253, 420, 268
-0.99856, 273, 263, 336, 278
-0.998562, 249, 43, 312, 58
-0.998563, 41, 243, 104, 258
-0.998565, 257, 191, 288, 206
-0.998565, 345, 235, 408, 250
-0.998565, 101, 187, 132, 202
-0.998567, 353, 193, 416, 208
-0.998567, 229, 179, 260, 194
-0.998569, 297, 265, 360, 280
-0.998569, 353, 243, 416, 258
-0.998569, 385, 219, 448, 234
-0.998569, 89, 247, 152, 262
-0.99857, 385, 203, 416, 218
-0.99857, 377, 205, 440, 220
-0.998571, 361, 271, 424, 286
-0.998571, 113, 369, 240, 429
-0.998572, 369, 49, 432, 64
-0.998573, 177, 233, 240, 248
-0.998574, 385, 275, 448, 290
-0.998574, 177, 193, 240, 208
-0.998577, 245, 201, 276, 216
-0.998578, 65, 51, 128, 66
-0.998578, 429, 161, 460, 416
-0.998578, 281, 195, 312, 210
-0.998579, 49, 227, 112, 242
-0.998579, 281, 217, 344, 232
-0.998581, 61, 1, 92, 256
-0.998581, 257, 13, 320, 28
-0.998584, 277, 189, 308, 204
-0.998586, 201, 257, 264, 272
-0.998587, 257, 219, 320, 234
-0.998587, 385, 213, 448, 228
-0.998591, 329, 221, 392, 236
-0.998592, 281, 39, 344, 54
-0.998593, 353, 253, 416, 268
-0.998594, 281, 189, 344, 204
-0.998594, 241, 297, 368, 328
-0.998595, 217, 227, 280, 242
-0.998596, 409, 277, 472, 292
-0.998598, 209, 11, 272, 26
-0.998598, 213, 207, 244, 222
-0.998598, 393, 53, 456, 68
-0.998599, 1, 19, 64, 34
-0.998599, 393, 233, 456, 248
-0.9986, 305, 239, 368, 254
-0.998602, 177, 63, 240, 78
-0.998602, 25, 181, 88, 196
-0.998604, 377, 187, 440, 202
-0.998604, 33, 61, 160, 92
-0.998605, 1, 297, 256, 360
-0.998605, 1, 273, 500, 336
-0.998605, 417, 129, 448, 384
-0.998606, 293, 199, 324, 214
-0.998607, 89, 53, 152, 68
-0.998607, 145, 181, 208, 196
-0.998608, 185, 181, 248, 196
-0.99861, 113, 219, 176, 234
-0.998611, 273, 7, 336, 22
-0.998611, 329, 55, 392, 70
-0.998612, 25, 25, 88, 40
-0.998613, 233, 5, 296, 20
-0.998617, 121, 231, 184, 246
-0.998617, 57, 219, 120, 234
-0.998617, 17, 237, 80, 252
-0.998618, 433, 287, 496, 302
-0.998618, 305, 245, 368, 260
-0.998618, 433, 279, 496, 294
-0.998621, 113, 189, 176, 204
-0.998622, 225, 39, 288, 54
-0.998622, 1, 177, 64, 192
-0.998622, 1, 25, 64, 40
-0.998623, 81, 183, 144, 198
-0.998624, 393, 253, 456, 268
-0.998626, 409, 285, 472, 300
-0.998626, 281, 45, 344, 60
-0.998627, 377, 193, 440, 208
-0.998627, 73, 207, 136, 222
-0.99863, 33, 15, 96, 30
-0.99863, 25, 53, 88, 68
-0.998631, 305, 221, 368, 236
-0.998632, 417, 1, 480, 16
-0.998632, 121, 31, 184, 46
-0.998632, 89, 31, 152, 46
-0.998633, 225, 17, 288, 32
-0.998635, 197, 205, 228, 220
-0.998637, 185, 239, 248, 254
-0.998638, 361, 259, 424, 274
-0.998639, 385, 281, 448, 296
-0.998641, 361, 43, 424, 58
-0.998666, 129, 65, 160, 320
-0.99867, 157, 65, 188, 320
-0.998673, 57, 97, 88, 352
-0.99868, 113, 301, 240, 332
-0.998695, 25, 65, 56, 320
-0.998699, 81, 33, 112, 288
-0.9987, 145, 105, 272, 136
-0.9987, 405, 209, 420, 336
-0.998705, 353, 141, 480, 172
-0.99873, 279, 177, 294, 304
-0.998735, 381, 193, 396, 320
-0.99874, 369, 305, 496, 336
-0.998741, 49, 257, 176, 288
-0.998743, 289, 177, 304, 304
-0.998743, 161, 369, 288, 429
-0.998766, 1, 97, 128, 128
-0.998767, 129, 289, 256, 320
-0.998773, 105, 65, 136, 320
-0.998775, 145, 153, 272, 184
-0.998776, 17, 277, 144, 308
-0.998777, 397, 241, 412, 368
-0.998791, 421, 1, 452, 256
-0.998801, 341, 33, 372, 288
-0.99884, 395, 193, 410, 320
-0.998845, 445, 161, 476, 416
-0.998852, 49, 145, 176, 176
-0.998854, 411, 241, 426, 368
-0.998855, 299, 177, 314, 304
-0.998862, 1, 293, 128, 324
-0.998865, 177, 293, 304, 324
-0.998874, 33, 161, 64, 416
-0.998879, 113, 305, 240, 429
-0.998885, 145, 93, 272, 124
-0.998887, 369, 193, 384, 320
-0.998887, 273, 89, 400, 120
-0.998894, 65, 101, 192, 132
-0.99891, 203, 209, 218, 336
-0.998918, 81, 117, 208, 148
-0.998927, 469, 161, 500, 416
-0.998929, 151, 177, 166, 304
-0.998948, 209, 209, 224, 336
-0.998955, 189, 177, 204, 304
-0.998968, 273, 177, 288, 304
-0.998982, 457, 161, 488, 416
-0.998984, 391, 241, 406, 368
-0.998984, 325, 1, 356, 256
-0.999002, 411, 193, 426, 320
-0.99904, 93, 1, 124, 256
-0.999055, 305, 177, 320, 304
-0.999058, 225, 177, 240, 304
-0.999061, 1, 265, 256, 328
-0.999061, 375, 225, 390, 352
-0.999064, 197, 209, 212, 336
-0.999067, 263, 177, 278, 304
-0.999073, 175, 177, 190, 304
-0.999084, 363, 209, 378, 336
-0.999084, 385, 241, 400, 368
-0.999088, 313, 1, 344, 256
-0.99909, 321, 193, 336, 320
-0.99909, 401, 161, 416, 288
-0.999098, 297, 225, 312, 352
-0.999103, 181, 177, 196, 304
-0.999104, 159, 161, 174, 288
-0.999112, 245, 177, 260, 304
-0.999116, 417, 241, 432, 368
-0.999139, 219, 177, 234, 304
-0.999151, 143, 177, 158, 304
-0.999153, 231, 177, 246, 304
-0.999153, 165, 209, 180, 336
-0.999171, 375, 177, 390, 304
-0.999181, 157, 209, 172, 336
-0.999189, 453, 1, 484, 256
-0.999191, 253, 177, 268, 304
-0.999191, 311, 225, 326, 352
-0.999196, 469, 1, 500, 256
-0.999197, 197, 161, 212, 288
-0.999205, 353, 369, 480, 429
-0.999222, 237, 161, 252, 288
-0.999228, 403, 257, 418, 384
-0.999228, 239, 209, 254, 336
-0.999231, 71, 161, 86, 288
-0.999238, 357, 193, 372, 320
-0.999249, 289, 225, 304, 352
-0.999252, 93, 177, 108, 304
-0.999255, 311, 177, 326, 304
-0.999261, 417, 193, 432, 320
-0.999267, 13, 65, 44, 320
-0.999276, 281, 129, 296, 256
-0.999294, 283, 225, 298, 352
-0.999295, 203, 161, 218, 288
-0.999295, 393, 17, 408, 144
-0.999296, 271, 129, 286, 256
-0.999296, 77, 145, 92, 272
-0.999304, 367, 145, 382, 272
-0.999304, 65, 161, 80, 288
-0.999312, 73, 209, 88, 336
-0.999318, 131, 177, 146, 304
-0.999323, 463, 1, 478, 128
-0.999324, 331, 177, 346, 304
-0.999324, 83, 161, 98, 288
-0.999325, 169, 1, 184, 128
-0.99934, 137, 193, 152, 320
-0.99934, 169, 161, 184, 288
-0.999345, 399, 17, 414, 144
-0.999345, 423, 273, 438, 400
-0.999349, 439, 1, 454, 128
-0.999349, 349, 1, 364, 128
-0.999351, 423, 209, 438, 336
-0.999352, 209, 161, 224, 288
-0.999357, 217, 225, 232, 352
-0.999357, 225, 225, 240, 352
-0.999361, 245, 225, 260, 352
-0.999362, 233, 225, 248, 352
-0.999372, 107, 1, 122, 128
-0.999373, 343, 1, 358, 128
-0.999373, 59, 161, 74, 288
-0.999374, 289, 129, 304, 256
-0.999382, 333, 1, 348, 128
-0.999383, 303, 225, 318, 352
-0.999392, 387, 17, 402, 144
-0.999392, 99, 177, 114, 304
-0.999394, 407, 17, 422, 144
-0.9994, 295, 129, 310, 256
-0.9994, 391, 145, 406, 272
-0.999403, 133, 1, 148, 128
-0.999404, 67, 209, 82, 336
-0.999406, 183, 225, 198, 352
-0.999407, 327, 225, 342, 352
-0.999412, 429, 273, 444, 400
-0.999414, 1, 65, 32, 320
-0.999415, 277, 225, 292, 352
-0.999428, 321, 145, 336, 272
-0.999433, 79, 209, 94, 336
-0.999439, 369, 257, 384, 384
-0.99944, 439, 273, 454, 400
-0.999444, 357, 145, 372, 272
-0.999444, 263, 1, 278, 128
-0.999448, 327, 1, 342, 128
-0.999448, 251, 225, 266, 352
-0.999449, 105, 177, 120, 304
-0.99945, 475, 225, 490, 352
-0.999453, 457, 1, 472, 128
-0.999455, 381, 145, 396, 272
-0.999457, 469, 1, 484, 128
-0.999461, 61, 225, 76, 352
-0.999467, 53, 177, 68, 304
-0.999469, 151, 225, 166, 352
-0.999469, 185, 129, 200, 256
-0.999473, 469, 225, 484, 352
-0.999475, 415, 289, 430, 416
-0.999475, 413, 145, 428, 272
-0.999479, 53, 225, 68, 352
-0.999481, 483, 225, 498, 352
-0.999481, 449, 273, 464, 400
-0.999482, 175, 1, 190, 128
-0.999482, 113, 1, 128, 128
-0.999483, 127, 17, 142, 144
-0.999486, 337, 193, 352, 320
-0.999487, 317, 241, 332, 368
-0.99949, 149, 129, 164, 256
-0.999492, 189, 241, 204, 368
-0.999499, 87, 209, 102, 336
-0.999499, 143, 129, 158, 256
-0.9995, 347, 193, 362, 320
-0.999501, 413, 49, 428, 176
-0.999503, 445, 1, 460, 128
-0.999504, 117, 161, 132, 288
-0.999506, 463, 225, 478, 352
-0.999611, 229, 205, 244, 220
-0.999611, 181, 229, 196, 244
-0.999612, 205, 227, 220, 242
-0.999616, 211, 227, 226, 242
-0.999616, 281, 211, 296, 226
-0.999617, 287, 43, 302, 58
-0.999618, 171, 195, 186, 210
-0.999618, 273, 39, 288, 54
-0.999618, 311, 233, 326, 248
-0.999618, 171, 233, 186, 248
-0.999619, 349, 209, 364, 224
-0.999619, 265, 211, 280, 226
-0.99962, 407, 207, 422, 222
-0.99962, 275, 241, 290, 256
-0.99962, 223, 223, 238, 238
-0.999621, 241, 179, 256, 194
-0.999623, 407, 247, 422, 262
-0.999623, 335, 199, 350, 214
-0.999623, 235, 221, 250, 236
-0.999624, 311, 201, 326, 216
-0.999624, 401, 207, 416, 222
-0.999625, 397, 253, 412, 268
-0.999625, 295, 221, 310, 236
-0.999625, 419, 227, 434, 242
-0.999625, 335, 209, 350, 224
-0.999625, 311, 241, 326, 256
-0.999626, 149, 227, 164, 242
-0.999627, 259, 191, 274, 206
-0.999627, 181, 193, 196, 208
-0.99963, 181, 205, 196, 220
-0.99963, 303, 205, 318, 220
-0.99963, 195, 213, 210, 228
-0.99963, 287, 209, 302, 224
-0.99963, 233, 211, 248, 226
-0.999631, 161, 199, 176, 214
-0.999632, 277, 13, 292, 28
-0.999633, 401, 233, 416, 248
-0.999633, 347, 199, 362, 214
-0.999634, 397, 241, 412, 256
-0.999635, 225, 191, 240, 206
-0.999635, 133, 195, 148, 210
-0.999636, 305, 241, 320, 256
-0.999636, 365, 201, 380, 216
-0.999636, 223, 231, 238, 246
-0.999636, 271, 173, 286, 188
-0.999637, 399, 201, 414, 216
-0.999637, 167, 225, 182, 240
-0.999637, 189, 209, 204, 224
-0.999639, 275, 207, 290, 222
-0.999639, 281, 239, 296, 254
-0.99964, 201, 221, 216, 236
-0.999642, 219, 201, 234, 216
-0.999642, 227, 215, 242, 230
-0.999643, 181, 199, 196, 214
-0.999644, 223, 237, 238, 252
-0.999644, 161, 225, 176, 240
-0.999644, 209, 221, 224, 236
-0.999644, 213, 199, 228, 214
-0.999645, 103, 193, 118, 208
-0.999646, 233, 187, 248, 202
-0.999647, 281, 41, 296, 56
-0.999647, 325, 215, 340, 230
-0.999648, 395, 217, 410, 232
-0.999648, 365, 219, 380, 234
-0.999648, 151, 183, 166, 198
-0.999649, 257, 201, 272, 216
-0.999652, 161, 191, 176, 206
-0.999652, 187, 189, 202, 204
-0.999652, 311, 221, 326, 236
-0.999653, 155, 197, 170, 212
-0.999654, 191, 203, 206, 218
-0.999654, 213, 211, 228, 226
-0.999654, 195, 197, 210, 212
-0.999654, 395, 211, 410, 226
-0.999654, 381, 207, 396, 222
-0.999656, 267, 197, 282, 212
-0.999656, 355, 209, 370, 224
-0.999657, 143, 191, 158, 206
-0.999659, 297, 189, 312, 204
-0.99966, 403, 253, 418, 268
-0.99966, 359, 199, 374, 214
-0.99966, 441, 1, 472, 256
-0.999662, 307, 213, 322, 228
-0.999662, 279, 233, 294, 248
-0.999662, 157, 185, 172, 200
-0.999664, 341, 199, 356, 214
-0.999667, 173, 203, 188, 218
-0.999667, 329, 201, 344, 216
-0.999668, 403, 225, 418, 240
-0.999668, 207, 209, 222, 224
-0.999671, 175, 187, 190, 202
-0.999673, 281, 205, 296, 220
-0.999675, 277, 197, 292, 212
-0.999675, 115, 187, 130, 202
-0.999675, 243, 201, 258, 216
-0.999676, 173, 225, 188, 240
-0.999678, 397, 227, 412, 242
-0.999678, 151, 191, 166, 206
-0.999679, 217, 231, 232, 246
-0.999679, 279, 227, 294, 242
-0.999681, 95, 189, 110, 204
-0.999681, 249, 201, 264, 216
-0.999683, 303, 219, 318, 234
-0.999684, 361, 213, 376, 228
-0.999685, 125, 185, 140, 200
-0.999687, 267, 183, 282, 198
-0.999688, 201, 203, 216, 218
-0.999689, 21, 161, 52, 416
-0.99969, 291, 203, 306, 218
-0.99969, 271, 191, 286, 206
-0.999692, 221, 207, 236, 222
-0.999696, 277, 191, 292, 206
-0.999703, 297, 201, 312, 216
-0.999704, 227, 183, 242, 198
-0.999705, 253, 193, 268, 208
-0.999708, 389, 205, 404, 220
-0.999712, 305, 197, 320, 212
-0.999716, 407, 231, 422, 246
-0.999717, 277, 185, 292, 200
-0.999717, 277, 177, 292, 192
-0.999719, 105, 187, 120, 202
-0.999721, 213, 205, 228, 220
-0.999724, 265, 191, 280, 206
-0.999724, 207, 203, 222, 218
-0.999733, 313, 215, 328, 230
-0.999742, 287, 191, 302, 206
-0.999744, 161, 345, 416, 408
-0.999744, 291, 185, 306, 200
-0.999746, 235, 179, 250, 194
-0.999749, 285, 181, 300, 196
-0.999761, 285, 199, 300, 214
-0.999783, 413, 225, 428, 240
-0.999793, 295, 195, 310, 210
-0.999797, 161, 369, 416, 429
-0.999823, 33, 361, 288, 424
-0.999938, 141, 1, 172, 256
-0.999999, 117, 1, 148, 256
-1.00005, 33, 329, 288, 392
-1.00006, 257, 369, 500, 429
-1.00031, 257, 345, 500, 408
-1.00033, 5, 161, 36, 416
-1.0016, 1, 345, 500, 408
-1.00193, 1, 369, 500, 429
