1880
-0.450464, 1, 1, 500, 333
-0.480943, 1, 1, 500, 256
-0.516059, 65, 1, 320, 333
-0.593269, 161, 1, 416, 333
-0.645588, 257, 1, 500, 333
-0.658459, 97, 65, 352, 320
-0.727235, 1, 65, 256, 320
-0.79119, 193, 33, 448, 288
-0.882814, 81, 1, 208, 333
-0.884368, 1, 65, 128, 320
-0.884642, 97, 65, 224, 320
-0.892568, 1, 1, 128, 333
-0.892799, 1, 97, 500, 224
-0.893052, 145, 1, 272, 333
-0.899497, 193, 1, 320, 333
-0.899556, 145, 65, 272, 320
-0.901179, 49, 1, 176, 256
-0.901576, 193, 1, 320, 256
-0.913105, 97, 113, 352, 240
-0.916219, 241, 1, 368, 333
-0.917765, 241, 65, 368, 320
-0.921099, 289, 65, 416, 320
-0.921362, 1, 49, 500, 176
-0.922126, 289, 1, 416, 333
-0.925117, 353, 1, 480, 333
-0.925856, 1, 193, 500, 320
-0.930235, 369, 1, 496, 256
-0.932513, 1, 145, 500, 272
-0.934482, 1, 1, 500, 128
-0.935625, 129, 113, 256, 240
-0.938242, 1, 129, 256, 256
-0.939992, 89, 145, 152, 272
-0.940381, 97, 65, 352, 192
-0.94072, 65, 177, 192, 304
-0.941592, 113, 129, 176, 256
-0.941996, 33, 193, 288, 320
-0.942904, 65, 129, 192, 256
-0.943325, 65, 145, 128, 272
-0.945264, 1, 129, 128, 256
-0.946078, 257, 81, 500, 208
-0.946402, 41, 129, 104, 256
-0.94705, 1, 65, 256, 192
-0.949285, 81, 193, 144, 320
-0.954046, 145, 113, 208, 240
-0.955414, 177, 129, 304, 256
-0.955798, 97, 137, 160, 200
-0.95661, 57, 193, 120, 320
-0.956981, 65, 217, 128, 280
-0.957502, 17, 177, 144, 304
-0.957664, 241, 113, 368, 240
-0.957962, 129, 129, 192, 192
-0.958616, 209, 113, 272, 240
-0.959125, 33, 81, 160, 208
-0.959983, 57, 145, 120, 208
-0.960536, 273, 129, 336, 256
-0.960751, 289, 81, 416, 208
-0.961101, 89, 97, 152, 224
-0.962252, 89, 201, 152, 264
-0.962717, 105, 193, 168, 320
-0.962954, 241, 129, 304, 192
-0.962976, 153, 121, 216, 184
-0.963214, 193, 65, 320, 192
-0.963583, 249, 113, 312, 240
-0.963718, 169, 113, 232, 240
-0.963975, 65, 97, 128, 224
-0.964154, 257, 129, 500, 256
-0.965176, 89, 169, 152, 232
-0.965628, 101, 145, 132, 272
-0.966023, 257, 33, 500, 160
-0.966356, 17, 129, 80, 256
-0.966593, 217, 129, 280, 192
-0.966991, 129, 161, 384, 288
-0.967285, 265, 129, 328, 192
-0.967678, 129, 65, 256, 192
-0.96788, 97, 17, 352, 144
-0.968296, 113, 201, 176, 264
-0.9684, 369, 65, 496, 192
-0.969337, 305, 81, 368, 208
-0.969613, 25, 81, 88, 208
-0.970191, 1, 129, 64, 192
-0.970505, 81, 81, 208, 208
-0.970884, 201, 105, 264, 168
-0.970935, 425, 65, 488, 192
-0.970967, 113, 193, 240, 320
-0.97111, 241, 65, 368, 192
-0.971154, 89, 113, 152, 176
-0.971208, 129, 121, 256, 184
-0.971412, 137, 193, 200, 256
-0.971605, 41, 241, 104, 304
-0.971661, 97, 169, 128, 232
-0.971898, 433, 89, 496, 152
-0.971923, 177, 113, 240, 176
-0.97236, 129, 105, 192, 168
-0.972389, 129, 177, 192, 304
-0.972506, 129, 129, 160, 256
-0.972756, 129, 209, 384, 333
-0.97305, 289, 129, 416, 256
-0.973102, 117, 129, 148, 256
-0.973175, 25, 137, 88, 200
-0.973734, 265, 105, 328, 168
-0.973998, 93, 145, 124, 208
-0.974038, 81, 145, 112, 208
-0.974162, 77, 145, 108, 272
-0.97433, 121, 65, 184, 192
-0.97484, 1, 17, 256, 144
-0.975023, 225, 105, 288, 168
-0.975335, 125, 129, 156, 192
-0.975732, 425, 65, 488, 128
-0.975881, 169, 65, 232, 192
-0.976085, 81, 193, 208, 256
-0.976459, 1, 81, 64, 208
-0.97648, 145, 65, 208, 192
-0.976483, 289, 113, 352, 176
-0.97649, 225, 161, 288, 288
-0.97668, 65, 177, 128, 240
-0.977227, 137, 129, 168, 192
-0.977491, 65, 65, 128, 320
-0.977594, 89, 177, 120, 304
-0.977836, 257, 209, 320, 333
-0.977873, 273, 81, 336, 208
-0.97809, 105, 137, 136, 200
-0.978098, 149, 113, 180, 240
-0.978223, 25, 65, 88, 320
-0.978414, 17, 145, 144, 208
-0.978417, 249, 65, 312, 192
-0.978444, 225, 113, 352, 176
-0.978548, 81, 137, 208, 200
-0.978597, 93, 193, 124, 256
-0.978597, 305, 89, 368, 152
-0.978724, 65, 249, 128, 312
-0.978987, 217, 121, 248, 184
-0.979041, 369, 17, 496, 144
-0.979245, 201, 65, 264, 192
-0.979293, 149, 121, 180, 184
-0.979451, 113, 209, 144, 272
-0.97959, 209, 193, 336, 320
-0.979768, 65, 113, 128, 176
-0.979875, 33, 113, 160, 176
-0.979922, 61, 129, 92, 256
-0.979973, 113, 193, 144, 320
-0.980022, 33, 217, 160, 280
-0.980068, 49, 233, 80, 296
-0.98019, 457, 65, 488, 128
-0.980224, 177, 129, 304, 192
-0.980329, 93, 217, 124, 280
-0.980774, 269, 129, 300, 192
-0.980784, 289, 137, 352, 200
-0.980901, 193, 137, 256, 200
-0.980925, 105, 65, 168, 320
-0.981327, 89, 225, 152, 288
-0.981477, 297, 129, 360, 256
-0.981491, 33, 209, 96, 333
-0.981506, 245, 129, 276, 192
-0.981562, 257, 209, 320, 272
-0.981625, 225, 209, 480, 333
-0.981637, 273, 113, 304, 240
-0.981706, 81, 33, 208, 160
-0.981824, 153, 97, 216, 160
-0.981827, 249, 161, 312, 288
-0.981862, 241, 137, 368, 200
-0.981898, 17, 185, 144, 248
-0.981906, 445, 57, 476, 120
-0.982071, 221, 113, 252, 240
-0.982124, 177, 113, 208, 176
-0.982143, 21, 129, 52, 192
-0.982259, 369, 113, 496, 240
-0.982329, 49, 137, 80, 200
-0.982368, 65, 169, 192, 232
-0.982499, 5, 113, 36, 240
-0.982557, 329, 81, 392, 208
-0.982587, 245, 129, 276, 256
-0.982588, 33, 105, 96, 168
-0.98269, 189, 121, 220, 184
-0.982712, 125, 201, 156, 264
-0.982724, 257, 129, 288, 192
-0.98276, 229, 129, 260, 192
-0.982849, 225, 65, 288, 192
-0.98288, 81, 113, 208, 176
-0.983004, 449, 89, 480, 152
-0.983009, 161, 121, 192, 184
-0.983048, 101, 193, 132, 320
-0.983261, 137, 105, 168, 168
-0.983355, 169, 65, 232, 320
-0.983406, 77, 225, 108, 288
-0.983435, 161, 113, 192, 240
-0.983435, 61, 209, 92, 333
-0.98377, 97, 97, 128, 224
-0.983775, 289, 97, 416, 160
-0.983843, 177, 105, 304, 168
-0.98385, 409, 17, 472, 144
-0.984129, 257, 209, 384, 333
-0.984139, 461, 41, 492, 104
-0.984152, 69, 145, 100, 208
-0.984172, 261, 129, 292, 256
-0.984215, 161, 193, 288, 320
-0.984266, 145, 65, 208, 320
-0.984266, 185, 113, 216, 240
-0.984356, 233, 209, 296, 333
-0.984447, 161, 193, 224, 256
-0.984465, 321, 137, 384, 200
-0.984638, 41, 217, 104, 280
-0.984687, 73, 97, 104, 224
-0.984691, 49, 129, 80, 256
-0.984789, 129, 193, 256, 256
-0.984841, 233, 129, 264, 256
-0.984879, 109, 169, 140, 232
-0.985012, 285, 129, 316, 192
-0.985072, 85, 97, 116, 224
-0.985094, 209, 33, 272, 288
-0.98519, 433, 1, 496, 256
-0.985267, 1, 129, 32, 192
-0.985283, 289, 33, 416, 160
-0.985407, 453, 65, 484, 192
-0.985421, 61, 225, 92, 288
-0.985434, 289, 129, 416, 192
-0.985516, 77, 193, 108, 320
-0.985527, 109, 113, 140, 176
-0.985648, 113, 161, 176, 224
-0.985676, 285, 129, 316, 256
-0.985685, 33, 129, 64, 256
-0.986096, 329, 129, 392, 256
-0.986124, 125, 105, 156, 168
-0.986197, 249, 105, 280, 168
-0.986216, 297, 121, 328, 184
-0.986234, 257, 65, 320, 320
-0.986286, 133, 177, 164, 304
-0.986287, 353, 161, 480, 288
-0.986318, 173, 113, 204, 240
-0.98645, 89, 249, 152, 312
-0.986529, 461, 89, 492, 152
-0.986538, 37, 137, 68, 200
-0.98657, 17, 113, 48, 240
-0.986587, 81, 217, 208, 280
-0.986593, 9, 177, 72, 304
-0.986666, 137, 193, 168, 256
-0.986863, 65, 1, 128, 333
-0.986876, 417, 41, 480, 104
-0.986901, 129, 97, 256, 160
-0.98709, 49, 241, 176, 304
-0.987101, 153, 161, 216, 288
-0.987121, 89, 1, 152, 333
-0.987202, 369, 81, 432, 208
-0.987203, 205, 129, 236, 256
-0.987401, 137, 81, 168, 208
-0.987414, 409, 89, 472, 152
-0.987472, 1, 65, 64, 320
-0.987722, 289, 65, 352, 320
-0.987737, 153, 185, 184, 248
-0.987761, 233, 201, 296, 264
-0.987769, 297, 129, 328, 256
-0.987832, 17, 233, 80, 296
-0.987857, 205, 113, 236, 176
-0.987908, 193, 201, 320, 264
-0.987917, 369, 73, 496, 136
-0.987922, 241, 81, 272, 208
-0.988035, 73, 49, 136, 176
-0.988067, 337, 97, 400, 160
-0.988124, 97, 137, 160, 168
-0.988128, 33, 1, 160, 128
-0.988142, 281, 177, 344, 304
-0.988163, 401, 65, 464, 192
-0.9882, 57, 81, 88, 208
-0.988264, 145, 177, 176, 304
-0.988362, 233, 1, 296, 256
-0.98842, 97, 121, 352, 184
-0.988421, 65, 249, 96, 312
-0.988582, 153, 1, 216, 333
-0.988594, 433, 129, 496, 256
-0.988704, 113, 225, 176, 288
-0.988753, 313, 113, 376, 176
-0.988781, 209, 201, 272, 264
-0.988785, 185, 193, 248, 256
-0.988793, 121, 153, 152, 216
-0.988804, 425, 1, 488, 333
-0.988843, 249, 169, 312, 232
-0.98887, 273, 105, 304, 168
-0.988883, 165, 193, 196, 256
-0.989005, 153, 121, 216, 152
-0.989085, 9, 105, 72, 168
-0.989094, 437, 81, 468, 144
-0.989113, 25, 1, 88, 333
-0.989138, 465, 33, 496, 160
-0.989164, 353, 97, 480, 160
-0.989248, 129, 1, 192, 333
-0.989288, 37, 81, 68, 208
-0.989305, 289, 73, 416, 136
-0.989318, 177, 89, 240, 152
-0.989448, 237, 105, 268, 168
-0.989456, 77, 169, 108, 232
-0.989612, 129, 129, 192, 160
-0.989615, 97, 153, 160, 184
-0.989643, 241, 125, 304, 156
-0.989699, 109, 81, 140, 208
-0.989727, 225, 177, 288, 240
-0.989775, 409, 161, 472, 288
-0.989827, 285, 105, 316, 168
-0.989879, 157, 97, 188, 160
-0.989891, 313, 81, 344, 208
-0.9899, 177, 1, 240, 333
-0.989901, 265, 125, 328, 156
-0.98999, 177, 121, 240, 152
-0.990015, 201, 121, 264, 152
-0.990112, 205, 137, 236, 200
-0.990149, 81, 213, 144, 244
-0.990153, 121, 81, 152, 208
-0.990168, 129, 193, 192, 224
-0.990178, 81, 193, 112, 256
-0.99019, 301, 81, 332, 208
-0.99019, 273, 33, 336, 160
-0.990193, 41, 185, 104, 248
-0.990214, 73, 145, 136, 176
-0.990223, 65, 225, 128, 256
-0.990283, 253, 81, 284, 208
-0.990305, 145, 217, 272, 280
-0.990339, 225, 89, 352, 152
-0.990354, 85, 121, 116, 184
-0.990365, 201, 133, 264, 164
-0.990436, 265, 209, 296, 333
-0.99051, 329, 81, 360, 208
-0.990665, 217, 1, 280, 333
-0.9907, 105, 209, 168, 240
-0.99074, 81, 197, 144, 228
-0.99088, 1, 1, 64, 333
-0.990893, 73, 133, 136, 164
-0.990906, 49, 145, 112, 176
-0.990909, 121, 141, 184, 172
-0.990916, 265, 113, 328, 144
-0.990917, 433, 89, 496, 120
-0.990917, 305, 177, 432, 304
-0.990958, 89, 185, 152, 216
-0.990963, 169, 201, 232, 232
-0.990987, 265, 137, 328, 168
-0.991022, 41, 225, 104, 256
-0.991037, 433, 193, 496, 320
-0.991088, 77, 249, 108, 312
-0.991099, 249, 209, 312, 240
-0.991105, 169, 65, 200, 192
-0.991119, 193, 65, 224, 192
-0.991137, 105, 197, 168, 228
-0.991164, 41, 245, 104, 276
-0.991202, 9, 133, 72, 164
-0.991211, 289, 125, 352, 156
-0.991232, 65, 177, 128, 208
-0.991286, 89, 165, 152, 196
-0.9913, 217, 97, 248, 160
-0.991337, 241, 137, 304, 168
-0.99138, 129, 117, 192, 148
-0.991386, 433, 77, 496, 108
-0.991414, 137, 169, 200, 232
-0.991491, 57, 165, 120, 196
-0.991504, 189, 97, 220, 160
-0.991548, 97, 49, 160, 176
-0.991594, 217, 145, 280, 176
-0.991598, 281, 177, 312, 304
-0.991603, 129, 205, 192, 236
-0.99164, 177, 109, 240, 140
-0.991657, 249, 153, 312, 184
-0.991663, 225, 153, 288, 216
-0.99173, 157, 49, 188, 176
-0.991731, 353, 209, 480, 333
-0.991756, 205, 65, 236, 192
-0.991767, 109, 241, 140, 304
-0.991769, 265, 81, 328, 144
-0.991796, 469, 65, 500, 128
-0.991856, 65, 245, 128, 276
-0.991911, 353, 161, 416, 288
-0.991976, 125, 133, 156, 164
-0.992007, 65, 89, 192, 152
-0.992017, 1, 241, 128, 304
-0.992024, 153, 133, 216, 164
-0.99203, 45, 105, 76, 168
-0.992032, 105, 121, 168, 152
-0.992033, 305, 85, 368, 116
-0.992041, 153, 109, 216, 140
-0.992042, 17, 209, 80, 272
-0.992071, 225, 113, 288, 144
-0.992078, 201, 201, 264, 232
-0.992083, 265, 233, 328, 296
-0.992086, 201, 109, 264, 140
-0.992089, 169, 213, 232, 244
-0.99213, 17, 233, 80, 264
-0.992133, 329, 137, 392, 168
-0.992144, 301, 97, 332, 160
-0.992149, 145, 217, 208, 248
-0.992165, 49, 233, 80, 264
-0.992176, 113, 133, 144, 164
-0.992192, 101, 145, 132, 176
-0.992211, 217, 129, 248, 160
-0.992223, 153, 217, 216, 280
-0.992237, 181, 65, 212, 192
-0.992238, 313, 65, 376, 128
-0.99224, 121, 153, 184, 184
-0.992256, 281, 161, 344, 224
-0.992259, 209, 17, 336, 144
-0.992265, 177, 177, 304, 240
-0.992267, 137, 137, 168, 168
-0.992274, 409, 77, 472, 108
-0.992294, 1, 113, 256, 176
-0.992311, 93, 177, 124, 208
-0.992318, 177, 117, 208, 148
-0.992327, 297, 137, 360, 168
-0.992328, 89, 241, 152, 272
-0.992337, 261, 105, 292, 168
-0.992341, 225, 213, 288, 244
-0.992343, 121, 145, 152, 176
-0.992354, 289, 113, 352, 144
-0.992379, 145, 121, 272, 152
-0.992391, 305, 153, 432, 216
-0.992394, 249, 1, 312, 333
-0.992396, 417, 65, 480, 96
-0.992415, 241, 209, 368, 272
-0.992416, 257, 229, 320, 260
-0.99243, 245, 125, 276, 156
-0.992442, 101, 161, 132, 192
-0.992457, 449, 81, 480, 112
-0.992459, 177, 133, 240, 164
-0.992464, 49, 129, 112, 160
-0.99247, 313, 129, 344, 256
-0.992477, 161, 17, 288, 144
-0.992496, 409, 89, 472, 120
-0.992497, 89, 249, 120, 312
-0.9925, 433, 45, 496, 76
-0.992514, 25, 65, 56, 192
-0.99253, 153, 209, 216, 333
-0.992546, 229, 65, 260, 192
-0.992557, 277, 201, 308, 264
-0.992558, 81, 149, 112, 180
-0.992568, 73, 273, 136, 304
-0.992569, 157, 125, 188, 156
-0.99257, 273, 209, 336, 240
-0.992596, 189, 121, 220, 152
-0.992598, 333, 129, 364, 256
-0.992611, 245, 137, 276, 168
-0.992616, 45, 245, 76, 276
-0.992617, 93, 189, 124, 220
-0.992628, 217, 65, 248, 192
-0.992631, 201, 217, 264, 248
-0.992638, 329, 137, 360, 200
-0.992649, 265, 141, 296, 172
-0.992652, 313, 121, 376, 152
-0.992652, 257, 129, 288, 160
-0.992716, 277, 129, 308, 160
-0.992724, 229, 129, 260, 160
-0.992734, 57, 209, 120, 240
-0.992738, 293, 121, 324, 152
-0.992743, 257, 161, 384, 224
-0.992748, 121, 201, 152, 232
-0.992751, 133, 197, 164, 228
-0.992755, 81, 177, 112, 208
-0.992759, 353, 137, 480, 200
-0.992764, 225, 157, 288, 188
-0.992765, 273, 1, 336, 333
-0.992792, 465, 85, 496, 116
-0.992793, 109, 213, 140, 244
-0.992798, 69, 225, 100, 256
-0.992821, 225, 65, 352, 128
-0.99283, 101, 133, 132, 164
-0.99283, 169, 89, 200, 152
-0.992839, 37, 233, 68, 264
-0.992847, 165, 113, 196, 144
-0.992849, 73, 261, 136, 292
-0.99285, 57, 245, 88, 276
-0.992866, 289, 217, 352, 280
-0.992869, 41, 177, 104, 208
-0.992871, 193, 145, 256, 176
-0.992877, 209, 117, 240, 148
-0.992883, 1, 121, 64, 152
-0.992883, 253, 153, 284, 184
-0.992887, 137, 125, 168, 156
-0.992893, 129, 105, 192, 136
-0.992898, 313, 73, 376, 104
-0.9929, 89, 225, 152, 256
-0.992909, 81, 165, 112, 196
-0.992921, 297, 101, 360, 132
-0.992933, 153, 189, 216, 220
-0.992935, 345, 129, 376, 192
-0.992943, 97, 201, 128, 232
-0.992945, 69, 245, 100, 276
-0.992957, 201, 129, 232, 160
-0.992962, 21, 133, 52, 164
-0.992979, 289, 149, 352, 180
-0.992979, 177, 81, 304, 144
-0.99298, 57, 189, 120, 220
-0.992986, 5, 129, 36, 160
-0.993001, 353, 137, 416, 200
-0.993003, 97, 277, 160, 308
-0.993003, 225, 201, 288, 232
-0.993004, 49, 141, 80, 172
-0.993005, 453, 69, 484, 100
-0.993013, 93, 217, 124, 248
-0.993014, 61, 145, 92, 176
-0.993015, 37, 137, 68, 168
-0.993039, 133, 149, 164, 180
-0.993039, 305, 129, 336, 160
-0.993042, 57, 221, 88, 252
-0.993062, 313, 149, 376, 180
-0.993068, 109, 189, 140, 220
-0.993071, 113, 233, 176, 264
-0.993073, 177, 217, 240, 280
-0.993075, 145, 193, 176, 224
-0.993085, 101, 277, 132, 308
-0.993088, 461, 45, 492, 76
-0.993095, 449, 93, 480, 124
-0.993107, 437, 85, 468, 116
-0.993109, 233, 141, 264, 172
-0.993116, 265, 153, 296, 184
-0.993116, 113, 221, 176, 252
-0.993119, 99, 145, 114, 208
-0.993119, 289, 185, 352, 248
-0.993122, 133, 153, 164, 216
-0.993126, 229, 117, 260, 148
-0.993133, 49, 265, 112, 296
-0.993139, 17, 89, 144, 152
-0.993141, 349, 81, 380, 208
-0.993143, 177, 193, 240, 320
-0.993149, 265, 245, 328, 276
-0.993153, 17, 245, 80, 276
-0.993155, 89, 137, 120, 168
-0.993158, 289, 73, 352, 104
-0.993159, 269, 117, 300, 148
-0.993162, 173, 209, 204, 240
-0.993163, 293, 133, 324, 164
-0.993165, 433, 145, 496, 208
-0.993171, 99, 177, 114, 240
-0.993172, 329, 165, 392, 196
-0.993179, 149, 137, 180, 168
-0.99318, 281, 205, 312, 236
-0.993183, 141, 113, 172, 144
-0.993184, 105, 265, 168, 296
-0.993186, 117, 157, 148, 188
-0.993187, 105, 173, 136, 204
-0.993202, 157, 189, 188, 220
-0.993218, 25, 213, 88, 244
-0.993225, 105, 89, 168, 152
-0.993227, 257, 117, 288, 148
-0.993238, 321, 73, 352, 104
-0.99324, 97, 209, 352, 272
-0.993241, 265, 97, 328, 128
-0.993242, 113, 181, 176, 212
-0.993245, 401, 65, 464, 128
-0.993245, 81, 217, 112, 248
-0.99325, 233, 253, 296, 284
-0.993255, 261, 201, 292, 264
-0.993259, 109, 265, 140, 296
-0.993264, 29, 249, 60, 280
-0.993265, 157, 209, 188, 240
-0.993267, 65, 113, 96, 176
-0.993273, 209, 197, 240, 228
-0.993281, 197, 109, 228, 140
-0.993282, 101, 241, 132, 272
-0.993284, 269, 205, 300, 236
-0.993288, 277, 141, 308, 172
-0.993292, 173, 197, 204, 228
-0.993304, 393, 113, 456, 240
-0.993305, 221, 201, 252, 232
-0.993305, 325, 145, 356, 176
-0.993307, 433, 165, 496, 196
-0.993311, 465, 57, 496, 88
-0.993337, 49, 49, 112, 176
-0.993338, 85, 229, 116, 260
-0.993338, 353, 129, 416, 160
-0.993343, 1, 221, 64, 252
-0.993345, 89, 249, 120, 280
-0.993352, 409, 177, 472, 208
-0.993365, 221, 141, 252, 172
-0.993366, 113, 121, 144, 152
-0.993367, 345, 149, 376, 180
-0.993368, 409, 53, 472, 84
-0.993375, 297, 217, 360, 248
-0.993375, 433, 213, 496, 244
-0.993377, 81, 189, 112, 220
-0.993378, 289, 165, 352, 196
-0.993384, 125, 121, 156, 152
-0.993396, 293, 109, 324, 140
-0.9934, 197, 205, 228, 236
-0.993406, 49, 277, 112, 308
-0.993411, 181, 105, 212, 136
-0.993413, 121, 213, 152, 244
-0.993416, 377, 217, 440, 280
-0.993418, 309, 121, 340, 184
-0.993419, 425, 117, 488, 148
-0.993428, 109, 201, 140, 232
-0.99343, 345, 137, 376, 168
-0.993431, 209, 213, 240, 244
-0.993432, 145, 145, 208, 176
-0.993434, 245, 113, 276, 144
-0.993439, 305, 141, 336, 172
-0.993448, 437, 97, 468, 128
-0.993451, 249, 197, 312, 228
-0.993452, 309, 117, 340, 148
-0.993453, 97, 113, 128, 176
-0.993453, 121, 273, 152, 304
-0.99346, 365, 157, 396, 188
-0.993461, 153, 113, 184, 144
-0.993462, 121, 189, 152, 220
-0.993463, 445, 57, 476, 88
-0.993466, 469, 73, 500, 104
-0.993469, 461, 97, 492, 128
-0.993474, 409, 129, 472, 160
-0.993476, 17, 121, 48, 152
-0.993478, 109, 225, 140, 256
-0.99348, 265, 225, 296, 256
-0.99348, 285, 217, 316, 248
-0.993481, 321, 85, 352, 116
-0.993482, 249, 165, 312, 196
-0.993483, 177, 189, 240, 220
-0.993487, 25, 145, 88, 176
-0.99349, 1, 113, 500, 176
-0.993495, 49, 261, 80, 292
-0.993502, 281, 65, 312, 192
-0.993505, 77, 133, 108, 164
-0.993507, 433, 101, 496, 132
-0.993509, 185, 209, 216, 240
-0.99351, 281, 117, 312, 148
-0.993512, 205, 141, 236, 172
-0.993513, 169, 129, 200, 160
-0.993514, 289, 145, 320, 176
-0.993517, 65, 277, 96, 308
-0.993518, 161, 221, 192, 252
-0.993521, 61, 129, 92, 160
-0.993523, 241, 153, 272, 184
-0.993524, 257, 209, 288, 240
-0.993526, 33, 121, 64, 152
-0.993529, 25, 265, 88, 296
-0.99353, 189, 133, 220, 164
-0.993538, 1, 117, 32, 148
-0.993538, 85, 205, 116, 236
-0.99355, 297, 1, 360, 333
-0.993552, 233, 225, 296, 256
-0.993553, 337, 97, 400, 128
-0.993563, 369, 145, 432, 176
-0.993584, 17, 177, 80, 208
-0.99359, 13, 65, 44, 192
-0.993591, 193, 105, 448, 168
-0.993595, 253, 177, 284, 240
-0.993615, 377, 253, 440, 284
-0.993615, 441, 65, 472, 192
-0.993635, 409, 101, 472, 132
-0.99364, 361, 97, 424, 128
-0.993654, 257, 257, 320, 288
-0.993662, 353, 49, 480, 112
-0.993689, 65, 201, 96, 264
-0.993692, 137, 121, 152, 184
-0.993694, 97, 241, 224, 304
-0.993701, 361, 137, 392, 200
-0.993717, 329, 177, 392, 208
-0.993721, 393, 113, 456, 144
-0.993723, 33, 145, 288, 208
-0.993726, 289, 197, 352, 228
-0.993739, 337, 149, 400, 180
-0.993742, 393, 165, 456, 196
-0.993745, 81, 121, 144, 152
-0.993753, 353, 245, 416, 276
-0.993779, 25, 277, 88, 308
-0.993781, 89, 5, 152, 36
-0.993825, 459, 57, 474, 120
-0.993892, 201, 193, 264, 320
-0.993923, 361, 97, 424, 160
-0.993935, 33, 113, 64, 176
-0.994038, 321, 81, 352, 144
-0.99408, 17, 1, 144, 64
-0.994086, 113, 133, 240, 164
-0.994111, 97, 273, 160, 333
-0.99413, 105, 145, 120, 208
-0.994136, 177, 193, 208, 256
-0.994301, 385, 1, 448, 333
-0.994304, 313, 65, 376, 320
-0.994334, 127, 137, 142, 200
-0.994342, 1, 65, 32, 192
-0.994357, 93, 145, 108, 208
-0.994379, 377, 209, 440, 333
-0.994448, 289, 217, 416, 280
-0.994557, 157, 161, 188, 288
-0.994571, 17, 265, 144, 328
-0.994577, 33, 225, 160, 256
-0.994588, 65, 137, 192, 168
-0.994589, 97, 97, 352, 160
-0.994612, 121, 233, 152, 296
-0.994672, 97, 121, 224, 152
-0.994729, 209, 193, 240, 256
-0.99474, 113, 161, 240, 224
-0.994744, 105, 177, 120, 240
-0.994751, 97, 1, 224, 64
-0.994783, 121, 257, 184, 320
-0.994797, 233, 225, 296, 288
-0.994801, 385, 97, 448, 160
-0.994805, 13, 105, 44, 168
-0.994835, 265, 161, 296, 224
-0.994836, 129, 81, 192, 144
-0.994853, 225, 125, 352, 156
-0.994869, 97, 205, 224, 236
-0.994961, 409, 65, 472, 320
-0.995005, 353, 217, 416, 280
-0.995019, 469, 81, 500, 208
-0.995029, 177, 133, 304, 164
-0.995057, 257, 81, 500, 144
-0.995136, 369, 161, 496, 224
-0.995155, 345, 153, 376, 216
-0.995164, 121, 137, 136, 200
-0.995184, 245, 153, 276, 216
-0.995187, 193, 153, 320, 216
-0.995189, 369, 217, 496, 280
-0.995198, 81, 193, 208, 224
-0.995228, 225, 141, 352, 172
-0.99523, 289, 65, 352, 128
-0.995265, 377, 249, 440, 312
-0.995309, 145, 129, 160, 192
-0.995312, 1, 209, 256, 272
-0.995314, 271, 121, 286, 184
-0.995348, 111, 129, 126, 192
-0.99535, 441, 17, 472, 144
-0.995376, 129, 113, 144, 176
-0.995379, 17, 141, 144, 172
-0.995387, 249, 201, 280, 264
-0.995399, 209, 41, 336, 104
-0.995413, 205, 89, 236, 152
-0.995422, 329, 177, 392, 240
-0.995437, 161, 169, 224, 232
-0.99544, 87, 145, 102, 208
-0.995464, 181, 113, 196, 176
-0.995468, 221, 193, 252, 256
-0.995475, 61, 225, 76, 288
-0.995479, 49, 25, 176, 88
-0.995492, 305, 33, 368, 160
-0.995506, 433, 17, 496, 144
-0.995523, 453, 17, 484, 144
-0.995534, 65, 181, 192, 212
-0.995575, 193, 225, 320, 288
-0.995594, 369, 81, 400, 208
-0.995615, 113, 209, 128, 272
-0.99562, 149, 105, 164, 168
-0.995628, 163, 121, 178, 184
-0.995637, 195, 113, 210, 176
-0.99564, 153, 129, 168, 192
-0.995641, 1, 105, 32, 168
-0.995643, 33, 185, 288, 248
-0.99565, 97, 73, 352, 136
-0.995653, 33, 233, 288, 296
-0.995655, 189, 209, 220, 272
-0.995672, 93, 169, 108, 232
-0.995681, 465, 81, 480, 144
-0.99569, 329, 1, 392, 333
-0.995697, 417, 121, 480, 184
-0.995712, 123, 201, 138, 264
-0.995738, 93, 193, 108, 256
-0.995755, 241, 185, 368, 248
-0.995775, 177, 109, 304, 140
-0.995837, 97, 25, 224, 88
-0.995838, 113, 153, 128, 216
-0.995873, 273, 125, 400, 156
-0.995926, 245, 129, 260, 192
-0.99593, 283, 129, 298, 192
-0.995945, 209, 209, 336, 240
-0.996004, 65, 169, 192, 200
-0.99601, 229, 121, 244, 184
-0.996011, 61, 137, 76, 200
-0.996014, 37, 129, 52, 192
-0.996031, 451, 81, 466, 144
-0.996037, 95, 217, 110, 280
-0.996051, 17, 177, 144, 208
-0.99606, 169, 177, 200, 304
-0.996078, 241, 257, 304, 320
-0.996088, 77, 145, 92, 208
-0.9961, 265, 65, 296, 192
-0.996122, 1, 137, 500, 200
-0.996133, 201, 121, 216, 184
-0.996134, 103, 217, 118, 280
-0.996166, 161, 41, 288, 104
-0.996181, 273, 241, 400, 304
-0.996188, 51, 137, 66, 200
-0.996189, 265, 129, 280, 192
-0.996191, 121, 113, 136, 176
-0.996211, 121, 177, 152, 240
-0.996221, 337, 257, 464, 320
-0.996223, 353, 1, 416, 333
-0.99623, 17, 193, 144, 224
-0.996284, 49, 209, 80, 272
-0.996291, 81, 217, 208, 248
-0.996303, 31, 129, 46, 192
-0.996308, 289, 129, 304, 192
-0.996315, 1, 89, 256, 152
-0.996315, 257, 129, 272, 192
-0.996323, 49, 125, 176, 156
-0.99633, 213, 113, 228, 176
-0.996339, 239, 113, 254, 176
-0.996343, 193, 129, 448, 192
-0.996361, 11, 129, 26, 192
-0.996371, 353, 241, 416, 304
-0.996381, 453, 145, 484, 272
-0.99639, 73, 273, 136, 333
-0.996395, 71, 145, 86, 208
-0.996403, 41, 177, 72, 304
-0.996407, 45, 137, 60, 200
-0.996407, 471, 73, 486, 136
-0.996413, 139, 133, 154, 164
-0.996421, 73, 225, 88, 288
-0.996429, 17, 165, 144, 196
-0.99643, 1, 65, 500, 128
-0.996434, 207, 129, 222, 192
-0.996438, 459, 89, 474, 152
-0.99644, 317, 145, 348, 208
-0.996458, 223, 129, 238, 192
-0.996461, 23, 129, 38, 192
-0.996463, 129, 201, 144, 264
-0.996466, 99, 173, 114, 204
-0.996473, 277, 129, 292, 192
-0.996474, 137, 145, 152, 208
-0.996492, 67, 217, 82, 280
-0.99651, 321, 177, 448, 240
-0.996511, 129, 73, 256, 136
-0.996521, 143, 105, 158, 168
-0.996535, 239, 137, 254, 200
-0.996536, 145, 9, 272, 72
-0.99656, 251, 121, 266, 184
-0.996561, 5, 129, 20, 192
-0.996568, 17, 129, 32, 192
-0.996588, 369, 161, 400, 288
-0.996594, 301, 113, 316, 176
-0.996603, 89, 1, 152, 64
-0.996606, 65, 265, 192, 328
-0.996627, 309, 113, 324, 176
-0.99667, 111, 185, 126, 248
-0.996671, 65, 1, 128, 64
-0.996673, 169, 121, 184, 184
-0.996679, 253, 177, 284, 304
-0.996684, 137, 193, 152, 256
-0.996686, 129, 193, 256, 224
-0.996718, 1, 153, 64, 216
-0.996728, 337, 89, 368, 152
-0.996744, 225, 113, 352, 144
-0.996752, 69, 249, 84, 312
-0.996782, 329, 177, 392, 304
-0.996795, 65, 149, 192, 180
-0.996805, 257, 57, 500, 120
-0.996811, 139, 145, 154, 176
-0.996816, 143, 193, 158, 256
-0.996829, 133, 133, 148, 164
-0.996842, 145, 133, 160, 164
-0.99686, 273, 137, 400, 168
-0.996866, 17, 57, 144, 120
-0.996869, 37, 233, 68, 296
-0.996879, 157, 105, 172, 168
-0.99689, 33, 213, 160, 244
-0.996893, 99, 121, 114, 184
-0.996923, 167, 185, 182, 248
-0.996925, 53, 233, 68, 296
-0.996926, 465, 41, 480, 104
-0.996951, 213, 137, 228, 200
-0.996956, 369, 17, 496, 80
-0.996965, 173, 97, 188, 160
-0.996965, 107, 141, 122, 172
-0.997002, 295, 137, 310, 200
-0.997009, 201, 81, 264, 144
-0.997039, 417, 217, 480, 280
-0.997039, 89, 217, 104, 280
-0.997049, 127, 137, 142, 168
-0.997051, 345, 65, 408, 320
-0.997063, 277, 105, 292, 168
-0.997067, 1, 237, 128, 268
-0.997067, 9, 33, 72, 160
-0.997075, 17, 153, 144, 184
-0.997081, 157, 209, 188, 333
-0.997099, 289, 49, 416, 112
-0.997129, 289, 109, 416, 140
-0.997135, 41, 265, 104, 328
-0.997149, 181, 117, 196, 148
-0.997161, 187, 121, 202, 184
-0.997171, 99, 185, 114, 216
-0.997171, 57, 65, 88, 320
-0.997173, 397, 81, 428, 208
-0.997177, 207, 105, 222, 168
-0.99719, 381, 161, 412, 288
-0.997206, 289, 97, 416, 128
-0.997211, 109, 153, 124, 184
-0.997221, 95, 149, 110, 180
-0.997225, 113, 273, 240, 333
-0.997235, 175, 121, 190, 184
-0.997245, 193, 209, 448, 272
-0.997245, 303, 137, 318, 200
-0.997249, 113, 133, 128, 164
-0.997258, 261, 105, 276, 168
-0.997298, 83, 217, 98, 280
-0.9973, 65, 109, 192, 140
-0.997304, 99, 161, 114, 192
-0.997329, 453, 57, 468, 120
-0.997341, 479, 81, 494, 144
-0.997344, 1, 209, 500, 272
-0.997348, 51, 233, 66, 264
-0.997349, 471, 41, 486, 104
-0.99735, 461, 1, 492, 256
-0.997362, 165, 125, 180, 156
-0.997382, 453, 81, 468, 112
-0.997389, 221, 105, 236, 168
-0.997389, 287, 105, 302, 168
-0.997392, 345, 121, 360, 184
-0.997395, 289, 209, 320, 272
-0.9974, 195, 117, 210, 148
-0.997409, 155, 133, 170, 164
-0.99744, 345, 129, 376, 256
-0.997449, 179, 193, 194, 256
-0.997452, 115, 149, 130, 180
-0.997454, 187, 97, 202, 160
-0.997458, 459, 73, 474, 104
-0.997465, 105, 165, 120, 196
-0.997475, 69, 65, 100, 320
-0.99748, 119, 177, 134, 240
-0.997483, 105, 185, 120, 216
-0.997491, 89, 1, 152, 128
-0.997497, 1, 41, 256, 104
-0.997505, 369, 85, 496, 116
-0.997508, 117, 241, 132, 304
-0.997513, 465, 161, 496, 288
-0.997522, 237, 201, 268, 264
-0.997531, 271, 129, 286, 160
-0.997537, 469, 85, 484, 116
-0.997538, 295, 113, 310, 176
-0.997539, 327, 65, 342, 128
-0.997545, 119, 133, 134, 164
-0.99756, 249, 125, 264, 156
-0.99756, 101, 141, 116, 172
-0.997563, 149, 193, 164, 256
-0.997583, 445, 89, 460, 152
-0.997585, 161, 209, 288, 240
-0.997589, 329, 217, 392, 280
-0.997609, 77, 249, 92, 312
-0.997611, 225, 153, 352, 184
-0.99762, 99, 197, 114, 228
-0.997627, 173, 185, 188, 248
-0.997647, 105, 121, 120, 184
-0.997658, 381, 145, 412, 208
-0.99766, 203, 125, 218, 156
-0.997669, 201, 97, 216, 160
-0.99767, 355, 129, 370, 192
-0.997675, 277, 209, 292, 272
-0.997681, 163, 97, 178, 160
-0.997685, 113, 105, 128, 168
-0.997694, 93, 177, 108, 208
-0.997694, 321, 33, 352, 160
-0.9977, 59, 229, 74, 260
-0.997706, 123, 241, 138, 304
-0.997715, 97, 249, 112, 312
-0.997728, 125, 205, 140, 236
-0.997733, 105, 249, 120, 312
-0.997737, 129, 49, 384, 112
-0.997742, 49, 237, 176, 268
-0.997747, 213, 121, 228, 152
-0.997753, 345, 33, 408, 160
-0.99776, 121, 145, 136, 176
-0.997765, 245, 105, 260, 168
-0.997776, 93, 33, 124, 288
-0.997778, 369, 1, 432, 256
-0.9978, 159, 185, 174, 248
-0.997802, 227, 121, 242, 152
-0.997812, 357, 97, 388, 160
-0.997815, 117, 65, 148, 320
-0.997822, 459, 33, 474, 96
-0.997829, 75, 121, 90, 184
-0.997835, 193, 265, 320, 328
-0.997845, 177, 197, 304, 228
-0.997849, 97, 1, 352, 64
-0.997852, 81, 65, 112, 320
-0.997853, 223, 193, 238, 256
-0.997856, 93, 113, 108, 176
-0.997857, 265, 161, 280, 224
-0.997859, 63, 249, 78, 312
-0.997863, 89, 149, 104, 180
-0.997863, 315, 97, 330, 160
-0.997863, 367, 137, 382, 200
-0.997874, 51, 113, 66, 176
-0.997879, 481, 57, 496, 120
-0.997882, 33, 257, 288, 320
-0.997882, 241, 133, 256, 164
-0.997886, 265, 145, 280, 176
-0.997887, 59, 113, 74, 176
-0.99789, 211, 133, 226, 164
-0.997898, 117, 213, 132, 244
-0.997902, 137, 97, 152, 160
-0.997903, 273, 141, 288, 172
-0.997924, 73, 245, 88, 276
-0.997924, 369, 73, 496, 104
-0.997925, 67, 121, 82, 184
-0.997929, 83, 121, 98, 184
-0.997932, 161, 65, 192, 320
-0.997935, 45, 113, 60, 176
-0.997936, 49, 249, 176, 280
-0.997949, 317, 121, 332, 184
-0.997954, 195, 89, 210, 152
-0.997956, 461, 17, 492, 80
-0.997968, 461, 93, 476, 124
-0.997969, 229, 97, 244, 160
-0.997971, 281, 129, 296, 160
-0.997972, 161, 221, 288, 252
-0.997976, 289, 85, 416, 116
-0.997982, 133, 201, 148, 232
-0.997986, 425, 97, 456, 160
-0.997989, 221, 125, 236, 156
-0.997992, 461, 61, 476, 92
-0.997992, 273, 265, 400, 328
-0.997999, 273, 157, 400, 188
-0.998017, 287, 125, 302, 156
-0.998018, 425, 17, 488, 80
-0.99802, 259, 125, 274, 156
-0.998022, 1, 17, 256, 80
-0.998028, 113, 109, 240, 140
-0.998041, 63, 141, 78, 172
-0.998047, 71, 233, 86, 264
-0.998048, 107, 197, 122, 228
-0.998049, 309, 125, 324, 156
-0.998056, 45, 237, 60, 268
-0.998057, 145, 145, 160, 176
-0.998063, 65, 229, 80, 260
-0.998066, 77, 145, 92, 176
-0.998075, 35, 133, 50, 164
-0.998085, 369, 97, 496, 128
-0.998087, 237, 121, 252, 152
-0.99809, 17, 185, 80, 248
-0.998092, 49, 137, 64, 168
-0.998095, 171, 113, 186, 144
-0.99811, 301, 121, 316, 152
-0.99811, 153, 209, 184, 272
-0.998121, 173, 125, 188, 156
-0.998125, 45, 65, 76, 320
-0.998129, 7, 129, 22, 160
-0.998139, 265, 157, 280, 188
-0.998143, 353, 177, 416, 240
-0.998154, 273, 225, 304, 288
-0.998158, 145, 65, 176, 320
-0.99816, 97, 217, 112, 248
-0.99816, 193, 9, 320, 72
-0.998168, 129, 149, 144, 180
-0.99817, 327, 69, 342, 100
-0.998186, 187, 117, 202, 148
-0.998192, 247, 137, 262, 168
-0.998199, 1, 129, 16, 160
-0.998206, 113, 145, 240, 176
-0.998208, 179, 205, 194, 236
-0.998208, 265, 129, 280, 160
-0.998216, 145, 121, 160, 152
-0.998217, 447, 85, 462, 116
-0.998245, 137, 121, 152, 152
-0.998246, 19, 129, 34, 160
-0.998251, 97, 233, 224, 264
-0.998252, 241, 17, 368, 80
-0.998253, 43, 249, 58, 280
-0.998255, 259, 141, 274, 172
-0.998261, 93, 165, 108, 196
-0.998262, 111, 213, 126, 244
-0.998269, 1, 17, 500, 80
-0.99827, 139, 197, 154, 228
-0.998272, 133, 65, 164, 320
-0.998275, 385, 161, 448, 288
-0.998278, 119, 201, 134, 232
-0.998292, 321, 145, 448, 176
-0.998293, 129, 185, 384, 248
-0.998295, 51, 245, 66, 276
-0.998296, 145, 193, 160, 224
-0.9983, 105, 217, 120, 248
-0.998312, 13, 129, 28, 160
-0.998313, 385, 145, 448, 208
-0.998318, 325, 155, 356, 170
-0.998318, 205, 219, 236, 234
-0.99832, 1, 125, 128, 156
-0.99832, 77, 253, 108, 268
-0.998322, 437, 93, 468, 108
-0.998323, 133, 155, 164, 170
-0.998326, 161, 191, 192, 206
-0.998328, 293, 119, 324, 134
-0.998334, 97, 223, 128, 238
-0.998335, 277, 117, 292, 148
-0.998336, 65, 241, 80, 272
-0.998336, 85, 195, 116, 210
-0.998336, 233, 143, 264, 158
-0.998337, 151, 121, 166, 152
-0.998338, 101, 211, 132, 226
-0.998338, 305, 127, 336, 142
-0.99834, 157, 121, 188, 136
-0.99834, 461, 43, 492, 58
-0.99834, 165, 223, 196, 238
-0.99834, 173, 209, 204, 224
-0.998341, 269, 153, 300, 168
-0.998342, 37, 251, 68, 266
-0.998343, 125, 201, 156, 216
-0.998344, 321, 149, 352, 164
-0.998344, 317, 131, 348, 146
-0.998344, 289, 141, 320, 156
-0.998345, 465, 63, 496, 78
-0.998345, 445, 59, 476, 74
-0.998346, 109, 245, 140, 260
-0.998347, 337, 133, 368, 148
-0.998351, 181, 113, 212, 128
-0.998352, 29, 135, 60, 150
-0.998353, 201, 117, 232, 132
-0.998353, 469, 83, 500, 98
-0.998354, 57, 239, 88, 254
-0.998354, 265, 227, 296, 242
-0.998356, 261, 141, 292, 156
-0.998356, 177, 145, 304, 176
-0.998358, 137, 127, 168, 142
-0.998358, 105, 189, 136, 204
-0.998359, 457, 57, 488, 72
-0.99836, 109, 273, 140, 288
-0.998361, 475, 85, 490, 116
-0.998363, 105, 171, 136, 186
-0.998363, 97, 247, 128, 262
-0.998364, 45, 239, 76, 254
-0.998366, 71, 145, 86, 176
-0.998367, 173, 217, 204, 232
-0.998369, 161, 217, 192, 232
-0.998371, 305, 139, 336, 154
-0.998374, 259, 153, 274, 184
-0.998377, 57, 141, 72, 172
-0.998378, 97, 25, 352, 88
-0.998379, 81, 173, 112, 188
-0.99838, 149, 193, 180, 208
-0.998381, 225, 119, 256, 134
-0.998381, 109, 165, 140, 180
-0.998382, 449, 95, 480, 110
-0.998382, 245, 153, 276, 168
-0.998383, 273, 123, 304, 138
-0.998383, 113, 159, 144, 174
-0.998385, 453, 77, 484, 92
-0.998385, 117, 215, 148, 230
-0.998387, 111, 273, 126, 304
-0.998389, 277, 209, 308, 224
-0.998389, 41, 133, 56, 164
-0.998393, 157, 133, 188, 148
-0.998394, 189, 131, 220, 146
-0.998395, 61, 245, 92, 260
-0.998395, 105, 65, 136, 320
-0.998396, 89, 147, 152, 162
-0.998397, 49, 251, 80, 266
-0.998397, 137, 197, 168, 212
-0.998398, 29, 133, 44, 164
-0.998399, 261, 135, 292, 150
-0.9984, 161, 123, 224, 138
-0.998401, 173, 65, 204, 320
-0.998402, 381, 97, 412, 224
-0.998403, 5, 133, 36, 148
-0.998404, 1, 65, 256, 128
-0.998405, 369, 161, 400, 224
-0.998406, 337, 125, 464, 156
-0.998407, 149, 127, 180, 142
-0.998407, 265, 147, 296, 162
-0.998409, 81, 189, 112, 204
-0.998411, 73, 149, 104, 164
-0.998411, 249, 131, 280, 146
-0.998413, 41, 139, 72, 154
-0.998413, 125, 207, 156, 222
-0.998416, 297, 133, 328, 148
-0.998417, 61, 145, 92, 160
-0.998418, 173, 209, 188, 240
-0.998419, 257, 157, 288, 172
-0.99842, 113, 195, 144, 210
-0.99842, 249, 139, 280, 154
-0.998421, 237, 125, 268, 140
-0.998423, 465, 95, 496, 110
-0.998423, 85, 163, 116, 178
-0.998431, 133, 149, 164, 164
-0.998431, 117, 133, 148, 148
-0.998434, 17, 133, 48, 148
-0.998436, 305, 177, 368, 304
-0.998436, 105, 139, 168, 154
-0.998439, 217, 125, 248, 140
-0.998439, 277, 139, 308, 154
-0.998443, 73, 225, 104, 240
-0.998445, 105, 279, 136, 294
-0.99845, 201, 135, 232, 150
-0.99845, 217, 137, 232, 168
-0.998453, 113, 49, 240, 112
-0.998453, 33, 277, 160, 308
-0.998455, 257, 217, 384, 248
-0.998455, 81, 179, 112, 194
-0.998457, 285, 131, 316, 146
-0.998458, 91, 217, 106, 248
-0.998459, 261, 127, 292, 142
-0.998459, 303, 133, 318, 164
-0.998463, 465, 41, 480, 72
-0.998463, 113, 209, 144, 224
-0.998464, 61, 227, 92, 242
-0.998468, 209, 97, 336, 128
-0.998468, 97, 153, 160, 168
-0.998468, 469, 73, 484, 104
-0.998469, 249, 123, 280, 138
-0.998469, 201, 131, 264, 146
-0.99847, 151, 193, 166, 224
-0.998471, 93, 171, 124, 186
-0.998471, 201, 129, 232, 144
-0.998474, 449, 83, 480, 98
-0.998476, 273, 129, 304, 144
-0.998477, 189, 125, 220, 140
-0.998477, 237, 137, 268, 152
-0.998478, 465, 89, 496, 104
-0.998479, 205, 123, 236, 138
-0.998479, 85, 221, 116, 236
-0.99848, 111, 165, 126, 196
-0.998481, 77, 247, 108, 262
-0.998483, 253, 147, 284, 162
-0.998483, 101, 159, 132, 174
-0.998486, 173, 125, 204, 140
-0.998489, 65, 251, 96, 266
-0.99849, 79, 245, 94, 276
-0.99849, 153, 129, 216, 144
-0.998491, 83, 145, 98, 176
-0.998493, 201, 125, 264, 140
-0.998493, 217, 137, 248, 152
-0.998496, 449, 89, 480, 104
-0.998496, 163, 113, 178, 144
-0.998497, 89, 219, 152, 234
-0.998497, 265, 127, 328, 142
-0.998498, 129, 133, 192, 148
-0.998502, 241, 129, 304, 144
-0.998503, 105, 133, 168, 148
-0.998504, 79, 233, 94, 264
-0.998506, 89, 145, 120, 160
-0.998507, 49, 233, 80, 248
-0.998507, 105, 139, 136, 154
-0.998509, 157, 121, 172, 152
-0.998509, 89, 153, 120, 168
-0.998509, 237, 131, 268, 146
-0.99851, 113, 145, 176, 160
-0.99851, 57, 245, 72, 276
-0.998511, 185, 65, 216, 320
-0.998512, 93, 177, 124, 192
-0.998514, 57, 227, 120, 242
-0.998515, 73, 141, 136, 156
-0.998519, 169, 119, 200, 134
-0.998519, 89, 195, 152, 210
-0.998519, 293, 129, 308, 160
-0.998521, 293, 141, 308, 172
-0.998522, 293, 125, 324, 140
-0.998523, 97, 195, 128, 210
-0.998523, 203, 113, 218, 144
-0.998526, 201, 137, 264, 152
-0.998529, 57, 249, 120, 264
-0.998529, 145, 133, 176, 148
-0.998529, 137, 195, 200, 210
-0.998533, 237, 33, 268, 288
-0.998534, 25, 65, 56, 320
-0.998541, 221, 201, 236, 232
-0.998541, 105, 217, 136, 232
-0.998546, 209, 65, 240, 320
-0.998547, 33, 245, 96, 260
-0.998548, 433, 89, 496, 104
-0.998548, 279, 205, 294, 236
-0.998552, 73, 153, 136, 168
-0.998552, 137, 143, 168, 158
-0.998554, 231, 133, 246, 164
-0.998555, 129, 153, 384, 216
-0.998555, 129, 121, 144, 152
-0.998559, 197, 65, 228, 320
-0.998562, 101, 153, 132, 168
-0.998562, 121, 151, 152, 166
-0.998564, 169, 117, 232, 132
-0.998565, 113, 197, 128, 228
-0.998565, 113, 209, 176, 224
-0.998566, 49, 245, 80, 260
-0.998567, 289, 133, 352, 148
-0.998567, 105, 145, 120, 272
-0.998569, 41, 233, 104, 248
-0.99857, 65, 147, 128, 162
-0.998571, 117, 161, 132, 192
-0.998572, 97, 165, 128, 180
-0.998579, 177, 129, 240, 144
-0.998579, 265, 139, 328, 154
-0.99858, 89, 165, 152, 180
-0.998581, 1, 135, 64, 150
-0.998581, 57, 241, 120, 256
-0.998581, 33, 261, 160, 292
-0.998582, 309, 73, 340, 136
-0.998585, 181, 119, 212, 134
-0.998588, 97, 189, 160, 204
-0.998588, 241, 135, 304, 150
-0.998595, 161, 127, 192, 142
-0.998597, 311, 109, 326, 140
-0.998597, 249, 209, 312, 224
-0.998602, 273, 121, 336, 136
-0.998602, 101, 145, 132, 160
-0.998602, 177, 193, 192, 224
-0.998604, 451, 97, 466, 128
-0.998605, 89, 213, 152, 228
-0.998606, 65, 189, 128, 204
-0.998607, 97, 159, 160, 174
-0.998608, 221, 65, 252, 320
-0.998608, 117, 269, 132, 300
-0.998609, 437, 33, 468, 96
-0.998609, 129, 201, 192, 216
-0.99861, 241, 147, 304, 162
-0.99861, 137, 145, 200, 160
-0.99861, 117, 145, 148, 160
-0.99861, 129, 127, 192, 142
-0.998611, 1, 89, 500, 152
-0.998611, 71, 221, 86, 252
-0.998613, 41, 143, 104, 158
-0.998613, 217, 131, 248, 146
-0.998614, 65, 163, 128, 178
-0.998615, 189, 105, 204, 136
-0.998616, 455, 57, 470, 88
-0.998621, 289, 25, 416, 88
-0.998622, 201, 119, 264, 134
-0.998622, 115, 145, 130, 272
-0.998626, 265, 133, 328, 148
-0.998626, 169, 215, 232, 230
-0.998627, 93, 187, 124, 202
-0.998631, 285, 205, 300, 236
-0.998632, 453, 113, 484, 176
-0.998634, 125, 139, 156, 154
-0.998634, 145, 117, 208, 132
-0.998635, 113, 215, 176, 230
-0.998637, 151, 145, 166, 176
-0.998638, 201, 145, 264, 160
-0.99864, 289, 127, 352, 142
-0.99864, 65, 169, 128, 184
-0.998641, 289, 139, 352, 154
-0.998641, 241, 153, 304, 168
-0.998643, 225, 141, 288, 156
-0.998643, 253, 145, 268, 176
-0.998644, 121, 153, 184, 168
-0.998644, 169, 207, 232, 222
-0.998647, 433, 83, 496, 98
-0.998648, 313, 131, 376, 146
-0.998648, 225, 123, 288, 138
-0.998649, 81, 225, 144, 240
-0.998649, 433, 95, 496, 110
-0.99865, 133, 133, 164, 148
-0.998651, 57, 135, 120, 150
-0.998652, 33, 251, 96, 266
-0.998652, 129, 139, 192, 154
-0.998653, 81, 207, 144, 222
-0.998654, 65, 183, 128, 198
-0.998655, 81, 245, 144, 260
-0.998656, 89, 201, 152, 216
-0.998657, 97, 177, 112, 304
-0.998657, 193, 219, 256, 234
-0.998657, 257, 215, 320, 230
-0.998658, 297, 117, 360, 132
-0.998659, 305, 93, 368, 108
-0.99866, 145, 217, 208, 232
-0.998661, 17, 237, 80, 252
-0.998664, 177, 137, 240, 152
-0.998666, 65, 219, 128, 234
-0.998667, 409, 89, 472, 104
-0.998667, 217, 219, 280, 234
-0.998668, 169, 221, 232, 236
-0.998672, 13, 1, 44, 256
-0.998675, 73, 277, 136, 292
-0.998676, 57, 255, 120, 270
-0.998678, 249, 121, 312, 136
-0.998686, 249, 163, 312, 178
-0.998686, 217, 151, 280, 166
-0.998687, 113, 221, 176, 236
-0.998688, 65, 177, 128, 192
-0.998689, 97, 171, 160, 186
-0.99869, 425, 75, 488, 90
-0.998692, 409, 97, 472, 112
-0.998692, 17, 141, 80, 156
-0.998694, 129, 129, 144, 256
-0.998697, 17, 231, 80, 246
-0.998697, 145, 225, 208, 240
-0.998698, 417, 63, 480, 78
-0.998698, 265, 147, 328, 162
-0.998699, 257, 33, 288, 288
-0.9987, 329, 145, 392, 160
-0.9987, 65, 197, 128, 212
-0.998704, 209, 213, 272, 228
-0.998704, 41, 149, 104, 164
-0.998704, 113, 195, 176, 210
-0.998705, 105, 245, 168, 260
-0.998706, 273, 221, 336, 236
-0.998706, 57, 283, 120, 298
-0.998707, 265, 153, 328, 168
-0.998707, 177, 199, 240, 214
-0.998707, 417, 57, 480, 72
-0.998708, 329, 137, 392, 152
-0.99871, 201, 201, 264, 216
-0.99871, 273, 209, 336, 224
-0.99871, 113, 121, 176, 136
-0.998712, 33, 257, 96, 272
-0.998712, 257, 227, 320, 242
-0.998713, 89, 177, 152, 192
-0.998713, 321, 157, 448, 188
-0.998713, 297, 111, 360, 126
-0.998713, 65, 213, 128, 228
-0.998715, 225, 73, 352, 104
-0.998718, 345, 127, 408, 142
-0.99872, 89, 145, 104, 272
-0.998721, 409, 177, 472, 240
-0.998723, 225, 203, 288, 218
-0.998723, 9, 243, 72, 258
-0.998723, 401, 127, 464, 142
-0.998724, 41, 181, 104, 196
-0.998724, 177, 111, 240, 126
-0.998725, 153, 137, 216, 152
-0.998725, 137, 189, 200, 204
-0.998726, 137, 211, 200, 226
-0.998726, 305, 99, 368, 114
-0.998727, 225, 117, 288, 132
-0.998727, 97, 277, 160, 292
-0.998727, 329, 151, 392, 166
-0.998728, 9, 225, 72, 240
-0.998752, 265, 257, 328, 320
-0.99876, 1, 65, 32, 320
-0.998767, 353, 73, 416, 136
-0.998775, 305, 65, 336, 320
-0.99878, 257, 33, 500, 96
-0.998783, 145, 129, 160, 256
-0.998789, 123, 129, 138, 256
-0.998797, 1, 41, 500, 104
-0.998821, 437, 105, 468, 168
-0.99883, 337, 113, 464, 144
-0.998836, 273, 201, 400, 232
-0.998838, 113, 273, 144, 333
-0.998843, 151, 129, 166, 256
-0.998851, 397, 161, 428, 288
-0.998875, 273, 65, 304, 320
-0.998883, 225, 185, 480, 248
-0.998898, 99, 129, 114, 256
-0.9989, 1, 249, 128, 280
-0.998904, 449, 1, 480, 256
-0.998909, 135, 145, 150, 272
-0.99891, 289, 73, 416, 104
-0.998914, 129, 181, 256, 212
-0.998915, 369, 193, 496, 256
-0.998933, 75, 129, 90, 256
-0.998946, 65, 65, 192, 128
-0.998956, 163, 113, 178, 240
-0.998958, 389, 217, 420, 280
-0.998978, 123, 193, 138, 320
-0.99899, 285, 65, 316, 320
-0.999002, 225, 85, 352, 116
-0.999004, 145, 81, 176, 144
-0.999008, 305, 217, 336, 280
-0.999018, 469, 121, 500, 184
-0.999024, 433, 193, 496, 256
-0.999031, 81, 129, 96, 256
-0.999036, 461, 49, 476, 176
-0.999042, 293, 33, 324, 160
-0.99906, 1, 33, 128, 96
-0.999061, 265, 57, 328, 120
-0.999072, 369, 161, 496, 192
-0.999084, 169, 217, 200, 280
-0.999099, 297, 145, 328, 208
-0.999102, 157, 129, 172, 256
-0.999109, 69, 129, 84, 256
-0.99911, 193, 241, 448, 304
-0.999116, 117, 193, 132, 320
-0.999118, 279, 129, 294, 256
-0.99912, 357, 161, 388, 288
-0.999123, 81, 273, 208, 304
-0.99913, 333, 161, 364, 224
-0.999146, 101, 273, 132, 333
-0.999155, 61, 129, 76, 256
-0.999155, 33, 13, 160, 44
-0.999155, 21, 113, 36, 240
-0.999157, 33, 161, 96, 224
-0.999158, 225, 113, 240, 240
-0.999167, 247, 113, 262, 240
-0.999167, 241, 177, 272, 304
-0.999169, 429, 81, 460, 208
-0.999169, 105, 97, 120, 224
-0.999171, 373, 97, 404, 160
-0.999173, 7, 113, 22, 240
-0.999174, 93, 97, 108, 224
-0.999182, 213, 129, 228, 256
-0.999183, 295, 129, 310, 256
-0.999199, 237, 129, 252, 256
-0.9992, 329, 113, 360, 176
-0.999205, 177, 113, 192, 240
-0.999207, 171, 113, 186, 240
-0.999207, 261, 129, 276, 256
-0.99921, 97, 97, 224, 128
-0.99921, 271, 113, 286, 240
-0.999215, 97, 9, 224, 40
-0.999221, 201, 113, 216, 240
-0.999222, 1, 113, 16, 240
-0.999222, 13, 113, 28, 240
-0.999228, 51, 129, 66, 256
-0.999233, 285, 113, 300, 240
-0.999233, 41, 129, 56, 256
-0.999235, 195, 113, 210, 240
-0.999235, 17, 113, 144, 144
-0.999235, 337, 257, 464, 288
-0.999236, 117, 97, 132, 224
-0.999245, 189, 113, 204, 240
-0.999252, 301, 129, 316, 256
-0.999258, 183, 97, 198, 224
-0.999259, 219, 113, 234, 240
-0.99926, 73, 193, 88, 320
-0.99926, 135, 97, 150, 224
-0.999266, 35, 129, 50, 256
-0.999268, 103, 193, 118, 320
-0.999278, 97, 25, 160, 88
-0.999285, 151, 177, 166, 304
-0.999285, 129, 193, 144, 320
-0.999289, 87, 97, 102, 224
-0.999292, 231, 113, 246, 240
-0.999298, 273, 249, 400, 280
-0.999299, 27, 113, 42, 240
-0.999303, 111, 97, 126, 224
-0.999317, 207, 113, 222, 240
-0.999321, 209, 225, 336, 256
-0.999323, 91, 193, 106, 320
-0.999323, 321, 65, 352, 320
-0.999324, 133, 225, 164, 288
-0.999326, 455, 49, 470, 176
-0.999327, 209, 61, 336, 92
-0.999334, 79, 209, 94, 333
-0.999337, 81, 29, 208, 60
-0.999342, 369, 41, 496, 72
-0.999352, 177, 157, 304, 188
-0.99936, 111, 193, 126, 320
-0.999364, 469, 209, 500, 333
-0.999372, 151, 81, 166, 208
-0.999372, 317, 81, 332, 208
-0.999376, 353, 221, 480, 252
-0.999384, 71, 81, 86, 208
-0.999386, 65, 81, 80, 208
-0.999391, 305, 169, 432, 200
-0.999396, 145, 177, 160, 304
-0.999398, 67, 209, 82, 333
-0.999403, 145, 33, 176, 160
-0.999411, 467, 65, 482, 192
-0.999412, 269, 161, 284, 288
-0.999414, 125, 81, 140, 208
-0.999414, 51, 81, 66, 208
-0.999415, 193, 265, 448, 328
-0.999418, 59, 81, 74, 208
-0.999424, 145, 97, 272, 128
-0.999426, 157, 81, 172, 208
-0.999426, 141, 81, 156, 208
-0.99943, 253, 113, 268, 240
-0.999437, 85, 209, 100, 333
-0.999437, 369, 137, 496, 168
-0.999438, 343, 81, 358, 208
-0.999444, 277, 193, 292, 320
-0.999451, 369, 217, 400, 280
-0.999455, 475, 33, 490, 160
-0.999457, 97, 245, 224, 276
-0.999464, 45, 81, 60, 208
-0.999465, 207, 65, 222, 192
-0.999473, 39, 81, 54, 208
-0.999474, 81, 81, 96, 208
-0.999474, 309, 81, 324, 208
-0.999476, 193, 65, 208, 192
-0.999477, 135, 193, 150, 320
-0.999477, 239, 81, 254, 208
-0.999483, 99, 81, 114, 208
-0.999488, 171, 65, 186, 192
-0.999488, 213, 81, 228, 208
-0.999492, 309, 129, 324, 256
-0.999493, 333, 81, 348, 208
-0.999506, 165, 169, 196, 232
-0.999508, 33, 1, 160, 32
-0.999511, 465, 1, 480, 128
-0.999513, 181, 49, 196, 176
-0.999516, 285, 177, 300, 304
-0.999517, 293, 177, 324, 304
-0.999522, 33, 81, 48, 208
-0.999523, 353, 81, 368, 208
-0.999524, 33, 25, 160, 56
-0.999528, 219, 65, 234, 192
-0.999528, 61, 209, 76, 333
-0.999532, 259, 81, 274, 208
-0.999534, 261, 225, 292, 288
-0.999536, 73, 49, 104, 176
-0.999544, 199, 65, 214, 192
-0.999544, 321, 57, 352, 120
-0.999549, 187, 49, 202, 176
-0.999553, 305, 221, 432, 252
-0.999559, 291, 177, 306, 304
-0.999565, 369, 173, 496, 204
-0.999566, 299, 81, 314, 208
-0.999568, 345, 129, 360, 256
-0.999569, 289, 61, 416, 92
-0.999578, 31, 135, 46, 150
-0.999578, 287, 137, 302, 152
-0.999578, 39, 137, 54, 152
-0.999578, 53, 141, 68, 156
-0.999578, 93, 171, 108, 186
-0.999579, 297, 137, 312, 152
-0.999579, 11, 133, 26, 148
-0.999579, 243, 133, 258, 148
-0.99958, 77, 225, 92, 240
-0.99958, 115, 219, 130, 234
-0.999581, 167, 121, 182, 136
-0.999583, 67, 145, 82, 160
-0.999583, 59, 143, 74, 158
-0.999583, 175, 219, 190, 234
-0.999585, 99, 199, 114, 214
-0.999585, 265, 133, 280, 148
-0.999585, 155, 139, 170, 154
-0.999585, 327, 71, 342, 86
-0.999585, 157, 177, 172, 304
-0.999587, 297, 131, 312, 146
-0.999587, 163, 49, 178, 176
-0.999587, 17, 133, 32, 148
-0.999588, 461, 69, 476, 84
-0.999589, 3, 131, 18, 146
-0.999589, 93, 153, 108, 168
-0.99959, 73, 147, 88, 162
-0.999591, 111, 279, 126, 294
-0.999591, 83, 225, 98, 240
-0.999592, 83, 149, 98, 164
-0.999592, 117, 273, 132, 288
-0.999593, 271, 209, 286, 333
-0.999593, 273, 147, 288, 162
-0.999593, 249, 137, 264, 152
-0.999593, 325, 129, 340, 256
-0.999594, 255, 149, 270, 164
-0.999595, 71, 225, 86, 240
-0.999595, 265, 145, 280, 160
-0.999595, 339, 129, 354, 256
-0.999595, 115, 161, 130, 176
-0.999595, 93, 183, 108, 198
-0.999596, 265, 157, 280, 172
-0.999597, 127, 137, 142, 152
-0.999597, 245, 65, 260, 192
-0.999598, 465, 95, 480, 110
-0.999599, 181, 193, 212, 320
-0.999599, 101, 159, 116, 174
-0.9996, 325, 65, 340, 192
-0.999602, 353, 209, 416, 333
-0.999604, 459, 75, 474, 90
-0.999604, 223, 125, 238, 140
-0.999605, 243, 127, 258, 142
-0.999605, 279, 125, 294, 140
-0.999605, 251, 131, 266, 146
-0.999607, 453, 83, 468, 98
-0.999607, 259, 127, 274, 142
-0.999608, 91, 223, 106, 238
-0.999609, 25, 133, 40, 148
-0.999609, 217, 139, 232, 154
-0.99961, 331, 145, 346, 272
-0.99961, 17, 65, 32, 192
-0.99961, 459, 89, 474, 104
-0.99961, 93, 177, 108, 192
-0.999611, 111, 193, 126, 208
-0.999611, 281, 135, 296, 150
-0.999612, 121, 135, 136, 150
-0.999613, 45, 251, 60, 266
-0.999613, 63, 247, 78, 262
-0.999613, 119, 155, 134, 170
-0.999613, 473, 83, 488, 98
-0.999614, 107, 219, 122, 234
-0.999617, 209, 257, 336, 288
-0.999617, 291, 81, 306, 208
-0.999617, 27, 65, 42, 192
-0.999618, 467, 83, 482, 98
-0.999618, 437, 65, 468, 320
-0.99962, 449, 89, 464, 104
-0.999621, 113, 149, 128, 164
-0.999623, 189, 119, 204, 134
-0.999623, 175, 127, 190, 142
-0.999624, 129, 205, 144, 220
-0.999626, 1, 65, 16, 192
-0.999629, 287, 129, 302, 144
-0.999629, 49, 243, 64, 258
-0.999629, 71, 253, 86, 268
-0.999629, 65, 229, 80, 244
-0.99963, 227, 131, 242, 146
-0.99963, 229, 65, 244, 192
-0.999631, 143, 197, 158, 212
-0.999631, 105, 181, 120, 196
-0.999631, 105, 195, 120, 210
-0.999632, 265, 151, 280, 166
-0.999632, 127, 149, 142, 164
-0.999634, 221, 131, 236, 146
-0.999634, 105, 173, 120, 188
-0.999634, 307, 125, 322, 140
-0.999636, 261, 139, 276, 154
-0.999636, 377, 81, 392, 208
-0.999637, 271, 129, 286, 144
-0.999637, 213, 127, 228, 142
-0.999638, 101, 145, 116, 160
-0.999639, 113, 137, 128, 152
-0.999639, 309, 135, 324, 150
-0.999641, 135, 201, 150, 216
-0.999641, 273, 237, 400, 268
-0.999643, 237, 133, 252, 148
-0.999644, 9, 65, 24, 192
-0.999644, 59, 229, 74, 244
-0.999645, 147, 145, 162, 160
-0.999646, 277, 81, 292, 208
-0.999646, 173, 121, 188, 136
-0.999648, 97, 221, 112, 236
-0.999648, 265, 81, 280, 208
-0.999648, 273, 141, 288, 156
-0.999649, 107, 139, 122, 154
-0.999653, 201, 125, 216, 140
-0.999654, 401, 97, 432, 160
-0.999655, 99, 151, 114, 166
-0.999655, 163, 161, 178, 288
-0.999655, 133, 145, 148, 160
-0.999657, 369, 149, 496, 180
-0.999657, 255, 161, 270, 288
-0.999658, 33, 37, 160, 68
-0.999658, 221, 193, 252, 320
-0.999662, 77, 249, 92, 264
-0.999662, 123, 209, 138, 224
-0.999662, 113, 165, 240, 196
-0.999663, 117, 143, 132, 158
-0.999663, 483, 49, 498, 176
-0.999663, 137, 153, 152, 168
-0.999663, 55, 209, 70, 333
-0.999665, 383, 161, 398, 288
-0.999665, 169, 193, 184, 320
-0.99967, 217, 257, 280, 320
-0.99967, 251, 65, 266, 192
-0.999671, 449, 65, 464, 192
-0.999672, 183, 115, 198, 130
-0.999672, 455, 1, 470, 128
-0.999674, 467, 89, 482, 104
-0.999679, 99, 193, 114, 208
-0.999689, 209, 49, 336, 80
-0.99969, 249, 125, 264, 140
-0.99969, 213, 133, 228, 148
-0.999694, 81, 285, 208, 316
-0.999696, 193, 1, 448, 64
-0.999697, 107, 159, 122, 174
-0.999697, 195, 121, 210, 136
-0.999701, 53, 233, 68, 248
-0.999702, 109, 165, 124, 180
-0.999703, 99, 165, 114, 180
-0.999708, 473, 89, 488, 104
-0.999711, 117, 213, 132, 228
-0.999712, 113, 155, 128, 170
-0.999715, 141, 139, 156, 154
-0.999715, 341, 33, 372, 288
-0.999721, 119, 149, 134, 164
-0.999727, 155, 133, 170, 148
-0.999732, 133, 135, 148, 150
-0.999732, 71, 245, 86, 260
-0.999734, 127, 143, 142, 158
-0.999734, 183, 121, 198, 136
-0.999735, 107, 153, 122, 168
-0.999738, 99, 171, 114, 186
-0.999739, 99, 181, 114, 196
-0.999742, 225, 165, 352, 196
-0.999748, 107, 145, 122, 160
-0.999753, 33, 89, 160, 120
-0.999754, 225, 153, 480, 216
-0.999757, 161, 33, 288, 64
-0.999763, 147, 133, 162, 148
-0.999763, 273, 265, 400, 296
-0.999769, 165, 127, 180, 142
-0.999776, 105, 189, 120, 204
-0.999776, 99, 187, 114, 202
-0.999779, 139, 133, 154, 148
-0.999789, 353, 65, 384, 320
-0.999792, 147, 139, 162, 154
-0.999803, 369, 53, 496, 84
-0.999805, 337, 245, 464, 276
-0.999812, 225, 197, 352, 228
-0.999817, 17, 61, 144, 92
-0.999819, 139, 147, 154, 162
-0.999827, 129, 49, 256, 80
-0.999829, 369, 33, 432, 160
-0.999829, 433, 57, 464, 120
-0.999837, 225, 245, 352, 276
-0.99984, 457, 137, 488, 200
-0.999846, 153, 161, 184, 224
-0.999852, 209, 225, 272, 288
-0.999866, 177, 185, 304, 216
-0.999868, 193, 269, 320, 300
-0.99987, 417, 81, 448, 208
-0.999872, 321, 177, 352, 304
-0.999896, 129, 21, 256, 52
-0.999897, 33, 289, 160, 320
-0.9999, 201, 217, 232, 280
-0.999919, 369, 209, 496, 240
-0.999925, 161, 61, 288, 92
-0.999928, 17, 77, 144, 108
-0.999951, 17, 49, 144, 80
-0.999951, 337, 273, 464, 304
-0.999965, 357, 161, 388, 224
-0.999969, 81, 261, 208, 292
-0.999973, 81, 41, 208, 72
-0.999974, 321, 181, 448, 212
-0.999979, 53, 257, 84, 320
-0.999987, 365, 65, 396, 320
-0.999987, 381, 65, 412, 320
-0.999989, 425, 1, 456, 256
-0.999995, 17, 265, 80, 328
-0.999998, 145, 9, 272, 40
-0.999998, 209, 37, 336, 68
-1, 353, 29, 480, 60
-1.00004, 353, 285, 480, 316
-1.00004, 17, 101, 144, 132
-1.00005, 437, 161, 468, 288
-1.00005, 289, 49, 416, 80
-1.00006, 193, 1, 320, 32
-1.00006, 397, 1, 428, 256
-1.00006, 353, 301, 480, 332
-1.00006, 321, 1, 448, 64
-1.00007, 321, 209, 448, 240
-1.00008, 113, 1, 176, 64
-1.00009, 273, 293, 400, 324
-1.0001, 145, 277, 272, 308
-1.00014, 145, 265, 272, 296
-1.00014, 409, 65, 440, 320
-1.00014, 273, 189, 400, 220
-1.00015, 257, 37, 384, 68
-1.00017, 145, 233, 272, 264
-1.00018, 273, 277, 400, 308
-1.00019, 241, 25, 368, 56
-1.00025, 353, 265, 416, 328
-1.00025, 65, 1, 128, 128
-1.00031, 1, 161, 500, 224
-1.00032, 1, 233, 500, 296
-1.00036, 253, 33, 284, 160
-1.00036, 377, 193, 440, 256
-1.00046, 137, 17, 200, 144
-1.00049, 341, 33, 372, 160
-1.00052, 205, 193, 236, 320
-1.00052, 225, 81, 288, 144
-1.00055, 425, 177, 456, 304
-1.00059, 1, 185, 500, 248
-1.00065, 409, 129, 440, 256
-1.00068, 145, 249, 272, 312
-1.00093, 385, 121, 448, 184
-1.001, 169, 145, 232, 208
-1.001, 33, 49, 96, 112
-1.00108, 145, 41, 208, 104
-1.00112, 377, 73, 440, 136
-1.00115, 1, 257, 500, 320
-1.00119, 405, 209, 436, 333
-1.00126, 305, 161, 368, 224
-1.00131, 17, 81, 80, 144
-1.00133, 85, 49, 116, 176
-1.0015, 357, 209, 388, 333
-1.00154, 289, 241, 352, 304
-1.00159, 429, 33, 460, 160
-1.0016, 73, 73, 136, 136
-1.00165, 169, 41, 232, 104
-1.00168, 73, 25, 136, 88
-1.0017, 185, 169, 248, 232
-1.0017, 449, 193, 480, 320
-1.00196, 97, 17, 128, 144
-1.00204, 9, 17, 72, 80
-1.00204, 9, 57, 72, 120
-1.00207, 345, 209, 376, 333
-1.00209, 49, 73, 112, 136
-1.0021, 433, 169, 496, 232
-1.00211, 401, 209, 464, 333
-1.00211, 225, 33, 288, 96
-1.00216, 41, 1, 104, 64
-1.00221, 329, 257, 392, 320
-1.00232, 185, 17, 248, 144
-1.00234, 121, 41, 184, 104
-1.00239, 309, 177, 340, 304
-1.00241, 137, 9, 200, 72
-1.00252, 417, 33, 448, 160
-1.00269, 333, 177, 364, 304
-1.00273, 441, 113, 472, 240
-1.00275, 193, 193, 224, 320
-1.00277, 389, 209, 420, 333
-1.00278, 389, 33, 420, 160
-1.00284, 129, 33, 160, 160
-1.00294, 161, 1, 224, 128
-1.00294, 401, 33, 432, 160
-1.003, 29, 193, 60, 320
-1.00307, 377, 33, 408, 160
-1.00308, 241, 33, 272, 160
-1.00322, 361, 33, 392, 160
-1.00325, 309, 33, 340, 160
-1.00326, 421, 129, 452, 256
-1.00328, 117, 17, 148, 144
-1.00337, 37, 33, 68, 160
-1.00341, 369, 209, 400, 333
-1.00342, 185, 17, 216, 144
-1.00365, 437, 209, 468, 333
-1.00407, 169, 17, 200, 144
-1.00411, 81, 1, 112, 128
-1.00417, 17, 177, 48, 304
-1.00419, 225, 17, 288, 144
-1.0046, 57, 33, 88, 160
-1.00475, 21, 1, 52, 128
-1.00489, 5, 177, 36, 304
-1.00521, 113, 1, 176, 128
-1.00591, 249, 17, 312, 144
-1.00619, 41, 1, 104, 128
