1873
-0.578666, 1, 65, 500, 320
-0.62829, 1, 1, 500, 333
-0.680795, 33, 1, 288, 333
-0.690915, 129, 1, 384, 333
-0.712246, 33, 65, 288, 320
-0.755545, 193, 65, 448, 320
-0.756938, 225, 1, 480, 333
-0.86548, 81, 65, 208, 320
-0.88581, 33, 65, 160, 320
-0.898175, 177, 65, 304, 320
-0.903473, 129, 65, 256, 320
-0.905958, 65, 209, 320, 333
-0.906397, 145, 1, 272, 333
-0.909796, 65, 1, 192, 333
-0.925234, 1, 193, 500, 320
-0.926979, 97, 113, 352, 240
-0.929808, 161, 177, 416, 304
-0.931567, 193, 1, 320, 333
-0.932975, 1, 113, 500, 240
-0.933154, 257, 1, 384, 333
-0.933497, 177, 209, 240, 333
-0.935519, 257, 65, 384, 320
-0.937779, 129, 209, 256, 333
-0.941219, 153, 193, 216, 320
-0.942422, 1, 129, 256, 256
-0.943179, 177, 177, 304, 304
-0.945087, 161, 241, 224, 304
-0.945132, 369, 1, 496, 333
-0.945213, 185, 225, 248, 288
-0.945768, 225, 209, 352, 333
-0.946402, 201, 209, 264, 333
-0.947125, 241, 193, 304, 320
-0.948571, 193, 249, 256, 312
-0.950769, 129, 193, 192, 320
-0.951506, 49, 113, 176, 240
-0.952048, 81, 193, 208, 320
-0.952227, 89, 97, 152, 224
-0.953446, 185, 201, 248, 264
-0.953459, 105, 121, 168, 184
-0.954967, 145, 201, 208, 264
-0.955103, 113, 81, 176, 208
-0.955763, 193, 161, 256, 288
-0.956019, 81, 105, 144, 168
-0.956663, 121, 241, 184, 304
-0.956788, 305, 1, 432, 333
-0.957038, 1, 65, 500, 192
-0.957064, 1, 1, 128, 333
-0.957822, 225, 129, 480, 256
-0.95868, 65, 65, 320, 192
-0.958842, 217, 249, 280, 312
-0.959198, 81, 241, 144, 304
-0.959198, 369, 65, 496, 320
-0.959723, 57, 241, 120, 304
-0.959794, 145, 145, 208, 272
-0.960123, 65, 97, 128, 224
-0.960795, 321, 65, 448, 320
-0.961091, 217, 161, 280, 288
-0.961283, 193, 113, 320, 240
-0.961441, 73, 145, 136, 272
-0.963113, 113, 241, 240, 304
-0.964365, 213, 233, 244, 296
-0.964457, 97, 113, 224, 240
-0.964532, 197, 241, 228, 304
-0.964734, 209, 225, 272, 288
-0.964828, 257, 177, 500, 304
-0.964863, 145, 113, 272, 240
-0.965282, 81, 145, 144, 208
-0.965343, 169, 265, 232, 328
-0.967265, 129, 161, 256, 288
-0.967429, 105, 145, 168, 272
-0.967446, 225, 161, 352, 288
-0.967464, 193, 209, 224, 272
-0.967492, 257, 177, 320, 240
-0.968039, 225, 241, 256, 304
-0.968314, 233, 225, 296, 288
-0.968408, 181, 193, 212, 320
-0.969144, 121, 265, 184, 328
-0.969492, 225, 193, 288, 256
-0.969505, 193, 273, 256, 333
-0.969755, 225, 97, 288, 224
-0.969804, 225, 161, 288, 224
-0.970123, 281, 153, 344, 216
-0.970269, 145, 265, 208, 328
-0.970302, 161, 177, 224, 240
-0.970474, 81, 193, 144, 320
-0.970507, 193, 81, 448, 208
-0.970523, 49, 113, 176, 176
-0.970704, 1, 113, 128, 240
-0.970765, 265, 161, 328, 288
-0.971038, 193, 113, 256, 240
-0.971471, 173, 241, 204, 304
-0.971866, 129, 129, 192, 192
-0.971874, 213, 209, 244, 333
-0.972231, 201, 177, 264, 240
-0.972322, 177, 257, 304, 320
-0.972481, 161, 177, 288, 240
-0.972489, 249, 113, 312, 240
-0.972594, 105, 193, 168, 320
-0.972599, 113, 97, 176, 160
-0.97276, 89, 65, 152, 320
-0.973276, 161, 225, 288, 288
-0.9733, 33, 241, 160, 304
-0.973534, 185, 233, 216, 296
-0.973611, 57, 145, 120, 208
-0.97362, 49, 145, 112, 272
-0.973812, 177, 201, 304, 264
-0.973901, 241, 249, 304, 312
-0.974255, 117, 113, 148, 176
-0.97467, 41, 97, 104, 224
-0.974722, 85, 241, 116, 304
-0.974769, 97, 65, 224, 192
-0.975026, 33, 249, 96, 312
-0.975088, 209, 209, 240, 272
-0.975435, 125, 241, 156, 304
-0.975571, 177, 201, 208, 264
-0.975634, 169, 145, 232, 272
-0.975722, 113, 177, 176, 240
-0.975811, 57, 121, 120, 184
-0.976121, 145, 97, 208, 224
-0.976136, 141, 241, 172, 304
-0.976232, 153, 129, 216, 192
-0.97631, 169, 193, 200, 320
-0.976409, 1, 1, 500, 128
-0.97644, 225, 209, 256, 333
-0.976511, 201, 209, 232, 333
-0.976728, 97, 129, 224, 192
-0.977051, 257, 193, 288, 256
-0.977159, 145, 153, 208, 216
-0.977411, 141, 193, 172, 320
-0.977426, 209, 257, 240, 320
-0.977477, 105, 121, 136, 184
-0.977504, 113, 89, 144, 152
-0.977565, 181, 265, 212, 328
-0.977695, 49, 145, 176, 208
-0.977839, 97, 201, 224, 264
-0.977873, 33, 161, 160, 288
-0.978312, 121, 201, 184, 264
-0.978361, 249, 201, 312, 264
-0.97851, 77, 121, 108, 184
-0.97853, 97, 265, 160, 328
-0.978539, 289, 209, 416, 333
-0.978544, 81, 217, 144, 280
-0.978554, 89, 97, 120, 224
-0.97856, 225, 217, 256, 280
-0.978633, 257, 193, 288, 320
-0.978639, 153, 241, 184, 304
-0.978641, 81, 265, 208, 328
-0.978844, 105, 145, 168, 208
-0.97898, 197, 265, 228, 328
-0.979207, 273, 145, 400, 272
-0.979264, 41, 217, 104, 280
-0.979295, 269, 185, 300, 248
-0.979838, 97, 241, 128, 304
-0.980056, 241, 97, 368, 224
-0.980065, 165, 201, 196, 264
-0.980111, 73, 233, 104, 296
-0.980203, 245, 193, 276, 320
-0.980542, 1, 209, 128, 333
-0.980563, 113, 241, 144, 304
-0.980703, 289, 129, 352, 256
-0.980789, 233, 137, 296, 200
-0.98093, 61, 241, 92, 304
-0.981123, 237, 249, 268, 312
-0.981191, 185, 65, 248, 320
-0.981289, 89, 81, 152, 144
-0.981391, 49, 65, 176, 192
-0.981489, 169, 97, 232, 224
-0.981752, 93, 113, 124, 176
-0.981902, 209, 233, 336, 296
-0.981915, 153, 193, 184, 320
-0.982085, 145, 65, 208, 320
-0.982114, 161, 65, 288, 192
-0.982206, 153, 201, 184, 264
-0.982217, 257, 129, 320, 192
-0.982256, 113, 153, 240, 216
-0.982452, 41, 209, 104, 333
-0.982512, 129, 121, 160, 184
-0.982591, 33, 129, 96, 192
-0.982674, 137, 177, 200, 240
-0.982695, 81, 49, 144, 176
-0.982703, 109, 81, 140, 208
-0.982841, 197, 185, 228, 248
-0.983018, 129, 265, 256, 328
-0.983019, 265, 249, 328, 312
-0.983203, 241, 177, 368, 240
-0.983227, 249, 225, 280, 288
-0.983309, 121, 113, 152, 240
-0.983388, 329, 209, 392, 333
-0.983434, 201, 161, 232, 288
-0.983541, 105, 145, 136, 208
-0.983856, 97, 105, 224, 168
-0.98393, 65, 121, 96, 184
-0.983982, 257, 153, 320, 216
-0.984048, 9, 241, 72, 304
-0.984054, 73, 265, 136, 328
-0.984183, 193, 153, 320, 216
-0.984194, 229, 161, 260, 288
-0.984254, 85, 145, 116, 208
-0.984409, 225, 257, 352, 320
-0.984427, 209, 185, 240, 248
-0.984459, 193, 121, 256, 184
-0.984461, 221, 265, 252, 328
-0.984483, 137, 105, 200, 168
-0.984512, 77, 113, 108, 240
-0.984519, 49, 233, 80, 296
-0.984628, 113, 177, 240, 240
-0.984849, 153, 265, 184, 328
-0.985165, 281, 169, 312, 232
-0.985373, 161, 129, 192, 192
-0.98539, 337, 265, 400, 328
-0.985438, 265, 209, 328, 333
-0.985458, 217, 273, 280, 333
-0.985526, 153, 145, 184, 272
-0.985591, 1, 129, 128, 192
-0.985769, 257, 169, 288, 232
-0.98579, 145, 121, 272, 184
-0.985887, 65, 65, 128, 320
-0.985959, 193, 33, 448, 160
-0.98597, 229, 193, 260, 256
-0.986025, 245, 201, 276, 264
-0.986113, 49, 217, 176, 280
-0.986197, 141, 137, 172, 200
-0.986243, 305, 153, 368, 216
-0.986243, 113, 65, 176, 320
-0.986264, 241, 153, 368, 216
-0.986282, 69, 145, 100, 208
-0.98633, 241, 209, 368, 272
-0.986505, 273, 161, 304, 288
-0.986519, 73, 257, 104, 320
-0.986532, 237, 225, 268, 288
-0.986634, 133, 169, 164, 232
-0.986658, 121, 265, 152, 328
-0.986658, 33, 265, 160, 328
-0.986661, 133, 97, 164, 160
-0.986732, 129, 193, 160, 320
-0.986782, 65, 169, 192, 232
-0.986875, 305, 193, 368, 320
-0.986986, 353, 193, 480, 320
-0.987019, 109, 265, 140, 328
-0.98705, 297, 249, 360, 312
-0.987078, 117, 137, 148, 200
-0.987125, 101, 145, 132, 272
-0.987207, 9, 217, 72, 280
-0.987287, 269, 249, 300, 312
-0.987345, 201, 153, 264, 216
-0.987393, 329, 97, 392, 224
-0.987497, 1, 65, 128, 192
-0.987503, 121, 161, 152, 224
-0.987513, 169, 145, 200, 272
-0.98754, 201, 249, 264, 280
-0.987671, 201, 65, 264, 192
-0.987696, 57, 49, 120, 176
-0.987698, 177, 261, 240, 292
-0.987708, 369, 129, 496, 256
-0.987785, 141, 265, 172, 328
-0.988009, 141, 145, 172, 272
-0.988094, 113, 65, 176, 128
-0.988192, 301, 145, 332, 208
-0.988195, 261, 217, 292, 280
-0.988196, 281, 225, 344, 288
-0.988244, 137, 49, 200, 176
-0.988278, 289, 161, 416, 224
-0.988408, 181, 177, 212, 240
-0.988482, 61, 217, 92, 280
-0.988588, 269, 161, 300, 224
-0.988594, 241, 145, 272, 272
-0.988646, 369, 209, 432, 333
-0.988671, 213, 161, 244, 288
-0.988687, 305, 249, 432, 312
-0.988727, 49, 89, 176, 152
-0.988734, 89, 145, 120, 272
-0.988781, 285, 177, 316, 304
-0.988921, 361, 265, 424, 328
-0.988964, 297, 129, 360, 192
-0.989114, 133, 81, 164, 208
-0.989138, 57, 241, 120, 272
-0.989155, 209, 261, 272, 292
-0.989169, 249, 249, 280, 312
-0.989318, 161, 105, 224, 168
-0.989439, 17, 97, 80, 224
-0.989471, 65, 97, 96, 224
-0.989474, 425, 129, 488, 256
-0.989496, 177, 221, 240, 252
-0.989499, 145, 269, 208, 300
-0.989578, 149, 161, 180, 224
-0.989595, 221, 97, 252, 224
-0.989634, 289, 81, 416, 208
-0.989636, 185, 209, 248, 240
-0.989647, 241, 169, 272, 232
-0.989649, 153, 209, 216, 240
-0.989684, 141, 201, 172, 264
-0.98969, 65, 233, 320, 296
-0.989711, 209, 129, 336, 192
-0.989711, 209, 237, 272, 268
-0.989717, 121, 65, 152, 192
-0.989729, 73, 149, 136, 180
-0.989772, 241, 249, 304, 280
-0.98978, 113, 133, 176, 164
-0.989799, 161, 241, 224, 272
-0.989869, 165, 273, 196, 333
-0.989919, 113, 81, 240, 144
-0.989947, 81, 113, 144, 144
-0.990019, 369, 257, 496, 320
-0.99002, 73, 133, 136, 164
-0.990022, 261, 145, 292, 272
-0.990109, 289, 137, 416, 200
-0.990116, 37, 249, 68, 312
-0.990118, 369, 129, 432, 256
-0.990121, 169, 177, 200, 240
-0.990122, 233, 197, 296, 228
-0.990138, 101, 81, 132, 144
-0.990181, 433, 257, 496, 320
-0.990223, 153, 225, 216, 256
-0.990247, 81, 245, 144, 276
-0.990248, 185, 273, 248, 304
-0.990255, 113, 121, 176, 152
-0.990259, 185, 233, 248, 264
-0.990279, 25, 161, 88, 288
-0.990286, 257, 185, 320, 216
-0.990304, 241, 97, 272, 224
-0.990311, 337, 241, 400, 304
-0.990339, 41, 141, 104, 172
-0.99037, 337, 169, 400, 232
-0.990394, 177, 153, 240, 216
-0.990438, 97, 217, 128, 280
-0.99052, 209, 65, 272, 320
-0.990576, 189, 113, 220, 240
-0.990604, 305, 209, 336, 333
-0.990615, 177, 197, 240, 228
-0.990619, 137, 197, 200, 228
-0.990633, 233, 169, 296, 200
-0.990641, 85, 217, 116, 280
-0.990721, 113, 145, 176, 176
-0.990752, 209, 225, 272, 256
-0.990763, 209, 201, 272, 232
-0.990782, 233, 65, 296, 320
-0.99079, 113, 245, 176, 276
-0.990801, 225, 169, 256, 232
-0.990805, 33, 245, 96, 276
-0.990861, 105, 193, 136, 320
-0.990866, 121, 269, 184, 300
-0.990894, 57, 97, 120, 160
-0.990973, 49, 129, 112, 160
-0.991025, 321, 273, 448, 333
-0.991032, 81, 261, 144, 292
-0.991033, 245, 145, 276, 208
-0.991051, 69, 209, 100, 333
-0.991079, 289, 81, 352, 208
-0.991081, 25, 105, 88, 168
-0.991109, 145, 1, 208, 333
-0.991111, 65, 209, 320, 272
-0.991128, 393, 209, 456, 333
-0.991129, 233, 237, 296, 268
-0.991137, 145, 129, 208, 160
-0.991169, 225, 185, 288, 216
-0.991184, 273, 273, 400, 333
-0.991232, 129, 109, 192, 140
-0.991236, 273, 113, 304, 240
-0.991292, 81, 193, 112, 320
-0.991336, 53, 137, 84, 200
-0.991355, 49, 257, 80, 320
-0.991384, 81, 233, 144, 264
-0.991413, 289, 161, 352, 192
-0.991418, 57, 257, 120, 288
-0.991427, 113, 193, 176, 224
-0.991438, 137, 241, 200, 272
-0.991471, 177, 49, 240, 176
-0.991499, 233, 217, 296, 248
-0.991499, 169, 285, 232, 316
-0.991504, 105, 101, 168, 132
-0.991514, 217, 105, 280, 168
-0.99159, 257, 113, 384, 176
-0.99161, 337, 137, 400, 200
-0.991623, 153, 185, 216, 216
-0.991641, 257, 49, 320, 176
-0.991645, 1, 153, 128, 216
-0.991656, 257, 225, 320, 288
-0.991667, 145, 257, 208, 288
-0.991692, 209, 273, 272, 304
-0.991696, 261, 97, 292, 224
-0.991711, 225, 49, 288, 176
-0.991731, 281, 177, 344, 240
-0.991765, 233, 265, 296, 296
-0.991773, 169, 125, 232, 156
-0.99182, 177, 185, 240, 216
-0.991821, 209, 213, 272, 244
-0.991868, 57, 117, 120, 148
-0.991869, 105, 177, 168, 208
-0.991881, 89, 89, 152, 120
-0.991891, 201, 189, 264, 220
-0.991891, 189, 261, 220, 292
-0.991898, 161, 201, 416, 264
-0.991908, 97, 157, 160, 188
-0.991935, 345, 257, 376, 320
-0.991981, 137, 145, 200, 176
-0.991981, 257, 201, 320, 232
-0.991985, 285, 249, 316, 312
-0.992006, 273, 173, 336, 204
-0.992011, 289, 145, 320, 208
-0.992033, 345, 145, 408, 272
-0.992035, 257, 237, 320, 268
-0.992042, 337, 177, 464, 240
-0.992074, 205, 257, 236, 288
-0.992079, 273, 149, 336, 180
-0.99208, 121, 1, 184, 333
-0.992081, 49, 153, 112, 184
-0.992109, 201, 217, 232, 248
-0.992121, 193, 157, 256, 188
-0.992123, 329, 277, 392, 308
-0.992127, 129, 161, 192, 192
-0.992137, 189, 205, 220, 236
-0.992142, 129, 209, 192, 240
-0.992177, 121, 229, 184, 260
-0.992205, 25, 129, 88, 160
-0.99223, 33, 233, 96, 264
-0.992273, 241, 49, 368, 176
-0.992287, 385, 249, 448, 312
-0.992288, 217, 233, 248, 264
-0.99231, 261, 193, 292, 224
-0.992311, 233, 157, 296, 188
-0.992321, 197, 241, 228, 272
-0.992336, 225, 249, 256, 280
-0.992361, 69, 241, 100, 272
-0.992367, 9, 249, 72, 280
-0.992399, 193, 201, 208, 264
-0.9924, 77, 141, 108, 172
-0.992402, 89, 169, 152, 232
-0.992409, 257, 145, 288, 208
-0.992412, 209, 245, 240, 276
-0.992421, 185, 225, 216, 256
-0.992422, 81, 101, 144, 132
-0.992439, 193, 169, 256, 200
-0.992448, 129, 97, 192, 128
-0.992452, 199, 233, 214, 296
-0.992492, 173, 121, 204, 184
-0.992508, 205, 161, 236, 224
-0.992509, 161, 257, 416, 320
-0.992521, 193, 117, 256, 148
-0.992523, 273, 181, 304, 212
-0.992525, 9, 233, 72, 264
-0.992528, 337, 177, 400, 208
-0.992536, 49, 245, 80, 276
-0.992537, 117, 113, 148, 144
-0.99255, 145, 173, 208, 204
-0.992555, 265, 261, 328, 292
-0.992581, 117, 193, 148, 320
-0.992584, 205, 201, 236, 232
-0.992585, 105, 257, 168, 288
-0.992597, 81, 241, 112, 272
-0.992597, 229, 237, 260, 268
-0.992599, 253, 205, 284, 236
-0.992605, 193, 145, 256, 176
-0.992628, 97, 1, 160, 333
-0.99263, 57, 229, 120, 260
-0.992638, 93, 245, 124, 276
-0.992642, 249, 249, 280, 280
-0.992656, 321, 153, 384, 184
-0.992657, 169, 1, 232, 333
-0.992658, 105, 249, 136, 280
-0.992666, 281, 241, 344, 272
-0.992675, 117, 125, 148, 156
-0.992676, 257, 137, 320, 168
-0.992677, 61, 129, 92, 160
-0.992679, 1, 257, 256, 320
-0.99268, 161, 225, 416, 288
-0.992685, 225, 113, 288, 144
-0.992689, 189, 273, 220, 304
-0.992694, 89, 145, 120, 176
-0.992702, 297, 149, 360, 180
-0.992708, 177, 269, 208, 300
-0.992712, 105, 153, 136, 184
-0.992716, 97, 121, 352, 184
-0.99272, 265, 161, 328, 192
-0.992725, 105, 109, 136, 140
-0.992728, 237, 249, 268, 280
-0.992728, 369, 81, 496, 208
-0.992732, 113, 81, 176, 112
-0.99274, 219, 249, 234, 312
-0.99274, 229, 269, 260, 300
-0.992748, 205, 269, 236, 300
-0.992764, 65, 141, 96, 172
-0.992773, 177, 205, 208, 236
-0.992773, 313, 165, 376, 196
-0.992774, 205, 229, 236, 260
-0.992783, 205, 249, 220, 312
-0.992786, 121, 245, 152, 276
-0.992803, 313, 153, 344, 216
-0.992806, 129, 177, 160, 208
-0.992807, 369, 181, 432, 212
-0.992808, 337, 189, 400, 220
-0.99281, 105, 121, 136, 152
-0.992817, 257, 213, 320, 244
-0.992821, 369, 153, 496, 216
-0.992822, 265, 209, 296, 240
-0.992823, 297, 253, 360, 284
-0.99283, 129, 113, 160, 144
-0.992836, 305, 177, 368, 208
-0.992836, 301, 157, 332, 188
-0.992849, 257, 105, 320, 168
-0.992849, 361, 281, 424, 312
-0.992858, 337, 165, 400, 196
-0.992859, 433, 269, 496, 300
-0.99286, 101, 141, 132, 172
-0.992862, 73, 125, 104, 156
-0.992867, 185, 237, 216, 268
-0.992867, 217, 261, 248, 292
-0.992868, 49, 125, 176, 156
-0.992878, 193, 233, 208, 296
-0.99288, 213, 213, 244, 244
-0.992889, 141, 189, 172, 220
-0.992901, 153, 133, 184, 164
-0.992905, 173, 221, 204, 252
-0.992907, 77, 65, 108, 192
-0.992912, 145, 285, 208, 316
-0.992912, 165, 209, 196, 240
-0.99292, 149, 201, 180, 232
-0.992922, 121, 265, 152, 296
-0.992922, 209, 113, 240, 240
-0.992925, 329, 289, 392, 320
-0.992925, 249, 193, 280, 224
-0.992928, 369, 265, 400, 328
-0.99293, 33, 257, 96, 288
-0.992933, 241, 261, 272, 292
-0.992935, 233, 145, 296, 176
-0.992935, 257, 225, 320, 256
-0.992936, 85, 117, 116, 148
-0.992939, 165, 273, 196, 304
-0.992942, 65, 253, 96, 284
-0.992948, 125, 101, 156, 132
-0.992949, 241, 233, 272, 264
-0.992964, 69, 153, 100, 184
-0.992969, 105, 261, 136, 292
-0.99297, 227, 225, 242, 288
-0.992976, 305, 281, 368, 312
-0.99298, 93, 193, 124, 320
-0.992991, 177, 97, 304, 160
-0.992995, 229, 225, 260, 256
-0.992996, 53, 141, 84, 172
-0.992996, 361, 269, 424, 300
-0.993003, 161, 265, 288, 296
-0.993005, 153, 269, 184, 300
-0.993008, 169, 193, 200, 224
-0.993027, 89, 133, 120, 164
-0.993034, 297, 137, 360, 168
-0.993042, 253, 217, 284, 248
-0.993047, 49, 233, 80, 264
-0.993055, 177, 257, 208, 288
-0.993055, 129, 125, 160, 156
-0.993065, 261, 181, 292, 212
-0.993069, 321, 249, 352, 312
-0.993069, 153, 157, 216, 188
-0.99308, 81, 257, 112, 288
-0.993081, 433, 281, 496, 312
-0.993082, 161, 145, 224, 176
-0.993083, 73, 161, 136, 192
-0.99309, 133, 265, 164, 296
-0.993095, 265, 241, 296, 272
-0.9931, 173, 241, 204, 272
-0.993105, 321, 141, 384, 172
-0.993106, 121, 165, 152, 196
-0.993114, 217, 201, 248, 232
-0.993114, 1, 105, 128, 168
-0.993116, 309, 145, 340, 176
-0.99312, 253, 237, 284, 268
-0.993123, 113, 137, 144, 168
-0.99314, 273, 197, 304, 228
-0.993142, 157, 189, 188, 220
-0.993143, 201, 189, 232, 220
-0.993145, 121, 149, 152, 180
-0.993146, 117, 89, 148, 120
-0.993147, 133, 245, 164, 276
-0.993153, 225, 213, 256, 244
-0.993153, 249, 117, 312, 148
-0.993155, 201, 281, 232, 312
-0.993165, 33, 245, 64, 276
-0.993169, 241, 205, 272, 236
-0.993171, 193, 161, 224, 224
-0.993173, 93, 261, 124, 292
-0.993174, 233, 277, 296, 308
-0.993178, 33, 109, 96, 140
-0.993181, 81, 77, 144, 108
-0.993181, 133, 157, 164, 188
-0.993187, 17, 141, 80, 172
-0.993189, 141, 133, 172, 164
-0.993197, 209, 1, 272, 333
-0.993198, 1, 217, 128, 280
-0.993198, 353, 281, 384, 312
-0.993211, 285, 173, 316, 204
-0.993221, 181, 285, 212, 316
-0.993235, 189, 189, 220, 220
-0.993241, 165, 133, 196, 164
-0.993245, 153, 241, 184, 272
-0.993249, 433, 193, 496, 224
-0.993252, 41, 165, 104, 196
-0.993253, 161, 113, 224, 144
-0.99326, 137, 101, 168, 132
-0.993264, 377, 181, 408, 212
-0.993266, 313, 157, 344, 188
-0.993269, 369, 169, 432, 200
-0.99328, 285, 253, 316, 284
-0.99328, 241, 153, 272, 184
-0.993288, 113, 245, 240, 276
-0.993288, 341, 273, 372, 304
-0.993297, 85, 157, 116, 188
-0.993299, 237, 185, 268, 216
-0.993305, 93, 105, 124, 136
-0.993308, 269, 169, 300, 200
-0.993316, 369, 273, 400, 304
-0.993326, 257, 169, 288, 200
-0.993331, 217, 273, 248, 304
-0.993332, 97, 265, 128, 328
-0.993337, 149, 177, 180, 208
-0.993348, 385, 197, 448, 228
-0.993349, 109, 165, 140, 196
-0.99335, 329, 265, 392, 296
-0.993358, 105, 237, 136, 268
-0.993359, 365, 169, 396, 200
-0.99336, 221, 189, 252, 220
-0.993361, 125, 229, 156, 260
-0.993362, 161, 225, 192, 256
-0.993362, 33, 221, 96, 252
-0.993369, 281, 125, 344, 156
-0.99337, 85, 229, 116, 260
-0.993373, 137, 233, 168, 264
-0.99338, 1, 169, 64, 200
-0.993386, 289, 241, 320, 272
-0.993389, 325, 157, 356, 188
-0.99339, 81, 221, 144, 252
-0.993391, 125, 137, 156, 168
-0.993393, 141, 121, 172, 152
-0.993394, 241, 169, 272, 200
-0.993398, 293, 145, 324, 176
-0.993408, 105, 93, 136, 124
-0.993408, 289, 265, 352, 296
-0.99341, 329, 277, 360, 308
-0.993411, 409, 197, 472, 228
-0.993414, 349, 177, 380, 208
-0.993449, 33, 17, 288, 144
-0.993462, 305, 177, 368, 240
-0.993471, 29, 225, 60, 288
-0.993501, 289, 185, 416, 248
-0.993508, 297, 273, 360, 333
-0.993513, 177, 253, 304, 284
-0.99352, 205, 217, 220, 280
-0.993683, 211, 241, 226, 304
-0.993704, 235, 249, 250, 312
-0.993737, 369, 185, 432, 248
-0.993745, 53, 97, 84, 224
-0.99378, 269, 209, 300, 333
-0.993813, 321, 145, 384, 272
-0.993822, 109, 217, 140, 280
-0.993857, 393, 129, 456, 256
-0.993858, 199, 209, 214, 272
-0.993896, 225, 249, 240, 312
-0.993929, 187, 233, 202, 296
-0.993934, 125, 73, 156, 136
-0.993945, 195, 257, 210, 320
-0.993954, 145, 97, 176, 224
-0.994046, 257, 233, 384, 296
-0.994081, 241, 241, 256, 304
-0.994113, 145, 105, 176, 168
-0.994178, 125, 129, 140, 192
-0.99418, 265, 193, 280, 256
-0.994241, 185, 121, 216, 184
-0.994277, 177, 197, 304, 228
-0.994278, 217, 225, 232, 288
-0.994283, 65, 153, 320, 216
-0.994319, 135, 241, 150, 304
-0.994324, 273, 209, 304, 272
-0.994423, 185, 81, 248, 144
-0.994428, 193, 177, 448, 240
-0.994459, 305, 113, 432, 176
-0.994487, 145, 241, 160, 304
-0.994487, 353, 89, 480, 152
-0.994495, 161, 209, 288, 240
-0.994535, 211, 217, 226, 280
-0.994579, 1, 129, 256, 192
-0.994581, 161, 241, 176, 304
-0.994595, 1, 241, 500, 304
-0.994604, 353, 129, 480, 192
-0.994607, 187, 201, 202, 264
-0.99462, 113, 269, 240, 300
-0.994624, 469, 265, 500, 328
-0.994632, 113, 205, 240, 236
-0.994636, 425, 193, 488, 320
-0.99464, 33, 185, 288, 248
-0.994643, 233, 1, 296, 333
-0.994667, 91, 233, 106, 296
-0.994671, 161, 233, 288, 264
-0.994696, 65, 145, 96, 272
-0.994728, 225, 89, 352, 152
-0.994733, 73, 209, 104, 272
-0.994746, 33, 245, 160, 276
-0.994751, 169, 97, 200, 224
-0.994776, 337, 201, 464, 264
-0.994781, 113, 65, 144, 128
-0.994785, 225, 201, 240, 264
-0.994791, 119, 121, 134, 184
-0.994794, 127, 105, 142, 168
-0.994816, 129, 241, 144, 304
-0.994836, 41, 65, 104, 320
-0.994839, 49, 149, 176, 180
-0.994897, 151, 241, 166, 304
-0.994898, 83, 241, 98, 304
-0.994915, 433, 177, 496, 240
-0.994916, 65, 137, 192, 168
-0.994938, 233, 225, 248, 288
-0.99494, 271, 185, 286, 248
-0.994941, 79, 121, 94, 184
-0.994956, 93, 49, 124, 176
-0.995006, 137, 81, 200, 144
-0.995036, 169, 241, 184, 304
-0.99504, 181, 201, 196, 264
-0.995043, 197, 121, 228, 184
-0.995054, 25, 273, 88, 333
-0.995095, 265, 1, 328, 333
-0.995098, 377, 177, 408, 304
-0.995117, 161, 221, 288, 252
-0.995118, 321, 225, 448, 288
-0.995127, 113, 257, 240, 288
-0.99514, 297, 161, 328, 288
-0.995143, 73, 1, 136, 333
-0.995144, 393, 217, 456, 280
-0.995158, 101, 241, 116, 304
-0.995162, 123, 241, 138, 304
-0.995169, 129, 217, 160, 280
-0.995174, 189, 257, 204, 320
-0.995208, 1, 209, 500, 272
-0.995258, 297, 105, 360, 168
-0.995258, 285, 113, 316, 240
-0.995306, 33, 17, 160, 144
-0.995323, 329, 273, 360, 333
-0.995324, 181, 241, 196, 304
-0.995332, 77, 241, 92, 304
-0.995348, 247, 249, 262, 312
-0.995376, 377, 161, 440, 224
-0.99538, 369, 233, 496, 296
-0.99541, 123, 81, 138, 144
-0.995423, 273, 65, 336, 320
-0.995431, 357, 273, 388, 333
-0.995434, 433, 233, 496, 296
-0.995439, 55, 241, 70, 304
-0.995475, 297, 65, 360, 320
-0.995482, 113, 241, 128, 304
-0.995507, 145, 181, 272, 212
-0.995528, 225, 249, 352, 280
-0.99553, 49, 193, 176, 256
-0.995538, 133, 105, 148, 168
-0.995569, 69, 241, 84, 304
-0.995591, 85, 121, 100, 184
-0.995617, 85, 265, 116, 328
-0.995632, 417, 113, 480, 176
-0.99566, 171, 201, 186, 264
-0.995666, 213, 265, 228, 328
-0.995674, 33, 257, 160, 288
-0.995703, 233, 49, 264, 176
-0.995705, 49, 113, 176, 144
-0.995722, 425, 57, 488, 120
-0.995726, 113, 121, 128, 184
-0.995729, 97, 153, 224, 184
-0.995737, 281, 177, 296, 240
-0.99578, 273, 89, 400, 152
-0.995784, 107, 241, 122, 304
-0.9958, 211, 177, 226, 240
-0.995828, 91, 137, 106, 200
-0.995837, 337, 65, 464, 128
-0.99584, 65, 169, 128, 232
-0.995855, 1, 129, 500, 192
-0.995892, 65, 97, 320, 160
-0.995926, 213, 113, 244, 176
-0.995934, 305, 121, 336, 184
-0.995945, 97, 109, 224, 140
-0.995957, 345, 193, 408, 256
-0.995962, 17, 137, 144, 168
-0.995962, 81, 57, 144, 120
-0.995965, 177, 169, 304, 200
-0.995969, 409, 273, 472, 333
-0.995972, 333, 161, 364, 224
-0.995985, 205, 193, 220, 256
-0.995997, 61, 241, 76, 304
-0.996005, 1, 177, 128, 240
-0.996013, 113, 229, 240, 260
-0.996019, 293, 169, 324, 232
-0.996029, 1, 145, 64, 272
-0.996031, 161, 277, 288, 308
-0.996032, 175, 241, 190, 304
-0.996041, 79, 145, 94, 208
-0.996046, 237, 113, 268, 176
-0.99607, 317, 177, 348, 304
-0.996137, 255, 201, 270, 264
-0.996139, 25, 177, 88, 240
-0.996153, 131, 129, 146, 192
-0.996212, 273, 201, 336, 264
-0.996229, 321, 217, 384, 280
-0.996235, 381, 273, 412, 333
-0.996241, 1, 169, 500, 232
-0.996247, 107, 121, 122, 184
-0.996265, 257, 181, 384, 212
-0.996266, 129, 169, 256, 200
-0.996292, 147, 177, 162, 240
-0.996297, 361, 129, 424, 192
-0.996311, 345, 1, 408, 333
-0.996315, 247, 225, 262, 288
-0.996323, 205, 273, 220, 333
-0.996331, 95, 113, 110, 176
-0.996351, 219, 201, 234, 264
-0.996359, 271, 161, 286, 224
-0.99636, 225, 153, 352, 184
-0.996369, 163, 201, 178, 264
-0.996373, 155, 201, 170, 264
-0.996387, 117, 97, 132, 160
-0.996388, 369, 169, 400, 232
-0.99639, 345, 169, 376, 232
-0.9964, 61, 97, 92, 160
-0.996405, 241, 49, 368, 112
-0.996412, 165, 265, 180, 328
-0.996417, 161, 105, 192, 168
-0.996439, 49, 241, 64, 304
-0.99644, 125, 265, 140, 328
-0.996451, 33, 153, 96, 216
-0.996454, 209, 81, 272, 144
-0.996457, 273, 169, 400, 200
-0.996457, 397, 209, 428, 333
-0.996482, 365, 209, 396, 333
-0.996486, 137, 265, 152, 328
-0.996491, 255, 225, 270, 288
-0.996517, 233, 201, 248, 264
-0.99653, 141, 169, 156, 232
-0.996531, 81, 193, 208, 224
-0.996549, 181, 153, 212, 216
-0.996556, 115, 145, 130, 208
-0.996565, 83, 217, 98, 280
-0.996581, 49, 233, 176, 264
-0.996587, 325, 137, 356, 200
-0.996616, 73, 145, 88, 208
-0.99664, 163, 129, 178, 192
-0.996645, 225, 261, 352, 292
-0.996648, 1, 73, 128, 136
-0.996663, 271, 209, 286, 272
-0.996663, 285, 225, 316, 288
-0.996664, 265, 169, 280, 232
-0.996683, 97, 125, 224, 156
-0.996696, 85, 153, 100, 216
-0.996697, 129, 193, 256, 224
-0.996704, 227, 273, 242, 333
-0.996713, 261, 217, 276, 280
-0.996715, 113, 217, 240, 248
-0.996736, 125, 153, 140, 216
-0.996736, 101, 145, 116, 208
-0.996742, 321, 145, 448, 272
-0.996756, 353, 33, 480, 160
-0.996765, 305, 1, 432, 128
-0.996766, 191, 261, 206, 292
-0.996769, 193, 205, 208, 236
-0.99677, 209, 245, 224, 276
-0.996773, 313, 49, 376, 176
-0.996788, 113, 137, 240, 168
-0.996801, 189, 65, 220, 192
-0.996804, 195, 177, 210, 240
-0.996809, 133, 161, 148, 224
-0.996814, 1, 265, 500, 328
-0.996817, 151, 265, 166, 328
-0.996819, 1, 193, 64, 256
-0.996829, 281, 81, 344, 144
-0.996835, 221, 145, 252, 208
-0.996845, 131, 265, 146, 328
-0.996851, 277, 201, 292, 264
-0.996857, 117, 265, 132, 328
-0.996861, 69, 121, 84, 184
-0.996865, 321, 113, 384, 176
-0.996872, 433, 153, 496, 216
-0.996873, 337, 65, 400, 320
-0.996875, 241, 265, 256, 328
-0.996887, 413, 161, 444, 288
-0.996892, 203, 257, 218, 288
-0.996896, 139, 145, 154, 208
-0.996914, 329, 145, 360, 272
-0.996918, 1, 169, 64, 232
-0.996933, 209, 233, 336, 264
-0.996935, 173, 273, 188, 333
-0.996968, 129, 81, 144, 144
-0.996969, 241, 217, 256, 280
-0.99697, 289, 65, 416, 128
-0.99697, 101, 121, 116, 184
-0.996978, 209, 273, 336, 304
-0.996982, 217, 245, 232, 276
-0.996989, 393, 121, 456, 184
-0.996999, 157, 265, 172, 328
-0.997, 263, 189, 278, 220
-0.997009, 49, 209, 80, 272
-0.997012, 223, 241, 238, 272
-0.997019, 183, 265, 198, 328
-0.997023, 209, 213, 336, 244
-0.997026, 143, 265, 158, 328
-0.997033, 1, 149, 128, 180
-0.997034, 193, 229, 208, 260
-0.997044, 97, 65, 128, 320
-0.99708, 483, 265, 498, 328
-0.997109, 71, 217, 86, 280
-0.997111, 111, 97, 126, 160
-0.997123, 95, 257, 110, 320
-0.997126, 307, 145, 322, 208
-0.997128, 225, 177, 240, 240
-0.997133, 113, 65, 144, 320
-0.997133, 77, 217, 92, 280
-0.997145, 193, 181, 320, 212
-0.997152, 271, 201, 286, 232
-0.997168, 161, 121, 288, 152
-0.997171, 217, 225, 232, 256
-0.997172, 353, 105, 416, 168
-0.997178, 149, 201, 164, 264
-0.997193, 197, 261, 212, 292
-0.997198, 153, 129, 168, 192
-0.997203, 225, 213, 240, 244
-0.997209, 57, 217, 72, 280
-0.997211, 333, 249, 364, 312
-0.997221, 241, 273, 304, 333
-0.997233, 305, 113, 336, 240
-0.997239, 235, 177, 250, 240
-0.997242, 305, 181, 432, 212
-0.997244, 239, 249, 254, 280
-0.997248, 213, 261, 228, 292
-0.997263, 193, 153, 448, 216
-0.997266, 343, 273, 358, 333
-0.997274, 277, 129, 308, 192
-0.997276, 97, 217, 112, 280
-0.997293, 65, 269, 192, 300
-0.997294, 209, 65, 240, 192
-0.997298, 135, 81, 150, 144
-0.9973, 89, 257, 104, 320
-0.997303, 89, 89, 120, 152
-0.997327, 83, 137, 98, 168
-0.997328, 131, 113, 146, 144
-0.99733, 225, 257, 240, 288
-0.997339, 139, 121, 154, 184
-0.997356, 285, 249, 300, 312
-0.997363, 203, 169, 218, 232
-0.997366, 207, 269, 222, 300
-0.997371, 107, 145, 122, 208
-0.997371, 219, 273, 234, 333
-0.997371, 241, 197, 368, 228
-0.997381, 85, 65, 116, 320
-0.997381, 49, 57, 176, 120
-0.997384, 321, 153, 336, 216
-0.997387, 169, 129, 184, 192
-0.997388, 369, 173, 496, 204
-0.997395, 65, 217, 80, 280
-0.997411, 341, 249, 356, 312
-0.997418, 287, 153, 302, 216
-0.997423, 389, 161, 420, 288
-0.997426, 353, 65, 416, 192
-0.997429, 129, 17, 256, 144
-0.997432, 229, 237, 244, 268
-0.997433, 33, 1, 96, 333
-0.997436, 253, 249, 268, 312
-0.997437, 147, 145, 162, 208
-0.997445, 85, 241, 100, 272
-0.997448, 125, 113, 140, 144
-0.997455, 377, 1, 440, 333
-0.997462, 193, 113, 448, 176
-0.997481, 89, 141, 104, 172
-0.997488, 201, 245, 216, 276
-0.997488, 389, 249, 420, 312
-0.997489, 57, 193, 88, 320
-0.997497, 219, 257, 234, 288
-0.997504, 77, 145, 92, 176
-0.997514, 305, 33, 432, 96
-0.99752, 71, 241, 86, 272
-0.997527, 225, 165, 352, 196
-0.997542, 233, 249, 248, 280
-0.997543, 393, 73, 456, 136
-0.997543, 257, 249, 500, 312
-0.997545, 269, 189, 284, 220
-0.997547, 245, 245, 260, 276
-0.997548, 187, 225, 202, 256
-0.997553, 193, 33, 320, 96
-0.997556, 263, 205, 278, 236
-0.997563, 71, 129, 86, 160
-0.997568, 377, 49, 440, 112
-0.997571, 185, 269, 200, 300
-0.997572, 107, 249, 122, 280
-0.997577, 265, 121, 296, 184
-0.997593, 305, 281, 432, 312
-0.997595, 55, 245, 70, 276
-0.997595, 197, 65, 228, 320
-0.997605, 61, 245, 76, 276
-0.997614, 409, 177, 472, 240
-0.997617, 193, 65, 320, 128
-0.997632, 255, 245, 270, 276
-0.997633, 33, 161, 160, 192
-0.997642, 353, 145, 384, 208
-0.997642, 289, 145, 416, 176
-0.997647, 99, 245, 114, 276
-0.997656, 205, 217, 220, 248
-0.997659, 199, 225, 214, 256
-0.997659, 183, 201, 198, 232
-0.997667, 225, 141, 352, 172
-0.997671, 119, 109, 134, 140
-0.997675, 305, 1, 368, 333
-0.997692, 277, 181, 292, 212
-0.997706, 61, 265, 92, 328
-0.997717, 113, 249, 128, 280
-0.997718, 173, 65, 204, 320
-0.99772, 389, 161, 420, 224
-0.997726, 71, 141, 86, 172
-0.997734, 79, 241, 94, 272
-0.99774, 257, 201, 272, 232
-0.997742, 273, 157, 400, 188
-0.997744, 177, 153, 304, 184
-0.99775, 417, 209, 480, 272
-0.997755, 65, 181, 192, 212
-0.997757, 321, 269, 448, 300
-0.99777, 143, 181, 158, 212
-0.997771, 221, 201, 236, 232
-0.997773, 77, 97, 108, 160
-0.997781, 125, 245, 140, 276
-0.997784, 207, 201, 222, 232
-0.997795, 227, 225, 242, 256
-0.997796, 409, 153, 472, 216
-0.997799, 195, 245, 210, 276
-0.997805, 119, 249, 134, 280
-0.997808, 245, 49, 276, 176
-0.997819, 245, 261, 260, 292
-0.997819, 119, 121, 134, 152
-0.997843, 297, 233, 328, 296
-0.997849, 95, 145, 110, 176
-0.997865, 289, 121, 320, 184
-0.997893, 113, 57, 240, 120
-0.997905, 239, 265, 254, 296
-0.997906, 229, 193, 244, 224
-0.997906, 129, 125, 144, 156
-0.99791, 127, 265, 142, 296
-0.997921, 105, 33, 168, 160
-0.997939, 65, 129, 80, 160
-0.997946, 1, 117, 128, 148
-0.997948, 65, 141, 80, 172
-0.99795, 113, 41, 176, 104
-0.997955, 49, 245, 64, 276
-0.997962, 417, 1, 480, 333
-0.997962, 111, 113, 126, 144
-0.997967, 189, 241, 204, 272
-0.997967, 109, 169, 140, 232
-0.99797, 81, 121, 96, 152
-0.99797, 179, 273, 194, 304
-0.99798, 251, 257, 266, 288
-0.997985, 161, 141, 288, 172
-0.997989, 101, 141, 116, 172
-0.998002, 197, 277, 212, 308
-0.998009, 209, 113, 336, 144
-0.998014, 211, 221, 226, 252
-0.998017, 115, 261, 130, 292
-0.998018, 105, 33, 136, 160
-0.998018, 91, 237, 106, 268
-0.998026, 125, 101, 140, 132
-0.998048, 1, 105, 500, 168
-0.998053, 119, 157, 134, 188
-0.998074, 149, 49, 180, 176
-0.998083, 135, 265, 150, 296
-0.998086, 183, 213, 198, 244
-0.998093, 233, 265, 248, 296
-0.998095, 177, 201, 192, 232
-0.998111, 191, 277, 206, 308
-0.99812, 257, 201, 500, 264
-0.998121, 249, 233, 264, 264
-0.998122, 369, 161, 496, 192
-0.998124, 149, 189, 164, 220
-0.998127, 271, 213, 286, 244
-0.998135, 131, 101, 146, 132
-0.998139, 131, 245, 146, 276
-0.99814, 137, 109, 152, 140
-0.99815, 305, 153, 320, 184
-0.998158, 369, 41, 496, 104
-0.998159, 157, 97, 188, 224
-0.99816, 125, 165, 140, 196
-0.998161, 137, 57, 200, 120
-0.998161, 361, 241, 424, 304
-0.998162, 163, 133, 178, 164
-0.998164, 199, 205, 214, 236
-0.998165, 163, 201, 178, 232
-0.998167, 207, 233, 222, 264
-0.998177, 65, 221, 192, 252
-0.998178, 255, 233, 270, 264
-0.998182, 277, 201, 292, 232
-0.998186, 311, 145, 326, 176
-0.998189, 65, 205, 192, 236
-0.998194, 33, 101, 160, 132
-0.998196, 321, 169, 448, 200
-0.998197, 97, 73, 352, 136
-0.998202, 89, 153, 104, 184
-0.998214, 263, 245, 278, 276
-0.998229, 257, 277, 384, 308
-0.998232, 115, 133, 130, 164
-0.998233, 261, 233, 276, 264
-0.998234, 63, 233, 78, 264
-0.998236, 107, 137, 122, 168
-0.998245, 121, 265, 136, 296
-0.998246, 77, 133, 92, 164
-0.99825, 57, 65, 120, 128
-0.998262, 135, 125, 150, 156
-0.998274, 123, 77, 138, 108
-0.998281, 81, 17, 208, 80
-0.998286, 225, 113, 256, 176
-0.998286, 165, 269, 180, 300
-0.998287, 131, 169, 146, 200
-0.998287, 67, 253, 82, 284
-0.998288, 137, 169, 152, 200
-0.998289, 261, 217, 276, 248
-0.998293, 155, 197, 170, 228
-0.998295, 79, 253, 94, 284
-0.998295, 57, 233, 72, 264
-0.998298, 171, 205, 186, 236
-0.998304, 185, 281, 200, 312
-0.998304, 83, 153, 98, 184
-0.998307, 73, 253, 88, 284
-0.998308, 153, 65, 184, 320
-0.998308, 209, 65, 240, 320
-0.998317, 117, 145, 132, 176
-0.998319, 209, 251, 272, 266
-0.99832, 107, 153, 122, 184
-0.998321, 177, 267, 240, 282
-0.998322, 183, 241, 198, 272
-0.998322, 283, 181, 298, 212
-0.998323, 173, 273, 188, 304
-0.998325, 193, 217, 208, 248
-0.99833, 215, 209, 230, 240
-0.998334, 137, 97, 152, 128
-0.998339, 257, 213, 384, 244
-0.998349, 155, 137, 170, 168
-0.998353, 245, 157, 260, 188
-0.998353, 273, 273, 336, 333
-0.998355, 89, 257, 104, 288
-0.998356, 205, 281, 220, 312
-0.99836, 225, 201, 256, 216
-0.998361, 45, 137, 76, 152
-0.998361, 81, 119, 112, 134
-0.998361, 101, 147, 132, 162
-0.998361, 117, 91, 148, 106
-0.998362, 149, 193, 180, 208
-0.998363, 153, 243, 184, 258
-0.998363, 173, 285, 204, 300
-0.998364, 73, 135, 104, 150
-0.998365, 77, 259, 108, 274
-0.998367, 257, 269, 288, 284
-0.998367, 173, 223, 204, 238
-0.998368, 385, 273, 448, 333
-0.998369, 197, 239, 228, 254
-0.998371, 325, 257, 356, 272
-0.998374, 133, 167, 164, 182
-0.998374, 281, 179, 312, 194
-0.998374, 169, 199, 200, 214
-0.998375, 245, 215, 276, 230
-0.998376, 133, 107, 164, 122
-0.998376, 81, 165, 208, 196
-0.998377, 309, 151, 340, 166
-0.998379, 69, 253, 100, 268
-0.99838, 173, 129, 204, 144
-0.99838, 137, 269, 168, 284
-0.99838, 125, 179, 156, 194
-0.99838, 369, 181, 400, 196
-0.998381, 113, 265, 144, 280
-0.998382, 169, 275, 200, 290
-0.998382, 305, 257, 336, 272
-0.998383, 353, 285, 384, 300
-0.998383, 153, 201, 184, 216
-0.998386, 65, 151, 96, 166
-0.998386, 233, 223, 264, 238
-0.998388, 269, 213, 300, 228
-0.998388, 393, 177, 424, 192
-0.998389, 153, 137, 184, 152
-0.99839, 1, 265, 64, 328
-0.998391, 105, 135, 136, 150
-0.998392, 73, 127, 104, 142
-0.998394, 109, 165, 140, 180
-0.998397, 17, 209, 80, 333
-0.998397, 229, 275, 260, 290
-0.998397, 285, 251, 316, 266
-0.998399, 121, 155, 152, 170
-0.998399, 109, 111, 140, 126
-0.9984, 293, 155, 324, 170
-0.998401, 57, 247, 88, 262
-0.998401, 65, 193, 128, 256
-0.998402, 241, 267, 272, 282
-0.998402, 89, 261, 120, 276
-0.998402, 273, 201, 304, 216
-0.998402, 241, 199, 272, 214
-0.998407, 185, 261, 248, 276
-0.998408, 85, 241, 116, 256
-0.998409, 185, 231, 216, 246
-0.998409, 213, 229, 244, 244
-0.998411, 121, 169, 152, 184
-0.998411, 101, 263, 132, 278
-0.998411, 125, 101, 156, 116
-0.998413, 169, 241, 200, 256
-0.998415, 237, 245, 268, 260
-0.998415, 185, 223, 216, 238
-0.998415, 89, 113, 120, 128
-0.99842, 73, 157, 104, 172
-0.998422, 149, 269, 180, 284
-0.998423, 125, 269, 156, 284
-0.998424, 93, 249, 124, 264
-0.998424, 213, 255, 244, 270
-0.998428, 213, 223, 244, 238
-0.998428, 257, 225, 500, 288
-0.998428, 121, 111, 152, 126
-0.998432, 197, 227, 228, 242
-0.998433, 105, 159, 136, 174
-0.998434, 385, 183, 416, 198
-0.998438, 225, 233, 256, 248
-0.998438, 157, 207, 188, 222
-0.998439, 253, 209, 284, 224
-0.99844, 89, 147, 120, 162
-0.998441, 241, 125, 368, 156
-0.998443, 269, 255, 300, 270
-0.998443, 33, 249, 64, 264
-0.998444, 185, 237, 216, 252
-0.998444, 217, 273, 248, 288
-0.998445, 205, 201, 236, 216
-0.998446, 201, 269, 264, 284
-0.998447, 249, 245, 280, 260
-0.998447, 305, 159, 336, 174
-0.998448, 457, 169, 488, 232
-0.998449, 205, 273, 236, 288
-0.998449, 73, 153, 136, 168
-0.998453, 249, 255, 312, 270
-0.998454, 201, 215, 232, 230
-0.998455, 249, 257, 280, 272
-0.998455, 285, 257, 316, 272
-0.998456, 141, 199, 172, 214
-0.998457, 129, 119, 160, 134
-0.998458, 77, 141, 108, 156
-0.998459, 257, 219, 288, 234
-0.998461, 125, 65, 156, 320
-0.998465, 161, 273, 224, 288
-0.998466, 289, 133, 416, 164
-0.998467, 85, 153, 116, 168
-0.998467, 205, 207, 236, 222
-0.998467, 177, 205, 208, 220
-0.998469, 261, 189, 292, 204
-0.998469, 197, 245, 228, 260
-0.998474, 213, 215, 244, 230
-0.998477, 233, 249, 296, 264
-0.998477, 225, 257, 256, 272
-0.998477, 209, 241, 272, 256
-0.998478, 61, 141, 92, 156
-0.998479, 249, 251, 280, 266
-0.998481, 97, 153, 128, 168
-0.998482, 197, 267, 228, 282
-0.998484, 369, 269, 496, 300
-0.998486, 193, 279, 256, 294
-0.998487, 257, 273, 500, 333
-0.998487, 121, 129, 152, 144
-0.998487, 105, 127, 168, 142
-0.998488, 61, 131, 92, 146
-0.998489, 181, 277, 212, 292
-0.998489, 205, 261, 236, 276
-0.99849, 113, 97, 240, 128
-0.998492, 105, 123, 136, 138
-0.998492, 49, 243, 112, 258
-0.998496, 189, 207, 220, 222
-0.998496, 169, 213, 200, 228
-0.998496, 173, 267, 204, 282
-0.998497, 185, 247, 248, 262
-0.998499, 209, 257, 272, 272
-0.9985, 73, 241, 104, 256
-0.998502, 177, 221, 240, 236
-0.998505, 73, 147, 136, 162
-0.998506, 261, 249, 292, 264
-0.998507, 205, 281, 236, 296
-0.998507, 117, 117, 148, 132
-0.998508, 209, 239, 240, 254
-0.99851, 49, 273, 112, 333
-0.998513, 73, 141, 136, 156
-0.998513, 45, 247, 76, 262
-0.998514, 225, 197, 288, 212
-0.998515, 193, 277, 224, 292
-0.998517, 257, 237, 384, 268
-0.998518, 161, 203, 224, 218
-0.998522, 153, 265, 216, 280
-0.998522, 105, 129, 136, 144
-0.998526, 89, 115, 152, 130
-0.998526, 221, 243, 252, 258
-0.998535, 353, 281, 480, 312
-0.998538, 225, 269, 288, 284
-0.998538, 77, 147, 108, 162
-0.998538, 177, 237, 240, 252
-0.998539, 41, 143, 104, 158
-0.99854, 145, 243, 208, 258
-0.998541, 73, 65, 104, 320
-0.998541, 81, 121, 144, 136
-0.998543, 185, 283, 216, 298
-0.998548, 249, 201, 312, 216
-0.998549, 121, 269, 184, 284
-0.998549, 227, 209, 242, 333
-0.998549, 209, 267, 240, 282
-0.99855, 369, 185, 496, 216
-0.998552, 177, 215, 240, 230
-0.998554, 177, 209, 240, 224
-0.998554, 73, 127, 136, 142
-0.998557, 273, 185, 304, 200
-0.998557, 195, 193, 210, 320
-0.998559, 249, 195, 312, 210
-0.998559, 217, 275, 280, 290
-0.998559, 81, 135, 144, 150
-0.99856, 281, 49, 344, 112
-0.99856, 177, 285, 240, 300
-0.998565, 261, 203, 292, 218
-0.998565, 185, 271, 216, 286
-0.998565, 209, 263, 272, 278
-0.998566, 105, 149, 168, 164
-0.998567, 153, 213, 216, 228
-0.998567, 141, 65, 172, 320
-0.998568, 213, 249, 244, 264
-0.99857, 25, 247, 88, 262
-0.998575, 201, 255, 232, 270
-0.998577, 229, 269, 260, 284
-0.998577, 113, 285, 240, 316
-0.998577, 177, 227, 240, 242
-0.998579, 249, 189, 312, 204
-0.998579, 189, 217, 220, 232
-0.99858, 89, 239, 152, 254
-0.99858, 209, 191, 272, 206
-0.99858, 81, 261, 144, 276
-0.998582, 57, 133, 120, 148
-0.998583, 113, 133, 176, 148
-0.998584, 233, 251, 264, 266
-0.998585, 257, 195, 288, 210
-0.998585, 265, 183, 328, 198
-0.998586, 209, 217, 272, 232
-0.998587, 89, 249, 152, 264
-0.998593, 281, 157, 344, 172
-0.998593, 209, 223, 272, 238
-0.998598, 113, 199, 176, 214
-0.998599, 113, 139, 176, 154
-0.9986, 185, 255, 248, 270
-0.998603, 201, 221, 232, 236
-0.998604, 145, 197, 208, 212
-0.998606, 97, 109, 160, 124
-0.998607, 41, 253, 104, 268
-0.998609, 137, 205, 200, 220
-0.99861, 105, 121, 168, 136
-0.998611, 153, 237, 216, 252
-0.998612, 129, 123, 192, 138
-0.998613, 217, 203, 280, 218
-0.998615, 185, 203, 248, 218
-0.998615, 289, 163, 352, 178
-0.998618, 209, 231, 272, 246
-0.99862, 297, 259, 360, 274
-0.99862, 89, 169, 152, 184
-0.998623, 57, 259, 120, 274
-0.998624, 169, 279, 232, 294
-0.998624, 225, 183, 288, 198
-0.998625, 257, 249, 320, 264
-0.998625, 121, 245, 184, 260
-0.998628, 233, 223, 296, 238
-0.998629, 1, 251, 64, 266
-0.998629, 41, 149, 104, 164
-0.998629, 113, 155, 176, 170
-0.998631, 145, 135, 208, 150
-0.998631, 281, 253, 344, 268
-0.998634, 117, 123, 148, 138
-0.998635, 153, 219, 216, 234
-0.998635, 233, 263, 296, 278
-0.998636, 217, 117, 280, 132
-0.998637, 241, 207, 304, 222
-0.998638, 33, 137, 96, 152
-0.99864, 225, 167, 288, 182
-0.99864, 161, 259, 224, 274
-0.998642, 201, 209, 264, 224
-0.998645, 81, 159, 144, 174
-0.998647, 329, 281, 392, 296
-0.998653, 185, 197, 248, 212
-0.998654, 97, 267, 160, 282
-0.998656, 193, 167, 256, 182
-0.998658, 305, 153, 368, 168
-0.998658, 233, 175, 296, 190
-0.99866, 121, 105, 184, 120
-0.99866, 353, 183, 416, 198
-0.998661, 249, 217, 312, 232
-0.998661, 185, 121, 248, 136
-0.998662, 273, 259, 336, 274
-0.998662, 49, 157, 112, 172
-0.998663, 145, 191, 208, 206
-0.998663, 33, 131, 96, 146
-0.998664, 153, 287, 216, 302
-0.998667, 105, 175, 168, 190
-0.998668, 193, 161, 256, 176
-0.998669, 189, 261, 220, 276
-0.99867, 233, 243, 296, 258
-0.99867, 1, 229, 128, 260
-0.99867, 281, 177, 344, 192
-0.998671, 113, 161, 176, 176
-0.998672, 153, 129, 216, 144
-0.998672, 273, 193, 336, 208
-0.998672, 145, 141, 208, 156
-0.998674, 249, 167, 312, 182
-0.998674, 97, 93, 160, 108
-0.998675, 129, 173, 192, 188
-0.998675, 65, 115, 128, 130
-0.998677, 337, 175, 400, 190
-0.998677, 105, 193, 168, 208
-0.998679, 89, 103, 152, 118
-0.998679, 337, 291, 400, 306
-0.998681, 121, 111, 184, 126
-0.998682, 249, 271, 312, 286
-0.998682, 153, 227, 216, 242
-0.998685, 129, 167, 192, 182
-0.998686, 113, 239, 176, 254
-0.998686, 129, 117, 192, 132
-0.998688, 305, 181, 368, 196
-0.998688, 145, 147, 208, 162
-0.998689, 193, 183, 256, 198
-0.998689, 49, 237, 112, 252
-0.99869, 313, 287, 376, 302
-0.99869, 377, 179, 440, 194
-0.998696, 225, 101, 352, 132
-0.998715, 289, 121, 416, 152
-0.998718, 289, 257, 416, 288
-0.998755, 189, 193, 204, 320
-0.99876, 169, 49, 200, 176
-0.998766, 233, 209, 248, 333
-0.998767, 329, 193, 360, 320
-0.998782, 413, 209, 444, 333
-0.998794, 185, 65, 216, 320
-0.998809, 33, 9, 160, 72
-0.998814, 329, 41, 392, 104
-0.998823, 369, 1, 496, 64
-0.998835, 321, 65, 384, 128
-0.998835, 425, 89, 488, 152
-0.998847, 241, 25, 368, 88
-0.99885, 229, 65, 260, 320
-0.998861, 181, 193, 196, 320
-0.998888, 215, 209, 230, 333
-0.998893, 373, 129, 404, 256
-0.998895, 465, 129, 496, 256
-0.998908, 225, 89, 480, 152
-0.998942, 221, 209, 236, 333
-0.998983, 161, 81, 224, 144
-0.999001, 171, 209, 186, 333
-0.999008, 369, 201, 496, 232
-0.999011, 337, 149, 464, 180
-0.999012, 247, 209, 262, 333
-0.999017, 259, 193, 274, 320
-0.999017, 417, 33, 480, 96
-0.999019, 401, 81, 464, 208
-0.99902, 369, 109, 496, 140
-0.999028, 241, 209, 256, 333
-0.999031, 1, 1, 64, 333
-0.999033, 207, 209, 222, 333
-0.99904, 353, 129, 480, 160
-0.999046, 129, 33, 256, 96
-0.999053, 151, 193, 166, 320
-0.999054, 93, 97, 108, 224
-0.999056, 17, 281, 144, 312
-0.999067, 257, 289, 384, 320
-0.999069, 107, 97, 122, 224
-0.999077, 33, 89, 160, 120
-0.999081, 157, 193, 172, 320
-0.999082, 241, 81, 304, 144
-0.999093, 161, 109, 288, 140
-0.999098, 165, 193, 180, 320
-0.999105, 267, 177, 282, 304
-0.99912, 465, 193, 496, 320
-0.99914, 129, 9, 256, 72
-0.99914, 17, 33, 144, 96
-0.999155, 353, 217, 480, 248
-0.999155, 321, 293, 448, 324
-0.999161, 145, 193, 160, 320
-0.999171, 87, 97, 102, 224
-0.999178, 253, 193, 268, 320
-0.999193, 201, 209, 216, 333
-0.999197, 115, 97, 130, 224
-0.999202, 273, 109, 400, 140
-0.999205, 99, 97, 114, 224
-0.99923, 191, 145, 206, 272
-0.99924, 237, 161, 252, 288
-0.999242, 129, 97, 144, 224
-0.999252, 257, 65, 288, 320
-0.999262, 17, 213, 144, 244
-0.999263, 41, 129, 72, 256
-0.999269, 207, 161, 222, 288
-0.999271, 177, 1, 304, 64
-0.999273, 223, 161, 238, 288
-0.999285, 289, 225, 416, 256
-0.999286, 33, 81, 96, 144
-0.999287, 139, 193, 154, 320
-0.999288, 281, 65, 312, 320
-0.999289, 305, 69, 432, 100
-0.999294, 65, 281, 192, 312
-0.999295, 265, 113, 280, 240
-0.999295, 185, 145, 200, 272
-0.999306, 121, 81, 136, 208
-0.999309, 213, 161, 228, 288
-0.99931, 241, 1, 368, 64
-0.999312, 145, 145, 160, 272
-0.999312, 81, 97, 96, 224
-0.999317, 377, 97, 440, 160
-0.999325, 257, 129, 272, 256
-0.999332, 155, 145, 170, 272
-0.999333, 225, 73, 352, 104
-0.999337, 139, 81, 154, 208
-0.99934, 273, 161, 288, 288
-0.99934, 89, 145, 104, 272
-0.999343, 73, 97, 88, 224
-0.999346, 369, 73, 496, 104
-0.999347, 369, 257, 496, 288
-0.999348, 83, 209, 98, 333
-0.99935, 53, 145, 84, 272
-0.999361, 231, 161, 246, 288
-0.999362, 321, 237, 448, 268
-0.999365, 105, 145, 120, 272
-0.999374, 243, 161, 258, 288
-0.999378, 83, 145, 98, 272
-0.999382, 121, 145, 136, 272
-0.999384, 317, 129, 348, 256
-0.999389, 209, 89, 336, 120
-0.99939, 235, 97, 250, 224
-0.9994, 1, 173, 128, 204
-0.999404, 321, 1, 448, 64
-0.999406, 287, 161, 302, 288
-0.999409, 129, 193, 144, 320
-0.99941, 369, 233, 496, 264
-0.999414, 349, 209, 380, 333
-0.999427, 245, 65, 276, 320
-0.999433, 305, 209, 320, 333
-0.999437, 377, 81, 440, 208
-0.99944, 249, 97, 264, 224
-0.999445, 321, 201, 448, 232
-0.999445, 295, 177, 310, 304
-0.999448, 201, 161, 216, 288
-0.999449, 161, 145, 176, 272
-0.999452, 123, 193, 138, 320
-0.999454, 95, 193, 110, 320
-0.999463, 161, 93, 288, 124
-0.999465, 113, 145, 128, 272
-0.999466, 17, 201, 144, 232
-0.999467, 229, 97, 244, 224
-0.999478, 139, 145, 154, 272
-0.999479, 243, 97, 258, 224
-0.999481, 103, 193, 118, 320
-0.999481, 147, 97, 162, 224
-0.999485, 317, 81, 348, 208
-0.999494, 281, 177, 296, 304
-0.999495, 99, 145, 114, 272
-0.999495, 275, 113, 290, 240
-0.999505, 1, 293, 128, 324
-0.999514, 259, 81, 274, 208
-0.999519, 67, 97, 82, 224
-0.999529, 201, 113, 216, 240
-0.99953, 311, 193, 326, 320
-0.999531, 115, 193, 130, 320
-0.999549, 321, 89, 384, 152
-0.999558, 295, 113, 310, 240
-0.999561, 167, 113, 182, 240
-0.999564, 213, 113, 228, 240
-0.999566, 191, 97, 206, 224
-0.99957, 317, 193, 332, 320
-0.999574, 221, 113, 236, 240
-0.99958, 285, 113, 300, 240
-0.999583, 321, 163, 336, 178
-0.999587, 101, 261, 116, 276
-0.999587, 161, 135, 176, 150
-0.999587, 137, 101, 152, 116
-0.999587, 139, 119, 154, 134
-0.999587, 183, 223, 198, 238
-0.999587, 81, 123, 96, 138
-0.999587, 77, 145, 92, 272
-0.999588, 269, 199, 284, 214
-0.999588, 247, 241, 262, 256
-0.999588, 305, 97, 432, 128
-0.999589, 161, 269, 176, 284
-0.999589, 97, 153, 112, 168
-0.999589, 179, 145, 194, 272
-0.999589, 229, 247, 244, 262
-0.999589, 69, 141, 84, 156
-0.99959, 81, 243, 96, 258
-0.99959, 139, 127, 154, 142
-0.99959, 71, 245, 86, 260
-0.99959, 91, 153, 106, 168
-0.999591, 65, 245, 80, 260
-0.999591, 305, 57, 432, 88
-0.999592, 257, 225, 272, 240
-0.999592, 1, 145, 64, 208
-0.999593, 193, 215, 208, 230
-0.999593, 297, 255, 312, 270
-0.999593, 225, 211, 240, 226
-0.999594, 119, 93, 134, 108
-0.999595, 177, 275, 192, 290
-0.999597, 313, 157, 328, 172
-0.999597, 137, 269, 152, 284
-0.999597, 57, 247, 72, 262
-0.999599, 187, 205, 202, 220
-0.999599, 131, 129, 146, 144
-0.999599, 275, 215, 290, 230
-0.9996, 239, 251, 254, 266
-0.9996, 113, 263, 128, 278
-0.999601, 143, 185, 158, 200
-0.999601, 379, 209, 394, 333
-0.999604, 107, 127, 122, 142
-0.999604, 165, 203, 180, 218
-0.999605, 221, 217, 236, 232
-0.999606, 129, 169, 144, 184
-0.999606, 125, 267, 140, 282
-0.999607, 207, 113, 222, 240
-0.999609, 231, 217, 246, 232
-0.999609, 147, 193, 162, 208
-0.99961, 193, 235, 208, 250
-0.999611, 253, 243, 268, 258
-0.999611, 227, 231, 242, 246
-0.999611, 171, 207, 186, 222
-0.999612, 229, 201, 244, 216
-0.999612, 191, 277, 206, 292
-0.999613, 159, 199, 174, 214
-0.999613, 109, 121, 124, 136
-0.999613, 97, 147, 112, 162
-0.999614, 211, 221, 226, 236
-0.999614, 247, 267, 262, 282
-0.999614, 77, 209, 92, 333
-0.999615, 59, 113, 74, 240
-0.999615, 269, 219, 284, 234
-0.999615, 193, 207, 208, 222
-0.999616, 275, 203, 290, 218
-0.999617, 263, 207, 278, 222
-0.999617, 109, 193, 124, 320
-0.999618, 95, 239, 110, 254
-0.999618, 123, 163, 138, 178
-0.999618, 183, 239, 198, 254
-0.999618, 269, 247, 284, 262
-0.999619, 173, 145, 188, 272
-0.999621, 65, 133, 80, 148
-0.999622, 305, 257, 320, 272
-0.999624, 133, 145, 148, 272
-0.999625, 91, 147, 106, 162
-0.999625, 233, 253, 248, 268
-0.999625, 89, 193, 104, 320
-0.999626, 275, 249, 290, 264
-0.999626, 159, 205, 174, 220
-0.999627, 127, 105, 142, 120
-0.999627, 263, 221, 278, 236
-0.999628, 209, 267, 224, 282
-0.999628, 119, 129, 134, 144
-0.999631, 207, 239, 222, 254
-0.999632, 247, 273, 262, 288
-0.999633, 85, 155, 100, 170
-0.999633, 127, 145, 142, 272
-0.999633, 301, 161, 316, 288
-0.999635, 87, 241, 102, 256
-0.999635, 251, 145, 266, 272
-0.999636, 269, 187, 284, 202
-0.99964, 259, 201, 274, 216
-0.99964, 331, 145, 346, 272
-0.999641, 191, 221, 206, 236
-0.999642, 369, 1, 432, 128
-0.999643, 227, 237, 242, 252
-0.999646, 307, 155, 322, 170
-0.999646, 209, 245, 224, 260
-0.999647, 97, 85, 224, 116
-0.999648, 45, 249, 60, 264
-0.999648, 371, 209, 386, 333
-0.999649, 387, 181, 402, 196
-0.99965, 263, 247, 278, 262
-0.999651, 75, 141, 90, 156
-0.999652, 253, 257, 268, 272
-0.999655, 289, 81, 416, 112
-0.999655, 191, 271, 206, 286
-0.999657, 135, 111, 150, 126
-0.999658, 117, 159, 132, 174
-0.999658, 183, 213, 198, 228
-0.999658, 97, 57, 224, 88
-0.999659, 39, 249, 54, 264
-0.999663, 325, 161, 340, 288
-0.999663, 185, 267, 200, 282
-0.999664, 185, 283, 200, 298
-0.999665, 227, 257, 242, 272
-0.999668, 133, 117, 148, 132
-0.999669, 201, 267, 216, 282
-0.999669, 51, 247, 66, 262
-0.99967, 239, 49, 254, 176
-0.99967, 285, 255, 300, 270
-0.999671, 269, 65, 300, 320
-0.999671, 409, 209, 424, 333
-0.999672, 191, 229, 206, 244
-0.999676, 115, 49, 130, 176
-0.999676, 387, 161, 402, 288
-0.999676, 1, 269, 128, 300
-0.999678, 255, 251, 270, 266
-0.999678, 209, 277, 224, 292
-0.999679, 85, 141, 100, 156
-0.99968, 185, 97, 200, 224
-0.999681, 275, 209, 290, 333
-0.999681, 217, 261, 232, 276
-0.999682, 191, 283, 206, 298
-0.999682, 125, 125, 140, 140
-0.999683, 57, 49, 88, 176
-0.999685, 245, 249, 260, 264
-0.999687, 197, 281, 212, 296
-0.999687, 241, 269, 256, 284
-0.999688, 133, 123, 148, 138
-0.999688, 79, 153, 94, 168
-0.99969, 49, 301, 176, 332
-0.999693, 229, 269, 244, 284
-0.999693, 393, 161, 408, 288
-0.999694, 127, 117, 142, 132
-0.999695, 221, 231, 236, 246
-0.999695, 107, 49, 122, 176
-0.999699, 83, 147, 98, 162
-0.999701, 419, 161, 434, 288
-0.999702, 127, 49, 142, 176
-0.999702, 179, 97, 194, 224
-0.99971, 223, 247, 238, 262
-0.999712, 113, 127, 128, 142
-0.999714, 199, 261, 214, 276
-0.999714, 205, 217, 220, 232
-0.999714, 309, 113, 324, 240
-0.999716, 81, 49, 96, 176
-0.999718, 99, 49, 114, 176
-0.999718, 275, 187, 290, 202
-0.99972, 211, 255, 226, 270
-0.999721, 247, 49, 262, 176
-0.999721, 225, 223, 240, 238
-0.999727, 217, 239, 232, 254
-0.999731, 269, 205, 284, 220
-0.999733, 381, 145, 396, 272
-0.999734, 203, 279, 218, 294
-0.999737, 201, 273, 216, 288
-0.999737, 177, 73, 304, 104
-0.999738, 193, 57, 448, 120
-0.999739, 93, 49, 108, 176
-0.999741, 71, 177, 86, 304
-0.999742, 77, 147, 92, 162
-0.999745, 339, 161, 354, 288
-0.999748, 235, 269, 250, 284
-0.999752, 153, 97, 168, 224
-0.999755, 265, 193, 280, 208
-0.999755, 205, 259, 220, 274
-0.999755, 65, 145, 80, 272
-0.999758, 133, 33, 148, 160
-0.999759, 217, 251, 232, 266
-0.999762, 253, 49, 268, 176
-0.999763, 119, 123, 134, 138
-0.999764, 87, 49, 102, 176
-0.999765, 323, 209, 338, 333
-0.999766, 321, 81, 336, 208
-0.999767, 265, 65, 280, 192
-0.999768, 121, 33, 136, 160
-0.99977, 161, 289, 288, 320
-0.999771, 333, 97, 348, 224
-0.999772, 373, 65, 404, 320
-0.999774, 385, 209, 400, 333
-0.999777, 59, 161, 74, 288
-0.999781, 61, 65, 92, 320
-0.999783, 473, 129, 488, 256
-0.999783, 331, 193, 346, 320
-0.999786, 193, 263, 208, 278
-0.999787, 393, 209, 408, 333
-0.999789, 209, 1, 336, 128
-0.99979, 173, 97, 188, 224
-0.9998, 1, 57, 256, 120
-0.999804, 257, 49, 288, 176
-0.99981, 393, 65, 424, 320
-0.999819, 401, 161, 432, 288
-0.999826, 369, 85, 496, 116
-0.999829, 425, 81, 488, 208
-0.999839, 225, 57, 352, 88
-0.999845, 305, 213, 432, 244
-0.999853, 337, 65, 368, 320
-0.999854, 9, 49, 72, 176
-0.999861, 369, 53, 496, 84
-0.999894, 345, 1, 408, 128
-0.999896, 369, 97, 496, 128
-0.999896, 1, 65, 64, 320
-0.999896, 321, 109, 448, 140
-0.999905, 293, 65, 324, 320
-0.99991, 389, 113, 420, 240
-0.999912, 97, 301, 224, 332
-0.999916, 305, 41, 432, 72
-0.99993, 333, 97, 364, 224
-0.999932, 145, 61, 272, 92
-0.99994, 369, 293, 496, 324
-0.999941, 241, 37, 368, 68
-0.999948, 353, 37, 480, 68
-0.999998, 129, 73, 256, 104
-0.999998, 353, 65, 384, 320
-1.00002, 369, 245, 496, 276
-1.00002, 49, 65, 176, 96
-1.00006, 17, 185, 144, 216
-1.00007, 257, 1, 384, 32
-1.00007, 1, 77, 128, 108
-1.0001, 49, 65, 80, 320
-1.00015, 161, 9, 416, 72
-1.00017, 225, 33, 480, 96
-1.00019, 325, 65, 356, 320
-1.00022, 429, 161, 460, 288
-1.00023, 361, 161, 392, 288
-1.00025, 269, 49, 300, 176
-1.00028, 221, 49, 252, 176
-1.00031, 305, 65, 336, 320
-1.00043, 449, 129, 480, 256
-1.00048, 433, 1, 464, 256
-1.00049, 65, 33, 320, 96
-1.0005, 257, 9, 500, 72
-1.00055, 29, 161, 60, 288
-1.00057, 445, 65, 476, 320
-1.0006, 393, 33, 456, 288
-1.00064, 33, 9, 288, 72
-1.00068, 469, 65, 500, 320
-1.0007, 37, 65, 68, 320
-1.00076, 33, 49, 96, 176
-1.00078, 421, 65, 452, 320
-1.00087, 41, 81, 72, 208
-1.00088, 25, 65, 56, 320
-1.00089, 241, 1, 304, 128
-1.00095, 9, 33, 40, 288
-1.00096, 457, 33, 488, 288
-1.00103, 1, 161, 32, 288
-1.00104, 409, 65, 440, 320
-1.00104, 453, 177, 484, 304
-1.00122, 341, 161, 372, 288
-1.00122, 117, 17, 148, 144
-1.00135, 417, 1, 480, 256
-1.00141, 1, 41, 500, 104
-1.00141, 37, 209, 68, 333
-1.00148, 345, 97, 376, 224
-1.00156, 1, 81, 500, 144
-1.00157, 409, 113, 440, 240
-1.0017, 389, 1, 420, 128
-1.00175, 73, 17, 104, 144
-1.00183, 357, 113, 388, 240
-1.00189, 9, 209, 40, 333
-1.002, 1, 1, 500, 64
-1.00204, 9, 113, 40, 240
-1.00212, 81, 17, 208, 144
-1.00218, 373, 81, 404, 208
-1.00236, 293, 65, 324, 192
-1.00246, 469, 81, 500, 208
-1.0025, 433, 209, 464, 333
-1.00255, 129, 17, 160, 144
-1.00259, 321, 1, 384, 128
-1.00261, 353, 17, 384, 144
-1.00263, 393, 1, 456, 128
-1.00277, 329, 33, 360, 160
-1.00278, 29, 113, 60, 240
-1.00282, 17, 161, 48, 288
-1.00289, 309, 33, 340, 160
-1.00291, 429, 81, 460, 208
-1.00297, 269, 1, 300, 128
-1.00303, 201, 17, 264, 144
-1.00307, 361, 33, 424, 288
-1.00311, 281, 33, 344, 160
-1.00315, 21, 209, 52, 333
-1.00333, 41, 1, 104, 128
-1.00347, 377, 33, 408, 160
-1.00358, 81, 1, 144, 128
-1.00361, 57, 1, 88, 128
-1.00363, 445, 65, 476, 192
-1.00366, 401, 1, 432, 128
-1.00368, 365, 33, 396, 160
-1.00372, 281, 65, 312, 192
-1.00375, 41, 33, 72, 160
-1.00393, 429, 33, 460, 160
-1.00394, 257, 1, 384, 128
-1.00398, 285, 17, 316, 144
-1.00399, 9, 65, 40, 192
-1.00407, 413, 65, 444, 192
-1.00412, 257, 1, 288, 128
-1.00415, 433, 33, 496, 160
-1.00429, 237, 1, 268, 128
-1.00431, 389, 65, 420, 192
-1.00436, 341, 49, 372, 176
-1.00439, 413, 17, 444, 144
-1.0052, 129, 1, 192, 128
-1.00548, 153, 1, 216, 128
-1.0062, 1, 1, 64, 128
-1.00801, 177, 1, 240, 128
