1967
-0.171437, 1, 1, 500, 375
-0.301841, 1, 97, 500, 352
-0.368253, 1, 1, 500, 256
-0.372756, 161, 1, 416, 375
-0.381304, 257, 1, 500, 375
-0.386268, 65, 1, 320, 375
-0.532132, 129, 1, 384, 256
-0.571364, 65, 97, 320, 352
-0.602429, 257, 65, 500, 320
-0.622701, 161, 97, 416, 352
-0.622718, 33, 1, 288, 256
-0.828926, 177, 1, 304, 375
-0.835711, 257, 1, 384, 375
-0.839463, 65, 1, 192, 256
-0.840508, 305, 65, 432, 320
-0.843573, 337, 1, 464, 375
-0.848038, 145, 1, 272, 256
-0.852162, 225, 33, 352, 288
-0.858992, 129, 1, 256, 375
-0.861232, 369, 1, 496, 256
-0.865735, 97, 97, 224, 352
-0.867137, 1, 1, 500, 128
-0.867151, 17, 1, 144, 256
-0.867372, 369, 97, 496, 352
-0.872387, 177, 97, 304, 352
-0.873412, 1, 193, 500, 320
-0.878871, 1, 241, 500, 368
-0.881443, 65, 1, 192, 375
-0.881904, 1, 145, 500, 272
-0.88194, 1, 97, 500, 224
-0.886165, 1, 1, 128, 375
-0.887623, 33, 129, 160, 375
-0.88971, 1, 49, 500, 176
-0.894656, 33, 1, 288, 128
-0.896287, 257, 129, 384, 375
-0.903862, 257, 177, 500, 304
-0.904852, 129, 81, 384, 208
-0.913047, 257, 49, 500, 176
-0.919425, 33, 129, 288, 256
-0.920406, 33, 49, 288, 176
-0.921052, 193, 1, 448, 128
-0.92726, 129, 1, 256, 128
-0.927816, 257, 129, 500, 256
-0.929002, 193, 241, 448, 368
-0.930057, 161, 65, 288, 192
-0.930451, 209, 33, 336, 160
-0.931233, 129, 129, 384, 256
-0.932179, 289, 49, 416, 176
-0.932612, 97, 193, 352, 320
-0.933215, 393, 225, 456, 352
-0.933777, 81, 81, 208, 208
-0.934066, 297, 209, 360, 336
-0.934994, 289, 225, 416, 352
-0.935242, 417, 193, 480, 320
-0.936448, 297, 49, 360, 176
-0.939447, 33, 129, 160, 256
-0.939766, 65, 1, 192, 128
-0.939952, 169, 97, 232, 224
-0.940591, 393, 1, 456, 128
-0.940676, 209, 81, 336, 208
-0.941979, 353, 49, 416, 176
-0.942768, 353, 193, 480, 320
-0.943285, 113, 97, 176, 224
-0.943988, 305, 177, 432, 304
-0.944125, 81, 1, 144, 128
-0.944375, 145, 113, 272, 240
-0.944914, 281, 1, 344, 128
-0.945054, 145, 129, 208, 256
-0.94521, 225, 65, 288, 192
-0.945461, 329, 257, 392, 320
-0.945471, 273, 225, 336, 352
-0.945579, 185, 33, 248, 160
-0.945982, 97, 145, 224, 272
-0.947064, 321, 241, 384, 368
-0.948431, 353, 241, 416, 368
-0.948518, 273, 49, 336, 176
-0.949115, 361, 249, 424, 312
-0.949143, 321, 1, 384, 128
-0.949383, 345, 193, 408, 320
-0.949425, 393, 177, 456, 304
-0.949749, 1, 17, 128, 144
-0.950253, 241, 241, 368, 368
-0.950694, 89, 97, 152, 224
-0.951096, 289, 233, 352, 296
-0.951303, 401, 233, 464, 296
-0.95132, 137, 65, 200, 192
-0.951373, 257, 161, 384, 288
-0.951457, 369, 49, 496, 176
-0.951499, 401, 1, 464, 64
-0.951651, 121, 153, 184, 216
-0.952292, 209, 17, 272, 144
-0.952312, 305, 257, 368, 320
-0.952913, 369, 193, 432, 320
-0.953053, 145, 1, 208, 128
-0.953338, 361, 57, 424, 120
-0.953426, 289, 161, 352, 288
-0.953445, 257, 1, 320, 128
-0.953632, 289, 1, 416, 128
-0.953769, 1, 17, 64, 144
-0.953817, 369, 241, 496, 368
-0.954, 369, 1, 496, 128
-0.95408, 385, 265, 448, 328
-0.954192, 305, 97, 432, 224
-0.954206, 1, 177, 256, 304
-0.954249, 329, 81, 392, 208
-0.954389, 193, 81, 256, 208
-0.954634, 57, 129, 120, 256
-0.955229, 369, 1, 432, 128
-0.955234, 57, 17, 120, 144
-0.955269, 249, 65, 312, 192
-0.955527, 369, 97, 496, 224
-0.95554, 97, 145, 160, 208
-0.955628, 33, 81, 160, 208
-0.956104, 321, 193, 384, 320
-0.956174, 57, 81, 120, 208
-0.95633, 297, 97, 360, 224
-0.956531, 177, 193, 304, 320
-0.956617, 401, 113, 464, 240
-0.956745, 409, 49, 472, 176
-0.956893, 281, 57, 344, 120
-0.957231, 105, 1, 168, 128
-0.957462, 321, 145, 384, 272
-0.957472, 145, 161, 208, 224
-0.958042, 425, 217, 488, 280
-0.958492, 73, 137, 136, 200
-0.958635, 257, 113, 384, 240
-0.95864, 169, 145, 232, 208
-0.95969, 313, 233, 376, 296
-0.959752, 33, 17, 96, 144
-0.960296, 81, 49, 144, 176
-0.960406, 353, 145, 480, 272
-0.960492, 377, 113, 440, 240
-0.960552, 249, 65, 312, 128
-0.960691, 169, 169, 232, 232
-0.960895, 361, 273, 424, 336
-0.961014, 169, 161, 232, 288
-0.961394, 337, 233, 400, 296
-0.961413, 225, 65, 288, 128
-0.961625, 97, 241, 352, 368
-0.961766, 113, 49, 176, 176
-0.962197, 377, 65, 440, 192
-0.962313, 89, 113, 152, 176
-0.962825, 289, 257, 416, 320
-0.962862, 209, 145, 272, 272
-0.96291, 41, 33, 104, 96
-0.963165, 121, 145, 184, 272
-0.963412, 417, 1, 480, 128
-0.963521, 145, 137, 208, 200
-0.963813, 201, 57, 264, 120
-0.964048, 49, 145, 112, 208
-0.964054, 121, 1, 184, 64
-0.964198, 417, 1, 480, 256
-0.964236, 353, 97, 416, 224
-0.964322, 273, 113, 336, 240
-0.9645, 401, 209, 464, 272
-0.964959, 209, 129, 336, 256
-0.964989, 417, 241, 480, 368
-0.965269, 193, 153, 256, 216
-0.965348, 297, 209, 360, 272
-0.965435, 161, 49, 224, 176
-0.965804, 17, 49, 80, 112
-0.965876, 257, 177, 320, 304
-0.966122, 65, 25, 128, 88
-0.966236, 185, 33, 248, 96
-0.966568, 329, 41, 392, 104
-0.966632, 297, 169, 360, 232
-0.966747, 65, 1, 128, 256
-0.966861, 185, 89, 248, 152
-0.967065, 425, 1, 488, 64
-0.967084, 193, 1, 256, 256
-0.967103, 329, 281, 392, 344
-0.967168, 281, 265, 344, 328
-0.967318, 337, 249, 464, 312
-0.967461, 265, 241, 328, 304
-0.967471, 409, 257, 472, 320
-0.967485, 385, 257, 416, 320
-0.967603, 89, 1, 152, 64
-0.967797, 313, 65, 376, 128
-0.967897, 65, 65, 128, 128
-0.967926, 425, 97, 488, 224
-0.968163, 137, 65, 200, 320
-0.968364, 41, 57, 104, 120
-0.968485, 449, 209, 480, 272
-0.968515, 417, 177, 480, 240
-0.968675, 121, 121, 184, 184
-0.968719, 273, 193, 336, 256
-0.96875, 385, 161, 448, 224
-0.968757, 401, 265, 432, 328
-0.968886, 129, 97, 192, 160
-0.968939, 153, 265, 216, 328
-0.968961, 105, 33, 168, 288
-0.969006, 233, 17, 296, 144
-0.969242, 233, 193, 296, 320
-0.969428, 137, 241, 200, 368
-0.969487, 85, 129, 116, 192
-0.969561, 337, 257, 368, 320
-0.969628, 201, 1, 264, 64
-0.969738, 393, 1, 456, 256
-0.96975, 49, 145, 176, 208
-0.969814, 321, 209, 384, 272
-0.969969, 257, 233, 384, 296
-0.970166, 25, 145, 88, 272
-0.970221, 337, 161, 400, 224
-0.970319, 361, 225, 424, 288
-0.970349, 393, 81, 456, 144
-0.970364, 161, 89, 224, 152
-0.970385, 97, 73, 160, 136
-0.97039, 369, 297, 432, 360
-0.970513, 337, 81, 400, 144
-0.970513, 361, 33, 424, 288
-0.970535, 393, 97, 456, 352
-0.970617, 257, 57, 384, 120
-0.970679, 153, 153, 184, 216
-0.970702, 121, 177, 184, 240
-0.970756, 177, 57, 240, 120
-0.970851, 429, 1, 460, 64
-0.970867, 9, 25, 72, 88
-0.970969, 169, 121, 232, 184
-0.97097, 361, 81, 424, 144
-0.971064, 437, 217, 468, 280
-0.971195, 345, 145, 408, 272
-0.971291, 105, 145, 136, 208
-0.971298, 305, 137, 368, 200
-0.97133, 161, 1, 224, 256
-0.971413, 445, 193, 476, 320
-0.971479, 433, 49, 496, 176
-0.9715, 97, 145, 160, 272
-0.971595, 265, 89, 328, 152
-0.971685, 397, 241, 428, 304
-0.971687, 193, 241, 320, 368
-0.971969, 425, 145, 488, 272
-0.972045, 169, 1, 232, 64
-0.972063, 421, 241, 452, 304
-0.972092, 305, 33, 336, 160
-0.972159, 177, 81, 304, 144
-0.972176, 129, 193, 192, 320
-0.972253, 369, 201, 432, 264
-0.972256, 377, 1, 440, 64
-0.972438, 401, 25, 464, 88
-0.972559, 49, 177, 176, 304
-0.972796, 361, 33, 424, 96
-0.972803, 265, 65, 296, 128
-0.972844, 361, 265, 392, 328
-0.972988, 129, 73, 192, 136
-0.97299, 193, 177, 256, 240
-0.973003, 225, 41, 288, 104
-0.973026, 145, 1, 208, 64
-0.973041, 297, 105, 360, 168
-0.973053, 133, 145, 164, 208
-0.973134, 401, 57, 464, 120
-0.973156, 153, 65, 216, 128
-0.973163, 177, 41, 304, 104
-0.973543, 305, 225, 336, 352
-0.973614, 289, 33, 352, 288
-0.973715, 369, 1, 496, 64
-0.973716, 225, 145, 288, 208
-0.973787, 241, 89, 304, 152
-0.973832, 393, 185, 456, 248
-0.973844, 89, 1, 120, 128
-0.973965, 305, 73, 432, 136
-0.974133, 97, 137, 224, 200
-0.974218, 353, 241, 384, 304
-0.974458, 401, 225, 432, 352
-0.9745, 325, 209, 356, 336
-0.974652, 289, 33, 352, 96
-0.974673, 265, 217, 328, 280
-0.974693, 41, 1, 104, 256
-0.974775, 353, 225, 480, 288
-0.974838, 301, 49, 332, 112
-0.974972, 213, 1, 244, 128
-0.975165, 169, 241, 232, 368
-0.975212, 373, 241, 404, 304
-0.975311, 433, 241, 496, 304
-0.975313, 257, 33, 320, 96
-0.975462, 65, 1, 192, 64
-0.975568, 417, 97, 480, 352
-0.975671, 1, 81, 64, 208
-0.975682, 217, 65, 248, 192
-0.975684, 317, 265, 348, 328
-0.975704, 129, 65, 256, 128
-0.97574, 321, 97, 384, 352
-0.975745, 317, 233, 348, 296
-0.975827, 449, 185, 480, 248
-0.975879, 233, 129, 296, 256
-0.975899, 289, 169, 416, 232
-0.975929, 353, 137, 416, 200
-0.975944, 209, 121, 272, 184
-0.975957, 289, 81, 352, 144
-0.976093, 73, 161, 136, 224
-0.976107, 217, 1, 280, 256
-0.976111, 329, 217, 360, 280
-0.976152, 385, 281, 416, 344
-0.976236, 145, 185, 208, 248
-0.976256, 65, 113, 128, 176
-0.976285, 17, 185, 80, 248
-0.976292, 121, 73, 152, 136
-0.976378, 229, 1, 260, 128
-0.976445, 137, 81, 168, 208
-0.976458, 409, 1, 440, 64
-0.97646, 225, 193, 352, 256
-0.976468, 409, 241, 440, 304
-0.97651, 81, 105, 208, 168
-0.976544, 89, 49, 152, 112
-0.976574, 113, 169, 240, 232
-0.976696, 329, 1, 392, 256
-0.976701, 145, 145, 272, 208
-0.976753, 157, 129, 188, 256
-0.976821, 177, 169, 208, 232
-0.976827, 105, 1, 136, 128
-0.976847, 353, 105, 416, 168
-0.976878, 425, 25, 488, 88
-0.976911, 321, 201, 448, 264
-0.976917, 105, 81, 136, 208
-0.976934, 273, 1, 336, 375
-0.976984, 165, 153, 196, 216
-0.976986, 129, 1, 256, 64
-0.977084, 185, 97, 248, 352
-0.977102, 321, 105, 448, 168
-0.977276, 137, 1, 168, 128
-0.977305, 49, 145, 80, 272
-0.977339, 373, 265, 404, 328
-0.977376, 285, 65, 316, 128
-0.977534, 225, 105, 352, 168
-0.97754, 273, 209, 400, 272
-0.977572, 249, 241, 312, 368
-0.977574, 377, 137, 440, 200
-0.977615, 289, 281, 416, 344
-0.977806, 373, 225, 404, 352
-0.977902, 1, 241, 256, 368
-0.977964, 97, 169, 160, 232
-0.977982, 145, 121, 272, 184
-0.977989, 241, 225, 304, 288
-0.978015, 433, 177, 464, 304
-0.978024, 333, 81, 364, 208
-0.978026, 377, 49, 408, 176
-0.978064, 181, 97, 212, 224
-0.97807, 345, 201, 408, 264
-0.978187, 317, 49, 348, 176
-0.978231, 161, 129, 224, 375
-0.978248, 293, 33, 324, 160
-0.97825, 129, 193, 256, 320
-0.978264, 265, 113, 328, 176
-0.978301, 73, 129, 136, 375
-0.978312, 361, 161, 424, 224
-0.97832, 301, 233, 332, 296
-0.978342, 345, 1, 408, 128
-0.978368, 169, 97, 200, 224
-0.978417, 353, 81, 480, 144
-0.978531, 353, 273, 480, 336
-0.978565, 109, 105, 140, 168
-0.978597, 329, 105, 392, 168
-0.978612, 417, 153, 480, 216
-0.978628, 209, 89, 272, 152
-0.978767, 117, 145, 148, 208
-0.978804, 153, 25, 216, 88
-0.978812, 245, 73, 276, 136
-0.978866, 281, 193, 312, 320
-0.978902, 73, 17, 104, 144
-0.979089, 41, 81, 104, 144
-0.97916, 69, 25, 100, 88
-0.979349, 65, 49, 96, 112
-0.979353, 221, 65, 252, 128
-0.979367, 385, 105, 448, 168
-0.979376, 161, 33, 192, 160
-0.979435, 225, 33, 352, 96
-0.97952, 389, 177, 420, 304
-0.979537, 229, 65, 260, 192
-0.979569, 185, 1, 248, 375
-0.979601, 257, 81, 384, 144
-0.979609, 217, 1, 280, 375
-0.97965, 337, 209, 368, 336
-0.979673, 321, 161, 352, 288
-0.979687, 5, 1, 36, 128
-0.979695, 425, 49, 488, 112
-0.979745, 305, 289, 368, 352
-0.979808, 97, 113, 128, 176
-0.979871, 169, 289, 232, 352
-0.979902, 241, 257, 368, 320
-0.979917, 293, 209, 324, 336
-0.979921, 305, 49, 432, 112
-0.979941, 389, 241, 420, 368
-0.979966, 129, 41, 256, 104
-0.979967, 341, 233, 372, 296
-0.979988, 117, 97, 148, 224
-0.979989, 109, 9, 140, 72
-0.980015, 25, 65, 88, 192
-0.980023, 437, 241, 468, 304
-0.980096, 65, 241, 192, 368
-0.980136, 217, 1, 248, 64
-0.980137, 161, 169, 288, 232
-0.980146, 241, 201, 304, 264
-0.980163, 197, 97, 228, 224
-0.980326, 113, 129, 176, 375
-0.980432, 369, 193, 496, 256
-0.980467, 409, 113, 472, 176
-0.980475, 401, 1, 432, 128
-0.980519, 237, 49, 268, 112
-0.980553, 429, 225, 460, 352
-0.980558, 49, 169, 176, 232
-0.980558, 301, 81, 332, 208
-0.98056, 257, 129, 384, 192
-0.980567, 369, 33, 496, 96
-0.9807, 153, 177, 184, 240
-0.980715, 257, 33, 320, 288
-0.980777, 77, 65, 108, 128
-0.980782, 297, 1, 360, 375
-0.980793, 197, 1, 228, 128
-0.980793, 301, 177, 332, 240
-0.980925, 121, 25, 184, 88
-0.980926, 397, 65, 428, 192
-0.980939, 385, 113, 416, 240
-0.980944, 449, 145, 480, 272
-0.980945, 417, 1, 448, 128
-0.98095, 297, 129, 360, 375
-0.980957, 81, 17, 112, 80
-0.980971, 245, 65, 276, 192
-0.980997, 169, 201, 232, 264
-0.981037, 17, 17, 144, 80
-0.981104, 9, 1, 72, 64
-0.981143, 321, 65, 352, 128
-0.98116, 49, 65, 176, 128
-0.981163, 409, 177, 440, 304
-0.981163, 249, 153, 312, 216
-0.981176, 185, 1, 216, 128
-0.981267, 377, 57, 408, 120
-0.981271, 273, 169, 336, 232
-0.981295, 165, 177, 196, 240
-0.981302, 365, 65, 396, 192
-0.981307, 53, 65, 84, 128
-0.981317, 137, 1, 200, 375
-0.98133, 181, 113, 212, 176
-0.981387, 449, 9, 480, 72
-0.981398, 393, 169, 424, 232
-0.981403, 241, 169, 368, 232
-0.981415, 1, 193, 128, 320
-0.981432, 217, 169, 280, 232
-0.981564, 65, 89, 128, 152
-0.981566, 345, 129, 408, 375
-0.98158, 73, 65, 104, 192
-0.98162, 65, 1, 128, 64
-0.981649, 145, 297, 208, 360
-0.981679, 209, 41, 240, 104
-0.98177, 257, 265, 320, 328
-0.981866, 89, 81, 120, 208
-0.981997, 137, 89, 168, 152
-0.982, 329, 129, 392, 192
-0.982005, 353, 169, 480, 232
-0.982049, 49, 161, 80, 224
-0.982071, 289, 241, 320, 304
-0.982085, 369, 57, 496, 120
-0.982126, 369, 129, 432, 375
-0.982134, 129, 257, 192, 320
-0.982144, 97, 1, 160, 375
-0.982161, 149, 81, 180, 208
-0.982176, 249, 1, 312, 375
-0.982234, 129, 89, 256, 152
-0.982354, 209, 1, 336, 64
-0.982357, 205, 49, 236, 176
-0.982409, 173, 265, 204, 328
-0.982422, 405, 113, 436, 240
-0.982449, 117, 17, 148, 144
-0.982471, 317, 1, 348, 128
-0.982519, 125, 121, 156, 184
-0.982644, 425, 89, 488, 152
-0.982712, 457, 193, 488, 320
-0.982732, 433, 1, 464, 128
-0.982745, 305, 273, 336, 336
-0.982751, 397, 41, 428, 104
-0.982782, 369, 1, 432, 375
-0.982802, 353, 241, 384, 368
-0.982811, 45, 33, 76, 96
-0.982838, 309, 201, 340, 264
-0.982919, 1, 73, 64, 136
-0.982971, 121, 49, 184, 112
-0.982979, 337, 129, 464, 192
-0.983014, 257, 65, 288, 192
-0.983037, 349, 209, 380, 272
-0.983046, 389, 1, 420, 128
-0.983146, 169, 241, 200, 368
-0.983232, 173, 89, 204, 152
-0.98327, 69, 137, 100, 200
-0.983303, 49, 41, 176, 104
-0.983328, 305, 25, 432, 88
-0.98334, 345, 1, 408, 375
-0.983368, 217, 217, 280, 280
-0.983426, 409, 193, 440, 256
-0.983431, 189, 137, 220, 200
-0.983466, 1, 65, 128, 128
-0.983607, 193, 49, 224, 176
-0.983616, 181, 145, 212, 272
-0.983623, 193, 193, 256, 320
-0.983636, 1, 153, 128, 216
-0.983685, 149, 1, 180, 128
-0.983685, 225, 1, 288, 64
-0.983694, 197, 1, 228, 64
-0.983721, 461, 1, 492, 64
-0.983765, 329, 137, 360, 200
-0.983783, 193, 257, 320, 320
-0.983903, 225, 97, 288, 352
-0.983914, 273, 1, 400, 64
-0.983955, 189, 89, 220, 152
-0.983983, 449, 241, 480, 304
-0.983986, 321, 169, 352, 232
-0.98399, 209, 145, 336, 208
-0.984021, 309, 177, 340, 304
-0.984144, 241, 17, 272, 144
-0.984222, 201, 89, 232, 152
-0.984263, 273, 129, 336, 375
-0.98428, 153, 121, 184, 184
-0.984299, 341, 169, 372, 232
-0.984309, 137, 145, 168, 272
-0.984371, 417, 225, 448, 352
-0.984417, 209, 121, 240, 184
-0.984433, 57, 17, 88, 144
-0.98444, 229, 1, 260, 64
-0.984458, 65, 1, 128, 375
-0.984473, 281, 33, 312, 160
-0.984515, 125, 1, 156, 64
-0.984639, 137, 1, 168, 64
-0.984667, 169, 161, 200, 288
-0.984674, 413, 273, 444, 336
-0.984697, 297, 209, 328, 272
-0.98477, 445, 1, 476, 128
-0.98482, 97, 273, 224, 336
-0.984831, 253, 49, 284, 112
-0.984849, 385, 233, 416, 296
-0.98485, 113, 33, 144, 96
-0.98488, 333, 145, 364, 272
-0.98489, 125, 169, 156, 232
-0.984902, 401, 81, 432, 144
-0.984935, 353, 81, 384, 144
-0.984945, 5, 17, 36, 80
-0.98498, 209, 217, 336, 280
-0.985045, 313, 97, 344, 224
-0.985087, 161, 1, 224, 375
-0.985101, 353, 81, 384, 208
-0.985198, 285, 81, 316, 208
-0.985255, 409, 217, 440, 280
-0.985275, 349, 265, 380, 328
-0.985281, 33, 105, 160, 168
-0.985308, 409, 1, 472, 375
-0.985331, 365, 65, 396, 128
-0.985342, 81, 153, 112, 216
-0.985366, 421, 177, 452, 304
-0.985428, 333, 281, 364, 344
-0.985436, 277, 233, 308, 296
-0.985452, 73, 177, 136, 304
-0.985537, 429, 97, 460, 224
-0.985557, 1, 41, 128, 104
-0.98562, 281, 241, 312, 368
-0.985678, 437, 193, 468, 256
-0.985688, 21, 33, 52, 160
-0.985718, 161, 89, 192, 152
-0.985726, 393, 17, 424, 80
-0.985743, 33, 17, 64, 144
-0.985755, 161, 201, 288, 264
-0.985774, 41, 193, 104, 320
-0.985776, 93, 81, 124, 144
-0.985777, 369, 105, 496, 168
-0.985787, 225, 89, 256, 152
-0.985905, 141, 169, 172, 232
-0.985906, 297, 145, 328, 272
-0.985924, 453, 33, 484, 96
-0.985975, 349, 33, 380, 160
-0.985983, 337, 297, 464, 360
-0.986004, 321, 193, 352, 256
-0.986005, 65, 81, 96, 144
-0.986013, 193, 161, 224, 224
-0.986029, 417, 113, 448, 240
-0.986064, 273, 105, 400, 168
-0.986086, 209, 113, 240, 240
-0.98611, 269, 193, 300, 320
-0.986138, 237, 25, 268, 88
-0.986141, 437, 25, 468, 88
-0.986147, 317, 129, 348, 192
-0.986185, 425, 161, 456, 224
-0.986216, 329, 105, 360, 168
-0.986242, 173, 33, 204, 160
-0.986336, 409, 25, 440, 88
-0.986355, 293, 265, 324, 328
-0.986453, 221, 41, 252, 104
-0.986467, 345, 161, 376, 288
-0.986497, 25, 1, 88, 375
-0.986503, 205, 169, 236, 232
-0.986561, 133, 57, 164, 120
-0.986608, 273, 89, 304, 152
-0.986624, 149, 1, 180, 64
-0.986634, 85, 129, 116, 256
-0.986682, 29, 49, 60, 112
-0.986733, 57, 25, 88, 88
-0.986757, 341, 81, 372, 144
-0.986789, 1, 1, 64, 256
-0.986817, 253, 1, 284, 128
-0.986833, 105, 129, 136, 256
-0.98684, 449, 97, 480, 224
-0.986866, 329, 1, 360, 128
-0.98693, 81, 105, 112, 168
-0.987136, 41, 185, 72, 248
-0.987148, 177, 137, 208, 200
-0.987175, 309, 105, 340, 168
-0.987185, 377, 33, 408, 96
-0.987262, 341, 129, 372, 192
-0.987317, 357, 193, 388, 320
-0.987328, 373, 145, 404, 272
-0.987336, 461, 193, 492, 256
-0.987376, 37, 145, 68, 272
-0.987428, 265, 17, 296, 144
-0.987438, 285, 209, 316, 272
-0.987515, 385, 137, 416, 200
-0.987591, 125, 145, 156, 272
-0.987643, 437, 49, 468, 176
-0.987719, 61, 81, 92, 208
-0.987747, 65, 129, 96, 256
-0.987803, 257, 241, 500, 304
-0.98788, 241, 281, 368, 344
-0.987912, 453, 49, 484, 176
-0.987962, 433, 1, 496, 375
-0.988005, 1, 129, 128, 192
-0.988057, 441, 241, 472, 368
-0.988067, 45, 17, 76, 144
-0.98813, 297, 273, 360, 304
-0.988159, 321, 1, 384, 375
-0.988179, 425, 49, 456, 176
-0.988357, 329, 261, 392, 292
-0.988379, 373, 1, 404, 128
-0.988442, 65, 1, 320, 64
-0.988466, 113, 193, 240, 256
-0.988553, 49, 97, 112, 352
-0.988557, 369, 277, 432, 308
-0.98874, 417, 237, 480, 268
-0.988781, 145, 281, 272, 344
-0.988789, 289, 53, 352, 84
-0.988889, 145, 177, 208, 208
-0.988894, 469, 97, 500, 224
-0.988896, 361, 73, 424, 104
-0.988905, 105, 153, 168, 184
-0.988944, 269, 65, 300, 192
-0.989003, 49, 97, 80, 224
-0.989027, 401, 189, 464, 220
-0.989061, 97, 305, 224, 368
-0.989151, 337, 245, 400, 276
-0.989172, 377, 241, 440, 272
-0.989231, 305, 237, 368, 268
-0.989251, 65, 141, 128, 172
-0.989316, 409, 1, 472, 32
-0.989334, 305, 261, 368, 292
-0.98935, 289, 65, 352, 96
-0.989408, 65, 225, 128, 352
-0.989499, 353, 265, 416, 296
-0.989511, 73, 25, 136, 56
-0.989514, 377, 293, 440, 324
-0.989519, 417, 225, 480, 256
-0.989522, 177, 305, 304, 368
-0.989531, 361, 61, 424, 92
-0.989552, 121, 173, 184, 204
-0.98959, 113, 241, 176, 368
-0.989608, 1, 1, 64, 375
-0.989693, 81, 161, 144, 192
-0.989693, 321, 61, 384, 92
-0.989698, 121, 1, 184, 32
-0.989709, 129, 157, 192, 188
-0.989717, 409, 65, 440, 192
-0.98977, 17, 241, 144, 368
-0.989777, 113, 241, 240, 368
-0.9898, 185, 165, 248, 196
-0.98982, 461, 1, 492, 128
-0.989847, 361, 85, 424, 116
-0.989926, 181, 241, 212, 368
-0.98997, 297, 225, 360, 256
-0.989973, 249, 129, 312, 375
-0.990007, 393, 277, 456, 308
-0.990009, 377, 261, 440, 292
-0.990014, 329, 73, 392, 104
-0.990018, 249, 69, 312, 100
-0.990023, 425, 185, 488, 216
-0.990027, 401, 249, 464, 280
-0.990049, 401, 41, 464, 72
-0.99005, 129, 137, 384, 200
-0.990063, 345, 281, 408, 312
-0.990072, 401, 61, 464, 92
-0.990072, 273, 261, 336, 292
-0.990094, 89, 121, 152, 152
-0.990129, 433, 1, 496, 32
-0.990137, 209, 69, 272, 100
-0.990219, 433, 49, 496, 80
-0.990298, 185, 177, 248, 208
-0.990323, 273, 277, 336, 308
-0.990341, 177, 1, 240, 32
-0.990349, 89, 241, 152, 368
-0.990353, 321, 273, 384, 304
-0.990382, 257, 193, 288, 320
-0.990384, 41, 45, 104, 76
-0.9904, 113, 105, 176, 136
-0.990407, 281, 245, 344, 276
-0.99042, 357, 129, 388, 256
-0.990445, 337, 161, 400, 192
-0.990452, 361, 201, 424, 232
-0.990465, 97, 173, 160, 204
-0.990467, 409, 13, 472, 44
-0.990482, 1, 65, 500, 128
-0.990499, 41, 65, 104, 96
-0.990502, 17, 33, 80, 64
-0.99051, 329, 49, 392, 80
-0.99052, 169, 153, 232, 184
-0.990533, 217, 153, 280, 184
-0.990569, 257, 57, 320, 88
-0.990583, 273, 233, 336, 264
-0.990587, 49, 153, 112, 184
-0.990593, 193, 53, 256, 84
-0.990609, 229, 145, 260, 272
-0.990612, 177, 117, 240, 148
-0.990628, 417, 213, 480, 244
-0.990636, 369, 49, 432, 80
-0.990641, 401, 261, 464, 292
-0.990668, 329, 85, 392, 116
-0.990704, 89, 13, 152, 44
-0.990708, 41, 33, 104, 64
-0.990715, 153, 193, 216, 224
-0.990735, 145, 269, 208, 300
-0.990745, 153, 165, 216, 196
-0.99076, 209, 85, 272, 116
-0.990764, 321, 213, 384, 244
-0.990789, 129, 73, 384, 136
-0.990834, 89, 141, 152, 172
-0.990855, 425, 201, 488, 232
-0.990862, 321, 1, 448, 64
-0.990863, 425, 37, 488, 68
-0.990864, 297, 201, 360, 232
-0.990876, 161, 137, 224, 168
-0.990889, 225, 65, 480, 128
-0.99091, 197, 145, 228, 272
-0.990916, 137, 101, 200, 132
-0.990919, 289, 89, 352, 120
-0.990933, 129, 97, 384, 160
-0.990934, 65, 37, 128, 68
-0.990935, 265, 45, 328, 76
-0.990944, 5, 49, 36, 176
-0.990964, 313, 169, 376, 200
-0.990976, 233, 81, 296, 112
-0.990985, 121, 185, 184, 216
-0.990986, 169, 25, 232, 56
-0.990986, 305, 249, 368, 280
-0.99101, 289, 173, 352, 204
-0.99102, 177, 89, 240, 120
-0.99102, 417, 173, 480, 204
-0.991036, 41, 165, 104, 196
-0.991036, 189, 193, 220, 320
-0.991038, 297, 105, 360, 136
-0.99106, 401, 201, 464, 232
-0.991064, 393, 229, 456, 260
-0.991082, 121, 29, 184, 60
-0.991087, 257, 185, 320, 216
-0.991107, 425, 249, 488, 280
-0.991109, 409, 25, 472, 56
-0.991116, 285, 145, 316, 272
-0.991116, 385, 21, 448, 52
-0.991121, 1, 53, 64, 84
-0.991155, 1, 21, 64, 52
-0.991172, 233, 57, 296, 88
-0.99118, 217, 45, 280, 76
-0.991192, 209, 13, 272, 44
-0.9912, 201, 125, 264, 156
-0.991213, 153, 289, 216, 320
-0.991213, 33, 81, 64, 208
-0.991213, 241, 145, 272, 272
-0.991221, 161, 105, 224, 136
-0.991224, 321, 285, 384, 316
-0.991227, 153, 305, 216, 336
-0.991228, 169, 37, 232, 68
-0.991228, 369, 305, 432, 336
-0.991239, 1, 225, 128, 288
-0.991249, 153, 1, 216, 32
-0.991262, 433, 21, 496, 52
-0.991312, 209, 185, 272, 216
-0.991318, 249, 273, 312, 304
-0.991321, 329, 97, 392, 128
-0.991323, 329, 145, 392, 176
-0.99134, 81, 73, 144, 104
-0.991366, 153, 69, 216, 100
-0.991375, 297, 285, 360, 316
-0.991375, 257, 193, 500, 256
-0.991379, 73, 89, 136, 120
-0.991382, 217, 165, 280, 196
-0.991387, 81, 49, 144, 80
-0.991387, 393, 93, 456, 124
-0.991422, 393, 109, 456, 140
-0.991434, 385, 177, 448, 208
-0.991438, 65, 129, 128, 160
-0.991455, 89, 109, 152, 140
-0.99151, 157, 193, 188, 320
-0.991538, 361, 1, 392, 128
-0.991544, 1, 169, 256, 232
-0.991549, 225, 265, 480, 328
-0.991614, 1, 193, 500, 256
-0.991654, 193, 169, 448, 232
-0.991698, 461, 145, 492, 272
-0.991766, 33, 129, 288, 192
-0.991989, 157, 241, 188, 368
-0.991995, 97, 49, 352, 112
-0.99203, 33, 25, 288, 88
-0.992054, 257, 89, 500, 152
-0.992069, 397, 265, 428, 296
-0.992072, 305, 261, 432, 292
-0.992118, 385, 285, 416, 316
-0.992122, 337, 257, 368, 288
-0.992129, 441, 221, 472, 252
-0.992189, 1, 1, 500, 64
-0.992213, 257, 1, 500, 64
-0.992248, 449, 233, 480, 264
-0.992275, 405, 245, 436, 276
-0.992331, 401, 277, 432, 308
-0.992346, 325, 269, 356, 300
-0.992356, 289, 273, 416, 304
-0.992356, 425, 237, 456, 268
-0.992369, 385, 253, 416, 284
-0.992408, 161, 225, 288, 288
-0.992422, 153, 173, 184, 204
-0.992429, 93, 145, 124, 176
-0.992433, 369, 273, 400, 304
-0.992445, 109, 149, 140, 180
-0.992454, 417, 257, 448, 288
-0.992454, 1, 57, 256, 120
-0.992467, 309, 277, 340, 308
-0.99248, 381, 269, 412, 300
-0.992482, 453, 201, 484, 232
-0.992483, 105, 161, 136, 192
-0.992485, 141, 173, 172, 204
-0.992503, 453, 221, 484, 252
-0.99251, 337, 269, 368, 300
-0.992517, 305, 49, 336, 80
-0.992519, 125, 1, 156, 32
-0.992527, 97, 241, 224, 304
-0.992531, 101, 117, 132, 148
-0.992536, 333, 237, 364, 268
-0.992537, 437, 245, 468, 276
-0.992539, 53, 153, 84, 184
-0.99254, 165, 177, 196, 208
-0.992563, 157, 157, 188, 188
-0.992564, 225, 41, 480, 104
-0.992567, 85, 133, 116, 164
-0.99257, 437, 5, 468, 36
-0.992572, 369, 257, 400, 288
-0.992577, 297, 273, 328, 304
-0.992579, 409, 5, 440, 36
-0.992582, 177, 173, 208, 204
-0.992587, 349, 253, 380, 284
-0.992588, 437, 233, 468, 264
-0.9926, 69, 137, 100, 168
-0.992621, 317, 225, 348, 256
-0.992624, 141, 157, 172, 188
-0.992624, 173, 269, 204, 300
-0.992627, 265, 73, 296, 104
-0.992632, 1, 113, 500, 176
-0.992645, 125, 153, 156, 184
-0.992649, 349, 265, 380, 296
-0.99266, 353, 241, 384, 272
-0.992661, 437, 185, 468, 216
-0.992662, 409, 65, 440, 96
-0.992664, 237, 73, 268, 104
-0.992674, 217, 69, 248, 100
-0.992691, 73, 157, 104, 188
-0.9927, 93, 161, 124, 192
-0.992704, 405, 53, 436, 84
-0.99271, 161, 193, 192, 224
-0.992711, 261, 61, 292, 92
-0.992717, 117, 165, 148, 196
-0.992717, 201, 169, 232, 200
-0.992719, 269, 241, 300, 368
-0.99272, 429, 41, 460, 72
-0.992721, 117, 105, 148, 136
-0.992725, 365, 161, 396, 192
-0.992728, 217, 1, 248, 32
-0.992729, 49, 193, 176, 256
-0.992736, 325, 257, 356, 288
-0.992738, 129, 169, 160, 200
-0.992739, 65, 45, 96, 76
-0.992742, 45, 33, 76, 64
-0.992755, 453, 41, 484, 72
-0.992762, 305, 229, 336, 260
-0.992767, 313, 257, 344, 288
-0.992767, 377, 57, 408, 88
-0.992769, 281, 73, 312, 104
-0.992772, 425, 1, 456, 32
-0.992774, 429, 221, 460, 252
-0.992776, 145, 1, 176, 32
-0.992781, 457, 9, 488, 40
-0.992789, 137, 101, 168, 132
-0.992808, 389, 197, 420, 228
-0.992809, 217, 13, 248, 44
-0.99281, 289, 313, 416, 375
-0.992822, 253, 73, 284, 104
-0.992827, 201, 1, 232, 32
-0.992836, 393, 49, 424, 80
-0.992837, 441, 209, 472, 240
-0.992846, 81, 145, 112, 176
-0.992847, 377, 241, 408, 272
-0.992848, 301, 61, 332, 92
-0.992858, 321, 241, 352, 272
-0.99286, 81, 21, 112, 52
-0.992865, 417, 173, 448, 204
-0.992878, 401, 21, 432, 52
-0.992879, 341, 85, 372, 116
-0.992881, 449, 21, 480, 52
-0.992886, 301, 241, 332, 272
-0.992893, 397, 233, 428, 264
-0.992893, 249, 61, 280, 92
-0.992894, 113, 29, 144, 60
-0.992896, 193, 157, 224, 188
-0.992905, 345, 165, 376, 196
-0.992906, 137, 185, 168, 216
-0.992909, 293, 261, 324, 292
-0.992913, 293, 285, 324, 316
-0.992914, 409, 193, 440, 224
-0.992915, 449, 181, 480, 212
-0.992915, 225, 81, 256, 112
-0.992918, 181, 185, 212, 216
-0.992919, 221, 29, 252, 60
-0.99292, 177, 301, 208, 332
-0.992922, 413, 37, 444, 68
-0.992923, 397, 297, 428, 328
-0.992925, 417, 225, 448, 256
-0.992927, 353, 73, 384, 104
-0.992942, 329, 221, 360, 252
-0.992943, 213, 57, 244, 88
-0.992947, 273, 273, 304, 304
-0.99295, 365, 241, 396, 272
-0.992953, 65, 33, 96, 64
-0.992955, 441, 41, 472, 72
-0.992955, 73, 65, 104, 96
-0.992955, 173, 289, 204, 320
-0.99296, 321, 53, 352, 84
-0.992962, 213, 169, 244, 200
-0.992962, 69, 81, 100, 112
-0.992965, 225, 69, 352, 100
-0.992971, 101, 129, 132, 160
-0.992978, 237, 85, 268, 116
-0.992979, 397, 1, 428, 32
-0.99298, 121, 141, 152, 172
-0.99298, 413, 277, 444, 308
-0.99298, 425, 185, 456, 216
-0.99299, 453, 53, 484, 84
-0.992992, 437, 21, 468, 52
-0.992993, 425, 53, 456, 84
-0.992994, 325, 169, 356, 200
-0.993014, 305, 77, 432, 108
-0.993023, 49, 257, 176, 320
-0.993044, 321, 249, 448, 280
-0.993065, 33, 105, 288, 168
-0.993066, 101, 177, 132, 304
-0.993099, 1, 145, 64, 272
-0.993115, 257, 257, 384, 288
-0.993119, 253, 145, 284, 272
-0.993219, 1, 201, 128, 264
-0.993226, 1, 217, 500, 280
-0.993315, 457, 201, 472, 264
-0.993323, 193, 289, 448, 352
-0.993339, 257, 217, 500, 280
-0.993378, 97, 161, 352, 224
-0.993422, 49, 145, 176, 176
-0.993429, 1, 249, 500, 312
-0.993517, 273, 65, 400, 96
-0.993529, 413, 241, 428, 304
-0.993558, 157, 153, 172, 216
-0.993565, 17, 193, 80, 320
-0.99357, 1, 145, 500, 208
-0.993632, 161, 181, 288, 212
-0.993633, 169, 153, 184, 216
-0.993642, 225, 113, 480, 176
-0.993645, 97, 157, 224, 188
-0.993665, 393, 249, 408, 312
-0.993671, 387, 265, 402, 328
-0.993682, 1, 89, 500, 152
-0.993689, 1, 81, 256, 144
-0.993724, 407, 241, 422, 304
-0.993759, 229, 57, 244, 120
-0.993799, 113, 177, 144, 304
-0.99381, 369, 249, 496, 280
-0.993816, 201, 193, 232, 320
-0.993874, 403, 265, 418, 328
-0.993886, 273, 245, 400, 276
-0.993909, 97, 249, 352, 312
-0.993975, 305, 289, 432, 320
-0.993986, 305, 53, 432, 84
-0.99407, 1, 169, 500, 232
-0.994077, 121, 145, 136, 208
-0.994083, 177, 65, 304, 96
-0.994126, 209, 45, 336, 76
-0.994142, 451, 217, 466, 280
-0.994159, 347, 249, 362, 312
-0.99416, 275, 65, 290, 128
-0.994175, 321, 65, 448, 96
-0.994246, 161, 225, 416, 288
-0.994251, 443, 225, 458, 288
-0.994253, 17, 161, 144, 192
-0.994265, 353, 261, 480, 292
-0.994293, 413, 265, 428, 328
-0.994298, 425, 233, 440, 296
-0.99436, 369, 189, 496, 220
-0.994379, 97, 121, 112, 184
-0.994382, 1, 41, 500, 104
-0.994386, 163, 153, 178, 216
-0.994438, 377, 265, 392, 328
-0.994457, 393, 273, 408, 336
-0.994466, 385, 241, 400, 304
-0.994501, 257, 41, 272, 104
-0.994501, 273, 129, 304, 256
-0.994502, 225, 57, 352, 88
-0.994505, 353, 277, 480, 308
-0.99453, 337, 257, 352, 320
-0.994532, 193, 81, 320, 112
-0.994549, 127, 137, 142, 200
-0.994557, 353, 201, 480, 232
-0.994579, 113, 5, 240, 36
-0.994608, 463, 193, 478, 256
-0.99464, 431, 1, 446, 64
-0.994655, 365, 241, 380, 304
-0.994673, 129, 65, 256, 96
-0.994677, 179, 169, 194, 232
-0.994677, 151, 145, 166, 208
-0.994687, 317, 233, 332, 296
-0.994691, 51, 161, 66, 224
-0.994703, 289, 65, 304, 128
-0.994706, 125, 1, 140, 64
-0.994724, 445, 1, 460, 64
-0.99473, 353, 237, 480, 268
-0.994742, 81, 133, 208, 164
-0.994755, 321, 169, 448, 200
-0.994788, 353, 249, 368, 312
-0.994802, 267, 65, 282, 128
-0.994811, 337, 217, 352, 280
-0.994813, 33, 193, 288, 256
-0.994815, 371, 241, 386, 304
-0.99484, 431, 233, 446, 296
-0.994906, 353, 1, 480, 32
-0.994914, 241, 49, 256, 112
-0.994915, 129, 25, 256, 56
-0.994923, 113, 101, 240, 132
-0.994925, 135, 145, 150, 208
-0.994931, 91, 129, 106, 192
-0.99494, 453, 9, 468, 72
-0.994947, 261, 65, 276, 128
-0.994957, 369, 57, 496, 88
-0.994978, 25, 97, 88, 352
-0.994988, 331, 233, 346, 296
-0.995004, 307, 49, 322, 112
-0.995006, 145, 169, 272, 200
-0.995009, 425, 257, 440, 320
-0.995011, 105, 145, 120, 208
-0.995022, 145, 85, 272, 116
-0.995044, 81, 113, 208, 144
-0.995064, 65, 217, 192, 280
-0.995066, 83, 65, 98, 128
-0.995073, 129, 73, 144, 136
-0.995085, 145, 145, 160, 208
-0.995092, 247, 73, 262, 136
-0.995093, 233, 9, 248, 72
-0.99511, 241, 273, 368, 304
-0.995111, 327, 265, 342, 328
-0.995129, 241, 81, 368, 112
-0.995146, 115, 145, 130, 208
-0.995152, 223, 1, 238, 64
-0.995153, 283, 65, 298, 128
-0.995153, 161, 1, 416, 64
-0.995156, 415, 1, 430, 64
-0.995158, 437, 241, 452, 304
-0.995162, 399, 241, 414, 304
-0.995203, 419, 249, 434, 312
-0.995211, 321, 265, 336, 328
-0.995225, 65, 21, 192, 52
-0.995234, 103, 121, 118, 184
-0.995235, 297, 65, 312, 128
-0.99524, 423, 1, 438, 64
-0.995282, 447, 177, 462, 240
-0.9953, 161, 201, 416, 264
-0.995317, 225, 137, 480, 200
-0.995337, 457, 225, 472, 288
-0.99535, 343, 225, 358, 288
-0.995369, 463, 217, 478, 280
-0.995377, 81, 181, 208, 212
-0.995395, 305, 233, 432, 264
-0.995405, 119, 1, 134, 64
-0.995412, 117, 1, 148, 256
-0.995415, 225, 181, 352, 212
-0.995423, 379, 241, 394, 304
-0.995428, 385, 289, 400, 352
-0.99544, 49, 281, 176, 344
-0.995472, 1, 273, 500, 336
-0.995485, 201, 137, 216, 200
-0.995498, 97, 145, 224, 176
-0.995511, 73, 33, 88, 96
-0.995516, 161, 37, 288, 68
-0.995528, 81, 169, 208, 200
-0.995566, 161, 153, 288, 184
-0.99557, 97, 45, 224, 76
-0.995583, 49, 45, 176, 76
-0.995589, 321, 105, 448, 136
-0.995593, 211, 1, 226, 64
-0.995595, 439, 1, 454, 64
-0.995611, 97, 193, 160, 320
-0.995639, 145, 141, 272, 172
-0.995642, 85, 129, 100, 192
-0.995643, 77, 65, 92, 128
-0.995647, 451, 241, 466, 304
-0.995648, 373, 65, 388, 128
-0.995657, 301, 241, 316, 304
-0.995663, 409, 1, 424, 64
-0.995665, 369, 13, 496, 44
-0.995681, 193, 97, 320, 128
-0.995687, 133, 121, 148, 184
-0.995695, 193, 281, 320, 344
-0.995717, 65, 73, 192, 104
-0.995721, 61, 49, 76, 112
-0.995735, 229, 33, 244, 96
-0.995737, 127, 161, 142, 224
-0.995741, 241, 305, 368, 368
-0.995745, 67, 33, 82, 96
-0.995757, 307, 177, 322, 240
-0.995758, 241, 205, 368, 236
-0.995762, 459, 25, 474, 88
-0.995767, 225, 165, 352, 196
-0.995768, 325, 233, 340, 296
-0.995776, 89, 65, 104, 128
-0.995791, 253, 73, 268, 136
-0.995811, 179, 265, 194, 328
-0.995815, 129, 49, 144, 112
-0.995824, 33, 173, 160, 204
-0.995844, 369, 289, 496, 320
-0.995848, 83, 17, 98, 80
-0.995855, 211, 161, 226, 224
-0.995868, 209, 33, 336, 64
-0.995872, 395, 57, 410, 120
-0.995885, 321, 201, 336, 264
-0.995888, 313, 177, 328, 240
-0.995891, 159, 73, 174, 136
-0.995892, 153, 89, 168, 152
-0.99591, 369, 29, 496, 60
-0.995929, 129, 25, 384, 88
-0.995945, 251, 49, 266, 112
-0.995955, 209, 13, 336, 44
-0.995955, 311, 233, 326, 296
-0.995964, 367, 265, 382, 328
-0.995968, 1, 77, 128, 108
-0.995986, 49, 57, 176, 88
-0.996009, 405, 41, 420, 104
-0.996012, 457, 177, 472, 240
-0.996013, 213, 1, 244, 256
-0.996015, 185, 169, 200, 232
-0.996016, 433, 209, 448, 272
-0.996029, 351, 169, 366, 232
-0.996029, 437, 1, 468, 256
-0.99603, 369, 41, 496, 72
-0.996036, 309, 201, 324, 264
-0.996041, 359, 241, 374, 304
-0.996045, 385, 169, 400, 232
-0.996048, 1, 177, 128, 240
-0.99605, 315, 57, 330, 120
-0.996052, 97, 1, 128, 256
-0.996052, 153, 1, 184, 256
-0.996054, 147, 1, 162, 64
-0.996054, 225, 229, 352, 260
-0.996055, 289, 89, 416, 120
-0.996058, 335, 65, 350, 128
-0.996059, 419, 273, 434, 336
-0.996062, 155, 177, 170, 240
-0.996065, 179, 89, 194, 152
-0.996067, 1, 149, 128, 180
-0.99608, 201, 89, 216, 152
-0.996119, 465, 25, 480, 88
-0.996124, 195, 89, 210, 152
-0.996126, 57, 185, 72, 248
-0.996131, 337, 89, 464, 120
-0.996131, 301, 169, 316, 232
-0.996131, 345, 169, 360, 232
-0.996142, 97, 97, 112, 160
-0.996146, 475, 1, 490, 64
-0.996152, 273, 193, 400, 224
-0.996152, 17, 33, 144, 64
-0.996155, 443, 201, 458, 264
-0.996164, 369, 225, 496, 256
-0.996174, 273, 173, 400, 204
-0.996175, 315, 273, 330, 336
-0.996177, 193, 1, 320, 32
-0.99618, 145, 113, 272, 144
-0.996197, 81, 41, 96, 104
-0.996201, 221, 169, 236, 232
-0.99621, 305, 41, 432, 72
-0.996217, 353, 77, 480, 108
-0.996255, 397, 129, 428, 375
-0.996266, 49, 85, 176, 116
-0.996284, 193, 269, 320, 300
-0.996289, 197, 65, 228, 320
-0.996317, 257, 141, 384, 172
-0.996343, 193, 193, 320, 224
-0.996347, 181, 33, 212, 288
-0.996361, 321, 157, 448, 188
-0.99637, 65, 217, 320, 280
-0.996381, 305, 205, 432, 236
-0.996386, 77, 1, 108, 256
-0.996398, 65, 9, 192, 40
-0.996423, 137, 65, 168, 320
-0.996427, 321, 125, 448, 156
-0.996429, 225, 109, 352, 140
-0.996473, 145, 53, 272, 84
-0.996501, 225, 1, 256, 256
-0.996512, 385, 33, 416, 288
-0.996522, 257, 285, 384, 316
-0.996537, 225, 245, 352, 276
-0.996565, 1, 57, 128, 88
-0.996603, 241, 93, 368, 124
-0.996656, 417, 129, 448, 375
-0.99667, 65, 33, 192, 64
-0.996684, 369, 121, 496, 152
-0.996688, 273, 217, 400, 248
-0.99669, 169, 33, 200, 288
-0.996696, 17, 17, 144, 48
-0.9967, 65, 101, 192, 132
-0.996721, 109, 97, 140, 352
-0.996744, 425, 1, 456, 256
-0.996756, 321, 97, 352, 352
-0.996758, 145, 129, 272, 160
-0.996759, 193, 241, 256, 368
-0.996772, 455, 225, 470, 256
-0.996779, 321, 137, 448, 168
-0.996781, 391, 285, 406, 316
-0.996798, 273, 109, 400, 140
-0.996801, 273, 153, 400, 184
-0.996845, 353, 301, 480, 332
-0.996864, 369, 105, 496, 136
-0.996904, 65, 1, 96, 256
-0.996914, 113, 193, 240, 224
-0.996919, 161, 13, 288, 44
-0.996923, 405, 1, 436, 256
-0.996928, 253, 73, 268, 104
-0.996957, 449, 65, 480, 320
-0.996963, 97, 85, 224, 116
-0.996982, 161, 129, 192, 375
-0.996987, 395, 269, 410, 300
-0.997002, 341, 261, 356, 292
-0.997009, 369, 169, 496, 200
-0.997025, 305, 33, 336, 288
-0.997036, 253, 33, 284, 288
-0.997069, 1, 297, 500, 360
-0.997069, 257, 121, 384, 152
-0.997074, 449, 229, 464, 260
-0.997077, 461, 229, 476, 260
-0.997077, 385, 129, 416, 375
-0.997098, 97, 273, 352, 336
-0.997101, 209, 149, 336, 180
-0.997101, 419, 245, 434, 276
-0.997115, 333, 97, 364, 352
-0.997124, 415, 277, 430, 308
-0.997139, 411, 261, 426, 292
-0.997147, 347, 253, 362, 284
-0.997148, 149, 129, 180, 375
-0.997152, 403, 265, 418, 296
-0.997157, 53, 1, 84, 256
-0.997159, 209, 285, 336, 316
-0.997168, 461, 1, 492, 256
-0.997172, 429, 241, 444, 272
-0.997181, 453, 213, 468, 244
-0.997187, 93, 129, 108, 160
-0.997194, 407, 277, 422, 308
-0.997206, 33, 133, 160, 164
-0.99721, 97, 293, 224, 324
-0.997227, 229, 1, 244, 32
-0.997238, 265, 33, 296, 288
-0.997239, 17, 101, 144, 132
-0.997245, 385, 297, 400, 328
-0.997286, 97, 277, 224, 308
-0.99729, 1, 289, 256, 352
-0.997318, 1, 249, 128, 312
-0.997323, 441, 233, 456, 264
-0.997335, 209, 257, 336, 288
-0.997347, 435, 237, 450, 268
-0.997347, 401, 281, 416, 312
-0.997351, 229, 65, 244, 96
-0.997358, 459, 41, 474, 72
-0.997359, 101, 121, 116, 152
-0.997366, 399, 253, 414, 284
-0.997367, 1, 313, 128, 375
-0.997375, 193, 313, 448, 375
-0.997376, 33, 313, 288, 375
-0.997388, 177, 177, 192, 208
-0.997393, 321, 17, 448, 48
-0.997394, 409, 249, 424, 280
-0.997412, 437, 97, 468, 352
-0.997437, 373, 1, 404, 256
-0.997454, 237, 1, 268, 256
-0.997466, 229, 13, 244, 44
-0.997476, 449, 37, 464, 68
-0.997485, 225, 217, 352, 248
-0.997488, 121, 97, 152, 352
-0.99749, 451, 21, 466, 52
-0.997493, 155, 173, 170, 204
-0.9975, 459, 201, 474, 232
-0.997513, 461, 217, 476, 248
-0.997515, 79, 141, 94, 172
-0.997519, 1, 45, 128, 76
-0.997524, 1, 89, 128, 120
-0.997533, 445, 217, 460, 248
-0.997538, 335, 257, 350, 288
-0.997542, 171, 177, 186, 208
-0.99755, 321, 53, 336, 84
-0.997551, 305, 1, 432, 32
-0.997567, 105, 145, 120, 176
-0.997572, 389, 249, 404, 280
-0.997574, 125, 1, 140, 32
-0.997582, 295, 277, 310, 308
-0.997582, 329, 269, 344, 300
-0.997588, 237, 1, 252, 32
-0.997603, 421, 257, 436, 288
-0.997604, 415, 5, 430, 36
-0.997605, 177, 269, 192, 300
-0.997607, 257, 45, 384, 76
-0.997608, 357, 33, 388, 288
-0.997617, 209, 121, 336, 152
-0.997617, 321, 217, 448, 248
-0.997619, 441, 5, 456, 36
-0.997622, 383, 273, 398, 304
-0.997626, 33, 113, 160, 144
-0.997626, 247, 77, 262, 108
-0.997628, 453, 241, 468, 272
-0.997632, 69, 145, 84, 176
-0.997633, 161, 157, 176, 188
-0.997633, 223, 1, 238, 32
-0.997639, 307, 45, 322, 76
-0.997641, 321, 225, 336, 256
-0.997648, 207, 153, 222, 184
-0.997649, 263, 61, 278, 92
-0.997651, 431, 225, 446, 256
-0.997657, 123, 145, 138, 176
-0.997667, 199, 137, 214, 168
-0.997671, 123, 165, 138, 196
-0.997672, 161, 217, 288, 248
-0.997677, 185, 173, 200, 204
-0.99768, 259, 49, 274, 80
-0.997683, 259, 77, 274, 108
-0.997689, 439, 221, 454, 252
-0.997693, 369, 129, 400, 375
-0.997707, 423, 9, 438, 40
-0.997708, 115, 149, 130, 180
-0.997709, 61, 49, 76, 80
-0.997713, 449, 1, 464, 32
-0.997733, 77, 97, 108, 352
-0.997735, 145, 205, 272, 236
-0.997736, 385, 285, 400, 316
-0.997737, 97, 97, 128, 352
-0.997738, 109, 157, 124, 188
-0.997741, 183, 185, 198, 216
-0.997742, 421, 229, 436, 260
-0.997742, 435, 185, 450, 216
-0.997744, 253, 85, 268, 116
-0.997745, 205, 121, 220, 152
-0.997754, 347, 237, 362, 268
-0.997755, 377, 261, 392, 292
-0.997771, 305, 301, 432, 332
-0.997775, 311, 269, 326, 300
-0.997776, 95, 153, 110, 184
-0.997776, 37, 1, 68, 256
-0.997777, 165, 181, 180, 212
-0.997779, 173, 129, 204, 375
-0.997781, 175, 165, 190, 196
-0.997782, 369, 261, 384, 292
-0.997784, 273, 29, 400, 60
-0.997786, 145, 257, 272, 320
-0.997792, 215, 169, 230, 200
-0.997796, 327, 221, 342, 252
-0.997799, 411, 49, 426, 80
-0.997799, 137, 169, 152, 200
-0.997801, 317, 273, 332, 304
-0.997802, 149, 153, 164, 184
-0.997809, 359, 85, 374, 116
-0.997816, 83, 69, 98, 100
-0.997817, 443, 41, 458, 72
-0.997819, 267, 73, 282, 104
-0.997819, 369, 157, 496, 188
-0.997822, 211, 1, 226, 32
-0.997827, 411, 233, 426, 264
-0.997828, 431, 1, 446, 32
-0.997831, 85, 133, 100, 164
-0.997834, 321, 1, 352, 256
-0.997834, 233, 29, 248, 60
-0.997842, 383, 157, 398, 188
-0.997846, 377, 245, 392, 276
-0.997847, 153, 1, 168, 32
-0.997851, 115, 165, 130, 196
-0.997852, 301, 277, 316, 308
-0.997858, 191, 305, 206, 336
-0.997858, 145, 165, 160, 196
-0.997865, 155, 157, 170, 188
-0.997865, 353, 253, 368, 284
-0.997868, 465, 97, 496, 352
-0.997868, 431, 253, 446, 284
-0.997873, 129, 41, 144, 72
-0.997873, 49, 169, 64, 200
-0.997877, 179, 257, 194, 288
-0.997877, 341, 1, 372, 256
-0.99788, 85, 53, 100, 84
-0.997894, 33, 185, 160, 216
-0.997894, 53, 189, 68, 220
-0.997896, 121, 101, 136, 132
-0.997898, 347, 265, 362, 296
-0.9979, 359, 269, 374, 300
-0.997902, 67, 41, 82, 72
-0.997903, 223, 13, 238, 44
-0.997908, 445, 245, 460, 276
-0.99791, 467, 221, 482, 252
-0.997919, 323, 269, 338, 300
-0.997925, 383, 257, 398, 288
-0.997926, 401, 237, 416, 268
-0.997926, 131, 1, 146, 32
-0.997928, 129, 69, 144, 100
-0.997929, 335, 269, 350, 300
-0.99793, 451, 49, 466, 80
-0.997931, 429, 41, 444, 72
-0.997937, 61, 149, 76, 180
-0.997999, 145, 277, 272, 308
-0.998025, 17, 5, 144, 36
-0.998059, 9, 1, 40, 256
-0.998088, 161, 317, 288, 348
-0.998131, 185, 129, 216, 375
-0.998153, 281, 33, 312, 288
-0.998227, 213, 97, 244, 352
-0.998262, 293, 33, 324, 288
-0.998298, 349, 129, 380, 375
-0.998335, 301, 129, 332, 375
-0.998359, 49, 305, 176, 368
-0.998388, 65, 97, 96, 352
-0.998412, 289, 65, 352, 80
-0.998419, 345, 263, 408, 278
-0.998419, 321, 271, 384, 286
-0.998441, 329, 79, 392, 94
-0.998444, 413, 277, 444, 292
-0.998445, 97, 173, 128, 188
-0.998446, 401, 297, 432, 312
-0.998446, 117, 73, 148, 88
-0.998447, 201, 9, 232, 24
-0.998447, 185, 1, 216, 16
-0.998448, 385, 197, 448, 212
-0.998449, 405, 53, 436, 68
-0.998449, 397, 195, 428, 210
-0.998449, 173, 189, 204, 204
-0.99845, 397, 171, 428, 186
-0.99845, 201, 173, 232, 188
-0.998451, 449, 15, 480, 30
-0.998451, 221, 27, 252, 42
-0.998452, 329, 255, 392, 270
-0.998452, 325, 221, 356, 236
-0.998453, 65, 149, 128, 164
-0.998453, 373, 159, 404, 174
-0.998453, 425, 53, 456, 68
-0.998454, 205, 1, 236, 16
-0.998454, 313, 295, 344, 310
-0.998456, 421, 231, 452, 246
-0.998456, 417, 235, 480, 250
-0.998456, 377, 281, 440, 296
-0.998457, 305, 241, 368, 256
-0.998457, 297, 275, 328, 290
-0.998458, 361, 77, 424, 92
-0.998458, 333, 239, 364, 254
-0.998459, 141, 187, 172, 202
-0.998459, 401, 275, 432, 290
-0.998459, 349, 285, 380, 300
-0.99846, 409, 7, 440, 22
-0.998461, 285, 129, 316, 375
-0.998461, 273, 179, 304, 194
-0.998462, 297, 179, 328, 194
-0.998462, 369, 275, 432, 290
-0.998462, 289, 59, 352, 74
-0.998462, 329, 261, 360, 276
-0.998462, 385, 249, 448, 264
-0.998463, 397, 59, 428, 74
-0.998464, 389, 243, 420, 258
-0.998464, 417, 229, 480, 244
-0.998464, 217, 177, 248, 192
-0.998465, 261, 71, 292, 86
-0.998465, 377, 61, 408, 76
-0.998466, 421, 259, 452, 274
-0.998466, 401, 287, 432, 302
-0.998466, 237, 89, 268, 104
-0.998466, 333, 273, 364, 288
-0.998467, 221, 89, 252, 104
-0.998467, 69, 143, 100, 158
-0.998468, 445, 21, 476, 36
-0.998468, 217, 71, 248, 86
-0.998468, 453, 201, 484, 216
-0.998468, 401, 243, 464, 258
-0.998471, 177, 177, 208, 192
-0.998471, 137, 179, 200, 194
-0.998474, 357, 279, 388, 294
-0.998474, 109, 149, 140, 164
-0.998474, 117, 113, 148, 128
-0.998474, 105, 121, 136, 136
-0.998474, 413, 249, 444, 264
-0.998475, 421, 183, 452, 198
-0.998475, 345, 285, 408, 300
-0.998475, 369, 255, 432, 270
-0.998476, 385, 165, 416, 180
-0.998476, 149, 1, 180, 16
-0.998477, 237, 79, 268, 94
-0.998477, 445, 49, 476, 64
-0.998477, 221, 11, 252, 26
-0.998478, 65, 65, 96, 80
-0.998478, 89, 149, 152, 164
-0.99848, 385, 283, 416, 298
-0.99848, 409, 1, 472, 16
-0.998481, 233, 179, 264, 194
-0.998481, 217, 5, 248, 20
-0.998482, 93, 127, 124, 142
-0.998483, 425, 191, 456, 206
-0.998483, 213, 119, 244, 134
-0.998486, 345, 249, 408, 264
-0.998487, 73, 85, 104, 100
-0.998487, 313, 55, 344, 70
-0.998487, 361, 85, 424, 100
-0.998487, 285, 177, 316, 192
-0.998487, 369, 59, 432, 74
-0.998488, 421, 9, 452, 24
-0.998488, 409, 15, 472, 30
-0.998489, 425, 279, 456, 294
-0.998489, 421, 1, 452, 16
-0.99849, 345, 269, 376, 284
-0.998491, 425, 45, 488, 60
-0.998491, 345, 279, 408, 294
-0.998491, 449, 209, 480, 224
-0.998491, 161, 183, 192, 198
-0.998491, 97, 167, 160, 182
-0.998492, 301, 65, 332, 80
-0.998492, 409, 265, 440, 280
-0.998492, 433, 227, 464, 242
-0.998492, 365, 265, 396, 280
-0.998492, 221, 17, 252, 32
-0.998493, 353, 245, 384, 260
-0.998493, 353, 257, 384, 272
-0.998493, 301, 49, 332, 64
-0.998494, 329, 71, 392, 86
-0.998494, 453, 239, 484, 254
-0.998495, 165, 195, 196, 210
-0.998495, 409, 259, 440, 274
-0.998495, 121, 5, 184, 20
-0.998495, 153, 1, 216, 16
-0.998496, 313, 261, 376, 276
-0.998497, 417, 189, 480, 204
-0.9985, 361, 203, 424, 218
-0.9985, 309, 273, 340, 288
-0.998502, 401, 279, 464, 294
-0.998503, 385, 305, 416, 320
-0.998503, 25, 1, 56, 256
-0.998504, 461, 17, 492, 32
-0.998505, 297, 277, 360, 292
-0.998506, 361, 241, 424, 256
-0.998506, 425, 241, 488, 256
-0.998507, 409, 53, 472, 68
-0.998507, 289, 71, 352, 86
-0.998508, 89, 145, 120, 160
-0.998509, 49, 155, 112, 170
-0.998509, 377, 293, 440, 308
-0.99851, 365, 241, 396, 256
-0.99851, 433, 45, 464, 60
-0.998512, 241, 181, 304, 196
-0.998512, 321, 271, 352, 286
-0.998512, 437, 7, 468, 22
-0.998513, 449, 183, 480, 198
-0.998513, 73, 161, 104, 176
-0.998514, 85, 167, 116, 182
-0.998514, 369, 299, 432, 314
-0.998514, 289, 177, 352, 192
-0.998515, 361, 71, 424, 86
-0.998515, 377, 275, 408, 290
-0.998515, 121, 173, 184, 188
-0.998516, 133, 173, 164, 188
-0.998517, 337, 287, 368, 302
-0.998517, 145, 273, 208, 288
-0.998518, 369, 261, 432, 276
-0.998518, 65, 29, 128, 44
-0.998519, 97, 117, 160, 132
-0.998519, 397, 253, 428, 268
-0.998519, 329, 85, 392, 100
-0.99852, 453, 43, 484, 58
-0.998521, 57, 143, 120, 158
-0.998521, 409, 195, 440, 210
-0.998522, 417, 223, 480, 238
-0.998523, 369, 65, 432, 80
-0.998525, 169, 173, 232, 188
-0.998525, 149, 177, 180, 192
-0.998526, 85, 157, 116, 172
-0.998526, 433, 253, 464, 268
-0.998526, 409, 203, 472, 218
-0.998528, 113, 167, 144, 182
-0.998529, 289, 285, 352, 300
-0.998529, 65, 163, 128, 178
-0.99853, 417, 253, 480, 268
-0.998533, 305, 53, 368, 68
-0.998534, 369, 269, 432, 284
-0.998534, 325, 291, 356, 306
-0.998535, 433, 3, 496, 18
-0.998535, 409, 259, 472, 274
-0.998537, 201, 83, 264, 98
-0.998538, 445, 215, 476, 230
-0.998539, 169, 189, 232, 204
-0.998539, 49, 155, 80, 170
-0.99854, 385, 287, 448, 302
-0.99854, 381, 259, 412, 274
-0.998541, 365, 165, 396, 180
-0.998541, 345, 169, 408, 184
-0.998542, 61, 155, 92, 170
-0.998543, 193, 179, 256, 194
-0.998544, 329, 61, 392, 76
-0.998544, 161, 153, 224, 168
-0.998544, 433, 51, 496, 66
-0.998544, 129, 3, 160, 18
-0.998545, 265, 179, 328, 194
-0.998545, 313, 173, 376, 188
-0.998545, 401, 7, 464, 22
-0.998546, 385, 295, 416, 310
-0.998547, 193, 63, 256, 78
-0.998548, 81, 21, 144, 36
-0.998548, 209, 89, 272, 104
-0.998549, 265, 55, 328, 70
-0.99855, 417, 243, 448, 258
-0.99855, 73, 137, 136, 152
-0.998552, 217, 69, 280, 84
-0.998553, 265, 63, 328, 78
-0.998554, 429, 241, 460, 256
-0.998555, 101, 165, 132, 180
-0.998555, 449, 221, 480, 236
-0.998557, 301, 59, 332, 74
-0.998561, 41, 65, 104, 80
-0.998562, 81, 137, 112, 152
-0.998563, 281, 269, 344, 284
-0.998563, 73, 153, 104, 168
-0.998563, 433, 13, 496, 28
-0.998564, 369, 305, 432, 320
-0.998565, 401, 47, 464, 62
-0.998565, 41, 49, 104, 64
-0.998566, 397, 267, 428, 282
-0.998566, 209, 15, 272, 30
-0.998567, 297, 291, 360, 306
-0.998568, 105, 155, 168, 170
-0.998568, 409, 59, 472, 74
-0.998569, 361, 197, 424, 212
-0.998569, 193, 121, 256, 136
-0.998569, 409, 195, 472, 210
-0.998569, 249, 69, 312, 84
-0.998572, 73, 157, 136, 172
-0.998573, 341, 259, 372, 274
-0.998573, 65, 39, 128, 54
-0.998573, 393, 237, 456, 252
-0.998573, 177, 13, 240, 28
-0.998573, 145, 197, 208, 212
-0.998574, 393, 21, 456, 36
-0.998575, 193, 57, 256, 72
-0.998575, 249, 75, 312, 90
-0.998575, 369, 281, 400, 296
-0.998575, 401, 265, 464, 280
-0.998575, 25, 155, 88, 170
-0.998575, 209, 75, 272, 90
-0.998576, 97, 123, 160, 138
-0.998577, 169, 179, 232, 194
-0.998577, 289, 231, 352, 246
-0.998578, 393, 77, 456, 92
-0.998578, 169, 7, 232, 22
-0.998579, 393, 69, 456, 84
-0.998579, 437, 235, 468, 250
-0.99858, 329, 291, 392, 306
-0.99858, 249, 85, 312, 100
-0.99858, 425, 217, 488, 232
-0.998581, 437, 221, 468, 236
-0.998581, 425, 23, 488, 38
-0.998582, 273, 275, 336, 290
-0.998582, 89, 143, 152, 158
-0.998582, 417, 39, 480, 54
-0.998582, 177, 127, 240, 142
-0.998583, 345, 271, 408, 286
-0.998584, 437, 13, 468, 28
-0.998586, 97, 173, 160, 188
-0.998587, 289, 263, 352, 278
-0.998588, 25, 35, 88, 50
-0.998588, 305, 141, 368, 156
-0.998589, 169, 29, 232, 44
-0.998589, 297, 107, 360, 122
-0.998589, 333, 267, 364, 282
-0.99859, 81, 85, 144, 100
-0.99859, 445, 229, 476, 244
-0.99859, 361, 91, 424, 106
-0.998597, 389, 273, 420, 288
-0.998601, 389, 289, 420, 304
-0.998608, 455, 193, 470, 320
-0.998616, 401, 281, 432, 296
-0.998629, 445, 247, 476, 262
-0.998633, 273, 129, 304, 375
-0.998636, 389, 201, 420, 216
-0.998714, 307, 33, 322, 160
-0.998722, 449, 177, 464, 304
-0.998761, 319, 225, 334, 352
-0.998767, 313, 209, 328, 336
-0.998772, 441, 193, 456, 320
-0.998773, 407, 209, 422, 336
-0.998779, 229, 1, 244, 128
-0.998784, 333, 49, 348, 176
-0.998798, 229, 49, 244, 176
-0.998824, 225, 97, 256, 352
-0.998828, 461, 193, 476, 320
-0.998834, 325, 225, 340, 352
-0.998838, 91, 1, 106, 128
-0.99885, 333, 209, 348, 336
-0.998855, 327, 1, 342, 128
-0.99886, 149, 1, 164, 128
-0.998872, 241, 97, 272, 352
-0.998872, 303, 209, 318, 336
-0.99888, 421, 209, 436, 336
-0.998884, 317, 33, 332, 160
-0.998888, 397, 241, 412, 368
-0.998901, 171, 113, 186, 240
-0.998906, 219, 1, 234, 128
-0.99891, 13, 1, 28, 128
-0.998912, 119, 1, 134, 128
-0.998922, 5, 1, 20, 128
-0.998924, 209, 81, 224, 208
-0.998939, 403, 1, 418, 128
-0.998948, 133, 65, 148, 192
-0.99896, 339, 209, 354, 336
-0.99896, 237, 17, 252, 144
-0.998961, 105, 1, 120, 128
-0.998973, 323, 49, 338, 176
-0.998974, 53, 145, 68, 272
-0.998981, 123, 81, 138, 208
-0.998984, 285, 193, 300, 320
-0.998986, 297, 209, 312, 336
-0.998988, 151, 81, 166, 208
-0.998996, 427, 209, 442, 336
-0.998996, 83, 1, 98, 128
-0.999006, 75, 17, 90, 144
-0.999011, 399, 161, 414, 288
-0.999012, 393, 49, 408, 176
-0.999016, 389, 193, 404, 320
-0.99902, 177, 161, 192, 288
-0.999021, 179, 241, 194, 368
-0.999024, 143, 1, 158, 128
-0.999026, 157, 65, 172, 192
-0.999029, 181, 97, 196, 224
-0.999035, 251, 65, 266, 192
-0.999035, 259, 65, 274, 192
-0.999037, 135, 1, 150, 128
-0.999038, 139, 81, 154, 208
-0.999038, 163, 113, 178, 240
-0.99904, 377, 225, 392, 352
-0.999045, 221, 49, 236, 176
-0.999046, 457, 145, 472, 272
-0.999048, 203, 113, 218, 240
-0.999049, 321, 177, 336, 304
-0.999053, 415, 209, 430, 336
-0.999054, 145, 65, 160, 192
-0.999054, 449, 225, 464, 352
-0.999056, 53, 97, 84, 352
-0.999057, 111, 33, 126, 160
-0.999061, 421, 1, 436, 128
-0.999066, 235, 65, 250, 192
-0.999067, 445, 1, 460, 128
-0.999068, 429, 1, 444, 128
-0.999072, 345, 209, 360, 336
-0.999075, 327, 161, 342, 288
-0.999081, 1, 265, 256, 328
-0.999083, 243, 17, 258, 144
-0.999086, 449, 113, 464, 240
-0.999088, 355, 81, 370, 208
-0.999093, 209, 33, 224, 160
-0.999094, 333, 1, 348, 128
-0.999096, 83, 49, 98, 176
-0.999099, 451, 33, 466, 160
-0.999105, 203, 65, 218, 192
-0.999108, 295, 33, 310, 160
-0.999109, 333, 161, 348, 288
-0.999111, 103, 97, 118, 224
-0.999111, 291, 209, 306, 336
-0.999114, 99, 1, 114, 128
-0.999114, 301, 49, 316, 176
-0.999117, 157, 129, 172, 256
-0.999121, 375, 33, 390, 160
-0.999127, 409, 81, 424, 208
-0.999131, 215, 97, 230, 224
-0.999133, 197, 97, 212, 224
-0.999144, 289, 1, 304, 128
-0.999147, 115, 81, 130, 208
-0.999147, 125, 129, 140, 256
-0.999149, 363, 33, 378, 160
-0.99915, 307, 81, 322, 208
-0.99915, 391, 241, 406, 368
-0.999153, 65, 33, 80, 160
-0.999154, 391, 113, 406, 240
-0.999156, 19, 17, 34, 144
-0.999157, 417, 161, 432, 288
-0.999163, 279, 193, 294, 320
-0.999163, 41, 129, 72, 375
-0.999168, 89, 49, 104, 176
-0.99917, 265, 33, 280, 160
-0.999172, 421, 97, 436, 224
-0.999174, 127, 33, 142, 160
-0.999178, 399, 49, 414, 176
-0.999184, 333, 113, 348, 240
-0.999185, 383, 1, 398, 128
-0.999196, 187, 97, 202, 224
-0.999198, 383, 49, 398, 176
-0.999198, 325, 113, 340, 240
-0.999198, 25, 17, 40, 144
-0.999201, 317, 81, 332, 208
-0.999201, 57, 17, 72, 144
-0.999203, 431, 161, 446, 288
-0.999204, 467, 177, 482, 304
-0.999205, 209, 129, 224, 256
-0.999208, 339, 81, 354, 208
-0.999209, 371, 225, 386, 352
-0.999212, 257, 1, 272, 128
-0.999213, 285, 65, 300, 192
-0.999214, 383, 225, 398, 352
-0.999214, 151, 129, 166, 256
-0.999215, 109, 81, 124, 208
-0.999221, 369, 65, 384, 192
-0.999223, 441, 49, 456, 176
-0.99923, 415, 1, 430, 128
-0.999231, 463, 1, 478, 128
-0.999234, 241, 81, 256, 208
-0.999235, 163, 33, 178, 160
-0.999241, 173, 241, 188, 368
-0.999242, 381, 145, 396, 272
-0.999244, 405, 129, 420, 256
-0.999439, 1, 241, 256, 304
-0.999441, 113, 217, 240, 280
-0.999471, 253, 129, 284, 375
-0.999639, 1, 289, 128, 352
-0.999643, 423, 185, 438, 200
-0.999643, 389, 287, 404, 302
-0.999643, 467, 45, 482, 60
-0.999644, 361, 283, 376, 298
-0.999644, 393, 257, 408, 272
-0.999644, 335, 289, 350, 304
-0.999644, 179, 275, 194, 290
-0.999644, 101, 147, 116, 162
-0.999644, 327, 291, 342, 306
-0.999645, 377, 157, 392, 172
-0.999645, 439, 239, 454, 254
-0.999646, 313, 275, 328, 290
-0.999646, 61, 39, 76, 54
-0.999646, 367, 243, 382, 258
-0.999646, 395, 277, 410, 292
-0.999646, 457, 17, 472, 32
-0.999647, 91, 159, 106, 174
-0.999648, 259, 81, 274, 96
-0.999648, 151, 175, 166, 190
-0.999649, 175, 179, 190, 194
-0.999649, 75, 65, 90, 80
-0.999649, 351, 285, 366, 300
-0.999649, 259, 51, 274, 66
-0.999651, 393, 197, 408, 212
-0.999651, 81, 141, 96, 156
-0.999651, 365, 81, 380, 96
-0.999652, 463, 221, 478, 236
-0.999653, 241, 81, 256, 96
-0.999654, 435, 1, 450, 16
-0.999654, 231, 177, 246, 192
-0.999655, 409, 241, 424, 256
-0.999655, 125, 7, 140, 22
-0.999656, 223, 7, 238, 22
-0.999657, 229, 61, 244, 76
-0.999657, 389, 293, 404, 308
-0.999658, 341, 287, 356, 302
-0.999658, 101, 125, 116, 140
-0.999658, 189, 279, 204, 294
-0.999658, 387, 161, 402, 176
-0.999658, 429, 191, 444, 206
-0.999659, 85, 157, 100, 172
-0.99966, 193, 1, 208, 16
-0.99966, 267, 67, 282, 82
-0.99966, 411, 271, 426, 286
-0.999662, 387, 273, 402, 288
-0.999662, 321, 273, 336, 288
-0.999663, 301, 177, 316, 192
-0.999664, 419, 237, 434, 252
-0.999664, 399, 245, 414, 260
-0.999665, 327, 65, 342, 80
-0.999666, 435, 231, 450, 246
-0.999666, 437, 45, 452, 60
-0.999667, 415, 197, 430, 212
-0.999668, 307, 61, 322, 76
-0.999669, 157, 1, 172, 16
-0.999669, 383, 59, 398, 74
-0.99967, 441, 3, 456, 18
-0.99967, 205, 123, 220, 138
-0.999671, 317, 51, 332, 66
-0.999672, 443, 223, 458, 238
-0.999672, 117, 167, 132, 182
-0.999673, 205, 5, 220, 20
-0.999673, 455, 51, 470, 66
-0.999674, 101, 165, 116, 180
-0.999675, 91, 135, 106, 150
-0.999675, 387, 249, 402, 264
-0.999676, 179, 269, 194, 284
-0.999677, 217, 171, 232, 186
-0.999679, 257, 69, 272, 84
-0.999681, 447, 235, 462, 250
-0.999682, 417, 283, 432, 298
-0.999683, 409, 279, 424, 294
-0.999683, 421, 277, 436, 292
-0.999683, 329, 271, 344, 286
-0.999684, 63, 151, 78, 166
-0.999685, 393, 247, 408, 262
-0.999686, 185, 271, 200, 286
-0.999688, 429, 233, 444, 248
-0.999689, 403, 273, 418, 288
-0.99969, 211, 1, 226, 16
-0.99969, 451, 225, 466, 240
-0.999693, 107, 163, 122, 178
-0.999697, 251, 73, 266, 88
-0.999697, 317, 57, 332, 72
-0.999698, 409, 197, 424, 212
-0.999698, 401, 281, 416, 296
-0.9997, 393, 271, 408, 286
-0.999701, 377, 163, 392, 178
-0.999701, 109, 115, 124, 130
-0.999703, 435, 253, 450, 268
-0.999703, 227, 15, 242, 30
-0.999704, 307, 49, 322, 64
-0.999704, 463, 231, 478, 246
-0.999704, 347, 265, 362, 280
-0.999707, 407, 265, 422, 280
-0.999708, 233, 11, 248, 26
-0.999708, 229, 67, 244, 82
-0.999709, 79, 159, 94, 174
-0.99971, 447, 47, 462, 62
-0.99971, 415, 261, 430, 276
-0.999711, 401, 267, 416, 282
-0.999714, 455, 231, 470, 246
-0.999714, 335, 269, 350, 284
-0.999717, 229, 5, 244, 20
-0.999717, 343, 259, 358, 274
-0.999718, 465, 239, 480, 254
-0.999718, 453, 219, 468, 234
-0.999721, 457, 225, 472, 240
-0.999723, 455, 241, 470, 256
-0.999723, 97, 159, 112, 174
-0.999723, 421, 259, 436, 274
-0.999725, 307, 55, 322, 70
-0.999725, 441, 9, 456, 24
-0.999727, 401, 199, 416, 214
-0.999729, 73, 157, 88, 172
-0.999729, 385, 301, 400, 316
-0.99973, 395, 285, 410, 300
-0.99973, 257, 75, 272, 90
-0.999731, 451, 13, 466, 28
-0.999733, 443, 217, 458, 232
-0.999734, 373, 241, 388, 256
-0.999735, 29, 97, 60, 352
-0.999736, 429, 255, 444, 270
-0.999738, 441, 249, 456, 264
-0.999742, 95, 127, 110, 142
-0.999745, 415, 277, 430, 292
-0.999747, 449, 245, 464, 260
-0.999748, 253, 85, 268, 100
-0.999749, 341, 267, 356, 282
-0.999753, 69, 151, 84, 166
-0.999773, 103, 119, 118, 134
-1.00048, 9, 241, 72, 368
-1.00049, 1, 97, 64, 352
-1.00058, 17, 97, 48, 352
-1.0009, 5, 97, 36, 352
-1.00285, 33, 241, 96, 368
-1.00286, 225, 241, 288, 368
