1537
-0.634978, 1, 1, 170, 500
-0.675704, 1, 193, 170, 448
-0.837052, 1, 97, 170, 352
-0.879088, 33, 193, 160, 448
-0.90161, 49, 1, 170, 500
-0.907453, 1, 1, 128, 500
-0.921414, 1, 177, 170, 304
-0.922013, 1, 97, 128, 352
-0.924703, 49, 97, 170, 352
-0.940007, 33, 193, 160, 320
-0.944139, 33, 193, 96, 320
-0.944727, 73, 177, 136, 304
-0.95333, 81, 193, 144, 256
-0.960038, 41, 193, 104, 256
-0.96229, 1, 353, 170, 480
-0.964189, 105, 209, 168, 336
-0.964942, 49, 1, 170, 256
-0.965436, 1, 1, 128, 256
-0.965612, 1, 225, 64, 352
-0.966618, 33, 145, 160, 272
-0.967287, 97, 161, 160, 288
-0.967522, 1, 273, 170, 400
-0.968036, 1, 225, 170, 352
-0.968649, 105, 217, 168, 280
-0.968904, 1, 1, 170, 256
-0.969316, 57, 225, 120, 352
-0.9695, 49, 305, 170, 432
-0.970432, 65, 169, 128, 232
-0.972615, 1, 241, 64, 304
-0.973481, 81, 161, 144, 416
-0.973503, 33, 193, 160, 256
-0.973616, 1, 177, 64, 304
-0.973626, 1, 217, 64, 280
-0.973827, 41, 217, 104, 280
-0.973971, 105, 113, 168, 240
-0.974526, 49, 145, 112, 272
-0.974679, 41, 193, 104, 448
-0.975567, 1, 241, 128, 368
-0.976113, 105, 161, 168, 224
-0.977715, 49, 353, 170, 480
-0.977922, 17, 225, 144, 288
-0.978401, 1, 129, 170, 256
-0.978487, 93, 177, 124, 240
-0.978878, 89, 257, 152, 384
-0.9789, 81, 313, 144, 376
-0.97911, 97, 177, 128, 304
-0.97934, 17, 353, 80, 480
-0.979403, 45, 193, 76, 320
-0.979786, 1, 225, 64, 480
-0.98006, 57, 345, 120, 408
-0.980095, 105, 193, 168, 448
-0.980468, 49, 193, 80, 256
-0.98048, 65, 225, 128, 288
-0.980712, 65, 305, 128, 432
-0.982097, 137, 209, 168, 336
-0.982186, 105, 177, 136, 240
-0.982325, 1, 353, 128, 480
-0.982892, 33, 169, 160, 232
-0.98315, 125, 217, 156, 280
-0.983166, 89, 265, 152, 328
-0.983375, 117, 209, 148, 336
-0.98359, 41, 241, 104, 304
-0.983642, 85, 193, 116, 320
-0.983662, 13, 241, 44, 304
-0.983739, 57, 193, 88, 320
-0.984403, 69, 209, 100, 336
-0.984703, 89, 305, 152, 432
-0.984777, 105, 33, 168, 288
-0.98479, 33, 241, 96, 368
-0.985115, 25, 353, 88, 416
-0.985124, 137, 217, 168, 280
-0.985138, 41, 169, 104, 232
-0.985232, 1, 17, 170, 144
-0.985239, 1, 225, 32, 352
-0.985333, 105, 33, 168, 160
-0.985782, 49, 257, 170, 384
-0.985799, 25, 241, 56, 368
-0.985862, 105, 193, 168, 256
-0.986031, 41, 289, 104, 416
-0.986113, 85, 201, 116, 264
-0.986229, 73, 129, 136, 256
-0.986518, 57, 281, 120, 344
-0.986796, 49, 401, 170, 464
-0.986812, 49, 97, 112, 352
-0.986863, 25, 249, 56, 312
-0.987022, 109, 201, 140, 264
-0.987086, 17, 193, 80, 256
-0.987523, 73, 257, 136, 500
-0.987563, 105, 353, 168, 480
-0.987638, 1, 241, 32, 304
-0.987667, 1, 97, 64, 352
-0.987766, 25, 145, 88, 272
-0.98781, 97, 241, 160, 304
-0.987817, 105, 417, 168, 480
-0.987941, 1, 289, 128, 416
-0.988124, 105, 1, 168, 500
-0.988211, 13, 225, 44, 352
-0.988288, 29, 217, 60, 280
-0.988408, 33, 193, 64, 320
-0.988498, 105, 137, 168, 200
-0.988521, 57, 313, 120, 376
-0.988649, 73, 225, 104, 288
-0.988671, 73, 193, 104, 256
-0.98876, 61, 193, 92, 256
-0.988783, 73, 145, 104, 272
-0.988866, 49, 353, 170, 416
-0.989089, 137, 161, 168, 288
-0.989134, 17, 417, 80, 480
-0.989451, 69, 337, 100, 400
-0.989484, 121, 401, 152, 464
-0.98955, 133, 353, 164, 416
-0.989574, 49, 353, 112, 480
-0.989697, 45, 225, 76, 288
-0.989706, 21, 177, 52, 304
-0.989785, 1, 249, 128, 312
-0.990058, 81, 201, 144, 232
-0.990061, 41, 201, 104, 232
-0.990127, 73, 353, 136, 480
-0.990147, 1, 201, 170, 264
-0.990148, 109, 161, 140, 288
-0.990153, 105, 33, 168, 96
-0.990178, 81, 337, 144, 400
-0.990212, 33, 1, 96, 500
-0.990275, 81, 213, 144, 244
-0.990531, 105, 393, 168, 456
-0.990564, 57, 145, 120, 208
-0.990666, 73, 189, 136, 220
-0.990688, 49, 377, 170, 440
-0.99075, 45, 353, 76, 480
-0.99076, 41, 217, 104, 248
-0.990763, 49, 321, 170, 384
-0.990841, 93, 313, 124, 376
-0.990882, 73, 1, 136, 500
-0.991046, 53, 145, 84, 272
-0.991047, 1, 249, 64, 280
-0.99106, 105, 289, 168, 352
-0.99113, 105, 225, 168, 256
-0.991155, 137, 185, 168, 248
-0.991156, 1, 169, 64, 232
-0.991243, 121, 161, 152, 288
-0.991249, 41, 229, 104, 260
-0.991325, 105, 57, 168, 120
-0.991333, 1, 233, 64, 264
-0.991353, 25, 245, 88, 276
-0.991374, 1, 289, 128, 352
-0.991427, 105, 345, 168, 408
-0.99153, 17, 265, 80, 328
-0.991544, 5, 217, 36, 280
-0.991555, 49, 265, 170, 328
-0.991598, 81, 225, 144, 256
-0.991798, 69, 169, 100, 232
-0.991845, 17, 393, 80, 456
-0.991855, 105, 177, 168, 208
-0.991925, 105, 89, 168, 152
-0.992019, 1, 353, 128, 416
-0.992094, 25, 97, 88, 352
-0.992128, 1, 1, 64, 500
-0.992151, 105, 357, 168, 388
-0.992181, 49, 189, 112, 220
-0.992189, 65, 353, 128, 384
-0.992267, 97, 189, 160, 220
-0.992285, 1, 261, 64, 292
-0.992321, 1, 221, 64, 252
-0.992364, 65, 177, 128, 208
-0.992423, 105, 165, 168, 196
-0.992463, 137, 1, 168, 128
-0.992476, 133, 385, 164, 448
-0.992488, 65, 313, 128, 344
-0.992552, 97, 189, 128, 220
-0.992653, 49, 201, 80, 232
-0.99268, 25, 257, 88, 288
-0.992696, 105, 209, 168, 240
-0.992698, 73, 237, 136, 268
-0.992732, 121, 353, 152, 416
-0.992732, 49, 425, 170, 488
-0.992739, 125, 193, 156, 256
-0.992768, 97, 269, 160, 300
-0.992773, 25, 361, 88, 392
-0.992808, 13, 249, 44, 280
-0.99282, 9, 177, 40, 304
-0.992844, 105, 373, 168, 404
-0.992852, 25, 329, 88, 392
-0.992901, 1, 205, 64, 236
-0.992907, 125, 225, 156, 256
-0.992958, 1, 65, 170, 192
-0.99299, 85, 201, 116, 232
-0.993001, 97, 245, 160, 276
-0.993012, 105, 309, 168, 340
-0.993056, 137, 225, 168, 256
-0.993074, 109, 213, 140, 244
-0.993083, 73, 233, 104, 264
-0.993086, 29, 253, 60, 284
-0.993098, 73, 205, 104, 236
-0.993098, 97, 201, 128, 232
-0.993111, 33, 349, 96, 380
-0.993114, 45, 353, 76, 416
-0.993137, 57, 297, 120, 328
-0.993141, 1, 245, 32, 276
-0.993145, 97, 257, 160, 288
-0.993165, 29, 237, 60, 268
-0.993182, 117, 357, 148, 388
-0.993192, 73, 325, 136, 356
-0.993197, 73, 349, 104, 380
-0.993204, 73, 217, 104, 248
-0.993255, 85, 225, 116, 256
-0.993257, 65, 365, 128, 396
-0.993266, 137, 209, 168, 240
-0.993266, 105, 61, 168, 92
-0.99327, 73, 341, 136, 372
-0.993272, 105, 177, 136, 208
-0.993292, 105, 425, 168, 456
-0.993299, 1, 369, 64, 400
-0.993305, 25, 373, 88, 404
-0.993306, 45, 245, 76, 276
-0.993318, 105, 77, 168, 108
-0.993318, 129, 361, 160, 392
-0.993325, 61, 349, 92, 380
-0.993333, 77, 297, 108, 360
-0.993334, 121, 413, 152, 444
-0.993335, 73, 249, 136, 280
-0.993337, 137, 81, 168, 144
-0.993343, 69, 189, 100, 220
-0.993361, 57, 225, 88, 256
-0.993363, 57, 165, 120, 196
-0.993363, 97, 313, 128, 344
-0.993367, 117, 353, 148, 480
-0.99337, 105, 93, 168, 124
-0.99338, 1, 189, 64, 220
-0.993381, 105, 45, 168, 76
-0.993385, 45, 233, 76, 264
-0.99339, 97, 297, 160, 328
-0.993392, 37, 249, 68, 312
-0.993397, 93, 177, 124, 208
-0.993397, 133, 373, 164, 404
-0.993425, 9, 233, 40, 264
-0.993443, 105, 105, 168, 136
-0.993445, 29, 265, 60, 296
-0.993452, 113, 225, 144, 256
-0.993459, 61, 201, 92, 232
-0.993465, 121, 213, 152, 244
-0.993472, 61, 361, 92, 392
-0.993481, 45, 221, 76, 252
-0.993487, 45, 369, 76, 400
-0.993489, 73, 361, 104, 392
-0.993494, 121, 401, 152, 432
-0.993503, 117, 193, 148, 224
-0.993503, 85, 213, 116, 244
-0.993507, 49, 273, 112, 304
-0.99352, 133, 421, 164, 452
-0.99352, 17, 385, 80, 416
-0.993522, 89, 249, 120, 280
-0.993535, 137, 57, 168, 88
-0.99355, 105, 117, 168, 148
-0.993554, 125, 265, 156, 296
-0.993557, 97, 409, 160, 440
-0.993557, 137, 77, 168, 108
-0.99356, 65, 305, 96, 432
-0.993562, 57, 213, 88, 244
-0.993566, 117, 369, 148, 400
-0.993569, 137, 277, 168, 308
-0.993569, 137, 397, 168, 428
-0.993583, 29, 225, 60, 256
-0.993585, 97, 237, 128, 268
-0.993585, 85, 189, 116, 220
-0.993594, 137, 93, 168, 124
-0.993598, 105, 153, 168, 184
-0.9936, 37, 205, 68, 236
-0.993601, 49, 189, 80, 220
-0.993605, 129, 349, 160, 380
-0.993612, 117, 181, 148, 212
-0.993613, 49, 241, 112, 272
-0.993615, 73, 245, 104, 276
-0.99362, 137, 409, 168, 440
-0.99362, 85, 237, 116, 268
-0.993625, 85, 349, 116, 380
-0.993629, 1, 129, 64, 256
-0.993633, 105, 361, 136, 392
-0.993638, 17, 437, 80, 468
-0.993641, 105, 129, 168, 160
-0.993643, 57, 385, 120, 416
-0.993643, 33, 201, 160, 232
-0.993659, 137, 105, 168, 136
-0.993663, 93, 325, 124, 356
-0.993675, 49, 353, 80, 384
-0.993686, 121, 429, 152, 460
-0.993688, 137, 265, 168, 296
-0.993693, 77, 313, 108, 344
-0.993696, 109, 237, 140, 268
-0.993697, 97, 345, 128, 376
-0.993697, 49, 381, 80, 412
-0.993702, 109, 321, 140, 352
-0.993704, 125, 253, 156, 284
-0.993705, 137, 237, 168, 268
-0.993705, 45, 257, 76, 288
-0.993707, 101, 269, 132, 300
-0.993708, 137, 45, 168, 76
-0.993712, 73, 337, 104, 368
-0.993713, 137, 121, 168, 152
-0.993717, 25, 369, 56, 400
-0.993719, 53, 269, 84, 300
-0.993719, 61, 237, 92, 268
-0.993721, 25, 209, 56, 240
-0.993722, 17, 453, 80, 484
-0.993728, 137, 385, 168, 416
-0.993731, 29, 189, 60, 220
-0.993735, 137, 141, 168, 172
-0.993747, 77, 297, 108, 328
-0.993751, 125, 237, 156, 268
-0.993751, 65, 257, 96, 288
-0.993751, 69, 373, 100, 404
-0.993752, 109, 249, 140, 280
-0.993753, 137, 161, 168, 192
-0.993754, 49, 257, 112, 288
-0.993754, 81, 285, 144, 316
-0.993757, 45, 425, 76, 456
-0.993758, 105, 141, 168, 172
-0.993759, 133, 433, 164, 464
-0.99376, 137, 193, 168, 224
-0.99376, 105, 321, 168, 352
-0.993771, 61, 285, 92, 316
-0.993771, 65, 437, 96, 468
-0.993774, 65, 413, 96, 444
-0.993777, 117, 345, 148, 376
-0.99378, 45, 397, 76, 428
-0.993784, 113, 165, 144, 196
-0.99379, 117, 385, 148, 416
-0.993791, 125, 277, 156, 308
-0.993793, 41, 269, 72, 300
-0.993794, 77, 257, 108, 288
-0.993804, 13, 369, 44, 400
-0.993804, 105, 345, 168, 376
-0.993804, 57, 441, 120, 472
-0.993805, 137, 249, 168, 280
-0.993807, 49, 285, 80, 316
-0.993808, 57, 417, 120, 480
-0.993809, 137, 181, 168, 212
-0.993809, 97, 397, 160, 428
-0.993814, 25, 189, 88, 220
-0.993821, 49, 409, 80, 440
-0.993822, 57, 285, 120, 316
-0.993825, 17, 261, 48, 292
-0.993825, 61, 397, 92, 428
-0.993828, 89, 285, 120, 316
-0.993834, 117, 309, 148, 340
-0.993835, 37, 357, 68, 388
-0.993842, 25, 269, 88, 300
-0.993844, 65, 269, 96, 300
-0.993849, 1, 357, 64, 388
-0.99385, 81, 177, 112, 208
-0.993854, 89, 273, 120, 304
-0.993858, 21, 357, 52, 388
-0.993859, 25, 425, 88, 456
-0.993861, 65, 385, 96, 416
-0.993864, 45, 445, 76, 476
-0.993865, 97, 301, 128, 332
-0.99388, 73, 261, 136, 292
-0.993888, 105, 441, 168, 472
-0.993889, 61, 301, 92, 332
-0.99389, 5, 61, 36, 92
-0.993891, 109, 409, 140, 440
-0.993893, 41, 313, 104, 344
-0.993894, 97, 213, 128, 244
-0.993894, 89, 261, 120, 292
-0.993898, 77, 325, 108, 356
-0.993899, 97, 225, 128, 256
-0.993914, 73, 465, 136, 496
-0.993916, 17, 217, 48, 280
-0.993919, 25, 401, 88, 432
-0.99395, 49, 453, 112, 484
-0.993956, 57, 413, 120, 444
-0.99396, 97, 385, 160, 416
-0.993968, 25, 157, 88, 188
-0.993991, 105, 9, 168, 40
-0.994008, 49, 465, 112, 496
-0.994012, 49, 325, 112, 356
-0.994023, 137, 49, 168, 176
-0.994031, 57, 397, 120, 428
-0.994062, 17, 413, 80, 444
-0.994075, 57, 429, 120, 460
-0.994088, 97, 21, 160, 52
-0.9941, 49, 337, 112, 368
-0.994132, 33, 285, 96, 316
-0.994155, 1, 97, 128, 224
-0.994163, 105, 281, 168, 312
-0.994169, 45, 401, 76, 464
-0.994179, 65, 1, 128, 32
-0.994181, 133, 409, 164, 472
-0.994218, 81, 421, 144, 452
-0.994224, 1, 33, 64, 64
-0.994231, 81, 165, 144, 196
-0.994244, 17, 57, 80, 88
-0.994247, 1, 45, 64, 76
-0.994254, 129, 337, 160, 464
-0.994263, 1, 81, 64, 112
-0.994273, 89, 453, 152, 484
-0.994283, 9, 113, 72, 144
-0.994309, 33, 301, 96, 332
-0.994312, 1, 125, 64, 156
-0.994329, 57, 153, 120, 184
-0.994343, 73, 273, 136, 304
-0.994357, 33, 1, 96, 32
-0.994366, 25, 173, 88, 204
-0.994367, 1, 273, 64, 304
-0.99437, 17, 69, 80, 100
-0.994377, 105, 469, 168, 500
-0.994393, 17, 101, 80, 132
-0.994402, 1, 177, 170, 240
-0.994428, 25, 337, 88, 368
-0.994429, 1, 21, 64, 52
-0.994446, 81, 257, 112, 384
-0.994465, 137, 41, 168, 104
-0.994485, 105, 33, 168, 64
-0.994489, 25, 29, 88, 60
-0.99449, 65, 361, 96, 424
-0.994494, 1, 425, 64, 456
-0.994521, 1, 145, 128, 208
-0.994536, 73, 13, 136, 44
-0.994544, 1, 417, 128, 480
-0.994552, 1, 9, 64, 40
-0.994557, 81, 441, 144, 472
-0.99457, 9, 285, 72, 316
-0.994575, 25, 17, 88, 48
-0.994598, 17, 469, 80, 500
-0.994617, 25, 41, 88, 72
-0.994617, 17, 145, 80, 176
-0.994622, 97, 273, 128, 400
-0.994627, 1, 169, 64, 200
-0.994683, 97, 333, 160, 364
-0.994729, 57, 49, 120, 80
-0.99475, 17, 313, 80, 344
-0.994762, 25, 129, 88, 160
-0.99477, 25, 89, 88, 120
-0.994775, 1, 157, 64, 188
-0.994785, 81, 153, 144, 184
-0.994804, 57, 29, 120, 60
-0.994816, 53, 289, 84, 416
-0.994822, 57, 369, 120, 432
-0.994922, 33, 213, 160, 244
-0.994937, 57, 393, 120, 456
-0.994961, 81, 377, 144, 440
-0.995007, 111, 169, 126, 232
-0.995081, 37, 241, 68, 368
-0.995089, 97, 201, 128, 264
-0.995203, 89, 241, 120, 304
-0.995233, 105, 369, 168, 432
-0.995484, 117, 169, 148, 232
-0.995493, 81, 401, 144, 464
-0.995494, 1, 225, 170, 288
-0.995517, 1, 33, 128, 160
-0.995596, 25, 241, 40, 304
-0.995626, 117, 257, 148, 384
-0.995637, 9, 273, 72, 400
-0.995649, 1, 321, 128, 384
-0.995663, 57, 353, 88, 480
-0.9957, 141, 217, 156, 280
-0.995731, 1, 73, 128, 136
-0.995744, 137, 273, 168, 336
-0.995754, 57, 241, 88, 368
-0.995764, 17, 237, 144, 268
-0.995833, 65, 249, 128, 312
-0.995872, 49, 9, 170, 72
-0.995909, 57, 217, 88, 280
-0.995913, 1, 393, 128, 456
-0.995938, 69, 193, 84, 256
-0.995977, 49, 297, 170, 360
-0.99599, 93, 193, 108, 256
-0.996014, 33, 189, 160, 220
-0.996022, 81, 65, 144, 320
-0.996055, 129, 273, 160, 400
-0.996117, 1, 345, 170, 408
-0.996129, 29, 177, 60, 240
-0.996139, 57, 337, 88, 400
-0.99619, 119, 201, 134, 264
-0.996191, 1, 49, 128, 112
-0.996206, 129, 217, 144, 280
-0.996221, 85, 145, 116, 272
-0.99623, 135, 393, 150, 456
-0.996233, 49, 193, 64, 256
-0.996289, 137, 113, 168, 240
-0.996297, 65, 313, 96, 376
-0.996362, 49, 1, 170, 128
-0.996407, 81, 321, 112, 384
-0.996423, 149, 225, 164, 288
-0.996476, 81, 289, 144, 352
-0.996546, 101, 241, 132, 304
-0.99657, 79, 225, 94, 288
-0.996573, 41, 249, 56, 312
-0.996643, 105, 169, 120, 232
-0.996645, 105, 113, 168, 176
-0.996655, 33, 305, 96, 368
-0.996663, 5, 241, 20, 304
-0.996694, 97, 273, 128, 336
-0.996711, 19, 241, 34, 304
-0.996733, 155, 217, 170, 280
-0.996739, 97, 129, 128, 256
-0.996746, 33, 249, 48, 312
-0.996762, 93, 161, 124, 416
-0.996827, 49, 357, 170, 388
-0.996861, 1, 225, 128, 256
-0.996868, 135, 217, 150, 280
-0.996885, 11, 241, 26, 304
-0.996893, 49, 161, 80, 224
-0.996924, 49, 225, 170, 256
-0.996938, 125, 241, 156, 304
-0.996984, 135, 369, 150, 432
-0.996998, 33, 353, 64, 480
-0.99704, 39, 225, 54, 288
-0.997092, 137, 105, 168, 168
-0.997111, 121, 377, 152, 440
-0.99712, 49, 161, 80, 416
-0.997144, 75, 337, 90, 400
-0.997175, 105, 153, 136, 216
-0.997177, 141, 401, 156, 464
-0.997195, 79, 193, 94, 256
-0.9972, 1, 33, 64, 96
-0.99725, 85, 153, 116, 216
-0.997251, 33, 225, 48, 288
-0.997259, 127, 345, 142, 408
-0.997263, 85, 217, 100, 280
-0.997268, 1, 153, 170, 216
-0.997271, 105, 313, 136, 376
-0.997288, 109, 181, 124, 212
-0.997299, 129, 385, 144, 448
-0.997314, 1, 361, 64, 424
-0.99735, 17, 225, 48, 480
-0.997354, 113, 193, 128, 256
-0.997366, 65, 409, 96, 472
-0.997367, 61, 193, 92, 448
-0.997381, 33, 177, 160, 208
-0.997412, 99, 193, 114, 256
-0.99742, 129, 193, 144, 256
-0.997426, 65, 257, 96, 320
-0.997429, 49, 413, 170, 444
-0.997455, 73, 225, 104, 480
-0.997458, 37, 193, 68, 448
-0.997463, 81, 321, 96, 384
-0.997464, 57, 193, 72, 256
-0.997464, 141, 353, 156, 416
-0.997479, 101, 321, 132, 448
-0.997487, 99, 169, 114, 232
-0.997501, 63, 193, 78, 256
-0.997513, 1, 217, 16, 280
-0.997548, 125, 329, 156, 392
-0.997558, 87, 193, 102, 256
-0.997577, 85, 273, 116, 336
-0.997598, 155, 185, 170, 248
-0.997618, 99, 305, 114, 368
-0.997635, 17, 249, 144, 280
-0.997645, 101, 225, 132, 352
-0.997655, 113, 193, 144, 448
-0.997661, 5, 225, 36, 480
-0.997662, 9, 217, 24, 280
-0.997688, 153, 81, 168, 144
-0.9977, 149, 201, 164, 264
-0.997716, 21, 217, 36, 280
-0.997726, 15, 217, 30, 280
-0.997736, 1, 265, 170, 328
-0.99774, 87, 337, 102, 400
-0.997746, 137, 193, 168, 448
-0.997764, 47, 233, 62, 296
-0.997862, 25, 249, 40, 280
-0.997871, 139, 225, 154, 256
-0.997879, 153, 57, 168, 120
-0.997894, 61, 353, 76, 416
-0.997916, 59, 401, 74, 464
-0.997922, 145, 273, 160, 336
-0.997953, 123, 177, 138, 240
-0.997955, 53, 273, 84, 336
-0.997967, 109, 361, 140, 424
-0.997968, 33, 253, 48, 284
-0.997973, 139, 193, 154, 256
-0.997985, 93, 313, 108, 376
-0.99799, 125, 353, 140, 384
-0.997999, 49, 129, 170, 192
-0.998016, 79, 233, 94, 264
-0.998043, 125, 193, 156, 448
-0.998043, 105, 313, 168, 376
-0.998076, 69, 345, 84, 408
-0.998078, 93, 201, 108, 232
-0.998087, 129, 409, 144, 472
-0.998097, 99, 281, 114, 344
-0.998101, 113, 225, 144, 288
-0.998104, 153, 105, 168, 168
-0.998108, 53, 377, 84, 440
-0.998108, 131, 225, 146, 256
-0.99811, 1, 377, 170, 440
-0.99812, 49, 385, 170, 416
-0.998135, 125, 265, 156, 328
-0.998137, 153, 33, 168, 96
-0.998137, 69, 201, 84, 232
-0.998137, 1, 361, 128, 392
-0.998143, 51, 201, 66, 232
-0.998158, 89, 289, 104, 352
-0.998158, 135, 345, 150, 408
-0.99817, 145, 225, 160, 256
-0.998181, 119, 205, 134, 236
-0.998181, 135, 417, 150, 480
-0.998182, 73, 313, 88, 376
-0.998183, 49, 373, 170, 404
-0.998187, 1, 1, 128, 64
-0.998199, 1, 417, 170, 480
-0.998201, 49, 33, 170, 96
-0.998203, 49, 265, 170, 296
-0.998214, 73, 225, 88, 288
-0.998221, 137, 249, 168, 264
-0.998222, 109, 243, 140, 258
-0.998224, 85, 313, 116, 328
-0.998225, 105, 365, 136, 380
-0.998225, 137, 123, 168, 138
-0.998226, 129, 385, 160, 400
-0.998226, 137, 211, 168, 226
-0.998226, 65, 257, 96, 272
-0.998226, 105, 177, 136, 192
-0.998227, 129, 353, 160, 368
-0.998228, 97, 253, 128, 268
-0.998228, 137, 417, 168, 432
-0.998228, 137, 107, 168, 122
-0.998228, 29, 199, 60, 214
-0.998229, 45, 267, 76, 282
-0.998229, 137, 65, 168, 80
-0.998229, 49, 279, 80, 294
-0.99823, 29, 213, 60, 228
-0.998231, 137, 281, 168, 296
-0.998233, 101, 271, 132, 286
-0.998233, 77, 325, 108, 340
-0.998233, 45, 391, 76, 406
-0.998234, 73, 309, 104, 324
-0.998236, 133, 377, 164, 392
-0.998237, 45, 383, 76, 398
-0.998238, 137, 97, 168, 112
-0.998238, 65, 245, 96, 260
-0.998238, 105, 319, 136, 334
-0.998239, 29, 229, 60, 244
-0.998239, 49, 355, 80, 370
-0.99824, 11, 245, 26, 276
-0.99824, 61, 225, 92, 240
-0.99824, 1, 97, 128, 160
-0.998241, 121, 243, 152, 258
-0.998242, 117, 189, 148, 204
-0.998242, 89, 355, 120, 370
-0.998244, 89, 247, 120, 262
-0.998245, 57, 219, 88, 234
-0.998246, 77, 319, 108, 334
-0.998248, 137, 53, 168, 68
-0.998248, 137, 89, 168, 104
-0.99825, 117, 399, 148, 414
-0.998251, 29, 219, 60, 234
-0.998251, 85, 349, 116, 364
-0.998252, 77, 247, 108, 262
-0.998252, 45, 261, 76, 276
-0.998252, 97, 241, 128, 256
-0.998253, 91, 217, 106, 280
-0.998253, 129, 269, 160, 284
-0.998255, 137, 81, 168, 96
-0.998257, 137, 59, 168, 74
-0.998258, 13, 243, 44, 258
-0.998258, 137, 71, 168, 86
-0.998259, 73, 363, 104, 378
-0.99826, 117, 371, 148, 386
-0.998262, 85, 193, 116, 208
-0.998262, 133, 411, 164, 426
-0.998263, 85, 223, 116, 238
-0.998263, 105, 359, 136, 374
-0.998265, 41, 255, 72, 270
-0.998266, 57, 209, 88, 224
-0.998269, 49, 367, 80, 382
-0.998269, 29, 207, 60, 222
-0.998273, 97, 313, 128, 328
-0.998273, 49, 197, 80, 212
-0.998273, 25, 239, 56, 254
-0.998276, 61, 203, 92, 218
-0.998276, 45, 233, 76, 248
-0.998277, 137, 431, 168, 446
-0.998277, 113, 195, 144, 210
-0.998277, 61, 239, 92, 254
-0.99828, 45, 209, 76, 224
-0.99828, 85, 235, 116, 250
-0.99828, 125, 215, 156, 230
-0.99828, 147, 345, 162, 408
-0.998281, 117, 201, 148, 216
-0.998281, 45, 225, 76, 240
-0.998281, 45, 219, 76, 234
-0.998284, 117, 407, 148, 422
-0.998284, 85, 217, 116, 232
-0.998286, 129, 371, 160, 386
-0.998286, 155, 153, 170, 216
-0.99829, 77, 241, 108, 256
-0.99829, 97, 325, 128, 340
-0.998291, 17, 313, 144, 344
-0.998291, 47, 257, 62, 320
-0.998293, 1, 241, 32, 256
-0.998296, 45, 243, 76, 258
-0.998298, 125, 433, 156, 448
-0.998298, 17, 259, 48, 274
-0.998299, 61, 351, 92, 366
-0.9983, 125, 423, 156, 438
-0.998303, 137, 423, 168, 438
-0.998305, 45, 249, 76, 264
-0.998306, 117, 357, 148, 372
-0.998308, 129, 397, 160, 412
-0.99831, 137, 275, 168, 290
-0.998311, 147, 385, 162, 448
-0.998311, 129, 405, 160, 420
-0.998314, 113, 223, 144, 238
-0.998314, 129, 365, 160, 380
-0.998315, 85, 207, 116, 222
-0.998317, 61, 231, 92, 246
-0.998319, 61, 363, 92, 378
-0.998323, 27, 217, 42, 280
-0.998324, 117, 207, 148, 222
-0.998325, 77, 355, 108, 370
-0.998327, 85, 229, 116, 244
-0.99833, 85, 233, 100, 264
-0.998332, 137, 219, 168, 234
-0.998335, 153, 229, 168, 260
-0.998336, 123, 217, 138, 248
-0.998336, 105, 211, 136, 226
-0.998339, 49, 429, 170, 460
-0.99834, 121, 415, 152, 430
-0.998341, 81, 345, 96, 408
-0.998341, 97, 203, 128, 218
-0.998343, 73, 219, 104, 234
-0.998344, 93, 181, 124, 196
-0.998345, 125, 221, 156, 236
-0.998346, 73, 213, 104, 228
-0.998347, 93, 319, 124, 334
-0.998348, 117, 365, 148, 380
-0.998348, 29, 267, 60, 282
-0.998352, 119, 153, 134, 216
-0.998357, 105, 183, 136, 198
-0.99836, 73, 349, 104, 364
-0.998361, 69, 197, 100, 212
-0.998364, 65, 357, 96, 372
-0.998365, 73, 225, 104, 240
-0.998375, 73, 235, 104, 250
-0.99838, 29, 251, 60, 266
-0.998381, 73, 205, 104, 220
-0.998384, 129, 359, 160, 374
-0.998385, 111, 193, 126, 224
-0.998387, 85, 201, 116, 216
-0.99839, 93, 187, 124, 202
-0.998391, 39, 261, 54, 292
-0.998393, 5, 245, 20, 276
-0.998397, 103, 185, 118, 216
-0.998399, 105, 217, 136, 232
-0.998405, 39, 177, 54, 240
-0.998406, 29, 257, 60, 272
-0.998409, 109, 297, 124, 360
-0.998419, 29, 245, 60, 260
-0.998424, 137, 229, 168, 244
-0.998426, 155, 9, 170, 72
-0.998427, 63, 169, 78, 232
-0.998435, 125, 227, 156, 242
-0.998436, 105, 189, 136, 204
-0.998441, 105, 193, 120, 256
-0.998445, 1, 1, 170, 64
-0.998455, 83, 297, 98, 360
-0.998474, 137, 65, 168, 320
-0.998477, 19, 245, 34, 276
-0.998482, 33, 145, 64, 272
-0.998483, 135, 401, 150, 432
-0.998487, 73, 201, 136, 216
-0.998491, 67, 369, 82, 432
-0.998493, 155, 129, 170, 192
-0.9985, 41, 203, 104, 218
-0.9985, 77, 305, 108, 432
-0.998503, 97, 197, 128, 212
-0.998507, 39, 249, 54, 280
-0.998514, 101, 197, 116, 228
-0.998514, 9, 249, 40, 264
-0.998534, 81, 213, 96, 244
-0.998538, 49, 203, 80, 218
-0.998541, 137, 241, 168, 304
-0.998544, 61, 197, 76, 228
-0.998546, 141, 357, 156, 388
-0.998548, 53, 169, 68, 232
-0.998548, 73, 207, 136, 222
-0.998554, 81, 219, 144, 234
-0.998562, 41, 227, 104, 242
-0.998569, 79, 349, 94, 380
-0.998573, 41, 221, 104, 236
-0.998578, 65, 97, 96, 352
-0.998584, 1, 249, 64, 264
-0.998585, 81, 225, 144, 240
-0.998589, 73, 213, 136, 228
-0.998592, 33, 209, 96, 224
-0.998595, 119, 313, 134, 376
-0.998596, 107, 225, 122, 288
-0.998599, 41, 215, 104, 230
-0.998603, 1, 57, 64, 120
-0.998604, 25, 247, 88, 262
-0.998605, 143, 241, 158, 304
-0.998606, 1, 239, 64, 254
-0.998609, 73, 195, 136, 210
-0.998615, 41, 233, 104, 248
-0.998619, 45, 253, 60, 284
-0.99862, 105, 225, 168, 240
-0.998626, 65, 357, 128, 372
-0.998626, 25, 255, 88, 270
-0.998634, 75, 361, 90, 424
-0.998636, 1, 165, 128, 196
-0.998636, 73, 183, 136, 198
-0.998646, 141, 377, 156, 440
-0.998649, 97, 191, 160, 206
-0.998651, 131, 353, 146, 384
-0.998652, 151, 281, 166, 344
-0.998653, 93, 169, 108, 232
-0.998653, 109, 265, 124, 328
-0.998654, 105, 359, 168, 374
-0.998656, 81, 1, 144, 64
-0.998657, 65, 231, 128, 246
-0.998658, 49, 197, 112, 212
-0.998659, 105, 177, 168, 192
-0.998663, 17, 261, 80, 276
-0.998664, 33, 97, 64, 352
-0.998666, 129, 205, 144, 236
-0.998666, 109, 169, 124, 200
-0.998667, 135, 241, 150, 304
-0.998668, 97, 185, 160, 200
-0.998673, 1, 97, 32, 352
-0.998673, 73, 351, 136, 366
-0.998677, 65, 363, 128, 378
-0.998679, 41, 239, 104, 254
-0.998683, 105, 171, 168, 186
-0.998685, 97, 269, 160, 284
-0.998692, 73, 189, 136, 204
-0.998694, 73, 315, 136, 330
-0.998694, 99, 313, 114, 344
-0.998696, 105, 205, 168, 220
-0.998698, 49, 351, 112, 366
-0.998698, 105, 197, 168, 212
-0.9987, 49, 285, 170, 316
-0.9987, 1, 255, 64, 270
-0.998701, 97, 309, 160, 324
-0.998701, 1, 207, 64, 222
-0.998702, 137, 421, 152, 452
-0.998703, 49, 441, 170, 472
-0.998705, 41, 357, 104, 372
-0.998706, 155, 209, 170, 240
-0.998708, 73, 177, 136, 192
-0.998713, 113, 233, 128, 296
-0.998714, 25, 369, 88, 384
-0.998717, 33, 241, 48, 272
-0.998719, 57, 309, 120, 324
-0.998721, 1, 229, 64, 244
-0.998727, 1, 221, 64, 236
-0.998729, 1, 213, 64, 228
-0.99873, 105, 219, 168, 234
-0.99873, 105, 365, 168, 380
-0.99873, 153, 61, 168, 92
-0.99873, 73, 237, 136, 252
-0.998731, 89, 325, 152, 340
-0.998731, 97, 315, 160, 330
-0.998732, 105, 423, 168, 438
-0.998733, 105, 211, 168, 226
-0.998735, 65, 325, 128, 340
-0.998736, 41, 363, 104, 378
-0.998737, 123, 233, 138, 296
-0.998738, 17, 201, 80, 216
-0.998738, 1, 321, 170, 384
-0.998738, 73, 243, 136, 258
-0.99874, 105, 385, 168, 400
-0.998742, 65, 171, 128, 186
-0.998743, 1, 267, 64, 282
-0.998744, 105, 231, 168, 246
-0.998744, 97, 249, 160, 264
-0.998746, 105, 353, 168, 368
-0.998746, 125, 365, 140, 396
-0.998747, 105, 165, 168, 180
-0.998748, 105, 373, 168, 388
-0.998748, 85, 345, 100, 376
-0.998749, 97, 243, 160, 258
-0.998749, 105, 53, 168, 68
-0.99875, 97, 413, 160, 428
-0.99875, 69, 353, 100, 480
-0.998752, 97, 407, 160, 422
-0.998755, 105, 77, 168, 92
-0.998755, 41, 267, 104, 282
-0.998755, 105, 95, 168, 110
-0.998756, 49, 283, 112, 298
-0.998757, 105, 101, 168, 116
-0.998757, 105, 59, 168, 74
-0.998757, 105, 109, 168, 124
-0.998757, 25, 385, 88, 400
-0.998759, 105, 71, 168, 86
-0.998759, 105, 83, 168, 98
-0.998761, 73, 263, 136, 278
-0.998761, 1, 371, 64, 386
-0.998762, 97, 277, 160, 292
-0.998762, 25, 351, 88, 366
-0.998762, 1, 233, 16, 264
-0.998762, 105, 115, 168, 130
-0.998763, 105, 89, 168, 104
-0.998763, 55, 361, 70, 424
-0.998766, 97, 237, 160, 252
-0.998766, 73, 331, 136, 346
-0.998766, 57, 369, 120, 384
-0.998766, 81, 369, 144, 384
-0.998766, 105, 65, 168, 80
-0.998767, 105, 429, 168, 444
-0.998767, 41, 261, 104, 276
-0.998767, 105, 125, 168, 140
-0.998767, 73, 249, 136, 264
-0.998769, 105, 133, 168, 148
-0.998771, 25, 393, 88, 408
-0.998772, 41, 273, 104, 288
-0.998772, 57, 303, 120, 318
-0.998773, 65, 255, 128, 270
-0.998774, 49, 319, 112, 334
-0.998775, 25, 237, 40, 268
-0.998775, 49, 191, 112, 206
-0.998776, 105, 139, 168, 154
-0.998776, 57, 389, 120, 404
-0.998777, 57, 375, 120, 390
-0.998779, 1, 349, 128, 380
-0.998779, 105, 145, 168, 160
-0.998779, 41, 289, 104, 304
-0.998779, 49, 245, 112, 260
-0.99878, 89, 289, 152, 304
-0.998781, 89, 283, 152, 298
-0.998782, 97, 259, 160, 274
-0.998782, 17, 425, 80, 440
-0.998783, 9, 195, 72, 210
-0.998784, 57, 295, 120, 310
-0.998784, 105, 153, 168, 168
-0.998784, 25, 375, 88, 390
-0.998785, 17, 449, 80, 464
-0.998785, 155, 241, 170, 304
-0.998786, 81, 297, 144, 312
-0.998786, 97, 303, 160, 318
-0.998787, 49, 345, 112, 360
-0.998788, 57, 399, 120, 414
-0.998788, 57, 383, 120, 398
-0.998789, 17, 363, 80, 378
-0.99879, 105, 159, 168, 174
-0.998791, 105, 395, 168, 410
-0.998791, 57, 449, 120, 464
-0.998791, 25, 401, 88, 416
-0.998791, 137, 153, 168, 216
-0.998792, 65, 441, 128, 456
-0.998792, 25, 441, 88, 456
-0.998792, 49, 481, 112, 496
-0.998793, 73, 269, 136, 284
-0.998794, 91, 225, 106, 256
-0.9988, 73, 349, 88, 380
-0.998804, 75, 361, 90, 392
-0.998822, 147, 361, 162, 392
-0.998832, 67, 349, 82, 380
-0.998833, 45, 265, 60, 296
-0.998837, 109, 317, 124, 348
-0.998842, 71, 225, 86, 256
-0.998844, 153, 81, 168, 112
-0.998848, 149, 249, 164, 312
-0.998854, 113, 205, 128, 236
-0.99886, 33, 325, 160, 356
-0.998868, 1, 265, 128, 296
-0.99887, 17, 233, 32, 264
-0.998874, 133, 365, 148, 396
-0.998875, 67, 321, 82, 384
-0.998879, 145, 269, 160, 300
-0.998882, 153, 385, 168, 448
-0.998886, 7, 233, 22, 264
-0.998888, 39, 237, 54, 268
-0.99889, 153, 345, 168, 408
-0.998896, 149, 213, 164, 244
-0.998902, 143, 421, 158, 452
-0.998903, 153, 93, 168, 124
-0.998903, 69, 169, 84, 232
-0.998914, 109, 145, 124, 208
-0.998945, 63, 361, 78, 392
-0.998947, 137, 129, 168, 192
-0.998953, 121, 193, 136, 224
-0.998954, 61, 377, 76, 440
-0.998956, 153, 109, 168, 140
-0.998958, 91, 213, 106, 244
-0.998961, 145, 245, 160, 276
-0.998974, 135, 213, 150, 244
-0.998974, 91, 349, 106, 380
-0.998975, 127, 377, 142, 408
-0.998983, 113, 321, 128, 384
-0.998987, 119, 361, 134, 392
-0.998988, 151, 269, 166, 300
-0.998988, 127, 409, 142, 440
-0.998989, 17, 353, 48, 480
-0.998994, 49, 401, 170, 432
-0.998999, 125, 321, 140, 384
-0.999001, 119, 173, 134, 204
-0.999006, 121, 353, 136, 416
-0.999007, 153, 121, 168, 152
-0.999008, 135, 245, 150, 276
-0.999012, 1, 297, 128, 328
-0.999015, 49, 193, 64, 320
-0.999017, 49, 345, 170, 376
-0.999019, 51, 189, 66, 220
-0.999027, 21, 129, 52, 384
-0.999031, 155, 181, 170, 212
-0.999037, 65, 425, 80, 488
-0.999047, 119, 193, 134, 320
-0.99905, 155, 197, 170, 228
-0.99905, 33, 453, 160, 484
-0.999052, 77, 129, 108, 384
-0.999055, 139, 265, 154, 328
-0.999056, 39, 201, 54, 264
-0.999059, 141, 213, 156, 244
-0.999062, 153, 133, 168, 164
-0.999063, 81, 201, 96, 232
-0.999064, 143, 209, 158, 336
-0.999065, 129, 241, 144, 304
-0.999066, 45, 201, 60, 232
-0.999068, 133, 377, 148, 408
-0.999073, 101, 169, 116, 200
-0.999076, 133, 389, 148, 420
-0.999076, 1, 373, 128, 404
-0.999076, 149, 257, 164, 288
-0.999083, 95, 181, 110, 212
-0.999085, 97, 249, 112, 312
-0.999086, 103, 177, 118, 304
-0.999086, 111, 161, 126, 288
-0.999098, 139, 257, 154, 288
-0.999101, 143, 393, 158, 424
-0.999102, 155, 169, 170, 200
-0.999103, 49, 213, 64, 244
-0.999108, 153, 209, 168, 336
-0.999108, 129, 237, 144, 268
-0.99911, 83, 169, 98, 232
-0.99911, 155, 145, 170, 176
-0.999114, 1, 289, 170, 352
-0.999114, 125, 341, 140, 372
-0.999119, 141, 373, 156, 404
-0.999119, 85, 357, 100, 388
-0.999122, 155, 157, 170, 188
-0.999122, 101, 217, 116, 280
-0.999123, 79, 249, 94, 280
-0.99913, 39, 221, 54, 252
-0.999131, 89, 293, 104, 324
-0.999134, 69, 393, 84, 456
-0.999135, 141, 409, 156, 440
-0.999143, 153, 361, 168, 392
-0.999146, 75, 273, 90, 336
-0.999149, 143, 281, 158, 312
-0.999149, 53, 401, 68, 464
-0.99915, 91, 193, 106, 320
-0.99915, 105, 321, 120, 384
-0.99915, 47, 241, 62, 272
-0.999153, 47, 369, 62, 400
-0.999153, 149, 373, 164, 404
-0.999157, 89, 245, 104, 276
-0.999161, 77, 225, 92, 352
-0.999163, 137, 321, 152, 384
-0.999163, 115, 317, 130, 348
-0.999167, 49, 301, 170, 332
-0.999171, 9, 225, 24, 352
-0.999174, 73, 237, 88, 268
-0.999175, 81, 345, 112, 408
-0.999182, 131, 421, 146, 452
-0.999184, 49, 225, 64, 256
-0.999187, 127, 193, 142, 320
-0.999189, 87, 201, 102, 232
-0.999201, 135, 209, 150, 336
-0.999202, 113, 97, 144, 352
-0.999202, 103, 233, 118, 264
-0.999204, 123, 257, 138, 320
-0.999206, 93, 313, 108, 344
-0.999211, 119, 237, 134, 268
-0.999211, 95, 329, 110, 360
-0.999213, 69, 193, 84, 320
-0.999216, 113, 245, 128, 276
-0.999219, 91, 361, 106, 392
-0.99922, 99, 329, 114, 392
-0.99922, 139, 433, 154, 464
-0.999221, 39, 209, 54, 240
-0.999224, 153, 281, 168, 312
-0.999227, 37, 369, 52, 400
-0.999227, 1, 225, 16, 352
-0.999232, 133, 265, 148, 296
-0.999234, 57, 365, 72, 396
-0.999238, 155, 385, 170, 416
-0.999239, 33, 265, 48, 296
-0.999248, 153, 45, 168, 76
-0.99925, 65, 273, 80, 336
-0.999254, 109, 305, 124, 336
-0.999255, 45, 353, 60, 416
-0.999256, 55, 425, 70, 488
-0.999258, 91, 265, 106, 328
-0.999261, 105, 9, 168, 72
-0.999265, 141, 425, 156, 488
-0.999265, 59, 421, 74, 452
-0.999271, 109, 233, 124, 264
-0.999271, 79, 337, 94, 368
-0.999271, 33, 241, 48, 368
-0.999274, 57, 249, 72, 312
-0.999277, 155, 373, 170, 404
-0.999284, 103, 145, 118, 208
-0.999288, 115, 265, 130, 328
-0.999296, 15, 225, 30, 352
-0.999303, 1, 73, 170, 136
-0.999309, 27, 241, 42, 368
-0.999311, 93, 345, 108, 408
-0.999322, 39, 241, 54, 368
-0.999327, 37, 193, 52, 320
-0.999336, 153, 1, 168, 128
-0.999337, 153, 161, 168, 288
-0.999341, 47, 169, 62, 232
-0.999341, 125, 97, 156, 352
-0.999343, 143, 305, 158, 368
-0.999348, 97, 177, 112, 304
-0.999354, 25, 193, 40, 320
-0.99937, 113, 305, 144, 432
-0.999371, 43, 193, 58, 320
-0.999372, 33, 465, 160, 496
-0.999373, 149, 313, 164, 376
-0.999381, 63, 193, 78, 320
-0.999387, 85, 209, 100, 336
-0.999387, 81, 161, 96, 288
-0.999388, 1, 25, 128, 88
-0.999391, 1, 41, 170, 104
-0.999403, 125, 321, 140, 448
-0.999413, 1, 277, 128, 308
-0.999414, 55, 193, 70, 320
-0.999415, 21, 241, 36, 368
-0.99946, 1, 337, 64, 400
-0.99947, 41, 207, 56, 222
-0.99947, 143, 367, 158, 382
-0.999471, 141, 399, 156, 414
-0.999472, 113, 175, 128, 190
-0.999472, 155, 191, 170, 206
-0.999472, 155, 205, 170, 220
-0.999473, 119, 185, 134, 200
-0.999473, 151, 365, 166, 380
-0.999474, 155, 199, 170, 214
-0.999474, 119, 239, 134, 254
-0.999475, 9, 241, 24, 256
-0.999475, 153, 117, 168, 132
-0.999475, 135, 249, 150, 264
-0.999475, 149, 249, 164, 264
-0.999475, 47, 249, 62, 264
-0.999476, 135, 429, 150, 444
-0.999476, 155, 213, 170, 228
-0.999477, 127, 377, 142, 392
-0.999478, 113, 207, 128, 222
-0.999479, 31, 247, 46, 262
-0.999479, 153, 109, 168, 124
-0.999479, 91, 231, 106, 246
-0.999479, 149, 241, 164, 256
-0.99948, 91, 219, 106, 234
-0.99948, 129, 211, 144, 226
-0.99948, 153, 81, 168, 208
-0.99948, 137, 369, 152, 384
-0.999481, 85, 229, 100, 244
-0.999481, 89, 65, 120, 320
-0.999481, 117, 365, 132, 380
-0.999481, 153, 69, 168, 84
-0.999481, 81, 205, 96, 220
-0.999482, 123, 199, 138, 214
-0.999482, 91, 209, 106, 224
-0.999483, 155, 275, 170, 290
-0.999483, 153, 103, 168, 118
-0.999485, 121, 359, 136, 374
-0.999486, 153, 123, 168, 138
-0.999486, 3, 177, 18, 304
-0.999486, 153, 95, 168, 110
-0.999486, 129, 397, 144, 412
-0.999486, 1, 441, 128, 472
-0.999487, 79, 243, 94, 258
-0.999488, 143, 277, 158, 292
-0.999488, 109, 325, 124, 340
-0.999489, 81, 211, 96, 226
-0.99949, 89, 359, 104, 374
-0.99949, 153, 89, 168, 104
-0.999491, 33, 265, 48, 280
-0.999492, 49, 209, 64, 224
-0.999492, 153, 61, 168, 76
-0.999492, 73, 349, 88, 364
-0.999492, 77, 361, 92, 376
-0.999493, 131, 415, 146, 430
-0.999493, 139, 221, 154, 236
-0.999493, 141, 243, 156, 258
-0.999494, 131, 243, 146, 258
-0.999494, 133, 361, 148, 376
-0.999495, 37, 247, 52, 262
-0.999496, 69, 145, 84, 272
-0.999497, 155, 223, 170, 238
-0.999497, 81, 221, 96, 236
-0.999498, 99, 193, 114, 208
-0.999499, 15, 243, 30, 258
-0.9995, 139, 161, 154, 288
-0.9995, 127, 371, 142, 386
-0.999501, 143, 415, 158, 430
-0.999501, 105, 175, 120, 190
-0.999501, 153, 79, 168, 94
-0.999502, 79, 349, 94, 364
-0.999502, 105, 197, 120, 212
-0.999504, 99, 321, 114, 336
-0.999505, 119, 205, 134, 220
-0.999506, 27, 255, 42, 270
-0.999506, 73, 231, 88, 246
-0.999506, 127, 405, 142, 420
-0.999506, 101, 181, 116, 196
-0.999507, 21, 243, 36, 258
-0.999507, 147, 359, 162, 374
-0.999508, 119, 145, 134, 272
-0.999508, 123, 225, 138, 240
-0.999509, 133, 353, 148, 480
-0.999509, 109, 319, 124, 334
-0.999509, 119, 191, 134, 206
-0.99951, 141, 431, 156, 446
-0.99951, 147, 269, 162, 284
-0.999511, 145, 161, 160, 288
-0.999511, 3, 239, 18, 254
-0.999512, 31, 193, 46, 320
-0.999512, 83, 357, 98, 372
-0.999513, 149, 223, 164, 238
-0.999514, 91, 225, 106, 240
-0.999517, 105, 191, 120, 206
-0.999517, 49, 257, 80, 500
-0.999517, 53, 65, 84, 320
-0.999518, 39, 253, 54, 268
-0.999519, 99, 313, 114, 328
-0.999522, 133, 375, 148, 390
-0.999524, 115, 359, 130, 374
-0.999525, 143, 423, 158, 438
-0.999525, 129, 221, 144, 236
-0.999526, 67, 355, 82, 370
-0.999526, 141, 305, 156, 432
-0.999529, 91, 351, 106, 366
-0.999532, 5, 353, 36, 480
-0.999533, 61, 145, 76, 272
-0.999534, 79, 227, 94, 242
-0.999535, 127, 357, 142, 372
-0.999536, 141, 359, 156, 374
-0.999536, 59, 353, 74, 480
-0.999537, 67, 361, 82, 376
-0.99954, 33, 253, 48, 268
-0.999542, 45, 265, 60, 280
-0.999542, 135, 401, 150, 416
-0.999543, 17, 177, 32, 304
-0.999544, 57, 1, 120, 256
-0.999544, 131, 227, 146, 242
-0.999552, 149, 275, 164, 290
-0.999553, 99, 201, 114, 216
-0.999554, 45, 259, 60, 274
-0.999558, 119, 211, 134, 226
-0.999558, 85, 351, 100, 366
-0.99956, 155, 229, 170, 244
-0.999563, 49, 425, 80, 488
-0.999565, 9, 177, 24, 304
-0.999566, 85, 235, 100, 250
-0.99957, 137, 413, 152, 428
-0.999571, 77, 355, 92, 370
-0.999571, 123, 365, 138, 380
-0.999574, 39, 265, 54, 280
-0.999575, 49, 29, 170, 60
-0.999575, 7, 247, 22, 262
-0.999576, 1, 245, 16, 260
-0.999577, 137, 423, 152, 438
-0.999577, 17, 249, 32, 264
-0.999578, 113, 201, 128, 216
-0.99958, 61, 201, 76, 216
-0.99958, 111, 195, 126, 210
-0.999581, 1, 81, 128, 112
-0.999582, 133, 161, 148, 288
-0.999589, 39, 259, 54, 274
-0.999592, 135, 407, 150, 422
-0.999596, 119, 321, 134, 448
-0.999597, 79, 289, 94, 416
-0.9996, 91, 145, 106, 272
-0.999601, 149, 231, 164, 246
-0.999603, 69, 205, 84, 220
-0.999606, 85, 273, 100, 400
-0.999607, 93, 203, 108, 218
-0.999607, 79, 237, 94, 252
-0.999607, 1, 393, 128, 424
-0.999608, 139, 227, 154, 242
-0.999608, 121, 217, 136, 232
-0.999616, 45, 241, 60, 368
-0.999617, 101, 129, 116, 256
-0.999628, 101, 65, 132, 320
-0.99963, 75, 177, 90, 304
-0.999631, 69, 353, 84, 480
-0.999634, 53, 145, 68, 272
-0.999636, 73, 289, 88, 416
-0.999638, 99, 257, 114, 384
-0.99964, 25, 249, 40, 264
-0.999647, 109, 113, 124, 240
-0.999649, 51, 203, 66, 218
-0.999653, 119, 257, 134, 384
-0.999653, 49, 353, 64, 480
-0.999665, 109, 181, 124, 196
-0.999668, 109, 257, 124, 384
-0.999673, 125, 145, 140, 272
-0.999675, 33, 259, 48, 274
-0.999675, 143, 353, 158, 480
-0.999683, 111, 187, 126, 202
-0.99969, 67, 305, 82, 432
-0.9997, 95, 305, 110, 432
-0.999703, 149, 305, 164, 432
-0.999708, 49, 9, 170, 40
-0.999716, 125, 369, 140, 496
-0.999717, 135, 273, 150, 400
-0.999728, 53, 249, 84, 312
-0.999732, 101, 305, 116, 432
-0.999735, 1, 113, 64, 176
-0.999735, 59, 289, 74, 416
-0.999735, 91, 257, 106, 384
-0.999744, 113, 305, 128, 432
-0.999757, 1, 109, 128, 140
-0.999757, 43, 353, 58, 480
-0.999763, 125, 273, 140, 400
-0.999763, 113, 209, 128, 336
-0.999782, 67, 257, 82, 384
-0.999785, 149, 369, 164, 496
-0.999792, 1, 409, 128, 440
-0.999792, 37, 353, 52, 480
-0.999792, 39, 145, 54, 272
-0.999804, 1, 93, 128, 124
-0.999806, 149, 257, 164, 384
-0.999808, 29, 353, 44, 480
-0.99982, 155, 305, 170, 432
-0.999821, 51, 273, 66, 400
-0.999822, 89, 321, 104, 448
-0.999827, 23, 353, 38, 480
-0.999829, 49, 41, 170, 72
-0.999846, 1, 57, 128, 88
-0.999848, 17, 353, 32, 480
-0.99985, 107, 305, 122, 432
-0.999851, 47, 145, 62, 272
-0.999853, 155, 353, 170, 480
-0.999861, 5, 353, 20, 480
-0.999864, 1, 337, 128, 368
-0.999865, 11, 353, 26, 480
-0.999865, 147, 1, 162, 128
-0.999878, 119, 369, 134, 496
-0.999886, 3, 1, 18, 128
-0.999886, 49, 161, 170, 192
-0.999891, 1, 49, 16, 176
-0.999891, 113, 353, 128, 480
-0.999892, 77, 337, 92, 464
-0.999897, 7, 49, 22, 176
-0.999898, 85, 257, 116, 500
-0.999919, 1, 69, 128, 100
-0.999923, 141, 257, 156, 384
-0.999923, 101, 257, 132, 500
-0.999938, 155, 257, 170, 384
-0.999957, 49, 149, 170, 180
-0.999957, 57, 241, 72, 368
-0.99996, 1, 429, 128, 460
-0.999965, 75, 129, 90, 256
-0.999978, 13, 49, 28, 176
-0.999994, 41, 305, 56, 432
-0.999997, 1, 97, 16, 224
-0.999997, 141, 1, 156, 128
-0.999998, 95, 353, 110, 480
-1, 83, 1, 98, 128
-1.00001, 9, 1, 24, 128
-1.00001, 121, 425, 152, 488
-1.00002, 83, 353, 98, 480
-1.00003, 101, 1, 116, 128
-1.00003, 19, 33, 34, 160
-1.00003, 25, 1, 40, 128
-1.00004, 9, 97, 24, 224
-1.00004, 117, 97, 132, 224
-1.00004, 35, 305, 50, 432
-1.00005, 57, 97, 72, 224
-1.00005, 1, 1, 128, 32
-1.00006, 27, 305, 42, 432
-1.00006, 45, 97, 60, 224
-1.00006, 37, 153, 68, 216
-1.00007, 31, 17, 46, 144
-1.00007, 147, 49, 162, 176
-1.00007, 41, 289, 72, 416
-1.00008, 25, 49, 40, 176
-1.00008, 119, 1, 134, 128
-1.00008, 1, 305, 16, 432
-1.00008, 15, 305, 30, 432
-1.00008, 125, 1, 140, 128
-1.00008, 1, 45, 128, 76
-1.00009, 15, 97, 30, 224
-1.00009, 95, 97, 110, 224
-1.00009, 21, 305, 36, 432
-1.00009, 89, 1, 104, 128
-1.0001, 135, 17, 150, 144
-1.0001, 63, 65, 78, 192
-1.0001, 1, 97, 170, 160
-1.00011, 105, 353, 120, 480
-1.00015, 1, 13, 128, 44
-1.00016, 117, 1, 148, 256
-1.00016, 1, 153, 128, 184
-1.00016, 65, 433, 96, 496
-1.00016, 49, 53, 170, 84
-1.00021, 77, 33, 108, 288
-1.00023, 1, 25, 128, 56
-1.00024, 49, 57, 170, 120
-1.00024, 109, 401, 140, 464
-1.00031, 1, 133, 128, 164
-1.00031, 1, 121, 128, 152
-1.00043, 1, 121, 128, 184
-1.00044, 33, 353, 64, 416
-1.00049, 49, 101, 170, 132
-1.00049, 113, 113, 144, 240
-1.00052, 49, 137, 170, 168
-1.00055, 109, 265, 140, 328
-1.00057, 49, 65, 170, 96
-1.00058, 1, 129, 170, 192
-1.00059, 49, 113, 170, 144
-1.0006, 25, 145, 88, 208
-1.00063, 137, 9, 168, 72
-1.00064, 49, 125, 170, 156
-1.00066, 49, 81, 170, 144
-1.00071, 1, 33, 64, 160
-1.00072, 1, 57, 32, 120
-1.00075, 1, 81, 64, 144
-1.00075, 49, 77, 170, 108
-1.0008, 49, 89, 170, 120
-1.00095, 77, 249, 108, 312
-1.00096, 65, 1, 96, 256
-1.00097, 37, 1, 68, 256
-1.00098, 1, 1, 32, 256
-1.00098, 25, 41, 88, 104
-1.00098, 1, 417, 32, 480
-1.00099, 13, 33, 44, 288
-1.00113, 49, 49, 170, 176
-1.00114, 125, 289, 156, 352
-1.00115, 89, 321, 120, 448
-1.00121, 81, 433, 144, 496
-1.00124, 109, 337, 140, 400
-1.00133, 49, 105, 170, 168
-1.00134, 29, 417, 60, 480
-1.00141, 1, 33, 32, 160
-1.00143, 137, 329, 168, 392
-1.00147, 25, 1, 56, 256
-1.00163, 17, 417, 48, 480
-1.00169, 69, 257, 100, 384
-1.00184, 57, 1, 120, 64
-1.00185, 81, 1, 144, 128
-1.00191, 109, 289, 140, 352
-1.00209, 65, 385, 96, 448
-1.00222, 5, 89, 36, 152
-1.00227, 5, 33, 36, 96
-1.00232, 1, 1, 64, 64
-1.00232, 45, 329, 76, 392
-1.00253, 41, 273, 72, 336
-1.00253, 21, 361, 52, 424
-1.00256, 33, 385, 64, 448
-1.00268, 13, 57, 44, 120
-1.00276, 25, 1, 88, 64
-1.0029, 125, 1, 156, 64
-1.00312, 1, 145, 64, 208
-1.00321, 21, 33, 52, 96
-1.00323, 13, 33, 44, 160
-1.00324, 97, 337, 128, 400
-1.00326, 109, 1, 140, 64
-1.00331, 49, 97, 170, 224
-1.00333, 85, 97, 116, 224
-1.00337, 133, 433, 164, 496
-1.00346, 9, 1, 72, 256
-1.0035, 17, 105, 48, 168
-1.0035, 9, 361, 40, 424
-1.00351, 65, 289, 96, 352
-1.00369, 17, 81, 48, 144
-1.00371, 29, 305, 60, 432
-1.00372, 1, 121, 32, 184
-1.00378, 41, 97, 72, 224
-1.00387, 53, 305, 84, 368
-1.00394, 73, 1, 104, 64
-1.00398, 1, 193, 32, 256
-1.004, 85, 1, 116, 128
-1.00405, 125, 17, 156, 144
-1.00406, 25, 17, 88, 144
-1.00409, 9, 97, 40, 224
-1.00416, 29, 17, 60, 144
-1.00419, 25, 65, 88, 128
-1.00427, 25, 81, 88, 208
-1.00432, 57, 1, 120, 128
-1.00437, 93, 425, 124, 488
-1.00437, 17, 337, 48, 400
-1.0044, 57, 25, 120, 88
-1.00451, 101, 1, 132, 128
-1.00453, 25, 97, 88, 160
-1.0046, 125, 113, 156, 240
-1.00465, 69, 1, 100, 128
-1.00476, 49, 97, 112, 224
-1.00476, 1, 81, 64, 208
-1.00479, 81, 25, 144, 88
-1.00484, 33, 329, 64, 392
-1.00494, 105, 369, 136, 496
-1.00494, 85, 1, 116, 64
-1.00496, 25, 153, 56, 216
-1.00499, 125, 25, 156, 88
-1.00502, 17, 305, 48, 432
-1.00502, 13, 137, 44, 200
-1.00504, 117, 145, 148, 208
-1.00506, 81, 137, 144, 200
-1.0051, 137, 305, 168, 368
-1.00513, 25, 121, 88, 184
-1.00514, 49, 137, 80, 200
-1.00517, 37, 129, 68, 192
-1.00519, 21, 81, 52, 208
-1.0052, 17, 9, 48, 72
-1.00522, 33, 33, 64, 96
-1.00524, 5, 305, 36, 432
-1.0053, 77, 433, 108, 496
-1.0054, 29, 57, 60, 120
-1.00544, 109, 433, 140, 496
-1.00545, 93, 369, 124, 496
-1.00553, 57, 49, 120, 112
-1.00556, 1, 169, 32, 232
-1.00562, 45, 33, 76, 96
-1.00564, 1, 329, 32, 392
-1.00565, 1, 297, 32, 360
-1.00567, 13, 177, 44, 240
-1.00567, 113, 25, 144, 88
-1.0057, 53, 65, 84, 192
-1.00574, 29, 1, 60, 64
-1.00574, 57, 121, 120, 184
-1.00581, 61, 1, 92, 64
-1.00591, 65, 97, 96, 224
-1.00593, 113, 17, 144, 144
-1.00596, 5, 1, 36, 64
-1.00599, 97, 1, 128, 64
-1.00631, 41, 17, 72, 144
-1.00634, 81, 369, 112, 496
-1.00661, 9, 289, 72, 352
-1.00694, 81, 57, 144, 120
-1.00695, 1, 313, 64, 376
-1.00707, 57, 81, 120, 144
-1.00717, 57, 17, 88, 144
-1.00721, 81, 81, 144, 144
-1.00745, 33, 1, 96, 256
-1.00758, 81, 113, 144, 176
-1.00821, 125, 65, 156, 192
-1.00852, 21, 129, 52, 256
-1.00869, 97, 81, 128, 208
-1.00929, 73, 49, 104, 176
-1.00968, 113, 65, 144, 192
-1.01061, 81, 81, 144, 208
-1.01103, 85, 49, 116, 176
-1.01301, 57, 49, 120, 176
