1876
-0.474564, 1, 1, 500, 333
-0.500037, 1, 33, 500, 288
-0.535008, 97, 1, 352, 333
-0.634331, 1, 1, 256, 333
-0.665184, 193, 1, 448, 333
-0.670692, 129, 33, 384, 288
-0.750822, 33, 33, 288, 288
-0.800429, 225, 65, 480, 320
-0.863448, 65, 1, 192, 333
-0.874637, 193, 1, 320, 333
-0.890867, 241, 1, 368, 333
-0.891911, 145, 1, 272, 333
-0.894231, 81, 1, 208, 256
-0.895131, 289, 65, 416, 320
-0.89518, 193, 33, 320, 288
-0.90091, 241, 33, 368, 288
-0.904981, 145, 33, 272, 288
-0.90518, 1, 49, 500, 176
-0.912702, 17, 1, 144, 333
-0.924679, 1, 161, 500, 288
-0.926084, 33, 65, 160, 320
-0.929259, 353, 1, 480, 333
-0.930358, 353, 33, 480, 288
-0.931601, 289, 1, 416, 333
-0.935775, 129, 177, 384, 304
-0.936394, 1, 97, 500, 224
-0.94028, 161, 49, 416, 176
-0.944939, 1, 1, 500, 128
-0.946791, 97, 113, 224, 240
-0.950344, 33, 177, 288, 304
-0.951368, 65, 33, 320, 160
-0.953433, 193, 129, 448, 256
-0.95506, 65, 49, 192, 176
-0.956709, 65, 129, 320, 256
-0.959316, 145, 97, 208, 224
-0.960195, 305, 81, 432, 208
-0.960907, 137, 177, 200, 304
-0.961077, 65, 81, 320, 208
-0.96115, 329, 65, 392, 192
-0.961267, 49, 177, 176, 304
-0.962059, 73, 177, 136, 304
-0.962188, 1, 209, 500, 333
-0.962545, 97, 177, 224, 304
-0.963087, 145, 49, 272, 176
-0.963542, 241, 49, 368, 176
-0.964079, 113, 177, 176, 304
-0.964366, 297, 65, 360, 192
-0.965241, 273, 129, 400, 256
-0.965698, 145, 49, 208, 176
-0.965836, 193, 129, 320, 256
-0.965859, 201, 161, 264, 288
-0.965998, 177, 177, 304, 304
-0.966019, 145, 113, 272, 240
-0.967096, 281, 161, 344, 288
-0.967168, 353, 65, 416, 128
-0.967514, 137, 97, 200, 160
-0.968134, 257, 81, 500, 208
-0.968617, 329, 81, 392, 144
-0.96881, 97, 129, 160, 256
-0.969038, 49, 97, 176, 224
-0.969486, 1, 177, 128, 304
-0.969655, 169, 113, 232, 240
-0.969895, 321, 129, 384, 256
-0.969978, 97, 185, 160, 248
-0.970143, 353, 65, 480, 192
-0.970177, 105, 33, 168, 160
-0.970404, 249, 177, 312, 304
-0.970539, 73, 113, 136, 240
-0.970611, 113, 81, 176, 208
-0.970835, 353, 65, 416, 192
-0.971224, 321, 137, 384, 200
-0.971474, 241, 129, 304, 256
-0.971582, 225, 177, 480, 304
-0.972377, 137, 177, 200, 240
-0.972705, 281, 169, 344, 232
-0.973162, 193, 177, 256, 240
-0.973181, 225, 177, 352, 304
-0.973335, 65, 177, 128, 240
-0.974572, 1, 97, 128, 224
-0.975001, 193, 33, 320, 160
-0.975351, 73, 201, 136, 264
-0.975641, 169, 49, 232, 176
-0.975928, 289, 33, 416, 160
-0.975954, 297, 65, 360, 128
-0.976386, 241, 169, 304, 232
-0.976761, 161, 105, 224, 168
-0.976877, 177, 177, 240, 304
-0.976907, 73, 49, 136, 176
-0.977021, 377, 65, 440, 128
-0.977046, 161, 161, 224, 224
-0.977274, 297, 113, 360, 176
-0.977354, 73, 153, 136, 216
-0.977843, 97, 81, 160, 144
-0.97787, 161, 49, 192, 176
-0.977893, 81, 97, 208, 160
-0.977934, 273, 65, 336, 192
-0.977959, 177, 33, 240, 288
-0.978008, 41, 177, 104, 304
-0.978155, 249, 33, 312, 288
-0.978179, 377, 65, 440, 192
-0.978187, 165, 97, 196, 160
-0.978542, 217, 177, 280, 240
-0.979216, 257, 1, 500, 128
-0.979259, 137, 121, 200, 184
-0.979278, 81, 225, 144, 288
-0.979339, 97, 161, 160, 224
-0.979353, 297, 33, 360, 288
-0.979492, 217, 113, 280, 240
-0.979561, 321, 57, 384, 120
-0.979823, 281, 113, 344, 240
-0.979849, 225, 177, 288, 304
-0.979858, 249, 49, 312, 176
-0.979913, 321, 129, 448, 256
-0.980159, 345, 121, 408, 184
-0.98053, 153, 97, 184, 160
-0.980577, 161, 1, 416, 128
-0.980653, 241, 257, 304, 320
-0.980895, 273, 57, 336, 120
-0.980897, 97, 1, 160, 256
-0.980936, 145, 1, 272, 128
-0.98096, 357, 65, 388, 192
-0.981128, 137, 73, 200, 136
-0.981148, 353, 89, 416, 152
-0.981313, 273, 65, 400, 128
-0.981377, 113, 209, 176, 272
-0.981444, 81, 169, 208, 232
-0.981488, 153, 33, 216, 288
-0.981595, 49, 193, 176, 256
-0.981628, 361, 65, 392, 128
-0.981703, 329, 17, 392, 144
-0.981799, 273, 177, 400, 304
-0.981995, 129, 185, 256, 248
-0.982134, 105, 249, 168, 312
-0.98221, 157, 97, 188, 224
-0.982245, 65, 113, 128, 176
-0.982254, 353, 1, 480, 128
-0.982316, 217, 145, 280, 208
-0.982403, 137, 153, 200, 216
-0.982412, 73, 57, 136, 120
-0.982412, 273, 137, 336, 200
-0.982483, 193, 33, 256, 160
-0.982564, 65, 1, 192, 128
-0.982663, 177, 81, 240, 144
-0.982759, 137, 201, 200, 264
-0.982808, 121, 33, 184, 288
-0.982981, 321, 81, 448, 144
-0.983227, 305, 17, 368, 144
-0.983247, 305, 161, 368, 224
-0.983334, 281, 257, 344, 320
-0.983371, 17, 49, 144, 176
-0.983372, 177, 177, 304, 240
-0.983427, 305, 137, 432, 200
-0.983484, 209, 33, 272, 288
-0.983538, 81, 121, 208, 184
-0.98364, 169, 185, 232, 248
-0.983705, 193, 113, 256, 240
-0.983834, 105, 105, 168, 168
-0.983845, 49, 129, 112, 256
-0.983845, 101, 177, 132, 304
-0.983847, 81, 249, 144, 312
-0.983854, 225, 33, 288, 160
-0.983862, 41, 193, 104, 256
-0.983909, 193, 153, 256, 216
-0.983958, 73, 161, 104, 288
-0.983995, 65, 89, 128, 152
-0.984035, 209, 145, 336, 208
-0.984044, 273, 33, 336, 288
-0.984119, 341, 137, 372, 200
-0.984166, 65, 73, 192, 136
-0.984178, 173, 113, 204, 240
-0.984263, 321, 105, 384, 168
-0.98445, 113, 1, 176, 333
-0.984454, 337, 81, 368, 208
-0.984519, 153, 1, 216, 128
-0.984551, 137, 257, 200, 320
-0.984591, 241, 121, 368, 184
-0.984626, 49, 217, 112, 280
-0.984634, 49, 225, 176, 288
-0.98476, 169, 121, 200, 184
-0.984886, 145, 177, 176, 304
-0.984927, 357, 89, 388, 152
-0.984994, 337, 65, 400, 320
-0.985251, 377, 89, 440, 152
-0.985284, 129, 233, 192, 296
-0.985317, 353, 41, 416, 104
-0.985377, 145, 49, 176, 176
-0.985428, 385, 65, 416, 128
-0.985466, 129, 105, 256, 168
-0.985479, 257, 233, 320, 296
-0.98548, 241, 1, 304, 333
-0.985519, 241, 193, 304, 256
-0.985553, 341, 65, 372, 128
-0.985572, 401, 49, 464, 112
-0.98567, 97, 137, 160, 200
-0.985748, 73, 33, 136, 288
-0.985766, 145, 97, 176, 224
-0.98594, 97, 201, 128, 264
-0.985943, 85, 161, 116, 224
-0.985991, 49, 65, 112, 192
-0.986017, 177, 97, 208, 160
-0.98604, 241, 1, 368, 128
-0.986115, 225, 177, 256, 240
-0.98615, 249, 49, 312, 112
-0.986183, 121, 49, 184, 112
-0.986202, 161, 49, 224, 112
-0.986298, 81, 49, 112, 176
-0.986345, 317, 65, 348, 128
-0.986348, 17, 161, 80, 288
-0.986351, 105, 273, 168, 333
-0.986383, 345, 129, 408, 256
-0.98645, 265, 1, 328, 333
-0.986455, 249, 145, 312, 208
-0.98649, 97, 41, 160, 104
-0.986512, 233, 225, 296, 288
-0.986556, 129, 1, 192, 128
-0.986659, 317, 65, 348, 192
-0.986701, 161, 1, 224, 333
-0.986702, 1, 185, 128, 248
-0.986727, 369, 57, 496, 120
-0.98673, 145, 177, 176, 240
-0.986745, 273, 89, 400, 152
-0.986787, 97, 209, 224, 272
-0.986864, 101, 177, 132, 240
-0.98687, 9, 209, 72, 333
-0.986948, 361, 113, 392, 176
-0.986994, 49, 249, 176, 312
-0.987004, 273, 193, 336, 256
-0.987033, 81, 1, 144, 333
-0.987033, 285, 177, 316, 304
-0.987168, 209, 49, 336, 112
-0.987177, 373, 65, 404, 128
-0.987288, 85, 113, 116, 240
-0.98741, 289, 177, 320, 240
-0.987455, 161, 81, 288, 144
-0.987495, 65, 49, 192, 112
-0.987659, 241, 169, 368, 232
-0.987736, 173, 49, 204, 176
-0.98788, 225, 177, 256, 304
-0.987943, 25, 241, 88, 304
-0.987978, 321, 57, 448, 120
-0.987988, 209, 241, 336, 304
-0.987989, 97, 145, 224, 208
-0.988072, 273, 209, 336, 333
-0.988085, 245, 129, 276, 256
-0.988152, 97, 129, 128, 256
-0.988163, 273, 17, 336, 144
-0.988186, 137, 1, 200, 333
-0.988187, 161, 137, 224, 200
-0.988195, 97, 137, 128, 200
-0.988233, 361, 33, 424, 288
-0.988406, 165, 73, 196, 136
-0.988411, 121, 161, 152, 288
-0.9885, 49, 265, 112, 328
-0.988541, 313, 161, 344, 224
-0.988715, 193, 1, 256, 333
-0.988722, 297, 137, 360, 200
-0.988763, 337, 113, 464, 176
-0.988785, 369, 121, 432, 184
-0.988798, 353, 137, 384, 200
-0.988798, 185, 113, 216, 240
-0.988808, 289, 161, 416, 224
-0.98891, 73, 185, 104, 248
-0.988972, 353, 17, 416, 144
-0.988991, 325, 153, 356, 216
-0.989051, 185, 185, 216, 248
-0.989057, 381, 65, 412, 192
-0.989146, 217, 257, 280, 320
-0.989217, 89, 193, 120, 320
-0.989341, 289, 257, 320, 320
-0.989347, 157, 161, 188, 224
-0.989362, 145, 101, 208, 132
-0.989388, 305, 65, 336, 192
-0.989437, 133, 209, 164, 333
-0.989456, 289, 1, 352, 333
-0.989467, 369, 81, 496, 144
-0.989467, 301, 169, 332, 232
-0.989476, 305, 161, 336, 288
-0.989504, 325, 129, 356, 256
-0.989504, 297, 89, 360, 152
-0.989528, 1, 137, 128, 200
-0.989557, 205, 129, 236, 256
-0.989569, 17, 161, 144, 224
-0.989608, 361, 69, 424, 100
-0.989637, 381, 97, 412, 160
-0.989671, 169, 161, 200, 224
-0.989693, 209, 265, 336, 328
-0.989699, 397, 65, 428, 128
-0.989711, 225, 129, 256, 256
-0.989723, 245, 177, 276, 304
-0.989735, 161, 145, 288, 208
-0.989826, 201, 209, 264, 333
-0.989839, 345, 129, 376, 256
-0.989886, 161, 225, 288, 288
-0.989896, 401, 33, 464, 160
-0.989931, 345, 145, 408, 208
-0.989958, 81, 73, 112, 136
-0.989994, 113, 49, 240, 112
-0.990059, 369, 49, 400, 176
-0.990061, 193, 81, 320, 208
-0.990066, 329, 73, 360, 136
-0.990074, 153, 73, 184, 136
-0.990074, 1, 105, 128, 168
-0.990083, 81, 97, 112, 160
-0.990107, 97, 257, 224, 320
-0.990147, 185, 177, 216, 304
-0.990317, 297, 41, 360, 104
-0.990345, 41, 137, 104, 200
-0.990372, 269, 177, 300, 240
-0.990393, 117, 257, 148, 320
-0.99044, 33, 273, 160, 333
-0.990463, 217, 201, 280, 264
-0.990472, 141, 97, 172, 160
-0.990485, 33, 73, 96, 136
-0.990497, 337, 77, 400, 108
-0.990516, 109, 233, 140, 296
-0.990523, 217, 1, 280, 333
-0.990558, 313, 73, 376, 104
-0.990573, 129, 233, 160, 296
-0.990589, 201, 177, 264, 208
-0.990611, 305, 65, 336, 128
-0.990654, 225, 145, 256, 208
-0.990688, 49, 241, 112, 304
-0.990707, 201, 185, 232, 248
-0.99071, 321, 145, 384, 176
-0.990717, 33, 113, 96, 176
-0.990736, 289, 113, 416, 176
-0.990777, 337, 209, 464, 333
-0.990794, 137, 181, 200, 212
-0.990806, 201, 49, 264, 112
-0.990867, 9, 265, 72, 328
-0.990878, 293, 49, 324, 176
-0.990881, 417, 265, 480, 328
-0.990883, 121, 129, 184, 256
-0.990901, 345, 89, 376, 152
-0.990933, 225, 193, 352, 256
-0.990933, 353, 257, 480, 320
-0.990969, 97, 189, 160, 220
-0.990969, 97, 33, 128, 160
-0.990972, 169, 193, 200, 256
-0.991048, 273, 177, 304, 304
-0.991052, 1, 233, 128, 296
-0.991057, 113, 209, 144, 333
-0.991066, 117, 193, 148, 256
-0.991083, 241, 145, 272, 208
-0.991098, 185, 49, 216, 176
-0.99111, 261, 209, 292, 333
-0.991148, 273, 41, 400, 104
-0.991164, 281, 233, 344, 296
-0.991194, 73, 181, 136, 212
-0.991233, 433, 49, 496, 176
-0.991247, 337, 133, 400, 164
-0.99126, 181, 121, 212, 184
-0.991338, 385, 265, 448, 328
-0.991366, 161, 189, 224, 220
-0.991372, 285, 57, 316, 120
-0.991375, 349, 113, 380, 176
-0.991411, 145, 113, 208, 144
-0.991424, 97, 233, 224, 296
-0.991437, 313, 133, 376, 164
-0.991447, 73, 213, 136, 244
-0.991468, 281, 177, 344, 208
-0.991478, 105, 173, 168, 204
-0.991502, 261, 225, 292, 288
-0.991511, 157, 185, 188, 248
-0.99154, 233, 173, 296, 204
-0.991551, 121, 101, 184, 132
-0.99157, 225, 49, 288, 112
-0.991572, 321, 33, 384, 96
-0.991624, 65, 201, 128, 232
-0.991634, 289, 265, 416, 328
-0.991635, 289, 65, 352, 96
-0.991641, 337, 89, 400, 120
-0.991643, 361, 81, 424, 112
-0.991658, 161, 169, 224, 200
-0.991697, 81, 233, 144, 264
-0.9917, 161, 249, 288, 312
-0.991746, 361, 57, 424, 88
-0.991748, 73, 169, 136, 200
-0.991752, 133, 49, 164, 176
-0.991764, 89, 201, 152, 232
-0.99181, 137, 201, 200, 232
-0.991815, 1, 81, 128, 144
-0.99185, 157, 177, 188, 304
-0.991869, 329, 1, 392, 333
-0.991909, 177, 201, 304, 264
-0.991912, 321, 157, 384, 188
-0.991914, 297, 165, 360, 196
-0.99192, 321, 61, 384, 92
-0.991923, 161, 273, 288, 333
-0.99194, 81, 245, 144, 276
-0.991942, 113, 217, 176, 248
-0.992033, 385, 69, 448, 100
-0.992041, 241, 185, 304, 216
-0.992116, 257, 161, 320, 192
-0.992156, 177, 109, 240, 140
-0.992163, 329, 97, 360, 160
-0.992164, 25, 245, 88, 276
-0.992168, 249, 1, 312, 128
-0.992169, 245, 177, 276, 240
-0.992193, 113, 233, 176, 264
-0.992212, 329, 121, 360, 184
-0.992216, 169, 273, 232, 333
-0.992226, 401, 57, 464, 88
-0.992234, 209, 233, 272, 296
-0.992246, 57, 241, 88, 304
-0.992252, 369, 113, 496, 240
-0.992258, 89, 45, 152, 76
-0.992262, 113, 201, 176, 232
-0.992262, 289, 153, 320, 216
-0.992268, 313, 85, 376, 116
-0.992268, 105, 253, 168, 284
-0.992273, 105, 85, 168, 116
-0.992277, 65, 113, 128, 144
-0.992307, 73, 133, 136, 164
-0.992359, 121, 265, 184, 296
-0.992361, 197, 177, 228, 304
-0.992362, 281, 145, 344, 176
-0.992363, 361, 133, 424, 164
-0.99237, 245, 201, 276, 264
-0.992382, 189, 81, 220, 144
-0.992383, 177, 113, 304, 176
-0.992397, 81, 49, 112, 112
-0.992406, 357, 129, 388, 256
-0.992408, 281, 265, 344, 296
-0.99244, 1, 1, 128, 128
-0.992461, 261, 161, 292, 288
-0.992466, 41, 233, 104, 264
-0.99247, 173, 177, 204, 304
-0.992476, 105, 113, 168, 144
-0.992476, 129, 257, 160, 320
-0.992477, 153, 89, 216, 120
-0.992488, 161, 1, 192, 128
-0.992495, 49, 213, 112, 244
-0.992495, 73, 157, 136, 188
-0.992499, 185, 189, 248, 220
-0.992509, 337, 121, 400, 152
-0.992527, 165, 105, 196, 136
-0.99255, 369, 93, 432, 124
-0.99255, 241, 197, 304, 228
-0.99256, 349, 137, 380, 168
-0.992578, 289, 77, 352, 108
-0.992578, 161, 41, 288, 104
-0.992585, 113, 289, 176, 320
-0.992598, 241, 233, 272, 296
-0.992608, 25, 201, 88, 232
-0.992627, 249, 53, 312, 84
-0.992627, 257, 245, 320, 276
-0.99263, 393, 49, 424, 176
-0.992642, 137, 237, 200, 268
-0.992644, 313, 121, 376, 152
-0.992661, 97, 265, 160, 296
-0.992662, 149, 101, 180, 132
-0.992673, 257, 173, 320, 204
-0.992676, 105, 277, 168, 308
-0.992677, 289, 129, 320, 256
-0.992685, 257, 269, 320, 300
-0.99269, 233, 229, 296, 260
-0.992695, 393, 69, 424, 100
-0.9927, 365, 77, 396, 108
-0.992702, 73, 1, 136, 128
-0.992705, 233, 261, 296, 292
-0.992713, 137, 277, 200, 308
-0.992722, 177, 97, 240, 128
-0.992722, 213, 145, 244, 208
-0.992723, 97, 97, 160, 128
-0.992724, 353, 145, 416, 176
-0.992724, 361, 133, 392, 164
-0.992725, 49, 189, 112, 220
-0.992736, 137, 253, 200, 284
-0.992738, 305, 249, 368, 312
-0.992739, 249, 217, 312, 248
-0.992743, 133, 73, 164, 136
-0.992744, 169, 121, 232, 152
-0.99277, 365, 137, 396, 200
-0.992776, 337, 101, 400, 132
-0.992791, 425, 261, 488, 292
-0.992801, 25, 213, 88, 244
-0.992806, 273, 281, 336, 312
-0.992809, 257, 233, 320, 264
-0.992825, 73, 97, 136, 128
-0.992833, 65, 257, 128, 288
-0.992837, 393, 233, 456, 296
-0.992839, 289, 129, 352, 160
-0.992844, 213, 169, 244, 232
-0.992855, 33, 297, 96, 328
-0.992877, 377, 17, 440, 144
-0.992884, 233, 249, 296, 280
-0.992885, 73, 77, 136, 108
-0.992889, 213, 177, 244, 304
-0.992889, 345, 73, 376, 104
-0.992897, 137, 217, 200, 248
-0.9929, 225, 177, 256, 208
-0.992902, 337, 137, 368, 168
-0.992906, 273, 201, 336, 232
-0.992911, 369, 121, 432, 152
-0.992911, 73, 65, 136, 96
-0.992912, 381, 69, 412, 100
-0.992919, 129, 81, 192, 112
-0.99292, 185, 105, 248, 168
-0.992929, 153, 181, 184, 212
-0.992937, 257, 257, 320, 288
-0.992942, 125, 169, 156, 232
-0.992949, 105, 161, 168, 192
-0.99295, 393, 261, 456, 292
-0.992954, 9, 301, 72, 332
-0.992958, 401, 73, 464, 136
-0.992963, 425, 249, 488, 280
-0.992966, 241, 217, 368, 280
-0.992976, 41, 169, 104, 200
-0.992983, 313, 69, 344, 100
-0.992997, 97, 141, 160, 172
-0.993008, 145, 125, 208, 156
-0.993009, 385, 81, 448, 112
-0.993012, 409, 69, 472, 100
-0.993018, 301, 173, 332, 204
-0.993019, 209, 165, 272, 196
-0.99302, 113, 125, 176, 156
-0.993026, 425, 57, 488, 120
-0.993028, 57, 285, 120, 316
-0.99304, 101, 81, 132, 208
-0.993051, 173, 121, 204, 152
-0.993054, 153, 289, 216, 320
-0.993058, 325, 153, 356, 184
-0.993067, 289, 89, 352, 120
-0.993068, 285, 181, 316, 212
-0.993076, 97, 113, 128, 176
-0.993082, 349, 85, 380, 116
-0.993082, 369, 113, 432, 240
-0.993096, 185, 129, 248, 192
-0.993097, 313, 165, 344, 196
-0.993109, 305, 113, 336, 240
-0.993113, 233, 161, 296, 192
-0.993113, 157, 89, 188, 120
-0.993116, 333, 73, 364, 104
-0.993117, 121, 49, 184, 80
-0.993122, 241, 281, 304, 312
-0.993134, 185, 225, 248, 288
-0.993145, 105, 181, 136, 212
-0.993149, 433, 69, 496, 100
-0.993153, 73, 145, 136, 176
-0.993153, 425, 301, 488, 332
-0.993154, 185, 189, 216, 220
-0.993158, 93, 213, 124, 244
-0.993161, 177, 105, 208, 136
-0.993169, 425, 53, 488, 84
-0.993181, 121, 149, 184, 180
-0.993188, 201, 185, 232, 216
-0.993198, 381, 89, 412, 120
-0.993198, 137, 105, 168, 136
-0.9932, 201, 49, 264, 80
-0.993202, 345, 301, 408, 332
-0.993206, 365, 65, 396, 96
-0.993207, 337, 85, 368, 116
-0.993209, 125, 245, 156, 276
-0.993214, 169, 189, 200, 220
-0.993218, 161, 49, 224, 80
-0.99322, 109, 41, 140, 104
-0.993223, 193, 201, 256, 232
-0.993224, 265, 297, 328, 328
-0.99323, 185, 161, 248, 192
-0.993236, 365, 145, 396, 176
-0.993236, 301, 145, 332, 208
-0.993241, 273, 213, 336, 244
-0.993241, 85, 173, 116, 204
-0.993243, 101, 193, 132, 224
-0.993244, 41, 257, 104, 288
-0.993245, 33, 93, 96, 124
-0.993245, 81, 105, 112, 136
-0.993251, 273, 201, 304, 264
-0.993252, 57, 245, 120, 276
-0.993273, 33, 161, 96, 224
-0.993277, 213, 181, 244, 212
-0.993281, 365, 89, 396, 120
-0.993287, 161, 117, 192, 148
-0.993294, 337, 149, 368, 180
-0.993295, 25, 217, 88, 280
-0.993296, 101, 233, 132, 264
-0.993299, 129, 261, 160, 292
-0.993302, 113, 201, 144, 232
-0.993303, 41, 65, 104, 320
-0.993307, 329, 125, 360, 156
-0.99332, 105, 169, 136, 200
-0.993322, 105, 245, 136, 276
-0.993323, 273, 185, 304, 216
-0.993325, 349, 61, 380, 92
-0.993325, 169, 93, 200, 124
-0.993328, 393, 57, 424, 88
-0.993342, 121, 229, 152, 260
-0.993343, 85, 117, 116, 148
-0.99335, 113, 25, 240, 88
-0.993354, 185, 117, 216, 148
-0.993356, 349, 125, 380, 156
-0.99336, 121, 217, 152, 248
-0.993361, 57, 1, 120, 333
-0.993365, 89, 161, 120, 192
-0.993369, 361, 121, 392, 152
-0.99337, 285, 277, 316, 308
-0.993371, 261, 229, 292, 260
-0.993378, 133, 273, 164, 304
-0.993378, 273, 217, 304, 248
-0.993378, 373, 133, 404, 164
-0.993382, 245, 177, 276, 208
-0.993385, 77, 57, 108, 88
-0.993396, 141, 181, 172, 212
-0.993402, 81, 81, 112, 112
-0.993402, 73, 233, 104, 264
-0.993404, 177, 177, 208, 208
-0.993405, 73, 221, 104, 252
-0.993406, 301, 61, 332, 92
-0.993408, 97, 137, 128, 168
-0.993416, 285, 165, 316, 196
-0.993419, 73, 253, 104, 284
-0.993421, 65, 265, 96, 328
-0.993422, 81, 93, 112, 124
-0.993423, 241, 165, 272, 196
-0.993428, 241, 245, 272, 276
-0.99343, 321, 81, 352, 112
-0.993433, 273, 229, 304, 260
-0.993442, 153, 169, 184, 200
-0.993444, 265, 173, 296, 204
-0.993444, 109, 33, 140, 160
-0.993447, 289, 261, 320, 292
-0.99345, 273, 197, 304, 228
-0.993452, 113, 257, 144, 288
-0.993463, 149, 113, 180, 144
-0.993469, 289, 61, 320, 92
-0.99347, 77, 69, 108, 100
-0.993474, 141, 81, 172, 112
-0.993474, 277, 245, 308, 276
-0.993477, 73, 205, 104, 236
-0.993481, 453, 61, 484, 92
-0.993488, 53, 233, 84, 264
-0.993488, 141, 205, 172, 236
-0.99349, 329, 61, 360, 92
-0.99349, 105, 221, 136, 252
-0.993492, 117, 269, 148, 300
-0.993493, 81, 185, 112, 216
-0.993493, 281, 49, 312, 176
-0.993494, 17, 41, 144, 104
-0.993495, 85, 249, 116, 280
-0.993497, 241, 265, 272, 296
-0.993499, 405, 73, 436, 104
-0.993501, 245, 225, 276, 256
-0.993501, 97, 149, 128, 180
-0.993509, 89, 197, 120, 228
-0.993509, 349, 149, 380, 180
-0.993511, 61, 245, 92, 276
-0.993514, 393, 81, 424, 112
-0.993515, 69, 265, 100, 296
-0.993517, 133, 169, 164, 200
-0.993517, 205, 169, 236, 200
-0.993518, 145, 193, 176, 224
-0.993519, 189, 101, 220, 132
-0.993519, 69, 289, 100, 320
-0.99352, 261, 241, 292, 272
-0.993521, 45, 297, 76, 328
-0.993523, 121, 189, 152, 220
-0.993523, 261, 33, 292, 160
-0.993524, 329, 101, 360, 132
-0.993525, 137, 285, 168, 316
-0.993531, 309, 145, 340, 176
-0.993536, 93, 49, 124, 80
-0.993536, 337, 225, 464, 288
-0.993538, 277, 233, 308, 296
-0.99354, 69, 181, 100, 212
-0.993542, 301, 77, 332, 108
-0.993543, 113, 45, 144, 76
-0.993545, 225, 73, 352, 136
-0.993548, 165, 77, 196, 108
-0.993555, 381, 105, 412, 136
-0.993556, 169, 149, 200, 180
-0.993557, 133, 93, 164, 124
-0.993557, 65, 101, 96, 132
-0.993559, 85, 233, 116, 264
-0.993564, 185, 89, 216, 120
-0.993566, 413, 61, 444, 92
-0.993566, 301, 161, 332, 192
-0.99357, 1, 209, 128, 272
-0.99357, 29, 301, 60, 332
-0.99357, 61, 193, 92, 320
-0.993574, 121, 41, 152, 104
-0.993622, 277, 265, 308, 328
-0.993651, 317, 129, 348, 192
-0.993667, 289, 241, 416, 304
-0.993682, 273, 193, 400, 256
-0.993737, 169, 249, 232, 312
-0.993799, 129, 185, 384, 248
-0.99382, 345, 33, 376, 160
-0.993839, 201, 161, 232, 224
-0.993874, 113, 73, 240, 136
-0.994009, 329, 209, 392, 333
-0.994009, 161, 25, 224, 88
-0.994014, 321, 33, 448, 96
-0.994034, 361, 265, 424, 328
-0.994067, 333, 33, 364, 160
-0.994077, 305, 273, 368, 333
-0.994126, 273, 81, 336, 144
-0.994141, 117, 81, 148, 208
-0.994155, 179, 97, 194, 160
-0.994168, 177, 73, 208, 136
-0.994208, 113, 161, 144, 224
-0.994237, 65, 217, 96, 280
-0.994247, 161, 217, 224, 280
-0.994249, 317, 17, 348, 144
-0.994264, 73, 97, 104, 224
-0.994301, 77, 209, 108, 333
-0.994309, 33, 17, 96, 144
-0.994334, 433, 233, 496, 296
-0.994351, 209, 25, 336, 88
-0.994357, 181, 153, 212, 216
-0.99438, 369, 89, 400, 152
-0.994451, 329, 273, 392, 333
-0.994463, 121, 33, 152, 160
-0.994507, 145, 201, 176, 264
-0.994548, 241, 257, 272, 320
-0.994584, 273, 33, 336, 96
-0.994591, 329, 49, 360, 112
-0.994596, 69, 241, 100, 304
-0.9946, 65, 105, 320, 168
-0.994606, 85, 137, 116, 200
-0.994691, 73, 33, 136, 96
-0.99472, 85, 241, 116, 304
-0.994733, 161, 65, 416, 128
-0.994768, 145, 1, 176, 128
-0.994792, 157, 121, 188, 184
-0.994817, 1, 57, 500, 120
-0.994845, 33, 177, 288, 240
-0.994861, 285, 209, 316, 272
-0.994865, 249, 105, 312, 168
-0.994888, 305, 41, 336, 104
-0.994906, 109, 129, 140, 256
-0.994912, 129, 25, 192, 88
-0.994912, 193, 265, 256, 328
-0.994915, 369, 33, 496, 96
-0.994933, 33, 49, 96, 112
-0.994948, 85, 217, 116, 280
-0.994981, 145, 121, 176, 184
-0.995066, 289, 217, 416, 280
-0.995132, 241, 33, 272, 160
-0.995162, 81, 101, 208, 132
-0.995165, 159, 89, 174, 152
-0.995174, 65, 145, 320, 208
-0.995178, 265, 257, 296, 320
-0.995196, 97, 41, 128, 104
-0.995198, 377, 41, 440, 104
-0.995233, 193, 201, 256, 264
-0.995248, 369, 97, 400, 224
-0.995255, 165, 97, 180, 160
-0.995268, 193, 161, 448, 224
-0.995287, 289, 77, 416, 108
-0.995306, 65, 81, 96, 144
-0.995321, 141, 265, 172, 328
-0.995355, 173, 97, 188, 160
-0.995377, 33, 1, 96, 333
-0.995401, 129, 113, 160, 240
-0.99541, 165, 49, 196, 112
-0.995412, 137, 49, 168, 112
-0.995445, 73, 121, 104, 184
-0.995503, 161, 137, 416, 200
-0.995536, 353, 1, 416, 333
-0.995546, 369, 193, 432, 320
-0.995547, 161, 97, 416, 160
-0.995608, 369, 169, 496, 232
-0.995658, 185, 105, 200, 168
-0.995674, 65, 25, 192, 88
-0.995718, 197, 33, 228, 160
-0.995742, 409, 65, 440, 128
-0.995754, 69, 49, 100, 176
-0.99577, 77, 265, 108, 328
-0.995861, 369, 241, 432, 304
-0.995873, 273, 133, 400, 164
-0.995904, 201, 25, 264, 88
-0.995922, 269, 153, 300, 216
-0.995925, 65, 49, 320, 112
-0.99594, 273, 129, 304, 256
-0.995966, 1, 17, 128, 80
-0.995982, 357, 81, 372, 144
-0.996029, 353, 69, 480, 100
-0.99604, 81, 185, 208, 216
-0.996058, 73, 273, 136, 333
-0.996065, 257, 137, 500, 200
-0.996078, 65, 81, 320, 144
-0.996093, 145, 185, 272, 216
-0.99613, 289, 233, 320, 296
-0.996148, 107, 177, 122, 240
-0.996153, 129, 101, 256, 132
-0.996162, 273, 49, 304, 112
-0.996176, 249, 25, 312, 88
-0.996177, 161, 17, 288, 80
-0.996189, 301, 265, 332, 328
-0.99619, 363, 65, 378, 128
-0.996219, 273, 113, 336, 176
-0.996229, 425, 33, 488, 96
-0.99623, 369, 201, 496, 264
-0.996243, 321, 141, 448, 172
-0.99628, 221, 33, 252, 160
-0.996296, 49, 197, 176, 228
-0.996353, 273, 65, 400, 96
-0.996361, 395, 65, 410, 128
-0.996364, 129, 241, 384, 304
-0.996385, 81, 117, 208, 148
-0.996391, 65, 173, 192, 204
-0.996405, 217, 121, 280, 184
-0.996417, 33, 257, 64, 320
-0.996429, 377, 41, 408, 104
-0.996435, 385, 73, 400, 136
-0.996456, 385, 1, 448, 256
-0.996457, 65, 89, 192, 120
-0.996465, 17, 273, 48, 333
-0.996477, 297, 209, 360, 333
-0.996487, 353, 57, 368, 120
-0.996495, 179, 121, 194, 184
-0.99651, 225, 265, 256, 328
-0.996527, 105, 81, 136, 144
-0.996527, 225, 97, 352, 160
-0.996575, 393, 185, 456, 248
-0.996587, 1, 241, 64, 304
-0.996589, 177, 41, 208, 104
-0.9966, 353, 185, 416, 248
-0.99661, 313, 265, 344, 328
-0.996618, 355, 121, 370, 184
-0.996626, 357, 17, 388, 144
-0.996626, 113, 161, 128, 224
-0.996631, 373, 121, 388, 184
-0.99665, 97, 221, 224, 252
-0.996681, 293, 177, 308, 240
-0.996693, 225, 73, 288, 136
-0.996742, 49, 217, 176, 248
-0.996746, 315, 169, 330, 232
-0.996747, 321, 185, 448, 248
-0.996761, 441, 257, 472, 320
-0.996778, 129, 265, 384, 328
-0.996783, 393, 41, 424, 104
-0.996786, 305, 17, 336, 144
-0.996809, 193, 181, 320, 212
-0.996819, 375, 65, 390, 128
-0.996862, 153, 105, 168, 168
-0.996864, 361, 121, 376, 184
-0.996885, 401, 57, 416, 120
-0.996891, 1, 81, 500, 144
-0.996897, 173, 121, 188, 184
-0.996912, 169, 73, 184, 136
-0.996915, 1, 113, 500, 176
-0.996926, 151, 177, 166, 240
-0.996939, 173, 1, 204, 128
-0.996941, 195, 185, 210, 248
-0.996943, 321, 193, 384, 256
-0.996966, 241, 49, 272, 112
-0.996983, 225, 265, 480, 328
-0.996989, 433, 185, 496, 248
-0.996991, 189, 33, 220, 288
-0.996998, 117, 225, 132, 288
-0.997003, 145, 145, 176, 208
-0.997009, 283, 185, 298, 248
-0.99701, 97, 209, 224, 240
-0.997013, 305, 89, 432, 120
-0.997032, 239, 177, 254, 240
-0.997035, 123, 241, 138, 304
-0.997044, 345, 41, 376, 104
-0.99705, 353, 81, 480, 112
-0.997059, 1, 153, 500, 216
-0.997061, 83, 57, 98, 120
-0.997068, 253, 257, 284, 320
-0.997086, 335, 73, 350, 136
-0.997098, 257, 65, 500, 128
-0.997099, 257, 41, 288, 104
-0.9971, 377, 1, 440, 333
-0.997101, 97, 225, 128, 288
-0.99711, 343, 65, 358, 128
-0.997111, 49, 233, 176, 264
-0.997116, 33, 185, 160, 216
-0.997128, 325, 65, 340, 128
-0.997134, 205, 49, 236, 112
-0.997147, 89, 145, 104, 208
-0.997167, 351, 81, 366, 144
-0.997171, 129, 257, 144, 320
-0.997187, 149, 41, 180, 104
-0.997192, 53, 265, 84, 328
-0.997193, 297, 209, 360, 272
-0.997216, 291, 249, 306, 312
-0.99722, 33, 209, 64, 333
-0.997223, 189, 185, 204, 248
-0.997228, 363, 89, 378, 152
-0.997241, 209, 169, 336, 200
-0.997252, 229, 241, 260, 304
-0.997261, 353, 137, 480, 200
-0.997263, 457, 65, 488, 128
-0.997264, 345, 105, 360, 168
-0.997269, 97, 197, 224, 228
-0.997273, 171, 161, 186, 224
-0.997284, 365, 145, 380, 208
-0.997284, 235, 153, 250, 216
-0.997286, 321, 161, 336, 224
-0.997297, 317, 41, 348, 104
-0.997305, 179, 161, 194, 224
-0.997306, 65, 49, 192, 80
-0.997308, 273, 121, 400, 152
-0.997312, 321, 129, 448, 160
-0.997312, 193, 41, 448, 104
-0.997326, 319, 65, 334, 128
-0.997336, 329, 233, 392, 296
-0.997345, 93, 81, 124, 144
-0.997359, 369, 65, 384, 128
-0.99736, 305, 153, 432, 184
-0.997372, 171, 185, 186, 248
-0.997384, 99, 193, 114, 256
-0.997393, 283, 265, 298, 328
-0.997407, 117, 137, 148, 200
-0.99742, 341, 137, 356, 200
-0.99742, 49, 245, 176, 276
-0.997424, 53, 217, 84, 280
-0.997431, 145, 89, 272, 120
-0.997443, 257, 17, 384, 80
-0.997452, 241, 81, 272, 208
-0.997452, 133, 161, 164, 288
-0.997463, 407, 57, 422, 120
-0.997469, 147, 97, 162, 160
-0.997473, 181, 73, 196, 136
-0.997475, 367, 121, 382, 184
-0.997478, 119, 193, 134, 256
-0.997488, 201, 185, 216, 248
-0.997489, 113, 169, 240, 200
-0.997489, 349, 129, 364, 192
-0.997494, 225, 177, 240, 240
-0.997502, 383, 97, 398, 160
-0.997502, 101, 113, 116, 176
-0.997503, 219, 177, 234, 240
-0.997515, 49, 25, 112, 88
-0.99754, 225, 25, 288, 88
-0.997544, 49, 261, 176, 292
-0.997548, 289, 165, 416, 196
-0.997556, 87, 81, 102, 144
-0.997559, 139, 249, 154, 312
-0.99756, 145, 201, 160, 264
-0.997572, 147, 73, 162, 136
-0.997573, 157, 177, 172, 240
-0.997581, 65, 217, 320, 280
-0.997583, 179, 101, 194, 132
-0.997591, 175, 73, 190, 136
-0.997595, 173, 65, 204, 320
-0.997598, 81, 129, 208, 160
-0.997615, 309, 169, 324, 232
-0.997625, 85, 1, 116, 128
-0.997633, 307, 65, 322, 128
-0.997639, 17, 173, 144, 204
-0.997644, 159, 113, 174, 176
-0.997645, 165, 153, 180, 216
-0.997646, 93, 209, 108, 272
-0.997666, 159, 97, 174, 128
-0.997666, 359, 73, 374, 104
-0.997669, 449, 33, 480, 160
-0.99767, 225, 233, 480, 296
-0.997676, 327, 153, 342, 216
-0.99768, 229, 153, 244, 216
-0.997681, 257, 89, 500, 152
-0.997683, 301, 33, 332, 288
-0.997683, 209, 185, 224, 248
-0.997684, 369, 137, 384, 168
-0.997684, 313, 57, 328, 120
-0.997685, 241, 81, 368, 112
-0.997687, 241, 145, 368, 176
-0.997697, 331, 129, 346, 192
-0.997709, 263, 233, 278, 296
-0.997716, 359, 145, 374, 208
-0.997717, 185, 109, 200, 140
-0.997727, 111, 201, 126, 264
-0.997728, 179, 193, 194, 256
-0.997728, 289, 101, 416, 132
-0.997739, 285, 233, 300, 296
-0.997744, 113, 1, 240, 64
-0.997744, 145, 113, 272, 144
-0.997748, 281, 1, 312, 128
-0.997748, 147, 265, 162, 328
-0.997752, 299, 177, 314, 240
-0.997761, 307, 145, 322, 208
-0.997765, 333, 153, 348, 216
-0.997765, 119, 169, 134, 232
-0.997771, 355, 133, 370, 164
-0.997775, 1, 201, 64, 264
-0.997777, 273, 177, 400, 208
-0.997785, 87, 225, 102, 288
-0.997805, 225, 269, 352, 300
-0.997805, 363, 133, 378, 164
-0.997818, 75, 185, 90, 248
-0.997823, 231, 177, 246, 240
-0.997824, 65, 285, 192, 316
-0.997827, 209, 249, 336, 280
-0.997829, 97, 153, 112, 216
-0.997837, 33, 297, 160, 328
-0.997842, 103, 137, 118, 200
-0.997846, 1, 161, 128, 192
-0.997848, 153, 73, 168, 136
-0.997854, 353, 57, 480, 88
-0.997854, 381, 17, 412, 144
-0.997858, 285, 209, 300, 272
-0.997858, 161, 33, 192, 288
-0.997862, 209, 49, 336, 80
-0.997874, 225, 65, 352, 96
-0.997879, 33, 273, 288, 333
-0.99788, 289, 273, 304, 333
-0.997881, 81, 145, 208, 176
-0.997888, 321, 137, 336, 200
-0.99789, 95, 129, 110, 192
-0.997891, 209, 33, 240, 160
-0.997921, 371, 89, 386, 152
-0.997927, 257, 113, 500, 176
-0.997928, 221, 33, 252, 288
-0.99793, 189, 81, 204, 144
-0.99793, 93, 105, 108, 168
-0.997933, 241, 233, 256, 296
-0.997935, 209, 161, 224, 224
-0.997941, 301, 57, 316, 120
-0.997957, 353, 217, 416, 280
-0.997961, 369, 1, 400, 128
-0.997966, 305, 53, 432, 84
-0.997967, 97, 253, 224, 284
-0.997971, 289, 33, 320, 288
-0.997972, 313, 33, 344, 288
-0.997976, 145, 269, 272, 300
-0.998013, 191, 113, 206, 176
-0.998013, 299, 265, 314, 328
-0.998015, 95, 73, 110, 136
-0.998027, 221, 145, 236, 208
-0.99803, 93, 33, 124, 288
-0.998046, 33, 241, 288, 304
-0.998048, 159, 145, 174, 208
-0.99805, 159, 57, 174, 120
-0.998052, 123, 41, 138, 104
-0.998054, 87, 121, 102, 184
-0.998055, 315, 137, 330, 200
-0.998057, 201, 33, 232, 288
-0.998058, 77, 89, 92, 152
-0.998059, 369, 77, 384, 108
-0.998071, 65, 157, 192, 188
-0.998071, 65, 273, 192, 304
-0.998079, 135, 273, 150, 333
-0.998085, 291, 153, 306, 216
-0.998086, 371, 145, 386, 208
-0.998091, 1, 197, 128, 228
-0.998096, 171, 105, 186, 136
-0.998097, 245, 137, 260, 200
-0.998103, 403, 69, 418, 100
-0.998104, 215, 153, 230, 216
-0.998106, 253, 249, 268, 312
-0.998107, 67, 249, 82, 312
-0.998117, 361, 65, 392, 320
-0.998127, 129, 49, 256, 80
-0.998129, 241, 157, 368, 188
-0.998129, 397, 69, 412, 100
-0.998131, 169, 49, 184, 112
-0.998141, 77, 33, 108, 288
-0.998142, 129, 233, 256, 264
-0.998144, 179, 121, 194, 152
-0.99817, 321, 117, 448, 148
-0.998174, 203, 161, 218, 224
-0.998176, 339, 97, 354, 160
-0.998182, 65, 77, 192, 108
-0.998183, 163, 177, 178, 240
-0.998185, 167, 121, 182, 184
-0.998186, 323, 161, 338, 192
-0.998187, 353, 1, 480, 64
-0.998187, 17, 109, 144, 140
-0.998188, 385, 73, 400, 104
-0.998193, 391, 89, 406, 152
-0.998197, 245, 33, 276, 288
-0.998199, 185, 129, 200, 192
-0.998203, 325, 33, 356, 288
-0.998205, 413, 65, 428, 128
-0.998208, 111, 225, 126, 288
-0.99821, 425, 209, 488, 333
-0.998213, 111, 177, 126, 208
-0.998225, 353, 73, 368, 104
-0.998227, 391, 69, 406, 100
-0.99823, 133, 1, 164, 128
-0.998236, 65, 25, 320, 88
-0.998238, 177, 285, 304, 316
-0.998238, 225, 237, 352, 268
-0.998246, 165, 97, 180, 128
-0.99825, 277, 33, 308, 288
-0.998251, 17, 133, 144, 164
-0.998252, 225, 209, 480, 272
-0.998266, 313, 173, 328, 204
-0.99827, 153, 101, 168, 132
-0.998276, 369, 93, 496, 124
-0.998277, 245, 241, 276, 256
-0.998278, 73, 235, 104, 250
-0.998278, 265, 177, 296, 192
-0.998278, 281, 273, 312, 288
-0.998279, 273, 199, 304, 214
-0.998279, 375, 133, 390, 164
-0.99828, 381, 107, 412, 122
-0.99828, 265, 237, 296, 252
-0.99828, 165, 91, 196, 106
-0.99828, 85, 185, 116, 200
-0.99828, 185, 99, 216, 114
-0.99828, 289, 287, 320, 302
-0.998281, 73, 223, 104, 238
-0.998281, 53, 247, 84, 262
-0.998281, 185, 121, 216, 136
-0.998283, 373, 69, 404, 84
-0.998283, 133, 99, 164, 114
-0.998284, 241, 171, 272, 186
-0.998285, 293, 67, 324, 82
-0.998285, 245, 183, 276, 198
-0.998286, 101, 233, 132, 248
-0.998286, 385, 89, 400, 120
-0.998286, 121, 223, 152, 238
-0.998287, 369, 135, 400, 150
-0.998288, 189, 105, 220, 120
-0.998288, 333, 133, 364, 148
-0.998288, 245, 235, 276, 250
-0.998289, 341, 91, 372, 106
-0.998289, 149, 33, 180, 288
-0.998289, 29, 311, 60, 326
-0.99829, 153, 177, 168, 208
-0.99829, 273, 231, 304, 246
-0.99829, 137, 283, 168, 298
-0.99829, 133, 275, 164, 290
-0.998291, 73, 263, 104, 278
-0.998291, 81, 93, 112, 108
-0.998291, 241, 275, 272, 290
-0.998291, 153, 189, 184, 204
-0.998292, 161, 197, 288, 228
-0.998292, 73, 243, 104, 258
-0.998292, 325, 95, 356, 110
-0.998292, 269, 271, 300, 286
-0.998292, 361, 129, 392, 144
-0.998293, 77, 69, 108, 84
-0.998293, 321, 75, 352, 90
-0.998294, 145, 205, 176, 220
-0.998294, 373, 149, 404, 164
-0.998295, 1, 149, 128, 180
-0.998295, 105, 241, 136, 256
-0.998295, 189, 115, 220, 130
-0.998295, 133, 267, 164, 282
-0.998296, 329, 103, 360, 118
-0.998296, 353, 85, 368, 116
-0.998297, 273, 187, 304, 202
-0.998298, 89, 121, 120, 136
-0.998299, 109, 257, 140, 272
-0.998299, 329, 83, 360, 98
-0.998301, 273, 219, 304, 234
-0.998301, 93, 167, 124, 182
-0.998301, 65, 257, 96, 272
-0.998302, 345, 1, 376, 256
-0.998304, 177, 105, 208, 120
-0.998306, 137, 179, 168, 194
-0.998308, 285, 177, 316, 192
-0.998308, 121, 229, 152, 244
-0.998309, 305, 67, 336, 82
-0.998309, 329, 159, 360, 174
-0.998309, 377, 143, 408, 158
-0.998311, 357, 153, 388, 168
-0.998311, 375, 73, 390, 104
-0.998313, 285, 279, 316, 294
-0.998313, 345, 133, 376, 148
-0.998313, 291, 185, 306, 216
-0.998313, 81, 99, 112, 114
-0.998314, 241, 269, 272, 284
-0.998315, 353, 89, 384, 104
-0.998315, 245, 177, 276, 192
-0.998316, 321, 89, 352, 104
-0.998318, 93, 209, 124, 224
-0.998318, 289, 267, 320, 282
-0.998318, 385, 79, 416, 94
-0.998319, 129, 255, 160, 270
-0.998319, 301, 173, 332, 188
-0.99832, 453, 65, 484, 80
-0.998321, 329, 139, 360, 154
-0.998322, 105, 177, 136, 192
-0.998324, 381, 85, 412, 100
-0.998324, 361, 77, 392, 92
-0.998324, 173, 121, 204, 136
-0.998325, 365, 91, 396, 106
-0.998325, 313, 169, 344, 184
-0.998331, 101, 225, 132, 240
-0.998332, 85, 115, 116, 130
-0.998333, 161, 119, 192, 134
-0.998333, 329, 153, 360, 168
-0.998334, 177, 185, 208, 200
-0.998334, 165, 189, 196, 204
-0.998335, 149, 107, 180, 122
-0.998335, 137, 105, 168, 120
-0.998336, 101, 199, 132, 214
-0.998337, 121, 235, 152, 250
-0.998338, 237, 177, 252, 208
-0.99834, 337, 77, 368, 92
-0.998341, 353, 83, 384, 98
-0.998343, 125, 65, 156, 320
-0.998347, 81, 105, 112, 120
-0.998347, 113, 1, 144, 256
-0.998347, 359, 89, 374, 120
-0.998347, 125, 249, 156, 264
-0.998349, 145, 95, 176, 110
-0.99835, 125, 243, 156, 258
-0.99835, 341, 151, 372, 166
-0.998351, 177, 217, 304, 248
-0.998355, 93, 215, 124, 230
-0.998358, 313, 175, 344, 190
-0.998359, 129, 261, 160, 276
-0.998361, 105, 185, 136, 200
-0.998364, 349, 71, 380, 86
-0.998369, 101, 193, 132, 208
-0.998371, 171, 189, 186, 220
-0.998372, 349, 137, 364, 168
-0.998372, 385, 93, 416, 108
-0.998373, 261, 33, 292, 288
-0.998377, 361, 71, 392, 86
-0.998381, 205, 185, 236, 200
-0.998381, 353, 257, 480, 288
-0.998381, 203, 185, 218, 216
-0.998386, 341, 139, 372, 154
-0.998388, 177, 193, 208, 208
-0.998391, 309, 73, 340, 88
-0.998392, 333, 71, 364, 86
-0.998393, 343, 73, 358, 104
-0.998393, 361, 147, 392, 162
-0.998393, 189, 189, 220, 204
-0.998397, 393, 193, 456, 320
-0.998399, 285, 183, 316, 198
-0.998409, 365, 141, 396, 156
-0.998409, 177, 237, 304, 268
-0.998413, 185, 121, 200, 152
-0.998413, 373, 75, 404, 90
-0.998414, 165, 97, 196, 112
-0.998414, 409, 69, 424, 100
-0.998415, 1, 213, 128, 244
-0.998417, 331, 153, 346, 184
-0.99842, 149, 183, 180, 198
-0.998426, 289, 261, 416, 292
-0.998429, 341, 85, 372, 100
-0.998431, 1, 229, 128, 260
-0.998435, 301, 179, 332, 194
-0.998435, 173, 111, 204, 126
-0.998439, 357, 135, 388, 150
-0.99844, 107, 189, 122, 220
-0.998463, 257, 185, 500, 248
-0.998463, 307, 177, 322, 208
-0.998463, 283, 185, 298, 216
-0.998474, 225, 179, 256, 194
-0.998477, 365, 65, 380, 96
-0.998477, 393, 71, 424, 86
-0.998484, 225, 133, 352, 164
-0.998485, 191, 113, 206, 144
-0.998497, 321, 77, 384, 92
-0.998498, 169, 85, 184, 116
-0.998502, 171, 117, 186, 148
-0.998502, 365, 85, 396, 100
-0.998503, 117, 169, 132, 200
-0.998505, 145, 105, 208, 120
-0.998506, 341, 145, 372, 160
-0.998508, 315, 65, 330, 96
-0.998511, 123, 249, 138, 280
-0.998523, 361, 73, 424, 88
-0.998526, 165, 105, 196, 120
-0.998535, 353, 141, 384, 156
-0.998537, 65, 65, 192, 96
-0.998542, 17, 273, 144, 304
-0.998544, 325, 73, 340, 104
-0.998544, 177, 149, 304, 180
-0.998554, 345, 79, 408, 94
-0.998556, 145, 111, 208, 126
-0.998564, 129, 77, 256, 108
-0.998564, 201, 183, 264, 198
-0.998565, 1, 253, 128, 284
-0.998566, 337, 139, 400, 154
-0.998569, 153, 101, 184, 116
-0.998571, 159, 181, 174, 212
-0.998575, 293, 1, 324, 128
-0.998581, 349, 77, 380, 92
-0.998581, 329, 151, 392, 166
-0.998583, 329, 85, 392, 100
-0.998584, 299, 181, 314, 212
-0.998585, 73, 181, 136, 196
-0.998586, 321, 71, 384, 86
-0.998588, 137, 187, 200, 202
-0.998589, 339, 149, 354, 180
-0.99859, 117, 201, 132, 232
-0.998591, 403, 57, 418, 88
-0.998594, 113, 183, 176, 198
-0.998601, 193, 189, 208, 220
-0.998601, 375, 145, 390, 176
-0.998601, 65, 215, 128, 230
-0.998604, 329, 145, 392, 160
-0.998606, 341, 133, 356, 164
-0.998607, 33, 161, 64, 288
-0.99861, 353, 105, 480, 136
-0.998611, 83, 57, 98, 88
-0.998613, 113, 221, 128, 252
-0.998614, 225, 179, 288, 194
-0.998614, 97, 189, 160, 204
-0.998617, 97, 197, 160, 212
-0.998618, 105, 177, 168, 192
-0.998618, 177, 193, 192, 224
-0.998619, 313, 137, 376, 152
-0.998619, 49, 177, 80, 304
-0.998621, 73, 187, 136, 202
-0.998622, 225, 181, 240, 212
-0.998623, 231, 177, 246, 208
-0.998623, 281, 179, 344, 194
-0.998623, 89, 217, 152, 232
-0.998628, 177, 187, 240, 202
-0.998629, 353, 85, 416, 100
-0.99863, 373, 1, 404, 256
-0.998633, 65, 225, 128, 240
-0.998633, 337, 91, 400, 106
-0.998637, 337, 133, 400, 148
-0.998638, 249, 175, 312, 190
-0.998639, 129, 125, 256, 156
-0.998641, 289, 73, 352, 88
-0.998644, 305, 83, 368, 98
-0.998644, 145, 99, 208, 114
-0.998645, 363, 145, 378, 176
-0.998645, 113, 285, 240, 316
-0.998646, 145, 117, 208, 132
-0.998647, 161, 179, 224, 194
-0.998648, 65, 199, 128, 214
-0.998648, 65, 119, 128, 134
-0.99865, 183, 189, 198, 220
-0.99865, 73, 193, 136, 208
-0.998653, 105, 223, 168, 238
-0.998654, 65, 209, 128, 224
-0.998654, 113, 245, 176, 260
-0.998655, 89, 209, 152, 224
-0.998657, 417, 1, 480, 333
-0.998658, 377, 91, 440, 106
-0.998659, 345, 67, 408, 82
-0.998659, 113, 237, 176, 252
-0.998659, 385, 71, 448, 86
-0.998659, 89, 203, 152, 218
-0.998661, 73, 233, 136, 248
-0.998662, 73, 175, 136, 190
-0.998663, 305, 173, 368, 188
-0.998664, 297, 143, 360, 158
-0.998664, 145, 193, 208, 208
-0.998668, 81, 239, 144, 254
-0.998669, 347, 85, 362, 116
-0.998669, 121, 101, 184, 116
-0.99867, 337, 99, 400, 114
-0.998671, 405, 49, 436, 176
-0.998671, 169, 117, 232, 132
-0.998672, 369, 79, 432, 94
-0.998673, 81, 245, 144, 260
-0.998674, 1, 121, 128, 152
-0.998674, 41, 245, 104, 260
-0.998676, 73, 127, 136, 142
-0.998676, 289, 173, 304, 204
-0.998676, 353, 147, 416, 162
-0.998679, 369, 125, 384, 156
-0.99868, 309, 73, 324, 104
-0.99868, 301, 61, 316, 92
-0.99868, 129, 301, 256, 332
-0.99868, 169, 193, 232, 208
-0.998681, 113, 231, 176, 246
-0.998683, 273, 171, 336, 186
-0.998684, 97, 113, 160, 128
-0.998684, 1, 177, 500, 240
-0.998685, 233, 185, 296, 200
-0.998686, 81, 255, 144, 270
-0.998687, 401, 65, 464, 80
-0.998687, 233, 193, 296, 208
-0.998687, 113, 213, 176, 228
-0.998687, 337, 105, 400, 120
-0.998687, 119, 237, 134, 268
-0.998688, 25, 311, 88, 326
-0.998688, 165, 185, 180, 216
-0.998688, 105, 121, 168, 136
-0.998689, 73, 137, 136, 152
-0.998689, 137, 207, 200, 222
-0.998689, 331, 77, 346, 108
-0.998689, 101, 193, 116, 224
-0.998689, 281, 67, 344, 82
-0.998689, 105, 255, 168, 270
-0.99869, 201, 177, 264, 192
-0.998691, 137, 239, 200, 254
-0.998691, 321, 157, 384, 172
-0.998691, 147, 105, 162, 136
-0.998691, 121, 275, 184, 290
-0.998692, 257, 273, 320, 288
-0.998694, 121, 269, 184, 284
-0.998694, 81, 169, 144, 184
-0.998694, 137, 259, 200, 274
-0.998694, 41, 219, 104, 234
-0.998695, 257, 281, 320, 296
-0.998695, 249, 199, 312, 214
-0.998696, 313, 129, 376, 144
-0.998697, 225, 193, 352, 224
-0.998697, 105, 107, 168, 122
-0.998697, 177, 107, 240, 122
-0.998698, 225, 173, 288, 188
-0.998698, 157, 85, 172, 116
-0.998699, 97, 47, 160, 62
-0.998702, 41, 231, 104, 246
-0.998703, 257, 181, 320, 196
-0.998703, 225, 221, 352, 252
-0.998704, 337, 125, 400, 140
-0.998704, 361, 141, 424, 156
-0.998704, 313, 167, 376, 182
-0.998705, 249, 233, 312, 248
-0.998705, 65, 113, 128, 128
-0.998706, 305, 89, 368, 104
-0.998706, 289, 271, 352, 286
-0.998706, 273, 287, 336, 302
-0.998706, 161, 123, 224, 138
-0.998708, 41, 179, 104, 194
-0.998708, 41, 225, 104, 240
-0.998708, 425, 67, 488, 82
-0.99871, 73, 105, 136, 120
-0.99871, 81, 163, 144, 178
-0.99871, 305, 65, 368, 80
-0.99871, 233, 243, 296, 258
-0.998711, 81, 263, 144, 278
-0.998711, 137, 181, 200, 196
-0.998711, 113, 207, 176, 222
-0.998712, 113, 291, 176, 306
-0.998712, 257, 249, 320, 264
-0.998712, 1, 303, 64, 318
-0.998713, 97, 99, 160, 114
-0.998713, 281, 151, 344, 166
-0.998713, 81, 157, 144, 172
-0.998713, 285, 277, 300, 308
-0.998714, 105, 171, 168, 186
-0.998714, 129, 219, 192, 234
-0.998714, 137, 199, 200, 214
-0.998714, 289, 279, 352, 294
-0.998714, 409, 259, 472, 274
-0.998715, 225, 281, 352, 312
-0.998716, 249, 219, 312, 234
-0.998716, 385, 259, 448, 274
-0.998716, 281, 163, 344, 178
-0.998716, 215, 181, 230, 212
-0.998716, 165, 113, 180, 144
-0.998716, 121, 113, 184, 128
-0.998717, 305, 149, 368, 164
-0.998717, 41, 299, 104, 314
-0.998721, 161, 257, 288, 288
-0.998728, 113, 37, 240, 68
-0.998729, 145, 205, 160, 236
-0.998749, 81, 297, 208, 328
-0.998761, 391, 89, 406, 120
-0.998768, 111, 157, 126, 188
-0.998774, 25, 113, 88, 240
-0.998775, 1, 241, 128, 272
-0.998779, 161, 169, 288, 200
-0.998781, 359, 121, 374, 152
-0.998782, 21, 193, 52, 320
-0.998784, 163, 85, 178, 116
-0.998785, 1, 285, 128, 316
-0.998785, 17, 97, 144, 128
-0.998785, 321, 301, 448, 332
-0.998789, 1, 57, 128, 88
-0.998791, 125, 261, 140, 292
-0.998792, 369, 269, 496, 300
-0.998794, 353, 61, 368, 92
-0.998796, 379, 85, 394, 116
-0.998796, 83, 77, 98, 108
-0.998808, 369, 285, 496, 316
-0.998811, 353, 245, 480, 276
-0.998813, 319, 173, 334, 204
-0.998813, 103, 121, 118, 152
-0.998814, 103, 165, 118, 196
-0.99882, 129, 137, 256, 168
-0.998821, 87, 97, 102, 128
-0.998821, 131, 265, 146, 296
-0.998823, 425, 1, 488, 128
-0.998834, 177, 297, 304, 328
-0.998835, 159, 109, 174, 140
-0.998841, 209, 185, 224, 216
-0.998844, 383, 101, 398, 132
-0.998848, 291, 265, 306, 296
-0.998852, 305, 249, 432, 280
-0.998853, 129, 233, 144, 264
-0.998859, 37, 301, 52, 332
-0.998872, 109, 209, 124, 240
-0.998872, 317, 161, 332, 192
-0.998872, 263, 233, 278, 264
-0.998873, 91, 65, 106, 96
-0.99888, 337, 69, 352, 100
-0.998883, 311, 161, 326, 192
-0.998883, 461, 61, 476, 92
-0.998885, 137, 1, 168, 256
-0.998893, 349, 125, 364, 156
-0.9989, 97, 57, 112, 88
-0.9989, 467, 61, 482, 92
-0.998905, 369, 149, 384, 180
-0.998908, 335, 97, 350, 128
-0.998908, 159, 169, 174, 200
-0.998912, 93, 133, 108, 164
-0.99892, 95, 209, 110, 240
-0.998921, 357, 145, 372, 176
-0.998922, 89, 161, 104, 192
-0.998924, 233, 33, 264, 288
-0.998926, 269, 221, 284, 252
-0.998927, 331, 65, 346, 96
-0.998929, 179, 89, 194, 120
-0.998931, 273, 281, 400, 312
-0.99894, 133, 245, 148, 276
-0.998945, 337, 85, 352, 116
-0.998947, 309, 61, 324, 92
-0.998949, 151, 89, 166, 120
-0.998949, 91, 225, 106, 256
-0.99895, 333, 141, 348, 172
-0.998953, 287, 221, 302, 252
-0.998953, 405, 81, 420, 112
-0.998954, 225, 293, 352, 324
-0.998954, 121, 189, 136, 220
-0.998956, 285, 197, 300, 228
-0.998959, 393, 57, 408, 88
-0.998959, 177, 101, 304, 132
-0.998962, 89, 49, 104, 80
-0.998962, 279, 261, 294, 292
-0.998963, 409, 57, 424, 88
-0.998963, 93, 145, 108, 176
-0.998967, 1, 37, 128, 68
-0.998967, 225, 205, 352, 236
-0.99898, 177, 69, 304, 100
-0.998992, 257, 249, 384, 280
-0.999008, 273, 41, 400, 72
-0.999019, 57, 1, 88, 128
-0.999027, 273, 229, 400, 260
-0.999037, 49, 37, 176, 68
-0.999041, 161, 81, 176, 208
-0.999042, 49, 1, 176, 64
-0.999084, 129, 65, 256, 96
-0.999116, 321, 277, 448, 308
-0.99913, 273, 205, 400, 236
-0.999133, 241, 97, 368, 128
-0.999134, 171, 49, 186, 176
-0.999143, 385, 1, 416, 256
-0.999157, 369, 129, 496, 160
-0.999158, 261, 113, 292, 240
-0.999159, 225, 121, 352, 152
-0.999161, 273, 189, 400, 220
-0.999162, 5, 209, 36, 333
-0.999178, 157, 33, 172, 160
-0.999187, 17, 73, 144, 104
-0.999191, 155, 97, 170, 224
-0.999224, 177, 37, 304, 68
-0.999229, 181, 113, 196, 240
-0.999232, 257, 53, 384, 84
-0.999261, 165, 33, 180, 160
-0.999272, 335, 65, 350, 192
-0.999274, 175, 113, 190, 240
-0.999278, 349, 81, 364, 208
-0.999278, 185, 49, 200, 176
-0.999281, 209, 1, 336, 64
-0.999284, 117, 193, 132, 320
-0.999286, 151, 49, 166, 176
-0.999306, 359, 65, 374, 192
-0.999307, 273, 293, 400, 324
-0.999308, 113, 157, 240, 188
-0.999308, 289, 177, 304, 304
-0.99931, 369, 65, 384, 192
-0.999314, 17, 85, 144, 116
-0.999318, 87, 49, 102, 176
-0.999321, 167, 97, 182, 224
-0.999324, 177, 49, 192, 176
-0.999325, 89, 161, 104, 288
-0.999329, 111, 177, 126, 304
-0.999331, 257, 17, 500, 80
-0.999337, 187, 97, 202, 224
-0.999348, 317, 65, 332, 192
-0.999354, 177, 129, 304, 160
-0.999355, 353, 189, 480, 220
-0.999357, 77, 177, 92, 304
-0.999365, 369, 201, 496, 232
-0.999372, 369, 145, 400, 272
-0.999374, 461, 49, 492, 176
-0.999375, 379, 81, 394, 208
-0.999377, 369, 297, 496, 328
-0.99938, 1, 33, 500, 96
-0.99938, 95, 145, 110, 272
-0.999406, 95, 97, 110, 224
-0.999407, 101, 129, 116, 256
-0.99941, 197, 81, 228, 208
-0.999414, 1, 273, 500, 333
-0.999417, 329, 65, 344, 192
-0.999421, 237, 161, 252, 288
-0.999424, 197, 177, 212, 304
-0.999425, 341, 81, 356, 208
-0.999425, 369, 173, 496, 204
-0.999427, 187, 177, 202, 304
-0.999429, 89, 113, 104, 240
-0.999432, 141, 209, 156, 333
-0.999433, 309, 145, 324, 272
-0.999439, 149, 97, 164, 224
-0.999441, 153, 177, 168, 304
-0.999444, 323, 65, 338, 192
-0.999451, 247, 129, 262, 256
-0.999455, 147, 177, 162, 304
-0.999472, 221, 129, 236, 256
-0.999475, 203, 129, 218, 256
-0.999478, 281, 209, 296, 333
-0.999479, 303, 161, 318, 288
-0.99948, 305, 49, 320, 176
-0.999481, 95, 193, 110, 320
-0.999482, 247, 193, 262, 320
-0.999486, 329, 145, 344, 272
-0.999487, 181, 187, 196, 202
-0.999487, 171, 123, 186, 138
-0.999488, 189, 101, 204, 116
-0.999488, 311, 169, 326, 184
-0.999488, 411, 79, 426, 94
-0.999488, 459, 65, 474, 80
-0.999488, 317, 73, 332, 88
-0.999488, 387, 97, 402, 112
-0.999488, 279, 267, 294, 282
-0.999489, 397, 91, 412, 106
-0.999489, 247, 273, 262, 288
-0.999489, 193, 117, 208, 132
-0.99949, 341, 79, 356, 94
-0.99949, 395, 85, 410, 100
-0.999491, 405, 85, 420, 100
-0.999491, 321, 67, 336, 82
-0.999491, 193, 113, 208, 240
-0.999491, 129, 251, 144, 266
-0.999492, 85, 95, 100, 110
-0.999492, 97, 63, 112, 78
-0.999492, 273, 217, 400, 248
-0.999492, 379, 95, 394, 110
-0.999493, 109, 165, 124, 180
-0.999494, 89, 131, 104, 146
-0.999495, 83, 77, 98, 92
-0.999495, 381, 145, 396, 160
-0.999495, 119, 245, 134, 260
-0.999495, 347, 85, 362, 100
-0.999496, 113, 231, 128, 246
-0.999496, 51, 245, 66, 260
-0.999497, 231, 145, 246, 272
-0.999497, 135, 213, 150, 228
-0.999497, 315, 81, 330, 96
-0.999498, 43, 245, 58, 260
-0.999498, 345, 97, 360, 112
-0.999498, 377, 87, 392, 102
-0.999498, 159, 177, 174, 304
-0.999499, 311, 81, 326, 208
-0.999499, 85, 101, 100, 116
-0.999499, 185, 107, 200, 122
-0.9995, 37, 309, 52, 324
-0.999501, 147, 205, 162, 220
-0.999502, 103, 81, 118, 208
-0.999502, 365, 89, 380, 104
-0.999503, 347, 133, 362, 148
-0.999503, 177, 117, 192, 132
-0.999504, 341, 145, 356, 272
-0.999504, 107, 129, 122, 256
-0.999506, 305, 75, 320, 90
-0.999507, 309, 85, 324, 100
-0.999507, 149, 179, 164, 194
-0.999508, 93, 49, 108, 176
-0.999508, 87, 111, 102, 126
-0.999508, 465, 65, 480, 80
-0.999509, 319, 167, 334, 182
-0.99951, 385, 65, 400, 192
-0.999511, 147, 105, 162, 120
-0.999511, 109, 219, 124, 234
-0.999511, 123, 255, 138, 270
-0.999511, 369, 153, 384, 168
-0.999511, 335, 99, 350, 114
-0.999511, 347, 129, 362, 256
-0.999511, 289, 277, 304, 292
-0.999513, 289, 179, 304, 194
-0.999513, 317, 161, 332, 288
-0.999514, 335, 71, 350, 86
-0.999515, 283, 161, 298, 288
-0.999518, 315, 67, 330, 82
-0.999518, 377, 137, 392, 152
-0.999519, 257, 177, 272, 304
-0.99952, 209, 129, 224, 256
-0.999521, 167, 89, 182, 104
-0.999521, 215, 185, 230, 200
-0.999521, 345, 105, 360, 120
-0.999521, 291, 265, 306, 280
-0.999522, 323, 145, 338, 272
-0.999523, 385, 75, 400, 90
-0.999523, 115, 129, 130, 256
-0.999524, 105, 33, 120, 160
-0.999525, 283, 187, 298, 202
-0.999525, 177, 193, 192, 208
-0.999526, 107, 193, 122, 208
-0.999526, 203, 177, 218, 304
-0.999526, 193, 191, 208, 206
-0.999528, 383, 103, 398, 118
-0.999528, 187, 119, 202, 134
-0.999528, 399, 69, 414, 84
-0.999528, 173, 177, 188, 304
-0.999528, 165, 185, 180, 200
-0.999529, 83, 161, 98, 288
-0.999529, 323, 73, 338, 88
-0.99953, 345, 71, 360, 86
-0.999532, 177, 123, 192, 138
-0.999532, 325, 163, 340, 178
-0.999533, 297, 183, 312, 198
-0.999534, 357, 129, 372, 256
-0.999535, 207, 187, 222, 202
-0.999535, 347, 79, 362, 94
-0.999535, 357, 71, 372, 86
-0.999536, 79, 97, 94, 224
-0.999537, 111, 225, 126, 240
-0.999539, 195, 49, 210, 176
-0.99954, 111, 185, 126, 200
-0.999542, 367, 71, 382, 86
-0.999543, 231, 179, 246, 194
-0.999543, 113, 177, 128, 192
-0.999544, 165, 101, 180, 116
-0.999544, 375, 143, 390, 158
-0.999545, 375, 79, 390, 94
-0.999545, 295, 177, 310, 304
-0.999546, 101, 177, 116, 304
-0.999546, 187, 193, 202, 208
-0.999546, 123, 177, 138, 304
-0.999548, 393, 71, 408, 86
-0.999549, 375, 149, 390, 164
-0.999549, 283, 273, 298, 288
-0.99955, 199, 189, 214, 204
-0.999552, 169, 107, 184, 122
-0.999552, 157, 93, 172, 108
-0.999553, 339, 151, 354, 166
-0.999555, 363, 147, 378, 162
-0.999556, 317, 173, 332, 188
-0.999558, 225, 181, 240, 196
-0.999558, 183, 125, 198, 140
-0.999559, 161, 129, 176, 256
-0.999561, 371, 133, 386, 148
-0.999562, 351, 71, 366, 86
-0.999563, 181, 177, 196, 304
-0.999564, 357, 145, 372, 160
-0.999565, 265, 177, 280, 304
-0.999565, 289, 185, 304, 200
-0.999565, 347, 145, 362, 160
-0.999566, 335, 129, 350, 256
-0.999566, 311, 73, 326, 88
-0.999567, 359, 91, 374, 106
-0.999568, 387, 91, 402, 106
-0.99957, 359, 83, 374, 98
-0.99957, 171, 189, 186, 204
-0.999572, 139, 33, 154, 160
-0.999572, 293, 129, 308, 256
-0.999573, 333, 155, 348, 170
-0.999574, 373, 113, 388, 240
-0.999576, 185, 113, 200, 128
-0.999578, 171, 97, 186, 112
-0.999579, 399, 49, 414, 176
-0.99958, 209, 177, 224, 304
-0.999583, 353, 87, 368, 102
-0.999584, 89, 209, 104, 333
-0.999584, 305, 179, 320, 194
-0.999587, 145, 49, 160, 176
-0.999589, 223, 177, 238, 304
-0.999589, 155, 179, 170, 194
-0.999589, 65, 65, 96, 320
-0.99959, 215, 145, 230, 272
-0.999591, 115, 171, 130, 186
-0.999592, 357, 133, 372, 148
-0.999593, 407, 71, 422, 86
-0.999594, 293, 49, 308, 176
-0.999595, 365, 77, 380, 92
-0.999595, 299, 113, 314, 240
-0.999599, 255, 129, 270, 256
-0.999601, 299, 49, 314, 176
-0.999601, 375, 73, 390, 88
-0.999603, 353, 77, 368, 92
-0.999607, 369, 83, 384, 98
-0.999608, 117, 81, 132, 208
-0.999608, 69, 209, 84, 333
-0.999609, 153, 103, 168, 118
-0.999613, 167, 177, 182, 304
-0.999615, 237, 177, 252, 192
-0.999615, 369, 143, 384, 158
-0.999622, 99, 33, 114, 160
-0.999623, 111, 33, 126, 160
-0.999625, 311, 175, 326, 190
-0.999625, 135, 209, 150, 333
-0.999627, 121, 33, 136, 160
-0.999627, 365, 135, 380, 150
-0.999628, 255, 33, 270, 160
-0.999633, 359, 77, 374, 92
-0.999635, 175, 1, 190, 128
-0.999638, 363, 113, 378, 240
-0.999639, 317, 113, 332, 240
-0.99964, 311, 33, 326, 160
-0.99964, 241, 209, 256, 333
-0.999643, 287, 49, 302, 176
-0.999647, 393, 49, 408, 176
-0.999648, 275, 33, 290, 160
-0.999652, 363, 141, 378, 156
-0.999652, 77, 49, 92, 176
-0.999654, 131, 33, 146, 160
-0.999655, 233, 97, 248, 224
-0.999657, 271, 177, 286, 304
-0.999665, 111, 81, 126, 208
-0.999667, 343, 33, 358, 160
-0.999676, 405, 49, 420, 176
-0.999681, 159, 99, 174, 114
-0.999682, 265, 129, 280, 256
-0.999684, 323, 17, 338, 144
-0.99969, 231, 1, 246, 128
-0.99969, 281, 33, 296, 160
-0.999692, 331, 17, 346, 144
-0.999695, 179, 103, 194, 118
-0.999698, 61, 97, 92, 224
-0.999699, 129, 193, 144, 320
-0.9997, 227, 97, 242, 224
-0.9997, 305, 97, 320, 224
-0.999703, 359, 17, 374, 144
-0.999703, 355, 139, 370, 154
-0.999705, 19, 209, 34, 333
-0.999706, 143, 113, 158, 240
-0.999709, 121, 129, 136, 256
-0.999712, 265, 33, 280, 160
-0.999713, 45, 161, 60, 288
-0.999713, 215, 97, 230, 224
-0.999715, 181, 1, 196, 128
-0.999874, 229, 81, 260, 208
-0.999887, 397, 1, 428, 256
-0.999891, 1, 217, 500, 280
-0.9999, 437, 33, 468, 160
-0.999926, 305, 9, 432, 72
-0.999934, 409, 97, 472, 224
-0.999946, 409, 1, 440, 256
-0.999967, 217, 81, 248, 208
-1, 1, 241, 500, 304
-1.00008, 417, 1, 480, 256
-1.00009, 9, 161, 40, 288
-1.00013, 453, 1, 484, 256
-1.00019, 9, 1, 72, 333
-1.0002, 317, 177, 348, 304
-1.00031, 469, 1, 500, 256
-1.00034, 369, 161, 496, 288
-1.00035, 185, 1, 216, 128
-1.00044, 349, 209, 380, 333
-1.00051, 1, 113, 64, 240
-1.00055, 421, 1, 452, 256
-1.00056, 161, 17, 416, 80
-1.00057, 393, 1, 424, 128
-1.00057, 21, 33, 52, 288
-1.0006, 33, 1, 288, 64
-1.00061, 441, 1, 472, 256
-1.00067, 49, 65, 80, 320
-1.00087, 37, 65, 68, 320
-1.00088, 5, 1, 36, 256
-1.00093, 301, 209, 332, 333
-1.001, 409, 1, 440, 128
-1.00124, 361, 193, 392, 320
-1.00128, 429, 209, 460, 333
-1.00135, 21, 113, 52, 240
-1.00143, 337, 177, 368, 304
-1.00148, 461, 1, 492, 128
-1.00157, 441, 193, 472, 320
-1.00162, 69, 1, 100, 128
-1.00167, 457, 209, 488, 333
-1.0017, 381, 113, 412, 240
-1.00181, 49, 129, 80, 256
-1.00186, 57, 49, 88, 176
-1.00194, 377, 193, 408, 320
-1.00205, 405, 193, 436, 320
-1.0021, 37, 17, 68, 144
-1.00223, 393, 145, 456, 272
-1.00256, 1, 1, 500, 64
-1.0027, 417, 193, 448, 320
-1.00291, 449, 81, 480, 208
-1.00307, 469, 193, 500, 320
-1.00309, 429, 97, 460, 224
-1.00318, 393, 161, 424, 288
-1.00321, 1, 65, 64, 320
-1.00323, 425, 17, 456, 144
-1.00325, 5, 113, 36, 240
-1.00331, 393, 209, 424, 333
-1.00354, 1, 1, 64, 128
-1.00369, 417, 65, 448, 192
-1.0038, 425, 145, 456, 272
-1.00384, 17, 17, 48, 144
-1.00389, 417, 161, 480, 288
-1.00431, 433, 113, 496, 240
-1.00476, 25, 65, 88, 192
-1.00808, 1, 49, 64, 176
