1975
-0.335256, 1, 129, 500, 375
-0.372433, 1, 1, 500, 375
-0.38174, 257, 1, 500, 375
-0.46249, 193, 129, 448, 375
-0.503584, 1, 1, 500, 256
-0.522545, 161, 1, 416, 375
-0.617017, 257, 33, 500, 288
-0.629856, 65, 1, 320, 375
-0.743344, 97, 129, 352, 375
-0.757723, 129, 1, 384, 256
-0.830345, 289, 97, 416, 352
-0.84319, 225, 129, 352, 375
-0.844557, 369, 1, 496, 375
-0.84844, 369, 33, 496, 288
-0.851699, 305, 1, 432, 375
-0.856756, 1, 209, 500, 336
-0.863874, 321, 1, 448, 256
-0.867929, 257, 1, 384, 375
-0.870822, 241, 1, 368, 256
-0.8733, 337, 129, 464, 375
-0.876818, 209, 1, 336, 375
-0.884706, 161, 1, 288, 375
-0.888942, 1, 161, 500, 288
-0.891744, 177, 129, 304, 375
-0.893608, 193, 145, 448, 272
-0.909131, 33, 225, 288, 352
-0.911097, 1, 1, 500, 128
-0.911693, 161, 193, 416, 320
-0.913115, 1, 129, 256, 375
-0.917214, 33, 33, 288, 288
-0.918548, 257, 209, 500, 336
-0.920403, 113, 1, 240, 375
-0.922348, 177, 1, 304, 256
-0.922443, 129, 241, 384, 368
-0.924516, 241, 145, 368, 272
-0.927321, 289, 113, 416, 240
-0.928356, 81, 129, 208, 375
-0.931505, 1, 113, 500, 240
-0.931783, 225, 241, 352, 368
-0.932473, 305, 161, 432, 288
-0.933742, 129, 1, 256, 256
-0.934133, 353, 209, 480, 336
-0.934815, 305, 209, 368, 336
-0.935002, 225, 1, 480, 128
-0.935804, 49, 225, 176, 352
-0.937227, 1, 129, 128, 375
-0.938279, 345, 113, 408, 240
-0.938415, 233, 161, 296, 288
-0.938771, 305, 209, 432, 336
-0.939219, 193, 177, 320, 304
-0.941227, 97, 225, 224, 352
-0.941583, 89, 225, 152, 352
-0.942541, 1, 225, 128, 352
-0.943666, 409, 209, 472, 336
-0.943838, 305, 1, 432, 128
-0.945019, 345, 177, 408, 304
-0.94511, 193, 193, 256, 320
-0.945281, 257, 193, 384, 320
-0.945527, 153, 225, 216, 352
-0.945697, 273, 225, 336, 352
-0.94609, 369, 33, 496, 160
-0.946458, 289, 129, 352, 256
-0.946733, 57, 225, 120, 352
-0.946812, 145, 209, 272, 336
-0.946918, 65, 177, 320, 304
-0.947153, 353, 161, 480, 288
-0.947379, 369, 1, 432, 128
-0.947456, 129, 129, 256, 375
-0.947519, 385, 225, 448, 352
-0.948062, 377, 25, 440, 88
-0.948609, 233, 241, 296, 368
-0.948952, 265, 145, 328, 272
-0.949031, 313, 113, 376, 240
-0.949623, 433, 193, 496, 320
-0.950358, 129, 241, 192, 368
-0.950452, 345, 1, 408, 128
-0.950533, 417, 217, 480, 280
-0.951234, 417, 241, 480, 304
-0.951289, 1, 1, 128, 375
-0.95246, 49, 1, 176, 375
-0.952649, 361, 1, 424, 64
-0.9532, 369, 145, 432, 272
-0.953618, 393, 257, 456, 320
-0.953923, 17, 241, 80, 368
-0.954463, 393, 233, 456, 296
-0.954547, 113, 257, 176, 320
-0.954741, 73, 241, 136, 304
-0.955549, 361, 225, 424, 352
-0.956108, 89, 297, 152, 360
-0.956618, 345, 129, 408, 192
-0.958138, 257, 49, 500, 176
-0.9587, 329, 241, 392, 368
-0.958789, 113, 313, 176, 375
-0.959075, 1, 65, 500, 192
-0.959606, 257, 97, 500, 224
-0.959771, 89, 265, 152, 328
-0.960002, 353, 25, 416, 88
-0.960192, 369, 233, 432, 296
-0.96025, 65, 313, 128, 375
-0.960814, 41, 305, 104, 368
-0.960937, 393, 1, 456, 128
-0.961677, 265, 145, 328, 208
-0.96199, 273, 241, 336, 304
-0.962053, 345, 257, 408, 320
-0.962108, 433, 49, 496, 176
-0.962323, 233, 161, 296, 224
-0.96308, 145, 241, 208, 304
-0.963209, 25, 225, 88, 288
-0.963266, 345, 97, 408, 352
-0.963456, 33, 273, 96, 336
-0.963562, 377, 49, 440, 176
-0.963692, 65, 281, 128, 344
-0.963707, 353, 113, 480, 240
-0.96394, 305, 129, 368, 192
-0.964116, 233, 257, 296, 320
-0.964189, 305, 129, 432, 192
-0.964513, 25, 193, 88, 320
-0.965148, 105, 233, 168, 296
-0.965506, 1, 233, 64, 296
-0.965539, 209, 193, 272, 256
-0.965638, 353, 185, 416, 248
-0.965701, 49, 233, 112, 296
-0.96588, 201, 241, 264, 368
-0.966112, 65, 1, 320, 128
-0.966372, 17, 305, 80, 368
-0.966645, 369, 225, 496, 288
-0.966879, 297, 97, 360, 352
-0.966989, 297, 233, 360, 296
-0.967035, 389, 9, 420, 72
-0.967139, 329, 9, 392, 72
-0.967446, 313, 265, 376, 328
-0.96776, 257, 153, 384, 216
-0.967768, 321, 129, 384, 375
-0.968052, 209, 145, 272, 272
-0.968096, 321, 209, 352, 336
-0.968397, 337, 257, 464, 320
-0.968538, 217, 313, 280, 375
-0.968559, 401, 41, 464, 104
-0.968611, 369, 257, 432, 320
-0.968627, 369, 153, 432, 216
-0.968825, 321, 49, 448, 176
-0.969125, 1, 177, 128, 304
-0.969193, 257, 129, 320, 375
-0.969418, 257, 265, 320, 328
-0.969616, 313, 153, 376, 216
-0.969842, 177, 305, 240, 368
-0.969944, 433, 73, 496, 136
-0.970075, 433, 241, 496, 368
-0.970203, 417, 249, 448, 312
-0.970387, 81, 177, 208, 304
-0.970438, 409, 17, 440, 80
-0.97051, 17, 249, 144, 312
-0.970556, 185, 201, 248, 264
-0.970685, 337, 1, 400, 256
-0.971111, 113, 289, 176, 352
-0.971161, 1, 225, 128, 288
-0.971248, 297, 1, 360, 64
-0.971328, 137, 297, 200, 360
-0.971496, 361, 1, 424, 256
-0.971538, 445, 233, 476, 296
-0.971544, 433, 1, 496, 128
-0.971647, 461, 233, 492, 296
-0.971738, 97, 1, 224, 128
-0.971746, 385, 145, 416, 208
-0.971812, 305, 225, 336, 352
-0.971819, 389, 1, 420, 128
-0.971833, 25, 249, 88, 312
-0.971864, 321, 161, 384, 288
-0.971982, 417, 265, 480, 328
-0.972266, 161, 97, 416, 224
-0.972425, 65, 265, 192, 328
-0.972498, 313, 1, 376, 128
-0.972516, 273, 305, 336, 368
-0.972726, 177, 225, 240, 288
-0.972734, 377, 17, 408, 80
-0.972762, 353, 49, 416, 176
-0.972787, 209, 265, 336, 328
-0.972828, 429, 241, 460, 304
-0.972894, 241, 313, 304, 375
-0.97323, 401, 257, 432, 320
-0.973336, 193, 129, 320, 256
-0.973702, 289, 265, 352, 328
-0.973708, 237, 161, 268, 288
-0.973863, 9, 273, 72, 336
-0.973956, 441, 209, 472, 336
-0.973996, 441, 209, 472, 272
-0.974135, 373, 113, 404, 240
-0.974153, 433, 193, 496, 256
-0.97445, 401, 1, 432, 128
-0.974499, 65, 305, 192, 368
-0.974522, 329, 33, 392, 96
-0.974578, 401, 233, 432, 296
-0.974677, 113, 193, 176, 320
-0.974718, 241, 169, 272, 232
-0.974745, 409, 49, 472, 176
-0.974767, 457, 201, 488, 264
-0.974784, 377, 129, 440, 375
-0.974969, 337, 185, 464, 248
-0.97507, 81, 1, 208, 256
-0.975351, 73, 177, 136, 304
-0.975374, 17, 313, 144, 375
-0.975419, 241, 97, 368, 224
-0.975432, 97, 241, 128, 304
-0.975451, 257, 233, 384, 296
-0.975475, 349, 113, 380, 240
-0.975508, 233, 281, 296, 344
-0.975552, 241, 113, 304, 240
-0.975606, 305, 225, 432, 288
-0.97567, 97, 241, 224, 304
-0.975696, 233, 129, 296, 375
-0.975744, 321, 17, 448, 80
-0.975768, 261, 257, 292, 320
-0.975791, 1, 233, 32, 296
-0.975851, 109, 281, 140, 344
-0.97592, 129, 297, 256, 360
-0.976044, 81, 281, 112, 344
-0.976073, 389, 145, 420, 272
-0.976083, 201, 289, 264, 352
-0.976084, 225, 185, 256, 248
-0.976094, 333, 209, 364, 336
-0.976219, 121, 305, 152, 368
-0.9764, 297, 1, 360, 256
-0.976576, 117, 257, 148, 320
-0.976622, 209, 169, 272, 232
-0.976623, 145, 233, 272, 296
-0.976653, 1, 193, 64, 320
-0.976669, 257, 1, 384, 128
-0.976713, 253, 161, 284, 224
-0.976793, 393, 145, 456, 272
-0.97682, 417, 225, 448, 288
-0.976823, 265, 97, 328, 224
-0.976863, 65, 129, 320, 256
-0.976863, 429, 217, 460, 280
-0.976885, 377, 281, 440, 344
-0.977112, 305, 241, 336, 304
-0.977119, 97, 297, 128, 360
-0.977333, 345, 193, 376, 320
-0.977415, 137, 273, 200, 336
-0.977452, 257, 257, 384, 320
-0.977468, 109, 305, 140, 368
-0.977852, 113, 225, 144, 352
-0.977952, 469, 209, 500, 272
-0.978029, 405, 209, 436, 336
-0.978033, 129, 241, 160, 304
-0.978037, 225, 177, 256, 304
-0.978041, 249, 257, 280, 320
-0.978047, 393, 33, 456, 288
-0.978112, 361, 113, 392, 240
-0.978197, 65, 225, 96, 352
-0.978232, 321, 209, 384, 272
-0.978292, 213, 201, 244, 264
-0.978327, 77, 225, 108, 352
-0.978385, 137, 241, 168, 368
-0.978386, 269, 153, 300, 216
-0.97839, 421, 41, 452, 104
-0.978413, 17, 281, 144, 344
-0.978415, 113, 265, 240, 328
-0.978458, 249, 233, 312, 296
-0.978519, 209, 265, 272, 328
-0.978569, 81, 305, 112, 368
-0.978607, 157, 241, 188, 304
-0.978613, 289, 153, 352, 216
-0.978685, 209, 177, 336, 240
-0.978694, 73, 217, 136, 280
-0.978712, 25, 313, 56, 375
-0.978849, 121, 281, 152, 344
-0.978901, 141, 257, 172, 320
-0.979077, 177, 241, 240, 368
-0.979113, 257, 145, 288, 272
-0.979128, 325, 129, 356, 192
-0.979138, 233, 185, 296, 248
-0.979216, 337, 41, 464, 104
-0.979256, 137, 177, 200, 304
-0.97927, 133, 313, 164, 375
-0.979317, 189, 209, 220, 336
-0.97933, 157, 225, 188, 352
-0.979347, 345, 153, 408, 216
-0.979386, 9, 225, 40, 352
-0.979391, 205, 193, 236, 320
-0.979501, 345, 241, 376, 368
-0.979539, 417, 209, 448, 336
-0.979585, 169, 177, 232, 304
-0.979623, 285, 145, 316, 208
-0.979669, 49, 225, 176, 288
-0.979672, 469, 177, 500, 304
-0.979725, 65, 81, 320, 208
-0.979826, 385, 265, 416, 328
-0.979829, 349, 257, 380, 320
-0.979834, 369, 225, 400, 352
-0.979863, 357, 161, 388, 288
-0.979869, 361, 49, 424, 112
-0.979885, 269, 145, 300, 272
-0.979935, 45, 305, 76, 368
-0.979977, 93, 225, 124, 352
-0.980017, 433, 33, 496, 288
-0.980022, 13, 233, 44, 296
-0.980107, 177, 313, 304, 375
-0.980131, 413, 17, 444, 144
-0.980145, 369, 161, 400, 288
-0.980169, 321, 297, 384, 360
-0.980174, 329, 185, 392, 248
-0.980176, 429, 193, 460, 320
-0.980182, 361, 25, 392, 88
-0.980203, 309, 145, 340, 272
-0.980272, 81, 233, 112, 296
-0.980326, 257, 1, 320, 64
-0.980354, 81, 1, 144, 64
-0.980363, 257, 169, 320, 232
-0.980392, 329, 65, 392, 192
-0.980447, 69, 281, 100, 344
-0.980565, 153, 1, 216, 128
-0.980582, 385, 225, 416, 352
-0.980657, 21, 225, 52, 352
-0.980774, 369, 1, 496, 64
-0.98081, 401, 1, 464, 375
-0.980818, 57, 305, 88, 368
-0.980848, 389, 33, 420, 96
-0.980909, 317, 225, 348, 288
-0.980917, 145, 161, 272, 288
-0.980949, 425, 49, 488, 112
-0.980992, 205, 297, 236, 360
-0.981058, 109, 233, 140, 296
-0.981079, 305, 153, 432, 216
-0.981103, 457, 177, 488, 304
-0.981119, 385, 1, 448, 64
-0.981257, 297, 137, 328, 200
-0.981266, 297, 305, 360, 368
-0.981274, 193, 201, 320, 264
-0.98143, 441, 257, 472, 320
-0.981464, 273, 1, 336, 256
-0.981484, 461, 73, 492, 136
-0.981555, 373, 129, 404, 192
-0.981584, 161, 273, 224, 336
-0.981636, 9, 313, 40, 375
-0.981677, 329, 113, 360, 240
-0.981746, 49, 209, 112, 272
-0.981752, 241, 305, 368, 368
-0.981774, 365, 177, 396, 240
-0.981819, 393, 209, 456, 272
-0.981825, 29, 241, 60, 304
-0.981842, 257, 129, 384, 192
-0.981878, 389, 233, 420, 296
-0.981883, 69, 305, 100, 368
-0.981897, 41, 225, 72, 288
-0.981945, 313, 265, 344, 328
-0.982018, 313, 137, 344, 200
-0.982059, 217, 289, 248, 352
-0.982294, 181, 225, 212, 288
-0.982475, 201, 129, 264, 375
-0.982482, 369, 65, 496, 128
-0.982538, 193, 81, 320, 208
-0.982552, 393, 153, 456, 216
-0.982557, 333, 265, 364, 328
-0.982577, 281, 145, 312, 272
-0.982593, 377, 1, 408, 128
-0.982709, 249, 1, 312, 256
-0.982723, 57, 233, 88, 296
-0.982754, 357, 241, 388, 368
-0.982758, 337, 121, 368, 184
-0.982855, 145, 1, 272, 128
-0.982868, 305, 41, 368, 104
-0.982881, 241, 241, 272, 368
-0.982903, 209, 153, 336, 216
-0.983087, 353, 289, 416, 352
-0.983209, 97, 265, 128, 328
-0.983317, 373, 41, 404, 104
-0.983372, 49, 225, 80, 352
-0.98339, 245, 313, 276, 375
-0.983393, 57, 273, 88, 336
-0.983412, 361, 121, 392, 184
-0.983417, 125, 241, 156, 368
-0.983443, 377, 241, 408, 304
-0.983453, 297, 129, 328, 256
-0.983454, 397, 153, 428, 216
-0.983475, 1, 209, 64, 272
-0.983484, 425, 33, 456, 160
-0.983571, 173, 225, 204, 352
-0.983584, 385, 49, 416, 176
-0.983607, 201, 201, 232, 264
-0.983675, 41, 273, 72, 336
-0.983716, 105, 1, 168, 128
-0.983744, 257, 1, 384, 64
-0.98375, 345, 233, 408, 296
-0.983841, 269, 241, 300, 368
-0.98389, 193, 289, 320, 352
-0.983908, 257, 177, 384, 240
-0.98394, 353, 281, 480, 344
-0.983972, 221, 313, 252, 375
-0.984078, 425, 145, 488, 272
-0.984093, 289, 201, 416, 264
-0.984099, 281, 121, 344, 184
-0.984102, 409, 9, 472, 72
-0.984105, 257, 313, 288, 375
-0.984134, 409, 41, 440, 104
-0.98416, 369, 153, 496, 216
-0.984178, 293, 241, 324, 368
-0.984183, 9, 273, 40, 336
-0.984208, 169, 233, 200, 296
-0.984225, 425, 1, 488, 375
-0.984248, 273, 313, 304, 375
-0.984326, 337, 1, 368, 64
-0.984355, 249, 1, 312, 375
-0.984465, 85, 257, 116, 320
-0.984512, 273, 1, 336, 375
-0.984522, 97, 217, 128, 280
-0.984548, 225, 233, 288, 296
-0.984582, 25, 273, 56, 336
-0.984587, 361, 1, 424, 375
-0.984608, 313, 1, 376, 375
-0.984647, 69, 233, 100, 296
-0.984676, 137, 281, 168, 344
-0.984684, 237, 257, 268, 320
-0.984752, 129, 1, 192, 128
-0.984825, 337, 1, 400, 375
-0.984836, 373, 153, 404, 216
-0.984871, 273, 25, 400, 88
-0.98512, 329, 105, 392, 168
-0.985217, 397, 49, 428, 176
-0.985339, 241, 137, 304, 200
-0.985404, 453, 257, 484, 320
-0.985516, 433, 25, 496, 88
-0.985559, 289, 81, 352, 208
-0.985605, 129, 217, 192, 280
-0.985622, 33, 225, 64, 352
-0.985668, 457, 1, 488, 128
-0.985686, 161, 257, 288, 320
-0.985697, 97, 217, 224, 280
-0.985762, 349, 9, 380, 72
-0.985804, 433, 41, 464, 104
-0.985805, 53, 209, 84, 272
-0.985879, 253, 225, 284, 352
-0.985905, 329, 217, 360, 280
-0.985944, 217, 1, 280, 375
-0.985974, 465, 65, 496, 192
-0.985992, 365, 249, 396, 312
-0.985993, 445, 1, 476, 128
-0.986025, 301, 265, 332, 328
-0.986073, 285, 249, 316, 312
-0.986213, 453, 225, 484, 352
-0.986273, 377, 177, 440, 240
-0.986463, 273, 49, 400, 176
-0.98651, 273, 257, 304, 320
-0.986525, 225, 1, 288, 256
-0.986526, 385, 97, 416, 224
-0.986597, 261, 233, 292, 296
-0.986632, 145, 113, 272, 240
-0.986677, 49, 177, 112, 304
-0.9867, 393, 97, 456, 224
-0.986716, 305, 281, 432, 344
-0.986719, 185, 265, 248, 328
-0.986732, 329, 1, 360, 128
-0.986747, 429, 265, 460, 328
-0.986754, 469, 1, 500, 128
-0.98686, 349, 121, 380, 184
-0.986958, 401, 145, 432, 272
-0.986999, 145, 209, 272, 272
-0.987134, 417, 273, 448, 336
-0.987155, 373, 273, 404, 336
-0.98737, 233, 313, 264, 375
-0.98738, 441, 49, 472, 176
-0.987418, 353, 1, 384, 128
-0.987511, 333, 161, 364, 288
-0.987629, 341, 201, 372, 264
-0.987685, 225, 249, 480, 312
-0.987758, 469, 1, 500, 64
-0.987843, 185, 1, 248, 375
-0.987847, 433, 1, 496, 64
-0.987847, 201, 241, 264, 304
-0.987944, 341, 1, 372, 128
-0.98795, 353, 177, 384, 240
-0.988052, 121, 9, 184, 72
-0.9881, 369, 49, 400, 176
-0.988299, 449, 65, 480, 128
-0.98831, 281, 225, 312, 352
-0.988317, 161, 169, 288, 232
-0.98834, 285, 313, 316, 375
-0.988412, 321, 1, 352, 64
-0.988415, 185, 129, 248, 256
-0.988463, 369, 21, 432, 52
-0.988506, 289, 33, 352, 160
-0.988546, 385, 169, 416, 232
-0.988551, 297, 305, 328, 368
-0.988575, 209, 241, 336, 304
-0.988627, 369, 97, 432, 224
-0.988733, 193, 17, 320, 144
-0.988777, 233, 257, 296, 288
-0.98879, 161, 217, 416, 280
-0.988865, 29, 217, 60, 280
-0.988868, 105, 249, 168, 280
-0.988912, 337, 129, 400, 160
-0.988923, 257, 281, 384, 344
-0.988991, 377, 33, 440, 64
-0.989018, 393, 265, 456, 296
-0.989019, 73, 209, 104, 272
-0.989058, 369, 129, 432, 192
-0.989063, 1, 233, 500, 296
-0.989073, 65, 233, 320, 296
-0.989087, 257, 257, 320, 288
-0.989135, 401, 253, 464, 284
-0.989156, 397, 281, 428, 344
-0.989166, 153, 289, 184, 352
-0.989203, 193, 297, 224, 360
-0.989252, 1, 257, 500, 320
-0.989296, 297, 141, 360, 172
-0.989307, 401, 225, 464, 256
-0.989348, 177, 1, 240, 128
-0.989356, 105, 309, 168, 340
-0.989365, 425, 213, 488, 244
-0.989398, 265, 149, 328, 180
-0.989408, 65, 309, 128, 340
-0.989433, 193, 161, 448, 224
-0.989541, 353, 1, 416, 32
-0.989547, 305, 105, 368, 168
-0.989573, 321, 161, 352, 288
-0.989583, 181, 313, 212, 375
-0.98962, 17, 317, 80, 348
-0.989637, 417, 241, 480, 272
-0.989647, 353, 185, 416, 216
-0.98965, 213, 241, 244, 368
-0.989667, 101, 177, 132, 304
-0.989671, 353, 37, 416, 68
-0.989683, 469, 185, 500, 248
-0.989702, 41, 313, 104, 344
-0.989744, 113, 333, 176, 364
-0.989789, 433, 229, 496, 260
-0.989805, 169, 17, 232, 80
-0.989827, 353, 249, 416, 280
-0.989836, 345, 153, 376, 216
-0.989881, 353, 141, 416, 172
-0.989888, 377, 237, 440, 268
-0.989935, 89, 269, 152, 300
-0.989955, 185, 333, 248, 364
-0.990013, 41, 249, 72, 312
-0.99002, 369, 269, 432, 300
-0.990084, 217, 325, 280, 356
-0.990089, 317, 97, 348, 224
-0.990098, 249, 161, 312, 192
-0.990119, 233, 173, 296, 204
-0.990121, 121, 261, 184, 292
-0.990122, 393, 45, 456, 76
-0.990134, 25, 201, 88, 264
-0.990137, 369, 209, 432, 272
-0.990145, 465, 225, 496, 352
-0.990149, 289, 49, 416, 112
-0.990155, 245, 281, 276, 344
-0.990166, 289, 305, 416, 368
-0.990193, 393, 129, 456, 192
-0.990194, 13, 209, 44, 272
-0.9903, 337, 25, 400, 56
-0.99031, 297, 249, 360, 280
-0.99035, 433, 253, 496, 284
-0.990357, 25, 233, 88, 264
-0.990358, 145, 249, 208, 280
-0.990362, 257, 225, 500, 288
-0.990427, 305, 153, 368, 184
-0.990438, 65, 1, 192, 64
-0.99044, 81, 241, 144, 272
-0.990453, 193, 225, 224, 288
-0.990472, 337, 25, 368, 88
-0.99049, 193, 213, 256, 244
-0.990519, 1, 229, 64, 260
-0.990534, 209, 201, 272, 232
-0.990552, 225, 185, 288, 216
-0.990553, 321, 1, 384, 32
-0.990614, 97, 345, 160, 375
-0.99062, 385, 121, 416, 184
-0.990672, 257, 317, 320, 348
-0.990675, 337, 261, 400, 292
-0.990689, 257, 1, 500, 64
-0.990692, 225, 137, 480, 200
-0.990695, 361, 153, 424, 184
-0.990709, 273, 269, 336, 300
-0.990737, 161, 337, 224, 368
-0.990782, 425, 129, 488, 375
-0.990787, 313, 129, 376, 160
-0.990804, 1, 305, 256, 368
-0.99081, 65, 229, 128, 260
-0.990814, 65, 265, 320, 328
-0.990824, 81, 321, 144, 352
-0.990866, 49, 1, 176, 128
-0.990887, 369, 105, 496, 168
-0.990908, 241, 337, 304, 368
-0.990915, 361, 165, 424, 196
-0.990923, 453, 49, 484, 176
-0.990945, 329, 37, 392, 68
-0.990948, 345, 13, 408, 44
-0.990957, 113, 277, 176, 308
-0.990972, 185, 169, 248, 232
-0.991011, 377, 253, 440, 284
-0.991013, 125, 1, 156, 128
-0.991051, 105, 297, 168, 328
-0.991057, 105, 321, 168, 352
-0.991059, 217, 301, 280, 332
-0.991068, 177, 229, 240, 260
-0.991094, 209, 265, 272, 296
-0.991095, 393, 17, 456, 48
-0.99111, 137, 289, 200, 320
-0.991136, 73, 257, 136, 288
-0.991166, 217, 25, 280, 88
-0.991166, 105, 209, 168, 272
-0.991167, 49, 241, 112, 272
-0.991174, 265, 97, 296, 224
-0.99118, 161, 25, 288, 88
-0.991225, 409, 61, 472, 92
-0.991234, 89, 333, 152, 364
-0.991234, 137, 345, 200, 375
-0.991236, 245, 113, 276, 240
-0.991268, 241, 17, 304, 144
-0.991271, 433, 265, 496, 296
-0.991274, 129, 305, 192, 336
-0.991275, 153, 217, 216, 280
-0.991328, 329, 149, 392, 180
-0.991332, 365, 1, 396, 128
-0.991335, 361, 49, 424, 80
-0.991359, 433, 69, 496, 100
-0.991365, 193, 193, 448, 256
-0.991378, 345, 197, 408, 228
-0.991393, 201, 1, 264, 256
-0.991394, 285, 97, 316, 224
-0.991416, 193, 293, 256, 324
-0.991436, 393, 285, 456, 316
-0.991474, 25, 277, 88, 308
-0.991487, 273, 169, 336, 200
-0.991493, 297, 269, 360, 300
-0.991496, 145, 261, 208, 292
-0.991506, 353, 129, 480, 192
-0.99151, 49, 277, 112, 308
-0.991527, 433, 97, 496, 160
-0.991547, 393, 1, 456, 32
-0.991555, 133, 193, 164, 320
-0.99156, 361, 281, 424, 312
-0.991568, 97, 193, 224, 256
-0.991579, 89, 281, 152, 312
-0.991598, 273, 33, 336, 96
-0.991621, 233, 269, 296, 300
-0.991629, 297, 305, 360, 336
-0.99163, 9, 249, 72, 280
-0.991687, 321, 13, 384, 44
-0.99169, 73, 345, 136, 375
-0.9917, 9, 305, 72, 336
-0.991701, 385, 57, 448, 88
-0.991708, 353, 297, 416, 328
-0.991716, 401, 33, 464, 64
-0.991717, 297, 81, 328, 208
-0.991733, 49, 253, 112, 284
-0.991749, 297, 177, 360, 240
-0.991753, 433, 1, 496, 32
-0.991788, 241, 305, 304, 336
-0.991794, 105, 237, 168, 268
-0.991795, 153, 237, 216, 268
-0.991798, 209, 1, 336, 64
-0.991799, 273, 245, 336, 276
-0.9918, 129, 321, 192, 352
-0.99184, 209, 33, 336, 96
-0.991879, 113, 17, 240, 80
-0.991898, 129, 229, 192, 260
-0.991902, 321, 301, 384, 332
-0.991912, 161, 281, 224, 312
-0.991933, 337, 49, 400, 80
-0.991949, 201, 313, 264, 344
-0.991955, 105, 1, 136, 128
-0.991956, 217, 17, 280, 144
-0.991973, 137, 273, 200, 304
-0.99199, 1, 277, 64, 308
-0.992004, 209, 337, 272, 368
-0.992004, 1, 329, 64, 360
-0.992016, 293, 177, 324, 304
-0.992024, 137, 333, 200, 364
-0.992027, 41, 301, 104, 332
-0.99203, 393, 153, 456, 184
-0.992032, 65, 297, 128, 328
-0.992034, 321, 221, 384, 252
-0.992084, 417, 49, 480, 80
-0.992086, 305, 37, 368, 68
-0.992088, 273, 137, 336, 168
-0.9921, 417, 277, 480, 308
-0.992114, 185, 345, 248, 375
-0.992125, 153, 301, 216, 332
-0.992137, 57, 325, 120, 356
-0.992149, 25, 221, 88, 252
-0.992169, 249, 245, 312, 276
-0.992188, 381, 21, 412, 52
-0.992198, 265, 257, 296, 288
-0.9922, 433, 89, 496, 120
-0.992206, 393, 165, 456, 196
-0.992207, 97, 289, 352, 352
-0.992227, 1, 209, 500, 272
-0.992234, 241, 105, 368, 168
-0.992252, 329, 181, 392, 212
-0.992272, 129, 313, 384, 375
-0.992284, 193, 129, 320, 192
-0.992308, 393, 21, 424, 52
-0.992332, 229, 225, 260, 352
-0.992335, 369, 33, 400, 64
-0.992376, 289, 105, 416, 168
-0.992392, 413, 41, 444, 72
-0.992414, 225, 193, 256, 224
-0.992415, 61, 313, 92, 344
-0.992419, 389, 149, 420, 180
-0.992424, 365, 185, 396, 216
-0.992431, 121, 305, 152, 336
-0.992434, 233, 181, 264, 212
-0.992441, 369, 105, 432, 168
-0.992449, 89, 309, 120, 340
-0.99245, 469, 225, 500, 256
-0.992463, 21, 317, 52, 348
-0.992485, 257, 41, 500, 104
-0.992488, 417, 249, 448, 280
-0.992501, 453, 233, 484, 264
-0.992512, 401, 33, 432, 64
-0.992526, 245, 173, 276, 204
-0.99253, 405, 257, 436, 288
-0.992539, 353, 29, 384, 60
-0.992541, 381, 37, 412, 68
-0.992544, 449, 253, 480, 284
-0.992548, 125, 317, 156, 348
-0.992558, 49, 313, 80, 344
-0.992574, 253, 257, 284, 288
-0.992577, 105, 309, 136, 340
-0.992582, 157, 249, 188, 280
-0.992582, 425, 53, 456, 84
-0.992588, 137, 265, 168, 296
-0.99259, 469, 1, 500, 32
-0.992593, 217, 97, 280, 224
-0.992597, 73, 309, 104, 340
-0.992597, 285, 149, 316, 180
-0.992611, 369, 241, 496, 272
-0.992618, 37, 317, 68, 348
-0.992626, 313, 141, 344, 172
-0.992629, 285, 257, 316, 288
-0.992629, 373, 133, 404, 164
-0.992642, 1, 317, 32, 348
-0.992649, 269, 157, 300, 188
-0.992671, 209, 209, 240, 240
-0.992671, 181, 1, 212, 128
-0.992673, 389, 5, 420, 36
-0.99268, 369, 17, 400, 48
-0.992684, 461, 245, 492, 276
-0.992689, 325, 133, 356, 164
-0.992702, 109, 265, 140, 296
-0.992707, 197, 333, 228, 364
-0.992708, 301, 141, 332, 172
-0.992709, 81, 1, 144, 128
-0.992709, 433, 241, 464, 272
-0.992715, 137, 305, 168, 336
-0.992729, 177, 129, 240, 375
-0.992737, 65, 209, 320, 272
-0.992738, 357, 17, 388, 48
-0.992743, 389, 269, 420, 300
-0.992746, 369, 45, 400, 76
-0.992747, 225, 325, 256, 356
-0.992747, 437, 261, 468, 292
-0.992756, 105, 129, 168, 375
-0.99276, 405, 21, 436, 52
-0.99276, 109, 341, 140, 372
-0.992773, 305, 241, 336, 272
-0.992778, 129, 253, 160, 284
-0.992784, 381, 165, 412, 196
-0.992799, 257, 165, 288, 196
-0.992801, 369, 173, 400, 204
-0.992805, 249, 325, 280, 356
-0.99281, 401, 45, 432, 76
-0.992817, 241, 261, 272, 292
-0.992832, 425, 269, 456, 300
-0.992839, 361, 129, 392, 160
-0.992849, 237, 325, 268, 356
-0.992856, 125, 293, 156, 324
-0.992859, 185, 337, 216, 368
-0.992861, 117, 329, 148, 360
-0.992864, 305, 149, 432, 180
-0.992867, 57, 233, 88, 264
-0.992868, 457, 73, 488, 104
-0.992881, 197, 213, 228, 244
-0.992882, 425, 221, 456, 252
-0.992888, 377, 1, 408, 32
-0.992909, 85, 241, 116, 272
-0.992915, 25, 233, 56, 264
-0.992916, 265, 193, 296, 320
-0.99292, 461, 205, 492, 236
-0.992922, 161, 1, 224, 375
-0.992922, 169, 341, 200, 372
-0.992923, 413, 229, 444, 260
-0.992925, 345, 9, 376, 40
-0.992925, 333, 217, 364, 248
-0.992928, 437, 49, 468, 80
-0.992934, 125, 277, 156, 308
-0.992935, 97, 233, 128, 264
-0.992958, 173, 237, 204, 268
-0.992962, 297, 265, 328, 296
-0.992965, 385, 49, 416, 80
-0.992967, 417, 29, 448, 60
-0.992968, 401, 233, 432, 264
-0.992968, 209, 333, 240, 364
-0.992969, 97, 261, 128, 292
-0.992969, 313, 157, 344, 188
-0.99297, 385, 137, 416, 168
-0.992972, 73, 237, 104, 268
-0.992977, 137, 285, 168, 316
-0.992983, 97, 341, 128, 372
-0.992989, 145, 253, 176, 284
-0.992989, 109, 237, 140, 268
-0.99299, 97, 245, 128, 276
-0.992991, 377, 277, 408, 308
-0.992996, 341, 125, 372, 156
-0.993009, 269, 317, 300, 348
-0.993012, 149, 269, 180, 300
-0.993019, 317, 233, 348, 264
-0.99302, 241, 297, 272, 328
-0.993022, 213, 197, 244, 228
-0.993024, 113, 249, 144, 280
-0.993025, 353, 253, 480, 284
-0.993026, 137, 317, 168, 348
-0.993032, 401, 269, 432, 300
-0.993034, 465, 261, 496, 292
-0.993035, 325, 149, 356, 180
-0.993036, 45, 233, 76, 264
-0.993037, 437, 217, 468, 248
-0.993037, 449, 209, 480, 240
-0.993039, 389, 241, 420, 272
-0.99304, 213, 145, 244, 272
-0.993051, 193, 17, 256, 80
-0.993055, 409, 17, 424, 80
-0.993055, 357, 49, 388, 176
-0.993063, 377, 245, 408, 276
-0.993065, 169, 289, 200, 320
-0.993066, 85, 229, 116, 260
-0.993067, 301, 161, 332, 192
-0.993068, 437, 61, 468, 92
-0.99307, 5, 237, 36, 268
-0.993071, 125, 341, 156, 372
-0.993076, 301, 253, 332, 284
-0.993077, 413, 53, 444, 84
-0.99308, 205, 297, 236, 328
-0.993081, 397, 57, 428, 88
-0.993083, 185, 221, 216, 252
-0.993087, 393, 257, 424, 288
-0.993092, 445, 273, 476, 304
-0.993092, 97, 321, 128, 352
-0.993111, 429, 241, 460, 368
-0.993143, 289, 133, 416, 164
-0.993197, 49, 313, 176, 344
-0.993212, 145, 9, 208, 72
-0.993218, 249, 33, 312, 96
-0.993292, 225, 129, 256, 256
-0.993315, 1, 297, 500, 360
-0.993448, 117, 177, 148, 304
-0.993452, 177, 1, 240, 256
-0.993476, 137, 129, 200, 375
-0.993517, 17, 1, 144, 64
-0.993518, 401, 9, 416, 72
-0.993523, 317, 1, 348, 128
-0.993573, 459, 233, 474, 296
-0.993578, 33, 201, 160, 264
-0.993586, 225, 297, 480, 360
-0.993592, 337, 33, 464, 64
-0.993619, 391, 17, 406, 80
-0.993628, 321, 233, 384, 296
-0.993642, 81, 245, 208, 276
-0.993704, 401, 65, 464, 128
-0.993711, 419, 225, 434, 288
-0.993743, 165, 177, 196, 304
-0.993785, 417, 249, 432, 312
-0.993789, 81, 177, 112, 304
-0.993817, 127, 297, 142, 360
-0.993837, 145, 193, 176, 320
-0.99384, 399, 145, 414, 208
-0.993841, 385, 17, 400, 80
-0.993851, 145, 145, 272, 208
-0.993855, 423, 249, 438, 312
-0.993977, 273, 209, 336, 272
-0.993997, 161, 49, 416, 176
-0.993999, 441, 161, 472, 288
-0.994016, 225, 273, 480, 336
-0.994042, 209, 145, 272, 208
-0.994066, 241, 253, 368, 284
-0.99407, 473, 201, 488, 264
-0.994072, 401, 289, 464, 352
-0.994084, 1, 229, 128, 260
-0.994091, 1, 313, 128, 344
-0.994145, 1, 1, 500, 64
-0.994145, 239, 177, 254, 240
-0.994185, 309, 241, 324, 304
-0.994193, 113, 169, 240, 232
-0.994202, 447, 241, 462, 304
-0.994205, 17, 1, 144, 256
-0.994236, 57, 1, 120, 64
-0.994237, 115, 281, 130, 344
-0.994241, 201, 145, 232, 272
-0.994242, 5, 177, 36, 304
-0.994261, 415, 17, 430, 80
-0.994274, 441, 241, 456, 304
-0.994287, 371, 17, 386, 80
-0.994316, 83, 281, 98, 344
-0.994317, 455, 209, 470, 272
-0.994334, 453, 233, 468, 296
-0.994337, 409, 249, 424, 312
-0.99434, 429, 241, 444, 304
-0.994343, 1, 145, 500, 208
-0.994365, 89, 281, 104, 344
-0.994384, 241, 201, 368, 264
-0.994385, 121, 313, 136, 375
-0.994388, 393, 137, 408, 200
-0.994406, 475, 225, 490, 288
-0.994415, 255, 257, 270, 320
-0.994419, 425, 33, 440, 96
-0.994423, 289, 161, 416, 192
-0.994424, 469, 225, 484, 288
-0.994486, 109, 241, 124, 304
-0.994504, 379, 9, 394, 72
-0.994545, 95, 281, 110, 344
-0.994604, 247, 169, 262, 232
-0.994606, 177, 301, 304, 332
-0.994607, 127, 257, 142, 320
-0.994612, 275, 257, 290, 320
-0.994628, 263, 257, 278, 320
-0.994635, 29, 177, 60, 304
-0.994641, 321, 17, 448, 48
-0.994641, 33, 241, 160, 272
-0.994666, 133, 297, 148, 360
-0.994686, 269, 257, 284, 320
-0.99469, 7, 233, 22, 296
-0.994701, 449, 209, 464, 272
-0.994705, 439, 217, 454, 280
-0.994732, 119, 249, 134, 312
-0.994735, 73, 193, 136, 256
-0.994749, 409, 185, 472, 248
-0.994773, 161, 1, 416, 64
-0.994776, 161, 1, 192, 128
-0.99478, 241, 157, 368, 188
-0.994798, 431, 33, 446, 96
-0.994809, 83, 305, 98, 368
-0.994815, 435, 241, 450, 304
-0.994815, 77, 305, 92, 368
-0.99482, 289, 261, 416, 292
-0.994823, 257, 145, 384, 176
-0.994827, 289, 249, 416, 280
-0.994851, 233, 185, 248, 248
-0.994856, 227, 193, 242, 256
-0.994865, 161, 333, 288, 364
-0.994888, 97, 301, 224, 332
-0.994891, 217, 201, 232, 264
-0.994915, 289, 237, 416, 268
-0.994918, 103, 281, 118, 344
-0.994944, 305, 1, 432, 32
-0.994966, 353, 57, 480, 88
-0.994972, 161, 25, 416, 88
-0.994976, 153, 185, 216, 248
-0.994982, 399, 257, 414, 320
-0.994984, 463, 209, 478, 272
-0.994998, 1, 185, 500, 248
-0.995023, 225, 265, 352, 296
-0.99504, 409, 225, 424, 288
-0.99505, 97, 337, 224, 368
-0.995052, 27, 313, 42, 375
-0.995059, 145, 249, 272, 280
-0.995071, 41, 313, 56, 375
-0.995078, 485, 193, 500, 256
-0.995095, 269, 153, 284, 216
-0.995106, 19, 233, 34, 296
-0.995118, 33, 313, 48, 375
-0.995124, 99, 241, 114, 304
-0.995127, 57, 177, 88, 304
-0.99515, 111, 305, 126, 368
-0.995153, 121, 273, 136, 336
-0.995155, 109, 281, 124, 344
-0.995156, 101, 305, 116, 368
-0.995168, 259, 161, 274, 224
-0.995168, 113, 261, 240, 292
-0.99517, 405, 153, 420, 216
-0.995173, 293, 145, 308, 208
-0.995178, 369, 129, 400, 375
-0.995192, 65, 265, 192, 296
-0.995198, 17, 177, 48, 304
-0.995218, 481, 225, 496, 288
-0.995229, 287, 145, 302, 208
-0.995236, 335, 129, 350, 192
-0.995237, 139, 313, 154, 375
-0.995261, 1, 233, 16, 296
-0.995287, 337, 269, 464, 300
-0.995294, 225, 173, 352, 204
-0.995296, 429, 217, 444, 280
-0.995305, 289, 41, 416, 72
-0.995307, 13, 233, 28, 296
-0.995309, 289, 29, 416, 60
-0.995321, 73, 233, 88, 296
-0.995339, 275, 153, 290, 216
-0.995355, 221, 289, 236, 352
-0.995363, 133, 257, 148, 320
-0.995369, 329, 129, 344, 192
-0.995381, 321, 209, 448, 240
-0.995394, 81, 233, 208, 264
-0.995405, 381, 129, 412, 375
-0.995407, 399, 233, 414, 296
-0.995429, 329, 65, 360, 192
-0.995505, 161, 249, 176, 312
-0.995506, 249, 257, 264, 320
-0.995509, 137, 1, 168, 128
-0.995521, 369, 229, 496, 260
-0.995523, 67, 225, 82, 288
-0.995542, 401, 129, 464, 375
-0.995552, 25, 233, 40, 296
-0.995571, 317, 233, 332, 296
-0.995572, 57, 305, 72, 368
-0.995578, 71, 305, 86, 368
-0.995582, 385, 129, 400, 192
-0.995584, 317, 265, 332, 328
-0.995584, 361, 1, 392, 256
-0.995593, 299, 137, 314, 200
-0.995606, 149, 265, 164, 328
-0.995609, 323, 233, 338, 296
-0.99561, 91, 305, 106, 368
-0.995616, 281, 153, 296, 216
-0.995617, 33, 253, 160, 284
-0.995625, 73, 129, 136, 375
-0.99563, 65, 325, 192, 356
-0.995638, 1, 25, 500, 88
-0.99565, 77, 281, 92, 344
-0.995653, 1, 325, 128, 356
-0.995659, 303, 241, 318, 304
-0.99566, 369, 5, 496, 36
-0.995662, 51, 305, 66, 368
-0.995664, 93, 241, 108, 304
-0.995664, 139, 249, 154, 312
-0.995675, 337, 197, 464, 228
-0.995677, 209, 209, 224, 272
-0.995701, 253, 169, 268, 232
-0.995708, 43, 225, 58, 288
-0.99571, 337, 45, 464, 76
-0.995718, 365, 9, 380, 72
-0.995719, 129, 313, 256, 344
-0.995723, 103, 217, 118, 280
-0.995736, 323, 129, 338, 192
-0.995752, 181, 233, 196, 296
-0.995759, 305, 221, 432, 252
-0.99577, 369, 21, 496, 52
-0.995772, 373, 1, 404, 256
-0.995773, 335, 1, 350, 64
-0.995775, 225, 1, 288, 64
-0.99578, 177, 265, 304, 296
-0.995784, 33, 249, 48, 312
-0.995786, 191, 225, 206, 288
-0.995787, 49, 285, 176, 316
-0.99579, 403, 33, 418, 96
-0.995798, 265, 17, 328, 144
-0.995805, 31, 225, 46, 288
-0.995809, 367, 177, 382, 240
-0.995817, 21, 305, 36, 368
-0.995827, 391, 241, 406, 304
-0.995832, 475, 73, 490, 136
-0.995842, 347, 121, 362, 184
-0.995846, 337, 97, 368, 352
-0.995847, 209, 185, 336, 216
-0.995849, 193, 205, 320, 236
-0.995854, 351, 257, 366, 320
-0.995854, 311, 265, 326, 328
-0.995854, 353, 129, 384, 375
-0.995867, 209, 305, 224, 368
-0.995875, 67, 249, 82, 312
-0.995879, 173, 241, 188, 304
-0.995884, 215, 289, 230, 352
-0.995887, 391, 161, 406, 224
-0.995894, 479, 193, 494, 256
-0.995899, 97, 289, 224, 320
-0.995924, 275, 313, 290, 375
-0.99595, 27, 273, 42, 336
-0.995956, 343, 265, 358, 328
-0.995957, 63, 305, 78, 368
-0.995965, 311, 137, 326, 200
-0.995988, 149, 1, 180, 128
-0.996002, 177, 177, 208, 304
-0.996005, 49, 345, 176, 375
-0.996016, 417, 161, 448, 288
-0.996035, 193, 321, 320, 352
-0.996053, 305, 297, 432, 328
-0.996083, 225, 293, 352, 324
-0.996134, 401, 97, 432, 224
-0.996163, 433, 169, 496, 232
-0.996177, 97, 1, 160, 375
-0.996196, 341, 65, 372, 192
-0.996238, 97, 129, 224, 256
-0.996262, 97, 145, 352, 208
-0.996281, 33, 301, 160, 332
-0.996297, 113, 325, 240, 356
-0.996395, 385, 1, 416, 256
-0.996442, 369, 69, 496, 100
-0.996458, 313, 129, 344, 375
-0.99646, 273, 17, 400, 48
-0.99647, 369, 217, 496, 248
-0.996526, 33, 185, 288, 248
-0.996529, 349, 1, 380, 256
-0.996539, 301, 129, 332, 375
-0.996553, 285, 129, 316, 375
-0.996581, 241, 313, 368, 344
-0.996586, 325, 97, 356, 352
-0.996595, 253, 129, 284, 375
-0.996605, 81, 221, 208, 252
-0.996629, 241, 37, 368, 68
-0.996637, 177, 217, 304, 248
-0.99664, 145, 1, 208, 256
-0.996687, 273, 173, 400, 204
-0.996698, 97, 277, 224, 308
-0.996778, 145, 237, 272, 268
-0.996792, 145, 289, 272, 320
-0.996808, 1, 277, 128, 308
-0.996836, 353, 289, 480, 320
-0.996901, 329, 1, 360, 256
-0.996919, 193, 345, 320, 375
-0.996952, 337, 185, 464, 216
-0.996953, 465, 65, 496, 320
-0.996959, 193, 161, 320, 192
-0.99697, 385, 21, 400, 52
-0.99697, 427, 41, 442, 72
-0.997007, 375, 33, 390, 64
-0.997018, 369, 161, 496, 192
-0.997028, 399, 149, 414, 180
-0.99704, 189, 145, 220, 272
-0.997048, 201, 241, 232, 368
-0.997052, 161, 1, 288, 64
-0.997052, 385, 37, 400, 68
-0.997063, 409, 17, 424, 48
-0.997082, 257, 185, 384, 216
-0.997093, 245, 177, 260, 208
-0.997105, 1, 1, 64, 375
-0.997109, 129, 1, 192, 375
-0.997128, 17, 265, 144, 296
-0.99714, 337, 137, 464, 168
-0.997195, 241, 197, 368, 228
-0.997207, 375, 21, 390, 52
-0.997222, 33, 9, 288, 72
-0.997226, 265, 129, 296, 375
-0.997227, 145, 189, 272, 220
-0.997242, 117, 309, 132, 340
-0.99725, 237, 185, 252, 216
-0.997289, 393, 25, 408, 56
-0.997294, 277, 257, 292, 288
-0.99731, 229, 193, 244, 224
-0.997312, 479, 1, 494, 32
-0.997317, 289, 273, 416, 304
-0.997331, 401, 13, 416, 44
-0.997343, 145, 345, 272, 375
-0.997344, 241, 129, 272, 375
-0.997345, 417, 29, 432, 60
-0.997347, 71, 313, 86, 344
-0.997354, 105, 145, 168, 272
-0.997363, 23, 317, 38, 348
-0.99737, 393, 5, 408, 36
-0.99738, 223, 197, 238, 228
-0.997399, 87, 309, 102, 340
-0.997413, 225, 221, 352, 252
-0.997419, 41, 177, 72, 304
-0.99742, 393, 41, 408, 72
-0.997422, 301, 1, 332, 256
-0.997432, 369, 33, 384, 64
-0.997453, 255, 261, 270, 292
-0.997466, 251, 173, 266, 204
-0.997469, 49, 317, 64, 348
-0.997473, 411, 257, 426, 288
-0.997477, 103, 309, 118, 340
-0.997481, 93, 309, 108, 340
-0.997483, 421, 41, 436, 72
-0.997487, 265, 257, 280, 288
-0.997502, 65, 313, 80, 344
-0.997509, 337, 173, 464, 204
-0.997517, 391, 137, 406, 168
-0.997528, 383, 133, 398, 164
-0.997533, 79, 313, 94, 344
-0.997538, 141, 313, 156, 344
-0.997538, 239, 325, 254, 356
-0.997542, 433, 49, 448, 80
-0.997545, 427, 249, 442, 280
-0.997554, 127, 313, 142, 344
-0.997555, 153, 257, 168, 288
-0.99757, 419, 253, 434, 284
-0.997591, 307, 249, 322, 280
-0.997594, 479, 225, 494, 256
-0.997601, 217, 205, 232, 236
-0.997613, 471, 229, 486, 260
-0.997615, 177, 173, 304, 204
-0.99762, 409, 37, 424, 68
-0.997622, 297, 209, 360, 272
-0.997623, 241, 133, 368, 164
-0.997636, 399, 29, 414, 60
-0.997638, 177, 277, 304, 308
-0.997641, 133, 305, 148, 336
-0.997646, 393, 129, 424, 375
-0.997651, 415, 45, 430, 76
-0.997656, 365, 13, 380, 44
-0.997685, 129, 277, 144, 308
-0.997686, 129, 121, 384, 184
-0.997686, 405, 257, 420, 288
-0.99769, 59, 313, 74, 344
-0.997694, 397, 265, 412, 296
-0.997696, 111, 309, 126, 340
-0.997704, 453, 33, 484, 288
-0.997712, 135, 317, 150, 348
-0.997724, 257, 169, 272, 200
-0.99773, 461, 233, 476, 264
-0.997746, 265, 1, 296, 256
-0.997757, 473, 77, 488, 108
-0.997763, 121, 333, 136, 364
-0.997763, 43, 317, 58, 348
-0.997769, 401, 1, 432, 256
-0.997781, 17, 317, 32, 348
-0.997787, 7, 317, 22, 348
-0.997789, 485, 225, 500, 256
-0.997791, 369, 149, 496, 180
-0.997793, 451, 261, 466, 292
-0.997794, 459, 257, 474, 288
-0.997797, 127, 341, 142, 372
-0.997805, 199, 333, 214, 364
-0.997813, 103, 345, 118, 375
-0.99782, 295, 149, 310, 180
-0.99782, 271, 257, 286, 288
-0.997822, 209, 145, 336, 176
-0.997823, 123, 273, 138, 304
-0.997828, 29, 321, 44, 352
-0.997834, 113, 341, 128, 372
-0.997836, 323, 137, 338, 168
-0.997841, 467, 249, 482, 280
-0.997851, 211, 209, 226, 240
-0.997867, 145, 21, 272, 52
-0.99787, 361, 33, 376, 64
-0.997873, 265, 161, 280, 192
-0.997876, 443, 241, 458, 272
-0.997877, 161, 249, 176, 280
-0.997877, 147, 305, 162, 336
-0.997878, 229, 129, 260, 375
-0.997885, 145, 253, 160, 284
-0.997889, 127, 325, 142, 356
-0.997889, 139, 301, 154, 332
-0.997891, 365, 181, 380, 212
-0.997892, 289, 1, 320, 256
-0.997903, 273, 157, 288, 188
-0.997908, 129, 201, 256, 232
-0.997912, 449, 237, 464, 268
-0.997916, 313, 33, 344, 288
-0.997923, 289, 149, 304, 180
-0.997934, 193, 253, 320, 284
-0.997937, 55, 233, 70, 264
-0.997941, 205, 213, 220, 244
-0.99796, 339, 129, 354, 160
-0.997965, 95, 241, 110, 272
-0.997967, 343, 149, 358, 180
-0.99797, 193, 337, 208, 368
-0.997972, 359, 9, 374, 40
-0.997973, 283, 153, 298, 184
-0.997979, 437, 245, 452, 276
-0.997981, 345, 37, 360, 68
-0.99799, 215, 329, 230, 360
-0.997992, 253, 1, 284, 256
-0.997995, 249, 261, 264, 292
-0.997999, 441, 33, 472, 288
-0.998, 205, 333, 220, 364
-0.998001, 371, 45, 386, 76
-0.998002, 379, 45, 394, 76
-0.998005, 439, 49, 454, 80
-0.998009, 375, 129, 390, 160
-0.998009, 105, 245, 120, 276
-0.99801, 445, 265, 460, 296
-0.998012, 305, 121, 432, 152
-0.998015, 413, 269, 428, 300
-0.998022, 193, 29, 320, 60
-0.998024, 187, 233, 202, 264
-0.998027, 193, 225, 208, 256
-0.998034, 475, 245, 490, 276
-0.998036, 413, 1, 444, 256
-0.998041, 73, 233, 88, 264
-0.998048, 255, 321, 270, 352
-0.998053, 403, 41, 418, 72
-0.998059, 199, 221, 214, 252
-0.998059, 437, 269, 452, 300
-0.998061, 429, 269, 444, 300
-0.998063, 337, 217, 352, 248
-0.998067, 37, 317, 52, 348
-0.998069, 129, 225, 256, 256
-0.998069, 33, 233, 48, 264
-0.998074, 17, 217, 144, 248
-0.998075, 303, 145, 318, 176
-0.998077, 423, 29, 438, 60
-0.99808, 227, 325, 242, 356
-0.998081, 89, 237, 104, 268
-0.998082, 263, 321, 278, 352
-0.998085, 177, 241, 192, 272
-0.998091, 1, 345, 128, 375
-0.998092, 241, 297, 256, 328
-0.998096, 109, 265, 124, 296
-0.998097, 277, 1, 308, 256
-0.998109, 97, 13, 224, 44
-0.998112, 289, 53, 416, 84
-0.998125, 209, 233, 336, 264
-0.998126, 241, 209, 368, 240
-0.998184, 225, 17, 256, 144
-0.998194, 33, 1, 160, 32
-0.998212, 193, 1, 224, 128
-0.998224, 241, 33, 272, 288
-0.998237, 369, 125, 496, 156
-0.998288, 257, 1, 384, 32
-0.998288, 289, 285, 416, 316
-0.998291, 225, 277, 352, 308
-0.998371, 65, 1, 128, 375
-0.998374, 217, 129, 248, 375
-0.998388, 425, 33, 456, 288
-0.998406, 417, 253, 448, 268
-0.998406, 449, 255, 480, 270
-0.998406, 273, 319, 304, 334
-0.998408, 113, 331, 144, 346
-0.998408, 289, 309, 416, 340
-0.998408, 393, 261, 424, 276
-0.998408, 317, 161, 348, 176
-0.998409, 221, 191, 252, 206
-0.998411, 193, 227, 224, 242
-0.998411, 369, 21, 432, 36
-0.998413, 105, 311, 136, 326
-0.998414, 125, 317, 156, 332
-0.998415, 249, 301, 280, 316
-0.998415, 457, 75, 488, 90
-0.998416, 469, 199, 500, 214
-0.998416, 181, 337, 212, 352
-0.998416, 229, 1, 260, 256
-0.998417, 289, 151, 320, 166
-0.998417, 125, 359, 156, 374
-0.998418, 421, 225, 452, 240
-0.998418, 409, 233, 440, 248
-0.998418, 377, 33, 440, 48
-0.998418, 169, 347, 200, 362
-0.998418, 301, 159, 332, 174
-0.99842, 341, 17, 372, 32
-0.998421, 397, 237, 428, 252
-0.998424, 237, 17, 268, 144
-0.998425, 433, 61, 464, 76
-0.998425, 369, 15, 400, 30
-0.998426, 437, 267, 468, 282
-0.998427, 109, 319, 140, 334
-0.998427, 125, 323, 156, 338
-0.998427, 125, 267, 156, 282
-0.998427, 329, 159, 360, 174
-0.998428, 397, 51, 428, 66
-0.998428, 153, 259, 184, 274
-0.998428, 389, 159, 420, 174
-0.998429, 145, 305, 176, 320
-0.998429, 233, 269, 264, 284
-0.99843, 429, 247, 460, 262
-0.99843, 77, 313, 108, 328
-0.998431, 189, 343, 220, 358
-0.998431, 385, 51, 416, 66
-0.998432, 441, 69, 472, 84
-0.998433, 81, 355, 112, 370
-0.998433, 417, 263, 448, 278
-0.998434, 469, 237, 500, 252
-0.998435, 25, 355, 56, 370
-0.998436, 285, 255, 316, 270
-0.998439, 421, 51, 452, 66
-0.998439, 433, 55, 464, 70
-0.998439, 357, 35, 388, 50
-0.998439, 269, 159, 300, 174
-0.998441, 101, 349, 132, 364
-0.998441, 337, 1, 368, 16
-0.998442, 249, 261, 312, 276
-0.998442, 369, 133, 400, 148
-0.998442, 361, 45, 424, 60
-0.998443, 313, 139, 344, 154
-0.998443, 117, 261, 148, 276
-0.998443, 189, 305, 220, 320
-0.998444, 381, 273, 412, 288
-0.998445, 273, 267, 336, 282
-0.998446, 345, 47, 376, 62
-0.998448, 345, 129, 376, 144
-0.998448, 405, 269, 436, 284
-0.998448, 449, 261, 480, 276
-0.99845, 113, 351, 144, 366
-0.998451, 369, 27, 432, 42
-0.998453, 433, 219, 464, 234
-0.998453, 409, 29, 440, 44
-0.998454, 321, 3, 352, 18
-0.998455, 353, 187, 416, 202
-0.998455, 105, 255, 168, 270
-0.998456, 457, 235, 488, 250
-0.998456, 329, 151, 360, 166
-0.998457, 373, 49, 404, 64
-0.998461, 297, 267, 328, 282
-0.998462, 469, 7, 500, 22
-0.998463, 377, 141, 408, 156
-0.998463, 329, 129, 392, 144
-0.998464, 461, 243, 492, 258
-0.998465, 57, 315, 88, 330
-0.998465, 305, 159, 368, 174
-0.998466, 105, 309, 168, 324
-0.998467, 449, 211, 480, 226
-0.99847, 369, 39, 432, 54
-0.99847, 441, 239, 472, 254
-0.99847, 249, 173, 280, 188
-0.998471, 133, 309, 164, 324
-0.998472, 201, 219, 232, 234
-0.998472, 9, 321, 72, 336
-0.998475, 317, 155, 348, 170
-0.998475, 201, 299, 264, 314
-0.998475, 237, 301, 268, 316
-0.998475, 405, 257, 436, 272
-0.998475, 337, 37, 400, 52
-0.998476, 433, 255, 496, 270
-0.998478, 353, 15, 416, 30
-0.998478, 229, 329, 260, 344
-0.998482, 217, 331, 248, 346
-0.998482, 393, 51, 456, 66
-0.998483, 233, 181, 296, 196
-0.998483, 357, 23, 388, 38
-0.998484, 273, 155, 336, 170
-0.998484, 465, 205, 496, 220
-0.998485, 93, 311, 124, 326
-0.998486, 417, 263, 480, 278
-0.998487, 45, 319, 76, 334
-0.998487, 465, 251, 496, 266
-0.998488, 225, 301, 256, 316
-0.99849, 385, 265, 448, 280
-0.99849, 153, 251, 184, 266
-0.998492, 369, 27, 400, 42
-0.998492, 109, 343, 140, 358
-0.998493, 5, 321, 36, 336
-0.998496, 405, 263, 436, 278
-0.998498, 33, 321, 64, 336
-0.998503, 137, 255, 168, 270
-0.998503, 237, 183, 268, 198
-0.998504, 433, 241, 496, 256
-0.998505, 257, 163, 320, 178
-0.998506, 285, 267, 316, 282
-0.998506, 401, 255, 464, 270
-0.998506, 381, 147, 412, 162
-0.998507, 265, 259, 296, 274
-0.998508, 417, 249, 480, 264
-0.998508, 113, 263, 176, 278
-0.998509, 331, 209, 346, 336
-0.99851, 357, 17, 388, 32
-0.99851, 225, 191, 288, 206
-0.998511, 385, 23, 416, 38
-0.998511, 393, 17, 424, 32
-0.998511, 397, 35, 428, 50
-0.998512, 117, 337, 148, 352
-0.998512, 93, 359, 124, 374
-0.998513, 413, 41, 444, 56
-0.998513, 345, 23, 408, 38
-0.998515, 469, 229, 500, 244
-0.998516, 417, 225, 480, 240
-0.998517, 357, 45, 388, 60
-0.998517, 389, 153, 420, 168
-0.998517, 385, 239, 448, 254
-0.998517, 345, 1, 408, 16
-0.998518, 41, 315, 104, 330
-0.998518, 373, 37, 404, 52
-0.99852, 241, 175, 304, 190
-0.99852, 205, 301, 236, 316
-0.998522, 401, 231, 464, 246
-0.998522, 377, 273, 440, 288
-0.998522, 233, 267, 296, 282
-0.998523, 409, 53, 440, 68
-0.998523, 333, 41, 364, 56
-0.998525, 337, 43, 400, 58
-0.998526, 465, 1, 496, 16
-0.998526, 377, 43, 408, 58
-0.998527, 65, 311, 128, 326
-0.998529, 401, 271, 464, 286
-0.99853, 17, 321, 48, 336
-0.998531, 289, 147, 352, 162
-0.998531, 125, 329, 156, 344
-0.998534, 325, 135, 356, 150
-0.998534, 105, 339, 168, 354
-0.998534, 137, 307, 200, 322
-0.998538, 377, 245, 440, 260
-0.998539, 401, 57, 464, 72
-0.998542, 197, 335, 228, 350
-0.998543, 285, 261, 316, 276
-0.998544, 201, 329, 264, 344
-0.998548, 413, 35, 444, 50
-0.998549, 433, 235, 496, 250
-0.99855, 121, 309, 152, 324
-0.99855, 25, 357, 88, 372
-0.99855, 345, 137, 408, 152
-0.998551, 209, 207, 272, 222
-0.998551, 233, 301, 296, 316
-0.998552, 353, 257, 416, 272
-0.998556, 393, 267, 424, 282
-0.998556, 145, 259, 208, 274
-0.998557, 217, 201, 280, 216
-0.998557, 329, 49, 392, 64
-0.998558, 369, 81, 496, 112
-0.998558, 361, 251, 424, 266
-0.998559, 97, 317, 160, 332
-0.998561, 361, 157, 424, 172
-0.998561, 433, 219, 496, 234
-0.998562, 337, 29, 400, 44
-0.998562, 145, 251, 208, 266
-0.998563, 249, 169, 312, 184
-0.998564, 353, 193, 416, 208
-0.998565, 113, 331, 176, 346
-0.998565, 213, 211, 244, 226
-0.998565, 89, 249, 152, 264
-0.998565, 369, 51, 432, 66
-0.998565, 193, 219, 256, 234
-0.998566, 313, 43, 376, 58
-0.998566, 33, 251, 96, 266
-0.998567, 321, 1, 384, 16
-0.998568, 89, 277, 152, 292
-0.998569, 201, 213, 264, 228
-0.998569, 393, 1, 408, 128
-0.99857, 353, 7, 416, 22
-0.998571, 69, 177, 100, 304
-0.998572, 97, 345, 160, 360
-0.998574, 433, 1, 496, 16
-0.998574, 377, 59, 440, 74
-0.998574, 365, 187, 396, 202
-0.998577, 225, 197, 256, 212
-0.998577, 421, 57, 452, 72
-0.998578, 209, 305, 272, 320
-0.998578, 337, 265, 400, 280
-0.998578, 89, 353, 152, 368
-0.998578, 161, 347, 224, 362
-0.998579, 353, 145, 416, 160
-0.998581, 313, 21, 376, 36
-0.998582, 129, 283, 192, 298
-0.998582, 409, 67, 472, 82
-0.998583, 297, 139, 360, 154
-0.998583, 89, 261, 152, 276
-0.998583, 185, 341, 248, 356
-0.998583, 185, 305, 248, 320
-0.998583, 257, 255, 320, 270
-0.998584, 313, 305, 376, 320
-0.998586, 361, 151, 424, 166
-0.998586, 353, 177, 416, 192
-0.998587, 105, 303, 168, 318
-0.998587, 353, 299, 416, 314
-0.998587, 221, 203, 252, 218
-0.998589, 273, 261, 336, 276
-0.99859, 325, 209, 340, 336
-0.998592, 361, 165, 424, 180
-0.998592, 225, 325, 288, 340
-0.998593, 113, 249, 176, 264
-0.998593, 313, 7, 376, 22
-0.998594, 97, 359, 160, 374
-0.998594, 297, 259, 360, 274
-0.998596, 385, 33, 416, 48
-0.998596, 185, 229, 248, 244
-0.998598, 113, 269, 176, 284
-0.998598, 297, 153, 360, 168
-0.998598, 329, 155, 392, 170
-0.998599, 393, 27, 456, 42
-0.998599, 241, 341, 304, 356
-0.998602, 393, 291, 456, 306
-0.998602, 265, 317, 328, 332
-0.998603, 65, 243, 128, 258
-0.998604, 393, 39, 456, 54
-0.998605, 177, 333, 240, 348
-0.998606, 121, 347, 184, 362
-0.998606, 25, 277, 88, 292
-0.998608, 385, 45, 448, 60
-0.99861, 137, 313, 200, 328
-0.998611, 1, 233, 64, 248
-0.998611, 89, 287, 152, 302
-0.998611, 65, 359, 128, 374
-0.998611, 121, 289, 184, 304
-0.998613, 161, 301, 224, 316
-0.998614, 361, 171, 424, 186
-0.998614, 57, 351, 120, 366
-0.998614, 329, 271, 392, 286
-0.998615, 73, 235, 136, 250
-0.998617, 321, 135, 384, 150
-0.998618, 233, 191, 264, 206
-0.998618, 153, 293, 216, 308
-0.998618, 137, 301, 200, 316
-0.998619, 281, 1, 344, 16
-0.99862, 177, 235, 240, 250
-0.998622, 397, 25, 428, 40
-0.998626, 319, 225, 334, 352
-0.998681, 407, 1, 422, 128
-0.998688, 393, 129, 408, 256
-0.998693, 129, 213, 256, 244
-0.9987, 1, 121, 500, 184
-0.99871, 337, 209, 352, 336
-0.998717, 289, 197, 416, 228
-0.998717, 33, 1, 96, 375
-0.998722, 225, 113, 480, 176
-0.998727, 257, 17, 288, 144
-0.998761, 309, 225, 324, 352
-0.998769, 345, 209, 408, 272
-0.998776, 377, 113, 392, 240
-0.9988, 369, 93, 496, 124
-0.998804, 273, 337, 400, 368
-0.998813, 387, 1, 402, 128
-0.998826, 241, 161, 256, 288
-0.998827, 361, 113, 376, 240
-0.998833, 161, 149, 288, 180
-0.998838, 209, 17, 240, 144
-0.998843, 343, 193, 358, 320
-0.998844, 129, 177, 256, 208
-0.998855, 367, 113, 382, 240
-0.998864, 385, 113, 400, 240
-0.998892, 145, 161, 272, 192
-0.998904, 353, 113, 368, 240
-0.998915, 273, 17, 304, 144
-0.998918, 429, 145, 460, 272
-0.998919, 253, 161, 268, 288
-0.99892, 399, 145, 414, 272
-0.998932, 69, 241, 84, 368
-0.998933, 261, 145, 276, 272
-0.998936, 357, 241, 372, 368
-0.998941, 413, 1, 428, 128
-0.998942, 399, 1, 414, 128
-0.99895, 347, 113, 362, 240
-0.998954, 267, 145, 282, 272
-0.998954, 369, 161, 384, 288
-0.998954, 389, 177, 404, 304
-0.998955, 485, 177, 500, 304
-0.998957, 207, 193, 222, 320
-0.998959, 225, 121, 352, 152
-0.998966, 349, 193, 364, 320
-0.998978, 143, 241, 158, 368
-0.998979, 79, 225, 94, 352
-0.998983, 247, 161, 262, 288
-0.998992, 349, 241, 364, 368
-0.998999, 231, 177, 246, 304
-0.999, 375, 225, 390, 352
-0.999002, 471, 177, 486, 304
-0.999004, 101, 225, 116, 352
-0.999015, 257, 65, 500, 128
-0.999016, 209, 333, 336, 364
-0.999017, 217, 193, 232, 320
-0.999023, 193, 133, 320, 164
-0.999033, 95, 225, 110, 352
-0.999038, 225, 177, 240, 304
-0.999038, 115, 241, 130, 368
-0.999038, 445, 193, 460, 320
-0.999039, 409, 209, 424, 336
-0.999039, 273, 145, 288, 272
-0.99905, 385, 225, 400, 352
-0.999054, 133, 241, 148, 368
-0.999055, 61, 241, 76, 368
-0.999057, 421, 209, 436, 336
-0.999059, 457, 193, 472, 320
-0.999061, 381, 177, 396, 304
-0.999063, 331, 129, 346, 256
-0.999064, 483, 1, 498, 128
-0.999071, 433, 209, 448, 336
-0.999073, 189, 209, 204, 336
-0.999074, 283, 145, 298, 272
-0.999074, 1, 49, 500, 112
-0.999077, 343, 241, 358, 368
-0.999077, 23, 225, 38, 352
-0.999085, 217, 1, 248, 256
-0.999086, 301, 241, 316, 368
-0.999088, 109, 209, 124, 336
-0.999088, 123, 241, 138, 368
-0.999093, 87, 225, 102, 352
-0.999097, 241, 113, 304, 176
-0.999098, 405, 145, 420, 272
-0.999098, 355, 193, 370, 320
-0.999099, 369, 241, 384, 368
-0.999102, 361, 177, 376, 304
-0.999102, 337, 113, 352, 240
-0.999103, 165, 225, 180, 352
-0.999104, 399, 209, 414, 336
-0.999104, 17, 225, 32, 352
-0.999106, 381, 1, 396, 128
-0.999108, 205, 129, 236, 375
-0.999112, 375, 177, 390, 304
-0.999116, 439, 193, 454, 320
-0.999119, 279, 241, 294, 368
-0.999119, 437, 129, 468, 375
-0.999122, 363, 241, 378, 368
-0.999129, 159, 225, 174, 352
-0.99913, 415, 209, 430, 336
-0.999131, 427, 17, 442, 144
-0.999133, 179, 225, 194, 352
-0.999141, 55, 225, 70, 352
-0.999147, 173, 225, 188, 352
-0.999148, 197, 209, 212, 336
-0.999153, 321, 145, 336, 272
-0.999156, 375, 1, 390, 128
-0.999157, 193, 105, 320, 168
-0.999162, 3, 225, 18, 352
-0.999167, 29, 225, 44, 352
-0.999168, 33, 137, 160, 200
-0.999169, 315, 145, 330, 272
-0.99917, 479, 177, 494, 304
-0.999175, 485, 97, 500, 224
-0.999176, 153, 241, 168, 368
-0.999187, 451, 193, 466, 320
-0.999187, 289, 129, 304, 256
-0.999189, 301, 129, 316, 256
-0.99919, 433, 33, 448, 160
-0.999193, 385, 49, 400, 176
-0.999195, 403, 49, 418, 176
-0.999204, 9, 209, 24, 336
-0.99921, 405, 97, 436, 352
-0.999215, 465, 177, 480, 304
-0.999217, 395, 49, 410, 176
-0.999224, 477, 1, 492, 128
-0.999226, 391, 225, 406, 352
-0.999228, 101, 129, 132, 375
-0.999234, 305, 33, 336, 160
-0.999235, 421, 17, 436, 144
-0.99924, 459, 1, 474, 128
-0.999242, 185, 129, 216, 375
-0.999248, 47, 225, 62, 352
-0.999254, 309, 145, 324, 272
-0.999261, 61, 193, 76, 320
-0.999264, 1, 289, 128, 320
-0.999281, 475, 65, 490, 192
-0.999283, 35, 225, 50, 352
-0.999285, 41, 225, 56, 352
-0.999286, 427, 193, 442, 320
-0.999286, 273, 225, 288, 352
-0.999288, 295, 129, 310, 256
-0.999289, 71, 193, 86, 320
-0.999298, 205, 1, 236, 256
-0.999305, 427, 241, 442, 368
-0.99931, 241, 241, 256, 368
-0.999314, 251, 241, 266, 368
-0.999317, 453, 49, 468, 176
-0.999318, 453, 129, 484, 375
-0.999319, 451, 1, 466, 128
-0.99933, 261, 225, 276, 352
-0.999333, 471, 1, 486, 128
-0.999342, 463, 225, 478, 352
-0.999348, 169, 129, 200, 375
-0.999371, 337, 161, 352, 288
-0.999373, 207, 241, 222, 368
-0.999373, 439, 33, 454, 160
-0.999374, 267, 225, 282, 352
-0.99939, 103, 177, 118, 304
-0.999391, 127, 1, 142, 128
-0.999395, 329, 1, 344, 128
-0.999414, 361, 1, 376, 128
-0.999419, 409, 49, 424, 176
-0.999443, 225, 17, 352, 48
-0.999469, 121, 129, 152, 375
-0.999469, 141, 129, 172, 375
-0.999492, 425, 129, 456, 375
-0.999512, 81, 137, 208, 200
-0.999532, 157, 129, 188, 375
-0.999565, 317, 49, 348, 176
-0.999614, 49, 13, 176, 44
-0.999615, 453, 129, 484, 256
-0.999617, 381, 275, 396, 290
-0.999617, 469, 239, 484, 254
-0.999618, 393, 45, 408, 60
-0.999618, 171, 247, 186, 262
-0.999619, 145, 311, 160, 326
-0.999619, 395, 13, 410, 28
-0.999619, 251, 301, 266, 316
-0.99962, 309, 247, 324, 262
-0.99962, 221, 211, 236, 226
-0.999621, 247, 267, 262, 282
-0.999622, 475, 203, 490, 218
-0.999624, 159, 259, 174, 274
-0.999624, 137, 333, 152, 348
-0.999624, 421, 55, 436, 70
-0.999625, 125, 343, 140, 358
-0.999625, 39, 321, 54, 336
-0.999626, 331, 135, 346, 150
-0.999626, 391, 193, 406, 208
-0.999627, 109, 347, 124, 362
-0.999627, 473, 245, 488, 260
-0.999629, 357, 11, 372, 26
-0.999631, 357, 47, 372, 62
-0.999631, 121, 309, 136, 324
-0.999632, 245, 191, 260, 206
-0.999632, 361, 21, 376, 36
-0.999632, 109, 265, 124, 280
-0.999632, 413, 29, 428, 44
-0.999632, 455, 237, 470, 252
-0.999633, 221, 299, 236, 314
-0.999633, 331, 1, 346, 16
-0.999633, 329, 233, 344, 248
-0.999634, 153, 263, 168, 278
-0.999634, 385, 135, 400, 150
-0.999635, 27, 321, 42, 336
-0.999637, 381, 187, 396, 202
-0.999638, 465, 207, 480, 222
-0.999639, 365, 47, 380, 62
-0.99964, 391, 185, 406, 200
-0.99964, 251, 187, 266, 202
-0.99964, 139, 317, 154, 332
-0.99964, 159, 251, 174, 266
-0.999641, 97, 355, 112, 370
-0.999641, 481, 235, 496, 250
-0.999641, 407, 17, 422, 32
-0.999642, 277, 259, 292, 274
-0.999642, 473, 79, 488, 94
-0.999643, 409, 267, 424, 282
-0.999644, 71, 315, 86, 330
-0.999644, 129, 277, 144, 292
-0.999645, 483, 1, 498, 16
-0.999645, 197, 303, 212, 318
-0.999645, 251, 175, 266, 190
-0.999647, 209, 213, 224, 228
-0.999647, 383, 25, 398, 40
-0.999648, 55, 319, 70, 334
-0.999648, 419, 29, 434, 44
-0.999649, 465, 231, 480, 246
-0.99965, 131, 337, 146, 352
-0.99965, 107, 311, 122, 326
-0.999652, 209, 333, 224, 348
-0.999652, 239, 299, 254, 314
-0.999652, 381, 17, 396, 32
-0.999652, 389, 271, 404, 286
-0.999652, 5, 321, 20, 336
-0.999654, 335, 41, 350, 56
-0.999654, 113, 311, 128, 326
-0.999654, 149, 305, 164, 320
-0.999655, 473, 229, 488, 244
-0.999657, 439, 59, 454, 74
-0.999658, 377, 51, 392, 66
-0.999658, 205, 301, 220, 316
-0.999658, 339, 133, 354, 148
-0.999659, 199, 335, 214, 350
-0.99966, 385, 47, 400, 62
-0.999661, 151, 257, 166, 272
-0.999661, 33, 321, 48, 336
-0.999664, 379, 41, 394, 56
-0.999664, 371, 23, 386, 38
-0.999665, 413, 37, 428, 52
-0.999665, 401, 33, 416, 48
-0.999667, 383, 31, 398, 46
-0.999671, 337, 1, 352, 16
-0.999672, 219, 203, 234, 218
-0.999673, 337, 151, 352, 166
-0.999673, 47, 319, 62, 334
-0.999674, 395, 147, 410, 162
-0.999675, 219, 331, 234, 346
-0.999675, 97, 361, 112, 375
-0.999675, 21, 321, 36, 336
-0.999676, 415, 257, 430, 272
-0.999676, 235, 187, 250, 202
-0.999676, 365, 15, 380, 30
-0.999678, 401, 151, 416, 166
-0.999679, 375, 35, 390, 50
-0.99968, 481, 227, 496, 242
-0.999681, 433, 51, 448, 66
-0.999684, 369, 185, 384, 200
-0.999692, 245, 179, 260, 194
-0.999693, 483, 7, 498, 22
-0.999695, 407, 261, 422, 276
-0.999696, 475, 237, 490, 252
-0.999696, 391, 141, 406, 156
-0.999697, 137, 309, 152, 324
-0.999697, 427, 55, 442, 70
-0.9997, 129, 97, 384, 160
-0.9997, 419, 35, 434, 50
-0.999701, 401, 17, 416, 32
-0.999702, 393, 31, 408, 46
-0.999702, 329, 155, 344, 170
-0.999702, 131, 325, 146, 340
-0.999704, 229, 199, 244, 214
-0.999704, 395, 267, 410, 282
-0.999706, 103, 349, 118, 364
-0.999706, 113, 341, 128, 356
-0.999707, 371, 45, 386, 60
-0.999709, 215, 209, 230, 224
-0.999712, 345, 39, 360, 54
-0.999713, 391, 23, 406, 38
-0.999714, 81, 209, 208, 240
-0.999716, 11, 321, 26, 336
-0.999718, 119, 337, 134, 352
-0.999718, 233, 193, 248, 208
-0.999722, 123, 331, 138, 346
-0.999725, 241, 185, 256, 200
-0.999732, 401, 265, 416, 280
-0.999738, 385, 37, 400, 52
-0.999743, 425, 41, 440, 56
-0.999746, 433, 59, 448, 74
-0.999758, 401, 27, 416, 42
-0.999759, 477, 1, 492, 16
-0.999766, 89, 129, 120, 375
-0.999776, 225, 205, 240, 220
-0.999786, 409, 23, 424, 38
-0.999812, 97, 1, 224, 32
-0.999895, 353, 113, 480, 144
-0.999896, 177, 5, 304, 36
-1, 189, 1, 220, 256
-1.00001, 157, 1, 188, 256
-1.00003, 177, 1, 208, 256
-1.00003, 469, 113, 500, 240
-1.00005, 81, 141, 208, 172
-1.00007, 257, 325, 384, 356
-1.00017, 33, 141, 160, 172
-1.00024, 1, 113, 128, 176
-1.00025, 77, 129, 108, 375
-1.00027, 145, 1, 176, 256
-1.00028, 33, 153, 160, 184
-1.00029, 49, 129, 112, 375
-1.00034, 1, 161, 256, 224
-1.00038, 353, 301, 480, 332
-1.00038, 81, 153, 208, 184
-1.00041, 241, 109, 368, 140
-1.00043, 13, 129, 44, 375
-1.00044, 33, 129, 160, 160
-1.00046, 97, 113, 224, 176
-1.00049, 285, 33, 316, 160
-1.00049, 65, 129, 96, 375
-1.00055, 25, 145, 88, 272
-1.0006, 37, 129, 68, 375
-1.00061, 1, 97, 32, 352
-1.00066, 25, 97, 56, 352
-1.00069, 161, 49, 416, 112
-1.0007, 53, 97, 84, 352
-1.00078, 257, 81, 384, 144
-1.00084, 17, 129, 80, 375
-1.00102, 113, 65, 240, 128
-1.00106, 353, 305, 480, 368
-1.00112, 225, 89, 480, 152
-1.00122, 145, 89, 272, 152
-1.00124, 117, 33, 148, 288
-1.00125, 161, 49, 288, 112
-1.00126, 33, 89, 288, 152
-1.00129, 65, 33, 320, 96
-1.00139, 97, 1, 128, 256
-1.00145, 93, 129, 124, 256
-1.00148, 133, 1, 164, 256
-1.0015, 233, 209, 296, 272
-1.0015, 33, 89, 160, 152
-1.00154, 337, 57, 400, 120
-1.00158, 81, 89, 208, 152
-1.00159, 73, 1, 104, 256
-1.00161, 305, 73, 432, 136
-1.00164, 113, 41, 240, 104
-1.00164, 41, 1, 72, 256
-1.00165, 85, 1, 116, 256
-1.00167, 65, 65, 320, 128
-1.00169, 13, 33, 44, 288
-1.00171, 1, 1, 32, 256
-1.00175, 145, 121, 272, 184
-1.00175, 29, 1, 60, 256
-1.00176, 49, 65, 176, 128
-1.00176, 57, 1, 88, 256
-1.00177, 1, 65, 128, 128
-1.00189, 209, 57, 336, 120
-1.00193, 33, 177, 160, 240
-1.00195, 161, 129, 224, 256
-1.00202, 413, 65, 444, 192
-1.00209, 33, 121, 288, 184
-1.00214, 17, 41, 144, 104
-1.00223, 65, 33, 192, 96
-1.00233, 1, 89, 500, 152
-1.00234, 1, 129, 128, 256
-1.00258, 241, 65, 304, 192
-1.0027, 49, 113, 176, 176
-1.00283, 121, 1, 184, 256
-1.00314, 113, 129, 144, 256
-1.0033, 209, 81, 336, 144
-1.00366, 117, 65, 148, 192
-1.00427, 93, 1, 124, 128
-1.00482, 1, 145, 64, 272
-1.00516, 49, 129, 176, 256
-1.0052, 105, 81, 136, 208
-1.00538, 33, 81, 160, 208
-1.006, 97, 65, 224, 192
-1.00664, 193, 81, 256, 208
-1.00675, 105, 81, 168, 208
-1.00734, 433, 97, 496, 224
-1.00742, 73, 33, 136, 288
-1.00801, 145, 65, 272, 192
-1.00848, 65, 129, 128, 256
-1.00856, 9, 33, 72, 288
-1.00863, 81, 81, 144, 208
-1.00875, 1, 33, 128, 160
-1.00917, 97, 1, 160, 256
-1.00944, 41, 1, 104, 256
-1.01094, 137, 129, 200, 256
-1.0115, 17, 1, 80, 128
-1.01218, 129, 49, 192, 176
-1.01244, 1, 49, 64, 176
-1.01312, 169, 49, 232, 176
-1.01335, 41, 1, 104, 128
-1.01415, 57, 65, 120, 192
-1.01422, 25, 49, 88, 176
-1.01643, 1, 97, 64, 224
-1.01678, 33, 97, 96, 224
