1965
-0.450899, 1, 65, 500, 320
-0.588832, 1, 1, 500, 375
-0.595805, 33, 1, 288, 375
-0.645414, 193, 1, 448, 375
-0.653382, 1, 97, 256, 352
-0.661661, 129, 97, 384, 352
-0.744368, 257, 97, 500, 352
-0.790855, 33, 1, 288, 256
-0.831047, 193, 1, 448, 256
-0.868642, 177, 65, 304, 320
-0.875828, 129, 65, 256, 320
-0.887006, 17, 97, 144, 352
-0.890455, 81, 129, 208, 375
-0.893763, 1, 81, 500, 208
-0.895276, 161, 1, 288, 375
-0.897584, 225, 129, 352, 375
-0.900287, 113, 1, 240, 375
-0.901458, 1, 1, 128, 375
-0.901558, 321, 65, 448, 320
-0.902814, 1, 129, 500, 256
-0.902977, 129, 97, 384, 224
-0.911501, 369, 97, 496, 352
-0.912876, 209, 1, 336, 375
-0.913089, 273, 97, 400, 352
-0.913271, 33, 113, 288, 240
-0.917395, 65, 1, 192, 375
-0.91936, 305, 1, 432, 375
-0.922156, 353, 1, 480, 375
-0.929217, 161, 97, 288, 224
-0.929485, 81, 33, 208, 288
-0.930421, 129, 145, 384, 272
-0.931082, 225, 33, 352, 288
-0.932368, 193, 81, 256, 208
-0.933902, 225, 113, 480, 240
-0.935305, 257, 1, 384, 375
-0.938258, 1, 33, 500, 160
-0.93929, 1, 177, 500, 304
-0.940275, 33, 1, 160, 256
-0.940346, 161, 113, 224, 240
-0.940917, 113, 129, 240, 256
-0.941032, 49, 97, 112, 224
-0.942152, 33, 49, 288, 176
-0.944184, 33, 161, 288, 288
-0.944235, 113, 129, 176, 256
-0.945158, 65, 129, 192, 256
-0.946375, 369, 1, 496, 256
-0.948313, 185, 97, 248, 160
-0.94834, 353, 81, 416, 208
-0.948366, 1, 49, 64, 176
-0.948726, 305, 81, 432, 208
-0.949271, 209, 129, 272, 256
-0.949799, 161, 161, 224, 224
-0.950146, 161, 161, 224, 288
-0.951016, 185, 145, 248, 272
-0.951139, 273, 1, 400, 256
-0.952318, 65, 225, 320, 352
-0.952346, 1, 97, 128, 224
-0.953413, 177, 145, 304, 272
-0.954429, 137, 129, 200, 256
-0.954884, 257, 113, 384, 240
-0.955168, 329, 81, 392, 208
-0.95537, 353, 97, 480, 224
-0.9555, 297, 97, 360, 224
-0.957879, 129, 177, 256, 304
-0.958217, 1, 49, 64, 112
-0.958339, 233, 129, 296, 256
-0.958449, 353, 97, 416, 160
-0.9587, 409, 145, 472, 272
-0.958786, 1, 225, 500, 352
-0.959008, 257, 161, 500, 288
-0.95956, 225, 65, 480, 192
-0.959806, 329, 129, 392, 256
-0.960428, 169, 185, 232, 248
-0.960632, 25, 81, 88, 208
-0.96129, 273, 129, 336, 256
-0.962582, 89, 129, 152, 256
-0.963061, 337, 145, 464, 272
-0.963328, 169, 65, 232, 192
-0.963467, 113, 81, 240, 208
-0.963795, 161, 193, 416, 320
-0.963818, 377, 97, 440, 224
-0.964271, 297, 153, 360, 216
-0.964394, 265, 153, 328, 216
-0.964823, 209, 129, 272, 192
-0.965034, 433, 145, 496, 272
-0.965373, 177, 65, 240, 320
-0.966503, 353, 121, 416, 184
-0.966723, 209, 97, 336, 224
-0.966734, 185, 73, 248, 136
-0.966826, 137, 201, 200, 264
-0.967062, 121, 137, 184, 200
-0.967096, 49, 105, 112, 168
-0.967584, 169, 129, 232, 192
-0.96806, 1, 177, 128, 304
-0.968064, 193, 161, 256, 224
-0.968135, 425, 153, 488, 216
-0.969673, 353, 129, 416, 256
-0.970033, 1, 49, 128, 176
-0.970052, 321, 153, 384, 216
-0.970164, 81, 177, 208, 304
-0.970263, 161, 129, 288, 192
-0.970387, 365, 81, 396, 144
-0.970427, 233, 153, 296, 216
-0.970588, 113, 209, 176, 336
-0.970843, 145, 137, 208, 200
-0.970951, 17, 41, 48, 104
-0.971239, 329, 89, 392, 152
-0.971327, 201, 73, 232, 136
-0.971616, 369, 153, 432, 216
-0.971712, 17, 89, 80, 152
-0.971736, 137, 177, 200, 304
-0.971942, 193, 81, 224, 208
-0.971978, 329, 129, 392, 192
-0.972032, 305, 145, 368, 272
-0.972152, 209, 97, 272, 352
-0.972188, 177, 153, 304, 216
-0.972494, 9, 129, 72, 256
-0.973153, 225, 49, 352, 176
-0.97319, 113, 129, 176, 375
-0.97361, 153, 97, 216, 352
-0.973624, 189, 145, 220, 272
-0.973636, 81, 225, 208, 352
-0.973641, 365, 81, 396, 208
-0.973749, 145, 105, 272, 168
-0.97375, 121, 233, 184, 296
-0.97379, 113, 209, 176, 272
-0.973845, 377, 113, 408, 176
-0.973882, 401, 97, 464, 224
-0.973921, 89, 193, 152, 320
-0.974285, 129, 49, 384, 176
-0.974647, 9, 153, 72, 216
-0.974784, 137, 177, 200, 240
-0.974922, 65, 65, 192, 192
-0.974947, 337, 177, 400, 240
-0.975174, 33, 145, 96, 272
-0.975428, 201, 177, 232, 240
-0.975431, 113, 137, 240, 200
-0.975444, 169, 209, 232, 272
-0.975484, 385, 145, 448, 272
-0.975551, 65, 129, 128, 192
-0.975825, 17, 225, 144, 352
-0.975844, 205, 65, 236, 192
-0.975954, 145, 113, 208, 176
-0.975991, 65, 145, 192, 208
-0.97607, 217, 81, 280, 208
-0.976146, 17, 33, 48, 160
-0.976209, 225, 161, 352, 288
-0.976343, 193, 185, 256, 248
-0.97635, 65, 177, 128, 304
-0.976429, 189, 105, 220, 168
-0.97643, 145, 225, 208, 288
-0.976622, 401, 153, 464, 216
-0.976636, 113, 161, 240, 224
-0.976714, 189, 153, 220, 216
-0.976789, 393, 129, 456, 192
-0.976832, 41, 153, 104, 216
-0.976878, 313, 177, 376, 240
-0.976943, 297, 121, 360, 184
-0.977199, 1, 33, 64, 288
-0.977518, 97, 137, 160, 200
-0.977541, 201, 129, 232, 256
-0.977824, 365, 137, 396, 200
-0.978038, 241, 129, 272, 256
-0.978167, 169, 161, 200, 288
-0.978253, 337, 153, 464, 216
-0.978274, 185, 193, 248, 320
-0.97828, 177, 113, 208, 240
-0.978281, 189, 177, 220, 240
-0.978339, 177, 49, 304, 176
-0.978412, 273, 177, 400, 304
-0.978573, 365, 113, 396, 176
-0.978756, 193, 185, 320, 248
-0.978781, 257, 153, 384, 216
-0.978787, 433, 97, 496, 224
-0.979252, 129, 225, 256, 352
-0.979478, 73, 81, 136, 208
-0.979514, 337, 145, 368, 208
-0.979594, 353, 81, 384, 208
-0.979613, 1, 105, 128, 168
-0.979662, 89, 129, 152, 375
-0.979693, 217, 97, 248, 224
-0.979882, 253, 153, 284, 216
-0.979935, 257, 81, 320, 208
-0.980485, 209, 105, 272, 168
-0.980491, 337, 129, 368, 256
-0.980494, 377, 81, 408, 208
-0.980514, 97, 113, 224, 176
-0.980606, 25, 65, 88, 320
-0.980687, 177, 193, 304, 320
-0.980701, 149, 129, 180, 256
-0.980747, 57, 97, 120, 352
-0.9809, 289, 121, 416, 184
-0.980954, 173, 177, 204, 240
-0.980984, 297, 97, 360, 160
-0.980992, 213, 97, 244, 160
-0.981034, 129, 185, 256, 248
-0.981141, 201, 137, 232, 200
-0.981177, 365, 129, 396, 256
-0.981239, 229, 113, 260, 240
-0.981255, 161, 193, 192, 256
-0.981266, 45, 81, 76, 208
-0.981412, 65, 225, 128, 352
-0.981505, 145, 65, 208, 192
-0.981523, 57, 97, 88, 224
-0.981531, 1, 121, 64, 184
-0.981552, 273, 153, 304, 216
-0.981584, 265, 185, 328, 248
-0.981631, 117, 129, 148, 256
-0.981733, 1, 33, 32, 160
-0.981835, 209, 129, 336, 192
-0.981846, 289, 89, 416, 152
-0.981887, 145, 249, 208, 312
-0.982246, 57, 97, 88, 160
-0.982312, 317, 153, 348, 216
-0.982335, 265, 129, 328, 192
-0.982469, 25, 33, 88, 160
-0.982606, 353, 73, 416, 136
-0.98265, 237, 129, 268, 192
-0.982724, 389, 121, 420, 184
-0.982758, 265, 177, 328, 304
-0.982765, 173, 129, 204, 192
-0.982786, 225, 105, 352, 168
-0.982883, 325, 97, 356, 224
-0.982895, 81, 193, 144, 256
-0.982979, 353, 121, 384, 184
-0.982984, 161, 209, 224, 336
-0.982985, 461, 153, 492, 216
-0.983012, 329, 33, 392, 160
-0.98305, 37, 81, 68, 144
-0.983073, 97, 209, 224, 272
-0.983216, 97, 233, 160, 296
-0.983231, 41, 225, 104, 352
-0.983282, 305, 153, 336, 216
-0.983305, 353, 129, 384, 256
-0.983315, 241, 177, 304, 304
-0.983345, 353, 145, 384, 208
-0.983358, 289, 185, 352, 248
-0.98342, 321, 65, 384, 320
-0.983482, 81, 113, 112, 240
-0.983724, 337, 121, 464, 184
-0.983788, 345, 153, 408, 216
-0.983798, 201, 177, 232, 304
-0.983824, 377, 89, 408, 152
-0.983885, 293, 153, 324, 216
-0.983982, 1, 129, 128, 192
-0.984, 141, 217, 172, 280
-0.984008, 425, 177, 488, 240
-0.984144, 233, 177, 296, 240
-0.98419, 233, 129, 296, 375
-0.984197, 1, 1, 64, 128
-0.984228, 129, 129, 160, 256
-0.984313, 253, 145, 284, 272
-0.984377, 209, 177, 272, 304
-0.984412, 97, 81, 160, 208
-0.984514, 33, 65, 64, 192
-0.984536, 225, 105, 256, 168
-0.984549, 49, 49, 112, 176
-0.9846, 1, 1, 64, 375
-0.984617, 457, 145, 488, 272
-0.984718, 161, 153, 192, 216
-0.984755, 113, 169, 176, 232
-0.984763, 93, 137, 124, 200
-0.984815, 105, 129, 136, 256
-0.984869, 289, 177, 416, 240
-0.984879, 65, 233, 128, 296
-0.984883, 177, 233, 240, 296
-0.984919, 205, 201, 236, 264
-0.984921, 401, 129, 432, 192
-0.984948, 77, 121, 108, 184
-0.984992, 177, 81, 304, 144
-0.985022, 41, 249, 104, 312
-0.98506, 417, 153, 448, 216
-0.985091, 417, 129, 448, 256
-0.985102, 425, 129, 488, 192
-0.98514, 353, 89, 384, 152
-0.985164, 389, 97, 420, 160
-0.985189, 377, 153, 408, 216
-0.985189, 433, 145, 464, 272
-0.985326, 129, 81, 256, 144
-0.985383, 353, 65, 416, 320
-0.985469, 425, 129, 488, 375
-0.985476, 113, 137, 144, 200
-0.985632, 17, 1, 144, 128
-0.985692, 341, 121, 372, 184
-0.985695, 377, 105, 440, 168
-0.985748, 89, 113, 152, 176
-0.985758, 361, 177, 424, 240
-0.985822, 73, 153, 136, 216
-0.985869, 69, 97, 100, 224
-0.985895, 161, 217, 192, 280
-0.986, 1, 177, 64, 304
-0.986157, 121, 257, 184, 320
-0.986223, 41, 129, 104, 192
-0.986248, 49, 121, 176, 184
-0.986258, 469, 145, 500, 272
-0.98626, 161, 209, 288, 272
-0.98628, 233, 129, 296, 192
-0.986284, 17, 241, 144, 304
-0.986295, 1, 57, 32, 120
-0.986386, 401, 177, 464, 240
-0.986434, 257, 241, 500, 368
-0.986455, 429, 161, 460, 224
-0.986458, 337, 177, 464, 240
-0.986489, 177, 201, 208, 264
-0.986521, 385, 97, 448, 352
-0.986581, 81, 185, 208, 248
-0.98666, 1, 1, 256, 128
-0.986775, 157, 193, 188, 320
-0.986838, 357, 169, 388, 232
-0.986868, 17, 177, 80, 240
-0.986898, 337, 97, 464, 160
-0.98691, 265, 145, 296, 272
-0.986916, 241, 177, 368, 240
-0.986931, 121, 81, 184, 208
-0.986957, 129, 233, 256, 296
-0.986958, 213, 161, 244, 224
-0.986993, 341, 177, 372, 240
-0.987017, 1, 41, 128, 104
-0.98706, 81, 233, 208, 296
-0.987194, 225, 81, 288, 144
-0.987232, 177, 153, 208, 216
-0.987243, 185, 193, 216, 320
-0.987246, 1, 161, 128, 224
-0.987247, 441, 153, 472, 216
-0.987289, 273, 129, 336, 375
-0.987312, 445, 145, 476, 272
-0.987387, 353, 49, 480, 176
-0.987441, 141, 137, 172, 200
-0.987472, 337, 177, 400, 304
-0.987534, 189, 81, 220, 144
-0.987583, 365, 57, 396, 120
-0.987607, 81, 273, 144, 336
-0.987619, 93, 129, 124, 256
-0.987666, 89, 241, 152, 368
-0.987764, 41, 177, 104, 240
-0.987805, 185, 1, 248, 375
-0.98798, 121, 113, 184, 176
-0.988067, 137, 225, 200, 352
-0.988214, 25, 73, 56, 136
-0.988232, 201, 225, 232, 288
-0.988278, 125, 137, 156, 200
-0.988304, 185, 97, 248, 128
-0.988365, 353, 241, 480, 368
-0.988389, 17, 249, 80, 312
-0.988403, 377, 65, 408, 128
-0.988472, 25, 65, 88, 128
-0.988498, 1, 81, 128, 144
-0.988557, 309, 113, 340, 240
-0.988762, 33, 41, 96, 104
-0.988812, 185, 109, 248, 140
-0.988841, 189, 201, 220, 264
-0.98886, 297, 65, 360, 320
-0.98886, 161, 181, 224, 212
-0.988894, 145, 89, 208, 152
-0.988988, 41, 273, 104, 336
-0.989047, 377, 129, 408, 256
-0.989066, 1, 185, 128, 248
-0.989085, 313, 113, 344, 176
-0.989094, 277, 145, 308, 272
-0.989129, 329, 57, 392, 120
-0.98916, 129, 113, 384, 176
-0.989173, 17, 241, 80, 368
-0.989205, 293, 129, 324, 256
-0.989224, 353, 33, 416, 160
-0.989231, 289, 33, 416, 160
-0.989231, 405, 153, 436, 216
-0.989249, 185, 129, 216, 192
-0.989283, 365, 33, 396, 160
-0.989296, 217, 145, 248, 272
-0.989333, 161, 241, 416, 368
-0.989365, 113, 33, 240, 160
-0.989382, 325, 129, 356, 192
-0.989459, 397, 97, 428, 224
-0.989485, 341, 65, 372, 192
-0.989515, 65, 169, 96, 232
-0.989572, 305, 49, 368, 176
-0.989592, 161, 169, 224, 200
-0.989658, 97, 33, 160, 288
-0.989697, 389, 153, 420, 216
-0.989772, 185, 85, 248, 116
-0.989785, 81, 265, 208, 328
-0.989838, 337, 137, 400, 168
-0.989848, 81, 89, 208, 152
-0.989859, 209, 137, 272, 168
-0.989953, 109, 209, 140, 336
-0.990089, 177, 241, 304, 368
-0.990121, 201, 125, 264, 156
-0.990163, 161, 137, 224, 168
-0.990174, 33, 113, 288, 176
-0.990224, 321, 177, 352, 240
-0.990267, 161, 145, 416, 208
-0.990306, 321, 181, 384, 212
-0.99033, 193, 169, 256, 200
-0.990331, 1, 61, 64, 92
-0.990367, 141, 209, 172, 336
-0.990373, 345, 1, 408, 375
-0.990384, 329, 117, 392, 148
-0.990476, 85, 225, 116, 352
-0.990478, 1, 49, 64, 80
-0.990494, 49, 209, 176, 272
-0.990519, 313, 145, 376, 176
-0.990535, 161, 153, 224, 184
-0.990541, 33, 89, 288, 152
-0.990581, 145, 125, 208, 156
-0.990608, 41, 1, 104, 375
-0.990609, 125, 225, 156, 288
-0.990625, 177, 193, 240, 224
-0.990626, 181, 233, 212, 296
-0.990653, 173, 209, 204, 336
-0.990697, 33, 137, 288, 200
-0.990723, 17, 93, 80, 124
-0.99075, 201, 1, 264, 256
-0.990769, 193, 33, 256, 160
-0.990778, 209, 57, 272, 120
-0.990826, 185, 181, 248, 212
-0.990843, 97, 177, 128, 304
-0.990853, 125, 201, 156, 264
-0.990872, 257, 157, 320, 188
-0.990876, 337, 97, 400, 128
-0.990918, 45, 153, 76, 216
-0.990931, 1, 273, 128, 336
-0.990956, 129, 33, 192, 288
-0.99098, 185, 153, 248, 184
-0.990989, 325, 145, 356, 272
-0.99099, 377, 49, 440, 176
-0.991017, 297, 129, 360, 160
-0.991021, 353, 177, 416, 208
-0.991033, 153, 129, 184, 192
-0.991052, 113, 141, 176, 172
-0.991058, 161, 1, 224, 375
-0.991069, 433, 157, 496, 188
-0.991122, 33, 113, 96, 144
-0.99114, 209, 185, 272, 216
-0.991187, 369, 153, 432, 184
-0.991197, 153, 1, 216, 256
-0.991226, 305, 117, 368, 148
-0.991236, 313, 157, 376, 188
-0.991255, 221, 193, 252, 256
-0.991291, 29, 153, 60, 216
-0.991303, 301, 129, 332, 192
-0.991311, 137, 217, 200, 248
-0.991322, 9, 81, 72, 112
-0.991328, 305, 225, 432, 352
-0.991363, 413, 129, 444, 192
-0.991366, 169, 125, 232, 156
-0.991379, 209, 149, 272, 180
-0.991398, 353, 117, 416, 148
-0.991398, 233, 157, 296, 188
-0.991403, 69, 177, 100, 304
-0.991412, 145, 245, 208, 276
-0.991429, 209, 1, 272, 375
-0.991432, 57, 133, 120, 164
-0.991454, 329, 85, 392, 116
-0.99148, 13, 97, 44, 224
-0.991484, 369, 297, 432, 360
-0.991485, 185, 137, 248, 168
-0.991504, 225, 81, 352, 144
-0.99152, 121, 233, 184, 264
-0.991553, 297, 105, 360, 136
-0.991557, 393, 157, 456, 188
-0.991572, 361, 97, 424, 128
-0.991579, 37, 129, 68, 256
-0.991596, 401, 105, 464, 168
-0.991656, 265, 177, 328, 208
-0.991656, 153, 65, 216, 128
-0.991661, 225, 225, 352, 352
-0.991667, 297, 185, 360, 216
-0.991671, 369, 141, 432, 172
-0.991671, 153, 193, 216, 224
-0.991675, 161, 225, 224, 256
-0.991692, 405, 145, 436, 272
-0.991701, 257, 137, 500, 200
-0.991716, 353, 189, 416, 220
-0.991726, 177, 205, 240, 236
-0.991748, 313, 169, 376, 200
-0.991758, 137, 173, 200, 204
-0.991768, 281, 157, 344, 188
-0.991797, 137, 137, 200, 168
-0.991798, 225, 173, 288, 204
-0.991813, 393, 145, 456, 176
-0.991813, 253, 97, 284, 224
-0.991815, 465, 177, 496, 240
-0.991817, 41, 101, 104, 132
-0.991835, 341, 97, 372, 160
-0.991843, 41, 173, 104, 204
-0.99185, 241, 105, 304, 168
-0.991856, 337, 149, 400, 180
-0.991861, 9, 165, 72, 196
-0.991873, 429, 137, 460, 200
-0.991875, 361, 129, 424, 160
-0.991885, 129, 153, 192, 184
-0.991927, 425, 169, 488, 200
-0.991959, 289, 145, 352, 176
-0.991962, 353, 85, 416, 116
-0.991971, 57, 113, 120, 144
-0.991983, 153, 241, 184, 304
-0.992026, 37, 57, 68, 120
-0.992029, 329, 105, 360, 168
-0.992057, 17, 45, 48, 76
-0.99206, 121, 261, 184, 292
-0.992074, 81, 125, 144, 156
-0.99208, 353, 165, 416, 196
-0.9921, 201, 81, 232, 112
-0.992102, 9, 25, 72, 88
-0.992109, 249, 145, 312, 176
-0.992143, 65, 193, 128, 224
-0.992164, 85, 177, 116, 304
-0.992166, 441, 97, 472, 224
-0.992212, 25, 53, 88, 84
-0.992224, 81, 149, 144, 180
-0.992225, 73, 97, 104, 160
-0.992242, 225, 105, 288, 136
-0.99225, 241, 33, 304, 288
-0.992251, 153, 113, 216, 144
-0.992299, 153, 85, 216, 116
-0.992301, 321, 1, 384, 375
-0.992307, 137, 205, 200, 236
-0.992308, 121, 189, 184, 220
-0.992308, 101, 113, 132, 176
-0.992309, 65, 173, 128, 204
-0.992317, 433, 145, 496, 176
-0.99232, 145, 305, 272, 368
-0.992325, 41, 161, 104, 192
-0.992338, 165, 113, 196, 240
-0.992339, 189, 129, 220, 160
-0.992342, 113, 221, 176, 252
-0.992343, 281, 117, 344, 148
-0.992343, 121, 245, 184, 276
-0.992368, 425, 185, 488, 216
-0.992388, 329, 193, 392, 224
-0.992402, 209, 209, 272, 272
-0.992416, 193, 73, 256, 104
-0.992418, 193, 169, 448, 232
-0.992423, 1, 281, 64, 344
-0.992452, 129, 257, 256, 320
-0.992476, 357, 137, 388, 168
-0.992482, 113, 173, 176, 204
-0.99249, 365, 149, 396, 180
-0.992502, 97, 209, 160, 240
-0.992509, 341, 177, 372, 304
-0.99251, 185, 221, 248, 252
-0.992511, 225, 113, 480, 176
-0.992512, 1, 137, 64, 168
-0.992521, 365, 85, 396, 116
-0.992538, 373, 121, 404, 152
-0.992549, 453, 97, 484, 224
-0.992556, 1, 177, 64, 208
-0.992557, 153, 257, 216, 288
-0.992559, 25, 257, 88, 288
-0.992575, 129, 1, 192, 375
-0.992578, 393, 177, 456, 208
-0.992582, 57, 145, 120, 176
-0.992593, 265, 189, 328, 220
-0.992611, 197, 185, 228, 216
-0.992611, 17, 153, 80, 184
-0.992614, 81, 137, 144, 168
-0.992617, 189, 105, 220, 136
-0.992626, 289, 169, 352, 200
-0.992627, 97, 233, 160, 264
-0.992641, 345, 137, 376, 168
-0.992645, 65, 161, 320, 224
-0.992645, 73, 233, 136, 264
-0.992653, 141, 193, 172, 256
-0.992657, 337, 177, 368, 208
-0.992662, 249, 133, 312, 164
-0.992677, 429, 97, 460, 224
-0.992685, 385, 137, 416, 168
-0.99269, 41, 241, 104, 272
-0.992701, 345, 313, 408, 375
-0.992712, 345, 149, 376, 180
-0.992712, 105, 201, 136, 264
-0.992715, 209, 85, 272, 116
-0.99272, 81, 145, 112, 208
-0.992724, 225, 129, 256, 192
-0.992726, 145, 329, 208, 360
-0.992728, 169, 237, 232, 268
-0.992728, 197, 141, 228, 172
-0.992733, 89, 173, 152, 204
-0.992747, 353, 65, 384, 128
-0.992747, 217, 197, 280, 228
-0.992767, 169, 73, 232, 104
-0.992775, 357, 109, 388, 140
-0.992775, 25, 41, 88, 72
-0.992778, 373, 137, 404, 168
-0.992779, 173, 137, 204, 168
-0.992791, 1, 97, 500, 160
-0.992799, 209, 93, 240, 124
-0.992804, 213, 137, 244, 200
-0.992814, 9, 117, 72, 148
-0.992815, 189, 161, 220, 192
-0.992816, 205, 201, 236, 232
-0.992819, 185, 173, 216, 204
-0.992835, 365, 97, 396, 128
-0.992836, 169, 105, 200, 168
-0.992838, 289, 1, 352, 375
-0.992849, 9, 193, 72, 224
-0.992863, 265, 177, 296, 240
-0.992868, 57, 109, 88, 140
-0.992877, 377, 65, 440, 128
-0.992896, 353, 181, 384, 212
-0.992902, 385, 125, 416, 156
-0.992905, 233, 297, 296, 360
-0.992906, 233, 185, 296, 216
-0.992906, 105, 337, 168, 368
-0.992907, 385, 129, 448, 160
-0.992916, 177, 149, 208, 180
-0.992921, 125, 209, 156, 336
-0.992924, 177, 185, 208, 216
-0.99293, 233, 133, 264, 164
-0.992931, 233, 117, 296, 148
-0.992932, 197, 173, 228, 204
-0.992933, 377, 97, 408, 128
-0.992936, 189, 117, 220, 148
-0.99294, 41, 185, 104, 216
-0.992948, 97, 225, 128, 352
-0.992949, 73, 117, 104, 148
-0.992952, 325, 141, 356, 172
-0.992954, 205, 153, 236, 184
-0.992957, 221, 113, 252, 144
-0.992959, 437, 153, 468, 184
-0.992961, 465, 97, 496, 224
-0.992963, 49, 97, 80, 128
-0.992965, 177, 121, 208, 152
-0.992974, 425, 153, 456, 184
-0.992976, 189, 197, 220, 228
-0.992979, 73, 337, 136, 368
-0.99298, 65, 161, 128, 192
-0.992986, 241, 145, 272, 176
-0.992989, 321, 177, 352, 208
-0.992989, 145, 221, 176, 252
-0.992998, 465, 157, 496, 188
-0.993003, 377, 189, 440, 220
-0.993004, 385, 117, 448, 148
-0.993022, 209, 185, 240, 216
-0.993024, 253, 165, 284, 196
-0.993027, 97, 325, 160, 356
-0.99303, 341, 189, 372, 220
-0.993031, 217, 49, 248, 176
-0.993033, 169, 197, 200, 228
-0.993043, 373, 109, 404, 140
-0.993044, 273, 297, 336, 360
-0.993046, 37, 85, 68, 116
-0.993053, 49, 81, 112, 144
-0.993056, 169, 173, 200, 204
-0.993057, 1, 265, 64, 296
-0.993069, 153, 97, 216, 128
-0.99307, 69, 173, 100, 204
-0.993073, 1, 65, 32, 96
-0.993076, 377, 33, 408, 160
-0.993076, 17, 57, 48, 88
-0.99308, 197, 93, 228, 124
-0.993086, 329, 157, 360, 188
-0.993088, 261, 153, 292, 184
-0.99309, 33, 69, 96, 100
-0.993091, 241, 153, 272, 216
-0.993091, 401, 189, 464, 220
-0.993108, 353, 89, 384, 120
-0.993108, 429, 165, 460, 196
-0.993112, 353, 161, 384, 192
-0.993115, 317, 117, 348, 148
-0.993118, 337, 125, 368, 156
-0.993123, 353, 125, 384, 156
-0.993123, 105, 133, 136, 164
-0.993126, 397, 145, 428, 176
-0.993131, 277, 157, 308, 188
-0.993136, 265, 97, 296, 224
-0.993141, 85, 137, 116, 168
-0.993141, 201, 221, 232, 252
-0.993143, 397, 133, 428, 164
-0.99315, 173, 209, 204, 240
-0.993152, 33, 225, 96, 288
-0.99316, 153, 153, 184, 184
-0.993163, 121, 141, 152, 172
-0.993165, 29, 73, 60, 104
-0.993166, 157, 201, 188, 232
-0.993172, 385, 113, 416, 144
-0.993174, 293, 177, 324, 240
-0.99318, 65, 1, 128, 375
-0.99318, 109, 145, 140, 176
-0.99318, 365, 177, 396, 208
-0.99319, 405, 157, 436, 188
-0.993193, 241, 297, 368, 360
-0.993194, 161, 217, 192, 248
-0.993195, 353, 297, 480, 360
-0.993201, 145, 209, 176, 240
-0.993205, 449, 153, 480, 184
-0.99321, 469, 177, 500, 208
-0.993216, 211, 185, 226, 248
-0.99322, 33, 173, 64, 204
-0.993221, 165, 237, 196, 268
-0.993225, 301, 181, 332, 212
-0.993227, 297, 157, 328, 188
-0.993237, 369, 1, 432, 375
-0.993237, 89, 173, 120, 204
-0.993239, 305, 193, 368, 320
-0.993245, 73, 129, 104, 160
-0.993254, 313, 129, 344, 160
-0.993259, 337, 101, 368, 132
-0.993261, 221, 125, 252, 156
-0.993263, 409, 141, 440, 172
-0.993266, 193, 209, 224, 240
-0.993273, 329, 113, 360, 144
-0.993278, 149, 141, 180, 172
-0.993278, 181, 233, 212, 264
-0.993279, 129, 229, 160, 260
-0.993282, 277, 177, 308, 208
-0.993284, 317, 157, 348, 188
-0.993286, 161, 141, 288, 172
-0.993289, 385, 153, 416, 184
-0.993299, 305, 145, 336, 176
-0.993301, 345, 113, 376, 144
-0.993301, 49, 165, 80, 196
-0.993309, 213, 169, 244, 200
-0.993311, 165, 157, 196, 188
-0.993312, 125, 209, 156, 240
-0.993313, 137, 137, 168, 168
-0.993316, 145, 237, 176, 268
-0.993323, 209, 113, 240, 144
-0.993324, 57, 177, 88, 208
-0.993327, 221, 181, 252, 212
-0.993328, 221, 101, 252, 132
-0.993334, 157, 177, 188, 208
-0.993343, 53, 145, 84, 272
-0.993346, 317, 189, 348, 220
-0.993348, 201, 233, 232, 264
-0.993351, 181, 89, 212, 120
-0.993352, 157, 189, 188, 220
-0.993357, 365, 61, 396, 92
-0.993365, 397, 117, 428, 148
-0.993366, 97, 145, 128, 176
-0.993367, 1, 53, 32, 84
-0.993371, 317, 101, 348, 132
-0.993381, 161, 129, 192, 160
-0.993382, 41, 153, 72, 184
-0.993384, 341, 161, 372, 192
-0.993388, 185, 221, 216, 252
-0.993401, 221, 193, 252, 224
-0.993401, 161, 249, 192, 280
-0.993402, 289, 281, 416, 344
-0.993406, 65, 121, 96, 184
-0.993409, 37, 53, 68, 84
-0.993417, 357, 193, 388, 224
-0.993418, 461, 129, 492, 192
-0.993435, 361, 177, 424, 304
-0.993467, 37, 17, 68, 144
-0.993469, 177, 241, 304, 304
-0.993533, 193, 33, 224, 160
-0.993545, 145, 129, 272, 160
-0.993553, 161, 89, 416, 152
-0.993596, 213, 73, 244, 136
-0.993632, 241, 201, 368, 264
-0.993685, 65, 185, 320, 248
-0.993737, 57, 297, 120, 360
-0.993765, 369, 177, 400, 240
-0.993785, 265, 1, 328, 375
-0.993857, 401, 105, 432, 168
-0.993966, 109, 233, 140, 296
-0.994005, 89, 113, 120, 176
-0.994034, 353, 73, 480, 136
-0.994058, 289, 65, 416, 128
-0.9941, 261, 129, 292, 192
-0.994101, 17, 17, 144, 80
-0.994111, 37, 177, 68, 304
-0.994181, 49, 297, 176, 360
-0.994194, 85, 169, 116, 232
-0.994237, 309, 177, 340, 240
-0.994247, 313, 289, 376, 352
-0.994248, 203, 169, 218, 232
-0.994256, 81, 89, 144, 152
-0.99426, 137, 241, 168, 304
-0.994294, 57, 249, 88, 312
-0.994299, 393, 1, 456, 375
-0.994335, 381, 113, 396, 176
-0.994342, 105, 1, 168, 375
-0.99438, 97, 233, 128, 296
-0.994405, 359, 153, 374, 216
-0.99442, 1, 297, 128, 360
-0.994434, 209, 265, 336, 328
-0.994443, 113, 141, 240, 172
-0.994473, 165, 241, 196, 304
-0.994487, 129, 281, 256, 344
-0.994491, 97, 81, 128, 208
-0.994515, 1, 129, 32, 256
-0.994564, 353, 177, 384, 304
-0.994581, 177, 153, 304, 184
-0.994606, 97, 57, 224, 120
-0.99461, 289, 129, 320, 192
-0.994648, 193, 193, 448, 256
-0.99466, 17, 153, 48, 216
-0.994706, 1, 145, 500, 208
-0.994717, 257, 181, 384, 212
-0.994722, 249, 185, 280, 248
-0.994733, 209, 57, 336, 120
-0.99475, 213, 193, 244, 320
-0.994751, 393, 257, 456, 320
-0.994758, 233, 1, 296, 375
-0.994781, 371, 81, 386, 144
-0.994784, 181, 65, 212, 192
-0.994816, 129, 313, 192, 375
-0.994854, 409, 33, 472, 288
-0.994871, 41, 121, 72, 184
-0.994878, 133, 81, 164, 208
-0.994878, 393, 145, 424, 272
-0.994881, 417, 1, 480, 375
-0.994887, 249, 265, 312, 328
-0.99489, 81, 297, 144, 360
-0.994905, 49, 65, 176, 128
-0.994925, 195, 185, 210, 248
-0.994954, 17, 41, 32, 104
-0.994958, 385, 233, 448, 296
-0.994964, 445, 129, 476, 192
-0.994973, 203, 73, 218, 136
-0.994994, 313, 177, 344, 304
-0.995008, 113, 157, 240, 188
-0.995008, 345, 289, 408, 352
-0.995017, 277, 97, 308, 224
-0.995039, 61, 145, 92, 208
-0.995074, 225, 161, 256, 224
-0.995077, 33, 241, 288, 304
-0.995079, 193, 145, 208, 208
-0.99508, 177, 101, 304, 132
-0.995128, 57, 49, 88, 176
-0.99513, 149, 81, 180, 208
-0.995137, 353, 201, 480, 264
-0.995151, 1, 73, 500, 136
-0.99516, 193, 105, 208, 168
-0.99517, 229, 65, 260, 192
-0.995174, 353, 193, 384, 256
-0.995184, 305, 241, 368, 368
-0.995201, 305, 201, 432, 264
-0.995201, 241, 157, 368, 188
-0.995203, 53, 177, 84, 240
-0.995212, 369, 113, 384, 176
-0.995214, 25, 129, 56, 256
-0.995216, 289, 177, 320, 304
-0.99523, 161, 117, 288, 148
-0.99524, 289, 257, 416, 320
-0.99524, 97, 305, 224, 368
-0.995257, 1, 217, 128, 280
-0.995279, 289, 305, 416, 368
-0.995286, 209, 241, 272, 304
-0.99531, 409, 241, 472, 368
-0.995313, 227, 97, 242, 160
-0.995356, 41, 177, 72, 240
-0.995371, 441, 177, 472, 240
-0.995385, 59, 97, 74, 160
-0.995387, 193, 305, 320, 368
-0.995401, 265, 225, 328, 288
-0.99541, 177, 173, 304, 204
-0.995431, 1, 121, 500, 184
-0.995434, 201, 65, 232, 320
-0.995436, 353, 273, 480, 336
-0.995437, 69, 105, 84, 168
-0.995441, 125, 177, 156, 240
-0.995453, 179, 177, 194, 240
-0.995476, 281, 177, 312, 240
-0.99548, 391, 113, 406, 176
-0.995481, 257, 145, 272, 208
-0.995484, 65, 145, 192, 176
-0.995487, 109, 81, 140, 208
-0.99549, 145, 289, 208, 352
-0.995491, 241, 65, 272, 192
-0.995492, 371, 137, 386, 200
-0.995498, 379, 137, 394, 200
-0.995518, 347, 153, 362, 216
-0.99553, 331, 153, 346, 216
-0.995532, 337, 241, 464, 304
-0.995533, 433, 33, 496, 288
-0.995552, 305, 101, 432, 132
-0.995581, 205, 193, 220, 256
-0.995586, 433, 201, 496, 264
-0.995607, 353, 241, 416, 368
-0.995626, 57, 209, 120, 272
-0.995626, 157, 241, 188, 368
-0.995632, 205, 17, 236, 144
-0.995644, 217, 193, 232, 256
-0.995658, 31, 41, 46, 104
-0.995669, 57, 1, 120, 256
-0.995679, 37, 257, 68, 320
-0.995682, 209, 73, 224, 136
-0.995692, 229, 177, 260, 304
-0.995694, 237, 177, 268, 240
-0.9957, 417, 281, 480, 344
-0.995713, 359, 129, 374, 192
-0.995722, 241, 201, 304, 264
-0.99574, 469, 153, 484, 216
-0.995765, 97, 129, 224, 160
-0.995772, 241, 225, 304, 288
-0.995772, 433, 193, 496, 320
-0.995776, 297, 153, 312, 216
-0.995782, 211, 161, 226, 224
-0.995785, 13, 121, 44, 184
-0.995793, 1, 125, 128, 156
-0.995795, 377, 81, 392, 144
-0.995807, 185, 241, 248, 368
-0.995815, 393, 201, 456, 264
-0.995835, 221, 89, 236, 152
-0.995847, 1, 65, 256, 128
-0.99585, 359, 97, 374, 160
-0.995871, 303, 153, 318, 216
-0.995879, 377, 1, 440, 256
-0.995894, 173, 193, 188, 256
-0.995904, 185, 305, 248, 368
-0.995925, 81, 65, 112, 192
-0.995928, 25, 257, 56, 320
-0.995929, 353, 137, 368, 200
-0.995935, 421, 153, 436, 216
-0.995949, 45, 225, 76, 352
-0.995952, 357, 177, 372, 240
-0.995968, 207, 137, 222, 200
-0.995975, 297, 313, 360, 375
-0.995979, 241, 137, 368, 168
-0.99598, 273, 153, 288, 216
-0.995993, 321, 137, 448, 168
-0.995996, 373, 57, 388, 120
-0.995998, 233, 105, 248, 168
-0.996005, 327, 113, 342, 176
-0.996007, 177, 185, 304, 216
-0.99601, 5, 33, 36, 96
-0.996015, 477, 153, 492, 216
-0.996043, 417, 257, 480, 320
-0.996047, 409, 233, 472, 296
-0.996064, 369, 193, 496, 320
-0.996079, 173, 153, 188, 216
-0.996086, 1, 313, 64, 375
-0.996088, 369, 149, 496, 180
-0.996101, 153, 217, 168, 280
-0.996111, 129, 97, 256, 128
-0.996111, 105, 313, 168, 375
-0.996112, 365, 81, 380, 144
-0.996125, 81, 233, 112, 296
-0.996126, 65, 209, 320, 272
-0.996133, 41, 73, 56, 136
-0.996156, 51, 81, 66, 144
-0.996176, 153, 313, 216, 375
-0.996179, 169, 265, 232, 328
-0.996194, 209, 225, 272, 352
-0.996202, 1, 65, 16, 128
-0.996204, 305, 149, 432, 180
-0.996219, 435, 153, 450, 216
-0.996236, 263, 153, 278, 216
-0.996238, 225, 121, 352, 152
-0.99625, 325, 153, 340, 216
-0.996258, 337, 137, 352, 200
-0.996272, 393, 281, 456, 344
-0.996288, 305, 181, 432, 212
-0.996299, 453, 185, 484, 248
-0.996304, 185, 169, 200, 232
-0.996308, 367, 57, 382, 120
-0.996308, 243, 129, 258, 192
-0.996314, 301, 177, 332, 304
-0.996319, 319, 153, 334, 216
-0.996326, 195, 81, 210, 144
-0.996329, 217, 169, 232, 232
-0.996331, 387, 89, 402, 152
-0.996335, 397, 113, 412, 176
-0.99634, 1, 129, 32, 192
-0.996343, 429, 161, 444, 224
-0.996347, 279, 153, 294, 216
-0.996362, 313, 65, 344, 192
-0.996372, 97, 137, 112, 200
-0.996373, 445, 161, 460, 224
-0.996373, 177, 81, 208, 144
-0.996382, 1, 113, 128, 144
-0.996385, 25, 41, 40, 104
-0.996386, 69, 233, 100, 296
-0.996393, 289, 153, 304, 216
-0.996399, 145, 217, 160, 280
-0.996448, 113, 181, 240, 212
-0.996465, 187, 113, 202, 176
-0.99647, 187, 137, 202, 200
-0.996479, 257, 169, 384, 200
-0.996485, 365, 137, 380, 200
-0.996492, 61, 225, 92, 352
-0.996511, 369, 137, 496, 168
-0.996512, 415, 153, 430, 216
-0.996524, 251, 137, 266, 200
-0.996525, 81, 117, 208, 148
-0.99653, 161, 233, 176, 296
-0.996538, 483, 145, 498, 208
-0.996544, 347, 105, 362, 168
-0.996546, 7, 65, 22, 128
-0.996554, 75, 113, 90, 176
-0.996557, 213, 217, 228, 280
-0.996559, 1, 169, 128, 200
-0.996566, 103, 145, 118, 208
-0.996566, 463, 153, 478, 216
-0.996576, 411, 121, 426, 184
-0.996581, 169, 49, 200, 176
-0.996621, 167, 145, 182, 208
-0.996623, 113, 169, 240, 200
-0.99663, 209, 89, 336, 120
-0.996648, 353, 49, 480, 112
-0.996671, 289, 89, 416, 120
-0.996677, 213, 137, 228, 200
-0.996678, 225, 109, 352, 140
-0.996678, 337, 165, 464, 196
-0.99669, 387, 145, 402, 208
-0.996707, 337, 113, 352, 176
-0.996709, 33, 225, 64, 352
-0.99671, 205, 217, 220, 280
-0.99671, 213, 65, 244, 320
-0.996719, 185, 65, 216, 320
-0.996721, 273, 33, 336, 288
-0.996736, 97, 229, 224, 260
-0.996738, 113, 193, 240, 224
-0.996758, 289, 273, 352, 336
-0.996782, 455, 153, 470, 216
-0.996793, 405, 121, 420, 184
-0.996831, 179, 153, 194, 216
-0.99684, 45, 153, 60, 216
-0.996847, 141, 129, 172, 375
-0.996853, 381, 57, 396, 120
-0.996854, 225, 97, 256, 352
-0.99686, 163, 209, 178, 272
-0.996862, 309, 153, 324, 216
-0.996872, 121, 81, 152, 208
-0.996874, 299, 177, 314, 240
-0.996874, 353, 113, 368, 176
-0.996874, 241, 241, 368, 304
-0.996878, 121, 129, 152, 375
-0.996899, 1, 49, 128, 80
-0.996912, 83, 105, 98, 168
-0.996915, 89, 129, 104, 192
-0.996918, 353, 257, 416, 320
-0.99692, 305, 113, 432, 144
-0.996932, 9, 1, 40, 256
-0.996932, 393, 137, 408, 200
-0.996935, 129, 233, 384, 296
-0.996936, 25, 177, 56, 304
-0.996937, 353, 189, 480, 220
-0.996971, 329, 201, 392, 264
-0.996978, 35, 65, 50, 128
-0.996982, 183, 201, 198, 264
-0.996994, 329, 177, 344, 240
-0.997, 21, 33, 52, 288
-0.997, 215, 73, 230, 136
-0.99702, 315, 129, 330, 192
-0.99702, 1, 193, 500, 256
-0.997028, 139, 217, 154, 280
-0.997032, 199, 113, 214, 176
-0.997034, 329, 241, 392, 368
-0.997038, 129, 85, 256, 116
-0.997041, 49, 133, 176, 164
-0.997047, 13, 177, 44, 304
-0.99705, 123, 137, 138, 200
-0.997061, 321, 125, 448, 156
-0.997071, 65, 157, 192, 188
-0.997075, 11, 41, 26, 104
-0.99708, 289, 193, 416, 224
-0.997096, 129, 213, 256, 244
-0.997104, 371, 161, 386, 224
-0.997109, 207, 181, 222, 212
-0.997129, 223, 177, 238, 240
-0.997132, 1, 81, 32, 208
-0.99715, 121, 289, 184, 352
-0.997155, 219, 145, 234, 208
-0.997161, 375, 113, 390, 176
-0.997168, 33, 313, 96, 375
-0.997178, 161, 145, 176, 208
-0.99719, 109, 153, 124, 216
-0.997191, 147, 129, 162, 192
-0.997197, 357, 65, 388, 320
-0.9972, 321, 121, 336, 184
-0.997201, 361, 57, 376, 120
-0.99723, 273, 225, 336, 352
-0.997235, 351, 177, 366, 240
-0.997238, 173, 225, 188, 288
-0.997239, 73, 225, 104, 352
-0.99724, 209, 281, 272, 344
-0.997251, 137, 137, 152, 200
-0.997251, 217, 33, 280, 160
-0.997261, 347, 129, 362, 192
-0.997262, 115, 145, 130, 208
-0.997274, 429, 137, 444, 200
-0.997283, 365, 161, 380, 224
-0.997286, 1, 177, 32, 304
-0.99729, 377, 177, 392, 240
-0.997296, 129, 137, 144, 200
-0.997302, 105, 121, 120, 184
-0.997311, 209, 313, 272, 375
-0.997345, 371, 137, 386, 168
-0.997347, 403, 145, 418, 208
-0.997357, 17, 193, 144, 224
-0.997361, 79, 169, 94, 232
-0.997365, 155, 241, 170, 304
-0.997368, 1, 137, 128, 168
-0.997383, 241, 177, 272, 304
-0.997385, 237, 97, 268, 352
-0.997388, 381, 137, 396, 168
-0.997398, 369, 65, 400, 320
-0.997413, 129, 241, 256, 272
-0.997426, 401, 193, 464, 320
-0.997434, 305, 73, 368, 136
-0.997444, 209, 77, 224, 108
-0.997446, 53, 65, 84, 320
-0.99748, 191, 109, 206, 140
-0.99751, 337, 89, 464, 120
-0.997518, 17, 45, 32, 76
-0.997521, 213, 185, 228, 216
-0.997523, 1, 169, 500, 232
-0.99753, 1, 101, 128, 132
-0.997531, 369, 121, 384, 152
-0.997539, 289, 225, 416, 288
-0.997563, 153, 129, 184, 375
-0.997573, 225, 193, 352, 224
-0.997596, 357, 177, 372, 208
-0.997596, 177, 77, 304, 108
-0.997605, 201, 177, 216, 208
-0.997611, 413, 81, 444, 208
-0.997613, 173, 97, 204, 352
-0.99762, 359, 137, 374, 168
-0.997624, 365, 177, 396, 304
-0.997627, 257, 297, 500, 360
-0.997633, 215, 201, 230, 232
-0.997647, 353, 177, 480, 208
-0.997655, 17, 253, 144, 284
-0.997678, 49, 241, 176, 272
-0.99769, 369, 85, 384, 116
-0.9977, 379, 121, 394, 152
-0.997701, 421, 177, 452, 304
-0.997712, 351, 145, 366, 176
-0.997716, 109, 129, 140, 375
-0.997728, 65, 265, 320, 328
-0.997731, 17, 61, 144, 92
-0.997732, 199, 133, 214, 164
-0.997739, 41, 65, 72, 320
-0.997747, 233, 117, 248, 148
-0.99776, 29, 45, 44, 76
-0.997761, 161, 197, 288, 228
-0.99777, 77, 97, 108, 352
-0.997772, 433, 305, 496, 368
-0.99778, 49, 205, 176, 236
-0.99778, 185, 241, 216, 368
-0.997781, 63, 101, 78, 132
-0.997784, 17, 149, 144, 180
-0.997792, 97, 305, 352, 368
-0.997793, 331, 137, 346, 168
-0.997806, 201, 189, 216, 220
-0.997807, 49, 229, 176, 260
-0.997823, 221, 93, 236, 124
-0.997826, 33, 89, 160, 120
-0.997828, 1, 129, 64, 375
-0.997829, 203, 81, 218, 112
-0.997837, 255, 145, 270, 176
-0.99784, 17, 181, 144, 212
-0.997861, 65, 177, 192, 208
-0.997861, 191, 125, 206, 156
-0.997871, 329, 181, 344, 212
-0.997887, 339, 141, 354, 172
-0.997888, 387, 129, 402, 160
-0.997898, 229, 101, 244, 132
-0.997917, 245, 133, 260, 164
-0.997928, 209, 197, 224, 228
-0.997929, 33, 201, 96, 264
-0.997935, 325, 125, 340, 156
-0.997944, 365, 177, 380, 208
-0.997959, 361, 157, 376, 188
-0.997973, 71, 109, 86, 140
-0.99798, 209, 133, 224, 164
-0.997984, 53, 89, 68, 120
-0.997998, 195, 157, 210, 188
-0.998, 211, 145, 226, 176
-0.998016, 365, 141, 380, 172
-0.998017, 161, 229, 288, 260
-0.998021, 369, 109, 384, 140
-0.998021, 173, 197, 188, 228
-0.998023, 331, 125, 346, 156
-0.998033, 379, 149, 394, 180
-0.998045, 81, 217, 208, 248
-0.998059, 213, 213, 228, 244
-0.998064, 387, 141, 402, 172
-0.998072, 195, 93, 210, 124
-0.998074, 403, 145, 418, 176
-0.998077, 205, 213, 220, 244
-0.99808, 43, 77, 58, 108
-0.998096, 371, 149, 386, 180
-0.998101, 1, 301, 128, 332
-0.998102, 7, 65, 22, 96
-0.998106, 363, 121, 378, 152
-0.998109, 377, 85, 392, 116
-0.998109, 207, 165, 222, 196
-0.998115, 339, 129, 354, 160
-0.998119, 371, 69, 386, 100
-0.998123, 77, 117, 92, 148
-0.998126, 65, 97, 96, 352
-0.998127, 333, 113, 348, 144
-0.998127, 147, 217, 162, 248
-0.998132, 249, 129, 280, 375
-0.998133, 33, 73, 160, 104
-0.998135, 201, 121, 216, 152
-0.998136, 351, 181, 366, 212
-0.998137, 91, 133, 106, 164
-0.998139, 81, 265, 208, 296
-0.998141, 395, 129, 410, 160
-0.998151, 377, 109, 392, 140
-0.998164, 93, 97, 124, 352
-0.998166, 377, 225, 440, 352
-0.99817, 293, 177, 308, 208
-0.998175, 439, 153, 454, 184
-0.998184, 205, 153, 220, 184
-0.998189, 401, 125, 416, 156
-0.998195, 363, 97, 378, 128
-0.9982, 1, 69, 16, 100
-0.998205, 353, 101, 480, 132
-0.998205, 299, 181, 314, 212
-0.998208, 273, 125, 400, 156
-0.99821, 481, 157, 496, 188
-0.99821, 155, 241, 170, 272
-0.998216, 413, 129, 444, 375
-0.99822, 183, 173, 198, 204
-0.998222, 237, 129, 252, 160
-0.998222, 433, 165, 448, 196
-0.998223, 355, 157, 370, 188
-0.998227, 397, 145, 412, 176
-0.998232, 349, 129, 364, 160
-0.998236, 165, 149, 180, 180
-0.998239, 205, 225, 220, 256
-0.998241, 321, 177, 336, 208
-0.998244, 177, 185, 192, 216
-0.998261, 321, 113, 336, 144
-0.998261, 473, 157, 488, 188
-0.998266, 99, 141, 114, 172
-0.998267, 161, 233, 176, 264
-0.998268, 195, 173, 210, 204
-0.998269, 69, 49, 100, 176
-0.998272, 387, 101, 402, 132
-0.998283, 113, 253, 240, 284
-0.998283, 23, 45, 38, 76
-0.998287, 155, 229, 170, 260
-0.998291, 343, 177, 358, 208
-0.998292, 427, 161, 442, 192
-0.998294, 363, 109, 378, 140
-0.998295, 303, 157, 318, 188
-0.998297, 195, 193, 210, 224
-0.998299, 85, 129, 100, 160
-0.998303, 401, 305, 464, 368
-0.998313, 377, 97, 392, 128
-0.998315, 257, 297, 384, 328
-0.998322, 357, 117, 372, 148
-0.998328, 297, 209, 360, 272
-0.998331, 271, 157, 286, 188
-0.998337, 381, 65, 412, 320
-0.998343, 83, 113, 98, 144
-0.998344, 215, 81, 230, 112
-0.998345, 35, 69, 50, 100
-0.998346, 343, 153, 358, 184
-0.998346, 313, 265, 376, 328
-0.998349, 353, 33, 384, 160
-0.99835, 217, 109, 248, 124
-0.99835, 297, 159, 328, 174
-0.998351, 169, 187, 200, 202
-0.998351, 161, 225, 192, 240
-0.998351, 409, 161, 440, 176
-0.998351, 73, 171, 104, 186
-0.998352, 239, 117, 254, 148
-0.998352, 199, 105, 214, 136
-0.998352, 173, 181, 204, 196
-0.998354, 171, 177, 186, 208
-0.998354, 433, 167, 464, 182
-0.998354, 73, 115, 104, 130
-0.998355, 201, 153, 232, 168
-0.998355, 317, 189, 348, 204
-0.998356, 357, 193, 372, 224
-0.998356, 181, 97, 212, 112
-0.998356, 201, 101, 232, 116
-0.998357, 289, 183, 320, 198
-0.998358, 333, 127, 364, 142
-0.998358, 77, 123, 108, 138
-0.998359, 261, 153, 292, 168
-0.99836, 421, 163, 452, 178
-0.99836, 353, 191, 384, 206
-0.998362, 13, 65, 44, 80
-0.998362, 469, 181, 500, 196
-0.998362, 205, 221, 236, 236
-0.998362, 305, 121, 336, 136
-0.998363, 173, 147, 204, 162
-0.998363, 201, 125, 232, 140
-0.998364, 141, 215, 172, 230
-0.998366, 365, 181, 396, 196
-0.998366, 321, 119, 352, 134
-0.998368, 21, 73, 52, 88
-0.998369, 1, 67, 32, 82
-0.998369, 201, 171, 232, 186
-0.998369, 177, 153, 208, 168
-0.998369, 425, 153, 456, 168
-0.99837, 109, 137, 124, 168
-0.99837, 141, 223, 172, 238
-0.99837, 469, 157, 500, 172
-0.99837, 357, 175, 388, 190
-0.998371, 65, 121, 96, 136
-0.998371, 41, 165, 72, 180
-0.998371, 309, 155, 340, 170
-0.998374, 301, 187, 332, 202
-0.998374, 365, 101, 396, 116
-0.998375, 201, 193, 232, 208
-0.998376, 377, 155, 408, 170
-0.998376, 101, 141, 132, 156
-0.998379, 177, 135, 208, 150
-0.998379, 345, 123, 376, 138
-0.998379, 401, 143, 432, 158
-0.998379, 357, 107, 388, 122
-0.998379, 29, 83, 60, 98
-0.99838, 325, 183, 356, 198
-0.998382, 73, 131, 104, 146
-0.998382, 365, 83, 396, 98
-0.998382, 109, 147, 140, 162
-0.998382, 325, 155, 356, 170
-0.998382, 325, 137, 340, 168
-0.998382, 411, 137, 426, 168
-0.998383, 177, 195, 208, 210
-0.998384, 205, 207, 236, 222
-0.998384, 393, 135, 424, 150
-0.998384, 29, 167, 60, 182
-0.998385, 385, 127, 416, 142
-0.998387, 389, 117, 404, 148
-0.998388, 321, 139, 352, 154
-0.998388, 189, 103, 220, 118
-0.998388, 141, 229, 172, 244
-0.998389, 293, 129, 324, 375
-0.99839, 197, 141, 228, 156
-0.998391, 85, 141, 116, 156
-0.998392, 137, 221, 152, 252
-0.998393, 233, 137, 264, 152
-0.998393, 377, 111, 408, 126
-0.998393, 261, 159, 292, 174
-0.998394, 209, 177, 240, 192
-0.998394, 89, 147, 120, 162
-0.998395, 181, 159, 212, 174
-0.998396, 453, 153, 468, 184
-0.998397, 379, 177, 394, 208
-0.998397, 201, 165, 232, 180
-0.998398, 49, 103, 80, 118
-0.998398, 241, 147, 272, 162
-0.998398, 221, 121, 252, 136
-0.998399, 225, 129, 256, 144
-0.9984, 181, 189, 212, 204
-0.9984, 353, 115, 384, 130
-0.998403, 453, 157, 484, 172
-0.998404, 433, 159, 464, 174
-0.998406, 197, 199, 228, 214
-0.998407, 345, 129, 376, 375
-0.998409, 61, 115, 92, 130
-0.99841, 201, 165, 216, 196
-0.99841, 1, 265, 128, 296
-0.998411, 213, 97, 244, 112
-0.998412, 161, 65, 416, 128
-0.998414, 185, 167, 216, 182
-0.998414, 313, 133, 344, 148
-0.998414, 217, 115, 248, 130
-0.998416, 277, 157, 292, 188
-0.998416, 161, 221, 176, 252
-0.998417, 341, 183, 372, 198
-0.998417, 353, 183, 384, 198
-0.998417, 369, 125, 496, 156
-0.998418, 185, 107, 248, 122
-0.998423, 183, 121, 198, 152
-0.998424, 37, 91, 68, 106
-0.998426, 41, 97, 72, 112
-0.998427, 335, 181, 350, 212
-0.998428, 53, 109, 84, 124
-0.99843, 195, 217, 210, 248
-0.998432, 201, 187, 232, 202
-0.998432, 13, 225, 44, 352
-0.998432, 337, 143, 368, 158
-0.998433, 365, 113, 396, 128
-0.998434, 17, 59, 48, 74
-0.998435, 185, 101, 248, 116
-0.998435, 185, 117, 248, 132
-0.998436, 109, 153, 124, 184
-0.998437, 227, 113, 242, 144
-0.998438, 385, 149, 416, 164
-0.998439, 177, 127, 208, 142
-0.998439, 345, 155, 376, 170
-0.99844, 365, 155, 396, 170
-0.998441, 369, 113, 496, 144
-0.998443, 341, 177, 372, 192
-0.998447, 401, 97, 432, 352
-0.998447, 377, 137, 408, 152
-0.99845, 17, 37, 144, 68
-0.998455, 273, 129, 304, 375
-0.998458, 263, 153, 278, 184
-0.998458, 13, 57, 28, 88
-0.998458, 321, 189, 336, 220
-0.998459, 329, 97, 360, 352
-0.998459, 49, 101, 176, 132
-0.99846, 189, 123, 220, 138
-0.998461, 185, 173, 216, 188
-0.998462, 353, 129, 384, 144
-0.998464, 201, 93, 232, 108
-0.998467, 377, 121, 408, 136
-0.998468, 321, 125, 352, 140
-0.99847, 189, 109, 220, 124
-0.99847, 457, 129, 488, 375
-0.998471, 185, 95, 248, 110
-0.998471, 397, 149, 428, 164
-0.998472, 221, 193, 236, 224
-0.998475, 481, 169, 496, 200
-0.998477, 189, 179, 220, 194
-0.998479, 179, 197, 194, 228
-0.99848, 341, 189, 372, 204
-0.998481, 201, 225, 232, 352
-0.998484, 161, 183, 224, 198
-0.998486, 209, 147, 272, 162
-0.99849, 333, 133, 364, 148
-0.998493, 197, 147, 228, 162
-0.998493, 353, 135, 384, 150
-0.998494, 329, 149, 360, 164
-0.998495, 201, 131, 264, 146
-0.998498, 365, 129, 396, 144
-0.998498, 189, 115, 220, 130
-0.998499, 189, 129, 220, 144
-0.9985, 365, 95, 396, 110
-0.998504, 301, 65, 332, 192
-0.998512, 113, 341, 240, 372
-0.998513, 365, 89, 396, 104
-0.998514, 17, 53, 48, 68
-0.998517, 241, 285, 368, 316
-0.998518, 265, 185, 328, 200
-0.998523, 161, 175, 224, 190
-0.998525, 33, 333, 160, 364
-0.998525, 385, 143, 416, 158
-0.998527, 185, 89, 248, 104
-0.99853, 65, 193, 192, 224
-0.998531, 429, 129, 460, 375
-0.998531, 353, 141, 384, 156
-0.998539, 185, 123, 248, 138
-0.998541, 201, 87, 232, 102
-0.998543, 305, 189, 368, 204
-0.998544, 169, 149, 232, 164
-0.998545, 161, 169, 224, 184
-0.998548, 161, 189, 224, 204
-0.998552, 337, 139, 400, 154
-0.998554, 345, 149, 376, 164
-0.998555, 369, 151, 432, 166
-0.998558, 185, 183, 248, 198
-0.998559, 353, 115, 416, 130
-0.998559, 365, 149, 396, 164
-0.998562, 1, 65, 64, 80
-0.998562, 189, 135, 220, 150
-0.998562, 329, 149, 392, 164
-0.998563, 365, 119, 396, 134
-0.998563, 9, 51, 72, 66
-0.998564, 353, 97, 416, 112
-0.998565, 209, 141, 272, 156
-0.998565, 353, 121, 416, 136
-0.998566, 177, 135, 240, 150
-0.998567, 313, 123, 376, 138
-0.998568, 313, 183, 376, 198
-0.99857, 305, 151, 368, 166
-0.998572, 201, 175, 264, 190
-0.998572, 169, 163, 232, 178
-0.998573, 369, 145, 432, 160
-0.998575, 145, 143, 208, 158
-0.998575, 209, 153, 272, 168
-0.998579, 169, 155, 232, 170
-0.998581, 177, 195, 240, 210
-0.998583, 201, 79, 232, 94
-0.998583, 329, 117, 392, 132
-0.998583, 433, 157, 496, 172
-0.998583, 153, 129, 216, 144
-0.998587, 9, 59, 72, 74
-0.998588, 17, 101, 80, 116
-0.998588, 193, 83, 256, 98
-0.998589, 305, 129, 368, 144
-0.99859, 393, 161, 456, 176
-0.99859, 353, 131, 416, 146
-0.998592, 337, 183, 400, 198
-0.998602, 313, 177, 376, 192
-0.998602, 265, 191, 328, 206
-0.998603, 305, 145, 368, 160
-0.998603, 417, 167, 480, 182
-0.998604, 145, 241, 208, 256
-0.998605, 257, 159, 320, 174
-0.998606, 369, 65, 384, 192
-0.998606, 193, 169, 256, 184
-0.998608, 193, 189, 256, 204
-0.99861, 365, 139, 396, 154
-0.99861, 297, 157, 360, 172
-0.99861, 33, 121, 96, 136
-0.998611, 145, 151, 208, 166
-0.998611, 353, 89, 416, 104
-0.998612, 369, 137, 432, 152
-0.998613, 1, 81, 64, 96
-0.998614, 353, 191, 416, 206
-0.998615, 121, 145, 184, 160
-0.998618, 41, 129, 104, 144
-0.998619, 329, 95, 392, 110
-0.99862, 17, 95, 80, 110
-0.998621, 169, 143, 232, 158
-0.998622, 121, 241, 184, 256
-0.998625, 33, 111, 96, 126
-0.998625, 369, 157, 432, 172
-0.998625, 145, 235, 208, 250
-0.998626, 193, 161, 256, 176
-0.998627, 209, 183, 272, 198
-0.998629, 329, 133, 392, 148
-0.998629, 169, 83, 232, 98
-0.998629, 337, 155, 400, 170
-0.998629, 233, 185, 296, 200
-0.99863, 9, 87, 72, 102
-0.998631, 13, 47, 44, 62
-0.998631, 329, 89, 392, 104
-0.998634, 1, 71, 64, 86
-0.998634, 341, 33, 372, 288
-0.998635, 17, 167, 80, 182
-0.998636, 249, 151, 312, 166
-0.998637, 265, 179, 328, 194
-0.998641, 145, 215, 208, 230
-0.998642, 201, 195, 264, 210
-0.998642, 145, 137, 208, 152
-0.998645, 313, 111, 376, 126
-0.998645, 73, 141, 136, 156
-0.998646, 313, 139, 376, 154
-0.998646, 9, 153, 72, 168
-0.998647, 177, 129, 240, 144
-0.998647, 121, 235, 184, 250
-0.998649, 49, 137, 112, 152
-0.99865, 97, 147, 160, 162
-0.998651, 145, 119, 208, 134
-0.998651, 191, 97, 206, 224
-0.998653, 329, 189, 392, 204
-0.998655, 137, 223, 200, 238
-0.998655, 97, 141, 160, 156
-0.998655, 353, 103, 416, 118
-0.998656, 337, 175, 400, 190
-0.998657, 393, 151, 456, 166
-0.998657, 113, 211, 176, 226
-0.998657, 233, 175, 296, 190
-0.998657, 153, 95, 216, 110
-0.998658, 441, 129, 472, 375
-0.998659, 225, 111, 288, 126
-0.998661, 65, 131, 128, 146
-0.998662, 305, 297, 432, 328
-0.998664, 9, 175, 72, 190
-0.998665, 145, 249, 208, 264
-0.998665, 297, 117, 360, 132
-0.998665, 153, 195, 216, 210
-0.998666, 241, 139, 304, 154
-0.998666, 121, 187, 184, 202
-0.998666, 193, 77, 256, 92
-0.998668, 273, 151, 336, 166
-0.998669, 121, 347, 184, 362
-0.998669, 9, 45, 72, 60
-0.99867, 233, 169, 296, 184
-0.99867, 217, 159, 280, 174
-0.99867, 369, 109, 432, 124
-0.998671, 241, 191, 304, 206
-0.998671, 329, 103, 392, 118
-0.998672, 369, 173, 432, 188
-0.998672, 41, 173, 104, 188
-0.998672, 89, 135, 152, 150
-0.998674, 113, 325, 240, 356
-0.998675, 169, 77, 232, 92
-0.998675, 393, 139, 456, 154
-0.998676, 289, 181, 352, 196
-0.998677, 57, 123, 120, 138
-0.998677, 169, 207, 232, 222
-0.998677, 57, 113, 120, 128
-0.998678, 121, 193, 184, 208
-0.998687, 177, 241, 304, 272
-0.99869, 197, 81, 212, 208
-0.998713, 317, 129, 348, 375
-0.998715, 161, 261, 288, 292
-0.998716, 203, 65, 218, 192
-0.998719, 213, 65, 228, 192
-0.998731, 469, 129, 500, 375
-0.998747, 129, 285, 256, 316
-0.99875, 305, 97, 336, 352
-0.998754, 33, 277, 160, 308
-0.99876, 129, 73, 256, 104
-0.998764, 161, 273, 288, 304
-0.998815, 205, 129, 220, 256
-0.998818, 195, 145, 210, 272
-0.998822, 289, 81, 320, 208
-0.998827, 193, 305, 320, 336
-0.998835, 261, 129, 292, 375
-0.998839, 305, 281, 432, 312
-0.998851, 225, 273, 480, 336
-0.998852, 377, 65, 392, 192
-0.998857, 141, 33, 172, 288
-0.998865, 177, 345, 304, 375
-0.998866, 211, 129, 226, 256
-0.998867, 121, 33, 152, 288
-0.998881, 177, 293, 304, 324
-0.998884, 33, 345, 160, 375
-0.998915, 65, 253, 192, 284
-0.998926, 375, 113, 390, 240
-0.998935, 179, 161, 194, 288
-0.998941, 1, 233, 128, 264
-0.998941, 213, 177, 228, 304
-0.998954, 157, 33, 188, 288
-0.998964, 81, 277, 208, 308
-0.998972, 17, 33, 32, 160
-0.99898, 1, 313, 128, 344
-0.998983, 369, 201, 496, 232
-0.998985, 369, 309, 496, 340
-0.998986, 31, 33, 46, 160
-0.998987, 383, 97, 398, 224
-0.998987, 225, 1, 256, 256
-0.998997, 243, 113, 258, 240
-0.998999, 81, 309, 208, 340
-0.999007, 255, 129, 270, 256
-0.999008, 1, 97, 32, 352
-0.99901, 223, 81, 238, 208
-0.999015, 321, 317, 448, 348
-0.999017, 167, 129, 182, 256
-0.99902, 61, 81, 76, 208
-0.999029, 173, 177, 188, 304
-0.999031, 359, 97, 374, 224
-0.999032, 75, 97, 90, 224
-0.999037, 351, 129, 366, 256
-0.999056, 233, 97, 248, 224
-0.999065, 1, 217, 500, 280
-0.999072, 17, 217, 144, 248
-0.999084, 365, 113, 380, 240
-0.999084, 23, 33, 38, 160
-0.999087, 185, 161, 200, 288
-0.999091, 139, 129, 154, 256
-0.999094, 1, 241, 500, 304
-0.999095, 249, 129, 264, 256
-0.999104, 47, 65, 62, 192
-0.999116, 185, 113, 200, 240
-0.999121, 119, 129, 134, 256
-0.999123, 263, 145, 278, 272
-0.999129, 193, 217, 320, 248
-0.999138, 161, 321, 288, 352
-0.999142, 369, 261, 496, 292
-0.999142, 289, 269, 416, 300
-0.999149, 129, 129, 144, 256
-0.999151, 473, 145, 488, 272
-0.999161, 327, 97, 342, 224
-0.999168, 273, 313, 400, 344
-0.999181, 463, 145, 478, 272
-0.999187, 9, 49, 24, 176
-0.999188, 87, 113, 102, 240
-0.999195, 435, 129, 450, 256
-0.999211, 67, 97, 82, 224
-0.999212, 369, 277, 496, 308
-0.999216, 453, 145, 468, 272
-0.999216, 53, 81, 68, 208
-0.999221, 159, 129, 174, 256
-0.999221, 161, 333, 288, 364
-0.999223, 345, 129, 360, 256
-0.999224, 1, 49, 16, 176
-0.999228, 103, 129, 118, 256
-0.999236, 149, 129, 164, 256
-0.999236, 333, 97, 348, 224
-0.99924, 41, 65, 56, 192
-0.99925, 353, 293, 480, 324
-0.999251, 479, 145, 494, 272
-0.999254, 81, 113, 96, 240
-0.999261, 109, 129, 124, 256
-0.999263, 273, 145, 288, 272
-0.999268, 1, 289, 128, 320
-0.999268, 161, 209, 176, 336
-0.999269, 341, 81, 356, 208
-0.999271, 225, 233, 480, 296
-0.999271, 363, 49, 378, 176
-0.999272, 445, 145, 460, 272
-0.999272, 369, 333, 496, 364
-0.999282, 93, 113, 108, 240
-0.999282, 339, 129, 354, 256
-0.999291, 423, 145, 438, 272
-0.999312, 203, 177, 218, 304
-0.999312, 485, 145, 500, 272
-0.999314, 321, 129, 336, 256
-0.999319, 219, 177, 234, 304
-0.99933, 337, 249, 464, 280
-0.99934, 359, 145, 374, 272
-0.999342, 393, 81, 408, 208
-0.999344, 285, 145, 300, 272
-0.999352, 279, 145, 294, 272
-0.999357, 217, 113, 232, 240
-0.999364, 1, 41, 256, 104
-0.999367, 295, 129, 310, 256
-0.999367, 421, 33, 452, 288
-0.999368, 49, 293, 176, 324
-0.999372, 173, 129, 188, 256
-0.999376, 107, 177, 122, 304
-0.999378, 429, 145, 444, 272
-0.999386, 417, 129, 432, 256
-0.999386, 317, 33, 348, 288
-0.999387, 401, 97, 416, 224
-0.999388, 167, 177, 182, 304
-0.999392, 249, 33, 280, 288
-0.999394, 369, 77, 496, 108
-0.999401, 305, 129, 320, 256
-0.999401, 223, 129, 238, 256
-0.999403, 337, 229, 464, 260
-0.999412, 65, 321, 192, 352
-0.999426, 99, 177, 114, 304
-0.999428, 369, 345, 496, 375
-0.999435, 161, 57, 288, 120
-0.999438, 209, 333, 336, 364
-0.999443, 369, 17, 384, 144
-0.999447, 353, 81, 368, 208
-0.999448, 225, 245, 352, 276
-0.999449, 195, 193, 210, 320
-0.999449, 179, 113, 194, 240
-0.999458, 105, 33, 136, 288
-0.99946, 209, 261, 336, 292
-0.999465, 9, 113, 24, 240
-0.999465, 237, 1, 268, 256
-0.999466, 129, 305, 256, 336
-0.999467, 89, 177, 104, 304
-0.999469, 113, 177, 128, 304
-0.999472, 241, 273, 368, 304
-0.999475, 149, 193, 164, 320
-0.999476, 369, 321, 496, 352
-0.999483, 315, 129, 330, 256
-0.999486, 257, 333, 384, 364
-0.999487, 185, 209, 200, 336
-0.999488, 333, 145, 348, 272
-0.999492, 257, 257, 384, 288
-0.999494, 389, 129, 404, 256
-0.999494, 43, 129, 58, 256
-0.999494, 411, 145, 426, 272
-0.999498, 257, 77, 384, 108
-0.999498, 3, 129, 18, 256
-0.999502, 445, 97, 460, 224
-0.999503, 453, 97, 468, 224
-0.999507, 395, 129, 410, 256
-0.999511, 53, 129, 68, 256
-0.999511, 383, 49, 398, 176
-0.999514, 427, 97, 442, 224
-0.999515, 347, 81, 362, 208
-0.999519, 409, 97, 424, 224
-0.999521, 17, 97, 32, 224
-0.999522, 123, 209, 138, 336
-0.999524, 267, 97, 282, 224
-0.999526, 43, 17, 58, 144
-0.999531, 327, 145, 342, 272
-0.999534, 209, 65, 336, 96
-0.999536, 91, 225, 106, 352
-0.999539, 81, 177, 96, 304
-0.999539, 129, 209, 144, 336
-0.999541, 321, 81, 336, 208
-0.999547, 463, 97, 478, 224
-0.999547, 261, 97, 276, 224
-0.999548, 207, 17, 222, 144
-0.999551, 253, 81, 268, 208
-0.999553, 289, 345, 416, 375
-0.999553, 353, 177, 368, 304
-0.999553, 299, 177, 314, 304
-0.999555, 383, 145, 398, 272
-0.999556, 139, 209, 154, 336
-0.999556, 109, 225, 124, 352
-0.999557, 229, 49, 244, 176
-0.999561, 367, 161, 382, 288
-0.999561, 329, 49, 360, 176
-0.999564, 225, 177, 240, 304
-0.999569, 387, 151, 402, 166
-0.999569, 379, 155, 394, 170
-0.999569, 317, 153, 332, 168
-0.99957, 199, 107, 214, 122
-0.99957, 85, 125, 100, 140
-0.99957, 437, 157, 452, 172
-0.99957, 341, 141, 356, 156
-0.999571, 471, 97, 486, 224
-0.999571, 99, 225, 114, 352
-0.999571, 475, 159, 490, 174
-0.999572, 377, 109, 392, 124
-0.999572, 49, 87, 64, 102
-0.999572, 371, 77, 386, 92
-0.999573, 219, 33, 234, 160
-0.999573, 369, 111, 384, 126
-0.999574, 161, 233, 176, 248
-0.999575, 191, 117, 206, 132
-0.999575, 201, 181, 216, 196
-0.999576, 199, 173, 214, 188
-0.999577, 201, 87, 216, 102
-0.999577, 365, 117, 380, 132
-0.999577, 373, 177, 388, 304
-0.99958, 399, 141, 414, 156
-0.99958, 227, 111, 242, 126
-0.999582, 105, 151, 120, 166
-0.999583, 53, 93, 68, 108
-0.999583, 325, 117, 340, 132
-0.999583, 309, 189, 324, 204
-0.999583, 317, 189, 332, 204
-0.999584, 361, 179, 376, 194
-0.999585, 205, 223, 220, 238
-0.999585, 429, 163, 444, 178
-0.999586, 99, 143, 114, 158
-0.999586, 327, 183, 342, 198
-0.999586, 85, 225, 100, 352
-0.999586, 213, 151, 228, 166
-0.999586, 477, 181, 492, 196
-0.999587, 207, 139, 222, 154
-0.999588, 197, 93, 212, 108
-0.999588, 219, 91, 234, 106
-0.999589, 235, 117, 250, 132
-0.999589, 61, 101, 76, 116
-0.99959, 375, 87, 390, 102
-0.99959, 171, 187, 186, 202
-0.99959, 369, 153, 384, 168
-0.99959, 347, 131, 362, 146
-0.999591, 1, 69, 16, 84
-0.999592, 211, 189, 226, 204
-0.999592, 329, 145, 344, 160
-0.999593, 183, 129, 198, 144
-0.999593, 367, 177, 382, 192
-0.999593, 237, 129, 252, 144
-0.999595, 445, 159, 460, 174
-0.999595, 387, 125, 402, 140
-0.999596, 43, 83, 58, 98
-0.999597, 265, 157, 280, 172
-0.999599, 393, 151, 408, 166
-0.9996, 205, 175, 220, 190
-0.9996, 203, 81, 218, 96
-0.999601, 203, 125, 218, 140
-0.999601, 355, 155, 370, 170
-0.999601, 363, 137, 378, 152
-0.999601, 209, 127, 224, 142
-0.999601, 93, 137, 108, 152
-0.999602, 67, 109, 82, 124
-0.999603, 213, 211, 228, 226
-0.999604, 39, 75, 54, 90
-0.999604, 87, 131, 102, 146
-0.999605, 353, 149, 368, 164
-0.999606, 205, 207, 220, 222
-0.999606, 399, 125, 414, 140
-0.999607, 299, 185, 314, 200
-0.999607, 371, 69, 386, 84
-0.999608, 399, 149, 414, 164
-0.999609, 233, 111, 248, 126
-0.999609, 389, 135, 404, 150
-0.999609, 205, 165, 220, 180
-0.99961, 243, 135, 258, 150
-0.999611, 211, 145, 226, 160
-0.999611, 335, 125, 350, 140
-0.999612, 393, 129, 408, 144
-0.999613, 197, 99, 212, 114
-0.999613, 479, 175, 494, 190
-0.999614, 7, 69, 22, 84
-0.999614, 357, 173, 372, 188
-0.999614, 73, 113, 88, 128
-0.999616, 361, 155, 376, 170
-0.999616, 233, 123, 248, 138
-0.999617, 191, 135, 206, 150
-0.999617, 371, 119, 386, 134
-0.999617, 201, 189, 216, 204
-0.999618, 327, 151, 342, 166
-0.99962, 327, 127, 342, 142
-0.99962, 191, 111, 206, 126
-0.999621, 329, 137, 344, 152
-0.999622, 367, 63, 382, 78
-0.999623, 79, 121, 94, 136
-0.999625, 361, 131, 376, 146
-0.999626, 347, 141, 362, 156
-0.999626, 225, 97, 240, 112
-0.999628, 377, 115, 392, 130
-0.99963, 211, 195, 226, 210
-0.999631, 377, 135, 392, 150
-0.999631, 469, 193, 500, 320
-0.999632, 337, 131, 352, 146
-0.999633, 255, 147, 270, 162
-0.999634, 265, 33, 296, 288
-0.999636, 393, 141, 408, 156
-0.999636, 29, 49, 44, 64
-0.999636, 373, 147, 388, 162
-0.999642, 379, 127, 394, 142
-0.999643, 335, 141, 350, 156
-0.999643, 377, 121, 392, 136
-0.999645, 349, 155, 364, 170
-0.999646, 339, 147, 354, 162
-0.999646, 353, 189, 368, 204
-0.999647, 369, 85, 384, 100
-0.999647, 357, 139, 372, 154
-0.999648, 319, 121, 334, 136
-0.999649, 387, 145, 402, 160
-0.99965, 353, 179, 368, 194
-0.999651, 345, 149, 360, 164
-0.999658, 289, 245, 416, 276
-0.999658, 359, 147, 374, 162
-0.999659, 19, 47, 34, 62
-0.99966, 193, 105, 208, 120
-0.999666, 369, 125, 384, 140
-0.999667, 433, 33, 464, 288
-0.999669, 215, 205, 230, 220
-0.999673, 383, 135, 398, 150
-0.999675, 193, 127, 208, 142
-0.999679, 73, 1, 104, 256
-0.999684, 209, 79, 224, 94
-0.999684, 289, 33, 320, 288
-0.999685, 229, 117, 244, 132
-0.999686, 201, 133, 216, 148
-0.999689, 207, 183, 222, 198
-0.9997, 379, 149, 394, 164
-0.999705, 445, 33, 476, 288
-0.999715, 469, 33, 500, 288
-0.999725, 369, 141, 384, 156
-0.999733, 369, 135, 384, 150
-0.999747, 379, 141, 394, 156
-0.999749, 1, 289, 256, 352
-0.999763, 457, 33, 488, 288
-0.999777, 25, 129, 56, 375
-0.99983, 397, 1, 428, 256
-0.999887, 409, 1, 440, 256
-0.999887, 169, 1, 200, 256
-0.999943, 1, 273, 500, 336
-0.999949, 453, 193, 484, 320
-0.999981, 441, 225, 472, 352
-1.00001, 277, 33, 308, 288
-1.00002, 13, 129, 44, 375
-1.00004, 329, 1, 360, 256
-1.00006, 93, 1, 124, 256
-1.00009, 1, 305, 500, 368
-1.00009, 1, 49, 500, 112
-1.00013, 305, 1, 336, 256
-1.0003, 161, 1, 224, 128
-1.00038, 389, 49, 420, 176
-1.00039, 325, 225, 356, 352
-1.0004, 181, 17, 212, 144
-1.00042, 1, 313, 256, 375
-1.00044, 349, 241, 380, 368
-1.00044, 257, 89, 500, 152
-1.00056, 213, 241, 244, 368
-1.00066, 353, 1, 480, 128
-1.00067, 249, 225, 312, 352
-1.00068, 289, 33, 416, 96
-1.00084, 377, 177, 408, 304
-1.00089, 49, 41, 176, 104
-1.00092, 253, 193, 284, 320
-1.00095, 1, 25, 500, 88
-1.00095, 233, 241, 264, 368
-1.00109, 433, 241, 496, 368
-1.00117, 1, 225, 32, 352
-1.00127, 369, 241, 400, 368
-1.00142, 177, 33, 304, 96
-1.00148, 209, 1, 336, 128
-1.0015, 353, 25, 480, 88
-1.00164, 129, 41, 384, 104
-1.00171, 257, 65, 500, 128
-1.00182, 129, 33, 256, 96
-1.00211, 257, 33, 500, 96
-1.00212, 257, 9, 500, 72
-1.00212, 65, 17, 320, 80
-1.00212, 161, 17, 416, 80
-1.00264, 305, 9, 432, 72
-1.00285, 241, 25, 368, 88
-1.00291, 241, 1, 368, 64
-1.00291, 145, 9, 272, 72
-1.00291, 193, 9, 320, 72
-1.00291, 81, 17, 208, 80
-1.00296, 353, 1, 480, 64
-1.00322, 193, 1, 448, 128
-1.00393, 281, 49, 344, 176
-1.00427, 1, 1, 500, 64
-1.00467, 73, 33, 136, 160
-1.00522, 401, 49, 464, 176
-1.00633, 49, 1, 112, 128
-1.007, 377, 1, 440, 128
-1.0075, 65, 17, 192, 144
-1.00756, 161, 1, 288, 128
-1.00879, 97, 33, 160, 160
-1.0101, 241, 33, 304, 160
-1.01284, 281, 1, 344, 128
-1.01321, 97, 1, 352, 128
-1.01345, 305, 1, 368, 128
-1.01402, 433, 49, 496, 176
-1.01439, 425, 1, 488, 128
-1.01481, 121, 1, 184, 128
-1.01617, 401, 1, 464, 128
