2006
-0.494963, 1, 1, 500, 403
-0.496342, 1, 1, 500, 256
-0.528557, 65, 1, 320, 403
-0.563293, 97, 1, 352, 256
-0.585191, 1, 97, 500, 352
-0.630782, 193, 1, 448, 403
-0.668531, 1, 1, 256, 256
-0.680012, 193, 1, 448, 256
-0.725873, 65, 97, 320, 352
-0.838493, 161, 97, 416, 352
-0.843733, 81, 1, 208, 256
-0.858369, 65, 1, 192, 403
-0.862484, 161, 1, 288, 256
-0.864433, 257, 97, 500, 352
-0.879966, 33, 1, 160, 256
-0.8809, 113, 1, 240, 403
-0.883398, 1, 1, 500, 128
-0.888289, 209, 1, 336, 256
-0.888478, 17, 1, 144, 403
-0.894573, 1, 1, 256, 128
-0.89595, 193, 1, 320, 403
-0.89787, 81, 97, 208, 352
-0.912423, 257, 1, 384, 256
-0.912802, 193, 97, 320, 352
-0.917032, 145, 97, 272, 352
-0.920024, 1, 49, 500, 176
-0.921708, 33, 1, 160, 128
-0.923783, 65, 65, 320, 192
-0.928088, 81, 1, 208, 128
-0.9284, 17, 97, 144, 352
-0.928433, 129, 1, 256, 128
-0.929315, 89, 1, 152, 128
-0.929971, 305, 1, 432, 403
-0.932594, 353, 1, 480, 403
-0.934654, 121, 1, 184, 128
-0.934721, 129, 1, 384, 128
-0.93556, 241, 1, 368, 403
-0.937602, 241, 97, 368, 352
-0.937993, 1, 97, 500, 224
-0.938065, 369, 1, 496, 256
-0.938426, 321, 1, 448, 256
-0.939786, 65, 1, 128, 128
-0.942011, 225, 1, 480, 128
-0.942247, 97, 161, 352, 288
-0.942935, 65, 49, 192, 176
-0.945676, 33, 1, 96, 128
-0.945735, 1, 145, 256, 272
-0.94618, 89, 49, 152, 176
-0.946935, 1, 177, 500, 304
-0.947482, 185, 1, 248, 128
-0.947863, 145, 65, 272, 192
-0.94999, 145, 1, 208, 128
-0.951349, 161, 49, 416, 176
-0.951739, 129, 65, 192, 192
-0.956583, 289, 97, 416, 352
-0.95712, 161, 97, 416, 224
-0.957466, 65, 49, 128, 176
-0.957471, 97, 145, 224, 272
-0.959008, 89, 129, 152, 256
-0.959721, 209, 33, 336, 160
-0.959862, 145, 161, 272, 288
-0.960289, 257, 49, 500, 176
-0.96092, 145, 153, 208, 216
-0.961185, 145, 145, 208, 272
-0.961541, 217, 65, 280, 192
-0.961661, 17, 49, 144, 176
-0.962461, 65, 97, 192, 224
-0.962931, 73, 57, 136, 120
-0.963102, 89, 1, 152, 64
-0.963494, 1, 225, 500, 352
-0.964234, 129, 1, 192, 256
-0.964744, 153, 65, 216, 192
-0.964838, 201, 41, 264, 104
-0.965149, 65, 209, 320, 336
-0.96534, 177, 49, 240, 112
-0.965855, 97, 25, 160, 88
-0.966121, 209, 17, 272, 144
-0.966445, 113, 65, 176, 128
-0.966575, 193, 81, 320, 208
-0.9667, 193, 17, 256, 80
-0.967175, 177, 161, 240, 288
-0.967671, 121, 145, 184, 208
-0.967783, 369, 1, 496, 128
-0.967912, 137, 1, 200, 64
-0.96844, 233, 49, 296, 112
-0.968581, 209, 161, 336, 288
-0.968772, 113, 1, 176, 64
-0.968853, 121, 1, 152, 128
-0.968946, 185, 81, 248, 208
-0.969204, 193, 145, 448, 272
-0.969474, 257, 97, 500, 224
-0.969594, 65, 113, 128, 240
-0.970443, 41, 49, 104, 176
-0.970531, 89, 33, 152, 288
-0.970603, 109, 1, 140, 128
-0.970778, 153, 41, 216, 104
-0.9709, 113, 129, 176, 256
-0.97102, 81, 129, 144, 192
-0.971058, 17, 113, 144, 240
-0.971143, 249, 97, 312, 224
-0.971157, 249, 177, 312, 304
-0.971214, 161, 1, 224, 256
-0.971215, 137, 73, 200, 136
-0.971248, 257, 225, 320, 352
-0.971461, 65, 193, 192, 320
-0.972379, 337, 97, 464, 352
-0.972589, 225, 177, 288, 304
-0.972664, 345, 49, 408, 176
-0.972667, 57, 33, 120, 96
-0.972836, 321, 49, 448, 176
-0.973295, 233, 25, 296, 88
-0.973459, 89, 177, 152, 304
-0.973586, 97, 1, 128, 128
-0.973816, 161, 41, 288, 104
-0.974108, 81, 9, 208, 72
-0.974171, 133, 1, 164, 128
-0.974209, 57, 9, 120, 72
-0.974353, 377, 49, 440, 176
-0.974458, 169, 169, 232, 232
-0.974521, 1, 273, 500, 400
-0.97459, 129, 41, 192, 104
-0.975173, 17, 161, 144, 288
-0.975291, 33, 9, 160, 72
-0.975291, 77, 1, 108, 128
-0.975344, 25, 17, 88, 80
-0.975525, 65, 49, 192, 112
-0.975606, 353, 1, 416, 128
-0.97575, 145, 177, 208, 240
-0.975927, 241, 49, 304, 176
-0.976006, 105, 49, 136, 176
-0.976139, 257, 33, 384, 160
-0.97628, 225, 1, 288, 256
-0.976389, 409, 17, 472, 144
-0.976734, 113, 33, 240, 96
-0.976933, 161, 9, 224, 72
-0.977039, 61, 1, 92, 128
-0.977084, 185, 1, 248, 256
-0.977246, 161, 73, 224, 136
-0.977377, 153, 1, 184, 128
-0.977417, 321, 1, 448, 128
-0.977528, 209, 1, 240, 128
-0.977531, 201, 65, 264, 128
-0.977667, 225, 185, 288, 248
-0.977861, 33, 57, 96, 120
-0.977873, 377, 1, 440, 128
-0.977962, 65, 1, 128, 256
-0.977969, 225, 129, 288, 256
-0.978057, 17, 49, 80, 176
-0.9782, 433, 1, 496, 128
-0.978206, 49, 1, 80, 128
-0.978259, 125, 49, 156, 176
-0.978291, 161, 209, 416, 336
-0.978313, 89, 153, 152, 216
-0.978736, 177, 209, 304, 336
-0.978743, 265, 273, 328, 400
-0.978802, 201, 89, 264, 152
-0.978905, 117, 1, 148, 64
-0.978959, 241, 97, 368, 224
-0.978979, 113, 169, 240, 232
-0.978997, 9, 1, 72, 128
-0.979098, 129, 73, 256, 136
-0.979181, 145, 113, 272, 240
-0.979334, 77, 49, 108, 176
-0.979411, 65, 145, 192, 208
-0.979658, 97, 257, 352, 384
-0.979781, 201, 177, 264, 240
-0.979969, 89, 105, 152, 168
-0.980185, 201, 161, 264, 288
-0.980186, 73, 65, 104, 128
-0.980221, 173, 153, 204, 216
-0.980403, 165, 1, 196, 128
-0.980628, 225, 25, 352, 88
-0.980697, 225, 257, 352, 384
-0.980757, 209, 57, 336, 120
-0.98115, 77, 113, 108, 240
-0.981284, 41, 97, 104, 160
-0.981302, 425, 33, 488, 96
-0.981374, 257, 65, 320, 128
-0.98149, 41, 1, 104, 256
-0.981502, 221, 17, 252, 80
-0.981512, 49, 161, 112, 288
-0.981674, 17, 57, 144, 120
-0.981711, 257, 193, 500, 320
-0.981735, 257, 89, 320, 152
-0.981771, 121, 121, 184, 184
-0.981779, 89, 1, 152, 403
-0.982076, 369, 49, 496, 176
-0.98209, 177, 17, 304, 80
-0.982109, 81, 225, 144, 352
-0.982155, 153, 65, 184, 192
-0.982189, 129, 9, 256, 72
-0.982209, 81, 225, 144, 288
-0.982212, 97, 137, 128, 200
-0.982276, 17, 33, 144, 96
-0.982361, 273, 145, 336, 272
-0.982502, 105, 1, 136, 64
-0.982526, 113, 57, 144, 120
-0.982592, 289, 113, 416, 240
-0.982686, 93, 49, 124, 176
-0.982689, 193, 257, 448, 384
-0.982717, 81, 81, 144, 144
-0.98275, 125, 65, 156, 128
-0.982787, 9, 49, 72, 112
-0.983005, 273, 81, 336, 208
-0.983013, 177, 161, 304, 224
-0.983021, 161, 153, 192, 216
-0.983034, 113, 169, 176, 232
-0.983036, 65, 73, 192, 136
-0.983312, 401, 41, 464, 104
-0.983334, 141, 65, 172, 192
-0.983339, 233, 1, 296, 128
-0.983411, 321, 49, 384, 176
-0.983458, 41, 97, 104, 224
-0.983501, 385, 73, 448, 136
-0.983544, 225, 73, 288, 136
-0.983634, 273, 33, 336, 96
-0.983748, 313, 33, 376, 96
-0.983887, 249, 169, 312, 232
-0.983919, 297, 97, 360, 224
-0.983924, 65, 49, 96, 176
-0.983984, 165, 65, 196, 192
-0.983986, 225, 97, 288, 160
-0.984072, 249, 65, 312, 320
-0.984079, 337, 49, 400, 112
-0.984119, 137, 65, 168, 128
-0.984144, 145, 145, 176, 208
-0.984158, 37, 1, 68, 128
-0.984199, 257, 161, 320, 403
-0.984256, 85, 129, 116, 192
-0.98427, 89, 129, 120, 256
-0.984454, 201, 209, 264, 272
-0.984548, 65, 121, 192, 184
-0.98455, 197, 17, 228, 80
-0.984583, 57, 145, 120, 208
-0.984634, 113, 1, 176, 403
-0.984644, 265, 273, 328, 336
-0.984706, 61, 57, 92, 120
-0.984773, 57, 225, 120, 352
-0.984809, 145, 97, 208, 352
-0.984832, 85, 225, 116, 288
-0.984835, 225, 17, 256, 144
-0.984879, 197, 1, 228, 128
-0.984908, 137, 1, 200, 403
-0.984947, 89, 185, 152, 248
-0.984999, 169, 145, 232, 208
-0.985105, 225, 209, 352, 336
-0.985118, 1, 25, 64, 88
-0.985231, 129, 209, 256, 336
-0.985266, 249, 193, 312, 256
-0.985337, 377, 33, 440, 96
-0.985402, 65, 89, 96, 152
-0.985409, 273, 41, 400, 104
-0.985426, 109, 145, 140, 208
-0.985476, 225, 57, 256, 120
-0.985519, 145, 193, 272, 256
-0.985522, 17, 1, 80, 256
-0.985614, 169, 145, 200, 272
-0.985658, 209, 49, 240, 112
-0.985668, 113, 25, 144, 88
-0.985676, 121, 97, 152, 224
-0.985679, 209, 185, 336, 248
-0.985684, 101, 113, 132, 240
-0.985693, 225, 65, 256, 192
-0.985703, 65, 1, 128, 403
-0.985725, 265, 33, 328, 160
-0.985834, 369, 1, 496, 64
-0.985858, 89, 209, 120, 336
-0.985874, 121, 177, 184, 304
-0.985897, 337, 25, 400, 88
-0.985901, 165, 73, 196, 136
-0.985937, 265, 297, 328, 360
-0.986079, 193, 97, 320, 160
-0.986137, 133, 137, 164, 200
-0.986149, 185, 41, 216, 104
-0.986151, 97, 129, 160, 384
-0.986154, 361, 73, 424, 136
-0.986219, 65, 169, 192, 232
-0.986393, 161, 137, 288, 200
-0.986521, 49, 121, 112, 184
-0.986636, 113, 145, 240, 208
-0.986707, 169, 193, 232, 256
-0.986707, 241, 225, 304, 288
-0.986711, 101, 57, 132, 120
-0.986869, 49, 65, 80, 128
-0.986883, 249, 129, 312, 192
-0.986975, 233, 225, 296, 352
-0.986979, 85, 65, 116, 128
-0.987031, 237, 65, 268, 192
-0.987066, 49, 241, 176, 368
-0.987096, 353, 1, 416, 64
-0.987146, 153, 193, 216, 320
-0.98718, 85, 153, 116, 216
-0.987191, 177, 1, 208, 128
-0.987291, 45, 17, 76, 80
-0.987352, 369, 33, 496, 96
-0.98738, 57, 97, 120, 352
-0.987453, 197, 49, 228, 112
-0.987492, 73, 249, 136, 312
-0.98752, 193, 169, 224, 232
-0.987623, 237, 57, 268, 120
-0.98765, 289, 33, 352, 160
-0.987653, 153, 73, 184, 136
-0.987656, 209, 17, 240, 80
-0.987671, 17, 153, 144, 216
-0.987741, 145, 129, 208, 192
-0.987772, 129, 1, 160, 64
-0.98785, 149, 161, 180, 288
-0.987863, 417, 81, 480, 144
-0.987886, 233, 17, 264, 80
-0.987932, 121, 129, 152, 192
-0.98795, 177, 65, 208, 192
-0.988006, 217, 1, 280, 403
-0.988066, 173, 41, 204, 104
-0.988143, 125, 33, 156, 96
-0.988183, 169, 97, 232, 352
-0.988198, 181, 161, 212, 288
-0.98823, 253, 145, 284, 272
-0.988271, 281, 97, 344, 160
-0.988398, 201, 97, 264, 352
-0.988477, 93, 201, 124, 264
-0.988561, 369, 1, 432, 256
-0.988583, 321, 1, 384, 256
-0.988602, 257, 161, 384, 288
-0.988661, 321, 65, 448, 128
-0.98869, 225, 273, 288, 400
-0.988704, 73, 113, 104, 176
-0.988709, 21, 17, 52, 80
-0.988728, 409, 9, 472, 72
-0.988748, 145, 1, 176, 64
-0.988757, 281, 73, 344, 136
-0.988771, 433, 9, 496, 72
-0.988786, 193, 153, 256, 216
-0.988938, 65, 97, 96, 224
-0.988982, 57, 25, 88, 88
-0.989017, 321, 17, 448, 80
-0.989061, 81, 137, 144, 168
-0.989128, 241, 185, 272, 248
-0.989185, 209, 81, 240, 208
-0.989218, 225, 129, 288, 384
-0.98926, 113, 89, 176, 152
-0.98936, 369, 65, 496, 128
-0.989395, 161, 49, 192, 112
-0.989399, 257, 337, 320, 400
-0.989454, 145, 161, 208, 192
-0.989459, 121, 97, 184, 352
-0.98948, 137, 41, 168, 104
-0.989505, 1, 9, 256, 72
-0.989513, 93, 33, 124, 96
-0.989524, 65, 201, 192, 264
-0.989525, 245, 25, 276, 88
-0.989553, 289, 161, 320, 288
-0.989554, 141, 169, 172, 232
-0.989609, 201, 209, 264, 336
-0.989617, 237, 17, 268, 144
-0.989756, 273, 97, 304, 224
-0.989774, 265, 65, 296, 128
-0.989806, 161, 1, 224, 403
-0.989842, 233, 321, 296, 384
-0.989863, 105, 145, 168, 176
-0.989927, 97, 161, 128, 224
-0.990055, 281, 97, 344, 352
-0.990056, 41, 1, 104, 403
-0.990057, 257, 1, 320, 403
-0.990079, 65, 33, 320, 96
-0.990137, 89, 9, 152, 40
-0.990219, 201, 45, 264, 76
-0.990227, 113, 65, 176, 96
-0.990242, 197, 81, 228, 144
-0.990251, 273, 225, 400, 352
-0.990281, 137, 129, 168, 256
-0.990295, 241, 89, 368, 152
-0.990316, 237, 177, 268, 304
-0.990317, 257, 249, 320, 312
-0.99033, 85, 105, 116, 168
-0.99038, 121, 145, 152, 272
-0.990382, 273, 273, 400, 400
-0.990395, 273, 201, 336, 264
-0.990401, 93, 9, 124, 72
-0.990405, 121, 157, 184, 188
-0.990407, 225, 289, 352, 352
-0.990421, 177, 41, 240, 72
-0.990441, 125, 169, 156, 232
-0.99047, 321, 1, 384, 128
-0.990538, 33, 17, 64, 80
-0.990587, 57, 69, 120, 100
-0.9906, 193, 1, 256, 403
-0.990649, 213, 89, 244, 152
-0.990664, 377, 1, 440, 64
-0.990669, 89, 61, 152, 92
-0.990673, 9, 17, 40, 80
-0.990673, 181, 177, 212, 240
-0.990682, 1, 1, 64, 64
-0.990686, 257, 25, 288, 88
-0.990713, 57, 201, 120, 264
-0.990741, 433, 57, 496, 120
-0.990745, 57, 225, 120, 288
-0.990766, 281, 193, 344, 320
-0.990803, 129, 13, 192, 44
-0.990829, 65, 225, 192, 288
-0.990867, 185, 177, 248, 208
-0.990875, 281, 1, 344, 256
-0.990887, 1, 241, 128, 368
-0.99089, 373, 33, 404, 160
-0.990895, 225, 1, 352, 64
-0.990909, 137, 73, 200, 104
-0.99092, 249, 49, 280, 176
-0.990948, 225, 49, 288, 80
-0.990963, 65, 13, 128, 44
-0.990999, 169, 9, 200, 72
-0.991028, 393, 73, 424, 136
-0.991048, 145, 181, 208, 212
-0.991073, 253, 185, 284, 248
-0.99108, 81, 149, 144, 180
-0.991128, 49, 97, 176, 160
-0.991202, 289, 145, 352, 208
-0.991215, 241, 321, 368, 384
-0.991224, 305, 105, 368, 168
-0.991233, 417, 65, 480, 192
-0.991256, 161, 81, 224, 112
-0.991259, 225, 161, 352, 224
-0.991263, 201, 57, 264, 88
-0.991271, 113, 1, 176, 32
-0.991279, 273, 17, 400, 80
-0.99132, 197, 81, 228, 208
-0.991362, 261, 97, 292, 224
-0.991363, 225, 177, 256, 240
-0.991363, 177, 257, 304, 384
-0.991382, 81, 41, 112, 104
-0.991392, 65, 53, 128, 84
-0.991456, 181, 9, 212, 72
-0.991459, 297, 313, 360, 376
-0.991465, 49, 49, 80, 176
-0.991472, 73, 125, 136, 156
-0.991476, 169, 165, 232, 196
-0.991478, 265, 145, 296, 272
-0.991493, 209, 33, 272, 64
-0.9915, 193, 161, 224, 288
-0.991502, 193, 21, 256, 52
-0.991525, 149, 49, 180, 112
-0.991527, 181, 113, 212, 240
-0.991659, 105, 173, 168, 204
-0.991703, 225, 61, 288, 92
-0.991717, 185, 89, 248, 120
-0.991748, 89, 49, 152, 80
-0.991784, 393, 81, 456, 112
-0.991799, 225, 85, 288, 116
-0.991827, 49, 249, 112, 312
-0.991828, 101, 177, 132, 304
-0.991832, 265, 97, 296, 160
-0.991833, 89, 161, 152, 192
-0.991843, 161, 61, 224, 92
-0.991843, 253, 193, 284, 320
-0.99187, 109, 121, 140, 184
-0.991893, 137, 1, 200, 32
-0.991896, 25, 57, 88, 88
-0.991918, 33, 65, 288, 128
-0.991918, 209, 193, 272, 224
-0.991925, 293, 161, 324, 224
-0.991927, 453, 1, 484, 128
-0.991933, 17, 129, 144, 192
-0.991937, 449, 33, 480, 96
-0.991973, 249, 53, 312, 84
-0.99198, 453, 1, 484, 64
-0.991993, 161, 33, 416, 96
-0.992005, 89, 21, 152, 52
-0.992017, 201, 77, 264, 108
-0.992021, 1, 25, 64, 56
-0.992042, 113, 133, 176, 164
-0.992045, 193, 209, 320, 272
-0.992053, 81, 105, 144, 136
-0.992057, 113, 53, 176, 84
-0.992058, 73, 89, 136, 120
-0.99206, 77, 225, 108, 352
-0.992061, 153, 177, 184, 240
-0.992112, 277, 161, 308, 288
-0.992118, 209, 97, 272, 128
-0.992123, 97, 113, 128, 176
-0.992129, 277, 57, 308, 120
-0.992149, 433, 1, 464, 128
-0.992184, 97, 33, 160, 64
-0.992211, 241, 225, 304, 256
-0.992213, 265, 193, 296, 320
-0.992218, 249, 189, 312, 220
-0.992221, 49, 145, 112, 176
-0.992225, 33, 45, 96, 76
-0.992236, 233, 213, 296, 244
-0.99225, 337, 57, 400, 88
-0.992265, 417, 25, 480, 56
-0.992266, 257, 105, 320, 136
-0.992266, 73, 253, 136, 284
-0.992273, 233, 37, 296, 68
-0.992288, 153, 37, 216, 68
-0.992291, 177, 73, 208, 136
-0.992299, 41, 13, 104, 44
-0.992309, 137, 57, 200, 88
-0.992339, 217, 1, 280, 64
-0.992344, 257, 65, 384, 128
-0.992352, 41, 93, 104, 124
-0.992372, 129, 145, 192, 176
-0.992372, 81, 249, 112, 312
-0.992374, 249, 65, 312, 96
-0.992403, 369, 73, 432, 104
-0.992432, 345, 1, 408, 256
-0.992438, 1, 177, 128, 240
-0.99244, 305, 89, 432, 152
-0.992442, 201, 209, 264, 240
-0.992454, 241, 113, 368, 176
-0.992456, 145, 217, 272, 280
-0.992463, 261, 273, 292, 400
-0.992485, 369, 41, 432, 72
-0.992488, 105, 209, 168, 272
-0.992505, 49, 109, 112, 140
-0.992508, 249, 93, 312, 124
-0.992513, 281, 109, 344, 140
-0.992527, 265, 213, 328, 244
-0.992528, 81, 73, 144, 104
-0.992528, 161, 193, 224, 224
-0.992539, 249, 201, 312, 232
-0.992577, 329, 37, 392, 68
-0.992578, 225, 89, 256, 152
-0.992605, 25, 81, 88, 112
-0.992614, 265, 337, 296, 400
-0.992615, 169, 21, 232, 52
-0.992619, 249, 97, 280, 160
-0.992623, 97, 149, 128, 180
-0.992625, 89, 137, 120, 168
-0.992634, 129, 217, 192, 280
-0.992637, 153, 149, 216, 180
-0.992638, 1, 49, 64, 80
-0.992651, 65, 41, 128, 72
-0.992652, 65, 1, 128, 32
-0.992652, 233, 25, 296, 56
-0.992656, 117, 145, 148, 176
-0.992659, 37, 57, 68, 120
-0.992659, 425, 37, 488, 68
-0.99266, 89, 213, 152, 244
-0.992661, 401, 37, 464, 68
-0.992664, 157, 161, 188, 192
-0.992671, 109, 9, 140, 40
-0.992676, 89, 197, 152, 228
-0.992698, 225, 297, 288, 360
-0.992705, 169, 165, 200, 196
-0.99271, 297, 49, 360, 80
-0.992712, 281, 93, 344, 124
-0.992715, 49, 129, 112, 160
-0.992719, 77, 161, 108, 288
-0.992722, 361, 33, 392, 160
-0.99273, 125, 13, 156, 44
-0.992738, 265, 289, 328, 320
-0.99275, 305, 113, 368, 144
-0.992751, 25, 33, 88, 64
-0.992754, 265, 301, 328, 332
-0.992757, 249, 177, 312, 208
-0.992758, 373, 49, 404, 112
-0.992758, 401, 17, 432, 144
-0.992775, 225, 257, 352, 320
-0.992778, 209, 45, 240, 76
-0.99278, 185, 145, 216, 208
-0.992788, 61, 65, 92, 96
-0.992799, 433, 1, 496, 32
-0.9928, 121, 65, 152, 96
-0.992804, 73, 241, 136, 272
-0.992814, 265, 313, 328, 344
-0.992814, 105, 133, 136, 164
-0.99282, 25, 41, 56, 104
-0.992821, 353, 1, 416, 32
-0.992821, 417, 85, 480, 116
-0.992828, 273, 61, 336, 92
-0.992833, 181, 173, 212, 204
-0.992847, 221, 45, 252, 76
-0.992854, 257, 237, 320, 268
-0.992855, 1, 37, 64, 68
-0.992857, 161, 129, 192, 192
-0.992858, 361, 61, 424, 92
-0.992859, 257, 33, 320, 64
-0.99286, 105, 61, 136, 92
-0.992863, 205, 169, 236, 232
-0.992869, 197, 41, 228, 72
-0.992871, 57, 25, 120, 56
-0.992874, 257, 141, 320, 172
-0.992885, 33, 69, 96, 100
-0.992891, 65, 265, 128, 296
-0.992893, 57, 217, 120, 248
-0.992894, 177, 205, 240, 236
-0.992903, 81, 225, 144, 256
-0.992909, 145, 153, 176, 184
-0.992911, 381, 1, 412, 64
-0.992917, 273, 373, 336, 403
-0.992926, 145, 165, 176, 196
-0.992927, 113, 77, 176, 108
-0.992929, 1, 161, 256, 224
-0.992943, 105, 121, 168, 152
-0.99295, 137, 69, 168, 100
-0.992953, 157, 77, 188, 108
-0.992961, 129, 157, 160, 188
-0.992974, 377, 93, 440, 124
-0.992992, 181, 161, 212, 192
-0.992998, 377, 29, 440, 60
-0.993001, 209, 181, 272, 212
-0.993004, 257, 157, 320, 188
-0.993005, 233, 105, 296, 136
-0.993006, 233, 45, 264, 76
-0.99301, 261, 49, 292, 176
-0.993014, 17, 13, 80, 44
-0.993016, 425, 49, 488, 80
-0.993017, 105, 161, 136, 192
-0.993017, 121, 25, 184, 56
-0.993024, 137, 13, 168, 44
-0.99303, 161, 9, 224, 40
-0.993031, 89, 185, 152, 216
-0.993037, 81, 249, 112, 280
-0.993045, 145, 1, 176, 32
-0.993054, 265, 129, 328, 160
-0.993075, 97, 9, 128, 40
-0.993077, 129, 141, 160, 172
-0.993081, 233, 333, 296, 364
-0.993081, 425, 97, 488, 128
-0.993083, 305, 101, 368, 132
-0.993086, 193, 57, 448, 120
-0.993093, 49, 253, 112, 284
-0.993099, 85, 125, 116, 156
-0.993102, 221, 57, 252, 88
-0.993108, 169, 177, 200, 208
-0.993116, 73, 65, 104, 96
-0.99313, 273, 325, 336, 356
-0.993134, 433, 13, 496, 44
-0.993134, 273, 169, 336, 232
-0.993141, 77, 145, 108, 176
-0.993143, 61, 93, 92, 124
-0.993146, 193, 169, 224, 200
-0.993164, 129, 221, 192, 252
-0.993166, 193, 329, 320, 392
-0.99317, 369, 89, 496, 152
-0.993175, 85, 157, 116, 188
-0.993176, 149, 113, 180, 240
-0.993177, 245, 49, 276, 80
-0.993183, 161, 149, 192, 180
-0.993192, 17, 1, 80, 403
-0.993192, 117, 133, 148, 164
-0.993198, 133, 1, 164, 32
-0.993217, 69, 105, 100, 136
-0.993224, 209, 93, 240, 124
-0.99323, 69, 9, 100, 72
-0.993235, 169, 81, 200, 112
-0.993241, 53, 53, 84, 84
-0.993246, 125, 105, 156, 168
-0.993249, 85, 237, 116, 268
-0.993249, 241, 61, 272, 92
-0.99325, 93, 57, 124, 88
-0.993253, 57, 81, 88, 112
-0.993256, 121, 1, 152, 32
-0.993263, 81, 53, 112, 84
-0.993268, 157, 173, 188, 204
-0.993269, 289, 273, 352, 400
-0.99327, 9, 25, 40, 56
-0.993282, 141, 181, 172, 212
-0.993284, 193, 85, 224, 116
-0.993294, 89, 225, 120, 256
-0.993301, 33, 57, 64, 88
-0.993302, 69, 13, 100, 44
-0.993303, 257, 53, 288, 84
-0.993318, 93, 213, 124, 244
-0.993318, 73, 117, 104, 148
-0.993327, 149, 65, 180, 96
-0.993337, 185, 37, 216, 68
-0.993337, 269, 57, 300, 88
-0.99334, 85, 69, 116, 100
-0.99334, 137, 57, 168, 88
-0.993343, 285, 97, 316, 224
-0.993346, 157, 9, 188, 72
-0.993351, 73, 89, 104, 120
-0.993351, 189, 185, 220, 216
-0.993353, 153, 13, 184, 44
-0.993354, 177, 69, 208, 100
-0.993357, 393, 77, 424, 108
-0.993357, 125, 53, 156, 84
-0.993362, 25, 41, 56, 72
-0.993366, 97, 197, 128, 228
-0.993369, 281, 61, 312, 92
-0.993369, 289, 289, 352, 352
-0.993376, 229, 85, 260, 116
-0.993382, 13, 37, 44, 68
-0.993382, 217, 161, 248, 288
-0.993384, 57, 17, 88, 48
-0.993385, 157, 1, 188, 32
-0.99339, 253, 161, 284, 224
-0.993391, 429, 81, 460, 112
-0.993395, 361, 57, 392, 88
-0.993398, 209, 33, 240, 64
-0.9934, 117, 157, 148, 188
-0.993401, 117, 121, 148, 152
-0.993405, 221, 97, 252, 128
-0.993406, 121, 169, 152, 200
-0.993411, 377, 65, 408, 96
-0.993411, 45, 73, 76, 104
-0.993415, 189, 73, 220, 104
-0.993416, 449, 49, 480, 80
-0.993416, 85, 109, 116, 140
-0.993417, 233, 189, 264, 220
-0.993424, 69, 49, 100, 80
-0.993424, 225, 161, 288, 224
-0.993425, 205, 77, 236, 108
-0.993427, 197, 29, 228, 60
-0.993429, 253, 217, 284, 248
-0.993429, 85, 9, 116, 40
-0.99343, 17, 201, 144, 264
-0.99343, 405, 73, 436, 104
-0.993434, 217, 81, 248, 112
-0.993435, 217, 21, 248, 52
-0.993442, 385, 1, 416, 128
-0.993442, 265, 353, 296, 384
-0.993447, 245, 101, 276, 132
-0.993448, 213, 197, 244, 228
-0.99345, 121, 25, 152, 56
-0.993452, 261, 313, 292, 376
-0.993453, 133, 169, 164, 200
-0.993455, 261, 321, 292, 352
-0.993457, 69, 77, 100, 108
-0.993457, 257, 289, 288, 320
-0.993458, 97, 185, 128, 216
-0.993464, 229, 33, 260, 64
-0.993468, 265, 105, 296, 136
-0.99347, 165, 65, 196, 96
-0.99347, 257, 65, 288, 96
-0.993474, 113, 225, 176, 352
-0.993478, 129, 129, 160, 160
-0.993479, 253, 181, 284, 212
-0.99348, 125, 81, 156, 112
-0.993483, 257, 93, 288, 124
-0.993493, 273, 193, 304, 224
-0.993494, 45, 17, 76, 48
-0.993494, 313, 113, 344, 144
-0.993495, 257, 277, 288, 308
-0.993497, 261, 337, 292, 368
-0.993499, 97, 173, 128, 204
-0.993501, 389, 65, 420, 96
-0.993504, 277, 225, 308, 256
-0.993505, 269, 373, 300, 403
-0.993507, 449, 29, 480, 60
-0.993507, 265, 229, 296, 260
-0.993515, 261, 197, 292, 228
-0.993516, 261, 309, 292, 340
-0.993518, 209, 173, 240, 204
-0.993584, 321, 41, 448, 104
-0.993601, 337, 97, 464, 224
-0.993617, 289, 209, 320, 336
-0.993646, 253, 57, 284, 120
-0.993682, 1, 41, 500, 104
-0.993737, 69, 33, 100, 96
-0.993757, 209, 137, 336, 200
-0.993777, 257, 273, 288, 336
-0.993779, 309, 105, 340, 168
-0.99379, 97, 161, 352, 224
-0.993854, 301, 129, 332, 256
-0.993928, 81, 9, 112, 72
-0.993953, 345, 33, 376, 160
-0.994008, 49, 13, 176, 44
-0.994016, 129, 45, 256, 76
-0.994034, 425, 33, 456, 96
-0.994074, 349, 25, 380, 88
-0.994077, 289, 9, 352, 72
-0.994086, 133, 193, 164, 320
-0.994151, 265, 225, 328, 288
-0.994167, 405, 1, 436, 64
-0.994174, 289, 113, 416, 176
-0.994209, 277, 225, 308, 352
-0.99429, 129, 9, 384, 72
-0.994345, 361, 17, 392, 80
-0.994423, 81, 201, 112, 264
-0.994445, 1, 161, 64, 288
-0.994466, 257, 1, 320, 64
-0.994473, 313, 81, 376, 144
-0.994489, 289, 297, 416, 360
-0.99449, 421, 65, 452, 128
-0.99451, 145, 97, 272, 160
-0.99451, 413, 17, 444, 144
-0.994512, 313, 9, 376, 72
-0.994531, 169, 177, 200, 240
-0.994538, 113, 169, 144, 232
-0.994544, 65, 69, 192, 100
-0.994551, 1, 105, 128, 168
-0.994569, 225, 233, 352, 296
-0.994571, 1, 241, 128, 304
-0.99459, 225, 273, 288, 336
-0.994609, 113, 121, 240, 184
-0.994612, 465, 1, 496, 64
-0.994703, 205, 161, 236, 288
-0.99473, 289, 225, 352, 288
-0.994732, 277, 25, 308, 88
-0.994742, 1, 17, 500, 80
-0.994753, 361, 49, 392, 112
-0.994765, 293, 257, 324, 384
-0.99478, 145, 61, 272, 92
-0.99481, 177, 49, 304, 80
-0.994843, 1, 81, 128, 144
-0.994844, 273, 121, 336, 184
-0.994884, 161, 297, 288, 360
-0.994909, 177, 257, 304, 320
-0.99491, 257, 1, 500, 64
-0.99494, 453, 57, 484, 120
-0.994962, 389, 49, 420, 176
-0.994967, 85, 177, 116, 240
-0.995009, 65, 157, 192, 188
-0.995038, 469, 1, 500, 128
-0.995072, 313, 289, 376, 352
-0.995073, 297, 1, 360, 403
-0.995101, 57, 1, 88, 64
-0.995105, 37, 49, 68, 176
-0.99511, 137, 193, 168, 256
-0.995155, 229, 209, 260, 272
-0.995165, 277, 177, 308, 240
-0.995165, 313, 57, 376, 120
-0.995169, 127, 57, 142, 120
-0.995184, 237, 89, 268, 152
-0.995189, 405, 73, 436, 136
-0.995258, 321, 1, 384, 403
-0.995268, 119, 1, 134, 64
-0.995306, 393, 1, 456, 256
-0.995338, 33, 265, 160, 328
-0.995359, 321, 97, 384, 224
-0.995371, 413, 41, 444, 104
-0.995384, 249, 257, 280, 384
-0.995391, 57, 177, 120, 240
-0.99541, 277, 153, 308, 216
-0.995442, 125, 1, 140, 64
-0.995447, 437, 9, 468, 72
-0.995497, 33, 161, 96, 403
-0.995512, 1, 25, 128, 56
-0.995525, 145, 173, 272, 204
-0.995526, 1, 257, 256, 384
-0.995531, 113, 13, 240, 44
-0.995537, 401, 65, 432, 192
-0.995557, 97, 97, 224, 160
-0.995569, 289, 321, 416, 384
-0.995576, 225, 129, 288, 192
-0.995623, 65, 89, 320, 152
-0.99563, 25, 1, 56, 128
-0.995644, 289, 89, 320, 152
-0.995665, 301, 137, 332, 200
-0.995666, 129, 185, 384, 248
-0.995707, 193, 61, 320, 92
-0.995721, 79, 65, 94, 128
-0.995729, 65, 141, 192, 172
-0.995732, 105, 33, 136, 288
-0.995732, 241, 129, 272, 256
-0.995737, 345, 1, 408, 403
-0.995739, 73, 145, 104, 208
-0.995742, 1, 73, 500, 136
-0.995758, 281, 337, 344, 400
-0.995762, 297, 265, 360, 328
-0.995783, 113, 77, 240, 108
-0.995828, 97, 193, 112, 256
-0.995846, 393, 97, 456, 160
-0.995861, 73, 57, 88, 120
-0.995866, 97, 137, 352, 200
-0.99587, 9, 41, 40, 104
-0.99589, 385, 33, 416, 96
-0.995913, 273, 161, 400, 224
-0.995916, 17, 49, 144, 80
-0.995917, 81, 249, 208, 312
-0.995975, 225, 41, 352, 72
-0.995976, 81, 53, 208, 84
-0.995988, 97, 33, 224, 64
-0.995989, 305, 81, 336, 208
-0.996003, 459, 1, 474, 64
-0.996008, 221, 17, 236, 80
-0.996012, 73, 273, 136, 400
-0.996015, 113, 161, 240, 192
-0.996015, 89, 113, 104, 176
-0.996017, 289, 185, 320, 248
-0.996019, 273, 137, 400, 200
-0.996021, 245, 217, 276, 280
-0.996033, 297, 145, 360, 272
-0.996036, 301, 193, 332, 320
-0.996037, 177, 153, 192, 216
-0.996052, 177, 29, 304, 60
-0.996067, 67, 57, 82, 120
-0.996071, 53, 89, 84, 152
-0.996088, 157, 1, 188, 256
-0.996095, 231, 17, 246, 80
-0.996108, 117, 33, 148, 288
-0.99611, 89, 225, 104, 288
-0.996112, 257, 33, 500, 96
-0.996131, 131, 1, 146, 64
-0.996134, 1, 137, 256, 200
-0.996229, 25, 161, 88, 288
-0.99623, 461, 25, 492, 88
-0.996234, 61, 49, 76, 112
-0.996244, 79, 105, 94, 168
-0.996257, 117, 57, 132, 120
-0.996266, 317, 289, 348, 352
-0.996271, 169, 1, 200, 256
-0.996273, 453, 1, 468, 64
-0.996317, 161, 89, 416, 152
-0.996329, 85, 65, 100, 128
-0.99633, 237, 57, 252, 120
-0.996337, 137, 65, 152, 128
-0.996339, 385, 97, 448, 224
-0.996345, 169, 153, 184, 216
-0.996346, 97, 173, 224, 204
-0.996347, 69, 241, 100, 304
-0.996355, 113, 1, 240, 32
-0.996386, 161, 85, 288, 116
-0.996397, 113, 1, 128, 64
-0.996407, 17, 61, 144, 92
-0.996423, 285, 49, 316, 176
-0.996458, 273, 53, 400, 84
-0.99646, 429, 49, 460, 176
-0.996478, 249, 1, 280, 128
-0.996479, 33, 185, 288, 248
-0.996481, 313, 273, 376, 400
-0.996494, 273, 265, 400, 328
-0.996539, 137, 1, 168, 256
-0.996574, 243, 17, 258, 80
-0.996575, 337, 81, 400, 144
-0.996601, 55, 17, 70, 80
-0.996609, 237, 17, 252, 80
-0.996627, 49, 33, 176, 64
-0.996633, 95, 129, 110, 192
-0.996653, 165, 73, 180, 136
-0.996669, 187, 153, 202, 216
-0.996687, 103, 129, 118, 192
-0.99669, 217, 49, 232, 112
-0.996692, 1, 13, 128, 44
-0.996699, 225, 29, 352, 60
-0.996699, 125, 25, 140, 88
-0.996707, 93, 33, 124, 288
-0.996723, 171, 73, 186, 136
-0.996745, 211, 17, 226, 80
-0.99675, 1, 37, 128, 68
-0.996759, 177, 73, 304, 104
-0.996764, 97, 185, 224, 216
-0.996783, 163, 153, 178, 216
-0.996785, 295, 161, 310, 224
-0.9968, 197, 161, 212, 224
-0.996818, 157, 65, 172, 128
-0.996863, 211, 49, 226, 112
-0.996886, 177, 73, 192, 136
-0.996915, 69, 81, 84, 144
-0.996924, 243, 57, 258, 120
-0.99694, 115, 145, 130, 208
-0.996962, 83, 241, 98, 304
-0.996983, 149, 145, 164, 208
-0.996984, 241, 209, 368, 272
-0.996998, 193, 165, 320, 196
-0.996999, 305, 225, 368, 352
-0.997009, 187, 41, 202, 104
-0.997013, 93, 153, 108, 216
-0.997034, 229, 1, 260, 256
-0.997056, 193, 193, 320, 224
-0.997064, 325, 49, 356, 176
-0.997077, 141, 169, 156, 232
-0.997082, 65, 1, 192, 32
-0.997085, 457, 33, 472, 96
-0.997096, 417, 65, 448, 192
-0.997098, 157, 145, 172, 208
-0.997103, 97, 209, 352, 272
-0.997107, 149, 1, 164, 64
-0.99711, 25, 169, 88, 232
-0.997117, 25, 17, 40, 80
-0.997117, 111, 57, 126, 120
-0.99714, 95, 217, 110, 280
-0.997149, 101, 169, 116, 232
-0.997152, 463, 33, 478, 96
-0.997165, 31, 17, 46, 80
-0.997169, 245, 185, 260, 248
-0.997175, 143, 65, 158, 128
-0.997184, 67, 33, 82, 96
-0.997187, 97, 321, 224, 384
-0.997202, 125, 145, 140, 208
-0.997207, 451, 33, 466, 96
-0.997214, 209, 101, 336, 132
-0.997219, 143, 137, 158, 200
-0.997221, 225, 249, 288, 312
-0.997226, 231, 57, 246, 120
-0.997229, 131, 33, 146, 96
-0.997231, 141, 1, 156, 64
-0.997231, 121, 121, 136, 184
-0.997236, 145, 321, 272, 384
-0.997247, 381, 25, 396, 88
-0.997247, 55, 49, 70, 112
-0.99725, 257, 185, 384, 248
-0.997258, 173, 49, 188, 112
-0.997259, 467, 1, 482, 64
-0.997285, 69, 1, 100, 256
-0.997299, 195, 9, 210, 72
-0.997299, 137, 41, 152, 104
-0.997304, 109, 137, 124, 200
-0.997308, 181, 1, 212, 256
-0.997308, 93, 65, 108, 128
-0.997326, 165, 1, 180, 64
-0.997341, 203, 169, 218, 232
-0.997348, 161, 153, 288, 184
-0.997357, 253, 25, 268, 88
-0.997359, 43, 17, 58, 80
-0.99737, 167, 49, 182, 112
-0.997375, 97, 197, 224, 228
-0.997379, 145, 201, 272, 232
-0.99738, 105, 49, 120, 112
-0.997382, 223, 49, 238, 112
-0.997383, 101, 225, 132, 352
-0.997397, 257, 81, 500, 144
-0.997425, 81, 33, 112, 288
-0.997441, 445, 33, 460, 96
-0.997441, 369, 13, 496, 44
-0.997443, 85, 89, 100, 152
-0.997456, 49, 17, 64, 80
-0.997457, 205, 25, 220, 88
-0.997457, 273, 65, 288, 128
-0.997466, 385, 1, 400, 64
-0.997476, 225, 89, 352, 120
-0.997487, 145, 185, 272, 216
-0.997489, 19, 25, 34, 88
-0.997496, 113, 89, 240, 120
-0.997503, 151, 65, 166, 128
-0.997506, 193, 49, 208, 112
-0.997513, 161, 97, 288, 128
-0.997515, 17, 157, 144, 188
-0.997518, 83, 129, 98, 192
-0.997525, 1, 177, 64, 240
-0.997532, 183, 73, 198, 136
-0.997533, 207, 81, 222, 144
-0.997538, 241, 1, 272, 256
-0.997544, 241, 69, 368, 100
-0.997547, 137, 137, 152, 200
-0.997559, 209, 205, 336, 236
-0.99756, 473, 1, 488, 64
-0.997561, 279, 57, 294, 120
-0.997562, 215, 89, 230, 152
-0.997572, 37, 17, 52, 80
-0.997585, 87, 41, 102, 104
-0.997592, 125, 9, 140, 40
-0.997592, 239, 185, 254, 248
-0.997605, 131, 89, 146, 152
-0.997615, 61, 25, 76, 88
-0.997629, 369, 73, 496, 104
-0.997632, 437, 33, 452, 96
-0.997633, 161, 17, 288, 48
-0.997641, 119, 25, 134, 88
-0.99765, 145, 213, 272, 244
-0.997654, 291, 185, 306, 248
-0.997656, 217, 1, 248, 256
-0.997658, 191, 177, 206, 240
-0.997658, 251, 185, 266, 248
-0.99766, 1, 97, 500, 160
-0.997662, 353, 97, 416, 224
-0.99767, 113, 33, 128, 96
-0.997671, 441, 1, 456, 64
-0.997672, 429, 33, 444, 96
-0.997676, 165, 97, 196, 352
-0.997676, 179, 49, 194, 112
-0.997677, 221, 89, 236, 152
-0.997685, 377, 49, 392, 112
-0.997692, 469, 25, 484, 88
-0.997697, 257, 97, 272, 160
-0.9977, 193, 1, 224, 256
-0.997704, 63, 81, 78, 144
-0.997718, 131, 129, 146, 192
-0.997727, 49, 305, 176, 368
-0.997729, 121, 145, 136, 176
-0.997732, 107, 9, 122, 72
-0.997735, 91, 133, 106, 164
-0.997739, 153, 169, 168, 232
-0.997745, 131, 13, 146, 44
-0.997754, 301, 153, 316, 216
-0.997761, 201, 49, 216, 112
-0.997762, 119, 9, 134, 40
-0.997776, 17, 137, 144, 168
-0.997798, 171, 9, 186, 72
-0.997805, 73, 25, 88, 88
-0.997808, 229, 129, 260, 256
-0.997808, 249, 57, 264, 120
-0.99781, 231, 89, 246, 152
-0.997812, 189, 9, 204, 72
-0.997831, 113, 145, 240, 176
-0.997839, 135, 161, 150, 224
-0.997847, 235, 45, 250, 76
-0.997853, 321, 29, 448, 60
-0.997853, 65, 129, 192, 160
-0.997853, 67, 9, 82, 72
-0.997857, 161, 41, 176, 104
-0.997877, 1, 153, 500, 216
-0.997883, 89, 129, 120, 384
-0.997884, 49, 169, 176, 200
-0.997894, 225, 45, 240, 76
-0.997896, 97, 249, 352, 312
-0.997908, 49, 1, 80, 256
-0.997914, 127, 65, 142, 96
-0.997916, 175, 161, 190, 192
-0.997919, 115, 149, 130, 180
-0.997931, 193, 177, 320, 208
-0.997931, 273, 17, 304, 144
-0.997945, 361, 113, 424, 176
-0.997955, 305, 97, 368, 352
-0.997963, 65, 113, 320, 176
-0.997966, 353, 113, 480, 176
-0.997995, 257, 129, 288, 384
-0.997996, 337, 1, 464, 32
-0.997998, 215, 41, 230, 72
-0.998002, 237, 225, 268, 352
-0.998007, 13, 1, 44, 128
-0.998031, 49, 109, 176, 140
-0.998031, 377, 1, 440, 403
-0.998039, 83, 121, 98, 152
-0.998045, 241, 113, 368, 144
-0.998059, 321, 69, 448, 100
-0.998059, 305, 97, 432, 128
-0.998074, 183, 165, 198, 196
-0.998076, 169, 161, 184, 192
-0.99808, 111, 133, 126, 164
-0.998083, 317, 97, 348, 224
-0.998086, 65, 209, 192, 240
-0.99809, 63, 61, 78, 92
-0.998095, 369, 49, 496, 80
-0.998105, 193, 161, 448, 224
-0.998109, 97, 209, 112, 240
-0.998119, 107, 145, 122, 176
-0.998143, 261, 1, 292, 256
-0.998149, 113, 9, 128, 40
-0.998151, 169, 77, 184, 108
-0.998152, 197, 169, 212, 200
-0.998168, 77, 109, 92, 140
-0.998171, 369, 25, 496, 56
-0.998184, 221, 209, 252, 336
-0.998187, 97, 297, 224, 360
-0.998187, 67, 89, 82, 120
-0.998189, 189, 177, 204, 208
-0.9982, 157, 153, 172, 184
-0.998203, 65, 233, 192, 264
-0.998206, 137, 13, 152, 44
-0.998221, 95, 221, 110, 252
-0.998223, 133, 65, 148, 96
-0.998225, 117, 61, 132, 92
-0.998229, 59, 77, 74, 108
-0.99823, 163, 1, 178, 32
-0.998232, 33, 225, 96, 288
-0.998253, 209, 41, 224, 72
-0.998257, 153, 97, 184, 352
-0.998266, 101, 129, 132, 384
-0.998283, 159, 73, 174, 104
-0.998289, 157, 9, 188, 24
-0.99829, 97, 183, 128, 198
-0.99829, 261, 323, 292, 338
-0.99829, 85, 241, 116, 256
-0.99829, 139, 69, 154, 100
-0.99829, 145, 1, 176, 16
-0.998291, 93, 161, 124, 176
-0.998292, 81, 259, 112, 274
-0.998292, 433, 85, 464, 100
-0.998293, 369, 63, 400, 78
-0.998293, 17, 73, 144, 104
-0.998293, 53, 89, 84, 104
-0.998294, 317, 115, 348, 130
-0.998295, 79, 65, 94, 96
-0.998295, 173, 157, 204, 172
-0.998295, 289, 209, 416, 272
-0.998295, 93, 209, 124, 224
-0.998295, 9, 29, 40, 44
-0.998296, 89, 223, 120, 238
-0.998296, 269, 61, 300, 76
-0.998296, 21, 43, 52, 58
-0.998297, 129, 175, 160, 190
-0.998298, 53, 71, 84, 86
-0.998298, 261, 331, 292, 346
-0.998298, 33, 59, 64, 74
-0.998298, 381, 65, 412, 80
-0.998299, 85, 123, 116, 138
-0.998299, 261, 67, 292, 82
-0.998299, 151, 149, 166, 180
-0.998299, 397, 77, 428, 92
-0.9983, 245, 103, 276, 118
-0.9983, 57, 77, 88, 92
-0.998301, 93, 215, 124, 230
-0.998301, 229, 93, 260, 108
-0.998301, 141, 67, 172, 82
-0.998302, 9, 45, 40, 60
-0.998302, 153, 15, 184, 30
-0.998304, 105, 21, 136, 36
-0.998304, 233, 101, 264, 116
-0.998305, 57, 59, 88, 74
-0.998305, 81, 247, 112, 262
-0.998306, 81, 115, 112, 130
-0.998306, 181, 85, 212, 100
-0.998306, 65, 111, 96, 126
-0.998306, 77, 61, 108, 76
-0.998307, 417, 81, 448, 96
-0.998307, 241, 191, 272, 206
-0.998309, 153, 169, 184, 184
-0.998311, 113, 129, 144, 144
-0.998313, 45, 61, 76, 76
-0.998314, 73, 99, 104, 114
-0.998314, 185, 167, 216, 182
-0.998315, 77, 107, 108, 122
-0.998315, 45, 21, 76, 36
-0.998316, 81, 253, 112, 268
-0.998316, 73, 13, 104, 28
-0.998317, 57, 17, 88, 32
-0.998317, 149, 175, 180, 190
-0.998318, 81, 149, 112, 164
-0.99832, 121, 79, 152, 94
-0.99832, 93, 65, 124, 80
-0.998321, 65, 105, 96, 120
-0.998323, 61, 83, 92, 98
-0.998324, 85, 235, 116, 250
-0.998325, 281, 63, 312, 78
-0.998325, 133, 163, 164, 178
-0.998325, 65, 89, 96, 104
-0.998326, 217, 97, 248, 112
-0.998326, 181, 187, 212, 202
-0.998327, 97, 7, 128, 22
-0.998328, 141, 181, 172, 196
-0.998328, 9, 39, 40, 54
-0.998328, 105, 169, 136, 184
-0.998328, 121, 7, 152, 22
-0.998329, 125, 139, 156, 154
-0.998329, 129, 25, 160, 40
-0.99833, 61, 95, 92, 110
-0.998331, 111, 61, 126, 92
-0.998334, 337, 297, 464, 360
-0.998337, 189, 161, 204, 192
-0.998338, 141, 149, 172, 164
-0.998338, 69, 65, 84, 96
-0.99834, 145, 9, 176, 24
-0.998343, 181, 41, 212, 56
-0.998346, 85, 141, 100, 172
-0.998347, 241, 63, 272, 78
-0.998347, 101, 197, 116, 228
-0.998348, 85, 155, 116, 170
-0.99835, 81, 69, 112, 84
-0.99835, 193, 47, 224, 62
-0.998352, 205, 93, 236, 108
-0.998353, 193, 89, 224, 104
-0.998356, 141, 15, 172, 30
-0.998359, 109, 7, 140, 22
-0.99836, 451, 29, 466, 60
-0.998361, 93, 13, 124, 28
-0.998362, 161, 175, 192, 190
-0.998365, 193, 241, 448, 304
-0.998366, 233, 49, 264, 64
-0.998368, 125, 151, 156, 166
-0.998368, 85, 137, 116, 152
-0.998369, 117, 27, 148, 42
-0.998369, 141, 169, 172, 184
-0.998374, 459, 29, 474, 60
-0.998377, 101, 141, 116, 172
-0.998377, 161, 157, 192, 172
-0.998377, 133, 7, 164, 22
-0.998377, 149, 165, 164, 196
-0.998378, 221, 57, 252, 72
-0.998378, 121, 161, 152, 176
-0.998379, 169, 81, 200, 96
-0.998386, 193, 209, 448, 272
-0.998386, 85, 129, 116, 144
-0.998387, 105, 163, 136, 178
-0.998388, 289, 113, 416, 144
-0.998389, 85, 105, 100, 136
-0.998392, 137, 155, 168, 170
-0.998392, 145, 161, 176, 176
-0.998393, 129, 13, 160, 28
-0.998394, 209, 53, 240, 68
-0.998395, 205, 43, 236, 58
-0.998396, 117, 67, 148, 82
-0.998399, 129, 141, 144, 172
-0.998399, 193, 173, 224, 188
-0.998402, 105, 13, 136, 28
-0.998403, 17, 81, 80, 144
-0.998404, 73, 97, 88, 128
-0.998408, 169, 181, 200, 196
-0.998409, 101, 155, 132, 170
-0.998412, 85, 249, 100, 280
-0.998413, 245, 129, 276, 384
-0.998414, 171, 173, 186, 204
-0.998414, 17, 89, 144, 120
-0.998414, 105, 65, 136, 80
-0.998415, 221, 47, 252, 62
-0.998415, 173, 171, 204, 186
-0.99842, 337, 85, 464, 116
-0.998421, 57, 65, 88, 80
-0.998422, 181, 177, 212, 192
-0.998424, 173, 163, 204, 178
-0.998425, 129, 69, 160, 84
-0.998432, 69, 67, 100, 82
-0.998432, 93, 157, 108, 188
-0.998435, 65, 245, 192, 276
-0.998436, 157, 77, 188, 92
-0.998439, 145, 69, 160, 100
-0.998439, 65, 81, 192, 112
-0.998442, 401, 1, 464, 403
-0.998444, 121, 133, 136, 164
-0.998444, 183, 177, 198, 208
-0.998445, 101, 141, 132, 156
-0.998449, 81, 141, 144, 156
-0.998449, 141, 73, 172, 88
-0.99845, 177, 177, 192, 208
-0.998453, 125, 1, 140, 128
-0.998455, 193, 41, 224, 56
-0.998455, 109, 135, 140, 150
-0.998456, 91, 233, 106, 264
-0.99846, 79, 93, 94, 124
-0.99846, 93, 121, 108, 152
-0.998461, 269, 97, 300, 352
-0.998461, 125, 145, 156, 160
-0.998462, 241, 49, 256, 80
-0.998463, 161, 163, 192, 178
-0.998464, 113, 143, 144, 158
-0.998465, 113, 155, 144, 170
-0.998466, 149, 155, 180, 170
-0.998467, 295, 177, 310, 208
-0.998468, 113, 149, 144, 164
-0.998468, 241, 329, 368, 360
-0.998471, 97, 135, 128, 150
-0.998472, 93, 149, 124, 164
-0.99848, 1, 249, 128, 280
-0.998481, 163, 149, 178, 180
-0.998486, 175, 77, 190, 108
-0.998489, 17, 121, 144, 152
-0.998493, 199, 37, 214, 68
-0.998493, 305, 273, 336, 400
-0.998494, 105, 13, 168, 28
-0.998494, 85, 143, 116, 158
-0.998495, 125, 129, 156, 384
-0.998498, 159, 165, 174, 196
-0.998499, 145, 163, 208, 178
-0.998502, 273, 241, 400, 304
-0.998504, 71, 77, 86, 108
-0.998505, 97, 65, 160, 80
-0.998509, 105, 147, 168, 162
-0.998509, 249, 49, 264, 80
-0.998516, 225, 281, 352, 312
-0.998524, 381, 37, 396, 68
-0.998526, 53, 69, 68, 100
-0.998528, 321, 57, 448, 88
-0.998528, 81, 13, 144, 28
-0.998529, 143, 153, 158, 184
-0.998532, 117, 13, 148, 28
-0.998533, 73, 147, 136, 162
-0.998536, 235, 57, 250, 88
-0.998539, 147, 1, 162, 32
-0.998539, 121, 157, 184, 172
-0.998544, 113, 71, 176, 86
-0.998544, 225, 269, 352, 300
-0.998548, 185, 43, 248, 58
-0.998556, 273, 17, 400, 48
-0.998557, 65, 77, 80, 108
-0.998559, 177, 97, 208, 352
-0.998562, 377, 49, 392, 80
-0.998564, 135, 1, 150, 32
-0.998566, 153, 177, 216, 192
-0.998566, 217, 49, 280, 64
-0.998567, 49, 67, 112, 82
-0.998568, 81, 153, 144, 168
-0.998569, 129, 289, 384, 352
-0.99857, 221, 93, 236, 124
-0.998573, 91, 145, 106, 176
-0.998574, 81, 135, 144, 150
-0.998574, 137, 171, 200, 186
-0.998577, 201, 57, 264, 72
-0.998579, 121, 163, 184, 178
-0.998583, 1, 1, 128, 32
-0.998584, 177, 173, 240, 188
-0.998585, 129, 77, 192, 92
-0.998595, 57, 57, 72, 88
-0.998605, 219, 53, 234, 84
-0.998608, 299, 161, 314, 192
-0.998609, 233, 65, 296, 80
-0.99861, 127, 157, 142, 188
-0.998611, 73, 59, 136, 74
-0.998616, 133, 161, 148, 192
-0.998618, 157, 1, 172, 32
-0.998618, 129, 9, 192, 24
-0.998619, 129, 15, 192, 30
-0.998619, 161, 43, 224, 58
-0.99862, 57, 13, 120, 28
-0.998622, 459, 1, 474, 32
-0.998623, 131, 1, 146, 128
-0.998624, 153, 81, 216, 96
-0.998625, 51, 57, 66, 88
-0.998625, 209, 87, 272, 102
-0.998626, 169, 87, 232, 102
-0.998627, 97, 29, 160, 44
-0.99863, 177, 51, 240, 66
-0.99863, 209, 293, 336, 324
-0.998632, 161, 71, 224, 86
-0.998633, 27, 37, 42, 68
-0.998633, 169, 121, 232, 184
-0.998635, 105, 61, 120, 92
-0.998636, 139, 177, 154, 208
-0.998637, 241, 55, 304, 70
-0.998638, 97, 7, 160, 22
-0.998639, 209, 9, 336, 40
-0.998641, 161, 183, 224, 198
-0.998642, 209, 217, 336, 248
-0.998648, 249, 203, 312, 218
-0.99865, 17, 45, 80, 60
-0.99865, 229, 57, 244, 88
-0.998651, 211, 89, 226, 120
-0.998652, 385, 77, 448, 92
-0.998654, 129, 177, 192, 192
-0.998654, 265, 53, 280, 84
-0.998654, 153, 73, 168, 104
-0.998655, 17, 201, 144, 232
-0.998656, 249, 105, 312, 120
-0.998657, 89, 21, 152, 36
-0.998657, 185, 179, 248, 194
-0.998658, 127, 129, 142, 160
-0.998658, 193, 93, 256, 108
-0.998659, 73, 71, 136, 86
-0.99866, 401, 83, 464, 98
-0.99866, 169, 167, 232, 182
-0.99866, 185, 37, 248, 52
-0.998661, 257, 61, 320, 76
-0.998662, 209, 43, 272, 58
-0.998662, 193, 81, 256, 96
-0.998663, 201, 23, 264, 38
-0.998663, 141, 1, 156, 32
-0.998663, 181, 81, 196, 112
-0.998664, 73, 7, 136, 22
-0.998664, 1, 185, 128, 216
-0.998665, 105, 139, 168, 154
-0.998665, 209, 63, 272, 78
-0.998666, 137, 183, 200, 198
-0.998669, 137, 63, 200, 78
-0.99867, 33, 61, 96, 76
-0.998671, 69, 13, 84, 44
-0.998671, 255, 49, 270, 80
-0.998673, 217, 99, 280, 114
-0.998674, 289, 1, 416, 32
-0.998675, 105, 179, 168, 194
-0.998675, 145, 155, 208, 170
-0.998676, 217, 93, 280, 108
-0.998676, 117, 1, 132, 128
-0.998676, 73, 65, 136, 80
-0.998677, 209, 205, 272, 220
-0.998677, 113, 57, 176, 72
-0.998677, 89, 173, 152, 188
-0.998677, 241, 231, 304, 246
-0.998678, 73, 105, 136, 120
-0.998678, 321, 41, 384, 56
-0.998678, 77, 129, 108, 384
-0.998679, 249, 197, 312, 212
-0.998681, 281, 109, 344, 124
-0.998681, 65, 221, 192, 252
-0.998682, 41, 97, 104, 112
-0.998682, 401, 41, 464, 56
-0.998683, 57, 127, 120, 142
-0.998683, 361, 71, 424, 86
-0.998684, 97, 159, 160, 174
-0.998684, 221, 33, 236, 64
-0.998685, 73, 113, 136, 128
-0.998687, 169, 19, 232, 34
-0.998687, 73, 91, 136, 106
-0.998687, 25, 19, 88, 34
-0.998688, 145, 225, 272, 256
-0.998688, 33, 265, 160, 296
-0.998688, 49, 19, 112, 34
-0.998688, 85, 57, 100, 88
-0.998688, 137, 1, 152, 128
-0.998688, 121, 193, 152, 320
-0.998688, 241, 93, 304, 108
-0.998689, 33, 51, 96, 66
-0.998689, 113, 169, 176, 184
-0.998689, 209, 37, 272, 52
-0.998689, 225, 211, 288, 226
-0.998689, 73, 259, 136, 274
-0.99869, 225, 193, 288, 208
-0.99869, 129, 21, 192, 36
-0.99869, 129, 89, 144, 120
-0.998692, 145, 37, 208, 52
-0.998693, 233, 41, 296, 56
-0.998693, 129, 3, 192, 18
-0.998694, 143, 13, 158, 44
-0.998695, 137, 71, 200, 86
-0.998695, 107, 9, 122, 40
-0.998696, 81, 123, 144, 138
-0.998697, 97, 101, 224, 132
-0.998697, 233, 221, 296, 236
-0.998697, 41, 143, 104, 158
-0.998698, 225, 27, 288, 42
-0.998698, 95, 69, 110, 100
-0.998698, 377, 41, 440, 56
-0.9987, 257, 69, 320, 84
-0.9987, 57, 153, 120, 168
-0.998702, 65, 53, 128, 68
-0.998702, 377, 85, 440, 100
-0.998702, 101, 185, 116, 216
-0.998702, 257, 225, 320, 240
-0.998703, 201, 199, 264, 214
-0.998703, 97, 41, 160, 56
-0.998703, 241, 99, 304, 114
-0.998703, 121, 27, 184, 42
-0.998704, 145, 193, 208, 208
-0.998704, 97, 35, 160, 50
-0.998705, 97, 51, 160, 66
-0.998706, 169, 161, 232, 176
-0.998706, 89, 165, 152, 180
-0.998706, 169, 93, 232, 108
-0.998707, 135, 141, 150, 172
-0.998707, 337, 47, 400, 62
-0.998708, 33, 83, 96, 98
-0.998708, 257, 237, 320, 252
-0.998708, 1, 27, 64, 42
-0.998709, 89, 213, 152, 228
-0.998709, 129, 147, 192, 162
-0.99871, 201, 71, 264, 86
-0.99871, 337, 59, 400, 74
-0.99871, 105, 133, 168, 148
-0.998711, 73, 77, 136, 92
-0.998711, 177, 189, 240, 204
-0.998711, 305, 115, 368, 130
-0.998711, 425, 41, 488, 56
-0.998711, 353, 5, 416, 20
-0.998712, 249, 33, 312, 48
-0.998712, 49, 113, 112, 128
-0.998713, 249, 191, 312, 206
-0.998713, 225, 229, 352, 260
-0.998713, 73, 97, 136, 112
-0.99872, 453, 41, 468, 72
-0.998721, 79, 53, 94, 84
-0.998724, 281, 57, 296, 88
-0.998727, 25, 49, 56, 176
-0.998739, 143, 141, 158, 172
-0.998758, 45, 57, 60, 88
-0.998761, 37, 1, 68, 256
-0.998762, 197, 185, 212, 216
-0.998767, 205, 1, 236, 256
-0.998767, 273, 41, 400, 72
-0.998768, 109, 157, 124, 188
-0.998768, 225, 185, 480, 248
-0.998769, 203, 169, 218, 200
-0.99877, 59, 17, 74, 48
-0.998772, 445, 33, 460, 64
-0.998774, 101, 153, 116, 184
-0.998774, 73, 53, 88, 84
-0.998776, 93, 57, 108, 88
-0.998777, 165, 173, 180, 204
-0.998777, 101, 129, 116, 160
-0.99878, 299, 237, 314, 268
-0.99878, 53, 45, 68, 76
-0.998781, 291, 189, 306, 220
-0.998782, 89, 69, 104, 100
-0.998782, 129, 241, 256, 304
-0.998783, 469, 1, 484, 32
-0.998786, 169, 65, 184, 96
-0.998787, 111, 1, 126, 128
-0.99879, 463, 17, 478, 48
-0.998793, 371, 57, 386, 88
-0.998796, 193, 369, 320, 400
-0.998796, 369, 61, 496, 92
-0.998802, 177, 277, 304, 308
-0.998804, 273, 1, 304, 256
-0.998807, 243, 61, 258, 92
-0.998807, 131, 49, 146, 176
-0.998811, 295, 61, 310, 92
-0.998813, 459, 41, 474, 72
-0.99883, 241, 317, 368, 348
-0.998835, 193, 137, 448, 200
-0.998837, 193, 265, 448, 328
-0.99884, 257, 297, 384, 328
-0.998848, 65, 177, 96, 304
-0.99886, 101, 1, 116, 128
-0.998861, 79, 1, 94, 128
-0.998868, 89, 1, 104, 128
-0.998878, 145, 209, 176, 336
-0.998878, 137, 97, 168, 352
-0.998884, 369, 37, 496, 68
-0.998885, 165, 1, 180, 128
-0.998891, 297, 33, 328, 160
-0.998904, 69, 1, 84, 128
-0.998907, 1, 121, 500, 184
-0.99891, 17, 213, 144, 244
-0.998913, 225, 257, 352, 288
-0.998915, 161, 321, 416, 384
-0.998917, 1, 225, 500, 288
-0.998919, 95, 1, 110, 128
-0.99892, 393, 1, 424, 256
-0.998922, 233, 97, 264, 352
-0.998923, 61, 1, 76, 128
-0.998935, 293, 129, 324, 384
-0.998939, 225, 141, 352, 172
-0.998946, 257, 113, 500, 176
-0.99895, 119, 49, 134, 176
-0.998954, 171, 1, 186, 128
-0.998954, 321, 45, 448, 76
-0.998954, 97, 117, 224, 148
-0.998964, 81, 257, 208, 288
-0.998982, 17, 329, 144, 392
-0.998986, 329, 1, 360, 256
-0.998987, 241, 341, 368, 372
-0.998987, 161, 141, 288, 172
-0.998989, 369, 105, 496, 136
-0.998993, 147, 1, 162, 128
-0.998995, 219, 1, 234, 128
-0.998997, 49, 181, 176, 212
-0.999004, 55, 1, 70, 128
-0.999021, 177, 265, 304, 296
-0.999023, 79, 49, 94, 176
-0.999024, 453, 49, 484, 176
-0.999025, 125, 49, 140, 176
-0.999032, 87, 49, 102, 176
-0.999036, 159, 1, 174, 128
-0.999045, 273, 85, 400, 116
-0.999069, 281, 129, 312, 384
-0.999086, 21, 1, 52, 256
-0.999095, 49, 1, 64, 128
-0.999095, 97, 65, 112, 192
-0.999098, 153, 1, 168, 128
-0.9991, 61, 97, 92, 352
-0.999102, 171, 65, 186, 192
-0.999103, 417, 1, 480, 256
-0.999115, 1, 201, 500, 264
-0.999118, 161, 65, 176, 192
-0.999127, 95, 193, 110, 320
-0.999148, 241, 181, 368, 212
-0.999148, 113, 49, 128, 176
-0.999154, 321, 17, 448, 48
-0.999164, 345, 1, 376, 256
-0.999167, 89, 257, 120, 384
-0.999168, 213, 1, 228, 128
-0.999169, 91, 113, 106, 240
-0.99917, 1, 173, 128, 204
-0.999171, 241, 193, 368, 224
-0.999187, 137, 49, 152, 176
-0.999187, 231, 17, 246, 144
-0.999193, 273, 217, 400, 248
-0.999199, 225, 1, 240, 128
-0.999201, 101, 145, 116, 272
-0.999202, 129, 129, 256, 160
-0.999206, 241, 365, 368, 396
-0.999206, 97, 249, 160, 312
-0.999211, 289, 1, 320, 256
-0.999212, 257, 101, 384, 132
-0.999214, 257, 329, 500, 392
-0.999214, 381, 1, 412, 256
-0.999216, 129, 273, 256, 336
-0.999219, 177, 65, 192, 192
-0.999222, 155, 65, 170, 192
-0.999225, 193, 333, 320, 364
-0.999234, 177, 1, 192, 128
-0.999243, 455, 1, 470, 128
-0.999249, 229, 65, 244, 192
-0.99925, 209, 305, 336, 336
-0.99925, 241, 129, 368, 160
-0.999265, 1, 209, 256, 272
-0.999266, 43, 1, 58, 128
-0.999275, 107, 49, 122, 176
-0.999285, 463, 1, 478, 128
-0.999292, 143, 49, 158, 176
-0.999296, 1, 161, 64, 403
-0.999298, 289, 321, 416, 352
-0.999301, 207, 1, 222, 128
-0.999302, 161, 113, 416, 176
-0.999308, 97, 257, 224, 384
-0.999319, 149, 65, 164, 192
-0.999321, 127, 97, 142, 224
-0.999324, 81, 273, 208, 336
-0.99933, 175, 145, 190, 272
-0.99934, 89, 209, 104, 336
-0.999342, 223, 49, 238, 176
-0.999344, 67, 49, 82, 176
-0.999345, 237, 17, 252, 144
-0.999347, 181, 145, 196, 272
-0.999351, 1, 305, 128, 368
-0.999351, 427, 17, 442, 144
-0.999352, 421, 17, 436, 144
-0.999362, 169, 129, 184, 256
-0.999363, 201, 1, 216, 128
-0.999364, 235, 65, 250, 192
-0.999366, 185, 1, 200, 128
-0.999371, 291, 177, 306, 304
-0.999375, 101, 193, 116, 320
-0.999377, 201, 97, 232, 352
-0.999377, 85, 97, 100, 224
-0.999381, 305, 97, 336, 352
-0.999385, 189, 145, 204, 272
-0.999388, 103, 97, 118, 224
-0.999389, 9, 1, 40, 256
-0.999391, 183, 65, 198, 192
-0.999393, 429, 1, 460, 256
-0.999413, 133, 97, 148, 224
-0.999413, 241, 353, 368, 384
-0.999415, 299, 145, 314, 272
-0.999415, 243, 17, 258, 144
-0.999417, 209, 153, 336, 184
-0.999418, 357, 1, 388, 256
-0.999427, 379, 17, 394, 144
-0.999429, 241, 65, 256, 192
-0.999431, 191, 65, 206, 192
-0.999436, 289, 309, 416, 340
-0.999436, 145, 161, 160, 288
-0.99944, 195, 1, 210, 128
-0.999444, 121, 97, 136, 224
-0.999448, 449, 1, 464, 128
-0.999451, 313, 225, 344, 352
-0.999453, 189, 97, 220, 352
-0.999454, 73, 49, 88, 176
-0.999455, 217, 81, 232, 208
-0.999456, 255, 65, 270, 192
-0.999457, 225, 241, 352, 272
-0.999459, 61, 49, 76, 176
-0.99946, 77, 97, 92, 224
-0.99946, 17, 225, 144, 256
-0.999461, 145, 253, 272, 284
-0.999464, 113, 237, 240, 268
-0.999467, 201, 161, 216, 288
-0.999467, 257, 161, 272, 288
-0.99947, 265, 257, 280, 384
-0.999471, 113, 129, 144, 384
-0.999474, 369, 1, 400, 256
-0.999474, 195, 161, 210, 288
-0.999477, 107, 145, 122, 272
-0.999481, 265, 129, 280, 256
-0.999483, 213, 97, 244, 352
-0.999484, 317, 1, 348, 256
-0.999484, 385, 1, 400, 128
-0.999486, 163, 145, 178, 272
-0.999487, 433, 17, 448, 144
-0.99949, 197, 65, 212, 192
-0.999494, 249, 17, 264, 144
-0.999494, 139, 129, 154, 256
-0.999495, 249, 177, 264, 304
-0.999498, 205, 81, 220, 208
-0.999505, 37, 161, 68, 288
-0.999506, 211, 81, 226, 208
-0.999507, 1, 109, 128, 140
-0.999511, 273, 273, 400, 304
-0.999512, 257, 153, 384, 184
-0.999513, 317, 273, 348, 400
-0.999513, 67, 17, 82, 32
-0.999513, 101, 155, 116, 170
-0.999513, 85, 153, 100, 168
-0.999514, 139, 177, 154, 192
-0.999515, 49, 67, 64, 82
-0.999515, 133, 139, 148, 154
-0.999515, 471, 1, 486, 128
-0.999515, 155, 129, 170, 256
-0.999515, 207, 91, 222, 106
-0.999516, 241, 61, 256, 76
-0.999516, 461, 35, 476, 50
-0.999516, 101, 195, 116, 210
-0.999518, 161, 313, 288, 344
-0.999518, 113, 113, 128, 240
-0.999518, 67, 65, 82, 80
-0.999518, 125, 163, 140, 178
-0.999519, 155, 167, 170, 182
-0.999519, 113, 165, 128, 180
-0.999519, 171, 73, 186, 88
-0.99952, 187, 163, 202, 178
-0.999521, 91, 157, 106, 172
-0.999521, 197, 47, 212, 62
-0.999522, 147, 15, 162, 30
-0.999522, 109, 157, 124, 172
-0.999523, 177, 175, 192, 190
-0.999523, 101, 67, 116, 82
-0.999523, 85, 69, 100, 84
-0.999523, 91, 71, 106, 86
-0.999523, 179, 81, 194, 96
-0.999523, 103, 145, 118, 160
-0.999523, 213, 93, 228, 108
-0.999524, 203, 173, 218, 188
-0.999525, 139, 157, 154, 172
-0.999525, 211, 51, 226, 66
-0.999525, 193, 165, 208, 180
-0.999525, 225, 97, 240, 112
-0.999526, 137, 7, 152, 22
-0.999527, 119, 5, 134, 20
-0.999527, 83, 129, 98, 144
-0.999527, 123, 27, 138, 42
-0.999527, 109, 63, 124, 78
-0.999527, 143, 147, 158, 162
-0.999527, 91, 123, 106, 138
-0.999528, 185, 173, 200, 188
-0.999528, 271, 97, 286, 224
-0.999528, 289, 125, 416, 156
-0.999529, 439, 1, 454, 128
-0.999529, 83, 225, 98, 352
-0.999529, 33, 273, 288, 336
-0.999531, 97, 213, 112, 228
-0.999532, 93, 227, 108, 242
-0.999532, 235, 49, 250, 64
-0.999532, 379, 63, 394, 78
-0.999533, 107, 13, 122, 28
-0.999533, 189, 41, 204, 56
-0.999533, 101, 201, 116, 216
-0.999533, 115, 63, 130, 78
-0.999534, 117, 133, 132, 148
-0.999534, 247, 65, 262, 192
-0.999534, 283, 97, 298, 224
-0.999534, 233, 161, 248, 288
-0.999535, 147, 73, 162, 88
-0.999536, 53, 73, 68, 88
-0.999536, 79, 119, 94, 134
-0.999538, 99, 207, 114, 222
-0.999539, 95, 221, 110, 236
-0.999539, 149, 163, 164, 178
-0.999539, 123, 145, 138, 272
-0.999539, 87, 135, 102, 150
-0.99954, 409, 1, 440, 256
-0.999541, 445, 43, 460, 58
-0.999542, 217, 53, 232, 68
-0.999542, 145, 9, 160, 24
-0.999543, 451, 37, 466, 52
-0.999543, 113, 7, 128, 22
-0.999543, 161, 165, 176, 180
-0.999543, 95, 131, 110, 146
-0.999544, 159, 159, 174, 174
-0.999544, 241, 177, 256, 304
-0.999545, 235, 59, 250, 74
-0.999545, 75, 111, 90, 126
-0.999545, 79, 67, 94, 82
-0.999545, 155, 75, 170, 90
-0.999546, 93, 149, 108, 164
-0.999546, 389, 49, 404, 176
-0.999546, 59, 69, 74, 84
-0.999546, 147, 153, 162, 168
-0.999547, 219, 95, 234, 110
-0.999547, 125, 7, 140, 22
-0.999547, 125, 151, 140, 166
-0.999547, 137, 13, 152, 28
-0.999548, 57, 81, 72, 96
-0.999548, 85, 145, 100, 272
-0.999548, 197, 173, 212, 188
-0.999549, 101, 139, 116, 154
-0.999552, 229, 57, 244, 72
-0.999552, 297, 193, 312, 320
-0.999552, 87, 115, 102, 130
-0.999554, 223, 55, 238, 70
-0.999556, 153, 153, 168, 168
-0.999558, 229, 47, 244, 62
-0.999559, 63, 75, 78, 90
-0.999559, 69, 101, 84, 116
-0.99956, 257, 289, 500, 352
-0.999562, 141, 71, 156, 86
-0.999562, 195, 113, 210, 240
-0.999563, 37, 1, 52, 128
-0.999563, 81, 105, 96, 120
-0.999563, 105, 133, 120, 148
-0.999564, 185, 179, 200, 194
-0.999564, 55, 49, 70, 176
-0.999566, 261, 65, 276, 192
-0.999566, 223, 47, 238, 62
-0.999566, 73, 67, 88, 82
-0.999566, 47, 49, 62, 176
-0.999566, 159, 153, 174, 168
-0.999567, 303, 209, 318, 336
-0.999567, 75, 95, 90, 110
-0.999567, 61, 87, 76, 102
-0.999569, 67, 81, 82, 96
-0.999573, 181, 163, 196, 178
-0.999574, 405, 17, 420, 144
-0.999575, 121, 65, 136, 80
-0.999575, 93, 137, 108, 152
-0.999578, 57, 63, 72, 78
-0.999578, 461, 43, 476, 58
-0.999579, 71, 87, 86, 102
-0.99958, 65, 93, 80, 108
-0.999581, 165, 157, 180, 172
-0.999581, 135, 69, 150, 84
-0.999582, 131, 13, 146, 28
-0.999582, 173, 81, 188, 96
-0.999583, 395, 49, 410, 176
-0.999585, 109, 149, 124, 164
-0.999587, 135, 177, 150, 304
-0.999588, 117, 139, 132, 154
-0.999589, 217, 45, 232, 60
-0.99959, 129, 25, 144, 40
-0.99959, 113, 13, 128, 28
-0.99959, 191, 177, 206, 192
-0.99959, 305, 129, 320, 256
-0.999591, 129, 67, 144, 82
-0.999593, 211, 43, 226, 58
-0.999593, 167, 79, 182, 94
-0.999594, 167, 163, 182, 178
-0.999595, 127, 141, 142, 156
-0.999596, 321, 313, 384, 376
-0.999597, 195, 41, 210, 56
-0.999598, 161, 77, 176, 92
-0.9996, 273, 273, 304, 400
-0.999601, 119, 11, 134, 26
-0.999602, 285, 177, 300, 304
-0.999603, 71, 97, 86, 224
-0.999606, 225, 161, 240, 288
-0.999606, 115, 147, 130, 162
-0.999606, 173, 161, 188, 176
-0.99961, 203, 41, 218, 56
-0.999611, 415, 17, 430, 144
-0.999613, 111, 141, 126, 156
-0.999613, 373, 33, 388, 160
-0.999615, 125, 13, 140, 28
-0.999616, 441, 49, 472, 176
-0.999617, 207, 161, 222, 288
-0.999617, 209, 321, 272, 384
-0.999617, 357, 33, 372, 160
-0.999618, 453, 43, 468, 58
-0.999618, 301, 1, 332, 256
-0.99962, 121, 145, 136, 160
-0.999623, 299, 97, 314, 224
-0.999627, 477, 1, 492, 128
-0.99963, 111, 135, 126, 150
-0.999631, 259, 225, 274, 352
-0.999631, 267, 49, 282, 176
-0.999637, 117, 153, 132, 168
-0.999646, 87, 141, 102, 156
-0.999665, 329, 97, 360, 224
-0.999686, 309, 33, 340, 160
-0.999697, 165, 193, 196, 320
-0.99976, 305, 337, 368, 400
-0.999761, 353, 321, 480, 384
-0.999807, 433, 1, 496, 403
-0.99986, 449, 1, 480, 256
-0.999885, 465, 49, 496, 176
-1.00001, 305, 185, 432, 248
-1.00002, 33, 241, 96, 368
-1.00005, 341, 97, 372, 224
-1.00013, 145, 241, 208, 368
-1.00019, 65, 337, 320, 400
-1.00019, 317, 97, 348, 352
-1.00025, 337, 273, 464, 336
-1.00025, 33, 161, 64, 403
-1.0003, 261, 1, 292, 128
-1.00032, 1, 241, 256, 304
-1.00032, 381, 97, 412, 224
-1.00033, 49, 97, 80, 352
-1.00036, 337, 113, 400, 176
-1.00038, 465, 1, 496, 256
-1.00039, 1, 177, 500, 240
-1.00043, 9, 161, 40, 403
-1.00043, 1, 313, 256, 376
-1.00044, 373, 97, 404, 352
-1.00049, 21, 161, 52, 403
-1.00052, 53, 97, 84, 224
-1.00057, 73, 273, 136, 336
-1.0006, 65, 241, 96, 368
-1.00061, 333, 1, 364, 128
-1.00061, 349, 97, 380, 352
-1.00067, 361, 97, 392, 352
-1.00068, 25, 161, 56, 288
-1.00073, 329, 97, 360, 352
-1.00074, 17, 113, 80, 240
-1.00082, 153, 217, 216, 280
-1.00084, 321, 273, 448, 400
-1.00087, 129, 241, 192, 304
-1.00087, 353, 81, 384, 208
-1.0009, 385, 97, 416, 352
-1.00095, 1, 249, 500, 312
-1.001, 321, 249, 448, 312
-1.00106, 409, 97, 440, 352
-1.00114, 297, 169, 360, 232
-1.00121, 49, 161, 80, 288
-1.00121, 9, 177, 40, 304
-1.00127, 421, 97, 452, 352
-1.0013, 33, 201, 96, 264
-1.0013, 201, 233, 264, 296
-1.0013, 397, 129, 428, 384
-1.00132, 1, 313, 500, 376
-1.00139, 453, 97, 484, 352
-1.00143, 465, 97, 496, 352
-1.00145, 193, 129, 256, 192
-1.00151, 1, 273, 500, 336
-1.00156, 437, 97, 468, 352
-1.00158, 337, 289, 400, 352
-1.00161, 369, 153, 496, 216
-1.00172, 25, 137, 88, 200
-1.00174, 1, 337, 500, 400
-1.00189, 337, 97, 400, 352
-1.00197, 77, 273, 108, 400
-1.00198, 321, 145, 448, 208
-1.0021, 101, 273, 132, 400
-1.00213, 353, 177, 480, 240
-1.00214, 369, 225, 496, 288
-1.00238, 13, 49, 44, 176
-1.00241, 285, 1, 316, 128
-1.00245, 113, 241, 144, 368
-1.0025, 353, 201, 480, 264
-1.0026, 369, 249, 496, 312
-1.00269, 37, 113, 68, 240
-1.00269, 177, 209, 240, 336
-1.00296, 201, 209, 232, 336
-1.00301, 369, 97, 432, 352
-1.00311, 365, 81, 396, 208
-1.00483, 337, 273, 400, 400
-1.00488, 305, 161, 432, 288
-1.00531, 337, 225, 464, 352
-1.00536, 97, 273, 160, 400
-1.00579, 393, 97, 456, 352
-1.00601, 121, 273, 184, 400
-1.00607, 369, 273, 496, 400
-1.00617, 177, 273, 240, 400
-1.00636, 1, 209, 64, 336
-1.0065, 353, 161, 480, 288
-1.00655, 201, 257, 264, 384
-1.00734, 433, 97, 496, 352
-1.00841, 9, 257, 72, 384
-1.00854, 361, 273, 424, 400
-1.00928, 329, 225, 392, 352
-1.00968, 417, 113, 480, 240
-1.01029, 409, 273, 472, 400
-1.01049, 321, 161, 384, 288
-1.01091, 345, 145, 408, 272
-1.0112, 353, 225, 416, 352
-1.01133, 401, 161, 464, 288
-1.01136, 385, 257, 448, 384
-1.01185, 433, 273, 496, 400
-1.01205, 377, 161, 440, 288
-1.01263, 377, 209, 440, 336
-1.01273, 409, 225, 472, 352
-1.01374, 433, 193, 496, 320
