1871
-0.358782, 1, 1, 500, 333
-0.422785, 1, 65, 500, 320
-0.461871, 97, 1, 352, 333
-0.50232, 193, 1, 448, 333
-0.539239, 1, 1, 256, 333
-0.672678, 129, 1, 384, 256
-0.700925, 225, 1, 480, 256
-0.717979, 1, 1, 256, 256
-0.86108, 225, 1, 352, 333
-0.86279, 1, 193, 500, 320
-0.867373, 113, 1, 240, 333
-0.870848, 305, 1, 432, 256
-0.872448, 177, 1, 304, 333
-0.872542, 369, 1, 496, 256
-0.873358, 161, 65, 288, 320
-0.877056, 305, 1, 432, 333
-0.879826, 65, 1, 192, 333
-0.88191, 369, 1, 496, 333
-0.882838, 81, 65, 208, 320
-0.883043, 1, 1, 128, 333
-0.889234, 225, 33, 352, 288
-0.892996, 1, 145, 500, 272
-0.897407, 33, 1, 160, 256
-0.900038, 1, 1, 500, 128
-0.914791, 193, 193, 448, 320
-0.915974, 65, 177, 320, 304
-0.920209, 1, 65, 500, 192
-0.92038, 225, 209, 352, 333
-0.922655, 97, 1, 352, 128
-0.923547, 305, 193, 432, 320
-0.92666, 273, 145, 400, 272
-0.926674, 177, 177, 304, 304
-0.931723, 225, 65, 480, 192
-0.931896, 17, 193, 144, 320
-0.932266, 225, 161, 352, 288
-0.932473, 65, 177, 192, 304
-0.93381, 121, 193, 184, 320
-0.934635, 193, 145, 448, 272
-0.93465, 313, 177, 376, 304
-0.935067, 41, 209, 104, 333
-0.936256, 113, 209, 240, 333
-0.936464, 193, 1, 448, 128
-0.936945, 97, 49, 352, 176
-0.938058, 65, 129, 320, 256
-0.939059, 81, 177, 144, 304
-0.939245, 289, 177, 352, 304
-0.940017, 169, 193, 232, 320
-0.940817, 241, 193, 304, 320
-0.941219, 209, 161, 272, 288
-0.943316, 353, 1, 416, 128
-0.943325, 233, 145, 296, 272
-0.943386, 273, 1, 336, 128
-0.943477, 161, 1, 288, 128
-0.94426, 369, 161, 496, 288
-0.944307, 145, 177, 208, 304
-0.944368, 161, 129, 288, 256
-0.944575, 225, 113, 352, 240
-0.944721, 1, 1, 256, 128
-0.945492, 273, 129, 336, 256
-0.945732, 265, 193, 328, 320
-0.946488, 305, 1, 368, 128
-0.947167, 297, 113, 360, 240
-0.948061, 1, 65, 256, 192
-0.948098, 1, 161, 64, 288
-0.948213, 369, 17, 496, 144
-0.948461, 321, 145, 448, 272
-0.948621, 241, 193, 304, 256
-0.949038, 297, 185, 360, 248
-0.950158, 57, 161, 120, 288
-0.950268, 265, 217, 328, 280
-0.951016, 169, 65, 232, 192
-0.951268, 217, 1, 280, 128
-0.951942, 329, 129, 392, 256
-0.952047, 257, 49, 320, 176
-0.952051, 1, 113, 128, 240
-0.952292, 273, 33, 400, 160
-0.952299, 113, 161, 240, 288
-0.952313, 161, 81, 288, 208
-0.952416, 97, 17, 224, 144
-0.952489, 225, 49, 352, 176
-0.952545, 305, 97, 432, 224
-0.952696, 249, 1, 312, 128
-0.952822, 209, 81, 272, 208
-0.953001, 329, 1, 392, 128
-0.95305, 1, 209, 64, 333
-0.953113, 153, 129, 216, 256
-0.953622, 369, 209, 496, 333
-0.953658, 145, 233, 208, 296
-0.953685, 129, 1, 192, 128
-0.954289, 337, 177, 400, 304
-0.954401, 81, 113, 208, 240
-0.954818, 225, 1, 352, 128
-0.955029, 305, 65, 368, 192
-0.955787, 113, 209, 176, 272
-0.95586, 1, 1, 128, 128
-0.956144, 169, 17, 232, 144
-0.956474, 57, 225, 120, 288
-0.956637, 209, 209, 272, 272
-0.956673, 161, 201, 224, 264
-0.956776, 89, 17, 152, 144
-0.956869, 17, 233, 80, 296
-0.957225, 377, 233, 440, 296
-0.957406, 233, 97, 296, 224
-0.957639, 1, 273, 64, 333
-0.957807, 353, 97, 480, 224
-0.957836, 57, 193, 120, 256
-0.958108, 313, 153, 376, 216
-0.958241, 361, 193, 424, 320
-0.958724, 185, 241, 248, 304
-0.958768, 353, 65, 416, 192
-0.958768, 433, 129, 496, 256
-0.959333, 185, 113, 248, 240
-0.959907, 89, 185, 152, 248
-0.95996, 361, 201, 424, 264
-0.960025, 129, 185, 192, 248
-0.960408, 273, 177, 336, 240
-0.960736, 329, 185, 392, 248
-0.960765, 97, 129, 160, 256
-0.96101, 193, 209, 256, 333
-0.961145, 393, 1, 456, 128
-0.961206, 201, 185, 264, 248
-0.961292, 329, 265, 392, 328
-0.961409, 33, 161, 96, 288
-0.961427, 393, 177, 456, 304
-0.961534, 225, 161, 288, 224
-0.962171, 9, 209, 72, 272
-0.962307, 433, 33, 496, 160
-0.962616, 369, 273, 432, 333
-0.962774, 97, 161, 160, 224
-0.96279, 369, 25, 432, 88
-0.962961, 89, 249, 152, 312
-0.963065, 129, 49, 192, 176
-0.963166, 305, 209, 368, 272
-0.963176, 241, 233, 304, 296
-0.963478, 65, 1, 128, 128
-0.963519, 313, 25, 376, 88
-0.963608, 193, 1, 256, 128
-0.963624, 321, 1, 448, 128
-0.963734, 417, 193, 480, 320
-0.96376, 113, 65, 240, 192
-0.963794, 121, 233, 184, 296
-0.963869, 89, 225, 152, 288
-0.964203, 65, 249, 128, 312
-0.964705, 329, 49, 392, 176
-0.965, 169, 41, 232, 104
-0.965083, 329, 209, 392, 272
-0.965537, 345, 17, 408, 80
-0.965542, 281, 49, 344, 176
-0.965729, 353, 249, 416, 312
-0.965794, 1, 1, 64, 128
-0.965804, 289, 265, 352, 328
-0.965822, 65, 65, 192, 192
-0.965841, 353, 113, 416, 240
-0.966391, 209, 137, 272, 200
-0.966744, 257, 65, 320, 128
-0.966886, 33, 185, 96, 248
-0.967244, 137, 209, 200, 272
-0.96739, 65, 113, 128, 240
-0.967448, 385, 113, 448, 240
-0.967471, 265, 241, 328, 304
-0.96764, 257, 145, 320, 208
-0.967723, 217, 209, 280, 333
-0.968059, 217, 233, 280, 296
-0.968086, 401, 1, 464, 64
-0.96824, 337, 161, 400, 224
-0.968335, 41, 113, 104, 240
-0.968385, 401, 233, 464, 296
-0.968453, 89, 25, 152, 88
-0.968558, 401, 209, 464, 272
-0.968876, 353, 225, 416, 288
-0.96893, 225, 265, 288, 328
-0.968975, 33, 209, 96, 272
-0.969234, 289, 209, 320, 272
-0.969459, 409, 49, 472, 176
-0.969476, 25, 273, 88, 333
-0.969492, 185, 17, 248, 80
-0.969631, 129, 41, 192, 104
-0.969679, 141, 177, 172, 304
-0.969897, 49, 17, 176, 144
-0.969906, 193, 233, 320, 296
-0.969951, 25, 1, 88, 128
-0.970135, 289, 233, 352, 296
-0.970256, 225, 25, 288, 88
-0.970393, 289, 201, 416, 264
-0.970435, 193, 65, 256, 128
-0.970511, 57, 169, 120, 232
-0.970614, 177, 145, 240, 208
-0.970727, 81, 193, 112, 320
-0.970785, 385, 49, 448, 112
-0.971041, 409, 57, 472, 120
-0.971221, 5, 273, 36, 333
-0.971409, 105, 65, 168, 192
-0.971416, 177, 105, 240, 168
-0.971551, 141, 193, 172, 256
-0.971615, 273, 193, 304, 256
-0.971631, 241, 241, 368, 304
-0.971648, 273, 177, 400, 240
-0.971656, 281, 1, 344, 64
-0.971667, 193, 201, 320, 264
-0.971707, 325, 185, 356, 248
-0.971717, 169, 169, 232, 232
-0.971796, 65, 49, 128, 176
-0.971817, 49, 17, 112, 80
-0.971866, 253, 177, 284, 240
-0.971948, 65, 225, 192, 288
-0.972104, 321, 193, 352, 320
-0.972117, 89, 49, 152, 112
-0.972128, 329, 241, 392, 304
-0.972246, 433, 41, 496, 104
-0.972266, 329, 49, 392, 112
-0.972483, 249, 169, 312, 232
-0.972701, 129, 193, 160, 320
-0.972709, 345, 161, 376, 224
-0.972751, 353, 49, 416, 112
-0.972768, 321, 65, 384, 320
-0.972923, 353, 1, 416, 256
-0.972998, 357, 25, 388, 88
-0.973124, 233, 49, 296, 112
-0.973132, 201, 161, 264, 224
-0.973159, 425, 273, 488, 333
-0.973175, 129, 129, 192, 256
-0.973306, 17, 273, 48, 333
-0.973402, 257, 25, 320, 88
-0.973453, 249, 161, 280, 288
-0.973477, 425, 217, 488, 280
-0.973495, 241, 153, 368, 216
-0.973533, 153, 105, 216, 168
-0.973552, 233, 89, 296, 152
-0.973638, 369, 1, 432, 64
-0.973648, 133, 225, 164, 288
-0.973653, 333, 209, 364, 272
-0.973774, 401, 257, 464, 320
-0.973803, 241, 81, 272, 208
-0.973919, 209, 105, 272, 168
-0.973938, 113, 225, 240, 288
-0.974039, 33, 193, 160, 256
-0.974047, 53, 193, 84, 320
-0.974048, 469, 169, 500, 232
-0.974099, 145, 201, 272, 264
-0.974103, 1, 49, 128, 176
-0.97412, 261, 201, 292, 264
-0.974148, 393, 25, 456, 88
-0.974213, 321, 273, 448, 333
-0.974326, 369, 185, 496, 248
-0.974376, 409, 113, 472, 240
-0.974425, 9, 49, 72, 176
-0.974456, 233, 49, 296, 176
-0.974509, 433, 193, 496, 256
-0.974522, 417, 1, 480, 256
-0.974556, 385, 49, 448, 176
-0.974701, 1, 249, 128, 312
-0.974733, 41, 249, 104, 312
-0.974779, 57, 41, 120, 104
-0.974779, 161, 161, 288, 224
-0.974785, 1, 225, 128, 288
-0.974883, 337, 185, 368, 248
-0.974973, 209, 1, 272, 64
-0.975017, 261, 177, 292, 304
-0.975018, 321, 49, 448, 176
-0.975051, 321, 1, 448, 64
-0.975089, 81, 201, 208, 264
-0.975144, 353, 73, 416, 136
-0.975162, 33, 145, 96, 208
-0.975241, 305, 225, 432, 288
-0.975309, 145, 1, 208, 256
-0.975495, 121, 17, 184, 80
-0.975545, 369, 177, 432, 240
-0.975565, 145, 249, 272, 312
-0.975652, 41, 209, 72, 272
-0.975709, 9, 177, 72, 240
-0.97587, 425, 9, 488, 72
-0.975938, 105, 17, 136, 144
-0.975971, 257, 41, 384, 104
-0.976016, 241, 153, 272, 216
-0.976028, 53, 201, 84, 264
-0.976034, 277, 233, 308, 296
-0.976105, 65, 121, 128, 184
-0.976132, 65, 177, 96, 304
-0.976162, 225, 129, 352, 192
-0.976193, 241, 217, 368, 280
-0.976211, 289, 249, 416, 312
-0.976334, 249, 41, 280, 104
-0.976359, 329, 129, 360, 256
-0.976519, 177, 1, 240, 256
-0.976519, 209, 65, 272, 320
-0.976522, 289, 33, 352, 96
-0.976585, 185, 273, 248, 333
-0.97659, 305, 185, 336, 248
-0.976608, 185, 217, 248, 280
-0.976657, 237, 201, 268, 264
-0.976764, 265, 89, 328, 152
-0.976769, 145, 225, 176, 288
-0.976803, 89, 1, 120, 128
-0.976842, 289, 33, 352, 288
-0.976938, 277, 193, 308, 320
-0.97698, 337, 265, 368, 328
-0.976996, 81, 177, 208, 240
-0.977014, 1, 33, 64, 96
-0.977022, 113, 225, 144, 288
-0.977039, 177, 193, 208, 320
-0.977061, 417, 81, 480, 144
-0.977069, 201, 41, 264, 104
-0.977106, 137, 161, 200, 224
-0.977133, 101, 193, 132, 320
-0.97715, 169, 65, 232, 128
-0.97719, 125, 193, 156, 256
-0.977251, 5, 249, 36, 312
-0.977262, 165, 201, 196, 264
-0.977321, 293, 1, 324, 128
-0.977327, 237, 145, 268, 272
-0.977338, 469, 129, 500, 256
-0.977362, 93, 185, 124, 248
-0.977407, 281, 121, 344, 184
-0.977415, 389, 193, 420, 256
-0.977477, 349, 129, 380, 256
-0.977477, 301, 193, 332, 320
-0.977487, 261, 225, 292, 288
-0.977488, 289, 145, 352, 208
-0.977503, 93, 33, 124, 96
-0.977542, 61, 225, 92, 288
-0.977677, 81, 225, 112, 288
-0.977708, 465, 1, 496, 128
-0.977727, 341, 209, 372, 333
-0.977875, 65, 185, 96, 248
-0.977939, 313, 81, 376, 144
-0.978136, 1, 9, 64, 72
-0.978143, 81, 33, 208, 96
-0.978201, 365, 1, 396, 128
-0.97821, 161, 49, 288, 112
-0.978297, 353, 241, 480, 304
-0.978315, 161, 225, 192, 288
-0.978395, 253, 153, 284, 216
-0.978478, 1, 209, 32, 333
-0.978494, 433, 169, 496, 232
-0.978524, 113, 257, 176, 320
-0.978524, 237, 209, 268, 333
-0.978535, 5, 1, 36, 128
-0.978573, 353, 273, 384, 333
-0.978585, 1, 113, 64, 240
-0.97859, 349, 185, 380, 248
-0.978681, 257, 97, 288, 224
-0.978711, 433, 241, 496, 304
-0.978719, 205, 241, 236, 304
-0.978829, 73, 145, 136, 208
-0.978849, 221, 1, 252, 128
-0.978861, 369, 209, 496, 272
-0.978866, 369, 201, 400, 264
-0.978874, 41, 65, 104, 320
-0.97888, 193, 201, 224, 264
-0.978928, 305, 41, 432, 104
-0.978972, 157, 177, 188, 304
-0.979007, 469, 49, 500, 112
-0.979102, 321, 153, 448, 216
-0.979108, 241, 265, 368, 328
-0.979164, 373, 17, 404, 80
-0.979241, 313, 225, 344, 288
-0.979356, 153, 193, 184, 256
-0.97938, 353, 49, 384, 112
-0.979396, 409, 25, 440, 88
-0.979401, 45, 233, 76, 296
-0.979447, 9, 145, 72, 208
-0.979486, 121, 249, 152, 312
-0.979498, 193, 233, 224, 296
-0.979524, 41, 121, 104, 184
-0.979538, 305, 129, 336, 256
-0.979611, 113, 177, 144, 304
-0.979625, 93, 249, 124, 312
-0.979665, 433, 81, 496, 208
-0.979672, 433, 145, 496, 208
-0.979699, 97, 225, 128, 288
-0.979726, 341, 41, 372, 104
-0.979738, 209, 105, 336, 168
-0.979751, 393, 233, 424, 296
-0.979768, 161, 1, 224, 64
-0.9798, 281, 57, 344, 120
-0.979843, 385, 1, 416, 128
-0.979929, 225, 177, 352, 240
-0.979949, 145, 257, 208, 320
-0.979986, 1, 17, 128, 80
-0.980033, 365, 249, 396, 312
-0.980041, 365, 193, 396, 320
-0.980075, 97, 249, 224, 312
-0.980149, 225, 1, 352, 64
-0.980182, 281, 145, 312, 272
-0.980267, 25, 25, 88, 88
-0.980372, 321, 265, 352, 328
-0.980377, 105, 185, 136, 248
-0.980424, 321, 113, 448, 176
-0.980452, 137, 65, 200, 128
-0.98046, 433, 1, 464, 128
-0.980486, 333, 161, 364, 224
-0.980498, 293, 177, 324, 240
-0.980529, 209, 209, 240, 333
-0.980552, 429, 1, 460, 64
-0.980569, 389, 1, 420, 64
-0.980583, 349, 1, 380, 64
-0.98059, 353, 209, 384, 333
-0.980637, 281, 1, 312, 128
-0.980652, 289, 233, 320, 296
-0.980671, 301, 233, 332, 296
-0.98072, 265, 65, 328, 320
-0.980749, 369, 17, 496, 80
-0.980778, 145, 137, 272, 200
-0.980783, 161, 25, 288, 88
-0.980849, 81, 65, 144, 320
-0.980865, 249, 225, 280, 288
-0.980909, 349, 33, 380, 160
-0.980947, 249, 1, 280, 128
-0.98095, 249, 17, 280, 80
-0.980968, 197, 65, 228, 192
-0.981009, 193, 209, 224, 333
-0.981043, 1, 161, 32, 288
-0.981044, 365, 57, 396, 120
-0.981061, 321, 177, 448, 240
-0.981114, 261, 1, 292, 128
-0.981135, 153, 137, 216, 200
-0.981157, 337, 113, 400, 176
-0.981205, 81, 25, 112, 88
-0.981219, 153, 1, 184, 128
-0.981293, 1, 161, 128, 224
-0.981296, 205, 185, 236, 248
-0.981404, 81, 185, 112, 248
-0.981413, 181, 129, 212, 256
-0.981422, 197, 161, 228, 288
-0.981491, 265, 265, 328, 328
-0.981497, 29, 209, 60, 333
-0.981537, 369, 161, 496, 224
-0.981561, 257, 121, 320, 184
-0.981616, 249, 65, 280, 128
-0.98162, 393, 161, 456, 224
-0.98163, 1, 225, 32, 288
-0.981637, 369, 273, 496, 333
-0.981667, 217, 81, 248, 208
-0.981686, 305, 17, 336, 144
-0.981741, 45, 129, 76, 256
-0.981753, 217, 249, 248, 312
-0.981759, 273, 121, 400, 184
-0.981787, 261, 25, 292, 88
-0.981835, 29, 273, 60, 333
-0.981848, 233, 265, 264, 328
-0.981895, 113, 25, 144, 88
-0.981895, 25, 241, 56, 304
-0.981961, 33, 137, 160, 200
-0.981983, 41, 209, 72, 333
-0.98199, 453, 193, 484, 320
-0.981995, 173, 225, 204, 288
-0.982005, 293, 145, 324, 272
-0.982024, 225, 161, 256, 288
-0.982037, 113, 1, 240, 64
-0.982111, 161, 105, 288, 168
-0.982114, 345, 137, 408, 200
-0.982152, 117, 17, 148, 144
-0.98217, 161, 1, 288, 64
-0.982207, 393, 185, 456, 248
-0.982223, 377, 1, 440, 256
-0.982244, 181, 105, 212, 168
-0.982278, 77, 1, 108, 128
-0.982285, 457, 193, 488, 256
-0.982321, 49, 249, 176, 312
-0.98233, 185, 137, 216, 200
-0.982404, 213, 161, 244, 288
-0.98244, 169, 33, 200, 96
-0.982478, 33, 41, 160, 104
-0.982572, 121, 169, 152, 232
-0.982622, 261, 49, 292, 112
-0.982629, 229, 97, 260, 224
-0.982699, 329, 25, 360, 88
-0.9827, 241, 65, 304, 320
-0.982731, 1, 1, 64, 256
-0.982745, 321, 1, 384, 64
-0.982799, 405, 233, 436, 296
-0.982802, 393, 193, 424, 320
-0.982841, 81, 249, 112, 312
-0.982886, 109, 249, 140, 312
-0.982923, 381, 217, 412, 280
-0.982948, 385, 129, 448, 192
-0.983058, 97, 153, 224, 216
-0.9831, 453, 81, 484, 144
-0.983151, 161, 81, 288, 144
-0.983222, 281, 49, 312, 112
-0.98325, 321, 1, 384, 333
-0.983251, 309, 81, 340, 208
-0.983292, 213, 25, 244, 88
-0.983307, 209, 1, 272, 333
-0.983311, 245, 89, 276, 152
-0.983368, 121, 1, 184, 333
-0.983417, 81, 65, 208, 128
-0.983481, 433, 41, 464, 104
-0.983503, 229, 241, 260, 304
-0.983534, 249, 201, 280, 264
-0.983607, 377, 177, 408, 304
-0.983618, 85, 49, 116, 176
-0.983644, 237, 41, 268, 104
-0.983664, 341, 241, 372, 304
-0.983675, 273, 65, 400, 128
-0.983677, 189, 57, 220, 120
-0.983687, 301, 209, 332, 272
-0.983751, 353, 49, 480, 112
-0.983768, 445, 41, 476, 104
-0.983784, 153, 249, 184, 312
-0.983787, 377, 273, 408, 333
-0.983877, 1, 273, 128, 333
-0.983913, 321, 161, 352, 224
-0.98394, 317, 145, 348, 272
-0.983955, 229, 177, 260, 240
-0.984046, 213, 137, 244, 200
-0.98413, 85, 145, 116, 272
-0.984154, 361, 1, 392, 64
-0.984174, 289, 209, 320, 333
-0.984205, 33, 49, 96, 112
-0.98423, 105, 65, 168, 320
-0.984241, 201, 81, 232, 144
-0.984265, 253, 249, 284, 312
-0.984276, 205, 209, 236, 272
-0.984289, 69, 249, 100, 312
-0.984347, 457, 129, 488, 256
-0.984359, 197, 161, 228, 224
-0.984396, 289, 49, 320, 176
-0.984404, 361, 1, 424, 333
-0.984426, 337, 73, 464, 136
-0.984448, 97, 105, 224, 168
-0.984473, 169, 1, 232, 333
-0.984496, 353, 249, 384, 312
-0.984538, 193, 257, 320, 320
-0.984726, 249, 209, 280, 333
-0.98473, 233, 1, 264, 64
-0.9848, 165, 65, 196, 192
-0.984802, 209, 25, 336, 88
-0.984838, 177, 201, 208, 264
-0.984849, 429, 49, 460, 176
-0.98485, 225, 209, 256, 272
-0.984873, 409, 129, 440, 192
-0.98488, 65, 129, 96, 256
-0.984933, 417, 49, 448, 176
-0.984984, 149, 169, 180, 232
-0.985002, 241, 1, 304, 333
-0.985003, 177, 17, 208, 144
-0.985026, 97, 145, 128, 272
-0.985035, 397, 1, 428, 128
-0.98507, 121, 49, 152, 112
-0.98507, 297, 49, 328, 112
-0.985156, 209, 49, 336, 112
-0.985183, 469, 145, 500, 208
-0.985204, 365, 169, 396, 232
-0.985221, 237, 17, 268, 144
-0.985285, 105, 161, 136, 224
-0.985287, 221, 1, 252, 64
-0.985304, 193, 1, 224, 128
-0.985314, 257, 129, 288, 192
-0.985317, 169, 145, 200, 272
-0.985331, 397, 25, 428, 88
-0.985353, 33, 161, 64, 288
-0.985387, 133, 249, 164, 312
-0.985402, 205, 1, 236, 64
-0.985433, 81, 49, 112, 112
-0.985593, 265, 1, 328, 333
-0.985642, 209, 33, 240, 160
-0.985719, 369, 121, 496, 184
-0.985743, 25, 1, 56, 128
-0.986025, 273, 17, 400, 80
-0.986089, 225, 81, 352, 144
-0.986243, 33, 49, 96, 176
-0.986295, 73, 1, 136, 333
-0.98639, 317, 17, 348, 144
-0.986417, 253, 49, 284, 176
-0.986535, 401, 49, 432, 176
-0.986546, 361, 97, 392, 224
-0.986629, 417, 1, 448, 128
-0.986686, 269, 129, 300, 256
-0.986705, 297, 1, 360, 333
-0.986757, 337, 1, 368, 128
-0.986792, 405, 113, 436, 240
-0.986859, 157, 129, 188, 256
-0.986888, 449, 33, 480, 160
-0.986907, 81, 129, 208, 192
-0.986935, 273, 97, 400, 160
-0.987152, 349, 81, 380, 208
-0.987182, 205, 113, 236, 240
-0.987204, 365, 49, 396, 176
-0.98727, 33, 113, 160, 176
-0.987328, 269, 81, 300, 208
-0.98735, 33, 65, 160, 128
-0.987471, 465, 193, 496, 320
-0.987629, 445, 113, 476, 240
-0.987678, 181, 81, 212, 208
-0.987685, 113, 65, 144, 192
-0.98769, 37, 1, 68, 128
-0.987755, 129, 129, 160, 256
-0.987794, 389, 97, 420, 224
-0.987927, 221, 209, 252, 333
-0.987932, 361, 145, 392, 272
-0.988033, 5, 49, 36, 176
-0.988072, 65, 1, 192, 64
-0.988306, 17, 209, 48, 333
-0.988387, 241, 189, 304, 220
-0.988473, 441, 193, 472, 320
-0.98862, 313, 181, 376, 212
-0.988682, 417, 1, 480, 333
-0.988761, 65, 233, 320, 296
-0.988788, 413, 177, 444, 304
-0.988794, 297, 201, 360, 232
-0.988796, 89, 185, 152, 216
-0.988821, 129, 201, 384, 264
-0.988856, 25, 237, 88, 268
-0.988885, 93, 97, 124, 224
-0.988887, 273, 225, 336, 256
-0.988978, 329, 197, 392, 228
-0.988991, 249, 209, 312, 240
-0.989008, 425, 113, 456, 240
-0.98903, 97, 1, 160, 333
-0.989064, 281, 189, 344, 220
-0.989147, 313, 161, 376, 192
-0.989186, 193, 113, 224, 240
-0.989215, 41, 201, 104, 232
-0.989272, 129, 197, 192, 228
-0.989332, 461, 49, 492, 176
-0.989351, 293, 97, 324, 224
-0.989379, 109, 129, 140, 256
-0.989408, 305, 221, 368, 252
-0.989412, 97, 173, 160, 204
-0.989426, 65, 249, 128, 280
-0.989432, 353, 13, 416, 44
-0.989446, 65, 189, 128, 220
-0.989457, 169, 205, 232, 236
-0.989462, 273, 177, 336, 208
-0.989463, 89, 45, 152, 76
-0.989465, 209, 201, 272, 232
-0.989479, 105, 249, 168, 280
-0.989486, 169, 233, 232, 264
-0.989507, 225, 225, 480, 288
-0.989512, 377, 129, 408, 256
-0.989606, 305, 37, 368, 68
-0.989615, 141, 1, 172, 128
-0.989665, 1, 245, 64, 276
-0.989667, 201, 185, 264, 216
-0.989829, 401, 221, 464, 252
-0.989835, 25, 49, 56, 176
-0.989846, 81, 209, 144, 240
-0.989849, 49, 273, 176, 333
-0.989849, 337, 181, 400, 212
-0.98988, 321, 273, 384, 304
-0.989891, 161, 49, 224, 80
-0.989923, 233, 89, 296, 120
-0.98994, 49, 237, 112, 268
-0.989949, 393, 29, 456, 60
-0.989974, 369, 97, 496, 160
-0.989995, 41, 213, 104, 244
-0.989999, 25, 301, 88, 332
-0.99, 217, 157, 280, 188
-0.990038, 273, 33, 336, 64
-0.990071, 177, 1, 240, 32
-0.990071, 273, 237, 336, 268
-0.990075, 49, 1, 112, 333
-0.99009, 129, 185, 192, 216
-0.990109, 129, 249, 192, 280
-0.990124, 153, 189, 216, 220
-0.990145, 105, 197, 168, 228
-0.990153, 369, 229, 432, 260
-0.990171, 313, 285, 376, 316
-0.990193, 249, 225, 312, 256
-0.990194, 361, 205, 424, 236
-0.990209, 385, 1, 448, 333
-0.99021, 273, 201, 336, 232
-0.990226, 17, 181, 80, 212
-0.990226, 17, 225, 80, 256
-0.99026, 329, 29, 392, 60
-0.990275, 105, 209, 168, 240
-0.99029, 433, 1, 496, 32
-0.990313, 41, 189, 104, 220
-0.990322, 33, 89, 160, 152
-0.990329, 257, 201, 500, 264
-0.990344, 1, 293, 64, 324
-0.990346, 209, 85, 272, 116
-0.990369, 225, 225, 288, 256
-0.99039, 281, 213, 344, 244
-0.990393, 337, 213, 400, 244
-0.990404, 209, 173, 272, 204
-0.990407, 345, 269, 408, 300
-0.990409, 257, 85, 320, 116
-0.990419, 353, 1, 416, 32
-0.990429, 121, 225, 184, 256
-0.990443, 49, 177, 112, 208
-0.990447, 377, 1, 440, 32
-0.990467, 17, 213, 80, 244
-0.990485, 241, 237, 304, 268
-0.990492, 345, 285, 408, 316
-0.990496, 145, 217, 208, 248
-0.990496, 161, 61, 224, 92
-0.990513, 1, 269, 64, 300
-0.990518, 1, 1, 64, 333
-0.990524, 433, 49, 496, 80
-0.990551, 129, 49, 192, 80
-0.990557, 145, 261, 208, 292
-0.990562, 329, 57, 392, 88
-0.990581, 185, 37, 248, 68
-0.990614, 1, 201, 64, 232
-0.990614, 265, 97, 328, 128
-0.990618, 313, 17, 376, 48
-0.990618, 361, 193, 424, 224
-0.990621, 433, 21, 496, 52
-0.990623, 33, 209, 288, 272
-0.990626, 361, 33, 424, 64
-0.990628, 209, 33, 272, 64
-0.990628, 393, 237, 456, 268
-0.990638, 153, 177, 216, 208
-0.990638, 353, 61, 416, 92
-0.990641, 57, 225, 120, 256
-0.990646, 337, 165, 400, 196
-0.990658, 129, 237, 192, 268
-0.990696, 153, 245, 216, 276
-0.990726, 145, 273, 272, 333
-0.990758, 145, 1, 208, 333
-0.99076, 185, 49, 248, 80
-0.990771, 369, 217, 432, 248
-0.990795, 201, 65, 264, 96
-0.990798, 401, 293, 464, 324
-0.990806, 193, 237, 256, 268
-0.990811, 321, 149, 384, 180
-0.990828, 433, 33, 496, 64
-0.990829, 369, 277, 432, 308
-0.99083, 289, 1, 352, 32
-0.990837, 217, 269, 280, 300
-0.990839, 377, 49, 408, 176
-0.990849, 89, 57, 152, 88
-0.990858, 313, 301, 376, 332
-0.990861, 25, 257, 88, 288
-0.990867, 177, 153, 240, 184
-0.990871, 425, 161, 488, 192
-0.990875, 393, 17, 456, 48
-0.99088, 1, 1, 64, 32
-0.990885, 209, 53, 272, 84
-0.990889, 273, 21, 336, 52
-0.990892, 49, 41, 112, 72
-0.990893, 1, 193, 500, 256
-0.990896, 193, 249, 448, 312
-0.990903, 393, 145, 424, 272
-0.990908, 329, 45, 392, 76
-0.990916, 217, 237, 280, 268
-0.99092, 209, 137, 272, 168
-0.990931, 145, 129, 176, 256
-0.990936, 313, 1, 376, 32
-0.990936, 361, 45, 424, 76
-0.990942, 177, 137, 240, 168
-0.990954, 257, 157, 320, 188
-0.990956, 169, 25, 232, 56
-0.990958, 201, 221, 264, 252
-0.99096, 321, 81, 352, 208
-0.990961, 169, 217, 232, 248
-0.990972, 265, 53, 328, 84
-0.99099, 337, 65, 368, 192
-0.991017, 265, 5, 328, 36
-0.991021, 169, 165, 232, 196
-0.991023, 1, 249, 500, 312
-0.991025, 217, 13, 280, 44
-0.991031, 433, 193, 496, 224
-0.99107, 289, 269, 352, 300
-0.991071, 297, 145, 360, 176
-0.991086, 305, 233, 368, 264
-0.991165, 65, 177, 320, 240
-0.991189, 73, 49, 104, 176
-0.991291, 17, 161, 48, 288
-0.991606, 425, 193, 456, 320
-0.991647, 1, 257, 256, 320
-0.991855, 65, 137, 320, 200
-0.991913, 193, 161, 448, 224
-0.991979, 257, 25, 500, 88
-0.992014, 241, 193, 368, 224
-0.992021, 61, 65, 92, 192
-0.992043, 1, 273, 500, 333
-0.992063, 165, 1, 196, 128
-0.992137, 257, 189, 288, 220
-0.992181, 289, 221, 320, 252
-0.992191, 273, 201, 304, 232
-0.992199, 337, 197, 368, 228
-0.992222, 129, 193, 160, 224
-0.992242, 53, 237, 84, 268
-0.992269, 89, 189, 120, 220
-0.99227, 241, 193, 272, 224
-0.99228, 197, 201, 228, 232
-0.992292, 337, 209, 368, 240
-0.992307, 129, 25, 384, 88
-0.992329, 229, 201, 260, 232
-0.992332, 13, 289, 44, 320
-0.992334, 325, 209, 356, 240
-0.992344, 213, 197, 244, 228
-0.992351, 141, 193, 172, 224
-0.992361, 269, 213, 300, 244
-0.992388, 257, 205, 288, 236
-0.992391, 349, 193, 380, 224
-0.992405, 325, 193, 356, 224
-0.992419, 337, 285, 368, 316
-0.992435, 89, 249, 120, 280
-0.992449, 1, 289, 32, 320
-0.99245, 85, 41, 116, 72
-0.992451, 117, 181, 148, 212
-0.992464, 469, 185, 500, 216
-0.992468, 105, 249, 136, 280
-0.992471, 137, 181, 168, 212
-0.992473, 361, 197, 392, 228
-0.992494, 289, 205, 320, 236
-0.992503, 337, 181, 368, 212
-0.992507, 241, 157, 272, 188
-0.992511, 5, 273, 36, 304
-0.992512, 169, 229, 200, 260
-0.992515, 77, 249, 108, 280
-0.992525, 269, 189, 300, 220
-0.992531, 321, 181, 352, 212
-0.992537, 105, 41, 136, 72
-0.992545, 149, 233, 180, 264
-0.992547, 373, 269, 404, 300
-0.992555, 157, 189, 188, 220
-0.992568, 133, 249, 164, 280
-0.992577, 117, 249, 148, 280
-0.992578, 153, 253, 184, 284
-0.992589, 309, 217, 340, 248
-0.992596, 357, 53, 388, 84
-0.992598, 185, 137, 216, 168
-0.992599, 345, 161, 376, 192
-0.992602, 161, 217, 192, 248
-0.992602, 241, 213, 272, 244
-0.992608, 45, 205, 76, 236
-0.992608, 33, 301, 64, 332
-0.992608, 357, 41, 388, 72
-0.992608, 101, 185, 132, 216
-0.992614, 185, 201, 216, 232
-0.992622, 193, 197, 320, 228
-0.992623, 1, 233, 32, 264
-0.992624, 349, 181, 380, 212
-0.992624, 17, 245, 48, 276
-0.992627, 341, 269, 372, 300
-0.992632, 253, 221, 284, 252
-0.992634, 81, 177, 112, 208
-0.992645, 353, 269, 384, 300
-0.992649, 89, 201, 120, 232
-0.992652, 65, 245, 96, 276
-0.992653, 313, 33, 344, 64
-0.992656, 277, 229, 308, 260
-0.992657, 89, 29, 120, 60
-0.992669, 113, 53, 144, 84
-0.992671, 93, 53, 124, 84
-0.992671, 169, 45, 200, 76
-0.992676, 377, 189, 408, 220
-0.992682, 137, 209, 168, 240
-0.992687, 309, 181, 340, 212
-0.992692, 325, 289, 356, 320
-0.992693, 301, 29, 332, 60
-0.992702, 325, 25, 356, 56
-0.992702, 53, 225, 84, 256
-0.992705, 353, 285, 384, 316
-0.99271, 297, 1, 328, 32
-0.99271, 209, 185, 240, 216
-0.992712, 193, 237, 224, 268
-0.992714, 65, 193, 96, 224
-0.992719, 381, 13, 412, 44
-0.99272, 349, 29, 380, 60
-0.992726, 393, 13, 424, 44
-0.99273, 237, 85, 268, 116
-0.992731, 217, 29, 248, 60
-0.992732, 349, 209, 380, 240
-0.992739, 101, 209, 132, 240
-0.992739, 237, 33, 268, 64
-0.992739, 213, 209, 244, 240
-0.992745, 253, 157, 284, 188
-0.992751, 197, 125, 228, 156
-0.99276, 405, 225, 436, 256
-0.99276, 261, 233, 292, 264
-0.992765, 389, 201, 420, 232
-0.992765, 181, 225, 212, 256
-0.992769, 201, 213, 232, 244
-0.992772, 309, 9, 340, 40
-0.992774, 469, 149, 500, 180
-0.992777, 401, 25, 432, 56
-0.992779, 301, 201, 332, 232
-0.992779, 301, 237, 332, 268
-0.992782, 225, 269, 256, 300
-0.992784, 117, 201, 148, 232
-0.992796, 469, 169, 500, 200
-0.992797, 365, 65, 396, 96
-0.992797, 397, 277, 428, 308
-0.992803, 469, 301, 500, 332
-0.992808, 465, 45, 496, 76
-0.992812, 161, 241, 192, 272
-0.992813, 217, 17, 248, 48
-0.992815, 117, 41, 148, 72
-0.992817, 285, 193, 316, 224
-0.992823, 289, 233, 320, 264
-0.992824, 105, 173, 136, 204
-0.992824, 101, 197, 132, 228
-0.992833, 345, 149, 376, 180
-0.992834, 337, 37, 368, 68
-0.992835, 361, 185, 392, 216
-0.992836, 165, 253, 196, 284
-0.992844, 313, 201, 344, 232
-0.992848, 249, 89, 280, 120
-0.992859, 197, 185, 228, 216
-0.992862, 317, 229, 348, 260
-0.992866, 357, 165, 388, 196
-0.992869, 365, 9, 396, 40
-0.992878, 13, 1, 44, 32
-0.992885, 33, 225, 64, 256
-0.992885, 373, 201, 404, 232
-0.992887, 241, 145, 272, 176
-0.993002, 1, 217, 500, 280
-0.993006, 209, 229, 336, 260
-0.993114, 77, 97, 108, 224
-0.993184, 97, 97, 352, 160
-0.993199, 97, 49, 352, 112
-0.993244, 65, 249, 192, 280
-0.993248, 289, 217, 416, 248
-0.993293, 225, 209, 352, 240
-0.993307, 389, 49, 420, 176
-0.993347, 25, 273, 40, 333
-0.993393, 225, 1, 480, 64
-0.993438, 305, 197, 432, 228
-0.99349, 145, 237, 272, 268
-0.9935, 81, 189, 208, 220
-0.993659, 225, 65, 480, 128
-0.993671, 145, 197, 272, 228
-0.99371, 1, 161, 500, 224
-0.993762, 341, 273, 356, 333
-0.993801, 225, 273, 480, 333
-0.993832, 145, 185, 160, 248
-0.993918, 329, 185, 344, 248
-0.993964, 475, 177, 490, 240
-0.994031, 273, 177, 400, 208
-0.994067, 57, 209, 72, 272
-0.994067, 161, 129, 416, 192
-0.994075, 307, 233, 322, 296
-0.994082, 297, 209, 312, 272
-0.994091, 177, 217, 304, 248
-0.994097, 261, 161, 276, 224
-0.994109, 129, 209, 256, 240
-0.994123, 129, 1, 384, 64
-0.994136, 99, 185, 114, 248
-0.994202, 49, 229, 176, 260
-0.994228, 257, 129, 500, 192
-0.994234, 355, 273, 370, 333
-0.994244, 265, 185, 280, 248
-0.994247, 25, 1, 88, 333
-0.99426, 33, 193, 160, 224
-0.994265, 137, 193, 152, 256
-0.994271, 97, 73, 352, 136
-0.994283, 341, 185, 356, 248
-0.994283, 369, 201, 496, 232
-0.994284, 1, 65, 256, 128
-0.994285, 151, 193, 166, 256
-0.99431, 145, 185, 272, 216
-0.994325, 11, 265, 26, 328
-0.994333, 255, 153, 270, 216
-0.994351, 289, 229, 416, 260
-0.994383, 375, 201, 390, 264
-0.994384, 285, 193, 300, 256
-0.994432, 87, 17, 102, 80
-0.994432, 1, 1, 256, 64
-0.994443, 335, 185, 350, 248
-0.994452, 321, 277, 448, 308
-0.99446, 257, 145, 384, 176
-0.994472, 271, 209, 286, 272
-0.994474, 1, 241, 128, 272
-0.9945, 19, 249, 34, 312
-0.994519, 281, 233, 296, 296
-0.994529, 347, 265, 362, 328
-0.994546, 279, 201, 294, 264
-0.994549, 287, 233, 302, 296
-0.994562, 351, 33, 366, 96
-0.994568, 257, 193, 272, 256
-0.994587, 253, 41, 268, 104
-0.994597, 369, 25, 384, 88
-0.994598, 251, 185, 266, 248
-0.994616, 65, 205, 192, 236
-0.99465, 357, 41, 372, 104
-0.994662, 209, 1, 336, 32
-0.994685, 145, 225, 160, 288
-0.994694, 19, 273, 34, 333
-0.994712, 485, 169, 500, 232
-0.994732, 305, 289, 432, 320
-0.994736, 363, 33, 378, 96
-0.994743, 377, 249, 392, 312
-0.994744, 225, 89, 480, 152
-0.994749, 97, 25, 112, 88
-0.994781, 385, 209, 400, 272
-0.994785, 81, 177, 208, 208
-0.99479, 93, 185, 108, 248
-0.994808, 99, 225, 114, 288
-0.994836, 1, 265, 16, 328
-0.994838, 369, 181, 496, 212
-0.994855, 369, 1, 496, 32
-0.99487, 255, 225, 270, 288
-0.994871, 203, 233, 218, 296
-0.994879, 481, 33, 496, 96
-0.994879, 153, 233, 168, 296
-0.994887, 63, 233, 78, 296
-0.994889, 339, 161, 354, 224
-0.994896, 307, 201, 322, 264
-0.9949, 159, 225, 174, 288
-0.994904, 467, 201, 482, 264
-0.994914, 225, 241, 352, 272
-0.994935, 337, 37, 464, 68
-0.994943, 269, 41, 284, 104
-0.994957, 405, 233, 420, 296
-0.994971, 139, 217, 154, 280
-0.994973, 199, 209, 214, 272
-0.994978, 301, 233, 316, 296
-0.994982, 209, 233, 224, 296
-0.994999, 125, 209, 140, 272
-0.995003, 333, 161, 348, 224
-0.995014, 85, 225, 100, 288
-0.995019, 165, 225, 180, 288
-0.995027, 321, 181, 448, 212
-0.995037, 325, 209, 340, 272
-0.995043, 249, 153, 264, 216
-0.99505, 33, 217, 160, 248
-0.995051, 261, 33, 276, 96
-0.995068, 145, 249, 272, 280
-0.99507, 219, 241, 234, 304
-0.995071, 131, 225, 146, 288
-0.995086, 63, 201, 78, 264
-0.995092, 225, 181, 352, 212
-0.995097, 97, 273, 224, 333
-0.9951, 245, 193, 260, 256
-0.995107, 343, 25, 358, 88
-0.995108, 313, 225, 328, 288
-0.995113, 369, 213, 496, 244
-0.995131, 1, 181, 128, 212
-0.995139, 349, 169, 364, 232
-0.995139, 289, 1, 416, 32
-0.995153, 291, 209, 306, 272
-0.995156, 289, 45, 416, 76
-0.995174, 71, 217, 86, 280
-0.995183, 383, 185, 398, 248
-0.995184, 221, 1, 236, 64
-0.995196, 323, 177, 338, 240
-0.995196, 1, 41, 256, 104
-0.995229, 321, 21, 448, 52
-0.995231, 335, 209, 350, 272
-0.995234, 91, 249, 106, 312
-0.995239, 115, 225, 130, 288
-0.995246, 231, 193, 246, 256
-0.995267, 69, 241, 84, 304
-0.995268, 437, 33, 452, 96
-0.995277, 275, 233, 290, 296
-0.995327, 369, 25, 496, 56
-0.995346, 337, 165, 464, 196
-0.995352, 105, 209, 120, 272
-0.995353, 177, 185, 192, 248
-0.995404, 307, 177, 322, 240
-0.995412, 177, 81, 304, 112
-0.995413, 241, 153, 256, 216
-0.99542, 225, 169, 352, 200
-0.995422, 91, 225, 106, 288
-0.995423, 371, 57, 386, 120
-0.995444, 17, 265, 144, 296
-0.995445, 97, 237, 224, 268
-0.995451, 289, 161, 416, 192
-0.995452, 1, 105, 256, 168
-0.995469, 241, 269, 368, 300
-0.995469, 401, 9, 416, 72
-0.99547, 177, 137, 304, 168
-0.995473, 335, 265, 350, 328
-0.995482, 317, 33, 332, 96
-0.995495, 481, 145, 496, 208
-0.995505, 225, 249, 240, 312
-0.995512, 411, 25, 426, 88
-0.995512, 261, 233, 276, 296
-0.995514, 81, 49, 208, 80
-0.995515, 161, 157, 288, 188
-0.995521, 389, 249, 404, 312
-0.995521, 75, 241, 90, 304
-0.995523, 367, 249, 382, 312
-0.995528, 321, 117, 448, 148
-0.995532, 411, 217, 426, 280
-0.995533, 31, 265, 46, 328
-0.995542, 183, 145, 198, 208
-0.995545, 17, 205, 144, 236
-0.995547, 319, 217, 334, 280
-0.995573, 3, 217, 18, 280
-0.995575, 9, 241, 24, 304
-0.995581, 17, 165, 144, 196
-0.995593, 369, 185, 384, 248
-0.995605, 363, 185, 378, 248
-0.995609, 125, 233, 140, 296
-0.995622, 317, 177, 332, 240
-0.995624, 209, 13, 336, 44
-0.995634, 477, 265, 492, 328
-0.995638, 369, 225, 496, 256
-0.995641, 123, 25, 138, 88
-0.995659, 97, 249, 112, 312
-0.995661, 275, 33, 290, 96
-0.995675, 405, 201, 420, 264
-0.995678, 379, 33, 394, 96
-0.995683, 271, 185, 286, 248
-0.995685, 391, 1, 406, 64
-0.99569, 393, 273, 408, 333
-0.995697, 371, 273, 386, 333
-0.995704, 391, 193, 406, 256
-0.99571, 97, 145, 224, 176
-0.995721, 471, 25, 486, 88
-0.995721, 361, 73, 376, 136
-0.995735, 265, 209, 280, 272
-0.995737, 383, 233, 398, 296
-0.995738, 131, 249, 146, 312
-0.99574, 361, 1, 376, 64
-0.99574, 129, 225, 256, 256
-0.995742, 241, 157, 368, 188
-0.995745, 209, 161, 224, 224
-0.995753, 403, 273, 418, 333
-0.995757, 113, 249, 128, 312
-0.995758, 1, 253, 128, 284
-0.995807, 81, 217, 208, 248
-0.995843, 257, 17, 384, 48
-0.995856, 145, 33, 272, 64
-0.995871, 289, 301, 416, 332
-0.995878, 97, 257, 352, 320
-0.995916, 161, 169, 288, 200
-0.995943, 161, 17, 288, 48
-0.99595, 1, 29, 128, 60
-0.99595, 337, 145, 464, 176
-0.995979, 81, 133, 208, 164
-0.995989, 241, 29, 368, 60
-0.996032, 369, 13, 496, 44
-0.996041, 289, 73, 416, 104
-0.996063, 113, 269, 240, 300
-0.996067, 225, 53, 352, 84
-0.996084, 305, 133, 432, 164
-0.996086, 209, 105, 336, 136
-0.996127, 337, 53, 464, 84
-0.996141, 129, 97, 256, 128
-0.996158, 353, 297, 480, 328
-0.996183, 33, 41, 160, 72
-0.996186, 1, 1, 128, 32
-0.996186, 1, 9, 500, 72
-0.996187, 97, 81, 224, 112
-0.996188, 1, 229, 128, 260
-0.996194, 33, 57, 160, 88
-0.996218, 145, 69, 272, 100
-0.996303, 273, 117, 400, 148
-0.996306, 305, 97, 432, 128
-0.996325, 321, 265, 448, 296
-0.996329, 65, 165, 192, 196
-0.996346, 33, 153, 160, 184
-0.996367, 113, 157, 240, 188
-0.996369, 129, 1, 256, 32
-0.99639, 273, 61, 400, 92
-0.996416, 353, 81, 480, 112
-0.996419, 289, 33, 416, 64
-0.996427, 1, 65, 500, 128
-0.996437, 369, 273, 496, 304
-0.996442, 141, 193, 156, 224
-0.996458, 145, 57, 272, 88
-0.996483, 225, 125, 352, 156
-0.996497, 225, 85, 352, 116
-0.996508, 193, 269, 320, 300
-0.996517, 1, 137, 500, 200
-0.996521, 161, 45, 288, 76
-0.99653, 305, 241, 432, 272
-0.996544, 33, 129, 160, 160
-0.996554, 369, 65, 496, 96
-0.996557, 81, 65, 208, 96
-0.996619, 369, 1, 400, 256
-0.996642, 209, 69, 336, 100
-0.996645, 273, 257, 400, 288
-0.996668, 193, 257, 320, 288
-0.996676, 81, 21, 208, 52
-0.996677, 257, 97, 384, 128
-0.996682, 281, 197, 296, 228
-0.996721, 65, 117, 192, 148
-0.996725, 97, 33, 224, 64
-0.996747, 297, 217, 312, 248
-0.996772, 369, 285, 496, 316
-0.996802, 381, 201, 396, 232
-0.996827, 369, 101, 496, 132
-0.996828, 17, 17, 144, 48
-0.996831, 145, 125, 272, 156
-0.996833, 369, 257, 496, 288
-0.996834, 357, 1, 388, 256
-0.996836, 341, 197, 356, 228
-0.996838, 33, 141, 160, 172
-0.996846, 333, 65, 364, 320
-0.996847, 177, 93, 304, 124
-0.996847, 375, 197, 390, 228
-0.996854, 369, 129, 496, 160
-0.996881, 99, 181, 114, 212
-0.996913, 217, 1, 248, 256
-0.996945, 353, 237, 480, 268
-0.99697, 193, 33, 320, 64
-0.996981, 305, 33, 336, 288
-0.996982, 255, 201, 270, 232
-0.996984, 65, 261, 192, 292
-0.997027, 257, 285, 384, 316
-0.99708, 247, 197, 262, 228
-0.997093, 1, 33, 500, 96
-0.997097, 329, 201, 344, 232
-0.997104, 173, 65, 204, 320
-0.99712, 287, 229, 302, 260
-0.997123, 93, 193, 108, 224
-0.997144, 207, 205, 222, 236
-0.997151, 1, 113, 500, 176
-0.99716, 369, 117, 496, 148
-0.997173, 257, 157, 272, 188
-0.99718, 249, 33, 280, 288
-0.997185, 345, 289, 360, 320
-0.9972, 163, 233, 178, 264
-0.997203, 337, 185, 352, 216
-0.997208, 151, 193, 166, 224
-0.99721, 135, 209, 150, 240
-0.997211, 233, 197, 248, 228
-0.997215, 347, 193, 362, 224
-0.99724, 317, 33, 332, 64
-0.997242, 233, 1, 264, 256
-0.997244, 393, 1, 424, 256
-0.997262, 323, 181, 338, 212
-0.997268, 241, 197, 256, 228
-0.997277, 265, 209, 280, 240
-0.9973, 67, 237, 82, 268
-0.997305, 369, 193, 384, 224
-0.997305, 411, 281, 426, 312
-0.997309, 241, 41, 368, 72
-0.997319, 291, 201, 306, 232
-0.997321, 141, 181, 156, 212
-0.997323, 131, 193, 146, 224
-0.997325, 249, 209, 264, 240
-0.997328, 339, 209, 354, 240
-0.997336, 193, 65, 224, 320
-0.99734, 75, 245, 90, 276
-0.99734, 313, 101, 328, 132
-0.997351, 99, 249, 114, 280
-0.997359, 89, 249, 104, 280
-0.997362, 141, 209, 156, 240
-0.997363, 103, 193, 118, 224
-0.997373, 347, 269, 362, 300
-0.997378, 271, 189, 286, 220
-0.997392, 3, 289, 18, 320
-0.997394, 287, 217, 302, 248
-0.997396, 331, 189, 346, 220
-0.997405, 349, 161, 364, 192
-0.997419, 357, 277, 372, 308
-0.997422, 157, 1, 188, 256
-0.997425, 109, 249, 124, 280
-0.997426, 483, 21, 498, 52
-0.997436, 309, 221, 324, 252
-0.997437, 225, 193, 240, 224
-0.997441, 469, 1, 500, 256
-0.997445, 307, 1, 322, 32
-0.997452, 41, 65, 72, 320
-0.997457, 307, 173, 322, 204
-0.997461, 33, 69, 160, 100
-0.997472, 375, 269, 390, 300
-0.997473, 199, 201, 214, 232
-0.997473, 351, 289, 366, 320
-0.997482, 301, 229, 316, 260
-0.997489, 109, 205, 124, 236
-0.997492, 381, 189, 396, 220
-0.997495, 381, 213, 396, 244
-0.997501, 249, 157, 264, 188
-0.997507, 363, 165, 378, 196
-0.997508, 309, 233, 324, 264
-0.997509, 205, 33, 236, 288
-0.997515, 117, 249, 132, 280
-0.997517, 339, 281, 354, 312
-0.997518, 81, 5, 208, 36
-0.997518, 253, 189, 268, 220
-0.997519, 275, 205, 290, 236
-0.99752, 213, 193, 228, 224
-0.997521, 157, 229, 172, 260
-0.997522, 407, 25, 422, 56
-0.997537, 25, 289, 40, 320
-0.99754, 1, 65, 32, 320
-0.997544, 255, 221, 270, 252
-0.997544, 375, 209, 390, 240
-0.997548, 85, 193, 100, 224
-0.99755, 95, 41, 110, 72
-0.997558, 169, 237, 184, 268
-0.997559, 101, 209, 116, 240
-0.997567, 207, 185, 222, 216
-0.99757, 223, 205, 238, 236
-0.997571, 323, 209, 338, 240
-0.997573, 21, 273, 36, 304
-0.997574, 89, 65, 120, 320
-0.997574, 363, 193, 378, 224
-0.997587, 303, 213, 318, 244
-0.997588, 279, 237, 294, 268
-0.997595, 387, 205, 402, 236
-0.997596, 117, 65, 148, 320
-0.997603, 369, 53, 384, 84
-0.997611, 483, 57, 498, 88
-0.997612, 437, 37, 452, 68
-0.997616, 59, 225, 74, 256
-0.997616, 389, 1, 404, 32
-0.997618, 285, 65, 316, 320
-0.997622, 261, 33, 292, 288
-0.997623, 249, 85, 264, 116
-0.997626, 229, 269, 244, 300
-0.997636, 215, 209, 230, 240
-0.99764, 367, 65, 382, 96
-0.997648, 451, 213, 466, 244
-0.99765, 365, 273, 380, 304
-0.997655, 333, 293, 348, 324
-0.997657, 265, 189, 280, 220
-0.997658, 351, 213, 366, 244
-0.997659, 411, 229, 426, 260
-0.997666, 125, 249, 140, 280
-0.997666, 357, 161, 372, 192
-0.997669, 135, 181, 150, 212
-0.997671, 383, 1, 398, 32
-0.997673, 259, 189, 274, 220
-0.997683, 129, 213, 144, 244
-0.997688, 129, 49, 144, 80
-0.997692, 257, 169, 272, 200
-0.997697, 161, 249, 176, 280
-0.997703, 467, 185, 482, 216
-0.997703, 363, 41, 378, 72
-0.99771, 95, 205, 110, 236
-0.997716, 1, 277, 16, 308
-0.997718, 181, 221, 196, 252
-0.99772, 81, 249, 96, 280
-0.997723, 133, 249, 148, 280
-0.997727, 123, 209, 138, 240
-0.997731, 475, 181, 490, 212
-0.997733, 359, 53, 374, 84
-0.997735, 199, 233, 214, 264
-0.997736, 1, 277, 128, 308
-0.997738, 261, 29, 276, 60
-0.997742, 309, 185, 324, 216
-0.997744, 333, 213, 348, 244
-0.997746, 343, 177, 358, 208
-0.997747, 81, 93, 208, 124
-0.99775, 51, 201, 66, 232
-0.99775, 151, 181, 166, 212
-0.997756, 241, 297, 368, 328
-0.99776, 453, 1, 484, 256
-0.997764, 183, 145, 198, 176
-0.997766, 293, 229, 308, 260
-0.997767, 211, 221, 226, 252
-0.997769, 55, 213, 70, 244
-0.99777, 105, 181, 120, 212
-0.997882, 49, 105, 176, 136
-0.997888, 69, 65, 100, 320
-0.99791, 421, 1, 452, 256
-0.997912, 409, 65, 440, 320
-0.997915, 1, 89, 500, 152
-0.997953, 321, 1, 352, 256
-0.997969, 381, 1, 412, 256
-0.997992, 101, 65, 132, 320
-0.998142, 25, 33, 56, 288
-0.998289, 141, 65, 172, 320
-0.998296, 345, 1, 376, 256
-0.998321, 89, 189, 152, 204
-0.998333, 129, 65, 160, 320
-0.998362, 433, 33, 464, 288
-0.998379, 241, 191, 304, 206
-0.99838, 25, 239, 88, 254
-0.998386, 337, 199, 400, 214
-0.998387, 265, 235, 328, 250
-0.99841, 337, 193, 400, 208
-0.998412, 161, 237, 224, 252
-0.998414, 297, 193, 360, 208
-0.998416, 297, 219, 360, 234
-0.998426, 313, 33, 376, 48
-0.998427, 105, 195, 168, 210
-0.998429, 241, 209, 304, 224
-0.998433, 313, 199, 376, 214
-0.998438, 209, 199, 272, 214
-0.998442, 297, 225, 360, 240
-0.998442, 129, 189, 192, 204
-0.998446, 305, 185, 368, 200
-0.998447, 25, 309, 88, 324
-0.998452, 193, 207, 256, 222
-0.998453, 289, 207, 352, 222
-0.998455, 273, 197, 336, 212
-0.998459, 257, 215, 320, 230
-0.998459, 241, 203, 304, 218
-0.998459, 33, 245, 96, 260
-0.998463, 65, 189, 128, 204
-0.998463, 313, 39, 376, 54
-0.998463, 241, 197, 304, 212
-0.998466, 313, 165, 376, 180
-0.998467, 337, 205, 400, 220
-0.998483, 245, 155, 276, 170
-0.998483, 353, 65, 384, 80
-0.998484, 325, 37, 356, 52
-0.998485, 161, 231, 192, 246
-0.998485, 121, 183, 184, 198
-0.998486, 449, 89, 480, 104
-0.998486, 77, 187, 108, 202
-0.998486, 169, 211, 232, 226
-0.998487, 205, 241, 236, 256
-0.998487, 353, 221, 384, 236
-0.998487, 397, 277, 428, 292
-0.998487, 177, 143, 240, 158
-0.998488, 265, 203, 328, 218
-0.998488, 181, 203, 212, 218
-0.998488, 41, 209, 72, 224
-0.998489, 225, 243, 288, 258
-0.998489, 273, 215, 304, 230
-0.998489, 353, 15, 416, 30
-0.998489, 209, 215, 272, 230
-0.998489, 437, 27, 468, 42
-0.998489, 253, 269, 284, 284
-0.998489, 325, 193, 356, 208
-0.998489, 89, 207, 152, 222
-0.99849, 9, 245, 72, 260
-0.99849, 137, 261, 200, 276
-0.99849, 325, 221, 356, 236
-0.99849, 213, 31, 244, 46
-0.99849, 313, 213, 376, 228
-0.998491, 341, 205, 372, 220
-0.998492, 49, 305, 80, 320
-0.998492, 257, 197, 288, 212
-0.998492, 273, 9, 336, 24
-0.998492, 233, 89, 296, 104
-0.998493, 97, 33, 128, 48
-0.998494, 233, 269, 264, 284
-0.998495, 289, 213, 352, 228
-0.998495, 65, 193, 96, 208
-0.998495, 101, 55, 132, 70
-0.998497, 161, 241, 192, 256
-0.998498, 321, 225, 384, 240
-0.998498, 409, 233, 440, 248
-0.9985, 273, 223, 336, 238
-0.9985, 57, 247, 88, 262
-0.9985, 257, 243, 288, 258
-0.9985, 253, 161, 284, 176
-0.9985, 37, 309, 68, 324
-0.9985, 149, 201, 180, 216
-0.998502, 73, 45, 136, 60
-0.998502, 153, 229, 216, 244
-0.998503, 353, 39, 384, 54
-0.998504, 337, 187, 400, 202
-0.998504, 361, 193, 424, 208
-0.998504, 305, 189, 336, 204
-0.998504, 77, 197, 108, 212
-0.998505, 465, 51, 496, 66
-0.998505, 333, 285, 364, 300
-0.998505, 209, 237, 272, 252
-0.998505, 145, 203, 208, 218
-0.998505, 177, 201, 240, 216
-0.998506, 141, 195, 172, 210
-0.998506, 369, 189, 400, 204
-0.998507, 313, 205, 376, 220
-0.998507, 337, 213, 400, 228
-0.998508, 13, 281, 44, 296
-0.998509, 405, 239, 436, 254
-0.99851, 65, 183, 128, 198
-0.998511, 337, 291, 368, 306
-0.998511, 381, 213, 412, 228
-0.998511, 405, 25, 436, 40
-0.998511, 97, 215, 160, 230
-0.998511, 41, 211, 104, 226
-0.998512, 145, 233, 176, 248
-0.998513, 417, 27, 448, 42
-0.998513, 85, 47, 116, 62
-0.998513, 149, 261, 180, 276
-0.998514, 117, 199, 148, 214
-0.998514, 321, 285, 384, 300
-0.998515, 261, 223, 292, 238
-0.998516, 293, 1, 324, 16
-0.998516, 105, 45, 136, 60
-0.998516, 265, 237, 296, 252
-0.998517, 89, 201, 152, 216
-0.998518, 89, 183, 152, 198
-0.998518, 113, 53, 144, 68
-0.998519, 177, 227, 208, 242
-0.998519, 361, 273, 424, 288
-0.998519, 249, 223, 312, 238
-0.99852, 369, 21, 432, 36
-0.99852, 9, 303, 72, 318
-0.99852, 161, 191, 192, 206
-0.998522, 129, 197, 192, 212
-0.998522, 345, 35, 408, 50
-0.998522, 241, 195, 272, 210
-0.998523, 53, 233, 84, 248
-0.998523, 173, 47, 204, 62
-0.998524, 297, 9, 328, 24
-0.998525, 361, 199, 424, 214
-0.998525, 113, 203, 176, 218
-0.998526, 173, 233, 204, 248
-0.998526, 257, 97, 288, 112
-0.998526, 369, 215, 400, 230
-0.998526, 129, 225, 192, 240
-0.998527, 209, 87, 272, 102
-0.998527, 209, 193, 272, 208
-0.998528, 217, 161, 280, 176
-0.998528, 57, 195, 120, 210
-0.998528, 337, 193, 368, 208
-0.998528, 325, 201, 356, 216
-0.998529, 229, 199, 260, 214
-0.998529, 41, 203, 104, 218
-0.998529, 249, 95, 312, 110
-0.998529, 265, 241, 328, 256
-0.99853, 141, 211, 172, 226
-0.99853, 105, 209, 136, 224
-0.99853, 449, 311, 480, 326
-0.99853, 389, 17, 420, 32
-0.998531, 169, 217, 232, 232
-0.998531, 385, 197, 416, 212
-0.998531, 153, 193, 216, 208
-0.998531, 273, 29, 336, 44
-0.998531, 289, 35, 352, 50
-0.998532, 161, 63, 224, 78
-0.998532, 65, 251, 128, 266
-0.998532, 353, 59, 384, 74
-0.998533, 361, 231, 424, 246
-0.998533, 161, 225, 192, 240
-0.998534, 293, 219, 324, 234
-0.998536, 113, 263, 176, 278
-0.998537, 321, 219, 384, 234
-0.998537, 89, 251, 120, 266
-0.998539, 141, 189, 172, 204
-0.99854, 265, 101, 328, 116
-0.99854, 337, 223, 368, 238
-0.99854, 385, 241, 448, 256
-0.99854, 273, 187, 336, 202
-0.998541, 41, 219, 104, 234
-0.998542, 381, 11, 412, 26
-0.998542, 409, 23, 472, 38
-0.998542, 317, 187, 348, 202
-0.998542, 89, 211, 120, 226
-0.998542, 177, 243, 240, 258
-0.998543, 97, 39, 128, 54
-0.998544, 113, 209, 176, 224
-0.998544, 353, 285, 384, 300
-0.998544, 313, 113, 376, 128
-0.998545, 85, 39, 116, 54
-0.998545, 345, 279, 408, 294
-0.998545, 353, 67, 416, 82
-0.998546, 209, 183, 272, 198
-0.998546, 253, 207, 284, 222
-0.998547, 281, 141, 344, 156
-0.998547, 169, 185, 232, 200
-0.998547, 273, 229, 336, 244
-0.998548, 241, 217, 272, 232
-0.998548, 329, 21, 392, 36
-0.998548, 241, 161, 304, 176
-0.998548, 321, 291, 384, 306
-0.998548, 201, 271, 264, 286
-0.998549, 89, 53, 152, 68
-0.99855, 133, 205, 164, 220
-0.99855, 25, 303, 56, 318
-0.99855, 417, 155, 480, 170
-0.998551, 277, 209, 308, 224
-0.998552, 401, 47, 464, 62
-0.998552, 305, 309, 368, 324
-0.998552, 129, 185, 160, 200
-0.998552, 401, 225, 464, 240
-0.998553, 209, 203, 240, 218
-0.998553, 305, 231, 368, 246
-0.998553, 313, 47, 376, 62
-0.998553, 177, 191, 240, 206
-0.998553, 185, 223, 248, 238
-0.998553, 225, 221, 288, 236
-0.998553, 241, 233, 304, 248
-0.998554, 89, 61, 152, 76
-0.998554, 313, 69, 376, 84
-0.998554, 169, 171, 232, 186
-0.998554, 433, 3, 496, 18
-0.998555, 377, 291, 440, 306
-0.998555, 125, 213, 156, 228
-0.998556, 21, 245, 52, 260
-0.998557, 425, 53, 488, 68
-0.998557, 129, 217, 192, 232
-0.998559, 401, 235, 464, 250
-0.998559, 177, 131, 240, 146
-0.99856, 137, 209, 200, 224
-0.99856, 277, 203, 308, 218
-0.99856, 297, 25, 360, 40
-0.99856, 361, 205, 424, 220
-0.998562, 305, 19, 368, 34
-0.998562, 265, 209, 328, 224
-0.998563, 329, 15, 392, 30
-0.998563, 225, 269, 288, 284
-0.998564, 285, 197, 316, 212
-0.998567, 313, 35, 344, 50
-0.998567, 89, 195, 120, 210
-0.99857, 37, 303, 68, 318
-0.998571, 437, 49, 468, 64
-0.998572, 289, 233, 320, 248
-0.998572, 345, 163, 376, 178
-0.998572, 265, 203, 296, 218
-0.998576, 329, 207, 360, 222
-0.99858, 241, 201, 272, 216
-0.998581, 97, 183, 128, 198
-0.998581, 377, 203, 408, 218
-0.998583, 85, 53, 116, 68
-0.998586, 341, 215, 372, 230
-0.998593, 1, 239, 32, 254
-0.998593, 349, 195, 380, 210
-0.998594, 117, 207, 148, 222
-0.998595, 261, 191, 292, 206
-0.998596, 197, 205, 228, 220
-0.998598, 241, 161, 272, 176
-0.998598, 9, 287, 40, 302
-0.998599, 57, 311, 88, 326
-0.998603, 369, 197, 400, 212
-0.998606, 337, 199, 368, 214
-0.998606, 367, 1, 382, 128
-0.998607, 325, 31, 356, 46
-0.99861, 365, 207, 396, 222
-0.99861, 129, 197, 160, 212
-0.998611, 129, 191, 160, 206
-0.998614, 53, 239, 84, 254
-0.998625, 277, 233, 308, 248
-0.998627, 109, 189, 140, 204
-0.998629, 353, 201, 384, 216
-0.99863, 13, 293, 44, 308
-0.998633, 273, 33, 304, 288
-0.998635, 321, 215, 352, 230
-0.998635, 87, 193, 102, 320
-0.998636, 285, 227, 316, 242
-0.998641, 81, 193, 96, 320
-0.998643, 257, 213, 288, 228
-0.998648, 305, 221, 336, 236
-0.998657, 89, 189, 120, 204
-0.998661, 255, 177, 270, 304
-0.998671, 141, 193, 156, 320
-0.99869, 325, 177, 340, 304
-0.998711, 57, 65, 88, 320
-0.99872, 101, 209, 116, 333
-0.998723, 151, 177, 166, 304
-0.998753, 93, 177, 108, 304
-0.99876, 249, 193, 264, 320
-0.998774, 277, 177, 292, 304
-0.998818, 353, 209, 368, 333
-0.998819, 331, 177, 346, 304
-0.998821, 485, 97, 500, 224
-0.998828, 357, 33, 372, 160
-0.998831, 319, 209, 334, 333
-0.998839, 253, 49, 268, 176
-0.998844, 341, 193, 356, 320
-0.998864, 175, 177, 190, 304
-0.998869, 133, 209, 148, 333
-0.998871, 107, 193, 122, 320
-0.99888, 473, 129, 488, 256
-0.998882, 355, 129, 370, 256
-0.99889, 261, 161, 276, 288
-0.998891, 479, 1, 494, 128
-0.998892, 13, 33, 44, 288
-0.998897, 259, 1, 274, 128
-0.9989, 365, 193, 380, 320
-0.998901, 67, 177, 82, 304
-0.998903, 347, 193, 362, 320
-0.998915, 307, 1, 322, 128
-0.99892, 307, 193, 322, 320
-0.998925, 467, 161, 482, 288
-0.998932, 253, 129, 268, 256
-0.998944, 317, 1, 332, 128
-0.998956, 181, 193, 196, 320
-0.998958, 195, 193, 210, 320
-0.998959, 57, 177, 72, 304
-0.99896, 375, 177, 390, 304
-0.998962, 95, 1, 110, 128
-0.998973, 289, 145, 304, 272
-0.998973, 297, 177, 312, 304
-0.998981, 479, 129, 494, 256
-0.998985, 345, 129, 360, 256
-0.99899, 219, 129, 234, 256
-0.99899, 187, 193, 202, 320
-0.998991, 127, 209, 142, 333
-0.998993, 485, 145, 500, 272
-0.998994, 157, 177, 172, 304
-0.999002, 105, 1, 120, 128
-0.999009, 1, 193, 16, 320
-0.999012, 287, 193, 302, 320
-0.999015, 247, 145, 262, 272
-0.999015, 163, 209, 178, 333
-0.999017, 75, 177, 90, 304
-0.99902, 271, 177, 286, 304
-0.999026, 315, 81, 330, 208
-0.999031, 241, 97, 256, 224
-0.999031, 249, 1, 264, 128
-0.999039, 311, 129, 326, 256
-0.999045, 319, 161, 334, 288
-0.999045, 213, 193, 228, 320
-0.999048, 435, 17, 450, 144
-0.999052, 247, 81, 262, 208
-0.999053, 45, 209, 60, 333
-0.999054, 259, 113, 274, 240
-0.999056, 461, 145, 476, 272
-0.99906, 237, 161, 252, 288
-0.999062, 277, 129, 292, 256
-0.999065, 365, 49, 380, 176
-0.999071, 7, 1, 22, 128
-0.999075, 335, 129, 350, 256
-0.999075, 361, 145, 376, 272
-0.999079, 461, 193, 476, 320
-0.999082, 359, 193, 374, 320
-0.999085, 243, 193, 258, 320
-0.999087, 115, 17, 130, 144
-0.99909, 269, 33, 284, 160
-0.999091, 135, 161, 150, 288
-0.999094, 219, 193, 234, 320
-0.999095, 455, 193, 470, 320
-0.9991, 313, 209, 328, 333
-0.999101, 119, 209, 134, 333
-0.999101, 203, 193, 218, 320
-0.999106, 13, 1, 28, 128
-0.999107, 89, 1, 104, 128
-0.999107, 211, 145, 226, 272
-0.999113, 385, 209, 400, 333
-0.999117, 293, 1, 308, 128
-0.999123, 259, 65, 274, 192
-0.999138, 397, 193, 412, 320
-0.999141, 99, 161, 114, 288
-0.999142, 229, 1, 244, 128
-0.999142, 169, 209, 184, 333
-0.999144, 429, 49, 444, 176
-0.999144, 209, 49, 224, 176
-0.999144, 373, 1, 388, 128
-0.999147, 181, 129, 196, 256
-0.999148, 405, 33, 420, 160
-0.999148, 373, 49, 388, 176
-0.999155, 113, 177, 128, 304
-0.999161, 399, 1, 414, 128
-0.999166, 239, 1, 254, 128
-0.999168, 455, 33, 470, 160
-0.99917, 235, 209, 250, 333
-0.999173, 5, 145, 20, 272
-0.999175, 169, 1, 184, 128
-0.999178, 235, 81, 250, 208
-0.999178, 389, 1, 404, 128
-0.999181, 175, 65, 190, 192
-0.999182, 473, 177, 488, 304
-0.999184, 127, 17, 142, 144
-0.999186, 381, 1, 396, 128
-0.99919, 327, 129, 342, 256
-0.99919, 305, 145, 320, 272
-0.999196, 47, 161, 62, 288
-0.999198, 367, 113, 382, 240
-0.999199, 211, 97, 226, 224
-0.999209, 309, 81, 324, 208
-0.999211, 269, 81, 284, 208
-0.999213, 17, 209, 32, 333
-0.999214, 31, 1, 46, 128
-0.999215, 105, 49, 120, 176
-0.999216, 351, 65, 366, 192
-0.999216, 225, 193, 240, 320
-0.999218, 193, 1, 208, 128
-0.999218, 261, 209, 276, 333
-0.999222, 125, 161, 140, 288
-0.999229, 217, 33, 232, 160
-0.999234, 277, 1, 292, 128
-0.999234, 407, 209, 422, 333
-0.999673, 245, 161, 260, 176
-0.999674, 43, 299, 58, 314
-0.999674, 311, 185, 326, 200
-0.999675, 147, 187, 162, 202
-0.999675, 269, 241, 284, 256
-0.999675, 181, 231, 196, 246
-0.999675, 151, 205, 166, 220
-0.999676, 53, 305, 68, 320
-0.999676, 261, 165, 276, 180
-0.999676, 411, 287, 426, 302
-0.999676, 377, 213, 392, 228
-0.999677, 119, 199, 134, 214
-0.999677, 413, 229, 428, 244
-0.999678, 387, 13, 402, 28
-0.999678, 411, 27, 426, 42
-0.99968, 85, 53, 100, 68
-0.99968, 273, 213, 288, 228
-0.999681, 305, 219, 320, 234
-0.999681, 213, 211, 228, 226
-0.999681, 221, 215, 236, 230
-0.999681, 341, 223, 356, 238
-0.999681, 5, 283, 20, 298
-0.999682, 67, 309, 82, 324
-0.999682, 357, 201, 372, 216
-0.999682, 169, 187, 184, 202
-0.999682, 221, 201, 236, 216
-0.999682, 255, 195, 270, 210
-0.999682, 243, 211, 258, 226
-0.999683, 305, 3, 320, 18
-0.999683, 217, 221, 232, 236
-0.999683, 361, 47, 376, 62
-0.999683, 313, 191, 328, 206
-0.999683, 359, 163, 374, 178
-0.999684, 311, 111, 326, 126
-0.999684, 329, 193, 344, 208
-0.999685, 405, 31, 420, 46
-0.999685, 371, 55, 386, 70
-0.999685, 343, 307, 358, 322
-0.999686, 217, 243, 232, 258
-0.999686, 111, 205, 126, 220
-0.999686, 183, 225, 198, 240
-0.999687, 71, 243, 86, 258
-0.999688, 365, 35, 380, 50
-0.999688, 133, 207, 148, 222
-0.999688, 17, 293, 32, 308
-0.999688, 315, 35, 330, 50
-0.999689, 295, 229, 310, 244
-0.99969, 33, 301, 48, 316
-0.99969, 109, 183, 124, 198
-0.999691, 343, 189, 358, 204
-0.999693, 345, 293, 360, 308
-0.999693, 295, 215, 310, 230
-0.999694, 17, 287, 32, 302
-0.999694, 331, 199, 346, 214
-0.999695, 259, 187, 274, 202
-0.999695, 447, 217, 462, 232
-0.999696, 407, 277, 422, 292
-0.999696, 25, 243, 40, 258
-0.9997, 441, 25, 456, 40
-0.9997, 333, 205, 348, 220
-0.999701, 369, 205, 384, 220
-0.999701, 381, 197, 396, 212
-0.999701, 353, 193, 368, 208
-0.999704, 455, 309, 470, 324
-0.999704, 393, 13, 408, 28
-0.999706, 87, 201, 102, 216
-0.999707, 57, 231, 72, 246
-0.999707, 355, 61, 370, 76
-0.999707, 113, 191, 128, 206
-0.999707, 341, 217, 356, 232
-0.999707, 263, 213, 278, 228
-0.999708, 383, 215, 398, 230
-0.999708, 249, 215, 264, 230
-0.999709, 123, 189, 138, 204
-0.99971, 279, 209, 294, 224
-0.99971, 199, 237, 214, 252
-0.99971, 329, 185, 344, 200
-0.999711, 307, 237, 322, 252
-0.999712, 481, 23, 496, 38
-0.999712, 375, 207, 390, 222
-0.999714, 351, 199, 366, 214
-0.999716, 229, 205, 244, 220
-0.999717, 363, 199, 378, 214
-0.999718, 151, 193, 166, 208
-0.999719, 137, 189, 152, 204
-0.999719, 289, 205, 304, 220
-0.999719, 253, 203, 268, 218
-0.999719, 249, 195, 264, 210
-0.999721, 209, 205, 224, 220
-0.999721, 349, 211, 364, 226
-0.999724, 31, 295, 46, 310
-0.999724, 277, 191, 292, 206
-0.999724, 335, 215, 350, 230
-0.999725, 279, 237, 294, 252
-0.999725, 135, 215, 150, 230
-0.999725, 287, 199, 302, 214
-0.99973, 157, 235, 172, 250
-0.99973, 257, 211, 272, 226
-0.999731, 97, 191, 112, 206
-0.999733, 435, 45, 450, 60
-0.999739, 203, 207, 218, 222
-0.99974, 343, 35, 358, 50
-0.99974, 373, 193, 388, 208
-0.99974, 89, 193, 104, 208
-0.99974, 143, 209, 158, 224
-0.999742, 59, 237, 74, 252
-0.999743, 167, 241, 182, 256
-0.999747, 257, 221, 272, 236
-0.99975, 301, 231, 316, 246
-0.999751, 229, 197, 244, 212
-0.999752, 369, 199, 384, 214
-0.999752, 131, 191, 146, 206
-0.999755, 355, 39, 370, 54
-0.999756, 343, 207, 358, 222
-0.99976, 11, 285, 26, 300
-0.999762, 197, 203, 212, 218
-0.999766, 325, 213, 340, 228
-0.999772, 143, 195, 158, 210
-0.999773, 337, 197, 352, 212
-0.999773, 23, 289, 38, 304
-0.999773, 105, 189, 120, 204
-0.999776, 375, 201, 390, 216
-0.999782, 295, 223, 310, 238
-0.99979, 239, 203, 254, 218
-0.999795, 343, 199, 358, 214
-0.999799, 257, 159, 272, 174
-0.999806, 285, 231, 300, 246
-0.999817, 383, 209, 398, 224
-0.999835, 281, 201, 296, 216
-0.999847, 381, 203, 396, 218
