1918
-0.34657, 33, 1, 288, 352
-0.36325, 1, 97, 500, 352
-0.364148, 1, 1, 500, 352
-0.4687, 1, 1, 500, 256
-0.473093, 161, 1, 416, 352
-0.564254, 33, 1, 288, 256
-0.581838, 257, 1, 500, 352
-0.644383, 225, 97, 480, 352
-0.654215, 129, 33, 384, 288
-0.676057, 33, 97, 288, 352
-0.75505, 257, 1, 500, 256
-0.824857, 145, 1, 272, 352
-0.843283, 161, 1, 288, 256
-0.844494, 97, 1, 224, 352
-0.846887, 97, 97, 224, 352
-0.853481, 97, 1, 224, 256
-0.854364, 49, 1, 176, 352
-0.862451, 257, 1, 384, 352
-0.863243, 33, 1, 160, 256
-0.87799, 225, 97, 352, 352
-0.879723, 1, 97, 500, 224
-0.879882, 369, 1, 496, 352
-0.881333, 193, 1, 320, 352
-0.882229, 1, 97, 128, 352
-0.886922, 273, 33, 400, 288
-0.88785, 1, 145, 500, 272
-0.888047, 161, 97, 288, 352
-0.88963, 337, 65, 464, 320
-0.890231, 1, 1, 128, 352
-0.891029, 49, 97, 176, 352
-0.894334, 305, 1, 432, 352
-0.899511, 1, 97, 256, 224
-0.909391, 129, 49, 384, 176
-0.909985, 1, 225, 500, 352
-0.911302, 1, 33, 500, 160
-0.911487, 65, 145, 320, 272
-0.913991, 225, 113, 480, 240
-0.914086, 1, 33, 256, 160
-0.920372, 209, 1, 336, 256
-0.92724, 33, 193, 288, 320
-0.927761, 97, 97, 352, 224
-0.929501, 33, 65, 160, 192
-0.930901, 41, 65, 104, 192
-0.930929, 17, 97, 80, 224
-0.932347, 81, 97, 144, 224
-0.933493, 97, 145, 160, 272
-0.93387, 57, 129, 120, 256
-0.935768, 97, 33, 224, 160
-0.936475, 97, 129, 224, 256
-0.939104, 177, 49, 304, 176
-0.93962, 161, 129, 288, 256
-0.940013, 161, 129, 224, 256
-0.940216, 97, 49, 160, 176
-0.941752, 1, 113, 128, 240
-0.941886, 129, 193, 384, 320
-0.942782, 209, 145, 336, 272
-0.94282, 369, 113, 496, 240
-0.944382, 153, 49, 216, 176
-0.944497, 257, 113, 384, 240
-0.944534, 121, 129, 184, 256
-0.944774, 97, 81, 224, 208
-0.945641, 249, 145, 312, 272
-0.946443, 257, 161, 500, 288
-0.947242, 129, 81, 192, 208
-0.947582, 393, 129, 456, 256
-0.947792, 369, 161, 432, 288
-0.947814, 49, 193, 176, 320
-0.948448, 113, 121, 176, 184
-0.948551, 369, 177, 496, 304
-0.948704, 57, 177, 120, 304
-0.949198, 49, 113, 176, 240
-0.949268, 257, 65, 384, 192
-0.949296, 225, 225, 480, 352
-0.949549, 273, 65, 336, 192
-0.949976, 257, 17, 500, 144
-0.949978, 73, 49, 136, 176
-0.950242, 217, 145, 280, 272
-0.95033, 1, 33, 64, 160
-0.95036, 225, 65, 480, 192
-0.950664, 425, 145, 488, 272
-0.950678, 321, 65, 448, 192
-0.950711, 17, 17, 144, 144
-0.950816, 369, 81, 432, 208
-0.951469, 25, 145, 88, 272
-0.951529, 9, 113, 72, 176
-0.952241, 89, 121, 152, 184
-0.952531, 105, 97, 168, 160
-0.953401, 321, 145, 448, 272
-0.95354, 33, 17, 96, 144
-0.953573, 65, 257, 128, 320
-0.954238, 345, 145, 408, 272
-0.954506, 241, 97, 304, 224
-0.954671, 209, 193, 336, 320
-0.955133, 145, 177, 272, 304
-0.955214, 129, 1, 384, 128
-0.95532, 1, 225, 128, 352
-0.955456, 209, 97, 336, 224
-0.955672, 417, 121, 480, 184
-0.955954, 233, 153, 296, 216
-0.956008, 185, 97, 248, 224
-0.956099, 433, 65, 496, 192
-0.956148, 65, 113, 128, 176
-0.956153, 97, 209, 224, 336
-0.956158, 369, 65, 496, 192
-0.956819, 17, 137, 80, 200
-0.957018, 25, 193, 88, 320
-0.957154, 1, 145, 64, 272
-0.957315, 273, 113, 336, 240
-0.957611, 193, 177, 256, 304
-0.957842, 417, 17, 480, 144
-0.958138, 401, 145, 464, 208
-0.958371, 273, 65, 336, 128
-0.958371, 177, 225, 240, 352
-0.95863, 1, 177, 128, 304
-0.958955, 185, 49, 248, 176
-0.95902, 145, 225, 272, 352
-0.959228, 41, 121, 104, 184
-0.959281, 121, 17, 184, 144
-0.959289, 57, 145, 120, 208
-0.959496, 313, 33, 376, 160
-0.959561, 1, 281, 64, 344
-0.959612, 145, 177, 208, 304
-0.960332, 133, 89, 164, 152
-0.960381, 377, 161, 440, 224
-0.96066, 369, 137, 432, 200
-0.960734, 1, 193, 64, 320
-0.960749, 97, 145, 160, 208
-0.960884, 329, 81, 392, 208
-0.960999, 433, 177, 496, 240
-0.961044, 33, 97, 96, 160
-0.961241, 409, 81, 472, 208
-0.96128, 169, 177, 232, 304
-0.961317, 153, 81, 216, 144
-0.961349, 33, 265, 96, 328
-0.96147, 1, 89, 64, 152
-0.961555, 257, 161, 384, 288
-0.961849, 97, 209, 160, 336
-0.962255, 33, 33, 96, 96
-0.962426, 153, 137, 216, 200
-0.962983, 393, 177, 456, 304
-0.963309, 81, 73, 144, 136
-0.963367, 129, 89, 192, 152
-0.96347, 313, 65, 376, 128
-0.963516, 81, 281, 144, 344
-0.963605, 425, 145, 488, 208
-0.964069, 57, 73, 120, 136
-0.964326, 241, 129, 304, 192
-0.965102, 145, 33, 208, 96
-0.96575, 57, 225, 120, 352
-0.965834, 209, 145, 272, 208
-0.966, 121, 121, 152, 184
-0.966116, 257, 153, 320, 216
-0.966122, 97, 1, 160, 256
-0.966268, 393, 33, 456, 160
-0.966425, 169, 249, 232, 312
-0.966583, 193, 33, 256, 96
-0.966626, 393, 89, 456, 152
-0.966846, 265, 193, 328, 256
-0.967337, 233, 289, 296, 352
-0.967511, 29, 105, 60, 168
-0.96765, 33, 161, 96, 224
-0.967691, 345, 33, 408, 160
-0.96781, 297, 113, 360, 240
-0.96781, 273, 161, 336, 288
-0.967839, 289, 193, 352, 256
-0.967882, 9, 33, 72, 96
-0.96789, 9, 57, 72, 120
-0.967998, 145, 57, 208, 120
-0.968157, 97, 33, 160, 96
-0.968339, 401, 185, 464, 248
-0.968422, 105, 73, 168, 136
-0.968428, 113, 257, 176, 320
-0.968554, 33, 57, 96, 120
-0.968627, 145, 1, 208, 256
-0.96874, 137, 113, 200, 176
-0.968896, 425, 201, 488, 264
-0.969009, 241, 49, 304, 176
-0.969123, 53, 129, 84, 192
-0.969161, 185, 281, 248, 344
-0.969164, 433, 41, 496, 104
-0.969232, 241, 97, 304, 160
-0.969435, 141, 113, 172, 176
-0.969457, 33, 1, 96, 256
-0.969485, 153, 225, 216, 352
-0.969522, 393, 121, 456, 184
-0.96956, 177, 121, 240, 184
-0.969662, 37, 97, 68, 224
-0.969673, 433, 97, 496, 160
-0.969785, 417, 193, 480, 320
-0.969865, 9, 257, 72, 320
-0.970142, 297, 161, 360, 288
-0.970153, 105, 281, 168, 344
-0.97041, 57, 41, 120, 104
-0.970586, 209, 97, 272, 224
-0.970729, 13, 121, 44, 184
-0.970759, 137, 81, 168, 208
-0.971026, 345, 193, 408, 320
-0.971054, 153, 97, 216, 352
-0.97118, 201, 1, 264, 256
-0.971353, 289, 169, 352, 232
-0.971367, 97, 33, 224, 96
-0.971406, 321, 41, 384, 104
-0.971438, 17, 97, 48, 224
-0.971691, 121, 177, 184, 304
-0.971711, 253, 145, 284, 208
-0.971712, 281, 89, 344, 152
-0.971716, 9, 161, 72, 224
-0.971769, 49, 113, 80, 240
-0.971783, 97, 97, 160, 352
-0.971863, 105, 49, 136, 176
-0.971926, 41, 97, 72, 160
-0.971941, 217, 265, 280, 328
-0.972008, 5, 65, 36, 192
-0.972059, 409, 49, 472, 112
-0.972109, 153, 1, 216, 128
-0.972135, 361, 113, 424, 176
-0.972147, 369, 17, 496, 144
-0.972164, 97, 65, 224, 128
-0.972264, 177, 1, 304, 128
-0.972321, 265, 129, 296, 256
-0.972441, 105, 193, 168, 256
-0.972509, 409, 25, 472, 88
-0.972536, 121, 225, 184, 352
-0.97256, 33, 65, 160, 128
-0.972643, 25, 129, 56, 192
-0.972809, 337, 161, 400, 224
-0.97284, 165, 129, 196, 256
-0.972852, 273, 129, 336, 192
-0.972991, 97, 97, 224, 160
-0.973005, 25, 185, 88, 248
-0.973066, 125, 81, 156, 208
-0.973073, 145, 273, 208, 336
-0.973081, 57, 281, 120, 344
-0.973103, 209, 33, 272, 160
-0.973201, 201, 225, 264, 352
-0.973304, 65, 33, 128, 288
-0.973525, 121, 65, 184, 320
-0.973558, 193, 193, 256, 256
-0.973593, 257, 225, 320, 352
-0.973623, 121, 153, 184, 216
-0.973694, 85, 49, 116, 176
-0.973714, 1, 89, 32, 152
-0.973823, 49, 185, 112, 248
-0.973838, 421, 121, 452, 184
-0.973847, 289, 65, 352, 320
-0.973865, 433, 137, 464, 200
-0.97387, 1, 1, 64, 256
-0.973909, 25, 289, 88, 352
-0.973959, 97, 233, 160, 296
-0.973993, 85, 73, 116, 136
-0.974039, 1, 121, 32, 184
-0.974124, 321, 17, 448, 144
-0.974251, 409, 33, 472, 288
-0.974254, 265, 217, 328, 280
-0.974365, 41, 121, 72, 184
-0.974519, 177, 137, 304, 200
-0.974522, 169, 193, 232, 256
-0.97459, 437, 97, 468, 224
-0.974698, 369, 137, 496, 200
-0.974723, 145, 193, 208, 256
-0.974834, 33, 97, 160, 160
-0.974869, 265, 161, 296, 224
-0.97493, 69, 145, 100, 272
-0.975005, 241, 49, 304, 112
-0.975172, 321, 89, 384, 152
-0.975239, 65, 65, 96, 192
-0.975335, 353, 113, 480, 176
-0.975409, 297, 41, 360, 104
-0.975477, 345, 81, 408, 144
-0.97552, 433, 17, 496, 80
-0.975527, 141, 65, 172, 128
-0.975734, 81, 1, 144, 128
-0.975808, 1, 273, 128, 336
-0.975965, 437, 169, 468, 232
-0.976004, 49, 65, 80, 192
-0.976071, 353, 169, 480, 232
-0.976073, 85, 129, 116, 256
-0.976115, 385, 97, 448, 352
-0.976171, 285, 65, 316, 192
-0.976183, 265, 129, 296, 192
-0.976294, 145, 249, 208, 312
-0.976331, 369, 225, 496, 352
-0.976448, 161, 41, 288, 104
-0.976469, 49, 233, 112, 296
-0.97647, 141, 129, 172, 256
-0.976477, 277, 113, 308, 240
-0.976565, 73, 225, 136, 288
-0.976577, 49, 121, 176, 184
-0.97664, 13, 89, 44, 152
-0.976676, 217, 121, 280, 184
-0.976725, 97, 121, 224, 184
-0.976733, 353, 193, 480, 256
-0.976887, 25, 49, 56, 176
-0.9769, 257, 121, 384, 184
-0.976913, 225, 1, 352, 128
-0.977004, 209, 289, 272, 352
-0.977071, 469, 121, 500, 184
-0.977109, 1, 273, 32, 336
-0.977134, 457, 145, 488, 208
-0.977178, 169, 169, 232, 232
-0.977276, 177, 97, 304, 160
-0.977294, 41, 97, 104, 352
-0.977413, 209, 161, 336, 224
-0.977445, 49, 257, 176, 320
-0.977478, 337, 217, 400, 280
-0.977491, 65, 33, 96, 96
-0.977504, 121, 97, 152, 160
-0.977549, 5, 17, 36, 144
-0.977586, 217, 185, 280, 248
-0.977594, 193, 257, 256, 320
-0.977711, 25, 81, 56, 144
-0.977712, 437, 145, 468, 272
-0.977728, 185, 1, 248, 128
-0.977797, 97, 145, 224, 208
-0.977822, 65, 249, 96, 312
-0.977825, 169, 49, 232, 112
-0.977876, 153, 129, 184, 256
-0.977888, 17, 153, 144, 216
-0.977951, 273, 177, 400, 240
-0.97798, 433, 73, 496, 136
-0.978051, 105, 97, 136, 224
-0.978068, 161, 65, 288, 128
-0.978073, 1, 97, 64, 352
-0.97809, 245, 129, 276, 256
-0.978128, 121, 33, 184, 96
-0.978182, 73, 201, 136, 264
-0.978211, 257, 97, 320, 352
-0.978221, 321, 129, 384, 256
-0.978255, 457, 201, 488, 264
-0.978289, 57, 193, 88, 320
-0.97831, 377, 129, 408, 256
-0.97837, 257, 81, 288, 208
-0.978405, 273, 17, 400, 144
-0.978428, 1, 129, 128, 192
-0.978463, 233, 225, 296, 352
-0.978473, 177, 1, 240, 256
-0.978511, 409, 129, 440, 192
-0.978525, 137, 217, 200, 280
-0.978535, 181, 129, 212, 256
-0.978567, 149, 81, 180, 208
-0.978576, 241, 153, 272, 216
-0.978587, 241, 177, 304, 240
-0.978616, 121, 145, 152, 272
-0.978757, 169, 225, 232, 288
-0.978758, 357, 105, 388, 168
-0.978789, 109, 289, 140, 352
-0.978869, 153, 1, 216, 352
-0.978944, 241, 1, 304, 128
-0.978984, 49, 33, 176, 96
-0.97899, 377, 137, 408, 200
-0.978994, 97, 257, 224, 320
-0.979015, 125, 33, 156, 160
-0.979043, 469, 113, 500, 240
-0.979112, 437, 113, 468, 176
-0.979116, 393, 161, 424, 288
-0.97916, 193, 169, 256, 232
-0.979176, 25, 49, 56, 112
-0.979187, 217, 97, 280, 352
-0.979247, 257, 209, 384, 336
-0.979257, 89, 113, 120, 176
-0.979324, 361, 185, 424, 248
-0.979398, 465, 41, 496, 104
-0.979402, 417, 113, 448, 240
-0.979496, 329, 129, 392, 192
-0.979503, 241, 73, 304, 136
-0.979523, 421, 145, 452, 208
-0.979571, 5, 113, 36, 240
-0.979587, 37, 49, 68, 176
-0.979595, 45, 57, 76, 120
-0.979604, 433, 281, 496, 344
-0.979614, 277, 185, 308, 248
-0.979642, 185, 73, 248, 136
-0.979662, 377, 177, 408, 240
-0.97967, 105, 89, 136, 152
-0.97971, 177, 289, 304, 352
-0.979746, 117, 145, 148, 208
-0.979756, 345, 41, 408, 104
-0.979769, 409, 153, 440, 216
-0.9798, 89, 169, 152, 232
-0.979811, 389, 161, 420, 224
-0.979828, 257, 65, 384, 128
-0.979887, 177, 193, 304, 256
-0.979966, 145, 89, 176, 152
-0.980017, 57, 1, 120, 128
-0.980068, 321, 81, 448, 144
-0.980068, 1, 145, 32, 208
-0.980166, 433, 33, 496, 288
-0.980176, 109, 145, 140, 272
-0.980196, 433, 249, 496, 312
-0.980218, 369, 33, 432, 160
-0.980225, 37, 145, 68, 272
-0.980252, 297, 193, 328, 256
-0.980267, 65, 1, 128, 352
-0.980275, 101, 153, 132, 216
-0.980329, 109, 121, 140, 184
-0.980376, 53, 17, 84, 144
-0.980453, 45, 33, 76, 96
-0.980492, 457, 49, 488, 176
-0.980517, 121, 1, 184, 352
-0.980557, 89, 257, 152, 320
-0.980626, 173, 49, 204, 176
-0.980664, 185, 97, 248, 160
-0.980686, 53, 161, 84, 224
-0.980723, 253, 121, 284, 184
-0.980841, 129, 281, 256, 344
-0.980847, 453, 17, 484, 80
-0.980918, 437, 193, 468, 256
-0.980932, 421, 177, 452, 240
-0.980966, 213, 177, 244, 304
-0.980969, 257, 97, 384, 160
-0.981119, 45, 265, 76, 328
-0.981182, 41, 153, 72, 216
-0.981185, 241, 209, 304, 272
-0.98121, 297, 113, 360, 176
-0.981228, 25, 209, 88, 272
-0.981246, 13, 289, 44, 352
-0.981284, 89, 281, 120, 344
-0.981323, 85, 49, 116, 112
-0.981344, 213, 289, 244, 352
-0.981421, 337, 1, 400, 256
-0.981488, 97, 1, 160, 352
-0.981505, 277, 161, 308, 288
-0.981625, 193, 129, 224, 256
-0.981635, 389, 97, 420, 224
-0.981666, 457, 129, 488, 256
-0.981707, 177, 145, 240, 208
-0.98171, 357, 81, 388, 208
-0.981728, 265, 41, 328, 104
-0.981743, 369, 209, 432, 336
-0.981763, 1, 185, 128, 248
-0.981793, 25, 233, 88, 296
-0.981824, 313, 185, 376, 248
-0.981834, 93, 209, 124, 336
-0.981983, 45, 193, 76, 320
-0.982003, 193, 233, 256, 296
-0.982055, 13, 33, 44, 96
-0.982142, 193, 1, 256, 352
-0.98228, 321, 193, 448, 320
-0.982315, 65, 193, 192, 256
-0.982361, 69, 121, 100, 184
-0.982476, 105, 33, 136, 96
-0.982505, 1, 185, 64, 248
-0.982518, 1, 249, 128, 312
-0.982533, 209, 217, 336, 280
-0.982535, 357, 33, 388, 160
-0.982601, 361, 217, 424, 280
-0.982621, 305, 49, 336, 176
-0.982632, 177, 97, 240, 352
-0.982701, 89, 257, 120, 320
-0.98271, 193, 57, 224, 120
-0.982742, 369, 89, 432, 152
-0.982832, 33, 265, 64, 328
-0.982843, 105, 209, 136, 336
-0.98286, 141, 33, 172, 160
-0.982888, 73, 17, 136, 80
-0.982904, 165, 145, 196, 208
-0.982935, 281, 209, 344, 336
-0.982982, 169, 209, 200, 336
-0.98299, 177, 41, 208, 104
-0.983025, 321, 41, 448, 104
-0.983029, 197, 33, 228, 96
-0.983029, 305, 129, 432, 192
-0.983037, 1, 33, 128, 96
-0.983055, 81, 281, 208, 344
-0.983086, 273, 89, 304, 152
-0.983152, 193, 49, 224, 176
-0.983153, 33, 1, 96, 352
-0.983174, 153, 193, 184, 256
-0.983181, 225, 289, 352, 352
-0.983199, 469, 1, 500, 128
-0.983209, 233, 273, 264, 336
-0.983287, 277, 161, 308, 224
-0.983318, 281, 17, 344, 144
-0.983387, 13, 145, 44, 208
-0.983416, 237, 129, 268, 192
-0.983453, 157, 17, 188, 144
-0.983462, 433, 25, 464, 88
-0.983539, 153, 129, 184, 192
-0.98357, 69, 145, 100, 208
-0.983572, 365, 145, 396, 208
-0.983586, 449, 169, 480, 232
-0.983615, 345, 73, 376, 136
-0.983617, 185, 233, 216, 296
-0.983646, 293, 169, 324, 232
-0.983691, 273, 65, 304, 192
-0.983702, 377, 177, 408, 304
-0.983785, 337, 49, 368, 112
-0.983935, 145, 257, 272, 320
-0.983952, 445, 49, 476, 176
-0.983972, 397, 97, 428, 160
-0.983977, 65, 17, 96, 144
-0.983982, 13, 65, 44, 128
-0.98405, 445, 1, 476, 128
-0.984067, 25, 145, 56, 272
-0.984086, 305, 65, 336, 128
-0.984101, 221, 265, 252, 328
-0.984125, 289, 57, 320, 120
-0.984157, 273, 201, 400, 264
-0.984256, 45, 185, 76, 248
-0.984282, 253, 169, 284, 232
-0.984312, 81, 177, 112, 304
-0.984348, 453, 121, 484, 184
-0.984361, 185, 137, 216, 200
-0.98438, 445, 41, 476, 104
-0.984385, 157, 33, 188, 96
-0.984409, 369, 57, 432, 120
-0.984446, 353, 41, 384, 104
-0.984551, 401, 289, 464, 352
-0.984731, 29, 193, 60, 320
-0.98474, 401, 209, 464, 272
-0.98474, 433, 225, 496, 288
-0.984773, 129, 225, 256, 288
-0.984784, 433, 1, 496, 352
-0.984786, 305, 153, 432, 216
-0.984958, 29, 161, 60, 224
-0.984962, 1, 33, 32, 96
-0.984967, 145, 33, 176, 96
-0.98498, 341, 33, 372, 160
-0.985016, 405, 129, 436, 256
-0.985026, 193, 169, 224, 232
-0.985049, 273, 41, 400, 104
-0.985163, 465, 209, 496, 336
-0.985164, 373, 81, 404, 208
-0.985237, 41, 241, 72, 304
-0.985311, 201, 193, 232, 320
-0.985316, 89, 145, 120, 208
-0.985333, 133, 33, 164, 96
-0.985399, 249, 1, 312, 256
-0.985417, 157, 193, 188, 320
-0.985474, 181, 177, 212, 304
-0.985477, 305, 105, 432, 168
-0.985478, 33, 193, 64, 256
-0.985481, 305, 169, 336, 232
-0.985482, 273, 1, 336, 352
-0.985497, 365, 129, 396, 256
-0.985534, 105, 185, 136, 248
-0.985563, 389, 121, 420, 184
-0.985644, 469, 225, 500, 288
-0.985644, 185, 225, 216, 352
-0.985699, 277, 129, 308, 192
-0.985726, 129, 185, 256, 248
-0.985787, 389, 185, 420, 248
-0.985797, 357, 65, 388, 128
-0.985798, 209, 241, 336, 304
-0.985822, 133, 145, 164, 208
-0.985834, 289, 113, 320, 240
-0.985837, 161, 81, 192, 208
-0.985874, 469, 153, 500, 216
-0.985894, 69, 209, 100, 336
-0.985915, 369, 81, 496, 144
-0.98592, 129, 65, 160, 128
-0.985926, 57, 273, 88, 336
-0.985953, 165, 249, 196, 312
-0.985969, 193, 113, 224, 176
-0.985978, 313, 33, 376, 288
-0.986044, 97, 145, 128, 272
-0.986058, 89, 193, 120, 256
-0.986211, 77, 257, 108, 320
-0.986262, 161, 161, 288, 224
-0.986284, 29, 25, 60, 88
-0.986383, 57, 57, 88, 120
-0.986415, 197, 249, 228, 312
-0.98647, 369, 97, 400, 160
-0.986543, 429, 17, 460, 144
-0.986549, 153, 65, 184, 128
-0.986556, 213, 225, 244, 352
-0.986578, 65, 169, 192, 232
-0.986623, 69, 97, 100, 160
-0.986669, 401, 1, 464, 352
-0.986673, 225, 193, 352, 256
-0.986715, 425, 201, 456, 264
-0.98678, 85, 1, 116, 128
-0.986817, 217, 161, 248, 224
-0.986887, 469, 17, 500, 80
-0.986896, 193, 265, 320, 328
-0.986905, 425, 177, 456, 304
-0.986964, 209, 25, 336, 88
-0.986992, 217, 129, 248, 256
-0.987013, 9, 1, 72, 352
-0.987016, 361, 65, 424, 320
-0.987136, 209, 57, 336, 120
-0.987226, 369, 49, 496, 112
-0.987256, 241, 265, 368, 328
-0.98729, 297, 177, 328, 304
-0.987375, 425, 65, 456, 192
-0.987463, 161, 17, 288, 80
-0.987478, 345, 81, 376, 208
-0.987527, 65, 233, 192, 296
-0.98754, 233, 33, 264, 160
-0.987673, 225, 1, 288, 256
-0.987691, 129, 133, 192, 164
-0.987858, 305, 1, 368, 352
-0.987947, 385, 1, 448, 256
-0.988011, 1, 109, 64, 140
-0.988027, 233, 1, 296, 352
-0.988091, 305, 113, 336, 240
-0.988146, 449, 177, 480, 304
-0.988195, 1, 121, 64, 152
-0.988271, 17, 217, 144, 280
-0.98829, 1, 81, 256, 144
-0.988324, 453, 225, 484, 352
-0.988416, 113, 121, 176, 152
-0.988527, 233, 129, 264, 256
-0.988569, 237, 81, 268, 208
-0.988585, 393, 225, 456, 352
-0.988586, 97, 149, 160, 180
-0.988606, 369, 217, 496, 280
-0.988614, 413, 49, 444, 176
-0.988672, 257, 153, 384, 216
-0.988694, 57, 197, 120, 228
-0.988737, 41, 137, 104, 168
-0.988781, 237, 177, 268, 304
-0.988782, 89, 97, 152, 128
-0.988791, 65, 141, 128, 172
-0.988856, 17, 137, 80, 168
-0.988866, 241, 141, 304, 172
-0.988872, 17, 149, 80, 180
-0.988969, 401, 65, 432, 192
-0.988972, 29, 1, 60, 128
-0.989056, 1, 225, 32, 352
-0.989116, 1, 121, 256, 184
-0.989123, 289, 225, 416, 288
-0.989129, 225, 177, 256, 304
-0.989133, 97, 9, 224, 72
-0.989213, 89, 137, 152, 168
-0.989223, 89, 125, 152, 156
-0.98924, 217, 161, 280, 192
-0.989307, 409, 129, 472, 160
-0.989319, 41, 97, 104, 128
-0.989321, 41, 149, 104, 180
-0.989398, 353, 129, 384, 256
-0.989429, 97, 193, 160, 224
-0.989429, 137, 193, 200, 224
-0.989477, 457, 1, 488, 128
-0.98949, 25, 117, 88, 148
-0.989515, 153, 121, 216, 152
-0.989581, 1, 281, 64, 312
-0.989582, 49, 261, 112, 292
-0.989599, 225, 225, 256, 352
-0.989601, 153, 145, 216, 176
-0.989609, 241, 173, 304, 204
-0.989621, 433, 145, 496, 176
-0.989633, 17, 9, 144, 72
-0.989683, 321, 65, 352, 192
-0.989697, 209, 321, 272, 352
-0.98973, 321, 209, 384, 336
-0.98975, 89, 109, 152, 140
-0.989789, 17, 1, 48, 128
-0.989823, 25, 277, 88, 308
-0.989834, 297, 113, 360, 144
-0.989845, 1, 297, 64, 328
-0.989847, 241, 309, 304, 340
-0.989902, 145, 97, 208, 128
-0.989914, 321, 65, 384, 96
-0.989919, 1, 97, 64, 128
-0.989923, 369, 281, 496, 344
-0.989937, 417, 41, 480, 72
-0.989949, 385, 165, 448, 196
-0.989981, 241, 161, 304, 192
-0.989994, 33, 201, 96, 232
-0.990011, 97, 85, 160, 116
-0.990043, 153, 41, 216, 72
-0.990048, 265, 321, 328, 352
-0.990073, 209, 193, 272, 224
-0.990076, 129, 153, 192, 184
-0.990093, 113, 109, 176, 140
-0.990093, 33, 37, 96, 68
-0.990108, 105, 61, 168, 92
-0.990141, 425, 169, 488, 200
-0.990158, 337, 17, 464, 80
-0.990202, 97, 37, 160, 68
-0.990236, 185, 297, 248, 328
-0.990246, 369, 129, 432, 160
-0.990265, 65, 153, 128, 184
-0.990275, 425, 117, 488, 148
-0.990276, 97, 81, 352, 144
-0.990276, 153, 73, 216, 104
-0.990309, 297, 61, 360, 92
-0.990313, 193, 181, 256, 212
-0.990314, 169, 285, 232, 316
-0.99033, 105, 293, 168, 324
-0.990338, 113, 205, 176, 236
-0.990343, 385, 141, 448, 172
-0.990349, 169, 197, 232, 228
-0.990352, 281, 73, 344, 104
-0.990353, 249, 189, 312, 220
-0.990365, 265, 177, 296, 304
-0.990401, 81, 301, 144, 332
-0.990436, 433, 61, 496, 92
-0.990443, 281, 89, 344, 120
-0.990467, 469, 65, 500, 192
-0.990478, 433, 181, 496, 212
-0.99049, 25, 249, 88, 280
-0.990497, 65, 53, 128, 84
-0.990501, 65, 125, 128, 156
-0.990502, 417, 205, 480, 236
-0.990508, 121, 93, 184, 124
-0.990517, 401, 153, 464, 184
-0.990522, 105, 1, 136, 128
-0.990533, 145, 177, 176, 304
-0.990551, 393, 177, 456, 208
-0.990558, 1, 33, 256, 96
-0.990564, 81, 289, 144, 320
-0.990567, 425, 29, 488, 60
-0.990567, 217, 141, 280, 172
-0.990592, 17, 57, 80, 88
-0.990604, 65, 209, 128, 240
-0.990629, 217, 173, 280, 204
-0.990632, 25, 293, 88, 324
-0.990636, 361, 153, 424, 184
-0.99064, 129, 73, 192, 104
-0.990646, 409, 61, 472, 92
-0.990652, 57, 277, 120, 308
-0.990659, 273, 125, 336, 156
-0.99066, 225, 293, 288, 324
-0.990673, 345, 117, 408, 148
-0.990677, 385, 113, 448, 144
-0.990713, 209, 281, 272, 312
-0.990713, 145, 289, 208, 320
-0.990732, 281, 173, 344, 204
-0.990732, 97, 321, 160, 352
-0.990777, 9, 261, 72, 292
-0.990794, 361, 169, 424, 200
-0.990802, 321, 77, 384, 108
-0.990807, 97, 73, 160, 104
-0.99081, 33, 213, 96, 244
-0.990821, 41, 1, 72, 128
-0.990827, 25, 185, 88, 216
-0.990829, 161, 133, 224, 164
-0.990837, 177, 1, 208, 128
-0.990845, 193, 161, 256, 192
-0.990847, 17, 161, 80, 192
-0.990853, 289, 193, 352, 224
-0.990874, 89, 205, 152, 236
-0.990879, 121, 281, 184, 312
-0.990908, 41, 161, 104, 192
-0.990913, 257, 201, 320, 232
-0.990926, 265, 57, 328, 88
-0.990931, 169, 185, 232, 216
-0.990938, 57, 113, 120, 144
-0.990959, 193, 37, 256, 68
-0.990978, 185, 269, 248, 300
-0.990979, 305, 49, 368, 80
-0.990987, 433, 129, 496, 160
-0.99099, 1, 309, 64, 340
-0.990998, 153, 109, 216, 140
-0.991003, 41, 61, 104, 92
-0.991004, 153, 57, 216, 88
-0.991007, 321, 97, 384, 128
-0.991009, 369, 257, 496, 320
-0.991013, 65, 89, 128, 120
-0.991025, 257, 93, 320, 124
-0.991027, 201, 309, 264, 340
-0.991032, 433, 17, 496, 48
-0.991044, 145, 205, 208, 236
-0.991049, 97, 105, 352, 168
-0.991077, 1, 37, 64, 68
-0.99108, 217, 129, 280, 160
-0.991106, 297, 101, 360, 132
-0.991109, 361, 73, 424, 104
-0.99113, 385, 189, 448, 220
-0.991255, 1, 57, 256, 120
-0.991271, 133, 225, 164, 352
-0.991295, 361, 177, 392, 304
-0.99132, 33, 145, 288, 208
-0.991365, 121, 209, 152, 336
-0.991482, 377, 1, 440, 352
-0.991574, 133, 177, 164, 304
-0.991584, 205, 129, 236, 256
-0.991651, 289, 289, 416, 352
-0.991724, 161, 49, 416, 112
-0.991758, 329, 1, 392, 352
-0.991798, 277, 17, 308, 144
-0.991799, 33, 241, 288, 304
-0.991847, 121, 125, 152, 156
-0.991874, 253, 141, 284, 172
-0.991903, 25, 105, 56, 136
-0.991957, 257, 129, 500, 192
-0.992031, 193, 1, 224, 128
-0.992044, 13, 121, 44, 152
-0.992051, 141, 121, 172, 152
-0.992065, 33, 121, 64, 152
-0.992076, 53, 137, 84, 168
-0.992119, 333, 193, 364, 320
-0.992123, 265, 137, 296, 168
-0.992124, 133, 101, 164, 132
-0.992227, 257, 153, 288, 184
-0.992243, 245, 157, 276, 188
-0.992254, 41, 137, 72, 168
-0.992254, 257, 185, 500, 248
-0.992262, 105, 145, 136, 176
-0.99229, 121, 141, 152, 172
-0.9923, 61, 193, 92, 224
-0.992313, 145, 89, 160, 152
-0.992325, 233, 317, 264, 348
-0.992355, 85, 149, 116, 180
-0.992367, 133, 89, 164, 120
-0.992368, 437, 165, 468, 196
-0.992381, 5, 109, 36, 140
-0.992387, 1, 281, 32, 312
-0.992398, 269, 161, 300, 192
-0.992401, 257, 153, 500, 216
-0.992413, 469, 137, 500, 168
-0.992416, 41, 185, 72, 216
-0.992424, 73, 149, 104, 180
-0.992436, 377, 165, 408, 196
-0.992445, 165, 145, 196, 176
-0.992446, 105, 133, 136, 164
-0.992448, 437, 117, 468, 148
-0.99245, 417, 125, 448, 156
-0.992465, 137, 193, 168, 224
-0.992471, 1, 129, 500, 192
-0.992493, 85, 201, 116, 232
-0.992495, 437, 145, 468, 176
-0.992495, 97, 169, 352, 232
-0.992505, 85, 89, 116, 120
-0.992509, 457, 165, 488, 196
-0.992525, 465, 53, 496, 84
-0.992527, 141, 65, 172, 96
-0.992528, 457, 217, 488, 248
-0.992531, 449, 49, 480, 80
-0.992532, 125, 193, 156, 224
-0.992534, 1, 121, 32, 152
-0.992541, 233, 153, 264, 184
-0.992554, 33, 153, 64, 184
-0.992555, 289, 181, 320, 212
-0.992568, 421, 149, 452, 180
-0.992572, 37, 277, 68, 308
-0.992578, 109, 301, 140, 332
-0.99258, 61, 149, 92, 180
-0.992589, 21, 133, 52, 164
-0.992589, 429, 197, 460, 228
-0.992592, 149, 193, 180, 224
-0.992594, 45, 121, 76, 152
-0.992605, 41, 201, 72, 232
-0.992607, 105, 101, 136, 132
-0.992609, 17, 281, 48, 312
-0.992609, 221, 305, 252, 336
-0.99261, 1, 301, 32, 332
-0.992615, 381, 177, 412, 208
-0.992615, 13, 129, 28, 192
-0.992615, 105, 205, 136, 236
-0.992619, 449, 137, 480, 168
-0.992622, 265, 173, 296, 204
-0.992627, 169, 193, 200, 224
-0.992628, 429, 133, 460, 164
-0.992644, 9, 97, 40, 128
-0.992647, 1, 141, 32, 172
-0.992648, 1, 157, 32, 188
-0.992659, 129, 113, 160, 144
-0.99266, 73, 197, 104, 228
-0.992662, 105, 189, 136, 220
-0.992664, 85, 105, 116, 136
-0.992665, 73, 137, 104, 168
-0.992666, 321, 109, 352, 140
-0.992679, 285, 321, 316, 352
-0.992679, 297, 57, 328, 88
-0.992693, 225, 177, 256, 208
-0.992699, 141, 133, 172, 164
-0.9927, 357, 117, 388, 148
-0.992701, 269, 149, 300, 180
-0.992704, 49, 261, 80, 292
-0.992707, 469, 149, 500, 180
-0.992709, 445, 37, 476, 68
-0.992726, 429, 177, 460, 208
-0.992732, 105, 157, 136, 188
-0.992736, 105, 37, 136, 68
-0.992752, 393, 169, 424, 200
-0.99276, 457, 205, 488, 236
-0.992763, 249, 173, 280, 204
-0.992768, 421, 161, 452, 192
-0.992771, 145, 97, 176, 128
-0.992776, 1, 273, 256, 336
-0.992783, 109, 289, 140, 320
-0.992784, 53, 205, 84, 236
-0.992787, 305, 69, 336, 100
-0.992789, 449, 149, 480, 180
-0.992798, 33, 173, 64, 204
-0.992799, 177, 145, 208, 176
-0.992803, 85, 49, 116, 80
-0.992803, 365, 221, 396, 252
-0.992808, 409, 161, 440, 192
-0.992809, 85, 117, 116, 148
-0.992812, 217, 161, 248, 192
-0.992813, 153, 137, 184, 168
-0.992815, 45, 97, 76, 128
-0.992819, 429, 29, 460, 60
-0.992822, 97, 285, 128, 316
-0.992826, 417, 137, 448, 168
-0.992826, 121, 153, 152, 184
-0.992827, 245, 321, 276, 352
-0.992829, 277, 181, 308, 212
-0.992832, 461, 41, 492, 72
-0.992832, 49, 153, 80, 184
-0.992833, 421, 113, 452, 144
-0.992834, 337, 49, 368, 80
-0.992834, 445, 17, 476, 48
-0.992834, 209, 293, 240, 324
-0.992835, 137, 89, 152, 152
-0.992838, 13, 157, 44, 188
-0.992841, 217, 269, 248, 300
-0.992843, 285, 57, 316, 88
-0.99285, 177, 41, 208, 72
-0.992853, 217, 193, 248, 224
-0.992853, 13, 37, 44, 68
-0.992853, 129, 77, 160, 108
-0.992855, 23, 113, 38, 176
-0.992863, 277, 197, 308, 228
-0.992865, 377, 209, 408, 240
-0.992869, 213, 33, 244, 160
-0.992871, 297, 193, 328, 224
-0.992872, 377, 137, 408, 168
-0.992872, 189, 161, 220, 192
-0.992873, 437, 209, 468, 240
-0.992875, 185, 197, 216, 228
-0.992882, 121, 101, 152, 132
-0.992883, 229, 281, 260, 312
-0.993094, 349, 177, 380, 304
-0.993138, 405, 177, 436, 304
-0.993152, 289, 265, 416, 328
-0.993169, 97, 41, 224, 72
-0.993181, 161, 129, 416, 192
-0.993187, 1, 129, 16, 192
-0.993193, 97, 65, 224, 96
-0.993209, 317, 113, 348, 240
-0.993211, 17, 193, 48, 320
-0.993219, 469, 161, 500, 288
-0.993228, 145, 225, 176, 352
-0.993275, 333, 81, 364, 208
-0.993302, 13, 89, 28, 152
-0.993327, 237, 225, 268, 352
-0.993349, 97, 101, 224, 132
-0.993354, 1, 153, 500, 216
-0.993363, 1, 105, 500, 168
-0.993449, 153, 113, 168, 176
-0.993456, 131, 105, 146, 168
-0.993465, 177, 141, 304, 172
-0.993473, 257, 33, 288, 160
-0.993475, 63, 129, 78, 192
-0.993578, 249, 177, 280, 304
-0.993594, 345, 225, 376, 352
-0.993608, 285, 209, 316, 336
-0.993611, 65, 193, 320, 256
-0.993631, 269, 129, 284, 192
-0.99365, 369, 149, 496, 180
-0.993765, 39, 89, 54, 152
-0.993811, 261, 145, 276, 208
-0.993813, 337, 97, 400, 352
-0.993824, 177, 153, 304, 184
-0.993841, 29, 105, 44, 168
-0.993883, 257, 73, 500, 136
-0.993921, 7, 105, 22, 168
-0.993929, 151, 73, 166, 136
-0.994069, 33, 97, 160, 128
-0.994095, 439, 169, 454, 232
-0.994147, 43, 113, 58, 176
-0.994172, 141, 65, 156, 128
-0.994212, 49, 193, 176, 224
-0.994233, 375, 145, 390, 208
-0.994242, 419, 121, 434, 184
-0.994321, 161, 209, 416, 272
-0.994343, 53, 145, 68, 208
-0.99435, 1, 89, 16, 152
-0.994389, 433, 137, 448, 200
-0.994412, 257, 49, 500, 112
-0.99443, 467, 145, 482, 208
-0.994442, 1, 217, 256, 280
-0.994443, 1, 241, 500, 304
-0.994449, 257, 97, 500, 160
-0.994478, 21, 89, 36, 152
-0.994489, 51, 97, 66, 160
-0.994499, 17, 277, 144, 308
-0.994514, 129, 25, 384, 88
-0.994516, 427, 129, 442, 192
-0.994533, 97, 77, 224, 108
-0.994538, 49, 65, 64, 128
-0.994543, 353, 201, 480, 232
-0.994543, 139, 129, 154, 192
-0.99455, 389, 161, 404, 224
-0.994605, 1, 265, 500, 328
-0.994618, 209, 165, 336, 196
-0.994622, 447, 105, 462, 168
-0.994643, 1, 65, 500, 128
-0.994643, 423, 153, 438, 216
-0.994645, 381, 169, 396, 232
-0.994646, 123, 121, 138, 184
-0.994665, 449, 137, 464, 200
-0.994667, 161, 121, 176, 184
-0.994711, 161, 121, 288, 152
-0.994764, 273, 153, 288, 216
-0.99478, 97, 137, 224, 168
-0.994808, 161, 57, 288, 88
-0.994835, 147, 113, 162, 176
-0.994843, 369, 133, 496, 164
-0.994848, 49, 145, 176, 176
-0.99486, 109, 153, 124, 216
-0.994929, 353, 173, 480, 204
-0.994931, 253, 153, 268, 216
-0.994932, 55, 33, 70, 96
-0.994937, 129, 149, 256, 180
-0.994949, 433, 161, 448, 224
-0.994953, 97, 289, 352, 352
-0.994971, 449, 177, 464, 240
-0.994977, 65, 53, 192, 84
-0.995025, 113, 281, 128, 344
-0.995026, 53, 121, 68, 184
-0.995041, 43, 33, 58, 96
-0.995045, 443, 145, 458, 208
-0.995045, 289, 69, 416, 100
-0.99505, 131, 81, 146, 144
-0.995056, 413, 129, 428, 192
-0.995057, 161, 193, 288, 224
-0.995067, 209, 181, 336, 212
-0.995069, 97, 125, 224, 156
-0.995077, 383, 137, 398, 200
-0.995079, 241, 125, 368, 156
-0.995101, 33, 81, 48, 144
-0.99511, 103, 193, 118, 256
-0.995116, 47, 145, 62, 208
-0.995125, 113, 293, 240, 324
-0.995134, 193, 313, 320, 344
-0.995165, 49, 205, 176, 236
-0.995173, 1, 41, 500, 104
-0.995185, 241, 109, 368, 140
-0.995185, 17, 61, 144, 92
-0.995221, 441, 121, 456, 184
-0.995231, 481, 121, 496, 184
-0.995235, 475, 121, 490, 184
-0.995237, 49, 81, 176, 112
-0.995238, 1, 193, 128, 224
-0.995241, 1, 297, 128, 328
-0.995242, 99, 73, 114, 136
-0.995251, 1, 289, 16, 352
-0.99526, 369, 73, 384, 136
-0.995268, 277, 73, 292, 136
-0.995271, 59, 265, 74, 328
-0.995272, 115, 129, 130, 192
-0.995279, 1, 157, 128, 188
-0.995281, 391, 185, 406, 248
-0.995302, 23, 137, 38, 200
-0.995308, 3, 265, 18, 328
-0.99531, 481, 41, 496, 104
-0.995311, 33, 109, 160, 140
-0.995326, 279, 161, 294, 224
-0.995327, 187, 137, 202, 200
-0.995329, 157, 89, 172, 152
-0.995382, 39, 65, 54, 128
-0.995383, 97, 89, 224, 120
-0.995387, 361, 97, 376, 160
-0.995397, 267, 153, 282, 216
-0.995404, 33, 121, 160, 152
-0.995407, 297, 201, 312, 264
-0.995408, 73, 249, 88, 312
-0.995416, 459, 137, 474, 200
-0.995423, 337, 117, 464, 148
-0.995429, 277, 129, 292, 192
-0.995447, 57, 57, 72, 120
-0.995458, 273, 181, 400, 212
-0.995475, 67, 249, 82, 312
-0.99548, 177, 105, 304, 136
-0.995483, 111, 257, 126, 320
-0.995484, 105, 1, 136, 256
-0.995503, 343, 49, 358, 112
-0.995511, 97, 281, 224, 312
-0.995516, 293, 169, 308, 232
-0.995521, 167, 129, 182, 192
-0.995527, 33, 129, 48, 192
-0.995531, 125, 65, 156, 320
-0.995532, 145, 45, 272, 76
-0.995538, 7, 129, 22, 192
-0.995545, 33, 181, 160, 212
-0.995554, 97, 237, 224, 268
-0.995559, 193, 249, 448, 312
-0.99556, 97, 197, 224, 228
-0.995585, 17, 265, 144, 296
-0.995587, 357, 49, 372, 112
-0.995591, 149, 49, 164, 112
-0.995593, 37, 33, 52, 96
-0.995594, 13, 289, 28, 352
-0.995601, 45, 89, 60, 152
-0.995605, 29, 33, 44, 96
-0.995607, 353, 1, 416, 352
-0.99561, 17, 133, 144, 164
-0.995611, 467, 201, 482, 264
-0.995617, 373, 121, 388, 184
-0.995619, 283, 57, 298, 120
-0.995626, 119, 281, 134, 344
-0.995645, 129, 181, 256, 212
-0.995646, 287, 193, 302, 256
-0.995651, 1, 201, 500, 264
-0.995657, 107, 33, 122, 96
-0.995664, 431, 185, 446, 248
-0.995665, 81, 253, 208, 284
-0.995665, 21, 289, 36, 352
-0.995695, 129, 161, 256, 192
-0.995701, 97, 113, 224, 144
-0.995709, 455, 33, 470, 96
-0.995729, 369, 161, 496, 192
-0.995732, 209, 213, 336, 244
-0.995739, 397, 161, 412, 224
-0.99574, 309, 65, 324, 128
-0.995741, 125, 97, 140, 160
-0.995743, 49, 33, 64, 96
-0.99575, 107, 281, 122, 344
-0.995754, 145, 69, 272, 100
-0.995772, 23, 161, 38, 224
-0.995775, 129, 249, 256, 280
-0.995775, 65, 33, 80, 96
-0.995777, 389, 137, 404, 200
-0.995782, 77, 33, 92, 96
-0.995783, 161, 33, 176, 96
-0.995802, 435, 113, 450, 176
-0.995811, 1, 33, 16, 96
-0.995824, 257, 17, 384, 80
-0.995826, 161, 85, 288, 116
-0.99584, 115, 153, 130, 216
-0.995846, 161, 293, 288, 324
-0.99586, 27, 81, 42, 144
-0.995861, 17, 37, 144, 68
-0.995881, 257, 81, 384, 112
-0.995884, 33, 245, 160, 276
-0.995894, 289, 133, 416, 164
-0.995899, 161, 273, 288, 304
-0.99591, 209, 197, 336, 228
-0.995912, 193, 289, 448, 352
-0.995915, 41, 145, 56, 208
-0.995922, 195, 129, 210, 192
-0.995922, 417, 153, 432, 216
-0.995927, 239, 153, 254, 216
-0.995932, 47, 185, 62, 248
-0.995936, 209, 1, 336, 64
-0.995937, 257, 209, 500, 272
-0.99594, 221, 257, 236, 320
-0.995954, 225, 153, 352, 184
-0.995964, 101, 265, 116, 328
-0.995973, 255, 129, 270, 192
-0.99598, 459, 161, 474, 224
-0.995982, 247, 145, 262, 208
-0.995983, 321, 97, 448, 128
-0.995985, 67, 225, 82, 288
-0.995988, 459, 201, 474, 264
-0.995993, 353, 213, 480, 244
-0.996002, 321, 57, 448, 88
-0.996006, 441, 33, 456, 96
-0.996012, 443, 65, 458, 128
-0.996018, 321, 161, 448, 192
-0.996019, 225, 69, 352, 100
-0.996019, 469, 169, 484, 232
-0.996057, 469, 121, 484, 184
-0.996058, 97, 193, 112, 256
-0.996097, 65, 1, 96, 256
-0.996103, 137, 65, 168, 320
-0.996138, 241, 321, 368, 352
-0.996156, 161, 237, 288, 268
-0.996169, 273, 209, 400, 240
-0.996177, 85, 33, 116, 288
-0.996204, 337, 69, 464, 100
-0.99626, 49, 289, 176, 320
-0.996266, 17, 1, 48, 256
-0.996305, 1, 309, 128, 340
-0.996342, 257, 169, 384, 200
-0.996358, 241, 141, 368, 172
-0.996387, 1, 169, 256, 232
-0.996408, 1, 9, 256, 72
-0.996481, 33, 169, 160, 200
-0.996482, 19, 113, 34, 144
-0.996496, 289, 117, 416, 148
-0.996518, 81, 157, 208, 188
-0.996522, 113, 309, 240, 340
-0.996554, 97, 265, 352, 328
-0.996573, 49, 301, 176, 332
-0.996575, 273, 197, 400, 228
-0.996581, 273, 57, 400, 88
-0.996581, 267, 137, 282, 168
-0.996593, 113, 97, 144, 352
-0.996602, 1, 289, 500, 352
-0.996613, 353, 189, 480, 220
-0.996617, 29, 1, 60, 256
-0.996624, 97, 209, 224, 240
-0.996642, 353, 37, 480, 68
-0.996646, 145, 97, 160, 128
-0.996663, 113, 29, 240, 60
-0.996665, 161, 205, 288, 236
-0.996693, 1, 1, 32, 256
-0.996698, 1, 145, 128, 176
-0.996708, 177, 1, 208, 256
-0.996726, 33, 217, 160, 248
-0.996774, 173, 97, 204, 352
-0.996777, 149, 109, 164, 140
-0.996794, 305, 81, 432, 112
-0.9968, 177, 33, 304, 64
-0.996806, 45, 121, 60, 152
-0.99684, 369, 105, 496, 136
-0.996844, 353, 225, 480, 256
-0.996846, 129, 225, 256, 256
-0.996866, 63, 129, 78, 160
-0.996876, 289, 149, 416, 180
-0.996883, 193, 33, 224, 288
-0.996905, 157, 97, 188, 352
-0.996916, 209, 241, 336, 272
-0.996927, 269, 149, 284, 180
-0.99693, 369, 321, 496, 352
-0.996961, 153, 1, 184, 256
-0.996961, 429, 33, 460, 288
-0.996969, 65, 29, 192, 60
-0.997012, 101, 97, 132, 352
-0.997015, 29, 121, 44, 152
-0.997017, 369, 49, 496, 80
-0.997024, 51, 137, 66, 168
-0.997038, 23, 129, 38, 160
-0.997038, 135, 109, 150, 140
-0.997042, 45, 1, 76, 256
-0.997051, 7, 117, 22, 148
-0.997053, 57, 97, 88, 352
-0.997055, 225, 53, 352, 84
-0.997055, 139, 97, 154, 128
-0.997061, 261, 141, 276, 172
-0.997075, 369, 81, 496, 112
-0.997075, 35, 129, 50, 160
-0.997084, 259, 157, 274, 188
-0.997102, 167, 145, 182, 176
-0.997103, 225, 297, 352, 328
-0.997122, 425, 125, 440, 156
-0.997128, 353, 33, 384, 288
-0.997129, 369, 285, 496, 316
-0.997136, 261, 65, 292, 320
-0.99714, 97, 269, 224, 300
-0.997158, 33, 109, 48, 140
-0.997173, 1, 321, 128, 352
-0.997192, 193, 253, 320, 284
-0.997204, 185, 149, 200, 180
-0.997206, 453, 1, 484, 256
-0.997213, 55, 185, 70, 216
-0.997232, 241, 97, 368, 128
-0.997233, 29, 97, 60, 352
-0.997235, 111, 285, 126, 316
-0.997247, 141, 85, 156, 116
-0.997268, 17, 125, 32, 156
-0.997281, 133, 97, 148, 128
-0.997299, 13, 105, 28, 136
-0.99731, 95, 201, 110, 232
-0.997311, 159, 133, 174, 164
-0.997337, 441, 41, 456, 72
-0.997339, 27, 101, 42, 132
-0.997345, 17, 49, 144, 80
-0.997345, 63, 193, 78, 224
-0.997346, 209, 1, 240, 256
-0.997356, 209, 225, 336, 256
-0.997357, 427, 141, 442, 172
-0.997357, 151, 193, 166, 224
-0.997358, 151, 61, 166, 92
-0.997367, 13, 137, 28, 168
-0.997397, 137, 125, 152, 156
-0.997398, 115, 145, 130, 176
-0.997399, 1, 177, 500, 240
-0.997401, 443, 125, 458, 156
-0.997402, 481, 53, 496, 84
-0.997406, 277, 81, 292, 112
-0.997407, 1, 97, 32, 352
-0.997416, 285, 65, 316, 320
-0.997417, 121, 125, 136, 156
-0.997423, 1, 85, 128, 116
-0.997427, 387, 145, 402, 176
-0.997431, 441, 149, 456, 180
-0.997436, 387, 173, 402, 204
-0.997438, 41, 109, 56, 140
-0.997439, 299, 53, 314, 84
-0.99744, 103, 205, 118, 236
-0.99744, 145, 321, 272, 352
-0.997442, 257, 225, 384, 256
-0.997445, 1, 113, 16, 144
-0.997451, 145, 261, 272, 292
-0.997452, 465, 205, 480, 236
-0.997454, 153, 121, 168, 152
-0.997465, 449, 109, 464, 140
-0.997465, 249, 153, 264, 184
-0.997465, 81, 225, 208, 256
-0.997466, 49, 321, 176, 352
-0.997467, 21, 101, 36, 132
-0.997469, 143, 109, 158, 140
-0.997474, 1, 97, 16, 128
-0.997477, 453, 37, 468, 68
-0.997477, 53, 157, 68, 188
-0.997478, 381, 149, 396, 180
-0.997483, 305, 221, 432, 252
-0.997495, 241, 309, 368, 340
-0.997499, 13, 149, 28, 180
-0.997502, 417, 137, 432, 168
-0.997521, 45, 137, 60, 168
-0.997521, 255, 141, 270, 172
-0.997522, 41, 97, 72, 352
-0.997523, 289, 185, 304, 216
-0.997528, 87, 157, 102, 188
-0.997531, 209, 281, 336, 312
-0.997534, 469, 169, 484, 200
-0.997537, 1, 205, 128, 236
-0.997537, 483, 117, 498, 148
-0.99756, 131, 121, 146, 152
-0.997561, 305, 45, 432, 76
-0.997564, 457, 97, 488, 352
-0.997567, 465, 1, 496, 256
-0.997571, 65, 141, 80, 172
-0.997572, 241, 41, 368, 72
-0.997572, 71, 193, 86, 224
-0.997576, 463, 29, 478, 60
-0.997576, 141, 137, 156, 168
-0.997577, 485, 69, 500, 100
-0.997578, 209, 265, 336, 296
-0.997581, 189, 137, 204, 168
-0.997583, 273, 65, 304, 320
-0.997593, 233, 1, 264, 256
-0.997605, 277, 161, 292, 192
-0.997616, 433, 201, 448, 232
-0.997617, 209, 85, 336, 116
-0.997619, 455, 17, 470, 48
-0.997621, 57, 145, 72, 176
-0.997621, 163, 193, 178, 224
-0.997621, 57, 197, 72, 228
-0.997626, 391, 161, 406, 192
-0.997632, 395, 177, 410, 208
-0.997637, 457, 49, 472, 80
-0.997637, 17, 25, 144, 56
-0.99764, 437, 113, 452, 144
-0.997644, 433, 129, 448, 160
-0.997648, 39, 141, 54, 172
-0.997649, 31, 193, 46, 224
-0.997663, 441, 61, 456, 92
-0.997666, 291, 317, 306, 348
-0.997668, 355, 117, 370, 148
-0.997675, 99, 89, 114, 120
-0.997676, 459, 165, 474, 196
-0.997681, 301, 33, 332, 288
-0.997683, 191, 149, 206, 180
-0.997691, 1, 133, 16, 164
-0.997691, 277, 133, 292, 164
-0.997692, 483, 137, 498, 168
-0.997693, 423, 153, 438, 184
-0.997693, 129, 109, 144, 140
-0.997696, 457, 209, 472, 240
-0.997697, 369, 305, 496, 336
-0.997698, 451, 49, 466, 80
-0.997699, 453, 141, 468, 172
-0.997707, 397, 65, 428, 320
-0.997711, 105, 157, 120, 188
-0.99772, 139, 193, 154, 224
-0.997721, 3, 297, 18, 328
-0.997721, 447, 61, 462, 92
-0.997725, 17, 285, 32, 316
-0.99773, 151, 97, 166, 128
-0.997737, 471, 133, 486, 164
-0.997737, 309, 61, 324, 92
-0.997738, 13, 97, 44, 352
-0.99774, 101, 193, 116, 224
-0.997742, 231, 301, 246, 332
-0.997745, 327, 109, 342, 140
-0.997746, 251, 321, 266, 352
-0.997746, 433, 173, 448, 204
-0.997748, 1, 157, 16, 188
-0.997749, 397, 165, 412, 196
-0.997749, 109, 209, 124, 240
-0.99775, 57, 133, 72, 164
-0.99775, 33, 141, 48, 172
-0.997757, 231, 161, 246, 192
-0.997758, 35, 181, 50, 212
-0.99776, 473, 145, 488, 176
-0.997761, 7, 129, 22, 160
-0.997762, 219, 193, 234, 224
-0.997764, 221, 293, 236, 324
-0.997765, 245, 65, 276, 320
-0.997769, 289, 321, 416, 352
-0.997772, 397, 189, 412, 220
-0.997774, 131, 141, 146, 172
-0.997776, 443, 73, 458, 104
-0.997778, 51, 205, 66, 236
-0.997778, 89, 145, 104, 176
-0.997778, 43, 173, 58, 204
-0.99779, 69, 97, 100, 352
-0.997817, 313, 65, 344, 320
-0.997848, 441, 1, 472, 256
-0.997852, 409, 65, 440, 320
-0.99786, 365, 65, 396, 320
-0.997906, 165, 1, 196, 256
-0.997911, 353, 237, 480, 268
-0.997931, 257, 25, 500, 88
-0.99796, 17, 229, 144, 260
-0.998081, 469, 97, 500, 352
-0.998109, 341, 1, 372, 256
-0.998158, 381, 97, 412, 352
-0.998164, 441, 97, 472, 352
-0.998301, 213, 97, 244, 352
-0.998307, 221, 1, 252, 256
-0.998372, 1, 127, 64, 142
-0.998386, 113, 133, 176, 148
-0.998389, 129, 139, 192, 154
-0.99839, 97, 149, 160, 164
-0.998395, 97, 127, 160, 142
-0.998396, 1, 111, 64, 126
-0.9984, 97, 107, 160, 122
-0.998401, 97, 99, 160, 114
-0.998401, 65, 151, 128, 166
-0.998415, 9, 119, 72, 134
-0.998416, 137, 197, 200, 212
-0.998419, 17, 153, 80, 168
-0.998422, 57, 197, 120, 212
-0.998425, 41, 145, 104, 160
-0.998438, 25, 133, 88, 148
-0.998438, 97, 143, 160, 158
-0.998441, 41, 151, 104, 166
-0.998443, 49, 157, 112, 172
-0.998448, 89, 201, 152, 216
-0.998451, 161, 201, 224, 216
-0.998454, 97, 157, 160, 172
-0.99846, 145, 131, 208, 146
-0.998461, 25, 281, 88, 296
-0.998462, 17, 139, 80, 154
-0.998464, 241, 147, 304, 162
-0.998468, 33, 99, 96, 114
-0.998476, 97, 113, 160, 128
-0.998476, 65, 143, 128, 158
-0.99848, 85, 79, 116, 94
-0.998482, 49, 151, 80, 166
-0.998482, 313, 83, 344, 98
-0.998482, 1, 285, 64, 300
-0.998483, 161, 77, 192, 92
-0.998483, 41, 139, 104, 154
-0.998484, 469, 137, 500, 152
-0.998484, 157, 191, 188, 206
-0.998484, 389, 183, 420, 198
-0.998484, 441, 49, 472, 64
-0.998484, 21, 139, 52, 154
-0.998484, 141, 65, 172, 80
-0.998485, 17, 147, 80, 162
-0.998485, 33, 197, 96, 212
-0.998486, 89, 193, 152, 208
-0.998486, 105, 207, 168, 222
-0.998486, 69, 143, 100, 158
-0.998486, 265, 155, 296, 170
-0.998488, 41, 133, 72, 148
-0.998488, 37, 211, 68, 226
-0.998488, 285, 57, 316, 72
-0.998489, 29, 97, 60, 112
-0.998489, 469, 157, 500, 172
-0.99849, 425, 207, 456, 222
-0.99849, 33, 191, 64, 206
-0.998491, 53, 203, 84, 218
-0.998491, 441, 39, 472, 54
-0.998491, 125, 323, 156, 338
-0.998492, 113, 201, 176, 216
-0.998493, 1, 133, 64, 148
-0.998493, 45, 99, 76, 114
-0.998493, 101, 289, 132, 304
-0.998493, 217, 195, 248, 210
-0.998494, 85, 95, 116, 110
-0.998495, 137, 203, 200, 218
-0.998495, 1, 105, 64, 120
-0.998495, 313, 113, 344, 128
-0.998495, 241, 141, 304, 156
-0.998495, 129, 207, 160, 222
-0.998496, 73, 159, 104, 174
-0.998496, 457, 217, 488, 232
-0.998496, 121, 147, 184, 162
-0.998497, 113, 209, 144, 224
-0.998497, 201, 289, 232, 304
-0.998497, 237, 321, 268, 336
-0.998497, 113, 121, 176, 136
-0.998497, 445, 63, 476, 78
-0.998498, 1, 167, 32, 182
-0.998499, 457, 149, 488, 164
-0.998499, 437, 177, 468, 192
-0.9985, 233, 161, 296, 176
-0.9985, 129, 155, 192, 170
-0.998501, 9, 117, 40, 132
-0.998501, 281, 83, 344, 98
-0.998501, 305, 65, 336, 80
-0.998501, 385, 167, 448, 182
-0.998502, 133, 139, 164, 154
-0.998502, 385, 177, 416, 192
-0.998502, 137, 201, 168, 216
-0.998502, 449, 165, 480, 180
-0.998503, 93, 193, 124, 208
-0.998505, 121, 97, 152, 112
-0.998506, 281, 81, 312, 96
-0.998506, 281, 327, 344, 342
-0.998506, 425, 141, 488, 156
-0.998506, 41, 123, 104, 138
-0.998506, 49, 205, 112, 220
-0.998506, 409, 131, 472, 146
-0.998507, 1, 295, 64, 310
-0.998507, 409, 161, 472, 176
-0.998507, 305, 67, 368, 82
-0.998508, 217, 173, 280, 188
-0.998508, 85, 113, 116, 128
-0.998509, 441, 211, 472, 226
-0.998509, 437, 147, 468, 162
-0.99851, 89, 133, 152, 148
-0.998511, 137, 73, 200, 88
-0.998512, 261, 337, 292, 352
-0.998512, 233, 335, 296, 350
-0.998513, 17, 283, 48, 298
-0.998514, 97, 291, 160, 306
-0.998514, 153, 79, 216, 94
-0.998514, 121, 155, 152, 170
-0.998515, 73, 151, 104, 166
-0.998515, 9, 101, 40, 116
-0.998516, 169, 289, 232, 304
-0.998516, 121, 99, 184, 114
-0.998516, 33, 155, 64, 170
-0.998516, 149, 203, 180, 218
-0.998517, 209, 195, 272, 210
-0.998517, 321, 81, 384, 96
-0.998517, 277, 187, 308, 202
-0.998518, 301, 83, 332, 98
-0.998518, 449, 55, 480, 70
-0.998519, 121, 131, 152, 146
-0.99852, 469, 143, 500, 158
-0.99852, 105, 137, 136, 152
-0.998521, 161, 149, 224, 164
-0.998521, 57, 131, 120, 146
-0.998521, 265, 173, 296, 188
-0.998522, 385, 127, 448, 142
-0.998522, 1, 305, 64, 320
-0.998522, 369, 223, 400, 238
-0.998523, 1, 123, 32, 138
-0.998523, 313, 113, 376, 128
-0.998526, 49, 163, 112, 178
-0.998526, 201, 163, 264, 178
-0.998527, 289, 61, 352, 76
-0.998527, 65, 137, 128, 152
-0.998527, 173, 77, 204, 92
-0.998527, 285, 193, 316, 208
-0.998529, 141, 71, 172, 86
-0.998529, 257, 191, 320, 206
-0.998529, 165, 153, 196, 168
-0.998529, 145, 293, 208, 308
-0.99853, 37, 185, 68, 200
-0.99853, 17, 161, 80, 176
-0.998531, 65, 113, 80, 240
-0.998531, 429, 155, 460, 170
-0.998532, 193, 41, 256, 56
-0.998532, 301, 121, 332, 136
-0.998533, 85, 103, 116, 118
-0.998533, 417, 39, 480, 54
-0.998533, 153, 43, 216, 58
-0.998534, 421, 149, 452, 164
-0.998534, 185, 197, 248, 212
-0.998534, 121, 285, 184, 300
-0.998535, 201, 319, 264, 334
-0.998535, 1, 131, 32, 146
-0.998535, 33, 211, 96, 226
-0.998535, 61, 157, 92, 172
-0.998535, 81, 121, 144, 136
-0.998536, 97, 41, 160, 56
-0.998536, 393, 173, 456, 188
-0.998536, 81, 199, 112, 214
-0.998537, 105, 159, 136, 174
-0.998537, 425, 121, 488, 136
-0.998537, 417, 173, 480, 188
-0.998537, 165, 203, 196, 218
-0.998538, 41, 127, 72, 142
-0.998539, 73, 207, 136, 222
-0.998539, 269, 165, 300, 180
-0.998539, 153, 67, 216, 82
-0.998541, 9, 111, 40, 126
-0.998541, 57, 271, 120, 286
-0.998541, 9, 137, 40, 152
-0.998542, 105, 299, 168, 314
-0.998542, 109, 99, 140, 114
-0.998542, 41, 117, 104, 132
-0.998543, 153, 113, 216, 128
-0.998543, 33, 189, 96, 204
-0.998544, 1, 287, 32, 302
-0.998546, 69, 137, 100, 152
-0.998546, 417, 179, 480, 194
-0.998547, 289, 113, 352, 128
-0.998548, 433, 151, 496, 166
-0.998549, 57, 265, 120, 280
-0.998549, 129, 191, 192, 206
-0.998551, 97, 327, 160, 342
-0.998551, 25, 103, 56, 118
-0.998552, 185, 295, 248, 310
-0.998552, 361, 79, 424, 94
-0.998552, 277, 337, 308, 352
-0.998552, 117, 137, 148, 152
-0.998553, 61, 197, 92, 212
-0.998553, 297, 77, 360, 92
-0.998554, 297, 119, 360, 134
-0.998554, 433, 65, 496, 80
-0.998555, 141, 127, 172, 142
-0.998555, 109, 203, 140, 218
-0.998556, 465, 57, 496, 72
-0.998556, 41, 109, 104, 124
-0.998556, 97, 93, 160, 108
-0.998556, 73, 213, 136, 228
-0.998556, 361, 163, 424, 178
-0.998556, 97, 71, 160, 86
-0.998557, 153, 139, 216, 154
-0.998557, 105, 149, 136, 164
-0.998559, 145, 99, 208, 114
-0.998559, 385, 137, 448, 152
-0.998559, 209, 157, 272, 172
-0.998559, 321, 73, 384, 88
-0.998559, 345, 225, 408, 240
-0.99856, 57, 95, 120, 110
-0.99856, 73, 157, 136, 172
-0.99856, 41, 217, 104, 232
-0.998561, 417, 207, 480, 222
-0.998562, 345, 125, 408, 140
-0.998563, 1, 97, 64, 112
-0.998564, 25, 291, 88, 306
-0.998564, 121, 109, 184, 124
-0.998564, 245, 161, 276, 176
-0.998565, 85, 151, 116, 166
-0.998565, 265, 139, 296, 154
-0.998565, 249, 319, 312, 334
-0.998566, 241, 153, 304, 168
-0.998567, 417, 129, 448, 144
-0.998567, 257, 335, 320, 350
-0.998568, 145, 287, 208, 302
-0.998568, 209, 285, 272, 300
-0.998569, 53, 145, 84, 160
-0.998569, 273, 75, 336, 90
-0.998569, 25, 109, 56, 124
-0.99857, 253, 141, 284, 156
-0.998573, 45, 191, 76, 206
-0.998573, 173, 145, 204, 160
-0.998579, 145, 195, 176, 210
-0.998583, 137, 115, 168, 130
-0.998586, 157, 197, 188, 212
-0.998587, 29, 131, 60, 146
-0.998591, 29, 115, 60, 130
-0.998592, 257, 163, 288, 178
-0.998595, 29, 281, 60, 296
-0.998597, 13, 123, 44, 138
-0.9986, 381, 129, 396, 256
-0.998604, 137, 99, 168, 114
-0.998604, 121, 149, 152, 164
-0.998606, 105, 143, 136, 158
-0.998609, 49, 277, 80, 292
-0.99861, 97, 203, 128, 218
-0.998612, 53, 139, 84, 154
-0.998613, 121, 143, 152, 158
-0.998615, 173, 197, 204, 212
-0.998617, 145, 133, 176, 148
-0.998622, 41, 139, 72, 154
-0.998624, 133, 93, 164, 108
-0.998631, 53, 133, 84, 148
-0.998633, 125, 201, 156, 216
-0.998636, 129, 105, 160, 120
-0.998636, 29, 121, 60, 136
-0.998639, 13, 129, 44, 144
-0.998645, 253, 147, 284, 162
-0.998648, 121, 125, 152, 140
-0.998661, 141, 121, 172, 136
-0.998672, 279, 113, 294, 240
-0.998712, 129, 97, 144, 224
-0.998733, 273, 97, 288, 224
-0.998736, 159, 113, 174, 240
-0.998745, 445, 65, 460, 192
-0.998759, 13, 97, 28, 224
-0.99876, 279, 65, 294, 192
-0.99876, 387, 129, 402, 256
-0.998791, 37, 113, 52, 240
-0.998791, 129, 1, 384, 64
-0.998793, 151, 81, 166, 208
-0.998799, 23, 97, 38, 224
-0.998805, 51, 65, 66, 192
-0.998808, 165, 129, 180, 256
-0.998812, 59, 113, 74, 240
-0.998819, 1, 97, 16, 224
-0.998823, 431, 97, 446, 224
-0.998824, 53, 129, 68, 256
-0.998825, 43, 97, 58, 224
-0.998825, 143, 97, 158, 224
-0.998827, 9, 49, 24, 176
-0.998843, 63, 65, 78, 192
-0.998854, 273, 145, 288, 272
-0.998861, 133, 49, 148, 176
-0.998888, 325, 65, 356, 320
-0.998907, 123, 33, 138, 160
-0.998908, 121, 113, 136, 240
-0.998932, 31, 97, 46, 224
-0.998938, 63, 193, 78, 320
-0.998944, 109, 49, 124, 176
-0.998952, 21, 49, 36, 176
-0.998956, 441, 129, 456, 256
-0.998957, 197, 49, 212, 176
-0.998959, 453, 1, 468, 128
-0.99896, 391, 177, 406, 304
-0.998961, 71, 129, 86, 256
-0.998963, 107, 145, 122, 272
-0.998964, 195, 129, 210, 256
-0.998965, 171, 145, 186, 272
-0.998973, 79, 145, 94, 272
-0.998974, 3, 49, 18, 176
-0.998977, 181, 129, 196, 256
-0.99898, 159, 65, 174, 192
-0.99898, 57, 65, 72, 192
-0.998987, 285, 65, 300, 192
-0.999007, 219, 177, 234, 304
-0.999008, 285, 129, 300, 256
-0.999014, 29, 49, 44, 176
-0.999016, 51, 17, 66, 144
-0.999016, 447, 113, 462, 240
-0.999017, 43, 49, 58, 176
-0.999019, 383, 177, 398, 304
-0.99902, 69, 193, 84, 320
-0.999023, 189, 129, 204, 256
-0.999043, 139, 49, 154, 176
-0.99905, 57, 193, 72, 320
-0.999052, 7, 97, 22, 224
-0.999055, 189, 49, 204, 176
-0.999057, 89, 113, 104, 240
-0.999057, 105, 209, 120, 336
-0.999059, 263, 145, 278, 272
-0.99906, 361, 81, 376, 208
-0.99906, 35, 49, 50, 176
-0.99906, 253, 145, 268, 272
-0.999062, 149, 145, 164, 272
-0.999064, 225, 97, 256, 352
-0.999066, 279, 161, 294, 288
-0.999074, 473, 145, 488, 272
-0.999076, 113, 145, 128, 272
-0.999079, 69, 65, 84, 192
-0.999082, 371, 81, 386, 208
-0.999086, 435, 145, 450, 272
-0.999087, 207, 145, 222, 272
-0.999087, 31, 145, 46, 272
-0.999093, 99, 113, 114, 240
-0.999097, 373, 129, 388, 256
-0.999099, 421, 129, 436, 256
-0.999103, 165, 81, 180, 208
-0.999104, 481, 113, 496, 240
-0.999108, 77, 81, 92, 208
-0.999109, 439, 65, 454, 192
-0.999117, 461, 49, 476, 176
-0.999124, 3, 225, 18, 352
-0.99913, 137, 113, 152, 240
-0.999134, 49, 225, 64, 352
-0.999136, 395, 129, 410, 256
-0.999137, 257, 97, 272, 224
-0.999138, 149, 33, 164, 160
-0.999143, 67, 17, 82, 144
-0.999145, 99, 65, 114, 192
-0.999152, 15, 17, 30, 144
-0.999153, 7, 1, 22, 128
-0.999157, 299, 177, 314, 304
-0.999161, 377, 1, 408, 256
-0.999162, 427, 161, 442, 288
-0.999164, 455, 129, 470, 256
-0.999169, 361, 1, 376, 128
-0.999171, 351, 33, 366, 160
-0.999174, 41, 177, 56, 304
-0.999189, 75, 193, 90, 320
-0.999189, 477, 209, 492, 336
-0.999192, 471, 1, 486, 128
-0.999194, 59, 17, 74, 144
-0.999197, 467, 97, 482, 224
-0.999201, 185, 177, 200, 304
-0.999204, 463, 177, 478, 304
-0.999204, 115, 49, 130, 176
-0.999217, 403, 161, 418, 288
-0.99922, 483, 209, 498, 336
-0.999222, 159, 17, 174, 144
-0.999222, 397, 177, 412, 304
-0.999224, 355, 81, 370, 208
-0.999228, 483, 1, 498, 128
-0.999229, 439, 17, 454, 144
-0.999234, 485, 49, 500, 176
-0.999242, 267, 97, 282, 224
-0.999246, 237, 177, 252, 304
-0.999255, 413, 161, 428, 288
-0.999258, 77, 17, 92, 144
-0.999262, 367, 33, 382, 160
-0.999265, 291, 65, 306, 192
-0.999266, 177, 81, 192, 208
-0.999266, 377, 177, 392, 304
-0.999271, 47, 177, 62, 304
-0.999287, 111, 209, 126, 336
-0.999288, 99, 209, 114, 336
-0.999299, 421, 65, 436, 192
-0.999299, 395, 81, 410, 208
-0.9993, 129, 161, 144, 288
-0.9993, 415, 113, 430, 240
-0.999304, 229, 145, 244, 272
-0.999305, 467, 225, 482, 352
-0.999551, 257, 1, 500, 64
-0.999581, 341, 97, 372, 352
-0.999662, 1, 17, 500, 80
-0.999663, 349, 45, 364, 60
-0.999663, 259, 141, 274, 156
-0.999663, 477, 143, 492, 158
-0.999664, 23, 139, 38, 154
-0.999664, 41, 107, 56, 122
-0.999665, 1, 309, 16, 324
-0.999667, 83, 199, 98, 214
-0.999667, 485, 117, 500, 132
-0.999668, 35, 103, 50, 118
-0.999668, 107, 203, 122, 218
-0.999668, 219, 195, 234, 210
-0.999668, 31, 123, 46, 138
-0.999668, 29, 193, 44, 208
-0.999669, 7, 121, 22, 136
-0.99967, 1, 101, 16, 116
-0.99967, 439, 187, 454, 202
-0.99967, 113, 289, 128, 304
-0.99967, 143, 105, 158, 120
-0.999671, 159, 131, 174, 146
-0.999671, 53, 209, 68, 224
-0.999672, 1, 123, 16, 138
-0.999672, 107, 213, 122, 228
-0.999673, 375, 221, 390, 236
-0.999673, 415, 131, 430, 146
-0.999674, 439, 121, 454, 136
-0.999674, 445, 125, 460, 140
-0.999675, 127, 141, 142, 156
-0.999675, 41, 113, 56, 128
-0.999675, 47, 155, 62, 170
-0.999675, 35, 281, 50, 296
-0.999677, 213, 173, 228, 188
-0.999677, 309, 65, 324, 80
-0.999677, 147, 97, 162, 112
-0.999678, 451, 39, 466, 54
-0.999679, 141, 199, 156, 214
-0.99968, 419, 141, 434, 156
-0.99968, 441, 151, 456, 166
-0.99968, 137, 131, 152, 146
-0.99968, 275, 91, 290, 106
-0.99968, 59, 279, 74, 294
-0.99968, 9, 307, 24, 322
-0.99968, 449, 119, 464, 134
-0.999682, 483, 77, 498, 92
-0.999682, 59, 201, 74, 216
-0.999682, 291, 187, 306, 202
-0.999682, 387, 163, 402, 178
-0.999683, 301, 57, 316, 72
-0.999683, 281, 337, 296, 352
-0.999685, 149, 195, 164, 210
-0.999686, 273, 163, 288, 178
-0.999687, 153, 123, 168, 138
-0.999687, 469, 177, 484, 192
-0.999687, 165, 141, 180, 156
-0.999688, 127, 123, 142, 138
-0.999688, 113, 201, 128, 216
-0.999688, 119, 137, 134, 152
-0.999688, 167, 203, 182, 218
-0.999688, 41, 131, 56, 146
-0.99969, 271, 169, 286, 184
-0.999691, 135, 201, 150, 216
-0.999693, 1, 111, 16, 126
-0.999693, 65, 193, 80, 208
-0.999694, 187, 143, 202, 158
-0.999694, 149, 205, 164, 220
-0.999695, 249, 157, 264, 172
-0.999695, 43, 279, 58, 294
-0.999695, 177, 199, 192, 214
-0.999695, 141, 205, 156, 220
-0.999696, 13, 147, 28, 162
-0.999696, 431, 45, 446, 60
-0.999697, 429, 209, 444, 224
-0.999697, 53, 157, 68, 172
-0.999699, 421, 125, 436, 140
-0.999699, 9, 127, 24, 142
-0.9997, 165, 77, 180, 92
-0.9997, 23, 127, 38, 142
-0.999702, 465, 221, 480, 236
-0.999702, 131, 105, 146, 120
-0.999703, 185, 155, 200, 170
-0.999703, 139, 139, 154, 154
-0.999704, 13, 111, 28, 126
-0.999705, 147, 117, 162, 132
-0.999705, 53, 151, 68, 166
-0.999705, 37, 195, 52, 210
-0.999705, 323, 111, 338, 126
-0.999705, 441, 43, 456, 58
-0.999706, 115, 207, 130, 222
-0.999706, 105, 159, 120, 174
-0.999708, 23, 111, 38, 126
-0.999708, 9, 105, 24, 120
-0.999711, 51, 139, 66, 154
-0.999711, 151, 65, 166, 80
-0.999711, 187, 197, 202, 212
-0.999712, 161, 193, 176, 208
-0.999713, 155, 201, 170, 216
-0.999714, 13, 121, 28, 136
-0.999714, 37, 189, 52, 204
-0.999714, 65, 139, 80, 154
-0.999715, 17, 105, 32, 120
-0.999715, 101, 203, 116, 218
-0.999715, 125, 201, 140, 216
-0.999716, 29, 133, 44, 148
-0.999721, 95, 201, 110, 216
-0.999723, 89, 199, 104, 214
-0.999724, 433, 127, 448, 142
-0.999725, 429, 147, 444, 162
-0.999725, 481, 53, 496, 68
-0.999725, 27, 105, 42, 120
-0.999727, 3, 131, 18, 146
-0.999727, 13, 133, 28, 148
-0.99973, 55, 189, 70, 204
-0.999738, 137, 93, 152, 108
-0.999739, 35, 133, 50, 148
-0.999744, 45, 123, 60, 138
-0.999748, 261, 161, 276, 176
-0.999748, 143, 89, 158, 104
-0.999749, 23, 133, 38, 148
-0.999751, 169, 149, 184, 164
-0.999754, 153, 115, 168, 130
-0.999755, 141, 99, 156, 114
-0.999756, 167, 197, 182, 212
-0.999757, 185, 149, 200, 164
-0.999763, 265, 139, 280, 154
-0.999766, 275, 337, 290, 352
-0.99977, 17, 127, 32, 142
-0.999793, 137, 105, 152, 120
-0.999819, 23, 117, 38, 132
-0.999819, 133, 99, 148, 114
-0.999831, 147, 111, 162, 126
-0.999837, 61, 133, 76, 148
