1969
-0.296543, 1, 1, 500, 375
-0.416963, 1, 1, 256, 375
-0.417431, 1, 129, 500, 375
-0.457183, 1, 1, 500, 256
-0.536791, 1, 1, 256, 256
-0.54179, 129, 1, 384, 375
-0.589022, 257, 1, 500, 375
-0.642894, 33, 129, 288, 375
-0.673975, 193, 97, 448, 352
-0.689716, 97, 1, 352, 256
-0.711349, 257, 1, 500, 256
-0.844911, 1, 1, 128, 256
-0.856205, 97, 1, 224, 375
-0.860516, 1, 1, 128, 375
-0.871858, 49, 129, 176, 375
-0.877465, 145, 1, 272, 256
-0.878263, 97, 65, 224, 320
-0.88017, 145, 1, 272, 375
-0.886336, 1, 129, 128, 375
-0.886827, 49, 1, 176, 375
-0.888384, 1, 129, 500, 256
-0.890627, 209, 65, 336, 320
-0.89216, 1, 81, 500, 208
-0.892212, 1, 1, 500, 128
-0.893248, 49, 1, 176, 256
-0.899141, 193, 1, 320, 375
-0.900668, 353, 1, 480, 375
-0.907337, 353, 33, 480, 288
-0.907754, 289, 1, 416, 375
-0.909639, 145, 97, 272, 352
-0.910636, 257, 1, 384, 256
-0.915379, 241, 1, 368, 375
-0.916561, 1, 177, 500, 304
-0.919348, 1, 145, 256, 272
-0.91941, 273, 97, 400, 352
-0.92667, 193, 97, 448, 224
-0.927451, 1, 65, 256, 192
-0.927476, 97, 97, 352, 224
-0.930892, 305, 1, 432, 256
-0.931033, 369, 129, 496, 375
-0.932413, 1, 241, 500, 368
-0.934999, 1, 1, 256, 128
-0.939719, 97, 1, 352, 128
-0.939993, 17, 1, 144, 128
-0.940755, 97, 1, 224, 128
-0.942222, 161, 33, 288, 160
-0.943626, 1, 161, 64, 288
-0.94439, 161, 49, 416, 176
-0.944391, 129, 1, 192, 128
-0.944582, 9, 1, 72, 128
-0.945288, 1, 193, 256, 320
-0.94579, 193, 1, 448, 128
-0.945796, 257, 49, 500, 176
-0.946113, 193, 97, 320, 224
-0.94615, 25, 193, 88, 320
-0.94716, 145, 65, 208, 192
-0.948248, 1, 193, 128, 320
-0.949988, 1, 113, 64, 240
-0.950755, 105, 1, 168, 128
-0.950997, 113, 113, 240, 240
-0.951412, 33, 49, 160, 176
-0.95286, 193, 177, 448, 304
-0.952869, 321, 129, 448, 375
-0.953384, 1, 209, 64, 336
-0.954366, 1, 65, 64, 192
-0.954661, 97, 65, 224, 192
-0.955591, 25, 145, 88, 272
-0.955607, 49, 145, 176, 272
-0.955726, 177, 49, 240, 176
-0.956097, 97, 145, 352, 272
-0.957108, 353, 49, 480, 176
-0.957401, 17, 169, 80, 232
-0.95772, 33, 1, 96, 128
-0.958361, 129, 241, 384, 368
-0.958625, 105, 65, 168, 192
-0.959379, 33, 241, 288, 368
-0.959556, 1, 129, 64, 192
-0.96132, 113, 113, 176, 240
-0.961511, 241, 81, 304, 208
-0.962001, 289, 65, 416, 192
-0.962115, 217, 97, 280, 224
-0.962164, 161, 113, 224, 240
-0.963312, 201, 17, 264, 144
-0.963508, 49, 177, 112, 304
-0.963643, 153, 89, 216, 152
-0.963908, 1, 145, 128, 272
-0.964374, 169, 1, 232, 128
-0.96479, 41, 201, 104, 264
-0.964798, 369, 65, 432, 192
-0.964819, 137, 113, 200, 240
-0.964845, 25, 49, 88, 176
-0.96512, 1, 33, 64, 96
-0.965985, 241, 1, 304, 128
-0.966186, 73, 145, 136, 272
-0.966226, 177, 177, 304, 304
-0.966748, 409, 49, 472, 176
-0.966811, 33, 1, 96, 64
-0.966871, 57, 177, 120, 240
-0.967005, 369, 1, 496, 128
-0.967066, 241, 65, 368, 192
-0.96774, 57, 1, 120, 128
-0.968197, 153, 33, 216, 96
-0.968457, 17, 97, 144, 224
-0.968492, 65, 241, 192, 368
-0.968553, 49, 193, 176, 320
-0.969452, 17, 217, 80, 280
-0.96948, 1, 33, 64, 288
-0.969489, 97, 193, 352, 320
-0.969505, 17, 57, 80, 120
-0.969622, 129, 161, 256, 288
-0.969648, 337, 97, 464, 224
-0.969809, 201, 177, 264, 304
-0.969907, 193, 97, 256, 224
-0.970349, 89, 33, 152, 96
-0.970531, 241, 81, 304, 144
-0.970574, 177, 161, 240, 288
-0.970642, 1, 193, 64, 256
-0.970945, 57, 25, 120, 88
-0.970991, 73, 241, 136, 368
-0.971014, 225, 1, 352, 128
-0.97111, 241, 113, 368, 240
-0.971363, 113, 9, 176, 72
-0.971391, 289, 145, 416, 272
-0.971705, 33, 241, 96, 368
-0.971734, 105, 281, 168, 344
-0.971799, 97, 1, 160, 256
-0.972048, 81, 49, 144, 176
-0.972541, 273, 17, 400, 144
-0.972611, 1, 241, 128, 368
-0.972809, 369, 73, 432, 136
-0.973301, 169, 65, 232, 128
-0.973303, 1, 81, 32, 208
-0.973343, 257, 209, 384, 336
-0.973364, 129, 225, 256, 352
-0.973377, 9, 161, 40, 288
-0.973653, 1, 49, 32, 112
-0.973702, 49, 129, 112, 256
-0.973852, 1, 33, 32, 160
-0.973901, 17, 33, 48, 160
-0.974098, 225, 241, 480, 368
-0.974184, 33, 1, 64, 128
-0.974286, 33, 33, 160, 96
-0.974288, 321, 1, 448, 128
-0.974411, 113, 137, 176, 200
-0.974557, 41, 289, 104, 352
-0.974609, 145, 113, 208, 176
-0.974741, 97, 33, 224, 96
-0.974788, 1, 105, 64, 168
-0.974817, 153, 1, 216, 256
-0.97482, 129, 1, 192, 256
-0.974938, 1, 81, 64, 144
-0.975376, 209, 89, 272, 152
-0.97544, 169, 1, 232, 64
-0.975467, 25, 1, 88, 256
-0.975682, 141, 1, 172, 128
-0.975753, 97, 161, 160, 224
-0.975924, 113, 73, 176, 136
-0.975939, 425, 49, 488, 112
-0.976152, 25, 97, 88, 224
-0.976175, 201, 1, 264, 256
-0.976297, 129, 41, 192, 104
-0.976447, 33, 145, 64, 272
-0.976579, 17, 305, 80, 368
-0.976659, 29, 25, 60, 88
-0.97683, 17, 9, 144, 72
-0.97685, 161, 153, 224, 216
-0.976907, 105, 225, 168, 352
-0.977002, 321, 225, 448, 352
-0.977176, 25, 129, 88, 375
-0.977278, 177, 113, 240, 176
-0.977361, 201, 17, 264, 80
-0.977391, 37, 49, 68, 112
-0.977444, 129, 281, 192, 344
-0.977497, 185, 41, 248, 104
-0.977558, 13, 81, 44, 208
-0.977673, 161, 81, 192, 144
-0.977702, 1, 209, 128, 272
-0.977774, 129, 1, 160, 128
-0.97783, 97, 129, 160, 375
-0.977892, 5, 177, 36, 240
-0.978113, 225, 177, 288, 304
-0.978461, 345, 65, 408, 192
-0.978464, 25, 25, 88, 88
-0.97855, 73, 249, 136, 312
-0.978551, 41, 1, 72, 64
-0.978554, 1, 129, 64, 375
-0.978934, 65, 289, 192, 352
-0.97895, 65, 281, 128, 344
-0.978979, 97, 161, 160, 288
-0.978996, 57, 193, 88, 320
-0.979049, 241, 1, 304, 64
-0.979405, 161, 49, 288, 112
-0.979406, 13, 33, 44, 96
-0.979407, 1, 265, 64, 328
-0.979485, 41, 49, 104, 112
-0.979527, 265, 97, 328, 224
-0.979592, 161, 225, 224, 352
-0.979613, 177, 1, 240, 256
-0.979644, 53, 1, 84, 128
-0.979741, 1, 105, 32, 168
-0.979871, 137, 9, 200, 72
-0.979873, 65, 129, 128, 375
-0.979879, 57, 1, 120, 64
-0.979922, 161, 65, 192, 192
-0.979928, 361, 113, 424, 240
-0.979977, 21, 129, 52, 256
-0.979993, 117, 17, 148, 144
-0.98025, 33, 177, 160, 240
-0.98048, 193, 81, 320, 144
-0.980507, 417, 1, 480, 128
-0.980544, 145, 97, 272, 160
-0.980572, 369, 209, 432, 336
-0.98062, 21, 209, 52, 336
-0.980712, 25, 185, 56, 248
-0.980745, 53, 1, 84, 64
-0.980753, 241, 161, 368, 288
-0.980756, 177, 89, 240, 152
-0.980862, 105, 33, 136, 96
-0.980898, 253, 65, 284, 192
-0.980992, 17, 113, 48, 176
-0.981005, 225, 1, 288, 256
-0.981076, 113, 9, 240, 72
-0.981106, 133, 65, 164, 192
-0.981151, 265, 49, 328, 176
-0.981277, 25, 89, 88, 152
-0.981302, 157, 17, 188, 144
-0.98132, 81, 73, 208, 136
-0.981324, 185, 177, 248, 240
-0.981363, 25, 49, 56, 112
-0.981434, 33, 49, 64, 176
-0.981464, 1, 209, 32, 336
-0.981695, 33, 145, 96, 208
-0.981712, 181, 33, 212, 160
-0.981785, 33, 209, 64, 336
-0.981825, 337, 177, 464, 304
-0.98186, 49, 193, 80, 256
-0.981933, 353, 73, 480, 136
-0.982078, 113, 145, 240, 208
-0.982253, 33, 57, 160, 120
-0.982277, 369, 17, 432, 144
-0.982426, 49, 25, 80, 88
-0.982446, 57, 153, 120, 216
-0.982449, 137, 97, 200, 352
-0.982469, 73, 193, 136, 320
-0.982507, 61, 193, 92, 256
-0.982674, 145, 65, 208, 128
-0.982689, 273, 89, 400, 152
-0.98273, 81, 1, 144, 128
-0.982739, 17, 89, 48, 152
-0.982778, 45, 169, 76, 232
-0.982816, 33, 209, 64, 272
-0.98282, 177, 1, 304, 64
-0.98286, 133, 129, 164, 256
-0.982876, 361, 257, 424, 320
-0.982923, 65, 49, 128, 112
-0.98294, 321, 33, 384, 160
-0.982987, 129, 161, 192, 224
-0.983035, 129, 177, 192, 304
-0.983045, 73, 33, 136, 288
-0.983045, 1, 1, 64, 375
-0.98306, 49, 1, 112, 256
-0.98308, 241, 105, 304, 168
-0.98309, 89, 65, 152, 128
-0.983145, 393, 1, 456, 128
-0.983149, 29, 161, 60, 224
-0.983201, 337, 113, 400, 240
-0.983215, 1, 233, 128, 296
-0.983241, 265, 81, 328, 144
-0.983287, 425, 25, 488, 88
-0.983287, 393, 65, 456, 128
-0.983305, 17, 153, 144, 216
-0.983398, 49, 233, 112, 296
-0.983398, 25, 257, 88, 320
-0.983528, 209, 225, 336, 352
-0.983584, 1, 129, 32, 192
-0.983596, 145, 1, 208, 375
-0.983617, 261, 73, 292, 136
-0.983625, 97, 1, 160, 375
-0.983638, 45, 209, 76, 336
-0.983744, 93, 33, 124, 96
-0.983749, 45, 145, 76, 272
-0.983824, 249, 177, 312, 304
-0.983826, 345, 113, 408, 176
-0.983833, 65, 9, 192, 72
-0.983838, 253, 1, 284, 128
-0.98385, 269, 65, 300, 192
-0.983862, 209, 41, 272, 104
-0.983969, 1, 265, 128, 328
-0.98398, 201, 137, 264, 200
-0.984094, 137, 137, 200, 200
-0.984215, 73, 305, 136, 368
-0.98426, 145, 177, 272, 240
-0.984286, 129, 73, 256, 136
-0.984291, 9, 1, 72, 64
-0.984309, 169, 129, 232, 375
-0.984348, 97, 17, 128, 144
-0.984377, 297, 81, 360, 208
-0.984394, 401, 1, 464, 64
-0.984397, 209, 193, 272, 256
-0.984416, 97, 193, 160, 256
-0.984425, 417, 105, 480, 168
-0.984437, 313, 129, 376, 256
-0.98444, 129, 305, 192, 368
-0.98472, 369, 81, 400, 144
-0.984748, 25, 1, 88, 375
-0.984815, 233, 33, 264, 160
-0.984839, 97, 265, 224, 328
-0.984958, 145, 113, 176, 240
-0.984972, 1, 289, 128, 352
-0.984984, 193, 105, 320, 168
-0.984989, 197, 1, 228, 64
-0.985037, 49, 257, 112, 320
-0.985047, 289, 105, 352, 168
-0.98506, 369, 49, 496, 112
-0.985087, 17, 129, 144, 192
-0.985148, 329, 81, 392, 144
-0.985149, 17, 217, 48, 280
-0.985153, 201, 1, 232, 128
-0.985174, 49, 201, 176, 264
-0.985329, 169, 1, 200, 128
-0.985398, 329, 209, 392, 336
-0.985398, 129, 241, 192, 368
-0.985414, 249, 81, 280, 144
-0.985485, 137, 73, 168, 136
-0.985496, 113, 121, 240, 184
-0.985544, 1, 81, 32, 144
-0.985643, 209, 217, 272, 280
-0.985668, 209, 97, 272, 352
-0.985816, 1, 81, 128, 144
-0.985826, 193, 1, 256, 375
-0.985905, 21, 137, 52, 200
-0.985933, 113, 257, 176, 320
-0.98594, 69, 169, 100, 232
-0.985961, 121, 1, 184, 375
-0.985973, 25, 113, 88, 176
-0.98599, 321, 273, 384, 336
-0.986, 393, 113, 456, 240
-0.986002, 65, 313, 192, 375
-0.98604, 273, 209, 336, 336
-0.986168, 169, 33, 200, 96
-0.986172, 201, 161, 232, 288
-0.986201, 1, 217, 32, 280
-0.986219, 193, 97, 224, 224
-0.986219, 13, 65, 44, 128
-0.986261, 57, 145, 88, 272
-0.986296, 433, 81, 496, 208
-0.986309, 181, 89, 212, 152
-0.986315, 117, 25, 148, 88
-0.986321, 57, 169, 88, 232
-0.986383, 177, 65, 208, 128
-0.986433, 409, 1, 472, 256
-0.986475, 321, 137, 384, 200
-0.986508, 121, 129, 152, 256
-0.98651, 257, 65, 384, 128
-0.986553, 209, 225, 272, 352
-0.98656, 49, 49, 80, 112
-0.98656, 73, 97, 136, 224
-0.986598, 377, 33, 440, 288
-0.986604, 153, 273, 216, 336
-0.986773, 65, 1, 128, 375
-0.98681, 369, 241, 496, 368
-0.986849, 177, 129, 304, 192
-0.98685, 145, 1, 176, 64
-0.986879, 193, 65, 256, 128
-0.986881, 193, 49, 224, 176
-0.986935, 353, 33, 416, 288
-0.986958, 181, 33, 212, 96
-0.986962, 17, 105, 144, 168
-0.98701, 157, 105, 188, 168
-0.987047, 369, 97, 432, 160
-0.987065, 121, 65, 152, 192
-0.987083, 89, 9, 152, 72
-0.987115, 177, 113, 208, 240
-0.987209, 213, 113, 244, 240
-0.987219, 145, 265, 272, 328
-0.987321, 117, 49, 148, 112
-0.98733, 149, 65, 180, 192
-0.987347, 129, 185, 192, 248
-0.987396, 329, 225, 392, 288
-0.987399, 213, 1, 244, 128
-0.987473, 241, 81, 272, 208
-0.98749, 169, 1, 232, 375
-0.987528, 185, 225, 248, 352
-0.987534, 113, 289, 240, 352
-0.987557, 109, 65, 140, 192
-0.987562, 233, 97, 296, 352
-0.987598, 149, 73, 180, 136
-0.987608, 145, 281, 176, 344
-0.987624, 289, 161, 352, 288
-0.987639, 101, 161, 132, 224
-0.98764, 101, 145, 132, 272
-0.987655, 353, 97, 480, 160
-0.987658, 201, 113, 264, 176
-0.987671, 161, 297, 224, 360
-0.987704, 373, 65, 404, 192
-0.987727, 49, 265, 176, 328
-0.98777, 25, 305, 56, 368
-0.987814, 185, 233, 248, 296
-0.987814, 289, 193, 416, 256
-0.987882, 113, 153, 144, 216
-0.987892, 1, 313, 128, 375
-0.987928, 97, 305, 160, 368
-0.988021, 65, 153, 192, 216
-0.988045, 29, 1, 60, 64
-0.988092, 241, 113, 368, 176
-0.988102, 345, 161, 408, 288
-0.988121, 385, 65, 416, 192
-0.988178, 233, 201, 296, 264
-0.988234, 153, 41, 184, 104
-0.988317, 265, 113, 328, 176
-0.988357, 233, 25, 296, 88
-0.988415, 17, 161, 48, 224
-0.988446, 105, 281, 136, 344
-0.988461, 97, 201, 224, 264
-0.988477, 121, 281, 152, 344
-0.988491, 133, 137, 164, 200
-0.988491, 213, 177, 244, 304
-0.988516, 225, 1, 352, 64
-0.98854, 289, 289, 416, 352
-0.988563, 81, 233, 112, 296
-0.988571, 49, 81, 112, 208
-0.988638, 45, 49, 76, 176
-0.988675, 1, 241, 64, 304
-0.988677, 425, 49, 456, 176
-0.988687, 337, 121, 464, 184
-0.988694, 193, 113, 224, 176
-0.988712, 65, 233, 192, 296
-0.988732, 81, 217, 144, 280
-0.988794, 69, 177, 100, 304
-0.988831, 289, 113, 416, 176
-0.988881, 409, 137, 472, 200
-0.988893, 257, 65, 320, 320
-0.988976, 209, 201, 336, 264
-0.989015, 29, 97, 60, 160
-0.989065, 93, 281, 124, 344
-0.989075, 209, 17, 240, 80
-0.989094, 133, 281, 164, 344
-0.989146, 361, 233, 424, 296
-0.989244, 217, 1, 280, 375
-0.989262, 237, 89, 268, 152
-0.989293, 113, 313, 240, 375
-0.98933, 193, 25, 320, 88
-0.98936, 385, 129, 448, 192
-0.989407, 77, 241, 108, 368
-0.989411, 33, 97, 64, 224
-0.989417, 181, 121, 212, 184
-0.98945, 9, 41, 72, 72
-0.989467, 321, 57, 384, 120
-0.989469, 289, 33, 352, 160
-0.989471, 413, 49, 444, 176
-0.989508, 273, 81, 304, 144
-0.989519, 313, 1, 376, 256
-0.989522, 353, 17, 480, 80
-0.989527, 197, 161, 228, 224
-0.989589, 393, 1, 456, 375
-0.989647, 221, 49, 252, 176
-0.989685, 169, 105, 200, 168
-0.989717, 225, 97, 256, 224
-0.989733, 261, 113, 292, 240
-0.989755, 61, 25, 92, 88
-0.989772, 133, 9, 164, 72
-0.989788, 389, 73, 420, 136
-0.989808, 273, 225, 400, 288
-0.989891, 17, 173, 80, 204
-0.989891, 241, 129, 304, 256
-0.989903, 121, 113, 184, 176
-0.989916, 289, 313, 416, 375
-0.989923, 421, 1, 452, 128
-0.989925, 153, 193, 216, 256
-0.989975, 157, 289, 188, 352
-0.99007, 353, 193, 416, 256
-0.990076, 33, 73, 64, 136
-0.990114, 81, 281, 112, 344
-0.990119, 1, 153, 32, 216
-0.990141, 353, 265, 480, 328
-0.990179, 225, 177, 256, 304
-0.990182, 1, 65, 64, 96
-0.990195, 209, 225, 336, 288
-0.990256, 225, 161, 352, 224
-0.990274, 133, 201, 164, 264
-0.990326, 105, 65, 136, 128
-0.990377, 81, 177, 112, 240
-0.990441, 65, 289, 96, 352
-0.990486, 1, 113, 64, 144
-0.990518, 133, 41, 164, 104
-0.990531, 377, 209, 440, 272
-0.990547, 233, 25, 264, 88
-0.990559, 281, 65, 312, 192
-0.990561, 289, 265, 416, 328
-0.990604, 1, 133, 64, 164
-0.990613, 401, 65, 432, 192
-0.990638, 65, 1, 96, 128
-0.990639, 129, 241, 256, 304
-0.990651, 169, 93, 232, 124
-0.990701, 9, 29, 72, 60
-0.99074, 297, 225, 360, 352
-0.990765, 113, 285, 176, 316
-0.990781, 41, 205, 104, 236
-0.990785, 265, 273, 328, 336
-0.990786, 49, 37, 112, 68
-0.990796, 25, 13, 88, 44
-0.990817, 233, 81, 296, 112
-0.990822, 65, 241, 96, 368
-0.990837, 145, 121, 176, 184
-0.99087, 193, 33, 224, 96
-0.990871, 337, 305, 400, 368
-0.990873, 73, 241, 136, 272
-0.990884, 113, 257, 144, 320
-0.99089, 369, 305, 496, 368
-0.990917, 369, 49, 432, 112
-0.990918, 69, 129, 100, 256
-0.990925, 33, 61, 96, 92
-0.990925, 281, 1, 344, 256
-0.990935, 1, 53, 64, 84
-0.990974, 57, 193, 120, 224
-0.990986, 9, 209, 72, 240
-0.991008, 9, 221, 72, 252
-0.991023, 161, 313, 288, 375
-0.991054, 213, 185, 244, 248
-0.99106, 265, 217, 328, 280
-0.991071, 161, 37, 224, 68
-0.991081, 129, 13, 192, 44
-0.99109, 413, 65, 444, 128
-0.991106, 253, 1, 284, 64
-0.991119, 185, 9, 216, 72
-0.991157, 369, 77, 432, 108
-0.991162, 165, 57, 196, 120
-0.991174, 205, 49, 236, 176
-0.991179, 197, 57, 228, 120
-0.991193, 97, 97, 224, 160
-0.991239, 273, 57, 336, 120
-0.99131, 1, 33, 256, 96
-0.991319, 49, 25, 112, 56
-0.991355, 17, 185, 80, 216
-0.99136, 201, 41, 264, 72
-0.991374, 161, 249, 224, 312
-0.991424, 1, 77, 64, 108
-0.991434, 33, 49, 96, 80
-0.991451, 137, 81, 200, 112
-0.991466, 37, 129, 68, 192
-0.99148, 165, 113, 196, 240
-0.991485, 9, 297, 40, 360
-0.991492, 453, 41, 484, 104
-0.991498, 289, 145, 416, 208
-0.991501, 265, 1, 296, 64
-0.991502, 177, 201, 240, 264
-0.991502, 425, 49, 488, 80
-0.991507, 145, 105, 208, 136
-0.991522, 41, 177, 104, 208
-0.991538, 297, 241, 360, 304
-0.991544, 417, 1, 480, 375
-0.991561, 25, 1, 88, 32
-0.991565, 137, 289, 200, 320
-0.99157, 113, 149, 176, 180
-0.991581, 233, 57, 296, 120
-0.991594, 65, 289, 128, 320
-0.991597, 1, 101, 64, 132
-0.991609, 89, 33, 152, 64
-0.991619, 121, 25, 184, 56
-0.991619, 305, 1, 368, 375
-0.991632, 153, 65, 216, 96
-0.991638, 393, 105, 456, 168
-0.991673, 97, 65, 128, 192
-0.991676, 89, 45, 152, 76
-0.991681, 201, 29, 264, 60
-0.991692, 201, 105, 264, 136
-0.991702, 337, 193, 464, 256
-0.991706, 393, 25, 456, 88
-0.991714, 97, 69, 160, 100
-0.991718, 161, 1, 224, 32
-0.991726, 353, 241, 480, 304
-0.991749, 137, 137, 200, 168
-0.991751, 209, 273, 336, 336
-0.991763, 81, 177, 208, 240
-0.991767, 29, 273, 60, 336
-0.991771, 41, 297, 104, 328
-0.991782, 33, 217, 96, 248
-0.991803, 73, 169, 136, 200
-0.991818, 17, 161, 80, 192
-0.99183, 161, 157, 224, 188
-0.991843, 49, 241, 112, 272
-0.99186, 85, 1, 116, 128
-0.991866, 337, 249, 400, 312
-0.99191, 445, 33, 476, 160
-0.99191, 261, 97, 292, 160
-0.991914, 1, 197, 64, 228
-0.991926, 169, 13, 232, 44
-0.991935, 281, 1, 344, 375
-0.991941, 369, 1, 432, 64
-0.991945, 185, 53, 248, 84
-0.991954, 193, 17, 256, 48
-0.991956, 161, 289, 288, 352
-0.99198, 297, 97, 360, 352
-0.991987, 105, 161, 168, 192
-0.991989, 97, 241, 128, 368
-0.991997, 345, 121, 408, 152
-0.992003, 241, 249, 368, 312
-0.992015, 57, 53, 120, 84
-0.992019, 353, 1, 416, 375
-0.99203, 45, 217, 76, 280
-0.992031, 73, 321, 136, 352
-0.992033, 377, 105, 408, 168
-0.992038, 145, 121, 208, 152
-0.99204, 81, 257, 112, 320
-0.992042, 65, 129, 192, 192
-0.992057, 97, 57, 160, 88
-0.992073, 25, 121, 88, 152
-0.992075, 217, 5, 280, 36
-0.992078, 117, 193, 148, 320
-0.992086, 93, 185, 124, 248
-0.992103, 49, 9, 112, 40
-0.992107, 225, 185, 256, 248
-0.992117, 217, 93, 280, 124
-0.99214, 81, 229, 144, 260
-0.992163, 89, 301, 152, 332
-0.992192, 89, 285, 152, 316
-0.992202, 357, 113, 388, 176
-0.992209, 385, 313, 448, 375
-0.992222, 257, 1, 320, 32
-0.992228, 189, 145, 220, 272
-0.992242, 137, 53, 200, 84
-0.992245, 33, 161, 288, 224
-0.992257, 257, 105, 320, 136
-0.99226, 177, 117, 240, 148
-0.992268, 129, 69, 192, 100
-0.992273, 273, 85, 336, 116
-0.992279, 321, 41, 448, 104
-0.992283, 329, 85, 392, 116
-0.992286, 361, 105, 424, 136
-0.992304, 117, 177, 148, 240
-0.992317, 33, 229, 96, 260
-0.99232, 193, 81, 256, 112
-0.992322, 113, 197, 176, 228
-0.992343, 417, 129, 480, 256
-0.992345, 97, 113, 160, 176
-0.992347, 73, 13, 136, 44
-0.992353, 169, 9, 200, 72
-0.99236, 161, 201, 288, 264
-0.992364, 65, 129, 128, 192
-0.992364, 9, 233, 72, 264
-0.992366, 17, 285, 80, 316
-0.992369, 153, 277, 216, 308
-0.992373, 321, 113, 384, 176
-0.992374, 57, 337, 120, 368
-0.992375, 41, 273, 72, 336
-0.992377, 409, 117, 472, 148
-0.992395, 101, 257, 132, 320
-0.992413, 81, 33, 112, 96
-0.992416, 129, 321, 192, 352
-0.992423, 289, 265, 352, 328
-0.992427, 1, 25, 32, 88
-0.992445, 193, 105, 448, 168
-0.99245, 145, 25, 208, 56
-0.992457, 113, 297, 176, 328
-0.992465, 169, 177, 232, 208
-0.992466, 425, 61, 488, 92
-0.992475, 17, 113, 48, 144
-0.992476, 129, 161, 192, 192
-0.992495, 85, 305, 116, 368
-0.992495, 1, 65, 256, 128
-0.992506, 305, 81, 368, 144
-0.992506, 73, 181, 136, 212
-0.992509, 209, 169, 272, 232
-0.992512, 153, 301, 216, 332
-0.992531, 49, 313, 112, 375
-0.992542, 17, 301, 80, 332
-0.992545, 37, 49, 68, 80
-0.992547, 169, 81, 232, 112
-0.992562, 41, 277, 104, 308
-0.992567, 33, 261, 96, 292
-0.992579, 21, 53, 52, 84
-0.99258, 353, 89, 416, 120
-0.992598, 273, 113, 304, 240
-0.9926, 97, 21, 160, 52
-0.992611, 137, 193, 200, 224
-0.992619, 49, 1, 80, 32
-0.992625, 361, 269, 424, 300
-0.992627, 241, 241, 304, 304
-0.99263, 209, 69, 272, 100
-0.992637, 81, 193, 144, 224
-0.992641, 225, 33, 288, 64
-0.992646, 329, 285, 392, 316
-0.992658, 201, 237, 264, 268
-0.992659, 17, 173, 48, 204
-0.992662, 1, 145, 64, 176
-0.992667, 33, 77, 96, 108
-0.992668, 97, 173, 160, 204
-0.992669, 1, 1, 64, 32
-0.992669, 169, 189, 232, 220
-0.992674, 1, 61, 32, 92
-0.992682, 9, 41, 40, 72
-0.992694, 57, 157, 120, 188
-0.992694, 145, 341, 208, 372
-0.9927, 241, 93, 304, 124
-0.992703, 5, 113, 36, 144
-0.992707, 29, 33, 60, 64
-0.99271, 205, 113, 236, 176
-0.992711, 337, 101, 400, 132
-0.992712, 65, 277, 128, 308
-0.992713, 233, 177, 296, 240
-0.992715, 113, 41, 176, 72
-0.99272, 161, 145, 224, 176
-0.992724, 153, 329, 216, 360
-0.992727, 193, 261, 256, 292
-0.992729, 37, 21, 68, 52
-0.992735, 9, 89, 72, 120
-0.992745, 241, 121, 304, 152
-0.992765, 377, 121, 440, 152
-0.992769, 89, 161, 120, 288
-0.992772, 29, 169, 60, 200
-0.992773, 1, 125, 32, 156
-0.992773, 385, 13, 448, 44
-0.992786, 169, 317, 232, 348
-0.992787, 369, 1, 432, 32
-0.992788, 25, 313, 88, 344
-0.992788, 65, 205, 128, 236
-0.99279, 357, 65, 388, 192
-0.992796, 169, 25, 232, 56
-0.992797, 81, 157, 144, 188
-0.992802, 393, 69, 456, 100
-0.992805, 49, 173, 80, 204
-0.992818, 161, 101, 192, 132
-0.992818, 1, 101, 32, 132
-0.992832, 21, 69, 52, 100
-0.992849, 225, 97, 256, 160
-0.992862, 209, 297, 336, 360
-0.99288, 73, 9, 104, 72
-0.992884, 161, 153, 288, 216
-0.992889, 33, 181, 64, 212
-0.99289, 77, 233, 108, 264
-0.99289, 41, 205, 72, 236
-0.992891, 261, 81, 292, 112
-0.992892, 1, 181, 32, 212
-0.992893, 41, 61, 72, 92
-0.992897, 53, 197, 84, 228
-0.992909, 305, 177, 368, 240
-0.992909, 205, 89, 236, 152
-0.992923, 209, 137, 240, 200
-0.992926, 53, 33, 84, 64
-0.992929, 153, 161, 216, 288
-0.992933, 33, 217, 64, 248
-0.992951, 365, 113, 396, 240
-0.992952, 69, 177, 100, 208
-0.992963, 69, 189, 100, 220
-0.992967, 149, 289, 180, 320
-0.992969, 113, 157, 144, 188
-0.99297, 233, 33, 264, 64
-0.992978, 433, 113, 464, 176
-0.993, 1, 81, 32, 112
-0.993008, 149, 81, 180, 112
-0.993008, 49, 21, 80, 52
-0.993012, 33, 5, 64, 36
-0.993015, 197, 13, 228, 44
-0.993024, 161, 85, 192, 116
-0.993026, 17, 29, 48, 60
-0.993028, 197, 1, 228, 32
-0.993028, 41, 33, 72, 64
-0.993043, 1, 201, 256, 264
-0.993044, 433, 129, 496, 192
-0.993056, 21, 217, 52, 248
-0.99306, 117, 57, 148, 88
-0.993066, 373, 249, 404, 312
-0.993069, 113, 201, 144, 264
-0.993094, 17, 133, 48, 164
-0.993096, 329, 1, 392, 375
-0.993101, 193, 81, 448, 144
-0.993107, 105, 33, 136, 64
-0.993109, 189, 37, 220, 68
-0.993112, 193, 257, 256, 320
-0.993123, 33, 289, 288, 352
-0.993125, 133, 285, 164, 316
-0.993137, 433, 81, 496, 144
-0.993141, 141, 9, 172, 40
-0.993145, 13, 101, 44, 132
-0.993155, 173, 85, 204, 116
-0.993163, 1, 221, 32, 252
-0.993172, 81, 185, 112, 216
-0.993176, 157, 69, 188, 100
-0.993179, 61, 5, 92, 36
-0.993189, 121, 285, 152, 316
-0.99319, 21, 81, 52, 112
-0.993196, 189, 57, 220, 88
-0.993199, 49, 49, 80, 80
-0.993209, 261, 1, 292, 32
-0.993211, 169, 33, 200, 64
-0.993216, 25, 313, 56, 344
-0.993217, 133, 161, 164, 192
-0.993218, 57, 185, 88, 216
-0.993219, 321, 217, 448, 280
-0.993226, 29, 121, 60, 152
-0.993227, 93, 29, 124, 60
-0.993238, 109, 285, 140, 316
-0.99324, 289, 169, 416, 232
-0.993242, 245, 85, 276, 116
-0.993243, 33, 73, 64, 104
-0.993248, 81, 173, 112, 204
-0.993251, 65, 17, 96, 48
-0.993251, 181, 97, 212, 128
-0.993257, 373, 117, 404, 148
-0.993258, 213, 37, 244, 68
-0.993258, 265, 1, 328, 64
-0.99326, 121, 21, 152, 52
-0.993261, 85, 41, 116, 72
-0.993271, 9, 205, 40, 236
-0.993274, 89, 57, 120, 88
-0.993278, 365, 101, 396, 132
-0.993289, 185, 1, 216, 32
-0.993293, 377, 77, 408, 108
-0.993294, 225, 97, 256, 128
-0.993295, 133, 141, 164, 172
-0.993301, 17, 297, 48, 328
-0.993301, 217, 265, 280, 328
-0.993302, 121, 193, 152, 224
-0.993305, 53, 209, 84, 240
-0.993307, 157, 25, 188, 56
-0.993313, 101, 49, 132, 80
-0.993317, 209, 21, 240, 52
-0.993329, 305, 65, 432, 128
-0.993335, 365, 89, 396, 120
-0.993338, 89, 229, 120, 260
-0.993342, 13, 185, 44, 216
-0.993344, 173, 65, 204, 96
-0.993348, 33, 157, 64, 188
-0.99335, 205, 225, 236, 352
-0.99336, 277, 1, 308, 32
-0.993361, 81, 317, 112, 348
-0.993368, 145, 65, 176, 96
-0.993368, 97, 185, 128, 216
-0.993373, 453, 45, 484, 76
-0.993373, 153, 185, 184, 248
-0.993378, 81, 245, 112, 276
-0.993381, 161, 1, 192, 32
-0.993381, 177, 17, 208, 48
-0.993381, 265, 1, 328, 128
-0.993382, 157, 205, 188, 236
-0.993383, 25, 93, 56, 124
-0.993385, 161, 293, 192, 324
-0.993387, 157, 277, 188, 308
-0.99339, 1, 241, 32, 304
-0.993391, 189, 161, 220, 192
-0.993393, 133, 73, 164, 104
-0.993393, 13, 229, 44, 260
-0.993394, 101, 165, 132, 196
-0.993394, 137, 297, 168, 328
-0.993396, 29, 301, 60, 332
-0.9934, 417, 65, 448, 96
-0.993407, 185, 121, 216, 152
-0.993409, 213, 97, 244, 128
-0.993411, 29, 193, 60, 224
-0.993411, 69, 29, 100, 60
-0.993411, 65, 333, 96, 364
-0.993412, 133, 205, 164, 236
-0.993413, 133, 61, 164, 92
-0.993414, 49, 161, 80, 192
-0.993415, 377, 105, 408, 136
-0.993416, 397, 1, 428, 32
-0.993417, 409, 13, 440, 44
-0.993418, 201, 85, 232, 116
-0.993419, 197, 113, 228, 144
-0.993421, 405, 73, 436, 104
-0.993427, 289, 1, 320, 32
-0.993427, 361, 125, 392, 156
-0.993429, 121, 145, 152, 176
-0.993429, 93, 241, 124, 272
-0.99343, 205, 233, 236, 264
-0.993431, 257, 113, 288, 144
-0.993468, 249, 105, 280, 168
-0.993473, 249, 1, 312, 375
-0.993507, 157, 17, 188, 80
-0.993514, 225, 65, 256, 128
-0.993569, 81, 153, 112, 216
-0.993588, 17, 265, 48, 328
-0.993593, 129, 193, 160, 320
-0.993636, 125, 257, 156, 320
-0.993734, 205, 233, 236, 296
-0.993741, 153, 177, 184, 304
-0.993767, 1, 37, 128, 68
-0.993839, 93, 57, 124, 120
-0.993868, 69, 265, 100, 328
-0.993886, 1, 1, 256, 64
-0.993914, 137, 169, 168, 232
-0.993947, 213, 41, 244, 104
-0.993992, 33, 137, 288, 200
-0.994009, 425, 57, 456, 120
-0.994025, 369, 217, 496, 280
-0.994081, 321, 129, 384, 375
-0.994103, 337, 153, 464, 216
-0.994136, 401, 73, 432, 136
-0.994155, 81, 113, 112, 240
-0.994162, 57, 257, 88, 320
-0.99417, 389, 17, 420, 144
-0.994213, 265, 17, 296, 144
-0.994244, 237, 177, 268, 304
-0.994276, 97, 105, 352, 168
-0.994279, 233, 225, 296, 352
-0.9943, 345, 1, 408, 128
-0.994363, 109, 241, 140, 368
-0.99437, 373, 241, 404, 368
-0.994481, 1, 89, 500, 152
-0.99456, 189, 225, 220, 352
-0.994577, 449, 97, 480, 224
-0.994589, 409, 1, 440, 128
-0.994639, 249, 177, 280, 304
-0.994641, 345, 129, 408, 375
-0.994647, 305, 1, 432, 64
-0.994661, 5, 49, 20, 112
-0.994679, 373, 17, 404, 144
-0.994687, 1, 113, 500, 176
-0.994698, 1, 1, 500, 64
-0.994705, 129, 129, 384, 192
-0.994803, 1, 193, 500, 256
-0.994835, 1, 49, 128, 80
-0.994891, 161, 57, 416, 120
-0.994925, 237, 129, 268, 256
-0.994945, 97, 81, 352, 144
-0.994962, 1, 89, 256, 152
-0.994985, 193, 249, 320, 312
-0.994994, 129, 177, 384, 240
-0.994997, 105, 193, 136, 320
-0.995002, 153, 225, 184, 352
-0.995027, 1, 177, 128, 208
-0.995032, 141, 193, 172, 320
-0.995102, 33, 313, 288, 375
-0.995103, 45, 41, 60, 104
-0.995174, 1, 153, 500, 216
-0.995181, 129, 1, 384, 64
-0.995182, 17, 61, 144, 92
-0.995188, 33, 205, 160, 236
-0.995265, 241, 137, 368, 200
-0.995274, 15, 41, 30, 104
-0.995279, 113, 33, 128, 96
-0.995284, 273, 41, 400, 104
-0.99529, 23, 105, 38, 168
-0.99531, 433, 1, 464, 128
-0.995324, 39, 49, 54, 112
-0.995369, 1, 229, 128, 260
-0.99537, 417, 97, 480, 352
-0.995432, 129, 153, 384, 216
-0.995439, 29, 113, 44, 176
-0.995447, 53, 1, 68, 64
-0.995462, 129, 273, 384, 336
-0.995467, 369, 161, 432, 288
-0.995498, 193, 105, 320, 136
-0.995511, 97, 33, 352, 96
-0.995514, 61, 1, 76, 64
-0.995516, 33, 265, 288, 328
-0.995547, 357, 241, 388, 368
-0.995554, 129, 313, 384, 375
-0.995604, 67, 1, 82, 64
-0.995608, 33, 25, 48, 88
-0.99567, 209, 49, 336, 112
-0.995721, 19, 177, 34, 240
-0.995724, 285, 209, 316, 336
-0.995733, 29, 185, 44, 248
-0.995751, 97, 153, 224, 184
-0.995774, 175, 81, 190, 144
-0.995775, 33, 21, 160, 52
-0.995802, 193, 85, 320, 116
-0.995808, 21, 33, 36, 96
-0.995817, 17, 165, 144, 196
-0.995844, 47, 1, 62, 64
-0.995895, 81, 53, 208, 84
-0.995912, 11, 105, 26, 168
-0.995914, 81, 25, 208, 56
-0.995945, 49, 285, 176, 316
-0.995957, 145, 97, 272, 128
-0.995974, 17, 89, 32, 152
-0.995976, 33, 5, 160, 36
-0.995977, 119, 33, 134, 96
-0.995989, 369, 129, 432, 375
-0.996008, 1, 49, 500, 112
-0.996043, 301, 209, 332, 336
-0.996043, 3, 185, 18, 248
-0.996053, 53, 49, 68, 112
-0.996058, 305, 81, 336, 208
-0.996058, 1, 289, 500, 352
-0.996089, 193, 209, 448, 272
-0.996102, 1, 217, 128, 248
-0.996127, 85, 49, 116, 176
-0.996151, 105, 25, 120, 88
-0.99618, 113, 141, 240, 172
-0.996198, 31, 161, 46, 224
-0.996198, 55, 25, 70, 88
-0.996206, 1, 33, 32, 288
-0.996209, 153, 73, 168, 136
-0.99622, 53, 193, 68, 256
-0.996229, 63, 193, 78, 256
-0.99623, 97, 37, 224, 68
-0.996246, 209, 1, 224, 64
-0.996281, 81, 77, 208, 108
-0.996284, 167, 81, 182, 144
-0.996286, 33, 33, 64, 288
-0.996288, 49, 37, 176, 68
-0.996291, 1, 297, 128, 328
-0.996304, 161, 81, 176, 144
-0.996314, 469, 49, 500, 176
-0.996326, 3, 105, 18, 168
-0.996332, 273, 89, 400, 120
-0.99634, 49, 193, 176, 224
-0.996352, 125, 25, 140, 88
-0.996361, 261, 177, 292, 304
-0.996373, 61, 169, 76, 232
-0.996376, 145, 37, 272, 68
-0.996376, 1, 225, 256, 288
-0.996378, 145, 69, 272, 100
-0.996385, 33, 89, 48, 152
-0.99639, 13, 33, 44, 288
-0.996391, 27, 33, 42, 96
-0.996406, 433, 97, 464, 224
-0.996413, 23, 129, 38, 192
-0.996436, 193, 1, 320, 32
-0.996442, 273, 193, 304, 320
-0.996455, 1, 241, 128, 272
-0.996457, 273, 101, 400, 132
-0.996468, 157, 1, 188, 256
-0.996488, 225, 185, 480, 248
-0.996507, 457, 49, 488, 176
-0.996508, 31, 137, 46, 200
-0.996519, 65, 237, 192, 268
-0.996536, 329, 129, 360, 256
-0.996545, 251, 81, 266, 144
-0.996547, 173, 225, 204, 352
-0.996551, 145, 5, 272, 36
-0.996566, 1, 209, 16, 272
-0.996569, 35, 113, 50, 176
-0.996583, 255, 1, 270, 64
-0.996585, 109, 281, 124, 344
-0.996593, 23, 201, 38, 264
-0.996604, 225, 1, 480, 64
-0.996623, 53, 169, 68, 232
-0.996624, 33, 129, 64, 375
-0.996633, 43, 209, 58, 272
-0.996637, 113, 165, 240, 196
-0.99665, 145, 17, 272, 48
-0.996656, 179, 33, 194, 96
-0.996669, 23, 73, 38, 136
-0.996671, 65, 313, 192, 344
-0.996673, 39, 17, 54, 80
-0.996678, 273, 73, 288, 136
-0.996679, 91, 33, 106, 96
-0.996681, 49, 297, 176, 328
-0.996699, 71, 169, 86, 232
-0.99672, 7, 81, 22, 144
-0.996721, 181, 65, 196, 128
-0.996723, 279, 81, 294, 144
-0.996726, 113, 289, 240, 320
-0.996727, 129, 81, 256, 112
-0.996728, 161, 249, 416, 312
-0.996736, 61, 25, 76, 88
-0.996738, 353, 77, 480, 108
-0.996739, 17, 113, 32, 176
-0.996744, 1, 73, 16, 136
-0.996746, 193, 33, 208, 96
-0.996756, 9, 177, 24, 240
-0.996764, 151, 1, 166, 64
-0.996765, 241, 1, 368, 32
-0.996781, 23, 225, 38, 288
-0.996794, 17, 65, 32, 128
-0.996797, 171, 57, 186, 120
-0.9968, 165, 57, 180, 120
-0.996846, 65, 173, 192, 204
-0.996854, 257, 129, 500, 192
-0.996855, 245, 89, 260, 152
-0.996858, 257, 81, 272, 144
-0.996867, 31, 217, 46, 280
-0.996869, 267, 73, 282, 136
-0.996874, 409, 113, 440, 240
-0.996901, 145, 109, 272, 140
-0.996908, 225, 297, 480, 360
-0.996909, 215, 9, 230, 72
-0.996912, 199, 1, 214, 64
-0.996913, 353, 117, 480, 148
-0.996963, 273, 77, 400, 108
-0.996965, 97, 281, 112, 344
-0.996974, 393, 161, 456, 288
-0.996978, 137, 241, 168, 368
-0.996982, 187, 89, 202, 152
-0.996982, 37, 217, 52, 280
-0.997, 1, 189, 128, 220
-0.997004, 225, 121, 352, 152
-0.99701, 433, 1, 496, 256
-0.997012, 1, 113, 128, 144
-0.997019, 17, 73, 144, 104
-0.997043, 123, 273, 138, 336
-0.997047, 133, 281, 148, 344
-0.997052, 149, 281, 164, 344
-0.997069, 177, 105, 192, 168
-0.997077, 157, 105, 172, 168
-0.997085, 171, 25, 186, 88
-0.997095, 165, 289, 180, 352
-0.997099, 401, 241, 464, 368
-0.997103, 381, 73, 396, 136
-0.997103, 13, 209, 28, 272
-0.997115, 1, 25, 500, 88
-0.997125, 233, 1, 264, 256
-0.997126, 205, 161, 220, 224
-0.997128, 185, 33, 200, 96
-0.997134, 1, 217, 500, 280
-0.997135, 185, 1, 216, 256
-0.997141, 317, 65, 348, 192
-0.99715, 113, 161, 128, 224
-0.997158, 117, 273, 132, 336
-0.997165, 7, 217, 22, 280
-0.997171, 1, 113, 256, 176
-0.997171, 25, 297, 40, 360
-0.997171, 381, 113, 412, 240
-0.997173, 25, 161, 40, 224
-0.997181, 129, 57, 256, 88
-0.997182, 39, 177, 54, 240
-0.997194, 49, 97, 80, 224
-0.997198, 3, 129, 18, 192
-0.997203, 341, 129, 372, 256
-0.997208, 93, 1, 124, 256
-0.997216, 69, 193, 84, 256
-0.997223, 121, 1, 152, 256
-0.99723, 145, 49, 160, 112
-0.997245, 125, 49, 140, 112
-0.997249, 155, 281, 170, 344
-0.997252, 217, 225, 248, 352
-0.997254, 385, 177, 416, 304
-0.997254, 105, 129, 136, 375
-0.997255, 115, 65, 130, 128
-0.997263, 81, 65, 208, 96
-0.997264, 33, 49, 48, 112
-0.99727, 39, 73, 54, 136
-0.997276, 353, 89, 480, 120
-0.997276, 415, 1, 430, 64
-0.997279, 103, 273, 118, 336
-0.997286, 387, 73, 402, 136
-0.997289, 81, 333, 208, 364
-0.997304, 371, 81, 386, 144
-0.997315, 21, 129, 52, 375
-0.997319, 107, 161, 122, 224
-0.99732, 353, 101, 480, 132
-0.997348, 33, 153, 160, 184
-0.99735, 139, 273, 154, 336
-0.997359, 205, 33, 220, 96
-0.997362, 129, 277, 256, 308
-0.997363, 107, 49, 122, 112
-0.997381, 49, 33, 80, 288
-0.997386, 1, 153, 16, 216
-0.997406, 105, 1, 136, 256
-0.997412, 133, 1, 164, 256
-0.997416, 129, 121, 256, 152
-0.997416, 97, 13, 224, 44
-0.997422, 117, 129, 148, 375
-0.997427, 45, 1, 60, 32
-0.997438, 99, 25, 114, 88
-0.997438, 59, 49, 74, 112
-0.997445, 83, 225, 98, 288
-0.997453, 133, 129, 164, 375
-0.997453, 225, 161, 480, 224
-0.997453, 245, 25, 260, 88
-0.997457, 1, 313, 500, 375
-0.997457, 353, 113, 384, 240
-0.997461, 177, 49, 304, 80
-0.997474, 289, 113, 320, 240
-0.997483, 159, 57, 174, 120
-0.997484, 393, 73, 408, 136
-0.9975, 29, 169, 44, 200
-0.997504, 137, 33, 152, 96
-0.997508, 195, 121, 210, 184
-0.997512, 289, 117, 416, 148
-0.997525, 13, 113, 28, 144
-0.997538, 337, 129, 464, 160
-0.997541, 227, 185, 242, 248
-0.997545, 147, 129, 162, 192
-0.997545, 75, 201, 90, 264
-0.997548, 157, 1, 172, 64
-0.997553, 23, 53, 38, 84
-0.997557, 239, 33, 254, 96
-0.997559, 215, 185, 230, 248
-0.997561, 131, 49, 146, 112
-0.997571, 137, 9, 152, 72
-0.997572, 71, 289, 86, 352
-0.997586, 19, 289, 34, 352
-0.99759, 141, 137, 156, 200
-0.997596, 43, 57, 58, 88
-0.997602, 279, 1, 294, 64
-0.997609, 199, 33, 214, 96
-0.997609, 49, 217, 64, 280
-0.99763, 145, 193, 272, 224
-0.997633, 285, 81, 300, 144
-0.997636, 129, 181, 256, 212
-0.997637, 49, 45, 64, 76
-0.997655, 63, 1, 78, 32
-0.997656, 15, 61, 30, 92
-0.997663, 33, 57, 48, 88
-0.997673, 145, 129, 176, 375
-0.997679, 125, 241, 156, 368
-0.997696, 17, 41, 32, 72
-0.997714, 357, 161, 388, 288
-0.997714, 47, 33, 62, 64
-0.997717, 19, 113, 34, 144
-0.997719, 3, 53, 18, 84
-0.997723, 193, 33, 448, 96
-0.997725, 81, 273, 208, 304
-0.997734, 65, 225, 192, 256
-0.997745, 37, 21, 52, 52
-0.997773, 17, 337, 144, 368
-0.997777, 289, 321, 416, 352
-0.997779, 45, 17, 60, 48
-0.997779, 11, 45, 26, 76
-0.997786, 97, 301, 224, 332
-0.997786, 23, 173, 38, 204
-0.997789, 93, 129, 124, 375
-0.997793, 369, 65, 496, 96
-0.997796, 173, 1, 204, 256
-0.997813, 201, 1, 232, 256
-0.997817, 45, 129, 76, 375
-0.997853, 1, 117, 16, 148
-0.997856, 1, 129, 32, 375
-0.997862, 1, 97, 128, 128
-0.997897, 281, 17, 312, 144
-0.997901, 273, 273, 400, 304
-0.997901, 7, 113, 22, 144
-0.997921, 289, 161, 320, 288
-0.997938, 207, 1, 222, 32
-0.997938, 421, 113, 452, 240
-0.997961, 177, 145, 304, 176
-0.997964, 177, 133, 304, 164
-0.997967, 1, 313, 128, 344
-0.99797, 41, 33, 56, 64
-0.997974, 289, 345, 416, 375
-0.997989, 25, 113, 40, 144
-0.997995, 61, 1, 92, 256
-0.997997, 253, 33, 284, 288
-0.998009, 289, 229, 416, 260
-0.998034, 145, 33, 176, 288
-0.998038, 257, 57, 500, 120
-0.998041, 3, 65, 18, 96
-0.998048, 209, 225, 336, 256
-0.998052, 33, 265, 160, 296
-0.998056, 35, 165, 50, 196
-0.998066, 289, 293, 416, 324
-0.998067, 83, 237, 98, 268
-0.998072, 55, 53, 70, 84
-0.998074, 9, 57, 24, 88
-0.998074, 73, 129, 104, 375
-0.998088, 1, 125, 128, 156
-0.998091, 161, 261, 288, 292
-0.998094, 61, 197, 76, 228
-0.998094, 129, 325, 256, 356
-0.998097, 213, 1, 244, 256
-0.998098, 321, 209, 448, 240
-0.998101, 57, 129, 88, 375
-0.998104, 49, 205, 64, 236
-0.998117, 113, 313, 240, 344
-0.998118, 1, 105, 16, 136
-0.998121, 1, 285, 128, 316
-0.998123, 53, 9, 68, 40
-0.998125, 167, 85, 182, 116
-0.998131, 23, 41, 38, 72
-0.998163, 55, 201, 70, 232
-0.998164, 1, 85, 128, 116
-0.998168, 29, 29, 44, 60
-0.99817, 31, 117, 46, 148
-0.998172, 33, 41, 48, 72
-0.998177, 39, 69, 54, 100
-0.998179, 41, 213, 56, 244
-0.998188, 51, 21, 66, 52
-0.998192, 249, 129, 280, 256
-0.998193, 113, 345, 240, 375
-0.998203, 113, 221, 240, 252
-0.998218, 97, 201, 224, 232
-0.998221, 59, 29, 74, 60
-0.998222, 103, 29, 118, 60
-0.998225, 41, 45, 56, 76
-0.998226, 245, 29, 260, 60
-0.998227, 27, 73, 42, 104
-0.998229, 73, 173, 88, 204
-0.99824, 193, 97, 224, 352
-0.99824, 3, 81, 18, 112
-0.998244, 289, 333, 416, 364
-0.99825, 177, 273, 304, 304
-0.99826, 289, 189, 416, 220
-0.998275, 273, 65, 400, 96
-0.998285, 275, 1, 290, 32
-0.998289, 161, 345, 288, 375
-0.99829, 159, 81, 174, 112
-0.998298, 17, 325, 144, 356
-0.998299, 305, 141, 432, 172
-0.998304, 199, 1, 214, 32
-0.998304, 29, 191, 60, 206
-0.998305, 41, 169, 56, 200
-0.998305, 369, 85, 400, 100
-0.998305, 161, 43, 192, 58
-0.998305, 117, 157, 148, 172
-0.998305, 109, 35, 140, 50
-0.998306, 57, 191, 88, 206
-0.998306, 125, 151, 156, 166
-0.998306, 77, 327, 108, 342
-0.998307, 109, 301, 140, 316
-0.998309, 133, 161, 164, 176
-0.998309, 189, 15, 220, 30
-0.998309, 213, 15, 244, 30
-0.99831, 37, 71, 68, 86
-0.99831, 97, 187, 128, 202
-0.99831, 25, 313, 56, 328
-0.99831, 65, 355, 96, 370
-0.998312, 149, 295, 180, 310
-0.998312, 29, 307, 60, 322
-0.998312, 33, 11, 64, 26
-0.998313, 77, 195, 108, 210
-0.998313, 101, 43, 132, 58
-0.998313, 163, 97, 178, 128
-0.998314, 93, 195, 124, 210
-0.998315, 85, 59, 116, 74
-0.998315, 57, 27, 88, 42
-0.998315, 165, 33, 196, 48
-0.998316, 369, 115, 400, 130
-0.998317, 17, 117, 48, 132
-0.998318, 377, 77, 408, 92
-0.998318, 9, 215, 40, 230
-0.998319, 325, 1, 356, 16
-0.998319, 29, 5, 60, 20
-0.99832, 113, 59, 144, 74
-0.99832, 109, 169, 140, 184
-0.998321, 129, 75, 160, 90
-0.998323, 1, 249, 500, 312
-0.998323, 101, 55, 132, 70
-0.998323, 21, 83, 52, 98
-0.998323, 173, 95, 204, 110
-0.998324, 273, 261, 400, 292
-0.998324, 93, 65, 124, 80
-0.998331, 201, 11, 232, 26
-0.998331, 189, 61, 220, 76
-0.998332, 17, 31, 48, 46
-0.998333, 201, 191, 232, 206
-0.998333, 189, 39, 220, 54
-0.998334, 1, 223, 32, 238
-0.998335, 53, 41, 84, 56
-0.998335, 37, 179, 68, 194
-0.998336, 233, 41, 264, 56
-0.998336, 9, 73, 24, 104
-0.998337, 35, 217, 50, 248
-0.998337, 97, 201, 352, 264
-0.998338, 69, 241, 100, 256
-0.998339, 21, 225, 52, 240
-0.99834, 1, 127, 32, 142
-0.99834, 49, 53, 80, 68
-0.99834, 133, 167, 164, 182
-0.998341, 15, 181, 30, 212
-0.998344, 1, 85, 32, 100
-0.998346, 1, 77, 32, 92
-0.998346, 49, 183, 80, 198
-0.998347, 45, 13, 76, 28
-0.998348, 453, 47, 484, 62
-0.998351, 13, 77, 44, 92
-0.998351, 53, 1, 84, 16
-0.998351, 97, 35, 128, 50
-0.998352, 29, 131, 60, 146
-0.998354, 113, 67, 144, 82
-0.998355, 221, 105, 252, 120
-0.998357, 15, 101, 30, 132
-0.998357, 35, 181, 50, 212
-0.998358, 17, 195, 48, 210
-0.998358, 17, 135, 48, 150
-0.998358, 81, 179, 112, 194
-0.998358, 21, 219, 52, 234
-0.998358, 209, 37, 240, 52
-0.998358, 157, 85, 188, 100
-0.998358, 49, 209, 80, 224
-0.998359, 159, 289, 174, 320
-0.998359, 225, 99, 256, 114
-0.99836, 173, 85, 188, 116
-0.998361, 145, 289, 176, 304
-0.998362, 53, 21, 84, 36
-0.998362, 233, 35, 264, 50
-0.998363, 201, 17, 232, 32
-0.998363, 81, 189, 112, 204
-0.998364, 37, 19, 68, 34
-0.998365, 141, 13, 172, 28
-0.998368, 157, 75, 188, 90
-0.99837, 49, 35, 80, 50
-0.99837, 177, 35, 208, 50
-0.998371, 29, 59, 60, 74
-0.998372, 69, 181, 100, 196
-0.998372, 29, 221, 44, 252
-0.998374, 141, 79, 172, 94
-0.998375, 115, 37, 130, 68
-0.998378, 257, 273, 500, 336
-0.998381, 97, 109, 224, 140
-0.998382, 41, 65, 72, 80
-0.998382, 113, 163, 144, 178
-0.998385, 257, 3, 288, 18
-0.998385, 91, 233, 106, 264
-0.998387, 265, 81, 296, 96
-0.998389, 25, 51, 56, 66
-0.998389, 37, 211, 68, 226
-0.99839, 93, 41, 108, 72
-0.998392, 49, 203, 80, 218
-0.998392, 277, 81, 292, 112
-0.998394, 97, 225, 352, 288
-0.998395, 409, 17, 440, 32
-0.998395, 209, 213, 336, 244
-0.998395, 25, 75, 56, 90
-0.998396, 305, 309, 432, 340
-0.998397, 13, 185, 44, 200
-0.998397, 145, 301, 272, 332
-0.998398, 61, 197, 92, 212
-0.998399, 133, 285, 148, 316
-0.9984, 277, 1, 308, 16
-0.998401, 1, 107, 32, 122
-0.998402, 37, 169, 68, 184
-0.998404, 369, 337, 496, 368
-0.998405, 45, 29, 76, 44
-0.998406, 81, 89, 208, 120
-0.998407, 7, 185, 22, 216
-0.998408, 29, 185, 60, 200
-0.998408, 49, 177, 80, 192
-0.998409, 69, 189, 100, 204
-0.998409, 5, 65, 36, 80
-0.998409, 161, 249, 288, 280
-0.99841, 37, 217, 68, 232
-0.998411, 21, 125, 52, 140
-0.998412, 1, 187, 32, 202
-0.998412, 329, 49, 360, 176
-0.998413, 33, 45, 64, 60
-0.998413, 33, 37, 64, 52
-0.998414, 33, 69, 48, 100
-0.998414, 373, 177, 404, 304
-0.998417, 289, 1, 320, 16
-0.998419, 5, 115, 36, 130
-0.99842, 15, 129, 30, 160
-0.998421, 69, 175, 100, 190
-0.998422, 67, 189, 82, 220
-0.998423, 69, 17, 84, 48
-0.998423, 125, 57, 140, 88
-0.998427, 149, 285, 164, 316
-0.998429, 17, 179, 48, 194
-0.99843, 9, 85, 24, 116
-0.998432, 33, 253, 160, 284
-0.998432, 7, 125, 22, 156
-0.998433, 21, 37, 52, 52
-0.998434, 115, 285, 130, 316
-0.998434, 69, 5, 84, 36
-0.998435, 17, 63, 48, 78
-0.998439, 139, 285, 154, 316
-0.998444, 41, 59, 72, 74
-0.998444, 193, 161, 320, 192
-0.998445, 373, 121, 404, 136
-0.998446, 157, 103, 188, 118
-0.998448, 21, 69, 52, 84
-0.998454, 17, 43, 48, 58
-0.998454, 9, 49, 40, 64
-0.998454, 15, 85, 30, 116
-0.998455, 15, 221, 30, 252
-0.998457, 265, 65, 296, 320
-0.998458, 29, 31, 60, 46
-0.998458, 33, 25, 64, 40
-0.998458, 177, 33, 192, 64
-0.998461, 39, 9, 54, 40
-0.998461, 81, 239, 112, 254
-0.998466, 81, 261, 208, 292
-0.998469, 1, 71, 32, 86
-0.99847, 21, 65, 36, 96
-0.998471, 41, 5, 72, 20
-0.998473, 125, 25, 140, 56
-0.998475, 9, 45, 72, 60
-0.998475, 175, 105, 190, 136
-0.998475, 17, 57, 48, 72
-0.998477, 209, 13, 336, 44
-0.998477, 209, 285, 336, 316
-0.99848, 1, 55, 32, 70
-0.99848, 25, 173, 56, 188
-0.998483, 9, 101, 24, 132
-0.998483, 53, 7, 84, 22
-0.998498, 375, 121, 390, 152
-0.998499, 113, 241, 240, 272
-0.998499, 37, 53, 68, 68
-0.9985, 23, 133, 38, 164
-0.998501, 21, 97, 36, 128
-0.998502, 177, 121, 304, 152
-0.998509, 247, 89, 262, 120
-0.99851, 17, 141, 144, 172
-0.998511, 213, 5, 228, 36
-0.998513, 269, 1, 284, 32
-0.998514, 165, 293, 180, 324
-0.998519, 49, 165, 64, 196
-0.998522, 289, 153, 416, 184
-0.998524, 263, 1, 278, 32
-0.998525, 17, 173, 80, 188
-0.998529, 21, 185, 36, 216
-0.99853, 161, 313, 288, 344
-0.998533, 169, 97, 200, 352
-0.99854, 109, 33, 124, 64
-0.99854, 209, 181, 336, 212
-0.99854, 257, 201, 384, 232
-0.99854, 49, 57, 64, 88
-0.998542, 131, 149, 146, 180
-0.998543, 1, 119, 64, 134
-0.998544, 37, 125, 52, 156
-0.998544, 1, 213, 64, 228
-0.998546, 205, 17, 220, 48
-0.998546, 59, 13, 74, 44
-0.99855, 121, 285, 136, 316
-0.998551, 295, 1, 310, 32
-0.998551, 27, 305, 42, 336
-0.998551, 369, 65, 400, 320
-0.998552, 9, 39, 72, 54
-0.998557, 29, 133, 44, 164
-0.998557, 9, 221, 24, 252
-0.998559, 225, 253, 352, 284
-0.998565, 25, 23, 88, 38
-0.998567, 97, 1, 224, 32
-0.998568, 257, 241, 500, 304
-0.998573, 49, 43, 112, 58
-0.998575, 59, 177, 74, 208
-0.998578, 1, 73, 64, 88
-0.998579, 289, 245, 416, 276
-0.998579, 385, 33, 416, 288
-0.998582, 17, 179, 80, 194
-0.998586, 9, 51, 72, 66
-0.998586, 29, 185, 44, 216
-0.998587, 1, 79, 64, 94
-0.998588, 183, 33, 198, 64
-0.998588, 77, 237, 92, 268
-0.998592, 105, 75, 168, 90
-0.998594, 127, 285, 142, 316
-0.998595, 353, 297, 480, 328
-0.998597, 35, 81, 50, 112
-0.998598, 9, 57, 72, 72
-0.998599, 73, 239, 136, 254
-0.998599, 111, 161, 126, 192
-0.9986, 25, 219, 88, 234
-0.9986, 1, 185, 64, 200
-0.9986, 193, 25, 320, 56
-0.998601, 41, 209, 104, 224
-0.998603, 361, 119, 424, 134
-0.998605, 145, 73, 208, 88
-0.998605, 249, 1, 312, 16
-0.998605, 25, 29, 88, 44
-0.998608, 49, 201, 112, 216
-0.998609, 241, 83, 304, 98
-0.998609, 161, 39, 224, 54
-0.998609, 369, 77, 432, 92
-0.99861, 57, 177, 120, 192
-0.998613, 121, 23, 184, 38
-0.998613, 103, 177, 118, 208
-0.998614, 65, 345, 192, 375
-0.998614, 25, 17, 88, 32
-0.998615, 49, 37, 112, 52
-0.998616, 169, 73, 184, 104
-0.998616, 57, 195, 120, 210
-0.998616, 25, 185, 88, 200
-0.998617, 125, 153, 140, 184
-0.998617, 1, 189, 16, 220
-0.998619, 137, 73, 152, 104
-0.99862, 169, 99, 232, 114
-0.99862, 405, 33, 436, 288
-0.99862, 337, 197, 464, 228
-0.998621, 153, 9, 168, 40
-0.998622, 209, 105, 272, 120
-0.998624, 9, 195, 72, 210
-0.998625, 113, 287, 176, 302
-0.998626, 33, 63, 96, 78
-0.998631, 113, 159, 176, 174
-0.998631, 49, 51, 112, 66
-0.998631, 91, 25, 106, 56
-0.998631, 103, 53, 118, 84
-0.998633, 177, 237, 304, 268
-0.998633, 171, 29, 186, 60
-0.998633, 97, 171, 160, 186
-0.998634, 65, 245, 128, 260
-0.998635, 1, 133, 64, 148
-0.998637, 33, 5, 96, 20
-0.998637, 199, 37, 214, 68
-0.998638, 89, 47, 152, 62
-0.998638, 411, 1, 426, 32
-0.998639, 201, 49, 264, 64
-0.99864, 9, 125, 72, 140
-0.998641, 1, 67, 64, 82
-0.998645, 321, 265, 448, 296
-0.998646, 25, 11, 88, 26
-0.998646, 117, 157, 132, 188
-0.998647, 121, 299, 184, 314
-0.998647, 165, 25, 180, 56
-0.998647, 201, 43, 264, 58
-0.998648, 109, 53, 124, 84
-0.998649, 57, 57, 120, 72
-0.998649, 89, 41, 152, 56
-0.99865, 57, 29, 120, 44
-0.99865, 33, 57, 96, 72
-0.998652, 209, 37, 336, 68
-0.998652, 209, 35, 272, 50
-0.998652, 83, 225, 98, 256
-0.998652, 121, 17, 184, 32
-0.998653, 233, 99, 296, 114
-0.998653, 9, 225, 72, 240
-0.998655, 89, 35, 152, 50
-0.998655, 233, 89, 296, 104
-0.998655, 141, 61, 156, 92
-0.998656, 57, 189, 120, 204
-0.998658, 17, 203, 80, 218
-0.99866, 161, 157, 224, 172
-0.99866, 33, 191, 96, 206
-0.99866, 161, 79, 224, 94
-0.998661, 273, 1, 336, 16
-0.998663, 169, 187, 232, 202
-0.998663, 25, 167, 88, 182
-0.998663, 49, 239, 112, 254
-0.998664, 29, 97, 44, 128
-0.998664, 65, 333, 128, 348
-0.998665, 1, 219, 64, 234
-0.998665, 57, 171, 120, 186
-0.998665, 1, 107, 64, 122
-0.998667, 137, 293, 200, 308
-0.998667, 97, 305, 160, 320
-0.998669, 137, 139, 200, 154
-0.99867, 97, 165, 160, 180
-0.998672, 153, 113, 216, 128
-0.998674, 137, 85, 200, 100
-0.998674, 161, 33, 224, 48
-0.998674, 425, 63, 488, 78
-0.998675, 57, 183, 120, 198
-0.998675, 385, 17, 448, 32
-0.998676, 145, 125, 208, 140
-0.998677, 161, 45, 224, 60
-0.998677, 153, 107, 216, 122
-0.998678, 169, 193, 232, 208
-0.998678, 161, 163, 224, 178
-0.998678, 65, 293, 128, 308
-0.99868, 137, 67, 200, 82
-0.99868, 113, 41, 176, 56
-0.99868, 361, 83, 424, 98
-0.998681, 161, 17, 224, 32
-0.998682, 129, 329, 192, 344
-0.998682, 177, 117, 240, 132
-0.998682, 145, 119, 208, 134
-0.998682, 97, 69, 160, 84
-0.998684, 73, 63, 136, 78
-0.998684, 97, 239, 160, 254
-0.998684, 129, 79, 192, 94
-0.998685, 121, 151, 184, 166
-0.998685, 25, 75, 88, 90
-0.998685, 65, 361, 128, 375
-0.998685, 97, 59, 160, 74
-0.998686, 9, 231, 72, 246
-0.998686, 433, 53, 496, 68
-0.998686, 49, 11, 112, 26
-0.998686, 121, 201, 184, 216
-0.998687, 25, 303, 88, 318
-0.998687, 57, 355, 120, 370
-0.998688, 129, 105, 192, 120
-0.998689, 297, 1, 360, 16
-0.998689, 25, 131, 88, 146
-0.998689, 329, 87, 392, 102
-0.99869, 185, 65, 248, 80
-0.99869, 1, 85, 64, 100
-0.998691, 65, 327, 128, 342
-0.998691, 137, 43, 200, 58
-0.998691, 185, 37, 248, 52
-0.998692, 129, 167, 192, 182
-0.998693, 273, 93, 336, 108
-0.998693, 209, 99, 272, 114
-0.998693, 137, 11, 200, 26
-0.998693, 153, 93, 216, 108
-0.998693, 161, 11, 224, 26
-0.998693, 1, 299, 64, 314
-0.998693, 161, 53, 224, 68
-0.998693, 217, 5, 280, 20
-0.998694, 57, 299, 120, 314
-0.998695, 137, 133, 200, 148
-0.998695, 81, 187, 144, 202
-0.9987, 433, 1, 464, 256
-0.998703, 337, 225, 368, 352
-0.998718, 65, 141, 192, 172
-0.998723, 81, 33, 112, 288
-0.998735, 321, 281, 448, 312
-0.998746, 225, 73, 352, 104
-0.998747, 421, 33, 452, 288
-0.998757, 161, 205, 288, 236
-0.998775, 49, 121, 176, 152
-0.998783, 289, 165, 416, 196
-0.998784, 9, 33, 24, 160
-0.998786, 1, 49, 16, 176
-0.9988, 277, 33, 308, 288
-0.998826, 35, 1, 50, 128
-0.998831, 19, 81, 34, 208
-0.998837, 17, 33, 32, 160
-0.99886, 133, 1, 148, 128
-0.99887, 13, 81, 28, 208
-0.998884, 51, 1, 66, 128
-0.998919, 445, 1, 476, 256
-0.998923, 73, 49, 104, 176
-0.998923, 169, 177, 200, 304
-0.998926, 155, 1, 170, 128
-0.998934, 25, 161, 40, 288
-0.998942, 181, 129, 212, 375
-0.998961, 139, 1, 154, 128
-0.998961, 31, 129, 46, 256
-0.998968, 233, 97, 264, 352
-0.998998, 217, 97, 248, 352
-0.998998, 179, 33, 194, 160
-0.999, 7, 81, 22, 208
-0.999001, 337, 1, 368, 256
-0.999006, 29, 33, 44, 160
-0.999007, 397, 113, 428, 240
-0.999008, 125, 17, 140, 144
-0.999014, 1, 113, 16, 240
-0.999018, 35, 65, 50, 192
-0.999021, 321, 241, 352, 368
-0.999025, 145, 1, 160, 128
-0.999048, 25, 81, 40, 208
-0.999054, 111, 17, 126, 144
-0.999058, 119, 17, 134, 144
-0.999062, 13, 161, 28, 288
-0.999065, 43, 1, 58, 128
-0.999082, 145, 65, 160, 192
-0.99909, 29, 209, 44, 336
-0.999094, 249, 129, 280, 375
-0.999097, 357, 129, 388, 375
-0.999113, 269, 65, 284, 192
-0.999119, 19, 161, 34, 288
-0.999132, 71, 193, 86, 320
-0.999136, 61, 145, 76, 272
-0.999141, 155, 81, 170, 208
-0.999143, 37, 145, 52, 272
-0.999144, 35, 209, 50, 336
-0.999146, 163, 17, 178, 144
-0.999147, 1, 209, 16, 336
-0.999149, 59, 193, 74, 320
-0.999149, 51, 145, 66, 272
-0.999155, 247, 17, 262, 144
-0.999158, 309, 1, 340, 256
-0.99916, 43, 49, 58, 176
-0.999169, 139, 65, 154, 192
-0.99917, 171, 33, 186, 160
-0.999174, 45, 145, 60, 272
-0.999176, 57, 1, 72, 128
-0.99918, 205, 129, 236, 375
-0.999185, 149, 113, 164, 240
-0.999185, 65, 193, 80, 320
-0.999192, 105, 17, 120, 144
-0.999198, 279, 65, 294, 192
-0.999203, 263, 65, 278, 192
-0.999208, 7, 161, 22, 288
-0.999212, 23, 33, 38, 160
-0.999221, 255, 1, 270, 128
-0.999226, 41, 209, 56, 336
-0.99923, 53, 193, 68, 320
-0.999245, 133, 65, 148, 192
-0.999248, 115, 65, 130, 192
-0.999248, 65, 1, 80, 128
-0.999255, 15, 209, 30, 336
-0.999258, 93, 1, 108, 128
-0.999258, 189, 65, 204, 192
-0.999259, 215, 177, 230, 304
-0.99926, 179, 81, 194, 208
-0.999267, 257, 65, 272, 192
-0.99927, 199, 33, 214, 160
-0.999277, 381, 65, 396, 192
-0.999284, 205, 1, 220, 128
-0.999288, 449, 97, 480, 352
-0.999289, 237, 33, 252, 160
-0.999291, 185, 17, 200, 144
-0.999291, 139, 129, 154, 256
-0.999295, 1, 161, 16, 288
-0.999297, 161, 65, 176, 192
-0.999304, 251, 65, 266, 192
-0.999309, 47, 209, 62, 336
-0.999311, 23, 209, 38, 336
-0.999321, 185, 113, 200, 240
-0.999322, 209, 97, 224, 224
-0.999336, 213, 1, 228, 128
-0.999342, 217, 113, 232, 240
-0.999343, 357, 33, 388, 288
-0.999346, 129, 129, 144, 256
-0.999355, 109, 65, 124, 192
-0.999356, 207, 161, 222, 288
-0.999358, 7, 209, 22, 336
-0.999358, 387, 65, 402, 192
-0.999364, 113, 145, 128, 272
-0.999367, 371, 65, 386, 192
-0.999369, 271, 113, 286, 240
-0.999371, 123, 65, 138, 192
-0.999371, 99, 17, 114, 144
-0.999394, 191, 17, 206, 144
-0.999399, 67, 145, 82, 272
-0.9994, 77, 193, 92, 320
-0.999406, 245, 113, 260, 240
-0.999407, 423, 49, 438, 176
-0.999412, 245, 65, 260, 192
-0.999421, 79, 241, 94, 368
-0.99943, 225, 161, 240, 288
-0.999431, 285, 65, 300, 192
-0.999435, 193, 113, 208, 240
-0.999442, 157, 97, 188, 352
-0.999443, 407, 65, 422, 192
-0.999445, 393, 49, 408, 176
-0.999446, 173, 81, 188, 208
-0.999446, 123, 129, 138, 256
-0.999454, 105, 145, 120, 272
-0.999456, 73, 129, 88, 256
-0.999458, 413, 65, 428, 192
-0.999461, 207, 225, 222, 352
-0.999462, 203, 97, 218, 224
-0.999465, 325, 1, 356, 256
-0.999467, 267, 1, 282, 128
-0.999477, 111, 225, 126, 352
-0.999481, 429, 49, 444, 176
-0.999487, 225, 113, 240, 240
-0.999493, 99, 225, 114, 352
-0.999496, 433, 1, 448, 128
-0.999501, 231, 129, 246, 256
-0.999502, 239, 97, 254, 224
-0.999505, 253, 113, 268, 240
-0.99951, 103, 65, 118, 192
-0.999513, 375, 113, 390, 240
-0.999517, 201, 145, 216, 272
-0.999519, 313, 97, 344, 352
-0.999521, 153, 11, 168, 26
-0.999522, 95, 237, 110, 252
-0.999522, 31, 307, 46, 322
-0.999522, 279, 113, 294, 240
-0.999523, 11, 79, 26, 94
-0.999523, 249, 89, 264, 104
-0.999523, 159, 83, 174, 98
-0.999524, 205, 17, 220, 32
-0.999524, 259, 1, 274, 16
-0.999524, 211, 189, 226, 204
-0.999524, 219, 33, 234, 160
-0.999525, 165, 295, 180, 310
-0.999526, 97, 35, 112, 50
-0.999526, 137, 167, 152, 182
-0.999526, 3, 1, 18, 128
-0.999527, 147, 77, 162, 92
-0.999528, 35, 63, 50, 78
-0.999528, 175, 33, 190, 48
-0.999528, 225, 105, 240, 120
-0.999528, 255, 85, 270, 100
-0.999528, 73, 245, 88, 260
-0.999529, 133, 161, 148, 176
-0.99953, 53, 59, 68, 74
-0.99953, 13, 117, 28, 132
-0.99953, 115, 73, 130, 88
-0.999531, 7, 85, 22, 100
-0.999531, 19, 177, 34, 192
-0.999532, 93, 47, 108, 62
-0.999533, 105, 241, 120, 368
-0.999533, 37, 79, 52, 94
-0.999534, 11, 107, 26, 122
-0.999534, 103, 65, 118, 80
-0.999534, 279, 83, 294, 98
-0.999535, 161, 77, 176, 92
-0.999535, 41, 73, 56, 88
-0.999535, 231, 49, 246, 176
-0.999536, 183, 35, 198, 50
-0.999536, 105, 33, 120, 48
-0.999537, 23, 49, 38, 64
-0.999538, 265, 5, 280, 20
-0.999538, 23, 67, 38, 82
-0.999539, 91, 191, 106, 206
-0.999539, 175, 83, 190, 98
-0.999539, 63, 179, 78, 194
-0.999539, 27, 37, 42, 52
-0.999539, 43, 169, 58, 184
-0.999541, 65, 195, 80, 210
-0.999541, 5, 107, 20, 122
-0.999543, 169, 77, 184, 92
-0.999543, 171, 103, 186, 118
-0.999544, 57, 3, 72, 18
-0.999544, 401, 65, 416, 192
-0.999545, 113, 67, 128, 82
-0.999545, 23, 115, 38, 130
-0.999545, 231, 177, 246, 304
-0.999545, 153, 81, 168, 96
-0.999546, 55, 31, 70, 46
-0.999547, 51, 47, 66, 62
-0.999547, 67, 17, 82, 32
-0.999548, 1, 125, 16, 140
-0.999548, 7, 115, 22, 130
-0.999549, 159, 291, 174, 306
-0.999549, 225, 99, 240, 114
-0.99955, 149, 209, 164, 336
-0.99955, 31, 45, 46, 60
-0.999551, 73, 187, 88, 202
-0.999553, 331, 1, 346, 16
-0.999553, 199, 1, 214, 16
-0.999554, 41, 53, 56, 68
-0.999554, 35, 133, 50, 148
-0.999555, 73, 241, 88, 368
-0.999555, 215, 15, 230, 30
-0.999555, 261, 1, 276, 128
-0.999557, 247, 33, 262, 48
-0.999557, 27, 137, 42, 152
-0.999558, 47, 27, 62, 42
-0.999559, 7, 127, 22, 142
-0.999561, 117, 41, 132, 56
-0.999561, 49, 171, 64, 186
-0.999561, 43, 65, 58, 80
-0.999563, 9, 63, 24, 78
-0.999563, 421, 1, 436, 128
-0.999563, 5, 73, 20, 88
-0.999564, 27, 193, 42, 208
-0.999564, 65, 27, 80, 42
-0.999564, 275, 3, 290, 18
-0.999564, 1, 81, 16, 96
-0.999565, 303, 1, 318, 16
-0.999566, 21, 133, 36, 148
-0.999566, 3, 57, 18, 72
-0.999566, 15, 131, 30, 146
-0.999567, 27, 75, 42, 90
-0.999567, 59, 201, 74, 216
-0.999567, 437, 49, 452, 176
-0.999568, 71, 175, 86, 190
-0.999568, 421, 17, 436, 32
-0.999568, 85, 239, 100, 254
-0.99957, 43, 13, 58, 28
-0.99957, 37, 23, 52, 38
-0.99957, 375, 121, 390, 136
-0.999571, 33, 181, 48, 196
-0.999572, 17, 199, 32, 214
-0.999573, 29, 221, 44, 236
-0.999574, 51, 9, 66, 24
-0.999575, 21, 61, 36, 76
-0.999576, 37, 169, 52, 184
-0.999576, 27, 185, 42, 200
-0.999576, 35, 51, 50, 66
-0.999577, 9, 49, 24, 64
-0.999581, 17, 67, 32, 82
-0.999582, 381, 119, 396, 134
-0.999583, 41, 179, 56, 194
-0.999587, 51, 207, 66, 222
-0.999589, 41, 213, 56, 228
-0.99959, 21, 41, 36, 56
-0.999592, 79, 241, 94, 256
-0.999593, 341, 129, 372, 375
-0.999594, 17, 53, 32, 68
-0.999594, 29, 59, 44, 74
-0.999594, 207, 5, 222, 20
-0.999595, 45, 43, 60, 58
-0.999601, 165, 99, 180, 114
-0.999601, 293, 1, 308, 16
-0.999602, 39, 35, 54, 50
-0.999608, 43, 21, 58, 36
-0.99961, 289, 33, 320, 288
-0.999611, 415, 15, 430, 30
-0.999612, 1, 117, 16, 132
-0.999612, 35, 217, 50, 232
-0.999613, 33, 29, 48, 44
-0.999615, 21, 193, 36, 208
-0.999615, 49, 35, 64, 50
-0.999616, 43, 59, 58, 74
-0.999618, 277, 129, 308, 375
-0.99962, 25, 175, 40, 190
-0.999623, 17, 47, 32, 62
-0.999629, 35, 69, 50, 84
-0.999629, 65, 5, 80, 20
-0.999633, 1, 67, 16, 82
-0.999642, 15, 61, 30, 76
-0.999646, 9, 57, 24, 72
-0.999655, 31, 171, 46, 186
-0.999659, 23, 55, 38, 70
-0.999661, 51, 53, 66, 68
-0.999663, 45, 3, 60, 18
-0.999709, 385, 129, 416, 375
-0.999816, 293, 129, 324, 375
-0.999826, 437, 97, 468, 352
-0.9999, 325, 97, 356, 352
-0.999933, 461, 33, 492, 288
-1.00009, 417, 177, 480, 304
-1.00028, 425, 129, 456, 375
-1.00056, 393, 129, 456, 375
-1.00066, 413, 129, 444, 375
-1.0008, 397, 129, 428, 375
-1.00116, 469, 129, 500, 375
-1.00314, 425, 241, 488, 368
