1889
-0.496127, 1, 65, 500, 320
-0.573451, 1, 1, 500, 333
-0.608112, 1, 1, 256, 333
-0.63213, 129, 1, 384, 333
-0.638699, 65, 65, 320, 320
-0.731511, 161, 65, 416, 320
-0.731873, 225, 1, 480, 333
-0.813177, 257, 65, 500, 320
-0.850875, 81, 65, 208, 320
-0.882626, 1, 65, 128, 320
-0.883081, 1, 177, 500, 304
-0.884721, 161, 65, 288, 320
-0.892009, 81, 1, 208, 333
-0.896011, 129, 193, 384, 320
-0.898674, 1, 129, 256, 256
-0.905493, 17, 1, 144, 333
-0.908336, 193, 1, 320, 333
-0.908679, 1, 129, 500, 256
-0.909225, 225, 65, 352, 320
-0.911043, 129, 1, 256, 333
-0.914377, 129, 145, 384, 272
-0.918539, 33, 209, 288, 333
-0.92, 97, 209, 224, 333
-0.920908, 225, 193, 480, 320
-0.922116, 105, 209, 168, 333
-0.924127, 161, 209, 224, 333
-0.924861, 161, 177, 288, 304
-0.926641, 257, 1, 384, 333
-0.927437, 281, 193, 344, 320
-0.928897, 137, 209, 200, 333
-0.929935, 241, 193, 368, 320
-0.930092, 113, 161, 240, 288
-0.930157, 241, 193, 304, 320
-0.93196, 273, 65, 400, 320
-0.932714, 17, 129, 144, 256
-0.933474, 169, 129, 232, 256
-0.934766, 281, 129, 344, 256
-0.936906, 65, 129, 192, 256
-0.937356, 121, 161, 184, 288
-0.937807, 257, 145, 500, 272
-0.938325, 353, 65, 480, 320
-0.939224, 209, 193, 272, 320
-0.942824, 145, 129, 208, 256
-0.942977, 241, 145, 368, 272
-0.943107, 137, 273, 200, 333
-0.943322, 161, 129, 288, 256
-0.944189, 161, 233, 224, 296
-0.944438, 193, 145, 256, 272
-0.944673, 305, 161, 368, 288
-0.944909, 105, 225, 168, 288
-0.944944, 25, 113, 88, 240
-0.945383, 73, 129, 136, 256
-0.945637, 81, 129, 144, 192
-0.946066, 233, 193, 296, 256
-0.94625, 17, 209, 144, 333
-0.946461, 113, 113, 240, 240
-0.94711, 337, 1, 464, 333
-0.948197, 89, 265, 152, 328
-0.948229, 1, 81, 500, 208
-0.948419, 169, 193, 232, 256
-0.948543, 169, 265, 232, 328
-0.948637, 129, 97, 384, 224
-0.949075, 169, 137, 232, 200
-0.949474, 97, 129, 160, 256
-0.950079, 233, 233, 296, 296
-0.950264, 113, 265, 176, 328
-0.950624, 257, 249, 320, 312
-0.951275, 177, 161, 240, 224
-0.951278, 201, 249, 264, 312
-0.951804, 209, 209, 272, 272
-0.952229, 25, 129, 88, 192
-0.952685, 129, 241, 192, 304
-0.952942, 265, 209, 328, 272
-0.952985, 209, 185, 272, 248
-0.953095, 257, 145, 320, 272
-0.953857, 129, 201, 192, 264
-0.954165, 121, 137, 184, 200
-0.954224, 1, 81, 256, 208
-0.954231, 273, 177, 336, 240
-0.954338, 81, 209, 144, 333
-0.954522, 305, 209, 368, 333
-0.957289, 49, 145, 112, 272
-0.959694, 185, 217, 248, 280
-0.960051, 145, 137, 208, 200
-0.960085, 233, 257, 296, 320
-0.960936, 57, 265, 120, 328
-0.960982, 185, 209, 248, 333
-0.961229, 121, 113, 184, 240
-0.961367, 137, 177, 200, 240
-0.961445, 297, 249, 360, 312
-0.961546, 81, 241, 144, 304
-0.962387, 17, 129, 144, 192
-0.962885, 49, 81, 176, 208
-0.962949, 209, 97, 336, 224
-0.962963, 65, 273, 192, 333
-0.96306, 289, 217, 352, 280
-0.963205, 289, 177, 416, 304
-0.96334, 49, 129, 112, 192
-0.963504, 257, 273, 320, 333
-0.96397, 433, 193, 496, 320
-0.964518, 1, 113, 64, 240
-0.964641, 313, 169, 376, 232
-0.965258, 329, 177, 392, 304
-0.965519, 161, 177, 288, 240
-0.966167, 97, 249, 128, 312
-0.966225, 165, 209, 196, 333
-0.966393, 81, 241, 208, 304
-0.966618, 241, 169, 304, 232
-0.966666, 177, 129, 208, 256
-0.966934, 169, 209, 200, 272
-0.967109, 269, 209, 300, 333
-0.967229, 105, 161, 168, 224
-0.967812, 201, 161, 264, 224
-0.967959, 233, 145, 296, 272
-0.96819, 237, 193, 268, 256
-0.968714, 129, 257, 256, 320
-0.968819, 113, 137, 240, 200
-0.969038, 165, 233, 196, 296
-0.969089, 169, 265, 200, 328
-0.969095, 269, 209, 300, 272
-0.969312, 109, 129, 140, 192
-0.969489, 289, 145, 352, 208
-0.96952, 321, 249, 384, 312
-0.969606, 117, 209, 148, 333
-0.969695, 1, 81, 128, 208
-0.969714, 193, 273, 256, 333
-0.96977, 285, 177, 316, 304
-0.969808, 285, 209, 316, 272
-0.969832, 105, 209, 136, 333
-0.96985, 353, 209, 480, 333
-0.969913, 297, 193, 360, 256
-0.969933, 269, 233, 300, 296
-0.970094, 257, 209, 288, 333
-0.970191, 169, 65, 232, 320
-0.970275, 117, 217, 148, 280
-0.97049, 173, 137, 204, 200
-0.97051, 309, 193, 340, 320
-0.970579, 197, 241, 228, 304
-0.970586, 145, 81, 208, 208
-0.970748, 105, 201, 168, 264
-0.970807, 145, 273, 176, 333
-0.970899, 177, 193, 208, 320
-0.97094, 97, 129, 128, 192
-0.970991, 241, 185, 368, 248
-0.971172, 193, 233, 320, 296
-0.971178, 17, 265, 144, 328
-0.97119, 49, 97, 112, 224
-0.971242, 209, 217, 240, 280
-0.971268, 161, 209, 288, 272
-0.971312, 81, 217, 144, 280
-0.97146, 97, 273, 128, 333
-0.971551, 281, 185, 312, 248
-0.971565, 149, 209, 180, 333
-0.971595, 297, 273, 360, 333
-0.971598, 301, 177, 332, 240
-0.971658, 177, 161, 208, 224
-0.971954, 301, 129, 332, 256
-0.971998, 257, 209, 288, 272
-0.972043, 237, 193, 268, 320
-0.972074, 73, 153, 136, 216
-0.972168, 185, 265, 216, 328
-0.972204, 149, 249, 180, 312
-0.972209, 169, 81, 232, 208
-0.972216, 241, 257, 368, 320
-0.972229, 225, 153, 352, 216
-0.972356, 305, 97, 368, 224
-0.972374, 257, 185, 288, 248
-0.972405, 81, 81, 144, 208
-0.972525, 181, 193, 212, 256
-0.972675, 113, 201, 240, 264
-0.9727, 153, 129, 184, 256
-0.972904, 257, 241, 288, 304
-0.973205, 193, 137, 224, 200
-0.973287, 121, 65, 184, 320
-0.973581, 177, 265, 304, 328
-0.973631, 185, 241, 216, 304
-0.973719, 193, 97, 256, 224
-0.973763, 49, 193, 112, 320
-0.973774, 73, 185, 136, 248
-0.973835, 193, 137, 256, 200
-0.973905, 165, 161, 196, 288
-0.974008, 169, 185, 200, 248
-0.974085, 1, 265, 64, 328
-0.974257, 1, 209, 64, 333
-0.974288, 133, 273, 164, 333
-0.974361, 73, 129, 104, 192
-0.974475, 129, 233, 256, 296
-0.974587, 189, 113, 220, 240
-0.974622, 321, 193, 352, 320
-0.974736, 185, 217, 216, 280
-0.9748, 101, 225, 132, 288
-0.97495, 129, 209, 160, 333
-0.975032, 301, 121, 332, 184
-0.975068, 289, 129, 320, 256
-0.97533, 81, 161, 208, 224
-0.975493, 1, 137, 64, 200
-0.975632, 201, 265, 232, 328
-0.975651, 273, 121, 336, 184
-0.975674, 265, 153, 328, 216
-0.975718, 189, 177, 220, 304
-0.975778, 321, 273, 384, 333
-0.975786, 97, 65, 160, 320
-0.975853, 117, 265, 148, 328
-0.975914, 209, 209, 336, 272
-0.975973, 65, 137, 192, 200
-0.975982, 269, 257, 300, 320
-0.976035, 37, 113, 68, 240
-0.97604, 1, 33, 500, 160
-0.976044, 137, 129, 168, 192
-0.97605, 49, 153, 112, 216
-0.976439, 217, 177, 248, 240
-0.976465, 245, 257, 276, 320
-0.976496, 93, 129, 124, 256
-0.976551, 209, 241, 240, 304
-0.976692, 61, 129, 92, 192
-0.976736, 313, 225, 376, 288
-0.976748, 157, 177, 188, 240
-0.976942, 269, 185, 300, 248
-0.976979, 61, 129, 92, 256
-0.977126, 129, 129, 160, 256
-0.97731, 281, 241, 312, 304
-0.977392, 221, 209, 252, 272
-0.977469, 337, 161, 464, 288
-0.977486, 49, 113, 80, 240
-0.977532, 117, 161, 148, 224
-0.977632, 29, 129, 60, 192
-0.977654, 433, 209, 496, 272
-0.977774, 85, 129, 116, 192
-0.977853, 417, 265, 480, 328
-0.977887, 113, 113, 144, 240
-0.977919, 121, 113, 184, 176
-0.977947, 197, 217, 228, 280
-0.978114, 329, 257, 360, 320
-0.978116, 161, 137, 192, 200
-0.978579, 157, 273, 188, 333
-0.978708, 137, 225, 168, 288
-0.978724, 49, 121, 80, 184
-0.978743, 289, 113, 416, 240
-0.978849, 241, 233, 368, 296
-0.978997, 221, 233, 252, 296
-0.979023, 165, 113, 196, 240
-0.979029, 233, 217, 264, 280
-0.979147, 213, 161, 244, 288
-0.979162, 201, 129, 232, 256
-0.979346, 197, 177, 228, 240
-0.979431, 113, 241, 144, 304
-0.979435, 25, 65, 88, 320
-0.979456, 125, 129, 156, 192
-0.979555, 309, 145, 340, 208
-0.979697, 149, 137, 180, 200
-0.979713, 161, 153, 288, 216
-0.979727, 65, 217, 192, 280
-0.979896, 145, 65, 208, 320
-0.979963, 237, 169, 268, 232
-0.98012, 337, 161, 368, 288
-0.980217, 17, 193, 144, 256
-0.980299, 257, 209, 384, 272
-0.980336, 97, 65, 224, 192
-0.980378, 85, 265, 116, 328
-0.980391, 209, 209, 240, 333
-0.980396, 57, 105, 120, 168
-0.980585, 193, 65, 256, 320
-0.980602, 321, 225, 352, 288
-0.980614, 17, 241, 144, 304
-0.98073, 273, 161, 304, 288
-0.980817, 49, 177, 112, 240
-0.980849, 281, 65, 344, 320
-0.981033, 273, 161, 400, 224
-0.981089, 153, 209, 184, 272
-0.981123, 17, 217, 144, 280
-0.981222, 313, 185, 344, 248
-0.981244, 301, 201, 332, 264
-0.981268, 313, 145, 376, 208
-0.981381, 297, 177, 328, 304
-0.981432, 297, 121, 360, 184
-0.981454, 221, 209, 252, 333
-0.981482, 409, 209, 472, 333
-0.981499, 73, 113, 104, 240
-0.981505, 25, 209, 88, 333
-0.981644, 49, 65, 112, 320
-0.981717, 193, 129, 320, 192
-0.981802, 245, 217, 276, 280
-0.981812, 313, 129, 344, 256
-0.98187, 345, 241, 376, 304
-0.98191, 289, 273, 416, 333
-0.981928, 25, 113, 56, 240
-0.981988, 321, 193, 384, 256
-0.982047, 141, 113, 172, 240
-0.982065, 129, 249, 160, 312
-0.982078, 17, 153, 144, 216
-0.982278, 289, 153, 320, 216
-0.982297, 321, 153, 352, 216
-0.982366, 257, 265, 288, 328
-0.982389, 249, 97, 312, 224
-0.982762, 73, 153, 104, 216
-0.982919, 253, 161, 284, 288
-0.983089, 325, 145, 356, 272
-0.983137, 25, 273, 88, 333
-0.983198, 337, 225, 400, 288
-0.983228, 161, 113, 224, 176
-0.983259, 117, 161, 148, 288
-0.98334, 249, 65, 312, 320
-0.983585, 341, 209, 372, 333
-0.983588, 221, 257, 252, 320
-0.98382, 217, 65, 280, 320
-0.983967, 225, 97, 480, 224
-0.984216, 353, 177, 416, 304
-0.984261, 233, 241, 264, 304
-0.984341, 97, 105, 160, 168
-0.984344, 97, 113, 224, 176
-0.984474, 33, 105, 96, 168
-0.984536, 25, 209, 88, 272
-0.98456, 305, 225, 336, 288
-0.984564, 281, 265, 312, 328
-0.984654, 105, 161, 136, 288
-0.984807, 93, 209, 124, 333
-0.984881, 317, 273, 348, 333
-0.984891, 433, 241, 496, 304
-0.984921, 93, 161, 124, 224
-0.984944, 49, 225, 112, 288
-0.98508, 205, 153, 236, 216
-0.985267, 233, 145, 296, 208
-0.985283, 469, 193, 500, 320
-0.985343, 449, 193, 480, 320
-0.98546, 61, 153, 92, 216
-0.985528, 289, 249, 416, 312
-0.985568, 101, 201, 132, 264
-0.985594, 17, 185, 80, 248
-0.985726, 345, 273, 408, 333
-0.985929, 129, 201, 160, 264
-0.985973, 113, 193, 144, 256
-0.986205, 161, 81, 288, 208
-0.986219, 141, 201, 172, 264
-0.98641, 85, 241, 116, 304
-0.986534, 289, 185, 416, 248
-0.986553, 273, 137, 400, 200
-0.986606, 1, 145, 32, 272
-0.986627, 433, 249, 464, 312
-0.986652, 353, 249, 480, 312
-0.986692, 73, 65, 136, 320
-0.986817, 217, 97, 280, 224
-0.986827, 233, 145, 264, 272
-0.986858, 289, 129, 320, 192
-0.986931, 17, 137, 48, 200
-0.987052, 41, 273, 72, 333
-0.987201, 1, 153, 32, 216
-0.987209, 1, 65, 64, 192
-0.987227, 17, 161, 80, 288
-0.98731, 17, 105, 144, 168
-0.987332, 317, 249, 348, 312
-0.987418, 445, 273, 476, 333
-0.987461, 9, 161, 72, 224
-0.987517, 305, 65, 368, 320
-0.987551, 233, 265, 264, 328
-0.9877, 89, 293, 152, 324
-0.98782, 33, 265, 288, 328
-0.987879, 177, 213, 240, 244
-0.987902, 1, 113, 64, 176
-0.987958, 1, 137, 256, 200
-0.988046, 65, 241, 320, 304
-0.988048, 1, 129, 32, 192
-0.988151, 81, 177, 112, 304
-0.988375, 329, 129, 392, 256
-0.988405, 121, 301, 184, 332
-0.988428, 1, 273, 32, 333
-0.98843, 161, 261, 224, 292
-0.988441, 337, 161, 368, 224
-0.988449, 89, 249, 152, 280
-0.98851, 433, 145, 496, 272
-0.988567, 353, 209, 480, 272
-0.988578, 161, 201, 224, 232
-0.988584, 233, 205, 296, 236
-0.988597, 137, 289, 200, 320
-0.988623, 129, 153, 160, 216
-0.988666, 153, 161, 216, 192
-0.988752, 65, 185, 192, 248
-0.988824, 265, 217, 328, 248
-0.988849, 325, 201, 356, 264
-0.988867, 25, 65, 88, 192
-0.988912, 137, 277, 200, 308
-0.988934, 161, 285, 224, 316
-0.988936, 169, 245, 232, 276
-0.988937, 129, 273, 384, 333
-0.988956, 201, 261, 264, 292
-0.988984, 273, 181, 336, 212
-0.989009, 333, 233, 364, 296
-0.989025, 241, 233, 304, 264
-0.989025, 249, 185, 312, 216
-0.989032, 13, 145, 44, 272
-0.989085, 25, 129, 88, 160
-0.989094, 49, 153, 80, 216
-0.989109, 129, 257, 192, 288
-0.989112, 273, 161, 304, 224
-0.989122, 257, 265, 320, 296
-0.98913, 225, 245, 288, 276
-0.989132, 113, 289, 176, 320
-0.989166, 81, 141, 144, 172
-0.989179, 113, 157, 176, 188
-0.98918, 121, 209, 184, 240
-0.989207, 169, 1, 232, 333
-0.989235, 449, 209, 480, 272
-0.989259, 17, 297, 80, 328
-0.989279, 105, 161, 136, 224
-0.989302, 129, 221, 192, 252
-0.989321, 209, 209, 272, 240
-0.989331, 273, 205, 336, 236
-0.989344, 293, 233, 324, 296
-0.989359, 89, 261, 152, 292
-0.989371, 105, 225, 168, 256
-0.98938, 161, 233, 224, 264
-0.989403, 57, 297, 120, 328
-0.989411, 61, 81, 92, 208
-0.989419, 257, 161, 288, 224
-0.989435, 89, 281, 152, 312
-0.989441, 153, 301, 216, 332
-0.989478, 129, 145, 384, 208
-0.989488, 113, 241, 176, 272
-0.9895, 225, 265, 288, 296
-0.989516, 249, 253, 312, 284
-0.989522, 161, 273, 224, 304
-0.989581, 97, 201, 352, 264
-0.989616, 193, 173, 256, 204
-0.989637, 113, 269, 176, 300
-0.989651, 209, 193, 272, 224
-0.989706, 217, 153, 248, 216
-0.989728, 353, 177, 384, 304
-0.989728, 129, 1, 192, 333
-0.98973, 1, 97, 32, 224
-0.989754, 1, 65, 64, 320
-0.989774, 241, 221, 304, 252
-0.989811, 141, 161, 172, 288
-0.989814, 33, 161, 288, 224
-0.989821, 153, 221, 216, 252
-0.989829, 469, 201, 500, 264
-0.989834, 137, 197, 200, 228
-0.989838, 201, 245, 264, 276
-0.989867, 89, 237, 152, 268
-0.989922, 81, 153, 144, 184
-0.98993, 21, 273, 52, 333
-0.989955, 105, 133, 168, 164
-0.989957, 217, 173, 280, 204
-0.990044, 193, 161, 256, 192
-0.990076, 201, 225, 264, 256
-0.9901, 81, 129, 144, 160
-0.990108, 73, 1, 136, 333
-0.990111, 293, 265, 324, 328
-0.990113, 205, 129, 236, 192
-0.990117, 29, 209, 60, 333
-0.990125, 409, 241, 472, 304
-0.990132, 297, 269, 360, 300
-0.990142, 177, 185, 240, 216
-0.990196, 49, 281, 112, 312
-0.990285, 161, 169, 416, 232
-0.990293, 9, 285, 72, 316
-0.990307, 49, 137, 112, 168
-0.990321, 101, 81, 132, 208
-0.990322, 313, 177, 376, 208
-0.990327, 281, 237, 344, 268
-0.99035, 97, 1, 160, 333
-0.990361, 185, 273, 248, 304
-0.990439, 337, 185, 464, 248
-0.990459, 137, 241, 200, 272
-0.99046, 297, 257, 360, 288
-0.990512, 25, 141, 88, 172
-0.990517, 297, 225, 360, 256
-0.990527, 289, 165, 352, 196
-0.990571, 49, 149, 112, 180
-0.990651, 153, 137, 216, 168
-0.990651, 281, 193, 344, 224
-0.990655, 121, 145, 184, 176
-0.990672, 337, 273, 464, 333
-0.990778, 65, 261, 128, 292
-0.990784, 305, 193, 368, 224
-0.990797, 225, 277, 288, 308
-0.990838, 185, 201, 248, 232
-0.990839, 121, 65, 184, 192
-0.990841, 257, 277, 320, 308
-0.990842, 325, 177, 356, 240
-0.990847, 249, 173, 312, 204
-0.990865, 89, 105, 120, 168
-0.990969, 281, 133, 344, 164
-0.991005, 321, 249, 384, 280
-0.991023, 137, 177, 200, 208
-0.991033, 341, 273, 372, 333
-0.991053, 129, 81, 160, 208
-0.991083, 49, 1, 112, 333
-0.9911, 97, 213, 160, 244
-0.991145, 169, 173, 232, 204
-0.991149, 305, 209, 368, 240
-0.991166, 177, 301, 240, 332
-0.991168, 177, 141, 240, 172
-0.991174, 13, 97, 44, 224
-0.99118, 57, 125, 120, 156
-0.991246, 89, 165, 152, 196
-0.991248, 81, 225, 144, 256
-0.991268, 113, 197, 176, 228
-0.991315, 129, 133, 192, 164
-0.991331, 297, 81, 328, 208
-0.991341, 177, 81, 208, 208
-0.991347, 289, 113, 416, 176
-0.991349, 273, 249, 336, 280
-0.991386, 445, 249, 476, 312
-0.991394, 49, 65, 80, 192
-0.991396, 193, 105, 320, 168
-0.991399, 193, 233, 448, 296
-0.991421, 433, 209, 464, 333
-0.991426, 217, 113, 248, 240
-0.991439, 49, 293, 176, 324
-0.991467, 257, 193, 500, 256
-0.991468, 313, 165, 376, 196
-0.991476, 1, 145, 64, 176
-0.991481, 173, 113, 204, 176
-0.991502, 65, 165, 128, 196
-0.991502, 5, 209, 36, 333
-0.991503, 297, 281, 360, 312
-0.991539, 321, 273, 384, 304
-0.991583, 321, 261, 384, 292
-0.991622, 65, 249, 128, 280
-0.991667, 289, 153, 352, 184
-0.991683, 65, 181, 128, 212
-0.991724, 321, 289, 384, 320
-0.991739, 433, 205, 496, 236
-0.991776, 97, 285, 224, 316
-0.99182, 337, 237, 400, 268
-0.991823, 77, 105, 108, 168
-0.991837, 433, 249, 496, 280
-0.991844, 425, 265, 488, 296
-0.991932, 297, 297, 360, 328
-0.991977, 173, 201, 204, 232
-0.991991, 169, 289, 200, 320
-0.991996, 177, 129, 240, 160
-0.992024, 297, 129, 328, 160
-0.992042, 97, 245, 128, 276
-0.992047, 273, 113, 304, 240
-0.992069, 1, 129, 64, 160
-0.992072, 89, 197, 152, 228
-0.992076, 97, 285, 128, 316
-0.992102, 337, 113, 464, 240
-0.992105, 185, 285, 248, 316
-0.992106, 313, 237, 376, 268
-0.992113, 189, 113, 220, 176
-0.992119, 89, 301, 120, 332
-0.992124, 17, 1, 80, 333
-0.992131, 269, 213, 300, 244
-0.992145, 257, 261, 288, 292
-0.992159, 177, 185, 192, 248
-0.992178, 41, 161, 104, 192
-0.992189, 169, 217, 200, 248
-0.992193, 169, 277, 200, 308
-0.992198, 269, 233, 300, 264
-0.992209, 181, 269, 212, 300
-0.99221, 113, 169, 176, 200
-0.992217, 257, 213, 288, 244
-0.99222, 177, 165, 208, 196
-0.992223, 297, 1, 360, 333
-0.992227, 161, 253, 192, 284
-0.992246, 129, 289, 160, 320
-0.992262, 145, 121, 208, 152
-0.992263, 121, 121, 184, 152
-0.992271, 257, 161, 320, 192
-0.992279, 121, 157, 152, 188
-0.992301, 409, 281, 472, 312
-0.992313, 149, 273, 180, 304
-0.992316, 165, 301, 196, 332
-0.992322, 113, 293, 144, 324
-0.992327, 165, 161, 196, 192
-0.992329, 289, 205, 320, 236
-0.99233, 301, 181, 332, 212
-0.992332, 97, 273, 128, 304
-0.992339, 25, 213, 88, 244
-0.992347, 1, 273, 64, 304
-0.992349, 181, 285, 212, 316
-0.99235, 193, 281, 224, 312
-0.992357, 129, 301, 160, 332
-0.992361, 93, 261, 124, 292
-0.99237, 217, 217, 248, 248
-0.992392, 273, 289, 336, 320
-0.992408, 337, 301, 400, 332
-0.992418, 237, 189, 268, 220
-0.992424, 1, 217, 256, 280
-0.992425, 77, 177, 108, 240
-0.992442, 165, 233, 196, 264
-0.992448, 205, 81, 236, 208
-0.992448, 305, 249, 336, 312
-0.992449, 257, 201, 288, 232
-0.99245, 237, 205, 268, 236
-0.992465, 277, 193, 308, 224
-0.992467, 257, 181, 288, 212
-0.992477, 117, 217, 148, 248
-0.992478, 149, 297, 180, 328
-0.992481, 17, 297, 48, 328
-0.992491, 165, 233, 180, 296
-0.992494, 205, 165, 236, 196
-0.992495, 65, 213, 128, 244
-0.992497, 197, 257, 228, 288
-0.992508, 269, 253, 300, 284
-0.992515, 345, 217, 376, 280
-0.992531, 249, 273, 280, 304
-0.992533, 257, 133, 320, 164
-0.992536, 285, 217, 316, 248
-0.992536, 17, 201, 80, 232
-0.992543, 289, 121, 352, 152
-0.992547, 189, 213, 220, 244
-0.992548, 169, 265, 200, 296
-0.992553, 141, 245, 172, 276
-0.992561, 233, 161, 296, 192
-0.992562, 17, 133, 144, 164
-0.99258, 185, 249, 216, 280
-0.992583, 49, 49, 112, 176
-0.992586, 205, 245, 236, 276
-0.992588, 433, 233, 496, 264
-0.992591, 301, 197, 332, 228
-0.992597, 281, 253, 312, 284
-0.992605, 313, 153, 376, 184
-0.992607, 1, 297, 32, 328
-0.992608, 181, 177, 212, 208
-0.992609, 81, 129, 112, 160
-0.992611, 289, 181, 320, 212
-0.992616, 153, 205, 184, 236
-0.992618, 111, 129, 126, 192
-0.992618, 1, 297, 128, 328
-0.992621, 185, 197, 216, 228
-0.992623, 205, 213, 236, 244
-0.992624, 97, 153, 128, 184
-0.992633, 269, 273, 300, 304
-0.992633, 41, 173, 104, 204
-0.992635, 329, 281, 360, 312
-0.992639, 105, 225, 136, 256
-0.992647, 109, 137, 140, 168
-0.99265, 237, 261, 268, 292
-0.992652, 301, 209, 332, 240
-0.992656, 145, 169, 176, 232
-0.992658, 161, 177, 192, 208
-0.992662, 225, 177, 256, 208
-0.992663, 65, 273, 192, 304
-0.992664, 289, 193, 320, 224
-0.992667, 149, 285, 180, 316
-0.992669, 41, 289, 72, 320
-0.99267, 433, 177, 496, 240
-0.992672, 325, 229, 356, 260
-0.99268, 145, 165, 272, 196
-0.992685, 237, 169, 268, 200
-0.992692, 169, 189, 200, 220
-0.992692, 109, 241, 140, 272
-0.992695, 17, 233, 80, 296
-0.992695, 217, 261, 248, 292
-0.9927, 301, 169, 332, 200
-0.992706, 205, 225, 236, 256
-0.992711, 93, 129, 124, 160
-0.99272, 257, 225, 288, 256
-0.992726, 153, 217, 184, 248
-0.992727, 185, 233, 216, 264
-0.992732, 65, 129, 96, 160
-0.992733, 149, 257, 180, 288
-0.992735, 29, 129, 60, 160
-0.992736, 181, 301, 212, 332
-0.992739, 193, 269, 224, 300
-0.992744, 305, 141, 368, 172
-0.992747, 49, 125, 80, 156
-0.992749, 321, 221, 384, 252
-0.992764, 153, 237, 184, 268
-0.992764, 173, 245, 204, 276
-0.992769, 109, 257, 140, 288
-0.992774, 29, 293, 60, 324
-0.992777, 109, 281, 140, 312
-0.99278, 101, 297, 132, 328
-0.992781, 257, 245, 288, 276
-0.992788, 97, 141, 128, 172
-0.992794, 313, 181, 344, 212
-0.992799, 305, 141, 336, 172
-0.992804, 141, 233, 172, 264
-0.992817, 305, 225, 432, 288
-0.992824, 77, 301, 108, 332
-0.992824, 217, 229, 248, 260
-0.992825, 129, 277, 160, 308
-0.992827, 45, 301, 76, 332
-0.992834, 313, 229, 344, 260
-0.992837, 129, 225, 160, 256
-0.99284, 117, 105, 148, 168
-0.992841, 81, 245, 208, 276
-0.992842, 99, 241, 114, 304
-0.992845, 281, 265, 312, 296
-0.992846, 193, 133, 224, 164
-0.992848, 217, 205, 248, 236
-0.992854, 313, 197, 344, 228
-0.992863, 117, 229, 148, 260
-0.992867, 325, 249, 356, 280
-0.992876, 237, 273, 268, 304
-0.992882, 113, 269, 144, 300
-0.992886, 141, 221, 172, 252
-0.992895, 141, 133, 172, 164
-0.992896, 73, 145, 104, 176
-0.992907, 121, 241, 152, 272
-0.992908, 237, 221, 268, 252
-0.99291, 205, 269, 236, 300
-0.992913, 121, 129, 136, 192
-0.992914, 97, 297, 224, 328
-0.992915, 329, 269, 360, 300
-0.992918, 321, 293, 352, 324
-0.992921, 129, 141, 160, 172
-0.992922, 177, 137, 208, 168
-0.992926, 277, 181, 308, 212
-0.992926, 313, 209, 344, 240
-0.992927, 341, 241, 372, 272
-0.992931, 217, 245, 248, 276
-0.992937, 177, 273, 304, 304
-0.992939, 193, 169, 224, 200
-0.992941, 309, 293, 340, 324
-0.992941, 433, 265, 464, 296
-0.992943, 317, 165, 348, 196
-0.992944, 237, 237, 268, 268
-0.992948, 369, 249, 432, 312
-0.993005, 61, 105, 92, 168
-0.993029, 149, 113, 180, 176
-0.993038, 177, 177, 304, 208
-0.993062, 45, 161, 76, 288
-0.99311, 17, 145, 144, 176
-0.993112, 1, 185, 256, 248
-0.993251, 65, 177, 96, 240
-0.993262, 179, 137, 194, 200
-0.993274, 161, 189, 288, 220
-0.99332, 225, 1, 288, 333
-0.993323, 281, 81, 344, 208
-0.993332, 85, 81, 116, 208
-0.993339, 173, 217, 188, 280
-0.993377, 49, 177, 80, 240
-0.993381, 249, 185, 264, 248
-0.993406, 201, 113, 264, 176
-0.993429, 205, 249, 220, 312
-0.993445, 153, 81, 184, 208
-0.993464, 283, 201, 298, 264
-0.993475, 17, 281, 144, 312
-0.993515, 181, 209, 196, 272
-0.993523, 293, 185, 308, 248
-0.993536, 105, 105, 136, 168
-0.993561, 401, 161, 464, 288
-0.993585, 211, 241, 226, 304
-0.993587, 241, 269, 368, 300
-0.993614, 189, 65, 220, 192
-0.993622, 103, 265, 118, 328
-0.993636, 145, 257, 272, 288
-0.993662, 171, 257, 186, 320
-0.993688, 321, 153, 448, 216
-0.993735, 275, 217, 290, 280
-0.993759, 171, 137, 186, 200
-0.993763, 301, 177, 316, 240
-0.993781, 97, 137, 224, 168
-0.993814, 265, 265, 280, 328
-0.993821, 241, 189, 368, 220
-0.993828, 121, 217, 136, 280
-0.993847, 161, 113, 192, 176
-0.993851, 185, 169, 200, 232
-0.993861, 185, 137, 200, 200
-0.993909, 97, 129, 112, 192
-0.993909, 49, 201, 112, 264
-0.993919, 393, 273, 456, 333
-0.993926, 49, 157, 176, 188
-0.99393, 257, 257, 500, 320
-0.993947, 175, 161, 190, 224
-0.993963, 185, 273, 200, 333
-0.993983, 113, 233, 128, 296
-0.993995, 285, 241, 300, 304
-0.994034, 145, 113, 272, 176
-0.994043, 257, 1, 320, 333
-0.994076, 157, 249, 172, 312
-0.99409, 97, 161, 224, 192
-0.994138, 97, 257, 224, 288
-0.994173, 199, 257, 214, 320
-0.994174, 177, 205, 304, 236
-0.994182, 271, 241, 286, 304
-0.994198, 193, 273, 208, 333
-0.994211, 273, 193, 288, 256
-0.994218, 109, 273, 124, 333
-0.994228, 161, 273, 176, 333
-0.994255, 113, 273, 240, 304
-0.99429, 71, 129, 86, 192
-0.994292, 129, 225, 256, 256
-0.994302, 241, 257, 368, 288
-0.994312, 401, 209, 464, 272
-0.994312, 215, 217, 230, 280
-0.99432, 1, 113, 256, 176
-0.994321, 193, 241, 320, 272
-0.994337, 337, 161, 400, 224
-0.994351, 225, 177, 352, 208
-0.99436, 1, 201, 500, 264
-0.994361, 1, 241, 500, 304
-0.994391, 329, 65, 392, 320
-0.994419, 131, 273, 146, 333
-0.994435, 221, 217, 236, 280
-0.994436, 105, 241, 120, 304
-0.994441, 41, 209, 72, 333
-0.99445, 103, 129, 118, 192
-0.994451, 187, 201, 202, 264
-0.994479, 195, 137, 210, 200
-0.994516, 113, 209, 240, 240
-0.994519, 1, 209, 64, 272
-0.994526, 81, 233, 208, 264
-0.994528, 265, 241, 280, 304
-0.994539, 167, 177, 182, 240
-0.994557, 89, 129, 104, 192
-0.994577, 305, 97, 368, 160
-0.994588, 323, 193, 338, 256
-0.994626, 137, 273, 152, 333
-0.99465, 193, 225, 320, 256
-0.994655, 353, 201, 416, 264
-0.99467, 147, 273, 162, 333
-0.994674, 297, 129, 312, 192
-0.994682, 265, 185, 280, 248
-0.994685, 131, 129, 146, 192
-0.994742, 1, 261, 128, 292
-0.994751, 129, 49, 384, 176
-0.994763, 123, 265, 138, 328
-0.99479, 179, 241, 194, 304
-0.994804, 1, 265, 500, 328
-0.994812, 259, 257, 274, 320
-0.994814, 261, 217, 276, 280
-0.994816, 1, 177, 500, 240
-0.99482, 193, 169, 208, 232
-0.994853, 209, 217, 224, 280
-0.994855, 165, 137, 180, 200
-0.994863, 241, 201, 368, 232
-0.994882, 239, 193, 254, 256
-0.994887, 313, 177, 328, 240
-0.994914, 251, 249, 266, 312
-0.994949, 193, 253, 320, 284
-0.994953, 313, 129, 328, 192
-0.994979, 17, 209, 48, 333
-0.994987, 243, 169, 258, 232
-0.995002, 167, 209, 182, 272
-0.995006, 293, 209, 308, 272
-0.995041, 97, 265, 112, 328
-0.995068, 207, 137, 222, 200
-0.99507, 255, 177, 270, 240
-0.995084, 61, 129, 76, 192
-0.995089, 139, 129, 154, 192
-0.995111, 161, 285, 288, 316
-0.995112, 177, 265, 192, 328
-0.995114, 1, 137, 500, 200
-0.995145, 353, 129, 416, 256
-0.995146, 129, 237, 256, 268
-0.995155, 117, 257, 132, 320
-0.995215, 233, 177, 248, 240
-0.99523, 275, 265, 290, 328
-0.995243, 25, 161, 56, 288
-0.995251, 201, 129, 216, 192
-0.99527, 321, 1, 384, 333
-0.995306, 305, 65, 432, 192
-0.995309, 97, 121, 352, 184
-0.99531, 133, 217, 148, 280
-0.995325, 83, 129, 98, 192
-0.995338, 17, 225, 144, 256
-0.995362, 97, 193, 224, 224
-0.995371, 225, 165, 352, 196
-0.995383, 307, 121, 322, 184
-0.995405, 189, 249, 204, 312
-0.995475, 257, 169, 500, 232
-0.995476, 187, 225, 202, 288
-0.995485, 365, 193, 396, 320
-0.995486, 321, 81, 352, 208
-0.995504, 113, 153, 128, 216
-0.995513, 217, 177, 232, 240
-0.995516, 155, 129, 170, 192
-0.995524, 113, 201, 128, 264
-0.995525, 129, 177, 256, 208
-0.99554, 321, 169, 336, 232
-0.995543, 193, 1, 256, 333
-0.995567, 143, 249, 158, 312
-0.995573, 287, 177, 302, 240
-0.99558, 193, 193, 208, 256
-0.995619, 307, 169, 322, 232
-0.995626, 279, 241, 294, 304
-0.995633, 145, 301, 272, 332
-0.995639, 51, 121, 66, 184
-0.995643, 301, 153, 316, 216
-0.995647, 335, 249, 350, 312
-0.995653, 237, 233, 252, 296
-0.995656, 29, 65, 60, 192
-0.995671, 33, 129, 48, 192
-0.995671, 87, 153, 102, 216
-0.995697, 361, 225, 424, 288
-0.995714, 255, 201, 270, 264
-0.995715, 91, 257, 106, 320
-0.995723, 319, 137, 334, 200
-0.995755, 113, 149, 240, 180
-0.995763, 325, 145, 340, 208
-0.995792, 113, 65, 144, 192
-0.995802, 227, 225, 242, 288
-0.995817, 205, 273, 220, 333
-0.995828, 201, 225, 216, 288
-0.995829, 227, 201, 242, 264
-0.995855, 17, 249, 144, 280
-0.995876, 217, 241, 232, 304
-0.995899, 233, 209, 248, 272
-0.99591, 145, 129, 160, 192
-0.995929, 267, 209, 282, 272
-0.99594, 273, 241, 400, 272
-0.995973, 81, 173, 208, 204
-0.995977, 335, 225, 350, 288
-0.995991, 209, 145, 336, 176
-0.995997, 273, 177, 400, 208
-0.996007, 77, 129, 92, 192
-0.99601, 81, 125, 208, 156
-0.996023, 105, 217, 120, 280
-0.996027, 81, 221, 208, 252
-0.996036, 199, 169, 214, 232
-0.99604, 17, 213, 144, 244
-0.99605, 151, 233, 166, 296
-0.996052, 213, 137, 228, 200
-0.996061, 341, 273, 356, 333
-0.996067, 333, 273, 348, 333
-0.996081, 127, 233, 142, 296
-0.996093, 249, 105, 312, 168
-0.996094, 293, 153, 308, 216
-0.996101, 137, 249, 152, 312
-0.996101, 345, 249, 408, 312
-0.996127, 299, 209, 314, 272
-0.996143, 227, 169, 242, 232
-0.996147, 159, 225, 174, 288
-0.996159, 121, 193, 136, 256
-0.996205, 121, 161, 136, 224
-0.996228, 249, 209, 264, 272
-0.996246, 281, 177, 296, 240
-0.996265, 289, 281, 416, 312
-0.996268, 131, 153, 146, 216
-0.996275, 319, 225, 334, 288
-0.996278, 347, 241, 362, 304
-0.996279, 245, 113, 276, 240
-0.996284, 325, 233, 340, 296
-0.996285, 433, 65, 496, 320
-0.9963, 401, 185, 464, 248
-0.996336, 17, 121, 144, 152
-0.99639, 177, 65, 208, 320
-0.996429, 257, 217, 384, 248
-0.996547, 99, 245, 114, 276
-0.996559, 265, 265, 280, 296
-0.996568, 369, 161, 496, 224
-0.996655, 17, 201, 144, 232
-0.99671, 17, 181, 144, 212
-0.996728, 49, 261, 176, 292
-0.996742, 181, 217, 196, 248
-0.996748, 175, 197, 190, 228
-0.99677, 225, 145, 480, 208
-0.996822, 283, 213, 298, 244
-0.996834, 193, 133, 320, 164
-0.996844, 273, 129, 400, 160
-0.996858, 1, 157, 128, 188
-0.99688, 257, 229, 384, 260
-0.996887, 289, 253, 416, 284
-0.996896, 175, 217, 190, 248
-0.996903, 111, 241, 126, 272
-0.996904, 307, 125, 322, 156
-0.996932, 99, 261, 114, 292
-0.996947, 105, 65, 136, 320
-0.996955, 301, 181, 316, 212
-0.996956, 1, 237, 128, 268
-0.997002, 165, 253, 180, 284
-0.997017, 201, 65, 232, 320
-0.997021, 121, 221, 136, 252
-0.997033, 145, 137, 272, 168
-0.997063, 161, 153, 288, 184
-0.997064, 289, 265, 416, 296
-0.997089, 225, 281, 352, 312
-0.997107, 97, 293, 112, 324
-0.997117, 183, 289, 198, 320
-0.997136, 113, 157, 128, 188
-0.997144, 141, 65, 172, 192
-0.997156, 291, 201, 306, 232
-0.997158, 299, 129, 314, 160
-0.99716, 171, 289, 186, 320
-0.997162, 189, 269, 204, 300
-0.997165, 277, 217, 292, 248
-0.997167, 73, 65, 104, 192
-0.99717, 165, 65, 196, 192
-0.997172, 149, 65, 180, 320
-0.997197, 121, 297, 136, 328
-0.997222, 269, 209, 284, 240
-0.997223, 103, 129, 118, 160
-0.997236, 91, 301, 106, 332
-0.997239, 249, 189, 264, 220
-0.997259, 217, 209, 232, 240
-0.997282, 275, 205, 290, 236
-0.997282, 195, 285, 210, 316
-0.997288, 193, 165, 208, 196
-0.997299, 115, 293, 130, 324
-0.9973, 163, 241, 178, 272
-0.997309, 353, 249, 480, 280
-0.997312, 65, 209, 192, 240
-0.997321, 177, 185, 192, 216
-0.997336, 93, 129, 108, 160
-0.997345, 273, 161, 400, 192
-0.997347, 321, 121, 384, 184
-0.997351, 105, 245, 120, 276
-0.997354, 131, 153, 146, 184
-0.997356, 181, 205, 196, 236
-0.997362, 185, 165, 200, 196
-0.997369, 273, 293, 400, 324
-0.997374, 1, 113, 500, 176
-0.997391, 25, 297, 40, 328
-0.997404, 109, 133, 124, 164
-0.99742, 353, 261, 480, 292
-0.997432, 111, 225, 126, 256
-0.997438, 247, 177, 262, 208
-0.997439, 275, 229, 290, 260
-0.997441, 127, 297, 142, 328
-0.997454, 165, 65, 196, 320
-0.997455, 201, 265, 216, 296
-0.99746, 175, 277, 190, 308
-0.997464, 125, 153, 140, 184
-0.997469, 165, 161, 180, 192
-0.997474, 289, 193, 416, 224
-0.997475, 301, 193, 316, 224
-0.997477, 71, 129, 86, 160
-0.997496, 259, 269, 274, 300
-0.9975, 161, 301, 176, 332
-0.997503, 85, 65, 116, 320
-0.997504, 119, 233, 134, 264
-0.997505, 279, 193, 294, 224
-0.997513, 295, 185, 310, 216
-0.997517, 171, 229, 186, 260
-0.997519, 19, 297, 34, 328
-0.997525, 109, 285, 124, 316
-0.997539, 183, 189, 198, 220
-0.997549, 129, 141, 144, 172
-0.997551, 119, 141, 134, 172
-0.997559, 209, 257, 224, 288
-0.997562, 187, 213, 202, 244
-0.997568, 135, 289, 150, 320
-0.997572, 179, 161, 194, 192
-0.997575, 103, 273, 118, 304
-0.997579, 83, 137, 98, 168
-0.997589, 61, 137, 76, 168
-0.99759, 109, 145, 124, 176
-0.99759, 117, 65, 148, 320
-0.997593, 163, 277, 178, 308
-0.997595, 201, 245, 216, 276
-0.997611, 97, 141, 112, 172
-0.997617, 313, 129, 328, 160
-0.997618, 177, 229, 192, 260
-0.997622, 321, 185, 336, 216
-0.997657, 183, 301, 198, 332
-0.997666, 145, 289, 160, 320
-0.997666, 283, 253, 298, 284
-0.997687, 257, 49, 500, 176
-0.99769, 103, 301, 118, 332
-0.997693, 253, 261, 268, 292
-0.997705, 271, 245, 286, 276
-0.997706, 237, 177, 252, 208
-0.997708, 71, 145, 86, 176
-0.99771, 127, 213, 142, 244
-0.997711, 309, 177, 324, 208
-0.997712, 171, 161, 186, 192
-0.997713, 191, 297, 206, 328
-0.997715, 191, 197, 206, 228
-0.997715, 229, 217, 244, 248
-0.997717, 301, 65, 332, 320
-0.997728, 155, 257, 170, 288
-0.997731, 185, 177, 200, 208
-0.997733, 183, 277, 198, 308
-0.997743, 469, 145, 500, 272
-0.997747, 115, 129, 130, 160
-0.997758, 271, 261, 286, 292
-0.997767, 211, 225, 226, 256
-0.997783, 195, 265, 210, 296
-0.997791, 201, 277, 216, 308
-0.9978, 207, 245, 222, 276
-0.997805, 17, 169, 144, 200
-0.997811, 313, 197, 328, 228
-0.997812, 119, 153, 134, 184
-0.997812, 205, 165, 220, 196
-0.997829, 87, 149, 102, 180
-0.997834, 273, 149, 400, 180
-0.997835, 255, 201, 270, 232
-0.997837, 169, 265, 184, 296
-0.997837, 237, 213, 252, 244
-0.997845, 57, 65, 88, 320
-0.997847, 211, 213, 226, 244
-0.99785, 283, 237, 298, 268
-0.997858, 167, 217, 182, 248
-0.997861, 37, 129, 52, 160
-0.997866, 193, 121, 320, 152
-0.997866, 77, 129, 92, 160
-0.997866, 5, 297, 20, 328
-0.997872, 51, 125, 66, 156
-0.997873, 353, 281, 480, 312
-0.997874, 103, 141, 118, 172
-0.997874, 317, 141, 332, 172
-0.997884, 45, 65, 76, 320
-0.99789, 119, 209, 134, 240
-0.997892, 277, 261, 292, 292
-0.997897, 205, 129, 220, 160
-0.997897, 133, 217, 148, 248
-0.997901, 335, 253, 350, 284
-0.997907, 13, 301, 28, 332
-0.997908, 315, 177, 330, 208
-0.997912, 195, 253, 210, 284
-0.997913, 31, 297, 46, 328
-0.997916, 183, 261, 198, 292
-0.997927, 433, 1, 496, 333
-0.997932, 49, 289, 64, 320
-0.997934, 353, 237, 480, 268
-0.997937, 323, 293, 338, 324
-0.997939, 1, 285, 16, 316
-0.997939, 213, 65, 244, 320
-0.997948, 261, 281, 276, 312
-0.997958, 171, 177, 186, 208
-0.997966, 213, 241, 228, 272
-0.997966, 143, 277, 158, 308
-0.997989, 137, 65, 168, 320
-0.998072, 189, 65, 220, 320
-0.998162, 353, 293, 480, 324
-0.998211, 33, 65, 64, 320
-0.998223, 345, 1, 408, 333
-0.998253, 229, 97, 260, 224
-0.998289, 69, 177, 100, 304
-0.998319, 289, 65, 320, 320
-0.998326, 337, 213, 464, 244
-0.998327, 175, 193, 190, 320
-0.998339, 117, 209, 132, 333
-0.998361, 89, 295, 152, 310
-0.998372, 229, 65, 260, 320
-0.998384, 177, 215, 240, 230
-0.998403, 169, 209, 184, 333
-0.998403, 137, 307, 200, 322
-0.998403, 161, 277, 224, 292
-0.998406, 241, 113, 368, 176
-0.998412, 153, 167, 216, 182
-0.998413, 121, 293, 184, 308
-0.998418, 193, 171, 256, 186
-0.998422, 121, 313, 184, 328
-0.998426, 81, 309, 144, 324
-0.998426, 153, 265, 216, 280
-0.998429, 183, 129, 198, 256
-0.998429, 89, 301, 152, 316
-0.99843, 17, 293, 80, 308
-0.998437, 145, 259, 208, 274
-0.998439, 89, 249, 152, 264
-0.998442, 241, 207, 304, 222
-0.998442, 129, 221, 192, 236
-0.998444, 161, 285, 224, 300
-0.998445, 89, 287, 152, 302
-0.99845, 137, 287, 200, 302
-0.998452, 161, 293, 224, 308
-0.998453, 289, 181, 352, 196
-0.998454, 353, 201, 480, 232
-0.998454, 193, 259, 256, 274
-0.998456, 81, 263, 144, 278
-0.998457, 169, 221, 232, 236
-0.998457, 121, 301, 184, 316
-0.998458, 289, 203, 320, 218
-0.998458, 41, 127, 72, 142
-0.998458, 245, 181, 276, 196
-0.998458, 181, 293, 212, 308
-0.998458, 209, 265, 272, 280
-0.998459, 101, 129, 132, 144
-0.998459, 321, 65, 352, 320
-0.99846, 205, 167, 236, 182
-0.998461, 149, 271, 180, 286
-0.998461, 301, 203, 332, 218
-0.998462, 181, 213, 212, 228
-0.998462, 157, 215, 188, 230
-0.998462, 137, 201, 200, 216
-0.998463, 105, 237, 168, 252
-0.998463, 265, 209, 328, 224
-0.998464, 271, 209, 286, 333
-0.998464, 105, 261, 136, 276
-0.998464, 81, 255, 144, 270
-0.998464, 173, 265, 204, 280
-0.998465, 93, 145, 124, 160
-0.998466, 301, 209, 332, 224
-0.998466, 77, 311, 108, 326
-0.998467, 233, 235, 296, 250
-0.998468, 141, 259, 172, 274
-0.998468, 69, 137, 100, 152
-0.998469, 77, 129, 108, 144
-0.998469, 193, 213, 224, 228
-0.998469, 273, 227, 304, 242
-0.998469, 141, 265, 172, 280
-0.99847, 169, 259, 232, 274
-0.99847, 217, 215, 280, 230
-0.998471, 197, 219, 228, 234
-0.998475, 173, 229, 204, 244
-0.998476, 185, 239, 216, 254
-0.998476, 169, 253, 232, 268
-0.998477, 17, 299, 80, 314
-0.998477, 273, 217, 336, 232
-0.998477, 241, 241, 304, 256
-0.998477, 145, 313, 208, 328
-0.998478, 69, 65, 100, 320
-0.998478, 125, 301, 156, 316
-0.998479, 129, 227, 192, 242
-0.99848, 165, 223, 196, 238
-0.998481, 129, 241, 192, 256
-0.998482, 185, 201, 216, 216
-0.998482, 309, 81, 340, 208
-0.998482, 149, 281, 180, 296
-0.998483, 113, 307, 176, 322
-0.998483, 297, 197, 328, 212
-0.998484, 329, 277, 360, 292
-0.998484, 225, 177, 288, 192
-0.998485, 97, 317, 160, 332
-0.998485, 153, 209, 184, 224
-0.998485, 105, 135, 168, 150
-0.998485, 265, 183, 328, 198
-0.998487, 1, 301, 32, 316
-0.998487, 257, 255, 288, 270
-0.998487, 145, 301, 208, 316
-0.998487, 117, 233, 148, 248
-0.998487, 249, 199, 312, 214
-0.998488, 197, 281, 228, 296
-0.998488, 277, 257, 308, 272
-0.998489, 149, 307, 180, 322
-0.998489, 169, 177, 232, 192
-0.998489, 89, 155, 152, 170
-0.99849, 277, 191, 308, 206
-0.99849, 213, 211, 244, 226
-0.99849, 161, 271, 224, 286
-0.99849, 177, 311, 208, 326
-0.99849, 161, 201, 224, 216
-0.99849, 225, 275, 288, 290
-0.998491, 137, 277, 200, 292
-0.998491, 225, 175, 256, 190
-0.998492, 25, 131, 88, 146
-0.998492, 181, 179, 212, 194
-0.998492, 57, 317, 120, 332
-0.998493, 141, 235, 172, 250
-0.998493, 181, 167, 212, 182
-0.998493, 273, 277, 304, 292
-0.998494, 65, 149, 128, 164
-0.998495, 105, 243, 168, 258
-0.998495, 197, 267, 228, 282
-0.998495, 57, 297, 120, 312
-0.998495, 185, 223, 216, 238
-0.998496, 257, 225, 288, 240
-0.998496, 257, 205, 288, 220
-0.998496, 257, 269, 320, 284
-0.998496, 305, 187, 336, 202
-0.998496, 193, 135, 224, 150
-0.998497, 25, 295, 56, 310
-0.998497, 97, 317, 128, 332
-0.998497, 213, 223, 244, 238
-0.998498, 105, 227, 168, 242
-0.998499, 237, 193, 268, 208
-0.998499, 105, 261, 168, 276
-0.998499, 133, 133, 164, 148
-0.9985, 137, 209, 200, 224
-0.998501, 153, 231, 216, 246
-0.998501, 81, 135, 144, 150
-0.998502, 69, 143, 100, 158
-0.998502, 153, 287, 184, 302
-0.998503, 97, 89, 224, 152
-0.998504, 109, 239, 140, 254
-0.998506, 241, 257, 304, 272
-0.998506, 169, 317, 200, 332
-0.998507, 353, 225, 480, 256
-0.998508, 293, 191, 324, 206
-0.998508, 281, 221, 312, 236
-0.998508, 289, 209, 352, 224
-0.998509, 193, 121, 448, 184
-0.998509, 241, 265, 272, 280
-0.99851, 161, 209, 224, 224
-0.99851, 245, 279, 276, 294
-0.99851, 25, 143, 88, 158
-0.998511, 233, 193, 296, 208
-0.998512, 261, 209, 276, 333
-0.998513, 257, 211, 288, 226
-0.998513, 37, 291, 68, 306
-0.998513, 165, 273, 196, 288
-0.998514, 237, 273, 268, 288
-0.998514, 81, 145, 112, 160
-0.998515, 185, 267, 248, 282
-0.998515, 249, 247, 312, 262
-0.998516, 121, 215, 184, 230
-0.998516, 169, 197, 200, 212
-0.998517, 297, 277, 360, 292
-0.998517, 269, 241, 300, 256
-0.998517, 257, 235, 320, 250
-0.998517, 209, 253, 272, 268
-0.998518, 121, 255, 184, 270
-0.998519, 161, 237, 224, 252
-0.99852, 177, 275, 208, 290
-0.998521, 193, 229, 256, 244
-0.998521, 165, 235, 196, 250
-0.998522, 273, 229, 336, 244
-0.998524, 89, 139, 120, 154
-0.998525, 109, 309, 140, 324
-0.998525, 125, 313, 156, 328
-0.998526, 57, 289, 120, 304
-0.998526, 193, 177, 256, 192
-0.998526, 269, 263, 300, 278
-0.998526, 117, 163, 148, 178
-0.998527, 241, 209, 272, 224
-0.998527, 21, 65, 52, 320
-0.998527, 201, 273, 264, 288
-0.998528, 225, 293, 352, 324
-0.99853, 113, 159, 176, 174
-0.99853, 65, 129, 128, 144
-0.998531, 233, 225, 296, 240
-0.998531, 137, 271, 200, 286
-0.998532, 217, 207, 280, 222
-0.998532, 57, 143, 120, 158
-0.998532, 89, 281, 152, 296
-0.998533, 257, 217, 288, 232
-0.998533, 313, 179, 376, 194
-0.998534, 93, 257, 124, 272
-0.998534, 117, 219, 148, 234
-0.998534, 185, 317, 216, 332
-0.998535, 225, 215, 256, 230
-0.998537, 65, 317, 96, 332
-0.998537, 205, 259, 236, 274
-0.998538, 105, 221, 168, 236
-0.998538, 97, 281, 128, 296
-0.998539, 241, 213, 304, 228
-0.99854, 257, 275, 288, 290
-0.99854, 257, 275, 320, 290
-0.99854, 149, 301, 180, 316
-0.99854, 129, 235, 192, 250
-0.998541, 185, 265, 216, 280
-0.998541, 153, 215, 216, 230
-0.998542, 117, 157, 148, 172
-0.998543, 169, 203, 200, 218
-0.998543, 297, 271, 360, 286
-0.998543, 77, 317, 108, 332
-0.998544, 177, 183, 240, 198
-0.998544, 233, 263, 296, 278
-0.998544, 201, 279, 264, 294
-0.998544, 257, 185, 288, 200
-0.998545, 161, 141, 224, 156
-0.998545, 93, 271, 124, 286
-0.998545, 89, 129, 120, 144
-0.998546, 285, 185, 316, 200
-0.998546, 129, 135, 192, 150
-0.998547, 177, 315, 240, 330
-0.998547, 233, 185, 296, 200
-0.998547, 89, 271, 152, 286
-0.998547, 201, 183, 264, 198
-0.998547, 165, 163, 196, 178
-0.998547, 209, 197, 272, 212
-0.99855, 89, 145, 152, 160
-0.998551, 225, 247, 288, 262
-0.998552, 145, 313, 176, 328
-0.998552, 265, 189, 328, 204
-0.998552, 289, 131, 352, 146
-0.998554, 301, 135, 332, 150
-0.998554, 161, 263, 192, 278
-0.998554, 165, 311, 196, 326
-0.998558, 113, 297, 144, 312
-0.99856, 257, 263, 320, 278
-0.99856, 129, 265, 192, 280
-0.99856, 25, 149, 88, 164
-0.99856, 129, 307, 160, 322
-0.998561, 289, 209, 320, 224
-0.998561, 105, 135, 136, 150
-0.998561, 165, 303, 196, 318
-0.998561, 161, 307, 224, 322
-0.998561, 265, 241, 328, 256
-0.998562, 177, 195, 240, 210
-0.998563, 49, 303, 112, 318
-0.998564, 193, 165, 256, 180
-0.998566, 233, 269, 296, 284
-0.998566, 89, 161, 152, 176
-0.998567, 277, 207, 308, 222
-0.998568, 57, 137, 120, 152
-0.998568, 193, 223, 256, 238
-0.998569, 169, 247, 232, 262
-0.998569, 57, 311, 120, 326
-0.99857, 313, 187, 376, 202
-0.998572, 273, 223, 336, 238
-0.998572, 201, 245, 264, 260
-0.998573, 137, 195, 200, 210
-0.998574, 297, 263, 360, 278
-0.998575, 249, 219, 312, 234
-0.99858, 129, 291, 160, 306
-0.99858, 257, 269, 288, 284
-0.998582, 185, 285, 216, 300
-0.998582, 169, 281, 200, 296
-0.998583, 269, 213, 300, 228
-0.998585, 213, 217, 244, 232
-0.998586, 97, 247, 128, 262
-0.998587, 269, 219, 300, 234
-0.998591, 181, 177, 196, 304
-0.998591, 269, 235, 300, 250
-0.998592, 285, 215, 316, 230
-0.998596, 169, 295, 200, 310
-0.998597, 97, 293, 128, 308
-0.9986, 93, 265, 124, 280
-0.998601, 157, 257, 188, 272
-0.998602, 125, 209, 140, 333
-0.998603, 257, 1, 500, 128
-0.998604, 237, 175, 268, 190
-0.998618, 129, 121, 256, 152
-0.998618, 93, 301, 124, 316
-0.998618, 169, 209, 200, 224
-0.998621, 97, 287, 128, 302
-0.998633, 173, 287, 204, 302
-0.998634, 169, 217, 200, 232
-0.998636, 301, 181, 332, 196
-0.998637, 283, 193, 298, 320
-0.998645, 175, 129, 190, 256
-0.998648, 297, 129, 328, 144
-0.998657, 291, 193, 306, 320
-0.998673, 321, 173, 448, 204
-0.998707, 325, 193, 340, 320
-0.998714, 165, 161, 180, 288
-0.998719, 277, 209, 292, 333
-0.998721, 97, 97, 352, 160
-0.998729, 257, 113, 288, 240
-0.998736, 131, 209, 146, 333
-0.998739, 303, 145, 318, 272
-0.998741, 353, 189, 480, 220
-0.998745, 73, 129, 88, 256
-0.99875, 111, 209, 126, 333
-0.998758, 191, 129, 206, 256
-0.99878, 99, 113, 114, 240
-0.998789, 63, 113, 78, 240
-0.998797, 297, 129, 312, 256
-0.998801, 315, 129, 330, 256
-0.998804, 253, 193, 268, 320
-0.998817, 401, 1, 464, 333
-0.998827, 123, 129, 138, 256
-0.99883, 289, 205, 416, 236
-0.998839, 207, 113, 222, 240
-0.998844, 163, 209, 178, 333
-0.998861, 187, 177, 202, 304
-0.998878, 211, 209, 226, 333
-0.998902, 269, 65, 300, 320
-0.998909, 113, 113, 128, 240
-0.998917, 257, 65, 288, 320
-0.998918, 323, 145, 338, 272
-0.998927, 51, 113, 66, 240
-0.998931, 289, 117, 416, 148
-0.998932, 297, 177, 312, 304
-0.998935, 133, 129, 148, 256
-0.99895, 309, 145, 324, 272
-0.998983, 83, 129, 98, 256
-0.998991, 337, 129, 464, 192
-0.998997, 291, 129, 306, 256
-0.999, 89, 113, 104, 240
-0.999025, 157, 209, 172, 333
-0.999027, 105, 209, 120, 333
-0.999029, 143, 209, 158, 333
-0.999043, 205, 209, 220, 333
-0.999045, 215, 145, 230, 272
-0.999047, 143, 129, 158, 256
-0.999049, 109, 161, 124, 288
-0.999053, 197, 129, 212, 256
-0.999058, 57, 113, 72, 240
-0.999059, 305, 193, 320, 320
-0.999063, 115, 161, 130, 288
-0.999064, 159, 129, 174, 256
-0.99908, 107, 113, 122, 240
-0.999083, 195, 177, 210, 304
-0.999083, 247, 177, 262, 304
-0.999086, 169, 113, 184, 240
-0.999088, 269, 161, 284, 288
-0.999091, 41, 113, 56, 240
-0.999107, 353, 65, 416, 320
-0.99911, 259, 161, 274, 288
-0.999111, 315, 177, 330, 304
-0.999123, 1, 65, 32, 320
-0.999124, 453, 193, 468, 320
-0.999138, 153, 129, 168, 256
-0.99914, 237, 193, 252, 320
-0.999145, 137, 209, 152, 333
-0.999152, 333, 209, 348, 333
-0.999174, 231, 177, 246, 304
-0.99918, 149, 209, 164, 333
-0.999189, 35, 113, 50, 240
-0.999199, 309, 97, 324, 224
-0.9992, 303, 97, 318, 224
-0.99922, 483, 193, 498, 320
-0.999222, 91, 161, 106, 288
-0.999229, 99, 209, 114, 333
-0.999236, 357, 161, 372, 288
-0.99924, 305, 229, 432, 260
-0.999246, 223, 161, 238, 288
-0.99925, 333, 161, 348, 288
-0.999253, 351, 161, 366, 288
-0.999258, 339, 161, 354, 288
-0.99926, 217, 193, 232, 320
-0.999274, 285, 145, 300, 272
-0.999283, 27, 129, 42, 256
-0.999296, 275, 161, 290, 288
-0.999302, 97, 161, 112, 288
-0.999315, 15, 145, 30, 272
-0.999324, 225, 209, 240, 333
-0.999346, 363, 193, 378, 320
-0.999348, 69, 81, 84, 208
-0.999359, 241, 65, 272, 320
-0.999382, 191, 81, 206, 208
-0.999386, 203, 161, 218, 288
-0.999387, 9, 145, 24, 272
-0.999394, 333, 65, 364, 320
-0.999395, 233, 129, 248, 256
-0.999402, 459, 209, 474, 333
-0.999403, 447, 209, 462, 333
-0.999407, 349, 209, 364, 333
-0.999409, 467, 193, 482, 320
-0.999409, 79, 81, 94, 208
-0.999411, 245, 129, 260, 256
-0.999417, 477, 193, 492, 320
-0.999422, 339, 209, 354, 333
-0.999423, 21, 145, 36, 272
-0.999424, 321, 157, 448, 188
-0.999428, 221, 113, 236, 240
-0.999432, 345, 161, 360, 288
-0.999437, 179, 81, 194, 208
-0.999439, 123, 81, 138, 208
-0.99944, 1, 145, 16, 272
-0.99944, 345, 65, 376, 320
-0.99945, 253, 129, 268, 256
-0.999451, 65, 161, 80, 288
-0.999457, 159, 81, 174, 208
-0.999466, 321, 145, 448, 176
-0.999469, 21, 97, 36, 224
-0.999475, 3, 97, 18, 224
-0.999482, 131, 81, 146, 208
-0.999489, 137, 81, 152, 208
-0.999496, 15, 97, 30, 224
-0.9995, 185, 81, 200, 208
-0.9995, 239, 145, 254, 272
-0.999521, 355, 209, 370, 333
-0.999527, 85, 177, 100, 304
-0.999529, 151, 81, 166, 208
-0.999532, 57, 177, 88, 304
-0.999535, 145, 81, 160, 208
-0.999536, 201, 81, 216, 208
-0.99954, 103, 161, 118, 288
-0.999546, 345, 137, 408, 200
-0.999552, 213, 97, 228, 224
-0.999552, 209, 161, 224, 288
-0.999566, 107, 65, 122, 192
-0.999573, 45, 209, 60, 333
-0.999589, 57, 65, 72, 192
-0.999592, 9, 97, 24, 224
-0.999601, 33, 109, 160, 140
-0.999611, 21, 209, 36, 333
-0.999611, 31, 209, 46, 333
-0.999629, 173, 277, 188, 292
-0.999629, 227, 113, 242, 240
-0.999629, 99, 269, 114, 284
-0.999629, 49, 65, 64, 192
-0.99963, 37, 131, 52, 146
-0.999631, 171, 221, 186, 236
-0.999631, 191, 175, 206, 190
-0.999631, 227, 223, 242, 238
-0.999631, 295, 193, 310, 208
-0.999632, 191, 267, 206, 282
-0.999633, 203, 173, 218, 188
-0.999634, 43, 65, 58, 192
-0.999634, 25, 299, 40, 314
-0.999634, 179, 311, 194, 326
-0.999635, 287, 187, 302, 202
-0.999637, 131, 315, 146, 330
-0.999638, 279, 223, 294, 238
-0.999638, 113, 129, 128, 144
-0.999639, 171, 161, 186, 176
-0.99964, 187, 317, 202, 332
-0.99964, 143, 291, 158, 306
-0.99964, 73, 149, 88, 164
-0.999641, 273, 223, 288, 238
-0.999641, 171, 299, 186, 314
-0.999641, 95, 303, 110, 318
-0.999642, 101, 275, 116, 290
-0.999644, 295, 141, 310, 156
-0.999644, 121, 231, 136, 246
-0.999646, 311, 177, 326, 192
-0.999646, 119, 217, 134, 232
-0.999646, 177, 263, 192, 278
-0.999647, 313, 131, 328, 146
-0.999647, 277, 189, 292, 204
-0.999648, 133, 293, 148, 308
-0.999649, 123, 135, 138, 150
-0.999649, 189, 167, 204, 182
-0.999649, 111, 237, 126, 252
-0.99965, 191, 293, 206, 308
-0.999651, 161, 309, 176, 324
-0.999651, 171, 229, 186, 244
-0.999652, 207, 259, 222, 274
-0.999652, 287, 213, 302, 228
-0.999652, 97, 151, 112, 166
-0.999653, 101, 139, 116, 154
-0.999654, 303, 181, 318, 196
-0.999654, 301, 191, 316, 206
-0.999655, 155, 315, 170, 330
-0.999658, 5, 297, 20, 312
-0.999659, 83, 149, 98, 164
-0.999659, 201, 279, 216, 294
-0.999659, 297, 183, 312, 198
-0.999659, 171, 235, 186, 250
-0.999659, 157, 133, 172, 148
-0.99966, 147, 311, 162, 326
-0.999661, 261, 271, 276, 286
-0.999662, 237, 215, 252, 230
-0.999662, 315, 141, 330, 156
-0.999663, 277, 207, 292, 222
-0.999664, 197, 267, 212, 282
-0.999665, 293, 211, 308, 226
-0.999665, 101, 317, 116, 332
-0.999665, 103, 129, 118, 144
-0.999667, 267, 267, 282, 282
-0.999667, 165, 285, 180, 300
-0.999667, 181, 317, 196, 332
-0.999668, 125, 215, 140, 230
-0.99967, 177, 283, 192, 298
-0.99967, 181, 211, 196, 226
-0.999672, 191, 283, 206, 298
-0.999672, 265, 211, 280, 226
-0.999673, 183, 165, 198, 180
-0.999673, 155, 265, 170, 280
-0.999673, 199, 285, 214, 300
-0.999674, 271, 211, 286, 226
-0.999677, 39, 293, 54, 308
-0.999677, 151, 133, 166, 148
-0.999677, 299, 129, 314, 144
-0.999679, 95, 135, 110, 150
-0.999679, 185, 293, 200, 308
-0.999679, 77, 143, 92, 158
-0.99968, 91, 129, 106, 144
-0.999681, 301, 201, 316, 216
-0.999681, 91, 317, 106, 332
-0.999682, 233, 177, 248, 192
-0.999684, 229, 217, 244, 232
-0.999684, 19, 301, 34, 316
-0.999685, 307, 127, 322, 142
-0.999685, 205, 135, 220, 150
-0.999686, 171, 293, 186, 308
-0.999688, 173, 205, 188, 220
-0.99969, 107, 245, 122, 260
-0.999691, 187, 219, 202, 234
-0.999691, 99, 145, 114, 160
-0.999692, 89, 143, 104, 158
-0.999695, 247, 191, 262, 206
-0.999695, 291, 205, 306, 220
-0.999696, 113, 157, 128, 172
-0.9997, 249, 173, 264, 188
-0.999701, 121, 309, 136, 324
-0.999702, 83, 143, 98, 158
-0.999704, 275, 233, 290, 248
-0.999705, 123, 157, 138, 172
-0.999707, 121, 239, 136, 254
-0.999707, 261, 277, 276, 292
-0.999708, 195, 317, 210, 332
-0.999708, 281, 213, 296, 228
-0.999709, 117, 135, 132, 150
-0.999709, 119, 223, 134, 238
-0.999711, 245, 181, 260, 196
-0.999715, 115, 167, 130, 182
-0.999715, 181, 195, 196, 210
-0.999717, 181, 301, 196, 316
-0.999719, 89, 311, 104, 326
-0.999721, 275, 217, 290, 232
-0.999723, 109, 135, 124, 150
-0.999723, 177, 231, 192, 246
-0.999726, 299, 135, 314, 150
-0.999728, 81, 317, 96, 332
-0.999729, 175, 199, 190, 214
-0.999733, 181, 219, 196, 234
-0.999736, 113, 243, 128, 258
-0.999739, 285, 219, 300, 234
-0.999747, 195, 169, 210, 184
-0.999748, 163, 255, 178, 270
-0.99975, 131, 155, 146, 170
-0.999752, 217, 213, 232, 228
-0.999757, 99, 297, 114, 312
-0.999763, 101, 247, 116, 262
-0.999764, 239, 175, 254, 190
-0.999779, 99, 263, 114, 278
-0.999787, 175, 215, 190, 230
-0.999792, 97, 255, 112, 270
-0.999813, 177, 225, 192, 240
-0.999821, 289, 89, 416, 152
-0.999853, 357, 65, 388, 320
-0.999925, 9, 89, 72, 152
-0.999927, 453, 145, 484, 272
-0.999932, 369, 273, 432, 333
-0.999986, 469, 65, 500, 320
-1.00001, 349, 113, 380, 240
-1.00002, 377, 1, 440, 333
-1.00007, 457, 65, 488, 320
-1.00016, 81, 113, 208, 144
-1.00024, 429, 65, 460, 320
-1.00032, 285, 65, 316, 192
-1.00033, 209, 109, 336, 140
-1.0004, 369, 169, 496, 200
-1.00057, 445, 65, 476, 320
-1.00061, 321, 133, 448, 164
-1.00062, 129, 109, 256, 140
-1.00064, 369, 57, 496, 88
-1.00064, 369, 81, 496, 112
-1.00065, 369, 29, 496, 60
-1.00066, 369, 5, 496, 36
-1.00067, 257, 41, 500, 104
-1.00067, 257, 73, 500, 136
-1.00068, 369, 141, 496, 172
-1.00069, 369, 129, 496, 160
-1.00069, 273, 105, 400, 136
-1.00069, 193, 97, 448, 160
-1.00071, 369, 17, 496, 48
-1.00071, 369, 109, 496, 140
-1.00071, 369, 97, 496, 128
-1.00073, 257, 17, 500, 80
-1.00073, 1, 89, 256, 152
-1.00074, 369, 33, 400, 288
-1.00075, 369, 41, 496, 72
-1.00077, 369, 69, 496, 100
-1.00083, 337, 113, 368, 240
-1.00085, 409, 65, 472, 320
-1.00086, 113, 97, 240, 128
-1.00087, 321, 29, 448, 60
-1.00087, 369, 157, 496, 188
-1.00088, 321, 69, 448, 100
-1.0009, 209, 97, 336, 128
-1.00093, 321, 53, 448, 84
-1.00093, 429, 161, 460, 288
-1.00094, 1, 97, 128, 128
-1.00095, 321, 17, 448, 48
-1.00096, 321, 41, 448, 72
-1.00097, 321, 97, 448, 128
-1.001, 273, 73, 400, 104
-1.001, 161, 97, 288, 128
-1.00102, 405, 65, 436, 320
-1.00103, 241, 1, 368, 32
-1.00103, 289, 5, 416, 36
-1.00103, 273, 57, 400, 88
-1.00103, 225, 61, 352, 92
-1.00103, 209, 77, 336, 108
-1.00103, 129, 85, 256, 116
-1.00103, 33, 33, 288, 160
-1.00103, 193, 9, 320, 40
-1.00103, 225, 21, 352, 52
-1.00103, 273, 21, 400, 52
-1.00103, 177, 65, 304, 96
-1.00103, 257, 93, 384, 124
-1.00106, 49, 89, 176, 120
-1.00108, 369, 65, 496, 128
-1.00115, 385, 65, 416, 320
-1.00117, 365, 145, 396, 272
-1.00119, 161, 73, 416, 136
-1.00125, 1, 89, 500, 152
-1.00127, 161, 33, 416, 96
-1.00127, 145, 89, 272, 152
-1.0013, 361, 169, 424, 232
-1.00133, 421, 209, 452, 333
-1.00133, 369, 1, 496, 64
-1.00136, 369, 33, 496, 96
-1.00139, 417, 65, 448, 320
-1.00139, 161, 9, 416, 72
-1.00143, 369, 105, 496, 168
-1.00172, 65, 33, 320, 96
-1.00177, 377, 193, 440, 320
-1.0018, 65, 57, 320, 120
-1.0018, 65, 9, 320, 72
-1.00182, 209, 81, 336, 144
-1.00185, 1, 1, 500, 64
-1.00191, 1, 49, 500, 112
-1.00192, 1, 25, 500, 88
-1.00193, 321, 1, 448, 64
-1.00202, 217, 65, 248, 192
-1.00206, 405, 209, 436, 333
-1.00208, 145, 89, 208, 152
-1.00221, 209, 49, 336, 176
-1.00229, 17, 73, 144, 136
-1.00236, 321, 33, 448, 96
-1.00244, 113, 65, 240, 128
-1.00259, 257, 65, 384, 128
-1.00262, 209, 1, 336, 64
-1.00266, 321, 57, 448, 120
-1.00266, 161, 65, 288, 128
-1.00276, 225, 25, 352, 88
-1.00276, 273, 25, 400, 88
-1.00279, 257, 1, 384, 64
-1.00291, 17, 1, 144, 64
-1.00291, 65, 1, 192, 64
-1.00291, 113, 1, 240, 64
-1.00291, 161, 17, 288, 80
-1.00291, 33, 25, 160, 88
-1.00291, 81, 25, 208, 88
-1.00291, 129, 41, 256, 104
-1.00291, 177, 41, 304, 104
-1.00291, 1, 49, 128, 112
-1.00291, 49, 49, 176, 112
-1.0031, 273, 97, 336, 160
-1.00318, 225, 121, 288, 184
-1.00336, 385, 161, 416, 288
-1.00366, 17, 49, 48, 176
-1.00381, 121, 89, 184, 152
-1.00385, 441, 145, 472, 272
-1.00394, 201, 49, 264, 176
-1.00396, 377, 209, 408, 333
-1.00424, 161, 1, 416, 128
-1.00428, 397, 161, 428, 288
-1.00459, 249, 49, 312, 176
-1.00472, 385, 65, 448, 320
-1.00477, 377, 145, 440, 272
-1.00486, 433, 153, 496, 216
-1.00487, 305, 49, 368, 176
-1.00501, 273, 65, 304, 192
-1.00501, 361, 97, 392, 224
-1.00517, 337, 81, 400, 208
-1.00518, 377, 201, 440, 264
-1.00533, 413, 161, 444, 288
-1.00559, 257, 65, 384, 192
-1.00564, 1, 49, 32, 176
-1.00565, 369, 1, 496, 128
-1.00577, 409, 161, 472, 224
-1.0058, 297, 33, 328, 160
-1.00603, 177, 89, 240, 152
-1.00606, 1, 33, 128, 160
-1.0061, 97, 33, 128, 160
-1.00621, 49, 81, 112, 144
-1.00622, 393, 209, 424, 333
-1.00647, 49, 33, 176, 160
-1.00651, 61, 33, 92, 160
-1.0066, 201, 89, 264, 152
-1.00663, 321, 1, 448, 128
-1.00675, 369, 49, 496, 176
-1.00704, 205, 33, 236, 160
-1.00706, 289, 73, 352, 136
-1.00713, 409, 113, 472, 240
-1.00718, 429, 113, 460, 240
-1.00718, 385, 113, 416, 240
-1.00729, 85, 33, 116, 160
-1.00733, 313, 33, 344, 160
-1.00739, 405, 113, 436, 240
-1.00765, 333, 65, 364, 192
-1.00784, 417, 113, 448, 240
-1.00791, 349, 65, 380, 192
-1.00792, 273, 17, 400, 144
-1.00795, 169, 65, 232, 128
-1.00798, 125, 33, 156, 160
-1.00799, 385, 161, 448, 224
-1.00806, 373, 97, 404, 224
-1.00836, 393, 137, 456, 200
-1.0085, 225, 97, 288, 160
-1.0086, 241, 49, 272, 176
-1.00864, 425, 97, 488, 160
-1.00868, 153, 33, 184, 160
-1.00868, 145, 33, 272, 160
-1.00873, 345, 113, 408, 176
-1.00873, 425, 73, 488, 136
-1.00878, 385, 57, 448, 120
-1.00878, 401, 81, 464, 144
-1.00878, 417, 129, 480, 192
-1.00886, 253, 49, 284, 176
-1.00887, 129, 65, 192, 128
-1.0089, 425, 49, 488, 112
-1.00894, 393, 105, 456, 168
-1.00899, 377, 33, 440, 96
-1.009, 229, 49, 260, 176
-1.00901, 209, 65, 272, 128
-1.00903, 417, 17, 480, 80
-1.0092, 369, 105, 432, 168
-1.00924, 385, 9, 448, 72
-1.00924, 41, 57, 104, 120
-1.00924, 65, 57, 128, 120
-1.00924, 233, 73, 296, 136
-1.00924, 337, 89, 400, 152
-1.00925, 281, 17, 312, 144
-1.00927, 469, 97, 500, 224
-1.00929, 345, 65, 408, 128
-1.00929, 369, 81, 432, 144
-1.00932, 177, 33, 208, 160
-1.00939, 469, 1, 500, 128
-1.0095, 397, 33, 428, 160
-1.00952, 449, 97, 480, 224
-1.00953, 357, 17, 388, 144
-1.01031, 209, 1, 336, 128
-1.01097, 169, 33, 232, 160
-1.01188, 89, 33, 152, 160
-1.01189, 433, 97, 496, 224
-1.01311, 145, 33, 208, 160
-1.01326, 281, 33, 344, 160
-1.01341, 377, 97, 440, 224
-1.01356, 25, 17, 88, 144
-1.01406, 409, 1, 472, 128
-1.01419, 409, 65, 472, 192
-1.01435, 369, 17, 432, 144
-1.01442, 433, 1, 496, 128
-1.01448, 201, 1, 264, 128
-1.01458, 329, 17, 392, 144
-1.0147, 97, 17, 224, 144
-1.01494, 225, 1, 288, 128
-1.01588, 433, 49, 496, 176
-1.01613, 113, 1, 176, 128
-1.01684, 225, 49, 288, 176
-1.01691, 305, 1, 368, 128
-1.01763, 249, 1, 312, 128
-1.01776, 1, 1, 64, 128
-1.01935, 57, 1, 120, 128
