1964
-0.429824, 1, 257, 375, 500
-0.45198, 1, 1, 375, 500
-0.487658, 1, 1, 375, 256
-0.521923, 1, 161, 375, 416
-0.561648, 1, 1, 256, 500
-0.567976, 97, 1, 352, 500
-0.684848, 129, 1, 375, 256
-0.686161, 65, 161, 320, 416
-0.704801, 97, 257, 352, 500
-0.780974, 1, 65, 256, 320
-0.78509, 1, 257, 256, 500
-0.868782, 113, 1, 240, 500
-0.869357, 113, 129, 240, 384
-0.871056, 177, 1, 304, 500
-0.874461, 225, 257, 352, 500
-0.884873, 1, 289, 375, 416
-0.886225, 33, 1, 160, 500
-0.890137, 225, 1, 352, 500
-0.896644, 113, 225, 240, 480
-0.896997, 161, 1, 288, 256
-0.897804, 33, 225, 160, 480
-0.898784, 161, 193, 288, 448
-0.904981, 65, 1, 192, 256
-0.907399, 33, 129, 160, 384
-0.907632, 113, 1, 240, 256
-0.909384, 209, 161, 336, 416
-0.91076, 209, 1, 336, 256
-0.911744, 161, 97, 288, 352
-0.912805, 1, 1, 375, 128
-0.916421, 65, 289, 320, 416
-0.918224, 1, 337, 375, 464
-0.920164, 1, 241, 375, 368
-0.927354, 17, 1, 144, 256
-0.930999, 1, 97, 375, 224
-0.931187, 65, 241, 320, 368
-0.933232, 1, 145, 375, 272
-0.935293, 153, 97, 216, 224
-0.935493, 65, 1, 320, 128
-0.937641, 65, 193, 320, 320
-0.93932, 49, 321, 176, 448
-0.939511, 241, 273, 304, 400
-0.941994, 129, 289, 256, 416
-0.942011, 129, 113, 375, 240
-0.94332, 73, 321, 136, 448
-0.94335, 1, 305, 128, 432
-0.943516, 225, 273, 352, 400
-0.944448, 97, 337, 352, 464
-0.945255, 49, 241, 176, 368
-0.945863, 129, 145, 192, 272
-0.947564, 33, 81, 288, 208
-0.948658, 9, 321, 72, 448
-0.949317, 1, 49, 375, 176
-0.949683, 1, 193, 375, 320
-0.950182, 241, 313, 304, 376
-0.950729, 89, 257, 152, 384
-0.9511, 193, 241, 256, 368
-0.951356, 129, 161, 256, 288
-0.951766, 1, 145, 256, 272
-0.952604, 209, 321, 336, 448
-0.95274, 113, 113, 240, 240
-0.954263, 177, 145, 240, 272
-0.954795, 113, 289, 176, 416
-0.955304, 49, 289, 112, 416
-0.955582, 129, 49, 375, 176
-0.957573, 201, 289, 264, 416
-0.957849, 25, 369, 88, 496
-0.958166, 161, 97, 288, 224
-0.958194, 265, 321, 328, 448
-0.958243, 97, 337, 160, 464
-0.958259, 241, 337, 304, 464
-0.958703, 129, 209, 192, 336
-0.958707, 153, 209, 216, 336
-0.95885, 241, 289, 304, 352
-0.960085, 81, 1, 208, 128
-0.960366, 233, 225, 296, 352
-0.960781, 65, 1, 128, 128
-0.960819, 97, 209, 224, 336
-0.960831, 17, 369, 144, 496
-0.961588, 49, 369, 112, 496
-0.962412, 273, 273, 336, 400
-0.962679, 145, 241, 272, 368
-0.963002, 105, 297, 168, 360
-0.963305, 137, 289, 200, 416
-0.963359, 41, 297, 104, 360
-0.9636, 73, 329, 136, 392
-0.963927, 137, 161, 200, 224
-0.96401, 153, 145, 216, 272
-0.965241, 33, 177, 160, 304
-0.965377, 153, 105, 216, 168
-0.965743, 209, 225, 336, 352
-0.966283, 73, 305, 136, 368
-0.966303, 1, 257, 128, 384
-0.966611, 65, 129, 192, 256
-0.966861, 153, 129, 216, 192
-0.966942, 33, 241, 96, 368
-0.967094, 73, 369, 136, 496
-0.967637, 201, 257, 264, 320
-0.967828, 209, 1, 336, 128
-0.968031, 137, 1, 200, 128
-0.968113, 105, 193, 168, 320
-0.968138, 97, 65, 224, 192
-0.968173, 137, 305, 200, 368
-0.96833, 161, 1, 288, 128
-0.968377, 265, 329, 328, 392
-0.968452, 65, 369, 192, 496
-0.968526, 129, 97, 192, 224
-0.968533, 305, 289, 368, 416
-0.968599, 137, 193, 200, 256
-0.969189, 201, 289, 264, 352
-0.969193, 177, 161, 304, 288
-0.969502, 233, 345, 296, 408
-0.969671, 209, 177, 272, 304
-0.969703, 113, 177, 176, 240
-0.969756, 1, 369, 256, 496
-0.969806, 65, 241, 128, 368
-0.96981, 105, 409, 168, 472
-0.970078, 1, 1, 128, 128
-0.970082, 209, 369, 336, 496
-0.970299, 233, 257, 296, 320
-0.970302, 129, 273, 192, 336
-0.970909, 161, 185, 224, 248
-0.970964, 177, 193, 240, 320
-0.971088, 217, 233, 280, 296
-0.971217, 57, 433, 120, 496
-0.971228, 169, 129, 232, 384
-0.971404, 117, 369, 148, 496
-0.97169, 161, 97, 192, 224
-0.971719, 169, 289, 232, 352
-0.972102, 33, 385, 96, 448
-0.972104, 17, 313, 144, 376
-0.972135, 121, 433, 184, 496
-0.972178, 177, 257, 240, 320
-0.972544, 153, 265, 216, 328
-0.972629, 225, 1, 288, 128
-0.972648, 121, 369, 184, 496
-0.97267, 113, 313, 144, 376
-0.972692, 9, 273, 72, 400
-0.972841, 41, 321, 104, 384
-0.972867, 297, 337, 360, 464
-0.973068, 81, 281, 144, 344
-0.97343, 49, 81, 176, 208
-0.973505, 225, 113, 352, 240
-0.973586, 97, 321, 160, 384
-0.973602, 185, 97, 248, 224
-0.973845, 57, 377, 120, 440
-0.97419, 137, 161, 200, 416
-0.974259, 117, 289, 148, 416
-0.974287, 9, 337, 72, 400
-0.974572, 257, 273, 288, 336
-0.97467, 281, 289, 344, 352
-0.974826, 161, 257, 224, 384
-0.974886, 145, 49, 272, 176
-0.974944, 101, 321, 132, 448
-0.97526, 169, 17, 232, 144
-0.975275, 73, 1, 136, 64
-0.975303, 225, 313, 352, 376
-0.975379, 305, 305, 368, 368
-0.975414, 57, 361, 88, 424
-0.975422, 193, 161, 256, 224
-0.975424, 161, 153, 224, 216
-0.975515, 89, 1, 152, 128
-0.975518, 137, 81, 200, 144
-0.975768, 193, 233, 256, 296
-0.975861, 241, 225, 304, 480
-0.975954, 81, 433, 144, 496
-0.975982, 121, 281, 152, 344
-0.976047, 229, 241, 260, 368
-0.976148, 97, 385, 160, 448
-0.976196, 245, 273, 276, 400
-0.976407, 145, 1, 208, 256
-0.976436, 1, 297, 64, 360
-0.976522, 161, 105, 192, 168
-0.976747, 225, 289, 352, 352
-0.976841, 49, 289, 176, 352
-0.977211, 25, 193, 88, 320
-0.977349, 245, 313, 276, 376
-0.977375, 209, 225, 240, 352
-0.977542, 137, 49, 200, 176
-0.977601, 145, 297, 272, 360
-0.977611, 281, 417, 344, 480
-0.977657, 289, 337, 352, 400
-0.977693, 1, 369, 64, 496
-0.977732, 97, 345, 160, 408
-0.977967, 209, 329, 272, 392
-0.977975, 9, 377, 72, 440
-0.978004, 185, 97, 248, 160
-0.97805, 77, 321, 108, 448
-0.97827, 257, 353, 320, 416
-0.978275, 33, 425, 96, 488
-0.978532, 241, 433, 304, 496
-0.978552, 209, 97, 272, 224
-0.978984, 277, 289, 308, 416
-0.979059, 209, 49, 336, 176
-0.979092, 121, 217, 184, 280
-0.979153, 129, 401, 192, 464
-0.979212, 145, 353, 272, 480
-0.979379, 129, 153, 256, 216
-0.979475, 193, 225, 256, 480
-0.979618, 129, 337, 160, 464
-0.979749, 233, 113, 296, 240
-0.979958, 65, 425, 192, 488
-0.979972, 113, 153, 176, 216
-0.979982, 105, 265, 168, 328
-0.980051, 209, 345, 336, 408
-0.980143, 121, 121, 184, 184
-0.980155, 121, 401, 152, 464
-0.98018, 97, 297, 224, 360
-0.98025, 105, 193, 168, 448
-0.980285, 141, 129, 172, 256
-0.980298, 165, 193, 196, 256
-0.980353, 313, 329, 375, 392
-0.980382, 145, 145, 176, 208
-0.980416, 41, 1, 104, 64
-0.980534, 245, 345, 276, 408
-0.980784, 97, 1, 160, 64
-0.980921, 245, 289, 276, 352
-0.980925, 133, 401, 164, 464
-0.981028, 225, 433, 352, 496
-0.981068, 145, 185, 272, 248
-0.981181, 113, 49, 176, 176
-0.981198, 1, 385, 128, 448
-0.981201, 193, 1, 256, 64
-0.981218, 57, 409, 120, 472
-0.981344, 257, 273, 288, 400
-0.981477, 65, 193, 128, 320
-0.981497, 261, 313, 292, 376
-0.981508, 81, 1, 208, 64
-0.981553, 233, 209, 296, 272
-0.98156, 25, 225, 88, 480
-0.981655, 225, 289, 256, 352
-0.981721, 57, 337, 88, 464
-0.981775, 89, 297, 120, 360
-0.981788, 25, 217, 88, 280
-0.981789, 141, 169, 172, 232
-0.981816, 145, 113, 272, 176
-0.981855, 65, 401, 192, 464
-0.98189, 233, 289, 264, 416
-0.981934, 273, 369, 336, 496
-0.98202, 121, 241, 152, 368
-0.982076, 33, 321, 64, 448
-0.982131, 169, 233, 232, 296
-0.982199, 177, 113, 208, 240
-0.982212, 37, 329, 68, 392
-0.982227, 305, 417, 368, 480
-0.982262, 141, 297, 172, 360
-0.982275, 129, 249, 192, 312
-0.982343, 105, 97, 168, 224
-0.982372, 277, 313, 308, 376
-0.982486, 97, 257, 128, 384
-0.982523, 193, 121, 256, 184
-0.982545, 97, 201, 160, 264
-0.982731, 161, 81, 224, 144
-0.982809, 325, 273, 356, 400
-0.982817, 161, 209, 192, 336
-0.982838, 153, 1, 216, 500
-0.983027, 9, 433, 72, 496
-0.983061, 113, 1, 176, 128
-0.983131, 217, 337, 280, 464
-0.983166, 313, 33, 375, 160
-0.983195, 273, 257, 336, 500
-0.983228, 193, 209, 256, 272
-0.983233, 169, 1, 232, 256
-0.983392, 281, 17, 344, 144
-0.983398, 33, 361, 96, 424
-0.983458, 161, 145, 192, 272
-0.983485, 101, 321, 132, 384
-0.983508, 305, 41, 368, 104
-0.9836, 281, 33, 344, 96
-0.983702, 65, 161, 192, 224
-0.983806, 145, 89, 272, 152
-0.983951, 145, 273, 272, 336
-0.984034, 177, 1, 240, 500
-0.984044, 113, 81, 176, 144
-0.984073, 133, 209, 164, 336
-0.984086, 241, 17, 304, 80
-0.984107, 161, 281, 192, 344
-0.984112, 137, 289, 168, 416
-0.984131, 193, 129, 256, 384
-0.984154, 209, 129, 336, 192
-0.984198, 9, 337, 40, 400
-0.984219, 17, 337, 144, 400
-0.984316, 257, 49, 320, 176
-0.984338, 129, 321, 256, 384
-0.984351, 177, 273, 208, 336
-0.984421, 137, 257, 200, 500
-0.984466, 1, 289, 128, 352
-0.9845, 217, 9, 280, 72
-0.984544, 29, 241, 60, 368
-0.984569, 229, 329, 260, 392
-0.98457, 89, 1, 120, 128
-0.98458, 217, 225, 280, 480
-0.984587, 129, 209, 256, 272
-0.984601, 85, 241, 116, 368
-0.984608, 249, 1, 312, 128
-0.984622, 213, 257, 244, 320
-0.98466, 269, 289, 300, 352
-0.984666, 33, 273, 96, 336
-0.984694, 201, 1, 264, 128
-0.98471, 89, 145, 152, 272
-0.98478, 257, 409, 320, 472
-0.984808, 149, 81, 180, 208
-0.984866, 89, 169, 152, 232
-0.98492, 25, 145, 88, 272
-0.984964, 297, 257, 360, 500
-0.985011, 101, 289, 132, 352
-0.985028, 1, 225, 64, 352
-0.985067, 81, 409, 144, 472
-0.985068, 129, 1, 192, 500
-0.985241, 217, 113, 280, 176
-0.985285, 113, 249, 240, 312
-0.98529, 177, 185, 208, 248
-0.985291, 157, 1, 188, 128
-0.985292, 49, 385, 80, 448
-0.985354, 325, 305, 356, 368
-0.985374, 65, 1, 128, 256
-0.98545, 161, 1, 288, 64
-0.985451, 97, 225, 160, 288
-0.985492, 69, 369, 100, 496
-0.985582, 169, 81, 200, 144
-0.985597, 17, 249, 80, 312
-0.985675, 157, 129, 188, 192
-0.985689, 273, 337, 304, 400
-0.985719, 17, 409, 144, 472
-0.985819, 241, 337, 272, 464
-0.985822, 65, 217, 192, 280
-0.985865, 125, 257, 156, 320
-0.985878, 157, 169, 188, 232
-0.985935, 1, 1, 64, 128
-0.985945, 113, 177, 144, 304
-0.985948, 277, 337, 308, 464
-0.986014, 9, 321, 40, 448
-0.986048, 73, 249, 136, 312
-0.98606, 153, 201, 184, 264
-0.986076, 17, 433, 144, 496
-0.986145, 201, 1, 264, 500
-0.986148, 161, 241, 288, 304
-0.986191, 57, 297, 88, 360
-0.986204, 193, 145, 224, 272
-0.986251, 257, 265, 320, 328
-0.986264, 145, 89, 176, 152
-0.98627, 121, 65, 184, 320
-0.98629, 221, 289, 252, 416
-0.986318, 233, 369, 296, 432
-0.986339, 297, 137, 360, 200
-0.986416, 97, 1, 128, 64
-0.98642, 141, 369, 172, 496
-0.986479, 61, 289, 92, 416
-0.986504, 65, 81, 192, 144
-0.986516, 97, 113, 224, 176
-0.986539, 97, 369, 128, 496
-0.986553, 65, 425, 96, 488
-0.986584, 25, 297, 56, 360
-0.986616, 193, 185, 256, 248
-0.986659, 49, 369, 176, 432
-0.986689, 77, 329, 108, 392
-0.98672, 257, 353, 288, 480
-0.986737, 209, 265, 336, 328
-0.986755, 173, 65, 204, 192
-0.986757, 169, 1, 232, 64
-0.986782, 65, 185, 192, 248
-0.986785, 33, 265, 160, 328
-0.986794, 89, 321, 120, 448
-0.986871, 69, 297, 100, 360
-0.986886, 145, 1, 208, 64
-0.986891, 225, 233, 256, 296
-0.986913, 97, 273, 224, 336
-0.986951, 25, 193, 88, 256
-0.986966, 1, 225, 64, 480
-0.987033, 77, 1, 108, 128
-0.987086, 189, 265, 220, 328
-0.987144, 65, 257, 128, 500
-0.987145, 225, 1, 288, 500
-0.987159, 161, 225, 224, 480
-0.987174, 289, 353, 320, 480
-0.987188, 1, 49, 128, 176
-0.987192, 273, 129, 336, 192
-0.987257, 141, 433, 172, 496
-0.987269, 69, 369, 100, 432
-0.987295, 285, 417, 316, 480
-0.987298, 173, 161, 204, 288
-0.987322, 193, 105, 320, 168
-0.98738, 217, 1, 280, 256
-0.987387, 145, 433, 272, 496
-0.987454, 173, 209, 204, 336
-0.987465, 193, 1, 256, 256
-0.987483, 149, 193, 180, 320
-0.987517, 177, 321, 304, 384
-0.987595, 249, 1, 312, 500
-0.987658, 217, 185, 280, 248
-0.987661, 301, 337, 332, 400
-0.987695, 49, 289, 80, 416
-0.98771, 33, 1, 96, 128
-0.987741, 257, 113, 320, 240
-0.987742, 249, 121, 312, 184
-0.987757, 121, 337, 184, 400
-0.98785, 129, 377, 160, 440
-0.987853, 173, 105, 204, 168
-0.987853, 241, 225, 272, 352
-0.987892, 21, 289, 52, 416
-0.987896, 193, 153, 224, 216
-0.987939, 145, 121, 176, 184
-0.987977, 97, 393, 128, 456
-0.988006, 209, 161, 240, 224
-0.988018, 65, 329, 192, 392
-0.988048, 25, 129, 88, 384
-0.988073, 37, 385, 68, 448
-0.988089, 117, 201, 148, 264
-0.988165, 241, 233, 304, 296
-0.988235, 17, 1, 80, 64
-0.988248, 257, 225, 288, 352
-0.988271, 325, 281, 356, 344
-0.988295, 233, 129, 296, 384
-0.988334, 125, 337, 156, 400
-0.988338, 325, 329, 356, 392
-0.988346, 49, 25, 112, 88
-0.988396, 81, 433, 112, 496
-0.98844, 57, 353, 120, 416
-0.988475, 257, 209, 320, 336
-0.988515, 161, 209, 224, 272
-0.988538, 209, 409, 336, 472
-0.988539, 289, 337, 320, 400
-0.988569, 73, 49, 136, 176
-0.988584, 201, 217, 232, 280
-0.988629, 281, 393, 344, 456
-0.988632, 233, 409, 296, 472
-0.988639, 137, 377, 200, 440
-0.988662, 281, 225, 344, 352
-0.988666, 257, 353, 288, 416
-0.988667, 49, 241, 176, 304
-0.988684, 173, 297, 204, 360
-0.988734, 1, 1, 128, 64
-0.988739, 177, 161, 304, 224
-0.988772, 113, 401, 240, 464
-0.988794, 197, 209, 228, 336
-0.9888, 113, 433, 144, 496
-0.988803, 25, 169, 88, 232
-0.988854, 121, 457, 184, 488
-0.988911, 233, 257, 264, 320
-0.988926, 29, 193, 60, 320
-0.988939, 61, 241, 92, 368
-0.988963, 233, 161, 296, 288
-0.988972, 309, 417, 340, 480
-0.988978, 145, 241, 176, 368
-0.989015, 241, 317, 304, 348
-0.989032, 297, 361, 360, 424
-0.989059, 189, 177, 220, 240
-0.989105, 81, 137, 208, 200
-0.989114, 193, 97, 224, 224
-0.989139, 229, 193, 260, 320
-0.989231, 165, 289, 196, 416
-0.989233, 125, 305, 156, 368
-0.989307, 73, 217, 136, 280
-0.989311, 169, 17, 200, 144
-0.989328, 49, 241, 112, 304
-0.989335, 185, 241, 216, 368
-0.989341, 181, 81, 212, 144
-0.989389, 225, 17, 352, 80
-0.989439, 81, 305, 144, 336
-0.989475, 101, 417, 132, 480
-0.989496, 137, 205, 200, 236
-0.989499, 305, 337, 336, 464
-0.989533, 49, 433, 80, 496
-0.989556, 229, 169, 260, 232
-0.989562, 105, 405, 168, 436
-0.989571, 81, 385, 112, 448
-0.989584, 89, 449, 152, 480
-0.989585, 137, 193, 168, 256
-0.989598, 1, 233, 128, 296
-0.989627, 205, 145, 236, 272
-0.989631, 213, 233, 244, 296
-0.989643, 65, 333, 128, 364
-0.9897, 81, 409, 144, 440
-0.989709, 289, 65, 352, 192
-0.989749, 121, 1, 184, 64
-0.989775, 245, 249, 276, 312
-0.989779, 225, 209, 256, 272
-0.989782, 145, 393, 176, 456
-0.989808, 161, 345, 288, 408
-0.989809, 89, 329, 120, 392
-0.989831, 241, 161, 368, 288
-0.989839, 49, 161, 112, 416
-0.989856, 241, 345, 304, 376
-0.989923, 133, 217, 164, 280
-0.989954, 109, 361, 140, 424
-0.989984, 1, 169, 128, 232
-0.989998, 1, 129, 128, 256
-0.99002, 25, 337, 56, 400
-0.990029, 197, 273, 228, 400
-0.990037, 41, 321, 104, 352
-0.990046, 213, 1, 244, 64
-0.990065, 49, 381, 112, 412
-0.990089, 73, 241, 104, 368
-0.990102, 209, 353, 272, 416
-0.990145, 21, 361, 52, 424
-0.990152, 201, 301, 264, 332
-0.990188, 141, 273, 172, 336
-0.990203, 129, 305, 375, 368
-0.990203, 1, 401, 64, 464
-0.990215, 49, 321, 80, 384
-0.990225, 57, 177, 120, 240
-0.990235, 193, 249, 256, 280
-0.990239, 41, 1, 104, 500
-0.990245, 201, 273, 232, 336
-0.990249, 313, 385, 375, 448
-0.990281, 241, 305, 304, 336
-0.990303, 193, 217, 320, 280
-0.990337, 117, 161, 148, 224
-0.990381, 137, 113, 200, 144
-0.990383, 97, 325, 160, 356
-0.990391, 249, 361, 312, 392
-0.990404, 153, 133, 216, 164
-0.990407, 17, 385, 80, 416
-0.990445, 217, 161, 248, 288
-0.990495, 253, 1, 284, 128
-0.990496, 281, 1, 344, 500
-0.990497, 33, 57, 160, 120
-0.990501, 313, 337, 344, 400
-0.990522, 161, 149, 224, 180
-0.990556, 109, 241, 140, 368
-0.990571, 241, 329, 304, 360
-0.990572, 241, 289, 304, 320
-0.990604, 65, 461, 128, 492
-0.990614, 105, 297, 168, 328
-0.99063, 73, 65, 136, 128
-0.990635, 209, 49, 272, 176
-0.990667, 209, 121, 240, 184
-0.990676, 137, 193, 200, 224
-0.990679, 41, 305, 104, 336
-0.99069, 33, 397, 96, 428
-0.990712, 65, 393, 96, 456
-0.990737, 169, 161, 200, 224
-0.990762, 341, 321, 372, 384
-0.990775, 305, 281, 368, 344
-0.990789, 113, 445, 176, 476
-0.990807, 281, 161, 344, 416
-0.990821, 17, 209, 144, 272
-0.99083, 81, 369, 112, 496
-0.990835, 217, 241, 280, 272
-0.990864, 137, 305, 200, 336
-0.990896, 41, 293, 104, 324
-0.990903, 73, 1, 104, 64
-0.990907, 57, 397, 120, 428
-0.990911, 241, 177, 272, 304
-0.990932, 265, 349, 328, 380
-0.99094, 289, 313, 320, 376
-0.990947, 45, 297, 76, 360
-0.99097, 113, 417, 176, 448
-0.990992, 41, 65, 104, 192
-0.991015, 49, 449, 112, 480
-0.991035, 153, 425, 216, 488
-0.991059, 33, 469, 96, 500
-0.991062, 281, 289, 312, 352
-0.991069, 305, 313, 336, 376
-0.991078, 89, 461, 152, 492
-0.9911, 73, 317, 136, 348
-0.991115, 325, 321, 356, 448
-0.991158, 241, 201, 272, 264
-0.991174, 97, 57, 160, 120
-0.991181, 33, 369, 96, 400
-0.991188, 33, 297, 288, 360
-0.991199, 153, 165, 216, 196
-0.9912, 113, 309, 176, 340
-0.991202, 73, 293, 136, 324
-0.991224, 145, 1, 176, 128
-0.99124, 89, 337, 152, 368
-0.991252, 137, 177, 200, 208
-0.991263, 77, 409, 108, 472
-0.99127, 49, 217, 112, 280
-0.991275, 281, 337, 344, 368
-0.991277, 49, 65, 112, 128
-0.991284, 113, 213, 176, 244
-0.991295, 137, 217, 200, 248
-0.9913, 89, 437, 152, 468
-0.991317, 45, 369, 76, 496
-0.991338, 161, 201, 224, 232
-0.991343, 89, 393, 152, 424
-0.991365, 129, 153, 192, 184
-0.991374, 57, 409, 120, 440
-0.991384, 113, 469, 176, 500
-0.991389, 305, 129, 368, 256
-0.991399, 41, 333, 104, 364
-0.991404, 193, 261, 256, 292
-0.991406, 161, 109, 224, 140
-0.991423, 65, 321, 96, 384
-0.991471, 273, 425, 304, 488
-0.991478, 225, 253, 288, 284
-0.991518, 113, 225, 144, 288
-0.99152, 113, 429, 176, 460
-0.991521, 1, 305, 375, 368
-0.991522, 97, 197, 160, 228
-0.991526, 201, 329, 264, 360
-0.991531, 65, 437, 128, 468
-0.991532, 97, 129, 160, 192
-0.991534, 289, 349, 352, 380
-0.991535, 189, 289, 220, 352
-0.991545, 157, 81, 188, 144
-0.991578, 177, 289, 240, 320
-0.99158, 217, 229, 280, 260
-0.991627, 157, 257, 188, 320
-0.99164, 241, 1, 304, 256
-0.991643, 233, 1, 264, 128
-0.991653, 177, 189, 240, 220
-0.991658, 281, 265, 344, 328
-0.991658, 113, 285, 176, 316
-0.991663, 49, 153, 112, 216
-0.991673, 105, 349, 168, 380
-0.991701, 37, 361, 68, 424
-0.991717, 209, 273, 240, 400
-0.991726, 209, 353, 272, 384
-0.991728, 281, 325, 344, 356
-0.991736, 213, 289, 244, 352
-0.991759, 201, 289, 264, 320
-0.991796, 9, 397, 72, 428
-0.991805, 233, 353, 264, 416
-0.991806, 241, 153, 368, 216
-0.991812, 273, 301, 336, 332
-0.991814, 17, 457, 80, 488
-0.991829, 129, 377, 256, 440
-0.99183, 9, 65, 72, 128
-0.991835, 89, 421, 152, 452
-0.991843, 113, 169, 176, 200
-0.991856, 305, 337, 368, 368
-0.991859, 265, 441, 328, 472
-0.991862, 169, 241, 232, 272
-0.99188, 65, 1, 128, 500
-0.991907, 17, 341, 80, 372
-0.991912, 185, 129, 216, 192
-0.991925, 33, 169, 64, 232
-0.991926, 137, 85, 200, 116
-0.991933, 25, 357, 88, 388
-0.991935, 129, 169, 160, 232
-0.991935, 9, 373, 72, 404
-0.99194, 281, 313, 344, 344
-0.991953, 105, 1, 168, 32
-0.991958, 137, 101, 200, 132
-0.991961, 113, 269, 176, 300
-0.991973, 65, 1, 128, 32
-0.991983, 129, 401, 192, 432
-0.991986, 337, 289, 368, 416
-0.992008, 233, 277, 296, 308
-0.992023, 201, 161, 264, 192
-0.992031, 185, 121, 248, 152
-0.99204, 109, 265, 140, 328
-0.992042, 281, 113, 344, 240
-0.992055, 105, 1, 168, 500
-0.99206, 33, 165, 96, 196
-0.992077, 233, 437, 296, 468
-0.992082, 89, 65, 152, 320
-0.9921, 145, 289, 208, 320
-0.992109, 113, 337, 176, 368
-0.992119, 217, 265, 280, 296
-0.992134, 65, 17, 128, 48
-0.992142, 313, 81, 375, 208
-0.992163, 25, 233, 88, 264
-0.992166, 209, 341, 272, 372
-0.992167, 177, 301, 240, 332
-0.992176, 33, 429, 96, 460
-0.992208, 57, 369, 88, 400
-0.992226, 313, 349, 375, 380
-0.99223, 21, 337, 52, 464
-0.992234, 265, 453, 328, 484
-0.992236, 281, 425, 344, 456
-0.992239, 169, 253, 232, 284
-0.992239, 189, 105, 220, 168
-0.992241, 65, 345, 128, 376
-0.992245, 225, 365, 288, 396
-0.992256, 133, 129, 164, 192
-0.992256, 209, 369, 336, 432
-0.992257, 297, 361, 360, 392
-0.992262, 89, 169, 152, 200
-0.992273, 89, 273, 152, 304
-0.992284, 273, 361, 336, 392
-0.992304, 97, 181, 160, 212
-0.992307, 9, 273, 40, 400
-0.992317, 177, 97, 240, 128
-0.992341, 1, 1, 64, 500
-0.992346, 33, 1, 96, 32
-0.99235, 273, 289, 336, 320
-0.99235, 137, 445, 200, 476
-0.99236, 57, 381, 88, 412
-0.992369, 121, 141, 184, 172
-0.99237, 29, 257, 60, 320
-0.992393, 113, 241, 176, 272
-0.992409, 193, 237, 256, 268
-0.992411, 129, 253, 192, 284
-0.992417, 221, 245, 252, 276
-0.992426, 17, 221, 80, 252
-0.992427, 305, 1, 368, 256
-0.99243, 153, 289, 184, 416
-0.992444, 241, 57, 368, 120
-0.99245, 121, 405, 152, 436
-0.992464, 25, 417, 88, 448
-0.992468, 185, 141, 248, 172
-0.992471, 129, 229, 192, 260
-0.992487, 209, 125, 272, 156
-0.992494, 169, 1, 232, 32
-0.992494, 9, 329, 72, 360
-0.992502, 1, 297, 64, 328
-0.992511, 73, 25, 104, 88
-0.992541, 257, 201, 320, 264
-0.992541, 233, 297, 264, 328
-0.99255, 121, 297, 152, 328
-0.992557, 49, 241, 80, 368
-0.992561, 1, 161, 256, 224
-0.992564, 65, 361, 128, 392
-0.992571, 89, 257, 152, 288
-0.992588, 165, 201, 196, 232
-0.992589, 57, 273, 120, 336
-0.992598, 17, 81, 144, 144
-0.992612, 173, 129, 204, 192
-0.992614, 113, 321, 144, 352
-0.992619, 245, 353, 276, 384
-0.99266, 245, 317, 276, 348
-0.992661, 149, 457, 180, 488
-0.992673, 117, 309, 148, 340
-0.992677, 133, 453, 164, 484
-0.992692, 153, 157, 184, 188
-0.992698, 113, 65, 240, 128
-0.992703, 65, 329, 320, 392
-0.992709, 113, 333, 144, 364
-0.992711, 109, 409, 140, 440
-0.992713, 209, 193, 336, 256
-0.99277, 133, 401, 164, 432
-0.992772, 161, 109, 192, 140
-0.992784, 117, 445, 148, 476
-0.992801, 205, 97, 236, 224
-0.992807, 225, 333, 256, 364
-0.992811, 145, 169, 176, 200
-0.992818, 213, 257, 244, 288
-0.992821, 97, 409, 128, 440
-0.992837, 221, 1, 252, 128
-0.992837, 81, 193, 112, 320
-0.992848, 161, 305, 192, 368
-0.992858, 313, 1, 375, 500
-0.992864, 141, 305, 172, 336
-0.992866, 205, 245, 236, 276
-0.992868, 61, 465, 92, 496
-0.99287, 81, 161, 144, 416
-0.992875, 257, 285, 288, 316
-0.992883, 109, 461, 140, 492
-0.992896, 29, 217, 60, 280
-0.992897, 97, 341, 128, 372
-0.992898, 89, 449, 120, 480
-0.992903, 53, 1, 84, 64
-0.992931, 105, 449, 136, 480
-0.992942, 257, 361, 288, 392
-0.992943, 273, 1, 336, 256
-0.992947, 69, 381, 100, 412
-0.992951, 241, 365, 272, 396
-0.992955, 141, 441, 172, 472
-0.992956, 177, 197, 208, 228
-0.992957, 137, 57, 200, 120
-0.992959, 125, 417, 156, 448
-0.992961, 309, 289, 340, 416
-0.992962, 121, 461, 152, 492
-0.992965, 49, 393, 80, 424
-0.992981, 77, 449, 108, 480
-0.992986, 105, 1, 136, 32
-0.992986, 65, 273, 320, 336
-0.992991, 49, 469, 80, 500
-0.992995, 277, 297, 308, 328
-0.992998, 269, 309, 300, 340
-0.993002, 113, 421, 144, 452
-0.993005, 145, 137, 176, 168
-0.993012, 105, 293, 136, 324
-0.993018, 81, 333, 112, 364
-0.993022, 37, 385, 68, 416
-0.993024, 93, 461, 124, 492
-0.993031, 25, 385, 56, 416
-0.993032, 245, 341, 276, 372
-0.993033, 81, 305, 112, 336
-0.993037, 277, 329, 308, 360
-0.99304, 277, 341, 308, 372
-0.993041, 69, 397, 100, 428
-0.993045, 101, 325, 132, 356
-0.99305, 261, 297, 292, 328
-0.993056, 33, 137, 160, 200
-0.993059, 93, 397, 124, 428
-0.993062, 129, 437, 160, 468
-0.993066, 153, 197, 184, 228
-0.993066, 41, 337, 72, 368
-0.993072, 81, 461, 112, 492
-0.993073, 157, 121, 188, 152
-0.993073, 305, 353, 336, 384
-0.993074, 109, 393, 140, 456
-0.993077, 121, 169, 152, 200
-0.993083, 73, 5, 104, 36
-0.993086, 189, 149, 220, 180
-0.993099, 125, 353, 156, 384
-0.993101, 325, 293, 356, 324
-0.993103, 65, 313, 96, 344
-0.993112, 37, 369, 68, 400
-0.993113, 249, 305, 280, 336
-0.99312, 101, 305, 132, 336
-0.99312, 45, 457, 76, 488
-0.993124, 157, 213, 188, 244
-0.993128, 241, 329, 272, 360
-0.993136, 137, 413, 168, 444
-0.99314, 81, 293, 112, 324
-0.993141, 49, 309, 80, 340
-0.993146, 145, 101, 176, 132
-0.993146, 133, 177, 164, 208
-0.993149, 261, 325, 292, 356
-0.993149, 65, 449, 96, 480
-0.993153, 289, 393, 320, 456
-0.993155, 229, 257, 260, 288
-0.993157, 157, 145, 188, 176
-0.993159, 273, 353, 304, 384
-0.993162, 293, 349, 324, 380
-0.993168, 289, 437, 320, 468
-0.993169, 97, 437, 128, 468
-0.993177, 173, 105, 204, 136
-0.993189, 233, 285, 264, 316
-0.993202, 233, 245, 264, 276
-0.993202, 173, 145, 204, 176
-0.993203, 121, 285, 152, 316
-0.993211, 141, 149, 172, 180
-0.993211, 173, 133, 204, 164
-0.993214, 301, 337, 332, 368
-0.993215, 177, 305, 208, 336
-0.993221, 329, 321, 360, 352
-0.993222, 157, 297, 188, 328
-0.993224, 57, 353, 88, 384
-0.993228, 57, 325, 88, 356
-0.993231, 325, 305, 356, 336
-0.993231, 29, 293, 60, 324
-0.993235, 261, 341, 292, 372
-0.993239, 161, 133, 192, 164
-0.99324, 117, 213, 148, 244
-0.99324, 277, 453, 308, 484
-0.993241, 233, 353, 264, 384
-0.993241, 17, 397, 48, 428
-0.993242, 117, 197, 148, 228
-0.993245, 85, 437, 116, 468
-0.99325, 329, 333, 360, 364
-0.993251, 181, 185, 212, 216
-0.993252, 69, 325, 100, 356
-0.993255, 113, 345, 144, 376
-0.993255, 93, 13, 124, 44
-0.993255, 141, 425, 172, 456
-0.993258, 53, 1, 84, 32
-0.993258, 145, 113, 176, 144
-0.99326, 133, 389, 164, 420
-0.993266, 317, 341, 348, 372
-0.993267, 81, 389, 112, 420
-0.993267, 77, 409, 108, 440
-0.993272, 73, 17, 104, 48
-0.993273, 289, 337, 320, 368
-0.993274, 121, 393, 152, 424
-0.993279, 137, 197, 168, 228
-0.99328, 217, 285, 248, 316
-0.9933, 33, 1, 288, 64
-0.993301, 345, 297, 375, 360
-0.99331, 265, 9, 328, 72
-0.993371, 129, 97, 160, 224
-0.993466, 185, 289, 216, 416
-0.993504, 173, 1, 204, 64
-0.993514, 29, 193, 60, 256
-0.993524, 177, 41, 304, 104
-0.993536, 173, 241, 204, 304
-0.993597, 297, 433, 328, 496
-0.993621, 293, 305, 324, 432
-0.993656, 41, 1, 104, 256
-0.993666, 1, 361, 128, 424
-0.993707, 125, 161, 156, 288
-0.993717, 153, 369, 216, 496
-0.993735, 65, 201, 320, 264
-0.993762, 9, 273, 72, 336
-0.993812, 1, 225, 64, 288
-0.99383, 129, 433, 375, 496
-0.993865, 229, 129, 260, 256
-0.993873, 217, 153, 280, 216
-0.993921, 297, 17, 328, 144
-0.993961, 65, 1, 96, 128
-0.993982, 345, 33, 375, 160
-0.99401, 129, 137, 375, 200
-0.994015, 69, 193, 100, 320
-0.994027, 129, 25, 256, 88
-0.994034, 209, 241, 336, 304
-0.994081, 49, 305, 176, 336
-0.994088, 233, 49, 296, 176
-0.994175, 41, 193, 72, 320
-0.994182, 65, 233, 320, 296
-0.994218, 65, 461, 192, 492
-0.994269, 9, 369, 40, 496
-0.994271, 49, 317, 176, 348
-0.99442, 247, 313, 262, 376
-0.994432, 1, 433, 375, 496
-0.994463, 33, 329, 160, 360
-0.994476, 229, 337, 260, 464
-0.994514, 97, 113, 352, 176
-0.994615, 119, 313, 134, 376
-0.994633, 209, 349, 336, 380
-0.994633, 241, 217, 368, 280
-0.994705, 129, 1, 160, 128
-0.994767, 209, 325, 336, 356
-0.994775, 245, 113, 276, 240
-0.994785, 61, 353, 76, 416
-0.994814, 345, 337, 375, 464
-0.99482, 281, 329, 296, 392
-0.994846, 1, 89, 256, 152
-0.994902, 1, 49, 64, 176
-0.99493, 241, 321, 256, 384
-0.994956, 185, 193, 216, 320
-0.994982, 181, 17, 212, 144
-0.995022, 33, 293, 160, 324
-0.995044, 225, 337, 352, 368
-0.995081, 129, 177, 375, 240
-0.995131, 1, 329, 375, 392
-0.99516, 241, 105, 368, 168
-0.995186, 225, 313, 352, 344
-0.995194, 33, 145, 64, 272
-0.995235, 129, 305, 256, 336
-0.995252, 69, 353, 84, 416
-0.995259, 281, 289, 296, 352
-0.995327, 325, 369, 356, 496
-0.995368, 65, 405, 192, 436
-0.995372, 5, 1, 36, 128
-0.99545, 241, 289, 256, 352
-0.995453, 127, 273, 142, 336
-0.995465, 113, 313, 128, 376
-0.995478, 161, 145, 176, 208
-0.995486, 65, 449, 192, 480
-0.995505, 145, 409, 160, 472
-0.995519, 249, 345, 264, 408
-0.995532, 141, 169, 156, 232
-0.995549, 21, 1, 52, 128
-0.995557, 165, 105, 180, 168
-0.995573, 121, 289, 136, 352
-0.995577, 131, 249, 146, 312
-0.99558, 173, 193, 188, 256
-0.995608, 223, 257, 238, 320
-0.995648, 247, 289, 262, 352
-0.995703, 163, 193, 178, 256
-0.995754, 105, 297, 120, 360
-0.995775, 209, 361, 336, 392
-0.995794, 217, 113, 248, 240
-0.995796, 181, 129, 212, 384
-0.995836, 1, 385, 128, 416
-0.995848, 63, 377, 78, 440
-0.995876, 55, 369, 70, 432
-0.995914, 33, 409, 288, 472
-0.995923, 137, 49, 168, 176
-0.99596, 155, 137, 170, 200
-0.99597, 167, 169, 182, 232
-0.995979, 187, 273, 202, 336
-0.995993, 17, 397, 144, 428
-0.995993, 145, 385, 160, 448
-0.995998, 81, 9, 208, 40
-0.996017, 257, 97, 320, 352
-0.996025, 81, 193, 208, 224
-0.996025, 227, 233, 242, 296
-0.996036, 89, 297, 104, 360
-0.99604, 289, 313, 304, 376
-0.996044, 197, 177, 212, 240
-0.996051, 209, 293, 336, 324
-0.99606, 137, 393, 152, 456
-0.99611, 271, 273, 286, 336
-0.996114, 65, 385, 320, 448
-0.996119, 133, 329, 148, 392
-0.996126, 17, 461, 144, 492
-0.996131, 49, 417, 176, 448
-0.996139, 101, 1, 132, 128
-0.996141, 129, 393, 144, 456
-0.99615, 203, 169, 218, 232
-0.996156, 309, 65, 340, 192
-0.996158, 195, 273, 210, 336
-0.996164, 17, 25, 144, 88
-0.996167, 255, 281, 270, 344
-0.996177, 33, 433, 288, 496
-0.99619, 175, 81, 190, 144
-0.996191, 129, 157, 256, 188
-0.996206, 161, 65, 288, 128
-0.996225, 209, 161, 224, 224
-0.996228, 217, 257, 232, 320
-0.996229, 25, 337, 40, 400
-0.996229, 1, 161, 64, 288
-0.996238, 29, 361, 44, 424
-0.996253, 235, 257, 250, 320
-0.99629, 171, 105, 186, 168
-0.996294, 35, 337, 50, 400
-0.996308, 145, 113, 272, 144
-0.996321, 97, 293, 224, 324
-0.996329, 65, 353, 320, 416
-0.996347, 1, 281, 375, 344
-0.996351, 203, 265, 218, 328
-0.996357, 269, 17, 300, 144
-0.996357, 325, 33, 356, 160
-0.996361, 81, 305, 96, 368
-0.996386, 49, 429, 176, 460
-0.996388, 145, 129, 272, 160
-0.996399, 235, 289, 250, 352
-0.996412, 145, 297, 160, 360
-0.996423, 1, 65, 256, 128
-0.996423, 281, 1, 312, 128
-0.996454, 129, 409, 375, 472
-0.996471, 125, 353, 140, 416
-0.996482, 93, 193, 124, 320
-0.996483, 129, 33, 375, 96
-0.996497, 55, 393, 70, 456
-0.99651, 1, 145, 375, 208
-0.99652, 121, 401, 136, 464
-0.996537, 77, 1, 92, 64
-0.996541, 103, 1, 118, 64
-0.996544, 121, 257, 152, 500
-0.996549, 17, 445, 144, 476
-0.99655, 69, 425, 84, 488
-0.996552, 255, 345, 270, 408
-0.996564, 243, 353, 258, 416
-0.996566, 97, 89, 352, 152
-0.996567, 145, 1, 272, 32
-0.996575, 129, 57, 375, 120
-0.996576, 33, 341, 160, 372
-0.996584, 147, 145, 162, 208
-0.996593, 73, 385, 88, 448
-0.996611, 215, 217, 230, 280
-0.996615, 173, 273, 188, 336
-0.996622, 145, 461, 272, 492
-0.996632, 157, 169, 172, 232
-0.996648, 211, 273, 226, 336
-0.99665, 303, 337, 318, 400
-0.996659, 161, 349, 288, 380
-0.996663, 169, 81, 184, 144
-0.996669, 309, 329, 324, 392
-0.996674, 125, 313, 140, 376
-0.996678, 51, 321, 66, 384
-0.9967, 281, 241, 312, 368
-0.996709, 129, 213, 256, 244
-0.996712, 97, 173, 224, 204
-0.996714, 161, 1, 192, 256
-0.996716, 145, 293, 272, 324
-0.996717, 97, 353, 224, 416
-0.99672, 1, 317, 128, 348
-0.996732, 133, 193, 164, 448
-0.996733, 137, 417, 152, 480
-0.996733, 49, 145, 112, 272
-0.996748, 139, 209, 154, 272
-0.99676, 181, 265, 196, 328
-0.996769, 85, 433, 100, 496
-0.996774, 33, 1, 160, 32
-0.996779, 53, 297, 68, 360
-0.996786, 137, 305, 152, 368
-0.996789, 161, 197, 288, 228
-0.996791, 265, 257, 280, 320
-0.996799, 49, 233, 176, 264
-0.996807, 177, 105, 192, 168
-0.996808, 161, 281, 176, 344
-0.996809, 107, 329, 122, 392
-0.996811, 115, 289, 130, 352
-0.996823, 45, 313, 60, 376
-0.996834, 253, 305, 268, 368
-0.996842, 177, 169, 192, 232
-0.996855, 125, 49, 156, 176
-0.996862, 151, 401, 166, 464
-0.996865, 131, 353, 146, 416
-0.996873, 223, 161, 238, 224
-0.996875, 115, 409, 130, 472
-0.996876, 95, 433, 110, 496
-0.996876, 129, 329, 256, 360
-0.996882, 131, 161, 146, 224
-0.996883, 49, 105, 176, 168
-0.996886, 181, 81, 196, 144
-0.996887, 1, 305, 128, 336
-0.996897, 225, 457, 352, 488
-0.996904, 177, 1, 208, 256
-0.996904, 145, 185, 272, 216
-0.99691, 241, 329, 256, 360
-0.996913, 113, 253, 240, 284
-0.996914, 93, 409, 108, 472
-0.996918, 205, 193, 220, 256
-0.996922, 63, 329, 78, 392
-0.996944, 169, 129, 200, 384
-0.996949, 177, 13, 304, 44
-0.996954, 81, 341, 208, 372
-0.996962, 261, 281, 276, 344
-0.996974, 157, 129, 188, 384
-0.996976, 49, 385, 176, 416
-0.996979, 287, 345, 302, 408
-0.996996, 97, 1, 112, 64
-0.997002, 157, 433, 172, 496
-0.997005, 1, 409, 128, 440
-0.997007, 35, 161, 50, 224
-0.997015, 145, 101, 272, 132
-0.997015, 81, 329, 208, 360
-0.99702, 205, 289, 220, 352
-0.997026, 75, 353, 90, 416
-0.997026, 129, 445, 256, 476
-0.997027, 33, 369, 64, 496
-0.997027, 49, 169, 176, 200
-0.997028, 191, 297, 206, 360
-0.997028, 183, 185, 198, 248
-0.997029, 209, 441, 336, 472
-0.997029, 249, 225, 280, 480
-0.997038, 165, 217, 180, 280
-0.997039, 181, 297, 196, 360
-0.997043, 113, 401, 240, 432
-0.997045, 257, 129, 288, 256
-0.997054, 245, 265, 260, 328
-0.997056, 49, 213, 176, 244
-0.99706, 207, 137, 222, 200
-0.997062, 113, 337, 128, 400
-0.99707, 63, 433, 78, 496
-0.997077, 15, 337, 30, 400
-0.997079, 135, 281, 150, 344
-0.99708, 347, 321, 362, 384
-0.997086, 199, 201, 214, 264
-0.99709, 185, 113, 200, 176
-0.997096, 167, 129, 182, 192
-0.997101, 95, 297, 110, 360
-0.997115, 63, 361, 78, 392
-0.997116, 233, 245, 248, 276
-0.99712, 129, 225, 256, 256
-0.99712, 129, 1, 375, 64
-0.99715, 221, 233, 236, 296
-0.99715, 135, 185, 150, 248
-0.997151, 159, 113, 174, 176
-0.99716, 273, 353, 288, 416
-0.997167, 189, 185, 204, 248
-0.997179, 233, 185, 248, 248
-0.997189, 113, 89, 240, 120
-0.997191, 109, 393, 124, 456
-0.997201, 205, 129, 236, 384
-0.997202, 129, 241, 256, 272
-0.99721, 31, 257, 46, 320
-0.997215, 201, 137, 216, 200
-0.997217, 229, 265, 244, 328
-0.997223, 1, 121, 375, 184
-0.997227, 261, 329, 276, 392
-0.997231, 213, 193, 228, 256
-0.99725, 145, 173, 272, 204
-0.99726, 183, 1, 198, 64
-0.997261, 77, 425, 92, 488
-0.997277, 193, 129, 224, 384
-0.997278, 113, 145, 240, 176
-0.997292, 145, 129, 176, 384
-0.997302, 97, 417, 224, 448
-0.997316, 309, 17, 340, 144
-0.997399, 145, 317, 272, 348
-0.997403, 209, 281, 336, 312
-0.997405, 1, 209, 375, 272
-0.997405, 145, 401, 160, 432
-0.997411, 33, 89, 160, 120
-0.99743, 113, 281, 240, 312
-0.997436, 115, 409, 130, 440
-0.997439, 177, 201, 192, 232
-0.997468, 81, 113, 208, 144
-0.997475, 223, 245, 238, 276
-0.997478, 269, 241, 300, 368
-0.997481, 161, 261, 288, 292
-0.997484, 57, 373, 72, 404
-0.997485, 247, 317, 262, 348
-0.997488, 277, 257, 308, 500
-0.99749, 209, 25, 336, 56
-0.997494, 21, 145, 52, 272
-0.997497, 1, 165, 128, 196
-0.997504, 237, 257, 268, 500
-0.997514, 193, 133, 320, 164
-0.99752, 249, 353, 264, 384
-0.997537, 225, 225, 256, 480
-0.997562, 167, 197, 182, 228
-0.997599, 1, 369, 375, 432
-0.997605, 257, 49, 288, 176
-0.997608, 241, 37, 368, 68
-0.997614, 71, 369, 86, 400
-0.99762, 97, 317, 224, 348
-0.997634, 65, 245, 192, 276
-0.997636, 123, 409, 138, 440
-0.997648, 189, 1, 220, 256
-0.997666, 133, 349, 148, 380
-0.997667, 229, 257, 244, 288
-0.997677, 133, 401, 148, 432
-0.997688, 333, 81, 364, 208
-0.997705, 1, 1, 375, 64
-0.99771, 177, 245, 304, 276
-0.997722, 161, 461, 176, 492
-0.997724, 121, 309, 136, 340
-0.997734, 177, 305, 304, 336
-0.997737, 255, 357, 270, 388
-0.997743, 249, 341, 264, 372
-0.997744, 115, 321, 130, 352
-0.997745, 33, 281, 160, 312
-0.997748, 81, 25, 208, 88
-0.997748, 149, 1, 180, 256
-0.997748, 325, 257, 356, 500
-0.997754, 139, 405, 154, 436
-0.997762, 1, 137, 256, 200
-0.997777, 133, 97, 164, 352
-0.997779, 97, 133, 224, 164
-0.99778, 73, 381, 88, 412
-0.99779, 57, 177, 88, 304
-0.997796, 29, 193, 60, 448
-0.997803, 1, 25, 375, 88
-0.997804, 65, 153, 192, 184
-0.997809, 1, 177, 128, 208
-0.99782, 209, 1, 240, 128
-0.997829, 245, 297, 260, 328
-0.99783, 225, 429, 352, 460
-0.997844, 261, 257, 292, 500
-0.997857, 285, 49, 316, 176
-0.997861, 159, 145, 174, 176
-0.997874, 257, 161, 320, 288
-0.997875, 247, 365, 262, 396
-0.997875, 29, 369, 44, 400
-0.997878, 33, 269, 160, 300
-0.997883, 67, 381, 82, 412
-0.997895, 63, 469, 78, 500
-0.997899, 169, 109, 184, 140
-0.997901, 121, 293, 136, 324
-0.997919, 113, 161, 144, 416
-0.997932, 109, 341, 124, 372
-0.997935, 109, 329, 124, 360
-0.997935, 223, 257, 238, 288
-0.997939, 81, 77, 208, 108
-0.997942, 97, 429, 224, 460
-0.997949, 55, 385, 70, 416
-0.997955, 151, 405, 166, 436
-0.997969, 131, 445, 146, 476
-0.997971, 141, 449, 156, 480
-0.997974, 133, 253, 148, 284
-0.997978, 1, 409, 375, 472
-0.99798, 25, 393, 40, 424
-0.997993, 63, 397, 78, 428
-0.997999, 157, 157, 172, 188
-0.997999, 283, 329, 298, 360
-0.997999, 193, 145, 320, 176
-0.998, 225, 469, 352, 500
-0.998001, 31, 381, 46, 412
-0.998008, 109, 409, 124, 440
-0.998013, 175, 105, 190, 136
-0.998013, 145, 417, 160, 448
-0.99802, 193, 121, 320, 152
-0.998025, 145, 173, 160, 204
-0.998027, 143, 437, 158, 468
-0.998028, 209, 413, 336, 444
-0.998034, 165, 153, 180, 184
-0.998048, 127, 349, 142, 380
-0.998057, 261, 161, 292, 416
-0.99806, 159, 209, 174, 240
-0.998066, 125, 457, 140, 488
-0.998068, 17, 249, 144, 280
-0.998069, 151, 169, 166, 200
-0.998081, 237, 49, 268, 176
-0.998095, 281, 313, 296, 344
-0.998101, 283, 341, 298, 372
-0.998103, 1, 429, 128, 460
-0.998106, 165, 217, 180, 248
-0.998113, 217, 245, 232, 276
-0.998114, 171, 209, 186, 240
-0.99812, 65, 101, 192, 132
-0.99812, 137, 169, 152, 200
-0.998122, 129, 297, 144, 328
-0.998125, 103, 449, 118, 480
-0.99813, 117, 1, 148, 128
-0.998131, 155, 441, 170, 472
-0.998132, 129, 417, 144, 448
-0.998135, 183, 197, 198, 228
-0.998136, 127, 285, 142, 316
-0.998137, 149, 257, 180, 500
-0.998142, 57, 397, 72, 428
-0.998142, 131, 465, 146, 496
-0.998147, 91, 449, 106, 480
-0.998154, 261, 361, 276, 392
-0.998154, 139, 181, 154, 212
-0.998156, 235, 257, 250, 288
-0.998157, 87, 305, 102, 336
-0.998157, 71, 461, 86, 492
-0.998163, 33, 25, 288, 88
-0.998165, 115, 309, 130, 340
-0.998166, 281, 297, 296, 328
-0.99817, 241, 317, 256, 348
-0.998178, 1, 197, 128, 228
-0.998187, 1, 209, 128, 240
-0.998187, 77, 313, 92, 344
-0.998188, 145, 305, 160, 336
-0.998189, 51, 305, 66, 336
-0.998192, 57, 461, 72, 492
-0.998196, 307, 353, 322, 384
-0.998211, 49, 181, 176, 212
-0.998212, 161, 277, 288, 308
-0.998213, 225, 229, 352, 260
-0.99822, 119, 345, 134, 376
-0.998222, 119, 449, 134, 480
-0.998227, 123, 469, 138, 500
-0.99823, 117, 421, 132, 452
-0.998244, 161, 225, 192, 480
-0.998247, 1, 113, 256, 176
-0.998249, 97, 445, 112, 476
-0.99825, 73, 1, 104, 256
-0.998251, 113, 449, 128, 480
-0.998255, 271, 281, 286, 312
-0.998256, 109, 257, 140, 500
-0.998258, 61, 385, 76, 416
-0.998267, 289, 329, 304, 360
-0.998268, 81, 21, 208, 52
-0.998272, 113, 265, 240, 296
-0.998272, 153, 137, 168, 168
-0.998276, 139, 417, 154, 448
-0.998281, 117, 437, 132, 468
-0.998288, 81, 449, 96, 480
-0.998289, 97, 461, 112, 492
-0.998292, 151, 153, 166, 184
-0.998309, 1, 49, 375, 112
-0.99831, 109, 305, 124, 336
-0.998312, 257, 289, 272, 320
-0.998315, 133, 337, 148, 368
-0.998316, 123, 421, 138, 452
-0.998323, 229, 233, 244, 264
-0.998324, 73, 397, 88, 428
-0.998336, 161, 361, 288, 392
-0.998339, 65, 373, 192, 404
-0.99834, 337, 129, 368, 256
-0.998342, 17, 373, 144, 404
-0.998345, 51, 397, 66, 428
-0.998347, 133, 325, 148, 356
-0.998351, 141, 135, 172, 150
-0.998351, 117, 457, 148, 472
-0.998351, 69, 409, 100, 424
-0.998353, 89, 409, 104, 440
-0.998353, 141, 447, 172, 462
-0.998356, 141, 441, 172, 456
-0.998356, 101, 461, 132, 476
-0.998357, 65, 319, 96, 334
-0.998357, 33, 365, 64, 380
-0.998357, 285, 351, 316, 366
-0.998358, 61, 473, 92, 488
-0.998358, 249, 339, 280, 354
-0.998359, 233, 357, 264, 372
-0.99836, 277, 457, 308, 472
-0.99836, 257, 359, 288, 374
-0.998361, 293, 257, 324, 384
-0.998361, 81, 411, 112, 426
-0.998362, 157, 125, 188, 140
-0.998363, 1, 353, 128, 384
-0.998363, 153, 215, 184, 230
-0.998363, 209, 81, 336, 144
-0.998364, 97, 419, 128, 434
-0.998364, 209, 265, 240, 280
-0.998365, 61, 395, 92, 410
-0.998366, 51, 325, 66, 356
-0.998367, 117, 215, 148, 230
-0.998367, 145, 145, 176, 160
-0.998367, 277, 331, 308, 346
-0.998368, 73, 27, 104, 42
-0.998368, 45, 481, 76, 496
-0.998369, 229, 259, 260, 274
-0.998369, 241, 371, 272, 386
-0.99837, 97, 405, 128, 420
-0.99837, 233, 249, 264, 264
-0.998371, 277, 321, 308, 336
-0.998371, 69, 383, 100, 398
-0.998372, 253, 299, 284, 314
-0.998372, 101, 7, 132, 22
-0.998372, 261, 285, 292, 300
-0.998373, 73, 463, 104, 478
-0.998374, 105, 305, 136, 320
-0.998374, 157, 159, 188, 174
-0.998375, 289, 443, 320, 458
-0.998375, 145, 155, 176, 170
-0.998376, 157, 131, 188, 146
-0.998376, 209, 373, 336, 404
-0.998376, 95, 409, 110, 440
-0.998376, 113, 427, 144, 442
-0.998377, 205, 259, 236, 274
-0.998377, 125, 297, 156, 312
-0.998378, 121, 447, 152, 462
-0.998379, 69, 329, 100, 344
-0.99838, 49, 397, 80, 412
-0.99838, 193, 149, 224, 164
-0.998381, 245, 291, 276, 306
-0.998381, 73, 389, 104, 404
-0.998381, 89, 463, 120, 478
-0.998381, 145, 407, 176, 422
-0.998381, 225, 217, 352, 248
-0.998383, 145, 169, 176, 184
-0.998384, 297, 357, 312, 388
-0.998384, 109, 295, 140, 310
-0.998384, 253, 309, 284, 324
-0.998384, 129, 171, 160, 186
-0.998384, 269, 309, 300, 324
-0.998386, 63, 349, 78, 380
-0.998387, 101, 5, 116, 36
-0.998388, 245, 345, 276, 360
-0.998388, 277, 299, 308, 314
-0.998389, 153, 203, 184, 218
-0.998389, 81, 7, 112, 22
-0.998389, 325, 293, 356, 308
-0.99839, 109, 405, 140, 420
-0.998391, 29, 305, 60, 320
-0.998391, 149, 461, 180, 476
-0.998394, 209, 245, 240, 260
-0.998394, 85, 293, 100, 324
-0.998395, 107, 437, 122, 468
-0.998396, 63, 409, 78, 440
-0.998396, 37, 387, 68, 402
-0.998396, 117, 345, 148, 360
-0.998397, 255, 345, 270, 376
-0.998398, 31, 393, 46, 424
-0.998398, 17, 395, 48, 410
-0.9984, 161, 151, 192, 166
-0.998401, 117, 335, 148, 350
-0.998402, 209, 253, 240, 268
-0.998402, 245, 351, 276, 366
-0.998402, 73, 449, 88, 480
-0.998403, 269, 357, 284, 388
-0.998404, 261, 321, 292, 336
-0.998404, 113, 473, 144, 488
-0.998404, 57, 361, 88, 376
-0.998406, 63, 449, 78, 480
-0.998406, 129, 355, 160, 370
-0.998407, 269, 315, 300, 330
-0.998409, 105, 409, 168, 424
-0.998412, 81, 335, 112, 350
-0.998413, 45, 325, 60, 356
-0.998413, 269, 363, 300, 378
-0.998415, 297, 361, 328, 376
-0.998415, 221, 265, 252, 280
-0.998416, 97, 341, 128, 356
-0.998416, 249, 315, 280, 330
-0.998418, 125, 445, 140, 476
-0.99842, 61, 467, 92, 482
-0.998422, 165, 209, 196, 224
-0.998423, 111, 293, 126, 324
-0.998425, 115, 1, 130, 32
-0.998425, 181, 199, 212, 214
-0.998427, 101, 467, 132, 482
-0.998427, 9, 389, 24, 420
-0.998429, 37, 393, 68, 408
-0.998429, 177, 229, 304, 260
-0.998429, 41, 339, 72, 354
-0.99843, 57, 373, 88, 388
-0.99843, 37, 165, 52, 196
-0.998431, 101, 333, 132, 348
-0.998432, 129, 465, 160, 480
-0.998432, 311, 341, 326, 372
-0.998435, 117, 319, 148, 334
-0.998436, 117, 309, 148, 324
-0.998438, 253, 365, 284, 380
-0.99844, 161, 125, 176, 156
-0.998441, 177, 209, 304, 240
-0.998441, 49, 475, 80, 490
-0.998443, 157, 165, 188, 180
-0.998443, 113, 353, 144, 368
-0.998444, 57, 389, 88, 404
-0.998445, 81, 305, 112, 320
-0.998446, 237, 331, 268, 346
-0.998446, 165, 111, 196, 126
-0.998446, 107, 465, 122, 496
-0.998452, 151, 453, 166, 484
-0.998453, 141, 175, 172, 190
-0.998453, 245, 321, 276, 336
-0.998456, 79, 393, 94, 424
-0.998457, 1, 225, 128, 256
-0.998462, 229, 337, 260, 352
-0.998463, 105, 1, 136, 16
-0.998464, 141, 309, 172, 324
-0.998467, 121, 403, 152, 418
-0.998468, 113, 325, 144, 340
-0.998471, 65, 465, 128, 480
-0.998472, 109, 419, 140, 434
-0.998473, 121, 461, 184, 476
-0.998475, 133, 417, 164, 432
-0.998476, 237, 161, 268, 416
-0.998479, 209, 301, 272, 316
-0.998479, 241, 365, 272, 380
-0.998482, 81, 413, 144, 428
-0.998484, 221, 253, 252, 268
-0.998484, 93, 413, 124, 428
-0.998488, 57, 383, 88, 398
-0.998489, 105, 415, 168, 430
-0.998492, 225, 245, 352, 276
-0.998493, 125, 303, 156, 318
-0.998494, 241, 323, 304, 338
-0.998498, 1, 185, 375, 248
-0.998499, 217, 259, 248, 274
-0.998507, 233, 299, 264, 314
-0.998508, 1, 257, 375, 320
-0.99851, 165, 201, 196, 216
-0.998512, 113, 463, 144, 478
-0.998518, 121, 421, 152, 436
-0.998523, 233, 315, 296, 330
-0.998525, 241, 347, 304, 362
-0.998528, 129, 203, 192, 218
-0.99853, 41, 331, 104, 346
-0.998531, 233, 299, 296, 314
-0.998531, 41, 309, 104, 324
-0.998531, 245, 357, 276, 372
-0.998531, 177, 161, 304, 192
-0.998532, 17, 395, 80, 410
-0.998533, 49, 385, 112, 400
-0.998534, 233, 353, 296, 368
-0.998538, 193, 33, 224, 160
-0.998539, 133, 403, 164, 418
-0.99854, 97, 461, 160, 476
-0.998541, 249, 361, 312, 376
-0.998545, 41, 315, 104, 330
-0.998549, 137, 455, 168, 470
-0.998551, 221, 247, 252, 262
-0.998551, 121, 467, 184, 482
-0.998553, 45, 145, 76, 272
-0.998554, 233, 329, 296, 344
-0.998555, 49, 391, 112, 406
-0.998555, 65, 337, 128, 352
-0.998557, 9, 387, 72, 402
-0.998557, 249, 339, 312, 354
-0.998559, 105, 401, 168, 416
-0.99856, 249, 309, 312, 324
-0.99856, 81, 305, 144, 320
-0.998561, 57, 411, 120, 426
-0.998563, 97, 333, 160, 348
-0.998563, 161, 149, 224, 164
-0.998565, 137, 309, 200, 324
-0.998565, 81, 405, 144, 420
-0.998565, 121, 455, 184, 470
-0.998566, 201, 247, 264, 262
-0.998568, 17, 225, 48, 352
-0.998571, 57, 367, 88, 382
-0.998571, 129, 407, 192, 422
-0.998573, 73, 325, 136, 340
-0.998574, 137, 209, 200, 224
-0.998574, 25, 365, 88, 380
-0.998575, 121, 195, 184, 210
-0.998577, 217, 263, 280, 278
-0.998579, 129, 25, 256, 56
-0.99858, 41, 325, 104, 340
-0.998583, 273, 357, 336, 372
-0.998584, 73, 319, 136, 334
-0.998585, 241, 149, 368, 180
-0.998585, 241, 293, 304, 308
-0.998585, 205, 1, 236, 256
-0.998587, 161, 143, 224, 158
-0.998587, 185, 259, 248, 274
-0.998587, 105, 171, 168, 186
-0.998589, 129, 219, 192, 234
-0.998589, 153, 201, 216, 216
-0.998592, 89, 467, 152, 482
-0.998592, 241, 129, 368, 160
-0.998592, 281, 333, 344, 348
-0.998594, 105, 411, 136, 426
-0.998595, 121, 415, 152, 430
-0.998596, 105, 345, 168, 360
-0.998597, 105, 317, 168, 332
-0.998597, 173, 225, 204, 480
-0.998597, 105, 421, 168, 436
-0.998599, 133, 409, 164, 424
-0.998603, 137, 115, 200, 130
-0.998603, 153, 137, 216, 152
-0.998603, 33, 339, 96, 354
-0.998606, 97, 447, 160, 462
-0.998606, 65, 343, 128, 358
-0.998606, 97, 339, 160, 354
-0.998607, 201, 253, 264, 268
-0.998608, 161, 155, 224, 170
-0.998611, 105, 301, 168, 316
-0.998611, 241, 65, 368, 96
-0.998611, 105, 351, 168, 366
-0.998612, 73, 313, 136, 328
-0.998615, 41, 475, 104, 490
-0.998615, 65, 7, 128, 22
-0.998616, 281, 351, 344, 366
-0.998618, 89, 1, 120, 256
-0.998618, 121, 409, 152, 424
-0.998619, 281, 339, 344, 354
-0.99862, 153, 131, 216, 146
-0.998621, 137, 147, 200, 162
-0.998622, 65, 331, 128, 346
-0.998622, 81, 257, 112, 500
-0.998623, 121, 473, 184, 488
-0.998624, 113, 309, 176, 324
-0.998624, 33, 483, 96, 498
-0.998626, 153, 165, 216, 180
-0.998627, 41, 303, 104, 318
-0.998627, 177, 295, 240, 310
-0.99863, 105, 323, 168, 338
-0.998631, 273, 315, 336, 330
-0.998631, 97, 7, 160, 22
-0.998631, 57, 397, 120, 412
-0.998632, 209, 295, 272, 310
-0.998632, 145, 171, 208, 186
-0.998633, 97, 215, 160, 230
-0.998635, 113, 441, 176, 456
-0.998635, 249, 367, 312, 382
-0.998636, 129, 417, 192, 432
-0.998636, 49, 357, 176, 388
-0.998637, 225, 241, 288, 256
-0.998639, 281, 327, 344, 342
-0.998639, 273, 321, 336, 336
-0.998641, 89, 441, 152, 456
-0.998641, 73, 1, 136, 16
-0.998642, 33, 371, 96, 386
-0.998643, 189, 225, 220, 480
-0.998643, 137, 303, 200, 318
-0.998644, 161, 113, 224, 128
-0.998646, 97, 1, 160, 16
-0.998647, 97, 223, 160, 238
-0.998649, 273, 303, 336, 318
-0.998649, 177, 305, 240, 320
-0.998649, 153, 121, 216, 136
-0.998649, 193, 49, 320, 80
-0.99865, 225, 257, 288, 272
-0.99865, 281, 453, 344, 468
-0.99865, 177, 195, 240, 210
-0.998651, 209, 333, 272, 348
-0.998652, 273, 309, 336, 324
-0.998652, 305, 361, 368, 376
-0.998652, 193, 265, 256, 280
-0.998652, 97, 191, 160, 206
-0.998652, 129, 271, 192, 286
-0.998654, 137, 189, 200, 204
-0.998654, 209, 269, 336, 300
-0.998656, 177, 247, 240, 262
-0.998657, 89, 455, 152, 470
-0.998657, 57, 405, 120, 420
-0.998657, 137, 109, 200, 124
-0.998659, 121, 181, 184, 196
-0.998659, 97, 201, 160, 216
-0.998659, 9, 343, 72, 358
-0.99866, 89, 473, 152, 488
-0.998661, 305, 349, 368, 364
-0.998661, 247, 289, 262, 416
-0.998662, 25, 463, 88, 478
-0.998662, 57, 443, 120, 458
-0.998663, 129, 157, 192, 172
-0.998663, 169, 211, 232, 226
-0.998664, 17, 227, 80, 242
-0.998664, 81, 419, 144, 434
-0.998664, 225, 363, 288, 378
-0.998665, 233, 287, 296, 302
-0.998665, 81, 399, 144, 414
-0.998677, 1, 237, 128, 268
-0.99869, 177, 337, 304, 368
-0.998722, 135, 337, 150, 464
-0.998725, 65, 257, 192, 288
-0.99873, 1, 13, 128, 44
-0.998747, 123, 273, 138, 400
-0.998753, 145, 425, 272, 456
-0.998765, 127, 337, 142, 464
-0.998781, 33, 73, 160, 104
-0.998788, 229, 225, 244, 352
-0.998789, 93, 225, 124, 480
-0.998789, 161, 37, 288, 68
-0.998804, 129, 389, 256, 420
-0.998817, 221, 129, 252, 384
-0.998821, 209, 401, 336, 432
-0.998839, 223, 225, 238, 352
-0.998839, 101, 1, 132, 256
-0.998851, 209, 257, 336, 288
-0.998863, 225, 1, 256, 256
-0.998866, 119, 369, 134, 496
-0.998889, 17, 257, 48, 500
-0.998918, 167, 209, 182, 336
-0.998934, 63, 353, 78, 480
-0.998937, 109, 321, 124, 448
-0.99894, 41, 193, 72, 448
-0.99894, 1, 233, 375, 296
-0.998941, 253, 273, 268, 400
-0.998954, 225, 205, 352, 236
-0.998956, 129, 257, 144, 384
-0.998958, 281, 273, 296, 400
-0.998962, 249, 1, 280, 256
-0.998962, 167, 97, 182, 224
-0.999003, 41, 97, 72, 352
-0.999013, 117, 305, 132, 432
-0.999025, 177, 97, 192, 224
-0.999033, 217, 209, 232, 336
-0.999052, 159, 113, 174, 240
-0.99907, 177, 193, 192, 320
-0.999076, 57, 257, 88, 500
-0.999078, 185, 113, 200, 240
-0.999087, 69, 257, 100, 500
-0.999093, 73, 369, 88, 496
-0.999096, 19, 321, 34, 448
-0.999109, 81, 305, 96, 432
-0.999112, 193, 109, 320, 140
-0.999115, 69, 161, 100, 416
-0.999123, 193, 185, 320, 216
-0.999151, 241, 225, 256, 352
-0.999154, 143, 289, 158, 416
-0.999158, 241, 161, 368, 192
-0.999159, 29, 321, 44, 448
-0.99916, 71, 321, 86, 448
-0.999161, 113, 353, 240, 384
-0.999168, 235, 241, 250, 368
-0.999174, 129, 177, 144, 304
-0.999174, 135, 193, 150, 320
-0.999175, 97, 1, 112, 128
-0.999178, 273, 1, 304, 256
-0.999183, 241, 5, 368, 36
-0.999186, 161, 65, 176, 192
-0.999186, 209, 385, 336, 416
-0.999189, 29, 97, 60, 352
-0.999192, 141, 369, 156, 496
-0.999194, 317, 1, 348, 256
-0.999195, 111, 257, 126, 384
-0.999204, 213, 225, 244, 480
-0.999219, 245, 337, 260, 464
-0.999222, 161, 209, 176, 336
-0.999226, 53, 369, 68, 496
-0.99923, 157, 161, 172, 288
-0.999233, 101, 321, 116, 448
-0.999239, 171, 145, 186, 272
-0.999244, 91, 241, 106, 368
-0.999249, 313, 257, 344, 500
-0.999249, 87, 321, 102, 448
-0.999253, 241, 273, 256, 400
-0.999254, 335, 273, 350, 400
-0.999257, 285, 1, 316, 256
-0.999258, 155, 65, 170, 192
-0.999258, 229, 177, 244, 304
-0.999262, 45, 305, 60, 432
-0.999263, 261, 289, 276, 416
-0.999265, 95, 321, 110, 448
-0.999266, 271, 273, 286, 400
-0.999267, 261, 1, 292, 256
-0.999271, 173, 241, 188, 368
-0.999279, 289, 257, 320, 500
-0.999279, 97, 257, 112, 384
-0.999279, 201, 225, 232, 480
-0.999284, 17, 33, 80, 288
-0.999285, 1, 97, 64, 224
-0.999288, 193, 145, 208, 272
-0.999289, 85, 241, 100, 368
-0.999293, 183, 177, 198, 304
-0.999293, 203, 145, 218, 272
-0.999296, 135, 241, 150, 368
-0.999296, 165, 145, 180, 272
-0.999298, 55, 321, 70, 448
-0.999299, 117, 257, 132, 384
-0.9993, 289, 305, 304, 432
-0.9993, 63, 305, 78, 432
-0.999301, 7, 321, 22, 448
-0.999307, 171, 1, 186, 128
-0.999309, 79, 369, 94, 496
-0.999311, 209, 113, 224, 240
-0.999316, 39, 257, 54, 384
-0.999319, 235, 289, 250, 416
-0.999323, 179, 257, 194, 384
-0.999325, 105, 257, 120, 384
-0.999326, 147, 369, 162, 496
-0.999331, 25, 369, 40, 496
-0.999332, 283, 321, 298, 448
-0.999332, 159, 1, 174, 128
-0.999332, 35, 321, 50, 448
-0.999336, 87, 1, 102, 128
-0.999337, 103, 1, 118, 128
-0.99934, 113, 65, 144, 320
-0.999346, 53, 273, 68, 400
-0.999346, 187, 273, 202, 400
-0.999349, 277, 161, 308, 416
-0.999351, 257, 225, 272, 352
-0.999353, 167, 273, 182, 400
-0.999358, 183, 65, 198, 192
-0.999359, 255, 337, 270, 464
-0.999363, 177, 17, 192, 144
-0.999364, 273, 337, 288, 464
-0.999372, 165, 1, 180, 128
-0.999373, 35, 145, 50, 272
-0.999375, 191, 209, 206, 336
-0.999375, 229, 273, 244, 400
-0.999375, 31, 273, 46, 400
-0.999382, 223, 161, 238, 288
-0.999382, 79, 241, 94, 368
-0.999388, 167, 49, 182, 176
-0.999389, 329, 273, 344, 400
-0.99939, 71, 273, 86, 400
-0.999395, 153, 113, 168, 240
-0.999399, 121, 193, 136, 320
-0.999401, 347, 305, 362, 432
-0.999405, 317, 337, 332, 464
-0.999407, 61, 1, 92, 256
-0.999411, 25, 273, 40, 400
-0.999411, 261, 337, 276, 464
-0.999412, 203, 241, 218, 368
-0.999412, 135, 289, 150, 416
-0.999416, 173, 289, 188, 416
-0.99942, 111, 369, 126, 496
-0.999422, 215, 161, 230, 288
-0.999423, 297, 1, 328, 256
-0.999426, 295, 353, 310, 480
-0.999428, 185, 225, 200, 352
-0.999429, 161, 257, 176, 384
-0.999434, 251, 225, 266, 352
-0.999435, 195, 289, 210, 416
-0.999437, 197, 97, 212, 224
-0.999438, 33, 225, 48, 352
-0.999438, 191, 97, 206, 224
-0.999442, 161, 409, 288, 472
-0.999448, 241, 1, 256, 128
-0.99945, 81, 1, 96, 128
-0.99946, 341, 289, 356, 416
-0.99946, 153, 1, 168, 128
-0.999464, 143, 129, 158, 256
-0.999469, 81, 161, 112, 416
-0.999474, 149, 65, 164, 192
-0.999476, 13, 321, 28, 448
-0.999476, 327, 321, 342, 448
-0.999479, 209, 289, 224, 416
-0.999482, 311, 321, 326, 448
-0.999482, 341, 257, 372, 500
-0.999484, 101, 97, 132, 352
-0.999485, 17, 161, 48, 416
-0.99949, 211, 209, 226, 336
-0.999492, 217, 257, 232, 384
-0.999494, 183, 17, 198, 144
-0.999496, 235, 1, 250, 128
-0.999497, 301, 337, 316, 464
-0.999503, 263, 1, 278, 128
-0.99954, 53, 161, 84, 416
-0.999571, 247, 291, 262, 306
-0.999571, 287, 331, 302, 346
-0.999571, 9, 395, 24, 410
-0.999571, 97, 7, 112, 22
-0.999571, 49, 337, 64, 352
-0.999571, 133, 447, 148, 462
-0.999572, 221, 263, 236, 278
-0.999573, 73, 395, 88, 410
-0.999573, 47, 479, 62, 494
-0.999573, 281, 323, 296, 338
-0.999574, 179, 207, 194, 222
-0.999575, 155, 145, 170, 160
-0.999575, 157, 159, 172, 174
-0.999576, 55, 399, 70, 414
-0.999576, 89, 411, 104, 426
-0.999576, 121, 305, 136, 320
-0.999577, 55, 391, 70, 406
-0.999578, 149, 455, 164, 470
-0.999579, 281, 303, 296, 318
-0.999579, 61, 473, 76, 488
-0.999579, 133, 255, 148, 270
-0.99958, 67, 467, 82, 482
-0.99958, 121, 295, 136, 310
-0.999581, 31, 383, 46, 398
-0.999581, 27, 367, 42, 382
-0.999582, 291, 353, 306, 368
-0.999582, 281, 309, 296, 324
-0.999583, 227, 265, 242, 280
-0.999583, 281, 353, 296, 368
-0.999583, 101, 465, 116, 480
-0.999583, 239, 251, 254, 266
-0.999584, 145, 447, 160, 462
-0.999584, 73, 463, 88, 478
-0.999585, 165, 155, 180, 170
-0.999585, 55, 365, 70, 380
-0.999585, 175, 213, 190, 228
-0.999588, 19, 391, 34, 406
-0.999589, 33, 395, 48, 410
-0.99959, 71, 383, 86, 398
-0.99959, 125, 363, 140, 378
-0.99959, 299, 361, 314, 376
-0.99959, 149, 175, 164, 190
-0.999592, 153, 409, 168, 424
-0.999594, 217, 247, 232, 262
-0.999594, 81, 329, 96, 344
-0.999595, 117, 473, 132, 488
-0.999595, 65, 383, 80, 398
-0.999597, 249, 317, 264, 332
-0.999598, 269, 363, 284, 378
-0.999599, 145, 399, 160, 414
-0.9996, 71, 373, 86, 388
-0.999601, 261, 363, 276, 378
-0.999604, 111, 421, 126, 436
-0.999604, 135, 347, 150, 362
-0.999605, 143, 179, 158, 194
-0.999605, 173, 199, 188, 214
-0.999605, 247, 335, 262, 350
-0.999606, 241, 339, 256, 354
-0.999606, 95, 411, 110, 426
-0.999608, 155, 167, 170, 182
-0.999609, 33, 367, 48, 382
-0.999609, 107, 461, 122, 476
-0.999611, 57, 373, 72, 388
-0.999613, 185, 195, 200, 210
-0.999613, 105, 333, 120, 348
-0.999613, 123, 469, 138, 484
-0.999614, 115, 335, 130, 350
-0.999614, 115, 461, 130, 476
-0.999615, 73, 367, 88, 382
-0.999615, 239, 257, 254, 272
-0.999617, 119, 357, 134, 372
-0.999618, 121, 311, 136, 326
-0.999619, 83, 305, 98, 320
-0.999619, 65, 359, 80, 374
-0.999621, 65, 397, 80, 412
-0.999622, 219, 255, 234, 270
-0.999622, 111, 469, 126, 484
-0.999623, 145, 307, 160, 322
-0.999624, 117, 319, 132, 334
-0.999624, 173, 107, 188, 122
-0.999625, 121, 463, 136, 478
-0.999626, 157, 151, 172, 166
-0.999626, 245, 297, 260, 312
-0.999627, 165, 463, 180, 478
-0.999628, 237, 1, 268, 256
-0.999629, 135, 463, 150, 478
-0.999629, 281, 333, 296, 348
-0.99963, 65, 371, 80, 386
-0.999631, 27, 395, 42, 410
-0.999631, 117, 423, 132, 438
-0.999632, 225, 257, 240, 272
-0.999633, 143, 417, 158, 432
-0.999637, 129, 467, 144, 482
-0.999637, 135, 403, 150, 418
-0.999638, 167, 203, 182, 218
-0.99964, 123, 407, 138, 422
-0.999641, 249, 345, 264, 360
-0.999642, 241, 327, 256, 342
-0.999642, 109, 339, 124, 354
-0.999645, 113, 1, 128, 16
-0.999646, 127, 461, 142, 476
-0.999648, 115, 327, 130, 342
-0.999651, 179, 201, 194, 216
-0.999659, 57, 383, 72, 398
-0.999662, 223, 243, 238, 258
-0.999662, 125, 357, 140, 372
-0.999663, 255, 363, 270, 378
-0.999665, 247, 365, 262, 380
-0.999667, 1, 89, 375, 152
-0.99967, 127, 419, 142, 434
-0.999676, 129, 407, 144, 422
-0.999681, 137, 417, 152, 432
-0.999681, 143, 453, 158, 468
-0.999683, 249, 355, 264, 370
-0.999683, 223, 249, 238, 264
-0.999683, 103, 7, 118, 22
-0.999684, 147, 411, 162, 426
-0.999687, 249, 129, 280, 384
-0.999687, 135, 409, 150, 424
-0.999691, 229, 243, 244, 258
-0.999693, 149, 417, 164, 432
-0.999701, 341, 161, 372, 416
-0.999702, 111, 413, 126, 428
-0.999718, 231, 259, 246, 274
-0.999721, 67, 365, 82, 380
-0.999724, 147, 405, 162, 420
-0.999737, 133, 353, 148, 368
-0.999738, 61, 365, 76, 380
-0.999743, 119, 417, 134, 432
-0.999763, 231, 249, 246, 264
-0.999767, 117, 411, 132, 426
-0.999768, 141, 409, 156, 424
-0.999774, 133, 1, 164, 256
-0.999776, 241, 333, 256, 348
-0.999782, 125, 413, 140, 428
-0.99988, 341, 1, 372, 256
-0.999891, 41, 1, 72, 256
-0.999971, 329, 1, 360, 256
-0.999987, 301, 225, 332, 480
-1.00011, 289, 161, 320, 416
-1.00015, 329, 161, 360, 416
-1.00017, 5, 161, 36, 416
-1.00026, 13, 65, 44, 320
-1.0003, 177, 305, 240, 432
-1.00032, 5, 257, 36, 500
-1.00051, 317, 129, 348, 384
-1.00051, 29, 1, 60, 256
-1.00066, 305, 129, 336, 384
-1.00094, 1, 129, 64, 384
-1.00116, 1, 1, 32, 256
-1.00138, 1, 113, 128, 176
-1.0016, 313, 161, 375, 416
-1.00171, 193, 353, 256, 480
-1.00222, 305, 241, 368, 368
-1.00624, 81, 97, 144, 224
-1.00934, 281, 161, 344, 288
-1.01022, 313, 177, 375, 304
