1870
-0.114801, 1, 1, 500, 336
-0.241632, 1, 65, 500, 320
-0.318287, 33, 1, 288, 336
-0.409448, 161, 1, 416, 336
-0.470419, 257, 1, 500, 336
-0.481995, 257, 1, 500, 256
-0.482012, 33, 33, 288, 288
-0.553493, 129, 1, 384, 256
-0.818119, 81, 1, 208, 336
-0.827606, 81, 65, 208, 320
-0.828752, 145, 1, 272, 336
-0.833247, 369, 1, 496, 256
-0.84222, 321, 1, 448, 256
-0.845612, 1, 209, 500, 336
-0.846794, 161, 65, 288, 320
-0.848037, 305, 1, 432, 336
-0.849546, 17, 33, 144, 288
-0.853097, 1, 97, 500, 224
-0.853583, 369, 1, 496, 336
-0.854912, 1, 33, 500, 160
-0.859383, 33, 1, 160, 336
-0.86085, 1, 145, 500, 272
-0.865175, 209, 65, 336, 320
-0.872227, 193, 1, 320, 336
-0.892002, 33, 113, 288, 240
-0.892195, 33, 177, 288, 304
-0.893605, 161, 209, 416, 336
-0.894703, 241, 1, 368, 336
-0.895714, 193, 161, 448, 288
-0.897457, 1, 65, 256, 192
-0.90297, 273, 65, 400, 320
-0.904092, 257, 81, 500, 208
-0.905983, 161, 113, 416, 240
-0.908597, 97, 33, 352, 160
-0.913954, 1, 1, 256, 128
-0.915358, 17, 81, 144, 208
-0.918668, 193, 33, 448, 160
-0.919526, 161, 145, 288, 272
-0.919667, 177, 33, 240, 160
-0.922921, 97, 33, 224, 160
-0.923681, 81, 97, 144, 224
-0.925081, 209, 65, 272, 192
-0.925337, 105, 33, 168, 160
-0.9262, 81, 113, 208, 240
-0.927029, 33, 97, 96, 224
-0.927617, 161, 97, 288, 224
-0.928853, 209, 113, 336, 240
-0.929878, 353, 81, 480, 208
-0.929982, 353, 1, 480, 128
-0.930246, 177, 209, 304, 336
-0.930319, 225, 177, 352, 304
-0.930544, 145, 49, 208, 176
-0.9314, 201, 193, 264, 320
-0.93185, 169, 81, 232, 208
-0.932982, 145, 1, 208, 128
-0.933208, 1, 81, 64, 208
-0.933726, 57, 81, 120, 208
-0.934218, 185, 129, 248, 256
-0.934565, 1, 129, 128, 256
-0.934621, 81, 161, 208, 288
-0.934624, 177, 193, 240, 320
-0.935138, 145, 33, 272, 160
-0.936385, 1, 33, 64, 160
-0.936751, 337, 81, 400, 208
-0.937433, 345, 17, 408, 144
-0.937901, 289, 161, 416, 288
-0.939821, 385, 1, 448, 128
-0.939841, 49, 241, 112, 304
-0.939974, 17, 17, 144, 144
-0.940176, 313, 145, 376, 272
-0.940682, 257, 113, 320, 240
-0.940918, 353, 145, 416, 272
-0.940999, 281, 113, 344, 240
-0.941993, 225, 177, 288, 304
-0.942413, 81, 49, 144, 176
-0.942562, 81, 209, 208, 336
-0.9441, 161, 129, 224, 256
-0.944216, 305, 97, 432, 224
-0.944361, 137, 97, 200, 224
-0.9449, 377, 81, 440, 208
-0.9451, 433, 17, 496, 144
-0.945112, 201, 201, 264, 264
-0.945483, 105, 33, 168, 96
-0.945534, 209, 65, 336, 192
-0.945775, 49, 161, 112, 288
-0.946423, 81, 145, 144, 272
-0.946458, 49, 209, 112, 336
-0.946929, 281, 161, 344, 288
-0.947364, 257, 113, 384, 240
-0.947564, 217, 97, 280, 160
-0.948432, 153, 41, 216, 104
-0.948499, 401, 65, 464, 192
-0.948812, 33, 49, 96, 176
-0.948892, 81, 129, 144, 192
-0.949394, 193, 233, 256, 296
-0.94943, 209, 113, 272, 240
-0.949435, 201, 17, 264, 144
-0.949582, 1, 81, 64, 144
-0.949946, 273, 33, 400, 160
-0.950203, 169, 137, 232, 200
-0.950314, 145, 17, 208, 80
-0.950775, 177, 25, 240, 88
-0.951301, 433, 97, 496, 224
-0.951517, 73, 73, 136, 136
-0.952098, 33, 121, 96, 184
-0.952228, 105, 57, 168, 120
-0.952268, 177, 97, 240, 160
-0.952495, 73, 97, 136, 160
-0.952803, 1, 209, 128, 336
-0.952973, 185, 169, 248, 232
-0.953159, 25, 249, 88, 312
-0.953288, 113, 97, 176, 224
-0.95378, 409, 1, 472, 128
-0.95399, 337, 193, 400, 320
-0.954012, 337, 145, 400, 208
-0.954384, 273, 209, 400, 336
-0.954701, 25, 73, 88, 136
-0.954781, 257, 193, 320, 320
-0.954832, 297, 193, 360, 256
-0.954854, 233, 129, 296, 256
-0.955085, 313, 81, 376, 208
-0.955101, 297, 121, 360, 184
-0.955369, 145, 113, 208, 176
-0.956108, 185, 57, 248, 120
-0.956839, 249, 65, 312, 192
-0.957033, 313, 161, 376, 224
-0.957039, 17, 145, 80, 272
-0.957485, 353, 177, 416, 240
-0.957608, 249, 113, 312, 176
-0.957763, 169, 257, 232, 320
-0.957921, 81, 153, 144, 216
-0.958096, 225, 201, 288, 264
-0.958176, 161, 73, 224, 136
-0.958439, 1, 49, 64, 112
-0.958557, 113, 129, 176, 192
-0.95858, 401, 81, 464, 144
-0.959167, 257, 209, 500, 336
-0.959766, 369, 193, 432, 320
-0.959846, 1, 249, 64, 312
-0.959851, 425, 1, 488, 256
-0.959874, 161, 161, 224, 224
-0.960028, 177, 201, 240, 264
-0.960103, 25, 97, 88, 160
-0.960154, 121, 97, 184, 160
-0.960706, 353, 161, 480, 288
-0.961009, 65, 273, 128, 336
-0.9615, 273, 113, 336, 176
-0.961528, 369, 153, 432, 216
-0.961543, 225, 177, 288, 240
-0.962111, 177, 1, 240, 256
-0.962154, 49, 145, 112, 208
-0.962202, 273, 137, 336, 200
-0.962339, 129, 209, 256, 336
-0.962702, 9, 121, 72, 184
-0.962766, 193, 17, 320, 144
-0.962781, 153, 1, 216, 256
-0.962795, 193, 121, 256, 184
-0.962857, 345, 1, 408, 256
-0.963266, 49, 97, 112, 160
-0.963484, 209, 65, 272, 128
-0.963557, 17, 129, 144, 192
-0.963602, 129, 57, 192, 120
-0.963645, 169, 233, 232, 296
-0.963678, 377, 129, 440, 256
-0.963829, 41, 169, 104, 232
-0.964222, 57, 121, 120, 184
-0.964292, 153, 177, 216, 304
-0.964401, 337, 73, 400, 136
-0.964715, 337, 201, 400, 264
-0.964798, 321, 121, 384, 184
-0.965344, 217, 65, 280, 320
-0.965402, 281, 209, 344, 336
-0.965463, 49, 73, 112, 136
-0.965469, 217, 129, 280, 192
-0.9656, 265, 201, 328, 264
-0.965607, 329, 233, 392, 296
-0.965673, 209, 153, 272, 216
-0.965748, 65, 97, 192, 160
-0.965913, 401, 1, 464, 256
-0.966101, 369, 1, 432, 256
-0.966256, 217, 233, 280, 296
-0.966307, 145, 97, 272, 160
-0.96663, 33, 97, 64, 224
-0.966679, 113, 1, 176, 256
-0.967028, 425, 145, 488, 272
-0.967034, 49, 217, 112, 280
-0.967094, 57, 33, 120, 160
-0.967138, 129, 33, 256, 96
-0.967229, 145, 137, 208, 200
-0.967345, 73, 241, 104, 304
-0.967539, 321, 33, 384, 160
-0.967726, 157, 97, 188, 160
-0.967996, 345, 25, 408, 88
-0.96814, 273, 169, 336, 232
-0.968297, 189, 145, 220, 272
-0.968401, 209, 193, 240, 256
-0.968458, 17, 81, 144, 144
-0.968467, 349, 49, 380, 176
-0.968467, 401, 145, 464, 272
-0.968514, 205, 97, 236, 224
-0.968666, 313, 193, 376, 320
-0.968747, 25, 209, 88, 336
-0.968842, 209, 177, 240, 304
-0.968873, 161, 185, 288, 248
-0.969075, 1, 273, 64, 336
-0.969086, 1, 25, 64, 88
-0.969114, 81, 65, 144, 320
-0.969203, 189, 33, 220, 96
-0.96925, 177, 1, 240, 64
-0.969324, 185, 33, 216, 160
-0.969472, 73, 49, 136, 112
-0.969537, 41, 249, 72, 312
-0.969543, 197, 161, 228, 224
-0.969759, 393, 9, 456, 72
-0.969887, 329, 137, 360, 200
-0.969998, 73, 209, 136, 336
-0.970034, 9, 153, 72, 216
-0.970237, 1, 241, 128, 304
-0.970286, 321, 97, 384, 160
-0.970349, 225, 217, 352, 280
-0.970359, 241, 17, 304, 144
-0.970493, 97, 121, 224, 184
-0.970496, 1, 33, 64, 288
-0.970497, 81, 49, 208, 112
-0.970505, 241, 121, 368, 184
-0.970653, 45, 97, 76, 224
-0.970672, 121, 9, 184, 72
-0.970696, 353, 89, 480, 152
-0.970724, 65, 161, 192, 224
-0.970753, 249, 161, 312, 224
-0.97088, 185, 137, 216, 200
-0.971194, 417, 17, 480, 80
-0.971237, 365, 17, 396, 144
-0.971245, 361, 73, 424, 136
-0.971256, 97, 49, 128, 176
-0.971263, 177, 241, 304, 304
-0.971372, 61, 241, 92, 304
-0.971382, 97, 129, 128, 192
-0.971396, 245, 193, 276, 256
-0.971399, 1, 273, 128, 336
-0.971495, 201, 25, 264, 88
-0.971532, 61, 97, 92, 224
-0.971542, 5, 1, 36, 128
-0.971545, 373, 161, 404, 288
-0.971554, 101, 97, 132, 224
-0.971558, 225, 161, 352, 224
-0.971708, 233, 73, 296, 136
-0.971777, 37, 121, 68, 184
-0.971795, 25, 273, 88, 336
-0.971808, 73, 209, 104, 336
-0.971954, 369, 17, 496, 80
-0.971978, 321, 209, 448, 336
-0.972012, 361, 97, 424, 160
-0.97207, 209, 193, 336, 256
-0.972107, 397, 1, 428, 128
-0.97221, 17, 49, 144, 112
-0.972231, 257, 89, 320, 152
-0.972282, 161, 129, 288, 192
-0.972462, 173, 97, 204, 224
-0.972561, 221, 65, 252, 192
-0.972575, 237, 177, 268, 304
-0.97264, 369, 9, 432, 72
-0.972668, 201, 257, 264, 320
-0.972683, 109, 137, 140, 200
-0.972787, 289, 193, 416, 256
-0.972884, 65, 73, 192, 136
-0.972906, 233, 81, 264, 208
-0.972962, 201, 225, 232, 288
-0.97297, 73, 113, 104, 240
-0.97298, 241, 225, 304, 288
-0.973081, 97, 97, 160, 160
-0.973129, 189, 81, 220, 208
-0.973176, 17, 105, 144, 168
-0.97328, 281, 65, 344, 192
-0.973359, 113, 145, 240, 208
-0.973401, 177, 161, 304, 224
-0.973523, 241, 65, 304, 320
-0.973536, 69, 161, 100, 288
-0.973575, 305, 145, 432, 208
-0.973607, 217, 113, 248, 240
-0.973755, 41, 65, 104, 320
-0.973775, 257, 161, 288, 288
-0.973789, 185, 249, 216, 312
-0.973933, 129, 73, 256, 136
-0.973941, 153, 193, 216, 256
-0.974019, 193, 105, 320, 168
-0.974029, 417, 153, 480, 216
-0.974034, 45, 89, 76, 152
-0.974198, 29, 97, 60, 160
-0.974204, 81, 177, 144, 240
-0.974298, 265, 65, 328, 320
-0.974337, 81, 1, 144, 128
-0.974397, 85, 81, 116, 208
-0.974554, 113, 97, 144, 224
-0.974705, 81, 209, 144, 272
-0.974763, 269, 193, 300, 256
-0.974777, 9, 65, 40, 128
-0.974791, 433, 113, 496, 176
-0.974839, 169, 17, 200, 144
-0.974951, 29, 73, 60, 136
-0.974959, 21, 65, 52, 192
-0.975082, 1, 17, 32, 80
-0.975152, 1, 225, 64, 288
-0.975175, 233, 217, 264, 280
-0.975202, 113, 33, 144, 160
-0.975213, 113, 33, 144, 96
-0.975376, 81, 249, 208, 312
-0.975396, 417, 1, 448, 128
-0.975431, 205, 17, 236, 144
-0.975472, 97, 9, 224, 72
-0.975621, 173, 73, 204, 136
-0.975632, 349, 73, 380, 136
-0.975683, 13, 113, 44, 176
-0.975687, 1, 161, 128, 224
-0.975695, 169, 113, 200, 176
-0.975728, 69, 73, 100, 136
-0.975738, 229, 89, 260, 152
-0.975768, 177, 1, 240, 336
-0.975813, 197, 193, 228, 320
-0.975904, 345, 49, 408, 112
-0.975908, 297, 225, 360, 288
-0.975951, 181, 193, 212, 320
-0.975967, 93, 73, 124, 136
-0.975982, 333, 161, 364, 224
-0.975996, 61, 97, 92, 160
-0.976008, 129, 17, 160, 80
-0.976015, 93, 161, 124, 288
-0.97606, 161, 81, 192, 208
-0.976077, 25, 49, 88, 112
-0.976113, 321, 65, 384, 320
-0.976156, 209, 25, 240, 88
-0.976226, 157, 33, 188, 160
-0.976259, 73, 137, 104, 200
-0.976362, 85, 129, 116, 192
-0.976415, 145, 209, 272, 272
-0.97644, 281, 129, 312, 256
-0.976483, 361, 201, 424, 264
-0.976512, 33, 49, 64, 176
-0.976599, 173, 9, 204, 72
-0.976623, 21, 249, 52, 312
-0.976637, 249, 137, 312, 200
-0.97664, 81, 97, 112, 160
-0.976686, 233, 65, 264, 128
-0.976697, 1, 193, 64, 320
-0.976724, 133, 1, 164, 128
-0.976749, 441, 97, 472, 224
-0.976762, 213, 97, 244, 160
-0.976833, 89, 153, 120, 216
-0.976837, 57, 73, 88, 136
-0.97686, 369, 153, 400, 216
-0.97697, 353, 41, 384, 104
-0.977041, 289, 121, 416, 184
-0.977114, 381, 81, 412, 208
-0.977191, 209, 169, 240, 232
-0.977319, 245, 81, 276, 208
-0.977329, 69, 177, 100, 240
-0.977432, 137, 161, 200, 224
-0.97745, 73, 249, 136, 312
-0.977455, 73, 65, 104, 192
-0.977532, 273, 73, 400, 136
-0.977568, 161, 265, 288, 328
-0.977639, 333, 129, 364, 256
-0.977649, 5, 257, 36, 320
-0.977688, 205, 137, 236, 200
-0.978157, 377, 17, 408, 144
-0.978303, 365, 97, 396, 224
-0.978394, 345, 1, 408, 336
-0.978422, 317, 121, 348, 184
-0.978434, 421, 65, 452, 192
-0.978507, 321, 257, 384, 320
-0.978516, 297, 113, 328, 176
-0.978546, 81, 193, 208, 256
-0.978627, 61, 121, 92, 184
-0.978678, 353, 225, 416, 288
-0.978721, 153, 1, 216, 336
-0.978728, 221, 233, 252, 296
-0.978834, 245, 129, 276, 256
-0.978891, 17, 25, 144, 88
-0.978894, 189, 1, 220, 64
-0.978912, 313, 73, 376, 136
-0.978934, 109, 57, 140, 120
-0.978951, 217, 65, 248, 128
-0.979043, 313, 145, 344, 272
-0.979067, 145, 265, 208, 328
-0.979166, 301, 193, 332, 256
-0.979179, 21, 273, 52, 336
-0.979193, 273, 233, 400, 296
-0.97922, 221, 209, 252, 272
-0.979394, 33, 1, 96, 128
-0.979438, 369, 73, 400, 136
-0.979456, 105, 97, 136, 160
-0.979466, 321, 41, 384, 104
-0.979471, 305, 169, 432, 232
-0.979473, 437, 1, 468, 128
-0.979485, 221, 161, 252, 288
-0.97953, 433, 1, 496, 336
-0.979571, 121, 145, 184, 272
-0.979581, 257, 161, 288, 224
-0.979596, 53, 161, 84, 288
-0.979645, 81, 73, 112, 136
-0.979785, 13, 113, 44, 240
-0.97979, 177, 49, 208, 112
-0.979827, 345, 161, 376, 224
-0.979849, 177, 65, 304, 128
-0.979908, 141, 41, 172, 104
-0.979947, 5, 49, 36, 176
-0.980012, 233, 193, 264, 256
-0.980061, 313, 193, 344, 256
-0.9801, 185, 169, 216, 232
-0.980146, 1, 217, 128, 280
-0.980186, 89, 1, 152, 336
-0.980218, 361, 161, 392, 288
-0.980265, 381, 153, 412, 216
-0.9803, 241, 49, 304, 112
-0.980377, 465, 97, 496, 224
-0.980389, 1, 89, 32, 152
-0.980411, 449, 17, 480, 144
-0.98046, 77, 273, 108, 336
-0.980477, 53, 265, 84, 328
-0.980486, 201, 1, 264, 336
-0.980531, 5, 41, 36, 104
-0.980581, 141, 17, 172, 80
-0.980586, 157, 121, 188, 184
-0.980644, 453, 97, 484, 224
-0.98068, 217, 17, 248, 144
-0.980681, 317, 161, 348, 224
-0.980693, 49, 193, 112, 256
-0.98077, 241, 97, 272, 160
-0.980823, 393, 161, 456, 224
-0.980826, 353, 161, 480, 224
-0.980862, 293, 129, 324, 256
-0.980866, 241, 97, 368, 160
-0.980946, 433, 65, 496, 128
-0.981023, 289, 201, 320, 264
-0.981109, 177, 33, 304, 96
-0.981126, 369, 1, 432, 336
-0.981148, 269, 193, 300, 320
-0.981185, 293, 177, 324, 304
-0.981249, 161, 17, 192, 80
-0.98129, 357, 137, 388, 200
-0.981294, 345, 161, 376, 288
-0.981311, 353, 121, 480, 184
-0.981322, 421, 73, 452, 136
-0.981323, 1, 113, 32, 176
-0.981345, 173, 257, 204, 320
-0.981417, 469, 49, 500, 176
-0.98144, 385, 129, 416, 256
-0.98145, 121, 121, 152, 184
-0.981453, 97, 9, 160, 72
-0.981476, 345, 137, 376, 200
-0.981487, 273, 1, 400, 64
-0.981494, 309, 97, 340, 224
-0.981506, 197, 249, 228, 312
-0.981581, 361, 225, 392, 288
-0.981585, 225, 121, 256, 184
-0.981616, 1, 97, 32, 224
-0.981638, 129, 1, 192, 336
-0.981677, 425, 89, 488, 152
-0.981776, 145, 33, 176, 160
-0.981805, 65, 225, 192, 288
-0.981892, 145, 113, 176, 176
-0.981996, 369, 209, 496, 336
-0.982011, 373, 201, 404, 264
-0.98206, 393, 137, 456, 200
-0.982061, 21, 137, 52, 200
-0.982152, 41, 161, 72, 288
-0.982158, 305, 97, 432, 160
-0.982182, 1, 1, 64, 64
-0.982276, 225, 257, 288, 320
-0.982337, 305, 169, 336, 232
-0.982347, 453, 113, 484, 176
-0.982374, 345, 121, 408, 184
-0.982409, 381, 177, 412, 240
-0.982429, 181, 209, 212, 272
-0.982451, 29, 145, 60, 272
-0.982526, 253, 217, 284, 280
-0.982663, 273, 225, 336, 288
-0.982684, 257, 97, 288, 224
-0.982684, 197, 97, 228, 160
-0.982687, 161, 41, 192, 104
-0.982719, 393, 193, 456, 256
-0.982773, 325, 185, 356, 248
-0.982814, 273, 41, 400, 104
-0.982854, 353, 185, 384, 248
-0.982864, 85, 209, 116, 336
-0.982871, 173, 137, 204, 200
-0.982938, 345, 1, 408, 64
-0.983006, 225, 209, 256, 336
-0.983019, 333, 81, 364, 208
-0.98302, 273, 257, 400, 320
-0.983022, 73, 217, 104, 280
-0.983041, 97, 49, 128, 112
-0.983047, 1, 185, 128, 248
-0.983102, 49, 273, 176, 336
-0.983128, 297, 97, 360, 160
-0.983131, 85, 249, 116, 312
-0.98315, 81, 161, 112, 288
-0.983195, 349, 97, 380, 224
-0.983244, 125, 49, 156, 176
-0.983274, 129, 233, 256, 296
-0.983278, 33, 1, 96, 336
-0.983339, 321, 17, 448, 80
-0.983372, 321, 57, 448, 120
-0.983436, 177, 145, 208, 272
-0.983464, 145, 9, 272, 72
-0.983512, 145, 97, 176, 224
-0.983562, 225, 241, 352, 304
-0.983605, 233, 33, 264, 160
-0.983609, 61, 209, 92, 336
-0.983639, 49, 49, 80, 176
-0.983654, 113, 273, 240, 336
-0.98372, 409, 113, 472, 176
-0.983735, 265, 97, 296, 160
-0.983747, 49, 121, 80, 184
-0.983758, 189, 57, 220, 120
-0.983816, 1, 1, 64, 336
-0.983907, 357, 161, 388, 224
-0.983962, 105, 153, 168, 216
-0.983982, 113, 169, 240, 232
-0.983985, 45, 161, 76, 224
-0.984003, 393, 193, 456, 320
-0.984004, 61, 49, 92, 176
-0.984084, 49, 49, 112, 112
-0.984109, 433, 89, 464, 152
-0.98415, 17, 17, 48, 144
-0.984151, 321, 1, 384, 336
-0.984197, 153, 65, 184, 128
-0.98421, 401, 81, 432, 208
-0.984266, 465, 113, 496, 176
-0.984305, 97, 209, 160, 336
-0.984311, 281, 145, 312, 208
-0.984378, 145, 89, 176, 152
-0.984425, 369, 257, 432, 320
-0.984456, 337, 193, 464, 256
-0.984475, 221, 185, 252, 248
-0.984487, 185, 113, 216, 176
-0.9845, 129, 41, 160, 104
-0.98459, 49, 225, 80, 288
-0.984603, 97, 257, 160, 320
-0.984607, 169, 161, 200, 224
-0.984636, 329, 113, 360, 176
-0.984653, 281, 113, 312, 176
-0.984706, 193, 9, 320, 72
-0.984784, 353, 1, 384, 128
-0.984804, 253, 105, 284, 168
-0.984839, 381, 209, 412, 336
-0.984855, 137, 241, 200, 304
-0.984973, 357, 209, 388, 336
-0.984999, 257, 185, 288, 248
-0.985068, 25, 49, 56, 112
-0.98507, 245, 145, 276, 208
-0.985136, 133, 129, 164, 192
-0.985283, 289, 177, 320, 240
-0.985314, 233, 129, 264, 256
-0.98541, 341, 201, 372, 264
-0.985443, 121, 65, 152, 128
-0.985547, 273, 265, 336, 328
-0.985692, 269, 113, 300, 240
-0.985728, 257, 209, 288, 336
-0.985857, 385, 217, 448, 280
-0.985933, 425, 41, 488, 104
-0.985943, 313, 9, 376, 72
-0.985951, 393, 1, 456, 336
-0.986177, 117, 145, 148, 272
-0.986224, 297, 65, 360, 320
-0.986416, 17, 1, 144, 64
-0.986439, 305, 193, 336, 320
-0.986527, 133, 113, 164, 240
-0.986707, 65, 1, 128, 336
-0.98674, 385, 57, 448, 120
-0.986803, 25, 225, 88, 288
-0.987149, 325, 177, 356, 304
-0.987169, 129, 209, 192, 336
-0.987233, 85, 33, 116, 160
-0.987324, 321, 217, 448, 280
-0.987378, 429, 145, 460, 272
-0.987417, 225, 65, 352, 128
-0.987512, 169, 209, 200, 336
-0.987591, 81, 129, 144, 160
-0.987679, 49, 245, 112, 276
-0.987743, 33, 217, 288, 280
-0.988151, 161, 129, 192, 256
-0.988153, 201, 209, 264, 240
-0.988267, 241, 201, 304, 232
-0.988319, 193, 245, 256, 276
-0.988378, 25, 125, 88, 156
-0.988407, 49, 209, 80, 336
-0.988418, 105, 41, 168, 72
-0.988537, 33, 185, 288, 248
-0.988544, 217, 101, 280, 132
-0.988547, 137, 21, 200, 52
-0.988577, 201, 197, 264, 228
-0.988577, 1, 129, 256, 192
-0.988586, 249, 1, 312, 336
-0.988616, 73, 101, 136, 132
-0.988679, 405, 129, 436, 256
-0.988683, 281, 177, 312, 304
-0.988713, 177, 33, 240, 64
-0.988723, 313, 149, 376, 180
-0.988795, 169, 253, 232, 284
-0.988851, 257, 217, 320, 248
-0.988874, 225, 213, 288, 244
-0.988898, 177, 117, 240, 148
-0.988899, 177, 185, 240, 216
-0.988948, 1, 81, 64, 112
-0.988951, 145, 37, 208, 68
-0.989036, 177, 269, 240, 300
-0.989045, 17, 253, 80, 284
-0.989048, 1, 225, 500, 288
-0.989051, 193, 209, 448, 272
-0.989085, 441, 145, 472, 272
-0.989099, 177, 201, 240, 232
-0.989101, 169, 153, 232, 184
-0.989129, 265, 49, 296, 176
-0.989195, 193, 233, 256, 264
-0.989222, 105, 61, 168, 92
-0.989226, 145, 121, 208, 152
-0.989232, 313, 161, 376, 192
-0.989248, 161, 169, 416, 232
-0.989274, 257, 81, 500, 144
-0.989275, 33, 81, 288, 144
-0.989302, 401, 85, 464, 116
-0.989312, 185, 133, 248, 164
-0.989315, 257, 117, 320, 148
-0.989337, 73, 161, 136, 192
-0.989357, 33, 241, 288, 304
-0.989399, 273, 145, 336, 176
-0.989404, 57, 77, 120, 108
-0.989417, 193, 221, 256, 252
-0.989424, 25, 81, 88, 112
-0.989444, 329, 177, 392, 208
-0.989445, 321, 97, 352, 224
-0.989452, 209, 265, 336, 328
-0.989466, 145, 49, 208, 80
-0.989498, 393, 193, 424, 320
-0.989572, 113, 101, 176, 132
-0.989587, 1, 117, 64, 148
-0.989597, 265, 201, 328, 232
-0.989599, 1, 65, 64, 96
-0.989609, 297, 137, 360, 168
-0.989626, 337, 149, 400, 180
-0.989637, 33, 269, 96, 300
-0.989642, 337, 161, 400, 192
-0.989655, 297, 193, 360, 224
-0.989742, 129, 113, 384, 176
-0.989754, 169, 173, 232, 204
-0.989758, 161, 17, 224, 48
-0.989777, 49, 117, 112, 148
-0.9898, 81, 113, 144, 144
-0.989824, 137, 105, 200, 136
-0.989826, 169, 53, 232, 84
-0.989836, 89, 149, 152, 180
-0.989849, 1, 149, 64, 180
-0.989859, 145, 133, 208, 164
-0.989878, 193, 97, 256, 128
-0.989884, 113, 121, 176, 152
-0.989925, 1, 81, 500, 144
-0.989942, 81, 173, 144, 204
-0.989978, 41, 97, 104, 128
-0.989984, 201, 257, 264, 288
-0.990001, 161, 233, 416, 296
-0.990017, 65, 265, 320, 328
-0.990017, 1, 105, 256, 168
-0.990022, 161, 93, 224, 124
-0.990025, 393, 13, 456, 44
-0.99004, 145, 65, 208, 96
-0.990044, 1, 49, 256, 112
-0.990056, 233, 225, 296, 256
-0.990063, 1, 161, 500, 224
-0.990065, 281, 121, 344, 152
-0.990073, 249, 129, 312, 160
-0.990077, 113, 141, 176, 172
-0.990091, 201, 185, 264, 216
-0.990117, 353, 189, 416, 220
-0.990197, 1, 45, 64, 76
-0.9902, 57, 273, 120, 304
-0.990211, 337, 81, 400, 112
-0.990249, 81, 89, 144, 120
-0.990256, 49, 233, 112, 264
-0.990262, 49, 153, 112, 184
-0.990279, 225, 41, 352, 104
-0.990308, 17, 101, 80, 132
-0.990311, 113, 29, 176, 60
-0.990319, 257, 105, 320, 136
-0.99033, 1, 145, 32, 272
-0.990363, 1, 137, 500, 200
-0.990371, 201, 65, 264, 96
-0.990378, 225, 189, 288, 220
-0.990391, 401, 97, 464, 128
-0.99042, 369, 209, 400, 336
-0.99042, 1, 137, 64, 168
-0.990427, 289, 157, 352, 188
-0.990438, 329, 189, 392, 220
-0.990448, 209, 141, 272, 172
-0.990462, 369, 177, 432, 208
-0.99048, 361, 97, 424, 128
-0.990492, 257, 17, 500, 80
-0.990501, 161, 257, 416, 320
-0.990546, 369, 161, 432, 192
-0.990555, 113, 89, 176, 120
-0.990559, 353, 241, 480, 304
-0.990566, 1, 249, 500, 312
-0.990566, 361, 85, 424, 116
-0.990597, 41, 177, 104, 208
-0.990602, 81, 77, 144, 108
-0.990611, 209, 129, 272, 160
-0.990653, 121, 153, 184, 184
-0.990691, 217, 89, 280, 120
-0.990711, 1, 41, 500, 104
-0.990712, 217, 113, 280, 144
-0.99072, 161, 9, 416, 72
-0.990724, 1, 25, 256, 88
-0.990763, 9, 285, 72, 316
-0.990777, 105, 73, 168, 104
-0.990777, 353, 265, 480, 328
-0.990799, 161, 105, 224, 136
-0.990808, 33, 141, 96, 172
-0.990824, 81, 65, 144, 96
-0.990859, 241, 93, 304, 124
-0.990876, 297, 173, 360, 204
-0.99089, 1, 201, 500, 264
-0.9909, 353, 201, 416, 232
-0.990902, 209, 169, 272, 200
-0.99091, 97, 33, 352, 96
-0.990927, 169, 241, 232, 272
-0.990932, 153, 265, 216, 296
-0.990935, 341, 1, 372, 128
-0.990939, 161, 145, 416, 208
-0.990944, 337, 229, 400, 260
-0.990968, 297, 81, 328, 208
-0.990974, 25, 165, 88, 196
-0.990987, 193, 53, 256, 84
-0.990988, 1, 33, 64, 64
-0.991011, 337, 241, 400, 272
-0.991011, 65, 285, 128, 316
-0.991017, 209, 153, 272, 184
-0.99104, 273, 1, 336, 336
-0.991051, 161, 229, 224, 260
-0.991053, 321, 133, 384, 164
-0.991069, 273, 169, 336, 200
-0.991082, 281, 81, 312, 208
-0.991084, 161, 213, 224, 244
-0.991112, 337, 101, 400, 132
-0.991113, 33, 161, 288, 224
-0.991121, 161, 57, 416, 120
-0.991131, 169, 81, 232, 112
-0.991141, 305, 209, 368, 240
-0.991147, 233, 69, 296, 100
-0.991174, 201, 29, 264, 60
-0.991206, 369, 21, 432, 52
-0.991212, 29, 1, 60, 128
-0.991223, 369, 217, 496, 280
-0.991226, 81, 233, 144, 264
-0.991228, 97, 161, 160, 192
-0.991239, 25, 113, 88, 144
-0.991241, 217, 237, 280, 268
-0.991249, 281, 217, 344, 248
-0.991256, 273, 17, 336, 144
-0.99133, 245, 33, 276, 160
-0.991589, 257, 153, 500, 216
-0.991709, 369, 65, 496, 128
-0.991716, 453, 145, 484, 272
-0.991942, 185, 261, 216, 292
-0.991975, 37, 209, 68, 336
-0.992062, 157, 105, 188, 136
-0.992098, 185, 37, 216, 68
-0.992121, 1, 273, 500, 336
-0.992173, 1, 1, 256, 64
-0.992181, 209, 205, 240, 236
-0.992215, 213, 117, 244, 148
-0.992239, 201, 249, 232, 280
-0.992257, 417, 161, 448, 288
-0.99229, 109, 153, 140, 184
-0.992308, 209, 29, 240, 60
-0.992325, 205, 101, 236, 132
-0.992342, 17, 117, 48, 148
-0.992344, 185, 153, 216, 184
-0.992346, 357, 149, 388, 180
-0.992352, 241, 213, 272, 244
-0.992382, 81, 165, 208, 196
-0.992391, 277, 205, 308, 236
-0.992399, 81, 101, 112, 132
-0.992403, 197, 173, 228, 204
-0.992426, 1, 25, 32, 56
-0.992427, 69, 97, 100, 128
-0.99243, 257, 129, 500, 192
-0.99243, 97, 93, 128, 124
-0.992432, 73, 237, 104, 268
-0.992432, 329, 149, 360, 180
-0.992442, 265, 213, 296, 244
-0.992452, 209, 193, 240, 224
-0.992452, 181, 249, 212, 280
-0.992456, 37, 249, 68, 280
-0.99246, 221, 93, 252, 124
-0.992462, 93, 77, 124, 108
-0.99247, 421, 81, 452, 112
-0.992471, 85, 129, 116, 160
-0.99248, 9, 69, 40, 100
-0.992485, 33, 153, 160, 184
-0.992493, 229, 213, 260, 244
-0.992494, 1, 249, 128, 280
-0.9925, 65, 117, 96, 148
-0.992506, 105, 161, 136, 288
-0.992513, 77, 277, 108, 308
-0.992519, 133, 41, 164, 72
-0.992523, 37, 125, 68, 156
-0.992523, 29, 77, 60, 108
-0.992525, 345, 149, 376, 180
-0.992528, 297, 1, 360, 336
-0.992529, 337, 161, 368, 192
-0.992536, 229, 229, 260, 260
-0.992536, 245, 197, 276, 228
-0.992542, 65, 173, 96, 204
-0.992545, 261, 201, 292, 232
-0.992546, 197, 161, 228, 192
-0.992549, 201, 237, 232, 268
-0.992558, 229, 201, 260, 232
-0.99256, 369, 153, 400, 184
-0.992566, 121, 141, 152, 172
-0.992571, 9, 81, 40, 112
-0.992575, 5, 257, 36, 288
-0.992585, 173, 37, 204, 68
-0.992585, 129, 89, 384, 152
-0.992587, 21, 253, 52, 284
-0.992588, 173, 129, 204, 160
-0.992602, 185, 17, 216, 48
-0.992606, 145, 105, 272, 136
-0.992606, 181, 165, 212, 196
-0.99261, 265, 109, 296, 140
-0.992612, 361, 169, 392, 200
-0.992613, 249, 97, 280, 128
-0.992618, 109, 133, 140, 164
-0.992618, 89, 169, 120, 200
-0.99262, 97, 153, 128, 184
-0.99263, 5, 117, 36, 148
-0.992631, 325, 161, 356, 192
-0.992631, 169, 17, 200, 48
-0.992645, 233, 73, 264, 104
-0.992649, 197, 133, 228, 164
-0.992654, 129, 29, 160, 60
-0.992657, 5, 45, 36, 76
-0.992659, 13, 209, 44, 336
-0.992663, 73, 17, 104, 144
-0.992664, 161, 117, 192, 148
-0.99267, 157, 45, 188, 76
-0.992675, 1, 285, 32, 316
-0.992683, 13, 137, 44, 168
-0.992694, 65, 77, 96, 108
-0.992695, 229, 61, 260, 92
-0.992699, 109, 121, 140, 152
-0.992699, 53, 109, 84, 140
-0.992701, 225, 1, 288, 336
-0.99271, 329, 133, 360, 164
-0.992715, 17, 149, 48, 180
-0.992716, 137, 53, 168, 84
-0.99272, 113, 41, 144, 72
-0.992726, 5, 57, 36, 88
-0.992737, 193, 121, 224, 152
-0.992737, 109, 61, 140, 92
-0.992738, 1, 145, 32, 176
-0.992745, 369, 85, 400, 116
-0.992745, 349, 161, 380, 192
-0.992747, 253, 217, 284, 248
-0.992751, 21, 285, 52, 316
-0.992757, 141, 21, 172, 52
-0.992763, 305, 197, 336, 228
-0.99277, 129, 129, 160, 160
-0.992774, 225, 189, 256, 220
-0.992776, 217, 241, 248, 272
-0.992778, 317, 149, 348, 180
-0.992782, 381, 97, 412, 128
-0.992783, 1, 17, 500, 80
-0.992785, 17, 81, 144, 112
-0.992786, 197, 45, 228, 76
-0.992788, 157, 93, 188, 124
-0.992793, 177, 117, 208, 148
-0.992797, 349, 81, 380, 112
-0.992802, 349, 185, 380, 216
-0.992804, 257, 185, 500, 248
-0.992804, 57, 241, 88, 272
-0.992804, 77, 113, 108, 144
-0.992807, 181, 141, 212, 172
-0.992808, 317, 137, 348, 168
-0.99281, 49, 253, 80, 284
-0.992816, 293, 193, 324, 224
-0.992816, 209, 161, 240, 192
-0.992819, 325, 193, 356, 224
-0.992819, 277, 217, 308, 248
-0.992822, 185, 201, 216, 232
-0.992824, 117, 165, 148, 196
-0.992825, 337, 173, 368, 204
-0.992827, 109, 73, 140, 104
-0.992832, 369, 189, 400, 220
-0.992832, 193, 101, 224, 132
-0.992837, 297, 121, 328, 152
-0.992838, 369, 97, 400, 128
-0.99284, 217, 129, 248, 160
-0.992843, 217, 65, 248, 96
-0.992843, 97, 129, 128, 160
-0.992844, 285, 117, 316, 148
-0.99285, 25, 105, 56, 136
-0.992852, 45, 169, 76, 200
-0.992854, 1, 13, 32, 44
-0.992855, 209, 225, 240, 256
-0.992857, 125, 61, 156, 92
-0.992859, 129, 17, 160, 48
-0.992859, 293, 209, 324, 240
-0.992862, 53, 121, 84, 152
-0.992862, 229, 245, 260, 276
-0.992865, 197, 33, 228, 64
-0.992906, 353, 93, 480, 124
-0.993013, 177, 157, 304, 188
-0.993039, 465, 145, 496, 272
-0.99308, 111, 129, 126, 192
-0.993137, 17, 137, 144, 168
-0.993163, 405, 177, 436, 304
-0.993204, 345, 209, 376, 336
-0.993254, 65, 97, 192, 128
-0.993315, 257, 149, 384, 180
-0.993354, 161, 249, 288, 280
-0.993384, 285, 33, 316, 160
-0.99343, 43, 249, 58, 312
-0.993434, 65, 109, 192, 140
-0.993473, 191, 33, 206, 96
-0.993476, 17, 121, 144, 152
-0.993487, 25, 193, 56, 320
-0.993497, 161, 201, 288, 232
-0.993522, 353, 17, 480, 48
-0.993547, 65, 241, 80, 304
-0.99356, 97, 137, 224, 168
-0.993571, 469, 1, 500, 128
-0.993577, 205, 161, 220, 224
-0.99358, 1, 269, 128, 300
-0.99364, 157, 209, 188, 336
-0.993656, 97, 1, 128, 128
-0.993659, 1, 105, 500, 168
-0.993662, 161, 181, 288, 212
-0.993675, 161, 117, 288, 148
-0.993676, 97, 209, 128, 336
-0.993697, 161, 141, 288, 172
-0.993724, 121, 129, 136, 192
-0.993743, 113, 149, 240, 180
-0.993745, 187, 9, 202, 72
-0.99375, 97, 85, 224, 116
-0.993764, 87, 241, 102, 304
-0.993819, 97, 21, 224, 52
-0.993823, 225, 125, 352, 156
-0.993842, 257, 161, 384, 192
-0.993852, 65, 125, 192, 156
-0.993866, 71, 241, 86, 304
-0.993906, 145, 93, 272, 124
-0.993926, 207, 233, 222, 296
-0.993941, 33, 97, 48, 160
-0.993962, 225, 97, 240, 160
-0.993966, 193, 213, 320, 244
-0.993981, 329, 129, 344, 192
-0.993982, 3, 97, 18, 160
-0.993984, 257, 189, 384, 220
-0.994006, 39, 121, 54, 184
-0.994051, 73, 73, 88, 136
-0.994054, 81, 41, 208, 72
-0.994059, 187, 257, 202, 320
-0.994073, 113, 125, 240, 156
-0.994088, 81, 253, 208, 284
-0.994093, 81, 269, 208, 300
-0.994113, 187, 137, 202, 200
-0.994127, 185, 33, 200, 96
-0.994136, 17, 93, 144, 124
-0.994136, 345, 137, 360, 200
-0.994169, 161, 129, 288, 160
-0.994186, 305, 149, 432, 180
-0.994187, 193, 101, 320, 132
-0.994204, 161, 233, 288, 264
-0.994227, 1, 169, 128, 200
-0.994241, 161, 261, 288, 292
-0.994269, 101, 121, 116, 184
-0.994311, 211, 193, 226, 256
-0.994313, 85, 129, 100, 192
-0.994315, 239, 65, 254, 128
-0.994323, 417, 113, 448, 240
-0.994324, 57, 241, 72, 304
-0.994331, 263, 161, 278, 224
-0.99434, 353, 161, 368, 224
-0.994362, 197, 33, 212, 96
-0.994363, 77, 241, 92, 304
-0.994365, 355, 49, 370, 112
-0.994378, 85, 73, 100, 136
-0.994383, 17, 105, 144, 136
-0.994399, 81, 61, 208, 92
-0.994402, 49, 241, 64, 304
-0.994403, 381, 145, 396, 208
-0.994407, 187, 113, 202, 176
-0.994412, 85, 97, 100, 160
-0.994414, 91, 153, 106, 216
-0.994428, 45, 121, 60, 184
-0.994438, 35, 73, 50, 136
-0.99444, 305, 161, 432, 192
-0.994459, 177, 121, 192, 184
-0.994504, 145, 33, 272, 64
-0.994525, 197, 241, 212, 304
-0.994554, 151, 33, 166, 96
-0.994582, 225, 225, 352, 256
-0.994605, 91, 129, 106, 192
-0.994611, 345, 161, 360, 224
-0.994623, 113, 41, 128, 104
-0.994629, 237, 217, 252, 280
-0.994631, 257, 41, 500, 104
-0.994662, 1, 281, 128, 312
-0.994665, 211, 161, 226, 224
-0.994672, 17, 57, 144, 88
-0.994723, 375, 161, 390, 224
-0.99476, 373, 185, 388, 248
-0.994773, 159, 89, 174, 152
-0.994777, 257, 173, 384, 204
-0.994779, 3, 73, 18, 136
-0.994789, 273, 205, 400, 236
-0.994791, 169, 97, 184, 160
-0.994811, 337, 137, 352, 200
-0.994824, 385, 1, 416, 256
-0.994824, 219, 121, 234, 184
-0.994824, 209, 201, 336, 232
-0.994827, 77, 105, 92, 168
-0.99483, 193, 9, 208, 72
-0.994831, 61, 81, 76, 144
-0.994837, 81, 201, 208, 232
-0.994837, 305, 189, 432, 220
-0.994839, 241, 137, 368, 168
-0.994839, 49, 89, 64, 152
-0.994891, 1, 237, 128, 268
-0.994892, 107, 57, 122, 120
-0.994895, 233, 65, 248, 128
-0.994904, 145, 213, 272, 244
-0.99494, 247, 193, 262, 256
-0.994963, 181, 9, 196, 72
-0.994966, 113, 89, 128, 152
-0.994967, 37, 249, 52, 312
-0.994968, 337, 81, 464, 112
-0.99497, 313, 185, 328, 248
-0.994972, 361, 161, 376, 224
-0.994985, 79, 73, 94, 136
-0.994985, 17, 69, 144, 100
-0.994986, 65, 189, 192, 220
-0.994996, 257, 193, 272, 256
-0.994998, 177, 169, 304, 200
-0.995032, 1, 45, 128, 76
-0.995041, 153, 113, 168, 176
-0.99507, 353, 137, 368, 200
-0.995074, 65, 73, 192, 104
-0.995075, 129, 53, 256, 84
-0.995077, 67, 73, 82, 136
-0.995091, 321, 173, 448, 204
-0.995098, 457, 1, 488, 256
-0.995109, 335, 161, 350, 224
-0.995136, 199, 153, 214, 216
-0.995147, 229, 121, 244, 184
-0.995148, 179, 73, 194, 136
-0.995166, 219, 97, 234, 160
-0.99518, 209, 25, 224, 88
-0.99519, 285, 113, 300, 176
-0.995211, 125, 33, 140, 96
-0.995212, 91, 105, 106, 168
-0.995217, 373, 73, 388, 136
-0.995225, 29, 73, 44, 136
-0.995237, 445, 1, 476, 256
-0.99524, 225, 209, 240, 272
-0.995242, 241, 113, 368, 144
-0.995242, 41, 97, 56, 160
-0.995253, 361, 41, 376, 104
-0.995258, 27, 113, 42, 176
-0.995259, 353, 105, 480, 136
-0.995263, 81, 177, 208, 208
-0.995265, 289, 241, 416, 272
-0.995274, 257, 105, 500, 168
-0.995275, 17, 301, 144, 332
-0.995281, 247, 225, 262, 288
-0.995287, 9, 89, 24, 152
-0.995298, 181, 257, 196, 320
-0.99531, 177, 33, 208, 288
-0.995322, 273, 201, 288, 264
-0.995331, 67, 265, 82, 328
-0.995337, 55, 73, 70, 136
-0.995338, 19, 113, 34, 176
-0.995343, 193, 137, 208, 200
-0.995345, 65, 237, 192, 268
-0.99535, 161, 113, 176, 176
-0.995356, 93, 73, 108, 136
-0.995363, 231, 225, 246, 288
-0.995373, 41, 73, 56, 136
-0.995375, 279, 193, 294, 256
-0.995376, 263, 185, 278, 248
-0.995376, 145, 81, 272, 112
-0.995386, 367, 193, 382, 256
-0.995387, 71, 97, 86, 160
-0.99542, 221, 169, 236, 232
-0.995425, 329, 153, 344, 216
-0.995432, 93, 249, 108, 312
-0.995444, 105, 153, 120, 216
-0.995448, 289, 137, 416, 168
-0.995449, 127, 137, 142, 200
-0.995449, 3, 249, 18, 312
-0.995464, 185, 57, 200, 120
-0.995477, 119, 153, 134, 216
-0.995488, 51, 121, 66, 184
-0.995509, 245, 57, 260, 120
-0.995515, 33, 137, 48, 200
-0.995523, 219, 65, 234, 128
-0.99553, 209, 189, 336, 220
-0.995533, 383, 169, 398, 232
-0.995533, 225, 65, 256, 320
-0.995538, 367, 33, 382, 96
-0.995544, 177, 69, 304, 100
-0.995544, 79, 273, 94, 336
-0.995554, 161, 273, 288, 304
-0.995561, 203, 25, 218, 88
-0.995573, 369, 161, 384, 224
-0.995586, 19, 249, 34, 312
-0.995589, 193, 89, 320, 120
-0.995592, 433, 1, 464, 256
-0.995603, 359, 73, 374, 136
-0.995649, 251, 97, 266, 160
-0.995658, 369, 29, 496, 60
-0.995666, 183, 161, 198, 224
-0.995674, 215, 249, 230, 312
-0.995681, 193, 29, 320, 60
-0.99569, 303, 113, 318, 176
-0.995691, 85, 177, 100, 240
-0.995693, 111, 153, 126, 216
-0.995693, 9, 265, 24, 328
-0.995694, 319, 113, 334, 176
-0.995706, 273, 101, 400, 132
-0.99572, 263, 105, 278, 168
-0.995738, 305, 217, 432, 248
-0.995741, 221, 145, 236, 208
-0.995749, 257, 249, 500, 312
-0.995766, 201, 65, 232, 320
-0.995794, 289, 253, 416, 284
-0.995801, 361, 1, 392, 256
-0.995808, 17, 29, 144, 60
-0.995911, 433, 49, 464, 176
-0.995929, 397, 1, 428, 256
-0.995935, 421, 1, 452, 256
-0.995936, 89, 33, 120, 288
-0.995941, 81, 213, 208, 244
-0.995983, 273, 17, 400, 48
-0.995985, 349, 1, 380, 256
-0.995987, 209, 241, 336, 272
-0.996002, 273, 81, 400, 112
-0.99602, 353, 161, 480, 192
-0.996085, 409, 1, 440, 256
-0.996129, 9, 1, 40, 256
-0.996161, 189, 1, 220, 256
-0.996205, 129, 161, 256, 192
-0.996236, 209, 261, 336, 292
-0.996262, 1, 181, 128, 212
-0.996273, 69, 65, 100, 320
-0.996293, 49, 285, 176, 316
-0.996331, 273, 29, 400, 60
-0.996335, 113, 229, 240, 260
-0.996345, 353, 141, 480, 172
-0.996384, 257, 61, 384, 92
-0.9964, 289, 229, 416, 260
-0.996409, 141, 1, 172, 256
-0.996433, 321, 201, 448, 232
-0.996447, 1, 205, 128, 236
-0.99645, 1, 193, 128, 224
-0.996474, 257, 301, 384, 332
-0.996505, 97, 293, 224, 324
-0.99652, 273, 265, 400, 296
-0.996556, 213, 65, 244, 320
-0.996565, 109, 1, 140, 256
-0.996569, 21, 33, 52, 288
-0.996614, 165, 1, 196, 256
-0.996621, 273, 41, 400, 72
-0.996625, 273, 289, 400, 320
-0.996651, 373, 1, 404, 256
-0.996654, 145, 17, 272, 48
-0.996671, 289, 125, 416, 156
-0.996678, 289, 113, 416, 144
-0.996715, 17, 17, 144, 48
-0.996739, 33, 33, 64, 288
-0.996778, 249, 65, 280, 320
-0.99686, 97, 305, 224, 336
-0.996869, 65, 225, 192, 256
-0.996881, 125, 149, 140, 180
-0.996898, 469, 1, 500, 256
-0.9969, 113, 241, 240, 272
-0.996905, 321, 69, 448, 100
-0.996921, 153, 1, 184, 256
-0.996948, 205, 161, 220, 192
-0.996983, 97, 281, 224, 312
-0.997002, 89, 97, 104, 128
-0.997006, 1, 217, 128, 248
-0.997018, 193, 57, 320, 88
-0.997055, 167, 105, 182, 136
-0.997064, 187, 37, 202, 68
-0.997065, 193, 37, 208, 68
-0.997097, 321, 1, 448, 32
-0.997099, 205, 237, 220, 268
-0.9971, 321, 29, 448, 60
-0.997102, 193, 41, 320, 72
-0.997113, 359, 149, 374, 180
-0.997119, 269, 213, 284, 244
-0.997127, 369, 41, 496, 104
-0.997142, 273, 277, 400, 308
-0.997149, 129, 1, 160, 256
-0.997172, 353, 153, 368, 184
-0.997174, 123, 137, 138, 168
-0.997181, 185, 261, 200, 292
-0.997182, 225, 117, 240, 148
-0.997186, 343, 149, 358, 180
-0.997187, 189, 17, 204, 48
-0.997203, 353, 185, 480, 216
-0.997207, 145, 289, 272, 320
-0.99721, 207, 29, 222, 60
-0.997214, 337, 229, 464, 260
-0.997215, 209, 253, 224, 284
-0.997226, 237, 65, 268, 320
-0.997234, 257, 273, 500, 336
-0.997238, 285, 201, 300, 232
-0.99727, 199, 37, 214, 68
-0.99727, 185, 133, 200, 164
-0.997281, 353, 169, 368, 200
-0.997284, 237, 229, 252, 260
-0.997295, 161, 101, 176, 132
-0.997299, 97, 9, 224, 40
-0.997315, 85, 233, 100, 264
-0.997342, 119, 149, 134, 180
-0.997344, 183, 21, 198, 52
-0.99735, 281, 65, 312, 320
-0.997351, 197, 261, 212, 292
-0.997355, 217, 105, 232, 136
-0.997359, 197, 157, 212, 188
-0.997361, 49, 253, 64, 284
-0.997364, 343, 161, 358, 192
-0.997365, 17, 117, 32, 148
-0.99737, 199, 245, 214, 276
-0.997375, 125, 161, 140, 192
-0.997383, 215, 193, 230, 224
-0.997387, 187, 165, 202, 196
-0.997389, 211, 101, 226, 132
-0.997421, 179, 129, 194, 160
-0.997427, 103, 157, 118, 188
-0.997428, 89, 129, 104, 160
-0.997437, 375, 193, 390, 224
-0.997438, 113, 153, 128, 184
-0.997439, 113, 189, 240, 220
-0.997442, 321, 41, 448, 72
-0.997454, 39, 257, 54, 288
-0.997457, 65, 109, 80, 140
-0.997464, 33, 77, 48, 108
-0.997479, 129, 65, 256, 96
-0.997488, 95, 97, 110, 128
-0.997504, 35, 129, 50, 160
-0.997504, 243, 213, 258, 244
-0.997511, 119, 161, 134, 192
-0.997533, 113, 93, 128, 124
-0.997533, 7, 253, 22, 284
-0.997546, 153, 53, 168, 84
-0.997549, 327, 141, 342, 172
-0.997562, 217, 125, 232, 156
-0.997573, 193, 17, 320, 48
-0.997584, 73, 121, 88, 152
-0.997584, 279, 205, 294, 236
-0.997586, 263, 161, 278, 192
-0.99759, 33, 257, 48, 288
-0.997592, 237, 217, 252, 248
-0.997604, 269, 33, 300, 288
-0.997612, 3, 101, 18, 132
-0.997615, 45, 65, 76, 320
-0.997624, 337, 241, 464, 272
-0.997625, 245, 65, 260, 96
-0.997632, 247, 197, 262, 228
-0.997656, 177, 29, 192, 60
-0.997663, 227, 133, 242, 164
-0.997672, 353, 117, 480, 148
-0.997672, 223, 101, 238, 132
-0.997682, 3, 145, 18, 176
-0.997683, 151, 41, 166, 72
-0.997686, 57, 249, 72, 280
-0.997698, 335, 161, 350, 192
-0.997701, 125, 125, 140, 156
-0.997709, 327, 153, 342, 184
-0.997709, 209, 201, 224, 232
-0.997712, 211, 165, 226, 196
-0.997716, 331, 129, 346, 160
-0.997724, 161, 5, 288, 36
-0.997734, 83, 133, 98, 164
-0.997734, 381, 173, 396, 204
-0.997736, 73, 105, 88, 136
-0.997737, 29, 125, 44, 156
-0.997739, 171, 17, 186, 48
-0.997748, 261, 217, 276, 248
-0.997754, 173, 125, 188, 156
-0.997762, 25, 137, 40, 168
-0.997765, 113, 57, 128, 88
-0.997768, 75, 273, 90, 304
-0.997769, 155, 101, 170, 132
-0.997769, 255, 93, 270, 124
-0.997775, 181, 173, 196, 204
-0.997777, 185, 117, 200, 148
-0.997777, 57, 33, 88, 288
-0.997779, 119, 117, 134, 148
-0.997782, 83, 97, 98, 128
-0.997786, 115, 81, 130, 112
-0.997789, 15, 289, 30, 320
-0.997791, 87, 109, 102, 140
-0.997794, 99, 129, 114, 160
-0.997794, 203, 257, 218, 288
-0.997797, 383, 153, 398, 184
-0.997798, 133, 141, 148, 172
-0.997804, 191, 141, 206, 172
-0.997805, 263, 181, 278, 212
-0.997808, 239, 61, 254, 92
-0.997813, 301, 117, 316, 148
-0.997814, 335, 145, 350, 176
-0.997815, 383, 185, 398, 216
-0.997827, 209, 181, 224, 212
-0.997833, 181, 41, 196, 72
-0.997834, 43, 125, 58, 156
-0.997835, 115, 133, 130, 164
-0.997837, 229, 245, 244, 276
-0.997849, 321, 53, 448, 84
-0.997852, 145, 41, 160, 72
-0.997853, 159, 45, 174, 76
-0.997854, 89, 161, 104, 192
-0.997859, 79, 173, 94, 204
-0.997861, 17, 137, 32, 168
-0.997867, 109, 129, 124, 160
-0.997875, 9, 145, 24, 176
-0.997881, 307, 193, 322, 224
-0.997886, 145, 29, 160, 60
-0.997889, 365, 161, 380, 192
-0.99789, 3, 85, 18, 116
-0.997892, 73, 233, 88, 264
-0.997896, 171, 29, 186, 60
-0.997901, 93, 77, 108, 108
-0.997908, 183, 77, 198, 108
-0.99791, 23, 117, 38, 148
-0.997911, 355, 49, 370, 80
-0.997916, 253, 189, 268, 220
-0.997919, 67, 237, 82, 268
-0.997924, 321, 137, 336, 168
-0.997927, 189, 57, 204, 88
-0.997928, 31, 141, 46, 172
-0.997971, 337, 33, 368, 288
-0.998026, 293, 65, 324, 320
-0.998103, 297, 17, 360, 144
-0.998354, 49, 245, 112, 260
-0.998369, 201, 205, 264, 220
-0.998406, 73, 103, 136, 118
-0.998406, 177, 205, 240, 220
-0.998408, 45, 81, 60, 208
-0.998414, 33, 127, 96, 142
-0.998417, 201, 197, 264, 212
-0.998419, 169, 267, 232, 282
-0.99842, 201, 211, 264, 226
-0.998421, 177, 31, 240, 46
-0.998421, 193, 249, 256, 264
-0.998428, 241, 201, 304, 216
-0.998435, 49, 251, 112, 266
-0.998439, 225, 217, 288, 232
-0.998442, 81, 133, 144, 148
-0.998443, 1, 121, 64, 136
-0.998448, 105, 75, 136, 90
-0.998448, 201, 231, 264, 246
-0.998448, 245, 223, 276, 238
-0.998449, 349, 193, 380, 208
-0.99845, 257, 219, 320, 234
-0.99845, 177, 175, 208, 190
-0.99845, 249, 105, 280, 120
-0.998451, 181, 273, 212, 288
-0.998451, 197, 255, 228, 270
-0.998452, 181, 283, 212, 298
-0.998452, 77, 269, 108, 284
-0.998452, 65, 97, 96, 112
-0.998453, 141, 59, 172, 74
-0.998454, 217, 71, 248, 86
-0.998454, 369, 171, 400, 186
-0.998454, 361, 165, 392, 180
-0.998455, 401, 17, 432, 32
-0.998455, 133, 43, 164, 58
-0.998456, 233, 91, 264, 106
-0.998456, 5, 127, 36, 142
-0.998457, 129, 33, 160, 48
-0.998457, 209, 115, 240, 130
-0.998457, 193, 181, 224, 196
-0.998458, 329, 173, 392, 188
-0.998458, 197, 137, 228, 152
-0.998459, 89, 161, 152, 176
-0.998459, 177, 199, 240, 214
-0.998459, 305, 195, 336, 210
-0.99846, 105, 41, 168, 56
-0.99846, 169, 163, 232, 178
-0.99846, 329, 171, 360, 186
-0.99846, 173, 43, 204, 58
-0.998462, 181, 81, 212, 96
-0.998462, 65, 125, 96, 140
-0.998462, 345, 169, 376, 184
-0.998463, 1, 95, 64, 110
-0.998464, 1, 81, 64, 96
-0.998465, 325, 193, 356, 208
-0.998465, 161, 123, 192, 138
-0.998465, 393, 17, 456, 32
-0.998466, 369, 193, 400, 208
-0.998466, 1, 21, 32, 36
-0.998466, 109, 135, 140, 150
-0.998468, 9, 89, 40, 104
-0.998468, 173, 137, 204, 152
-0.998468, 197, 169, 228, 184
-0.998468, 145, 47, 208, 62
-0.998468, 201, 101, 264, 116
-0.998469, 169, 17, 200, 32
-0.99847, 105, 51, 168, 66
-0.998471, 297, 145, 360, 160
-0.998471, 21, 253, 52, 268
-0.998471, 169, 273, 232, 288
-0.998472, 321, 147, 352, 162
-0.998472, 317, 165, 348, 180
-0.998473, 49, 251, 80, 266
-0.998473, 87, 193, 102, 320
-0.998474, 313, 165, 376, 180
-0.998474, 233, 73, 264, 88
-0.998474, 137, 23, 200, 38
-0.998475, 253, 193, 284, 208
-0.998476, 61, 245, 92, 260
-0.998477, 5, 47, 36, 62
-0.998477, 277, 221, 308, 236
-0.998477, 193, 223, 256, 238
-0.998477, 93, 77, 124, 92
-0.998479, 305, 203, 336, 218
-0.998479, 169, 101, 232, 116
-0.998481, 17, 157, 48, 172
-0.998481, 81, 173, 144, 188
-0.998481, 189, 203, 220, 218
-0.998482, 225, 207, 288, 222
-0.998482, 185, 135, 248, 150
-0.998483, 85, 173, 116, 188
-0.998484, 137, 31, 200, 46
-0.998484, 37, 119, 68, 134
-0.998485, 105, 61, 168, 76
-0.998486, 281, 205, 312, 220
-0.998486, 5, 69, 36, 84
-0.998486, 25, 119, 88, 134
-0.998488, 65, 111, 96, 126
-0.99849, 169, 39, 232, 54
-0.998491, 337, 151, 368, 166
-0.998492, 145, 57, 208, 72
-0.998492, 5, 61, 36, 76
-0.998492, 1, 39, 32, 54
-0.998492, 281, 203, 344, 218
-0.998493, 89, 131, 120, 146
-0.998493, 9, 95, 40, 110
-0.998493, 1, 263, 32, 278
-0.998494, 1, 27, 32, 42
-0.998495, 401, 93, 464, 108
-0.998496, 225, 195, 288, 210
-0.998496, 177, 119, 208, 134
-0.998496, 145, 135, 208, 150
-0.998496, 193, 49, 224, 64
-0.998496, 213, 127, 244, 142
-0.998496, 189, 163, 220, 178
-0.998497, 33, 249, 64, 264
-0.998498, 337, 193, 400, 208
-0.998498, 145, 109, 208, 124
-0.998499, 65, 167, 128, 182
-0.998499, 5, 53, 36, 68
-0.9985, 213, 133, 244, 148
-0.9985, 49, 119, 80, 134
-0.998501, 217, 109, 280, 124
-0.998502, 153, 47, 184, 62
-0.998504, 45, 245, 76, 260
-0.998505, 177, 185, 240, 200
-0.998505, 113, 39, 144, 54
-0.998505, 369, 101, 400, 116
-0.998505, 273, 197, 336, 212
-0.998507, 185, 255, 216, 270
-0.998508, 45, 169, 76, 184
-0.99851, 209, 31, 240, 46
-0.99851, 189, 33, 220, 48
-0.99851, 337, 163, 368, 178
-0.998511, 121, 105, 184, 120
-0.998511, 393, 87, 456, 102
-0.998511, 209, 133, 272, 148
-0.998511, 97, 165, 128, 180
-0.998511, 201, 237, 264, 252
-0.998511, 305, 65, 336, 320
-0.998511, 69, 103, 100, 118
-0.998512, 1, 73, 64, 88
-0.998512, 25, 81, 88, 96
-0.998512, 187, 1, 202, 128
-0.998512, 49, 99, 112, 114
-0.998513, 321, 149, 384, 164
-0.998513, 265, 199, 296, 214
-0.998513, 273, 211, 304, 226
-0.998513, 209, 211, 240, 226
-0.998513, 245, 99, 276, 114
-0.998514, 25, 121, 56, 136
-0.998515, 297, 195, 360, 210
-0.998515, 169, 261, 232, 276
-0.998515, 169, 143, 232, 158
-0.998515, 169, 169, 232, 184
-0.998516, 173, 143, 204, 158
-0.998516, 177, 193, 240, 208
-0.998517, 77, 279, 108, 294
-0.998518, 201, 67, 264, 82
-0.998519, 17, 127, 48, 142
-0.998519, 201, 217, 264, 232
-0.998519, 257, 213, 320, 228
-0.99852, 105, 73, 168, 88
-0.99852, 241, 109, 304, 124
-0.998521, 185, 261, 216, 276
-0.998521, 1, 121, 32, 136
-0.998521, 257, 117, 320, 132
-0.998522, 101, 97, 132, 112
-0.998522, 29, 81, 60, 96
-0.998523, 217, 249, 248, 264
-0.998524, 49, 239, 112, 254
-0.998525, 337, 167, 400, 182
-0.998525, 219, 113, 234, 240
-0.998526, 257, 133, 320, 148
-0.998526, 73, 97, 136, 112
-0.998526, 57, 79, 120, 94
-0.998527, 49, 121, 112, 136
-0.998527, 137, 37, 200, 52
-0.998527, 81, 155, 144, 170
-0.998527, 1, 33, 32, 48
-0.998528, 9, 83, 40, 98
-0.998528, 209, 197, 240, 212
-0.998528, 145, 141, 208, 156
-0.998529, 37, 127, 68, 142
-0.99853, 105, 67, 168, 82
-0.99853, 17, 255, 80, 270
-0.99853, 361, 101, 424, 116
-0.99853, 185, 255, 248, 270
-0.998531, 113, 99, 176, 114
-0.998531, 169, 107, 232, 122
-0.998531, 177, 117, 240, 132
-0.998532, 217, 223, 280, 238
-0.998533, 233, 231, 264, 246
-0.998534, 1, 155, 64, 170
-0.998534, 205, 101, 236, 116
-0.998534, 1, 297, 32, 312
-0.998534, 1, 89, 64, 104
-0.998535, 13, 121, 44, 136
-0.998535, 257, 139, 320, 154
-0.998536, 233, 101, 296, 116
-0.998537, 169, 157, 232, 172
-0.998537, 1, 249, 64, 264
-0.998537, 329, 179, 392, 194
-0.998537, 265, 109, 296, 124
-0.998539, 369, 191, 432, 206
-0.998539, 145, 65, 208, 80
-0.998539, 325, 157, 356, 172
-0.99854, 169, 151, 232, 166
-0.99854, 169, 127, 232, 142
-0.99854, 145, 127, 208, 142
-0.99854, 225, 199, 256, 214
-0.998541, 169, 245, 232, 260
-0.998541, 177, 51, 240, 66
-0.998541, 177, 179, 240, 194
-0.998542, 297, 139, 360, 154
-0.998542, 1, 151, 32, 166
-0.998543, 65, 175, 96, 190
-0.998543, 69, 239, 100, 254
-0.998543, 161, 25, 224, 40
-0.998544, 201, 191, 264, 206
-0.998544, 381, 97, 412, 112
-0.998545, 121, 143, 184, 158
-0.998545, 115, 97, 130, 224
-0.998546, 241, 225, 304, 240
-0.998547, 313, 159, 376, 174
-0.998547, 33, 271, 96, 286
-0.998547, 369, 169, 432, 184
-0.998547, 1, 51, 64, 66
-0.998547, 217, 95, 280, 110
-0.998549, 113, 111, 176, 126
-0.998549, 73, 117, 136, 132
-0.998551, 1, 101, 64, 116
-0.998552, 179, 49, 194, 176
-0.998552, 225, 233, 288, 248
-0.998552, 401, 99, 464, 114
-0.998553, 9, 77, 40, 92
-0.998553, 57, 265, 120, 280
-0.998553, 121, 119, 184, 134
-0.998553, 145, 17, 208, 32
-0.998554, 201, 175, 232, 190
-0.998554, 229, 207, 260, 222
-0.998555, 81, 139, 144, 154
-0.998555, 41, 177, 104, 192
-0.998556, 273, 153, 336, 168
-0.998556, 353, 201, 416, 216
-0.998556, 1, 57, 64, 72
-0.998557, 361, 93, 424, 108
-0.998557, 417, 83, 448, 98
-0.998557, 201, 243, 264, 258
-0.998557, 1, 261, 64, 276
-0.998558, 81, 75, 144, 90
-0.998559, 51, 97, 66, 224
-0.99856, 229, 215, 260, 230
-0.998561, 241, 215, 272, 230
-0.998567, 261, 215, 292, 230
-0.998567, 221, 99, 252, 114
-0.998568, 113, 163, 144, 178
-0.99857, 157, 113, 188, 128
-0.998571, 229, 67, 260, 82
-0.998572, 207, 193, 222, 320
-0.998573, 181, 169, 212, 184
-0.998573, 213, 121, 244, 136
-0.998598, 13, 151, 44, 166
-0.998602, 105, 81, 120, 208
-0.998606, 185, 39, 216, 54
-0.998608, 37, 97, 52, 224
-0.998609, 209, 145, 224, 272
-0.998609, 81, 101, 112, 116
-0.998612, 201, 245, 232, 260
-0.998622, 201, 145, 216, 272
-0.998625, 209, 205, 240, 220
-0.998642, 157, 103, 188, 118
-0.998648, 73, 245, 104, 260
-0.99866, 185, 65, 200, 192
-0.99867, 31, 81, 46, 208
-0.998678, 77, 97, 92, 224
-0.998682, 87, 65, 102, 192
-0.998688, 359, 33, 374, 160
-0.998688, 93, 145, 108, 272
-0.998693, 97, 65, 112, 192
-0.998699, 179, 113, 194, 240
-0.998701, 185, 267, 216, 282
-0.998713, 371, 17, 386, 144
-0.998727, 217, 65, 232, 192
-0.998735, 193, 1, 208, 128
-0.998739, 383, 145, 398, 272
-0.998755, 399, 1, 414, 128
-0.998765, 211, 97, 226, 224
-0.998765, 113, 49, 128, 176
-0.998778, 37, 49, 52, 176
-0.998778, 121, 97, 136, 224
-0.998782, 83, 145, 98, 272
-0.998788, 255, 145, 270, 272
-0.998792, 215, 177, 230, 304
-0.998803, 415, 1, 430, 128
-0.998807, 425, 1, 440, 128
-0.998808, 3, 81, 18, 208
-0.998814, 225, 49, 240, 176
-0.99882, 353, 33, 368, 160
-0.99882, 181, 1, 196, 128
-0.998822, 209, 17, 224, 144
-0.998824, 255, 97, 270, 224
-0.998827, 237, 65, 252, 192
-0.99883, 63, 97, 78, 224
-0.998837, 443, 81, 458, 208
-0.998838, 201, 193, 216, 320
-0.998843, 57, 81, 72, 208
-0.998854, 237, 177, 252, 304
-0.998868, 189, 129, 204, 256
-0.998873, 449, 97, 464, 224
-0.998874, 431, 1, 446, 128
-0.998875, 151, 33, 166, 160
-0.998883, 377, 17, 392, 144
-0.998887, 385, 17, 400, 144
-0.998888, 439, 1, 454, 128
-0.998891, 1, 33, 16, 160
-0.998891, 247, 49, 262, 176
-0.9989, 293, 129, 308, 256
-0.998901, 25, 65, 40, 192
-0.998902, 55, 161, 70, 288
-0.998903, 405, 1, 420, 128
-0.998911, 205, 97, 220, 224
-0.99892, 379, 193, 394, 320
-0.998927, 375, 129, 390, 256
-0.998938, 317, 65, 348, 320
-0.99894, 71, 97, 86, 224
-0.998942, 231, 65, 246, 192
-0.998943, 221, 161, 236, 288
-0.998945, 225, 113, 240, 240
-0.998945, 273, 177, 288, 304
-0.998946, 353, 161, 368, 288
-0.998951, 385, 81, 400, 208
-0.998953, 327, 145, 342, 272
-0.998953, 365, 33, 380, 160
-0.998956, 195, 129, 210, 256
-0.998961, 263, 97, 278, 224
-0.998963, 285, 97, 300, 224
-0.998966, 363, 145, 378, 272
-0.998967, 393, 1, 408, 128
-0.998972, 191, 177, 206, 304
-0.998972, 301, 113, 316, 240
-0.998973, 483, 65, 498, 192
-0.998975, 343, 113, 358, 240
-0.998976, 77, 161, 92, 288
-0.998977, 445, 1, 460, 128
-0.998977, 263, 145, 278, 272
-0.998984, 191, 49, 206, 176
-0.998988, 201, 33, 216, 160
-0.998999, 247, 113, 262, 240
-0.999, 379, 81, 394, 208
-0.99901, 389, 161, 404, 288
-0.999011, 473, 113, 488, 240
-0.999013, 185, 193, 200, 320
-0.999015, 71, 161, 86, 288
-0.999017, 247, 177, 262, 304
-0.999018, 9, 81, 24, 208
-0.999018, 467, 97, 482, 224
-0.999022, 61, 161, 76, 288
-0.999024, 107, 33, 122, 160
-0.999029, 437, 81, 452, 208
-0.999033, 473, 33, 488, 160
-0.999045, 173, 113, 188, 240
-0.999047, 99, 113, 114, 240
-0.999049, 455, 97, 470, 224
-0.999049, 461, 97, 476, 224
-0.999052, 329, 97, 344, 224
-0.999053, 229, 209, 244, 336
-0.999055, 137, 1, 152, 128
-0.999055, 313, 177, 328, 304
-0.999056, 353, 81, 368, 208
-0.999059, 307, 177, 322, 304
-0.999064, 231, 113, 246, 240
-0.99907, 79, 209, 94, 336
-0.99907, 321, 129, 336, 256
-0.999085, 49, 161, 64, 288
-0.999089, 131, 1, 146, 128
-0.999094, 121, 17, 136, 144
-0.999097, 333, 145, 348, 272
-0.999101, 347, 161, 362, 288
-0.999101, 257, 193, 272, 320
-0.999106, 179, 193, 194, 320
-0.999107, 431, 65, 446, 192
-0.999107, 79, 49, 94, 176
-0.999112, 391, 81, 406, 208
-0.999115, 21, 17, 36, 144
-0.999115, 31, 17, 46, 144
-0.999119, 161, 33, 176, 160
-0.999138, 173, 65, 188, 192
-0.999139, 73, 209, 88, 336
-0.999141, 143, 17, 158, 144
-0.999142, 43, 145, 58, 272
-0.999149, 215, 17, 230, 144
-0.999149, 173, 1, 188, 128
-0.999631, 97, 101, 112, 116
-0.999632, 15, 261, 30, 276
-0.999632, 31, 253, 46, 268
-0.999632, 257, 101, 272, 116
-0.999632, 351, 175, 366, 190
-0.999632, 105, 77, 120, 92
-0.999632, 65, 241, 80, 256
-0.999633, 51, 253, 66, 268
-0.999633, 13, 289, 28, 304
-0.999634, 375, 33, 390, 48
-0.999635, 185, 167, 200, 182
-0.999635, 211, 171, 226, 186
-0.999635, 199, 159, 214, 174
-0.999635, 175, 127, 190, 142
-0.999635, 185, 257, 200, 272
-0.999636, 57, 251, 72, 266
-0.999637, 179, 259, 194, 274
-0.999637, 3, 293, 18, 308
-0.999637, 101, 165, 116, 180
-0.999638, 187, 17, 202, 32
-0.999639, 379, 197, 394, 212
-0.999639, 243, 231, 258, 246
-0.999639, 207, 239, 222, 254
-0.99964, 221, 187, 236, 202
-0.99964, 257, 189, 272, 204
-0.99964, 343, 169, 358, 184
-0.999641, 117, 135, 132, 150
-0.999641, 185, 141, 200, 156
-0.999641, 329, 155, 344, 170
-0.999641, 199, 33, 214, 48
-0.999641, 339, 191, 354, 206
-0.999642, 255, 195, 270, 210
-0.999643, 49, 119, 64, 134
-0.999643, 383, 173, 398, 188
-0.999643, 185, 43, 200, 58
-0.999643, 89, 281, 104, 296
-0.999644, 19, 149, 34, 164
-0.999644, 361, 163, 376, 178
-0.999644, 37, 251, 52, 266
-0.999645, 181, 25, 196, 40
-0.999645, 243, 73, 258, 88
-0.999645, 301, 121, 316, 136
-0.999645, 215, 203, 230, 218
-0.999645, 217, 101, 232, 116
-0.999645, 285, 117, 300, 132
-0.999647, 247, 97, 262, 112
-0.999648, 83, 135, 98, 150
-0.999648, 119, 39, 134, 54
-0.999648, 59, 169, 74, 184
-0.999649, 87, 107, 102, 122
-0.999649, 259, 221, 274, 236
-0.999649, 59, 121, 74, 136
-0.99965, 345, 149, 360, 164
-0.99965, 209, 31, 224, 46
-0.99965, 203, 257, 218, 272
-0.99965, 151, 53, 166, 68
-0.99965, 265, 195, 280, 210
-0.99965, 185, 79, 200, 94
-0.99965, 197, 261, 212, 276
-0.999651, 157, 113, 172, 128
-0.999652, 233, 67, 248, 82
-0.999652, 77, 175, 92, 190
-0.999652, 27, 121, 42, 136
-0.999653, 285, 219, 300, 234
-0.999654, 279, 211, 294, 226
-0.999655, 171, 21, 186, 36
-0.999655, 103, 157, 118, 172
-0.999656, 69, 247, 84, 262
-0.999657, 9, 121, 24, 136
-0.999659, 45, 249, 60, 264
-0.99966, 113, 157, 128, 172
-0.99966, 187, 33, 202, 48
-0.999661, 349, 161, 364, 176
-0.999662, 175, 43, 190, 58
-0.999662, 125, 139, 140, 154
-0.999663, 225, 137, 240, 152
-0.999663, 113, 97, 128, 112
-0.999663, 41, 129, 56, 144
-0.999664, 281, 199, 296, 214
-0.999665, 51, 247, 66, 262
-0.999665, 73, 239, 88, 254
-0.999666, 327, 147, 342, 162
-0.999667, 263, 161, 278, 176
-0.999668, 1, 267, 16, 282
-0.999668, 15, 295, 30, 310
-0.999668, 199, 41, 214, 56
-0.99967, 381, 189, 396, 204
-0.999672, 3, 121, 18, 136
-0.999672, 371, 103, 386, 118
-0.999675, 59, 245, 74, 260
-0.999679, 287, 203, 302, 218
-0.999681, 205, 201, 220, 216
-0.999681, 33, 81, 48, 96
-0.999683, 217, 123, 232, 138
-0.999684, 183, 135, 198, 150
-0.999685, 65, 117, 80, 132
-0.999685, 267, 169, 282, 184
-0.999685, 11, 151, 26, 166
-0.999686, 239, 67, 254, 82
-0.999689, 83, 237, 98, 252
-0.999689, 213, 195, 228, 210
-0.99969, 203, 175, 218, 190
-0.999691, 245, 211, 260, 226
-0.999692, 9, 263, 24, 278
-0.999692, 37, 123, 52, 138
-0.999693, 161, 103, 176, 118
-0.999694, 357, 175, 372, 190
-0.999695, 27, 149, 42, 164
-0.999697, 245, 67, 260, 82
-0.999698, 1, 151, 16, 166
-0.999698, 17, 121, 32, 136
-0.999702, 181, 35, 196, 50
-0.999703, 225, 123, 240, 138
-0.999703, 205, 163, 220, 178
-0.999708, 167, 103, 182, 118
-0.999716, 193, 39, 208, 54
-0.999723, 267, 217, 282, 232
-0.99973, 219, 129, 234, 144
-0.999731, 185, 263, 200, 278
-0.999733, 235, 231, 250, 246
-0.999733, 125, 163, 140, 178
-0.999736, 211, 101, 226, 116
-0.999739, 203, 247, 218, 262
-0.999741, 81, 101, 96, 116
-0.999744, 91, 99, 106, 114
-0.999752, 353, 169, 368, 184
-0.999758, 225, 117, 240, 132
-0.99977, 85, 243, 100, 258
-0.999771, 373, 195, 388, 210
-0.999771, 31, 129, 46, 144
-1.01351, 433, 209, 496, 336
