1922
-0.227972, 1, 193, 333, 448
-0.482683, 33, 161, 288, 416
-0.511553, 1, 97, 333, 352
-0.61431, 65, 257, 320, 500
-0.663488, 33, 1, 288, 500
-0.686896, 1, 1, 333, 500
-0.716775, 1, 1, 333, 256
-0.844668, 161, 225, 288, 480
-0.847363, 129, 129, 256, 384
-0.863018, 81, 161, 208, 416
-0.865437, 1, 193, 333, 320
-0.867454, 1, 273, 333, 400
-0.87652, 33, 193, 160, 448
-0.890085, 209, 257, 333, 500
-0.892417, 1, 321, 333, 448
-0.898554, 97, 257, 224, 500
-0.900204, 177, 129, 304, 384
-0.903905, 33, 161, 288, 288
-0.906779, 113, 1, 240, 500
-0.907498, 1, 145, 333, 272
-0.910724, 33, 225, 288, 352
-0.911144, 65, 273, 320, 400
-0.912528, 193, 1, 320, 500
-0.913179, 33, 65, 288, 320
-0.924612, 185, 161, 248, 288
-0.925614, 1, 1, 128, 500
-0.927236, 1, 321, 256, 448
-0.928818, 145, 145, 208, 272
-0.931346, 65, 1, 192, 500
-0.931795, 161, 241, 288, 368
-0.933615, 113, 145, 240, 272
-0.935716, 161, 193, 224, 320
-0.93638, 81, 65, 208, 320
-0.937288, 145, 193, 272, 320
-0.939289, 169, 241, 232, 368
-0.939697, 1, 97, 128, 352
-0.939744, 33, 257, 160, 384
-0.940369, 241, 273, 304, 400
-0.942904, 177, 289, 304, 416
-0.944239, 65, 177, 192, 304
-0.944626, 81, 321, 208, 448
-0.945478, 201, 225, 264, 352
-0.945987, 113, 273, 240, 400
-0.946296, 1, 369, 333, 496
-0.946994, 137, 193, 200, 320
-0.947914, 105, 161, 168, 288
-0.948602, 257, 321, 320, 448
-0.949931, 169, 209, 232, 272
-0.950045, 129, 33, 256, 288
-0.950151, 193, 33, 320, 288
-0.950399, 145, 201, 208, 264
-0.950512, 1, 305, 128, 432
-0.951817, 185, 161, 248, 224
-0.95228, 105, 321, 168, 448
-0.952284, 193, 209, 256, 272
-0.952458, 209, 305, 272, 432
-0.952565, 209, 177, 272, 304
-0.953624, 33, 353, 160, 480
-0.954865, 41, 225, 104, 352
-0.955686, 201, 241, 264, 304
-0.956146, 209, 337, 333, 464
-0.956153, 137, 257, 200, 384
-0.957711, 57, 289, 120, 416
-0.957825, 169, 241, 232, 304
-0.958189, 257, 329, 320, 392
-0.958575, 193, 185, 256, 248
-0.960023, 73, 177, 136, 304
-0.960245, 241, 305, 304, 368
-0.960831, 161, 145, 288, 272
-0.960913, 129, 321, 256, 448
-0.962255, 9, 273, 72, 400
-0.96291, 129, 161, 192, 224
-0.963374, 97, 225, 224, 352
-0.963931, 185, 161, 248, 416
-0.963983, 105, 169, 168, 232
-0.964474, 57, 329, 120, 392
-0.964797, 193, 193, 320, 320
-0.965786, 105, 329, 168, 392
-0.966396, 225, 225, 288, 352
-0.966431, 81, 321, 144, 448
-0.966508, 161, 289, 224, 416
-0.966858, 153, 161, 216, 224
-0.967143, 1, 209, 128, 336
-0.967532, 137, 321, 200, 448
-0.967813, 209, 161, 240, 288
-0.967931, 65, 201, 128, 264
-0.968001, 161, 249, 288, 312
-0.968175, 233, 281, 296, 344
-0.968208, 1, 369, 256, 496
-0.968378, 153, 145, 184, 272
-0.968489, 173, 193, 204, 320
-0.96895, 33, 321, 96, 448
-0.969041, 113, 273, 176, 400
-0.969159, 169, 265, 232, 328
-0.969214, 121, 217, 184, 280
-0.969986, 33, 113, 288, 240
-0.97007, 201, 313, 264, 376
-0.97038, 209, 193, 272, 448
-0.970445, 81, 177, 144, 240
-0.970463, 217, 217, 248, 280
-0.97053, 185, 305, 248, 432
-0.970972, 189, 145, 220, 272
-0.971006, 177, 113, 240, 240
-0.97125, 49, 193, 112, 448
-0.971542, 161, 193, 224, 448
-0.971896, 129, 161, 256, 224
-0.971963, 49, 225, 112, 288
-0.972284, 169, 145, 200, 272
-0.972314, 89, 241, 152, 368
-0.972462, 173, 201, 204, 264
-0.972637, 1, 97, 333, 224
-0.972694, 173, 241, 204, 368
-0.972824, 277, 321, 308, 448
-0.973066, 225, 241, 256, 368
-0.973195, 185, 193, 216, 320
-0.97365, 129, 129, 192, 384
-0.973687, 233, 257, 296, 500
-0.973924, 169, 185, 232, 248
-0.973932, 213, 193, 244, 256
-0.973954, 145, 201, 272, 264
-0.973977, 233, 321, 296, 448
-0.974136, 209, 241, 333, 368
-0.974158, 273, 361, 333, 424
-0.974208, 81, 337, 144, 400
-0.974476, 9, 321, 72, 384
-0.974477, 241, 257, 272, 384
-0.974648, 285, 337, 316, 400
-0.974956, 265, 289, 296, 416
-0.975051, 209, 265, 272, 328
-0.975645, 253, 273, 284, 400
-0.976025, 213, 161, 244, 224
-0.976166, 205, 225, 236, 288
-0.976444, 105, 321, 136, 448
-0.976476, 145, 225, 208, 288
-0.976597, 217, 217, 280, 280
-0.976672, 105, 113, 168, 240
-0.976832, 169, 297, 232, 360
-0.976874, 173, 241, 204, 304
-0.976947, 57, 369, 120, 496
-0.977071, 81, 169, 208, 232
-0.977099, 9, 321, 72, 448
-0.977197, 161, 225, 288, 288
-0.977233, 189, 201, 220, 264
-0.977453, 1, 289, 64, 352
-0.97781, 209, 321, 333, 384
-0.977869, 273, 329, 304, 392
-0.977879, 161, 321, 288, 384
-0.977886, 193, 289, 320, 352
-0.97805, 41, 273, 104, 336
-0.978168, 249, 361, 312, 424
-0.978192, 177, 321, 240, 384
-0.978294, 97, 329, 224, 392
-0.978402, 161, 193, 192, 320
-0.978418, 97, 201, 160, 264
-0.978479, 265, 369, 328, 496
-0.978513, 209, 241, 240, 368
-0.978515, 1, 345, 128, 408
-0.97852, 97, 201, 224, 264
-0.978545, 197, 241, 228, 368
-0.978698, 189, 161, 220, 224
-0.978773, 113, 209, 176, 336
-0.978789, 221, 177, 252, 304
-0.978874, 1, 193, 64, 320
-0.978984, 65, 369, 128, 432
-0.979033, 1, 321, 128, 384
-0.979199, 33, 1, 160, 256
-0.979296, 97, 305, 160, 368
-0.979342, 9, 241, 72, 304
-0.979411, 161, 257, 192, 384
-0.979417, 77, 193, 108, 256
-0.979475, 197, 193, 228, 320
-0.979522, 1, 113, 128, 240
-0.979625, 49, 337, 176, 400
-0.979627, 33, 369, 96, 496
-0.97967, 65, 129, 192, 256
-0.979911, 53, 209, 84, 336
-0.979977, 257, 281, 288, 344
-0.980035, 41, 297, 104, 360
-0.98013, 53, 217, 84, 280
-0.980166, 65, 241, 128, 368
-0.980232, 81, 161, 144, 416
-0.980244, 209, 129, 333, 256
-0.980257, 41, 201, 104, 264
-0.980366, 33, 233, 160, 296
-0.980514, 225, 177, 288, 240
-0.980573, 201, 161, 232, 224
-0.980742, 113, 241, 240, 304
-0.980838, 41, 249, 104, 312
-0.980938, 145, 265, 208, 328
-0.981046, 141, 161, 172, 288
-0.98107, 225, 241, 288, 304
-0.981307, 105, 337, 136, 400
-0.981313, 173, 161, 204, 224
-0.981425, 185, 241, 216, 368
-0.981458, 33, 297, 160, 360
-0.981461, 169, 265, 200, 328
-0.981538, 217, 337, 280, 400
-0.981692, 1, 161, 128, 288
-0.981734, 229, 241, 260, 304
-0.981846, 245, 265, 276, 328
-0.981877, 185, 241, 216, 304
-0.982048, 289, 321, 320, 448
-0.982089, 193, 289, 256, 352
-0.982152, 145, 297, 208, 360
-0.982233, 33, 353, 96, 416
-0.982294, 89, 337, 120, 400
-0.982359, 121, 297, 184, 360
-0.982521, 153, 201, 184, 264
-0.982583, 33, 273, 160, 336
-0.982622, 153, 161, 184, 224
-0.982662, 49, 201, 176, 264
-0.98269, 49, 177, 112, 304
-0.982696, 113, 97, 240, 224
-0.982769, 105, 161, 168, 416
-0.982954, 229, 305, 260, 432
-0.983188, 209, 345, 333, 408
-0.983258, 129, 161, 160, 288
-0.983294, 125, 161, 156, 224
-0.98333, 73, 233, 136, 296
-0.983348, 233, 145, 296, 272
-0.983516, 25, 425, 88, 488
-0.983593, 105, 161, 136, 288
-0.983629, 81, 369, 208, 496
-0.983732, 97, 177, 128, 240
-0.983759, 161, 97, 224, 352
-0.983785, 177, 177, 304, 240
-0.983837, 65, 201, 96, 264
-0.983846, 121, 193, 184, 256
-0.983861, 265, 273, 328, 400
-0.983984, 117, 305, 148, 432
-0.984006, 1, 369, 64, 496
-0.984066, 137, 225, 200, 480
-0.984216, 9, 257, 72, 500
-0.984225, 209, 249, 240, 312
-0.984321, 201, 201, 232, 264
-0.984362, 1, 193, 128, 256
-0.984392, 149, 273, 180, 400
-0.984447, 297, 345, 328, 408
-0.984565, 153, 329, 216, 392
-0.984611, 97, 361, 160, 424
-0.984632, 93, 321, 124, 448
-0.984669, 169, 137, 232, 200
-0.984696, 257, 257, 320, 500
-0.984836, 129, 329, 192, 392
-0.984898, 157, 241, 188, 304
-0.984913, 1, 265, 64, 328
-0.984959, 121, 249, 184, 312
-0.985114, 105, 273, 136, 400
-0.985152, 129, 289, 256, 352
-0.985232, 217, 305, 248, 432
-0.985375, 209, 217, 333, 280
-0.985594, 265, 353, 296, 480
-0.985723, 45, 281, 76, 344
-0.98577, 109, 169, 140, 232
-0.985785, 33, 369, 160, 432
-0.9859, 105, 257, 168, 500
-0.985907, 209, 129, 272, 256
-0.985924, 149, 209, 180, 336
-0.986039, 145, 137, 208, 200
-0.986069, 93, 361, 124, 424
-0.986189, 273, 361, 304, 424
-0.986206, 229, 305, 260, 368
-0.986245, 129, 321, 160, 448
-0.986286, 9, 201, 72, 264
-0.986298, 69, 193, 100, 320
-0.986432, 161, 337, 224, 464
-0.986465, 73, 129, 136, 256
-0.986572, 157, 273, 188, 336
-0.98662, 81, 257, 144, 500
-0.986725, 81, 297, 208, 360
-0.986811, 1, 417, 64, 480
-0.986818, 9, 345, 72, 408
-0.986821, 85, 273, 116, 400
-0.986854, 181, 265, 212, 328
-0.986918, 117, 257, 148, 384
-0.986939, 117, 161, 148, 288
-0.98695, 185, 65, 248, 320
-0.98696, 137, 161, 168, 224
-0.986976, 157, 321, 188, 448
-0.986996, 253, 353, 284, 480
-0.987053, 193, 321, 224, 448
-0.987055, 205, 321, 236, 448
-0.987099, 205, 113, 236, 240
-0.987118, 141, 209, 172, 272
-0.987146, 193, 297, 224, 360
-0.987181, 169, 321, 200, 448
-0.987305, 209, 369, 333, 432
-0.987378, 285, 361, 316, 424
-0.987505, 205, 321, 236, 384
-0.987526, 153, 97, 216, 224
-0.987812, 113, 265, 240, 328
-0.987875, 49, 257, 80, 384
-0.987893, 273, 305, 333, 368
-0.988064, 121, 137, 184, 200
-0.988182, 81, 257, 144, 320
-0.988384, 33, 273, 96, 400
-0.988417, 217, 321, 248, 384
-0.988578, 89, 177, 120, 304
-0.988578, 241, 305, 272, 432
-0.988606, 145, 209, 208, 240
-0.988613, 129, 209, 160, 272
-0.988623, 129, 137, 256, 200
-0.988654, 225, 153, 288, 216
-0.988654, 121, 273, 184, 336
-0.988702, 193, 209, 256, 240
-0.988712, 273, 281, 333, 344
-0.988828, 225, 361, 288, 424
-0.988847, 169, 209, 232, 240
-0.98887, 105, 313, 136, 376
-0.988883, 201, 1, 264, 500
-0.988988, 209, 265, 333, 328
-0.988997, 233, 129, 296, 384
-0.989034, 1, 161, 128, 224
-0.989086, 253, 361, 284, 424
-0.989088, 265, 305, 296, 368
-0.989108, 65, 297, 128, 360
-0.989217, 129, 273, 160, 400
-0.989233, 193, 197, 256, 228
-0.98924, 181, 305, 212, 368
-0.989465, 197, 265, 228, 328
-0.989486, 81, 217, 112, 280
-0.989554, 33, 329, 96, 392
-0.989577, 169, 245, 232, 276
-0.989582, 33, 201, 288, 264
-0.989623, 237, 337, 268, 400
-0.989671, 201, 253, 264, 284
-0.989691, 253, 329, 284, 392
-0.989761, 129, 221, 192, 252
-0.989788, 233, 185, 264, 248
-0.989812, 181, 329, 212, 392
-0.989845, 113, 169, 176, 200
-0.989888, 105, 337, 168, 368
-0.989903, 181, 321, 212, 448
-0.98994, 145, 321, 176, 448
-0.989953, 229, 217, 260, 280
-0.989955, 1, 49, 333, 176
-0.989956, 193, 237, 256, 268
-0.98999, 193, 221, 256, 252
-0.989994, 153, 1, 216, 500
-0.990031, 1, 425, 128, 488
-0.990033, 209, 241, 333, 304
-0.990049, 185, 165, 248, 196
-0.990074, 41, 377, 104, 440
-0.990091, 249, 333, 312, 364
-0.990118, 209, 265, 272, 296
-0.990122, 1, 161, 64, 416
-0.990172, 185, 257, 248, 500
-0.990213, 169, 229, 232, 260
-0.990223, 81, 369, 144, 496
-0.990284, 65, 329, 320, 392
-0.990287, 265, 349, 328, 380
-0.990305, 81, 321, 112, 448
-0.990309, 1, 329, 333, 392
-0.99032, 33, 177, 288, 240
-0.990382, 45, 321, 76, 448
-0.990418, 81, 361, 208, 424
-0.990464, 57, 357, 120, 388
-0.990524, 277, 273, 308, 400
-0.990539, 297, 369, 328, 432
-0.990593, 169, 269, 232, 300
-0.990639, 57, 341, 120, 372
-0.990673, 233, 305, 296, 336
-0.990681, 33, 289, 64, 416
-0.990707, 125, 329, 156, 392
-0.990729, 193, 321, 224, 384
-0.990754, 241, 321, 304, 352
-0.990781, 65, 209, 128, 240
-0.990821, 81, 377, 112, 440
-0.990828, 193, 185, 256, 216
-0.990914, 49, 229, 112, 260
-0.990915, 117, 297, 148, 360
-0.990957, 145, 161, 208, 192
-0.990974, 301, 337, 332, 464
-0.991009, 241, 297, 272, 360
-0.991083, 273, 225, 333, 352
-0.991174, 169, 197, 232, 228
-0.991237, 97, 181, 160, 212
-0.991241, 1, 273, 333, 336
-0.99127, 169, 297, 200, 360
-0.991286, 137, 209, 168, 336
-0.991308, 145, 197, 208, 228
-0.99134, 161, 345, 288, 408
-0.991404, 57, 377, 120, 408
-0.991414, 201, 325, 264, 356
-0.991437, 153, 281, 216, 312
-0.991443, 145, 233, 208, 264
-0.991448, 225, 277, 288, 308
-0.991464, 169, 257, 232, 288
-0.991471, 105, 213, 168, 244
-0.991484, 57, 329, 120, 360
-0.991504, 73, 197, 136, 228
-0.99151, 177, 1, 240, 500
-0.991515, 49, 241, 112, 272
-0.991549, 209, 153, 333, 216
-0.991586, 1, 169, 333, 232
-0.991617, 257, 361, 320, 392
-0.991631, 233, 293, 296, 324
-0.991654, 81, 369, 144, 400
-0.991657, 93, 201, 124, 264
-0.991664, 1, 313, 64, 344
-0.991682, 89, 369, 120, 496
-0.991688, 265, 373, 328, 404
-0.991727, 177, 333, 240, 364
-0.991768, 1, 289, 64, 320
-0.991795, 1, 217, 333, 280
-0.991848, 9, 325, 72, 356
-0.99185, 33, 241, 288, 304
-0.991851, 9, 337, 72, 368
-0.991878, 233, 193, 264, 320
-0.991899, 233, 237, 296, 268
-0.991914, 121, 277, 184, 308
-0.991942, 1, 301, 64, 332
-0.991956, 9, 265, 72, 296
-0.991962, 73, 185, 136, 216
-0.991966, 81, 337, 144, 368
-0.991969, 9, 237, 72, 268
-0.991998, 33, 373, 96, 404
-0.992018, 41, 277, 104, 308
-0.992023, 1, 273, 256, 336
-0.992024, 265, 257, 328, 320
-0.992043, 233, 265, 264, 328
-0.992043, 49, 433, 80, 496
-0.99206, 249, 233, 312, 296
-0.99207, 25, 401, 88, 464
-0.992073, 105, 225, 168, 256
-0.99209, 25, 445, 88, 476
-0.992111, 97, 325, 160, 356
-0.992124, 289, 369, 320, 496
-0.992127, 129, 245, 192, 276
-0.992136, 69, 369, 100, 496
-0.992148, 217, 225, 280, 256
-0.992169, 233, 201, 296, 232
-0.992177, 9, 253, 72, 284
-0.992179, 41, 217, 104, 248
-0.992179, 73, 241, 136, 272
-0.99219, 161, 293, 224, 324
-0.99221, 273, 309, 333, 340
-0.992212, 241, 369, 304, 496
-0.992218, 225, 177, 288, 208
-0.992224, 137, 329, 200, 360
-0.99225, 209, 337, 272, 368
-0.992261, 217, 353, 280, 384
-0.992266, 169, 209, 200, 240
-0.992296, 137, 265, 200, 296
-0.992306, 225, 189, 288, 220
-0.992309, 169, 317, 232, 348
-0.99231, 217, 237, 248, 268
-0.992335, 273, 337, 333, 368
-0.992365, 97, 201, 160, 232
-0.992384, 65, 297, 320, 360
-0.992385, 41, 301, 104, 332
-0.99239, 49, 253, 112, 284
-0.992391, 9, 425, 72, 456
-0.992421, 225, 249, 256, 280
-0.992433, 9, 349, 72, 380
-0.992439, 177, 153, 240, 184
-0.992441, 81, 65, 144, 320
-0.992444, 241, 253, 304, 284
-0.992446, 121, 201, 184, 232
-0.992449, 185, 305, 248, 336
-0.992454, 9, 217, 72, 248
-0.992461, 141, 113, 172, 240
-0.992474, 137, 33, 200, 288
-0.992481, 41, 317, 104, 348
-0.992481, 145, 385, 272, 448
-0.992486, 209, 197, 240, 228
-0.992502, 129, 97, 192, 224
-0.992503, 25, 465, 88, 496
-0.992518, 241, 373, 304, 404
-0.992519, 209, 289, 240, 352
-0.992526, 1, 1, 333, 128
-0.992537, 73, 145, 136, 208
-0.992549, 105, 337, 136, 368
-0.992555, 233, 265, 296, 296
-0.992562, 205, 237, 236, 268
-0.992565, 129, 289, 192, 320
-0.992574, 49, 265, 112, 296
-0.992585, 1, 401, 128, 464
-0.99259, 213, 185, 244, 216
-0.99259, 217, 225, 248, 256
-0.992614, 73, 229, 136, 260
-0.992642, 225, 213, 288, 244
-0.992673, 241, 345, 304, 376
-0.992673, 97, 357, 160, 388
-0.992673, 125, 169, 156, 200
-0.992679, 273, 293, 333, 324
-0.992682, 81, 381, 144, 412
-0.992697, 225, 1, 288, 500
-0.992705, 201, 161, 232, 192
-0.992706, 129, 165, 256, 196
-0.992717, 1, 277, 64, 308
-0.992718, 1, 193, 333, 256
-0.992718, 77, 337, 108, 400
-0.992721, 189, 201, 220, 232
-0.992721, 173, 229, 204, 260
-0.992723, 153, 213, 184, 244
-0.992741, 209, 313, 272, 344
-0.99276, 209, 257, 240, 288
-0.992762, 141, 213, 172, 244
-0.992772, 41, 289, 104, 320
-0.992776, 153, 385, 216, 448
-0.992789, 229, 261, 260, 292
-0.992791, 109, 173, 140, 204
-0.992803, 173, 265, 204, 296
-0.992803, 73, 209, 104, 240
-0.992812, 213, 209, 244, 240
-0.99282, 161, 185, 224, 216
-0.992821, 17, 361, 80, 392
-0.992822, 129, 213, 160, 244
-0.992857, 81, 193, 112, 224
-0.992858, 177, 249, 208, 280
-0.992863, 129, 113, 160, 240
-0.99287, 289, 349, 320, 380
-0.992879, 53, 225, 84, 256
-0.992896, 161, 277, 192, 308
-0.992929, 197, 249, 228, 280
-0.992929, 33, 329, 96, 360
-0.992947, 165, 329, 196, 392
-0.992947, 281, 361, 312, 392
-0.992952, 265, 281, 328, 312
-0.992952, 57, 409, 120, 472
-0.992971, 57, 337, 88, 400
-0.992972, 189, 229, 220, 260
-0.992981, 89, 353, 120, 384
-0.992983, 245, 273, 276, 304
-0.992989, 1, 461, 64, 492
-0.992996, 225, 161, 288, 192
-0.992996, 101, 369, 132, 400
-0.993004, 213, 173, 244, 204
-0.993014, 129, 209, 256, 240
-0.99302, 165, 161, 196, 192
-0.993032, 281, 337, 312, 368
-0.993033, 85, 341, 116, 372
-0.993038, 193, 293, 256, 324
-0.993043, 157, 245, 188, 276
-0.993044, 89, 377, 120, 408
-0.993049, 205, 225, 236, 256
-0.993051, 177, 385, 240, 448
-0.993066, 97, 185, 128, 216
-0.993068, 153, 201, 184, 232
-0.993077, 189, 213, 220, 244
-0.99308, 173, 197, 204, 228
-0.99308, 257, 297, 288, 328
-0.993091, 265, 357, 296, 388
-0.993095, 177, 281, 240, 312
-0.993097, 145, 165, 176, 196
-0.993098, 105, 369, 168, 400
-0.993105, 293, 369, 324, 400
-0.993105, 113, 257, 176, 288
-0.993114, 137, 329, 168, 392
-0.993114, 157, 289, 188, 320
-0.993114, 81, 257, 144, 288
-0.993118, 253, 285, 284, 316
-0.99312, 261, 313, 292, 344
-0.993122, 49, 465, 112, 496
-0.993132, 57, 173, 120, 204
-0.993132, 153, 149, 216, 180
-0.993133, 33, 345, 96, 376
-0.993136, 161, 265, 192, 296
-0.993155, 189, 161, 220, 192
-0.993159, 269, 325, 300, 356
-0.993164, 77, 365, 108, 396
-0.993168, 9, 413, 72, 444
-0.993172, 41, 205, 104, 236
-0.993174, 141, 185, 172, 248
-0.993175, 129, 225, 160, 256
-0.993192, 89, 281, 152, 344
-0.993203, 153, 225, 184, 256
-0.993205, 81, 269, 144, 300
-0.99321, 189, 189, 220, 220
-0.993211, 173, 281, 204, 312
-0.993221, 57, 373, 88, 404
-0.993223, 105, 241, 168, 272
-0.993223, 221, 321, 252, 352
-0.993225, 149, 277, 180, 308
-0.993227, 65, 221, 96, 252
-0.993227, 89, 313, 120, 376
-0.993228, 257, 265, 320, 296
-0.993229, 265, 369, 296, 400
-0.99323, 213, 269, 244, 300
-0.993237, 229, 197, 260, 228
-0.993239, 37, 321, 68, 384
-0.993239, 197, 269, 228, 300
-0.993254, 265, 321, 328, 352
-0.993255, 129, 305, 160, 368
-0.99326, 137, 301, 200, 332
-0.993272, 153, 341, 216, 372
-0.993272, 193, 333, 224, 364
-0.993274, 301, 357, 332, 388
-0.993281, 97, 325, 128, 356
-0.993286, 89, 365, 120, 396
-0.993286, 209, 325, 240, 356
-0.993287, 65, 317, 128, 348
-0.993289, 49, 237, 80, 268
-0.993291, 1, 393, 64, 456
-0.9933, 177, 161, 208, 192
-0.993302, 153, 393, 216, 424
-0.993307, 141, 225, 172, 256
-0.993312, 57, 353, 88, 384
-0.993315, 81, 225, 112, 256
-0.993315, 217, 365, 280, 396
-0.993319, 253, 341, 284, 372
-0.993327, 69, 377, 100, 408
-0.993327, 81, 1, 144, 500
-0.993328, 185, 269, 216, 300
-0.993332, 233, 221, 264, 252
-0.993334, 253, 357, 284, 388
-0.993336, 49, 433, 176, 496
-0.99334, 129, 337, 160, 368
-0.993341, 33, 433, 96, 464
-0.993344, 145, 317, 208, 348
-0.993349, 129, 341, 192, 372
-0.993355, 85, 329, 116, 360
-0.993359, 233, 341, 264, 372
-0.993362, 49, 417, 112, 448
-0.993376, 41, 293, 72, 324
-0.99339, 45, 277, 76, 308
-0.993401, 165, 333, 196, 364
-0.993414, 117, 329, 148, 360
-0.993416, 97, 225, 160, 288
-0.993416, 177, 321, 208, 352
-0.993416, 53, 461, 84, 492
-0.993425, 181, 333, 212, 364
-0.993431, 201, 209, 232, 240
-0.993436, 141, 329, 172, 360
-0.993437, 277, 309, 308, 340
-0.993439, 33, 153, 288, 216
-0.99344, 225, 173, 256, 204
-0.993441, 105, 357, 136, 388
-0.993441, 49, 81, 176, 208
-0.993449, 85, 241, 116, 272
-0.993461, 73, 237, 104, 268
-0.993462, 61, 209, 92, 240
-0.993469, 281, 377, 312, 408
-0.99347, 117, 341, 148, 372
-0.993472, 229, 185, 260, 216
-0.993474, 241, 353, 272, 384
-0.993477, 237, 309, 268, 340
-0.993479, 133, 201, 164, 232
-0.99348, 33, 425, 64, 456
-0.993482, 57, 341, 88, 372
-0.993487, 1, 297, 333, 360
-0.993492, 129, 157, 160, 188
-0.993494, 229, 233, 260, 264
-0.993496, 193, 321, 224, 352
-0.993508, 185, 289, 216, 320
-0.993513, 37, 341, 68, 372
-0.993514, 153, 333, 184, 364
-0.993522, 213, 161, 244, 192
-0.993523, 253, 369, 284, 400
-0.993525, 201, 181, 232, 212
-0.993533, 45, 313, 76, 344
-0.993544, 49, 249, 80, 280
-0.993549, 233, 209, 264, 240
-0.993556, 117, 221, 148, 252
-0.993559, 69, 197, 100, 228
-0.993563, 241, 241, 272, 272
-0.993563, 181, 301, 212, 332
-0.993564, 85, 209, 116, 240
-0.993567, 153, 393, 184, 424
-0.993567, 165, 321, 196, 352
-0.99357, 249, 329, 280, 360
-0.993573, 93, 229, 124, 260
-0.993577, 269, 277, 300, 308
-0.993579, 33, 469, 64, 500
-0.993591, 49, 241, 80, 304
-0.993603, 57, 177, 120, 240
-0.993632, 277, 305, 308, 368
-0.993643, 129, 1, 192, 500
-0.993682, 161, 265, 288, 296
-0.993752, 25, 161, 88, 288
-0.993796, 69, 233, 100, 296
-0.993822, 57, 353, 88, 480
-0.993854, 69, 369, 100, 432
-0.993856, 9, 369, 40, 496
-0.993978, 249, 1, 312, 500
-0.99404, 53, 361, 84, 424
-0.994045, 137, 137, 168, 200
-0.994107, 217, 225, 232, 288
-0.994123, 41, 369, 72, 496
-0.994138, 161, 253, 288, 284
-0.99414, 17, 137, 144, 200
-0.994164, 101, 225, 132, 352
-0.994228, 299, 337, 314, 400
-0.994332, 197, 137, 228, 200
-0.994351, 145, 305, 176, 368
-0.99438, 149, 329, 180, 392
-0.994448, 49, 433, 112, 496
-0.994452, 161, 97, 288, 224
-0.994459, 249, 209, 280, 336
-0.994461, 57, 305, 88, 432
-0.994484, 287, 329, 302, 392
-0.994489, 193, 393, 320, 456
-0.994589, 69, 289, 100, 416
-0.994603, 81, 145, 208, 208
-0.994629, 193, 329, 320, 360
-0.994674, 37, 417, 68, 480
-0.994718, 37, 241, 68, 304
-0.994745, 227, 201, 242, 264
-0.994764, 1, 249, 333, 312
-0.99477, 181, 201, 196, 264
-0.994773, 209, 97, 272, 352
-0.994788, 1, 353, 333, 416
-0.994814, 65, 241, 96, 368
-0.994826, 121, 385, 184, 448
-0.99484, 145, 241, 272, 272
-0.994865, 177, 137, 208, 200
-0.994891, 221, 161, 236, 224
-0.994976, 1, 345, 128, 376
-0.994979, 105, 1, 168, 500
-0.994979, 193, 317, 320, 348
-0.994995, 97, 145, 160, 208
-0.995004, 49, 341, 176, 372
-0.995026, 201, 137, 264, 200
-0.995075, 293, 337, 308, 400
-0.995089, 185, 97, 216, 224
-0.995103, 193, 201, 208, 264
-0.995113, 97, 341, 224, 372
-0.995118, 157, 297, 188, 360
-0.995123, 129, 369, 256, 496
-0.995135, 113, 113, 144, 240
-0.995169, 273, 393, 333, 456
-0.995176, 197, 241, 212, 304
-0.995235, 1, 361, 128, 392
-0.995266, 189, 241, 204, 304
-0.995274, 223, 225, 238, 288
-0.995288, 85, 225, 116, 352
-0.995311, 233, 145, 264, 272
-0.995332, 49, 401, 176, 464
-0.995333, 289, 273, 320, 400
-0.995333, 21, 369, 52, 496
-0.995335, 129, 185, 160, 248
-0.995343, 209, 349, 333, 380
-0.995358, 235, 233, 250, 296
-0.99536, 177, 257, 192, 320
-0.995366, 177, 205, 304, 236
-0.995371, 117, 137, 148, 200
-0.995371, 211, 201, 226, 264
-0.995373, 97, 393, 224, 456
-0.995395, 225, 225, 256, 480
-0.995395, 189, 161, 204, 224
-0.995416, 41, 209, 72, 336
-0.995428, 145, 265, 176, 328
-0.995439, 305, 353, 320, 416
-0.995459, 89, 129, 120, 256
-0.995472, 277, 369, 308, 496
-0.995475, 1, 333, 128, 364
-0.995485, 145, 221, 272, 252
-0.995498, 293, 313, 324, 376
-0.995505, 215, 161, 230, 224
-0.995507, 21, 425, 52, 488
-0.995572, 105, 361, 136, 424
-0.9956, 9, 1, 72, 500
-0.995618, 171, 265, 186, 328
-0.99562, 145, 333, 272, 364
-0.995629, 57, 1, 120, 500
-0.995631, 213, 161, 244, 416
-0.995631, 249, 265, 264, 328
-0.995633, 109, 329, 124, 392
-0.995649, 209, 153, 224, 216
-0.995667, 153, 137, 184, 200
-0.995689, 107, 177, 122, 240
-0.99569, 205, 241, 220, 304
-0.995691, 173, 193, 204, 448
-0.995729, 183, 161, 198, 224
-0.995753, 281, 321, 296, 384
-0.995753, 103, 345, 118, 408
-0.995754, 171, 241, 186, 304
-0.995765, 193, 293, 320, 324
-0.995802, 177, 277, 304, 308
-0.995813, 199, 161, 214, 224
-0.995856, 273, 297, 288, 360
-0.995861, 171, 201, 186, 264
-0.995865, 81, 193, 208, 224
-0.995872, 81, 161, 112, 224
-0.995878, 145, 193, 272, 224
-0.995896, 259, 273, 274, 336
-0.995901, 185, 129, 216, 384
-0.995912, 177, 161, 192, 224
-0.995922, 33, 241, 160, 272
-0.995928, 165, 137, 196, 200
-0.995931, 33, 65, 288, 192
-0.995934, 75, 201, 90, 264
-0.995939, 177, 129, 304, 192
-0.995965, 211, 233, 226, 296
-0.995967, 91, 193, 106, 256
-0.995972, 9, 369, 72, 432
-0.996001, 65, 353, 320, 416
-0.996001, 227, 177, 242, 240
-0.996061, 165, 161, 180, 224
-0.996103, 209, 353, 272, 480
-0.996107, 229, 225, 244, 288
-0.99611, 101, 177, 116, 240
-0.996116, 295, 361, 310, 424
-0.996136, 249, 257, 280, 500
-0.996139, 201, 385, 264, 448
-0.996152, 183, 233, 198, 296
-0.99616, 49, 361, 176, 392
-0.996172, 117, 217, 148, 280
-0.9962, 193, 305, 320, 336
-0.996234, 145, 409, 272, 472
-0.996234, 163, 257, 178, 320
-0.996241, 223, 249, 238, 312
-0.996241, 49, 217, 176, 248
-0.996258, 49, 205, 176, 236
-0.99626, 113, 169, 128, 232
-0.996295, 139, 161, 154, 224
-0.996308, 97, 337, 112, 400
-0.996317, 97, 177, 224, 208
-0.99634, 25, 177, 88, 240
-0.996384, 97, 249, 224, 280
-0.996391, 153, 161, 168, 224
-0.996401, 221, 185, 236, 248
-0.996408, 209, 361, 333, 392
-0.99643, 97, 233, 224, 264
-0.996438, 243, 257, 258, 320
-0.996439, 55, 225, 70, 288
-0.996502, 217, 249, 232, 312
-0.996505, 153, 97, 184, 224
-0.996511, 97, 329, 224, 360
-0.996511, 285, 369, 300, 432
-0.996512, 257, 161, 320, 416
-0.996517, 49, 97, 112, 352
-0.99652, 201, 161, 232, 416
-0.99652, 131, 161, 146, 224
-0.996529, 235, 185, 250, 248
-0.996531, 25, 289, 56, 352
-0.996537, 265, 281, 280, 344
-0.996553, 1, 225, 128, 256
-0.996562, 9, 417, 40, 480
-0.996573, 145, 181, 272, 212
-0.996631, 61, 217, 76, 280
-0.996635, 159, 161, 174, 224
-0.996653, 165, 97, 196, 224
-0.996656, 85, 193, 100, 256
-0.996671, 205, 201, 220, 264
-0.996684, 237, 225, 268, 480
-0.996688, 33, 273, 160, 304
-0.99669, 33, 321, 160, 352
-0.996692, 233, 161, 264, 224
-0.996707, 69, 209, 84, 272
-0.996728, 109, 257, 140, 320
-0.996733, 249, 209, 312, 336
-0.996735, 161, 129, 192, 384
-0.99674, 171, 161, 186, 224
-0.996744, 97, 241, 128, 304
-0.996777, 197, 265, 212, 328
-0.99678, 209, 253, 333, 284
-0.996787, 113, 369, 176, 496
-0.996798, 145, 201, 160, 264
-0.996799, 217, 113, 248, 240
-0.996806, 49, 373, 176, 404
-0.996809, 41, 345, 72, 408
-0.996843, 81, 165, 208, 196
-0.996843, 211, 321, 226, 384
-0.996848, 1, 381, 128, 412
-0.996855, 209, 417, 333, 480
-0.99686, 165, 201, 180, 264
-0.996928, 219, 321, 234, 384
-0.996934, 151, 201, 166, 264
-0.996938, 147, 161, 162, 224
-0.996946, 209, 173, 333, 204
-0.996951, 241, 353, 272, 480
-0.996952, 189, 265, 204, 328
-0.997012, 47, 281, 62, 344
-0.997013, 97, 221, 224, 252
-0.997014, 243, 305, 258, 368
-0.99702, 1, 201, 128, 232
-0.997021, 193, 193, 320, 224
-0.997031, 33, 261, 160, 292
-0.997036, 97, 261, 224, 292
-0.997055, 177, 233, 192, 296
-0.997064, 53, 193, 84, 448
-0.997068, 279, 361, 294, 424
-0.997078, 119, 169, 134, 232
-0.997085, 115, 329, 130, 392
-0.997099, 277, 273, 308, 336
-0.997103, 85, 241, 116, 304
-0.997104, 187, 201, 202, 264
-0.997128, 213, 137, 244, 200
-0.997144, 231, 305, 246, 368
-0.997152, 125, 161, 140, 224
-0.997154, 195, 305, 210, 368
-0.997162, 261, 257, 292, 500
-0.99717, 273, 353, 288, 416
-0.99719, 165, 233, 180, 296
-0.9972, 221, 281, 252, 344
-0.997208, 105, 289, 136, 352
-0.997212, 189, 329, 204, 392
-0.997216, 89, 289, 120, 352
-0.99722, 205, 265, 220, 328
-0.997227, 105, 145, 136, 208
-0.997229, 137, 209, 152, 272
-0.997229, 85, 217, 100, 280
-0.997231, 205, 321, 220, 384
-0.997234, 127, 297, 142, 360
-0.997235, 209, 221, 333, 252
-0.997237, 183, 257, 198, 320
-0.997248, 265, 361, 280, 424
-0.997289, 153, 361, 216, 424
-0.997295, 33, 285, 160, 316
-0.9973, 199, 329, 214, 392
-0.997303, 103, 321, 118, 384
-0.997303, 145, 321, 272, 352
-0.997321, 91, 217, 106, 280
-0.997324, 237, 305, 252, 368
-0.997324, 199, 201, 214, 264
-0.997325, 161, 289, 176, 352
-0.997348, 51, 257, 66, 320
-0.997362, 33, 301, 160, 332
-0.99737, 251, 345, 266, 408
-0.997372, 99, 369, 114, 432
-0.997374, 97, 201, 112, 264
-0.997379, 259, 361, 274, 424
-0.997385, 185, 225, 216, 480
-0.997402, 129, 329, 144, 392
-0.997409, 157, 265, 172, 328
-0.997412, 169, 377, 200, 440
-0.997422, 57, 313, 88, 376
-0.997422, 225, 313, 240, 376
-0.997427, 65, 121, 192, 184
-0.997438, 181, 297, 196, 360
-0.997444, 121, 297, 136, 360
-0.997447, 121, 329, 136, 392
-0.99746, 209, 193, 224, 224
-0.997465, 311, 353, 326, 416
-0.997466, 209, 233, 333, 264
-0.997472, 305, 329, 320, 392
-0.997481, 141, 213, 156, 244
-0.997491, 201, 289, 216, 352
-0.997491, 137, 129, 168, 384
-0.997493, 77, 193, 108, 448
-0.997495, 167, 289, 182, 352
-0.997508, 165, 273, 180, 304
-0.997509, 187, 305, 202, 368
-0.997524, 105, 65, 168, 320
-0.997527, 211, 257, 226, 320
-0.997537, 275, 321, 290, 384
-0.997555, 149, 129, 180, 384
-0.997576, 97, 281, 224, 312
-0.997585, 161, 345, 288, 376
-0.997594, 33, 1, 96, 500
-0.997603, 109, 353, 124, 416
-0.997624, 229, 257, 244, 320
-0.997636, 83, 369, 98, 432
-0.997636, 49, 329, 64, 392
-0.997638, 161, 1, 224, 256
-0.997648, 65, 193, 96, 448
-0.997649, 183, 329, 198, 392
-0.997655, 305, 353, 320, 384
-0.997674, 173, 97, 204, 352
-0.997692, 149, 385, 180, 448
-0.997692, 69, 145, 100, 272
-0.997697, 135, 329, 150, 392
-0.997697, 235, 249, 250, 280
-0.997704, 1, 137, 64, 200
-0.997704, 125, 129, 156, 384
-0.997739, 1, 181, 128, 212
-0.997756, 219, 165, 234, 196
-0.997758, 77, 369, 92, 432
-0.997758, 183, 205, 198, 236
-0.997767, 97, 417, 224, 480
-0.997773, 103, 373, 118, 404
-0.997777, 109, 337, 124, 368
-0.997784, 221, 193, 236, 224
-0.99779, 53, 161, 84, 288
-0.997818, 73, 433, 136, 496
-0.997821, 233, 385, 296, 448
-0.997822, 229, 225, 244, 256
-0.997839, 299, 349, 314, 380
-0.99784, 59, 337, 74, 400
-0.997841, 129, 153, 256, 184
-0.997846, 135, 217, 150, 248
-0.997857, 133, 297, 148, 360
-0.997858, 213, 205, 228, 236
-0.997872, 91, 337, 106, 400
-0.997873, 175, 329, 190, 392
-0.997877, 245, 337, 260, 400
-0.997879, 249, 297, 264, 360
-0.997879, 211, 297, 226, 360
-0.997886, 1, 213, 128, 244
-0.997887, 223, 257, 238, 288
-0.997898, 73, 209, 88, 240
-0.997901, 9, 289, 40, 416
-0.997906, 45, 241, 60, 304
-0.997907, 151, 213, 166, 244
-0.997919, 219, 237, 234, 268
-0.997923, 209, 161, 224, 192
-0.997924, 157, 193, 172, 256
-0.997928, 81, 201, 96, 232
-0.997931, 49, 177, 176, 208
-0.997933, 63, 221, 78, 252
-0.997937, 259, 329, 274, 392
-0.997944, 161, 225, 192, 480
-0.99795, 241, 241, 272, 304
-0.997953, 129, 169, 144, 200
-0.997957, 95, 193, 110, 224
-0.997963, 93, 153, 124, 216
-0.997963, 101, 349, 116, 380
-0.997964, 107, 181, 122, 212
-0.997975, 227, 181, 242, 212
-0.997985, 113, 177, 128, 208
-0.997987, 121, 173, 136, 204
-0.997991, 177, 265, 192, 296
-0.997991, 113, 161, 144, 416
-0.997999, 203, 201, 218, 232
-0.998004, 233, 237, 248, 268
-0.998009, 1, 169, 128, 200
-0.998028, 193, 361, 256, 424
-0.998042, 227, 213, 242, 244
-0.998047, 289, 337, 304, 368
-0.998052, 129, 309, 256, 340
-0.998053, 193, 205, 208, 236
-0.998064, 169, 285, 184, 316
-0.998066, 261, 281, 276, 312
-0.998067, 175, 209, 190, 240
-0.998071, 191, 229, 206, 260
-0.998087, 89, 193, 120, 448
-0.99811, 291, 365, 306, 396
-0.99811, 205, 257, 236, 500
-0.998117, 97, 353, 224, 384
-0.998118, 171, 273, 186, 304
-0.998152, 209, 265, 333, 296
-0.998174, 209, 373, 333, 404
-0.998179, 101, 193, 132, 448
-0.998182, 233, 197, 248, 228
-0.998184, 169, 241, 184, 272
-0.998186, 213, 241, 228, 272
-0.998187, 167, 213, 182, 244
-0.99819, 217, 261, 232, 292
-0.998203, 261, 225, 292, 352
-0.998216, 197, 269, 212, 300
-0.99826, 209, 157, 333, 188
-0.998274, 189, 249, 204, 280
-0.998274, 251, 273, 266, 304
-0.998276, 95, 377, 110, 408
-0.998278, 203, 161, 218, 192
-0.99828, 293, 393, 324, 456
-0.998284, 175, 253, 190, 284
-0.998288, 307, 365, 322, 396
-0.998289, 157, 209, 172, 240
-0.99829, 135, 169, 150, 200
-0.998294, 225, 169, 240, 200
-0.998306, 77, 385, 108, 400
-0.998309, 249, 369, 280, 384
-0.99831, 157, 229, 188, 244
-0.99831, 73, 231, 104, 246
-0.998311, 281, 379, 312, 394
-0.998311, 233, 229, 264, 244
-0.998312, 253, 353, 284, 368
-0.998312, 157, 257, 188, 272
-0.998315, 189, 335, 220, 350
-0.998315, 49, 243, 80, 258
-0.998316, 173, 259, 204, 274
-0.998318, 97, 375, 128, 390
-0.998318, 241, 257, 256, 288
-0.998318, 237, 243, 268, 258
-0.99832, 261, 317, 292, 332
-0.998321, 261, 311, 292, 326
-0.998321, 185, 235, 216, 250
-0.998322, 277, 315, 308, 330
-0.998322, 205, 253, 236, 268
-0.998322, 57, 225, 72, 256
-0.998323, 221, 225, 236, 256
-0.998323, 301, 367, 332, 382
-0.998324, 225, 245, 240, 276
-0.998325, 279, 325, 294, 356
-0.998325, 205, 229, 236, 244
-0.998325, 125, 217, 156, 232
-0.998326, 189, 269, 220, 284
-0.998331, 265, 375, 296, 390
-0.998332, 89, 367, 120, 382
-0.998332, 153, 205, 184, 220
-0.998333, 237, 235, 268, 250
-0.998334, 121, 341, 152, 356
-0.998334, 249, 287, 280, 302
-0.998335, 149, 281, 180, 296
-0.998335, 197, 195, 228, 210
-0.998335, 177, 165, 208, 180
-0.998335, 173, 287, 204, 302
-0.998338, 103, 361, 118, 392
-0.998338, 109, 175, 140, 190
-0.99834, 89, 355, 120, 370
-0.99834, 61, 377, 92, 392
-0.998341, 201, 333, 232, 348
-0.998344, 233, 223, 264, 238
-0.998344, 245, 279, 276, 294
-0.998344, 161, 291, 192, 306
-0.998344, 89, 381, 120, 396
-0.998344, 157, 273, 188, 288
-0.998345, 101, 369, 132, 384
-0.998345, 189, 229, 220, 244
-0.998346, 213, 183, 244, 198
-0.998348, 101, 185, 116, 216
-0.998348, 257, 361, 288, 376
-0.998348, 57, 353, 88, 368
-0.99835, 229, 261, 244, 292
-0.998351, 189, 217, 220, 232
-0.998352, 85, 373, 116, 388
-0.998353, 217, 189, 248, 204
-0.998355, 261, 323, 292, 338
-0.998357, 189, 165, 220, 180
-0.998357, 241, 361, 272, 424
-0.998358, 169, 273, 200, 288
-0.998359, 209, 171, 240, 186
-0.99836, 189, 247, 220, 262
-0.998361, 277, 373, 308, 388
-0.998363, 173, 203, 204, 218
-0.998365, 173, 281, 204, 296
-0.998365, 285, 345, 316, 360
-0.998367, 133, 223, 164, 238
-0.998368, 85, 349, 116, 364
-0.998368, 73, 237, 104, 252
-0.99837, 201, 265, 232, 280
-0.998371, 169, 221, 200, 236
-0.998371, 89, 193, 104, 224
-0.998371, 77, 379, 108, 394
-0.998372, 145, 167, 176, 182
-0.998373, 179, 161, 194, 192
-0.998374, 229, 203, 260, 218
-0.998374, 213, 271, 244, 286
-0.998374, 257, 305, 288, 320
-0.998375, 159, 281, 174, 312
-0.998375, 277, 339, 308, 354
-0.998376, 133, 211, 164, 226
-0.998377, 265, 329, 296, 344
-0.998378, 165, 241, 196, 256
-0.998379, 185, 201, 216, 216
-0.99838, 85, 339, 116, 354
-0.99838, 183, 245, 198, 276
-0.998382, 53, 237, 84, 252
-0.998383, 81, 203, 112, 218
-0.998385, 189, 241, 220, 256
-0.998385, 181, 233, 196, 264
-0.998385, 189, 223, 220, 238
-0.998386, 161, 285, 192, 300
-0.998387, 93, 365, 108, 396
-0.998388, 165, 165, 196, 180
-0.998389, 101, 187, 132, 202
-0.99839, 253, 297, 284, 312
-0.998392, 289, 351, 320, 366
-0.998393, 169, 227, 200, 242
-0.998394, 205, 237, 236, 252
-0.998395, 213, 177, 244, 192
-0.998396, 89, 361, 120, 376
-0.998396, 265, 369, 296, 384
-0.998396, 69, 219, 100, 234
-0.998397, 85, 195, 116, 210
-0.998405, 293, 373, 324, 388
-0.998407, 271, 305, 286, 336
-0.998408, 271, 361, 286, 392
-0.998408, 173, 267, 204, 282
-0.998409, 57, 225, 88, 240
-0.99841, 293, 361, 324, 376
-0.998418, 193, 211, 256, 226
-0.998422, 95, 337, 110, 368
-0.998424, 213, 211, 244, 226
-0.998425, 213, 259, 244, 274
-0.998426, 1, 377, 256, 440
-0.998427, 105, 343, 136, 358
-0.998428, 169, 215, 200, 230
-0.998429, 233, 269, 264, 284
-0.998431, 73, 211, 104, 226
-0.998434, 157, 247, 188, 262
-0.998436, 169, 211, 232, 226
-0.998436, 173, 161, 188, 192
-0.998437, 169, 233, 200, 248
-0.998438, 109, 365, 124, 396
-0.99844, 153, 211, 184, 226
-0.99844, 161, 279, 192, 294
-0.99844, 163, 165, 178, 196
-0.998441, 133, 169, 164, 184
-0.998442, 53, 231, 84, 246
-0.998443, 101, 337, 132, 352
-0.998443, 109, 181, 140, 196
-0.998449, 193, 205, 256, 220
-0.998452, 49, 229, 176, 260
-0.998453, 177, 243, 208, 258
-0.998456, 149, 223, 180, 238
-0.998456, 129, 217, 192, 232
-0.998458, 285, 367, 316, 382
-0.99846, 143, 225, 158, 256
-0.998461, 193, 217, 256, 232
-0.998462, 147, 165, 162, 196
-0.998462, 217, 181, 232, 212
-0.998465, 217, 219, 248, 234
-0.998468, 1, 425, 128, 456
-0.99847, 49, 385, 176, 416
-0.998472, 175, 285, 190, 316
-0.998472, 225, 257, 256, 272
-0.998473, 187, 165, 202, 196
-0.998475, 193, 211, 224, 226
-0.998475, 201, 245, 264, 260
-0.998475, 285, 377, 300, 408
-0.998476, 213, 265, 244, 280
-0.998476, 17, 457, 144, 488
-0.998477, 195, 249, 210, 280
-0.998477, 1, 425, 256, 488
-0.998477, 103, 333, 118, 364
-0.998477, 205, 243, 236, 258
-0.998477, 145, 211, 208, 226
-0.998478, 177, 249, 208, 264
-0.998478, 157, 165, 172, 196
-0.998478, 121, 171, 152, 186
-0.99848, 137, 217, 168, 232
-0.998482, 269, 293, 284, 324
-0.998483, 177, 165, 240, 180
-0.998484, 197, 201, 228, 216
-0.998485, 191, 265, 206, 296
-0.998486, 205, 245, 220, 276
-0.998486, 119, 337, 134, 368
-0.998487, 145, 223, 208, 238
-0.998489, 217, 233, 248, 248
-0.998489, 221, 249, 252, 264
-0.99849, 215, 193, 230, 224
-0.998503, 153, 217, 216, 232
-0.998507, 209, 263, 272, 278
-0.998508, 215, 225, 230, 256
-0.99851, 217, 227, 248, 242
-0.99851, 153, 217, 184, 232
-0.998511, 201, 165, 232, 180
-0.998511, 193, 199, 256, 214
-0.998514, 161, 357, 288, 388
-0.998515, 213, 195, 244, 210
-0.99852, 193, 223, 256, 238
-0.998522, 169, 237, 232, 252
-0.998528, 9, 241, 40, 368
-0.998533, 209, 257, 272, 272
-0.998534, 125, 209, 156, 336
-0.998538, 57, 345, 120, 360
-0.99854, 113, 293, 240, 324
-0.998541, 199, 333, 214, 364
-0.998544, 145, 393, 272, 424
-0.998545, 209, 269, 272, 284
-0.998546, 113, 173, 176, 188
-0.998546, 177, 249, 240, 264
-0.998546, 211, 181, 226, 212
-0.998547, 169, 261, 184, 292
-0.998549, 213, 205, 244, 220
-0.99855, 193, 239, 256, 254
-0.998551, 145, 165, 208, 180
-0.998551, 145, 201, 160, 232
-0.998554, 173, 209, 204, 224
-0.998556, 9, 305, 40, 368
-0.998556, 141, 165, 156, 196
-0.998556, 249, 337, 312, 352
-0.998557, 97, 343, 160, 358
-0.998557, 169, 229, 232, 244
-0.998557, 183, 265, 198, 296
-0.998558, 49, 281, 64, 312
-0.998563, 203, 269, 218, 300
-0.998567, 209, 65, 240, 320
-0.998568, 225, 263, 256, 278
-0.998569, 65, 361, 128, 376
-0.998573, 49, 235, 112, 250
-0.998574, 105, 179, 168, 194
-0.998579, 241, 309, 304, 324
-0.998579, 57, 351, 120, 366
-0.99858, 233, 185, 248, 216
-0.99858, 87, 373, 102, 404
-0.99858, 169, 243, 232, 258
-0.998581, 265, 367, 328, 382
-0.998583, 57, 369, 120, 384
-0.998585, 97, 219, 160, 234
-0.998586, 193, 193, 256, 208
-0.998586, 57, 221, 120, 236
-0.998588, 241, 329, 304, 344
-0.998589, 127, 337, 142, 368
-0.99859, 57, 377, 120, 392
-0.998592, 257, 343, 320, 358
-0.998595, 167, 225, 182, 256
-0.998595, 121, 223, 184, 238
-0.998597, 217, 239, 248, 254
-0.998598, 205, 233, 220, 264
-0.998599, 193, 165, 208, 196
-0.998599, 193, 217, 208, 248
-0.9986, 265, 353, 328, 368
-0.9986, 169, 205, 232, 220
-0.9986, 241, 315, 304, 330
-0.9986, 97, 337, 160, 352
-0.998603, 57, 385, 120, 400
-0.998604, 57, 339, 120, 354
-0.998605, 91, 225, 106, 256
-0.998605, 241, 303, 304, 318
-0.998605, 193, 229, 256, 244
-0.998608, 249, 349, 264, 380
-0.998612, 201, 251, 264, 266
-0.998617, 169, 223, 232, 238
-0.998618, 159, 269, 174, 300
-0.99862, 65, 209, 128, 224
-0.998621, 277, 357, 292, 388
-0.998621, 49, 229, 112, 244
-0.998622, 169, 199, 232, 214
-0.998622, 177, 255, 240, 270
-0.998622, 241, 321, 304, 336
-0.998623, 145, 243, 208, 258
-0.998624, 217, 275, 280, 290
-0.998625, 49, 241, 112, 256
-0.998625, 297, 361, 312, 392
-0.998626, 279, 369, 294, 400
-0.998628, 129, 281, 192, 296
-0.998628, 97, 185, 160, 200
-0.99863, 225, 285, 288, 300
-0.998631, 257, 373, 320, 388
-0.998631, 161, 279, 224, 294
-0.998632, 239, 225, 254, 256
-0.998633, 121, 167, 184, 182
-0.998634, 1, 313, 64, 328
-0.998634, 1, 323, 64, 338
-0.998634, 65, 215, 128, 230
-0.998635, 169, 267, 232, 282
-0.998636, 185, 173, 248, 188
-0.998639, 169, 261, 232, 276
-0.998639, 211, 265, 226, 296
-0.998641, 101, 369, 132, 496
-0.998642, 145, 229, 208, 244
-0.998643, 193, 333, 256, 348
-0.998645, 53, 237, 68, 268
-0.998645, 73, 203, 136, 218
-0.998646, 273, 359, 333, 374
-0.998646, 185, 185, 248, 200
-0.998646, 1, 307, 64, 322
-0.998646, 285, 365, 300, 396
-0.998648, 41, 247, 104, 262
-0.998648, 105, 213, 168, 228
-0.998649, 1, 301, 64, 316
-0.99865, 79, 373, 94, 404
-0.998651, 1, 295, 64, 310
-0.998652, 153, 287, 216, 302
-0.998652, 225, 197, 288, 212
-0.998653, 129, 205, 192, 220
-0.998653, 233, 241, 296, 256
-0.998654, 225, 211, 288, 226
-0.998655, 73, 241, 136, 256
-0.998656, 81, 197, 144, 212
-0.998656, 169, 273, 232, 288
-0.998656, 241, 263, 304, 278
-0.998656, 49, 333, 112, 348
-0.99866, 9, 347, 72, 362
-0.99866, 179, 193, 194, 320
-0.998661, 9, 329, 72, 344
-0.998662, 301, 373, 316, 404
-0.998662, 233, 291, 296, 306
-0.998662, 9, 247, 72, 262
-0.998662, 89, 191, 152, 206
-0.998662, 145, 235, 208, 250
-0.998663, 97, 371, 160, 386
-0.998664, 225, 249, 288, 264
-0.998664, 215, 145, 230, 272
-0.998665, 9, 255, 72, 270
-0.998665, 9, 237, 72, 252
-0.998665, 1, 289, 64, 304
-0.998666, 137, 337, 200, 352
-0.998668, 1, 413, 128, 444
-0.998668, 97, 349, 160, 364
-0.998668, 169, 335, 232, 350
-0.998669, 9, 341, 72, 356
-0.99867, 81, 383, 144, 398
-0.99867, 81, 377, 144, 392
-0.99867, 217, 235, 280, 250
-0.998672, 49, 279, 112, 294
-0.998673, 9, 273, 72, 288
-0.998673, 153, 249, 216, 264
-0.998674, 225, 203, 288, 218
-0.998674, 9, 335, 72, 350
-0.998675, 185, 179, 248, 194
-0.998676, 233, 297, 296, 312
-0.998681, 205, 257, 220, 288
-0.998681, 273, 315, 333, 330
-0.998681, 209, 339, 272, 354
-0.998681, 273, 309, 333, 324
-0.998681, 233, 227, 296, 242
-0.998682, 9, 229, 72, 244
-0.998682, 33, 377, 96, 392
-0.998682, 41, 253, 104, 268
-0.998682, 105, 365, 168, 380
-0.998684, 225, 183, 288, 198
-0.998685, 137, 257, 200, 272
-0.998686, 265, 293, 328, 308
-0.998686, 41, 285, 104, 300
-0.998686, 193, 333, 208, 364
-0.998687, 105, 355, 168, 370
-0.998687, 129, 251, 192, 266
-0.998687, 273, 321, 333, 336
-0.998688, 217, 329, 280, 344
-0.998693, 273, 317, 288, 348
-0.998694, 225, 161, 240, 288
-0.998696, 71, 369, 86, 400
-0.998697, 295, 337, 310, 368
-0.998697, 209, 145, 224, 272
-0.998699, 91, 205, 106, 236
-0.998706, 207, 333, 222, 364
-0.998707, 291, 377, 306, 408
-0.998711, 133, 337, 148, 368
-0.998719, 149, 225, 180, 480
-0.998722, 239, 241, 254, 368
-0.998724, 181, 145, 196, 272
-0.998729, 203, 189, 218, 220
-0.99874, 185, 385, 216, 448
-0.998743, 261, 357, 276, 388
-0.998746, 245, 269, 260, 300
-0.998749, 85, 385, 100, 416
-0.998751, 203, 145, 218, 272
-0.998761, 277, 305, 292, 432
-0.998762, 291, 321, 306, 448
-0.998766, 1, 441, 128, 472
-0.998775, 193, 145, 208, 272
-0.998776, 97, 373, 224, 404
-0.998783, 37, 257, 68, 500
-0.998785, 245, 257, 260, 384
-0.998788, 81, 317, 208, 348
-0.998803, 137, 225, 168, 480
-0.998805, 113, 257, 144, 500
-0.998816, 171, 241, 186, 368
-0.998829, 29, 393, 60, 456
-0.998836, 283, 321, 298, 448
-0.998839, 271, 289, 286, 416
-0.998855, 197, 65, 228, 320
-0.998861, 255, 257, 270, 384
-0.998868, 169, 193, 184, 320
-0.998881, 207, 193, 222, 320
-0.998884, 167, 145, 182, 272
-0.998901, 233, 225, 248, 352
-0.998901, 175, 145, 190, 272
-0.998912, 9, 377, 40, 440
-0.998913, 1, 469, 128, 500
-0.998915, 81, 305, 208, 336
-0.998916, 179, 241, 194, 368
-0.998916, 203, 241, 218, 368
-0.998927, 33, 157, 160, 188
-0.998928, 1, 401, 256, 464
-0.998929, 277, 225, 308, 480
-0.998944, 187, 145, 202, 272
-0.998945, 185, 193, 200, 320
-0.998956, 185, 33, 216, 288
-0.998962, 191, 193, 206, 320
-0.998988, 265, 273, 280, 400
-0.998992, 155, 145, 170, 272
-0.998993, 165, 241, 180, 368
-0.998995, 201, 193, 216, 320
-0.999002, 49, 469, 176, 500
-0.999006, 249, 161, 280, 416
-0.999007, 257, 257, 288, 320
-0.999012, 147, 145, 162, 272
-0.999018, 109, 321, 124, 448
-0.999019, 225, 129, 256, 384
-0.99902, 225, 241, 240, 368
-0.99902, 197, 241, 212, 368
-0.999027, 209, 389, 333, 420
-0.999038, 161, 145, 176, 272
-0.999042, 241, 209, 272, 272
-0.99906, 231, 177, 246, 304
-0.99906, 145, 433, 272, 496
-0.999062, 211, 241, 226, 368
-0.999064, 1, 161, 64, 224
-0.999085, 219, 225, 234, 352
-0.999086, 297, 321, 312, 448
-0.999092, 41, 369, 72, 432
-0.999101, 111, 161, 126, 288
-0.999104, 213, 193, 228, 320
-0.999113, 125, 257, 156, 500
-0.999123, 97, 393, 224, 424
-0.999138, 169, 289, 184, 416
-0.99914, 159, 273, 174, 400
-0.999143, 101, 305, 116, 432
-0.999154, 49, 421, 176, 452
-0.999163, 237, 129, 268, 384
-0.999184, 133, 305, 148, 432
-0.99919, 189, 241, 204, 368
-0.999192, 119, 321, 134, 448
-0.999194, 141, 145, 156, 272
-0.999195, 223, 305, 238, 432
-0.999205, 127, 321, 142, 448
-0.999206, 53, 225, 68, 352
-0.99923, 271, 337, 286, 464
-0.999235, 229, 305, 244, 432
-0.999237, 1, 129, 256, 192
-0.999245, 151, 193, 166, 320
-0.999251, 237, 305, 252, 432
-0.999254, 125, 273, 140, 400
-0.99926, 63, 209, 78, 336
-0.999263, 205, 321, 220, 448
-0.999266, 133, 161, 148, 288
-0.999267, 53, 193, 84, 256
-0.999268, 175, 289, 190, 416
-0.999273, 177, 417, 304, 448
-0.99928, 139, 321, 154, 448
-0.999281, 215, 305, 230, 432
-0.999285, 49, 445, 176, 476
-0.999285, 145, 405, 272, 436
-0.999286, 241, 209, 304, 272
-0.999295, 305, 337, 320, 464
-0.999301, 111, 273, 126, 400
-0.999315, 103, 353, 118, 480
-0.999324, 47, 257, 62, 384
-0.999325, 25, 241, 56, 368
-0.999329, 209, 401, 333, 432
-0.999347, 117, 273, 132, 400
-0.999349, 129, 425, 256, 456
-0.99935, 161, 33, 192, 288
-0.99935, 199, 321, 214, 448
-0.999352, 49, 433, 176, 464
-0.999357, 1, 377, 333, 440
-0.999357, 163, 193, 178, 320
-0.999357, 251, 337, 266, 464
-0.999359, 97, 413, 224, 444
-0.999362, 265, 353, 280, 480
-0.999363, 105, 161, 120, 288
-0.999371, 149, 321, 164, 448
-0.999375, 277, 353, 292, 480
-0.999385, 163, 321, 178, 448
-0.999388, 85, 97, 116, 352
-0.999389, 245, 305, 260, 432
-0.99939, 131, 257, 146, 384
-0.999399, 117, 161, 132, 288
-0.999406, 285, 273, 300, 400
-0.99941, 93, 289, 108, 416
-0.999411, 139, 273, 154, 400
-0.999414, 73, 193, 88, 320
-0.999419, 185, 321, 200, 448
-0.999421, 127, 161, 142, 288
-0.999429, 157, 321, 172, 448
-0.999439, 259, 305, 274, 432
-0.999442, 185, 353, 248, 480
-0.999443, 289, 225, 320, 480
-0.99945, 45, 305, 60, 432
-0.999452, 193, 289, 208, 416
-0.999455, 87, 177, 102, 304
-0.999458, 141, 33, 172, 288
-0.999465, 61, 97, 92, 352
-0.999471, 257, 353, 272, 480
-0.999472, 153, 273, 168, 400
-0.999505, 53, 273, 68, 400
-0.999511, 93, 353, 108, 480
-0.999516, 79, 193, 94, 320
-0.999516, 209, 97, 224, 224
-0.999523, 145, 241, 176, 304
-0.999525, 85, 369, 100, 496
-0.999527, 121, 257, 152, 320
-0.999527, 157, 193, 172, 320
-0.999529, 215, 235, 230, 250
-0.99953, 77, 235, 92, 250
-0.99953, 195, 165, 210, 180
-0.99953, 137, 215, 152, 230
-0.99953, 189, 249, 204, 264
-0.99953, 229, 193, 244, 208
-0.999531, 311, 337, 326, 464
-0.999531, 197, 247, 212, 262
-0.999531, 225, 255, 240, 270
-0.999532, 191, 233, 206, 248
-0.999532, 139, 227, 154, 242
-0.999532, 269, 299, 284, 314
-0.999532, 85, 225, 100, 240
-0.999533, 199, 209, 214, 224
-0.999533, 299, 367, 314, 382
-0.999534, 271, 317, 286, 332
-0.999534, 233, 199, 248, 214
-0.999534, 303, 289, 318, 416
-0.999535, 171, 251, 186, 266
-0.999535, 59, 229, 74, 244
-0.999536, 283, 335, 298, 350
-0.999537, 163, 165, 178, 180
-0.999538, 285, 369, 300, 496
-0.999538, 171, 263, 186, 278
-0.999538, 149, 167, 164, 182
-0.999538, 221, 203, 236, 218
-0.999538, 207, 239, 222, 254
-0.999539, 179, 209, 194, 224
-0.999539, 127, 341, 142, 356
-0.999539, 213, 229, 228, 244
-0.99954, 165, 221, 180, 236
-0.99954, 169, 165, 184, 180
-0.999541, 191, 227, 206, 242
-0.999542, 69, 221, 84, 236
-0.999542, 203, 195, 218, 210
-0.999542, 147, 273, 162, 400
-0.999543, 221, 229, 236, 244
-0.999543, 247, 271, 262, 286
-0.999545, 271, 305, 286, 320
-0.999546, 265, 293, 280, 308
-0.999546, 75, 227, 90, 242
-0.999546, 225, 211, 240, 226
-0.999547, 189, 267, 204, 282
-0.999549, 249, 209, 264, 336
-0.99955, 177, 281, 192, 296
-0.999553, 213, 245, 228, 260
-0.999553, 91, 387, 106, 402
-0.999554, 109, 367, 124, 382
-0.999554, 99, 351, 114, 366
-0.999554, 193, 215, 208, 230
-0.999555, 309, 369, 324, 384
-0.999555, 269, 367, 284, 382
-0.999555, 223, 113, 238, 240
-0.999555, 179, 165, 194, 180
-0.999556, 179, 239, 194, 254
-0.999556, 215, 207, 230, 222
-0.999556, 227, 185, 242, 200
-0.999557, 187, 165, 202, 180
-0.999557, 205, 247, 220, 262
-0.999557, 295, 377, 310, 392
-0.999557, 237, 177, 252, 304
-0.999558, 291, 273, 306, 400
-0.99956, 197, 271, 212, 286
-0.99956, 219, 259, 234, 274
-0.999561, 223, 171, 238, 186
-0.999563, 277, 325, 292, 340
-0.999564, 233, 249, 248, 264
-0.999565, 97, 343, 112, 358
-0.999565, 177, 267, 192, 282
-0.999565, 103, 337, 118, 352
-0.999565, 261, 287, 276, 302
-0.999565, 169, 271, 184, 286
-0.999566, 173, 211, 188, 226
-0.999566, 295, 343, 310, 358
-0.999568, 229, 267, 244, 282
-0.999569, 159, 209, 174, 224
-0.999569, 193, 209, 208, 224
-0.999571, 79, 369, 94, 496
-0.999572, 73, 215, 88, 230
-0.999572, 239, 261, 254, 276
-0.999573, 305, 361, 320, 376
-0.999573, 201, 165, 216, 180
-0.999574, 239, 233, 254, 248
-0.999574, 259, 281, 274, 296
-0.999574, 281, 373, 296, 388
-0.999574, 97, 383, 112, 398
-0.999575, 99, 191, 114, 206
-0.999575, 143, 169, 158, 184
-0.999575, 149, 213, 164, 228
-0.999576, 215, 97, 230, 224
-0.999577, 165, 291, 180, 306
-0.999577, 107, 181, 122, 196
-0.999578, 231, 243, 246, 258
-0.99958, 87, 381, 102, 396
-0.999581, 303, 373, 318, 388
-0.999582, 227, 219, 242, 234
-0.999583, 151, 221, 166, 236
-0.999584, 103, 373, 118, 388
-0.999584, 79, 305, 94, 432
-0.999584, 105, 241, 120, 368
-0.999586, 301, 349, 316, 364
-0.999586, 225, 177, 240, 192
-0.999587, 87, 321, 102, 448
-0.999588, 181, 245, 196, 260
-0.999588, 83, 199, 98, 214
-0.999589, 289, 339, 304, 354
-0.999589, 107, 343, 122, 358
-0.999589, 69, 353, 84, 480
-0.99959, 215, 201, 230, 216
-0.99959, 199, 97, 214, 224
-0.999591, 141, 221, 156, 236
-0.999594, 99, 225, 114, 352
-0.999595, 299, 369, 314, 496
-0.999595, 103, 361, 118, 376
-0.999595, 155, 215, 170, 230
-0.999597, 211, 165, 226, 180
-0.999597, 161, 279, 176, 294
-0.999597, 305, 355, 320, 370
-0.999599, 33, 369, 48, 496
-0.9996, 93, 195, 108, 210
-0.9996, 261, 225, 276, 352
-0.9996, 171, 287, 186, 302
-0.9996, 229, 229, 244, 244
-0.999603, 15, 369, 30, 496
-0.999603, 167, 277, 182, 292
-0.999604, 253, 275, 268, 290
-0.999606, 219, 265, 234, 280
-0.999607, 79, 205, 94, 220
-0.99961, 143, 193, 158, 320
-0.99961, 223, 197, 238, 212
-0.999611, 203, 201, 218, 216
-0.999613, 185, 207, 200, 222
-0.999616, 105, 187, 120, 202
-0.999619, 25, 369, 40, 496
-0.99962, 293, 369, 308, 496
-0.999621, 169, 245, 184, 260
-0.999622, 253, 305, 284, 368
-0.999626, 219, 241, 234, 256
-0.999627, 63, 223, 78, 238
-0.999628, 193, 337, 208, 464
-0.999628, 57, 353, 72, 480
-0.999628, 1, 397, 128, 428
-0.999629, 233, 205, 248, 220
-0.99963, 217, 167, 232, 182
-0.999636, 51, 337, 66, 464
-0.999639, 137, 169, 152, 184
-0.99964, 99, 161, 114, 288
-0.99964, 225, 261, 240, 276
-0.999641, 133, 221, 148, 236
-0.999645, 291, 371, 306, 386
-0.999647, 143, 215, 158, 230
-0.999648, 235, 255, 250, 270
-0.999656, 45, 209, 60, 336
-0.999659, 39, 369, 54, 496
-0.99966, 113, 181, 128, 196
-0.999662, 229, 237, 244, 252
-0.999662, 129, 171, 144, 186
-0.999662, 93, 241, 108, 368
-0.999663, 221, 235, 236, 250
-0.999667, 1, 145, 333, 208
-0.999669, 209, 203, 224, 218
-0.999673, 169, 337, 184, 464
-0.999677, 93, 177, 108, 304
-0.999682, 119, 175, 134, 190
-0.999682, 115, 113, 130, 240
-0.999683, 63, 161, 78, 288
-0.999686, 209, 197, 224, 212
-0.999687, 261, 161, 292, 416
-0.999701, 81, 153, 208, 184
-0.999714, 9, 281, 40, 344
-0.999714, 197, 385, 228, 448
-0.999729, 73, 97, 104, 352
-0.999739, 193, 145, 320, 176
-0.999762, 65, 457, 192, 488
-0.999782, 301, 289, 332, 416
-0.999816, 117, 33, 148, 288
-0.99984, 177, 429, 304, 460
-0.999845, 49, 409, 176, 440
-0.999848, 273, 1, 333, 500
-0.999853, 1, 433, 333, 496
-0.999868, 145, 381, 272, 412
-0.99987, 105, 65, 136, 320
-0.999871, 209, 469, 333, 500
-0.99992, 209, 409, 272, 472
-0.99997, 9, 257, 40, 500
-1.00002, 49, 153, 112, 216
-1.00003, 161, 457, 288, 488
-1.00009, 25, 225, 56, 480
-1.00017, 49, 397, 176, 428
-1.0002, 49, 129, 112, 256
-1.00022, 1, 141, 128, 172
-1.00022, 113, 445, 240, 476
-1.00023, 161, 469, 288, 500
-1.00025, 301, 225, 332, 480
-1.00033, 209, 449, 333, 480
-1.00033, 161, 369, 288, 400
-1.00034, 129, 33, 160, 288
-1.00036, 29, 193, 60, 320
-1.0004, 173, 1, 204, 256
-1.0004, 9, 161, 40, 416
-1.00042, 1, 97, 64, 224
-1.00045, 113, 469, 240, 500
-1.00048, 1, 65, 64, 320
-1.00049, 49, 97, 80, 352
-1.00049, 33, 97, 64, 352
-1.0005, 221, 33, 252, 288
-1.00051, 205, 369, 236, 496
-1.00052, 161, 445, 288, 476
-1.00052, 169, 409, 232, 472
-1.00054, 1, 129, 128, 160
-1.00054, 1, 1, 128, 32
-1.00057, 113, 457, 240, 488
-1.00057, 1, 409, 333, 472
-1.00057, 5, 33, 36, 288
-1.00061, 273, 417, 333, 480
-1.00064, 113, 141, 240, 172
-1.00066, 1, 13, 128, 44
-1.00066, 9, 177, 40, 304
-1.00067, 65, 141, 192, 172
-1.0007, 49, 121, 176, 152
-1.00076, 1, 117, 128, 148
-1.00076, 117, 369, 148, 496
-1.00077, 49, 109, 176, 140
-1.00079, 209, 85, 333, 116
-1.0008, 129, 73, 256, 104
-1.0008, 1, 25, 128, 56
-1.0008, 129, 117, 256, 148
-1.00081, 129, 101, 256, 132
-1.00081, 65, 97, 192, 128
-1.00082, 89, 409, 152, 472
-1.00083, 209, 81, 333, 208
-1.00083, 193, 101, 320, 132
-1.00083, 209, 113, 333, 144
-1.00083, 209, 125, 333, 156
-1.00085, 1, 145, 64, 272
-1.00085, 129, 37, 256, 68
-1.00085, 129, 129, 256, 160
-1.00086, 101, 113, 132, 240
-1.00086, 1, 105, 128, 136
-1.00086, 209, 33, 333, 64
-1.00087, 129, 53, 256, 84
-1.00087, 209, 65, 333, 96
-1.00089, 193, 53, 320, 84
-1.00089, 1, 105, 128, 168
-1.00091, 241, 417, 304, 480
-1.00093, 65, 81, 128, 208
-1.00093, 129, 89, 256, 120
-1.00094, 65, 85, 192, 116
-1.00099, 33, 105, 288, 168
-1.00104, 93, 1, 124, 256
-1.00108, 233, 33, 264, 288
-1.00114, 89, 385, 152, 448
-1.00116, 1, 1, 256, 64
-1.00123, 25, 97, 88, 352
-1.00124, 133, 369, 164, 496
-1.00125, 273, 129, 304, 384
-1.00126, 33, 81, 288, 144
-1.00135, 65, 1, 96, 256
-1.00136, 301, 129, 332, 384
-1.00137, 1, 1, 128, 64
-1.00138, 193, 369, 224, 496
-1.00148, 77, 1, 108, 256
-1.00151, 33, 57, 288, 120
-1.00153, 21, 129, 52, 384
-1.00153, 49, 97, 176, 160
-1.00156, 33, 25, 288, 88
-1.00169, 193, 97, 320, 160
-1.00171, 289, 65, 320, 320
-1.00174, 21, 1, 52, 256
-1.00174, 261, 65, 292, 320
-1.00175, 137, 409, 200, 472
-1.00175, 169, 369, 200, 496
-1.00177, 41, 1, 72, 256
-1.00177, 301, 33, 332, 288
-1.00178, 137, 369, 200, 496
-1.00181, 113, 97, 240, 160
-1.00184, 277, 1, 308, 256
-1.00186, 217, 81, 280, 208
-1.00186, 249, 65, 280, 320
-1.00187, 53, 1, 84, 256
-1.0019, 1, 121, 333, 184
-1.00199, 225, 353, 256, 480
-1.00204, 113, 209, 144, 336
-1.00205, 209, 33, 333, 96
-1.00207, 129, 73, 256, 136
-1.0021, 129, 41, 256, 104
-1.00216, 273, 225, 304, 352
-1.00219, 5, 129, 36, 256
-1.0022, 121, 353, 184, 416
-1.00222, 113, 17, 240, 80
-1.00222, 1, 25, 128, 88
-1.00225, 113, 409, 176, 472
-1.00226, 49, 73, 176, 136
-1.00231, 209, 73, 333, 136
-1.00232, 97, 433, 160, 496
-1.00234, 193, 9, 320, 72
-1.00243, 197, 65, 228, 192
-1.00252, 1, 97, 333, 160
-1.00253, 157, 369, 188, 496
-1.00256, 97, 121, 160, 184
-1.00268, 65, 49, 192, 112
-1.00272, 1, 81, 128, 144
-1.00282, 1, 73, 333, 136
-1.00288, 65, 25, 192, 88
-1.00291, 65, 1, 192, 64
-1.00292, 217, 1, 280, 256
-1.00297, 1, 1, 333, 64
-1.003, 17, 49, 144, 112
-1.00316, 1, 41, 333, 104
-1.00316, 181, 369, 212, 496
-1.0033, 229, 97, 260, 224
-1.00331, 201, 433, 264, 496
-1.00344, 145, 369, 176, 496
-1.00368, 169, 433, 232, 496
-1.00391, 41, 161, 72, 288
-1.00408, 5, 81, 36, 208
-1.00425, 1, 113, 64, 176
-1.00446, 145, 433, 208, 496
-1.00447, 21, 321, 52, 448
-1.00467, 177, 65, 240, 192
-1.00513, 121, 433, 184, 496
-1.00523, 1, 17, 32, 144
-1.00526, 1, 1, 256, 128
-1.00535, 225, 129, 288, 192
-1.00572, 261, 177, 292, 304
-1.00613, 1, 49, 64, 112
-1.00615, 217, 65, 248, 192
-1.00643, 65, 105, 128, 168
-1.00652, 41, 121, 104, 184
-1.00653, 89, 81, 120, 208
-1.00656, 141, 65, 172, 192
-1.00657, 245, 161, 276, 288
-1.0067, 73, 81, 104, 208
-1.00685, 49, 1, 112, 256
-1.00698, 1, 25, 64, 88
-1.00705, 209, 17, 333, 144
-1.00709, 1, 89, 64, 152
-1.00712, 201, 113, 264, 176
-1.00724, 41, 97, 104, 160
-1.00751, 301, 241, 332, 368
-1.00765, 301, 193, 332, 320
-1.00765, 81, 81, 144, 144
-1.00767, 129, 33, 256, 160
-1.00779, 9, 1, 72, 64
-1.00787, 1, 1, 128, 128
-1.00797, 273, 209, 333, 272
-1.00801, 289, 225, 320, 352
-1.00804, 53, 113, 84, 240
-1.00825, 33, 73, 96, 136
-1.00842, 13, 1, 44, 128
-1.00844, 105, 97, 168, 160
-1.00857, 297, 145, 328, 272
-1.00859, 1, 65, 128, 192
-1.00876, 129, 65, 160, 192
-1.0088, 81, 57, 144, 120
-1.00888, 169, 113, 232, 176
-1.0089, 265, 185, 328, 248
-1.00902, 61, 49, 92, 176
-1.00904, 25, 1, 56, 128
-1.00907, 85, 33, 116, 160
-1.00912, 277, 161, 308, 288
-1.00943, 65, 17, 192, 144
-1.0096, 1, 49, 64, 176
-1.00997, 25, 1, 88, 256
-1.01027, 25, 113, 88, 240
-1.01036, 241, 33, 304, 288
-1.01071, 265, 1, 328, 256
-1.01075, 1, 1, 64, 128
-1.01308, 105, 65, 168, 192
-1.01312, 41, 49, 104, 176
-1.01318, 273, 145, 333, 272
-1.01325, 81, 33, 144, 160
-1.01409, 41, 1, 104, 128
-1.01442, 177, 1, 240, 128
-1.01442, 217, 17, 280, 144
-1.01478, 129, 17, 192, 144
-1.01478, 153, 17, 216, 144
-1.01478, 249, 17, 312, 144
-1.01478, 273, 33, 333, 160
-1.01478, 249, 65, 312, 192
-1.01478, 273, 81, 333, 208
-1.01494, 105, 17, 168, 144
