1927
-0.223681, 1, 1, 500, 338
-0.35586, 1, 65, 500, 320
-0.371794, 97, 1, 352, 338
-0.472743, 1, 1, 256, 338
-0.487969, 193, 1, 448, 338
-0.492787, 129, 33, 384, 288
-0.527295, 33, 97, 288, 338
-0.604142, 225, 65, 480, 320
-0.629267, 33, 1, 288, 256
-0.825183, 161, 1, 288, 338
-0.833393, 161, 1, 288, 256
-0.841192, 209, 33, 336, 288
-0.848754, 241, 1, 368, 338
-0.852105, 273, 65, 400, 320
-0.852476, 129, 97, 256, 338
-0.855718, 369, 97, 496, 338
-0.865405, 1, 161, 500, 288
-0.869644, 321, 65, 448, 320
-0.877421, 113, 1, 240, 338
-0.879688, 65, 97, 192, 338
-0.885022, 1, 113, 500, 240
-0.887085, 97, 1, 224, 256
-0.890341, 65, 1, 192, 338
-0.893914, 353, 1, 480, 338
-0.896127, 129, 145, 384, 272
-0.89623, 1, 49, 500, 176
-0.898734, 1, 1, 128, 338
-0.900866, 17, 97, 144, 338
-0.903596, 33, 145, 288, 272
-0.903663, 225, 113, 480, 240
-0.907356, 305, 1, 432, 338
-0.908104, 1, 209, 500, 336
-0.915409, 49, 1, 176, 256
-0.916786, 145, 145, 272, 272
-0.91758, 369, 1, 496, 256
-0.92108, 161, 65, 416, 192
-0.924662, 65, 1, 320, 128
-0.924662, 33, 193, 288, 320
-0.925097, 193, 193, 448, 320
-0.925352, 65, 97, 320, 224
-0.926798, 161, 145, 224, 272
-0.927451, 1, 1, 500, 128
-0.928099, 193, 145, 256, 272
-0.928267, 241, 113, 368, 240
-0.932056, 137, 145, 200, 272
-0.935323, 193, 145, 320, 272
-0.936856, 257, 145, 320, 272
-0.937449, 225, 161, 288, 288
-0.937936, 257, 161, 384, 288
-0.938298, 209, 17, 272, 144
-0.939583, 81, 145, 208, 272
-0.939817, 209, 65, 336, 192
-0.939932, 353, 145, 480, 272
-0.94015, 153, 97, 216, 224
-0.941245, 1, 1, 128, 256
-0.941563, 145, 97, 272, 224
-0.941626, 305, 145, 432, 272
-0.943761, 297, 169, 360, 232
-0.944265, 161, 17, 288, 144
-0.944291, 177, 97, 240, 224
-0.944308, 145, 177, 208, 240
-0.944701, 281, 129, 344, 256
-0.944839, 353, 193, 480, 320
-0.945811, 97, 1, 224, 128
-0.946167, 257, 65, 500, 192
-0.946341, 409, 145, 472, 272
-0.946364, 361, 169, 424, 232
-0.946475, 337, 169, 400, 232
-0.947055, 89, 129, 152, 256
-0.947057, 209, 25, 272, 88
-0.947077, 169, 161, 232, 224
-0.947564, 313, 161, 376, 288
-0.947875, 249, 49, 312, 112
-0.948185, 81, 97, 208, 224
-0.9483, 289, 97, 416, 224
-0.948378, 177, 33, 240, 160
-0.948639, 265, 49, 328, 176
-0.948981, 65, 49, 320, 176
-0.949032, 241, 177, 304, 240
-0.949045, 161, 17, 416, 144
-0.949153, 385, 169, 448, 232
-0.949358, 201, 161, 264, 224
-0.949519, 377, 161, 440, 288
-0.95062, 145, 1, 208, 128
-0.950662, 113, 193, 240, 320
-0.951673, 305, 193, 432, 320
-0.95202, 337, 97, 464, 224
-0.952287, 337, 145, 400, 272
-0.953026, 169, 185, 232, 248
-0.953376, 1, 177, 128, 304
-0.953902, 233, 33, 296, 160
-0.954249, 361, 113, 424, 240
-0.954294, 265, 177, 328, 240
-0.95501, 305, 113, 368, 240
-0.955601, 209, 185, 272, 248
-0.955872, 209, 17, 336, 144
-0.955921, 145, 153, 208, 216
-0.955952, 49, 161, 112, 288
-0.956136, 337, 193, 400, 320
-0.956291, 433, 113, 496, 240
-0.956456, 233, 113, 296, 240
-0.956542, 297, 201, 360, 264
-0.956572, 89, 169, 152, 232
-0.956767, 337, 193, 400, 256
-0.956773, 409, 97, 472, 224
-0.957023, 65, 65, 128, 192
-0.957028, 113, 161, 176, 288
-0.957235, 121, 193, 184, 256
-0.957368, 89, 1, 152, 128
-0.957508, 281, 177, 344, 304
-0.957715, 177, 193, 304, 320
-0.957802, 185, 193, 248, 320
-0.959064, 33, 129, 160, 256
-0.95949, 201, 129, 264, 192
-0.959729, 113, 113, 176, 240
-0.959848, 65, 193, 192, 320
-0.959864, 105, 145, 168, 208
-0.960275, 289, 137, 352, 200
-0.960345, 433, 65, 496, 192
-0.960588, 409, 145, 472, 208
-0.960807, 9, 177, 72, 304
-0.960844, 385, 113, 448, 240
-0.961124, 425, 193, 488, 320
-0.96114, 257, 145, 320, 208
-0.96139, 153, 193, 216, 320
-0.961702, 153, 17, 216, 80
-0.961879, 201, 1, 264, 256
-0.962244, 257, 97, 320, 224
-0.962255, 361, 193, 424, 256
-0.962524, 201, 81, 264, 208
-0.963311, 121, 169, 184, 232
-0.963734, 297, 65, 360, 192
-0.963771, 233, 153, 296, 216
-0.963786, 241, 201, 304, 264
-0.963851, 97, 193, 160, 256
-0.96388, 281, 97, 344, 160
-0.964008, 145, 161, 272, 224
-0.96402, 9, 185, 72, 248
-0.964026, 65, 185, 128, 248
-0.964059, 353, 145, 416, 208
-0.964239, 177, 1, 240, 256
-0.96429, 305, 169, 432, 232
-0.964552, 177, 137, 240, 200
-0.964719, 177, 41, 240, 104
-0.965194, 313, 129, 376, 192
-0.9655, 329, 97, 392, 224
-0.965536, 257, 65, 320, 320
-0.965695, 197, 145, 228, 272
-0.965712, 289, 49, 416, 176
-0.966053, 145, 129, 208, 192
-0.96613, 173, 145, 204, 272
-0.966253, 145, 169, 176, 232
-0.966377, 401, 193, 464, 320
-0.966483, 409, 169, 472, 232
-0.966797, 385, 193, 448, 256
-0.966894, 113, 185, 240, 248
-0.967117, 121, 65, 184, 192
-0.967241, 165, 97, 196, 224
-0.967505, 365, 169, 396, 232
-0.967534, 153, 145, 184, 272
-0.96755, 185, 17, 248, 80
-0.967603, 145, 1, 208, 256
-0.967634, 173, 169, 204, 232
-0.968244, 41, 113, 104, 240
-0.968289, 425, 97, 488, 160
-0.96829, 49, 49, 176, 176
-0.968484, 89, 49, 152, 176
-0.968484, 9, 97, 72, 224
-0.968598, 377, 137, 440, 200
-0.968636, 225, 49, 288, 112
-0.968757, 33, 1, 160, 128
-0.968848, 265, 209, 328, 272
-0.968884, 221, 1, 252, 128
-0.968926, 41, 161, 104, 224
-0.968957, 273, 65, 336, 128
-0.969244, 225, 129, 288, 192
-0.969414, 397, 169, 428, 232
-0.969554, 225, 73, 288, 136
-0.969742, 189, 161, 220, 224
-0.969774, 217, 145, 248, 272
-0.969816, 257, 193, 320, 320
-0.969853, 201, 89, 264, 152
-0.969895, 41, 193, 104, 256
-0.969921, 313, 105, 376, 168
-0.970177, 241, 161, 272, 224
-0.9702, 297, 65, 360, 320
-0.970206, 433, 121, 496, 184
-0.970345, 193, 185, 320, 248
-0.97046, 145, 193, 176, 256
-0.970482, 177, 97, 240, 338
-0.97057, 157, 169, 188, 232
-0.970733, 137, 97, 200, 338
-0.970756, 257, 169, 384, 232
-0.97082, 65, 169, 192, 232
-0.970836, 425, 97, 488, 338
-0.97088, 329, 169, 360, 232
-0.970957, 253, 169, 284, 232
-0.971055, 233, 145, 264, 272
-0.971089, 257, 1, 500, 128
-0.971265, 385, 169, 416, 232
-0.971323, 233, 1, 296, 256
-0.97139, 113, 137, 240, 200
-0.971406, 345, 169, 376, 232
-0.971412, 97, 1, 160, 64
-0.971599, 157, 193, 188, 256
-0.971666, 225, 137, 352, 200
-0.971906, 153, 105, 216, 168
-0.971974, 57, 137, 120, 200
-0.972138, 337, 193, 464, 256
-0.972182, 193, 49, 320, 112
-0.97221, 297, 65, 360, 128
-0.972274, 257, 1, 320, 128
-0.972365, 185, 145, 216, 272
-0.97251, 417, 169, 448, 232
-0.972516, 145, 201, 208, 264
-0.972574, 185, 65, 248, 128
-0.972622, 353, 65, 416, 320
-0.972662, 249, 161, 280, 288
-0.97268, 73, 193, 136, 320
-0.972755, 337, 129, 464, 192
-0.972885, 401, 97, 464, 338
-0.972915, 73, 17, 136, 80
-0.973142, 65, 161, 128, 224
-0.973152, 409, 121, 472, 184
-0.973443, 81, 1, 208, 64
-0.973553, 369, 65, 432, 192
-0.973589, 185, 97, 216, 224
-0.973616, 361, 97, 424, 160
-0.973649, 153, 49, 216, 176
-0.973651, 1, 49, 64, 176
-0.973699, 385, 113, 448, 176
-0.973709, 161, 25, 288, 88
-0.973787, 217, 17, 248, 80
-0.9738, 369, 49, 496, 176
-0.973805, 17, 161, 80, 224
-0.973836, 1, 193, 128, 256
-0.973865, 417, 201, 480, 264
-0.973875, 273, 145, 400, 208
-0.973875, 289, 193, 416, 256
-0.974162, 269, 161, 300, 288
-0.97419, 329, 65, 392, 320
-0.974473, 409, 161, 440, 288
-0.974632, 189, 137, 220, 200
-0.974661, 193, 161, 320, 224
-0.97467, 337, 105, 400, 168
-0.974769, 193, 105, 320, 168
-0.974773, 321, 49, 384, 176
-0.974806, 141, 161, 172, 288
-0.974847, 113, 49, 240, 176
-0.974867, 353, 169, 480, 232
-0.975048, 345, 193, 376, 256
-0.975048, 57, 1, 120, 128
-0.975081, 381, 193, 412, 256
-0.975376, 285, 49, 316, 176
-0.975483, 249, 73, 312, 136
-0.975526, 65, 113, 128, 240
-0.975527, 201, 161, 232, 224
-0.975551, 241, 185, 272, 248
-0.975652, 237, 25, 268, 88
-0.975727, 397, 145, 428, 272
-0.975738, 229, 161, 260, 224
-0.975782, 393, 217, 456, 280
-0.975818, 261, 49, 292, 112
-0.975825, 349, 145, 380, 272
-0.975953, 185, 185, 216, 248
-0.976015, 9, 49, 72, 112
-0.976113, 293, 201, 324, 264
-0.97612, 257, 209, 384, 336
-0.976193, 17, 209, 80, 272
-0.976196, 133, 193, 164, 256
-0.976359, 305, 193, 336, 256
-0.976387, 129, 209, 192, 336
-0.976423, 225, 97, 288, 160
-0.976436, 317, 193, 348, 256
-0.976492, 169, 209, 232, 272
-0.976581, 145, 113, 272, 176
-0.976669, 177, 137, 304, 200
-0.976733, 281, 41, 312, 104
-0.976753, 73, 209, 136, 272
-0.976758, 81, 97, 144, 338
-0.976761, 253, 113, 284, 240
-0.976786, 401, 145, 432, 208
-0.976797, 49, 193, 176, 256
-0.97683, 301, 65, 332, 192
-0.976902, 417, 113, 448, 240
-0.976905, 89, 121, 152, 184
-0.97691, 377, 209, 440, 336
-0.977009, 313, 169, 344, 232
-0.977048, 273, 121, 400, 184
-0.977052, 133, 169, 164, 232
-0.977099, 361, 145, 392, 272
-0.977114, 329, 161, 360, 288
-0.977239, 237, 17, 268, 144
-0.977261, 153, 41, 216, 104
-0.97727, 201, 97, 264, 338
-0.977407, 393, 193, 424, 256
-0.977473, 33, 145, 160, 208
-0.97756, 169, 1, 200, 128
-0.977593, 377, 65, 440, 320
-0.977604, 65, 113, 128, 176
-0.977636, 1, 49, 128, 176
-0.977686, 289, 113, 320, 240
-0.977774, 61, 169, 92, 232
-0.977776, 241, 1, 304, 338
-0.977843, 225, 73, 352, 136
-0.97786, 361, 193, 392, 320
-0.977931, 233, 97, 264, 224
-0.977962, 233, 25, 296, 88
-0.977975, 249, 113, 312, 176
-0.97809, 177, 97, 240, 160
-0.978195, 197, 33, 228, 160
-0.978246, 201, 1, 264, 338
-0.978259, 209, 17, 240, 144
-0.978277, 409, 49, 472, 176
-0.97834, 313, 113, 344, 240
-0.97834, 337, 113, 368, 240
-0.978346, 389, 97, 420, 224
-0.978396, 49, 73, 112, 136
-0.978404, 253, 33, 284, 160
-0.978406, 185, 33, 216, 160
-0.978448, 113, 121, 176, 184
-0.978578, 97, 209, 160, 336
-0.978597, 385, 177, 416, 304
-0.978638, 101, 1, 132, 128
-0.978695, 177, 193, 208, 320
-0.978697, 165, 1, 196, 64
-0.978735, 241, 209, 368, 272
-0.978762, 89, 169, 120, 232
-0.978941, 197, 193, 228, 256
-0.978984, 293, 65, 324, 128
-0.97899, 245, 65, 276, 128
-0.979003, 129, 1, 192, 64
-0.97901, 301, 177, 332, 304
-0.979015, 105, 137, 136, 200
-0.979126, 213, 161, 244, 224
-0.979144, 321, 81, 384, 144
-0.979224, 161, 1, 224, 338
-0.979226, 197, 41, 228, 104
-0.979234, 277, 161, 308, 224
-0.979287, 313, 209, 376, 336
-0.979311, 273, 41, 336, 104
-0.979411, 229, 185, 260, 248
-0.979423, 201, 209, 264, 272
-0.97952, 321, 105, 448, 168
-0.979549, 145, 89, 272, 152
-0.979595, 273, 73, 400, 136
-0.979618, 217, 137, 248, 200
-0.979647, 9, 193, 40, 256
-0.979688, 265, 177, 296, 240
-0.979739, 225, 209, 288, 336
-0.979743, 101, 1, 132, 64
-0.979756, 153, 145, 184, 208
-0.979822, 169, 193, 200, 256
-0.97985, 333, 193, 364, 256
-0.979991, 465, 113, 496, 240
-0.980088, 269, 33, 300, 160
-0.980089, 465, 193, 496, 320
-0.980201, 213, 97, 244, 224
-0.980217, 253, 193, 284, 256
-0.980249, 417, 129, 448, 192
-0.980353, 425, 73, 488, 136
-0.98037, 281, 185, 312, 248
-0.980387, 369, 105, 496, 168
-0.980456, 373, 193, 404, 320
-0.98048, 233, 137, 264, 200
-0.980486, 225, 65, 256, 128
-0.980518, 421, 193, 452, 256
-0.980565, 273, 97, 400, 160
-0.980631, 65, 97, 192, 160
-0.980636, 365, 193, 396, 256
-0.980714, 9, 33, 40, 96
-0.980734, 453, 193, 484, 320
-0.980753, 293, 177, 324, 240
-0.980777, 265, 1, 328, 338
-0.980826, 221, 89, 252, 152
-0.980921, 445, 145, 476, 272
-0.980969, 81, 1, 144, 256
-0.981041, 41, 97, 104, 338
-0.981056, 317, 177, 348, 304
-0.981092, 433, 153, 496, 216
-0.981151, 113, 17, 176, 144
-0.981158, 329, 129, 360, 192
-0.98116, 249, 41, 280, 104
-0.981189, 117, 1, 148, 128
-0.981253, 113, 97, 176, 338
-0.981255, 273, 1, 400, 128
-0.981307, 77, 193, 108, 256
-0.981407, 89, 97, 152, 160
-0.981417, 301, 129, 332, 256
-0.981452, 81, 137, 112, 200
-0.981517, 193, 209, 320, 272
-0.981529, 341, 193, 372, 320
-0.981574, 213, 41, 244, 104
-0.981599, 409, 193, 440, 256
-0.981696, 373, 145, 404, 208
-0.98171, 1, 1, 64, 128
-0.981756, 9, 137, 72, 200
-0.981778, 185, 273, 248, 336
-0.981821, 285, 137, 316, 200
-0.981877, 93, 25, 124, 88
-0.981885, 93, 97, 124, 160
-0.981893, 133, 145, 164, 208
-0.981896, 129, 97, 192, 160
-0.981908, 177, 17, 208, 80
-0.981937, 37, 185, 68, 248
-0.981959, 241, 49, 368, 112
-0.981964, 209, 193, 240, 256
-0.982023, 153, 97, 184, 224
-0.982066, 73, 41, 136, 104
-0.982104, 377, 113, 408, 240
-0.982118, 265, 113, 296, 240
-0.982218, 349, 129, 380, 192
-0.982229, 21, 193, 52, 256
-0.982233, 197, 97, 228, 224
-0.982251, 297, 137, 328, 200
-0.982289, 433, 153, 464, 216
-0.982337, 201, 137, 232, 200
-0.982364, 233, 97, 264, 160
-0.982367, 281, 177, 312, 304
-0.982466, 121, 193, 152, 256
-0.982477, 385, 89, 448, 152
-0.98251, 1, 169, 128, 232
-0.982552, 421, 161, 452, 288
-0.982646, 129, 161, 160, 288
-0.982718, 433, 129, 464, 256
-0.982744, 17, 105, 144, 168
-0.982759, 437, 193, 468, 320
-0.98278, 245, 137, 276, 200
-0.982821, 225, 97, 288, 338
-0.982867, 97, 209, 224, 272
-0.9829, 309, 145, 340, 208
-0.982923, 17, 81, 80, 144
-0.982942, 377, 105, 408, 168
-0.982972, 113, 217, 176, 280
-0.982984, 165, 193, 196, 320
-0.983017, 433, 273, 496, 336
-0.9831, 397, 193, 428, 320
-0.983117, 297, 17, 360, 144
-0.983119, 49, 209, 112, 336
-0.983188, 361, 145, 392, 208
-0.983259, 433, 177, 496, 240
-0.983264, 401, 1, 464, 256
-0.983283, 77, 161, 108, 224
-0.983304, 305, 97, 336, 160
-0.983342, 129, 1, 256, 64
-0.983431, 269, 137, 300, 200
-0.983451, 165, 137, 196, 200
-0.983498, 325, 65, 356, 192
-0.983501, 105, 25, 168, 88
-0.983548, 289, 89, 320, 152
-0.98357, 305, 73, 336, 136
-0.983602, 177, 129, 208, 192
-0.983621, 53, 177, 84, 304
-0.983712, 197, 193, 228, 320
-0.983738, 145, 209, 272, 272
-0.983739, 145, 57, 272, 120
-0.983799, 105, 161, 136, 224
-0.983814, 349, 89, 380, 152
-0.983825, 349, 97, 380, 224
-0.983857, 1, 233, 64, 296
-0.983917, 161, 65, 224, 128
-0.983931, 41, 65, 104, 192
-0.98396, 433, 1, 496, 256
-0.983992, 325, 113, 356, 240
-0.984058, 209, 25, 336, 88
-0.984071, 277, 113, 308, 240
-0.984086, 361, 217, 424, 280
-0.984105, 265, 201, 296, 264
-0.984108, 389, 145, 420, 208
-0.984225, 9, 57, 40, 120
-0.984245, 65, 121, 192, 184
-0.9843, 401, 97, 432, 224
-0.984301, 105, 57, 168, 120
-0.984312, 109, 209, 140, 272
-0.984336, 141, 113, 172, 240
-0.984426, 101, 185, 132, 248
-0.98443, 65, 193, 96, 256
-0.984485, 397, 121, 428, 184
-0.984529, 197, 65, 228, 128
-0.984541, 105, 129, 136, 256
-0.984592, 257, 145, 288, 208
-0.984601, 245, 97, 276, 160
-0.984624, 461, 113, 492, 176
-0.984795, 289, 217, 416, 280
-0.984805, 49, 49, 112, 112
-0.984909, 1, 97, 64, 338
-0.984999, 117, 169, 148, 232
-0.985112, 121, 1, 184, 256
-0.985151, 77, 161, 108, 288
-0.985163, 101, 49, 132, 176
-0.985239, 281, 209, 312, 272
-0.98524, 89, 49, 120, 112
-0.985271, 1, 49, 128, 112
-0.985324, 49, 177, 80, 240
-0.985401, 205, 97, 236, 160
-0.985404, 113, 33, 240, 96
-0.98541, 45, 153, 76, 216
-0.985414, 105, 25, 136, 88
-0.985587, 93, 121, 124, 184
-0.985615, 17, 169, 48, 232
-0.985642, 181, 105, 212, 168
-0.985646, 25, 33, 56, 160
-0.985723, 277, 73, 308, 136
-0.985734, 353, 217, 480, 280
-0.985747, 161, 97, 192, 160
-0.985792, 465, 65, 496, 192
-0.985856, 41, 177, 72, 304
-0.985862, 321, 81, 448, 144
-0.985881, 345, 49, 408, 176
-0.985889, 17, 73, 144, 136
-0.985962, 17, 217, 144, 280
-0.985986, 445, 137, 476, 200
-0.986026, 345, 73, 408, 136
-0.986027, 1, 1, 32, 64
-0.986056, 209, 1, 272, 64
-0.986141, 425, 1, 488, 338
-0.98616, 5, 161, 36, 288
-0.986207, 289, 1, 352, 338
-0.98621, 21, 33, 52, 96
-0.986381, 317, 113, 348, 176
-0.986428, 97, 209, 128, 272
-0.98643, 161, 273, 224, 336
-0.986433, 113, 1, 144, 64
-0.986489, 429, 129, 460, 192
-0.986516, 141, 121, 172, 184
-0.986557, 89, 145, 120, 272
-0.98663, 33, 1, 96, 128
-0.986631, 217, 193, 248, 320
-0.98665, 57, 145, 88, 208
-0.986666, 361, 89, 392, 152
-0.986673, 1, 25, 128, 88
-0.986674, 137, 1, 200, 338
-0.986675, 33, 169, 288, 232
-0.986721, 413, 105, 444, 168
-0.986737, 41, 113, 104, 176
-0.986785, 41, 81, 72, 208
-0.986887, 121, 137, 152, 200
-0.986947, 41, 217, 104, 280
-0.987001, 81, 1, 144, 338
-0.987079, 1, 169, 500, 232
-0.987138, 409, 273, 472, 336
-0.987337, 33, 137, 96, 200
-0.987367, 61, 129, 92, 256
-0.98744, 129, 273, 256, 336
-0.987513, 225, 49, 256, 176
-0.987779, 225, 273, 288, 336
-0.98779, 365, 97, 396, 224
-0.987903, 5, 1, 36, 128
-0.987922, 209, 29, 272, 60
-0.987922, 49, 25, 176, 88
-0.987945, 337, 65, 368, 192
-0.987976, 89, 1, 120, 128
-0.987977, 369, 273, 496, 336
-0.987991, 117, 145, 148, 272
-0.988003, 321, 217, 384, 280
-0.98801, 145, 189, 208, 220
-0.988094, 21, 177, 52, 304
-0.988187, 129, 113, 160, 240
-0.988231, 417, 209, 448, 336
-0.988264, 257, 169, 500, 232
-0.988341, 153, 193, 184, 320
-0.988405, 453, 65, 484, 192
-0.988507, 9, 1, 72, 256
-0.988544, 237, 193, 268, 320
-0.988565, 65, 73, 192, 136
-0.988608, 281, 197, 344, 228
-0.988668, 233, 165, 296, 196
-0.988714, 337, 197, 400, 228
-0.988736, 5, 49, 36, 176
-0.988827, 161, 145, 416, 208
-0.988877, 33, 1, 160, 64
-0.988925, 361, 193, 424, 224
-0.988954, 137, 177, 200, 208
-0.988993, 65, 177, 96, 304
-0.989001, 361, 173, 424, 204
-0.98906, 129, 185, 384, 248
-0.989065, 249, 49, 312, 80
-0.989079, 465, 1, 496, 128
-0.989119, 161, 121, 224, 152
-0.989149, 401, 209, 464, 240
-0.989186, 217, 189, 280, 220
-0.989239, 185, 33, 248, 64
-0.989252, 257, 193, 500, 256
-0.989258, 161, 201, 224, 232
-0.989269, 129, 205, 192, 236
-0.989311, 297, 213, 360, 244
-0.989318, 297, 41, 360, 104
-0.989328, 45, 129, 76, 256
-0.989339, 361, 149, 424, 180
-0.989341, 233, 177, 296, 208
-0.989371, 73, 65, 136, 128
-0.989382, 57, 1, 120, 256
-0.989429, 65, 173, 128, 204
-0.989464, 369, 1, 432, 338
-0.98949, 377, 213, 440, 244
-0.989541, 257, 193, 320, 224
-0.989577, 169, 189, 232, 220
-0.989588, 265, 209, 328, 240
-0.9896, 169, 165, 232, 196
-0.989727, 257, 169, 320, 200
-0.989733, 401, 173, 464, 204
-0.989748, 241, 209, 304, 240
-0.989781, 193, 185, 256, 216
-0.989785, 25, 25, 88, 88
-0.989805, 117, 209, 148, 336
-0.98981, 185, 121, 248, 152
-0.98984, 9, 113, 72, 176
-0.989848, 313, 193, 376, 224
-0.989896, 193, 165, 256, 196
-0.989921, 289, 81, 352, 112
-0.989939, 349, 49, 380, 176
-0.990007, 85, 81, 116, 208
-0.990022, 121, 137, 184, 168
-0.990047, 385, 157, 448, 188
-0.990103, 297, 161, 360, 192
-0.990148, 97, 169, 160, 200
-0.990159, 321, 153, 384, 184
-0.990173, 281, 93, 344, 124
-0.990188, 257, 181, 320, 212
-0.990206, 225, 41, 288, 72
-0.990207, 257, 141, 320, 172
-0.99021, 289, 185, 352, 216
-0.990219, 201, 209, 264, 240
-0.990236, 105, 193, 168, 224
-0.990285, 413, 65, 444, 192
-0.990286, 289, 301, 352, 332
-0.990318, 9, 221, 72, 252
-0.990358, 257, 61, 320, 92
-0.990365, 369, 81, 496, 144
-0.990379, 401, 221, 464, 252
-0.990387, 305, 109, 368, 140
-0.990418, 105, 213, 168, 244
-0.990423, 249, 305, 312, 336
-0.990431, 89, 137, 152, 168
-0.990439, 385, 193, 448, 224
-0.990445, 201, 133, 264, 164
-0.990445, 185, 17, 248, 48
-0.990467, 313, 141, 376, 172
-0.99049, 337, 1, 400, 338
-0.990491, 129, 57, 192, 120
-0.990495, 185, 45, 248, 76
-0.99055, 157, 1, 188, 128
-0.990553, 121, 157, 184, 188
-0.99057, 353, 213, 416, 244
-0.990573, 65, 49, 192, 112
-0.990578, 313, 65, 344, 192
-0.990611, 321, 297, 384, 328
-0.990624, 289, 133, 352, 164
-0.990647, 49, 161, 112, 192
-0.990705, 409, 117, 472, 148
-0.990705, 433, 213, 496, 244
-0.990712, 169, 133, 232, 164
-0.990723, 281, 105, 344, 136
-0.990731, 385, 293, 448, 324
-0.990734, 89, 1, 152, 32
-0.990746, 273, 121, 336, 152
-0.990756, 265, 221, 328, 252
-0.990758, 337, 173, 400, 204
-0.99076, 89, 21, 152, 52
-0.990767, 145, 29, 208, 60
-0.990777, 313, 97, 376, 128
-0.990795, 113, 125, 176, 156
-0.990807, 73, 53, 136, 84
-0.990809, 233, 137, 296, 168
-0.990841, 265, 81, 328, 112
-0.990843, 409, 161, 472, 192
-0.990853, 353, 97, 416, 128
-0.990856, 145, 165, 208, 196
-0.990857, 57, 1, 120, 338
-0.990886, 321, 213, 384, 244
-0.990887, 225, 57, 288, 88
-0.990896, 297, 173, 360, 204
-0.990902, 1, 209, 64, 240
-0.990906, 193, 197, 256, 228
-0.990927, 97, 41, 352, 104
-0.990934, 145, 305, 208, 336
-0.990934, 401, 137, 464, 168
-0.990947, 241, 1, 304, 64
-0.990952, 145, 149, 208, 180
-0.990965, 65, 137, 320, 200
-0.990977, 273, 157, 336, 188
-0.99099, 345, 161, 408, 192
-0.991008, 209, 117, 272, 148
-0.991025, 257, 113, 500, 176
-0.991027, 281, 65, 344, 96
-0.991072, 353, 293, 416, 324
-0.991076, 409, 193, 472, 224
-0.991079, 201, 301, 264, 332
-0.991085, 185, 73, 248, 104
-0.99109, 145, 17, 208, 48
-0.991094, 89, 181, 152, 212
-0.991131, 369, 113, 432, 144
-0.991132, 329, 129, 392, 160
-0.991141, 161, 213, 224, 244
-0.991144, 73, 65, 136, 96
-0.991156, 129, 217, 192, 248
-0.991174, 345, 305, 408, 336
-0.991176, 65, 141, 128, 172
-0.991189, 105, 193, 136, 320
-0.991192, 81, 209, 144, 240
-0.991207, 145, 137, 208, 168
-0.991227, 313, 85, 376, 116
-0.991236, 425, 105, 488, 136
-0.991239, 425, 129, 488, 160
-0.991241, 393, 1, 456, 338
-0.991247, 257, 145, 500, 208
-0.991254, 257, 93, 320, 124
-0.991262, 201, 153, 264, 184
-0.991276, 301, 17, 332, 144
-0.991291, 377, 137, 440, 168
-0.991304, 129, 1, 192, 32
-0.991319, 161, 45, 224, 76
-0.991357, 201, 93, 264, 124
-0.991362, 297, 225, 360, 256
-0.99137, 25, 185, 88, 216
-0.991378, 353, 133, 416, 164
-0.99139, 57, 201, 120, 232
-0.99139, 25, 161, 88, 192
-0.99141, 425, 289, 488, 320
-0.991423, 289, 49, 416, 112
-0.991429, 105, 1, 168, 338
-0.991442, 169, 105, 232, 136
-0.991444, 89, 125, 152, 156
-0.991449, 1, 1, 64, 64
-0.991459, 113, 181, 176, 212
-0.991465, 25, 257, 88, 320
-0.991476, 281, 1, 312, 128
-0.991477, 225, 301, 288, 332
-0.991498, 33, 221, 96, 252
-0.99151, 1, 137, 500, 200
-0.991524, 33, 9, 288, 72
-0.991558, 65, 9, 128, 40
-0.991558, 369, 305, 432, 336
-0.991579, 161, 121, 416, 184
-0.991661, 253, 209, 284, 336
-0.991745, 21, 81, 52, 208
-0.99175, 177, 1, 304, 64
-0.991808, 57, 273, 120, 336
-0.991835, 369, 273, 432, 336
-0.991863, 129, 33, 192, 96
-0.991901, 1, 193, 500, 256
-0.991987, 155, 169, 170, 232
-0.992045, 273, 273, 336, 336
-0.992046, 177, 189, 208, 220
-0.992058, 349, 193, 380, 224
-0.992065, 1, 193, 256, 256
-0.99211, 429, 81, 460, 208
-0.992138, 377, 65, 408, 192
-0.992139, 89, 209, 120, 336
-0.992153, 153, 177, 184, 208
-0.992161, 101, 9, 132, 40
-0.992165, 237, 177, 268, 208
-0.992198, 421, 173, 452, 204
-0.992212, 401, 169, 432, 200
-0.992236, 209, 273, 336, 336
-0.992243, 369, 193, 400, 224
-0.992248, 169, 169, 200, 200
-0.992269, 147, 177, 162, 240
-0.992277, 297, 193, 328, 224
-0.992293, 153, 205, 184, 236
-0.992293, 221, 21, 252, 52
-0.992352, 313, 1, 376, 338
-0.992369, 441, 81, 472, 208
-0.992381, 145, 189, 176, 220
-0.992386, 117, 49, 148, 176
-0.992389, 157, 189, 188, 220
-0.992392, 261, 177, 292, 208
-0.9924, 1, 217, 256, 280
-0.992407, 317, 193, 348, 224
-0.992427, 337, 193, 368, 224
-0.992439, 253, 165, 284, 196
-0.992443, 405, 209, 436, 240
-0.992449, 293, 209, 324, 240
-0.992463, 329, 265, 392, 328
-0.99247, 453, 1, 484, 128
-0.992475, 197, 41, 228, 72
-0.992475, 273, 209, 304, 240
-0.992499, 261, 53, 292, 84
-0.992502, 141, 205, 172, 236
-0.992506, 281, 189, 312, 220
-0.992511, 185, 161, 200, 224
-0.992525, 9, 49, 40, 80
-0.992528, 237, 165, 268, 196
-0.99253, 237, 29, 268, 60
-0.99253, 1, 1, 64, 338
-0.992531, 277, 45, 308, 76
-0.992534, 133, 173, 164, 204
-0.992536, 333, 205, 364, 236
-0.992539, 257, 273, 384, 336
-0.99254, 77, 161, 108, 192
-0.992548, 281, 169, 312, 200
-0.992572, 189, 189, 220, 220
-0.992588, 393, 149, 424, 180
-0.992596, 413, 161, 444, 192
-0.992601, 241, 45, 272, 76
-0.992605, 245, 189, 276, 220
-0.992609, 377, 173, 408, 204
-0.992615, 181, 165, 212, 196
-0.992617, 253, 209, 284, 240
-0.992619, 229, 57, 260, 88
-0.992619, 165, 169, 180, 232
-0.992622, 169, 201, 200, 232
-0.992631, 153, 137, 184, 168
-0.992635, 217, 61, 248, 92
-0.992645, 225, 165, 256, 196
-0.992648, 77, 61, 108, 92
-0.992649, 189, 201, 220, 232
-0.992654, 145, 161, 176, 192
-0.992659, 241, 57, 272, 88
-0.992659, 417, 201, 448, 232
-0.992671, 113, 1, 144, 32
-0.992678, 9, 221, 40, 252
-0.992678, 417, 185, 448, 216
-0.992678, 321, 209, 352, 240
-0.99268, 57, 177, 88, 208
-0.992684, 389, 193, 420, 224
-0.992684, 429, 209, 460, 240
-0.992695, 1, 257, 128, 320
-0.992703, 97, 169, 128, 200
-0.992708, 237, 209, 268, 240
-0.992709, 217, 33, 248, 64
-0.992714, 201, 205, 232, 236
-0.992714, 321, 265, 448, 328
-0.992715, 249, 177, 280, 208
-0.992724, 101, 21, 132, 52
-0.99273, 57, 161, 88, 192
-0.992732, 357, 173, 388, 204
-0.992746, 221, 209, 252, 240
-0.992749, 297, 181, 328, 212
-0.992752, 445, 297, 476, 328
-0.992755, 225, 177, 256, 208
-0.992757, 357, 153, 388, 184
-0.992761, 309, 161, 340, 192
-0.992765, 289, 77, 320, 108
-0.992765, 297, 301, 328, 332
-0.992766, 369, 213, 400, 244
-0.992774, 417, 213, 448, 244
-0.992775, 265, 165, 296, 196
-0.992782, 389, 213, 420, 244
-0.992785, 113, 193, 240, 224
-0.992791, 109, 133, 140, 164
-0.992791, 213, 165, 244, 196
-0.992791, 305, 213, 336, 244
-0.992791, 285, 305, 316, 336
-0.992794, 461, 133, 492, 164
-0.992796, 85, 29, 116, 60
-0.9928, 173, 121, 204, 152
-0.992801, 125, 213, 156, 244
-0.992801, 141, 129, 172, 160
-0.992812, 185, 29, 216, 60
-0.992814, 161, 121, 192, 152
-0.992816, 289, 141, 320, 172
-0.992821, 233, 189, 264, 220
-0.992829, 89, 45, 120, 76
-0.992834, 133, 193, 164, 224
-0.992836, 429, 221, 460, 252
-0.992838, 389, 173, 420, 204
-0.992838, 5, 209, 36, 240
-0.992839, 229, 69, 260, 100
-0.992839, 353, 213, 384, 244
-0.99284, 297, 169, 328, 200
-0.992841, 425, 293, 456, 324
-0.992848, 17, 33, 48, 64
-0.992853, 353, 169, 368, 232
-0.992853, 433, 173, 464, 204
-0.992853, 441, 213, 472, 244
-0.992856, 209, 73, 240, 104
-0.992858, 21, 221, 52, 252
-0.992863, 213, 133, 244, 164
-0.992864, 249, 301, 280, 332
-0.992864, 465, 213, 496, 244
-0.99287, 313, 305, 344, 336
-0.992879, 221, 45, 252, 76
-0.992881, 173, 49, 204, 176
-0.992882, 213, 121, 244, 152
-0.992882, 409, 289, 440, 320
-0.992888, 389, 49, 420, 176
-0.992889, 297, 129, 328, 160
-0.992892, 457, 293, 488, 324
-0.992893, 325, 161, 356, 192
-0.992893, 269, 189, 300, 220
-0.992895, 93, 141, 124, 172
-0.992897, 453, 209, 484, 240
-0.992902, 257, 41, 288, 72
-0.992917, 169, 17, 200, 48
-0.992917, 329, 97, 360, 128
-0.992919, 297, 89, 328, 120
-0.992919, 113, 13, 144, 44
-0.992923, 201, 121, 232, 152
-0.992926, 273, 301, 304, 332
-0.992928, 201, 185, 232, 216
-0.992928, 185, 129, 216, 160
-0.992928, 1, 1, 32, 32
-0.992931, 369, 153, 400, 184
-0.992933, 101, 61, 132, 92
-0.992957, 225, 1, 352, 64
-0.992988, 411, 153, 426, 216
-0.993004, 209, 61, 336, 92
-0.993029, 385, 169, 400, 232
-0.993053, 375, 169, 390, 232
-0.993066, 193, 169, 208, 232
-0.993099, 129, 97, 384, 160
-0.993119, 161, 41, 288, 72
-0.993142, 365, 49, 396, 176
-0.993166, 251, 161, 266, 224
-0.9932, 157, 193, 172, 256
-0.993206, 73, 113, 104, 240
-0.993218, 243, 161, 258, 224
-0.993235, 401, 249, 464, 312
-0.993273, 177, 161, 192, 224
-0.993273, 337, 193, 464, 224
-0.993274, 129, 65, 384, 128
-0.993307, 265, 209, 296, 336
-0.993318, 97, 209, 352, 272
-0.993332, 353, 241, 480, 304
-0.993346, 193, 189, 320, 220
-0.993388, 141, 33, 172, 160
-0.993411, 391, 169, 406, 232
-0.993446, 203, 161, 218, 224
-0.993507, 405, 169, 420, 232
-0.99351, 1, 25, 64, 88
-0.993544, 171, 177, 186, 240
-0.993548, 305, 169, 432, 200
-0.993552, 297, 193, 312, 256
-0.993575, 81, 173, 208, 204
-0.993585, 281, 17, 344, 80
-0.993608, 359, 169, 374, 232
-0.993643, 367, 169, 382, 232
-0.993645, 161, 165, 288, 196
-0.993645, 289, 197, 416, 228
-0.993702, 249, 273, 312, 336
-0.993713, 399, 169, 414, 232
-0.99373, 129, 17, 384, 80
-0.993744, 65, 189, 192, 220
-0.99375, 113, 205, 240, 236
-0.993764, 1, 97, 500, 160
-0.993765, 145, 225, 208, 288
-0.993779, 321, 153, 448, 184
-0.993788, 381, 193, 396, 256
-0.993834, 161, 49, 192, 176
-0.993847, 321, 209, 448, 240
-0.993886, 241, 233, 368, 296
-0.993899, 273, 25, 400, 88
-0.993909, 161, 29, 288, 60
-0.993931, 81, 1, 208, 32
-0.993975, 337, 169, 352, 232
-0.993978, 401, 49, 432, 176
-0.99402, 177, 1, 208, 256
-0.994035, 61, 81, 92, 208
-0.994051, 165, 193, 180, 256
-0.994102, 305, 169, 320, 232
-0.994132, 139, 193, 154, 256
-0.994159, 129, 177, 256, 208
-0.994192, 33, 129, 64, 256
-0.994217, 193, 129, 320, 160
-0.994225, 97, 13, 224, 44
-0.994261, 249, 185, 264, 248
-0.994311, 347, 169, 362, 232
-0.994312, 25, 33, 40, 96
-0.994337, 201, 193, 216, 256
-0.994349, 225, 81, 480, 144
-0.994352, 419, 177, 434, 240
-0.994364, 183, 185, 198, 248
-0.994395, 257, 141, 384, 172
-0.994412, 193, 209, 320, 240
-0.994414, 21, 129, 52, 256
-0.994421, 367, 193, 382, 256
-0.994439, 113, 133, 240, 164
-0.994439, 9, 113, 40, 240
-0.994491, 155, 145, 170, 208
-0.994495, 337, 141, 464, 172
-0.994499, 257, 185, 272, 248
-0.9945, 209, 161, 224, 224
-0.994512, 149, 153, 164, 216
-0.994521, 211, 41, 226, 104
-0.994526, 233, 17, 248, 80
-0.994547, 273, 129, 400, 160
-0.994577, 241, 209, 368, 240
-0.994591, 257, 161, 272, 224
-0.994636, 259, 41, 274, 104
-0.994676, 141, 169, 156, 232
-0.994763, 395, 193, 410, 256
-0.994772, 353, 177, 480, 208
-0.994777, 233, 161, 248, 224
-0.994803, 283, 41, 298, 104
-0.994803, 321, 177, 336, 240
-0.994807, 235, 121, 250, 184
-0.994812, 33, 1, 96, 338
-0.994813, 411, 177, 426, 240
-0.994818, 243, 185, 258, 248
-0.994828, 345, 193, 360, 256
-0.994843, 207, 193, 222, 256
-0.994846, 369, 293, 496, 324
-0.994872, 209, 73, 336, 104
-0.994874, 265, 161, 280, 224
-0.994876, 203, 137, 218, 200
-0.994884, 33, 177, 160, 208
-0.994902, 299, 137, 314, 200
-0.994908, 103, 1, 118, 64
-0.994915, 65, 161, 192, 192
-0.994921, 223, 17, 238, 80
-0.99494, 293, 49, 308, 112
-0.994951, 405, 145, 420, 208
-0.994984, 249, 25, 264, 88
-0.994985, 1, 33, 256, 96
-0.994988, 81, 265, 208, 328
-0.99499, 245, 137, 260, 200
-0.99499, 369, 213, 496, 244
-0.994997, 161, 69, 288, 100
-0.995005, 241, 181, 368, 212
-0.995023, 77, 209, 108, 336
-0.995065, 467, 105, 482, 168
-0.995078, 327, 169, 342, 232
-0.995107, 271, 169, 286, 232
-0.995109, 195, 193, 210, 256
-0.995113, 1, 221, 128, 252
-0.995123, 351, 129, 366, 192
-0.995157, 299, 65, 314, 128
-0.995183, 431, 161, 446, 224
-0.995202, 105, 25, 120, 88
-0.99521, 195, 137, 210, 200
-0.995222, 217, 1, 248, 256
-0.995228, 215, 129, 230, 192
-0.995278, 33, 97, 288, 160
-0.995281, 109, 137, 124, 200
-0.995302, 257, 81, 384, 112
-0.995306, 315, 193, 330, 256
-0.995307, 303, 193, 318, 256
-0.995307, 369, 129, 496, 160
-0.995327, 75, 169, 90, 232
-0.995328, 209, 45, 336, 76
-0.995331, 177, 185, 192, 248
-0.99535, 145, 305, 272, 336
-0.995358, 205, 1, 236, 256
-0.995371, 1, 217, 500, 280
-0.995373, 175, 1, 190, 64
-0.995375, 33, 209, 160, 240
-0.995396, 161, 129, 176, 192
-0.995396, 209, 141, 336, 172
-0.99541, 353, 57, 480, 120
-0.995417, 361, 145, 376, 208
-0.995424, 241, 1, 272, 256
-0.995434, 27, 57, 42, 120
-0.995446, 329, 193, 344, 256
-0.995447, 359, 193, 374, 256
-0.995447, 265, 49, 280, 112
-0.995449, 345, 137, 360, 200
-0.995452, 217, 25, 232, 88
-0.995468, 273, 33, 304, 288
-0.995468, 105, 169, 120, 232
-0.995469, 425, 161, 440, 224
-0.995479, 241, 193, 368, 224
-0.995492, 133, 193, 148, 256
-0.995492, 315, 105, 330, 168
-0.995496, 109, 1, 124, 64
-0.995496, 257, 153, 384, 184
-0.995496, 387, 193, 402, 256
-0.995498, 427, 193, 442, 256
-0.995501, 11, 185, 26, 248
-0.995512, 395, 145, 410, 208
-0.995514, 99, 169, 114, 232
-0.995523, 213, 193, 228, 256
-0.995524, 177, 177, 304, 208
-0.995535, 257, 217, 500, 280
-0.995542, 225, 57, 480, 120
-0.995545, 417, 201, 432, 264
-0.995554, 419, 153, 434, 216
-0.995558, 209, 121, 224, 184
-0.995569, 147, 201, 162, 264
-0.995584, 201, 41, 216, 104
-0.995589, 285, 33, 316, 288
-0.995593, 69, 169, 84, 232
-0.995599, 299, 169, 314, 232
-0.9956, 411, 201, 426, 264
-0.995609, 61, 169, 76, 232
-0.995614, 225, 301, 352, 332
-0.995618, 99, 97, 114, 160
-0.995625, 215, 161, 230, 224
-0.995646, 135, 169, 150, 232
-0.995653, 189, 137, 204, 200
-0.995658, 289, 93, 416, 124
-0.995659, 243, 65, 258, 128
-0.995665, 241, 25, 256, 88
-0.995671, 289, 109, 416, 140
-0.995671, 89, 193, 104, 256
-0.995677, 309, 89, 324, 152
-0.995678, 263, 185, 278, 248
-0.9957, 279, 137, 294, 200
-0.995702, 273, 49, 288, 112
-0.995706, 227, 57, 242, 120
-0.995707, 273, 297, 400, 328
-0.995717, 287, 169, 302, 232
-0.995723, 1, 161, 128, 192
-0.995729, 323, 129, 338, 192
-0.995732, 433, 137, 448, 200
-0.995736, 309, 209, 324, 272
-0.995741, 307, 129, 322, 192
-0.995743, 277, 161, 292, 224
-0.995744, 209, 165, 336, 196
-0.995745, 229, 1, 260, 256
-0.995753, 209, 65, 224, 128
-0.995771, 157, 65, 188, 320
-0.995778, 257, 169, 384, 200
-0.995791, 291, 193, 306, 256
-0.995792, 229, 137, 244, 200
-0.995796, 145, 121, 272, 152
-0.995798, 79, 193, 94, 256
-0.995802, 313, 169, 328, 232
-0.995805, 331, 105, 346, 168
-0.995808, 443, 153, 458, 216
-0.995818, 33, 65, 288, 128
-0.995824, 227, 161, 242, 224
-0.995836, 113, 49, 240, 80
-0.995839, 97, 25, 224, 56
-0.995905, 369, 1, 496, 128
-0.995916, 261, 65, 292, 320
-0.995923, 49, 149, 176, 180
-0.995954, 177, 233, 304, 296
-0.995961, 189, 1, 220, 256
-0.995967, 145, 105, 272, 136
-0.996003, 1, 49, 500, 112
-0.996008, 129, 17, 160, 144
-0.996031, 225, 93, 352, 124
-0.996032, 49, 241, 176, 304
-0.996045, 1, 197, 128, 228
-0.996089, 117, 97, 148, 224
-0.996114, 177, 97, 208, 338
-0.996115, 145, 93, 272, 124
-0.996136, 65, 137, 192, 168
-0.996136, 209, 117, 336, 148
-0.996141, 273, 69, 400, 100
-0.99616, 73, 49, 104, 176
-0.996181, 365, 97, 396, 338
-0.996183, 273, 221, 400, 252
-0.996185, 189, 97, 220, 338
-0.996221, 461, 97, 492, 338
-0.996228, 209, 33, 336, 64
-0.996243, 161, 57, 288, 88
-0.9963, 321, 293, 448, 324
-0.996349, 161, 17, 288, 48
-0.996364, 313, 97, 344, 338
-0.996365, 329, 209, 360, 336
-0.99639, 1, 61, 128, 92
-0.9964, 129, 153, 256, 184
-0.996427, 1, 149, 128, 180
-0.996442, 321, 225, 448, 256
-0.99646, 193, 153, 320, 184
-0.996502, 369, 157, 496, 188
-0.996506, 65, 57, 192, 88
-0.996534, 225, 105, 352, 136
-0.996545, 97, 93, 224, 124
-0.996558, 193, 189, 208, 220
-0.996586, 289, 241, 416, 304
-0.996605, 201, 97, 232, 338
-0.996642, 97, 221, 224, 252
-0.996647, 129, 273, 384, 336
-0.996697, 5, 209, 36, 336
-0.996712, 225, 273, 480, 336
-0.996716, 183, 189, 198, 220
-0.99673, 337, 109, 464, 140
-0.99674, 145, 97, 176, 338
-0.996749, 257, 57, 384, 88
-0.996753, 337, 93, 464, 124
-0.996766, 375, 193, 390, 224
-0.996771, 381, 97, 412, 338
-0.996783, 321, 305, 448, 336
-0.996792, 65, 121, 192, 152
-0.996817, 145, 193, 160, 224
-0.996826, 301, 65, 332, 320
-0.996832, 321, 129, 448, 160
-0.996846, 161, 289, 288, 320
-0.996847, 17, 29, 144, 60
-0.996864, 1, 137, 128, 168
-0.996936, 247, 173, 262, 204
-0.996959, 169, 169, 184, 200
-0.996965, 113, 61, 240, 92
-0.996982, 13, 1, 44, 256
-0.996986, 1, 89, 128, 120
-0.997017, 449, 97, 480, 338
-0.997033, 381, 193, 396, 224
-0.997035, 155, 205, 170, 236
-0.997046, 457, 1, 488, 256
-0.997063, 145, 81, 272, 112
-0.997065, 369, 305, 496, 336
-0.997068, 193, 221, 320, 252
-0.997069, 301, 189, 316, 220
-0.997079, 239, 177, 254, 208
-0.997085, 241, 165, 256, 196
-0.997087, 105, 13, 120, 44
-0.997103, 413, 161, 428, 192
-0.997104, 157, 173, 172, 204
-0.997121, 217, 97, 248, 338
-0.997122, 349, 65, 380, 320
-0.997125, 113, 37, 240, 68
-0.997141, 149, 205, 164, 236
-0.997154, 149, 177, 164, 208
-0.997157, 175, 189, 190, 220
-0.997163, 49, 221, 176, 252
-0.99717, 161, 5, 288, 36
-0.997192, 1, 25, 500, 88
-0.997223, 433, 97, 464, 338
-0.997232, 289, 185, 416, 216
-0.997234, 161, 205, 176, 236
-0.997246, 161, 137, 176, 168
-0.997266, 297, 205, 312, 236
-0.997282, 421, 177, 436, 208
-0.997299, 1, 73, 500, 136
-0.997301, 111, 9, 126, 40
-0.997302, 353, 193, 368, 224
-0.997305, 133, 209, 164, 336
-0.997307, 17, 1, 144, 32
-0.997312, 417, 201, 432, 232
-0.997312, 365, 193, 380, 224
-0.997323, 161, 141, 288, 172
-0.997327, 65, 105, 192, 136
-0.997331, 337, 65, 368, 320
-0.997339, 97, 1, 128, 256
-0.997361, 1, 49, 128, 80
-0.997368, 145, 217, 272, 248
-0.99737, 347, 193, 362, 224
-0.997381, 369, 225, 496, 256
-0.997393, 221, 61, 236, 92
-0.997394, 337, 209, 352, 240
-0.997394, 117, 13, 132, 44
-0.997404, 49, 97, 80, 338
-0.997417, 283, 45, 298, 76
-0.997425, 309, 209, 324, 240
-0.997428, 23, 49, 38, 80
-0.99743, 225, 33, 480, 96
-0.997436, 373, 173, 388, 204
-0.997439, 181, 169, 196, 200
-0.997444, 431, 173, 446, 204
-0.997456, 411, 209, 426, 240
-0.997466, 293, 53, 308, 84
-0.997471, 141, 205, 156, 236
-0.997481, 33, 273, 288, 336
-0.997493, 325, 65, 356, 320
-0.997494, 269, 173, 284, 204
-0.997496, 303, 209, 318, 240
-0.997498, 175, 169, 190, 200
-0.99751, 119, 1, 134, 32
-0.997519, 155, 185, 170, 216
-0.997524, 1, 257, 500, 320
-0.997524, 229, 97, 260, 338
-0.997531, 403, 173, 418, 204
-0.99755, 163, 173, 178, 204
-0.997554, 393, 97, 424, 338
-0.997555, 225, 21, 352, 52
-0.997558, 23, 33, 38, 64
-0.997567, 69, 165, 84, 196
-0.99758, 97, 233, 224, 296
-0.99758, 139, 177, 154, 208
-0.997583, 295, 193, 310, 224
-0.997588, 99, 65, 114, 96
-0.997599, 215, 69, 230, 100
-0.997603, 273, 233, 400, 264
-0.997604, 151, 165, 166, 196
-0.997605, 385, 209, 400, 240
-0.997605, 253, 165, 268, 196
-0.997608, 237, 189, 252, 220
-0.997608, 163, 189, 178, 220
-0.997613, 1, 1, 16, 32
-0.997616, 301, 169, 316, 200
-0.997617, 307, 193, 322, 224
-0.997618, 105, 165, 120, 196
-0.997622, 365, 129, 380, 160
-0.997627, 319, 193, 334, 224
-0.997633, 409, 97, 440, 338
-0.997634, 33, 97, 64, 338
-0.997634, 211, 45, 226, 76
-0.997645, 59, 177, 74, 208
-0.997646, 65, 301, 192, 332
-0.997649, 271, 57, 286, 88
-0.99765, 249, 185, 264, 216
-0.99766, 375, 205, 390, 236
-0.997661, 203, 205, 218, 236
-0.997661, 17, 17, 144, 48
-0.997688, 287, 209, 302, 240
-0.997692, 113, 281, 240, 312
-0.997699, 189, 25, 204, 56
-0.99771, 403, 153, 418, 184
-0.997714, 167, 205, 182, 236
-0.997715, 243, 209, 258, 240
-0.997715, 277, 209, 292, 240
-0.997718, 97, 81, 224, 112
-0.997721, 61, 97, 92, 338
-0.997726, 107, 29, 122, 60
-0.997734, 387, 173, 402, 204
-0.997736, 311, 169, 326, 200
-0.997737, 247, 161, 262, 192
-0.997741, 403, 213, 418, 244
-0.997742, 337, 81, 464, 112
-0.997746, 359, 193, 374, 224
-0.997749, 195, 201, 210, 232
-0.997754, 411, 193, 426, 224
-0.997754, 99, 165, 114, 196
-0.997757, 319, 121, 334, 152
-0.99776, 417, 213, 432, 244
-0.997763, 267, 209, 282, 240
-0.997764, 377, 17, 440, 144
-0.99777, 225, 209, 240, 240
-0.99777, 295, 297, 310, 328
-0.997772, 213, 209, 228, 240
-0.997773, 85, 57, 100, 88
-0.997776, 395, 173, 410, 204
-0.997776, 251, 209, 266, 240
-0.997777, 317, 161, 332, 192
-0.99778, 255, 189, 270, 220
-0.997785, 79, 165, 94, 196
-0.997787, 309, 129, 324, 160
-0.997789, 313, 97, 328, 128
-0.997793, 231, 209, 246, 240
-0.997793, 467, 129, 482, 160
-0.997794, 107, 45, 122, 76
-0.997796, 201, 49, 216, 80
-0.997796, 363, 153, 378, 184
-0.997797, 363, 173, 378, 204
-0.997801, 225, 21, 240, 52
-0.997806, 187, 165, 202, 196
-0.997806, 331, 209, 346, 240
-0.997808, 217, 33, 232, 64
-0.997817, 437, 209, 452, 240
-0.99782, 247, 29, 262, 60
-0.997823, 411, 173, 426, 204
-0.997824, 429, 161, 444, 192
-0.997826, 301, 73, 316, 104
-0.997831, 49, 69, 176, 100
-0.997832, 369, 281, 496, 312
-0.997841, 155, 153, 170, 184
-0.997842, 327, 161, 342, 192
-0.997846, 33, 1, 96, 256
-0.997846, 21, 221, 36, 252
-0.997853, 293, 169, 308, 200
-0.997857, 11, 221, 26, 252
-0.997859, 427, 213, 442, 244
-0.997861, 371, 141, 386, 172
-0.997863, 215, 57, 230, 88
-0.997864, 173, 201, 188, 232
-0.997867, 241, 97, 272, 338
-0.997871, 467, 213, 482, 244
-0.997871, 73, 97, 104, 338
-0.997872, 21, 97, 52, 338
-0.997875, 275, 177, 290, 208
-0.997875, 251, 305, 266, 336
-0.997876, 315, 209, 330, 240
-0.997887, 261, 209, 276, 240
-0.997888, 309, 81, 324, 112
-0.997893, 103, 1, 118, 32
-0.997893, 449, 213, 464, 244
-0.997893, 199, 165, 214, 196
-0.997904, 1, 125, 128, 156
-0.997942, 93, 97, 124, 338
-0.997945, 49, 45, 176, 76
-0.997951, 225, 9, 480, 72
-0.997962, 421, 97, 452, 338
-0.997965, 25, 1, 56, 256
-0.997987, 49, 81, 176, 112
-0.998004, 113, 293, 240, 324
-0.998025, 1, 101, 128, 132
-0.998094, 469, 1, 500, 256
-0.998165, 1, 233, 128, 264
-0.99817, 161, 233, 416, 296
-0.998179, 109, 97, 140, 338
-0.998182, 209, 289, 336, 320
-0.998193, 145, 1, 176, 256
-0.998327, 9, 97, 40, 338
-0.998384, 161, 201, 224, 216
-0.998386, 183, 145, 198, 272
-0.998394, 445, 1, 476, 256
-0.998406, 209, 33, 272, 48
-0.99841, 137, 199, 200, 214
-0.998419, 137, 193, 200, 208
-0.998424, 233, 179, 296, 194
-0.998435, 161, 135, 224, 150
-0.998436, 201, 139, 264, 154
-0.998442, 161, 193, 224, 208
-0.998442, 217, 31, 248, 46
-0.998443, 281, 183, 312, 198
-0.998443, 285, 223, 316, 238
-0.998443, 321, 167, 352, 182
-0.998443, 445, 225, 476, 240
-0.998444, 333, 229, 364, 244
-0.998444, 393, 211, 424, 226
-0.998444, 297, 171, 328, 186
-0.998444, 369, 213, 400, 228
-0.998445, 457, 291, 488, 306
-0.998445, 193, 187, 256, 202
-0.998446, 241, 43, 272, 58
-0.998447, 345, 203, 376, 218
-0.998447, 197, 137, 228, 152
-0.998447, 225, 139, 256, 154
-0.998448, 301, 309, 332, 324
-0.998448, 21, 45, 52, 60
-0.998448, 233, 61, 264, 76
-0.998448, 329, 173, 360, 188
-0.998449, 425, 293, 456, 308
-0.998449, 81, 175, 112, 190
-0.998449, 285, 213, 316, 228
-0.99845, 249, 189, 312, 204
-0.998451, 313, 213, 344, 228
-0.998451, 425, 207, 456, 222
-0.998452, 281, 203, 344, 218
-0.998452, 397, 169, 428, 184
-0.998452, 201, 211, 232, 226
-0.998453, 101, 171, 132, 186
-0.998453, 153, 133, 184, 148
-0.998453, 9, 225, 40, 240
-0.998454, 385, 147, 416, 162
-0.998454, 157, 181, 188, 196
-0.998454, 345, 229, 376, 244
-0.998455, 141, 209, 172, 224
-0.998456, 89, 169, 120, 184
-0.998456, 297, 213, 360, 228
-0.998459, 357, 207, 388, 222
-0.998459, 365, 193, 396, 208
-0.998459, 217, 37, 248, 52
-0.99846, 297, 197, 328, 212
-0.998461, 185, 33, 248, 48
-0.998461, 321, 205, 352, 220
-0.998463, 189, 193, 220, 208
-0.998464, 233, 167, 264, 182
-0.998464, 141, 137, 172, 152
-0.998465, 265, 141, 296, 156
-0.998466, 241, 49, 272, 64
-0.998466, 293, 189, 324, 204
-0.998467, 337, 199, 400, 214
-0.998468, 289, 91, 320, 106
-0.998468, 273, 193, 304, 208
-0.99847, 237, 35, 268, 50
-0.99847, 313, 229, 344, 244
-0.998471, 369, 175, 432, 190
-0.998471, 261, 211, 292, 226
-0.998472, 165, 207, 196, 222
-0.998472, 265, 177, 296, 192
-0.998473, 261, 47, 292, 62
-0.998473, 197, 187, 228, 202
-0.998473, 137, 185, 168, 200
-0.998473, 109, 21, 140, 36
-0.998473, 237, 193, 268, 208
-0.998475, 393, 207, 456, 222
-0.998475, 237, 139, 268, 154
-0.998476, 61, 173, 92, 188
-0.998476, 425, 223, 456, 238
-0.998476, 281, 171, 312, 186
-0.998476, 197, 45, 228, 60
-0.998477, 77, 169, 108, 184
-0.998477, 209, 27, 272, 42
-0.998478, 109, 137, 140, 152
-0.998478, 249, 55, 280, 70
-0.998478, 65, 179, 96, 194
-0.998479, 357, 147, 388, 162
-0.998479, 281, 207, 312, 222
-0.998479, 249, 53, 312, 68
-0.998479, 185, 207, 216, 222
-0.99848, 269, 169, 300, 184
-0.99848, 261, 53, 292, 68
-0.99848, 137, 187, 200, 202
-0.998482, 297, 193, 360, 208
-0.998483, 413, 205, 444, 220
-0.998483, 177, 41, 240, 56
-0.998483, 181, 185, 212, 200
-0.998483, 233, 211, 264, 226
-0.998484, 101, 7, 132, 22
-0.998486, 137, 175, 200, 190
-0.998489, 213, 211, 244, 226
-0.99849, 65, 171, 128, 186
-0.99849, 189, 167, 220, 182
-0.99849, 313, 317, 344, 332
-0.99849, 373, 149, 404, 164
-0.998491, 217, 189, 280, 204
-0.998492, 393, 171, 456, 186
-0.998492, 13, 39, 44, 54
-0.998493, 177, 27, 240, 42
-0.998494, 265, 171, 328, 186
-0.998495, 97, 177, 128, 192
-0.998497, 141, 199, 172, 214
-0.998497, 153, 187, 184, 202
-0.998497, 169, 171, 200, 186
-0.998498, 1, 73, 128, 104
-0.998499, 117, 1, 148, 16
-0.998499, 209, 39, 272, 54
-0.998499, 201, 145, 216, 272
-0.9985, 157, 139, 188, 154
-0.9985, 101, 1, 132, 16
-0.9985, 409, 177, 472, 192
-0.9985, 285, 307, 316, 322
-0.9985, 193, 193, 256, 208
-0.9985, 137, 207, 200, 222
-0.998502, 161, 193, 192, 208
-0.998503, 381, 209, 412, 224
-0.998503, 297, 229, 360, 244
-0.998504, 277, 53, 308, 68
-0.998504, 377, 193, 440, 208
-0.998505, 105, 173, 168, 188
-0.998506, 33, 249, 288, 312
-0.998507, 257, 143, 320, 158
-0.998507, 89, 199, 152, 214
-0.998507, 161, 207, 224, 222
-0.998508, 169, 187, 232, 202
-0.998508, 177, 167, 240, 182
-0.998509, 109, 1, 140, 256
-0.99851, 49, 177, 112, 192
-0.99851, 249, 59, 312, 74
-0.998511, 361, 153, 424, 168
-0.998514, 401, 213, 464, 228
-0.998514, 273, 213, 304, 228
-0.998517, 257, 211, 320, 226
-0.998517, 41, 199, 104, 214
-0.998519, 137, 139, 200, 154
-0.998519, 273, 227, 304, 242
-0.99852, 333, 207, 364, 222
-0.99852, 241, 169, 304, 184
-0.998522, 105, 137, 168, 152
-0.998523, 257, 181, 320, 196
-0.998524, 181, 135, 212, 150
-0.998524, 209, 179, 272, 194
-0.998526, 261, 183, 292, 198
-0.998527, 145, 181, 208, 196
-0.998528, 201, 167, 264, 182
-0.998529, 257, 285, 384, 316
-0.998529, 213, 65, 244, 80
-0.99853, 209, 137, 240, 152
-0.99853, 1, 225, 64, 240
-0.99853, 405, 213, 436, 228
-0.99853, 185, 211, 248, 226
-0.998531, 393, 153, 424, 168
-0.998532, 289, 301, 352, 316
-0.998532, 253, 169, 284, 184
-0.998534, 233, 141, 296, 156
-0.998534, 281, 143, 344, 158
-0.998534, 401, 175, 432, 190
-0.998535, 249, 47, 312, 62
-0.998536, 361, 209, 424, 224
-0.998536, 89, 179, 152, 194
-0.998537, 153, 209, 184, 224
-0.998537, 137, 173, 168, 188
-0.998537, 257, 223, 320, 238
-0.998538, 161, 141, 224, 156
-0.998539, 157, 175, 188, 190
-0.99854, 321, 147, 384, 162
-0.998541, 265, 229, 328, 244
-0.998541, 97, 1, 160, 16
-0.998542, 177, 145, 192, 272
-0.998543, 81, 139, 144, 154
-0.998544, 185, 203, 248, 218
-0.998544, 257, 67, 320, 82
-0.998545, 185, 47, 248, 62
-0.998545, 217, 45, 280, 60
-0.998545, 221, 23, 252, 38
-0.998546, 233, 187, 264, 202
-0.998546, 233, 211, 296, 226
-0.998547, 161, 145, 176, 272
-0.998547, 409, 183, 472, 198
-0.998548, 281, 319, 344, 334
-0.998549, 89, 21, 152, 36
-0.998549, 301, 213, 332, 228
-0.998549, 209, 211, 272, 226
-0.998551, 257, 189, 288, 204
-0.998552, 225, 229, 288, 244
-0.998552, 153, 199, 184, 214
-0.998552, 225, 51, 288, 66
-0.998552, 167, 145, 182, 272
-0.998553, 369, 303, 432, 318
-0.998553, 321, 229, 384, 244
-0.998554, 401, 225, 464, 240
-0.998554, 337, 207, 400, 222
-0.998554, 149, 193, 180, 208
-0.998554, 409, 129, 472, 144
-0.998554, 289, 307, 352, 322
-0.998555, 301, 229, 332, 244
-0.998555, 285, 229, 316, 244
-0.998555, 321, 173, 384, 188
-0.998555, 89, 27, 152, 42
-0.998555, 297, 165, 360, 180
-0.998555, 417, 185, 448, 200
-0.998556, 257, 135, 320, 150
-0.998556, 121, 217, 184, 232
-0.998557, 377, 215, 440, 230
-0.998559, 257, 197, 320, 212
-0.99856, 353, 297, 416, 312
-0.99856, 377, 229, 440, 244
-0.99856, 401, 295, 464, 310
-0.998561, 185, 133, 248, 148
-0.998563, 273, 189, 336, 204
-0.998563, 369, 245, 496, 276
-0.998567, 189, 113, 204, 240
-0.998568, 121, 129, 184, 144
-0.998568, 257, 309, 320, 324
-0.998569, 377, 201, 440, 216
-0.99857, 101, 13, 132, 28
-0.99857, 297, 85, 360, 100
-0.99857, 145, 179, 176, 194
-0.99857, 181, 97, 196, 224
-0.998572, 89, 15, 152, 30
-0.998573, 129, 1, 192, 16
-0.998573, 137, 193, 168, 208
-0.998573, 289, 107, 352, 122
-0.998573, 433, 291, 496, 306
-0.998574, 165, 133, 196, 148
-0.998574, 137, 163, 200, 178
-0.998574, 293, 203, 324, 218
-0.998574, 1, 1, 32, 256
-0.998576, 345, 175, 408, 190
-0.998576, 177, 21, 240, 36
-0.998578, 281, 219, 344, 234
-0.998578, 153, 41, 216, 56
-0.998578, 257, 205, 320, 220
-0.998579, 297, 73, 360, 88
-0.998579, 105, 205, 168, 220
-0.998579, 353, 229, 416, 244
-0.99858, 409, 123, 472, 138
-0.99858, 425, 169, 488, 184
-0.99858, 233, 303, 296, 318
-0.99858, 161, 127, 224, 142
-0.99858, 249, 145, 264, 272
-0.998581, 233, 181, 264, 196
-0.998581, 321, 319, 384, 334
-0.998581, 1, 195, 64, 210
-0.998583, 201, 161, 264, 176
-0.998583, 9, 157, 72, 172
-0.998583, 321, 305, 384, 320
-0.998585, 321, 237, 448, 268
-0.998586, 105, 193, 168, 208
-0.998587, 313, 299, 376, 314
-0.998587, 145, 309, 208, 324
-0.998587, 313, 109, 376, 124
-0.998587, 401, 165, 464, 180
-0.998588, 353, 147, 416, 162
-0.998589, 161, 35, 224, 50
-0.998589, 161, 175, 224, 190
-0.998589, 49, 163, 112, 178
-0.998595, 409, 169, 440, 184
-0.998596, 389, 1, 420, 256
-0.998598, 349, 197, 380, 212
-0.998599, 369, 199, 400, 214
-0.998602, 369, 205, 400, 220
-0.998608, 245, 179, 276, 194
-0.998612, 17, 113, 144, 144
-0.998614, 177, 191, 208, 206
-0.998619, 225, 145, 240, 272
-0.998627, 97, 23, 128, 38
-0.99863, 245, 187, 276, 202
-0.998639, 181, 201, 212, 216
-0.99864, 369, 1, 400, 256
-0.99864, 421, 177, 452, 192
-0.998648, 235, 145, 250, 272
-0.998652, 169, 201, 200, 216
-0.998655, 207, 145, 222, 272
-0.998657, 191, 161, 206, 288
-0.998666, 225, 233, 352, 264
-0.998669, 305, 281, 432, 312
-0.998672, 351, 145, 366, 272
-0.998701, 263, 145, 278, 272
-0.998703, 255, 145, 270, 272
-0.998708, 213, 145, 228, 272
-0.998711, 219, 145, 234, 272
-0.998722, 271, 161, 286, 288
-0.998735, 413, 161, 428, 288
-0.99876, 125, 97, 156, 338
-0.998789, 279, 161, 294, 288
-0.99879, 363, 161, 378, 288
-0.99879, 175, 97, 190, 224
-0.998804, 361, 113, 376, 240
-0.99881, 247, 17, 262, 144
-0.998812, 289, 161, 304, 288
-0.99882, 151, 145, 166, 272
-0.998824, 303, 177, 318, 304
-0.99883, 107, 1, 122, 128
-0.998835, 143, 161, 158, 288
-0.998842, 217, 17, 232, 144
-0.998847, 243, 145, 258, 272
-0.998861, 467, 113, 482, 240
-0.998863, 467, 193, 482, 320
-0.998869, 283, 33, 298, 160
-0.998871, 257, 241, 500, 304
-0.998872, 469, 49, 484, 176
-0.998872, 353, 33, 480, 96
-0.998889, 343, 161, 358, 288
-0.998891, 231, 1, 246, 128
-0.998899, 269, 113, 284, 240
-0.9989, 297, 49, 312, 176
-0.998908, 225, 1, 240, 128
-0.998915, 301, 113, 316, 240
-0.998915, 81, 269, 208, 300
-0.998916, 255, 33, 270, 160
-0.998918, 407, 145, 422, 272
-0.998922, 313, 1, 344, 256
-0.998923, 303, 65, 318, 192
-0.998928, 161, 97, 176, 224
-0.998929, 419, 113, 434, 240
-0.998933, 257, 45, 384, 76
-0.998938, 335, 177, 350, 304
-0.99894, 341, 113, 356, 240
-0.998941, 389, 177, 404, 304
-0.998949, 175, 193, 190, 320
-0.998954, 167, 97, 182, 224
-0.998956, 473, 113, 488, 240
-0.998959, 407, 97, 422, 224
-0.99896, 101, 1, 116, 128
-0.998962, 27, 1, 42, 128
-0.998964, 377, 193, 392, 320
-0.99897, 191, 17, 206, 144
-0.998976, 179, 1, 194, 128
-0.998978, 197, 33, 212, 160
-0.99899, 325, 113, 340, 240
-0.998994, 353, 193, 368, 320
-0.998996, 393, 97, 408, 224
-0.998998, 383, 113, 398, 240
-0.998998, 383, 193, 398, 320
-0.999006, 475, 193, 490, 320
-0.999006, 283, 113, 298, 240
-0.999007, 457, 129, 472, 256
-0.999008, 195, 113, 210, 240
-0.999009, 277, 33, 292, 160
-0.999009, 241, 17, 256, 144
-0.99901, 321, 69, 448, 100
-0.999012, 291, 33, 306, 160
-0.999013, 437, 161, 452, 288
-0.999016, 85, 1, 116, 256
-0.999024, 307, 113, 322, 240
-0.999026, 351, 97, 366, 224
-0.999031, 293, 113, 308, 240
-0.999038, 401, 1, 432, 256
-0.999039, 309, 65, 324, 192
-0.999045, 219, 65, 234, 192
-0.999046, 237, 97, 252, 224
-0.999048, 211, 65, 226, 192
-0.999051, 369, 113, 384, 240
-0.999053, 399, 113, 414, 240
-0.999054, 297, 177, 312, 304
-0.999055, 461, 193, 476, 320
-0.999059, 185, 17, 200, 144
-0.99906, 247, 97, 262, 224
-0.999064, 425, 161, 440, 288
-0.999065, 197, 193, 212, 320
-0.999066, 309, 177, 324, 304
-0.99907, 375, 145, 390, 272
-0.99907, 431, 193, 446, 320
-0.999072, 413, 113, 428, 240
-0.999073, 225, 97, 240, 224
-0.999077, 203, 33, 218, 160
-0.999079, 449, 129, 464, 256
-0.999079, 419, 161, 434, 288
-0.999082, 319, 65, 334, 192
-0.999084, 265, 33, 280, 160
-0.999088, 185, 193, 200, 320
-0.999094, 335, 113, 350, 240
-0.999099, 113, 1, 128, 128
-0.999103, 463, 65, 478, 192
-0.999107, 317, 177, 332, 304
-0.999109, 369, 193, 384, 320
-0.99911, 193, 273, 320, 304
-0.999116, 313, 113, 328, 240
-0.999121, 121, 1, 136, 128
-0.999121, 169, 193, 184, 320
-0.999121, 201, 97, 216, 224
-0.999121, 431, 113, 446, 240
-0.999122, 421, 1, 452, 256
-0.999126, 401, 177, 416, 304
-0.999127, 321, 249, 448, 280
-0.999128, 65, 289, 192, 320
-0.999136, 17, 245, 144, 276
-0.999136, 17, 289, 144, 320
-0.999142, 1, 1, 16, 128
-0.999147, 319, 113, 334, 240
-0.999148, 61, 161, 76, 288
-0.999154, 253, 97, 268, 224
-0.999169, 99, 129, 114, 256
-0.999175, 451, 193, 466, 320
-0.999176, 271, 49, 286, 176
-0.999189, 327, 177, 342, 304
-0.999202, 277, 113, 292, 240
-0.999202, 231, 97, 246, 224
-0.999202, 443, 161, 458, 288
-0.999206, 209, 17, 224, 144
-0.999212, 187, 65, 202, 192
-0.999213, 485, 193, 500, 320
-0.999215, 361, 65, 376, 192
-0.999216, 395, 177, 410, 304
-0.999217, 53, 177, 68, 304
-0.999227, 409, 1, 472, 128
-0.999228, 469, 1, 484, 128
-0.999229, 155, 97, 170, 224
-0.999238, 203, 193, 218, 320
-0.999238, 423, 209, 438, 336
-0.999252, 433, 1, 464, 256
-0.99932, 1, 1, 500, 64
-0.999391, 353, 1, 480, 64
-0.999498, 337, 1, 400, 128
-0.999549, 45, 1, 76, 256
-0.999637, 103, 1, 118, 16
-0.999637, 325, 213, 340, 228
-0.999638, 231, 211, 246, 226
-0.999638, 285, 171, 300, 186
-0.999638, 349, 229, 364, 244
-0.999638, 181, 191, 196, 206
-0.999638, 353, 323, 368, 338
-0.999639, 111, 15, 126, 30
-0.999639, 141, 193, 156, 208
-0.999639, 289, 305, 304, 320
-0.999639, 263, 169, 278, 184
-0.99964, 199, 135, 214, 150
-0.99964, 311, 213, 326, 228
-0.999641, 215, 211, 230, 226
-0.999641, 217, 39, 232, 54
-0.999642, 191, 33, 206, 48
-0.999642, 435, 293, 450, 308
-0.999643, 155, 187, 170, 202
-0.999643, 269, 183, 284, 198
-0.999644, 357, 173, 372, 188
-0.999644, 225, 65, 240, 80
-0.999644, 135, 141, 150, 156
-0.999645, 293, 223, 308, 238
-0.999646, 313, 317, 328, 332
-0.999646, 321, 229, 336, 244
-0.999646, 347, 201, 362, 216
-0.999646, 271, 191, 286, 206
-0.999649, 325, 321, 340, 336
-0.999649, 139, 205, 154, 220
-0.999649, 479, 291, 494, 306
-0.99965, 225, 211, 240, 226
-0.999651, 391, 209, 406, 224
-0.999652, 257, 169, 272, 184
-0.999653, 207, 43, 222, 58
-0.999653, 311, 171, 326, 186
-0.999653, 377, 147, 392, 162
-0.999653, 279, 189, 294, 204
-0.999654, 265, 141, 280, 156
-0.999654, 245, 169, 260, 184
-0.999654, 267, 229, 282, 244
-0.999654, 383, 145, 398, 160
-0.999654, 275, 183, 290, 198
-0.999655, 269, 177, 284, 192
-0.999655, 295, 171, 310, 186
-0.999655, 279, 225, 294, 240
-0.999655, 155, 157, 170, 172
-0.999656, 225, 57, 240, 72
-0.999656, 29, 33, 44, 48
-0.999658, 415, 165, 430, 180
-0.999658, 147, 211, 162, 226
-0.999658, 363, 191, 378, 206
-0.999658, 261, 187, 276, 202
-0.999658, 315, 229, 330, 244
-0.999659, 337, 213, 352, 228
-0.99966, 155, 181, 170, 196
-0.999663, 293, 213, 308, 228
-0.999664, 245, 139, 260, 154
-0.999664, 237, 211, 252, 226
-0.999665, 273, 55, 288, 70
-0.999665, 415, 205, 430, 220
-0.999666, 185, 169, 200, 184
-0.999668, 187, 135, 202, 150
-0.999669, 243, 175, 258, 190
-0.999669, 193, 167, 208, 182
-0.99967, 365, 201, 380, 216
-0.999673, 405, 213, 420, 228
-0.999673, 287, 229, 302, 244
-0.999673, 175, 173, 190, 188
-0.999674, 149, 187, 164, 202
-0.999675, 299, 203, 314, 218
-0.999676, 353, 195, 368, 210
-0.999677, 301, 171, 316, 186
-0.999677, 109, 7, 124, 22
-0.999678, 407, 155, 422, 170
-0.999678, 69, 173, 84, 188
-0.999679, 287, 213, 302, 228
-0.999681, 99, 29, 114, 44
-0.999681, 1, 1, 16, 16
-0.999682, 371, 197, 386, 212
-0.999682, 345, 207, 360, 222
-0.999682, 421, 207, 436, 222
-0.999685, 309, 229, 324, 244
-0.999685, 25, 45, 40, 60
-0.999685, 269, 169, 284, 184
-0.999685, 203, 187, 218, 202
-0.999686, 119, 19, 134, 34
-0.999689, 383, 199, 398, 214
-0.999692, 293, 229, 308, 244
-0.999694, 105, 169, 120, 184
-0.999695, 283, 49, 298, 64
-0.999697, 303, 213, 318, 228
-0.999697, 167, 135, 182, 150
-0.999699, 303, 229, 318, 244
-0.9997, 155, 175, 170, 190
-0.9997, 415, 211, 430, 226
-0.9997, 115, 135, 130, 150
-0.999701, 175, 193, 190, 208
-0.999703, 303, 189, 318, 204
-0.999703, 219, 65, 234, 80
-0.999704, 169, 175, 184, 190
-0.999707, 297, 195, 312, 210
-0.999708, 211, 137, 226, 152
-0.999711, 161, 135, 176, 150
-0.999713, 105, 15, 120, 30
-0.999714, 433, 179, 448, 194
-0.999715, 69, 1, 100, 256
-0.99972, 149, 193, 164, 208
-0.99972, 155, 209, 170, 224
-0.999722, 245, 183, 260, 198
-0.999722, 421, 179, 436, 194
-0.999729, 145, 205, 160, 220
-0.999729, 145, 199, 160, 214
-0.999729, 413, 171, 428, 186
-0.99973, 173, 203, 188, 218
-0.999735, 103, 23, 118, 38
-0.999736, 161, 177, 176, 192
-0.99974, 381, 207, 396, 222
-0.99974, 195, 201, 210, 216
-0.999741, 255, 187, 270, 202
-0.999742, 149, 173, 164, 188
-0.999744, 247, 189, 262, 204
-0.999747, 23, 37, 38, 52
-0.999751, 193, 193, 208, 208
-0.999751, 375, 205, 390, 220
-0.999752, 249, 177, 264, 192
-0.999757, 149, 181, 164, 196
-0.999757, 133, 1, 164, 256
-0.999757, 293, 207, 308, 222
-0.99976, 377, 197, 392, 212
-0.999767, 109, 21, 124, 36
-0.999771, 239, 181, 254, 196
-0.999827, 183, 201, 198, 216
-1.00011, 57, 1, 88, 256
-1.00046, 121, 1, 152, 256
-1.00248, 273, 1, 400, 64
-1.00626, 433, 17, 496, 144
-1.00692, 321, 1, 448, 128
