1864
-0.395586, 1, 1, 500, 256
-0.435646, 1, 1, 500, 331
-0.463478, 129, 1, 384, 331
-0.508036, 33, 1, 288, 331
-0.619281, 225, 1, 480, 331
-0.698235, 129, 33, 384, 288
-0.717371, 1, 65, 256, 320
-0.723663, 257, 65, 500, 320
-0.862158, 129, 1, 256, 331
-0.865501, 177, 1, 304, 331
-0.866953, 241, 1, 368, 331
-0.877416, 369, 1, 496, 331
-0.882531, 1, 177, 500, 304
-0.884694, 369, 33, 496, 288
-0.884717, 145, 1, 272, 256
-0.888062, 33, 1, 160, 331
-0.891658, 1, 129, 500, 256
-0.891752, 241, 65, 368, 320
-0.898074, 33, 65, 160, 320
-0.902273, 81, 1, 208, 256
-0.902544, 81, 1, 208, 331
-0.9059, 289, 1, 416, 331
-0.91368, 193, 1, 320, 256
-0.919939, 1, 65, 500, 192
-0.921573, 65, 161, 320, 288
-0.922569, 321, 65, 448, 320
-0.926262, 257, 129, 500, 256
-0.932735, 33, 161, 160, 288
-0.934114, 193, 81, 448, 208
-0.934776, 33, 113, 288, 240
-0.934976, 1, 17, 500, 144
-0.93559, 17, 161, 80, 288
-0.935651, 129, 177, 256, 304
-0.936112, 161, 193, 416, 320
-0.939238, 1, 209, 256, 331
-0.940439, 129, 33, 384, 160
-0.942039, 161, 129, 416, 256
-0.942925, 33, 209, 160, 331
-0.943281, 57, 161, 120, 288
-0.943983, 137, 177, 200, 304
-0.944523, 177, 177, 304, 304
-0.946869, 209, 161, 272, 288
-0.948728, 249, 209, 312, 331
-0.949116, 369, 129, 496, 256
-0.950684, 257, 1, 500, 128
-0.950826, 241, 145, 368, 272
-0.951375, 241, 209, 368, 331
-0.951891, 225, 1, 352, 128
-0.952867, 161, 129, 288, 256
-0.953736, 33, 209, 96, 331
-0.955027, 257, 177, 500, 304
-0.955076, 17, 185, 80, 248
-0.956065, 33, 145, 96, 208
-0.956456, 241, 81, 368, 208
-0.956461, 97, 145, 160, 272
-0.95678, 289, 209, 352, 331
-0.957363, 97, 193, 160, 320
-0.957408, 81, 145, 208, 272
-0.958791, 425, 129, 488, 256
-0.960139, 33, 1, 288, 128
-0.961077, 249, 233, 312, 296
-0.961541, 193, 81, 256, 208
-0.961625, 353, 129, 416, 256
-0.961833, 233, 129, 296, 256
-0.962597, 289, 65, 416, 192
-0.962611, 25, 249, 88, 312
-0.962699, 217, 17, 280, 144
-0.962775, 33, 113, 160, 240
-0.962881, 369, 81, 496, 208
-0.962955, 33, 113, 96, 240
-0.962991, 137, 177, 200, 240
-0.963055, 209, 169, 272, 232
-0.963274, 49, 177, 112, 240
-0.963467, 129, 1, 256, 128
-0.963527, 161, 193, 224, 320
-0.963542, 321, 129, 448, 256
-0.964021, 289, 209, 416, 331
-0.964236, 289, 65, 352, 192
-0.964614, 169, 1, 232, 128
-0.964626, 81, 97, 208, 224
-0.964744, 241, 81, 304, 208
-0.965507, 169, 145, 232, 272
-0.965533, 305, 161, 368, 288
-0.965686, 33, 49, 288, 176
-0.965786, 297, 241, 360, 304
-0.965955, 273, 1, 336, 128
-0.966025, 417, 81, 480, 208
-0.966338, 81, 209, 208, 331
-0.966503, 65, 209, 128, 331
-0.966772, 89, 177, 152, 240
-0.9668, 105, 201, 168, 264
-0.966991, 65, 113, 128, 240
-0.96746, 193, 49, 320, 176
-0.967527, 185, 193, 248, 320
-0.967725, 129, 81, 256, 208
-0.967786, 217, 1, 280, 64
-0.967926, 241, 1, 304, 128
-0.96845, 57, 201, 120, 264
-0.968523, 313, 113, 376, 240
-0.968685, 17, 209, 80, 272
-0.968757, 289, 57, 352, 120
-0.968781, 265, 209, 328, 272
-0.968877, 125, 217, 156, 280
-0.96893, 249, 137, 312, 200
-0.96895, 289, 217, 352, 280
-0.969007, 201, 81, 264, 144
-0.969424, 249, 1, 312, 64
-0.969469, 185, 1, 248, 256
-0.969554, 1, 161, 64, 224
-0.969568, 153, 97, 216, 224
-0.969886, 193, 33, 256, 160
-0.970495, 265, 49, 328, 176
-0.970791, 273, 1, 400, 128
-0.971595, 185, 1, 248, 64
-0.97164, 337, 81, 400, 208
-0.971682, 257, 129, 320, 256
-0.971939, 9, 209, 72, 331
-0.97199, 129, 193, 160, 320
-0.972031, 297, 97, 360, 160
-0.972077, 169, 81, 232, 144
-0.972231, 369, 1, 496, 128
-0.972379, 313, 65, 376, 192
-0.972395, 225, 105, 288, 168
-0.972664, 209, 209, 272, 331
-0.972895, 321, 209, 384, 331
-0.972935, 177, 1, 304, 128
-0.973131, 257, 97, 320, 160
-0.97318, 25, 161, 56, 288
-0.97328, 1, 233, 64, 296
-0.973315, 281, 145, 344, 272
-0.97353, 185, 185, 248, 248
-0.974049, 329, 105, 392, 168
-0.97407, 65, 153, 128, 216
-0.97408, 177, 161, 240, 224
-0.974222, 385, 81, 448, 208
-0.974229, 9, 201, 40, 264
-0.974232, 137, 1, 200, 64
-0.974321, 33, 209, 160, 272
-0.974365, 225, 1, 288, 256
-0.974373, 409, 121, 472, 184
-0.974404, 45, 145, 76, 272
-0.974415, 273, 121, 336, 184
-0.974509, 261, 209, 292, 331
-0.974579, 113, 1, 176, 64
-0.97459, 345, 129, 408, 192
-0.974682, 81, 33, 208, 160
-0.974973, 217, 65, 280, 192
-0.974976, 209, 57, 272, 120
-0.975038, 1, 185, 128, 248
-0.975198, 17, 1, 144, 128
-0.975354, 225, 33, 288, 96
-0.975552, 297, 209, 328, 331
-0.975669, 133, 241, 164, 304
-0.976046, 377, 129, 440, 256
-0.976102, 401, 129, 464, 256
-0.976136, 145, 225, 208, 288
-0.976253, 177, 177, 304, 240
-0.976271, 45, 185, 76, 248
-0.976285, 273, 249, 336, 312
-0.976352, 297, 193, 360, 256
-0.976568, 17, 153, 144, 216
-0.976595, 113, 241, 176, 304
-0.976659, 241, 129, 368, 192
-0.976793, 129, 129, 192, 256
-0.976892, 137, 97, 200, 160
-0.97699, 225, 145, 288, 208
-0.977011, 209, 193, 272, 256
-0.977017, 145, 161, 176, 288
-0.977044, 301, 217, 332, 280
-0.977054, 241, 209, 304, 272
-0.97716, 121, 177, 152, 240
-0.977193, 161, 193, 224, 256
-0.977225, 185, 233, 248, 296
-0.977475, 433, 169, 496, 232
-0.97753, 61, 177, 92, 240
-0.977586, 65, 1, 128, 128
-0.977781, 377, 129, 440, 192
-0.977884, 269, 209, 300, 272
-0.977945, 113, 177, 144, 304
-0.977945, 161, 105, 224, 168
-0.977977, 113, 201, 144, 264
-0.978111, 1, 81, 64, 208
-0.978169, 129, 193, 256, 256
-0.9782, 25, 169, 56, 232
-0.978292, 313, 153, 376, 216
-0.978421, 193, 121, 256, 184
-0.978434, 297, 65, 360, 320
-0.978438, 65, 161, 192, 224
-0.978544, 257, 73, 320, 136
-0.978554, 353, 137, 480, 200
-0.978715, 177, 1, 304, 64
-0.978853, 105, 33, 168, 160
-0.978853, 305, 121, 368, 184
-0.978865, 105, 153, 168, 216
-0.979084, 361, 81, 424, 208
-0.979092, 313, 73, 376, 136
-0.979139, 237, 129, 268, 256
-0.979187, 81, 177, 112, 240
-0.979308, 221, 17, 252, 144
-0.979554, 161, 153, 288, 216
-0.979602, 65, 113, 128, 176
-0.979688, 5, 169, 36, 232
-0.979707, 273, 25, 336, 88
-0.979711, 65, 33, 128, 288
-0.979779, 33, 241, 160, 304
-0.979809, 249, 185, 312, 248
-0.97983, 5, 193, 36, 320
-0.979849, 469, 129, 500, 256
-0.979877, 433, 177, 496, 304
-0.979914, 177, 25, 240, 88
-0.979935, 25, 65, 88, 320
-0.980016, 45, 209, 76, 331
-0.980027, 193, 241, 224, 304
-0.980045, 185, 209, 248, 272
-0.980055, 57, 145, 88, 208
-0.980186, 65, 145, 96, 272
-0.980337, 77, 153, 108, 216
-0.98044, 241, 153, 368, 216
-0.980496, 321, 249, 352, 312
-0.980525, 225, 81, 288, 144
-0.980537, 113, 233, 240, 296
-0.980565, 49, 265, 112, 328
-0.980605, 257, 65, 320, 320
-0.980709, 153, 249, 216, 312
-0.980842, 417, 97, 480, 160
-0.981063, 257, 137, 288, 200
-0.981127, 433, 129, 496, 192
-0.981153, 425, 1, 488, 256
-0.981211, 289, 209, 320, 272
-0.981373, 273, 97, 400, 160
-0.981531, 249, 33, 312, 96
-0.981568, 137, 1, 200, 128
-0.981708, 261, 145, 292, 272
-0.981712, 281, 233, 312, 296
-0.981742, 37, 145, 68, 208
-0.981935, 245, 1, 276, 64
-0.981959, 173, 193, 204, 320
-0.981965, 309, 209, 340, 331
-0.981973, 369, 105, 432, 168
-0.982189, 145, 1, 208, 331
-0.982221, 313, 49, 344, 176
-0.982225, 9, 137, 72, 200
-0.982305, 145, 1, 208, 256
-0.982495, 113, 169, 240, 232
-0.982564, 89, 97, 152, 224
-0.982581, 41, 233, 72, 296
-0.982653, 425, 1, 488, 128
-0.982662, 225, 209, 352, 272
-0.982751, 237, 137, 268, 200
-0.982767, 169, 1, 232, 331
-0.982808, 73, 1, 136, 64
-0.982832, 169, 57, 232, 120
-0.982848, 161, 1, 224, 64
-0.982884, 329, 161, 392, 288
-0.982897, 17, 65, 144, 192
-0.982975, 301, 241, 332, 304
-0.983018, 273, 193, 304, 320
-0.983029, 221, 49, 252, 112
-0.983102, 161, 81, 288, 144
-0.983155, 417, 9, 480, 72
-0.983155, 197, 185, 228, 248
-0.983209, 25, 193, 56, 256
-0.983215, 53, 241, 84, 304
-0.983246, 233, 17, 264, 144
-0.983246, 217, 73, 248, 136
-0.983333, 97, 33, 160, 288
-0.983431, 217, 97, 248, 224
-0.983462, 101, 185, 132, 248
-0.983464, 177, 233, 304, 296
-0.983475, 341, 113, 372, 240
-0.983508, 225, 1, 288, 331
-0.983512, 225, 41, 352, 104
-0.983537, 193, 161, 224, 288
-0.983591, 13, 225, 44, 288
-0.983594, 241, 73, 368, 136
-0.983732, 253, 113, 284, 176
-0.983766, 101, 145, 132, 272
-0.983773, 273, 1, 336, 331
-0.983837, 369, 113, 496, 176
-0.98388, 201, 25, 264, 88
-0.983887, 209, 217, 272, 280
-0.983984, 225, 25, 256, 88
-0.984048, 237, 81, 268, 208
-0.984052, 133, 185, 164, 248
-0.984061, 241, 249, 368, 312
-0.984078, 469, 185, 500, 248
-0.984097, 1, 17, 64, 80
-0.984116, 81, 201, 144, 264
-0.984131, 449, 129, 480, 256
-0.984136, 169, 49, 232, 176
-0.984261, 41, 225, 104, 288
-0.984298, 89, 257, 152, 320
-0.98437, 289, 257, 320, 320
-0.984374, 201, 145, 264, 208
-0.98443, 177, 201, 304, 264
-0.984446, 17, 1, 144, 64
-0.98445, 465, 129, 496, 192
-0.984557, 277, 113, 308, 176
-0.984577, 137, 217, 168, 280
-0.984598, 177, 201, 208, 264
-0.984658, 257, 177, 384, 240
-0.984669, 129, 153, 192, 216
-0.984695, 161, 113, 288, 176
-0.984701, 145, 169, 176, 232
-0.984802, 281, 1, 344, 64
-0.984809, 213, 193, 244, 320
-0.984832, 137, 201, 200, 264
-0.9849, 197, 217, 228, 280
-0.984906, 333, 137, 364, 200
-0.984951, 89, 225, 152, 288
-0.984967, 41, 257, 72, 320
-0.984993, 49, 209, 80, 272
-0.985026, 345, 113, 376, 176
-0.985064, 189, 1, 220, 64
-0.985082, 289, 233, 416, 296
-0.985094, 81, 257, 208, 320
-0.985146, 101, 209, 132, 331
-0.98517, 197, 209, 228, 331
-0.985292, 321, 113, 448, 176
-0.985415, 253, 1, 284, 128
-0.985443, 9, 1, 72, 128
-0.98546, 257, 17, 288, 80
-0.985491, 205, 1, 236, 64
-0.985516, 65, 225, 128, 288
-0.985553, 217, 1, 248, 64
-0.985577, 225, 105, 352, 168
-0.985595, 81, 161, 112, 288
-0.985613, 441, 129, 472, 192
-0.985627, 225, 17, 352, 80
-0.98563, 297, 33, 360, 96
-0.985689, 321, 193, 352, 320
-0.985785, 113, 1, 144, 64
-0.985786, 289, 145, 352, 208
-0.985787, 321, 33, 384, 288
-0.985834, 121, 1, 184, 256
-0.985847, 409, 65, 472, 128
-0.985914, 245, 25, 276, 88
-0.985953, 293, 17, 324, 80
-0.985955, 329, 49, 392, 112
-0.985983, 409, 41, 472, 104
-0.985984, 337, 193, 464, 320
-0.986032, 81, 193, 208, 256
-0.986058, 101, 161, 132, 224
-0.986074, 257, 97, 288, 224
-0.986146, 285, 193, 316, 320
-0.986153, 97, 97, 224, 160
-0.986198, 465, 177, 496, 304
-0.986199, 249, 1, 312, 331
-0.986214, 285, 81, 316, 144
-0.986271, 305, 265, 368, 328
-0.986325, 125, 145, 156, 272
-0.986345, 289, 1, 320, 128
-0.986345, 329, 129, 360, 256
-0.986367, 345, 65, 408, 320
-0.986373, 129, 17, 256, 80
-0.986391, 233, 57, 296, 120
-0.986404, 65, 65, 128, 192
-0.986409, 201, 1, 264, 331
-0.986429, 209, 249, 272, 312
-0.986431, 73, 265, 104, 328
-0.986462, 273, 1, 304, 64
-0.986486, 297, 1, 360, 331
-0.986493, 185, 209, 216, 331
-0.986503, 241, 97, 272, 160
-0.986518, 61, 265, 92, 328
-0.986521, 257, 217, 288, 280
-0.986739, 337, 209, 368, 331
-0.986805, 33, 121, 96, 184
-0.986823, 249, 161, 312, 224
-0.986825, 25, 241, 56, 304
-0.986834, 57, 193, 88, 320
-0.98684, 213, 193, 244, 256
-0.986893, 305, 33, 336, 96
-0.987005, 433, 1, 496, 331
-0.987084, 205, 81, 236, 144
-0.987092, 65, 1, 192, 64
-0.987209, 1, 225, 32, 288
-0.987211, 245, 177, 276, 304
-0.987241, 113, 177, 176, 240
-0.987265, 393, 97, 456, 160
-0.987306, 369, 89, 496, 152
-0.987317, 157, 97, 188, 224
-0.987336, 261, 185, 292, 248
-0.987393, 181, 249, 212, 312
-0.987433, 313, 217, 376, 280
-0.987438, 161, 177, 192, 304
-0.987567, 65, 137, 192, 200
-0.987569, 273, 185, 336, 248
-0.987579, 137, 73, 200, 136
-0.987589, 445, 81, 476, 208
-0.987596, 273, 97, 304, 224
-0.987607, 337, 217, 400, 280
-0.987616, 253, 49, 284, 176
-0.987653, 145, 25, 208, 88
-0.987731, 325, 113, 356, 176
-0.987753, 5, 145, 36, 272
-0.987771, 305, 1, 368, 128
-0.987803, 289, 257, 416, 320
-0.987811, 121, 1, 184, 331
-0.987853, 109, 225, 140, 288
-0.987855, 289, 1, 416, 64
-0.987874, 313, 57, 344, 120
-0.987981, 93, 1, 124, 64
-0.988135, 289, 105, 320, 168
-0.988187, 161, 177, 192, 240
-0.988197, 353, 9, 480, 72
-0.988206, 257, 241, 288, 304
-0.988326, 177, 33, 304, 96
-0.988349, 305, 137, 432, 200
-0.988366, 337, 33, 400, 160
-0.988381, 17, 209, 48, 331
-0.98841, 249, 257, 312, 320
-0.988421, 321, 17, 448, 144
-0.988433, 369, 1, 432, 128
-0.988457, 357, 129, 388, 256
-0.988463, 281, 185, 312, 248
-0.988496, 97, 73, 224, 136
-0.988503, 369, 161, 496, 224
-0.988515, 129, 81, 192, 208
-0.988537, 33, 209, 64, 331
-0.988599, 237, 161, 268, 224
-0.98863, 161, 57, 288, 120
-0.988657, 1, 9, 32, 72
-0.988677, 205, 33, 236, 160
-0.988681, 133, 161, 164, 224
-0.988713, 65, 73, 128, 136
-0.988739, 1, 265, 128, 328
-0.988764, 65, 201, 96, 264
-0.9888, 409, 145, 472, 208
-0.9888, 345, 153, 376, 216
-0.988833, 225, 113, 256, 176
-0.988854, 321, 81, 448, 144
-0.988865, 301, 49, 332, 176
-0.988866, 289, 209, 416, 272
-0.988896, 369, 65, 496, 128
-0.988911, 49, 301, 112, 331
-0.988953, 377, 81, 408, 208
-0.988971, 53, 97, 84, 224
-0.989087, 301, 1, 332, 128
-0.989091, 325, 65, 356, 192
-0.989099, 277, 1, 308, 128
-0.989144, 25, 189, 88, 220
-0.989159, 1, 1, 32, 128
-0.989203, 17, 145, 48, 208
-0.989203, 321, 209, 352, 272
-0.989206, 33, 149, 96, 180
-0.98927, 233, 1, 264, 64
-0.989286, 265, 97, 296, 160
-0.989313, 41, 1, 104, 128
-0.989355, 317, 89, 348, 152
-0.98936, 313, 1, 344, 128
-0.989434, 245, 209, 276, 272
-0.989442, 25, 217, 56, 280
-0.98946, 129, 257, 256, 320
-0.989495, 17, 73, 144, 136
-0.989496, 17, 129, 144, 192
-0.989517, 453, 145, 484, 208
-0.989554, 293, 57, 324, 120
-0.989606, 321, 241, 384, 304
-0.989632, 385, 1, 448, 256
-0.989635, 173, 97, 204, 160
-0.989665, 193, 257, 320, 320
-0.989671, 225, 145, 256, 272
-0.989677, 25, 233, 88, 264
-0.989724, 97, 41, 160, 104
-0.989726, 357, 81, 388, 208
-0.989737, 289, 57, 416, 120
-0.989756, 265, 49, 296, 176
-0.989762, 309, 265, 340, 328
-0.989767, 105, 89, 168, 152
-0.9898, 337, 73, 400, 136
-0.989926, 281, 145, 312, 272
-0.989931, 57, 1, 120, 331
-0.989941, 321, 1, 384, 331
-0.989942, 445, 105, 476, 168
-0.989956, 273, 33, 304, 96
-0.989974, 97, 205, 160, 236
-0.99001, 17, 201, 80, 232
-0.990062, 201, 85, 264, 116
-0.990095, 337, 177, 400, 240
-0.9901, 105, 129, 168, 192
-0.990113, 57, 201, 120, 232
-0.990136, 369, 33, 496, 96
-0.990138, 157, 1, 188, 128
-0.990184, 1, 233, 64, 264
-0.9902, 265, 213, 328, 244
-0.990215, 137, 189, 200, 220
-0.990234, 265, 1, 296, 128
-0.990254, 97, 1, 128, 128
-0.990277, 37, 209, 68, 272
-0.990307, 369, 129, 400, 256
-0.990325, 249, 5, 312, 36
-0.990336, 17, 245, 80, 276
-0.990338, 193, 265, 224, 328
-0.990339, 357, 129, 388, 192
-0.990343, 89, 113, 120, 240
-0.990343, 217, 181, 280, 212
-0.990345, 265, 137, 328, 168
-0.990412, 65, 185, 320, 248
-0.990432, 257, 241, 320, 272
-0.990435, 153, 153, 216, 216
-0.99045, 461, 81, 492, 208
-0.990469, 1, 181, 64, 212
-0.990505, 161, 93, 224, 124
-0.99051, 241, 141, 304, 172
-0.990534, 297, 121, 360, 152
-0.990541, 113, 249, 176, 280
-0.990549, 377, 129, 408, 192
-0.990561, 193, 13, 256, 44
-0.990568, 289, 65, 352, 96
-0.990571, 49, 185, 112, 216
-0.990657, 177, 181, 240, 212
-0.990668, 301, 97, 332, 224
-0.990672, 113, 153, 144, 216
-0.990688, 97, 193, 160, 224
-0.990691, 69, 193, 100, 320
-0.990692, 241, 85, 304, 116
-0.990718, 81, 1, 144, 331
-0.990768, 233, 73, 264, 136
-0.990784, 93, 137, 124, 200
-0.990793, 65, 97, 96, 224
-0.990795, 217, 1, 280, 32
-0.990832, 265, 225, 328, 256
-0.990839, 17, 213, 80, 244
-0.99086, 457, 169, 488, 232
-0.990877, 49, 289, 112, 320
-0.990878, 233, 49, 264, 112
-0.990886, 297, 245, 360, 276
-0.990894, 257, 101, 320, 132
-0.990903, 225, 17, 288, 48
-0.990907, 209, 193, 272, 224
-0.990916, 205, 97, 236, 224
-0.990965, 297, 229, 360, 260
-0.990974, 185, 197, 248, 228
-0.990976, 1, 169, 64, 200
-0.990992, 121, 25, 184, 88
-0.990995, 145, 193, 176, 256
-0.990998, 137, 101, 200, 132
-0.991006, 381, 97, 412, 160
-0.991007, 185, 101, 248, 132
-0.991009, 233, 117, 296, 148
-0.991016, 289, 65, 320, 192
-0.991031, 105, 217, 168, 248
-0.99104, 297, 81, 328, 144
-0.991068, 1, 1, 64, 331
-0.991092, 57, 213, 120, 244
-0.991099, 85, 209, 116, 331
-0.991114, 337, 125, 400, 156
-0.991125, 81, 1, 112, 64
-0.991141, 265, 125, 328, 156
-0.99115, 301, 113, 332, 176
-0.991183, 85, 201, 116, 264
-0.991186, 369, 137, 432, 168
-0.991191, 297, 257, 360, 288
-0.991192, 209, 165, 272, 196
-0.991205, 209, 73, 272, 104
-0.991211, 1, 65, 64, 320
-0.991243, 25, 177, 88, 208
-0.991244, 297, 109, 360, 140
-0.991262, 65, 173, 128, 204
-0.991273, 137, 249, 200, 280
-0.991279, 161, 97, 192, 160
-0.991288, 385, 1, 448, 331
-0.991293, 73, 161, 136, 192
-0.991299, 337, 73, 368, 136
-0.991303, 189, 1, 220, 128
-0.991314, 225, 97, 288, 128
-0.99134, 105, 169, 168, 200
-0.991341, 57, 225, 120, 256
-0.991363, 289, 33, 416, 96
-0.991366, 241, 129, 304, 160
-0.991372, 429, 129, 460, 192
-0.991378, 89, 1, 152, 32
-0.991414, 97, 49, 224, 112
-0.991424, 209, 141, 272, 172
-0.991426, 265, 85, 328, 116
-0.991452, 145, 237, 208, 268
-0.991473, 137, 201, 200, 232
-0.991474, 9, 113, 72, 176
-0.991479, 25, 257, 88, 288
-0.991483, 185, 25, 248, 56
-0.991485, 169, 253, 232, 284
-0.991489, 337, 249, 464, 312
-0.991499, 225, 33, 288, 64
-0.9915, 201, 33, 232, 96
-0.991508, 161, 109, 224, 140
-0.99151, 129, 177, 192, 208
-0.991556, 97, 217, 128, 280
-0.991557, 257, 25, 320, 56
-0.991567, 177, 97, 208, 224
-0.99157, 345, 1, 408, 331
-0.99158, 225, 53, 288, 84
-0.991595, 369, 49, 432, 112
-0.991605, 289, 217, 352, 248
-0.991608, 289, 89, 352, 120
-0.991628, 185, 1, 248, 32
-0.991631, 1, 1, 64, 32
-0.991635, 369, 125, 432, 156
-0.991662, 249, 185, 280, 248
-0.991668, 241, 229, 304, 260
-0.991678, 169, 209, 232, 240
-0.991685, 113, 1, 144, 128
-0.991687, 305, 153, 368, 184
-0.991701, 425, 125, 488, 156
-0.99171, 409, 137, 472, 168
-0.991724, 161, 25, 224, 56
-0.991726, 397, 81, 428, 208
-0.991726, 409, 81, 440, 208
-0.991753, 81, 25, 208, 88
-0.991757, 249, 201, 312, 232
-0.991765, 209, 205, 272, 236
-0.991778, 201, 129, 264, 160
-0.991778, 249, 153, 312, 184
-0.991781, 177, 1, 208, 128
-0.991784, 149, 225, 180, 288
-0.991815, 257, 261, 320, 292
-0.991835, 9, 153, 72, 184
-0.991835, 265, 113, 328, 144
-0.991836, 41, 97, 72, 224
-0.991837, 313, 133, 376, 164
-0.991837, 201, 113, 264, 144
-0.991841, 433, 185, 496, 216
-0.991849, 209, 153, 272, 184
-0.991855, 433, 129, 464, 256
-0.991857, 113, 129, 144, 256
-0.991866, 345, 153, 408, 216
-0.991873, 169, 221, 232, 252
-0.991891, 1, 81, 64, 144
-0.991894, 417, 169, 480, 200
-0.991898, 329, 81, 392, 112
-0.991899, 65, 137, 128, 168
-0.991906, 369, 81, 432, 144
-0.991911, 281, 13, 344, 44
-0.991914, 33, 65, 96, 192
-0.991929, 161, 81, 224, 112
-0.991938, 97, 181, 160, 212
-0.991955, 209, 217, 272, 248
-0.991958, 185, 237, 248, 268
-0.991966, 305, 205, 368, 236
-0.991966, 305, 273, 368, 304
-0.991967, 329, 145, 392, 176
-0.991973, 41, 277, 104, 308
-0.991976, 273, 73, 304, 136
-0.991999, 113, 1, 176, 32
-0.992, 73, 185, 136, 216
-0.992003, 25, 165, 88, 196
-0.992019, 153, 265, 216, 296
-0.992031, 329, 105, 392, 136
-0.992061, 337, 65, 368, 192
-0.992061, 341, 209, 372, 272
-0.992064, 321, 185, 448, 248
-0.992065, 57, 245, 120, 276
-0.992109, 281, 1, 344, 32
-0.992111, 161, 1, 224, 32
-0.992132, 113, 237, 176, 268
-0.992154, 129, 261, 192, 292
-0.992177, 417, 1, 480, 32
-0.992206, 73, 149, 136, 180
-0.992238, 313, 93, 376, 124
-0.992268, 289, 133, 352, 164
-0.992273, 1, 41, 128, 104
-0.992275, 145, 225, 208, 256
-0.992302, 1, 13, 64, 44
-0.992314, 257, 73, 320, 104
-0.992327, 297, 77, 360, 108
-0.99233, 185, 73, 248, 104
-0.992341, 345, 161, 376, 288
-0.992342, 241, 217, 304, 248
-0.992348, 329, 61, 392, 92
-0.992356, 61, 189, 92, 220
-0.992368, 33, 137, 96, 168
-0.992373, 233, 73, 296, 104
-0.992385, 137, 17, 200, 48
-0.99239, 113, 145, 240, 208
-0.9924, 409, 1, 472, 331
-0.992436, 45, 185, 76, 216
-0.992441, 125, 225, 156, 256
-0.992445, 65, 25, 128, 88
-0.992459, 133, 237, 164, 268
-0.992462, 41, 1, 72, 128
-0.992476, 185, 257, 248, 320
-0.992499, 397, 113, 428, 176
-0.992529, 317, 145, 348, 272
-0.992544, 145, 249, 176, 312
-0.992548, 261, 213, 292, 244
-0.992559, 113, 65, 176, 128
-0.992562, 25, 193, 56, 224
-0.99257, 13, 181, 44, 212
-0.992596, 69, 281, 100, 312
-0.992625, 113, 213, 144, 244
-0.992627, 73, 177, 104, 208
-0.992638, 25, 181, 56, 212
-0.992646, 313, 113, 344, 176
-0.992656, 125, 213, 156, 244
-0.992661, 253, 89, 284, 152
-0.992662, 325, 65, 356, 128
-0.992662, 133, 249, 164, 280
-0.992663, 45, 201, 76, 232
-0.992666, 301, 249, 332, 280
-0.992673, 5, 193, 36, 224
-0.992674, 265, 225, 296, 256
-0.992689, 357, 105, 388, 168
-0.992698, 1, 49, 64, 112
-0.9927, 237, 145, 268, 176
-0.992708, 5, 225, 36, 256
-0.992714, 81, 297, 112, 328
-0.992714, 321, 161, 448, 224
-0.992719, 41, 245, 72, 276
-0.992724, 421, 113, 452, 240
-0.99273, 37, 257, 68, 288
-0.992743, 193, 253, 224, 284
-0.992744, 113, 1, 144, 32
-0.992754, 33, 1, 96, 331
-0.992754, 121, 193, 152, 224
-0.992758, 185, 161, 216, 224
-0.992775, 5, 209, 36, 240
-0.992791, 345, 209, 408, 331
-0.992804, 185, 21, 216, 52
-0.992804, 57, 301, 88, 331
-0.992805, 297, 221, 328, 252
-0.99281, 89, 1, 120, 32
-0.992812, 237, 161, 268, 192
-0.992839, 221, 1, 252, 32
-0.992843, 17, 169, 48, 200
-0.992851, 105, 89, 136, 152
-0.992864, 121, 237, 152, 268
-0.992865, 221, 169, 252, 232
-0.992867, 257, 145, 500, 208
-0.992868, 193, 89, 224, 152
-0.992871, 285, 213, 316, 244
-0.992876, 121, 181, 152, 212
-0.992887, 461, 133, 492, 164
-0.992891, 237, 9, 268, 40
-0.992893, 237, 29, 268, 60
-0.992894, 57, 145, 88, 176
-0.992896, 13, 65, 44, 128
-0.992899, 301, 261, 332, 292
-0.9929, 197, 201, 228, 232
-0.992902, 81, 189, 112, 220
-0.992905, 209, 89, 240, 120
-0.992909, 101, 205, 132, 236
-0.992919, 321, 273, 352, 304
-0.992933, 5, 169, 36, 200
-0.992934, 225, 33, 256, 64
-0.99294, 273, 17, 304, 48
-0.992941, 61, 177, 92, 208
-0.992944, 69, 293, 100, 324
-0.992947, 193, 237, 224, 268
-0.99295, 65, 201, 96, 232
-0.992952, 161, 97, 192, 128
-0.992952, 37, 149, 68, 180
-0.992963, 281, 121, 312, 152
-0.992966, 289, 261, 320, 292
-0.992967, 101, 189, 132, 220
-0.992982, 253, 21, 284, 52
-0.992982, 469, 193, 500, 224
-0.992983, 9, 237, 40, 268
-0.992986, 33, 233, 64, 264
-0.992987, 297, 117, 328, 148
-0.992988, 281, 241, 312, 272
-0.993002, 45, 233, 76, 264
-0.993006, 81, 201, 112, 232
-0.993011, 1, 193, 500, 256
-0.993011, 249, 133, 280, 164
-0.993017, 217, 73, 248, 104
-0.99302, 321, 261, 352, 292
-0.993022, 21, 245, 52, 276
-0.993026, 297, 237, 328, 268
-0.993028, 209, 1, 240, 32
-0.99303, 113, 225, 144, 256
-0.993031, 217, 13, 248, 44
-0.993046, 169, 109, 200, 140
-0.993054, 1, 181, 32, 212
-0.993056, 257, 145, 288, 176
-0.99306, 145, 245, 176, 276
-0.993062, 277, 101, 308, 132
-0.993062, 321, 249, 352, 280
-0.993066, 333, 157, 364, 188
-0.993069, 317, 65, 348, 96
-0.99307, 137, 173, 168, 204
-0.993072, 81, 165, 112, 196
-0.993073, 293, 25, 324, 56
-0.993076, 281, 5, 312, 36
-0.993077, 309, 273, 340, 304
-0.993081, 281, 225, 312, 256
-0.993082, 205, 185, 236, 216
-0.993083, 269, 237, 300, 268
-0.993085, 289, 105, 320, 136
-0.993088, 197, 221, 228, 252
-0.993094, 49, 213, 80, 244
-0.993096, 105, 13, 136, 44
-0.993098, 401, 129, 432, 256
-0.993099, 261, 85, 292, 116
-0.993102, 265, 1, 296, 32
-0.993104, 17, 205, 48, 236
-0.993105, 53, 245, 84, 276
-0.993109, 245, 81, 276, 112
-0.993115, 301, 9, 332, 40
-0.993118, 97, 217, 128, 248
-0.993118, 261, 201, 292, 232
-0.99312, 185, 185, 216, 216
-0.993121, 1, 17, 32, 48
-0.993123, 137, 221, 168, 252
-0.993128, 165, 185, 196, 216
-0.993128, 273, 213, 304, 244
-0.993129, 253, 5, 284, 36
-0.993132, 277, 49, 308, 176
-0.993133, 221, 85, 252, 116
-0.993134, 365, 129, 396, 160
-0.993134, 205, 17, 236, 48
-0.993137, 257, 121, 288, 152
-0.99314, 237, 97, 268, 128
-0.993141, 317, 117, 348, 148
-0.993151, 285, 81, 316, 112
-0.993157, 301, 161, 332, 288
-0.993162, 85, 177, 116, 208
-0.993162, 1, 225, 256, 288
-0.993163, 101, 177, 132, 208
-0.993164, 341, 125, 372, 156
-0.993166, 337, 113, 368, 144
-0.993167, 233, 109, 264, 140
-0.99317, 33, 169, 64, 200
-0.993173, 277, 133, 308, 164
-0.993174, 121, 169, 152, 200
-0.993176, 189, 97, 220, 128
-0.993179, 221, 113, 252, 144
-0.993184, 377, 137, 408, 168
-0.993188, 297, 85, 328, 116
-0.993192, 305, 53, 336, 84
-0.993195, 193, 265, 224, 296
-0.993199, 321, 237, 352, 268
-0.993229, 97, 209, 352, 272
-0.993255, 5, 97, 36, 224
-0.99329, 145, 97, 176, 224
-0.993341, 433, 33, 496, 96
-0.993437, 321, 1, 384, 64
-0.993508, 149, 209, 180, 331
-0.993528, 401, 33, 464, 160
-0.993539, 65, 161, 320, 224
-0.993615, 181, 145, 212, 272
-0.993647, 33, 105, 160, 168
-0.993687, 225, 169, 480, 232
-0.993743, 433, 81, 464, 208
-0.99375, 121, 265, 184, 328
-0.993781, 1, 145, 500, 208
-0.993808, 433, 65, 496, 128
-0.993856, 453, 1, 484, 128
-0.993863, 385, 129, 416, 256
-0.993891, 321, 25, 384, 88
-0.99392, 193, 193, 448, 256
-0.994093, 161, 145, 416, 208
-0.994155, 205, 145, 236, 272
-0.994166, 257, 121, 500, 184
-0.994207, 161, 233, 416, 296
-0.994281, 101, 97, 132, 224
-0.994287, 77, 113, 108, 240
-0.994296, 161, 1, 416, 64
-0.994297, 161, 57, 416, 120
-0.994307, 137, 177, 152, 240
-0.994416, 33, 201, 160, 232
-0.99442, 129, 33, 384, 96
-0.994488, 49, 177, 64, 240
-0.994508, 161, 193, 288, 224
-0.994581, 1, 121, 500, 184
-0.994582, 161, 113, 416, 176
-0.994591, 75, 169, 90, 232
-0.994596, 21, 201, 36, 264
-0.994618, 25, 1, 88, 64
-0.994627, 15, 201, 30, 264
-0.99464, 433, 193, 496, 256
-0.994644, 65, 105, 320, 168
-0.994673, 81, 1, 112, 128
-0.994713, 161, 81, 416, 144
-0.994727, 113, 121, 240, 184
-0.994761, 257, 97, 500, 160
-0.994789, 81, 153, 96, 216
-0.994791, 1, 9, 16, 72
-0.994833, 55, 177, 70, 240
-0.994841, 209, 1, 336, 32
-0.994891, 1, 249, 256, 312
-0.994909, 25, 113, 56, 240
-0.994994, 39, 153, 54, 216
-0.995008, 49, 1, 112, 64
-0.99501, 17, 157, 144, 188
-0.995061, 147, 225, 162, 288
-0.995087, 7, 201, 22, 264
-0.995093, 1, 169, 500, 232
-0.995114, 113, 197, 240, 228
-0.995142, 135, 209, 150, 272
-0.995157, 89, 65, 120, 192
-0.995237, 1, 301, 128, 331
-0.995239, 109, 49, 140, 176
-0.995241, 145, 1, 176, 128
-0.995244, 33, 137, 288, 200
-0.995263, 161, 177, 288, 208
-0.99529, 1, 213, 128, 244
-0.99529, 177, 13, 304, 44
-0.99532, 203, 249, 218, 312
-0.995371, 29, 241, 44, 304
-0.995376, 257, 57, 500, 120
-0.995377, 61, 185, 76, 248
-0.995396, 113, 245, 240, 276
-0.995412, 297, 233, 312, 296
-0.995417, 11, 177, 26, 240
-0.995463, 49, 213, 176, 244
-0.995478, 225, 137, 352, 168
-0.995504, 453, 177, 484, 304
-0.995515, 75, 265, 90, 328
-0.99556, 69, 177, 84, 240
-0.995564, 257, 25, 500, 88
-0.995567, 241, 157, 368, 188
-0.995582, 1, 185, 128, 216
-0.995602, 1, 193, 16, 256
-0.995626, 125, 177, 140, 240
-0.995659, 65, 1, 320, 64
-0.995672, 67, 145, 82, 208
-0.995677, 129, 209, 144, 272
-0.995703, 33, 237, 160, 268
-0.995704, 241, 77, 368, 108
-0.995727, 61, 217, 76, 280
-0.995743, 195, 249, 210, 312
-0.995758, 465, 33, 496, 160
-0.995782, 313, 97, 344, 224
-0.995793, 369, 133, 496, 164
-0.995797, 329, 1, 360, 128
-0.995811, 257, 121, 384, 152
-0.995827, 247, 1, 262, 64
-0.995857, 177, 205, 304, 236
-0.995874, 39, 241, 54, 304
-0.995884, 193, 113, 224, 240
-0.995884, 161, 85, 288, 116
-0.995893, 75, 145, 90, 208
-0.99591, 17, 169, 144, 200
-0.995911, 337, 209, 464, 272
-0.995916, 65, 177, 192, 208
-0.995926, 257, 1, 500, 64
-0.995931, 253, 1, 268, 64
-0.995934, 239, 25, 254, 88
-0.995945, 259, 241, 274, 304
-0.995946, 45, 233, 60, 296
-0.995966, 481, 185, 496, 248
-0.995971, 241, 109, 368, 140
-0.995977, 303, 249, 318, 312
-0.995979, 219, 41, 234, 104
-0.995985, 259, 1, 274, 64
-0.995989, 65, 81, 320, 144
-0.995998, 93, 177, 108, 240
-0.996017, 315, 249, 330, 312
-0.996024, 33, 249, 160, 280
-0.996027, 113, 209, 240, 240
-0.996036, 261, 137, 276, 200
-0.996069, 269, 97, 284, 160
-0.996079, 305, 209, 320, 272
-0.996083, 17, 161, 32, 224
-0.996092, 241, 65, 368, 96
-0.996097, 33, 225, 160, 256
-0.996116, 1, 233, 500, 296
-0.99615, 117, 201, 132, 264
-0.996178, 467, 129, 482, 192
-0.996183, 31, 169, 46, 232
-0.996186, 145, 225, 272, 256
-0.996201, 277, 201, 292, 264
-0.996233, 209, 189, 336, 220
-0.996243, 337, 113, 352, 176
-0.996244, 259, 209, 274, 272
-0.996258, 209, 53, 336, 84
-0.996268, 331, 249, 346, 312
-0.996305, 87, 153, 102, 216
-0.996319, 43, 185, 58, 248
-0.996324, 225, 213, 352, 244
-0.99633, 369, 121, 496, 152
-0.996332, 141, 217, 156, 280
-0.996335, 113, 185, 240, 216
-0.996341, 25, 177, 40, 240
-0.996341, 53, 217, 68, 280
-0.996354, 127, 233, 142, 296
-0.996358, 161, 165, 288, 196
-0.996371, 7, 9, 22, 72
-0.996374, 221, 1, 252, 256
-0.996388, 47, 145, 62, 208
-0.996396, 337, 233, 352, 296
-0.996411, 177, 125, 304, 156
-0.996412, 287, 217, 302, 280
-0.996426, 213, 81, 228, 144
-0.996452, 97, 101, 224, 132
-0.996469, 57, 145, 72, 208
-0.996476, 61, 241, 76, 304
-0.996479, 193, 25, 320, 56
-0.99648, 347, 129, 362, 192
-0.996489, 377, 1, 408, 128
-0.996495, 219, 193, 234, 256
-0.996521, 289, 193, 304, 256
-0.996523, 257, 265, 384, 296
-0.99653, 315, 225, 330, 288
-0.996547, 131, 185, 146, 248
-0.996552, 203, 1, 218, 64
-0.996558, 189, 201, 204, 264
-0.996559, 223, 65, 238, 128
-0.996562, 301, 1, 316, 64
-0.996566, 143, 161, 158, 224
-0.996567, 255, 169, 270, 232
-0.996579, 65, 165, 192, 196
-0.99658, 23, 233, 38, 296
-0.996592, 67, 249, 82, 312
-0.996621, 321, 141, 448, 172
-0.996623, 219, 1, 234, 64
-0.996637, 143, 193, 158, 256
-0.996651, 249, 137, 264, 200
-0.996659, 113, 257, 240, 288
-0.99666, 103, 185, 118, 248
-0.996666, 33, 217, 48, 280
-0.996681, 467, 177, 482, 240
-0.996687, 1, 9, 128, 40
-0.996692, 1, 49, 32, 176
-0.996694, 201, 225, 216, 288
-0.9967, 265, 193, 280, 256
-0.9967, 135, 233, 150, 296
-0.9967, 273, 133, 400, 164
-0.996703, 161, 97, 288, 128
-0.996708, 475, 185, 490, 248
-0.996722, 161, 1, 288, 32
-0.996723, 229, 25, 244, 88
-0.996731, 235, 105, 250, 168
-0.996732, 193, 253, 320, 284
-0.996735, 337, 165, 464, 196
-0.996741, 241, 169, 368, 200
-0.996747, 221, 89, 236, 152
-0.99675, 457, 145, 472, 208
-0.996753, 257, 193, 384, 224
-0.996764, 309, 1, 324, 64
-0.996771, 95, 1, 110, 64
-0.996787, 297, 257, 312, 320
-0.996791, 39, 217, 54, 280
-0.996791, 7, 225, 22, 288
-0.996797, 49, 189, 176, 220
-0.996802, 97, 265, 352, 328
-0.996803, 115, 1, 130, 64
-0.996805, 255, 113, 270, 176
-0.996812, 337, 81, 352, 144
-0.996812, 211, 177, 226, 240
-0.996824, 55, 257, 70, 320
-0.996826, 297, 89, 312, 152
-0.996843, 327, 65, 342, 128
-0.996848, 249, 25, 264, 88
-0.996867, 267, 1, 282, 64
-0.996892, 279, 113, 294, 176
-0.996897, 421, 65, 452, 192
-0.996901, 121, 1, 136, 64
-0.996902, 263, 105, 278, 168
-0.996908, 153, 241, 168, 304
-0.996911, 241, 1, 256, 64
-0.996917, 85, 185, 100, 248
-0.996917, 239, 49, 254, 112
-0.99692, 129, 97, 160, 224
-0.996921, 353, 113, 368, 176
-0.996929, 297, 113, 312, 176
-0.996949, 161, 113, 288, 144
-0.99695, 239, 145, 254, 208
-0.996952, 299, 209, 314, 272
-0.996955, 295, 9, 310, 72
-0.996967, 49, 301, 176, 331
-0.996968, 291, 113, 306, 176
-0.99698, 291, 241, 306, 304
-0.996983, 269, 217, 284, 280
-0.996987, 93, 153, 108, 216
-0.996989, 109, 81, 124, 144
-0.99699, 195, 225, 210, 288
-0.996996, 97, 17, 224, 48
-0.996997, 327, 113, 342, 176
-0.997006, 75, 277, 90, 308
-0.997011, 17, 145, 144, 176
-0.997022, 305, 113, 320, 176
-0.997032, 321, 85, 448, 116
-0.997039, 317, 17, 332, 80
-0.997043, 323, 249, 338, 312
-0.997044, 241, 93, 368, 124
-0.997049, 237, 1, 268, 256
-0.997058, 275, 9, 290, 72
-0.997072, 241, 89, 256, 152
-0.997075, 157, 1, 172, 64
-0.997077, 129, 1, 160, 128
-0.997077, 175, 89, 190, 152
-0.997084, 27, 201, 42, 264
-0.997092, 369, 29, 496, 60
-0.997097, 257, 253, 384, 284
-0.997188, 193, 65, 224, 192
-0.997192, 209, 1, 240, 256
-0.997203, 129, 29, 256, 60
-0.99721, 257, 9, 384, 40
-0.997249, 209, 277, 336, 308
-0.997252, 75, 177, 90, 208
-0.997261, 289, 69, 416, 100
-0.997274, 257, 1, 288, 256
-0.997289, 15, 205, 30, 236
-0.997346, 161, 49, 192, 176
-0.997379, 257, 181, 384, 212
-0.997383, 47, 185, 62, 216
-0.997385, 161, 149, 288, 180
-0.997401, 305, 121, 432, 152
-0.997402, 165, 1, 196, 256
-0.997416, 353, 69, 480, 100
-0.997443, 33, 25, 288, 88
-0.997462, 357, 177, 388, 304
-0.997468, 49, 49, 176, 112
-0.997471, 369, 17, 496, 48
-0.997481, 241, 21, 368, 52
-0.997481, 337, 153, 464, 184
-0.997487, 1, 9, 16, 40
-0.997487, 1, 33, 500, 96
-0.99749, 59, 189, 74, 220
-0.997502, 369, 85, 496, 116
-0.997513, 225, 1, 240, 32
-0.997528, 369, 1, 496, 32
-0.997531, 13, 217, 28, 248
-0.997533, 121, 1, 136, 32
-0.997539, 97, 229, 224, 260
-0.997551, 285, 1, 316, 256
-0.997552, 297, 241, 312, 272
-0.997552, 65, 153, 192, 184
-0.997564, 1, 257, 500, 320
-0.997573, 289, 241, 416, 272
-0.997574, 35, 181, 50, 212
-0.997578, 461, 1, 492, 256
-0.997582, 369, 177, 496, 208
-0.997584, 289, 101, 416, 132
-0.99761, 59, 245, 74, 276
-0.997611, 81, 89, 208, 120
-0.997625, 1, 81, 500, 144
-0.997638, 353, 109, 480, 140
-0.997643, 449, 1, 480, 256
-0.997655, 177, 265, 304, 296
-0.997693, 287, 217, 302, 248
-0.997697, 145, 229, 160, 260
-0.997713, 69, 193, 84, 224
-0.997718, 127, 217, 142, 248
-0.997722, 269, 65, 300, 320
-0.997745, 177, 41, 304, 72
-0.997748, 241, 41, 368, 72
-0.99775, 99, 1, 114, 32
-0.997751, 129, 41, 256, 72
-0.997757, 321, 57, 448, 88
-0.997778, 195, 257, 210, 288
-0.99779, 481, 193, 496, 224
-0.997801, 161, 73, 288, 104
-0.997801, 225, 225, 352, 256
-0.997802, 49, 1, 176, 32
-0.99781, 211, 85, 226, 116
-0.997816, 53, 185, 68, 216
-0.997817, 141, 217, 156, 248
-0.997819, 177, 241, 304, 272
-0.99782, 133, 225, 148, 256
-0.99782, 15, 193, 30, 224
-0.997829, 1, 57, 256, 120
-0.997829, 25, 205, 40, 236
-0.997842, 149, 241, 164, 272
-0.997845, 301, 253, 316, 284
-0.997851, 97, 1, 224, 32
-0.997853, 369, 97, 496, 128
-0.997889, 201, 21, 216, 52
-0.997912, 321, 33, 352, 288
-0.997916, 193, 269, 208, 300
-0.997927, 39, 257, 54, 288
-0.997934, 97, 301, 112, 331
-0.997934, 135, 201, 150, 232
-0.99795, 203, 257, 218, 288
-0.997955, 81, 173, 96, 204
-0.997959, 51, 245, 66, 276
-0.997964, 7, 17, 22, 48
-0.997964, 171, 93, 186, 124
-0.997981, 177, 137, 304, 168
-0.997985, 233, 113, 248, 144
-0.997986, 255, 17, 270, 48
-0.997986, 81, 289, 208, 320
-0.997988, 5, 197, 20, 228
-0.997988, 61, 205, 76, 236
-0.997993, 369, 41, 496, 72
-0.997994, 241, 145, 256, 176
-0.998004, 43, 245, 58, 276
-0.998005, 377, 129, 392, 160
-0.998005, 135, 237, 150, 268
-0.998005, 275, 213, 290, 244
-0.998011, 25, 193, 40, 224
-0.998012, 1, 1, 32, 256
-0.998012, 19, 225, 34, 256
-0.99802, 329, 69, 344, 100
-0.998024, 239, 29, 254, 60
-0.998024, 53, 201, 68, 232
-0.998025, 307, 265, 322, 296
-0.998036, 9, 165, 24, 196
-0.998039, 59, 301, 74, 331
-0.99804, 17, 65, 48, 192
-0.998042, 121, 65, 152, 320
-0.998043, 83, 293, 98, 324
-0.998043, 303, 113, 318, 144
-0.998045, 83, 161, 98, 192
-0.99805, 77, 189, 92, 220
-0.998051, 263, 213, 278, 244
-0.998051, 465, 137, 480, 168
-0.998055, 39, 153, 54, 184
-0.998056, 113, 5, 128, 36
-0.998071, 473, 133, 488, 164
-0.998075, 197, 65, 228, 320
-0.998078, 29, 245, 44, 276
-0.998083, 125, 185, 140, 216
-0.998083, 275, 17, 290, 48
-0.998087, 357, 33, 388, 160
-0.998089, 137, 189, 152, 220
-0.998089, 333, 65, 364, 320
-0.998091, 69, 293, 84, 324
-0.998114, 93, 181, 108, 212
-0.998121, 3, 225, 18, 256
-0.998124, 1, 209, 16, 240
-0.998125, 69, 141, 84, 172
-0.998125, 129, 253, 144, 284
-0.998127, 7, 209, 22, 240
-0.998129, 369, 57, 496, 88
-0.998132, 255, 5, 270, 36
-0.998134, 293, 121, 308, 152
-0.998139, 127, 205, 142, 236
-0.998143, 45, 65, 76, 320
-0.998151, 257, 277, 384, 308
-0.998155, 291, 229, 306, 260
-0.998156, 97, 77, 224, 108
-0.998159, 153, 1, 184, 256
-0.99816, 225, 237, 352, 268
-0.998162, 113, 173, 240, 204
-0.998165, 225, 49, 240, 80
-0.998166, 177, 1, 208, 256
-0.998166, 341, 121, 356, 152
-0.998169, 89, 297, 104, 328
-0.998169, 23, 237, 38, 268
-0.998173, 1, 289, 128, 320
-0.998177, 61, 257, 76, 288
-0.998177, 219, 69, 234, 100
-0.99818, 191, 25, 206, 56
-0.998185, 87, 185, 102, 216
-0.998189, 93, 1, 108, 32
-0.9982, 231, 1, 246, 32
-0.998201, 247, 17, 262, 48
-0.998206, 101, 221, 116, 252
-0.998216, 205, 277, 220, 308
-0.998223, 77, 157, 92, 188
-0.998223, 265, 21, 280, 52
-0.998228, 301, 1, 316, 32
-0.998229, 249, 85, 264, 116
-0.998232, 35, 233, 50, 264
-0.998234, 161, 53, 288, 84
-0.998251, 259, 261, 274, 292
-0.998252, 267, 105, 282, 136
-0.998252, 177, 97, 192, 128
-0.998254, 59, 233, 74, 264
-0.998254, 249, 141, 264, 172
-0.998257, 29, 169, 44, 200
-0.998257, 65, 141, 192, 172
-0.998257, 13, 65, 44, 320
-0.99826, 93, 65, 124, 320
-0.998261, 33, 261, 160, 292
-0.998264, 247, 5, 262, 36
-0.998268, 19, 173, 34, 204
-0.998273, 349, 65, 380, 320
-0.998274, 339, 265, 354, 296
-0.998276, 45, 257, 60, 288
-0.998285, 127, 241, 142, 272
-0.998286, 309, 113, 324, 144
-0.998289, 261, 237, 276, 268
-0.998291, 229, 37, 244, 68
-0.998293, 273, 145, 400, 176
-0.998295, 41, 189, 56, 220
-0.998295, 81, 1, 112, 256
-0.998295, 261, 225, 276, 256
-0.998301, 307, 5, 322, 36
-0.998302, 33, 81, 160, 112
-0.998304, 257, 217, 500, 280
-0.998308, 149, 253, 164, 284
-0.998309, 317, 53, 332, 84
-0.998316, 29, 181, 44, 212
-0.998317, 215, 185, 230, 216
-0.998318, 173, 49, 204, 176
-0.998319, 289, 205, 416, 236
-0.998328, 297, 65, 328, 320
-0.998329, 13, 181, 28, 212
-0.99833, 225, 13, 240, 44
-0.998331, 83, 197, 98, 228
-0.998333, 337, 73, 352, 104
-0.998334, 305, 133, 320, 164
-0.998334, 295, 9, 310, 40
-0.998335, 471, 185, 486, 216
-0.998339, 249, 29, 264, 60
-0.998339, 311, 125, 326, 156
-0.998341, 223, 193, 238, 224
-0.998342, 241, 89, 256, 120
-0.998345, 117, 209, 132, 240
-0.998346, 485, 209, 500, 240
-0.998348, 309, 1, 340, 256
-0.998383, 213, 85, 244, 100
-0.998384, 337, 161, 368, 176
-0.998384, 253, 21, 284, 36
-0.998388, 21, 199, 52, 214
-0.998389, 345, 143, 376, 158
-0.99839, 233, 15, 264, 30
-0.99839, 105, 227, 136, 242
-0.99839, 121, 183, 152, 198
-0.998391, 249, 85, 280, 100
-0.998391, 221, 17, 252, 32
-0.998392, 309, 63, 340, 78
-0.998392, 33, 255, 64, 270
-0.998392, 249, 139, 280, 154
-0.998393, 321, 267, 352, 282
-0.998393, 313, 279, 344, 294
-0.998393, 1, 273, 128, 304
-0.998394, 49, 257, 80, 272
-0.998394, 249, 145, 280, 160
-0.998394, 133, 261, 164, 276
-0.998394, 89, 183, 120, 198
-0.998395, 181, 29, 212, 44
-0.998396, 277, 217, 308, 232
-0.998396, 161, 1, 192, 16
-0.998397, 205, 9, 236, 24
-0.998397, 65, 205, 96, 220
-0.998398, 1, 23, 32, 38
-0.998399, 89, 315, 120, 330
-0.998399, 101, 197, 132, 212
-0.998399, 57, 183, 88, 198
-0.998399, 269, 101, 300, 116
-0.998399, 165, 107, 196, 122
-0.998399, 381, 139, 412, 154
-0.9984, 301, 15, 332, 30
-0.9984, 193, 245, 224, 260
-0.9984, 101, 207, 132, 222
-0.998401, 265, 211, 296, 226
-0.998401, 321, 251, 352, 266
-0.998401, 221, 39, 252, 54
-0.998401, 5, 181, 36, 196
-0.998405, 193, 253, 224, 268
-0.998405, 57, 301, 88, 316
-0.998405, 321, 261, 352, 276
-0.998408, 217, 113, 248, 128
-0.998408, 301, 261, 332, 276
-0.998408, 281, 15, 312, 30
-0.998408, 81, 195, 112, 210
-0.998409, 221, 11, 252, 26
-0.998409, 321, 217, 448, 248
-0.99841, 289, 123, 320, 138
-0.99841, 145, 251, 176, 266
-0.99841, 237, 171, 268, 186
-0.99841, 5, 229, 36, 244
-0.998411, 57, 193, 88, 208
-0.998411, 233, 9, 264, 24
-0.998411, 289, 215, 320, 230
-0.998413, 65, 287, 96, 302
-0.998413, 105, 219, 136, 234
-0.998413, 29, 235, 60, 250
-0.998414, 121, 1, 152, 16
-0.998414, 53, 313, 84, 328
-0.998415, 93, 9, 124, 24
-0.998415, 241, 151, 272, 166
-0.998416, 321, 273, 352, 288
-0.998416, 121, 197, 152, 212
-0.998416, 301, 253, 332, 268
-0.998417, 29, 183, 60, 198
-0.998417, 285, 239, 316, 254
-0.998417, 57, 307, 88, 322
-0.998417, 281, 227, 312, 242
-0.998419, 133, 255, 164, 270
-0.998419, 101, 191, 132, 206
-0.99842, 101, 185, 132, 200
-0.998421, 113, 209, 144, 224
-0.998421, 121, 241, 152, 256
-0.998422, 81, 201, 112, 216
-0.998423, 121, 203, 152, 218
-0.998423, 117, 229, 148, 244
-0.998425, 109, 33, 140, 288
-0.998425, 81, 299, 112, 314
-0.998427, 237, 33, 268, 48
-0.998429, 277, 137, 308, 152
-0.99843, 297, 235, 328, 250
-0.998431, 81, 173, 112, 188
-0.998431, 121, 191, 152, 206
-0.998432, 33, 193, 64, 208
-0.998433, 193, 259, 224, 274
-0.998435, 1, 221, 32, 236
-0.998435, 297, 227, 328, 242
-0.998436, 261, 225, 292, 240
-0.998437, 17, 173, 48, 188
-0.998438, 9, 191, 40, 206
-0.998438, 265, 237, 296, 252
-0.998438, 237, 145, 268, 160
-0.998439, 289, 245, 320, 260
-0.99844, 69, 191, 100, 206
-0.998441, 301, 247, 332, 262
-0.998442, 109, 11, 140, 26
-0.998442, 45, 187, 76, 202
-0.998443, 301, 267, 332, 282
-0.998443, 361, 65, 392, 320
-0.998444, 125, 213, 156, 228
-0.998444, 57, 301, 120, 316
-0.998445, 97, 113, 224, 144
-0.998445, 165, 99, 196, 114
-0.998446, 101, 213, 132, 228
-0.998451, 65, 279, 96, 294
-0.998452, 5, 237, 36, 252
-0.998453, 221, 1, 252, 16
-0.998453, 237, 163, 268, 178
-0.998456, 301, 273, 332, 288
-0.998456, 5, 213, 36, 228
-0.998457, 289, 21, 416, 52
-0.998457, 53, 149, 84, 164
-0.998458, 193, 267, 224, 282
-0.998458, 45, 201, 76, 216
-0.998461, 41, 153, 72, 168
-0.998464, 5, 203, 36, 218
-0.998464, 65, 65, 96, 320
-0.998466, 17, 181, 48, 196
-0.998467, 129, 229, 160, 244
-0.998468, 73, 179, 104, 194
-0.998469, 461, 135, 492, 150
-0.998473, 377, 1, 408, 256
-0.998474, 33, 199, 64, 214
-0.998476, 61, 199, 92, 214
-0.998476, 261, 217, 292, 232
-0.998478, 113, 269, 240, 300
-0.998478, 25, 247, 88, 262
-0.998479, 265, 231, 296, 246
-0.998483, 77, 185, 108, 200
-0.998484, 33, 153, 96, 168
-0.998485, 125, 235, 156, 250
-0.998485, 289, 157, 416, 188
-0.998487, 93, 1, 124, 16
-0.998489, 45, 247, 76, 262
-0.99849, 189, 23, 220, 38
-0.99849, 321, 257, 448, 288
-0.998505, 125, 219, 156, 234
-0.998506, 133, 249, 164, 264
-0.998506, 321, 277, 448, 308
-0.998509, 265, 135, 328, 150
-0.998514, 17, 203, 80, 218
-0.998521, 97, 215, 160, 230
-0.998521, 25, 193, 88, 208
-0.998525, 9, 197, 40, 212
-0.998527, 45, 193, 76, 208
-0.998528, 57, 307, 120, 322
-0.998529, 137, 195, 200, 210
-0.998531, 97, 209, 160, 224
-0.998531, 297, 245, 360, 260
-0.998531, 217, 191, 280, 206
-0.998532, 177, 191, 240, 206
-0.998533, 265, 219, 328, 234
-0.998535, 177, 199, 240, 214
-0.998537, 133, 241, 164, 256
-0.998538, 21, 189, 52, 204
-0.998541, 65, 209, 128, 224
-0.998543, 69, 293, 100, 308
-0.998543, 97, 201, 160, 216
-0.998544, 217, 185, 280, 200
-0.998544, 1, 197, 64, 212
-0.998547, 161, 97, 224, 112
-0.998548, 17, 241, 80, 256
-0.998549, 217, 17, 280, 32
-0.99855, 9, 187, 72, 202
-0.998554, 201, 93, 264, 108
-0.998557, 41, 187, 104, 202
-0.998558, 217, 197, 280, 212
-0.99856, 257, 249, 500, 312
-0.998561, 25, 255, 88, 270
-0.998561, 57, 203, 120, 218
-0.998562, 185, 25, 248, 40
-0.998569, 249, 211, 312, 226
-0.99857, 65, 215, 128, 230
-0.998571, 257, 247, 320, 262
-0.998573, 265, 237, 328, 252
-0.998573, 241, 7, 304, 22
-0.998574, 137, 201, 200, 216
-0.998576, 265, 227, 328, 242
-0.998576, 17, 235, 80, 250
-0.998577, 289, 289, 416, 320
-0.998577, 1, 97, 128, 128
-0.99858, 225, 85, 288, 100
-0.998581, 113, 251, 176, 266
-0.998581, 297, 125, 360, 140
-0.998584, 273, 123, 336, 138
-0.998584, 265, 143, 328, 158
-0.998585, 209, 121, 272, 136
-0.998586, 1, 1, 500, 64
-0.998587, 369, 141, 432, 156
-0.998587, 141, 1, 172, 256
-0.998587, 169, 103, 232, 118
-0.998589, 201, 1, 264, 16
-0.998589, 49, 295, 112, 310
-0.99859, 297, 239, 360, 254
-0.99859, 241, 141, 304, 156
-0.99859, 41, 147, 104, 162
-0.998592, 193, 11, 256, 26
-0.998592, 193, 113, 256, 128
-0.998593, 49, 193, 112, 208
-0.998596, 297, 119, 360, 134
-0.998596, 297, 133, 360, 148
-0.998597, 65, 183, 128, 198
-0.998598, 233, 109, 296, 124
-0.998599, 41, 313, 104, 328
-0.998599, 305, 141, 368, 156
-0.998601, 97, 195, 160, 210
-0.998601, 297, 255, 360, 270
-0.998602, 241, 133, 304, 148
-0.998603, 25, 179, 88, 194
-0.998604, 145, 231, 208, 246
-0.998605, 257, 15, 320, 30
-0.998606, 233, 119, 296, 134
-0.998608, 169, 257, 232, 272
-0.998608, 65, 177, 128, 192
-0.998608, 105, 221, 168, 236
-0.998612, 17, 209, 80, 224
-0.998612, 233, 95, 296, 110
-0.998614, 201, 99, 264, 114
-0.998614, 337, 133, 400, 148
-0.998615, 209, 143, 272, 158
-0.998617, 81, 165, 144, 180
-0.998617, 217, 179, 280, 194
-0.998617, 433, 135, 496, 150
-0.998619, 273, 115, 336, 130
-0.99862, 201, 31, 264, 46
-0.99862, 1, 251, 64, 266
-0.998621, 137, 189, 200, 204
-0.998621, 169, 227, 232, 242
-0.998622, 57, 221, 120, 236
-0.998623, 113, 245, 176, 260
-0.998623, 377, 133, 440, 148
-0.998623, 49, 21, 176, 52
-0.998624, 257, 253, 320, 268
-0.998625, 249, 1, 312, 16
-0.998625, 225, 49, 288, 64
-0.998625, 289, 67, 352, 82
-0.998625, 129, 103, 192, 118
-0.998626, 73, 159, 136, 174
-0.998626, 113, 257, 176, 272
-0.998626, 289, 233, 352, 248
-0.998627, 209, 171, 272, 186
-0.998627, 217, 11, 280, 26
-0.998628, 185, 19, 248, 34
-0.998628, 113, 1, 176, 16
-0.998628, 17, 229, 80, 244
-0.998631, 289, 169, 416, 200
-0.998631, 81, 5, 144, 20
-0.998632, 65, 315, 128, 330
-0.998632, 241, 101, 304, 116
-0.998632, 177, 185, 240, 200
-0.998632, 289, 105, 352, 120
-0.998632, 201, 87, 264, 102
-0.998633, 1, 7, 64, 22
-0.998634, 409, 137, 472, 152
-0.998634, 225, 57, 288, 72
-0.998635, 137, 263, 200, 278
-0.998635, 209, 219, 272, 234
-0.998635, 305, 221, 368, 236
-0.998636, 281, 23, 344, 38
-0.998637, 201, 79, 264, 94
-0.998637, 113, 263, 176, 278
-0.998637, 225, 1, 288, 16
-0.998638, 297, 75, 360, 90
-0.998638, 57, 251, 120, 266
-0.998638, 233, 147, 296, 162
-0.998639, 249, 33, 312, 48
-0.998639, 57, 227, 120, 242
-0.99864, 233, 23, 296, 38
-0.998641, 209, 165, 272, 180
-0.998641, 153, 249, 216, 264
-0.998641, 225, 43, 288, 58
-0.998642, 329, 85, 392, 100
-0.998643, 9, 215, 72, 230
-0.998643, 97, 13, 160, 28
-0.998644, 273, 129, 336, 144
-0.998644, 241, 241, 304, 256
-0.998644, 41, 287, 104, 302
-0.998645, 249, 83, 312, 98
-0.998695, 273, 53, 400, 84
-0.998696, 321, 229, 448, 260
-0.998719, 337, 205, 464, 236
-0.998745, 113, 157, 240, 188
-0.998752, 29, 1, 60, 128
-0.998753, 305, 1, 432, 32
-0.998765, 1, 57, 500, 120
-0.998797, 289, 41, 416, 72
-0.998803, 57, 161, 72, 288
-0.99881, 33, 65, 64, 320
-0.998815, 135, 193, 150, 320
-0.998821, 413, 1, 444, 256
-0.998867, 49, 161, 64, 288
-0.99887, 1, 45, 128, 76
-0.998881, 129, 129, 256, 160
-0.998893, 337, 189, 464, 220
-0.998897, 33, 33, 160, 64
-0.998902, 141, 177, 156, 304
-0.998917, 17, 193, 32, 320
-0.998918, 437, 65, 468, 320
-0.998925, 49, 101, 176, 132
-0.998948, 441, 33, 472, 160
-0.998959, 401, 65, 432, 320
-0.998973, 187, 193, 202, 320
-0.998981, 241, 289, 368, 320
-0.998984, 259, 177, 274, 304
-0.998997, 389, 1, 420, 256
-0.999005, 299, 209, 314, 331
-0.999005, 369, 185, 496, 248
-0.999009, 307, 209, 322, 331
-0.999017, 63, 145, 78, 272
-0.99902, 129, 177, 144, 304
-0.999025, 273, 217, 400, 248
-0.999029, 147, 161, 162, 288
-0.999037, 69, 129, 84, 256
-0.999039, 37, 161, 52, 288
-0.999054, 1, 1, 16, 128
-0.999055, 69, 177, 84, 304
-0.99906, 471, 129, 486, 256
-0.999068, 1, 65, 128, 96
-0.999075, 313, 209, 328, 331
-0.99908, 249, 81, 264, 208
-0.999105, 27, 177, 42, 304
-0.999108, 483, 129, 498, 256
-0.999127, 41, 209, 56, 331
-0.999127, 221, 33, 236, 160
-0.999133, 477, 129, 492, 256
-0.999133, 239, 33, 254, 160
-0.999141, 75, 129, 90, 256
-0.999152, 119, 193, 134, 320
-0.999158, 465, 129, 480, 256
-0.999162, 153, 161, 168, 288
-0.999166, 481, 177, 496, 304
-0.999169, 265, 129, 280, 256
-0.999201, 287, 177, 302, 304
-0.999206, 105, 145, 120, 272
-0.999207, 7, 161, 22, 288
-0.999213, 59, 209, 74, 331
-0.999213, 233, 97, 248, 224
-0.99922, 113, 145, 128, 272
-0.999222, 425, 1, 456, 256
-0.999226, 247, 17, 262, 144
-0.999229, 53, 209, 68, 331
-0.999233, 201, 193, 216, 320
-0.999235, 279, 193, 294, 320
-0.999241, 345, 129, 360, 256
-0.999244, 243, 81, 258, 208
-0.999246, 265, 209, 280, 331
-0.999246, 213, 209, 228, 331
-0.999251, 253, 129, 268, 256
-0.999252, 327, 65, 342, 192
-0.999252, 47, 209, 62, 331
-0.999269, 215, 33, 230, 160
-0.999273, 97, 161, 112, 288
-0.999278, 75, 177, 90, 304
-0.999281, 297, 1, 312, 128
-0.999285, 43, 161, 58, 288
-0.999286, 317, 33, 332, 160
-0.999287, 307, 49, 322, 176
-0.999296, 15, 145, 30, 272
-0.999297, 359, 129, 374, 256
-0.999301, 305, 1, 320, 128
-0.999305, 457, 113, 472, 240
-0.999306, 293, 193, 308, 320
-0.999312, 467, 177, 482, 304
-0.999313, 103, 209, 118, 331
-0.999315, 91, 161, 106, 288
-0.999321, 57, 113, 72, 240
-0.999321, 7, 1, 22, 128
-0.999327, 195, 209, 210, 331
-0.999327, 259, 97, 274, 224
-0.999332, 135, 145, 150, 272
-0.999339, 173, 177, 188, 304
-0.999339, 231, 33, 246, 160
-0.999345, 325, 209, 340, 331
-0.999346, 85, 193, 100, 320
-0.999356, 179, 177, 194, 304
-0.999356, 325, 17, 340, 144
-0.999359, 255, 17, 270, 144
-0.999361, 219, 193, 234, 320
-0.999361, 225, 113, 240, 240
-0.999362, 1, 177, 16, 304
-0.999364, 337, 113, 352, 240
-0.999364, 81, 145, 96, 272
-0.999368, 21, 145, 36, 272
-0.999371, 11, 209, 26, 331
-0.999373, 273, 145, 288, 272
-0.999376, 273, 193, 288, 320
-0.99938, 123, 145, 138, 272
-0.999381, 351, 113, 366, 240
-0.999386, 51, 113, 66, 240
-0.999388, 109, 81, 124, 208
-0.999391, 161, 97, 176, 224
-0.999395, 169, 97, 184, 224
-0.999396, 339, 209, 354, 331
-0.999398, 475, 177, 490, 304
-0.999403, 283, 1, 298, 128
-0.999408, 291, 1, 306, 128
-0.999408, 331, 209, 346, 331
-0.999411, 337, 65, 352, 192
-0.999418, 337, 161, 352, 288
-0.999422, 159, 177, 174, 304
-0.999429, 327, 113, 342, 240
-0.999431, 347, 209, 362, 331
-0.999432, 239, 129, 254, 256
-0.999438, 63, 97, 78, 224
-0.999442, 267, 49, 282, 176
-0.999447, 379, 81, 394, 208
-0.999449, 277, 33, 292, 160
-0.999449, 343, 81, 358, 208
-0.99945, 269, 1, 284, 128
-0.99945, 115, 17, 130, 144
-0.999459, 285, 97, 300, 224
-0.999464, 283, 49, 298, 176
-0.999464, 387, 81, 402, 208
-0.999467, 433, 129, 448, 256
-0.999469, 447, 129, 462, 256
-0.99947, 45, 113, 60, 240
-0.999473, 401, 81, 416, 208
-0.99948, 205, 1, 220, 128
-0.999481, 219, 97, 234, 224
-0.999484, 361, 81, 376, 208
-0.999484, 293, 65, 308, 192
-0.999487, 367, 65, 382, 192
-0.999488, 147, 209, 162, 331
-0.999491, 371, 129, 386, 256
-0.999496, 247, 129, 262, 256
-0.999499, 167, 177, 182, 304
-0.999499, 253, 177, 268, 304
-0.999499, 155, 97, 170, 224
-0.999502, 395, 113, 410, 240
-0.999505, 425, 81, 440, 208
-0.999506, 467, 81, 482, 208
-0.999508, 113, 193, 128, 320
-0.99958, 291, 235, 306, 250
-0.999582, 247, 15, 262, 30
-0.999583, 123, 191, 138, 206
-0.999583, 57, 145, 72, 160
-0.999583, 195, 275, 210, 290
-0.999583, 33, 253, 48, 268
-0.999583, 71, 295, 86, 310
-0.999584, 93, 195, 108, 210
-0.999584, 95, 301, 110, 316
-0.999584, 249, 147, 264, 162
-0.999584, 59, 189, 74, 204
-0.999584, 311, 129, 326, 144
-0.999585, 137, 211, 152, 226
-0.999586, 19, 227, 34, 242
-0.999586, 25, 243, 40, 258
-0.999586, 21, 211, 36, 226
-0.999586, 97, 307, 112, 322
-0.999587, 91, 9, 106, 24
-0.999587, 261, 119, 276, 134
-0.999587, 77, 293, 92, 308
-0.999587, 279, 137, 294, 152
-0.999588, 101, 317, 116, 331
-0.999588, 7, 201, 22, 216
-0.999588, 305, 269, 320, 284
-0.999589, 49, 255, 64, 270
-0.999589, 261, 239, 276, 254
-0.99959, 85, 171, 100, 186
-0.999591, 257, 21, 272, 36
-0.999591, 353, 161, 368, 176
-0.999592, 131, 223, 146, 238
-0.999592, 281, 131, 296, 146
-0.999592, 305, 249, 320, 264
-0.999592, 9, 227, 24, 242
-0.999593, 127, 251, 142, 266
-0.999594, 135, 205, 150, 220
-0.999594, 87, 195, 102, 210
-0.999595, 69, 183, 84, 198
-0.999595, 33, 241, 48, 256
-0.999595, 321, 65, 336, 80
-0.999595, 243, 147, 258, 162
-0.999595, 125, 211, 140, 226
-0.999595, 147, 5, 162, 20
-0.999595, 31, 173, 46, 188
-0.999596, 83, 203, 98, 218
-0.999596, 377, 133, 392, 148
-0.999597, 225, 49, 240, 64
-0.999597, 101, 225, 116, 240
-0.999598, 231, 1, 246, 16
-0.999598, 51, 147, 66, 162
-0.999599, 469, 137, 484, 152
-0.999599, 385, 139, 400, 154
-0.9996, 37, 195, 52, 210
-0.9996, 27, 189, 42, 204
-0.999601, 195, 261, 210, 276
-0.999601, 167, 99, 182, 114
-0.999602, 85, 187, 100, 202
-0.999602, 5, 209, 20, 224
-0.999603, 337, 123, 352, 138
-0.999603, 43, 255, 58, 270
-0.999603, 109, 15, 124, 30
-0.999604, 341, 129, 356, 144
-0.999604, 299, 257, 314, 272
-0.999605, 141, 229, 156, 244
-0.999605, 303, 263, 318, 278
-0.999606, 203, 271, 218, 286
-0.999606, 69, 195, 84, 210
-0.999606, 223, 13, 238, 28
-0.999607, 305, 135, 320, 150
-0.999607, 133, 235, 148, 250
-0.999608, 3, 17, 18, 32
-0.999609, 327, 69, 342, 84
-0.999609, 191, 267, 206, 282
-0.999609, 149, 253, 164, 268
-0.999609, 145, 239, 160, 254
-0.99961, 139, 223, 154, 238
-0.99961, 239, 31, 254, 46
-0.99961, 211, 89, 226, 104
-0.999611, 61, 257, 76, 272
-0.999611, 153, 1, 168, 16
-0.999611, 305, 7, 320, 22
-0.999611, 287, 221, 302, 236
-0.999612, 61, 195, 76, 210
-0.999614, 43, 153, 58, 168
-0.999614, 225, 1, 240, 16
-0.999614, 287, 227, 302, 242
-0.999616, 39, 247, 54, 262
-0.999617, 25, 205, 40, 220
-0.999618, 135, 241, 150, 256
-0.999618, 93, 183, 108, 198
-0.999619, 137, 217, 152, 232
-0.999619, 203, 265, 218, 280
-0.99962, 241, 139, 256, 154
-0.99962, 89, 1, 104, 16
-0.999621, 65, 299, 80, 314
-0.999622, 85, 177, 100, 192
-0.999623, 133, 229, 148, 244
-0.999624, 123, 1, 138, 16
-0.999626, 57, 205, 72, 220
-0.999627, 295, 9, 310, 24
-0.999628, 297, 251, 312, 266
-0.999629, 295, 245, 310, 260
-0.999629, 147, 245, 162, 260
-0.99963, 89, 299, 104, 314
-0.99963, 19, 233, 34, 248
-0.99963, 481, 195, 496, 210
-0.999631, 201, 23, 216, 38
-0.999633, 97, 5, 112, 20
-0.999634, 69, 189, 84, 204
-0.999635, 61, 249, 76, 264
-0.999638, 115, 9, 130, 24
-0.99964, 31, 179, 46, 194
-0.999642, 75, 193, 90, 208
-0.999645, 197, 269, 212, 284
-0.999646, 67, 203, 82, 218
-0.999651, 23, 197, 38, 212
-0.999651, 9, 23, 24, 38
-0.999652, 127, 217, 142, 232
-0.999653, 17, 201, 32, 216
-0.999655, 193, 27, 208, 42
-0.999656, 475, 135, 490, 150
-0.99966, 13, 219, 28, 234
-0.999672, 75, 177, 90, 192
-0.999676, 77, 287, 92, 302
-0.999678, 233, 113, 248, 128
-0.999679, 33, 189, 48, 204
-0.999684, 47, 193, 62, 208
-0.999684, 15, 213, 30, 228
-0.999695, 77, 187, 92, 202
-0.9997, 15, 207, 30, 222
-0.999747, 75, 279, 90, 294
-1.00018, 13, 1, 44, 128
-1.00019, 53, 1, 84, 128
-1.00065, 393, 209, 456, 331
-1.00074, 141, 49, 172, 176
-1.00078, 397, 33, 428, 160
-1.00176, 69, 1, 100, 128
-1.0088, 369, 209, 432, 331
