1964
-0.381899, 1, 65, 375, 320
-0.457237, 1, 161, 375, 416
-0.481531, 1, 1, 375, 500
-0.510956, 65, 1, 320, 500
-0.525496, 1, 257, 375, 500
-0.621772, 65, 65, 320, 320
-0.74661, 65, 193, 320, 448
-0.858545, 209, 97, 336, 352
-0.865077, 145, 1, 272, 500
-0.865498, 1, 97, 375, 224
-0.872163, 161, 65, 288, 320
-0.877063, 97, 97, 224, 352
-0.882767, 241, 225, 368, 480
-0.89016, 49, 97, 176, 352
-0.900274, 241, 1, 368, 500
-0.900499, 97, 1, 224, 500
-0.902215, 161, 161, 288, 416
-0.904792, 1, 97, 128, 352
-0.905574, 1, 1, 128, 500
-0.90837, 97, 97, 352, 224
-0.90937, 49, 193, 176, 448
-0.910411, 193, 1, 320, 500
-0.91225, 1, 177, 375, 304
-0.914681, 129, 369, 375, 496
-0.914726, 193, 257, 320, 500
-0.915231, 1, 369, 375, 496
-0.917213, 97, 193, 224, 448
-0.924748, 49, 1, 176, 500
-0.925105, 241, 1, 368, 256
-0.926719, 1, 193, 128, 448
-0.930421, 1, 97, 256, 224
-0.930906, 145, 257, 272, 500
-0.936238, 161, 81, 288, 208
-0.938753, 49, 1, 176, 256
-0.940021, 1, 289, 375, 416
-0.940129, 241, 97, 368, 224
-0.942095, 49, 113, 176, 240
-0.942271, 1, 241, 375, 368
-0.942358, 97, 97, 224, 224
-0.942827, 225, 353, 352, 480
-0.943746, 97, 1, 224, 256
-0.94417, 105, 113, 168, 240
-0.944209, 289, 353, 352, 480
-0.945076, 65, 321, 320, 448
-0.945536, 65, 145, 320, 272
-0.947007, 1, 49, 375, 176
-0.947725, 265, 97, 328, 224
-0.948296, 137, 97, 200, 224
-0.952665, 65, 113, 128, 240
-0.953092, 201, 65, 264, 192
-0.954014, 161, 161, 288, 288
-0.954193, 177, 81, 240, 208
-0.955003, 225, 81, 288, 208
-0.95522, 33, 369, 288, 496
-0.956915, 1, 129, 128, 256
-0.956967, 241, 161, 368, 288
-0.957725, 1, 1, 128, 256
-0.95864, 97, 145, 224, 272
-0.959708, 297, 113, 360, 240
-0.960384, 185, 81, 248, 144
-0.960613, 121, 369, 184, 496
-0.960727, 145, 145, 208, 272
-0.961171, 209, 225, 336, 352
-0.961411, 65, 193, 320, 320
-0.962865, 217, 89, 280, 152
-0.962951, 113, 121, 176, 184
-0.962974, 265, 161, 328, 288
-0.963214, 161, 353, 288, 480
-0.963535, 129, 49, 375, 176
-0.963814, 209, 161, 272, 288
-0.964114, 257, 353, 320, 480
-0.964141, 129, 97, 192, 160
-0.964341, 209, 225, 272, 352
-0.964427, 1, 113, 64, 240
-0.964979, 57, 121, 120, 184
-0.965155, 305, 193, 368, 320
-0.965246, 33, 129, 96, 256
-0.965617, 113, 161, 176, 288
-0.965832, 241, 97, 304, 160
-0.966222, 153, 89, 216, 152
-0.966352, 177, 161, 240, 288
-0.96666, 49, 161, 176, 288
-0.967021, 273, 305, 336, 432
-0.967077, 241, 305, 368, 432
-0.967103, 177, 169, 240, 232
-0.967222, 233, 161, 296, 288
-0.967418, 289, 369, 352, 432
-0.967739, 1, 241, 256, 368
-0.967875, 249, 209, 312, 336
-0.968299, 313, 145, 375, 208
-0.968376, 313, 369, 375, 496
-0.968556, 273, 105, 336, 168
-0.96897, 129, 393, 192, 456
-0.969239, 289, 161, 352, 224
-0.969273, 305, 201, 368, 264
-0.969406, 89, 145, 152, 208
-0.969625, 137, 161, 200, 224
-0.969731, 217, 169, 280, 232
-0.969807, 89, 121, 152, 184
-0.96981, 65, 369, 192, 496
-0.970463, 289, 137, 352, 200
-0.970548, 185, 241, 248, 368
-0.970704, 225, 321, 288, 448
-0.970939, 313, 113, 375, 176
-0.971246, 161, 209, 288, 336
-0.97153, 193, 201, 256, 264
-0.971609, 97, 193, 224, 320
-0.971893, 153, 65, 216, 320
-0.972287, 241, 201, 304, 264
-0.972318, 113, 369, 240, 496
-0.973007, 161, 81, 288, 144
-0.973252, 25, 121, 88, 184
-0.973629, 273, 97, 336, 352
-0.974062, 153, 137, 216, 200
-0.974108, 313, 321, 375, 448
-0.974288, 17, 369, 144, 496
-0.974541, 121, 417, 184, 480
-0.974723, 177, 137, 240, 200
-0.974905, 265, 161, 328, 224
-0.975109, 305, 65, 368, 192
-0.975144, 121, 113, 152, 240
-0.975276, 265, 129, 328, 192
-0.975289, 317, 353, 348, 480
-0.975364, 81, 209, 144, 272
-0.975379, 161, 209, 224, 336
-0.975801, 165, 81, 196, 208
-0.975841, 225, 97, 288, 352
-0.976186, 185, 105, 248, 168
-0.976275, 113, 161, 176, 224
-0.976315, 305, 241, 368, 368
-0.976315, 241, 369, 368, 432
-0.976385, 81, 241, 208, 368
-0.976581, 281, 225, 344, 352
-0.9766, 65, 145, 128, 208
-0.976695, 177, 273, 304, 400
-0.976748, 241, 161, 304, 224
-0.976859, 133, 97, 164, 224
-0.977092, 33, 65, 160, 192
-0.977241, 233, 369, 296, 496
-0.977364, 89, 161, 152, 288
-0.977408, 129, 305, 256, 432
-0.97749, 177, 65, 240, 320
-0.977615, 81, 321, 208, 448
-0.977642, 201, 113, 264, 240
-0.977703, 249, 65, 312, 320
-0.978143, 193, 105, 320, 168
-0.978145, 17, 209, 144, 336
-0.978451, 161, 169, 288, 232
-0.978458, 305, 353, 336, 480
-0.978547, 249, 193, 312, 448
-0.978576, 97, 241, 352, 368
-0.978626, 209, 65, 240, 192
-0.978675, 73, 169, 136, 232
-0.978686, 129, 97, 192, 352
-0.978895, 97, 105, 224, 168
-0.978953, 217, 145, 280, 208
-0.979058, 65, 193, 128, 320
-0.979094, 313, 193, 375, 448
-0.97913, 129, 257, 256, 384
-0.979131, 241, 105, 368, 168
-0.979246, 145, 185, 208, 248
-0.979347, 313, 321, 375, 384
-0.979428, 253, 81, 284, 208
-0.979442, 113, 49, 240, 176
-0.979534, 241, 393, 304, 456
-0.979552, 305, 113, 336, 240
-0.979562, 161, 33, 288, 160
-0.979648, 49, 121, 176, 184
-0.979716, 205, 81, 236, 144
-0.979725, 177, 81, 208, 208
-0.979728, 209, 49, 336, 176
-0.979826, 313, 97, 375, 352
-0.97987, 265, 49, 328, 176
-0.979949, 161, 369, 224, 496
-0.979998, 33, 321, 96, 448
-0.980087, 89, 97, 152, 352
-0.980099, 241, 361, 304, 424
-0.980176, 33, 49, 288, 176
-0.980181, 313, 369, 375, 432
-0.980229, 241, 161, 368, 224
-0.980242, 201, 97, 264, 352
-0.980288, 273, 345, 336, 408
-0.98059, 153, 97, 184, 224
-0.980601, 65, 97, 128, 352
-0.980681, 49, 145, 176, 208
-0.980735, 193, 81, 224, 144
-0.980744, 193, 81, 224, 208
-0.980852, 265, 401, 328, 464
-0.980878, 161, 113, 224, 176
-0.980964, 241, 209, 368, 272
-0.980992, 121, 113, 152, 176
-0.981088, 113, 169, 240, 232
-0.981216, 241, 257, 304, 384
-0.981292, 241, 121, 304, 184
-0.981321, 25, 81, 88, 208
-0.981345, 49, 169, 112, 232
-0.981381, 177, 33, 240, 160
-0.981434, 277, 105, 308, 168
-0.981446, 217, 81, 248, 144
-0.981447, 265, 81, 296, 208
-0.981485, 1, 121, 128, 184
-0.981509, 241, 129, 368, 192
-0.981517, 41, 193, 104, 320
-0.981535, 297, 113, 328, 176
-0.981553, 1, 121, 64, 184
-0.981581, 157, 97, 188, 160
-0.981587, 313, 409, 375, 472
-0.981645, 181, 169, 212, 232
-0.981694, 33, 321, 160, 448
-0.981703, 177, 89, 208, 152
-0.981718, 241, 81, 272, 208
-0.98175, 229, 89, 260, 152
-0.981774, 261, 97, 292, 160
-0.981806, 317, 121, 348, 184
-0.98183, 177, 161, 240, 416
-0.981842, 141, 105, 172, 168
-0.981943, 345, 113, 375, 240
-0.981983, 25, 209, 88, 272
-0.981988, 221, 81, 252, 208
-0.982009, 109, 113, 140, 240
-0.982066, 241, 89, 272, 152
-0.982076, 285, 113, 316, 240
-0.98226, 273, 321, 336, 384
-0.982276, 281, 201, 344, 264
-0.982326, 201, 305, 264, 432
-0.982385, 65, 193, 128, 448
-0.982513, 317, 113, 348, 240
-0.982548, 121, 225, 184, 352
-0.982633, 41, 97, 104, 352
-0.98265, 133, 129, 164, 192
-0.982683, 89, 209, 152, 336
-0.98283, 121, 225, 184, 288
-0.982832, 209, 169, 240, 232
-0.982849, 89, 337, 152, 464
-0.982886, 161, 201, 288, 264
-0.982912, 105, 65, 168, 192
-0.98296, 273, 225, 336, 480
-0.983023, 193, 1, 256, 500
-0.983155, 209, 193, 272, 448
-0.983159, 329, 129, 360, 256
-0.98317, 85, 121, 116, 184
-0.983251, 65, 113, 96, 240
-0.983278, 97, 113, 128, 240
-0.983323, 317, 161, 348, 224
-0.983356, 333, 145, 364, 208
-0.983381, 149, 145, 180, 272
-0.983395, 313, 169, 375, 232
-0.983436, 289, 433, 352, 496
-0.983599, 1, 257, 128, 384
-0.983657, 173, 161, 204, 288
-0.983658, 145, 225, 208, 288
-0.983677, 289, 393, 352, 456
-0.98371, 225, 33, 288, 160
-0.98375, 49, 169, 176, 232
-0.983794, 33, 145, 96, 208
-0.983796, 293, 353, 324, 480
-0.983826, 225, 401, 352, 464
-0.983894, 169, 201, 232, 264
-0.983926, 101, 129, 132, 192
-0.98395, 129, 273, 192, 400
-0.983964, 317, 369, 348, 432
-0.984089, 85, 129, 116, 256
-0.984109, 161, 377, 288, 440
-0.98423, 41, 129, 72, 256
-0.984237, 161, 273, 224, 336
-0.984306, 209, 233, 336, 296
-0.984308, 65, 345, 128, 408
-0.984319, 121, 201, 184, 264
-0.984363, 157, 145, 188, 208
-0.984388, 25, 113, 56, 240
-0.984393, 97, 193, 224, 256
-0.984458, 73, 65, 136, 192
-0.984501, 293, 161, 324, 288
-0.984643, 233, 169, 264, 232
-0.984653, 209, 345, 336, 408
-0.984687, 213, 161, 244, 288
-0.984842, 105, 193, 168, 448
-0.984846, 249, 305, 312, 432
-0.984886, 281, 225, 344, 288
-0.9849, 337, 121, 368, 184
-0.984947, 217, 113, 280, 176
-0.985025, 125, 161, 156, 288
-0.985072, 209, 233, 272, 296
-0.985168, 193, 169, 224, 232
-0.985239, 65, 393, 192, 456
-0.985251, 137, 297, 200, 360
-0.985397, 129, 145, 256, 208
-0.985411, 73, 97, 136, 160
-0.985459, 277, 353, 308, 480
-0.985504, 249, 233, 312, 296
-0.985504, 297, 345, 360, 408
-0.985544, 313, 89, 375, 152
-0.985603, 305, 137, 336, 200
-0.985669, 193, 129, 320, 192
-0.985704, 65, 121, 96, 184
-0.985834, 209, 185, 336, 248
-0.985878, 77, 153, 108, 216
-0.985887, 133, 369, 164, 496
-0.985951, 129, 321, 192, 448
-0.985953, 301, 161, 332, 224
-0.985965, 1, 145, 128, 208
-0.98597, 113, 81, 240, 144
-0.986029, 89, 145, 120, 208
-0.986044, 241, 313, 304, 376
-0.986071, 17, 97, 80, 352
-0.986098, 245, 169, 276, 232
-0.986124, 153, 161, 216, 416
-0.986125, 233, 161, 264, 288
-0.9862, 161, 369, 224, 432
-0.986201, 97, 417, 224, 480
-0.986346, 145, 105, 272, 168
-0.986351, 149, 369, 180, 496
-0.986383, 289, 161, 320, 224
-0.986465, 113, 393, 240, 456
-0.986483, 153, 273, 216, 400
-0.986538, 33, 425, 160, 488
-0.98655, 53, 113, 84, 240
-0.986562, 141, 161, 172, 224
-0.986622, 49, 121, 80, 184
-0.986624, 21, 121, 52, 184
-0.986669, 233, 65, 296, 128
-0.986726, 93, 169, 124, 232
-0.986747, 253, 161, 284, 288
-0.986772, 201, 329, 264, 392
-0.9868, 89, 433, 152, 496
-0.986821, 305, 233, 368, 296
-0.986854, 265, 369, 328, 432
-0.986915, 9, 161, 72, 288
-0.986932, 9, 145, 72, 208
-0.986936, 217, 201, 280, 264
-0.986968, 153, 121, 184, 184
-0.986984, 33, 209, 160, 272
-0.986989, 137, 161, 168, 288
-0.986996, 177, 401, 304, 464
-0.987004, 225, 337, 288, 400
-0.987031, 153, 321, 216, 448
-0.987068, 73, 321, 136, 384
-0.987101, 65, 289, 128, 416
-0.987184, 81, 241, 208, 304
-0.987198, 265, 161, 296, 224
-0.98726, 221, 161, 252, 224
-0.987303, 41, 329, 104, 392
-0.987401, 161, 225, 288, 288
-0.987463, 197, 161, 228, 288
-0.987482, 329, 369, 360, 496
-0.987482, 249, 337, 312, 400
-0.98749, 217, 1, 280, 500
-0.987522, 265, 129, 296, 256
-0.98766, 225, 425, 352, 488
-0.987675, 25, 241, 88, 368
-0.987714, 153, 249, 216, 312
-0.987733, 201, 305, 264, 368
-0.987845, 233, 225, 264, 352
-0.987919, 133, 393, 164, 456
-0.987961, 257, 73, 320, 136
-0.988086, 137, 273, 200, 336
-0.988087, 169, 161, 200, 224
-0.988091, 153, 49, 216, 176
-0.988208, 209, 65, 272, 128
-0.988289, 185, 249, 248, 312
-0.988316, 129, 193, 192, 448
-0.988324, 113, 137, 144, 200
-0.98842, 25, 225, 88, 480
-0.98844, 241, 257, 368, 320
-0.988463, 309, 289, 340, 416
-0.988482, 309, 161, 340, 288
-0.98852, 1, 225, 64, 352
-0.988538, 1, 169, 128, 232
-0.988541, 129, 33, 192, 160
-0.988542, 145, 425, 272, 488
-0.988574, 49, 209, 112, 272
-0.988613, 257, 353, 288, 480
-0.988636, 97, 185, 160, 248
-0.988656, 169, 1, 232, 500
-0.988798, 277, 129, 308, 192
-0.988829, 309, 201, 340, 264
-0.988861, 81, 217, 208, 280
-0.98887, 161, 337, 288, 400
-0.988871, 161, 425, 224, 488
-0.988908, 121, 169, 152, 232
-0.988931, 161, 145, 192, 272
-0.988952, 241, 81, 368, 144
-0.988974, 209, 313, 336, 376
-0.98898, 105, 161, 136, 288
-0.988988, 265, 425, 328, 488
-0.989065, 153, 65, 216, 128
-0.989075, 273, 297, 336, 360
-0.98909, 145, 1, 208, 500
-0.989121, 193, 209, 224, 336
-0.989149, 97, 97, 352, 160
-0.989159, 233, 225, 264, 288
-0.989211, 305, 1, 368, 256
-0.989378, 237, 321, 268, 448
-0.989389, 185, 225, 248, 288
-0.989403, 17, 321, 80, 384
-0.989421, 129, 369, 192, 432
-0.989426, 17, 97, 144, 160
-0.989452, 81, 337, 208, 400
-0.989474, 201, 353, 264, 480
-0.989504, 177, 137, 208, 200
-0.989506, 345, 161, 375, 224
-0.989575, 129, 249, 192, 312
-0.989589, 149, 393, 180, 456
-0.989635, 301, 345, 332, 408
-0.989676, 337, 321, 368, 448
-0.989678, 217, 361, 280, 424
-0.989695, 9, 305, 72, 432
-0.989749, 249, 257, 312, 320
-0.989773, 313, 1, 375, 500
-0.989817, 89, 377, 152, 440
-0.98982, 273, 249, 336, 312
-0.989845, 113, 361, 240, 424
-0.989888, 81, 233, 144, 296
-0.989903, 329, 201, 360, 264
-0.989934, 277, 401, 308, 464
-0.990099, 273, 1, 336, 500
-0.99011, 33, 1, 96, 500
-0.990133, 289, 225, 320, 288
-0.990178, 313, 297, 375, 360
-0.990178, 105, 289, 168, 416
-0.990196, 89, 125, 152, 156
-0.990221, 129, 273, 256, 336
-0.990243, 281, 81, 344, 144
-0.990267, 293, 369, 324, 432
-0.990278, 153, 345, 216, 408
-0.990281, 185, 85, 248, 116
-0.990327, 289, 201, 320, 264
-0.990364, 129, 249, 256, 312
-0.990374, 65, 241, 128, 368
-0.990395, 17, 185, 80, 248
-0.990401, 273, 361, 304, 424
-0.990401, 9, 129, 40, 256
-0.990435, 185, 129, 216, 256
-0.990453, 65, 1, 128, 500
-0.990471, 89, 1, 152, 500
-0.99058, 137, 161, 200, 192
-0.990592, 105, 169, 136, 232
-0.990594, 233, 97, 296, 128
-0.990594, 265, 109, 328, 140
-0.990693, 289, 373, 352, 404
-0.990724, 33, 369, 160, 432
-0.990756, 177, 305, 240, 368
-0.990777, 173, 201, 204, 264
-0.990787, 61, 161, 92, 224
-0.990793, 177, 113, 208, 176
-0.990796, 129, 73, 192, 136
-0.990806, 225, 289, 288, 352
-0.99083, 129, 105, 192, 136
-0.990874, 249, 201, 280, 264
-0.990898, 129, 133, 192, 164
-0.990922, 105, 97, 168, 160
-0.990947, 313, 149, 375, 180
-0.990953, 121, 401, 184, 432
-0.990992, 105, 113, 168, 144
-0.990995, 113, 305, 176, 368
-0.991008, 9, 1, 72, 500
-0.991042, 193, 201, 224, 264
-0.99109, 121, 433, 184, 464
-0.991122, 57, 133, 120, 164
-0.99114, 325, 409, 356, 472
-0.991142, 297, 117, 360, 148
-0.991172, 161, 93, 224, 124
-0.991174, 1, 329, 128, 392
-0.991183, 169, 173, 232, 204
-0.991192, 165, 225, 196, 352
-0.991195, 89, 409, 152, 472
-0.991207, 177, 57, 240, 120
-0.991214, 113, 165, 176, 196
-0.991215, 73, 157, 136, 188
-0.991229, 37, 121, 68, 184
-0.991231, 213, 201, 244, 264
-0.991231, 153, 149, 216, 180
-0.991298, 209, 85, 272, 116
-0.991322, 177, 241, 208, 304
-0.991336, 77, 345, 108, 408
-0.991355, 225, 1, 288, 256
-0.991365, 277, 169, 308, 232
-0.991378, 1, 105, 375, 168
-0.991382, 253, 361, 284, 424
-0.991388, 113, 145, 176, 176
-0.991395, 129, 305, 256, 368
-0.991437, 165, 121, 196, 184
-0.991459, 289, 169, 352, 200
-0.991479, 109, 105, 140, 168
-0.991504, 205, 145, 236, 208
-0.991513, 293, 65, 324, 192
-0.991518, 293, 137, 324, 200
-0.991525, 273, 1, 336, 256
-0.991606, 177, 265, 304, 328
-0.991634, 249, 1, 312, 500
-0.991635, 269, 201, 300, 264
-0.991641, 345, 161, 375, 288
-0.991655, 209, 113, 240, 240
-0.991659, 233, 201, 264, 264
-0.991673, 309, 209, 340, 336
-0.991676, 89, 145, 152, 176
-0.991678, 129, 117, 192, 148
-0.991685, 17, 129, 80, 160
-0.991702, 121, 445, 184, 476
-0.991705, 225, 33, 256, 160
-0.991713, 49, 161, 112, 192
-0.991722, 217, 209, 248, 336
-0.991726, 225, 113, 288, 144
-0.991739, 201, 105, 264, 136
-0.991749, 185, 273, 248, 336
-0.991749, 193, 209, 256, 240
-0.991749, 297, 305, 328, 432
-0.99175, 313, 345, 344, 408
-0.991776, 209, 257, 272, 288
-0.991778, 137, 189, 200, 220
-0.991779, 345, 185, 375, 248
-0.991791, 153, 121, 216, 152
-0.991797, 313, 169, 375, 200
-0.991798, 9, 121, 40, 184
-0.991826, 273, 361, 336, 392
-0.991831, 265, 177, 296, 304
-0.991836, 53, 209, 84, 272
-0.991836, 193, 173, 256, 204
-0.991843, 313, 65, 344, 192
-0.99187, 41, 353, 104, 416
-0.991872, 145, 201, 208, 232
-0.991889, 217, 173, 280, 204
-0.991892, 217, 105, 248, 168
-0.991898, 305, 205, 368, 236
-0.991898, 49, 233, 112, 296
-0.991907, 65, 337, 128, 464
-0.991923, 133, 425, 164, 488
-0.991925, 105, 209, 136, 272
-0.991926, 121, 413, 184, 444
-0.991927, 265, 249, 328, 280
-0.991954, 345, 225, 375, 288
-0.991964, 81, 213, 144, 244
-0.991971, 241, 401, 304, 432
-0.991975, 153, 105, 216, 136
-0.991977, 153, 137, 216, 168
-0.991981, 241, 209, 304, 240
-0.992012, 145, 173, 208, 204
-0.99202, 177, 105, 240, 136
-0.992028, 241, 413, 304, 444
-0.992029, 249, 173, 312, 204
-0.99204, 281, 161, 312, 288
-0.992042, 65, 161, 96, 288
-0.992051, 249, 305, 280, 432
-0.992075, 297, 137, 360, 168
-0.99208, 209, 245, 272, 276
-0.992103, 261, 121, 292, 184
-0.992111, 305, 241, 368, 272
-0.992117, 181, 225, 212, 352
-0.99212, 209, 257, 272, 320
-0.992124, 289, 413, 352, 444
-0.99214, 65, 353, 128, 384
-0.992148, 233, 425, 296, 488
-0.992171, 49, 173, 112, 204
-0.992182, 249, 125, 312, 156
-0.992189, 1, 233, 128, 296
-0.992201, 81, 297, 208, 360
-0.992213, 97, 345, 160, 408
-0.99222, 177, 189, 240, 220
-0.992221, 105, 177, 168, 208
-0.99225, 305, 321, 368, 352
-0.992256, 161, 401, 224, 464
-0.992284, 249, 261, 312, 292
-0.992297, 169, 209, 232, 240
-0.992315, 177, 153, 240, 184
-0.992338, 313, 105, 375, 136
-0.992339, 333, 169, 364, 232
-0.992349, 33, 149, 96, 180
-0.99237, 169, 273, 200, 336
-0.992373, 125, 225, 156, 352
-0.992377, 225, 385, 288, 416
-0.992424, 273, 129, 336, 160
-0.992428, 225, 137, 256, 200
-0.992431, 49, 121, 112, 152
-0.992435, 297, 425, 328, 488
-0.992445, 113, 273, 176, 336
-0.992453, 153, 233, 216, 264
-0.992455, 185, 125, 248, 156
-0.992458, 121, 237, 184, 268
-0.992472, 321, 193, 352, 320
-0.992476, 25, 213, 88, 244
-0.992481, 249, 369, 312, 400
-0.992486, 265, 161, 328, 192
-0.992491, 249, 237, 312, 268
-0.992492, 257, 425, 320, 456
-0.992509, 193, 145, 224, 208
-0.99251, 177, 33, 208, 160
-0.99251, 309, 97, 340, 160
-0.992514, 265, 381, 328, 412
-0.992515, 185, 261, 248, 292
-0.992516, 49, 65, 112, 192
-0.992521, 129, 461, 192, 492
-0.992523, 313, 361, 375, 392
-0.992526, 81, 237, 144, 268
-0.99253, 81, 265, 208, 328
-0.992532, 293, 225, 324, 352
-0.992543, 289, 153, 352, 184
-0.992547, 281, 229, 344, 260
-0.992548, 289, 89, 320, 152
-0.992555, 305, 253, 368, 284
-0.992565, 113, 201, 176, 232
-0.992569, 333, 337, 364, 400
-0.992578, 169, 249, 232, 280
-0.992584, 241, 225, 304, 256
-0.992585, 193, 225, 256, 256
-0.992599, 145, 293, 208, 324
-0.992606, 273, 393, 336, 424
-0.992609, 297, 385, 360, 416
-0.99263, 265, 209, 328, 240
-0.992657, 289, 437, 352, 468
-0.992659, 81, 177, 144, 208
-0.992663, 9, 157, 72, 188
-0.992664, 121, 1, 184, 500
-0.992665, 209, 289, 336, 352
-0.992666, 201, 157, 264, 188
-0.992669, 313, 373, 375, 404
-0.992671, 121, 225, 184, 256
-0.992686, 305, 221, 368, 252
-0.992698, 129, 361, 375, 424
-0.9927, 309, 249, 340, 312
-0.992713, 273, 189, 336, 220
-0.992717, 1, 129, 375, 192
-0.992719, 129, 393, 375, 456
-0.992726, 137, 281, 200, 312
-0.992729, 25, 169, 88, 200
-0.992734, 121, 117, 152, 148
-0.992747, 321, 289, 352, 416
-0.992761, 53, 161, 84, 288
-0.992765, 241, 161, 304, 192
-0.992773, 41, 337, 104, 368
-0.992781, 313, 349, 375, 380
-0.992792, 257, 149, 320, 180
-0.992796, 233, 321, 296, 352
-0.992796, 281, 329, 344, 360
-0.992801, 317, 373, 348, 404
-0.992813, 145, 257, 208, 288
-0.99282, 89, 345, 152, 376
-0.992824, 177, 141, 240, 172
-0.992828, 297, 189, 360, 220
-0.992834, 17, 97, 80, 160
-0.992837, 1, 209, 64, 272
-0.992848, 113, 249, 176, 280
-0.992857, 273, 261, 336, 292
-0.992862, 305, 257, 368, 320
-0.992862, 65, 201, 128, 232
-0.992867, 89, 177, 120, 304
-0.992868, 277, 109, 308, 140
-0.992869, 81, 225, 144, 256
-0.992871, 273, 309, 336, 340
-0.99288, 41, 357, 104, 388
-0.992883, 89, 445, 152, 476
-0.992884, 17, 393, 144, 456
-0.992888, 217, 209, 280, 240
-0.9929, 313, 333, 375, 364
-0.992908, 145, 213, 208, 244
-0.99291, 341, 153, 372, 184
-0.992911, 201, 317, 264, 348
-0.992914, 161, 449, 224, 480
-0.992917, 233, 93, 264, 124
-0.992917, 185, 237, 248, 268
-0.992917, 133, 113, 164, 144
-0.99292, 73, 113, 136, 144
-0.992922, 177, 257, 240, 500
-0.992923, 245, 97, 276, 128
-0.992928, 105, 189, 168, 220
-0.992931, 281, 425, 344, 456
-0.992932, 165, 97, 196, 128
-0.992935, 153, 101, 184, 132
-0.99294, 89, 421, 152, 452
-0.99294, 273, 349, 336, 380
-0.992943, 257, 101, 288, 132
-0.992947, 161, 153, 192, 184
-0.992957, 289, 113, 320, 144
-0.992965, 101, 125, 132, 156
-0.992983, 301, 117, 332, 148
-0.992996, 181, 89, 212, 120
-0.992998, 81, 157, 112, 188
-0.992999, 197, 33, 228, 160
-0.993014, 165, 241, 196, 304
-0.993027, 133, 153, 164, 184
-0.993044, 1, 121, 256, 184
-0.99305, 193, 81, 224, 112
-0.99305, 221, 85, 252, 116
-0.993052, 105, 1, 168, 256
-0.993061, 205, 81, 236, 112
-0.993083, 125, 165, 156, 196
-0.993085, 57, 353, 88, 416
-0.993098, 181, 173, 212, 204
-0.993102, 69, 161, 100, 192
-0.993115, 137, 165, 168, 196
-0.993116, 85, 209, 116, 272
-0.993116, 329, 149, 360, 180
-0.993121, 345, 65, 375, 192
-0.993134, 149, 125, 180, 156
-0.993152, 305, 361, 336, 392
-0.993155, 85, 129, 116, 160
-0.993156, 29, 125, 60, 156
-0.993161, 317, 121, 348, 152
-0.993161, 341, 129, 372, 160
-0.993165, 149, 157, 180, 188
-0.993166, 301, 169, 332, 200
-0.993167, 201, 173, 232, 204
-0.993169, 317, 169, 348, 200
-0.993179, 317, 433, 348, 496
-0.993196, 177, 137, 208, 168
-0.993198, 181, 157, 212, 188
-0.993201, 49, 129, 80, 160
-0.993202, 217, 173, 248, 204
-0.993225, 165, 121, 196, 152
-0.993227, 161, 141, 192, 172
-0.993234, 189, 105, 220, 168
-0.993248, 301, 377, 332, 408
-0.99325, 61, 129, 92, 160
-0.993252, 185, 361, 248, 424
-0.993254, 333, 169, 364, 200
-0.993263, 57, 165, 88, 196
-0.993264, 169, 165, 200, 196
-0.993266, 345, 169, 375, 200
-0.993268, 133, 401, 164, 432
-0.993268, 329, 125, 360, 156
-0.993269, 177, 305, 240, 432
-0.993272, 261, 173, 292, 204
-0.993273, 233, 249, 264, 280
-0.993274, 77, 353, 108, 384
-0.993279, 113, 141, 144, 172
-0.993283, 289, 165, 320, 196
-0.993283, 225, 109, 256, 140
-0.993284, 145, 113, 176, 144
-0.993288, 133, 133, 164, 164
-0.993288, 121, 177, 152, 208
-0.993291, 101, 145, 132, 176
-0.993299, 265, 125, 296, 156
-0.993303, 241, 173, 272, 204
-0.993305, 149, 401, 180, 432
-0.993307, 309, 257, 340, 288
-0.993309, 105, 161, 136, 192
-0.993313, 65, 177, 96, 208
-0.993318, 177, 205, 208, 236
-0.993327, 121, 153, 152, 184
-0.99333, 317, 145, 348, 176
-0.993331, 213, 105, 244, 136
-0.993333, 177, 117, 208, 148
-0.993334, 285, 133, 316, 164
-0.993334, 93, 177, 124, 208
-0.993334, 333, 81, 364, 208
-0.993334, 17, 125, 48, 156
-0.993335, 77, 177, 108, 208
-0.993338, 345, 117, 375, 148
-0.993339, 113, 65, 144, 192
-0.993343, 173, 245, 204, 276
-0.993344, 273, 389, 304, 420
-0.993345, 245, 365, 276, 396
-0.993347, 229, 173, 260, 204
-0.993357, 81, 369, 112, 400
-0.993357, 289, 377, 320, 408
-0.993359, 93, 157, 124, 188
-0.993361, 337, 385, 368, 448
-0.993363, 117, 249, 148, 280
-0.993369, 345, 237, 375, 268
-0.993374, 233, 229, 264, 260
-0.993377, 193, 209, 224, 240
-0.99338, 129, 433, 160, 464
-0.993388, 241, 117, 272, 148
-0.993389, 273, 409, 304, 440
-0.993392, 69, 185, 100, 248
-0.993392, 293, 253, 324, 284
-0.993394, 289, 233, 320, 264
-0.993399, 137, 177, 168, 208
-0.9934, 189, 105, 220, 136
-0.993405, 273, 169, 304, 200
-0.993407, 177, 229, 208, 260
-0.993408, 189, 189, 220, 220
-0.993411, 109, 177, 140, 208
-0.993412, 201, 101, 232, 132
-0.993414, 329, 205, 360, 236
-0.993418, 297, 137, 328, 168
-0.993418, 241, 353, 272, 416
-0.993419, 277, 421, 308, 452
-0.993419, 9, 233, 72, 296
-0.993421, 293, 365, 324, 396
-0.993425, 253, 385, 284, 416
-0.993426, 113, 129, 144, 160
-0.993428, 121, 197, 152, 228
-0.99343, 225, 461, 256, 492
-0.993433, 305, 157, 336, 188
-0.993439, 333, 361, 364, 392
-0.993443, 213, 209, 244, 240
-0.99345, 253, 121, 284, 152
-0.993455, 169, 281, 200, 312
-0.993455, 301, 437, 332, 468
-0.993455, 317, 361, 348, 392
-0.993456, 337, 385, 368, 416
-0.993459, 217, 393, 280, 456
-0.993464, 125, 201, 156, 264
-0.993465, 345, 225, 375, 256
-0.993468, 249, 157, 280, 188
-0.993468, 105, 213, 136, 244
-0.993468, 181, 281, 212, 312
-0.993469, 145, 305, 176, 432
-0.993476, 257, 397, 288, 428
-0.993476, 193, 153, 224, 184
-0.993482, 321, 189, 352, 220
-0.993486, 249, 209, 280, 240
-0.993487, 289, 221, 320, 252
-0.99349, 233, 209, 264, 240
-0.99349, 181, 265, 212, 296
-0.993493, 217, 257, 248, 384
-0.993494, 73, 129, 104, 160
-0.993495, 293, 209, 324, 240
-0.993495, 129, 413, 160, 444
-0.993497, 305, 205, 336, 236
-0.993497, 65, 353, 96, 384
-0.993502, 161, 273, 192, 400
-0.993546, 97, 417, 352, 480
-0.993571, 65, 81, 192, 144
-0.993587, 109, 209, 140, 336
-0.993595, 101, 65, 132, 192
-0.993694, 97, 129, 352, 192
-0.993739, 337, 361, 368, 424
-0.993832, 161, 57, 288, 120
-0.993833, 313, 305, 344, 368
-0.993839, 245, 145, 276, 208
-0.993853, 33, 305, 160, 368
-0.993866, 49, 305, 112, 368
-0.993883, 161, 89, 288, 120
-0.993917, 281, 65, 312, 192
-0.993948, 345, 225, 375, 352
-0.993961, 85, 81, 116, 208
-0.993965, 125, 89, 156, 152
-0.994015, 1, 161, 256, 224
-0.994076, 245, 33, 276, 160
-0.994084, 153, 417, 184, 480
-0.994127, 277, 81, 308, 144
-0.994131, 285, 305, 316, 432
-0.994134, 81, 177, 112, 240
-0.994134, 305, 369, 336, 432
-0.994136, 1, 401, 256, 464
-0.994222, 205, 105, 236, 168
-0.994226, 81, 257, 144, 320
-0.994326, 201, 17, 264, 144
-0.994337, 69, 233, 100, 296
-0.99434, 1, 225, 64, 480
-0.994409, 213, 57, 244, 120
-0.994409, 245, 113, 276, 176
-0.994435, 129, 201, 375, 264
-0.994445, 181, 265, 212, 328
-0.994451, 57, 337, 88, 464
-0.994476, 169, 369, 200, 432
-0.994476, 41, 81, 72, 208
-0.994557, 205, 241, 236, 368
-0.994565, 105, 249, 168, 312
-0.99466, 253, 393, 284, 456
-0.994677, 245, 369, 276, 496
-0.994713, 225, 305, 256, 432
-0.994713, 169, 369, 200, 496
-0.99472, 73, 209, 104, 272
-0.994762, 113, 321, 144, 448
-0.994784, 221, 321, 252, 384
-0.994788, 145, 49, 176, 176
-0.994789, 37, 209, 68, 272
-0.994792, 97, 161, 352, 224
-0.994801, 1, 161, 375, 224
-0.994802, 241, 377, 368, 408
-0.994871, 133, 369, 164, 432
-0.994876, 181, 273, 212, 400
-0.994895, 9, 305, 40, 432
-0.99491, 153, 257, 216, 500
-0.994935, 237, 65, 268, 128
-0.994938, 265, 393, 296, 456
-0.99494, 153, 225, 184, 352
-0.994956, 113, 241, 144, 304
-0.994983, 313, 409, 344, 472
-0.995036, 253, 209, 284, 336
-0.995042, 129, 105, 256, 136
-0.995058, 17, 257, 144, 320
-0.995068, 193, 81, 208, 144
-0.995072, 69, 321, 100, 384
-0.995074, 233, 329, 264, 392
-0.995081, 137, 225, 168, 352
-0.99512, 1, 425, 256, 488
-0.995179, 1, 281, 128, 344
-0.995187, 255, 89, 270, 152
-0.995188, 277, 97, 292, 160
-0.995196, 73, 321, 104, 448
-0.995201, 125, 225, 156, 288
-0.995201, 157, 281, 188, 344
-0.995211, 123, 113, 138, 176
-0.995254, 211, 73, 226, 136
-0.995266, 133, 305, 164, 432
-0.995266, 225, 369, 256, 496
-0.995275, 1, 97, 256, 160
-0.995275, 1, 65, 64, 192
-0.995295, 29, 161, 60, 288
-0.995311, 113, 433, 144, 496
-0.995342, 233, 81, 248, 144
-0.995401, 237, 273, 268, 400
-0.995415, 139, 105, 154, 168
-0.995437, 17, 129, 144, 160
-0.995463, 97, 117, 224, 148
-0.995463, 49, 161, 176, 192
-0.995472, 201, 1, 264, 256
-0.995483, 115, 121, 130, 184
-0.995484, 177, 89, 192, 152
-0.995503, 213, 169, 228, 232
-0.995526, 261, 97, 276, 160
-0.995534, 299, 105, 314, 168
-0.995549, 187, 89, 202, 152
-0.995576, 241, 389, 368, 420
-0.995594, 203, 169, 218, 232
-0.995628, 225, 169, 240, 232
-0.995641, 333, 209, 364, 336
-0.995645, 81, 57, 208, 120
-0.99565, 221, 81, 236, 144
-0.995691, 177, 101, 304, 132
-0.995697, 241, 109, 368, 140
-0.995749, 191, 169, 206, 232
-0.995752, 159, 97, 174, 160
-0.995775, 269, 33, 300, 160
-0.995809, 33, 361, 288, 424
-0.995837, 1, 185, 256, 248
-0.995844, 95, 145, 110, 208
-0.995876, 103, 121, 118, 184
-0.995879, 133, 113, 148, 176
-0.9959, 73, 209, 104, 336
-0.995939, 267, 97, 282, 160
-0.996021, 285, 105, 300, 168
-0.996031, 309, 113, 324, 176
-0.996043, 321, 113, 336, 176
-0.996069, 209, 49, 336, 112
-0.99607, 85, 121, 100, 184
-0.996078, 239, 89, 254, 152
-0.996086, 331, 121, 346, 184
-0.996087, 319, 137, 334, 200
-0.996112, 209, 253, 336, 284
-0.996114, 205, 81, 220, 144
-0.996122, 335, 161, 350, 224
-0.996129, 219, 169, 234, 232
-0.996133, 1, 201, 375, 264
-0.996142, 227, 81, 242, 144
-0.996151, 181, 169, 196, 232
-0.996158, 315, 161, 330, 224
-0.996174, 149, 105, 164, 168
-0.996175, 129, 1, 192, 256
-0.99618, 325, 161, 340, 224
-0.996193, 169, 97, 184, 160
-0.996226, 345, 121, 360, 184
-0.996252, 41, 193, 72, 320
-0.996258, 293, 105, 308, 168
-0.996265, 341, 145, 356, 208
-0.996267, 161, 117, 288, 148
-0.996273, 95, 121, 110, 184
-0.996289, 49, 149, 176, 180
-0.99629, 129, 173, 256, 204
-0.996299, 5, 81, 36, 208
-0.996301, 315, 113, 330, 176
-0.996302, 63, 121, 78, 184
-0.996306, 249, 89, 264, 152
-0.996314, 277, 209, 308, 336
-0.99632, 269, 305, 300, 432
-0.996335, 157, 121, 172, 184
-0.996347, 323, 361, 338, 424
-0.996363, 105, 145, 120, 208
-0.996369, 325, 137, 340, 200
-0.996378, 175, 161, 190, 224
-0.996378, 331, 369, 346, 432
-0.996378, 149, 129, 164, 192
-0.996384, 197, 169, 212, 232
-0.996412, 257, 161, 272, 224
-0.996423, 139, 129, 154, 192
-0.996427, 85, 321, 116, 448
-0.996442, 233, 169, 248, 232
-0.996448, 89, 153, 104, 216
-0.996455, 113, 257, 144, 384
-0.996455, 1, 329, 256, 392
-0.996461, 133, 49, 164, 176
-0.996462, 265, 65, 296, 320
-0.9965, 1, 241, 32, 368
-0.996507, 337, 113, 352, 176
-0.996509, 209, 241, 336, 272
-0.99653, 125, 137, 140, 200
-0.996544, 83, 153, 98, 216
-0.996548, 109, 121, 124, 184
-0.99655, 305, 161, 320, 224
-0.996561, 97, 201, 224, 232
-0.996575, 69, 121, 84, 184
-0.996589, 1, 241, 256, 304
-0.996621, 1, 165, 128, 196
-0.996639, 97, 73, 352, 136
-0.996642, 245, 169, 260, 232
-0.996646, 353, 113, 368, 176
-0.996654, 241, 229, 368, 260
-0.996671, 1, 401, 375, 464
-0.996673, 311, 137, 326, 200
-0.996675, 253, 257, 284, 384
-0.996687, 359, 113, 374, 176
-0.996697, 199, 81, 214, 144
-0.996724, 153, 153, 168, 216
-0.996727, 77, 121, 92, 184
-0.996737, 353, 145, 368, 208
-0.99674, 185, 257, 200, 320
-0.996745, 241, 169, 368, 200
-0.996756, 269, 161, 284, 224
-0.996771, 225, 417, 352, 448
-0.996774, 313, 345, 328, 408
-0.996787, 97, 161, 224, 192
-0.996791, 161, 393, 176, 456
-0.996804, 81, 1, 144, 256
-0.996823, 251, 161, 266, 224
-0.996824, 131, 137, 146, 200
-0.996836, 309, 201, 324, 264
-0.996859, 65, 129, 192, 160
-0.996859, 177, 401, 304, 432
-0.99686, 299, 161, 314, 224
-0.996876, 347, 145, 362, 208
-0.996876, 95, 169, 110, 232
-0.996883, 263, 169, 278, 232
-0.996886, 177, 173, 304, 204
-0.996888, 287, 169, 302, 232
-0.996906, 241, 405, 368, 436
-0.996907, 241, 209, 368, 240
-0.99691, 135, 393, 150, 456
-0.996919, 117, 145, 132, 208
-0.996919, 241, 121, 368, 152
-0.996948, 141, 161, 156, 224
-0.996964, 49, 1, 112, 256
-0.996976, 295, 129, 310, 192
-0.996997, 239, 169, 254, 232
-0.996999, 147, 169, 162, 232
-0.997015, 205, 305, 236, 432
-0.997016, 157, 65, 188, 320
-0.997021, 97, 445, 224, 476
-0.997025, 97, 405, 224, 436
-0.99703, 233, 65, 264, 320
-0.997032, 25, 121, 40, 184
-0.997036, 185, 65, 216, 320
-0.997045, 33, 121, 48, 184
-0.997047, 39, 121, 54, 184
-0.997056, 185, 145, 200, 208
-0.997064, 57, 121, 72, 184
-0.997074, 49, 117, 176, 148
-0.997074, 111, 145, 126, 208
-0.997091, 129, 161, 144, 224
-0.997112, 1, 209, 256, 272
-0.997121, 101, 97, 132, 352
-0.997124, 49, 177, 176, 208
-0.997128, 121, 169, 136, 232
-0.997133, 181, 113, 196, 176
-0.997133, 161, 241, 288, 272
-0.997136, 97, 329, 352, 392
-0.997141, 345, 97, 375, 352
-0.997143, 293, 169, 308, 232
-0.997156, 193, 257, 224, 384
-0.997161, 97, 141, 224, 172
-0.997166, 121, 97, 152, 352
-0.997168, 161, 193, 288, 224
-0.997171, 191, 249, 206, 312
-0.99718, 281, 169, 296, 232
-0.997184, 97, 433, 224, 464
-0.997192, 159, 145, 174, 208
-0.997204, 223, 145, 238, 208
-0.99721, 161, 157, 288, 188
-0.997219, 249, 65, 280, 320
-0.997226, 177, 209, 304, 240
-0.99724, 199, 145, 214, 208
-0.997248, 145, 389, 272, 420
-0.997274, 97, 417, 224, 448
-0.997284, 49, 121, 64, 184
-0.997284, 275, 169, 290, 232
-0.997295, 115, 169, 130, 232
-0.997296, 231, 105, 246, 168
-0.997302, 213, 161, 244, 416
-0.997308, 293, 97, 324, 352
-0.997317, 215, 97, 230, 160
-0.997325, 271, 121, 286, 184
-0.997327, 317, 97, 348, 352
-0.997339, 261, 161, 292, 416
-0.997357, 241, 149, 368, 180
-0.997358, 33, 305, 288, 368
-0.997361, 303, 129, 318, 192
-0.997384, 197, 97, 228, 352
-0.997389, 169, 129, 184, 192
-0.997401, 81, 249, 208, 280
-0.997403, 241, 137, 368, 168
-0.997411, 69, 97, 100, 352
-0.997413, 289, 129, 304, 192
-0.997442, 311, 249, 326, 312
-0.997442, 45, 321, 76, 448
-0.99746, 241, 365, 368, 396
-0.997473, 133, 129, 164, 384
-0.997484, 241, 265, 368, 296
-0.997487, 129, 257, 256, 288
-0.997505, 231, 145, 246, 208
-0.997514, 101, 169, 116, 232
-0.997519, 193, 129, 320, 160
-0.997535, 193, 145, 208, 208
-0.997535, 77, 153, 92, 216
-0.99754, 329, 97, 360, 352
-0.997545, 1, 425, 375, 488
-0.99755, 281, 97, 312, 352
-0.997564, 33, 453, 160, 484
-0.997565, 191, 225, 206, 288
-0.997573, 277, 121, 292, 184
-0.997575, 359, 145, 374, 208
-0.997578, 161, 229, 288, 260
-0.997579, 209, 17, 240, 144
-0.997581, 193, 369, 320, 400
-0.997584, 107, 169, 122, 232
-0.997591, 341, 201, 356, 264
-0.997599, 213, 65, 244, 320
-0.997599, 313, 193, 344, 448
-0.9976, 135, 169, 150, 232
-0.9976, 71, 353, 86, 416
-0.997602, 299, 185, 314, 248
-0.997605, 179, 137, 194, 200
-0.997608, 181, 233, 196, 296
-0.997609, 203, 105, 218, 168
-0.997612, 317, 369, 332, 432
-0.997627, 225, 97, 352, 128
-0.997632, 17, 1, 80, 256
-0.99764, 81, 237, 208, 268
-0.997647, 157, 321, 188, 448
-0.997662, 33, 369, 96, 496
-0.997668, 225, 429, 352, 460
-0.99767, 301, 257, 332, 500
-0.997674, 113, 129, 240, 160
-0.997691, 113, 457, 240, 488
-0.997694, 305, 97, 336, 352
-0.9977, 145, 421, 272, 452
-0.997714, 73, 65, 104, 192
-0.997728, 341, 369, 372, 496
-0.997732, 17, 213, 144, 244
-0.997741, 89, 97, 120, 352
-0.997743, 237, 161, 268, 416
-0.997776, 49, 97, 80, 352
-0.997779, 145, 129, 176, 384
-0.997809, 1, 153, 128, 184
-0.997813, 173, 65, 204, 320
-0.997824, 193, 385, 320, 416
-0.997827, 33, 425, 160, 456
-0.997833, 33, 441, 160, 472
-0.997893, 21, 321, 52, 448
-0.997911, 29, 273, 60, 400
-0.997926, 81, 97, 208, 128
-0.997986, 81, 225, 208, 256
-0.998019, 1, 177, 128, 208
-0.998024, 33, 193, 160, 224
-0.998025, 209, 325, 336, 356
-0.998028, 81, 365, 208, 396
-0.998044, 97, 241, 352, 304
-0.998056, 115, 125, 130, 156
-0.998056, 189, 193, 220, 448
-0.998061, 1, 81, 375, 144
-0.998066, 33, 405, 160, 436
-0.998069, 105, 193, 136, 448
-0.998076, 249, 161, 280, 416
-0.998082, 129, 269, 256, 300
-0.998092, 209, 197, 336, 228
-0.998095, 183, 93, 198, 124
-0.998106, 81, 189, 208, 220
-0.99811, 241, 313, 368, 344
-0.998111, 49, 353, 176, 384
-0.99812, 33, 233, 160, 264
-0.998127, 89, 193, 120, 448
-0.998138, 325, 369, 340, 400
-0.998149, 177, 269, 304, 300
-0.998151, 223, 85, 238, 116
-0.998152, 1, 357, 128, 388
-0.998154, 157, 105, 172, 136
-0.998158, 145, 445, 272, 476
-0.998161, 199, 85, 214, 116
-0.998162, 193, 341, 320, 372
-0.998166, 125, 117, 140, 148
-0.99817, 299, 113, 314, 144
-0.998192, 139, 113, 154, 144
-0.998195, 129, 165, 144, 196
-0.998196, 155, 161, 170, 192
-0.998206, 143, 173, 158, 204
-0.998206, 133, 117, 148, 148
-0.998208, 173, 97, 188, 128
-0.998214, 177, 169, 192, 200
-0.99822, 149, 109, 164, 140
-0.99824, 233, 89, 248, 120
-0.998252, 177, 309, 304, 340
-0.998258, 245, 93, 260, 124
-0.99826, 289, 109, 304, 140
-0.998261, 255, 97, 270, 128
-0.998271, 279, 105, 294, 136
-0.998279, 309, 117, 324, 148
-0.998292, 253, 399, 284, 414
-0.998292, 129, 433, 160, 448
-0.998292, 169, 131, 200, 146
-0.998293, 145, 143, 176, 158
-0.998293, 309, 171, 340, 186
-0.998294, 169, 103, 200, 118
-0.998294, 329, 129, 360, 144
-0.998294, 109, 175, 140, 190
-0.998294, 177, 231, 208, 246
-0.998294, 253, 393, 284, 408
-0.998295, 201, 123, 232, 138
-0.998295, 141, 151, 172, 166
-0.998296, 273, 395, 304, 410
-0.998296, 85, 379, 116, 394
-0.998296, 233, 233, 264, 248
-0.998297, 221, 109, 252, 124
-0.998297, 145, 113, 176, 128
-0.998297, 177, 245, 208, 260
-0.998298, 181, 205, 212, 220
-0.998299, 161, 181, 192, 196
-0.998299, 157, 107, 188, 122
-0.998299, 317, 381, 348, 396
-0.9983, 325, 171, 356, 186
-0.9983, 213, 211, 244, 226
-0.9983, 133, 119, 164, 134
-0.9983, 297, 253, 328, 268
-0.998301, 105, 163, 136, 178
-0.998301, 355, 153, 370, 184
-0.998301, 161, 121, 192, 136
-0.998301, 209, 175, 240, 190
-0.998301, 261, 173, 292, 188
-0.998302, 289, 235, 320, 250
-0.998302, 289, 373, 320, 388
-0.998302, 177, 153, 208, 168
-0.998304, 317, 145, 348, 160
-0.998304, 169, 261, 200, 276
-0.998304, 333, 371, 364, 386
-0.998304, 237, 175, 268, 190
-0.998305, 77, 367, 108, 382
-0.998305, 277, 427, 308, 442
-0.998306, 329, 193, 360, 448
-0.998307, 329, 149, 360, 164
-0.998307, 345, 245, 375, 260
-0.998308, 105, 147, 136, 162
-0.998309, 97, 213, 224, 244
-0.998309, 265, 375, 296, 390
-0.998311, 237, 169, 268, 184
-0.998311, 117, 161, 148, 176
-0.998311, 225, 129, 256, 144
-0.998311, 305, 165, 336, 180
-0.998312, 141, 135, 172, 150
-0.998312, 69, 163, 100, 178
-0.998312, 181, 97, 212, 112
-0.998312, 217, 263, 248, 278
-0.998312, 305, 141, 336, 156
-0.998312, 233, 259, 264, 274
-0.998313, 173, 117, 204, 132
-0.998313, 249, 171, 280, 186
-0.998314, 117, 139, 148, 154
-0.998315, 177, 145, 208, 160
-0.998315, 209, 81, 224, 112
-0.998315, 297, 381, 328, 396
-0.998316, 169, 321, 200, 448
-0.998317, 145, 163, 176, 178
-0.998317, 225, 175, 256, 190
-0.998318, 209, 105, 240, 120
-0.998321, 93, 173, 124, 188
-0.998322, 341, 153, 372, 168
-0.998323, 281, 131, 312, 146
-0.998323, 233, 239, 264, 254
-0.998323, 289, 229, 320, 244
-0.998324, 93, 151, 124, 166
-0.998326, 191, 89, 206, 120
-0.998326, 177, 159, 208, 174
-0.998327, 215, 81, 230, 112
-0.998327, 165, 169, 196, 184
-0.998327, 69, 125, 84, 156
-0.998327, 25, 137, 56, 152
-0.998328, 85, 159, 116, 174
-0.998329, 197, 175, 228, 190
-0.99833, 21, 97, 52, 352
-0.998331, 133, 173, 164, 188
-0.998331, 307, 253, 322, 284
-0.998331, 41, 139, 72, 154
-0.998332, 309, 259, 340, 274
-0.998334, 157, 127, 188, 142
-0.998335, 265, 101, 280, 132
-0.998335, 53, 171, 84, 186
-0.998335, 129, 137, 160, 152
-0.998336, 129, 405, 160, 420
-0.998337, 305, 119, 336, 134
-0.998337, 185, 261, 200, 292
-0.998337, 309, 369, 340, 384
-0.998337, 177, 139, 208, 154
-0.998338, 121, 123, 152, 138
-0.998342, 37, 97, 68, 352
-0.998343, 157, 143, 188, 158
-0.998344, 181, 169, 212, 184
-0.998344, 157, 149, 188, 164
-0.998345, 149, 405, 180, 420
-0.998345, 125, 247, 156, 262
-0.998345, 193, 89, 224, 104
-0.998345, 117, 169, 148, 184
-0.998346, 9, 137, 40, 152
-0.998348, 65, 273, 320, 336
-0.998349, 37, 131, 68, 146
-0.998351, 65, 465, 192, 496
-0.998351, 167, 101, 182, 132
-0.998352, 177, 175, 208, 190
-0.998353, 245, 367, 276, 382
-0.998353, 105, 125, 136, 140
-0.998354, 293, 169, 324, 184
-0.998356, 165, 137, 196, 152
-0.998358, 337, 273, 368, 400
-0.998358, 157, 101, 188, 116
-0.998361, 297, 259, 328, 274
-0.998361, 225, 353, 352, 384
-0.998363, 77, 373, 108, 388
-0.998364, 137, 157, 168, 172
-0.998364, 281, 111, 312, 126
-0.998365, 185, 173, 200, 204
-0.998365, 89, 157, 104, 188
-0.998366, 145, 107, 176, 122
-0.998367, 133, 113, 164, 128
-0.998367, 159, 125, 174, 156
-0.998368, 77, 129, 108, 144
-0.998368, 145, 129, 176, 144
-0.998369, 81, 261, 208, 292
-0.998371, 161, 281, 288, 312
-0.998373, 341, 127, 372, 142
-0.998374, 341, 149, 356, 180
-0.998376, 181, 91, 212, 106
-0.998376, 105, 169, 136, 184
-0.998377, 257, 101, 288, 116
-0.998377, 271, 101, 286, 132
-0.998378, 121, 175, 152, 190
-0.998379, 269, 105, 300, 120
-0.99838, 321, 123, 352, 138
-0.998385, 217, 85, 248, 100
-0.998386, 293, 115, 324, 130
-0.998387, 145, 433, 272, 464
-0.998389, 169, 97, 200, 112
-0.998393, 245, 97, 276, 112
-0.998394, 229, 91, 260, 106
-0.998394, 93, 129, 124, 144
-0.998396, 333, 377, 348, 408
-0.998398, 49, 131, 80, 146
-0.998399, 9, 131, 40, 146
-0.9984, 53, 209, 84, 336
-0.998401, 133, 167, 164, 182
-0.998402, 157, 157, 188, 172
-0.998409, 49, 381, 176, 412
-0.998414, 201, 173, 216, 204
-0.998423, 121, 117, 152, 132
-0.998427, 61, 129, 92, 144
-0.998428, 337, 121, 368, 136
-0.998429, 225, 193, 256, 448
-0.99843, 225, 173, 240, 204
-0.998431, 157, 163, 188, 178
-0.998435, 239, 89, 254, 120
-0.998442, 191, 253, 206, 284
-0.998448, 215, 173, 230, 204
-0.998448, 97, 285, 224, 316
-0.998455, 313, 375, 344, 390
-0.998458, 299, 165, 314, 196
-0.998459, 277, 193, 308, 448
-0.998461, 361, 157, 375, 188
-0.998466, 191, 173, 206, 204
-0.998468, 1, 333, 128, 364
-0.99847, 79, 161, 94, 192
-0.99847, 305, 165, 320, 196
-0.998472, 113, 369, 144, 496
-0.998473, 25, 131, 56, 146
-0.998475, 321, 121, 336, 152
-0.998476, 29, 225, 60, 352
-0.998477, 205, 83, 236, 98
-0.998483, 105, 129, 120, 160
-0.998484, 149, 165, 164, 196
-0.998486, 123, 249, 138, 280
-0.998489, 95, 157, 110, 188
-0.998491, 241, 185, 368, 216
-0.998493, 29, 129, 44, 160
-0.998496, 193, 87, 256, 102
-0.998504, 351, 169, 366, 200
-0.998505, 119, 157, 134, 188
-0.998507, 245, 113, 260, 144
-0.998508, 95, 129, 110, 160
-0.998512, 201, 193, 232, 448
-0.998515, 359, 117, 374, 148
-0.998516, 145, 377, 272, 408
-0.998523, 69, 165, 84, 196
-0.998525, 349, 153, 364, 184
-0.998529, 49, 129, 112, 144
-0.99853, 139, 133, 154, 164
-0.998532, 177, 297, 304, 328
-0.998533, 303, 373, 318, 404
-0.99854, 89, 129, 152, 144
-0.99854, 161, 321, 288, 352
-0.998544, 209, 173, 224, 204
-0.998546, 177, 161, 208, 416
-0.998548, 177, 77, 304, 108
-0.998548, 1, 117, 128, 148
-0.998551, 17, 131, 80, 146
-0.998555, 313, 257, 328, 288
-0.998556, 315, 117, 330, 148
-0.998561, 315, 169, 330, 200
-0.998563, 147, 153, 162, 184
-0.998566, 325, 169, 340, 200
-0.998568, 145, 167, 208, 182
-0.998569, 129, 337, 256, 368
-0.998569, 137, 109, 200, 124
-0.99857, 217, 259, 280, 274
-0.998571, 1, 141, 128, 172
-0.998575, 63, 129, 78, 160
-0.998575, 161, 357, 288, 388
-0.998577, 339, 169, 354, 200
-0.998578, 153, 103, 216, 118
-0.998578, 203, 105, 218, 136
-0.998584, 65, 393, 192, 424
-0.998586, 313, 361, 328, 392
-0.998588, 233, 105, 296, 120
-0.998589, 63, 169, 78, 200
-0.99859, 129, 115, 192, 130
-0.998591, 1, 361, 375, 424
-0.998592, 129, 309, 256, 340
-0.998593, 289, 379, 352, 394
-0.998595, 249, 111, 312, 126
-0.998595, 329, 121, 344, 152
-0.998595, 135, 161, 150, 192
-0.998596, 129, 161, 192, 176
-0.998596, 121, 405, 184, 420
-0.998598, 289, 373, 352, 388
-0.9986, 235, 173, 250, 204
-0.998602, 217, 97, 280, 112
-0.998605, 121, 433, 184, 448
-0.998607, 129, 139, 192, 154
-0.998607, 153, 147, 216, 162
-0.998607, 49, 135, 112, 150
-0.99861, 129, 153, 144, 184
-0.99861, 85, 177, 100, 208
-0.998615, 265, 117, 328, 132
-0.998617, 105, 169, 168, 184
-0.998617, 335, 149, 350, 180
-0.998617, 105, 123, 168, 138
-0.998619, 183, 157, 198, 188
-0.998621, 129, 241, 144, 272
-0.998621, 145, 173, 208, 188
-0.998622, 73, 159, 136, 174
-0.998623, 1, 65, 256, 128
-0.998624, 113, 155, 176, 170
-0.998624, 115, 145, 130, 176
-0.998626, 137, 205, 200, 220
-0.998627, 255, 173, 270, 204
-0.998627, 129, 145, 192, 160
-0.998629, 265, 261, 328, 276
-0.998629, 73, 135, 136, 150
-0.998631, 121, 415, 184, 430
-0.998633, 119, 113, 134, 144
-0.998633, 81, 353, 96, 384
-0.998633, 169, 97, 232, 112
-0.998635, 129, 133, 192, 148
-0.998637, 57, 167, 120, 182
-0.998638, 177, 117, 192, 148
-0.998638, 89, 151, 152, 166
-0.998639, 287, 169, 302, 200
-0.998639, 1, 373, 128, 404
-0.998641, 161, 123, 224, 138
-0.998641, 129, 455, 192, 470
-0.998641, 145, 193, 208, 208
-0.998642, 153, 161, 216, 176
-0.998642, 121, 177, 136, 208
-0.998644, 123, 145, 138, 176
-0.998645, 289, 169, 352, 184
-0.998645, 281, 425, 344, 440
-0.998646, 129, 439, 192, 454
-0.998646, 339, 121, 354, 152
-0.998647, 319, 369, 334, 400
-0.998648, 313, 123, 375, 138
-0.998649, 265, 373, 328, 388
-0.998649, 129, 427, 192, 442
-0.998653, 185, 175, 248, 190
-0.998653, 105, 175, 168, 190
-0.998655, 193, 107, 256, 122
-0.998655, 289, 121, 352, 136
-0.998655, 313, 153, 375, 168
-0.998657, 121, 421, 184, 436
-0.998657, 233, 401, 296, 416
-0.998658, 169, 133, 184, 164
-0.99866, 77, 193, 108, 448
-0.99866, 177, 203, 240, 218
-0.998661, 169, 141, 232, 156
-0.998661, 165, 161, 196, 416
-0.998661, 121, 449, 184, 464
-0.998662, 105, 163, 168, 178
-0.998663, 209, 175, 272, 190
-0.998664, 313, 113, 375, 128
-0.998664, 185, 265, 248, 280
-0.998665, 105, 145, 168, 160
-0.998667, 153, 153, 216, 168
-0.998667, 87, 137, 102, 168
-0.998668, 49, 173, 112, 188
-0.998668, 333, 169, 348, 200
-0.998669, 177, 169, 240, 184
-0.998671, 233, 393, 296, 408
-0.998673, 179, 245, 194, 276
-0.998673, 37, 129, 52, 160
-0.998674, 313, 373, 375, 388
-0.998675, 289, 367, 352, 382
-0.998676, 233, 265, 296, 280
-0.998676, 137, 199, 200, 214
-0.998677, 305, 329, 368, 344
-0.998677, 249, 173, 312, 188
-0.998678, 185, 131, 248, 146
-0.998678, 297, 147, 360, 162
-0.998679, 289, 417, 352, 432
-0.99868, 193, 239, 256, 254
-0.99868, 281, 173, 296, 204
-0.99868, 289, 385, 352, 400
-0.998681, 249, 235, 312, 250
-0.998682, 49, 149, 112, 164
-0.998682, 129, 249, 192, 264
-0.998683, 241, 419, 304, 434
-0.998684, 305, 239, 368, 254
-0.998684, 17, 137, 80, 152
-0.998685, 161, 135, 224, 150
-0.998686, 297, 163, 360, 178
-0.998686, 193, 211, 256, 226
-0.998687, 225, 123, 288, 138
-0.998687, 121, 461, 184, 476
-0.998688, 57, 193, 88, 448
-0.998688, 305, 255, 368, 270
-0.998689, 169, 91, 232, 106
-0.998689, 249, 255, 312, 270
-0.998689, 125, 105, 140, 136
-0.998689, 77, 129, 92, 160
-0.99869, 169, 257, 232, 272
-0.99869, 135, 401, 150, 432
-0.99869, 341, 1, 372, 256
-0.998692, 297, 209, 360, 224
-0.998692, 95, 177, 110, 208
-0.998692, 145, 33, 176, 288
-0.998692, 305, 323, 368, 338
-0.998692, 241, 209, 304, 224
-0.998692, 209, 265, 272, 280
-0.998692, 193, 233, 256, 248
-0.998693, 201, 115, 264, 130
-0.998693, 305, 261, 368, 276
-0.998693, 33, 245, 160, 276
-0.998694, 73, 173, 136, 188
-0.998694, 81, 273, 208, 304
-0.998694, 185, 81, 248, 96
-0.998694, 249, 241, 312, 256
-0.998695, 25, 159, 88, 174
-0.998695, 81, 247, 144, 262
-0.998696, 41, 179, 104, 194
-0.998696, 305, 233, 368, 248
-0.998697, 233, 321, 296, 336
-0.998697, 305, 247, 368, 262
-0.998697, 81, 341, 208, 372
-0.998697, 249, 127, 312, 142
-0.998697, 313, 379, 375, 394
-0.998698, 161, 117, 224, 132
-0.998698, 241, 413, 304, 428
-0.998698, 105, 207, 168, 222
-0.998699, 153, 129, 216, 144
-0.998699, 281, 267, 344, 282
-0.9987, 201, 153, 216, 184
-0.9987, 249, 229, 312, 244
-0.9987, 161, 401, 176, 432
-0.9987, 73, 179, 136, 194
-0.998701, 153, 231, 216, 246
-0.998701, 265, 395, 328, 410
-0.998701, 105, 199, 168, 214
-0.998702, 289, 439, 352, 454
-0.998702, 257, 133, 320, 148
-0.998702, 265, 167, 328, 182
-0.998704, 177, 147, 240, 162
-0.998704, 249, 249, 312, 264
-0.998705, 313, 171, 375, 186
-0.998706, 137, 187, 200, 202
-0.998707, 231, 109, 246, 140
-0.998707, 225, 241, 288, 256
-0.998707, 225, 117, 288, 132
-0.998708, 289, 141, 352, 156
-0.998708, 137, 211, 200, 226
-0.998709, 217, 91, 280, 106
-0.998711, 137, 177, 152, 208
-0.998715, 57, 129, 72, 160
-0.998717, 241, 173, 256, 204
-0.998717, 249, 173, 264, 204
-0.998718, 113, 85, 240, 116
-0.998718, 161, 153, 176, 184
-0.998718, 223, 105, 238, 136
-0.998721, 191, 269, 206, 300
-0.998727, 255, 257, 270, 288
-0.998732, 151, 129, 166, 160
-0.998737, 261, 173, 276, 204
-0.998744, 97, 297, 224, 328
-0.998745, 225, 81, 352, 112
-0.998746, 83, 125, 98, 156
-0.998746, 149, 257, 180, 500
-0.998751, 311, 157, 326, 188
-0.998756, 269, 169, 284, 200
-0.998756, 185, 113, 200, 144
-0.998757, 17, 393, 144, 424
-0.998757, 183, 209, 198, 240
-0.998759, 79, 177, 94, 208
-0.998764, 239, 129, 254, 160
-0.998765, 357, 169, 372, 200
-0.998768, 185, 249, 200, 280
-0.998769, 227, 385, 242, 416
-0.998771, 141, 161, 156, 192
-0.998771, 133, 137, 148, 168
-0.998776, 113, 165, 128, 196
-0.99878, 173, 157, 188, 188
-0.998786, 191, 157, 206, 188
-0.998787, 107, 149, 122, 180
-0.998796, 1, 249, 375, 312
-0.9988, 5, 129, 36, 384
-0.998832, 1, 225, 375, 288
-0.998843, 309, 97, 324, 224
-0.998846, 267, 81, 282, 208
-0.998848, 97, 353, 224, 384
-0.998855, 161, 141, 288, 172
-0.998857, 121, 193, 152, 448
-0.998861, 241, 301, 368, 332
-0.998872, 329, 1, 360, 256
-0.998893, 289, 225, 320, 480
-0.99892, 167, 81, 182, 208
-0.998922, 327, 353, 342, 480
-0.998945, 125, 113, 140, 240
-0.998961, 321, 353, 336, 480
-0.998961, 33, 321, 160, 352
-0.99897, 181, 81, 196, 208
-0.998976, 199, 65, 214, 192
-0.998993, 113, 469, 240, 500
-0.998998, 317, 113, 332, 240
-0.998999, 99, 113, 114, 240
-0.999002, 145, 97, 160, 224
-0.999007, 135, 97, 150, 224
-0.999021, 1, 345, 128, 376
-0.999024, 65, 85, 192, 116
-0.999025, 205, 65, 220, 192
-0.999027, 241, 337, 368, 368
-0.999031, 223, 65, 238, 192
-0.999033, 155, 97, 170, 224
-0.999041, 331, 113, 346, 240
-0.999043, 187, 81, 202, 208
-0.999046, 1, 305, 375, 368
-0.99905, 81, 321, 208, 352
-0.999065, 115, 113, 130, 240
-0.99908, 261, 81, 276, 208
-0.999091, 133, 257, 164, 500
-0.999102, 273, 97, 288, 224
-0.999102, 301, 97, 316, 224
-0.99911, 109, 113, 124, 240
-0.99911, 81, 309, 208, 340
-0.999113, 255, 81, 270, 208
-0.999115, 241, 1, 368, 64
-0.999116, 345, 113, 360, 240
-0.999129, 241, 277, 368, 308
-0.999131, 165, 257, 196, 500
-0.999132, 325, 113, 340, 240
-0.999133, 249, 81, 264, 208
-0.999133, 193, 465, 320, 496
-0.999138, 307, 353, 322, 480
-0.999141, 33, 101, 160, 132
-0.999142, 317, 1, 348, 256
-0.999144, 315, 353, 330, 480
-0.99915, 341, 225, 372, 480
-0.999156, 337, 113, 352, 240
-0.999161, 241, 289, 368, 320
-0.999169, 287, 97, 302, 224
-0.999176, 241, 81, 256, 208
-0.999181, 361, 113, 375, 240
-0.999183, 213, 65, 228, 192
-0.999187, 351, 113, 366, 240
-0.999187, 279, 113, 294, 240
-0.999198, 147, 161, 162, 288
-0.999206, 333, 353, 348, 480
-0.999208, 181, 161, 196, 288
-0.999209, 295, 97, 310, 224
-0.999215, 33, 261, 160, 292
-0.999216, 135, 369, 150, 496
-0.999219, 309, 145, 324, 272
-0.99922, 231, 81, 246, 208
-0.999232, 61, 113, 76, 240
-0.999232, 51, 129, 66, 256
-0.999232, 175, 81, 190, 208
-0.999232, 193, 81, 208, 208
-0.99925, 69, 113, 84, 240
-0.999253, 91, 129, 106, 256
-0.999254, 129, 305, 375, 368
-0.999256, 45, 129, 60, 256
-0.999268, 29, 225, 60, 480
-0.99927, 249, 257, 280, 500
-0.999276, 295, 353, 310, 480
-0.999277, 213, 257, 244, 500
-0.999278, 281, 1, 312, 256
-0.99928, 301, 353, 316, 480
-0.999285, 209, 441, 336, 472
-0.999286, 161, 97, 176, 224
-0.999286, 255, 161, 270, 288
-0.999287, 161, 369, 176, 496
-0.999287, 215, 161, 230, 288
-0.999289, 39, 113, 54, 240
-0.999297, 263, 129, 278, 256
-0.999297, 75, 113, 90, 240
-0.9993, 1, 309, 128, 340
-0.999318, 287, 353, 302, 480
-0.99932, 127, 161, 142, 288
-0.999326, 173, 145, 188, 272
-0.999329, 157, 145, 172, 272
-0.99933, 273, 353, 288, 480
-0.999338, 227, 161, 242, 288
-0.999341, 301, 161, 316, 288
-0.999341, 1, 225, 32, 480
-0.999342, 97, 381, 224, 412
-0.999343, 97, 73, 224, 104
-0.999343, 281, 353, 296, 480
-0.999345, 305, 1, 336, 256
-0.999352, 17, 289, 144, 320
-0.999357, 209, 161, 224, 288
-0.999369, 199, 113, 214, 240
-0.999371, 29, 113, 44, 240
-0.999381, 133, 1, 164, 256
-0.999382, 221, 161, 236, 288
-0.999384, 209, 453, 336, 484
-0.999385, 119, 161, 134, 288
-0.999396, 269, 161, 284, 288
-0.999396, 277, 161, 292, 288
-0.999407, 137, 145, 152, 272
-0.999408, 85, 113, 100, 240
-0.99941, 45, 225, 76, 480
-0.999416, 265, 353, 280, 480
-0.999416, 189, 161, 204, 288
-0.999421, 283, 161, 298, 288
-0.999423, 317, 193, 332, 320
-0.999423, 223, 113, 238, 240
-0.999426, 107, 161, 122, 288
-0.999431, 205, 113, 220, 240
-0.999431, 339, 161, 354, 288
-0.999436, 249, 161, 264, 288
-0.999443, 145, 369, 160, 496
-0.999459, 295, 145, 310, 272
-0.999461, 313, 305, 328, 432
-0.999463, 23, 113, 38, 240
-0.999464, 127, 65, 142, 192
-0.999465, 1, 113, 16, 240
-0.999466, 323, 161, 338, 288
-0.999472, 127, 225, 142, 352
-0.999474, 249, 321, 264, 448
-0.999476, 183, 241, 198, 368
-0.999477, 323, 289, 338, 416
-0.999478, 151, 369, 166, 496
-0.99948, 237, 321, 252, 448
-0.999488, 217, 113, 232, 240
-0.999489, 339, 321, 354, 448
-0.999494, 311, 193, 326, 320
-0.999497, 191, 225, 206, 352
-0.999503, 121, 209, 136, 336
-0.999504, 261, 177, 276, 304
-0.999505, 113, 161, 128, 288
-0.999507, 153, 305, 168, 432
-0.999507, 199, 161, 214, 288
-0.999508, 243, 145, 258, 272
-0.999511, 185, 205, 200, 220
-0.999511, 227, 387, 242, 402
-0.999511, 259, 173, 274, 188
-0.999511, 253, 367, 268, 382
-0.999512, 309, 251, 324, 266
-0.999512, 247, 175, 262, 190
-0.999512, 91, 157, 106, 172
-0.999513, 195, 127, 210, 142
-0.999514, 155, 167, 170, 182
-0.999514, 161, 405, 176, 420
-0.999514, 129, 161, 144, 176
-0.999514, 81, 179, 96, 194
-0.999514, 169, 135, 184, 150
-0.999514, 337, 149, 352, 164
-0.999514, 319, 65, 334, 192
-0.999515, 341, 129, 356, 144
-0.999515, 1, 131, 16, 146
-0.999515, 119, 143, 134, 158
-0.999515, 313, 379, 328, 394
-0.999516, 143, 133, 158, 148
-0.999516, 175, 175, 190, 190
-0.999516, 89, 173, 104, 188
-0.999517, 191, 261, 206, 276
-0.999518, 183, 263, 198, 278
-0.999518, 89, 365, 104, 380
-0.999518, 209, 175, 224, 190
-0.999518, 95, 175, 110, 190
-0.999519, 55, 173, 70, 188
-0.999519, 113, 171, 128, 186
-0.99952, 225, 175, 240, 190
-0.99952, 151, 155, 166, 170
-0.99952, 175, 119, 190, 134
-0.99952, 233, 175, 248, 190
-0.99952, 187, 113, 202, 128
-0.99952, 99, 153, 114, 168
-0.999521, 149, 131, 164, 146
-0.999521, 119, 177, 134, 192
-0.999521, 307, 289, 322, 416
-0.999522, 339, 369, 354, 496
-0.999523, 173, 165, 188, 180
-0.999523, 195, 173, 210, 188
-0.999524, 181, 161, 196, 176
-0.999524, 169, 129, 184, 144
-0.999525, 237, 145, 252, 272
-0.999525, 81, 373, 96, 388
-0.999526, 311, 265, 326, 280
-0.999526, 189, 131, 204, 146
-0.999526, 219, 175, 234, 190
-0.999526, 295, 373, 310, 388
-0.999527, 11, 131, 26, 146
-0.999527, 325, 123, 340, 138
-0.999528, 135, 175, 150, 190
-0.999528, 243, 169, 258, 184
-0.999529, 221, 129, 236, 144
-0.99953, 125, 255, 140, 270
-0.999532, 335, 123, 350, 138
-0.999533, 307, 241, 322, 368
-0.999533, 145, 161, 160, 176
-0.999534, 255, 261, 270, 276
-0.999534, 143, 167, 158, 182
-0.999535, 23, 131, 38, 146
-0.999536, 255, 241, 270, 368
-0.999537, 249, 169, 264, 184
-0.999537, 355, 121, 370, 136
-0.999537, 309, 163, 324, 178
-0.999537, 211, 113, 226, 240
-0.999538, 101, 173, 116, 188
-0.999538, 17, 129, 32, 256
-0.999539, 341, 121, 356, 136
-0.999539, 319, 121, 334, 136
-0.99954, 159, 305, 174, 432
-0.99954, 239, 129, 254, 144
-0.99954, 289, 145, 304, 272
-0.999541, 331, 377, 346, 392
-0.999541, 219, 209, 234, 336
-0.999542, 63, 169, 78, 184
-0.999542, 149, 167, 164, 182
-0.999543, 97, 129, 112, 144
-0.999543, 93, 135, 108, 150
-0.999543, 119, 167, 134, 182
-0.999544, 195, 121, 210, 136
-0.999544, 107, 129, 122, 144
-0.999545, 219, 261, 234, 276
-0.999547, 331, 193, 346, 320
-0.999547, 171, 369, 186, 496
-0.999548, 107, 171, 122, 186
-0.999549, 125, 113, 140, 128
-0.99955, 17, 131, 32, 146
-0.999551, 189, 175, 204, 190
-0.999551, 233, 33, 248, 160
-0.999551, 87, 135, 102, 150
-0.999551, 37, 131, 52, 146
-0.999552, 179, 169, 194, 184
-0.999553, 159, 127, 174, 142
-0.999553, 47, 131, 62, 146
-0.999554, 163, 145, 178, 272
-0.999556, 91, 129, 106, 144
-0.999557, 255, 321, 270, 448
-0.999558, 63, 131, 78, 146
-0.999558, 117, 65, 132, 192
-0.999559, 159, 161, 174, 176
-0.999562, 125, 141, 140, 156
-0.999563, 313, 119, 328, 134
-0.999564, 145, 173, 160, 188
-0.999564, 305, 377, 320, 392
-0.999567, 181, 175, 196, 190
-0.999568, 205, 83, 220, 98
-0.999569, 137, 167, 152, 182
-0.99957, 77, 129, 92, 144
-0.999571, 349, 121, 364, 136
-0.999571, 179, 95, 194, 110
-0.999571, 57, 131, 72, 146
-0.999571, 153, 109, 168, 124
-0.999572, 273, 49, 288, 176
-0.999573, 267, 103, 282, 118
-0.999573, 313, 241, 328, 368
-0.999573, 29, 129, 44, 144
-0.999575, 361, 121, 375, 136
-0.999576, 127, 245, 142, 260
-0.999577, 185, 167, 200, 182
-0.999578, 301, 169, 316, 184
-0.999578, 9, 129, 24, 256
-0.999581, 357, 65, 372, 192
-0.999581, 289, 111, 304, 126
-0.999582, 305, 117, 320, 132
-0.999582, 279, 107, 294, 122
-0.999583, 333, 305, 348, 432
-0.999584, 231, 89, 246, 104
-0.999585, 229, 209, 244, 336
-0.999588, 273, 105, 288, 120
-0.999588, 295, 113, 310, 128
-0.999589, 201, 1, 232, 256
-0.99959, 315, 259, 330, 274
-0.999591, 221, 85, 236, 100
-0.999591, 193, 89, 208, 104
-0.999592, 199, 87, 214, 102
-0.999595, 133, 117, 148, 132
-0.999596, 147, 111, 162, 126
-0.999597, 165, 103, 180, 118
-0.999601, 159, 105, 174, 120
-0.999601, 241, 93, 256, 108
-0.999602, 139, 115, 154, 130
-0.999602, 129, 171, 144, 186
-0.999602, 69, 129, 84, 144
-0.999604, 115, 125, 130, 140
-0.999604, 251, 97, 266, 112
-0.999604, 211, 83, 226, 98
-0.999604, 85, 129, 100, 144
-0.999605, 261, 101, 276, 116
-0.99961, 125, 119, 140, 134
-0.999611, 173, 99, 188, 114
-0.999611, 241, 469, 368, 500
-0.999618, 185, 93, 200, 108
-0.999626, 17, 465, 144, 496
-0.999631, 309, 257, 324, 272
-0.999641, 323, 373, 338, 388
-0.999652, 109, 1, 140, 256
-0.999657, 65, 1, 96, 256
-0.999684, 45, 1, 76, 256
-0.999704, 177, 257, 208, 500
-0.999712, 33, 273, 160, 304
-0.999751, 121, 1, 152, 256
-0.999761, 17, 225, 48, 480
-0.999812, 89, 1, 120, 256
-0.999891, 293, 1, 324, 256
-0.999966, 9, 33, 40, 288
-1.00001, 237, 257, 268, 500
-1.00006, 29, 1, 60, 256
-1.0001, 77, 1, 108, 256
-1.00015, 1, 329, 375, 392
-1.00025, 1, 1, 375, 128
-1.00034, 193, 65, 320, 96
-1.00052, 261, 257, 292, 500
-1.00061, 1, 281, 375, 344
-1.00078, 129, 1, 375, 64
-1.00131, 97, 49, 352, 112
-1.0014, 225, 1, 352, 128
-1.00143, 1, 41, 256, 104
-1.00161, 193, 1, 320, 64
-1.00176, 241, 25, 368, 88
-1.00204, 97, 25, 352, 88
-1.00207, 17, 73, 144, 136
-1.00208, 145, 33, 272, 96
-1.00212, 1, 17, 256, 80
-1.00212, 97, 33, 224, 96
-1.00259, 1, 1, 128, 64
-1.00261, 49, 17, 176, 144
-1.00288, 145, 1, 272, 64
-1.00291, 49, 9, 176, 72
-1.00291, 97, 9, 224, 72
-1.00291, 1, 25, 128, 88
-1.00291, 49, 33, 176, 96
-1.00291, 1, 49, 128, 112
-1.00303, 1, 1, 375, 64
-1.00313, 1, 49, 375, 112
-1.00328, 9, 353, 72, 480
-1.00356, 97, 1, 224, 128
-1.00392, 1, 25, 375, 88
-1.00399, 1, 1, 256, 128
-1.0051, 193, 25, 320, 88
-1.00545, 313, 17, 375, 144
-1.00646, 129, 1, 375, 128
-1.00678, 25, 33, 88, 160
-1.0069, 153, 1, 216, 128
-1.00764, 289, 17, 352, 144
-1.00835, 249, 1, 312, 128
-1.01139, 105, 17, 168, 144
-1.01528, 1, 17, 128, 144
-1.01695, 1, 1, 64, 128
-1.01702, 57, 17, 120, 144
-1.01932, 81, 17, 144, 144
