1869
-0.384676, 1, 1, 500, 333
-0.411929, 1, 1, 500, 256
-0.481587, 257, 1, 500, 333
-0.489156, 97, 1, 352, 333
-0.562871, 1, 1, 256, 333
-0.589153, 65, 1, 320, 256
-0.616375, 225, 1, 480, 256
-0.846412, 289, 1, 416, 333
-0.851346, 177, 1, 304, 333
-0.856825, 289, 1, 416, 256
-0.860685, 177, 1, 304, 256
-0.862595, 369, 1, 496, 333
-0.866512, 97, 1, 224, 256
-0.87592, 353, 1, 480, 256
-0.876007, 129, 1, 256, 333
-0.876666, 241, 1, 368, 256
-0.88866, 65, 1, 192, 333
-0.890835, 49, 1, 176, 256
-0.891469, 241, 1, 368, 333
-0.901372, 1, 1, 500, 128
-0.904209, 1, 1, 128, 256
-0.913551, 17, 1, 144, 333
-0.916255, 1, 193, 500, 320
-0.933988, 1, 1, 256, 128
-0.936024, 1, 1, 128, 128
-0.938665, 193, 1, 448, 128
-0.93952, 97, 17, 352, 144
-0.942974, 65, 177, 320, 304
-0.944296, 1, 49, 500, 176
-0.944898, 289, 17, 416, 144
-0.945145, 201, 1, 264, 128
-0.945907, 1, 145, 500, 272
-0.945973, 241, 17, 304, 144
-0.946012, 177, 1, 304, 128
-0.946957, 297, 17, 360, 144
-0.947478, 113, 1, 240, 128
-0.947501, 57, 1, 120, 128
-0.948079, 145, 1, 208, 128
-0.948954, 33, 1, 96, 128
-0.949253, 161, 145, 416, 272
-0.952196, 177, 177, 240, 304
-0.952391, 65, 129, 320, 256
-0.952627, 129, 177, 256, 304
-0.953169, 193, 145, 320, 272
-0.954605, 241, 17, 368, 144
-0.956218, 169, 1, 232, 128
-0.956338, 65, 17, 192, 144
-0.957142, 89, 17, 152, 144
-0.957345, 121, 1, 184, 128
-0.957389, 257, 161, 320, 288
-0.957515, 217, 145, 280, 272
-0.957711, 137, 177, 200, 304
-0.958855, 161, 193, 416, 320
-0.958921, 353, 17, 480, 144
-0.959783, 9, 1, 72, 128
-0.959831, 81, 193, 208, 320
-0.960242, 257, 161, 384, 288
-0.960397, 1, 97, 500, 224
-0.961394, 433, 17, 496, 144
-0.961803, 265, 17, 328, 144
-0.9622, 145, 17, 208, 80
-0.962232, 129, 81, 384, 208
-0.962404, 281, 25, 344, 88
-0.962885, 1, 49, 256, 176
-0.963417, 257, 161, 320, 224
-0.963536, 329, 17, 392, 144
-0.963537, 169, 193, 232, 256
-0.963612, 225, 169, 288, 232
-0.963733, 129, 201, 192, 264
-0.963859, 193, 193, 320, 320
-0.964164, 97, 129, 224, 256
-0.964331, 241, 113, 304, 240
-0.964351, 193, 193, 256, 256
-0.964868, 401, 17, 464, 144
-0.965131, 257, 129, 500, 256
-0.965439, 329, 17, 392, 80
-0.965743, 73, 177, 136, 304
-0.966109, 353, 17, 416, 144
-0.966172, 257, 25, 320, 88
-0.966326, 217, 193, 280, 256
-0.9665, 177, 97, 304, 224
-0.966588, 25, 9, 88, 72
-0.966868, 201, 17, 264, 80
-0.966891, 161, 129, 224, 256
-0.967602, 201, 193, 264, 320
-0.967845, 433, 17, 496, 80
-0.968339, 257, 65, 384, 192
-0.96842, 113, 17, 176, 80
-0.968729, 225, 81, 480, 208
-0.968759, 113, 177, 176, 304
-0.968929, 257, 185, 320, 248
-0.969146, 145, 177, 208, 240
-0.969795, 225, 25, 288, 88
-0.96983, 57, 9, 120, 72
-0.969963, 257, 113, 384, 240
-0.970583, 297, 1, 360, 256
-0.970644, 377, 17, 440, 144
-0.97082, 241, 1, 304, 256
-0.97105, 201, 169, 264, 232
-0.971194, 305, 177, 432, 304
-0.971731, 257, 65, 320, 192
-0.972546, 209, 1, 272, 256
-0.972831, 97, 1, 160, 256
-0.972974, 161, 1, 224, 256
-0.97301, 185, 1, 248, 256
-0.973063, 265, 113, 328, 240
-0.973324, 353, 25, 416, 88
-0.973371, 217, 97, 280, 224
-0.973401, 169, 17, 232, 80
-0.973546, 121, 1, 184, 256
-0.973697, 177, 49, 304, 176
-0.974014, 169, 169, 232, 232
-0.974022, 305, 25, 368, 88
-0.974167, 345, 1, 408, 256
-0.974623, 17, 9, 144, 72
-0.974684, 321, 1, 384, 256
-0.974748, 265, 1, 328, 256
-0.975067, 81, 1, 112, 128
-0.97533, 393, 1, 456, 256
-0.975646, 209, 177, 336, 240
-0.975694, 385, 17, 448, 80
-0.975729, 1, 1, 64, 256
-0.975865, 369, 1, 432, 256
-0.975942, 89, 25, 152, 88
-0.9764, 129, 177, 256, 240
-0.976469, 209, 177, 240, 240
-0.976693, 409, 17, 472, 80
-0.976788, 73, 1, 136, 256
-0.976804, 257, 17, 288, 144
-0.976925, 257, 1, 320, 64
-0.976971, 65, 193, 128, 256
-0.977024, 193, 129, 256, 256
-0.977039, 257, 97, 320, 160
-0.977115, 281, 65, 344, 192
-0.977246, 137, 129, 200, 256
-0.97726, 337, 129, 464, 256
-0.977308, 73, 65, 136, 192
-0.977366, 49, 65, 176, 192
-0.977445, 305, 17, 432, 80
-0.977527, 417, 1, 480, 256
-0.977531, 241, 225, 304, 288
-0.977619, 33, 193, 160, 320
-0.977632, 257, 25, 288, 88
-0.977668, 157, 1, 188, 128
-0.97771, 177, 217, 240, 280
-0.977862, 301, 25, 332, 88
-0.977983, 1, 49, 128, 176
-0.977999, 269, 17, 300, 144
-0.978016, 301, 17, 332, 144
-0.978196, 217, 217, 280, 280
-0.978461, 201, 49, 264, 176
-0.978462, 177, 17, 304, 80
-0.978529, 49, 113, 176, 240
-0.978531, 281, 177, 344, 304
-0.97861, 353, 201, 416, 264
-0.978715, 97, 17, 224, 80
-0.978721, 193, 193, 224, 256
-0.978959, 129, 201, 256, 264
-0.979004, 257, 17, 384, 80
-0.979018, 209, 1, 240, 128
-0.979023, 33, 1, 64, 128
-0.979097, 225, 1, 256, 128
-0.979275, 69, 1, 100, 128
-0.979375, 225, 193, 288, 320
-0.97942, 469, 17, 500, 80
-0.979503, 177, 201, 304, 264
-0.979541, 289, 17, 320, 144
-0.979576, 113, 49, 176, 176
-0.97977, 281, 1, 344, 64
-0.979894, 173, 1, 204, 128
-0.979935, 273, 121, 336, 184
-0.979975, 297, 113, 360, 240
-0.980094, 361, 193, 424, 320
-0.980264, 81, 193, 208, 256
-0.980294, 317, 17, 348, 144
-0.980502, 1, 17, 64, 80
-0.980538, 281, 185, 344, 248
-0.980727, 377, 209, 440, 272
-0.980805, 49, 1, 80, 128
-0.980963, 289, 25, 320, 88
-0.981265, 225, 177, 256, 240
-0.981402, 141, 1, 172, 128
-0.981408, 281, 153, 312, 216
-0.98142, 257, 73, 320, 136
-0.98144, 153, 9, 184, 72
-0.981513, 265, 209, 328, 272
-0.981531, 129, 1, 160, 128
-0.981554, 133, 17, 164, 80
-0.981574, 265, 161, 296, 224
-0.981731, 121, 177, 184, 240
-0.981803, 177, 17, 208, 80
-0.981843, 1, 17, 32, 144
-0.981898, 345, 17, 376, 80
-0.982001, 129, 49, 256, 176
-0.982009, 93, 1, 124, 128
-0.982227, 165, 177, 196, 240
-0.982276, 129, 225, 192, 288
-0.982343, 269, 33, 300, 96
-0.982406, 225, 137, 288, 200
-0.982416, 65, 89, 128, 152
-0.982452, 369, 17, 496, 80
-0.982473, 277, 129, 308, 256
-0.982487, 377, 233, 440, 296
-0.982521, 181, 177, 212, 240
-0.982548, 1, 113, 128, 240
-0.982636, 257, 177, 500, 304
-0.982673, 297, 105, 360, 168
-0.98282, 145, 185, 176, 248
-0.98283, 249, 201, 280, 264
-0.982843, 265, 161, 296, 288
-0.982892, 385, 1, 448, 333
-0.983025, 105, 25, 136, 88
-0.983047, 353, 193, 480, 320
-0.983072, 213, 145, 244, 272
-0.983102, 25, 1, 88, 256
-0.983152, 33, 9, 64, 72
-0.983253, 21, 1, 52, 128
-0.98328, 341, 1, 372, 128
-0.983294, 305, 193, 368, 256
-0.983305, 241, 1, 304, 333
-0.983305, 321, 25, 352, 88
-0.983379, 237, 1, 268, 128
-0.983423, 97, 129, 160, 256
-0.983504, 361, 1, 424, 333
-0.983526, 297, 1, 360, 333
-0.983609, 205, 17, 236, 80
-0.98385, 329, 17, 360, 144
-0.983877, 289, 153, 352, 216
-0.983879, 49, 1, 112, 256
-0.984042, 209, 153, 336, 216
-0.984053, 121, 17, 152, 80
-0.984053, 225, 201, 256, 264
-0.984084, 289, 193, 416, 256
-0.984105, 249, 169, 280, 232
-0.984144, 249, 113, 280, 240
-0.984232, 417, 1, 480, 333
-0.984264, 269, 193, 300, 256
-0.98429, 257, 209, 384, 333
-0.984299, 189, 17, 220, 144
-0.984358, 9, 89, 72, 152
-0.984477, 337, 1, 400, 333
-0.984508, 105, 1, 168, 333
-0.984529, 165, 9, 196, 72
-0.984572, 237, 169, 268, 232
-0.984586, 73, 57, 136, 120
-0.984662, 181, 177, 212, 304
-0.984713, 461, 17, 492, 144
-0.984716, 89, 9, 120, 72
-0.984727, 201, 1, 264, 333
-0.984758, 117, 17, 148, 144
-0.984794, 173, 201, 204, 264
-0.984843, 249, 209, 312, 333
-0.984851, 105, 201, 168, 264
-0.984888, 445, 17, 476, 80
-0.984981, 393, 17, 424, 80
-0.984988, 81, 185, 112, 248
-0.985017, 449, 17, 480, 144
-0.985043, 289, 1, 320, 64
-0.985076, 209, 201, 240, 264
-0.985089, 177, 1, 240, 333
-0.985096, 89, 225, 152, 288
-0.985168, 157, 177, 188, 304
-0.985187, 105, 17, 136, 144
-0.985207, 413, 17, 444, 144
-0.985215, 333, 17, 364, 80
-0.985266, 329, 201, 392, 264
-0.985306, 285, 193, 316, 256
-0.985348, 81, 169, 208, 232
-0.985403, 257, 105, 384, 168
-0.985495, 385, 17, 416, 144
-0.985529, 153, 217, 216, 280
-0.985538, 49, 49, 112, 176
-0.985548, 177, 225, 304, 288
-0.985564, 189, 25, 220, 88
-0.985574, 357, 17, 388, 80
-0.985625, 41, 193, 104, 256
-0.985696, 233, 145, 264, 272
-0.985866, 161, 201, 192, 264
-0.986001, 437, 17, 468, 144
-0.986018, 353, 1, 416, 64
-0.986061, 377, 25, 408, 88
-0.986084, 77, 9, 108, 72
-0.986096, 281, 97, 312, 160
-0.986126, 33, 113, 96, 240
-0.986212, 233, 1, 296, 64
-0.986275, 357, 17, 388, 144
-0.986292, 385, 177, 448, 304
-0.986306, 49, 9, 80, 72
-0.986364, 209, 105, 336, 168
-0.986383, 345, 129, 408, 256
-0.986405, 225, 17, 256, 80
-0.986427, 329, 177, 392, 304
-0.986431, 141, 161, 172, 288
-0.98645, 353, 225, 416, 288
-0.986484, 257, 161, 384, 224
-0.986496, 405, 17, 436, 80
-0.986523, 49, 193, 112, 320
-0.98655, 1, 25, 32, 88
-0.986608, 373, 17, 404, 144
-0.986619, 389, 177, 420, 304
-0.986658, 1, 65, 64, 192
-0.986685, 81, 1, 144, 333
-0.986687, 337, 177, 400, 240
-0.986712, 89, 177, 152, 240
-0.986722, 233, 113, 296, 176
-0.986784, 241, 201, 368, 264
-0.986828, 65, 9, 96, 72
-0.986948, 381, 217, 412, 280
-0.98695, 69, 185, 100, 248
-0.986958, 245, 25, 276, 88
-0.987125, 33, 89, 96, 152
-0.987147, 401, 17, 432, 144
-0.987209, 161, 81, 224, 208
-0.987294, 257, 49, 320, 112
-0.987353, 281, 49, 344, 112
-0.987358, 305, 1, 368, 64
-0.987407, 245, 1, 276, 64
-0.987418, 201, 161, 232, 288
-0.987443, 281, 73, 344, 136
-0.987443, 129, 201, 160, 264
-0.987467, 385, 193, 416, 256
-0.987497, 305, 81, 432, 208
-0.987569, 81, 1, 144, 64
-0.987628, 265, 1, 328, 333
-0.987637, 129, 1, 192, 333
-0.987654, 305, 177, 368, 304
-0.987673, 369, 65, 496, 192
-0.9877, 289, 129, 320, 256
-0.987708, 273, 81, 304, 208
-0.98772, 21, 17, 52, 80
-0.987777, 17, 89, 144, 152
-0.987903, 433, 17, 464, 80
-0.988045, 193, 169, 224, 232
-0.988064, 105, 49, 168, 112
-0.988076, 137, 49, 200, 176
-0.988083, 281, 129, 312, 192
-0.988097, 377, 185, 440, 248
-0.988104, 49, 65, 112, 128
-0.988115, 249, 137, 312, 200
-0.988172, 225, 89, 288, 152
-0.98822, 153, 1, 216, 333
-0.98823, 277, 177, 308, 304
-0.988282, 113, 233, 240, 296
-0.988409, 257, 129, 384, 192
-0.988438, 17, 113, 80, 176
-0.988461, 209, 81, 336, 144
-0.988503, 177, 241, 240, 304
-0.988559, 237, 193, 268, 256
-0.988576, 253, 161, 284, 288
-0.988593, 33, 201, 160, 264
-0.988625, 433, 65, 496, 192
-0.988634, 377, 177, 408, 304
-0.988636, 257, 81, 384, 144
-0.988667, 177, 129, 304, 192
-0.988714, 269, 129, 300, 192
-0.988749, 293, 65, 324, 192
-0.988806, 201, 241, 264, 304
-0.988918, 425, 17, 456, 144
-0.988968, 421, 17, 452, 80
-0.98897, 457, 17, 488, 80
-0.988993, 177, 129, 208, 256
-0.989007, 89, 81, 152, 144
-0.989008, 225, 225, 352, 288
-0.989057, 241, 65, 272, 192
-0.98906, 129, 153, 256, 216
-0.989079, 129, 193, 160, 320
-0.989133, 297, 177, 328, 240
-0.98916, 177, 49, 304, 112
-0.989175, 85, 177, 116, 304
-0.989275, 169, 193, 232, 224
-0.989333, 169, 177, 200, 304
-0.989388, 265, 217, 296, 280
-0.989499, 401, 105, 464, 168
-0.9895, 201, 21, 264, 52
-0.989562, 257, 41, 384, 104
-0.989594, 289, 217, 320, 280
-0.9896, 189, 129, 220, 256
-0.989635, 185, 97, 248, 160
-0.989657, 185, 181, 248, 212
-0.989668, 109, 209, 140, 333
-0.989669, 265, 189, 328, 220
-0.989699, 65, 217, 128, 280
-0.989727, 81, 81, 208, 144
-0.989731, 1, 1, 64, 333
-0.989737, 253, 233, 284, 296
-0.989784, 97, 57, 224, 120
-0.989784, 289, 217, 416, 280
-0.989849, 145, 17, 208, 48
-0.989928, 329, 21, 392, 52
-0.989957, 33, 13, 96, 44
-0.989959, 225, 193, 256, 320
-0.989966, 217, 193, 280, 224
-0.990002, 425, 105, 488, 168
-0.990023, 97, 65, 128, 128
-0.990035, 97, 193, 128, 256
-0.990063, 257, 29, 320, 60
-0.990129, 353, 209, 480, 272
-0.990137, 301, 201, 332, 264
-0.990166, 57, 13, 120, 44
-0.990186, 145, 185, 208, 216
-0.990211, 97, 177, 128, 304
-0.99025, 193, 197, 256, 228
-0.990255, 281, 73, 312, 136
-0.990309, 385, 129, 448, 256
-0.99031, 269, 105, 300, 168
-0.990312, 145, 205, 208, 236
-0.990444, 281, 29, 344, 60
-0.99051, 257, 205, 320, 236
-0.990521, 257, 177, 320, 208
-0.99054, 293, 121, 324, 184
-0.990591, 433, 21, 496, 52
-0.990595, 261, 97, 292, 224
-0.990676, 233, 173, 296, 204
-0.990681, 249, 161, 312, 192
-0.99071, 277, 9, 308, 72
-0.990769, 117, 225, 148, 288
-0.990796, 233, 65, 296, 128
-0.990809, 241, 193, 304, 224
-0.990821, 305, 201, 368, 232
-0.990874, 305, 189, 368, 220
-0.99093, 265, 233, 328, 296
-0.990978, 289, 173, 352, 204
-0.991003, 113, 21, 176, 52
-0.991064, 145, 97, 272, 160
-0.99109, 145, 209, 176, 333
-0.991116, 393, 25, 456, 56
-0.991117, 209, 173, 272, 204
-0.991118, 65, 113, 128, 240
-0.991144, 121, 217, 184, 248
-0.991154, 197, 217, 228, 280
-0.991199, 129, 41, 192, 104
-0.991205, 377, 105, 440, 168
-0.991205, 297, 217, 360, 280
-0.991239, 169, 205, 232, 236
-0.991292, 233, 33, 296, 64
-0.991324, 65, 193, 128, 224
-0.991356, 209, 57, 272, 120
-0.991367, 337, 185, 464, 248
-0.991393, 281, 201, 344, 232
-0.991409, 217, 213, 280, 244
-0.99141, 9, 17, 72, 48
-0.991444, 337, 209, 400, 240
-0.991506, 121, 201, 184, 232
-0.99152, 401, 209, 464, 272
-0.991576, 369, 25, 432, 56
-0.991577, 169, 21, 232, 52
-0.991581, 321, 105, 448, 168
-0.991618, 89, 77, 152, 108
-0.991659, 241, 97, 304, 128
-0.991673, 65, 225, 192, 288
-0.991696, 297, 129, 360, 192
-0.991724, 241, 13, 304, 44
-0.991734, 361, 213, 424, 244
-0.991742, 305, 29, 368, 60
-0.991765, 161, 225, 224, 256
-0.991783, 97, 9, 160, 40
-0.991789, 369, 229, 432, 260
-0.991817, 149, 209, 180, 272
-0.991831, 17, 109, 80, 140
-0.991851, 225, 229, 288, 260
-0.991854, 345, 197, 408, 228
-0.991858, 89, 25, 152, 56
-0.991882, 1, 9, 256, 72
-0.991898, 369, 197, 432, 228
-0.991907, 153, 129, 184, 256
-0.99191, 121, 189, 184, 220
-0.991919, 281, 17, 344, 48
-0.991921, 17, 57, 144, 120
-0.991938, 161, 89, 224, 152
-0.991946, 25, 65, 88, 192
-0.991959, 165, 129, 196, 256
-0.991962, 97, 197, 160, 228
-0.991973, 393, 225, 424, 288
-0.992033, 301, 1, 332, 64
-0.992046, 97, 177, 352, 240
-0.992049, 121, 229, 184, 260
-0.992051, 241, 233, 272, 296
-0.992096, 217, 97, 280, 128
-0.992098, 321, 97, 384, 224
-0.992125, 249, 225, 312, 256
-0.99214, 281, 49, 312, 112
-0.992147, 1, 113, 64, 240
-0.992151, 73, 177, 104, 304
-0.992158, 89, 209, 152, 240
-0.992187, 97, 185, 160, 216
-0.992202, 257, 109, 320, 140
-0.992234, 65, 81, 128, 112
-0.992252, 273, 157, 336, 188
-0.992259, 169, 41, 232, 104
-0.992267, 65, 209, 128, 240
-0.992275, 373, 129, 404, 256
-0.992288, 329, 185, 392, 216
-0.992297, 281, 45, 344, 76
-0.992334, 193, 209, 256, 240
-0.992351, 257, 85, 320, 116
-0.992374, 65, 181, 128, 212
-0.992427, 353, 13, 416, 44
-0.99243, 1, 29, 64, 60
-0.992445, 161, 5, 224, 36
-0.992452, 17, 113, 144, 176
-0.992464, 257, 125, 320, 156
-0.992464, 193, 197, 224, 228
-0.992468, 41, 193, 104, 224
-0.992481, 281, 213, 344, 244
-0.992497, 89, 221, 152, 252
-0.992513, 281, 101, 344, 132
-0.992514, 17, 13, 144, 44
-0.992523, 213, 193, 244, 320
-0.992538, 201, 233, 264, 264
-0.992543, 41, 101, 104, 132
-0.992548, 369, 105, 496, 168
-0.99258, 153, 173, 216, 204
-0.992588, 61, 49, 92, 176
-0.992593, 345, 229, 408, 260
-0.992606, 57, 69, 120, 100
-0.992609, 173, 233, 204, 296
-0.992628, 217, 117, 280, 148
-0.99263, 305, 129, 368, 160
-0.992638, 281, 61, 344, 92
-0.99264, 49, 1, 112, 32
-0.992645, 281, 141, 344, 172
-0.992649, 209, 197, 240, 228
-0.99266, 173, 185, 204, 216
-0.992664, 185, 9, 248, 40
-0.992667, 393, 13, 456, 44
-0.992667, 281, 125, 344, 156
-0.992667, 369, 241, 432, 272
-0.992669, 353, 233, 480, 296
-0.992673, 257, 29, 288, 60
-0.992673, 341, 21, 372, 52
-0.992675, 361, 129, 424, 160
-0.992682, 65, 93, 128, 124
-0.992685, 209, 33, 272, 64
-0.992692, 89, 89, 152, 120
-0.992694, 289, 25, 320, 56
-0.992707, 281, 113, 344, 144
-0.99271, 129, 5, 192, 36
-0.992711, 161, 33, 224, 64
-0.992722, 293, 65, 324, 128
-0.99274, 281, 85, 344, 116
-0.992749, 229, 193, 260, 224
-0.99277, 305, 213, 368, 244
-0.992774, 273, 33, 304, 64
-0.992782, 241, 241, 304, 272
-0.992782, 193, 201, 448, 264
-0.992784, 337, 133, 400, 164
-0.992789, 329, 185, 360, 248
-0.992789, 45, 13, 76, 44
-0.992794, 213, 181, 244, 212
-0.992794, 317, 29, 348, 60
-0.992799, 97, 201, 352, 264
-0.9928, 161, 249, 288, 312
-0.992803, 181, 197, 212, 228
-0.992803, 173, 17, 204, 48
-0.99281, 401, 217, 464, 248
-0.99281, 185, 169, 248, 200
-0.992812, 301, 29, 332, 60
-0.992813, 29, 17, 60, 48
-0.992826, 193, 185, 224, 216
-0.992832, 89, 65, 152, 96
-0.992839, 469, 21, 500, 52
-0.992839, 185, 217, 216, 280
-0.992839, 301, 201, 332, 232
-0.992853, 133, 21, 164, 52
-0.992854, 145, 237, 208, 268
-0.992856, 81, 189, 112, 220
-0.992858, 157, 17, 188, 48
-0.992863, 81, 13, 112, 44
-0.992867, 209, 153, 240, 216
-0.992877, 257, 57, 320, 88
-0.992888, 193, 177, 448, 240
-0.992891, 277, 157, 308, 188
-0.992893, 177, 241, 240, 272
-0.992894, 225, 177, 256, 208
-0.992903, 113, 69, 176, 100
-0.992903, 277, 177, 308, 208
-0.992908, 281, 189, 312, 220
-0.992919, 257, 45, 320, 76
-0.992921, 1, 97, 64, 128
-0.99293, 89, 233, 152, 264
-0.992932, 401, 229, 464, 260
-0.992945, 161, 17, 416, 80
-0.992947, 297, 189, 328, 220
-0.992949, 445, 21, 476, 52
-0.992953, 65, 117, 128, 148
-0.992963, 37, 89, 68, 152
-0.992964, 253, 229, 284, 260
-0.992972, 257, 165, 288, 196
-0.992975, 313, 141, 376, 172
-0.992978, 241, 193, 272, 224
-0.992986, 433, 9, 496, 40
-0.992995, 245, 17, 276, 48
-0.992996, 385, 121, 448, 152
-0.992999, 237, 173, 268, 204
-0.993002, 269, 189, 300, 220
-0.993002, 229, 225, 260, 288
-0.993006, 69, 197, 100, 228
-0.993009, 69, 209, 100, 272
-0.993013, 209, 17, 240, 48
-0.993015, 189, 29, 220, 60
-0.993016, 141, 185, 172, 216
-0.993016, 57, 13, 88, 44
-0.993021, 233, 137, 296, 168
-0.993023, 213, 225, 244, 288
-0.993028, 389, 221, 420, 252
-0.993032, 161, 185, 192, 216
-0.993035, 121, 21, 152, 52
-0.993036, 41, 113, 104, 144
-0.993039, 145, 17, 176, 48
-0.993044, 41, 209, 104, 240
-0.993046, 229, 213, 260, 244
-0.99305, 141, 201, 172, 232
-0.99307, 337, 241, 400, 272
-0.993071, 285, 201, 316, 232
-0.993073, 69, 185, 100, 216
-0.993076, 305, 17, 368, 48
-0.993076, 353, 121, 416, 184
-0.993084, 85, 201, 116, 232
-0.993085, 185, 221, 248, 252
-0.993086, 393, 241, 456, 272
-0.993089, 281, 73, 344, 104
-0.993092, 393, 25, 424, 56
-0.993092, 297, 5, 360, 36
-0.993095, 257, 69, 320, 100
-0.993096, 289, 193, 320, 320
-0.993101, 69, 13, 100, 44
-0.993104, 417, 125, 480, 156
-0.993111, 121, 241, 184, 272
-0.993113, 93, 81, 124, 112
-0.993114, 357, 21, 388, 52
-0.993115, 329, 21, 360, 52
-0.993116, 265, 177, 296, 208
-0.993119, 249, 213, 280, 244
-0.993121, 381, 193, 412, 224
-0.993125, 269, 201, 300, 232
-0.993128, 405, 25, 436, 56
-0.99313, 281, 93, 312, 124
-0.99313, 153, 201, 184, 232
-0.99313, 165, 205, 196, 236
-0.993136, 225, 17, 256, 48
-0.993139, 105, 81, 136, 112
-0.993145, 185, 117, 248, 148
-0.993147, 17, 25, 48, 56
-0.993148, 165, 225, 196, 256
-0.993155, 369, 209, 400, 240
-0.993159, 5, 29, 36, 60
-0.993166, 245, 29, 276, 60
-0.993168, 209, 209, 240, 240
-0.993172, 289, 13, 320, 44
-0.993174, 109, 29, 140, 60
-0.993179, 117, 221, 148, 252
-0.993184, 193, 173, 224, 204
-0.993186, 429, 25, 460, 56
-0.993191, 337, 185, 368, 216
-0.993201, 257, 193, 288, 224
-0.993202, 129, 217, 160, 248
-0.993202, 381, 25, 412, 56
-0.993204, 165, 237, 196, 268
-0.99321, 17, 241, 80, 272
-0.993214, 5, 1, 36, 64
-0.99322, 265, 221, 296, 252
-0.99322, 369, 25, 400, 56
-0.993227, 189, 9, 220, 40
-0.993228, 93, 17, 124, 48
-0.993231, 65, 25, 128, 56
-0.993235, 329, 197, 360, 228
-0.993236, 457, 25, 488, 56
-0.993238, 289, 177, 320, 208
-0.993262, 361, 221, 392, 252
-0.993265, 417, 25, 448, 56
-0.993266, 317, 189, 348, 220
-0.993271, 281, 77, 312, 108
-0.993273, 389, 209, 420, 240
-0.993275, 281, 65, 312, 96
-0.993281, 181, 229, 212, 260
-0.993283, 97, 189, 128, 220
-0.993287, 129, 197, 160, 228
-0.993288, 289, 133, 320, 164
-0.993293, 281, 105, 312, 136
-0.993293, 5, 17, 36, 48
-0.993309, 281, 45, 312, 76
-0.993311, 97, 69, 128, 100
-0.993315, 117, 205, 148, 236
-0.99332, 337, 97, 400, 160
-0.993321, 341, 205, 372, 236
-0.993322, 277, 21, 308, 52
-0.993323, 97, 205, 128, 236
-0.993323, 357, 209, 388, 240
-0.993325, 29, 113, 60, 144
-0.99333, 241, 229, 272, 260
-0.993331, 377, 221, 408, 252
-0.993332, 241, 97, 272, 128
-0.993334, 277, 221, 308, 252
-0.99334, 41, 109, 72, 140
-0.993343, 285, 145, 316, 176
-0.993346, 341, 185, 372, 248
-0.993353, 105, 225, 136, 256
-0.993362, 249, 181, 280, 212
-0.993362, 313, 201, 344, 232
-0.993364, 301, 17, 332, 48
-0.993364, 69, 209, 100, 240
-0.993369, 81, 177, 112, 208
-0.993369, 49, 113, 112, 176
-0.993379, 289, 213, 320, 244
-0.993383, 109, 13, 140, 44
-0.993392, 249, 241, 280, 272
-0.993394, 213, 233, 244, 264
-0.993396, 293, 85, 324, 116
-0.993397, 129, 229, 160, 260
-0.993413, 169, 5, 200, 36
-0.993414, 177, 209, 208, 240
-0.993415, 377, 233, 408, 264
-0.993417, 253, 209, 284, 333
-0.993422, 301, 45, 332, 76
-0.993427, 81, 209, 112, 272
-0.993428, 189, 209, 220, 240
-0.993433, 373, 193, 404, 256
-0.993433, 377, 13, 408, 44
-0.993459, 65, 169, 128, 232
-0.99348, 229, 81, 260, 208
-0.993481, 269, 65, 300, 128
-0.993535, 409, 193, 472, 320
-0.993545, 113, 81, 176, 144
-0.993551, 137, 129, 200, 192
-0.993627, 393, 129, 424, 256
-0.993672, 213, 97, 244, 224
-0.993673, 209, 249, 336, 312
-0.993684, 77, 57, 108, 120
-0.993735, 97, 113, 224, 176
-0.99374, 153, 241, 216, 304
-0.993747, 225, 249, 288, 312
-0.993765, 73, 49, 104, 176
-0.993808, 177, 65, 240, 128
-0.993817, 33, 177, 160, 240
-0.993827, 317, 1, 348, 64
-0.993846, 369, 1, 400, 64
-0.993848, 369, 81, 496, 144
-0.993852, 257, 137, 288, 200
-0.993879, 201, 97, 232, 224
-0.993883, 397, 201, 428, 264
-0.993974, 305, 241, 432, 304
-0.993978, 277, 217, 308, 280
-0.994034, 137, 89, 200, 152
-0.994058, 361, 81, 424, 208
-0.994124, 57, 97, 88, 160
-0.994159, 57, 1, 120, 333
-0.994167, 105, 1, 136, 64
-0.994272, 93, 89, 124, 152
-0.994292, 25, 1, 88, 333
-0.994296, 81, 113, 112, 240
-0.994332, 305, 105, 336, 168
-0.994408, 401, 233, 464, 296
-0.994415, 129, 181, 256, 212
-0.994423, 265, 1, 296, 64
-0.994423, 249, 97, 280, 160
-0.994431, 89, 49, 120, 176
-0.994433, 321, 121, 384, 184
-0.994471, 321, 81, 448, 144
-0.994507, 257, 25, 500, 88
-0.994512, 81, 161, 112, 224
-0.994556, 293, 89, 324, 152
-0.994569, 17, 241, 144, 304
-0.994579, 61, 193, 92, 320
-0.994586, 161, 73, 288, 136
-0.994641, 109, 49, 140, 112
-0.994665, 25, 241, 88, 304
-0.994703, 257, 65, 288, 128
-0.994758, 385, 257, 448, 320
-0.99482, 381, 1, 412, 64
-0.994821, 177, 193, 304, 224
-0.99483, 17, 89, 48, 152
-0.994839, 177, 21, 304, 52
-0.994845, 97, 197, 224, 228
-0.994878, 289, 25, 416, 56
-0.994906, 81, 17, 208, 48
-0.994912, 433, 65, 496, 128
-0.994914, 193, 145, 256, 208
-0.994925, 217, 177, 232, 240
-0.994935, 321, 129, 448, 192
-0.994946, 177, 177, 304, 208
-0.99495, 57, 185, 88, 248
-0.994983, 109, 73, 140, 136
-0.995054, 1, 25, 500, 88
-0.995066, 49, 33, 176, 96
-0.995093, 157, 81, 188, 208
-0.995167, 145, 153, 208, 216
-0.995169, 33, 217, 96, 280
-0.99518, 245, 137, 276, 200
-0.995185, 1, 185, 256, 248
-0.995213, 223, 177, 238, 240
-0.995222, 369, 57, 496, 120
-0.995243, 353, 249, 416, 312
-0.995248, 303, 25, 318, 88
-0.99528, 1, 65, 32, 192
-0.995282, 1, 185, 500, 248
-0.995354, 73, 121, 136, 184
-0.995381, 1, 209, 256, 272
-0.995405, 159, 9, 174, 72
-0.995412, 259, 25, 274, 88
-0.995414, 189, 1, 220, 64
-0.995421, 329, 105, 360, 168
-0.995433, 441, 105, 472, 168
-0.995443, 269, 25, 284, 88
-0.995446, 129, 17, 144, 80
-0.995472, 161, 113, 224, 176
-0.995497, 129, 17, 256, 48
-0.9955, 231, 177, 246, 240
-0.995502, 205, 177, 220, 240
-0.995539, 113, 65, 144, 192
-0.995569, 253, 17, 268, 80
-0.995604, 97, 121, 160, 184
-0.995614, 149, 17, 164, 80
-0.995621, 301, 113, 332, 240
-0.995635, 407, 17, 422, 80
-0.995641, 241, 29, 368, 60
-0.995668, 319, 25, 334, 88
-0.995671, 141, 17, 156, 80
-0.995691, 165, 9, 180, 72
-0.995691, 193, 225, 448, 288
-0.995719, 111, 25, 126, 88
-0.995736, 285, 25, 300, 88
-0.995737, 205, 49, 236, 176
-0.995744, 451, 17, 466, 80
-0.995747, 483, 17, 498, 80
-0.995755, 223, 201, 238, 264
-0.995765, 257, 193, 272, 256
-0.995776, 179, 9, 194, 72
-0.995788, 149, 161, 180, 224
-0.995796, 325, 25, 340, 88
-0.995828, 241, 13, 368, 44
-0.995836, 289, 153, 304, 216
-0.995843, 173, 177, 188, 240
-0.99585, 119, 25, 134, 88
-0.995866, 69, 89, 100, 152
-0.995872, 293, 153, 324, 216
-0.995877, 225, 173, 352, 204
-0.995883, 81, 185, 208, 216
-0.995941, 263, 169, 278, 232
-0.995951, 25, 169, 88, 232
-0.995973, 269, 169, 284, 232
-0.995985, 265, 1, 296, 256
-0.995989, 189, 17, 204, 80
-0.995997, 391, 185, 406, 248
-0.995999, 343, 17, 358, 80
-0.996003, 101, 217, 132, 280
-0.996011, 61, 113, 92, 240
-0.996011, 273, 197, 400, 228
-0.996011, 153, 185, 168, 248
-0.996028, 337, 161, 464, 224
-0.996031, 225, 153, 480, 216
-0.996031, 295, 9, 310, 72
-0.996036, 73, 185, 88, 248
-0.996044, 205, 17, 220, 80
-0.996075, 313, 25, 328, 88
-0.996075, 329, 81, 360, 208
-0.996086, 377, 241, 408, 304
-0.996099, 369, 129, 496, 192
-0.996118, 129, 177, 160, 240
-0.996121, 185, 177, 200, 240
-0.996129, 405, 233, 436, 296
-0.996131, 245, 193, 260, 256
-0.996133, 1, 89, 256, 152
-0.996138, 301, 1, 332, 256
-0.996142, 93, 9, 108, 72
-0.996152, 211, 177, 226, 240
-0.996153, 129, 105, 384, 168
-0.996154, 9, 25, 24, 88
-0.99616, 135, 17, 150, 80
-0.996177, 103, 17, 118, 80
-0.996199, 275, 25, 290, 88
-0.996205, 211, 17, 226, 80
-0.996209, 141, 113, 172, 240
-0.996217, 167, 177, 182, 240
-0.996221, 39, 9, 54, 72
-0.996222, 317, 105, 348, 168
-0.996225, 385, 65, 448, 192
-0.996225, 269, 193, 284, 256
-0.996225, 393, 25, 408, 88
-0.996238, 167, 201, 182, 264
-0.996246, 1, 265, 128, 328
-0.99626, 473, 17, 488, 80
-0.996265, 49, 197, 176, 228
-0.99627, 197, 169, 212, 232
-0.996274, 253, 169, 268, 232
-0.996279, 31, 17, 46, 80
-0.996292, 251, 193, 266, 256
-0.996294, 179, 185, 194, 248
-0.996307, 331, 25, 346, 88
-0.996326, 193, 1, 224, 256
-0.996326, 161, 177, 176, 240
-0.996329, 1, 1, 500, 64
-0.99633, 305, 57, 432, 120
-0.996339, 433, 17, 448, 80
-0.996343, 153, 65, 216, 128
-0.996345, 469, 105, 500, 168
-0.996347, 413, 105, 444, 168
-0.996353, 281, 153, 296, 216
-0.996368, 273, 209, 400, 240
-0.996376, 239, 17, 254, 80
-0.996376, 161, 217, 288, 248
-0.996383, 197, 193, 212, 256
-0.996384, 1, 209, 500, 272
-0.996388, 141, 185, 156, 248
-0.996392, 199, 25, 214, 88
-0.996397, 205, 1, 236, 256
-0.996399, 225, 193, 352, 224
-0.996399, 457, 17, 472, 80
-0.996403, 343, 185, 358, 248
-0.996405, 101, 1, 132, 256
-0.996406, 353, 17, 368, 80
-0.996409, 359, 17, 374, 80
-0.99642, 325, 1, 356, 256
-0.996425, 173, 17, 188, 80
-0.996435, 293, 193, 308, 256
-0.996436, 409, 129, 472, 192
-0.996436, 173, 201, 188, 264
-0.996446, 79, 9, 94, 72
-0.996451, 169, 137, 232, 200
-0.996458, 85, 9, 100, 72
-0.996458, 279, 193, 294, 256
-0.996461, 49, 241, 112, 304
-0.996465, 1, 25, 16, 88
-0.996467, 229, 1, 260, 256
-0.996468, 147, 185, 162, 248
-0.996473, 257, 1, 500, 64
-0.996491, 369, 17, 384, 80
-0.996498, 313, 201, 344, 264
-0.996504, 51, 9, 66, 72
-0.996509, 245, 25, 260, 88
-0.996527, 337, 25, 464, 56
-0.996538, 245, 169, 260, 232
-0.996542, 337, 1, 368, 256
-0.996544, 313, 1, 344, 256
-0.996548, 1, 89, 32, 152
-0.996548, 337, 17, 352, 80
-0.996551, 237, 177, 252, 240
-0.996563, 181, 1, 212, 256
-0.99657, 263, 201, 278, 264
-0.996603, 237, 201, 252, 264
-0.996617, 189, 201, 204, 264
-0.996623, 301, 185, 316, 248
-0.996641, 57, 9, 72, 72
-0.996658, 341, 97, 372, 224
-0.99666, 229, 201, 244, 264
-0.996665, 73, 9, 88, 72
-0.996678, 383, 201, 398, 264
-0.996679, 401, 209, 432, 333
-0.996683, 45, 9, 60, 72
-0.996687, 389, 209, 404, 272
-0.996689, 21, 25, 36, 88
-0.996694, 65, 129, 320, 192
-0.996701, 225, 233, 352, 264
-0.996702, 249, 1, 280, 256
-0.996705, 217, 1, 248, 256
-0.996708, 387, 17, 402, 80
-0.996709, 217, 209, 232, 272
-0.996717, 63, 9, 78, 72
-0.996723, 381, 25, 396, 88
-0.996723, 287, 129, 302, 192
-0.996727, 395, 209, 410, 272
-0.996764, 9, 1, 40, 256
-0.996765, 95, 185, 110, 248
-0.996773, 169, 1, 200, 256
-0.996787, 463, 25, 478, 88
-0.996788, 145, 49, 176, 176
-0.996789, 209, 209, 336, 240
-0.996797, 373, 1, 404, 256
-0.996798, 161, 229, 288, 260
-0.996803, 211, 201, 226, 264
-0.99681, 15, 25, 30, 88
-0.996815, 401, 17, 416, 80
-0.996816, 49, 209, 176, 240
-0.996817, 349, 1, 380, 256
-0.996831, 219, 17, 234, 80
-0.996833, 313, 97, 344, 224
-0.996838, 289, 1, 320, 256
-0.996844, 183, 209, 198, 272
-0.996845, 153, 1, 184, 256
-0.996845, 433, 1, 464, 256
-0.996846, 241, 161, 368, 192
-0.996865, 121, 217, 136, 280
-0.996873, 393, 1, 424, 256
-0.996874, 97, 233, 352, 296
-0.996877, 273, 185, 400, 216
-0.996878, 89, 1, 120, 256
-0.99689, 301, 161, 316, 224
-0.996898, 225, 105, 480, 168
-0.996908, 17, 65, 80, 128
-0.996909, 439, 17, 454, 80
-0.996915, 401, 185, 464, 248
-0.996917, 169, 49, 200, 176
-0.996917, 295, 153, 310, 216
-0.996918, 405, 1, 436, 256
-0.996926, 137, 1, 168, 256
-0.99694, 97, 153, 352, 216
-0.99694, 225, 129, 480, 192
-0.996943, 433, 129, 496, 192
-0.996944, 117, 1, 148, 256
-0.996948, 255, 233, 270, 296
-0.996953, 229, 17, 244, 80
-0.99696, 21, 1, 52, 256
-0.996971, 273, 221, 400, 252
-0.996981, 269, 217, 284, 280
-0.99699, 461, 1, 492, 256
-0.996995, 285, 193, 300, 256
-0.997001, 49, 41, 112, 104
-0.997002, 29, 65, 60, 192
-0.997007, 245, 225, 260, 288
-0.997029, 65, 57, 320, 120
-0.997043, 301, 137, 316, 200
-0.997047, 413, 193, 444, 320
-0.997051, 421, 1, 452, 256
-0.997079, 191, 177, 206, 240
-0.997082, 25, 265, 88, 328
-0.997086, 377, 137, 440, 200
-0.997094, 81, 5, 208, 36
-0.997097, 375, 25, 390, 88
-0.997101, 361, 1, 392, 256
-0.997104, 293, 41, 308, 104
-0.997104, 433, 129, 496, 256
-0.997136, 275, 161, 290, 224
-0.997137, 413, 17, 428, 80
-0.997139, 301, 177, 332, 304
-0.997156, 321, 229, 448, 260
-0.997171, 107, 57, 122, 120
-0.997173, 365, 193, 396, 320
-0.997181, 177, 225, 192, 288
-0.997181, 321, 209, 448, 240
-0.997191, 423, 25, 438, 88
-0.997198, 117, 161, 148, 288
-0.997213, 289, 13, 416, 44
-0.997227, 295, 113, 310, 176
-0.99723, 305, 81, 368, 144
-0.997234, 445, 1, 476, 256
-0.997236, 79, 185, 94, 248
-0.997236, 101, 185, 116, 248
-0.997246, 425, 233, 488, 296
-0.99725, 65, 257, 192, 320
-0.997286, 1, 225, 64, 288
-0.99729, 209, 97, 336, 128
-0.997294, 129, 145, 160, 272
-0.997301, 133, 49, 164, 176
-0.997309, 101, 129, 132, 256
-0.997314, 113, 209, 240, 240
-0.997319, 177, 165, 304, 196
-0.997327, 285, 217, 300, 280
-0.997336, 237, 193, 268, 320
-0.997363, 393, 81, 424, 208
-0.997383, 445, 17, 460, 80
-0.997387, 337, 193, 464, 224
-0.997394, 277, 1, 308, 256
-0.9974, 383, 225, 398, 288
-0.9974, 265, 209, 296, 333
-0.997485, 17, 113, 144, 144
-0.997516, 129, 241, 256, 272
-0.997534, 217, 49, 248, 176
-0.997535, 289, 137, 416, 168
-0.997543, 353, 257, 480, 320
-0.99756, 81, 229, 208, 260
-0.997574, 257, 121, 384, 152
-0.997588, 161, 205, 288, 236
-0.997595, 33, 1, 64, 256
-0.997619, 205, 193, 220, 224
-0.997629, 1, 105, 500, 168
-0.997639, 311, 197, 326, 228
-0.997663, 303, 29, 318, 60
-0.997678, 177, 33, 304, 64
-0.997685, 337, 13, 464, 44
-0.997696, 1, 25, 128, 56
-0.997703, 341, 181, 356, 212
-0.997718, 409, 129, 472, 256
-0.997748, 65, 33, 320, 96
-0.997749, 223, 201, 238, 232
-0.997754, 255, 229, 270, 260
-0.997764, 189, 81, 220, 208
-0.997767, 243, 193, 258, 224
-0.997772, 253, 21, 268, 52
-0.997773, 273, 233, 400, 264
-0.99779, 81, 77, 208, 108
-0.9978, 215, 189, 230, 220
-0.997814, 281, 189, 296, 220
-0.997814, 329, 177, 360, 304
-0.997816, 75, 185, 90, 216
-0.997827, 357, 113, 388, 240
-0.99785, 285, 29, 300, 60
-0.997862, 225, 221, 352, 252
-0.997863, 35, 17, 50, 48
-0.997867, 319, 29, 334, 60
-0.997873, 193, 189, 208, 220
-0.997875, 269, 29, 284, 60
-0.997884, 49, 97, 80, 224
-0.997898, 113, 257, 240, 320
-0.997907, 369, 213, 496, 244
-0.997911, 209, 81, 336, 112
-0.997914, 257, 85, 384, 116
-0.997923, 185, 181, 200, 212
-0.997924, 97, 189, 112, 220
-0.997936, 257, 45, 384, 76
-0.997939, 97, 249, 160, 312
-0.997949, 49, 13, 64, 44
-0.99795, 451, 21, 466, 52
-0.997965, 205, 181, 220, 212
-0.997967, 147, 21, 162, 52
-0.997976, 27, 25, 42, 56
-0.997977, 261, 29, 276, 60
-0.997979, 393, 81, 456, 144
-0.99798, 345, 21, 360, 52
-0.997988, 325, 29, 340, 60
-0.997993, 209, 57, 336, 88
-0.997997, 209, 125, 336, 156
-0.998004, 65, 145, 192, 208
-0.998007, 287, 149, 302, 180
-0.998011, 393, 189, 408, 220
-0.998019, 159, 17, 174, 48
-0.998021, 1, 209, 128, 240
-0.998022, 95, 13, 110, 44
-0.998026, 225, 177, 240, 208
-0.998029, 353, 129, 480, 160
-0.998029, 133, 21, 148, 52
-0.998031, 181, 17, 196, 48
-0.998041, 289, 97, 416, 128
-0.998042, 41, 13, 56, 44
-0.998042, 295, 17, 310, 48
-0.998052, 257, 65, 384, 96
-0.998052, 293, 201, 308, 232
-0.99806, 209, 69, 336, 100
-0.998061, 209, 21, 224, 52
-0.998063, 285, 201, 300, 232
-0.99807, 281, 173, 296, 204
-0.998073, 129, 169, 256, 200
-0.99808, 231, 193, 246, 224
-0.998082, 485, 21, 500, 52
-0.998085, 209, 45, 336, 76
-0.998087, 301, 189, 316, 220
-0.998088, 393, 25, 408, 56
-0.99811, 199, 193, 214, 224
-0.99811, 259, 193, 274, 224
-0.99812, 215, 201, 230, 232
-0.99812, 257, 213, 272, 244
-0.99812, 99, 77, 114, 108
-0.998123, 249, 173, 264, 204
-0.99813, 139, 21, 154, 52
-0.998133, 101, 65, 132, 192
-0.998133, 177, 9, 304, 40
-0.998133, 173, 17, 188, 48
-0.998136, 1, 197, 128, 228
-0.99814, 147, 185, 162, 216
-0.99814, 121, 221, 136, 252
-0.998142, 123, 25, 138, 56
-0.998142, 177, 113, 304, 144
-0.998149, 253, 33, 268, 64
-0.998156, 209, 137, 336, 168
-0.998159, 359, 21, 374, 52
-0.99816, 279, 33, 294, 64
-0.998161, 329, 225, 392, 288
-0.998162, 193, 25, 208, 56
-0.998168, 305, 201, 320, 232
-0.998183, 289, 173, 416, 204
-0.998184, 9, 29, 24, 60
-0.998185, 275, 189, 290, 220
-0.998187, 457, 21, 472, 52
-0.998189, 313, 49, 376, 112
-0.998194, 239, 173, 254, 204
-0.998195, 215, 177, 230, 208
-0.998199, 239, 17, 254, 48
-0.998199, 161, 201, 176, 232
-0.998206, 185, 193, 200, 224
-0.998206, 193, 177, 208, 208
-0.998209, 301, 169, 316, 200
-0.998209, 167, 17, 182, 48
-0.998221, 291, 177, 306, 208
-0.998222, 97, 113, 224, 144
-0.998224, 1, 101, 128, 132
-0.998224, 1, 153, 128, 216
-0.998229, 353, 21, 368, 52
-0.998231, 55, 13, 70, 44
-0.998233, 89, 13, 104, 44
-0.998237, 343, 197, 358, 228
-0.998244, 289, 109, 416, 140
-0.998251, 339, 21, 354, 52
-0.998252, 371, 25, 386, 56
-0.998254, 33, 229, 160, 260
-0.998259, 83, 13, 98, 44
-0.998259, 253, 193, 268, 224
-0.998259, 141, 197, 156, 228
-0.998261, 225, 213, 240, 244
-0.998267, 187, 17, 202, 48
-0.998274, 107, 197, 122, 228
-0.998277, 225, 233, 240, 264
-0.998281, 171, 205, 186, 236
-0.998285, 21, 33, 36, 64
-0.998289, 311, 33, 326, 64
-0.998295, 387, 25, 402, 56
-0.998298, 69, 13, 84, 44
-0.998299, 105, 81, 120, 112
-0.998307, 49, 89, 176, 120
-0.998309, 317, 201, 332, 232
-0.998312, 113, 29, 240, 60
-0.998313, 107, 25, 122, 56
-0.998323, 77, 13, 92, 44
-0.998329, 331, 29, 346, 60
-0.998331, 249, 9, 264, 40
-0.998332, 405, 21, 420, 52
-0.998334, 279, 157, 294, 188
-0.998334, 177, 185, 192, 216
-0.998337, 147, 201, 162, 232
-0.998338, 245, 205, 276, 220
-0.998338, 281, 69, 312, 84
-0.998338, 301, 217, 332, 232
-0.998338, 153, 17, 168, 48
-0.998339, 21, 115, 52, 130
-0.998339, 289, 23, 320, 38
-0.998339, 261, 167, 292, 182
-0.99834, 237, 185, 268, 200
-0.99834, 149, 217, 180, 232
-0.998341, 381, 195, 412, 210
-0.998342, 241, 95, 272, 110
-0.998342, 277, 233, 308, 248
-0.998343, 337, 203, 368, 218
-0.998343, 261, 239, 292, 254
-0.998346, 1, 73, 128, 104
-0.998347, 101, 17, 116, 48
-0.998347, 251, 209, 266, 240
-0.998347, 233, 177, 248, 208
-0.998348, 205, 179, 236, 194
-0.998349, 475, 21, 490, 52
-0.998349, 325, 191, 356, 206
-0.99835, 277, 163, 308, 178
-0.99835, 63, 13, 78, 44
-0.998351, 141, 191, 172, 206
-0.998352, 297, 191, 328, 206
-0.998353, 137, 209, 168, 224
-0.998353, 69, 209, 100, 224
-0.998354, 177, 197, 192, 228
-0.998355, 457, 25, 488, 40
-0.998355, 281, 39, 312, 54
-0.998355, 275, 177, 290, 208
-0.998356, 117, 215, 148, 230
-0.998357, 285, 149, 316, 164
-0.998357, 381, 201, 412, 216
-0.998358, 389, 227, 420, 242
-0.998358, 113, 231, 144, 246
-0.998359, 225, 21, 256, 36
-0.998359, 245, 33, 276, 48
-0.998359, 373, 215, 404, 230
-0.99836, 173, 181, 204, 196
-0.99836, 277, 177, 308, 192
-0.998361, 129, 223, 160, 238
-0.998362, 165, 225, 196, 240
-0.998362, 379, 201, 394, 232
-0.998363, 97, 201, 128, 216
-0.998363, 105, 27, 136, 42
-0.998365, 421, 25, 452, 40
-0.998365, 385, 213, 416, 228
-0.998365, 209, 185, 240, 200
-0.998366, 277, 195, 308, 210
-0.998366, 337, 183, 368, 198
-0.998367, 225, 185, 256, 200
-0.998367, 89, 21, 120, 36
-0.998369, 337, 193, 368, 208
-0.998369, 301, 199, 332, 214
-0.998369, 377, 29, 408, 44
-0.99837, 341, 49, 372, 176
-0.998371, 173, 239, 204, 254
-0.998371, 189, 31, 220, 46
-0.998372, 69, 203, 100, 218
-0.998373, 109, 237, 140, 252
-0.998374, 341, 145, 372, 272
-0.998375, 245, 25, 276, 40
-0.998375, 261, 225, 276, 256
-0.998376, 109, 19, 140, 34
-0.998376, 217, 179, 248, 194
-0.998378, 69, 197, 100, 212
-0.99838, 149, 209, 180, 224
-0.998381, 141, 185, 172, 200
-0.998381, 257, 189, 288, 204
-0.998382, 249, 171, 280, 186
-0.998383, 281, 95, 312, 110
-0.998383, 105, 73, 136, 88
-0.998384, 73, 185, 104, 200
-0.998384, 189, 17, 220, 32
-0.998385, 97, 83, 128, 98
-0.998385, 193, 181, 224, 196
-0.998386, 145, 197, 176, 212
-0.998386, 249, 195, 280, 210
-0.998387, 225, 203, 256, 218
-0.998387, 293, 189, 308, 220
-0.998388, 433, 27, 464, 42
-0.998389, 117, 223, 148, 238
-0.998392, 185, 25, 216, 40
-0.998393, 175, 237, 190, 268
-0.998394, 301, 211, 332, 226
-0.998394, 169, 209, 200, 224
-0.998396, 77, 1, 108, 256
-0.998396, 173, 187, 204, 202
-0.998397, 265, 231, 296, 246
-0.998397, 1, 31, 32, 46
-0.998398, 13, 27, 44, 42
-0.998399, 309, 185, 324, 216
-0.9984, 153, 185, 184, 200
-0.9984, 265, 225, 296, 240
-0.998403, 277, 157, 308, 172
-0.998404, 237, 175, 268, 190
-0.998405, 229, 213, 260, 228
-0.998406, 217, 211, 248, 226
-0.998406, 171, 181, 186, 212
-0.998407, 97, 205, 112, 236
-0.998407, 49, 49, 176, 80
-0.998407, 255, 93, 270, 124
-0.998409, 281, 209, 312, 224
-0.998409, 369, 93, 496, 124
-0.99841, 405, 25, 436, 40
-0.998411, 81, 199, 112, 214
-0.998412, 117, 25, 148, 40
-0.998413, 245, 217, 260, 248
-0.998414, 199, 29, 214, 60
-0.998415, 85, 209, 116, 224
-0.998416, 209, 21, 240, 36
-0.998418, 289, 217, 320, 232
-0.998419, 65, 13, 96, 28
-0.99842, 145, 125, 272, 156
-0.998421, 281, 189, 312, 204
-0.998421, 269, 33, 300, 48
-0.998421, 369, 117, 496, 148
-0.998422, 141, 23, 172, 38
-0.998423, 117, 25, 132, 56
-0.998424, 187, 229, 202, 260
-0.998425, 209, 205, 240, 220
-0.998425, 81, 193, 112, 208
-0.998425, 197, 23, 228, 38
-0.998426, 357, 25, 388, 40
-0.998426, 69, 191, 100, 206
-0.998427, 221, 235, 252, 250
-0.998427, 145, 19, 208, 34
-0.998429, 245, 211, 276, 226
-0.998429, 245, 233, 276, 248
-0.998431, 155, 205, 170, 236
-0.998433, 167, 225, 182, 256
-0.998435, 305, 121, 432, 152
-0.998435, 381, 233, 396, 264
-0.998435, 437, 25, 452, 56
-0.998437, 301, 33, 332, 48
-0.99844, 1, 25, 16, 56
-0.99844, 193, 201, 208, 232
-0.99844, 399, 25, 414, 56
-0.998441, 189, 189, 220, 204
-0.998442, 291, 165, 306, 196
-0.998444, 277, 183, 308, 198
-0.998445, 329, 25, 392, 40
-0.998446, 25, 27, 56, 42
-0.998447, 229, 193, 260, 208
-0.99845, 129, 81, 384, 144
-0.99845, 111, 81, 126, 112
-0.998456, 269, 165, 284, 196
-0.998457, 75, 197, 90, 228
-0.99846, 393, 25, 424, 40
-0.998461, 321, 29, 352, 44
-0.998461, 177, 193, 208, 208
-0.998463, 301, 205, 332, 220
-0.998464, 177, 197, 240, 212
-0.998469, 161, 203, 192, 218
-0.998469, 41, 15, 104, 30
-0.998471, 289, 199, 320, 214
-0.998473, 17, 185, 144, 216
-0.998475, 45, 15, 76, 30
-0.998477, 269, 189, 300, 204
-0.99848, 189, 201, 220, 216
-0.998485, 169, 19, 200, 34
-0.998486, 81, 241, 208, 272
-0.998488, 145, 203, 176, 218
-0.998491, 289, 29, 320, 44
-0.998493, 157, 19, 188, 34
-0.998493, 469, 65, 500, 192
-0.998494, 81, 15, 112, 30
-0.998495, 209, 191, 240, 206
-0.998495, 433, 25, 496, 40
-0.998497, 129, 23, 160, 38
-0.998499, 173, 199, 204, 214
-0.9985, 13, 65, 44, 192
-0.998504, 445, 23, 476, 38
-0.998504, 33, 19, 64, 34
-0.998505, 209, 197, 240, 212
-0.998505, 153, 199, 216, 214
-0.998506, 241, 33, 304, 48
-0.998508, 177, 203, 240, 218
-0.998512, 469, 25, 500, 40
-0.998526, 161, 57, 416, 120
-0.998527, 257, 189, 320, 204
-0.998529, 281, 31, 344, 46
-0.998531, 145, 89, 272, 120
-0.998532, 409, 65, 472, 192
-0.998538, 137, 187, 200, 202
-0.998538, 185, 189, 248, 204
-0.998541, 129, 203, 192, 218
-0.998548, 225, 193, 288, 208
-0.998549, 257, 33, 288, 48
-0.99855, 193, 21, 256, 36
-0.998552, 129, 5, 256, 36
-0.998556, 113, 23, 176, 38
-0.99856, 257, 167, 320, 182
-0.99856, 341, 23, 372, 38
-0.99857, 169, 181, 232, 196
-0.99857, 265, 195, 328, 210
-0.998573, 241, 211, 304, 226
-0.998574, 393, 27, 456, 42
-0.998578, 1, 161, 256, 224
-0.998578, 161, 191, 224, 206
-0.99858, 153, 205, 216, 220
-0.998584, 457, 81, 488, 208
-0.998584, 81, 65, 208, 96
-0.998588, 201, 195, 264, 210
-0.998589, 97, 17, 160, 32
-0.99859, 305, 189, 368, 204
-0.99859, 305, 199, 368, 214
-0.998594, 369, 229, 496, 260
-0.998594, 265, 161, 328, 176
-0.998595, 297, 205, 360, 220
-0.998596, 217, 211, 280, 226
-0.998598, 193, 179, 256, 194
-0.998599, 1, 233, 256, 296
-0.998601, 113, 223, 176, 238
-0.998601, 321, 241, 448, 272
-0.998602, 1, 23, 64, 38
-0.998604, 209, 187, 272, 202
-0.998605, 201, 29, 264, 44
-0.998605, 345, 209, 408, 224
-0.998606, 257, 99, 320, 114
-0.998606, 217, 233, 280, 248
-0.998607, 233, 173, 296, 188
-0.998608, 65, 195, 128, 210
-0.998608, 201, 205, 264, 220
-0.998615, 265, 207, 328, 222
-0.998615, 249, 201, 312, 216
-0.998616, 25, 23, 88, 38
-0.99862, 89, 215, 152, 230
-0.998621, 305, 211, 368, 226
-0.998622, 257, 233, 320, 248
-0.998622, 249, 183, 312, 198
-0.998624, 353, 29, 416, 44
-0.998626, 257, 149, 384, 180
-0.998627, 137, 193, 200, 208
-0.998628, 193, 211, 256, 226
-0.998631, 65, 21, 128, 36
-0.998632, 189, 195, 220, 210
-0.998633, 369, 201, 432, 216
-0.998633, 65, 15, 128, 30
-0.998633, 257, 27, 320, 42
-0.998634, 177, 241, 304, 272
-0.998634, 129, 213, 192, 228
-0.998635, 265, 215, 328, 230
-0.998635, 297, 25, 360, 40
-0.998635, 161, 211, 224, 226
-0.998637, 345, 215, 408, 230
-0.998639, 97, 85, 160, 100
-0.99864, 89, 27, 152, 42
-0.998641, 41, 191, 104, 206
-0.998641, 353, 19, 416, 34
-0.998641, 17, 29, 80, 44
-0.998641, 65, 201, 128, 216
-0.998642, 289, 183, 352, 198
-0.998643, 65, 189, 128, 204
-0.998643, 257, 91, 320, 106
-0.998646, 217, 239, 280, 254
-0.998649, 169, 21, 232, 36
-0.99865, 369, 237, 432, 252
-0.998651, 305, 265, 432, 328
-0.998651, 257, 227, 320, 242
-0.998653, 9, 115, 72, 130
-0.998653, 225, 217, 288, 232
-0.998654, 409, 21, 472, 36
-0.998654, 305, 217, 368, 232
-0.998657, 225, 179, 288, 194
-0.998658, 361, 243, 424, 258
-0.998661, 73, 77, 136, 92
-0.998661, 17, 61, 144, 92
-0.998662, 369, 213, 432, 228
-0.998662, 105, 201, 168, 216
-0.998663, 345, 199, 408, 214
-0.998663, 297, 101, 360, 116
-0.998664, 233, 27, 296, 42
-0.998666, 217, 227, 280, 242
-0.998666, 297, 19, 360, 34
-0.998668, 257, 111, 320, 126
-0.998669, 121, 229, 184, 244
-0.99867, 145, 181, 208, 196
-0.99867, 257, 133, 320, 148
-0.99867, 169, 221, 232, 236
-0.998671, 137, 221, 200, 236
-0.998671, 89, 209, 152, 224
-0.998671, 89, 223, 152, 238
-0.998673, 361, 227, 424, 242
-0.998673, 65, 213, 128, 228
-0.998673, 241, 39, 304, 54
-0.998673, 177, 235, 240, 250
-0.998674, 273, 201, 336, 216
-0.998674, 217, 95, 280, 110
-0.998675, 65, 207, 128, 222
-0.998676, 401, 205, 464, 220
-0.998676, 97, 195, 160, 210
-0.998676, 177, 273, 304, 333
-0.998676, 337, 237, 400, 252
-0.998676, 161, 13, 224, 28
-0.998676, 369, 207, 432, 222
-0.998677, 65, 83, 128, 98
-0.998677, 145, 25, 208, 40
-0.998678, 313, 31, 376, 46
-0.998679, 121, 235, 184, 250
-0.998679, 289, 175, 352, 190
-0.99868, 241, 239, 304, 254
-0.99868, 185, 15, 248, 30
-0.99868, 241, 117, 304, 132
-0.99868, 329, 189, 392, 204
-0.998681, 281, 95, 344, 110
-0.998681, 105, 79, 168, 94
-0.998681, 241, 139, 304, 154
-0.998683, 89, 233, 152, 248
-0.998684, 217, 35, 280, 50
-0.998685, 257, 221, 320, 236
-0.998685, 17, 125, 144, 156
-0.998686, 281, 133, 344, 148
-0.998687, 345, 221, 408, 236
-0.998687, 433, 19, 496, 34
-0.99869, 33, 113, 96, 128
-0.99869, 321, 205, 384, 220
-0.99869, 257, 177, 320, 192
-0.998691, 281, 47, 344, 62
-0.998691, 225, 199, 288, 214
-0.998694, 129, 97, 160, 224
-0.998713, 413, 113, 444, 240
-0.998728, 25, 193, 88, 320
-0.998764, 49, 29, 176, 60
-0.99877, 45, 1, 76, 256
-0.998799, 129, 57, 256, 88
-0.998815, 177, 253, 304, 284
-0.998818, 97, 1, 112, 128
-0.998818, 33, 245, 160, 276
-0.998833, 285, 17, 300, 144
-0.998834, 425, 81, 456, 208
-0.998842, 225, 249, 480, 312
-0.998858, 289, 161, 416, 192
-0.998883, 303, 17, 318, 144
-0.99889, 243, 1, 258, 128
-0.998895, 177, 153, 304, 184
-0.998899, 61, 1, 92, 256
-0.998903, 97, 125, 224, 156
-0.998909, 91, 1, 106, 128
-0.998913, 81, 173, 208, 204
-0.998922, 211, 1, 226, 128
-0.998925, 35, 1, 50, 128
-0.998928, 49, 49, 80, 176
-0.998928, 159, 1, 174, 128
-0.998932, 369, 249, 496, 280
-0.998937, 161, 101, 288, 132
-0.998941, 185, 1, 200, 128
-0.998954, 83, 1, 98, 128
-0.998974, 73, 1, 88, 128
-0.998992, 257, 73, 500, 136
-0.999016, 369, 141, 496, 172
-0.999021, 255, 17, 270, 144
-0.999022, 11, 17, 26, 144
-0.999022, 205, 1, 220, 128
-0.999023, 261, 17, 276, 144
-0.999024, 1, 89, 128, 120
-0.999026, 1, 17, 16, 144
-0.999031, 353, 1, 368, 128
-0.999036, 21, 17, 36, 144
-0.999036, 377, 81, 408, 208
-0.999041, 317, 17, 332, 144
-0.999048, 219, 1, 234, 128
-0.999054, 47, 1, 62, 128
-0.999055, 141, 1, 156, 128
-0.999055, 257, 1, 384, 32
-0.999058, 309, 17, 324, 144
-0.999067, 229, 1, 244, 128
-0.999069, 33, 1, 160, 32
-0.999073, 41, 1, 56, 128
-0.999075, 167, 1, 182, 128
-0.999075, 235, 1, 250, 128
-0.999086, 61, 1, 76, 128
-0.999089, 103, 1, 118, 128
-0.999093, 175, 1, 190, 128
-0.999095, 269, 17, 284, 144
-0.999101, 173, 177, 188, 304
-0.999106, 337, 181, 464, 212
-0.999106, 129, 17, 144, 144
-0.999107, 327, 17, 342, 144
-0.999112, 49, 101, 176, 132
-0.999117, 337, 17, 352, 144
-0.999121, 279, 17, 294, 144
-0.999123, 217, 145, 232, 272
-0.999124, 271, 145, 286, 272
-0.999131, 129, 257, 384, 320
-0.999133, 347, 1, 362, 128
-0.99914, 55, 1, 70, 128
-0.999144, 115, 17, 130, 144
-0.999146, 135, 1, 150, 128
-0.999148, 225, 109, 352, 140
-0.999162, 67, 1, 82, 128
-0.999168, 123, 17, 138, 144
-0.999175, 475, 17, 490, 144
-0.99918, 249, 17, 264, 144
-0.999184, 153, 1, 168, 128
-0.999185, 199, 17, 214, 144
-0.999186, 453, 1, 468, 128
-0.999194, 295, 1, 310, 128
-0.999196, 261, 145, 276, 272
-0.999198, 29, 1, 44, 128
-0.999199, 485, 17, 500, 144
-0.999207, 147, 17, 162, 144
-0.999212, 109, 17, 124, 144
-0.99922, 241, 273, 368, 333
-0.99922, 289, 129, 304, 256
-0.999226, 193, 17, 208, 144
-0.999226, 223, 145, 238, 272
-0.99923, 97, 89, 224, 120
-0.999231, 97, 45, 224, 76
-0.999235, 393, 17, 408, 144
-0.999238, 463, 17, 478, 144
-0.999241, 179, 177, 194, 304
-0.999245, 255, 113, 270, 240
-0.999246, 383, 17, 398, 144
-0.999259, 229, 145, 244, 272
-0.999267, 399, 17, 414, 144
-0.999268, 405, 17, 420, 144
-0.999281, 123, 209, 138, 333
-0.999282, 1, 49, 128, 80
-0.999285, 411, 17, 426, 144
-0.999286, 469, 17, 484, 144
-0.999289, 1, 161, 500, 224
-0.999295, 225, 245, 352, 276
-0.999298, 273, 245, 400, 276
-0.9993, 373, 17, 388, 144
-0.9993, 445, 17, 460, 144
-0.999301, 251, 65, 266, 192
-0.999309, 321, 253, 448, 284
-0.999313, 305, 37, 432, 68
-0.999316, 369, 81, 496, 112
-0.999316, 147, 177, 162, 304
-0.999322, 423, 17, 438, 144
-0.999326, 257, 249, 384, 312
-0.999328, 363, 17, 378, 144
-0.999328, 161, 73, 288, 104
-0.999338, 277, 129, 292, 256
-0.999338, 117, 209, 132, 333
-0.99934, 161, 161, 176, 288
-0.999343, 257, 49, 500, 112
-0.999347, 99, 177, 114, 304
-0.999349, 209, 193, 224, 320
-0.999349, 431, 17, 446, 144
-0.99935, 249, 177, 264, 304
-0.999351, 393, 177, 408, 304
-0.999356, 437, 17, 452, 144
-0.999363, 295, 49, 310, 176
-0.999371, 203, 129, 218, 256
-0.999372, 417, 17, 432, 144
-0.999372, 209, 145, 224, 272
-0.999376, 155, 161, 170, 288
-0.999377, 277, 177, 292, 304
-0.999386, 285, 81, 300, 208
-0.999387, 263, 81, 278, 208
-0.999395, 181, 129, 196, 256
-0.999398, 271, 193, 286, 320
-0.9994, 75, 193, 90, 320
-0.999407, 167, 161, 182, 288
-0.999411, 243, 145, 258, 272
-0.999413, 299, 161, 314, 288
-0.99942, 235, 145, 250, 272
-0.999427, 141, 177, 156, 304
-0.999429, 187, 177, 202, 304
-0.99944, 399, 193, 414, 320
-0.999441, 243, 97, 258, 224
-0.999441, 337, 105, 464, 136
-0.999444, 387, 177, 402, 304
-0.999444, 299, 113, 314, 240
-0.999449, 343, 177, 358, 304
-0.999458, 37, 113, 68, 240
-0.999477, 283, 161, 298, 288
-0.999488, 277, 81, 292, 208
-0.999492, 321, 85, 448, 116
-0.999494, 191, 129, 206, 256
-0.999506, 255, 161, 270, 288
-0.99951, 1, 49, 500, 112
-0.999517, 167, 209, 182, 333
-0.999519, 159, 209, 174, 333
-0.999521, 307, 177, 322, 304
-0.999531, 1, 257, 128, 288
-0.999532, 391, 129, 406, 256
-0.999535, 259, 209, 274, 333
-0.99954, 215, 193, 230, 320
-0.999553, 93, 177, 108, 304
-0.999555, 173, 129, 188, 256
-0.999559, 103, 49, 118, 176
-0.999562, 337, 49, 464, 80
-0.999563, 257, 65, 272, 192
-0.999564, 109, 209, 124, 333
-0.999568, 145, 187, 160, 202
-0.999568, 207, 211, 222, 226
-0.999568, 227, 97, 242, 224
-0.999569, 121, 237, 136, 252
-0.999569, 443, 27, 458, 42
-0.999569, 17, 25, 32, 40
-0.99957, 315, 33, 330, 48
-0.99957, 99, 203, 114, 218
-0.99957, 147, 201, 162, 216
-0.99957, 11, 31, 26, 46
-0.999571, 177, 239, 192, 254
-0.999571, 125, 231, 140, 246
-0.999571, 461, 25, 476, 40
-0.999571, 115, 223, 130, 238
-0.999571, 241, 193, 256, 208
-0.999572, 433, 25, 448, 40
-0.999572, 177, 183, 192, 198
-0.999572, 229, 193, 244, 320
-0.999573, 143, 209, 158, 224
-0.999573, 107, 203, 122, 218
-0.999575, 259, 195, 274, 210
-0.999575, 75, 209, 90, 224
-0.999576, 203, 181, 218, 196
-0.999576, 185, 205, 200, 220
-0.999577, 407, 193, 422, 320
-0.999577, 257, 25, 272, 40
-0.999578, 221, 193, 236, 320
-0.999578, 77, 113, 92, 240
-0.999579, 281, 183, 296, 198
-0.99958, 251, 239, 266, 254
-0.99958, 239, 21, 254, 36
-0.999581, 281, 197, 296, 212
-0.999581, 193, 27, 208, 42
-0.999581, 251, 209, 266, 224
-0.999582, 299, 199, 314, 214
-0.999582, 295, 217, 310, 232
-0.999583, 295, 25, 310, 40
-0.999583, 193, 199, 208, 214
-0.999583, 203, 177, 218, 304
-0.999584, 165, 17, 180, 32
-0.999584, 201, 25, 216, 40
-0.999584, 133, 209, 148, 333
-0.999584, 151, 23, 166, 38
-0.999584, 345, 129, 360, 256
-0.999584, 475, 25, 490, 40
-0.999585, 339, 25, 354, 40
-0.999585, 239, 177, 254, 192
-0.999585, 75, 199, 90, 214
-0.999585, 99, 193, 114, 208
-0.999586, 183, 183, 198, 198
-0.999586, 97, 209, 112, 224
-0.999587, 97, 65, 112, 192
-0.999589, 109, 27, 124, 42
-0.999589, 173, 19, 188, 34
-0.99959, 123, 27, 138, 42
-0.99959, 333, 29, 348, 44
-0.99959, 169, 205, 184, 220
-0.99959, 199, 33, 214, 48
-0.999591, 293, 207, 308, 222
-0.999592, 239, 211, 254, 226
-0.999593, 59, 15, 74, 30
-0.999593, 185, 193, 200, 208
-0.999593, 253, 93, 268, 108
-0.999594, 303, 217, 318, 232
-0.999594, 185, 233, 200, 248
-0.999595, 127, 211, 142, 226
-0.999595, 179, 199, 194, 214
-0.999596, 233, 207, 248, 222
-0.999596, 425, 129, 456, 256
-0.999597, 223, 215, 238, 230
-0.999597, 305, 197, 320, 212
-0.999597, 213, 189, 228, 204
-0.999597, 101, 21, 116, 36
-0.999597, 23, 29, 38, 44
-0.999597, 343, 195, 358, 210
-0.999598, 173, 199, 188, 214
-0.9996, 399, 27, 414, 42
-0.9996, 279, 35, 294, 50
-0.999601, 211, 21, 226, 36
-0.999601, 101, 85, 116, 100
-0.999603, 47, 13, 62, 28
-0.999604, 231, 195, 246, 210
-0.999605, 359, 23, 374, 38
-0.999605, 223, 179, 238, 194
-0.999607, 393, 191, 408, 206
-0.999607, 157, 201, 172, 216
-0.999608, 311, 197, 326, 212
-0.999609, 141, 23, 156, 38
-0.999609, 195, 187, 210, 202
-0.99961, 5, 29, 20, 44
-0.99961, 287, 149, 302, 164
-0.999611, 129, 25, 144, 40
-0.999611, 323, 31, 338, 46
-0.999611, 233, 213, 248, 228
-0.999612, 387, 27, 402, 42
-0.999613, 157, 207, 172, 222
-0.999614, 69, 13, 84, 28
-0.999614, 223, 201, 238, 216
-0.999614, 225, 235, 240, 250
-0.999615, 341, 189, 356, 204
-0.999615, 303, 207, 318, 222
-0.999615, 187, 21, 202, 36
-0.999617, 369, 25, 384, 40
-0.999618, 135, 23, 150, 38
-0.999621, 269, 31, 284, 46
-0.999622, 159, 19, 174, 34
-0.999622, 93, 15, 108, 30
-0.999623, 285, 31, 300, 46
-0.999625, 97, 101, 224, 132
-0.999625, 271, 189, 286, 204
-0.999627, 201, 189, 216, 204
-0.999628, 263, 31, 278, 46
-0.999628, 119, 229, 134, 244
-0.999629, 215, 209, 230, 224
-0.999629, 29, 25, 44, 40
-0.999629, 215, 199, 230, 214
-0.999632, 181, 19, 196, 34
-0.999639, 393, 27, 408, 42
-0.999639, 305, 31, 320, 46
-0.999641, 53, 13, 68, 28
-0.999641, 409, 25, 424, 40
-0.999642, 345, 23, 360, 38
-0.999644, 245, 209, 260, 224
-0.999645, 223, 209, 238, 224
-0.999646, 259, 229, 274, 244
-0.999646, 341, 183, 356, 198
-0.999649, 249, 27, 264, 42
-0.999649, 353, 23, 368, 38
-0.999651, 33, 173, 160, 204
-0.999656, 75, 187, 90, 202
-0.999657, 35, 19, 50, 34
-0.999661, 185, 199, 200, 214
-0.999661, 485, 25, 500, 40
-0.999662, 41, 17, 56, 32
-0.999664, 163, 203, 178, 218
-0.999664, 279, 189, 294, 204
-0.999666, 121, 223, 136, 238
-0.99967, 253, 33, 268, 48
-0.999672, 161, 45, 288, 76
-0.99968, 193, 209, 224, 333
-0.99969, 1, 233, 500, 296
-0.9997, 321, 265, 448, 296
-0.999715, 453, 23, 468, 38
-0.999722, 193, 193, 208, 208
-0.99974, 311, 203, 326, 218
-0.999741, 129, 257, 256, 288
-0.999755, 205, 195, 220, 210
-0.999757, 1, 37, 128, 68
-0.999762, 305, 65, 432, 96
-0.999773, 1, 269, 128, 300
-0.99981, 161, 137, 288, 168
-0.999811, 369, 37, 496, 68
-0.999814, 225, 257, 352, 288
-0.99985, 129, 157, 256, 188
-0.999855, 1, 129, 500, 192
-0.999891, 369, 261, 496, 292
-0.999979, 353, 177, 384, 304
-1.00009, 113, 113, 144, 240
-1.0001, 325, 129, 356, 256
-1.00013, 33, 257, 288, 320
-1.00017, 1, 81, 500, 144
-1.00018, 21, 113, 52, 240
-1.00052, 1, 33, 128, 96
-1.00054, 1, 257, 500, 320
-1.00063, 257, 273, 500, 333
-1.00073, 441, 81, 472, 208
-1.00084, 437, 129, 468, 256
-1.00091, 313, 145, 344, 272
-1.00105, 469, 129, 500, 256
-1.00141, 405, 65, 436, 192
-1.00143, 353, 65, 384, 192
-1.00161, 341, 209, 372, 333
-1.00299, 1, 193, 64, 320
-1.00327, 433, 193, 496, 320
