1972
-0.350908, 1, 1, 500, 375
-0.411309, 1, 33, 500, 288
-0.469894, 257, 1, 500, 375
-0.507778, 1, 129, 500, 375
-0.516479, 129, 1, 384, 375
-0.552419, 33, 1, 288, 375
-0.704367, 129, 1, 384, 256
-0.753416, 257, 129, 500, 375
-0.759629, 33, 129, 288, 375
-0.764353, 33, 33, 288, 288
-0.773528, 225, 1, 480, 256
-0.798445, 129, 97, 384, 352
-0.872677, 161, 1, 288, 375
-0.887669, 1, 241, 500, 368
-0.890658, 193, 33, 320, 288
-0.896565, 209, 1, 336, 375
-0.89686, 1, 65, 500, 192
-0.898197, 161, 129, 288, 375
-0.900226, 1, 65, 128, 320
-0.900713, 1, 17, 500, 144
-0.904533, 1, 193, 500, 320
-0.906897, 369, 1, 496, 375
-0.907862, 369, 97, 496, 352
-0.908197, 97, 129, 224, 375
-0.911259, 97, 1, 224, 375
-0.917987, 97, 241, 352, 368
-0.920246, 257, 1, 384, 375
-0.922149, 145, 33, 272, 288
-0.923334, 1, 129, 500, 256
-0.924243, 33, 1, 160, 375
-0.924712, 369, 1, 496, 256
-0.927535, 241, 1, 368, 256
-0.930024, 49, 129, 176, 375
-0.93126, 193, 17, 448, 144
-0.931414, 97, 193, 352, 320
-0.932511, 49, 33, 176, 288
-0.933711, 113, 209, 240, 336
-0.934536, 209, 129, 336, 375
-0.936458, 257, 225, 500, 352
-0.938999, 193, 209, 320, 336
-0.939302, 129, 65, 384, 192
-0.939657, 97, 33, 224, 288
-0.941391, 169, 209, 232, 336
-0.941423, 65, 17, 320, 144
-0.94259, 233, 1, 296, 128
-0.943366, 65, 241, 192, 368
-0.944951, 257, 97, 384, 352
-0.947105, 1, 177, 256, 304
-0.947249, 1, 225, 256, 352
-0.947645, 145, 193, 208, 320
-0.949094, 209, 17, 272, 144
-0.949728, 193, 1, 320, 128
-0.94985, 113, 209, 176, 336
-0.951492, 89, 241, 152, 368
-0.951521, 1, 113, 256, 240
-0.952043, 33, 193, 160, 320
-0.952934, 225, 65, 480, 192
-0.953458, 225, 177, 480, 304
-0.953776, 249, 241, 312, 368
-0.954607, 113, 161, 240, 288
-0.955042, 97, 145, 352, 272
-0.955243, 209, 225, 272, 352
-0.956336, 177, 161, 304, 288
-0.956456, 89, 193, 152, 320
-0.956547, 201, 177, 264, 304
-0.95658, 305, 1, 432, 375
-0.960053, 177, 305, 240, 368
-0.96031, 289, 1, 416, 256
-0.960963, 433, 113, 496, 240
-0.961963, 129, 297, 192, 360
-0.962181, 233, 193, 296, 320
-0.962216, 153, 145, 216, 272
-0.962655, 33, 65, 288, 192
-0.962752, 161, 281, 224, 344
-0.962987, 209, 233, 272, 296
-0.963608, 193, 65, 320, 192
-0.964399, 257, 129, 500, 256
-0.964924, 257, 1, 320, 128
-0.965044, 33, 81, 160, 208
-0.965643, 97, 257, 160, 320
-0.966069, 233, 81, 296, 208
-0.966388, 369, 113, 496, 240
-0.966463, 81, 289, 144, 352
-0.966518, 185, 241, 248, 304
-0.967446, 153, 209, 216, 272
-0.967509, 65, 241, 128, 368
-0.967535, 209, 273, 272, 336
-0.968361, 97, 209, 160, 272
-0.968506, 73, 217, 136, 280
-0.968514, 65, 193, 128, 320
-0.968625, 241, 1, 368, 128
-0.968723, 57, 89, 120, 152
-0.96877, 233, 17, 296, 80
-0.96888, 257, 193, 320, 320
-0.969136, 193, 193, 256, 256
-0.969227, 209, 25, 272, 88
-0.969911, 369, 225, 496, 352
-0.969941, 33, 129, 160, 256
-0.969991, 169, 33, 232, 160
-0.970385, 233, 233, 296, 296
-0.970463, 73, 313, 136, 375
-0.970548, 193, 81, 256, 208
-0.970873, 129, 297, 256, 360
-0.970899, 241, 209, 304, 272
-0.971012, 161, 97, 224, 224
-0.971093, 369, 65, 496, 192
-0.972016, 185, 265, 248, 328
-0.972081, 137, 241, 200, 368
-0.97215, 105, 297, 168, 360
-0.972942, 145, 185, 208, 248
-0.973041, 193, 273, 320, 336
-0.973207, 145, 81, 272, 208
-0.973268, 233, 81, 296, 144
-0.973336, 113, 161, 176, 288
-0.973338, 241, 193, 368, 320
-0.973726, 97, 209, 224, 272
-0.973827, 129, 209, 192, 272
-0.973928, 433, 33, 496, 160
-0.973936, 17, 241, 144, 368
-0.974151, 129, 265, 192, 328
-0.974424, 369, 1, 496, 128
-0.974435, 1, 145, 64, 272
-0.974519, 121, 233, 184, 296
-0.974551, 249, 273, 312, 336
-0.974683, 177, 217, 240, 280
-0.974748, 233, 1, 296, 256
-0.975088, 81, 289, 208, 352
-0.975102, 81, 49, 208, 176
-0.975209, 41, 81, 104, 208
-0.975278, 209, 1, 272, 256
-0.975391, 249, 145, 312, 272
-0.975534, 97, 113, 224, 240
-0.975661, 289, 241, 416, 368
-0.975663, 197, 209, 228, 336
-0.975749, 49, 65, 112, 128
-0.975754, 145, 17, 272, 144
-0.975848, 177, 145, 240, 272
-0.975923, 433, 193, 496, 320
-0.976012, 217, 209, 280, 272
-0.976062, 305, 129, 432, 375
-0.976315, 41, 209, 104, 336
-0.976398, 221, 241, 252, 368
-0.976421, 433, 121, 496, 184
-0.976493, 369, 177, 496, 304
-0.976515, 209, 313, 336, 375
-0.976535, 233, 57, 296, 120
-0.97662, 117, 225, 148, 352
-0.977071, 177, 209, 304, 272
-0.977354, 161, 161, 224, 224
-0.977556, 193, 89, 256, 152
-0.977612, 433, 241, 496, 368
-0.977737, 121, 185, 184, 248
-0.977743, 257, 233, 320, 296
-0.977917, 257, 17, 320, 80
-0.977938, 193, 17, 320, 80
-0.977982, 81, 313, 208, 375
-0.978045, 129, 241, 256, 304
-0.978093, 81, 265, 208, 328
-0.978096, 209, 49, 272, 112
-0.978179, 25, 161, 88, 288
-0.978272, 265, 1, 296, 128
-0.978451, 161, 241, 224, 304
-0.978568, 201, 129, 264, 256
-0.97874, 241, 49, 368, 176
-0.978743, 217, 265, 248, 328
-0.978767, 241, 185, 304, 248
-0.978996, 169, 65, 232, 128
-0.979095, 221, 17, 252, 144
-0.979099, 177, 233, 304, 296
-0.979117, 145, 273, 272, 336
-0.97921, 257, 81, 320, 208
-0.979439, 433, 97, 496, 352
-0.979448, 113, 225, 144, 288
-0.979485, 57, 281, 120, 344
-0.979657, 433, 257, 496, 320
-0.979742, 161, 105, 224, 168
-0.97976, 97, 233, 160, 296
-0.979942, 209, 313, 272, 375
-0.980157, 201, 169, 264, 232
-0.980337, 185, 209, 216, 272
-0.980532, 33, 217, 160, 280
-0.980638, 257, 57, 320, 120
-0.980835, 157, 193, 188, 320
-0.980975, 197, 233, 228, 296
-0.981091, 53, 81, 84, 144
-0.981132, 289, 241, 352, 368
-0.981138, 289, 313, 352, 375
-0.981153, 145, 185, 272, 248
-0.981218, 193, 129, 256, 375
-0.981327, 1, 161, 64, 224
-0.981387, 145, 129, 208, 375
-0.981491, 33, 281, 96, 344
-0.981497, 185, 1, 248, 256
-0.981557, 117, 193, 148, 256
-0.981602, 25, 73, 88, 136
-0.98162, 209, 225, 240, 352
-0.981681, 193, 81, 320, 144
-0.981874, 117, 177, 148, 304
-0.981876, 141, 209, 172, 336
-0.98203, 209, 305, 240, 368
-0.982031, 65, 193, 128, 256
-0.982226, 409, 241, 472, 368
-0.982238, 169, 185, 232, 248
-0.982369, 265, 81, 328, 144
-0.982515, 17, 305, 144, 368
-0.98254, 249, 193, 280, 320
-0.982542, 93, 81, 124, 144
-0.982554, 173, 289, 204, 352
-0.982824, 249, 97, 312, 352
-0.98307, 193, 57, 320, 120
-0.983112, 41, 113, 104, 176
-0.983168, 133, 209, 164, 272
-0.983168, 241, 233, 272, 296
-0.983191, 209, 1, 272, 64
-0.983313, 173, 209, 204, 336
-0.983357, 233, 177, 264, 304
-0.983433, 253, 209, 284, 272
-0.983451, 169, 33, 232, 96
-0.983527, 261, 193, 292, 320
-0.983552, 105, 209, 136, 336
-0.983683, 253, 249, 284, 312
-0.983775, 17, 73, 144, 136
-0.983819, 401, 17, 464, 144
-0.983859, 17, 97, 80, 224
-0.983888, 33, 241, 160, 304
-0.984044, 209, 113, 336, 240
-0.984073, 289, 289, 352, 352
-0.984158, 141, 289, 172, 352
-0.984165, 129, 193, 160, 320
-0.984235, 217, 241, 248, 304
-0.984258, 225, 145, 288, 272
-0.984283, 273, 209, 336, 272
-0.984293, 241, 241, 368, 368
-0.984347, 33, 33, 160, 160
-0.984357, 185, 193, 216, 320
-0.984385, 33, 193, 160, 256
-0.984392, 101, 217, 132, 280
-0.984484, 41, 97, 104, 352
-0.984626, 41, 177, 104, 240
-0.984652, 209, 1, 272, 375
-0.984675, 157, 241, 188, 368
-0.984682, 209, 177, 240, 304
-0.984718, 125, 257, 156, 320
-0.984735, 257, 1, 320, 256
-0.984753, 81, 233, 208, 296
-0.984759, 49, 33, 112, 160
-0.984828, 265, 241, 296, 304
-0.984837, 257, 145, 384, 272
-0.984973, 85, 289, 116, 352
-0.985043, 81, 81, 144, 144
-0.985055, 153, 305, 184, 368
-0.985074, 253, 1, 284, 128
-0.985105, 145, 193, 176, 256
-0.985161, 409, 265, 472, 328
-0.985168, 221, 17, 252, 80
-0.985183, 289, 257, 352, 320
-0.985194, 73, 241, 136, 304
-0.98523, 97, 185, 224, 248
-0.985251, 433, 169, 496, 232
-0.985256, 109, 305, 140, 368
-0.985315, 41, 233, 104, 296
-0.98538, 25, 313, 88, 375
-0.985394, 169, 129, 232, 375
-0.985415, 169, 1, 232, 64
-0.985487, 17, 281, 144, 344
-0.985494, 73, 97, 136, 224
-0.985541, 161, 137, 224, 200
-0.985546, 289, 1, 416, 128
-0.985618, 433, 201, 496, 264
-0.985637, 97, 1, 224, 128
-0.985645, 225, 233, 352, 296
-0.985696, 445, 113, 476, 240
-0.985829, 49, 305, 112, 368
-0.986104, 41, 201, 104, 264
-0.98611, 221, 81, 252, 208
-0.98611, 265, 9, 296, 72
-0.986178, 165, 193, 196, 256
-0.986182, 241, 1, 272, 128
-0.986214, 185, 1, 248, 375
-0.986261, 433, 145, 496, 208
-0.986311, 401, 25, 464, 88
-0.98634, 141, 233, 172, 296
-0.986442, 369, 257, 496, 320
-0.986444, 393, 177, 456, 304
-0.986448, 273, 145, 336, 272
-0.986517, 17, 161, 48, 224
-0.986572, 73, 89, 104, 152
-0.986614, 401, 65, 464, 192
-0.986649, 57, 65, 88, 192
-0.986815, 433, 233, 496, 296
-0.986835, 89, 65, 120, 192
-0.986903, 37, 97, 68, 224
-0.986909, 289, 313, 416, 375
-0.986912, 89, 145, 152, 272
-0.986922, 197, 209, 228, 272
-0.986967, 185, 241, 216, 368
-0.986979, 277, 273, 308, 336
-0.986988, 189, 185, 220, 248
-0.987001, 165, 265, 196, 328
-0.987016, 161, 145, 192, 272
-0.987036, 233, 1, 296, 375
-0.987112, 25, 145, 56, 272
-0.987131, 17, 97, 80, 160
-0.987223, 237, 225, 268, 352
-0.987278, 93, 193, 124, 320
-0.987333, 109, 249, 140, 312
-0.98735, 125, 233, 156, 296
-0.987365, 257, 313, 320, 375
-0.987436, 121, 313, 152, 375
-0.987465, 229, 233, 260, 296
-0.987477, 197, 265, 228, 328
-0.987488, 129, 241, 160, 368
-0.987608, 241, 49, 272, 176
-0.987653, 65, 81, 192, 144
-0.987706, 221, 89, 252, 152
-0.987719, 97, 185, 160, 248
-0.987722, 369, 113, 496, 176
-0.987747, 197, 49, 228, 176
-0.987791, 153, 273, 184, 336
-0.987832, 257, 137, 320, 200
-0.987832, 145, 89, 272, 152
-0.987868, 277, 241, 308, 368
-0.987897, 37, 185, 68, 248
-0.987917, 221, 313, 252, 375
-0.987932, 297, 313, 328, 375
-0.987992, 173, 217, 204, 280
-0.987994, 241, 17, 368, 80
-0.988008, 261, 81, 292, 208
-0.988025, 29, 153, 60, 216
-0.988064, 433, 305, 496, 368
-0.988074, 113, 161, 240, 224
-0.98817, 257, 81, 288, 144
-0.98819, 1, 129, 128, 192
-0.988215, 289, 193, 416, 320
-0.988274, 233, 113, 296, 176
-0.988277, 209, 81, 240, 208
-0.988336, 393, 1, 456, 64
-0.988367, 237, 209, 268, 272
-0.988375, 193, 169, 320, 232
-0.988435, 257, 105, 320, 168
-0.988448, 241, 57, 272, 120
-0.98845, 185, 113, 248, 176
-0.988459, 273, 281, 400, 344
-0.988625, 209, 17, 240, 144
-0.988627, 457, 113, 488, 240
-0.988628, 141, 265, 172, 328
-0.988662, 161, 33, 224, 288
-0.988714, 105, 281, 136, 344
-0.988732, 241, 49, 368, 112
-0.98879, 177, 121, 304, 184
-0.988851, 221, 193, 252, 320
-0.988868, 185, 145, 248, 208
-0.988877, 97, 105, 224, 168
-0.988886, 393, 217, 456, 280
-0.98894, 65, 65, 128, 320
-0.988964, 369, 177, 496, 240
-0.989001, 157, 217, 188, 280
-0.989003, 33, 305, 288, 368
-0.989033, 1, 97, 128, 160
-0.989111, 449, 65, 480, 192
-0.989162, 369, 233, 496, 296
-0.989223, 61, 281, 92, 344
-0.989267, 165, 169, 196, 232
-0.989421, 433, 97, 496, 160
-0.989432, 37, 73, 68, 136
-0.989449, 433, 281, 496, 344
-0.989521, 217, 129, 280, 375
-0.989555, 241, 209, 368, 272
-0.989577, 241, 81, 368, 144
-0.989594, 57, 105, 88, 168
-0.9896, 249, 241, 280, 368
-0.989601, 113, 293, 176, 324
-0.989688, 129, 281, 160, 344
-0.989694, 137, 1, 200, 375
-0.989696, 393, 241, 456, 304
-0.989769, 37, 177, 68, 304
-0.989875, 153, 293, 216, 324
-0.989884, 93, 241, 124, 368
-0.989896, 165, 313, 196, 375
-0.9899, 237, 265, 268, 328
-0.990003, 17, 65, 80, 320
-0.990023, 369, 89, 496, 152
-0.990093, 469, 113, 500, 240
-0.990117, 353, 25, 480, 88
-0.990162, 241, 217, 304, 248
-0.990171, 221, 289, 252, 352
-0.990217, 197, 81, 228, 144
-0.990229, 73, 217, 136, 248
-0.990248, 57, 77, 120, 108
-0.990342, 209, 145, 272, 208
-0.990348, 169, 305, 232, 336
-0.99037, 281, 193, 344, 320
-0.990399, 209, 25, 272, 56
-0.990428, 189, 129, 220, 256
-0.99044, 97, 57, 224, 120
-0.990497, 121, 305, 184, 336
-0.990501, 233, 17, 296, 48
-0.990505, 113, 205, 176, 236
-0.990509, 129, 273, 384, 336
-0.99055, 49, 105, 176, 168
-0.990558, 97, 313, 160, 344
-0.990571, 129, 221, 192, 252
-0.990575, 177, 345, 240, 375
-0.990587, 273, 257, 400, 320
-0.990604, 89, 209, 120, 272
-0.990631, 153, 169, 184, 232
-0.990632, 105, 281, 168, 312
-0.990666, 73, 301, 136, 332
-0.990687, 141, 161, 172, 288
-0.990726, 73, 313, 136, 344
-0.990727, 177, 317, 240, 348
-0.990734, 153, 221, 216, 252
-0.99075, 185, 241, 248, 272
-0.990788, 65, 113, 128, 176
-0.990795, 73, 289, 136, 320
-0.990798, 253, 17, 284, 80
-0.990812, 89, 105, 120, 168
-0.990827, 57, 113, 120, 144
-0.990832, 209, 69, 272, 100
-0.990886, 97, 269, 160, 300
-0.990903, 145, 65, 272, 128
-0.990903, 233, 313, 264, 375
-0.990921, 369, 297, 496, 360
-0.990941, 209, 273, 272, 304
-0.991007, 137, 345, 200, 375
-0.991064, 97, 217, 160, 248
-0.991064, 209, 217, 240, 280
-0.991071, 153, 209, 216, 240
-0.991086, 89, 205, 152, 236
-0.991089, 177, 145, 304, 208
-0.991089, 97, 229, 160, 260
-0.991103, 233, 73, 296, 104
-0.991106, 401, 297, 464, 360
-0.991109, 97, 257, 160, 288
-0.991109, 137, 277, 200, 308
-0.991128, 249, 237, 312, 268
-0.991131, 129, 129, 256, 192
-0.991165, 177, 329, 240, 360
-0.991171, 209, 233, 272, 264
-0.991173, 201, 201, 264, 232
-0.991181, 441, 257, 472, 320
-0.991211, 185, 265, 248, 296
-0.991215, 401, 1, 464, 256
-0.991221, 253, 145, 284, 272
-0.991236, 433, 1, 496, 375
-0.991241, 257, 57, 288, 120
-0.991243, 129, 305, 384, 368
-0.99125, 129, 193, 192, 224
-0.991256, 281, 193, 312, 320
-0.991258, 73, 49, 136, 176
-0.991268, 161, 1, 224, 375
-0.991274, 97, 249, 128, 312
-0.991284, 105, 193, 136, 256
-0.991285, 17, 129, 80, 192
-0.991286, 261, 241, 292, 368
-0.99129, 53, 57, 84, 120
-0.991294, 185, 253, 248, 284
-0.991305, 441, 241, 472, 368
-0.991331, 1, 169, 64, 200
-0.991335, 265, 185, 328, 248
-0.991338, 17, 49, 80, 112
-0.991338, 137, 325, 200, 356
-0.99134, 393, 1, 456, 375
-0.991343, 209, 221, 272, 252
-0.991384, 185, 265, 216, 328
-0.991385, 369, 1, 496, 64
-0.991387, 209, 297, 272, 328
-0.991401, 249, 277, 312, 308
-0.991404, 177, 281, 240, 312
-0.991411, 41, 101, 104, 132
-0.991415, 73, 229, 136, 260
-0.991431, 65, 145, 128, 272
-0.991437, 185, 241, 216, 304
-0.99144, 209, 81, 272, 112
-0.991442, 281, 209, 312, 272
-0.991458, 465, 113, 496, 176
-0.991471, 265, 209, 296, 272
-0.991482, 217, 333, 280, 364
-0.991488, 241, 205, 304, 236
-0.991495, 281, 329, 344, 360
-0.991504, 197, 297, 228, 360
-0.991508, 65, 329, 128, 360
-0.991518, 169, 73, 232, 104
-0.991539, 469, 265, 500, 328
-0.99154, 173, 145, 204, 272
-0.991542, 393, 81, 456, 144
-0.991551, 177, 221, 240, 252
-0.991552, 53, 305, 84, 368
-0.991563, 145, 17, 272, 80
-0.991563, 257, 161, 320, 224
-0.991625, 145, 41, 272, 104
-0.991632, 161, 173, 224, 204
-0.991641, 257, 77, 320, 108
-0.991645, 153, 197, 216, 228
-0.991649, 369, 49, 496, 112
-0.991655, 145, 49, 208, 176
-0.991674, 153, 233, 216, 264
-0.991687, 41, 89, 104, 120
-0.991693, 57, 41, 120, 104
-0.991695, 209, 257, 272, 288
-0.991705, 185, 97, 216, 160
-0.991708, 49, 205, 112, 236
-0.991712, 241, 81, 272, 144
-0.99172, 33, 73, 96, 104
-0.991732, 277, 241, 308, 304
-0.991732, 393, 113, 456, 240
-0.991749, 393, 57, 456, 120
-0.991755, 233, 89, 296, 120
-0.991762, 465, 241, 496, 368
-0.991773, 461, 65, 492, 192
-0.991785, 153, 185, 216, 216
-0.991786, 77, 65, 108, 192
-0.991786, 433, 193, 496, 224
-0.99179, 209, 57, 272, 88
-0.991801, 249, 257, 312, 288
-0.991823, 433, 53, 496, 84
-0.991836, 445, 121, 476, 184
-0.991836, 41, 229, 104, 260
-0.991849, 161, 109, 224, 140
-0.991858, 449, 17, 480, 144
-0.991862, 257, 1, 320, 375
-0.991875, 165, 97, 196, 224
-0.99188, 433, 269, 496, 300
-0.991881, 57, 125, 120, 156
-0.991898, 225, 245, 288, 276
-0.991907, 369, 153, 496, 216
-0.991967, 73, 245, 136, 276
-0.991977, 217, 345, 280, 375
-0.991991, 433, 121, 496, 152
-0.992005, 257, 17, 320, 48
-0.992019, 169, 241, 200, 304
-0.992043, 37, 121, 68, 184
-0.992047, 73, 297, 104, 360
-0.992055, 89, 113, 120, 240
-0.992056, 209, 129, 240, 256
-0.992057, 249, 53, 312, 84
-0.992098, 65, 65, 96, 128
-0.9921, 177, 209, 240, 240
-0.992107, 217, 321, 280, 352
-0.992136, 193, 93, 256, 124
-0.992139, 49, 217, 112, 248
-0.992144, 33, 161, 160, 224
-0.992148, 153, 161, 216, 192
-0.992151, 209, 41, 272, 72
-0.992152, 113, 241, 176, 272
-0.992171, 321, 313, 384, 375
-0.992186, 77, 209, 108, 272
-0.992208, 249, 29, 312, 60
-0.992209, 393, 153, 456, 216
-0.99223, 137, 265, 200, 296
-0.992231, 241, 25, 272, 88
-0.992232, 89, 129, 152, 375
-0.992246, 169, 61, 232, 92
-0.992249, 1, 157, 64, 188
-0.992252, 353, 209, 480, 272
-0.992274, 177, 197, 240, 228
-0.992274, 137, 161, 200, 224
-0.992279, 105, 333, 168, 364
-0.992288, 177, 293, 240, 324
-0.992297, 33, 121, 96, 152
-0.992301, 57, 65, 120, 96
-0.992302, 249, 41, 312, 72
-0.992317, 257, 89, 320, 120
-0.992345, 193, 185, 256, 216
-0.992354, 25, 345, 88, 375
-0.992362, 153, 245, 216, 276
-0.992374, 41, 281, 104, 312
-0.992386, 37, 49, 68, 176
-0.9924, 169, 89, 232, 120
-0.992411, 281, 341, 344, 372
-0.992414, 289, 317, 352, 348
-0.992422, 169, 33, 232, 64
-0.992428, 249, 337, 312, 368
-0.992438, 393, 193, 456, 256
-0.992447, 169, 45, 232, 76
-0.992455, 113, 345, 176, 375
-0.99246, 65, 277, 128, 308
-0.992463, 233, 145, 296, 208
-0.992463, 153, 313, 216, 375
-0.992464, 33, 301, 96, 332
-0.99247, 41, 257, 104, 320
-0.99247, 289, 49, 416, 176
-0.992472, 77, 241, 108, 368
-0.992499, 257, 65, 320, 96
-0.992501, 33, 241, 96, 272
-0.992501, 433, 181, 496, 212
-0.992507, 289, 273, 352, 304
-0.992513, 17, 185, 80, 248
-0.992551, 61, 241, 92, 368
-0.992556, 25, 333, 88, 364
-0.992556, 49, 313, 112, 344
-0.992559, 433, 249, 496, 280
-0.992573, 141, 293, 172, 324
-0.99258, 81, 113, 144, 144
-0.992584, 65, 97, 128, 128
-0.992587, 433, 49, 496, 112
-0.992606, 273, 209, 336, 240
-0.992635, 177, 157, 240, 188
-0.992635, 209, 9, 272, 40
-0.992649, 65, 193, 128, 224
-0.992662, 185, 125, 248, 156
-0.992664, 401, 41, 464, 72
-0.992666, 433, 37, 496, 68
-0.992668, 201, 285, 264, 316
-0.992668, 161, 261, 224, 292
-0.992671, 129, 253, 192, 284
-0.992674, 273, 221, 336, 252
-0.992679, 273, 81, 304, 144
-0.992685, 17, 85, 80, 116
-0.99271, 209, 89, 240, 152
-0.992724, 161, 25, 416, 88
-0.992739, 117, 201, 148, 232
-0.992746, 165, 293, 196, 324
-0.992754, 153, 217, 184, 248
-0.992766, 117, 257, 148, 288
-0.99279, 105, 309, 136, 340
-0.992817, 137, 221, 168, 252
-0.992818, 241, 1, 272, 64
-0.992822, 5, 153, 36, 216
-0.992837, 213, 321, 244, 352
-0.992842, 185, 221, 216, 252
-0.992852, 101, 213, 132, 244
-0.992874, 57, 117, 88, 148
-0.992886, 257, 185, 384, 248
-0.992891, 97, 241, 352, 304
-0.992901, 85, 117, 116, 148
-0.992902, 249, 213, 280, 244
-0.992905, 21, 157, 52, 188
-0.992905, 153, 293, 184, 324
-0.992913, 193, 137, 224, 200
-0.992919, 241, 69, 272, 100
-0.992933, 217, 273, 248, 304
-0.992938, 49, 73, 80, 104
-0.992951, 85, 77, 116, 108
-0.992955, 73, 117, 104, 148
-0.992965, 201, 305, 232, 336
-0.992967, 101, 225, 132, 256
-0.992975, 269, 57, 300, 120
-0.99299, 265, 105, 296, 168
-0.992995, 177, 185, 208, 248
-0.992999, 237, 273, 268, 304
-0.993011, 81, 217, 112, 248
-0.993017, 237, 233, 268, 264
-0.993029, 117, 229, 148, 260
-0.99303, 69, 73, 100, 104
-0.993037, 217, 25, 248, 56
-0.993041, 189, 205, 220, 236
-0.993045, 205, 185, 236, 248
-0.993047, 49, 85, 80, 116
-0.993052, 81, 305, 112, 336
-0.993054, 285, 41, 316, 104
-0.993055, 165, 345, 196, 375
-0.993065, 93, 105, 124, 136
-0.993066, 225, 325, 256, 356
-0.993066, 37, 97, 68, 160
-0.993073, 281, 281, 312, 312
-0.993074, 117, 213, 148, 244
-0.993079, 265, 17, 296, 48
-0.993086, 57, 97, 88, 128
-0.993086, 213, 77, 244, 108
-0.993088, 217, 261, 248, 292
-0.99309, 97, 285, 128, 316
-0.993091, 281, 41, 344, 104
-0.993103, 145, 273, 176, 304
-0.993107, 141, 201, 172, 232
-0.993111, 201, 233, 232, 264
-0.993117, 169, 209, 200, 240
-0.993119, 125, 285, 156, 316
-0.993121, 157, 281, 188, 312
-0.993124, 173, 33, 204, 160
-0.993127, 133, 341, 164, 372
-0.993127, 225, 337, 256, 368
-0.993129, 257, 41, 500, 104
-0.993137, 5, 161, 36, 192
-0.993139, 257, 89, 288, 120
-0.993141, 49, 113, 80, 240
-0.993151, 113, 321, 144, 352
-0.993158, 37, 177, 68, 208
-0.99316, 97, 209, 352, 272
-0.993166, 249, 273, 280, 336
-0.993168, 37, 193, 68, 224
-0.993173, 245, 81, 276, 112
-0.993181, 237, 221, 268, 252
-0.993182, 209, 249, 240, 280
-0.993188, 189, 241, 220, 272
-0.99319, 153, 305, 184, 336
-0.99319, 285, 49, 316, 176
-0.993197, 217, 293, 248, 324
-0.993206, 165, 173, 196, 204
-0.99321, 165, 233, 196, 264
-0.993215, 153, 185, 184, 216
-0.993219, 1, 81, 500, 144
-0.993223, 121, 297, 152, 328
-0.99323, 25, 169, 56, 200
-0.993231, 33, 281, 288, 344
-0.993234, 77, 105, 108, 136
-0.993237, 209, 125, 240, 156
-0.993245, 229, 257, 260, 288
-0.993245, 37, 209, 68, 272
-0.993247, 453, 241, 484, 368
-0.99325, 129, 257, 160, 288
-0.993262, 169, 221, 200, 252
-0.993267, 261, 217, 292, 248
-0.993271, 257, 257, 288, 288
-0.993273, 265, 77, 296, 108
-0.993274, 109, 245, 140, 276
-0.993277, 125, 309, 156, 340
-0.993278, 117, 273, 148, 304
-0.99328, 297, 325, 328, 356
-0.993287, 177, 293, 208, 324
-0.993287, 449, 265, 480, 296
-0.993291, 189, 193, 220, 224
-0.993292, 193, 109, 224, 140
-0.993294, 289, 97, 416, 224
-0.993296, 41, 117, 72, 148
-0.993298, 197, 221, 228, 252
-0.993298, 37, 81, 68, 112
-0.9933, 197, 265, 228, 296
-0.993302, 165, 197, 196, 228
-0.993307, 225, 77, 256, 108
-0.993315, 257, 233, 288, 264
-0.993315, 125, 329, 156, 360
-0.993316, 225, 305, 256, 336
-0.993317, 153, 201, 184, 232
-0.99332, 69, 225, 100, 256
-0.993327, 129, 269, 160, 300
-0.993327, 85, 293, 116, 324
-0.993334, 173, 105, 204, 168
-0.993334, 93, 89, 124, 120
-0.993342, 445, 225, 476, 288
-0.993345, 173, 109, 204, 140
-0.993349, 449, 49, 480, 80
-0.993349, 37, 97, 68, 128
-0.993353, 241, 21, 272, 52
-0.993356, 241, 57, 272, 88
-0.99336, 33, 81, 288, 144
-0.993362, 469, 193, 500, 224
-0.993365, 37, 69, 68, 100
-0.993365, 469, 269, 500, 300
-0.993367, 253, 17, 284, 48
-0.993367, 89, 237, 120, 268
-0.993368, 173, 89, 204, 120
-0.993372, 197, 293, 228, 324
-0.993372, 225, 241, 256, 272
-0.993375, 129, 209, 160, 240
-0.993376, 269, 277, 300, 308
-0.99338, 69, 277, 100, 308
-0.993385, 201, 281, 232, 312
-0.993388, 1, 57, 500, 120
-0.99339, 173, 65, 204, 128
-0.99339, 37, 205, 68, 236
-0.993391, 37, 229, 68, 260
-0.993392, 77, 205, 108, 236
-0.993392, 281, 213, 312, 244
-0.993393, 261, 245, 292, 276
-0.993393, 37, 217, 68, 248
-0.993396, 101, 273, 132, 304
-0.993397, 437, 265, 468, 296
-0.993397, 165, 185, 196, 216
-0.993399, 201, 89, 232, 120
-0.993401, 149, 229, 180, 260
-0.993406, 245, 257, 276, 288
-0.993407, 177, 241, 208, 272
-0.99341, 469, 121, 500, 152
-0.993411, 201, 137, 232, 168
-0.993412, 213, 93, 244, 124
-0.993417, 105, 257, 136, 288
-0.993419, 189, 125, 220, 156
-0.993472, 121, 113, 184, 240
-0.993489, 49, 177, 80, 304
-0.993533, 61, 233, 92, 296
-0.993583, 17, 209, 80, 272
-0.993614, 1, 49, 128, 112
-0.993685, 65, 289, 192, 320
-0.993702, 297, 241, 328, 368
-0.993734, 209, 121, 272, 184
-0.993734, 257, 17, 500, 80
-0.993743, 121, 129, 184, 375
-0.993763, 241, 105, 368, 168
-0.993775, 297, 289, 328, 352
-0.99378, 289, 9, 416, 72
-0.993785, 249, 185, 280, 248
-0.993794, 65, 57, 320, 120
-0.993812, 385, 273, 448, 336
-0.993858, 209, 25, 240, 88
-0.993906, 97, 305, 128, 368
-0.993945, 453, 265, 484, 328
-0.993959, 61, 193, 92, 256
-0.993962, 201, 113, 232, 176
-0.993968, 1, 225, 500, 288
-0.993972, 353, 265, 416, 328
-0.993977, 257, 289, 500, 352
-0.993984, 1, 201, 256, 264
-0.993999, 1, 233, 256, 296
-0.994028, 25, 193, 56, 256
-0.994046, 289, 41, 416, 104
-0.994065, 105, 161, 136, 288
-0.994085, 1, 273, 500, 336
-0.994093, 73, 113, 104, 176
-0.994098, 409, 97, 472, 352
-0.99415, 257, 257, 500, 320
-0.994153, 129, 345, 256, 375
-0.994158, 185, 81, 216, 208
-0.99421, 285, 17, 316, 80
-0.994219, 409, 113, 472, 176
-0.994234, 69, 193, 100, 320
-0.994236, 321, 273, 448, 336
-0.994287, 97, 185, 352, 248
-0.994306, 113, 301, 240, 332
-0.994354, 257, 233, 500, 296
-0.994358, 281, 17, 344, 80
-0.994368, 129, 81, 384, 144
-0.994377, 289, 73, 416, 136
-0.994383, 161, 49, 416, 112
-0.994397, 285, 1, 316, 128
-0.994425, 281, 145, 312, 272
-0.994435, 9, 241, 72, 368
-0.994448, 433, 1, 496, 64
-0.994504, 229, 129, 260, 256
-0.994508, 225, 73, 480, 136
-0.994517, 353, 241, 416, 368
-0.994527, 113, 161, 176, 224
-0.994548, 205, 145, 236, 208
-0.994551, 469, 193, 500, 320
-0.994555, 445, 193, 476, 320
-0.994631, 289, 209, 416, 272
-0.99464, 193, 1, 224, 128
-0.994711, 233, 289, 264, 352
-0.99478, 17, 137, 48, 200
-0.994812, 191, 201, 206, 264
-0.994825, 45, 161, 76, 224
-0.994835, 185, 161, 216, 224
-0.994856, 209, 325, 336, 356
-0.994857, 81, 129, 208, 192
-0.994882, 289, 97, 416, 160
-0.994887, 1, 33, 500, 96
-0.994894, 129, 321, 256, 352
-0.994911, 105, 81, 136, 144
-0.994912, 273, 233, 400, 296
-0.994943, 145, 81, 208, 144
-0.99495, 1, 177, 256, 240
-0.994983, 129, 265, 256, 296
-0.994987, 209, 277, 336, 308
-0.995004, 201, 201, 216, 264
-0.995026, 273, 129, 336, 375
-0.995044, 265, 145, 296, 272
-0.995059, 193, 21, 320, 52
-0.995063, 433, 73, 496, 136
-0.99507, 241, 153, 368, 216
-0.995091, 81, 193, 112, 320
-0.995092, 257, 97, 500, 160
-0.995092, 177, 229, 304, 260
-0.995099, 97, 233, 224, 264
-0.9951, 81, 313, 208, 344
-0.995101, 81, 221, 208, 252
-0.99517, 265, 185, 296, 248
-0.995196, 41, 1, 104, 375
-0.995204, 97, 1, 160, 375
-0.995204, 49, 185, 80, 248
-0.995212, 133, 185, 164, 248
-0.99523, 1, 145, 256, 208
-0.995237, 209, 341, 336, 372
-0.99525, 153, 249, 184, 312
-0.995253, 65, 17, 320, 80
-0.99526, 81, 205, 208, 236
-0.995292, 129, 289, 256, 320
-0.995311, 209, 313, 336, 344
-0.995351, 25, 153, 88, 216
-0.995352, 13, 145, 44, 272
-0.995357, 77, 65, 108, 128
-0.995376, 437, 65, 468, 192
-0.995396, 1, 305, 500, 368
-0.995399, 257, 313, 500, 375
-0.99542, 207, 201, 222, 264
-0.995426, 227, 313, 242, 375
-0.995438, 289, 129, 416, 192
-0.995455, 65, 301, 192, 332
-0.995507, 213, 57, 244, 120
-0.995507, 65, 277, 192, 308
-0.995523, 177, 217, 304, 248
-0.995557, 289, 153, 416, 216
-0.99556, 183, 201, 198, 264
-0.995609, 127, 225, 142, 288
-0.995613, 81, 325, 208, 356
-0.995642, 221, 193, 252, 256
-0.995661, 429, 257, 460, 320
-0.995661, 41, 1, 104, 256
-0.995678, 257, 185, 500, 248
-0.995689, 137, 313, 168, 375
-0.995691, 177, 241, 304, 272
-0.995694, 97, 245, 224, 276
-0.9957, 221, 313, 236, 375
-0.995701, 1, 249, 500, 312
-0.995726, 49, 337, 176, 368
-0.995727, 165, 273, 180, 336
-0.99573, 73, 169, 136, 232
-0.995776, 433, 1, 496, 256
-0.995779, 281, 1, 344, 375
-0.995785, 137, 209, 152, 272
-0.995788, 1, 9, 500, 72
-0.995801, 17, 97, 48, 224
-0.995815, 115, 217, 130, 280
-0.995824, 129, 333, 256, 364
-0.995829, 457, 193, 488, 320
-0.995833, 429, 209, 460, 336
-0.995838, 41, 225, 72, 352
-0.995878, 157, 185, 172, 248
-0.995903, 281, 49, 344, 176
-0.995904, 215, 305, 230, 368
-0.99591, 129, 161, 384, 224
-0.995937, 109, 209, 124, 272
-0.995949, 65, 105, 320, 168
-0.995965, 129, 277, 256, 308
-0.995969, 193, 77, 320, 108
-0.995971, 213, 233, 228, 296
-0.995977, 193, 209, 448, 272
-0.995984, 191, 177, 206, 240
-0.995986, 277, 241, 292, 304
-0.996005, 223, 257, 238, 320
-0.996015, 209, 301, 336, 332
-0.996021, 177, 289, 192, 352
-0.996022, 97, 57, 160, 120
-0.996063, 33, 217, 160, 248
-0.996067, 17, 77, 144, 108
-0.996072, 137, 105, 200, 168
-0.996075, 293, 273, 308, 336
-0.996115, 225, 145, 480, 208
-0.996116, 59, 81, 74, 144
-0.996122, 33, 229, 160, 260
-0.996132, 171, 289, 186, 352
-0.996154, 129, 213, 256, 244
-0.996163, 255, 241, 270, 304
-0.996199, 1, 1, 64, 375
-0.996217, 65, 1, 128, 375
-0.996283, 193, 53, 320, 84
-0.996295, 1, 201, 500, 264
-0.996297, 429, 17, 460, 144
-0.996304, 271, 249, 286, 312
-0.996314, 103, 89, 118, 152
-0.996326, 193, 33, 320, 64
-0.99633, 145, 253, 272, 284
-0.996334, 201, 177, 216, 240
-0.996344, 133, 233, 148, 296
-0.996351, 201, 225, 216, 288
-0.996356, 249, 233, 264, 296
-0.996357, 49, 49, 176, 112
-0.996369, 193, 65, 320, 96
-0.996379, 145, 265, 160, 328
-0.99639, 195, 97, 210, 160
-0.996426, 251, 209, 266, 272
-0.996427, 17, 241, 144, 272
-0.996445, 33, 201, 160, 232
-0.996458, 159, 281, 174, 344
-0.996463, 135, 257, 150, 320
-0.996464, 89, 105, 152, 168
-0.996486, 211, 265, 226, 328
-0.996502, 207, 225, 222, 288
-0.996507, 61, 113, 92, 240
-0.996508, 277, 81, 292, 144
-0.996514, 265, 249, 280, 312
-0.996516, 131, 193, 146, 256
-0.996538, 161, 305, 288, 336
-0.996541, 123, 305, 138, 368
-0.996554, 169, 313, 184, 375
-0.996566, 33, 257, 160, 288
-0.99658, 17, 89, 144, 120
-0.996581, 121, 225, 136, 288
-0.996593, 113, 249, 128, 312
-0.9966, 239, 265, 254, 328
-0.996647, 17, 33, 80, 160
-0.996659, 385, 241, 448, 368
-0.996667, 97, 1, 224, 64
-0.996691, 53, 73, 68, 136
-0.996692, 193, 289, 320, 320
-0.996715, 231, 265, 246, 328
-0.996728, 171, 257, 186, 320
-0.996732, 193, 89, 320, 120
-0.996733, 119, 193, 134, 256
-0.996733, 263, 209, 278, 272
-0.996736, 129, 129, 384, 192
-0.996757, 289, 341, 416, 372
-0.996767, 31, 153, 46, 216
-0.996774, 97, 113, 224, 144
-0.996775, 117, 297, 132, 360
-0.996778, 49, 121, 176, 152
-0.996783, 261, 17, 276, 80
-0.996784, 1, 257, 256, 320
-0.996792, 1, 113, 128, 144
-0.996824, 265, 1, 296, 256
-0.996824, 151, 193, 166, 256
-0.996831, 67, 89, 82, 152
-0.996832, 17, 241, 80, 304
-0.996839, 299, 313, 314, 375
-0.996867, 189, 225, 204, 288
-0.996869, 121, 137, 184, 200
-0.996885, 163, 217, 178, 280
-0.996887, 131, 313, 146, 375
-0.996893, 217, 25, 232, 88
-0.996901, 141, 233, 156, 296
-0.996903, 97, 81, 112, 144
-0.996905, 369, 41, 496, 72
-0.996909, 97, 33, 224, 96
-0.996912, 235, 241, 250, 304
-0.996919, 241, 69, 368, 100
-0.996925, 245, 209, 260, 272
-0.996926, 369, 265, 496, 296
-0.996931, 225, 89, 240, 152
-0.996937, 161, 1, 416, 64
-0.996975, 165, 169, 180, 232
-0.996976, 233, 313, 296, 375
-0.997016, 17, 285, 144, 316
-0.997016, 235, 289, 250, 352
-0.997017, 1, 1, 128, 64
-0.997027, 193, 265, 320, 296
-0.997033, 83, 297, 98, 360
-0.997042, 9, 265, 72, 328
-0.997046, 65, 77, 192, 108
-0.997057, 247, 273, 262, 336
-0.997062, 127, 249, 142, 312
-0.997073, 111, 289, 126, 352
-0.997084, 305, 145, 432, 272
-0.997087, 217, 1, 248, 256
-0.997088, 17, 101, 144, 132
-0.9971, 281, 105, 344, 168
-0.997105, 73, 89, 88, 152
-0.997106, 145, 193, 160, 256
-0.997111, 225, 225, 352, 256
-0.997123, 33, 317, 160, 348
-0.99714, 289, 233, 352, 296
-0.99715, 277, 57, 292, 120
-0.997151, 237, 17, 252, 80
-0.997152, 183, 289, 198, 352
-0.997159, 75, 313, 90, 375
-0.997165, 1, 137, 500, 200
-0.997175, 225, 321, 240, 352
-0.997179, 81, 265, 208, 296
-0.99718, 1, 129, 128, 160
-0.997183, 1, 105, 500, 168
-0.997189, 209, 253, 336, 284
-0.997197, 271, 209, 286, 272
-0.997206, 449, 121, 464, 184
-0.997236, 241, 129, 368, 192
-0.997254, 279, 9, 294, 72
-0.997263, 185, 177, 200, 240
-0.997265, 477, 113, 492, 176
-0.997267, 369, 121, 496, 152
-0.997267, 65, 65, 80, 128
-0.997271, 215, 89, 230, 152
-0.997277, 217, 273, 232, 336
-0.997284, 89, 281, 104, 344
-0.997288, 445, 97, 476, 352
-0.997293, 125, 193, 140, 256
-0.997295, 271, 89, 286, 152
-0.997299, 177, 101, 304, 132
-0.997301, 485, 257, 500, 320
-0.997306, 129, 193, 256, 224
-0.997324, 461, 17, 492, 144
-0.997334, 119, 249, 134, 312
-0.997335, 97, 49, 160, 176
-0.997347, 143, 289, 158, 352
-0.997356, 107, 265, 122, 328
-0.997363, 47, 169, 62, 232
-0.997366, 57, 105, 72, 168
-0.997366, 103, 209, 118, 272
-0.997382, 187, 265, 202, 328
-0.997387, 81, 89, 96, 152
-0.997399, 229, 241, 244, 304
-0.997399, 163, 305, 178, 368
-0.997402, 181, 225, 196, 288
-0.997425, 101, 81, 132, 208
-0.997425, 149, 217, 164, 280
-0.997427, 237, 89, 252, 152
-0.997435, 273, 269, 400, 300
-0.997436, 137, 305, 152, 368
-0.997437, 209, 177, 224, 240
-0.997439, 7, 153, 22, 216
-0.997444, 165, 193, 180, 256
-0.997445, 179, 177, 194, 240
-0.997461, 33, 25, 160, 88
-0.997464, 145, 77, 272, 108
-0.997501, 257, 209, 272, 272
-0.997502, 369, 253, 496, 284
-0.997502, 157, 209, 172, 272
-0.997509, 45, 65, 76, 320
-0.997519, 279, 105, 294, 168
-0.997526, 305, 185, 432, 248
-0.997532, 171, 193, 186, 256
-0.997554, 477, 265, 492, 328
-0.997557, 227, 337, 242, 368
-0.997558, 59, 57, 74, 120
-0.997561, 253, 185, 268, 248
-0.997563, 369, 185, 496, 216
-0.997564, 241, 21, 368, 52
-0.997568, 465, 121, 480, 184
-0.997573, 129, 165, 256, 196
-0.997575, 189, 97, 204, 160
-0.99758, 17, 301, 144, 332
-0.997581, 223, 233, 238, 296
-0.997602, 91, 73, 106, 136
-0.997643, 185, 97, 216, 352
-0.997649, 201, 201, 216, 232
-0.997652, 1, 341, 128, 372
-0.997653, 369, 277, 496, 308
-0.997657, 353, 193, 416, 320
-0.997663, 37, 153, 52, 216
-0.997668, 191, 205, 206, 236
-0.997672, 57, 17, 88, 144
-0.997674, 273, 285, 400, 316
-0.997675, 241, 57, 368, 88
-0.99768, 17, 273, 144, 304
-0.997689, 205, 1, 236, 256
-0.997689, 457, 121, 472, 184
-0.997693, 65, 93, 192, 124
-0.997694, 41, 185, 56, 248
-0.997695, 109, 209, 124, 240
-0.997696, 483, 113, 498, 176
-0.997697, 145, 289, 160, 320
-0.997705, 131, 289, 146, 352
-0.997711, 159, 289, 174, 320
-0.997726, 277, 209, 292, 272
-0.997729, 273, 329, 400, 360
-0.99773, 195, 225, 210, 288
-0.997734, 173, 97, 204, 352
-0.997752, 283, 233, 298, 296
-0.997753, 215, 185, 230, 248
-0.997754, 241, 113, 272, 240
-0.997761, 471, 265, 486, 328
-0.997767, 225, 213, 352, 244
-0.997768, 175, 313, 190, 375
-0.997774, 209, 113, 336, 144
-0.997775, 301, 289, 316, 352
-0.997783, 1, 153, 16, 216
-0.997783, 103, 65, 118, 128
-0.997792, 369, 109, 496, 140
-0.997795, 433, 113, 464, 240
-0.997801, 129, 177, 256, 208
-0.997802, 273, 317, 400, 348
-0.997805, 273, 305, 400, 336
-0.997831, 257, 121, 500, 184
-0.997835, 241, 81, 368, 112
-0.997841, 1, 329, 128, 360
-0.997853, 177, 125, 304, 156
-0.997853, 253, 1, 284, 256
-0.997864, 225, 265, 240, 296
-0.997888, 249, 213, 264, 244
-0.99789, 161, 129, 192, 375
-0.99789, 193, 185, 320, 216
-0.997893, 151, 289, 166, 320
-0.997914, 129, 125, 256, 156
-0.997921, 273, 81, 304, 208
-0.997923, 215, 309, 230, 340
-0.997933, 225, 237, 352, 268
-0.997957, 161, 9, 288, 40
-0.997971, 469, 97, 500, 352
-0.997979, 457, 97, 488, 352
-0.997991, 177, 201, 304, 232
-0.997995, 31, 157, 46, 188
-0.997996, 103, 81, 118, 112
-0.998002, 1, 169, 500, 232
-0.998006, 191, 193, 206, 224
-0.99804, 369, 221, 496, 252
-0.998047, 189, 217, 204, 248
-0.998054, 173, 293, 188, 324
-0.998076, 265, 97, 296, 352
-0.998106, 167, 293, 182, 324
-0.998111, 145, 65, 272, 96
-0.998117, 129, 145, 160, 272
-0.998118, 199, 221, 214, 252
-0.998122, 59, 113, 74, 144
-0.998137, 241, 45, 368, 76
-0.998137, 353, 297, 480, 328
-0.998143, 77, 113, 108, 240
-0.998146, 197, 129, 228, 375
-0.998152, 145, 25, 272, 56
-0.998158, 151, 217, 166, 248
-0.99817, 145, 277, 160, 308
-0.998172, 271, 93, 286, 124
-0.99818, 185, 205, 200, 236
-0.998183, 81, 65, 208, 96
-0.998185, 369, 61, 496, 92
-0.99819, 243, 221, 258, 252
-0.998191, 75, 117, 90, 148
-0.998191, 293, 281, 308, 312
-0.998194, 229, 1, 260, 256
-0.998194, 241, 33, 368, 64
-0.998198, 83, 113, 98, 144
-0.998199, 67, 117, 82, 148
-0.998201, 281, 1, 344, 128
-0.998207, 141, 221, 156, 252
-0.998211, 211, 229, 226, 260
-0.998217, 157, 213, 172, 244
-0.998221, 133, 257, 148, 288
-0.998232, 369, 205, 496, 236
-0.998243, 65, 185, 192, 216
-0.998255, 217, 73, 232, 104
-0.998255, 207, 205, 222, 236
-0.998272, 237, 21, 252, 52
-0.998273, 209, 173, 336, 204
-0.998278, 7, 157, 22, 188
-0.998281, 239, 273, 254, 304
-0.998287, 123, 257, 138, 288
-0.998288, 145, 89, 272, 120
-0.998289, 175, 341, 190, 372
-0.998294, 119, 209, 134, 240
-0.998297, 55, 73, 70, 104
-0.998298, 1, 65, 128, 96
-0.998299, 217, 25, 232, 56
-0.998305, 353, 1, 480, 32
-0.998313, 183, 217, 198, 248
-0.998314, 141, 265, 156, 296
-0.998319, 165, 281, 180, 312
-0.998328, 257, 241, 288, 256
-0.998328, 189, 299, 220, 314
-0.998329, 297, 329, 328, 344
-0.998329, 165, 239, 196, 254
-0.998329, 217, 283, 248, 298
-0.99833, 253, 89, 284, 104
-0.99833, 81, 239, 112, 254
-0.99833, 37, 111, 68, 126
-0.998331, 173, 207, 204, 222
-0.998331, 209, 81, 240, 96
-0.998332, 213, 333, 244, 348
-0.998333, 85, 121, 116, 136
-0.998334, 369, 233, 496, 264
-0.998334, 149, 235, 180, 250
-0.998335, 99, 217, 114, 248
-0.998336, 209, 125, 240, 140
-0.998337, 61, 193, 92, 208
-0.998337, 197, 293, 228, 308
-0.998337, 217, 277, 248, 292
-0.998338, 153, 199, 184, 214
-0.998338, 119, 305, 134, 336
-0.998338, 241, 67, 272, 82
-0.998338, 197, 305, 228, 320
-0.998339, 49, 193, 80, 208
-0.998339, 121, 309, 152, 324
-0.998339, 33, 169, 160, 200
-0.998339, 217, 303, 248, 318
-0.99834, 469, 199, 500, 214
-0.99834, 221, 245, 252, 260
-0.998341, 169, 345, 200, 360
-0.998341, 89, 117, 104, 148
-0.998341, 241, 23, 272, 38
-0.998342, 237, 217, 268, 232
-0.998343, 5, 169, 36, 184
-0.998345, 137, 199, 168, 214
-0.998346, 237, 235, 268, 250
-0.998346, 153, 227, 184, 242
-0.998346, 241, 85, 272, 100
-0.998346, 269, 73, 300, 88
-0.998347, 61, 89, 92, 104
-0.998347, 165, 225, 196, 240
-0.998347, 457, 197, 488, 212
-0.998348, 133, 221, 164, 236
-0.998348, 61, 223, 92, 238
-0.998348, 341, 355, 372, 370
-0.998352, 17, 159, 48, 174
-0.998352, 189, 215, 220, 230
-0.998352, 221, 245, 236, 276
-0.998354, 21, 175, 52, 190
-0.998355, 265, 95, 296, 110
-0.998355, 209, 243, 240, 258
-0.998355, 73, 229, 104, 244
-0.998356, 89, 229, 120, 244
-0.998356, 277, 281, 308, 296
-0.998357, 41, 131, 72, 146
-0.998357, 207, 217, 222, 248
-0.998358, 69, 131, 100, 146
-0.998358, 233, 187, 264, 202
-0.99836, 189, 209, 220, 224
-0.998361, 17, 189, 144, 220
-0.998361, 117, 225, 132, 256
-0.998362, 121, 301, 152, 316
-0.998363, 137, 211, 168, 226
-0.998363, 185, 243, 216, 258
-0.998366, 261, 81, 276, 112
-0.998366, 261, 217, 292, 232
-0.998367, 177, 297, 208, 312
-0.998367, 1, 165, 16, 196
-0.998368, 57, 97, 88, 112
-0.998369, 145, 305, 176, 320
-0.99837, 233, 273, 264, 288
-0.998371, 161, 137, 288, 168
-0.998371, 101, 231, 132, 246
-0.998371, 69, 115, 100, 130
-0.998372, 109, 311, 140, 326
-0.998372, 233, 333, 264, 348
-0.998372, 117, 215, 148, 230
-0.998374, 93, 127, 124, 142
-0.998374, 221, 341, 252, 356
-0.998375, 445, 197, 476, 212
-0.998377, 113, 231, 144, 246
-0.998377, 233, 327, 264, 342
-0.998379, 201, 311, 232, 326
-0.99838, 37, 125, 68, 140
-0.998381, 129, 269, 160, 284
-0.998381, 37, 187, 68, 202
-0.998383, 165, 217, 196, 232
-0.998383, 127, 313, 142, 344
-0.998384, 129, 291, 160, 306
-0.998384, 53, 121, 84, 136
-0.998384, 115, 245, 130, 276
-0.998386, 165, 233, 196, 248
-0.998387, 37, 73, 68, 88
-0.998388, 93, 115, 124, 130
-0.998388, 257, 249, 288, 264
-0.998388, 85, 217, 116, 232
-0.998389, 135, 209, 150, 240
-0.998389, 257, 75, 288, 90
-0.99839, 197, 237, 228, 252
-0.99839, 449, 57, 480, 72
-0.99839, 145, 113, 272, 144
-0.99839, 93, 85, 124, 100
-0.998392, 217, 191, 248, 206
-0.998392, 109, 225, 140, 240
-0.998394, 33, 173, 64, 188
-0.998395, 81, 311, 112, 326
-0.998396, 321, 233, 448, 296
-0.998396, 195, 97, 210, 128
-0.998398, 209, 251, 240, 266
-0.998399, 93, 241, 124, 256
-0.9984, 197, 243, 228, 258
-0.9984, 21, 165, 52, 180
-0.998401, 121, 315, 152, 330
-0.998402, 49, 89, 80, 104
-0.998404, 153, 193, 184, 208
-0.998405, 461, 53, 492, 68
-0.998405, 49, 105, 80, 120
-0.998406, 163, 217, 178, 248
-0.99841, 49, 187, 80, 202
-0.998411, 117, 205, 148, 220
-0.998412, 85, 133, 116, 148
-0.998413, 369, 157, 496, 188
-0.998414, 73, 219, 104, 234
-0.99842, 221, 271, 252, 286
-0.998421, 49, 113, 80, 128
-0.998422, 249, 215, 280, 230
-0.998424, 117, 259, 148, 274
-0.998424, 185, 223, 216, 238
-0.998424, 97, 211, 128, 226
-0.998427, 229, 253, 244, 284
-0.998428, 141, 299, 172, 314
-0.998428, 93, 287, 124, 302
-0.99843, 37, 193, 68, 208
-0.998432, 179, 293, 194, 324
-0.998433, 57, 131, 88, 146
-0.998434, 145, 219, 176, 234
-0.998436, 265, 17, 296, 32
-0.998436, 57, 79, 120, 94
-0.998438, 221, 79, 252, 94
-0.998439, 101, 317, 132, 332
-0.99844, 485, 193, 500, 224
-0.998441, 25, 157, 40, 188
-0.998443, 221, 25, 252, 40
-0.998444, 57, 101, 72, 132
-0.998446, 213, 323, 244, 338
-0.998446, 209, 193, 224, 224
-0.998446, 57, 65, 88, 320
-0.998447, 425, 161, 456, 288
-0.998447, 85, 223, 116, 238
-0.998447, 41, 181, 72, 196
-0.998449, 165, 351, 196, 366
-0.998451, 179, 229, 194, 260
-0.998452, 261, 17, 276, 48
-0.998452, 97, 77, 112, 108
-0.998452, 241, 73, 272, 88
-0.998452, 103, 113, 118, 144
-0.998453, 227, 241, 242, 272
-0.998453, 145, 293, 176, 308
-0.998454, 155, 193, 170, 224
-0.998455, 69, 77, 100, 92
-0.99846, 97, 217, 128, 232
-0.998461, 185, 193, 200, 224
-0.998466, 167, 309, 182, 340
-0.998472, 117, 257, 132, 288
-0.998474, 85, 79, 116, 94
-0.998476, 41, 169, 56, 200
-0.998479, 139, 285, 154, 316
-0.99848, 75, 73, 90, 104
-0.998487, 103, 313, 118, 344
-0.998487, 145, 295, 208, 310
-0.998492, 57, 75, 88, 90
-0.998499, 67, 85, 82, 116
-0.998505, 189, 241, 204, 272
-0.998507, 97, 223, 128, 238
-0.998512, 233, 75, 296, 90
-0.998515, 353, 21, 480, 52
-0.998516, 157, 295, 188, 310
-0.998517, 231, 269, 246, 300
-0.998517, 193, 161, 320, 192
-0.998519, 255, 213, 270, 244
-0.99852, 485, 121, 500, 152
-0.998523, 91, 217, 106, 248
-0.998529, 113, 299, 176, 314
-0.998529, 221, 129, 252, 375
-0.99853, 173, 217, 188, 248
-0.998532, 53, 117, 68, 148
-0.998534, 209, 27, 272, 42
-0.998537, 259, 257, 274, 288
-0.99854, 209, 81, 272, 96
-0.99854, 247, 233, 262, 264
-0.998542, 219, 345, 234, 375
-0.998542, 73, 225, 136, 240
-0.998542, 299, 325, 314, 356
-0.998544, 241, 9, 368, 40
-0.998546, 217, 85, 232, 116
-0.998549, 211, 241, 226, 272
-0.99855, 85, 297, 100, 328
-0.998551, 153, 217, 216, 232
-0.998551, 97, 217, 160, 232
-0.998551, 177, 343, 240, 358
-0.998551, 113, 293, 176, 308
-0.998552, 241, 219, 304, 234
-0.998554, 199, 241, 214, 272
-0.998554, 153, 231, 216, 246
-0.998556, 161, 301, 224, 316
-0.998558, 233, 21, 296, 36
-0.998563, 73, 317, 136, 332
-0.998565, 201, 189, 216, 220
-0.998565, 227, 85, 242, 116
-0.998567, 67, 105, 82, 136
-0.998568, 279, 97, 294, 128
-0.998569, 369, 345, 496, 375
-0.998571, 57, 123, 120, 138
-0.998574, 279, 17, 294, 48
-0.998574, 185, 253, 248, 268
-0.998576, 41, 73, 104, 88
-0.998576, 209, 273, 272, 288
-0.998577, 73, 215, 136, 230
-0.998578, 89, 289, 152, 304
-0.998578, 233, 277, 296, 292
-0.998579, 125, 297, 140, 328
-0.998579, 97, 317, 160, 332
-0.99858, 111, 225, 126, 256
-0.998582, 49, 131, 112, 146
-0.998582, 121, 311, 184, 326
-0.998583, 225, 309, 240, 340
-0.998583, 165, 193, 180, 224
-0.998585, 249, 237, 312, 252
-0.998586, 161, 211, 224, 226
-0.998586, 169, 307, 232, 322
-0.998588, 1, 175, 64, 190
-0.998589, 157, 277, 172, 308
-0.998589, 61, 73, 76, 104
-0.998591, 241, 225, 304, 240
-0.998592, 113, 305, 176, 320
-0.998592, 209, 245, 272, 260
-0.998593, 177, 293, 240, 308
-0.998593, 177, 353, 240, 368
-0.998594, 177, 335, 240, 350
-0.998594, 479, 193, 494, 224
-0.998595, 65, 133, 192, 164
-0.998595, 209, 233, 272, 248
-0.998598, 171, 229, 186, 260
-0.998598, 185, 293, 200, 324
-0.998598, 113, 223, 176, 238
-0.9986, 433, 55, 496, 70
-0.9986, 233, 325, 248, 356
-0.998601, 91, 77, 106, 108
-0.998602, 209, 73, 272, 88
-0.998603, 97, 283, 160, 298
-0.998603, 97, 273, 160, 288
-0.998604, 185, 323, 248, 338
-0.998604, 129, 205, 192, 220
-0.998604, 259, 69, 274, 100
-0.998605, 281, 1, 312, 256
-0.998605, 121, 235, 184, 250
-0.998606, 231, 281, 246, 312
-0.998606, 369, 173, 496, 204
-0.998607, 19, 165, 34, 196
-0.998607, 225, 89, 288, 104
-0.998608, 145, 205, 160, 236
-0.998609, 169, 317, 232, 332
-0.998611, 153, 237, 216, 252
-0.998613, 193, 215, 256, 230
-0.998613, 1, 157, 128, 188
-0.998614, 129, 351, 192, 366
-0.998616, 185, 243, 248, 258
-0.998616, 137, 339, 200, 354
-0.998617, 33, 183, 96, 198
-0.998617, 177, 329, 240, 344
-0.998618, 97, 259, 160, 274
-0.998618, 137, 359, 200, 374
-0.998619, 137, 289, 200, 304
-0.998619, 185, 271, 248, 286
-0.99862, 223, 73, 238, 104
-0.99862, 33, 191, 96, 206
-0.998621, 153, 223, 216, 238
-0.998622, 239, 309, 254, 340
-0.998624, 73, 237, 136, 252
-0.998624, 211, 293, 226, 324
-0.998624, 97, 211, 160, 226
-0.998625, 41, 103, 104, 118
-0.998626, 57, 111, 120, 126
-0.998627, 153, 195, 216, 210
-0.998627, 257, 19, 320, 34
-0.998627, 73, 299, 136, 314
-0.998627, 41, 89, 104, 104
-0.998628, 209, 239, 272, 254
-0.99863, 73, 309, 136, 324
-0.99863, 209, 301, 272, 316
-0.998631, 73, 209, 136, 224
-0.998631, 241, 231, 304, 246
-0.998631, 433, 199, 496, 214
-0.998631, 97, 203, 160, 218
-0.998632, 197, 125, 212, 156
-0.998632, 249, 247, 312, 262
-0.998633, 209, 67, 272, 82
-0.998634, 257, 281, 320, 296
-0.998634, 169, 77, 232, 92
-0.998635, 241, 213, 304, 228
-0.998635, 217, 341, 280, 356
-0.998635, 165, 173, 180, 204
-0.998635, 109, 269, 124, 300
-0.998636, 177, 223, 240, 238
-0.998637, 97, 231, 160, 246
-0.998637, 177, 359, 240, 374
-0.998637, 215, 125, 230, 156
-0.998637, 137, 277, 200, 292
-0.998637, 353, 361, 416, 375
-0.998637, 209, 189, 272, 204
-0.998638, 201, 209, 264, 224
-0.998639, 225, 253, 288, 268
-0.998639, 369, 89, 496, 120
-0.998642, 281, 331, 344, 346
-0.998643, 233, 67, 296, 82
-0.998643, 81, 217, 96, 248
-0.998644, 41, 117, 104, 132
-0.998644, 65, 329, 128, 344
-0.998645, 177, 287, 240, 302
-0.998645, 217, 347, 280, 362
-0.998645, 93, 285, 108, 316
-0.998646, 121, 317, 184, 332
-0.998647, 209, 323, 272, 338
-0.998647, 137, 333, 200, 348
-0.998648, 453, 265, 468, 296
-0.998648, 121, 345, 184, 360
-0.998648, 129, 197, 192, 212
-0.998649, 201, 227, 264, 242
-0.99865, 233, 77, 248, 108
-0.99865, 233, 81, 296, 96
-0.998652, 321, 355, 384, 370
-0.998652, 129, 323, 192, 338
-0.998653, 185, 191, 248, 206
-0.998654, 41, 239, 104, 254
-0.998656, 113, 267, 176, 282
-0.998656, 97, 311, 160, 326
-0.998656, 1, 167, 64, 182
-0.998656, 249, 253, 312, 268
-0.998657, 121, 229, 184, 244
-0.998657, 17, 73, 80, 88
-0.998657, 433, 271, 496, 286
-0.998657, 41, 95, 104, 110
-0.998658, 249, 27, 312, 42
-0.998659, 65, 335, 128, 350
-0.998659, 201, 221, 264, 236
-0.998659, 49, 219, 112, 234
-0.998662, 217, 335, 280, 350
-0.998662, 187, 281, 202, 312
-0.998663, 137, 211, 200, 226
-0.998663, 209, 33, 272, 48
-0.998663, 59, 125, 74, 156
-0.998663, 209, 41, 272, 56
-0.998664, 257, 73, 320, 88
-0.998664, 49, 177, 64, 208
-0.998664, 25, 131, 88, 146
-0.998664, 89, 323, 152, 338
-0.998666, 9, 183, 72, 198
-0.998666, 97, 245, 160, 260
-0.998666, 41, 231, 104, 246
-0.998666, 155, 301, 170, 332
-0.998666, 235, 257, 250, 288
-0.998666, 109, 281, 124, 312
-0.998666, 1, 129, 32, 256
-0.998667, 257, 91, 320, 106
-0.998667, 145, 345, 208, 360
-0.998686, 113, 137, 240, 168
-0.998687, 369, 73, 496, 104
-0.998706, 161, 149, 288, 180
-0.998712, 113, 153, 240, 184
-0.998718, 109, 33, 140, 160
-0.998746, 369, 133, 496, 164
-0.998748, 153, 97, 184, 224
-0.998754, 321, 277, 448, 308
-0.998755, 113, 45, 240, 76
-0.998756, 223, 241, 238, 368
-0.998758, 241, 1, 272, 256
-0.998769, 129, 101, 256, 132
-0.998777, 211, 209, 226, 336
-0.998801, 241, 197, 368, 228
-0.998805, 149, 129, 180, 375
-0.998813, 161, 105, 416, 168
-0.998821, 257, 101, 384, 132
-0.998839, 21, 129, 52, 375
-0.998848, 289, 73, 416, 104
-0.998863, 113, 13, 240, 44
-0.998877, 337, 333, 464, 364
-0.998886, 89, 17, 120, 144
-0.998889, 187, 193, 202, 320
-0.998909, 127, 209, 142, 336
-0.998919, 261, 1, 276, 128
-0.998925, 133, 209, 148, 336
-0.998933, 253, 129, 284, 375
-0.998965, 117, 209, 132, 336
-0.998984, 369, 1, 432, 375
-0.998986, 29, 1, 60, 256
-0.998986, 277, 97, 308, 352
-0.999021, 29, 225, 60, 352
-0.999027, 209, 97, 240, 352
-0.999049, 173, 1, 204, 256
-0.999064, 217, 17, 232, 144
-0.999065, 237, 17, 252, 144
-0.999074, 117, 129, 148, 256
-0.99908, 429, 1, 460, 256
-0.999091, 195, 193, 210, 320
-0.999092, 177, 209, 192, 336
-0.999092, 159, 209, 174, 336
-0.999094, 277, 1, 292, 128
-0.999115, 121, 17, 184, 144
-0.999118, 201, 193, 216, 320
-0.999145, 109, 193, 124, 320
-0.999152, 241, 129, 272, 375
-0.999156, 167, 225, 182, 352
-0.999165, 285, 97, 316, 224
-0.999167, 251, 193, 266, 320
-0.999169, 111, 241, 126, 368
-0.999173, 129, 1, 192, 256
-0.999181, 217, 225, 232, 352
-0.999182, 69, 33, 100, 288
-0.999186, 55, 65, 70, 192
-0.999208, 269, 1, 284, 128
-0.999218, 261, 193, 276, 320
-0.99925, 229, 225, 244, 352
-0.999252, 269, 193, 284, 320
-0.999261, 139, 193, 154, 320
-0.99927, 223, 81, 238, 208
-0.999273, 93, 97, 124, 352
-0.999286, 103, 65, 118, 192
-0.999296, 223, 177, 238, 304
-0.999299, 481, 113, 496, 240
-0.999303, 231, 17, 246, 144
-0.999319, 215, 81, 230, 208
-0.999323, 105, 241, 120, 368
-0.999326, 205, 241, 220, 368
-0.999328, 451, 113, 466, 240
-0.999331, 445, 1, 476, 256
-0.999345, 223, 17, 238, 144
-0.99935, 185, 145, 200, 272
-0.999352, 235, 241, 250, 368
-0.999354, 471, 113, 486, 240
-0.99936, 153, 209, 168, 336
-0.999362, 217, 177, 232, 304
-0.999369, 49, 113, 64, 240
-0.999371, 233, 81, 248, 208
-0.999372, 145, 1, 208, 128
-0.999372, 245, 177, 260, 304
-0.999377, 259, 65, 274, 192
-0.999378, 279, 209, 294, 336
-0.999378, 125, 161, 140, 288
-0.999383, 273, 81, 288, 208
-0.999388, 139, 241, 154, 368
-0.999397, 165, 177, 180, 304
-0.999397, 197, 241, 212, 368
-0.999411, 451, 49, 466, 176
-0.999412, 101, 193, 116, 320
-0.999418, 461, 113, 476, 240
-0.999425, 145, 209, 160, 336
-0.999428, 159, 161, 174, 288
-0.99943, 197, 145, 212, 272
-0.999434, 207, 161, 222, 288
-0.999438, 477, 65, 492, 192
-0.999439, 193, 1, 224, 256
-0.999444, 119, 161, 134, 288
-0.999447, 183, 241, 198, 368
-0.999451, 251, 241, 266, 368
-0.999454, 195, 97, 210, 224
-0.999459, 33, 129, 48, 256
-0.999465, 255, 145, 270, 272
-0.999465, 171, 177, 186, 304
-0.999473, 255, 1, 270, 128
-0.999476, 43, 161, 58, 288
-0.999476, 291, 241, 306, 368
-0.999482, 189, 241, 204, 368
-0.999484, 471, 241, 486, 368
-0.999486, 133, 161, 148, 288
-0.99949, 189, 97, 204, 224
-0.999496, 229, 177, 244, 304
-0.999501, 77, 241, 92, 368
-0.999503, 211, 33, 226, 160
-0.999503, 465, 65, 480, 192
-0.999505, 97, 65, 112, 192
-0.999506, 55, 113, 70, 240
-0.999515, 81, 65, 112, 320
-0.999525, 165, 129, 180, 256
-0.999526, 433, 97, 464, 352
-0.999527, 483, 209, 498, 336
-0.999528, 279, 97, 294, 224
-0.999529, 471, 65, 486, 192
-0.999531, 451, 241, 466, 368
-0.999533, 257, 241, 272, 368
-0.999533, 105, 113, 120, 240
-0.999533, 33, 97, 64, 352
-0.999535, 267, 81, 282, 208
-0.999536, 477, 241, 492, 368
-0.999537, 103, 115, 118, 130
-0.999539, 459, 241, 474, 368
-0.999539, 207, 203, 222, 218
-0.999539, 59, 121, 74, 136
-0.999539, 81, 243, 96, 258
-0.99954, 469, 197, 484, 212
-0.999541, 159, 289, 174, 304
-0.999542, 73, 115, 88, 130
-0.999542, 209, 307, 224, 322
-0.999542, 179, 145, 194, 272
-0.999543, 163, 307, 178, 322
-0.999544, 55, 113, 70, 128
-0.999545, 461, 197, 476, 212
-0.999545, 231, 269, 246, 284
-0.999546, 245, 225, 260, 352
-0.999546, 151, 299, 166, 314
-0.999546, 237, 91, 252, 106
-0.999546, 189, 241, 204, 256
-0.999547, 205, 221, 220, 236
-0.999547, 101, 317, 116, 332
-0.999547, 111, 225, 126, 240
-0.999548, 33, 175, 48, 190
-0.999548, 261, 251, 276, 266
-0.999548, 153, 219, 168, 234
-0.999548, 183, 215, 198, 230
-0.999548, 161, 233, 176, 248
-0.999548, 49, 125, 64, 140
-0.999548, 227, 91, 242, 106
-0.999548, 221, 245, 236, 260
-0.999549, 163, 225, 178, 240
-0.999549, 231, 77, 246, 92
-0.99955, 199, 243, 214, 258
-0.99955, 261, 89, 276, 104
-0.999551, 97, 287, 112, 302
-0.999552, 179, 231, 194, 246
-0.999552, 41, 187, 56, 202
-0.999552, 191, 145, 206, 272
-0.999553, 117, 259, 132, 274
-0.999554, 47, 175, 62, 190
-0.999554, 227, 335, 242, 350
-0.999554, 245, 233, 260, 248
-0.999555, 59, 105, 74, 120
-0.999555, 87, 133, 102, 148
-0.999555, 131, 257, 146, 272
-0.999556, 63, 189, 78, 204
-0.999556, 217, 27, 232, 42
-0.999556, 89, 209, 104, 336
-0.999557, 277, 73, 292, 88
-0.999557, 185, 221, 200, 236
-0.999558, 447, 161, 462, 288
-0.999558, 139, 291, 154, 306
-0.999558, 99, 215, 114, 230
-0.999558, 83, 113, 98, 128
-0.999558, 69, 131, 84, 146
-0.999559, 201, 213, 216, 228
-0.99956, 279, 109, 294, 124
-0.99956, 165, 353, 180, 368
-0.99956, 109, 207, 124, 222
-0.99956, 105, 81, 120, 96
-0.999561, 261, 21, 276, 36
-0.999561, 165, 193, 180, 208
-0.999562, 187, 295, 202, 310
-0.999562, 101, 227, 116, 242
-0.999562, 445, 113, 460, 240
-0.999562, 195, 107, 210, 122
-0.999563, 217, 79, 232, 94
-0.999563, 211, 235, 226, 250
-0.999563, 293, 283, 308, 298
-0.999564, 71, 75, 86, 90
-0.999564, 59, 79, 74, 94
-0.999565, 237, 273, 252, 288
-0.999565, 49, 65, 64, 192
-0.999565, 157, 303, 172, 318
-0.999566, 75, 223, 90, 238
-0.999566, 151, 161, 166, 288
-0.999566, 69, 189, 84, 204
-0.999567, 195, 101, 210, 116
-0.999567, 237, 25, 252, 40
-0.999568, 465, 53, 480, 68
-0.999568, 87, 223, 102, 238
-0.999569, 195, 215, 210, 230
-0.999569, 223, 275, 238, 290
-0.99957, 47, 193, 62, 208
-0.99957, 155, 189, 170, 204
-0.99957, 49, 161, 64, 288
-0.999571, 457, 55, 472, 70
-0.999573, 199, 223, 214, 238
-0.999573, 273, 95, 288, 110
-0.999574, 49, 181, 64, 196
-0.999575, 93, 133, 108, 148
-0.999575, 93, 221, 108, 236
-0.999576, 83, 49, 98, 176
-0.999576, 457, 65, 472, 192
-0.999576, 67, 113, 82, 128
-0.999578, 95, 193, 110, 320
-0.999578, 485, 51, 500, 66
-0.999578, 93, 79, 108, 94
-0.999579, 175, 347, 190, 362
-0.999579, 279, 17, 294, 32
-0.99958, 63, 131, 78, 146
-0.999582, 219, 251, 234, 266
-0.999582, 239, 81, 254, 208
-0.999582, 77, 193, 92, 320
-0.999582, 103, 127, 118, 142
-0.999584, 155, 195, 170, 210
-0.999584, 83, 77, 98, 92
-0.999584, 197, 193, 212, 208
-0.999586, 277, 145, 292, 272
-0.999587, 465, 241, 480, 368
-0.999588, 451, 55, 466, 70
-0.999588, 445, 241, 460, 368
-0.999589, 471, 53, 486, 68
-0.999589, 99, 133, 114, 148
-0.999589, 237, 77, 252, 92
-0.999589, 129, 315, 144, 330
-0.999589, 189, 201, 204, 216
-0.999589, 213, 129, 228, 256
-0.999589, 123, 311, 138, 326
-0.99959, 303, 225, 318, 352
-0.99959, 441, 65, 456, 192
-0.99959, 211, 243, 226, 258
-0.999591, 207, 197, 222, 212
-0.999595, 249, 217, 264, 232
-0.999596, 171, 233, 186, 248
-0.999596, 81, 219, 96, 234
-0.999596, 189, 211, 204, 226
-0.999597, 61, 73, 76, 88
-0.999597, 163, 295, 178, 310
-0.999597, 485, 65, 500, 192
-0.999598, 141, 269, 156, 284
-0.999599, 197, 201, 212, 216
-0.999601, 145, 297, 160, 312
-0.999602, 91, 65, 106, 192
-0.999602, 99, 81, 114, 96
-0.999603, 55, 129, 70, 144
-0.999603, 41, 173, 56, 188
-0.999603, 477, 53, 492, 68
-0.999606, 181, 295, 196, 310
-0.999609, 215, 311, 230, 326
-0.99961, 477, 193, 492, 320
-0.99961, 31, 157, 46, 172
-0.999613, 283, 1, 298, 128
-0.999613, 83, 241, 98, 368
-0.999615, 225, 269, 240, 284
-0.999615, 265, 145, 280, 272
-0.999618, 271, 241, 286, 368
-0.999618, 159, 219, 174, 234
-0.99962, 285, 209, 300, 336
-0.99962, 5, 145, 20, 272
-0.999621, 469, 17, 484, 144
-0.999623, 43, 181, 58, 196
-0.999624, 239, 193, 254, 320
-0.999626, 219, 129, 234, 256
-0.999628, 153, 293, 168, 308
-0.999628, 55, 73, 70, 88
-0.999629, 191, 221, 206, 236
-0.999635, 191, 195, 206, 210
-0.999635, 145, 161, 160, 288
-0.999639, 99, 221, 114, 236
-0.999641, 99, 241, 114, 368
-0.999642, 181, 97, 196, 224
-0.999644, 247, 33, 262, 160
-0.999645, 61, 65, 76, 192
-0.999645, 201, 97, 216, 224
-0.999646, 207, 81, 222, 208
-0.999646, 439, 209, 454, 336
-0.99965, 109, 219, 124, 234
-0.999652, 27, 129, 42, 256
-0.999653, 109, 213, 124, 228
-0.999657, 471, 193, 486, 320
-0.999679, 225, 341, 240, 356
-0.999686, 17, 33, 48, 288
-0.999693, 145, 291, 160, 306
-0.999696, 227, 323, 242, 338
-0.999735, 37, 1, 68, 128
-0.999832, 5, 129, 36, 375
-0.999932, 401, 209, 432, 336
-0.999996, 161, 33, 192, 288
-1.00003, 385, 129, 448, 375
-1.00005, 297, 193, 328, 320
-1.00012, 137, 129, 168, 375
-1.00013, 69, 129, 100, 375
-1.0002, 113, 97, 144, 352
-1.0002, 461, 1, 492, 256
-1.00022, 381, 225, 412, 352
-1.00023, 77, 17, 108, 144
-1.00026, 5, 33, 36, 288
-1.00031, 301, 129, 332, 375
-1.00036, 401, 129, 432, 375
-1.00037, 125, 129, 156, 375
-1.00049, 401, 33, 432, 288
-1.0005, 109, 1, 140, 256
-1.00059, 289, 97, 320, 352
-1.00061, 421, 129, 452, 375
-1.00065, 301, 1, 332, 256
-1.00067, 93, 1, 124, 256
-1.00071, 149, 33, 180, 288
-1.00075, 345, 1, 408, 375
-1.00078, 381, 1, 412, 256
-1.00087, 381, 129, 412, 375
-1.00098, 281, 33, 344, 288
-1.00099, 137, 33, 168, 288
-1.00122, 125, 33, 156, 288
-1.00133, 425, 65, 456, 192
-1.0014, 413, 1, 444, 256
-1.00154, 161, 49, 192, 176
-1.00165, 349, 1, 380, 256
-1.00167, 313, 1, 344, 256
-1.00168, 341, 129, 372, 375
-1.0017, 361, 1, 392, 256
-1.00172, 401, 1, 432, 128
-1.00172, 337, 1, 368, 256
-1.00173, 325, 1, 356, 256
-1.00177, 369, 129, 400, 375
-1.00182, 329, 129, 360, 375
-1.00186, 317, 97, 348, 352
-1.00188, 5, 81, 36, 208
-1.00198, 353, 129, 384, 375
-1.00215, 353, 49, 416, 176
-1.00215, 417, 241, 448, 368
-1.00223, 121, 65, 184, 192
-1.00226, 97, 33, 160, 288
-1.00234, 17, 1, 48, 128
-1.00239, 305, 1, 368, 375
-1.00271, 301, 113, 332, 240
-1.00291, 401, 97, 432, 224
-1.00292, 1, 193, 64, 320
-1.00292, 353, 145, 416, 272
-1.00294, 49, 1, 176, 64
-1.00297, 157, 1, 188, 128
-1.00307, 301, 1, 332, 128
-1.00312, 401, 49, 432, 176
-1.00315, 353, 1, 416, 256
-1.00325, 353, 1, 416, 128
-1.00333, 301, 65, 332, 192
-1.00342, 141, 113, 172, 240
-1.00343, 385, 1, 416, 128
-1.00351, 421, 113, 452, 240
-1.00357, 353, 97, 416, 224
-1.00359, 381, 177, 412, 304
-1.00361, 353, 97, 416, 352
-1.00363, 377, 1, 440, 256
-1.00374, 17, 193, 48, 320
-1.00376, 401, 145, 432, 272
-1.00387, 385, 49, 416, 176
-1.00391, 25, 49, 56, 176
-1.00403, 381, 113, 412, 240
-1.00421, 341, 241, 372, 368
-1.00479, 297, 129, 360, 375
-1.00483, 289, 97, 352, 224
-1.00496, 1, 177, 32, 304
-1.00565, 377, 1, 440, 128
-1.00601, 313, 241, 376, 368
-1.00649, 377, 49, 440, 176
-1.00738, 97, 97, 160, 224
-1.00782, 297, 145, 360, 272
-1.00791, 97, 1, 160, 128
-1.00796, 73, 1, 136, 128
-1.00925, 313, 1, 376, 256
-1.01105, 321, 97, 384, 352
-1.01305, 329, 193, 392, 320
-1.01383, 305, 1, 368, 128
-1.01442, 329, 1, 392, 128
-1.01471, 329, 145, 392, 272
-1.01478, 329, 49, 392, 176
-1.01478, 329, 97, 392, 224
-1.01526, 305, 49, 368, 176
-1.0167, 305, 193, 368, 320
