1949
-0.348528, 33, 1, 288, 500
-0.358854, 1, 193, 375, 448
-0.369318, 1, 1, 375, 500
-0.389599, 1, 65, 375, 320
-0.407787, 129, 1, 375, 500
-0.529265, 129, 65, 375, 320
-0.580203, 33, 257, 288, 500
-0.583437, 33, 65, 288, 320
-0.605712, 129, 225, 375, 480
-0.631156, 33, 161, 288, 416
-0.810227, 145, 1, 272, 500
-0.824381, 113, 193, 240, 448
-0.840764, 145, 65, 272, 320
-0.842029, 97, 1, 224, 500
-0.847408, 1, 369, 375, 496
-0.853543, 161, 225, 288, 480
-0.857544, 1, 193, 375, 320
-0.863874, 81, 97, 208, 352
-0.86709, 65, 257, 192, 500
-0.870492, 49, 1, 176, 500
-0.877835, 1, 65, 375, 192
-0.87905, 241, 1, 368, 500
-0.880945, 33, 97, 160, 352
-0.882881, 225, 65, 352, 320
-0.883688, 1, 321, 375, 448
-0.89278, 17, 225, 144, 480
-0.894609, 193, 1, 320, 500
-0.90302, 65, 369, 320, 496
-0.903852, 225, 193, 352, 448
-0.907225, 1, 145, 375, 272
-0.910126, 33, 65, 288, 192
-0.912114, 1, 241, 375, 368
-0.913491, 1, 1, 128, 500
-0.919875, 97, 193, 352, 320
-0.920923, 65, 1, 192, 256
-0.921495, 145, 369, 272, 496
-0.924794, 1, 257, 256, 384
-0.925407, 193, 369, 256, 496
-0.926486, 129, 65, 375, 192
-0.929587, 81, 369, 208, 496
-0.929864, 1, 369, 128, 496
-0.930197, 113, 209, 240, 336
-0.930204, 209, 305, 272, 432
-0.931126, 145, 65, 272, 192
-0.93119, 33, 305, 288, 432
-0.932371, 137, 369, 200, 496
-0.933574, 97, 225, 160, 352
-0.934078, 97, 369, 160, 496
-0.935091, 65, 145, 320, 272
-0.935895, 113, 305, 240, 432
-0.93734, 193, 353, 320, 480
-0.937997, 113, 257, 240, 384
-0.938207, 161, 369, 224, 496
-0.939185, 137, 193, 200, 320
-0.940139, 49, 257, 176, 384
-0.940979, 129, 321, 375, 448
-0.941717, 161, 433, 224, 496
-0.941828, 65, 65, 192, 192
-0.943232, 233, 369, 296, 496
-0.943259, 177, 409, 240, 472
-0.943437, 161, 273, 224, 400
-0.944848, 193, 225, 256, 352
-0.945281, 1, 209, 256, 336
-0.94577, 129, 305, 192, 432
-0.94687, 201, 377, 264, 440
-0.948042, 49, 369, 112, 496
-0.948392, 177, 281, 240, 344
-0.9486, 225, 193, 352, 320
-0.948621, 225, 81, 352, 208
-0.949472, 65, 321, 192, 448
-0.949996, 201, 321, 264, 384
-0.950107, 113, 417, 176, 480
-0.950182, 73, 417, 136, 480
-0.950525, 217, 409, 280, 472
-0.95096, 209, 353, 272, 416
-0.951101, 177, 377, 240, 440
-0.951288, 225, 329, 288, 392
-0.951365, 153, 401, 216, 464
-0.951469, 177, 305, 304, 432
-0.951585, 185, 433, 248, 496
-0.951614, 145, 161, 272, 288
-0.952089, 97, 321, 160, 448
-0.952123, 89, 393, 152, 456
-0.952871, 145, 281, 208, 344
-0.95297, 145, 113, 272, 240
-0.95368, 257, 369, 320, 496
-0.95408, 129, 393, 192, 456
-0.954323, 193, 257, 320, 384
-0.954662, 97, 233, 160, 296
-0.954877, 225, 225, 288, 352
-0.955003, 169, 209, 232, 336
-0.956411, 225, 129, 352, 256
-0.95686, 73, 369, 136, 496
-0.957005, 1, 321, 128, 448
-0.957072, 73, 65, 136, 192
-0.95716, 97, 257, 352, 384
-0.957558, 1, 257, 128, 384
-0.957655, 313, 65, 375, 192
-0.957974, 177, 353, 240, 416
-0.958264, 161, 49, 224, 176
-0.95835, 121, 257, 184, 384
-0.95842, 9, 369, 72, 496
-0.958459, 81, 129, 208, 256
-0.959457, 153, 305, 216, 368
-0.959482, 289, 369, 352, 496
-0.959645, 185, 321, 248, 448
-0.95975, 1, 17, 375, 144
-0.959895, 49, 209, 176, 336
-0.96042, 241, 369, 368, 496
-0.960853, 1, 1, 128, 256
-0.961798, 41, 225, 104, 352
-0.962067, 1, 193, 128, 320
-0.962416, 49, 409, 112, 472
-0.962447, 209, 177, 272, 304
-0.962451, 129, 81, 192, 208
-0.96274, 129, 313, 192, 376
-0.962855, 241, 161, 304, 288
-0.962921, 137, 433, 200, 496
-0.962991, 161, 209, 288, 336
-0.9638, 185, 273, 248, 400
-0.963877, 233, 321, 296, 448
-0.964059, 209, 433, 272, 496
-0.964122, 137, 201, 200, 264
-0.964216, 209, 33, 336, 160
-0.964275, 201, 65, 264, 192
-0.964285, 161, 321, 224, 448
-0.964303, 225, 385, 288, 448
-0.96431, 153, 369, 216, 432
-0.964702, 33, 17, 288, 144
-0.96488, 65, 241, 128, 368
-0.965031, 57, 321, 120, 448
-0.965411, 97, 65, 160, 192
-0.965436, 121, 281, 184, 344
-0.965507, 1, 425, 64, 488
-0.965699, 201, 369, 232, 496
-0.965778, 129, 17, 375, 144
-0.965845, 145, 425, 272, 488
-0.966066, 181, 401, 212, 464
-0.966157, 65, 393, 192, 456
-0.966222, 249, 353, 312, 416
-0.966242, 157, 369, 188, 496
-0.966422, 153, 145, 216, 272
-0.966598, 49, 433, 112, 496
-0.966604, 257, 417, 320, 480
-0.966697, 49, 361, 112, 424
-0.966869, 169, 193, 232, 448
-0.966975, 153, 177, 216, 240
-0.967241, 177, 385, 304, 448
-0.967473, 165, 393, 196, 456
-0.96768, 129, 369, 192, 432
-0.967682, 177, 337, 304, 400
-0.967742, 133, 369, 164, 496
-0.967809, 113, 353, 240, 416
-0.967835, 97, 225, 160, 480
-0.967862, 177, 329, 240, 392
-0.967867, 113, 417, 144, 480
-0.967885, 1, 393, 64, 456
-0.968024, 169, 369, 200, 496
-0.968497, 221, 313, 252, 376
-0.968514, 189, 337, 220, 464
-0.968551, 217, 337, 248, 464
-0.968617, 193, 225, 256, 480
-0.968693, 193, 409, 224, 472
-0.968695, 249, 393, 312, 456
-0.968788, 209, 241, 272, 304
-0.968896, 137, 161, 200, 416
-0.968932, 121, 145, 184, 272
-0.969123, 237, 353, 268, 480
-0.96921, 225, 345, 256, 408
-0.969277, 273, 177, 336, 304
-0.969525, 113, 321, 240, 384
-0.969704, 145, 369, 176, 496
-0.969978, 209, 401, 240, 464
-0.970006, 169, 57, 232, 120
-0.970012, 313, 129, 375, 256
-0.97007, 65, 425, 192, 488
-0.970173, 273, 81, 336, 208
-0.970239, 149, 281, 180, 344
-0.970293, 193, 433, 224, 496
-0.970296, 81, 321, 144, 384
-0.970318, 113, 377, 240, 440
-0.970561, 97, 353, 160, 416
-0.970587, 233, 225, 296, 480
-0.970616, 89, 273, 152, 400
-0.970893, 113, 217, 240, 280
-0.970949, 245, 385, 276, 448
-0.970988, 233, 321, 264, 384
-0.97099, 161, 209, 224, 272
-0.971014, 173, 289, 204, 352
-0.971049, 113, 401, 240, 464
-0.971098, 17, 433, 144, 496
-0.971124, 25, 433, 88, 496
-0.971164, 85, 417, 116, 480
-0.971255, 73, 73, 136, 136
-0.971477, 129, 97, 192, 160
-0.97148, 217, 289, 248, 416
-0.971504, 33, 129, 160, 256
-0.971552, 1, 377, 128, 440
-0.971567, 209, 201, 272, 264
-0.971615, 253, 369, 284, 496
-0.971752, 205, 353, 236, 416
-0.971861, 181, 433, 212, 496
-0.971907, 165, 433, 196, 496
-0.971978, 65, 273, 192, 336
-0.97205, 289, 433, 352, 496
-0.972071, 225, 393, 256, 456
-0.972089, 89, 393, 120, 456
-0.972092, 129, 297, 256, 360
-0.972277, 49, 233, 112, 296
-0.9725, 213, 433, 244, 496
-0.972516, 113, 257, 176, 320
-0.972524, 289, 385, 352, 448
-0.972784, 109, 369, 140, 496
-0.972974, 209, 313, 240, 376
-0.973029, 237, 353, 268, 416
-0.973403, 137, 257, 200, 500
-0.973406, 25, 377, 88, 440
-0.97347, 113, 17, 240, 144
-0.973601, 193, 417, 320, 480
-0.973648, 193, 65, 256, 128
-0.973736, 201, 297, 264, 360
-0.973926, 249, 201, 312, 264
-0.973951, 313, 73, 375, 136
-0.973981, 129, 337, 192, 400
-0.974229, 57, 177, 120, 304
-0.974269, 49, 273, 112, 336
-0.974373, 73, 369, 136, 432
-0.974402, 125, 417, 156, 480
-0.974406, 145, 65, 272, 128
-0.974486, 189, 329, 220, 392
-0.974489, 129, 65, 192, 320
-0.974536, 57, 113, 120, 176
-0.974597, 97, 73, 160, 136
-0.974647, 229, 417, 260, 480
-0.974682, 17, 65, 144, 192
-0.97472, 89, 257, 152, 320
-0.974887, 129, 73, 192, 136
-0.974905, 137, 385, 168, 448
-0.974994, 145, 417, 176, 480
-0.975062, 65, 17, 192, 144
-0.975066, 97, 289, 160, 352
-0.975075, 101, 425, 132, 488
-0.975206, 197, 385, 228, 448
-0.975227, 149, 305, 180, 368
-0.975419, 217, 225, 248, 352
-0.975469, 113, 129, 176, 192
-0.975487, 137, 257, 200, 320
-0.97558, 201, 65, 264, 320
-0.975636, 65, 369, 192, 432
-0.975701, 173, 273, 204, 400
-0.975718, 233, 305, 264, 432
-0.975762, 105, 329, 168, 392
-0.975809, 1, 321, 64, 448
-0.975857, 193, 297, 224, 360
-0.975936, 57, 97, 120, 352
-0.976044, 161, 361, 288, 424
-0.976104, 49, 249, 176, 312
-0.976104, 113, 273, 240, 336
-0.976227, 213, 377, 244, 440
-0.976275, 145, 305, 176, 432
-0.976375, 97, 129, 160, 256
-0.976386, 241, 321, 368, 448
-0.976511, 161, 281, 192, 344
-0.97655, 73, 345, 136, 408
-0.976582, 153, 393, 184, 456
-0.976637, 33, 273, 96, 400
-0.976809, 97, 177, 160, 304
-0.976813, 161, 177, 192, 240
-0.977195, 97, 97, 160, 352
-0.97729, 241, 97, 304, 224
-0.977297, 313, 369, 375, 496
-0.977341, 197, 273, 228, 400
-0.977441, 65, 73, 192, 136
-0.97745, 121, 153, 184, 216
-0.977452, 65, 329, 192, 392
-0.977455, 233, 33, 296, 160
-0.977479, 145, 177, 272, 240
-0.977539, 161, 17, 288, 144
-0.977583, 89, 369, 120, 496
-0.977693, 161, 1, 224, 500
-0.977755, 265, 369, 296, 496
-0.977783, 193, 313, 320, 376
-0.977868, 273, 209, 336, 272
-0.977908, 169, 33, 232, 288
-0.977971, 225, 129, 352, 192
-0.978038, 313, 145, 375, 208
-0.978105, 201, 273, 264, 336
-0.978133, 1, 401, 128, 464
-0.9782, 1, 273, 64, 400
-0.978218, 49, 81, 112, 208
-0.978332, 57, 321, 120, 384
-0.978413, 137, 257, 168, 384
-0.978464, 233, 225, 296, 288
-0.978529, 209, 129, 272, 256
-0.978564, 33, 321, 96, 448
-0.978576, 113, 393, 144, 456
-0.978582, 177, 145, 240, 272
-0.978616, 81, 297, 208, 360
-0.978642, 125, 393, 156, 456
-0.978713, 233, 273, 296, 400
-0.978715, 241, 425, 368, 488
-0.97884, 125, 241, 156, 368
-0.978847, 177, 321, 208, 448
-0.978963, 153, 345, 216, 408
-0.978993, 225, 217, 352, 280
-0.979031, 181, 209, 212, 336
-0.979065, 177, 201, 304, 264
-0.979097, 249, 329, 312, 392
-0.979105, 201, 1, 264, 500
-0.97911, 289, 81, 352, 144
-0.979171, 73, 409, 104, 472
-0.979178, 273, 345, 336, 408
-0.979289, 121, 225, 152, 288
-0.979321, 153, 113, 216, 176
-0.979444, 121, 369, 152, 496
-0.979458, 213, 241, 244, 304
-0.979498, 193, 209, 224, 336
-0.979536, 177, 233, 240, 296
-0.979554, 145, 121, 272, 184
-0.979592, 49, 297, 112, 360
-0.979706, 57, 257, 120, 500
-0.979823, 185, 17, 248, 144
-0.979877, 305, 225, 368, 352
-0.979933, 209, 273, 240, 336
-0.979964, 137, 313, 168, 376
-0.979971, 93, 241, 124, 368
-0.98009, 97, 193, 224, 256
-0.980108, 225, 97, 352, 160
-0.980111, 157, 321, 188, 448
-0.980249, 205, 321, 236, 448
-0.980312, 89, 305, 120, 432
-0.980313, 273, 105, 336, 168
-0.980364, 205, 225, 236, 352
-0.980454, 241, 305, 304, 368
-0.980458, 269, 417, 300, 480
-0.980484, 157, 369, 188, 432
-0.980537, 249, 225, 312, 352
-0.980542, 281, 137, 344, 200
-0.980595, 161, 145, 192, 272
-0.980705, 129, 241, 256, 304
-0.98078, 153, 97, 216, 224
-0.980935, 89, 105, 152, 168
-0.980965, 241, 401, 368, 464
-0.980999, 241, 161, 304, 224
-0.981004, 65, 97, 192, 160
-0.98105, 65, 129, 128, 256
-0.981055, 17, 209, 80, 336
-0.981074, 65, 209, 128, 272
-0.981089, 25, 345, 88, 408
-0.981138, 1, 393, 32, 456
-0.981173, 253, 329, 284, 392
-0.981213, 257, 377, 288, 440
-0.981285, 101, 401, 132, 464
-0.981315, 209, 65, 336, 128
-0.981327, 225, 81, 288, 144
-0.981329, 125, 321, 156, 448
-0.981332, 89, 257, 120, 320
-0.981506, 113, 201, 176, 264
-0.981525, 145, 97, 272, 160
-0.981531, 161, 321, 192, 384
-0.981553, 177, 177, 240, 240
-0.981565, 341, 65, 372, 192
-0.981639, 129, 177, 192, 240
-0.981696, 13, 385, 44, 448
-0.981755, 313, 241, 375, 304
-0.981878, 137, 273, 168, 336
-0.981881, 233, 433, 296, 496
-0.981915, 177, 305, 240, 368
-0.981927, 313, 393, 375, 456
-0.981938, 233, 225, 264, 352
-0.981987, 33, 225, 160, 288
-0.982041, 201, 97, 264, 160
-0.982082, 225, 153, 352, 216
-0.982091, 25, 265, 88, 328
-0.982172, 57, 137, 120, 200
-0.982175, 73, 353, 104, 480
-0.982248, 153, 137, 216, 200
-0.982368, 313, 33, 375, 288
-0.982388, 313, 113, 375, 176
-0.982429, 49, 385, 112, 448
-0.982567, 73, 233, 136, 296
-0.982609, 77, 305, 108, 432
-0.98266, 173, 177, 204, 240
-0.98266, 101, 241, 132, 304
-0.982679, 89, 137, 152, 200
-0.98277, 17, 353, 144, 416
-0.982778, 253, 409, 284, 472
-0.982842, 289, 409, 352, 472
-0.982906, 185, 201, 248, 264
-0.982928, 241, 241, 368, 368
-0.982936, 237, 241, 268, 304
-0.982986, 273, 129, 336, 256
-0.983001, 225, 369, 352, 432
-0.983006, 65, 137, 192, 200
-0.983032, 137, 1, 200, 500
-0.983079, 129, 249, 160, 312
-0.983105, 129, 17, 192, 144
-0.983143, 169, 257, 232, 320
-0.983195, 285, 425, 316, 488
-0.983275, 73, 65, 104, 192
-0.983383, 73, 281, 136, 344
-0.983387, 45, 433, 76, 496
-0.983503, 33, 369, 64, 496
-0.983522, 65, 433, 96, 496
-0.983587, 153, 81, 216, 144
-0.983591, 145, 193, 176, 320
-0.9836, 105, 1, 168, 500
-0.983602, 265, 81, 328, 144
-0.983606, 177, 377, 208, 440
-0.983627, 241, 409, 272, 472
-0.98368, 161, 65, 192, 192
-0.983767, 253, 321, 284, 448
-0.983769, 273, 177, 336, 240
-0.983796, 269, 345, 300, 408
-0.983862, 241, 137, 304, 200
-0.983926, 81, 257, 112, 384
-0.983958, 125, 369, 156, 432
-0.983981, 317, 65, 348, 192
-0.983984, 281, 65, 344, 320
-0.984098, 161, 273, 288, 336
-0.984201, 145, 153, 272, 216
-0.984206, 157, 257, 188, 384
-0.98421, 329, 65, 360, 192
-0.984243, 281, 233, 344, 296
-0.984413, 73, 73, 104, 136
-0.984455, 313, 425, 375, 488
-0.984486, 281, 369, 312, 496
-0.984497, 225, 177, 352, 240
-0.984507, 17, 369, 48, 496
-0.984528, 209, 17, 272, 144
-0.984529, 173, 313, 204, 376
-0.984536, 25, 225, 88, 480
-0.984574, 77, 273, 108, 336
-0.984729, 41, 129, 104, 256
-0.98474, 249, 113, 312, 176
-0.984889, 137, 353, 168, 416
-0.984933, 233, 177, 264, 304
-0.984955, 225, 369, 256, 432
-0.984983, 169, 201, 200, 264
-0.985005, 281, 225, 344, 480
-0.985009, 193, 41, 256, 104
-0.985109, 313, 129, 375, 384
-0.985111, 209, 121, 272, 184
-0.985156, 73, 17, 136, 144
-0.985163, 89, 321, 120, 384
-0.985168, 117, 65, 148, 192
-0.985193, 33, 305, 160, 368
-0.985344, 1, 265, 128, 328
-0.985411, 161, 193, 192, 320
-0.985473, 169, 33, 232, 96
-0.98564, 105, 225, 136, 352
-0.985698, 61, 113, 92, 176
-0.985812, 137, 49, 200, 112
-0.985837, 89, 209, 152, 272
-0.985877, 137, 225, 200, 288
-0.985896, 245, 225, 276, 352
-0.985937, 1, 345, 64, 408
-0.986018, 193, 361, 224, 424
-0.986031, 213, 49, 244, 176
-0.986054, 193, 273, 224, 336
-0.986057, 313, 1, 375, 500
-0.986098, 337, 393, 368, 456
-0.986239, 53, 209, 84, 336
-0.986248, 249, 65, 312, 320
-0.986304, 185, 209, 216, 272
-0.986332, 257, 177, 288, 304
-0.986356, 61, 81, 92, 208
-0.986369, 289, 57, 352, 120
-0.986398, 225, 273, 256, 336
-0.98644, 225, 41, 288, 104
-0.986455, 73, 1, 136, 500
-0.986475, 177, 233, 304, 296
-0.986603, 25, 425, 56, 488
-0.98662, 141, 201, 172, 264
-0.986647, 73, 361, 104, 424
-0.986757, 141, 113, 172, 176
-0.986832, 225, 1, 288, 500
-0.986833, 225, 345, 352, 408
-0.987012, 337, 73, 368, 136
-0.98704, 209, 41, 336, 104
-0.987066, 225, 97, 288, 352
-0.987158, 25, 241, 88, 304
-0.987172, 225, 241, 352, 304
-0.987188, 317, 81, 348, 144
-0.987191, 173, 49, 204, 176
-0.987209, 45, 345, 76, 408
-0.987224, 161, 153, 192, 216
-0.987234, 273, 321, 336, 448
-0.987264, 85, 297, 116, 360
-0.987275, 105, 65, 136, 192
-0.987278, 101, 377, 132, 440
-0.987333, 257, 217, 288, 280
-0.98734, 225, 265, 288, 328
-0.987358, 209, 177, 272, 240
-0.987382, 145, 81, 176, 208
-0.987463, 53, 369, 84, 496
-0.987532, 161, 41, 288, 104
-0.987661, 313, 193, 375, 256
-0.987722, 85, 65, 116, 192
-0.987836, 201, 401, 264, 432
-0.987879, 249, 353, 280, 416
-0.987883, 65, 393, 320, 456
-0.987931, 201, 49, 232, 176
-0.987934, 281, 337, 312, 400
-0.987945, 201, 325, 264, 356
-0.987991, 225, 65, 256, 192
-0.988008, 25, 401, 88, 464
-0.988031, 177, 421, 240, 452
-0.988138, 33, 425, 288, 488
-0.988161, 313, 225, 375, 480
-0.988166, 29, 393, 60, 456
-0.988237, 113, 461, 176, 492
-0.98825, 161, 129, 192, 192
-0.988274, 17, 137, 144, 200
-0.988274, 25, 121, 88, 184
-0.988288, 205, 57, 236, 120
-0.988309, 41, 209, 72, 336
-0.988342, 65, 169, 192, 232
-0.988373, 161, 409, 224, 440
-0.988435, 317, 145, 348, 272
-0.988443, 281, 225, 344, 352
-0.988499, 305, 177, 368, 304
-0.988518, 33, 321, 96, 384
-0.98854, 89, 437, 152, 468
-0.988695, 297, 17, 360, 144
-0.988715, 49, 201, 176, 264
-0.988722, 113, 369, 144, 432
-0.988739, 297, 97, 328, 224
-0.988798, 105, 449, 168, 480
-0.988805, 169, 389, 232, 420
-0.98881, 181, 257, 212, 320
-0.988829, 9, 417, 40, 480
-0.988857, 145, 289, 208, 320
-0.988858, 201, 381, 264, 412
-0.988878, 113, 41, 240, 104
-0.988896, 81, 453, 144, 484
-0.9889, 177, 433, 240, 464
-0.988902, 289, 1, 352, 500
-0.988912, 5, 337, 36, 464
-0.988926, 153, 453, 216, 484
-0.988945, 297, 433, 328, 496
-0.988954, 125, 345, 156, 408
-0.98897, 177, 57, 208, 120
-0.988993, 317, 145, 348, 208
-0.989025, 177, 281, 240, 312
-0.98908, 217, 357, 280, 388
-0.989087, 125, 193, 156, 320
-0.989099, 1, 401, 375, 464
-0.989114, 225, 417, 288, 448
-0.989119, 201, 233, 232, 296
-0.989125, 137, 433, 200, 464
-0.989197, 149, 177, 180, 240
-0.9892, 53, 225, 84, 288
-0.989234, 97, 257, 160, 288
-0.989295, 241, 341, 304, 372
-0.989343, 129, 65, 160, 192
-0.989355, 225, 405, 288, 436
-0.989381, 225, 241, 256, 304
-0.989391, 321, 121, 352, 184
-0.989399, 1, 257, 64, 500
-0.989402, 201, 341, 264, 372
-0.989405, 129, 325, 192, 356
-0.989422, 61, 345, 92, 408
-0.989511, 97, 237, 160, 268
-0.989533, 201, 425, 264, 456
-0.989544, 177, 465, 240, 496
-0.989589, 17, 113, 144, 176
-0.989589, 49, 1, 112, 500
-0.98962, 145, 397, 208, 428
-0.989643, 105, 425, 168, 456
-0.989643, 65, 49, 192, 112
-0.989648, 177, 361, 240, 392
-0.989691, 181, 145, 212, 272
-0.989697, 121, 73, 152, 136
-0.989723, 81, 401, 144, 432
-0.989758, 65, 429, 128, 460
-0.989762, 245, 177, 276, 304
-0.989777, 185, 49, 216, 176
-0.989813, 317, 369, 348, 496
-0.989815, 201, 413, 264, 444
-0.989835, 149, 129, 180, 256
-0.989853, 101, 321, 132, 448
-0.989858, 57, 441, 120, 472
-0.989867, 249, 97, 280, 224
-0.989879, 201, 281, 264, 312
-0.989888, 205, 177, 236, 304
-0.989913, 165, 65, 196, 128
-0.990008, 145, 381, 208, 412
-0.990021, 169, 297, 232, 328
-0.990073, 177, 333, 240, 364
-0.990078, 57, 369, 120, 400
-0.990119, 153, 421, 216, 452
-0.990122, 113, 393, 176, 424
-0.990138, 201, 445, 264, 476
-0.99015, 129, 445, 192, 476
-0.990156, 57, 137, 88, 200
-0.990157, 145, 277, 208, 308
-0.9902, 81, 1, 144, 256
-0.990214, 177, 349, 240, 380
-0.990222, 177, 445, 240, 476
-0.990242, 241, 453, 304, 484
-0.990277, 81, 469, 144, 500
-0.990284, 193, 33, 224, 96
-0.990308, 9, 389, 72, 420
-0.990349, 141, 89, 172, 152
-0.99036, 253, 145, 284, 208
-0.990366, 85, 361, 116, 424
-0.990371, 105, 381, 168, 412
-0.990396, 233, 393, 296, 424
-0.990405, 129, 421, 192, 452
-0.990432, 73, 329, 104, 392
-0.99044, 33, 129, 96, 384
-0.990517, 149, 153, 180, 216
-0.990542, 81, 413, 144, 444
-0.990545, 33, 65, 288, 128
-0.990576, 221, 65, 252, 128
-0.990607, 129, 417, 375, 480
-0.990648, 301, 105, 332, 168
-0.99069, 153, 369, 216, 400
-0.990691, 217, 465, 280, 496
-0.990719, 157, 201, 188, 264
-0.990719, 241, 433, 272, 496
-0.990744, 201, 369, 264, 400
-0.990756, 201, 313, 264, 344
-0.990768, 25, 437, 88, 468
-0.990801, 73, 305, 104, 368
-0.990818, 137, 469, 200, 500
-0.990819, 121, 289, 184, 320
-0.99082, 317, 393, 348, 456
-0.990833, 217, 177, 248, 304
-0.990855, 129, 193, 375, 256
-0.990859, 33, 377, 96, 408
-0.990867, 145, 301, 208, 332
-0.99087, 153, 193, 216, 224
-0.99088, 185, 185, 216, 248
-0.990882, 121, 97, 152, 160
-0.990882, 237, 201, 268, 264
-0.990887, 257, 433, 288, 496
-0.990914, 305, 89, 368, 120
-0.990927, 129, 313, 192, 344
-0.990942, 249, 421, 312, 452
-0.990959, 273, 385, 304, 448
-0.990961, 177, 377, 240, 408
-0.990963, 313, 433, 344, 496
-0.990966, 49, 417, 112, 448
-0.990967, 161, 257, 192, 320
-0.990988, 257, 33, 320, 160
-0.990995, 137, 205, 200, 236
-0.991004, 97, 369, 160, 400
-0.991005, 297, 73, 360, 104
-0.991007, 41, 465, 104, 496
-0.991013, 17, 73, 144, 136
-0.991023, 169, 65, 232, 96
-0.991026, 225, 329, 288, 360
-0.991029, 241, 365, 304, 396
-0.991038, 113, 277, 176, 308
-0.99107, 1, 429, 64, 460
-0.991073, 125, 321, 156, 384
-0.991119, 225, 381, 288, 412
-0.99112, 97, 309, 160, 340
-0.991211, 113, 141, 176, 172
-0.991214, 161, 1, 224, 128
-0.991219, 137, 129, 168, 256
-0.991224, 97, 289, 128, 352
-0.991226, 121, 121, 152, 184
-0.991236, 97, 329, 160, 360
-0.991241, 97, 329, 352, 392
-0.991286, 233, 237, 296, 268
-0.991294, 273, 349, 336, 380
-0.991317, 129, 233, 375, 296
-0.991325, 249, 353, 312, 384
-0.991326, 129, 93, 192, 124
-0.991339, 277, 177, 308, 304
-0.991363, 81, 269, 144, 300
-0.991364, 41, 285, 104, 316
-0.991366, 129, 353, 192, 384
-0.991369, 57, 289, 88, 416
-0.991372, 33, 361, 288, 424
-0.991381, 1, 321, 256, 384
-0.991404, 153, 329, 216, 360
-0.991409, 297, 421, 360, 452
-0.991413, 1, 401, 64, 432
-0.991468, 209, 245, 272, 276
-0.991477, 73, 81, 136, 112
-0.991496, 1, 377, 375, 440
-0.9915, 97, 77, 160, 108
-0.991511, 65, 281, 128, 312
-0.991517, 209, 225, 272, 256
-0.991541, 129, 129, 192, 160
-0.991545, 265, 217, 328, 248
-0.991561, 1, 353, 375, 416
-0.991567, 177, 321, 240, 352
-0.991575, 281, 229, 344, 260
-0.991578, 337, 369, 368, 496
-0.991578, 57, 125, 120, 156
-0.99158, 33, 353, 96, 384
-0.991589, 225, 441, 288, 472
-0.991597, 89, 353, 152, 384
-0.991599, 273, 433, 336, 464
-0.991602, 57, 233, 120, 264
-0.991624, 161, 113, 224, 144
-0.99165, 1, 465, 64, 496
-0.991661, 193, 293, 256, 324
-0.991662, 249, 381, 312, 412
-0.991675, 137, 409, 200, 440
-0.991676, 57, 245, 120, 276
-0.991708, 97, 341, 160, 372
-0.991715, 49, 261, 112, 292
-0.991729, 153, 181, 216, 212
-0.991756, 241, 225, 304, 256
-0.991803, 313, 149, 375, 180
-0.991809, 137, 81, 200, 112
-0.991826, 161, 217, 224, 248
-0.99184, 129, 193, 192, 224
-0.991842, 17, 329, 144, 392
-0.991866, 137, 69, 200, 100
-0.991887, 273, 385, 336, 416
-0.991893, 113, 177, 144, 304
-0.991893, 273, 93, 336, 124
-0.991942, 25, 453, 88, 484
-0.991942, 201, 117, 264, 148
-0.991953, 57, 321, 120, 352
-0.991975, 33, 273, 96, 304
-0.991989, 129, 105, 192, 136
-0.991999, 57, 129, 88, 256
-0.992, 129, 369, 375, 432
-0.992007, 213, 341, 244, 372
-0.992015, 129, 337, 192, 368
-0.992017, 165, 289, 196, 320
-0.99202, 1, 17, 128, 144
-0.992021, 129, 57, 375, 120
-0.992046, 209, 357, 240, 388
-0.992056, 89, 125, 152, 156
-0.99206, 185, 401, 200, 464
-0.992071, 57, 381, 120, 412
-0.992074, 209, 329, 240, 360
-0.992085, 237, 349, 268, 380
-0.992086, 57, 141, 120, 172
-0.992117, 209, 397, 240, 428
-0.992136, 225, 341, 256, 372
-0.992137, 121, 445, 152, 476
-0.992137, 205, 369, 236, 400
-0.992151, 193, 417, 224, 448
-0.992153, 137, 453, 168, 484
-0.992159, 305, 369, 336, 496
-0.99218, 101, 445, 132, 476
-0.992185, 249, 1, 312, 500
-0.992199, 233, 401, 264, 432
-0.992199, 33, 105, 288, 168
-0.992206, 153, 293, 184, 324
-0.992214, 173, 441, 204, 472
-0.99222, 209, 425, 240, 456
-0.992225, 253, 393, 284, 424
-0.99223, 149, 305, 180, 336
-0.992258, 181, 409, 212, 440
-0.992258, 189, 445, 220, 476
-0.992262, 205, 469, 236, 500
-0.99228, 181, 465, 212, 496
-0.992281, 73, 209, 104, 336
-0.992284, 229, 325, 260, 356
-0.992287, 89, 437, 120, 468
-0.992303, 225, 365, 256, 396
-0.992321, 317, 225, 348, 352
-0.992341, 1, 329, 375, 392
-0.992342, 209, 409, 240, 440
-0.992352, 213, 313, 244, 344
-0.992357, 121, 457, 152, 488
-0.992364, 145, 317, 176, 348
-0.992373, 193, 285, 224, 316
-0.992375, 251, 377, 266, 440
-0.992376, 193, 341, 224, 372
-0.992378, 209, 381, 240, 412
-0.992394, 177, 285, 208, 316
-0.992395, 89, 405, 120, 436
-0.9924, 221, 417, 252, 448
-0.992413, 193, 461, 224, 492
-0.992417, 157, 461, 188, 492
-0.992423, 225, 353, 256, 384
-0.992424, 157, 433, 188, 464
-0.992433, 1, 105, 375, 168
-0.992438, 9, 273, 40, 400
-0.992462, 33, 281, 288, 344
-0.992462, 1, 233, 375, 296
-0.992463, 217, 465, 248, 496
-0.99247, 205, 281, 236, 312
-0.992473, 173, 425, 204, 456
-0.992479, 105, 433, 136, 464
-0.992497, 193, 329, 224, 360
-0.992516, 145, 385, 176, 416
-0.992524, 241, 329, 272, 360
-0.992531, 245, 381, 276, 412
-0.992531, 81, 425, 112, 456
-0.992532, 185, 429, 216, 460
-0.992533, 253, 333, 284, 364
-0.992547, 245, 405, 276, 436
-0.99255, 113, 321, 144, 448
-0.992555, 165, 405, 196, 436
-0.992557, 81, 401, 208, 432
-0.992561, 237, 65, 268, 192
-0.992564, 305, 145, 336, 272
-0.992566, 129, 169, 375, 232
-0.992574, 153, 329, 184, 360
-0.992581, 169, 453, 200, 484
-0.992583, 177, 401, 304, 432
-0.992589, 221, 401, 252, 432
-0.992607, 185, 257, 216, 384
-0.992617, 145, 465, 176, 496
-0.992641, 277, 353, 308, 384
-0.992645, 217, 277, 248, 308
-0.992645, 175, 393, 190, 456
-0.992649, 237, 361, 268, 392
-0.992652, 157, 449, 188, 480
-0.992657, 225, 377, 256, 408
-0.992658, 101, 457, 132, 488
-0.992665, 181, 329, 212, 360
-0.99268, 161, 197, 192, 228
-0.992682, 145, 389, 272, 420
-0.992688, 121, 237, 152, 268
-0.992692, 201, 437, 232, 468
-0.992692, 129, 129, 375, 192
-0.992694, 109, 245, 140, 276
-0.992699, 169, 465, 200, 496
-0.992702, 165, 393, 196, 424
-0.992705, 257, 345, 288, 376
-0.992718, 193, 401, 208, 464
-0.992723, 189, 365, 220, 396
-0.99273, 197, 393, 228, 424
-0.992734, 153, 281, 184, 312
-0.992743, 105, 421, 136, 452
-0.992746, 87, 409, 102, 472
-0.992756, 165, 321, 196, 352
-0.992759, 221, 429, 252, 460
-0.99276, 33, 209, 288, 272
-0.992761, 233, 413, 264, 444
-0.992763, 129, 425, 160, 456
-0.992779, 141, 441, 172, 472
-0.992806, 257, 365, 288, 396
-0.992808, 269, 413, 300, 444
-0.992811, 125, 253, 156, 284
-0.992814, 165, 277, 196, 308
-0.992818, 141, 289, 172, 320
-0.992819, 133, 381, 164, 412
-0.992821, 153, 401, 184, 432
-0.992828, 129, 453, 256, 484
-0.992836, 193, 405, 224, 436
-0.992859, 121, 417, 136, 480
-0.992866, 165, 301, 196, 332
-0.992872, 157, 421, 188, 452
-0.992873, 233, 389, 264, 420
-0.992875, 97, 257, 128, 288
-0.992875, 89, 277, 120, 308
-0.992895, 249, 417, 280, 448
-0.992895, 137, 329, 168, 360
-0.992904, 89, 449, 120, 480
-0.992907, 313, 93, 344, 124
-0.99291, 163, 289, 178, 352
-0.992918, 173, 341, 204, 372
-0.992927, 237, 465, 268, 496
-0.992934, 269, 365, 300, 396
-0.992936, 165, 177, 196, 208
-0.992937, 1, 209, 375, 272
-0.992943, 213, 453, 244, 484
-0.992945, 129, 417, 144, 480
-0.992951, 317, 73, 348, 104
-0.992958, 337, 73, 368, 104
-0.992958, 73, 369, 104, 400
-0.99296, 133, 465, 164, 496
-0.992963, 1, 405, 32, 436
-0.992964, 257, 405, 288, 436
-0.992966, 177, 217, 208, 248
-0.992969, 257, 381, 288, 412
-0.992974, 157, 209, 188, 240
-0.992977, 29, 469, 60, 500
-0.992981, 145, 369, 176, 400
-0.992982, 141, 397, 172, 428
-0.992986, 97, 305, 352, 368
-0.992988, 193, 161, 224, 288
-0.992997, 81, 313, 112, 344
-0.993, 149, 197, 180, 228
-0.993003, 193, 353, 224, 384
-0.993003, 165, 365, 196, 396
-0.993005, 129, 273, 160, 304
-0.993007, 33, 241, 288, 304
-0.993011, 117, 425, 148, 456
-0.993012, 93, 417, 124, 448
-0.993026, 233, 425, 264, 456
-0.993035, 85, 469, 116, 500
-0.993036, 177, 397, 208, 428
-0.993039, 201, 297, 232, 328
-0.993041, 265, 321, 296, 448
-0.993046, 73, 285, 104, 316
-0.993047, 29, 389, 60, 420
-0.993051, 53, 465, 84, 496
-0.993051, 61, 125, 92, 156
-0.993054, 89, 325, 120, 356
-0.993058, 273, 425, 304, 456
-0.99306, 97, 465, 224, 496
-0.993072, 209, 265, 336, 328
-0.993089, 209, 289, 336, 352
-0.993127, 225, 305, 240, 368
-0.993199, 217, 377, 232, 440
-0.993204, 97, 17, 160, 144
-0.993212, 179, 433, 194, 496
-0.99324, 225, 385, 240, 448
-0.993254, 213, 321, 228, 384
-0.993257, 185, 433, 200, 496
-0.993262, 329, 129, 360, 256
-0.993287, 37, 321, 68, 448
-0.99329, 65, 429, 192, 460
-0.993437, 89, 193, 120, 320
-0.993482, 165, 385, 180, 448
-0.993502, 45, 257, 76, 384
-0.993502, 207, 385, 222, 448
-0.993505, 219, 401, 234, 464
-0.993559, 253, 273, 284, 400
-0.99361, 129, 97, 375, 160
-0.993618, 33, 445, 160, 476
-0.993623, 233, 313, 248, 376
-0.993653, 177, 417, 304, 448
-0.993667, 93, 393, 108, 456
-0.993686, 283, 345, 298, 408
-0.99369, 95, 425, 110, 488
-0.993715, 1, 425, 375, 488
-0.993733, 139, 417, 154, 480
-0.993736, 241, 385, 256, 448
-0.993798, 213, 353, 228, 416
-0.993816, 113, 369, 240, 400
-0.993833, 193, 349, 320, 380
-0.993878, 241, 329, 256, 392
-0.993888, 65, 281, 192, 312
-0.993909, 115, 417, 130, 480
-0.993914, 69, 257, 100, 384
-0.99395, 173, 433, 188, 496
-0.993957, 289, 177, 320, 304
-0.993966, 209, 461, 336, 492
-0.99397, 201, 433, 216, 496
-0.993979, 161, 425, 176, 488
-0.993997, 207, 345, 222, 408
-0.994013, 113, 329, 240, 360
-0.99402, 251, 353, 266, 416
-0.994027, 1, 389, 128, 420
-0.994031, 171, 353, 186, 416
-0.994035, 153, 281, 168, 344
-0.994054, 129, 417, 256, 448
-0.994074, 225, 17, 256, 144
-0.994085, 219, 433, 234, 496
-0.994093, 33, 137, 288, 200
-0.994168, 1, 433, 128, 464
-0.994174, 49, 465, 176, 496
-0.994174, 17, 321, 48, 448
-0.994184, 249, 329, 264, 392
-0.994233, 157, 305, 172, 368
-0.994247, 153, 417, 168, 480
-0.994255, 113, 229, 240, 260
-0.994269, 221, 345, 236, 408
-0.994278, 149, 377, 164, 440
-0.994279, 121, 129, 152, 256
-0.994283, 143, 313, 158, 376
-0.994283, 159, 393, 174, 456
-0.994291, 225, 433, 240, 496
-0.994327, 219, 305, 234, 368
-0.994328, 177, 333, 304, 364
-0.994366, 109, 425, 124, 488
-0.994391, 209, 409, 224, 472
-0.994395, 167, 425, 182, 488
-0.994415, 199, 401, 214, 464
-0.994443, 231, 417, 246, 480
-0.994448, 263, 369, 278, 432
-0.994449, 135, 233, 150, 296
-0.994454, 101, 177, 132, 304
-0.994468, 225, 1, 288, 256
-0.994539, 65, 81, 192, 112
-0.994551, 249, 49, 280, 176
-0.994564, 219, 273, 234, 336
-0.994604, 81, 453, 208, 484
-0.994618, 233, 393, 248, 456
-0.994631, 187, 289, 202, 352
-0.994635, 207, 281, 222, 344
-0.994641, 117, 393, 132, 456
-0.994658, 227, 345, 242, 408
-0.994693, 191, 425, 206, 488
-0.994697, 229, 241, 244, 304
-0.994701, 269, 129, 300, 256
-0.99473, 99, 401, 114, 464
-0.994765, 1, 185, 256, 248
-0.994775, 131, 393, 146, 456
-0.994781, 143, 385, 158, 448
-0.9948, 81, 441, 208, 472
-0.994812, 1, 65, 375, 128
-0.994818, 129, 433, 256, 464
-0.994827, 125, 393, 140, 456
-0.994829, 163, 169, 178, 232
-0.994832, 173, 273, 188, 336
-0.994834, 213, 297, 228, 360
-0.994853, 181, 377, 196, 440
-0.994878, 209, 1, 240, 128
-0.994884, 167, 313, 182, 376
-0.994886, 171, 185, 186, 248
-0.994888, 285, 81, 316, 208
-0.994891, 261, 81, 292, 208
-0.994921, 225, 133, 352, 164
-0.994922, 33, 377, 160, 408
-0.994926, 209, 77, 336, 108
-0.994938, 257, 161, 320, 416
-0.994939, 145, 425, 160, 488
-0.994949, 145, 465, 272, 496
-0.994949, 333, 241, 364, 368
-0.994955, 145, 185, 272, 216
-0.994958, 49, 269, 176, 300
-0.99496, 49, 257, 176, 288
-0.99498, 247, 401, 262, 464
-0.995002, 97, 129, 128, 256
-0.995004, 179, 281, 194, 344
-0.995012, 113, 317, 240, 348
-0.995012, 145, 33, 176, 160
-0.995032, 105, 273, 136, 400
-0.995049, 193, 429, 320, 460
-0.995051, 145, 69, 272, 100
-0.995056, 17, 417, 144, 448
-0.995057, 1, 201, 128, 264
-0.995068, 81, 389, 208, 420
-0.99507, 129, 285, 256, 316
-0.995103, 197, 1, 228, 128
-0.995104, 261, 329, 276, 392
-0.995111, 163, 361, 178, 424
-0.995122, 177, 449, 304, 480
-0.99513, 229, 265, 244, 328
-0.99517, 113, 341, 240, 372
-0.99517, 241, 409, 368, 440
-0.995197, 225, 233, 352, 264
-0.9952, 1, 161, 256, 224
-0.995258, 145, 81, 272, 112
-0.995273, 193, 365, 320, 396
-0.995276, 49, 245, 176, 276
-0.995325, 113, 357, 240, 388
-0.995336, 137, 353, 152, 416
-0.995353, 241, 353, 256, 416
-0.995359, 103, 433, 118, 496
-0.995382, 237, 17, 268, 144
-0.995389, 273, 225, 304, 352
-0.995405, 1, 305, 375, 368
-0.995414, 49, 125, 176, 156
-0.995442, 105, 401, 120, 464
-0.99546, 233, 353, 248, 416
-0.995466, 225, 409, 240, 472
-0.995474, 181, 185, 196, 248
-0.995526, 169, 193, 200, 448
-0.995539, 147, 281, 162, 344
-0.99554, 193, 329, 208, 392
-0.995557, 217, 225, 248, 480
-0.995562, 151, 305, 166, 368
-0.995581, 129, 305, 256, 336
-0.995581, 157, 369, 172, 432
-0.99559, 257, 377, 272, 440
-0.995597, 267, 409, 282, 472
-0.995602, 293, 369, 324, 496
-0.995607, 193, 225, 224, 480
-0.995629, 239, 241, 254, 304
-0.995653, 195, 289, 210, 352
-0.995655, 81, 401, 96, 464
-0.995656, 69, 129, 100, 256
-0.995678, 93, 305, 108, 368
-0.995696, 149, 353, 164, 416
-0.995707, 177, 205, 304, 236
-0.995723, 273, 369, 288, 432
-0.995728, 283, 417, 298, 480
-0.99573, 203, 321, 218, 384
-0.995731, 11, 393, 26, 456
-0.99574, 201, 377, 216, 440
-0.995741, 81, 413, 208, 444
-0.995741, 113, 241, 240, 272
-0.995779, 173, 329, 188, 392
-0.99578, 145, 109, 272, 140
-0.995821, 213, 433, 228, 496
-0.995836, 289, 425, 304, 488
-0.995862, 137, 377, 152, 440
-0.995863, 129, 281, 375, 344
-0.995865, 97, 213, 224, 244
-0.995901, 101, 249, 116, 312
-0.995914, 209, 93, 336, 124
-0.995914, 145, 121, 272, 152
-0.99592, 241, 433, 368, 464
-0.995921, 177, 221, 304, 252
-0.995923, 65, 293, 192, 324
-0.995936, 215, 241, 230, 304
-0.995937, 85, 281, 100, 344
-0.996003, 213, 273, 228, 336
-0.996006, 21, 273, 52, 400
-0.996009, 181, 193, 212, 448
-0.996024, 1, 461, 128, 492
-0.99603, 65, 313, 192, 344
-0.996032, 225, 145, 352, 176
-0.996051, 129, 273, 256, 304
-0.996059, 63, 121, 78, 184
-0.996067, 145, 97, 272, 128
-0.996096, 65, 93, 192, 124
-0.996096, 129, 257, 375, 320
-0.996122, 191, 209, 206, 272
-0.996127, 193, 381, 320, 412
-0.996128, 33, 233, 160, 264
-0.99615, 221, 241, 236, 304
-0.996155, 129, 405, 256, 436
-0.99616, 253, 401, 268, 464
-0.996169, 73, 17, 104, 144
-0.996172, 187, 321, 202, 384
-0.996176, 189, 377, 204, 440
-0.996185, 93, 265, 108, 328
-0.996186, 345, 241, 375, 368
-0.99619, 77, 73, 92, 136
-0.996198, 241, 321, 368, 384
-0.996199, 33, 17, 96, 144
-0.9962, 65, 333, 192, 364
-0.996201, 5, 393, 20, 456
-0.996203, 175, 305, 190, 368
-0.996206, 1, 129, 375, 192
-0.996231, 1, 185, 375, 248
-0.996234, 245, 305, 260, 368
-0.996238, 107, 241, 122, 304
-0.996241, 145, 169, 272, 200
-0.996257, 255, 329, 270, 392
-0.996268, 135, 329, 150, 392
-0.996281, 261, 401, 276, 464
-0.996285, 273, 417, 288, 480
-0.99629, 145, 161, 176, 416
-0.996313, 207, 433, 222, 496
-0.996321, 71, 433, 86, 496
-0.996331, 225, 185, 352, 216
-0.996341, 113, 233, 128, 296
-0.996341, 313, 321, 375, 448
-0.996348, 129, 369, 144, 432
-0.996355, 17, 385, 32, 448
-0.996375, 145, 133, 272, 164
-0.996398, 1, 273, 128, 304
-0.996406, 163, 193, 178, 256
-0.996416, 33, 349, 160, 380
-0.996422, 161, 317, 288, 348
-0.996437, 173, 281, 188, 312
-0.996454, 49, 365, 176, 396
-0.996466, 225, 221, 352, 252
-0.996471, 163, 265, 178, 328
-0.996477, 253, 233, 268, 296
-0.996479, 225, 393, 352, 424
-0.996484, 49, 141, 176, 172
-0.996486, 29, 385, 44, 448
-0.996489, 265, 33, 296, 160
-0.99649, 113, 261, 240, 292
-0.996523, 297, 49, 328, 176
-0.996529, 229, 225, 260, 480
-0.996549, 177, 1, 208, 128
-0.996549, 341, 113, 372, 240
-0.996561, 157, 161, 188, 416
-0.996583, 1, 401, 128, 432
-0.996584, 251, 381, 266, 412
-0.996584, 237, 129, 268, 256
-0.996625, 243, 405, 258, 436
-0.996636, 165, 293, 180, 324
-0.996656, 225, 209, 352, 240
-0.996671, 137, 449, 152, 480
-0.99668, 233, 401, 248, 432
-0.996706, 257, 257, 320, 500
-0.996717, 97, 133, 224, 164
-0.99673, 1, 245, 128, 276
-0.996732, 33, 41, 288, 104
-0.996741, 233, 345, 248, 376
-0.996742, 149, 257, 180, 500
-0.996749, 57, 1, 120, 256
-0.996753, 177, 233, 304, 264
-0.996755, 209, 65, 336, 96
-0.996767, 65, 105, 192, 136
-0.996773, 159, 289, 174, 320
-0.996774, 225, 157, 352, 188
-0.996776, 17, 1, 80, 500
-0.996777, 145, 453, 160, 484
-0.996793, 305, 209, 336, 336
-0.996799, 187, 401, 202, 432
-0.996802, 1, 265, 375, 328
-0.996809, 155, 305, 170, 336
-0.996815, 225, 333, 352, 364
-0.996817, 225, 117, 352, 148
-0.996848, 211, 329, 226, 360
-0.996858, 191, 445, 206, 476
-0.996861, 223, 401, 238, 432
-0.996862, 241, 225, 272, 480
-0.996872, 149, 385, 164, 416
-0.996883, 235, 333, 250, 364
-0.996888, 153, 293, 168, 324
-0.996903, 129, 445, 144, 476
-0.996905, 225, 197, 352, 228
-0.996911, 177, 281, 304, 312
-0.996913, 221, 341, 236, 372
-0.996914, 285, 129, 316, 256
-0.996929, 121, 225, 152, 480
-0.996935, 213, 405, 228, 436
-0.996937, 241, 421, 368, 452
-0.996951, 145, 157, 272, 188
-0.996951, 89, 405, 104, 436
-0.996952, 203, 417, 218, 448
-0.996952, 97, 437, 112, 468
-0.996957, 165, 193, 180, 224
-0.996962, 217, 281, 232, 312
-0.996989, 253, 401, 268, 432
-0.997009, 17, 49, 144, 112
-0.997023, 223, 413, 238, 444
-0.997024, 257, 337, 272, 368
-0.997033, 179, 285, 194, 316
-0.997034, 103, 437, 118, 468
-0.997036, 225, 245, 352, 276
-0.997047, 97, 197, 224, 228
-0.997053, 227, 277, 242, 308
-0.997055, 113, 65, 144, 320
-0.997059, 281, 321, 312, 448
-0.997062, 247, 337, 262, 368
-0.997074, 205, 281, 220, 312
-0.997077, 345, 17, 375, 144
-0.997084, 1, 329, 128, 360
-0.997092, 227, 357, 242, 388
-0.9971, 209, 105, 336, 136
-0.997105, 1, 285, 128, 316
-0.997106, 211, 281, 226, 312
-0.997106, 175, 393, 190, 424
-0.997108, 213, 421, 228, 452
-0.997123, 197, 409, 212, 440
-0.997131, 185, 441, 200, 472
-0.997131, 253, 225, 284, 480
-0.997149, 185, 289, 200, 320
-0.997154, 179, 433, 194, 464
-0.997156, 205, 225, 236, 480
-0.997167, 207, 405, 222, 436
-0.997168, 225, 169, 352, 200
-0.997177, 145, 145, 272, 176
-0.997179, 283, 357, 298, 388
-0.99718, 227, 341, 242, 372
-0.997183, 153, 457, 168, 488
-0.997197, 191, 465, 206, 496
-0.997235, 91, 429, 106, 460
-0.997236, 213, 357, 228, 388
-0.997237, 123, 441, 138, 472
-0.99724, 115, 445, 130, 476
-0.997248, 197, 433, 212, 464
-0.99726, 211, 377, 226, 408
-0.997261, 183, 421, 198, 452
-0.997263, 177, 245, 304, 276
-0.997264, 97, 225, 128, 480
-0.997274, 165, 33, 196, 288
-0.997277, 229, 65, 260, 320
-0.997277, 247, 325, 262, 356
-0.997295, 195, 285, 210, 316
-0.997298, 161, 305, 176, 336
-0.997303, 135, 237, 150, 268
-0.997306, 225, 313, 240, 344
-0.997332, 173, 441, 188, 472
-0.997332, 229, 413, 244, 444
-0.997348, 219, 309, 234, 340
-0.997361, 181, 405, 196, 436
-0.997374, 129, 97, 160, 352
-0.997378, 9, 129, 72, 384
-0.997394, 251, 369, 266, 400
-0.997399, 221, 385, 236, 416
-0.9974, 281, 345, 296, 376
-0.997402, 181, 393, 196, 424
-0.997407, 237, 417, 252, 448
-0.997411, 185, 465, 200, 496
-0.997413, 167, 329, 182, 360
-0.997413, 183, 453, 198, 484
-0.997422, 53, 193, 84, 448
-0.997423, 161, 457, 176, 488
-0.997427, 221, 469, 236, 500
-0.997428, 213, 469, 228, 500
-0.997429, 241, 337, 256, 368
-0.997434, 171, 293, 186, 324
-0.997443, 109, 445, 124, 476
-0.997453, 175, 361, 190, 392
-0.997462, 137, 257, 168, 500
-0.997463, 145, 57, 272, 88
-0.997475, 1, 257, 128, 288
-0.997478, 69, 65, 100, 320
-0.997484, 155, 381, 170, 412
-0.997488, 241, 325, 256, 356
-0.997499, 151, 317, 166, 348
-0.997518, 81, 69, 208, 100
-0.997521, 219, 425, 234, 456
-0.997524, 203, 441, 218, 472
-0.997525, 97, 65, 128, 320
-0.997525, 175, 341, 190, 372
-0.99753, 191, 429, 206, 460
-0.997533, 249, 353, 264, 384
-0.99754, 209, 393, 224, 424
-0.997543, 9, 161, 72, 288
-0.997543, 247, 393, 262, 424
-0.997547, 227, 433, 242, 464
-0.997549, 167, 393, 182, 424
-0.997564, 167, 461, 182, 492
-0.997566, 109, 225, 140, 480
-0.997568, 181, 33, 212, 288
-0.997583, 219, 373, 234, 404
-0.997591, 167, 281, 182, 312
-0.9976, 203, 345, 218, 376
-0.997612, 225, 369, 240, 400
-0.997621, 161, 381, 176, 412
-0.997628, 173, 429, 188, 460
-0.997631, 225, 449, 352, 480
-0.997638, 239, 357, 254, 388
-0.997643, 123, 453, 138, 484
-0.997655, 109, 433, 124, 464
-0.997658, 85, 65, 116, 320
-0.997664, 227, 329, 242, 360
-0.997676, 145, 317, 160, 348
-0.997681, 81, 177, 208, 208
-0.997686, 165, 317, 180, 348
-0.997692, 207, 469, 222, 500
-0.997694, 275, 413, 290, 444
-0.997694, 69, 257, 100, 500
-0.997705, 261, 373, 276, 404
-0.997716, 127, 425, 142, 456
-0.99772, 197, 357, 212, 388
-0.997728, 201, 33, 232, 288
-0.99776, 167, 433, 182, 464
-0.997761, 215, 393, 230, 424
-0.997764, 219, 325, 234, 356
-0.997766, 215, 341, 230, 372
-0.99777, 197, 461, 212, 492
-0.997784, 173, 469, 188, 500
-0.99779, 243, 417, 258, 448
-0.997793, 149, 305, 164, 336
-0.997797, 171, 201, 186, 232
-0.99781, 57, 97, 88, 352
-0.997813, 227, 465, 242, 496
-0.997814, 189, 325, 204, 356
-0.997814, 85, 257, 116, 500
-0.997818, 65, 25, 192, 88
-0.997818, 1, 161, 375, 224
-0.997821, 219, 353, 234, 384
-0.997824, 223, 289, 238, 320
-0.997828, 191, 341, 206, 372
-0.997831, 131, 457, 146, 488
-0.997831, 77, 161, 108, 416
-0.997831, 149, 397, 164, 428
-0.997836, 241, 389, 256, 420
-0.997841, 231, 313, 246, 344
-0.997852, 89, 417, 104, 448
-0.997857, 95, 405, 110, 436
-0.997866, 265, 329, 280, 360
-0.997866, 175, 405, 190, 436
-0.997868, 195, 329, 210, 360
-0.99787, 17, 169, 144, 232
-0.997904, 213, 65, 244, 320
-0.997956, 321, 129, 352, 384
-0.997965, 177, 97, 240, 224
-0.997969, 49, 221, 176, 252
-0.997984, 97, 145, 224, 176
-0.997991, 201, 129, 232, 384
-0.998006, 177, 17, 304, 80
-0.998011, 41, 193, 72, 448
-0.998028, 105, 1, 168, 256
-0.998035, 141, 65, 172, 320
-0.998082, 241, 257, 368, 288
-0.998114, 1, 297, 128, 328
-0.998126, 321, 33, 352, 288
-0.998146, 1, 309, 128, 340
-0.998156, 301, 33, 332, 288
-0.998171, 1, 137, 128, 168
-0.998192, 193, 53, 320, 84
-0.998217, 225, 321, 352, 352
-0.998245, 97, 165, 224, 196
-0.998295, 97, 121, 224, 152
-0.99831, 161, 289, 224, 304
-0.998318, 17, 81, 144, 112
-0.998352, 49, 201, 176, 232
-0.998368, 175, 369, 190, 496
-0.99838, 193, 419, 256, 434
-0.99838, 145, 295, 208, 310
-0.998381, 97, 451, 160, 466
-0.998384, 177, 427, 240, 442
-0.998392, 25, 65, 88, 192
-0.998394, 217, 359, 280, 374
-0.998399, 81, 441, 144, 456
-0.998404, 169, 399, 232, 414
-0.998408, 113, 467, 176, 482
-0.99841, 185, 291, 248, 306
-0.998412, 201, 413, 264, 428
-0.998413, 177, 283, 240, 298
-0.998413, 209, 269, 336, 300
-0.998427, 137, 455, 200, 470
-0.998435, 201, 283, 264, 298
-0.998436, 153, 65, 184, 320
-0.998436, 177, 439, 240, 454
-0.99844, 169, 421, 232, 436
-0.998443, 201, 325, 264, 340
-0.99845, 145, 403, 208, 418
-0.998451, 251, 369, 266, 496
-0.998451, 113, 461, 176, 476
-0.998452, 137, 287, 200, 302
-0.998452, 169, 447, 232, 462
-0.998454, 151, 369, 166, 496
-0.998458, 177, 475, 240, 490
-0.998461, 97, 257, 160, 272
-0.998466, 73, 485, 136, 500
-0.998468, 237, 365, 268, 380
-0.998468, 225, 421, 288, 436
-0.998469, 201, 445, 232, 460
-0.998469, 157, 475, 188, 490
-0.998469, 173, 281, 204, 296
-0.998469, 177, 435, 208, 450
-0.998469, 157, 461, 188, 476
-0.998471, 141, 323, 172, 338
-0.998472, 97, 429, 128, 444
-0.998473, 217, 285, 248, 300
-0.998473, 145, 369, 160, 496
-0.998473, 213, 291, 244, 306
-0.998474, 201, 343, 264, 358
-0.998474, 209, 405, 272, 420
-0.998475, 257, 357, 288, 372
-0.998475, 157, 199, 188, 214
-0.998476, 201, 471, 232, 486
-0.998476, 113, 397, 176, 412
-0.998477, 89, 423, 120, 438
-0.998478, 113, 425, 176, 440
-0.998481, 157, 309, 188, 324
-0.998481, 185, 329, 216, 344
-0.998481, 253, 379, 284, 394
-0.998482, 65, 435, 128, 450
-0.998483, 101, 401, 132, 416
-0.998483, 157, 335, 188, 350
-0.998484, 193, 361, 256, 376
-0.998485, 153, 437, 184, 452
-0.998486, 205, 423, 236, 438
-0.998486, 241, 419, 272, 434
-0.998486, 227, 225, 242, 352
-0.998487, 201, 381, 264, 396
-0.998487, 173, 289, 204, 304
-0.998488, 177, 297, 240, 312
-0.998491, 233, 343, 296, 358
-0.998492, 225, 357, 256, 372
-0.998494, 137, 441, 200, 456
-0.998496, 169, 413, 232, 428
-0.998496, 201, 337, 264, 352
-0.998496, 197, 323, 228, 338
-0.998496, 177, 367, 240, 382
-0.998496, 217, 365, 280, 380
-0.998496, 201, 427, 264, 442
-0.998497, 209, 351, 272, 366
-0.998497, 139, 369, 154, 496
-0.998497, 225, 369, 256, 384
-0.998498, 253, 335, 284, 350
-0.998499, 241, 97, 272, 352
-0.9985, 173, 423, 204, 438
-0.9985, 89, 401, 152, 416
-0.9985, 177, 433, 240, 448
-0.998501, 185, 403, 216, 418
-0.998502, 145, 295, 176, 310
-0.998503, 101, 483, 132, 498
-0.998503, 201, 331, 264, 346
-0.998504, 81, 423, 144, 438
-0.998505, 137, 391, 168, 406
-0.998505, 257, 363, 288, 378
-0.998505, 1, 125, 128, 156
-0.998505, 153, 427, 216, 442
-0.998506, 225, 429, 256, 444
-0.998507, 245, 391, 276, 406
-0.998509, 145, 447, 208, 462
-0.998509, 189, 341, 220, 356
-0.998509, 97, 251, 160, 266
-0.99851, 197, 347, 228, 362
-0.99851, 161, 331, 224, 346
-0.998511, 149, 289, 180, 304
-0.998511, 177, 457, 208, 472
-0.998511, 233, 339, 264, 354
-0.998512, 89, 429, 152, 444
-0.998512, 105, 435, 136, 450
-0.998512, 121, 449, 184, 464
-0.998512, 129, 329, 192, 344
-0.998512, 217, 273, 232, 400
-0.998513, 145, 281, 208, 296
-0.998514, 141, 463, 172, 478
-0.998516, 177, 301, 208, 316
-0.998516, 173, 325, 204, 340
-0.998516, 153, 327, 184, 342
-0.998516, 261, 411, 292, 426
-0.998517, 121, 237, 152, 252
-0.998517, 85, 485, 116, 500
-0.998518, 233, 329, 264, 344
-0.998518, 277, 361, 308, 376
-0.998519, 249, 357, 312, 372
-0.998519, 141, 469, 172, 484
-0.998521, 245, 369, 260, 496
-0.998521, 217, 373, 280, 388
-0.998521, 225, 413, 288, 428
-0.998522, 205, 331, 236, 346
-0.998524, 161, 453, 224, 468
-0.998525, 157, 451, 188, 466
-0.998525, 161, 211, 192, 226
-0.998525, 225, 383, 256, 398
-0.998525, 65, 447, 128, 462
-0.998526, 217, 313, 248, 328
-0.998526, 249, 349, 312, 364
-0.998528, 209, 355, 240, 370
-0.998529, 73, 479, 136, 494
-0.998529, 233, 413, 264, 428
-0.998529, 165, 367, 196, 382
-0.998529, 137, 451, 168, 466
-0.99853, 137, 461, 200, 476
-0.99853, 97, 243, 160, 258
-0.99853, 245, 401, 276, 416
-0.998531, 277, 353, 308, 368
-0.998532, 137, 301, 200, 316
-0.998532, 333, 129, 364, 384
-0.998532, 193, 451, 224, 466
-0.998532, 205, 477, 236, 492
-0.998533, 161, 425, 192, 440
-0.998534, 161, 405, 192, 420
-0.998534, 153, 433, 216, 448
-0.998534, 129, 335, 192, 350
-0.998534, 193, 477, 224, 492
-0.998535, 193, 373, 256, 388
-0.998536, 209, 385, 240, 400
-0.998536, 193, 319, 256, 334
-0.998536, 249, 459, 312, 474
-0.998537, 125, 397, 156, 412
-0.998537, 57, 375, 120, 390
-0.998538, 169, 473, 200, 488
-0.998538, 21, 469, 52, 484
-0.998539, 173, 331, 204, 346
-0.998539, 265, 225, 296, 480
-0.99854, 217, 325, 248, 340
-0.998541, 161, 393, 224, 408
-0.998542, 201, 387, 264, 402
-0.998544, 241, 383, 272, 398
-0.998544, 201, 291, 232, 306
-0.998544, 89, 461, 152, 476
-0.998544, 197, 409, 228, 424
-0.998545, 121, 473, 184, 488
-0.998545, 249, 397, 312, 412
-0.998545, 237, 377, 268, 392
-0.998545, 137, 397, 168, 412
-0.998547, 205, 367, 236, 382
-0.998547, 97, 263, 160, 278
-0.998548, 33, 481, 96, 496
-0.998549, 237, 359, 268, 374
-0.99855, 81, 417, 144, 432
-0.99855, 137, 323, 200, 338
-0.998551, 185, 413, 216, 428
-0.998551, 177, 379, 240, 394
-0.998551, 185, 443, 216, 458
-0.998551, 1, 365, 128, 396
-0.998552, 33, 471, 96, 486
-0.998553, 217, 337, 232, 464
-0.998554, 169, 405, 232, 420
-0.998554, 89, 405, 120, 420
-0.998554, 201, 433, 264, 448
-0.998554, 173, 441, 204, 456
-0.998555, 89, 435, 152, 450
-0.998558, 193, 399, 256, 414
-0.998558, 213, 401, 244, 416
-0.998559, 29, 257, 60, 500
-0.99856, 161, 467, 192, 482
-0.998561, 105, 441, 168, 456
-0.998561, 161, 341, 224, 356
-0.998561, 129, 435, 192, 450
-0.998562, 209, 455, 272, 470
-0.998562, 177, 341, 208, 356
-0.998562, 49, 429, 112, 444
-0.998564, 233, 407, 264, 422
-0.998564, 185, 349, 248, 364
-0.998565, 297, 81, 360, 96
-0.998566, 145, 421, 208, 436
-0.998566, 193, 449, 256, 464
-0.998567, 205, 439, 236, 454
-0.998567, 161, 469, 224, 484
-0.998568, 213, 471, 244, 486
-0.998568, 241, 361, 368, 392
-0.998568, 209, 429, 240, 444
-0.998569, 217, 345, 248, 360
-0.998569, 201, 441, 264, 456
-0.998569, 113, 291, 176, 306
-0.99857, 241, 363, 304, 378
-0.99857, 137, 393, 200, 408
-0.99857, 149, 401, 180, 416
-0.998571, 221, 419, 252, 434
-0.998571, 185, 481, 248, 496
-0.998573, 97, 325, 160, 340
-0.998574, 209, 361, 240, 376
-0.998575, 33, 471, 64, 486
-0.998575, 225, 395, 288, 410
-0.998575, 57, 441, 120, 456
-0.998578, 129, 33, 375, 96
-0.998579, 81, 411, 144, 426
-0.99858, 97, 237, 160, 252
-0.998581, 217, 319, 248, 334
-0.998582, 201, 473, 264, 488
-0.998582, 201, 465, 264, 480
-0.998583, 89, 441, 120, 456
-0.998583, 1, 473, 64, 488
-0.998585, 225, 337, 288, 352
-0.998586, 173, 405, 204, 420
-0.998587, 217, 279, 248, 294
-0.998588, 145, 385, 208, 400
-0.998588, 221, 375, 252, 390
-0.998588, 209, 237, 272, 252
-0.998588, 153, 477, 216, 492
-0.998588, 97, 269, 160, 284
-0.998589, 185, 369, 216, 384
-0.998589, 97, 377, 160, 392
-0.99859, 161, 463, 224, 478
-0.998591, 113, 443, 144, 458
-0.998591, 161, 189, 224, 204
-0.998592, 233, 243, 296, 258
-0.998593, 209, 339, 240, 354
-0.998594, 157, 301, 188, 316
-0.998595, 169, 399, 200, 414
-0.998595, 73, 453, 136, 468
-0.998595, 217, 449, 280, 464
-0.998595, 125, 449, 156, 464
-0.998597, 249, 391, 312, 406
-0.998599, 185, 455, 248, 470
-0.998601, 181, 477, 212, 492
-0.998601, 73, 473, 136, 488
-0.998601, 249, 237, 312, 252
-0.998601, 25, 463, 88, 478
-0.998601, 169, 277, 232, 292
-0.998601, 253, 385, 284, 400
-0.998602, 257, 369, 320, 384
-0.998603, 145, 215, 208, 230
-0.998603, 65, 247, 128, 262
-0.998603, 173, 295, 204, 310
-0.998603, 97, 369, 160, 384
-0.998603, 229, 345, 260, 360
-0.998605, 297, 75, 360, 90
-0.998606, 109, 453, 140, 468
-0.998607, 137, 467, 200, 482
-0.998607, 159, 369, 174, 496
-0.998609, 249, 413, 280, 428
-0.998611, 211, 321, 226, 448
-0.998616, 209, 375, 240, 390
-0.998621, 145, 317, 176, 332
-0.998623, 157, 393, 188, 408
-0.998631, 101, 447, 132, 462
-0.998634, 213, 413, 244, 428
-0.998634, 237, 353, 268, 368
-0.998637, 189, 335, 220, 350
-0.99864, 141, 457, 172, 472
-0.998644, 253, 65, 284, 320
-0.998646, 193, 421, 224, 436
-0.998648, 73, 483, 104, 498
-0.998656, 169, 369, 184, 496
-0.998659, 249, 321, 264, 448
-0.998667, 121, 461, 152, 476
-0.998667, 217, 225, 232, 352
-0.998671, 161, 289, 192, 304
-0.998672, 205, 285, 236, 300
-0.998673, 161, 41, 288, 72
-0.998673, 223, 321, 238, 448
-0.998676, 289, 65, 320, 320
-0.998678, 207, 369, 222, 496
-0.998682, 333, 33, 364, 288
-0.998699, 173, 447, 204, 462
-0.998707, 157, 295, 188, 310
-0.998713, 185, 291, 216, 306
-0.998713, 221, 351, 252, 366
-0.998719, 257, 369, 272, 496
-0.998723, 231, 273, 246, 400
-0.998725, 145, 257, 160, 384
-0.998727, 153, 289, 168, 416
-0.998728, 183, 369, 198, 496
-0.998736, 345, 33, 375, 288
-0.99876, 223, 369, 238, 496
-0.99876, 9, 257, 40, 500
-0.998781, 49, 153, 176, 184
-0.99879, 49, 189, 176, 220
-0.998794, 201, 273, 216, 400
-0.998798, 193, 305, 320, 336
-0.9988, 195, 337, 210, 464
-0.998809, 237, 225, 252, 352
-0.998823, 131, 369, 146, 496
-0.998836, 239, 321, 254, 448
-0.998844, 169, 289, 184, 416
-0.998847, 91, 369, 106, 496
-0.998854, 145, 305, 160, 432
-0.998856, 265, 369, 280, 496
-0.998857, 137, 321, 152, 448
-0.99886, 237, 369, 252, 496
-0.998865, 209, 225, 224, 352
-0.998877, 333, 225, 364, 480
-0.998899, 195, 209, 210, 336
-0.998918, 345, 129, 375, 384
-0.99892, 175, 273, 190, 400
-0.998927, 223, 273, 238, 400
-0.998928, 309, 129, 340, 384
-0.998933, 101, 241, 116, 368
-0.998971, 159, 321, 174, 448
-0.998974, 93, 305, 108, 432
-0.998976, 241, 349, 368, 380
-0.998977, 229, 337, 244, 464
-0.998977, 119, 369, 134, 496
-0.998981, 163, 273, 178, 400
-0.998992, 201, 369, 216, 496
-0.998992, 139, 241, 154, 368
-0.998993, 99, 369, 114, 496
-0.999021, 125, 369, 140, 496
-0.999032, 161, 145, 176, 272
-0.999047, 317, 225, 348, 480
-0.999051, 185, 209, 200, 336
-0.999054, 95, 241, 110, 368
-0.999066, 273, 97, 304, 352
-0.99907, 279, 353, 294, 480
-0.999075, 99, 321, 114, 448
-0.999078, 255, 321, 270, 448
-0.999086, 113, 369, 128, 496
-0.999088, 343, 65, 358, 192
-0.999088, 107, 369, 122, 496
-0.999097, 189, 337, 204, 464
-0.999105, 175, 321, 190, 448
-0.999111, 81, 57, 208, 88
-0.999139, 345, 225, 375, 480
-0.999148, 113, 45, 240, 76
-0.999154, 129, 1, 256, 64
-0.999155, 285, 369, 300, 496
-0.99916, 169, 193, 184, 320
-0.999162, 77, 65, 92, 192
-0.999164, 183, 289, 198, 416
-0.999172, 205, 321, 220, 448
-0.999175, 1, 93, 128, 124
-0.999176, 337, 65, 352, 192
-0.999177, 211, 273, 226, 400
-0.999182, 273, 353, 288, 480
-0.999183, 177, 193, 192, 320
-0.99919, 1, 105, 128, 136
-0.999191, 201, 225, 216, 352
-0.999191, 349, 65, 364, 192
-0.999202, 169, 65, 184, 192
-0.999207, 251, 177, 266, 304
-0.999208, 133, 225, 148, 352
-0.999229, 89, 257, 104, 384
-0.999231, 57, 209, 72, 336
-0.999238, 189, 257, 204, 384
-0.999238, 167, 129, 182, 256
-0.999252, 357, 65, 372, 192
-0.999253, 71, 65, 86, 192
-0.999253, 33, 369, 48, 496
-0.999254, 251, 225, 266, 352
-0.999263, 83, 353, 98, 480
-0.999273, 243, 225, 258, 352
-0.999274, 243, 177, 258, 304
-0.999287, 195, 257, 210, 384
-0.999291, 151, 241, 166, 368
-0.999297, 109, 225, 124, 352
-0.999304, 39, 369, 54, 496
-0.999308, 111, 65, 126, 192
-0.99931, 117, 65, 132, 192
-0.999313, 215, 49, 230, 176
-0.999316, 129, 65, 144, 192
-0.999321, 57, 369, 72, 496
-0.99933, 103, 65, 118, 192
-0.999332, 131, 321, 146, 448
-0.999333, 25, 353, 40, 480
-0.999342, 11, 337, 26, 464
-0.999343, 177, 129, 192, 256
-0.999343, 321, 65, 336, 192
-0.999349, 123, 65, 138, 192
-0.999352, 161, 81, 176, 208
-0.999355, 183, 49, 198, 176
-0.999356, 83, 65, 98, 192
-0.999357, 97, 65, 112, 192
-0.99936, 291, 369, 306, 496
-0.99936, 49, 165, 176, 196
-0.999361, 331, 65, 346, 192
-0.999368, 203, 49, 218, 176
-0.999369, 123, 225, 138, 352
-0.999371, 153, 193, 168, 320
-0.999372, 209, 49, 224, 176
-0.999372, 61, 145, 76, 272
-0.999382, 175, 49, 190, 176
-0.999384, 159, 225, 174, 352
-0.999386, 89, 65, 104, 192
-0.999391, 261, 321, 276, 448
-0.999392, 69, 369, 84, 496
-0.999393, 315, 65, 330, 192
-0.999396, 321, 145, 336, 272
-0.999399, 25, 1, 88, 256
-0.9994, 141, 193, 156, 320
-0.999401, 19, 369, 34, 496
-0.999414, 321, 369, 336, 496
-0.999416, 153, 129, 168, 256
-0.999419, 201, 177, 216, 304
-0.999424, 135, 65, 150, 192
-0.999426, 257, 193, 272, 320
-0.999426, 63, 369, 78, 496
-0.999428, 235, 177, 250, 304
-0.999436, 77, 353, 92, 480
-0.999436, 51, 369, 66, 496
-0.999437, 227, 177, 242, 304
-0.999438, 223, 49, 238, 176
-0.999465, 241, 1, 272, 256
-0.999506, 285, 225, 316, 480
-0.999663, 45, 97, 76, 352
-0.999686, 169, 473, 184, 488
-0.999688, 219, 467, 234, 482
-0.999688, 283, 355, 298, 370
-0.999689, 217, 329, 232, 344
-0.999691, 175, 369, 190, 384
-0.999691, 165, 203, 180, 218
-0.999692, 215, 415, 230, 430
-0.999693, 165, 403, 180, 418
-0.999693, 197, 441, 212, 456
-0.999694, 251, 397, 266, 412
-0.999695, 101, 433, 116, 448
-0.999695, 91, 421, 106, 436
-0.999695, 281, 361, 296, 376
-0.999696, 257, 343, 272, 358
-0.999697, 221, 473, 236, 488
-0.999697, 193, 477, 208, 492
-0.999697, 93, 485, 108, 500
-0.999699, 175, 361, 190, 376
-0.999699, 151, 459, 166, 474
-0.999699, 133, 449, 148, 464
-0.999699, 129, 461, 144, 476
-0.9997, 243, 407, 258, 422
-0.9997, 159, 461, 174, 476
-0.999701, 159, 469, 174, 484
-0.999701, 31, 467, 46, 482
-0.999701, 187, 457, 202, 472
-0.999703, 223, 401, 238, 416
-0.999703, 219, 373, 234, 388
-0.999704, 251, 377, 266, 392
-0.999705, 37, 469, 52, 484
-0.999706, 209, 475, 224, 490
-0.999706, 261, 413, 276, 428
-0.999706, 171, 209, 186, 224
-0.999706, 117, 453, 132, 468
-0.999707, 229, 323, 244, 338
-0.999709, 229, 369, 244, 384
-0.999709, 215, 473, 230, 488
-0.99971, 207, 413, 222, 428
-0.99971, 247, 351, 262, 366
-0.999713, 227, 433, 242, 448
-0.999713, 149, 399, 164, 414
-0.999713, 33, 1, 288, 64
-0.999713, 237, 337, 252, 352
-0.999713, 159, 423, 174, 438
-0.999714, 149, 385, 164, 400
-0.999714, 165, 327, 180, 342
-0.999714, 245, 379, 260, 394
-0.999716, 107, 441, 122, 456
-0.999717, 177, 453, 192, 468
-0.999718, 201, 413, 216, 428
-0.999719, 243, 415, 258, 430
-0.99972, 235, 343, 250, 358
-0.99972, 205, 285, 220, 300
-0.999721, 145, 457, 160, 472
-0.999721, 165, 285, 180, 300
-0.999722, 163, 303, 178, 318
-0.999722, 85, 483, 100, 498
-0.999722, 183, 423, 198, 438
-0.999723, 169, 397, 184, 412
-0.999724, 121, 443, 136, 458
-0.999724, 157, 311, 172, 326
-0.999724, 73, 479, 88, 494
-0.999725, 105, 401, 120, 416
-0.999725, 99, 441, 114, 456
-0.999725, 43, 471, 58, 486
-0.999728, 231, 375, 246, 390
-0.999729, 211, 331, 226, 346
-0.999734, 183, 293, 198, 308
-0.999735, 249, 415, 264, 430
-0.999736, 221, 351, 236, 366
-0.999736, 79, 481, 94, 496
-0.999736, 233, 417, 248, 432
-0.999736, 255, 411, 270, 426
-0.999737, 161, 197, 176, 212
-0.999737, 207, 407, 222, 422
-0.999738, 251, 389, 266, 404
-0.999738, 227, 337, 242, 352
-0.999738, 207, 419, 222, 434
-0.999738, 211, 379, 226, 394
-0.999739, 111, 449, 126, 464
-0.999742, 283, 349, 298, 364
-0.999742, 153, 465, 168, 480
-0.999744, 221, 415, 236, 430
-0.999745, 177, 283, 192, 298
-0.999748, 89, 415, 104, 430
-0.99975, 215, 429, 230, 444
-0.99975, 189, 331, 204, 346
-0.999751, 135, 459, 150, 474
-0.999754, 179, 299, 194, 314
-0.999754, 175, 475, 190, 490
-0.999755, 187, 407, 202, 422
-0.999755, 177, 447, 192, 462
-0.999756, 219, 379, 234, 394
-0.999759, 217, 291, 232, 306
-0.99976, 171, 285, 186, 300
-0.99976, 305, 225, 336, 480
-0.999761, 207, 371, 222, 386
-0.999764, 245, 341, 260, 356
-0.999765, 155, 293, 170, 308
-0.999766, 229, 355, 244, 370
-0.999767, 95, 403, 110, 418
-0.999769, 179, 437, 194, 452
-0.99977, 151, 393, 166, 408
-0.999772, 241, 9, 368, 72
-0.999773, 225, 345, 240, 360
-0.999773, 221, 339, 236, 354
-0.999773, 229, 277, 244, 292
-0.999773, 195, 289, 210, 304
-0.999774, 263, 335, 278, 350
-0.999782, 155, 299, 170, 314
-0.999784, 161, 297, 176, 312
-0.999784, 251, 383, 266, 398
-0.999785, 211, 399, 226, 414
-0.999788, 221, 315, 236, 330
-0.999789, 213, 409, 228, 424
-0.999789, 89, 409, 104, 424
-0.999793, 273, 361, 288, 376
-0.999793, 221, 283, 236, 298
-0.999794, 153, 305, 168, 320
-0.999796, 211, 283, 226, 298
-0.999797, 225, 375, 240, 390
-0.999804, 201, 291, 216, 306
-0.999805, 257, 337, 272, 352
-0.999806, 177, 293, 192, 308
-0.999811, 235, 349, 250, 364
-0.999813, 175, 397, 190, 412
-0.999813, 189, 291, 204, 306
-0.999814, 185, 401, 200, 416
-0.999824, 187, 445, 202, 460
-0.999828, 179, 403, 194, 418
-0.999838, 171, 297, 186, 312
-0.99984, 161, 291, 176, 306
-0.999843, 171, 291, 186, 306
-0.99988, 1, 1, 128, 64
-1.00003, 53, 1, 84, 256
-1.00007, 21, 161, 52, 416
-1.00009, 1, 41, 375, 104
-1.0001, 269, 1, 300, 256
-1.0002, 129, 1, 160, 256
-1.00025, 129, 1, 375, 64
-1.00033, 1, 161, 32, 416
-1.00035, 33, 97, 64, 352
-1.00063, 41, 1, 72, 256
-1.00075, 1, 25, 128, 88
-1.0012, 81, 1, 208, 64
-1.00151, 9, 65, 40, 320
-1.00172, 21, 65, 52, 320
-1.00229, 17, 113, 80, 240
-1.00253, 1, 9, 375, 72
-1.00391, 257, 273, 320, 400
-1.00532, 1, 33, 64, 288
-1.01133, 1, 1, 64, 128
-1.01182, 1, 65, 64, 192
-1.01223, 281, 273, 344, 400
-1.01573, 305, 273, 368, 400
