1641
-0.398594, 1, 1, 500, 229
-0.465342, 97, 1, 352, 229
-0.58331, 1, 1, 256, 229
-0.591652, 193, 1, 448, 229
-0.846053, 113, 1, 240, 229
-0.855083, 257, 1, 384, 229
-0.858837, 33, 1, 160, 229
-0.858942, 161, 1, 288, 229
-0.877597, 305, 1, 432, 229
-0.881065, 1, 33, 500, 160
-0.886243, 1, 81, 500, 208
-0.8893, 209, 1, 336, 229
-0.892729, 97, 81, 352, 208
-0.897729, 353, 1, 480, 229
-0.898156, 129, 1, 384, 128
-0.913259, 1, 49, 256, 176
-0.924169, 257, 97, 500, 224
-0.925599, 273, 65, 336, 192
-0.927326, 241, 65, 368, 192
-0.929369, 97, 65, 224, 192
-0.9302, 257, 49, 500, 176
-0.930354, 1, 1, 256, 128
-0.932447, 177, 33, 304, 160
-0.93374, 257, 1, 500, 128
-0.93551, 289, 49, 416, 176
-0.93629, 121, 65, 184, 192
-0.936967, 1, 97, 256, 224
-0.937891, 257, 1, 384, 128
-0.940344, 297, 81, 360, 208
-0.941478, 281, 1, 344, 128
-0.942785, 97, 17, 224, 144
-0.943932, 49, 33, 176, 160
-0.944568, 297, 89, 360, 152
-0.945149, 433, 1, 496, 128
-0.945313, 249, 81, 312, 208
-0.945467, 153, 49, 216, 176
-0.94618, 161, 97, 224, 224
-0.94624, 289, 97, 416, 224
-0.946544, 161, 1, 224, 128
-0.946734, 265, 81, 328, 144
-0.946995, 177, 81, 304, 208
-0.94964, 313, 1, 376, 128
-0.950314, 257, 17, 320, 144
-0.951003, 121, 81, 184, 144
-0.951671, 297, 65, 360, 128
-0.952605, 185, 1, 248, 128
-0.953258, 65, 33, 128, 160
-0.953303, 321, 1, 448, 128
-0.953667, 33, 81, 160, 208
-0.954065, 161, 81, 224, 144
-0.955068, 201, 1, 264, 64
-0.955175, 233, 1, 296, 64
-0.956531, 225, 65, 288, 192
-0.956845, 337, 97, 464, 224
-0.956927, 89, 17, 152, 144
-0.956937, 297, 137, 360, 200
-0.958007, 257, 57, 320, 120
-0.958229, 17, 1, 80, 128
-0.958626, 369, 1, 496, 128
-0.958644, 337, 49, 464, 176
-0.958985, 129, 17, 192, 144
-0.959024, 161, 153, 224, 216
-0.959732, 337, 1, 400, 64
-0.960223, 1, 1, 128, 128
-0.960507, 281, 113, 344, 176
-0.960613, 321, 81, 384, 208
-0.960792, 321, 49, 384, 112
-0.960906, 321, 105, 384, 168
-0.961145, 169, 113, 232, 176
-0.961215, 17, 81, 80, 208
-0.961345, 257, 113, 320, 176
-0.961383, 97, 97, 160, 224
-0.961574, 113, 161, 176, 224
-0.961944, 297, 41, 360, 104
-0.963121, 185, 65, 248, 192
-0.963284, 113, 113, 176, 176
-0.963291, 209, 17, 272, 144
-0.96419, 233, 113, 296, 176
-0.964631, 241, 33, 304, 96
-0.964666, 137, 105, 200, 168
-0.965157, 233, 17, 296, 144
-0.965307, 257, 1, 320, 64
-0.965355, 81, 161, 144, 224
-0.96543, 145, 57, 208, 120
-0.965472, 337, 1, 400, 128
-0.965594, 265, 145, 328, 208
-0.966255, 97, 81, 160, 144
-0.966815, 233, 89, 296, 152
-0.967017, 161, 1, 224, 229
-0.967044, 257, 89, 384, 152
-0.967126, 193, 137, 256, 200
-0.967241, 321, 73, 384, 136
-0.967247, 113, 81, 240, 144
-0.967272, 337, 129, 400, 192
-0.967497, 137, 169, 200, 229
-0.96765, 337, 25, 400, 88
-0.96767, 137, 1, 200, 229
-0.968026, 209, 73, 272, 136
-0.968027, 401, 97, 464, 224
-0.968054, 201, 97, 264, 160
-0.968165, 281, 17, 344, 80
-0.968329, 241, 137, 304, 200
-0.968461, 113, 113, 240, 176
-0.968497, 281, 1, 344, 229
-0.968649, 49, 57, 112, 120
-0.968707, 177, 17, 240, 80
-0.9688, 433, 17, 496, 80
-0.969139, 113, 137, 176, 200
-0.969381, 393, 169, 456, 229
-0.969467, 193, 1, 320, 64
-0.970021, 433, 65, 496, 192
-0.970134, 317, 65, 348, 128
-0.970294, 41, 1, 104, 128
-0.970345, 313, 1, 376, 64
-0.970664, 17, 73, 80, 136
-0.970723, 401, 41, 464, 104
-0.970826, 401, 33, 464, 160
-0.971108, 377, 97, 440, 224
-0.97122, 201, 161, 264, 224
-0.971241, 193, 89, 320, 152
-0.971397, 285, 81, 316, 208
-0.97141, 309, 81, 340, 208
-0.97144, 137, 73, 168, 136
-0.971555, 377, 41, 440, 104
-0.971586, 73, 81, 136, 208
-0.971644, 233, 161, 296, 224
-0.971712, 217, 137, 280, 200
-0.97187, 273, 49, 304, 176
-0.971945, 241, 65, 368, 128
-0.972002, 369, 121, 432, 184
-0.972052, 169, 57, 232, 120
-0.972272, 225, 1, 288, 229
-0.972342, 125, 73, 156, 136
-0.972377, 321, 161, 384, 224
-0.972459, 345, 65, 408, 192
-0.972618, 297, 73, 328, 136
-0.972682, 121, 57, 184, 120
-0.972766, 105, 25, 168, 88
-0.972886, 41, 49, 104, 176
-0.972952, 345, 105, 408, 168
-0.973056, 361, 153, 424, 216
-0.973059, 113, 1, 176, 229
-0.973103, 337, 1, 400, 229
-0.973109, 297, 161, 360, 224
-0.973133, 33, 89, 160, 152
-0.97323, 409, 1, 472, 64
-0.973412, 81, 41, 144, 104
-0.973489, 289, 49, 416, 112
-0.973582, 193, 113, 320, 176
-0.973964, 221, 1, 252, 64
-0.974063, 149, 81, 180, 144
-0.974204, 89, 105, 152, 168
-0.974269, 293, 1, 324, 128
-0.974274, 333, 49, 364, 112
-0.974362, 249, 1, 312, 229
-0.974411, 289, 129, 416, 192
-0.974562, 137, 145, 200, 208
-0.974909, 201, 1, 264, 229
-0.974997, 281, 73, 312, 136
-0.975357, 257, 25, 384, 88
-0.975402, 177, 81, 208, 144
-0.975455, 305, 1, 368, 229
-0.975606, 81, 137, 144, 200
-0.975637, 321, 89, 352, 152
-0.975726, 269, 73, 300, 136
-0.975851, 345, 49, 408, 112
-0.976106, 65, 25, 192, 88
-0.97618, 165, 49, 196, 176
-0.97624, 261, 81, 292, 208
-0.976386, 181, 97, 212, 224
-0.976513, 321, 81, 352, 208
-0.976587, 425, 161, 488, 224
-0.976594, 313, 1, 344, 128
-0.976596, 121, 81, 152, 208
-0.976752, 337, 89, 368, 152
-0.976809, 49, 97, 112, 224
-0.976814, 301, 97, 332, 160
-0.97686, 313, 137, 344, 200
-0.976874, 297, 81, 328, 208
-0.97704, 149, 81, 180, 208
-0.977081, 385, 145, 448, 208
-0.977096, 17, 113, 144, 176
-0.977372, 189, 81, 220, 144
-0.97738, 241, 113, 368, 176
-0.977391, 189, 145, 220, 208
-0.977419, 369, 17, 432, 80
-0.97753, 265, 1, 296, 64
-0.977573, 273, 1, 400, 64
-0.977629, 137, 97, 168, 160
-0.977647, 393, 113, 456, 176
-0.977651, 153, 17, 216, 80
-0.977714, 189, 1, 220, 128
-0.977751, 305, 97, 432, 160
-0.977764, 249, 1, 280, 64
-0.977772, 81, 17, 144, 80
-0.977775, 17, 97, 80, 160
-0.977782, 433, 1, 496, 229
-0.977803, 341, 1, 372, 64
-0.977812, 369, 17, 432, 144
-0.977844, 137, 65, 168, 192
-0.977908, 329, 1, 360, 128
-0.977917, 161, 81, 192, 144
-0.97792, 113, 17, 240, 80
-0.977975, 173, 113, 204, 176
-0.977975, 289, 121, 320, 184
-0.9781, 177, 33, 304, 96
-0.978179, 445, 1, 476, 128
-0.978242, 97, 169, 224, 229
-0.978257, 25, 41, 88, 104
-0.978269, 217, 25, 280, 88
-0.978641, 181, 49, 212, 176
-0.978659, 161, 65, 288, 128
-0.97873, 97, 137, 224, 200
-0.978797, 297, 49, 328, 112
-0.9789, 97, 57, 224, 120
-0.978928, 193, 137, 320, 200
-0.97897, 145, 137, 272, 200
-0.979055, 353, 33, 480, 96
-0.979061, 113, 89, 144, 152
-0.979066, 193, 81, 224, 208
-0.979164, 125, 97, 156, 160
-0.979258, 89, 1, 152, 229
-0.979297, 169, 97, 200, 224
-0.979314, 433, 41, 496, 104
-0.97932, 277, 49, 308, 112
-0.979364, 9, 121, 72, 184
-0.979377, 321, 1, 448, 64
-0.979432, 301, 153, 332, 216
-0.979446, 209, 1, 240, 64
-0.979493, 73, 73, 136, 136
-0.979544, 265, 113, 296, 176
-0.979647, 325, 145, 356, 208
-0.979721, 357, 1, 388, 128
-0.979722, 353, 1, 384, 64
-0.979736, 321, 161, 448, 224
-0.979808, 117, 161, 148, 224
-0.979849, 17, 9, 80, 72
-0.979911, 233, 57, 296, 120
-0.979982, 17, 57, 144, 120
-0.980048, 273, 97, 304, 224
-0.98005, 425, 105, 488, 168
-0.980155, 241, 137, 368, 200
-0.980282, 29, 1, 60, 128
-0.980435, 437, 1, 468, 64
-0.980446, 305, 73, 432, 136
-0.980459, 193, 113, 224, 176
-0.98046, 201, 1, 232, 128
-0.98052, 197, 17, 228, 80
-0.980538, 57, 17, 120, 80
-0.980588, 341, 25, 372, 88
-0.980693, 225, 161, 352, 224
-0.980705, 269, 1, 300, 128
-0.980748, 233, 1, 264, 64
-0.980802, 49, 89, 112, 152
-0.980836, 369, 169, 496, 229
-0.980851, 121, 129, 152, 192
-0.9809, 409, 137, 472, 200
-0.980952, 157, 169, 188, 229
-0.98096, 9, 1, 72, 229
-0.981059, 465, 1, 496, 128
-0.98122, 149, 33, 180, 160
-0.981336, 433, 137, 496, 200
-0.981363, 361, 161, 392, 224
-0.981389, 129, 25, 192, 88
-0.981419, 1, 17, 128, 80
-0.981431, 345, 49, 376, 112
-0.981458, 281, 145, 312, 208
-0.981573, 125, 33, 156, 160
-0.981691, 201, 89, 232, 152
-0.981927, 353, 113, 480, 176
-0.981978, 45, 73, 76, 136
-0.981997, 277, 1, 308, 64
-0.982013, 57, 1, 120, 229
-0.982024, 377, 121, 408, 184
-0.982034, 149, 57, 180, 120
-0.982084, 1, 121, 32, 184
-0.982174, 1, 49, 64, 112
-0.982272, 365, 1, 396, 64
-0.982282, 169, 1, 200, 128
-0.982283, 305, 25, 432, 88
-0.982363, 33, 169, 96, 229
-0.982402, 105, 145, 136, 208
-0.982439, 369, 97, 432, 160
-0.982511, 253, 145, 284, 208
-0.982662, 13, 121, 44, 184
-0.982765, 1, 97, 32, 224
-0.982828, 429, 33, 460, 96
-0.982931, 273, 169, 336, 229
-0.982945, 101, 17, 132, 144
-0.983086, 325, 17, 356, 80
-0.983105, 249, 65, 280, 192
-0.983119, 145, 161, 272, 224
-0.983125, 33, 65, 64, 192
-0.983182, 337, 113, 368, 176
-0.983234, 137, 17, 168, 144
-0.983327, 253, 17, 284, 144
-0.98333, 273, 161, 400, 224
-0.983388, 193, 41, 256, 104
-0.983399, 321, 41, 352, 104
-0.983403, 333, 97, 364, 224
-0.983428, 177, 153, 208, 216
-0.983466, 169, 57, 200, 120
-0.983517, 213, 73, 244, 136
-0.983524, 29, 81, 60, 144
-0.983557, 449, 9, 480, 72
-0.983611, 249, 73, 280, 136
-0.983682, 213, 1, 244, 128
-0.983728, 33, 137, 160, 200
-0.983729, 325, 113, 356, 176
-0.983735, 309, 33, 340, 96
-0.983784, 345, 73, 408, 136
-0.983785, 337, 137, 368, 200
-0.983852, 269, 137, 300, 200
-0.984021, 353, 137, 480, 200
-0.984179, 381, 145, 412, 208
-0.984211, 49, 161, 176, 224
-0.984411, 33, 105, 64, 168
-0.984462, 409, 1, 472, 229
-0.984522, 105, 81, 136, 208
-0.984543, 361, 113, 392, 176
-0.984549, 281, 1, 312, 128
-0.984572, 289, 97, 320, 160
-0.984709, 57, 169, 120, 229
-0.984723, 265, 41, 296, 104
-0.98479, 345, 161, 376, 224
-0.9848, 145, 169, 176, 229
-0.984827, 1, 161, 64, 224
-0.984857, 45, 1, 76, 128
-0.984996, 333, 49, 364, 176
-0.985061, 49, 49, 80, 176
-0.985175, 289, 1, 320, 64
-0.98519, 1, 169, 32, 229
-0.985191, 417, 41, 448, 104
-0.985287, 345, 81, 376, 208
-0.985343, 277, 25, 308, 88
-0.985371, 241, 137, 272, 200
-0.985375, 53, 97, 84, 160
-0.985482, 301, 121, 332, 184
-0.985484, 253, 97, 284, 160
-0.985542, 349, 97, 380, 160
-0.985543, 113, 17, 144, 144
-0.985543, 433, 17, 464, 144
-0.985557, 369, 9, 496, 72
-0.985563, 13, 81, 44, 208
-0.985606, 425, 1, 456, 64
-0.985637, 209, 169, 240, 229
-0.985648, 237, 113, 268, 176
-0.985658, 161, 145, 192, 208
-0.985673, 101, 89, 132, 152
-0.985691, 33, 1, 96, 229
-0.985785, 169, 17, 200, 80
-0.985828, 389, 113, 420, 176
-0.985889, 353, 89, 480, 152
-0.985912, 409, 65, 472, 128
-0.985967, 65, 49, 96, 176
-0.985998, 185, 17, 216, 80
-0.986005, 237, 169, 268, 229
-0.986027, 205, 113, 236, 176
-0.986049, 313, 113, 344, 176
-0.986214, 253, 33, 284, 96
-0.986242, 413, 161, 444, 224
-0.986276, 205, 137, 236, 200
-0.986355, 433, 129, 464, 192
-0.98639, 93, 17, 124, 80
-0.986717, 349, 121, 380, 184
-0.98674, 225, 137, 256, 200
-0.986798, 85, 169, 116, 229
-0.986819, 321, 169, 352, 229
-0.986915, 97, 81, 352, 144
-0.987028, 277, 113, 308, 176
-0.987032, 57, 65, 88, 128
-0.987088, 345, 1, 376, 128
-0.987212, 189, 169, 220, 229
-0.987291, 161, 105, 192, 168
-0.987407, 181, 49, 212, 112
-0.987426, 393, 153, 424, 216
-0.987487, 437, 169, 468, 229
-0.98771, 205, 65, 236, 192
-0.987729, 433, 73, 496, 136
-0.987763, 113, 65, 144, 128
-0.987816, 65, 113, 192, 176
-0.987824, 353, 25, 384, 88
-0.987834, 357, 57, 388, 120
-0.987893, 1, 169, 128, 229
-0.987899, 353, 65, 480, 128
-0.987932, 365, 25, 396, 88
-0.987936, 221, 113, 252, 176
-0.987963, 97, 113, 352, 176
-0.98798, 65, 113, 128, 176
-0.988031, 193, 97, 448, 160
-0.988056, 469, 17, 500, 80
-0.988071, 113, 89, 176, 120
-0.98808, 373, 169, 404, 229
-0.988146, 289, 73, 352, 104
-0.988151, 109, 113, 140, 176
-0.988151, 9, 145, 40, 208
-0.988165, 273, 117, 336, 148
-0.988228, 145, 145, 176, 208
-0.988244, 297, 25, 328, 88
-0.988262, 257, 81, 320, 112
-0.988308, 405, 97, 436, 224
-0.988362, 13, 97, 44, 160
-0.98849, 297, 101, 360, 132
-0.988493, 21, 9, 52, 72
-0.988506, 237, 81, 268, 144
-0.988542, 17, 1, 48, 128
-0.988616, 49, 1, 176, 64
-0.988623, 449, 81, 480, 208
-0.988653, 57, 1, 88, 128
-0.988719, 401, 121, 432, 184
-0.988771, 369, 49, 400, 112
-0.988779, 129, 169, 160, 229
-0.988862, 289, 89, 352, 120
-0.988884, 441, 33, 472, 96
-0.988892, 113, 1, 176, 64
-0.988932, 273, 153, 336, 184
-0.988947, 437, 97, 468, 224
-0.989005, 289, 57, 352, 88
-0.989038, 169, 85, 232, 116
-0.989058, 373, 97, 404, 224
-0.989069, 137, 73, 200, 104
-0.989146, 389, 97, 420, 224
-0.989151, 265, 93, 328, 124
-0.989173, 73, 25, 104, 88
-0.989181, 281, 137, 344, 168
-0.98927, 105, 169, 136, 229
-0.989275, 49, 145, 112, 208
-0.989296, 469, 65, 500, 192
-0.989353, 137, 89, 200, 120
-0.989384, 129, 109, 192, 140
-0.989386, 421, 33, 452, 160
-0.989401, 225, 109, 288, 140
-0.989418, 305, 141, 368, 172
-0.989426, 185, 109, 248, 140
-0.989576, 305, 113, 368, 144
-0.989629, 145, 61, 208, 92
-0.989664, 73, 193, 136, 224
-0.989697, 329, 117, 392, 148
-0.989723, 89, 17, 120, 144
-0.989727, 161, 117, 224, 148
-0.989734, 209, 81, 272, 112
-0.989749, 241, 69, 304, 100
-0.98975, 265, 105, 328, 136
-0.98975, 329, 53, 392, 84
-0.989806, 193, 1, 448, 64
-0.98982, 225, 1, 256, 128
-0.989829, 97, 25, 352, 88
-0.989886, 77, 33, 108, 160
-0.989936, 249, 153, 312, 184
-0.989937, 169, 69, 232, 100
-0.989949, 369, 1, 432, 229
-0.989995, 249, 57, 312, 88
-0.990027, 121, 169, 184, 200
-0.990086, 105, 77, 168, 108
-0.990116, 281, 45, 344, 76
-0.990137, 225, 121, 288, 152
-0.99017, 365, 49, 396, 176
-0.990179, 265, 69, 328, 100
-0.990185, 385, 49, 416, 176
-0.990194, 297, 153, 360, 184
-0.990253, 385, 65, 448, 128
-0.990254, 313, 77, 376, 108
-0.990289, 401, 41, 464, 72
-0.990324, 401, 89, 464, 152
-0.990328, 161, 161, 224, 192
-0.990346, 161, 97, 224, 128
-0.990368, 185, 121, 248, 152
-0.990395, 201, 69, 264, 100
-0.990398, 105, 101, 168, 132
-0.990432, 329, 129, 392, 160
-0.990503, 49, 97, 80, 224
-0.990513, 153, 173, 216, 204
-0.990519, 225, 97, 288, 128
-0.990539, 241, 165, 304, 196
-0.990548, 81, 181, 144, 212
-0.99057, 97, 137, 352, 200
-0.990594, 153, 21, 216, 52
-0.990599, 297, 169, 360, 200
-0.990605, 177, 141, 240, 172
-0.990627, 1, 97, 256, 160
-0.990689, 225, 129, 480, 192
-0.990691, 377, 173, 440, 204
-0.990722, 113, 125, 176, 156
-0.990745, 105, 113, 168, 144
-0.990755, 257, 49, 500, 112
-0.990799, 313, 89, 376, 120
-0.990815, 249, 141, 312, 172
-0.990836, 329, 5, 392, 36
-0.990843, 329, 101, 392, 132
-0.990851, 249, 117, 312, 148
-0.990878, 201, 97, 264, 128
-0.9909, 105, 181, 168, 212
-0.990911, 121, 61, 184, 92
-0.99092, 153, 129, 216, 160
-0.990921, 361, 49, 424, 80
-0.990931, 233, 81, 296, 112
-0.990936, 321, 41, 384, 72
-0.990939, 89, 89, 152, 120
-0.990946, 305, 129, 368, 160
-0.990957, 113, 141, 176, 172
-0.99097, 153, 141, 216, 172
-0.991003, 93, 97, 124, 224
-0.991007, 385, 29, 448, 60
-0.99101, 265, 1, 328, 32
-0.991033, 257, 129, 320, 160
-0.991069, 329, 65, 392, 96
-0.991072, 89, 157, 152, 188
-0.991085, 17, 121, 80, 152
-0.991091, 321, 161, 384, 192
-0.991095, 201, 153, 264, 184
-0.991095, 409, 185, 472, 216
-0.991119, 353, 133, 416, 164
-0.991144, 265, 169, 328, 200
-0.991153, 121, 197, 184, 228
-0.991198, 385, 193, 448, 224
-0.991236, 81, 101, 144, 132
-0.991246, 337, 29, 400, 60
-0.991261, 385, 125, 448, 156
-0.991287, 297, 1, 360, 32
-0.991327, 409, 145, 472, 176
-0.991337, 97, 1, 352, 64
-0.99135, 145, 49, 208, 80
-0.991363, 353, 145, 416, 176
-0.991369, 169, 57, 232, 88
-0.991376, 17, 109, 80, 140
-0.991377, 273, 25, 336, 56
-0.991377, 209, 5, 272, 36
-0.991377, 33, 81, 96, 112
-0.991379, 233, 37, 296, 68
-0.991384, 229, 97, 260, 224
-0.991402, 49, 69, 112, 100
-0.991412, 201, 173, 264, 204
-0.991416, 329, 145, 392, 176
-0.991427, 425, 41, 488, 72
-0.991437, 33, 45, 96, 76
-0.991441, 377, 161, 440, 192
-0.991448, 337, 181, 400, 212
-0.991493, 353, 161, 416, 192
-0.991512, 241, 89, 368, 120
-0.991515, 337, 193, 400, 224
-0.991529, 369, 113, 432, 144
-0.991544, 241, 5, 304, 36
-0.991547, 241, 17, 272, 144
-0.991547, 17, 13, 80, 44
-0.991554, 81, 145, 144, 176
-0.991557, 185, 13, 248, 44
-0.991557, 409, 5, 472, 36
-0.991572, 433, 133, 496, 164
-0.991572, 57, 29, 120, 60
-0.991586, 185, 41, 248, 72
-0.991589, 121, 29, 184, 60
-0.991616, 417, 121, 480, 152
-0.991647, 433, 21, 496, 52
-0.991647, 129, 57, 384, 120
-0.991656, 9, 77, 72, 108
-0.991687, 41, 93, 104, 124
-0.991705, 297, 21, 360, 52
-0.991745, 409, 173, 472, 204
-0.991765, 81, 25, 144, 56
-0.991776, 81, 121, 144, 152
-0.991788, 9, 93, 72, 124
-0.991809, 113, 113, 240, 144
-0.991823, 193, 193, 256, 224
-0.991832, 65, 81, 128, 112
-0.991895, 177, 173, 240, 204
-0.991896, 97, 85, 224, 116
-0.991909, 433, 57, 496, 88
-0.991918, 113, 157, 176, 188
-0.991923, 241, 25, 304, 56
-0.991925, 9, 133, 72, 164
-0.991941, 41, 121, 104, 184
-0.991975, 177, 105, 304, 136
-0.992013, 257, 73, 500, 136
-0.992071, 117, 89, 148, 120
-0.992094, 1, 121, 500, 184
-0.992109, 1, 73, 256, 136
-0.99212, 1, 169, 500, 229
-0.99213, 133, 81, 164, 112
-0.992196, 289, 69, 320, 100
-0.992199, 165, 61, 196, 92
-0.992206, 301, 69, 332, 100
-0.992246, 421, 97, 452, 224
-0.992254, 97, 169, 352, 229
-0.992271, 153, 73, 184, 104
-0.992287, 145, 85, 176, 116
-0.99232, 321, 121, 352, 152
-0.992327, 317, 85, 348, 116
-0.992392, 301, 101, 332, 132
-0.992405, 333, 109, 364, 140
-0.992407, 133, 93, 164, 124
-0.992415, 193, 109, 224, 140
-0.992422, 149, 61, 180, 92
-0.992422, 313, 137, 344, 168
-0.99243, 157, 97, 188, 128
-0.992481, 313, 57, 344, 88
-0.992498, 313, 73, 344, 104
-0.992503, 301, 57, 332, 88
-0.992505, 317, 149, 348, 180
-0.992509, 45, 81, 76, 112
-0.992511, 177, 61, 208, 92
-0.992512, 5, 1, 36, 128
-0.992513, 317, 101, 348, 132
-0.992526, 281, 57, 312, 88
-0.992532, 333, 77, 364, 108
-0.99254, 125, 105, 156, 136
-0.992546, 369, 1, 400, 128
-0.992549, 105, 89, 136, 120
-0.99255, 273, 117, 304, 148
-0.992555, 333, 97, 364, 128
-0.99257, 205, 109, 236, 140
-0.992596, 273, 81, 304, 112
-0.992602, 293, 149, 324, 180
-0.99261, 305, 157, 336, 188
-0.992617, 329, 133, 360, 164
-0.992621, 165, 73, 196, 104
-0.992629, 261, 113, 292, 144
-0.992629, 9, 133, 40, 164
-0.992634, 325, 45, 356, 76
-0.992645, 49, 101, 80, 132
-0.992646, 265, 129, 296, 160
-0.99265, 273, 149, 304, 180
-0.992654, 333, 121, 364, 152
-0.992658, 297, 81, 328, 112
-0.992671, 297, 113, 328, 144
-0.992673, 209, 77, 240, 108
-0.992674, 137, 109, 168, 140
-0.992675, 257, 161, 500, 224
-0.992676, 345, 109, 376, 140
-0.992677, 285, 113, 316, 144
-0.992678, 169, 117, 200, 148
-0.992681, 177, 81, 304, 112
-0.992688, 309, 117, 340, 148
-0.992689, 249, 77, 280, 108
-0.992698, 277, 69, 308, 100
-0.9927, 337, 49, 368, 80
-0.992711, 193, 141, 224, 172
-0.992726, 229, 69, 260, 100
-0.992726, 85, 185, 116, 216
-0.99273, 101, 149, 132, 180
-0.992733, 109, 101, 140, 132
-0.992748, 189, 81, 220, 112
-0.992761, 121, 161, 152, 192
-0.992762, 177, 81, 208, 112
-0.992767, 313, 45, 344, 76
-0.992769, 333, 1, 364, 32
-0.992771, 129, 69, 160, 100
-0.992771, 289, 1, 320, 32
-0.992792, 337, 145, 368, 176
-0.9928, 253, 65, 284, 96
-0.992806, 189, 129, 220, 160
-0.992807, 197, 69, 228, 100
-0.992814, 325, 57, 356, 88
-0.992815, 1, 173, 32, 204
-0.992822, 121, 117, 152, 148
-0.992825, 105, 197, 136, 228
-0.992835, 209, 97, 240, 128
-0.992836, 257, 25, 500, 88
-0.992836, 181, 117, 212, 148
-0.992848, 329, 165, 360, 196
-0.992854, 173, 173, 204, 204
-0.992858, 133, 169, 164, 200
-0.99286, 221, 121, 252, 152
-0.99286, 401, 49, 432, 176
-0.992862, 269, 57, 300, 88
-0.992863, 253, 101, 284, 132
-0.992871, 205, 173, 236, 204
-0.992873, 301, 129, 332, 160
-0.992874, 253, 161, 284, 192
-0.992878, 117, 77, 148, 108
-0.992881, 309, 169, 340, 200
-0.992881, 349, 165, 380, 196
-0.99289, 285, 81, 316, 112
-0.992892, 37, 109, 68, 140
-0.992896, 449, 121, 480, 152
-0.9929, 361, 97, 392, 224
-0.9929, 33, 89, 64, 120
-0.992904, 237, 81, 268, 112
-0.992909, 289, 169, 320, 200
-0.992911, 145, 97, 176, 128
-0.992914, 425, 181, 456, 212
-0.992914, 277, 165, 308, 196
-0.992916, 177, 129, 208, 160
-0.992919, 205, 129, 236, 160
-0.992923, 121, 133, 152, 164
-0.992925, 413, 197, 444, 228
-0.992927, 1, 145, 500, 208
-0.99293, 221, 81, 252, 112
-0.992933, 197, 153, 228, 184
-0.992935, 261, 145, 292, 176
-0.992939, 365, 165, 396, 196
-0.992942, 425, 41, 456, 72
-0.992945, 305, 81, 320, 144
-0.992947, 157, 173, 188, 204
-0.99295, 13, 157, 44, 188
-0.992951, 241, 121, 272, 152
-0.992953, 1, 121, 32, 152
-0.992954, 345, 5, 376, 36
-0.992965, 361, 53, 392, 84
-0.992965, 157, 109, 188, 140
-0.992966, 105, 173, 136, 204
-0.992973, 373, 49, 404, 80
-0.992975, 181, 141, 212, 172
-0.992976, 373, 137, 404, 168
-0.992976, 281, 133, 312, 164
-0.992977, 145, 173, 176, 204
-0.992983, 349, 121, 380, 152
-0.992984, 157, 85, 188, 116
-0.992984, 185, 161, 216, 192
-0.992984, 1, 137, 256, 200
-0.992992, 361, 149, 392, 180
-0.992994, 21, 121, 52, 152
-0.993002, 273, 101, 304, 132
-0.993013, 165, 49, 196, 80
-0.993016, 53, 69, 84, 100
-0.993021, 389, 45, 420, 76
-0.993023, 369, 177, 400, 208
-0.993024, 413, 181, 444, 212
-0.993026, 177, 105, 208, 136
-0.993042, 1, 81, 500, 144
-0.993091, 241, 77, 368, 108
-0.993191, 1, 17, 256, 80
-0.993206, 257, 117, 384, 148
-0.993282, 241, 101, 368, 132
-0.993298, 153, 73, 168, 136
-0.993499, 161, 93, 288, 124
-0.993529, 1, 41, 500, 104
-0.993591, 113, 69, 240, 100
-0.993615, 147, 73, 162, 136
-0.993691, 313, 89, 328, 152
-0.993754, 177, 69, 304, 100
-0.993808, 1, 1, 500, 64
-0.993883, 49, 93, 176, 124
-0.993933, 113, 97, 240, 128
-0.993943, 1, 49, 256, 112
-0.993964, 97, 137, 224, 168
-0.994016, 297, 73, 312, 136
-0.994017, 141, 73, 156, 136
-0.994017, 179, 81, 194, 144
-0.994067, 161, 73, 176, 136
-0.994083, 339, 89, 354, 152
-0.994086, 49, 113, 176, 144
-0.994097, 311, 65, 326, 128
-0.994155, 225, 65, 352, 96
-0.994163, 291, 49, 306, 112
-0.994166, 1, 49, 32, 176
-0.994231, 193, 117, 320, 148
-0.994378, 273, 161, 400, 192
-0.994419, 289, 137, 416, 168
-0.994431, 329, 65, 344, 128
-0.994472, 193, 121, 208, 184
-0.994481, 113, 125, 240, 156
-0.994541, 123, 81, 138, 144
-0.994554, 273, 53, 400, 84
-0.994667, 275, 1, 290, 64
-0.994716, 205, 81, 220, 144
-0.99474, 209, 165, 336, 196
-0.994748, 319, 65, 334, 128
-0.99477, 283, 129, 298, 192
-0.994791, 273, 81, 288, 144
-0.994816, 299, 49, 314, 112
-0.994832, 229, 1, 244, 64
-0.994836, 193, 5, 320, 36
-0.994874, 1, 161, 256, 224
-0.994906, 217, 65, 248, 192
-0.994945, 129, 81, 144, 144
-0.994953, 221, 1, 236, 64
-0.994967, 285, 1, 300, 64
-0.99497, 145, 57, 272, 88
-0.994972, 113, 149, 240, 180
-0.994985, 135, 89, 150, 152
-0.995001, 305, 117, 432, 148
-0.995016, 61, 97, 92, 224
-0.995025, 321, 161, 448, 192
-0.995033, 189, 81, 204, 144
-0.995046, 273, 149, 400, 180
-0.995055, 305, 105, 320, 168
-0.995076, 389, 1, 420, 128
-0.995086, 353, 45, 480, 76
-0.995088, 323, 137, 338, 200
-0.995107, 115, 89, 130, 152
-0.995111, 255, 1, 270, 64
-0.995126, 335, 49, 350, 112
-0.995128, 33, 77, 160, 108
-0.995172, 261, 1, 276, 64
-0.995173, 293, 113, 308, 176
-0.99518, 3, 137, 18, 200
-0.995181, 243, 1, 258, 64
-0.995185, 347, 1, 362, 64
-0.995189, 341, 1, 356, 64
-0.995196, 285, 153, 300, 216
-0.995202, 145, 97, 160, 160
-0.995204, 289, 81, 304, 144
-0.995257, 345, 49, 360, 112
-0.995266, 177, 129, 304, 160
-0.995268, 49, 73, 64, 136
-0.99527, 183, 113, 198, 176
-0.995272, 273, 65, 400, 96
-0.995279, 193, 145, 320, 176
-0.995306, 55, 81, 70, 144
-0.995307, 5, 169, 20, 229
-0.995335, 241, 137, 368, 168
-0.995336, 269, 1, 284, 64
-0.99535, 355, 1, 370, 64
-0.995355, 351, 89, 366, 152
-0.995395, 235, 1, 250, 64
-0.995395, 199, 153, 214, 216
-0.995405, 151, 97, 166, 160
-0.995413, 269, 105, 284, 168
-0.995438, 49, 197, 176, 228
-0.995456, 313, 113, 328, 176
-0.995462, 289, 105, 416, 136
-0.995463, 299, 105, 314, 168
-0.995478, 375, 161, 390, 224
-0.995486, 13, 129, 28, 192
-0.995488, 43, 81, 58, 144
-0.99549, 65, 169, 192, 200
-0.995494, 249, 1, 264, 64
-0.995515, 305, 77, 432, 108
-0.995522, 205, 113, 220, 176
-0.995532, 169, 81, 184, 144
-0.995537, 305, 49, 320, 112
-0.995542, 199, 81, 214, 144
-0.995555, 199, 105, 214, 168
-0.995557, 289, 177, 416, 208
-0.995562, 361, 1, 376, 64
-0.995567, 187, 153, 202, 216
-0.995595, 313, 1, 344, 229
-0.995596, 257, 21, 384, 52
-0.9956, 49, 65, 176, 96
-0.995609, 437, 1, 452, 64
-0.995653, 283, 41, 298, 104
-0.995661, 251, 137, 266, 200
-0.995713, 353, 1, 480, 32
-0.995717, 157, 1, 188, 229
-0.995717, 161, 17, 288, 48
-0.995733, 161, 169, 176, 229
-0.995744, 353, 117, 480, 148
-0.99575, 133, 1, 164, 229
-0.995758, 329, 145, 344, 208
-0.99576, 447, 1, 462, 64
-0.995764, 215, 1, 230, 64
-0.995774, 345, 81, 360, 144
-0.995775, 291, 1, 306, 64
-0.995795, 293, 145, 308, 208
-0.995806, 277, 113, 292, 176
-0.995808, 271, 57, 286, 120
-0.995825, 369, 197, 496, 228
-0.995839, 1, 121, 128, 152
-0.995839, 337, 33, 464, 64
-0.995839, 193, 145, 208, 208
-0.995844, 123, 161, 138, 224
-0.995857, 123, 105, 138, 168
-0.995865, 213, 81, 228, 144
-0.99587, 313, 161, 328, 224
-0.995874, 199, 17, 214, 80
-0.995875, 241, 1, 368, 32
-0.995879, 7, 113, 22, 176
-0.995883, 369, 177, 496, 208
-0.995884, 65, 53, 192, 84
-0.995885, 205, 9, 220, 72
-0.995909, 113, 25, 240, 56
-0.995923, 21, 121, 36, 184
-0.995925, 179, 57, 194, 120
-0.995928, 241, 137, 256, 200
-0.995935, 263, 73, 278, 136
-0.995948, 175, 105, 190, 168
-0.995962, 277, 145, 292, 208
-0.995968, 145, 1, 176, 229
-0.995969, 335, 137, 350, 200
-0.995973, 333, 89, 348, 152
-0.995973, 113, 161, 240, 192
-0.995976, 337, 113, 352, 176
-0.995978, 13, 161, 28, 224
-0.995982, 367, 1, 382, 64
-0.995984, 209, 169, 224, 229
-0.995996, 339, 25, 354, 88
-0.995999, 337, 149, 464, 180
-0.996024, 151, 169, 166, 229
-0.996034, 347, 25, 362, 88
-0.996035, 49, 157, 176, 188
-0.996037, 375, 1, 390, 64
-0.996041, 167, 169, 182, 229
-0.996052, 185, 1, 216, 229
-0.996056, 295, 169, 310, 229
-0.996057, 329, 41, 344, 104
-0.996057, 113, 173, 240, 204
-0.996061, 321, 93, 448, 124
-0.996097, 375, 113, 390, 176
-0.99611, 369, 153, 384, 216
-0.996122, 119, 137, 134, 200
-0.996127, 65, 185, 192, 216
-0.996129, 205, 137, 220, 200
-0.996138, 293, 1, 324, 229
-0.996144, 321, 41, 336, 104
-0.996158, 303, 145, 318, 208
-0.996161, 161, 49, 176, 112
-0.996179, 283, 81, 298, 144
-0.9962, 321, 57, 448, 88
-0.996215, 17, 145, 144, 176
-0.996216, 319, 89, 334, 152
-0.996227, 261, 145, 276, 208
-0.996228, 333, 17, 348, 80
-0.996232, 355, 25, 370, 88
-0.996235, 407, 153, 422, 216
-0.996247, 379, 137, 394, 200
-0.996257, 277, 1, 308, 229
-0.996284, 65, 41, 192, 72
-0.996289, 187, 17, 202, 80
-0.9963, 267, 145, 282, 208
-0.996319, 1, 13, 128, 44
-0.996323, 177, 145, 192, 208
-0.99633, 225, 49, 352, 80
-0.996334, 315, 137, 330, 200
-0.996335, 343, 113, 358, 176
-0.996336, 155, 49, 170, 112
-0.996343, 261, 121, 276, 184
-0.996357, 1, 29, 128, 60
-0.996365, 355, 49, 370, 112
-0.996374, 185, 49, 200, 112
-0.996374, 313, 41, 328, 104
-0.996379, 421, 41, 436, 104
-0.996391, 289, 25, 304, 88
-0.996487, 289, 1, 416, 32
-0.996523, 369, 129, 496, 160
-0.996542, 409, 1, 440, 128
-0.996565, 97, 197, 224, 228
-0.996573, 161, 45, 288, 76
-0.996605, 249, 1, 280, 229
-0.99661, 81, 97, 112, 224
-0.996626, 457, 1, 488, 229
-0.996646, 161, 157, 288, 188
-0.996678, 225, 33, 352, 64
-0.996725, 337, 105, 464, 136
-0.996729, 305, 189, 432, 220
-0.996769, 197, 1, 228, 229
-0.996782, 65, 29, 192, 60
-0.996794, 337, 1, 368, 229
-0.996818, 313, 73, 328, 104
-0.996824, 309, 97, 324, 128
-0.996897, 173, 1, 204, 229
-0.996897, 305, 69, 320, 100
-0.996914, 283, 149, 298, 180
-0.996929, 369, 57, 496, 88
-0.996948, 1, 169, 128, 200
-0.997, 273, 41, 400, 72
-0.997001, 309, 85, 324, 116
-0.997009, 271, 113, 286, 144
-0.997047, 165, 61, 180, 92
-0.997055, 147, 81, 162, 112
-0.997062, 33, 133, 160, 164
-0.997088, 297, 57, 312, 88
-0.997094, 17, 41, 144, 72
-0.997096, 1, 193, 128, 224
-0.997123, 121, 1, 152, 229
-0.997124, 161, 173, 288, 204
-0.997152, 311, 109, 326, 140
-0.997153, 325, 1, 356, 229
-0.997172, 49, 77, 64, 108
-0.997184, 101, 1, 132, 229
-0.997187, 195, 141, 210, 172
-0.997199, 113, 185, 240, 216
-0.997203, 131, 81, 146, 112
-0.997212, 33, 1, 64, 229
-0.997224, 121, 85, 136, 116
-0.997232, 369, 13, 496, 44
-0.997271, 157, 69, 172, 100
-0.997281, 153, 81, 168, 112
-0.997281, 217, 1, 248, 229
-0.997287, 277, 117, 292, 148
-0.997292, 329, 129, 344, 160
-0.997303, 337, 113, 352, 144
-0.997304, 277, 129, 292, 160
-0.997305, 177, 33, 304, 64
-0.997305, 299, 73, 314, 104
-0.997309, 177, 61, 192, 92
-0.997344, 315, 89, 330, 120
-0.997364, 369, 161, 496, 192
-0.997373, 163, 81, 178, 112
-0.99738, 303, 93, 318, 124
-0.997381, 193, 153, 208, 184
-0.997385, 335, 73, 350, 104
-0.997389, 123, 97, 138, 128
-0.997396, 205, 109, 220, 140
-0.997404, 137, 81, 152, 112
-0.997406, 319, 73, 334, 104
-0.99741, 305, 113, 320, 144
-0.997446, 181, 117, 196, 148
-0.997458, 177, 197, 304, 228
-0.997461, 145, 93, 160, 124
-0.997466, 53, 101, 68, 132
-0.997468, 209, 177, 336, 208
-0.997469, 325, 145, 340, 176
-0.997486, 127, 113, 142, 144
-0.997488, 171, 61, 186, 92
-0.997495, 129, 93, 144, 124
-0.997505, 199, 117, 214, 148
-0.997505, 233, 1, 264, 229
-0.997511, 353, 1, 384, 229
-0.99752, 319, 61, 334, 92
-0.997525, 343, 109, 358, 140
-0.997528, 1, 97, 128, 128
-0.997532, 469, 1, 500, 229
-0.997541, 321, 21, 448, 52
-0.997554, 329, 73, 344, 104
-0.997555, 139, 101, 154, 132
-0.99756, 183, 61, 198, 92
-0.997569, 353, 69, 480, 100
-0.997572, 65, 13, 192, 44
-0.997573, 307, 57, 322, 88
-0.997579, 171, 73, 186, 104
-0.99758, 47, 105, 62, 136
-0.997594, 133, 113, 148, 144
-0.997599, 339, 89, 354, 120
-0.997626, 291, 61, 306, 92
-0.997628, 333, 149, 348, 180
-0.997638, 351, 89, 366, 120
-0.997653, 153, 93, 168, 124
-0.997657, 265, 109, 280, 140
-0.997659, 327, 45, 342, 76
-0.997667, 275, 81, 290, 112
-0.997674, 175, 113, 190, 144
-0.997678, 287, 137, 302, 168
-0.997681, 265, 1, 296, 229
-0.997688, 335, 101, 350, 132
-0.9977, 437, 1, 468, 229
-0.997701, 1, 109, 128, 140
-0.997713, 125, 161, 140, 192
-0.997715, 113, 145, 128, 176
-0.997725, 49, 89, 64, 120
-0.997734, 211, 109, 226, 140
-0.997742, 289, 153, 304, 184
-0.997758, 165, 173, 180, 204
-0.997764, 281, 49, 296, 80
-0.997769, 17, 157, 32, 188
-0.997769, 329, 61, 344, 92
-0.997774, 299, 113, 314, 144
-0.997779, 193, 129, 208, 160
-0.997781, 115, 89, 130, 120
-0.997782, 13, 133, 28, 164
-0.997786, 319, 137, 334, 168
-0.997787, 119, 137, 134, 168
-0.997793, 349, 49, 364, 80
-0.997803, 277, 145, 292, 176
-0.99781, 199, 153, 214, 184
-0.997815, 241, 69, 256, 100
-0.997818, 315, 149, 330, 180
-0.997821, 349, 109, 364, 140
-0.997828, 43, 89, 58, 120
-0.997832, 273, 65, 288, 96
-0.997832, 325, 117, 340, 148
-0.997845, 1, 65, 128, 96
-0.997846, 213, 77, 228, 108
-0.997852, 55, 113, 70, 144
-0.997865, 229, 49, 260, 176
-0.997867, 295, 1, 310, 32
-0.99787, 185, 81, 200, 112
-0.997873, 145, 69, 160, 100
-0.99788, 327, 89, 342, 120
-0.99788, 1, 129, 16, 160
-0.997894, 221, 69, 236, 100
-0.997896, 321, 89, 336, 120
-0.997898, 317, 117, 332, 148
-0.997903, 201, 141, 216, 172
-0.997905, 325, 165, 340, 196
-0.997906, 345, 81, 360, 112
-0.997914, 11, 165, 26, 196
-0.997914, 337, 41, 352, 72
-0.997919, 231, 69, 246, 100
-0.997919, 157, 173, 172, 204
-0.99792, 207, 129, 222, 160
-0.997921, 17, 181, 144, 212
-0.997935, 187, 129, 202, 160
-0.997938, 207, 69, 222, 100
-0.997942, 17, 53, 144, 84
-0.99795, 1, 1, 128, 32
-0.997952, 285, 69, 300, 100
-0.997952, 139, 69, 154, 100
-0.997952, 313, 161, 328, 192
-0.997955, 343, 45, 358, 76
-0.997955, 419, 177, 434, 208
-0.997959, 231, 121, 246, 152
-0.997961, 283, 161, 298, 192
-0.997961, 171, 169, 186, 200
-0.997964, 153, 109, 168, 140
-0.997966, 209, 21, 336, 52
-0.997967, 257, 197, 384, 228
-0.997967, 19, 125, 34, 156
-0.997971, 341, 137, 356, 168
-0.997972, 59, 73, 74, 104
-0.997989, 301, 1, 316, 32
-0.997996, 119, 157, 134, 188
-0.998, 205, 81, 220, 112
-0.998003, 197, 165, 212, 196
-0.998006, 1, 169, 16, 200
-0.998008, 263, 77, 278, 108
-0.998009, 355, 109, 370, 140
-0.998012, 109, 89, 124, 120
-0.998013, 333, 85, 348, 116
-0.99802, 335, 1, 350, 32
-0.998022, 253, 161, 268, 192
-0.998025, 151, 69, 166, 100
-0.998025, 317, 49, 332, 80
-0.998026, 277, 157, 292, 188
-0.998075, 113, 13, 240, 44
-0.998165, 373, 1, 404, 229
-0.998168, 1, 157, 128, 188
-0.99818, 161, 185, 288, 216
-0.998202, 21, 1, 52, 229
-0.998376, 297, 113, 360, 128
-0.998389, 105, 91, 168, 106
-0.998397, 257, 89, 320, 104
-0.9984, 289, 75, 352, 90
-0.998402, 257, 83, 320, 98
-0.998404, 265, 119, 328, 134
-0.998413, 129, 81, 192, 96
-0.998418, 297, 89, 360, 104
-0.998418, 289, 119, 352, 134
-0.998429, 297, 83, 360, 98
-0.998433, 17, 129, 48, 144
-0.998433, 389, 59, 420, 74
-0.998433, 357, 119, 388, 134
-0.998433, 337, 161, 368, 176
-0.998435, 321, 167, 352, 182
-0.998436, 149, 81, 180, 96
-0.998437, 425, 181, 456, 196
-0.998437, 365, 159, 396, 174
-0.998437, 293, 159, 324, 174
-0.998437, 309, 175, 340, 190
-0.998437, 97, 133, 128, 148
-0.998438, 201, 123, 232, 138
-0.998438, 145, 173, 176, 188
-0.998438, 185, 209, 216, 224
-0.998438, 269, 81, 300, 96
-0.998438, 177, 65, 208, 80
-0.998439, 29, 91, 60, 106
-0.998439, 325, 147, 356, 162
-0.998439, 29, 119, 60, 134
-0.998439, 297, 107, 360, 122
-0.99844, 417, 211, 448, 226
-0.998442, 257, 123, 288, 138
-0.998442, 281, 151, 344, 166
-0.998443, 45, 99, 76, 114
-0.998443, 261, 35, 292, 50
-0.998445, 141, 73, 172, 88
-0.998446, 117, 107, 148, 122
-0.998447, 105, 157, 136, 172
-0.998447, 321, 127, 384, 142
-0.998447, 257, 103, 320, 118
-0.998447, 229, 173, 260, 188
-0.998448, 333, 129, 364, 144
-0.998448, 189, 81, 220, 96
-0.998448, 265, 157, 328, 172
-0.998448, 201, 89, 264, 104
-0.998451, 257, 97, 320, 112
-0.998451, 265, 113, 328, 128
-0.998452, 205, 109, 236, 124
-0.998452, 305, 107, 336, 122
-0.998452, 273, 55, 336, 70
-0.998453, 317, 101, 348, 116
-0.998454, 213, 123, 244, 138
-0.998454, 273, 161, 304, 176
-0.998456, 49, 105, 80, 120
-0.998456, 225, 87, 288, 102
-0.998457, 161, 113, 192, 128
-0.998458, 141, 67, 172, 82
-0.998461, 233, 69, 264, 84
-0.998461, 297, 95, 328, 110
-0.998462, 5, 141, 36, 156
-0.998463, 249, 33, 280, 48
-0.998463, 253, 165, 284, 180
-0.998464, 169, 117, 232, 132
-0.998464, 161, 71, 224, 86
-0.998467, 273, 63, 336, 78
-0.998467, 137, 113, 200, 128
-0.998468, 177, 113, 208, 128
-0.998468, 253, 65, 284, 80
-0.998469, 121, 127, 152, 142
-0.99847, 333, 107, 364, 122
-0.99847, 189, 123, 220, 138
-0.99847, 317, 109, 348, 124
-0.99847, 305, 55, 336, 70
-0.998471, 137, 65, 200, 80
-0.998472, 169, 83, 232, 98
-0.998472, 137, 107, 168, 122
-0.998473, 137, 93, 200, 108
-0.998473, 329, 51, 360, 66
-0.998475, 329, 141, 360, 156
-0.998475, 257, 113, 288, 128
-0.998476, 137, 73, 200, 88
-0.998477, 45, 81, 76, 96
-0.998478, 113, 1, 240, 32
-0.998479, 285, 115, 316, 130
-0.998481, 249, 99, 280, 114
-0.998482, 273, 69, 304, 84
-0.998483, 141, 87, 172, 102
-0.998483, 421, 47, 452, 62
-0.998483, 297, 97, 360, 112
-0.998483, 273, 149, 304, 164
-0.998484, 89, 1, 120, 229
-0.998485, 257, 69, 320, 84
-0.998485, 289, 69, 352, 84
-0.998486, 221, 77, 252, 92
-0.998486, 193, 153, 224, 168
-0.998486, 201, 83, 264, 98
-0.998486, 225, 123, 256, 138
-0.998486, 169, 91, 232, 106
-0.998486, 301, 167, 332, 182
-0.998488, 241, 169, 304, 184
-0.998488, 125, 115, 156, 130
-0.998488, 105, 101, 168, 116
-0.998489, 105, 99, 136, 114
-0.998489, 333, 115, 364, 130
-0.99849, 285, 61, 316, 76
-0.998491, 145, 99, 176, 114
-0.998491, 293, 77, 324, 92
-0.998492, 321, 115, 384, 130
-0.998493, 157, 105, 188, 120
-0.998495, 345, 115, 376, 130
-0.998496, 157, 95, 188, 110
-0.998497, 73, 195, 136, 210
-0.998498, 137, 107, 200, 122
-0.998498, 137, 119, 200, 134
-0.9985, 317, 129, 348, 144
-0.9985, 285, 71, 316, 86
-0.9985, 253, 81, 284, 96
-0.998501, 165, 65, 196, 80
-0.998502, 193, 115, 256, 130
-0.998502, 425, 39, 456, 54
-0.998502, 201, 123, 264, 138
-0.998503, 329, 77, 360, 92
-0.998504, 249, 63, 312, 78
-0.998504, 337, 123, 368, 138
-0.998505, 113, 87, 144, 102
-0.998505, 313, 63, 376, 78
-0.998506, 313, 143, 376, 158
-0.998507, 125, 211, 156, 226
-0.998508, 313, 121, 376, 136
-0.998511, 85, 189, 116, 204
-0.998511, 237, 85, 268, 100
-0.998511, 285, 121, 316, 136
-0.998511, 277, 55, 308, 70
-0.998511, 313, 157, 344, 172
-0.998511, 213, 89, 244, 104
-0.998512, 169, 107, 232, 122
-0.998513, 305, 127, 336, 142
-0.998513, 337, 121, 400, 136
-0.998514, 289, 141, 352, 156
-0.998515, 113, 131, 176, 146
-0.998517, 317, 61, 348, 76
-0.998518, 113, 113, 176, 128
-0.998518, 289, 125, 352, 140
-0.998518, 313, 49, 376, 64
-0.998519, 333, 97, 364, 112
-0.998519, 121, 213, 184, 228
-0.998519, 201, 115, 232, 130
-0.998521, 177, 143, 240, 158
-0.998523, 177, 119, 208, 134
-0.998523, 105, 85, 168, 100
-0.998524, 137, 81, 168, 96
-0.998525, 233, 115, 296, 130
-0.998525, 273, 61, 304, 76
-0.998525, 225, 79, 288, 94
-0.998526, 81, 189, 144, 204
-0.998527, 317, 115, 348, 130
-0.998529, 269, 119, 300, 134
-0.998529, 305, 89, 336, 104
-0.998529, 321, 135, 352, 150
-0.99853, 305, 151, 368, 166
-0.99853, 305, 157, 368, 172
-0.99853, 161, 213, 224, 228
-0.998532, 225, 123, 288, 138
-0.998533, 305, 135, 368, 150
-0.998534, 121, 171, 184, 186
-0.998534, 289, 167, 352, 182
-0.998535, 321, 45, 352, 60
-0.998535, 293, 153, 324, 168
-0.998535, 201, 99, 264, 114
-0.998537, 129, 87, 192, 102
-0.998537, 225, 105, 288, 120
-0.998538, 249, 87, 280, 102
-0.998539, 161, 77, 192, 92
-0.998539, 225, 99, 288, 114
-0.99854, 265, 77, 328, 92
-0.99854, 225, 93, 288, 108
-0.998543, 233, 69, 296, 84
-0.998544, 177, 123, 240, 138
-0.998544, 153, 71, 184, 86
-0.998544, 385, 41, 448, 56
-0.998547, 125, 101, 156, 116
-0.998549, 273, 131, 336, 146
-0.998549, 313, 67, 344, 82
-0.99855, 297, 63, 328, 78
-0.998551, 161, 65, 224, 80
-0.998551, 185, 149, 248, 164
-0.998552, 45, 93, 76, 108
-0.998552, 185, 67, 248, 82
-0.998553, 169, 77, 232, 92
-0.998554, 317, 121, 348, 136
-0.998554, 129, 99, 192, 114
-0.998554, 301, 113, 332, 128
-0.998555, 321, 91, 384, 106
-0.998556, 209, 83, 240, 98
-0.998556, 313, 57, 376, 72
-0.998557, 241, 147, 304, 162
-0.998559, 73, 201, 136, 216
-0.998562, 113, 93, 144, 108
-0.998562, 225, 83, 256, 98
-0.998565, 321, 109, 384, 124
-0.998565, 225, 29, 288, 44
-0.998566, 153, 65, 184, 80
-0.998567, 337, 53, 400, 68
-0.998567, 425, 129, 488, 144
-0.998569, 169, 97, 232, 112
-0.99857, 297, 119, 328, 134
-0.99857, 113, 123, 176, 138
-0.99857, 153, 125, 216, 140
-0.99857, 201, 173, 264, 188
-0.998571, 265, 163, 328, 178
-0.998572, 313, 65, 328, 192
-0.998572, 173, 71, 204, 86
-0.998572, 153, 151, 216, 166
-0.998572, 329, 133, 392, 148
-0.998573, 113, 71, 176, 86
-0.998574, 377, 47, 440, 62
-0.998574, 113, 145, 176, 160
-0.998574, 189, 117, 220, 132
-0.998575, 157, 87, 188, 102
-0.998575, 313, 151, 344, 166
-0.998575, 321, 85, 384, 100
-0.998575, 313, 69, 376, 84
-0.998576, 281, 79, 312, 94
-0.998578, 289, 1, 352, 16
-0.998578, 393, 179, 456, 194
-0.998579, 201, 33, 264, 48
-0.998579, 321, 77, 384, 92
-0.998579, 193, 109, 256, 124
-0.99858, 17, 17, 80, 32
-0.99858, 201, 73, 264, 88
-0.998581, 273, 49, 336, 64
-0.998582, 425, 39, 488, 54
-0.998582, 169, 207, 232, 222
-0.998584, 125, 85, 156, 100
-0.998584, 145, 173, 208, 188
-0.998585, 225, 35, 288, 50
-0.998588, 81, 107, 144, 122
-0.998589, 17, 125, 80, 140
-0.998589, 41, 95, 104, 110
-0.998589, 89, 161, 152, 176
-0.998591, 33, 83, 96, 98
-0.998592, 241, 155, 304, 170
-0.998595, 409, 191, 472, 206
-0.998596, 369, 187, 432, 202
-0.998597, 417, 123, 480, 138
-0.998597, 325, 83, 356, 98
-0.998597, 81, 93, 144, 108
-0.998598, 385, 193, 448, 208
-0.998598, 361, 123, 424, 138
-0.998599, 317, 95, 348, 110
-0.998599, 153, 157, 216, 172
-0.998599, 153, 23, 216, 38
-0.9986, 73, 141, 136, 156
-0.998601, 409, 47, 472, 62
-0.998601, 113, 107, 176, 122
-0.998601, 401, 117, 464, 132
-0.998603, 305, 81, 336, 96
-0.998611, 285, 49, 300, 176
-0.998627, 317, 77, 348, 92
-0.998634, 297, 71, 328, 86
-0.998639, 125, 95, 156, 110
-0.998641, 333, 89, 364, 104
-0.998642, 275, 81, 290, 208
-0.998647, 369, 89, 496, 120
-0.998657, 295, 97, 310, 224
-0.998658, 145, 93, 176, 108
-0.998671, 317, 89, 348, 104
-0.998692, 45, 1, 76, 229
-0.998694, 425, 1, 456, 229
-0.998755, 327, 81, 342, 208
-0.998758, 305, 97, 320, 224
-0.998758, 291, 49, 306, 176
-0.998775, 279, 33, 294, 160
-0.998781, 1, 1, 32, 229
-0.998796, 333, 1, 348, 128
-0.998819, 197, 97, 212, 224
-0.998829, 181, 97, 196, 224
-0.998849, 317, 1, 332, 128
-0.998873, 281, 97, 296, 224
-0.998873, 203, 97, 218, 224
-0.998875, 447, 1, 462, 128
-0.998888, 269, 97, 284, 224
-0.99894, 187, 65, 202, 192
-0.998942, 125, 65, 140, 192
-0.998951, 337, 97, 352, 224
-0.998955, 293, 1, 308, 128
-0.998965, 203, 1, 218, 128
-0.998968, 165, 49, 180, 176
-0.998974, 7, 97, 22, 224
-0.998982, 287, 97, 302, 224
-0.998984, 193, 49, 208, 176
-0.998987, 319, 65, 334, 192
-0.999004, 151, 65, 166, 192
-0.999007, 323, 1, 338, 128
-0.999009, 479, 1, 494, 128
-0.99901, 179, 17, 194, 144
-0.999016, 273, 17, 288, 144
-0.999032, 461, 1, 476, 128
-0.999032, 175, 97, 190, 224
-0.999048, 135, 81, 150, 208
-0.999059, 263, 65, 278, 192
-0.99906, 199, 49, 214, 176
-0.99906, 297, 49, 312, 176
-0.999061, 211, 1, 226, 128
-0.999063, 339, 1, 354, 128
-0.999068, 191, 1, 206, 128
-0.999069, 287, 1, 302, 128
-0.999071, 173, 33, 188, 160
-0.999071, 115, 97, 130, 224
-0.999075, 307, 1, 322, 128
-0.999076, 159, 81, 174, 208
-0.999082, 453, 1, 468, 128
-0.999083, 43, 1, 58, 128
-0.999083, 385, 1, 416, 229
-0.999088, 141, 17, 156, 144
-0.999094, 307, 49, 322, 176
-0.999097, 141, 65, 156, 192
-0.999098, 153, 17, 168, 144
-0.999111, 159, 17, 174, 144
-0.999118, 333, 49, 348, 176
-0.99912, 359, 1, 374, 128
-0.999127, 217, 1, 232, 128
-0.99913, 299, 1, 314, 128
-0.999145, 115, 17, 130, 144
-0.999146, 367, 1, 382, 128
-0.999163, 57, 65, 72, 192
-0.999165, 467, 1, 482, 128
-0.999174, 441, 33, 456, 160
-0.99918, 265, 17, 280, 144
-0.999186, 17, 81, 32, 208
-0.999192, 197, 1, 212, 128
-0.999194, 473, 1, 488, 128
-0.999194, 37, 1, 52, 128
-0.999198, 147, 17, 162, 144
-0.999212, 225, 1, 240, 128
-0.999226, 113, 37, 240, 68
-0.999228, 135, 17, 150, 144
-0.99923, 343, 81, 358, 208
-0.999262, 77, 1, 108, 229
-0.999269, 185, 1, 200, 128
-0.99927, 23, 1, 38, 128
-0.999277, 169, 97, 184, 224
-0.999281, 51, 65, 66, 192
-0.999289, 257, 1, 272, 128
-0.999301, 257, 65, 272, 192
-0.999313, 485, 1, 500, 128
-0.999317, 1, 97, 16, 224
-0.999318, 125, 17, 140, 144
-0.999319, 205, 49, 220, 176
-0.999336, 61, 1, 76, 128
-0.999346, 43, 49, 58, 176
-0.999347, 67, 49, 82, 176
-0.999351, 107, 1, 122, 128
-0.999353, 353, 1, 368, 128
-0.999356, 349, 49, 364, 176
-0.999357, 51, 17, 66, 144
-0.999362, 451, 81, 466, 208
-0.99937, 209, 97, 224, 224
-0.999375, 405, 1, 436, 229
-0.999378, 165, 1, 180, 128
-0.999379, 57, 1, 88, 229
-0.99938, 361, 49, 376, 176
-0.999381, 29, 1, 44, 128
-0.99939, 405, 97, 420, 224
-0.99939, 369, 97, 384, 224
-0.999392, 213, 49, 228, 176
-0.999398, 387, 97, 402, 224
-0.999401, 345, 1, 360, 128
-0.999404, 373, 1, 388, 128
-0.999404, 231, 1, 246, 128
-0.999407, 381, 49, 396, 176
-0.999408, 99, 97, 114, 224
-0.999416, 23, 49, 38, 176
-0.999418, 101, 33, 116, 160
-0.999421, 445, 97, 460, 224
-0.999426, 29, 49, 44, 176
-0.999428, 381, 97, 396, 224
-0.999432, 91, 33, 106, 160
-0.999436, 371, 49, 386, 176
-0.999442, 109, 97, 124, 224
-0.999445, 435, 1, 450, 128
-0.999446, 471, 65, 486, 192
-0.999448, 251, 1, 266, 128
-0.999456, 395, 65, 410, 192
-0.999457, 485, 65, 500, 192
-0.999459, 17, 1, 32, 128
-0.999463, 93, 97, 108, 224
-0.999465, 25, 97, 40, 224
-0.99947, 247, 65, 262, 192
-0.999478, 11, 49, 26, 176
-0.999481, 355, 97, 370, 224
-0.999487, 65, 1, 192, 32
-0.999491, 415, 49, 430, 176
-0.999492, 1, 49, 16, 176
-0.999496, 459, 97, 474, 224
-0.999499, 109, 49, 124, 176
-0.999503, 411, 97, 426, 224
-0.999505, 381, 1, 396, 128
-0.999515, 63, 97, 78, 224
-0.999522, 79, 49, 94, 176
-0.999524, 85, 33, 100, 160
-0.999529, 387, 17, 402, 144
-0.999642, 327, 127, 342, 142
-0.999642, 291, 157, 306, 172
-0.999643, 333, 95, 348, 110
-0.999645, 313, 61, 328, 76
-0.999645, 351, 87, 366, 102
-0.999645, 347, 121, 362, 136
-0.999646, 149, 73, 164, 88
-0.999646, 283, 59, 298, 74
-0.999646, 333, 73, 348, 88
-0.999646, 145, 67, 160, 82
-0.999646, 273, 67, 288, 82
-0.999647, 23, 121, 38, 136
-0.999647, 205, 83, 220, 98
-0.999647, 251, 169, 266, 184
-0.999648, 281, 73, 296, 88
-0.999648, 321, 115, 336, 130
-0.999649, 141, 105, 156, 120
-0.999649, 339, 101, 354, 116
-0.999649, 45, 99, 60, 114
-0.999649, 325, 145, 340, 160
-0.99965, 43, 89, 58, 104
-0.99965, 125, 121, 140, 136
-0.99965, 335, 159, 350, 174
-0.999651, 119, 125, 134, 140
-0.999652, 171, 75, 186, 90
-0.999652, 323, 49, 338, 64
-0.999652, 197, 125, 212, 140
-0.999653, 227, 83, 242, 98
-0.999653, 303, 107, 318, 122
-0.999653, 141, 95, 156, 110
-0.999654, 25, 145, 88, 208
-0.999655, 163, 81, 178, 96
-0.999656, 303, 85, 318, 100
-0.999656, 293, 119, 308, 134
-0.999656, 335, 127, 350, 142
-0.999657, 277, 61, 292, 76
-0.999657, 187, 149, 202, 164
-0.999657, 205, 123, 220, 138
-0.999658, 229, 121, 244, 136
-0.999658, 25, 151, 40, 166
-0.999659, 269, 123, 284, 138
-0.999659, 437, 37, 452, 52
-0.999659, 313, 127, 328, 142
-0.999661, 235, 83, 250, 98
-0.999661, 209, 213, 224, 228
-0.999662, 281, 53, 296, 68
-0.999662, 177, 115, 192, 130
-0.999662, 325, 133, 340, 148
-0.999664, 131, 89, 146, 104
-0.999665, 327, 57, 342, 72
-0.999666, 291, 69, 306, 84
-0.999667, 1, 139, 16, 154
-0.999668, 249, 85, 264, 100
-0.999668, 161, 173, 176, 188
-0.999669, 147, 81, 162, 96
-0.999669, 343, 81, 358, 96
-0.99967, 305, 119, 320, 134
-0.99967, 329, 89, 344, 104
-0.99967, 199, 159, 214, 174
-0.999671, 331, 139, 346, 154
-0.999671, 281, 121, 296, 136
-0.999673, 115, 91, 130, 106
-0.999674, 303, 91, 318, 106
-0.999674, 51, 105, 66, 120
-0.999675, 281, 141, 296, 156
-0.999675, 339, 95, 354, 110
-0.999676, 111, 99, 126, 114
-0.999677, 115, 131, 130, 146
-0.999679, 179, 65, 194, 80
-0.999682, 183, 119, 198, 134
-0.999683, 319, 67, 334, 82
-0.999683, 341, 123, 356, 138
-0.999683, 199, 153, 214, 168
-0.999685, 193, 143, 208, 158
-0.999685, 285, 159, 300, 174
-0.999686, 151, 67, 166, 82
-0.999687, 319, 73, 334, 88
-0.999687, 221, 83, 236, 98
-0.999689, 349, 115, 364, 130
-0.999689, 131, 83, 146, 98
-0.99969, 53, 117, 68, 132
-0.999691, 177, 71, 192, 86
-0.999692, 315, 149, 330, 164
-0.999692, 319, 79, 334, 94
-0.999692, 273, 37, 288, 52
-0.999692, 297, 71, 312, 86
-0.999693, 333, 121, 348, 136
-0.999694, 339, 89, 354, 104
-0.999694, 193, 119, 208, 134
-0.999695, 287, 75, 302, 90
-0.999696, 269, 115, 284, 130
-0.999696, 163, 71, 178, 86
-0.999696, 153, 83, 168, 98
-0.999697, 339, 115, 354, 130
-0.999698, 151, 91, 166, 106
-0.999698, 309, 103, 324, 118
-0.999698, 321, 125, 336, 140
-0.999701, 21, 127, 36, 142
-0.999702, 289, 55, 304, 70
-0.999702, 205, 115, 220, 130
-0.999703, 345, 87, 360, 102
-0.999706, 11, 137, 26, 152
-0.999707, 171, 69, 186, 84
-0.999707, 213, 83, 228, 98
-0.999708, 155, 73, 170, 88
-0.999711, 311, 119, 326, 134
-0.999711, 49, 79, 64, 94
-0.999712, 297, 77, 312, 92
-0.999713, 193, 157, 208, 172
-0.999714, 309, 97, 324, 112
-0.999716, 335, 79, 350, 94
-0.999719, 161, 63, 176, 78
-0.999722, 125, 85, 140, 100
-0.999722, 121, 91, 136, 106
-0.999725, 303, 79, 318, 94
-0.999728, 305, 69, 320, 84
-0.999729, 299, 115, 314, 130
-0.99973, 199, 119, 214, 134
-0.99973, 49, 93, 64, 108
-0.999735, 329, 83, 344, 98
-0.999736, 275, 119, 290, 134
-0.999747, 313, 79, 328, 94
-0.99975, 327, 77, 342, 92
-0.99975, 299, 61, 314, 76
-0.99975, 319, 85, 334, 100
-0.999751, 241, 83, 256, 98
-0.999771, 283, 151, 298, 166
-0.999772, 311, 109, 326, 124
-0.999782, 305, 113, 320, 128
-0.999813, 309, 87, 324, 102
-0.999821, 193, 151, 208, 166
