1872
-0.47857, 1, 33, 500, 288
-0.488734, 1, 1, 500, 328
-0.630504, 129, 1, 384, 328
-0.658401, 257, 1, 500, 328
-0.676489, 161, 65, 416, 320
-0.685409, 1, 1, 256, 328
-0.763104, 257, 33, 500, 288
-0.774905, 65, 65, 320, 320
-0.882026, 241, 65, 368, 320
-0.900114, 1, 129, 500, 256
-0.903431, 33, 1, 160, 328
-0.904487, 17, 65, 144, 320
-0.907491, 193, 33, 320, 288
-0.914628, 81, 1, 208, 328
-0.914722, 129, 1, 256, 328
-0.91571, 177, 1, 304, 328
-0.916169, 241, 1, 368, 328
-0.917089, 337, 1, 464, 328
-0.919657, 337, 33, 464, 288
-0.922365, 65, 65, 192, 320
-0.923471, 289, 1, 416, 328
-0.924201, 289, 65, 416, 320
-0.925198, 1, 177, 500, 304
-0.92653, 129, 65, 256, 320
-0.933856, 257, 145, 500, 272
-0.935156, 97, 145, 352, 272
-0.936219, 129, 97, 384, 224
-0.941259, 1, 81, 500, 208
-0.947353, 1, 129, 256, 256
-0.949116, 353, 161, 480, 288
-0.952662, 97, 145, 224, 272
-0.955944, 305, 145, 432, 272
-0.955955, 257, 193, 500, 320
-0.956006, 345, 145, 408, 272
-0.958147, 137, 145, 200, 272
-0.959614, 345, 145, 408, 208
-0.959834, 353, 169, 416, 232
-0.960772, 1, 113, 128, 240
-0.961189, 113, 129, 176, 256
-0.961595, 49, 129, 176, 256
-0.961625, 401, 177, 464, 304
-0.962106, 225, 81, 480, 208
-0.962878, 65, 113, 128, 240
-0.963445, 377, 153, 440, 216
-0.964205, 1, 33, 500, 160
-0.964354, 329, 169, 392, 232
-0.964366, 161, 145, 224, 272
-0.965194, 273, 161, 336, 288
-0.966146, 257, 97, 384, 224
-0.966156, 369, 145, 432, 272
-0.96678, 305, 161, 368, 224
-0.966883, 145, 145, 272, 272
-0.967043, 313, 137, 376, 200
-0.968445, 225, 161, 352, 288
-0.968484, 1, 97, 64, 224
-0.968632, 273, 129, 336, 192
-0.968803, 433, 161, 496, 288
-0.969713, 1, 177, 256, 304
-0.969824, 169, 161, 232, 224
-0.970056, 257, 33, 500, 160
-0.970156, 185, 161, 248, 288
-0.970212, 305, 113, 368, 240
-0.970287, 41, 113, 104, 240
-0.970305, 145, 97, 272, 224
-0.970653, 89, 129, 152, 256
-0.970983, 209, 81, 336, 208
-0.970991, 273, 81, 336, 208
-0.971171, 305, 177, 368, 304
-0.971478, 33, 33, 288, 160
-0.972485, 153, 137, 216, 200
-0.972511, 337, 153, 464, 216
-0.972955, 281, 169, 344, 232
-0.973556, 161, 193, 416, 320
-0.973968, 249, 65, 312, 192
-0.973969, 257, 73, 320, 136
-0.974078, 241, 145, 304, 272
-0.974276, 105, 137, 168, 200
-0.974706, 305, 193, 432, 320
-0.974971, 201, 161, 264, 224
-0.975538, 289, 161, 416, 224
-0.975558, 249, 137, 312, 200
-0.975639, 373, 153, 404, 216
-0.975676, 129, 145, 192, 208
-0.975925, 377, 193, 440, 320
-0.976324, 353, 169, 384, 232
-0.976439, 377, 177, 440, 240
-0.977353, 337, 193, 400, 320
-0.977413, 353, 113, 480, 240
-0.977976, 265, 33, 328, 288
-0.978108, 177, 129, 240, 192
-0.978168, 257, 161, 320, 224
-0.978275, 273, 97, 336, 160
-0.97838, 129, 49, 384, 176
-0.978446, 257, 129, 384, 192
-0.978465, 201, 113, 264, 240
-0.978688, 329, 193, 392, 256
-0.978752, 153, 97, 216, 224
-0.979109, 341, 169, 372, 232
-0.979135, 201, 129, 264, 192
-0.979141, 145, 129, 272, 192
-0.979238, 1, 81, 256, 208
-0.979377, 1, 113, 64, 176
-0.979392, 401, 161, 464, 224
-0.979453, 129, 169, 192, 232
-0.979646, 33, 177, 160, 304
-0.979651, 361, 145, 392, 208
-0.979759, 385, 161, 416, 224
-0.97979, 297, 113, 360, 176
-0.980084, 305, 193, 368, 256
-0.980109, 73, 129, 136, 192
-0.980192, 241, 105, 304, 168
-0.980229, 217, 177, 280, 304
-0.980608, 193, 129, 320, 192
-0.980658, 145, 161, 272, 224
-0.981065, 305, 185, 432, 248
-0.981171, 353, 185, 480, 248
-0.981251, 193, 161, 320, 224
-0.981377, 225, 161, 288, 224
-0.981433, 397, 145, 428, 208
-0.981534, 281, 73, 344, 136
-0.981689, 337, 97, 400, 224
-0.981793, 97, 145, 224, 208
-0.981835, 145, 193, 272, 320
-0.981998, 433, 169, 496, 232
-0.982003, 349, 137, 380, 200
-0.982162, 409, 185, 472, 248
-0.982289, 241, 169, 368, 232
-0.982494, 305, 97, 432, 224
-0.982772, 41, 121, 104, 184
-0.982975, 177, 97, 240, 224
-0.983093, 365, 177, 396, 240
-0.983372, 97, 169, 224, 232
-0.983458, 281, 33, 344, 160
-0.983662, 89, 177, 152, 240
-0.983773, 293, 73, 324, 136
-0.983812, 257, 49, 384, 176
-0.983988, 329, 169, 360, 232
-0.98411, 293, 65, 324, 192
-0.984252, 453, 161, 484, 288
-0.984298, 217, 105, 280, 168
-0.984377, 81, 193, 208, 320
-0.984503, 73, 177, 136, 304
-0.984508, 429, 177, 460, 304
-0.984536, 289, 129, 320, 192
-0.984542, 333, 193, 364, 256
-0.984548, 93, 113, 124, 240
-0.984591, 333, 137, 364, 200
-0.984602, 377, 145, 408, 272
-0.984646, 49, 65, 112, 320
-0.984666, 81, 81, 208, 208
-0.984819, 317, 129, 348, 192
-0.984846, 49, 129, 176, 192
-0.984909, 397, 169, 428, 232
-0.984946, 201, 161, 232, 224
-0.984997, 401, 177, 432, 304
-0.985189, 345, 145, 376, 272
-0.985468, 393, 113, 456, 240
-0.985478, 97, 177, 160, 304
-0.985608, 289, 33, 352, 288
-0.985684, 209, 105, 336, 168
-0.985737, 209, 137, 240, 200
-0.985786, 249, 201, 312, 264
-0.98583, 105, 81, 168, 208
-0.985886, 137, 129, 168, 256
-0.985895, 105, 129, 136, 256
-0.985961, 25, 65, 88, 320
-0.986019, 33, 65, 160, 192
-0.98606, 317, 153, 348, 216
-0.986104, 185, 185, 248, 248
-0.986109, 241, 193, 368, 256
-0.986126, 153, 193, 216, 320
-0.986166, 301, 97, 332, 160
-0.986219, 157, 145, 188, 272
-0.986341, 281, 65, 312, 192
-0.986446, 277, 129, 308, 192
-0.98654, 389, 145, 420, 272
-0.986749, 441, 161, 472, 288
-0.986778, 189, 161, 220, 224
-0.987004, 153, 185, 216, 248
-0.987032, 81, 201, 144, 264
-0.987059, 305, 129, 432, 192
-0.98708, 181, 137, 212, 200
-0.987128, 281, 209, 344, 272
-0.987181, 281, 81, 312, 144
-0.987206, 9, 97, 40, 224
-0.987233, 409, 153, 440, 216
-0.987262, 1, 65, 64, 320
-0.987267, 465, 161, 496, 288
-0.987464, 225, 129, 288, 192
-0.987474, 313, 177, 344, 240
-0.987549, 241, 193, 304, 320
-0.987592, 73, 65, 136, 320
-0.98763, 117, 129, 148, 256
-0.987638, 185, 145, 216, 272
-0.987657, 65, 113, 96, 240
-0.987679, 257, 105, 384, 168
-0.987694, 361, 145, 392, 272
-0.987756, 29, 113, 60, 240
-0.987757, 413, 161, 444, 288
-0.987771, 225, 81, 288, 208
-0.987942, 81, 113, 112, 240
-0.98796, 289, 105, 320, 168
-0.988013, 449, 169, 480, 232
-0.988046, 225, 81, 352, 144
-0.988121, 329, 177, 360, 304
-0.988144, 329, 113, 360, 240
-0.988206, 381, 185, 412, 248
-0.988207, 433, 113, 496, 240
-0.988211, 169, 145, 200, 272
-0.988255, 133, 137, 164, 200
-0.988285, 349, 193, 380, 256
-0.988321, 65, 177, 128, 240
-0.988335, 1, 121, 128, 184
-0.988344, 193, 185, 320, 248
-0.988373, 1, 193, 64, 320
-0.988412, 377, 129, 440, 192
-0.98845, 33, 193, 160, 256
-0.988485, 305, 65, 368, 192
-0.988494, 49, 177, 112, 304
-0.988546, 121, 201, 184, 264
-0.98857, 109, 137, 140, 200
-0.988574, 353, 193, 416, 256
-0.988676, 301, 137, 332, 200
-0.988691, 289, 209, 416, 272
-0.988725, 145, 145, 176, 208
-0.988727, 337, 121, 400, 184
-0.988743, 45, 113, 76, 240
-0.988751, 145, 185, 272, 248
-0.988779, 265, 129, 296, 192
-0.988788, 241, 65, 304, 320
-0.988827, 165, 153, 196, 216
-0.988827, 197, 161, 228, 288
-0.988877, 193, 33, 320, 160
-0.98898, 229, 121, 260, 184
-0.988981, 105, 65, 168, 320
-0.989084, 369, 97, 432, 224
-0.989262, 273, 57, 304, 120
-0.989272, 269, 89, 300, 152
-0.989274, 257, 89, 288, 152
-0.989297, 297, 169, 328, 232
-0.989586, 321, 65, 384, 320
-0.989699, 401, 209, 464, 272
-0.989779, 41, 65, 104, 192
-0.989795, 41, 193, 104, 256
-0.989925, 197, 121, 228, 184
-0.989938, 313, 217, 376, 280
-0.98996, 425, 161, 456, 224
-0.990072, 233, 81, 296, 144
-0.990099, 433, 217, 496, 280
-0.990102, 97, 105, 224, 168
-0.99012, 305, 33, 432, 160
-0.990211, 301, 161, 332, 288
-0.990373, 281, 133, 344, 164
-0.990389, 233, 57, 296, 120
-0.990491, 225, 201, 288, 264
-0.990557, 313, 141, 376, 172
-0.990617, 337, 177, 400, 208
-0.99063, 353, 209, 480, 272
-0.990673, 93, 129, 124, 192
-0.99068, 273, 149, 336, 180
-0.990709, 9, 113, 40, 176
-0.990738, 345, 157, 408, 188
-0.990739, 361, 169, 424, 200
-0.990766, 81, 1, 144, 328
-0.99082, 253, 121, 284, 184
-0.990861, 105, 141, 168, 172
-0.990907, 313, 161, 376, 192
-0.990927, 41, 1, 104, 328
-0.99093, 261, 161, 292, 224
-0.990932, 1, 33, 64, 160
-0.990939, 257, 161, 500, 224
-0.99097, 1, 117, 64, 148
-0.990982, 265, 49, 328, 112
-0.991021, 177, 161, 240, 192
-0.991057, 97, 209, 224, 272
-0.991086, 393, 165, 456, 196
-0.991091, 1, 1, 64, 328
-0.991103, 137, 161, 200, 192
-0.991109, 217, 161, 248, 224
-0.991113, 401, 113, 432, 240
-0.991133, 313, 177, 376, 208
-0.991243, 301, 17, 332, 144
-0.99127, 9, 193, 72, 256
-0.991272, 25, 193, 88, 320
-0.991326, 273, 233, 336, 296
-0.991329, 369, 157, 432, 188
-0.991359, 257, 77, 320, 108
-0.991375, 201, 157, 264, 188
-0.991416, 409, 233, 472, 296
-0.991425, 345, 145, 408, 176
-0.991461, 177, 173, 240, 204
-0.991479, 257, 133, 320, 164
-0.991528, 289, 169, 352, 200
-0.991535, 241, 161, 272, 224
-0.991598, 161, 141, 224, 172
-0.991645, 277, 161, 308, 224
-0.991667, 341, 193, 372, 320
-0.991671, 289, 1, 352, 328
-0.99169, 313, 161, 344, 288
-0.991739, 265, 89, 328, 120
-0.99174, 25, 113, 56, 176
-0.991745, 105, 1, 168, 328
-0.991761, 201, 173, 264, 204
-0.991771, 353, 241, 480, 304
-0.991782, 177, 169, 208, 232
-0.991789, 393, 177, 456, 208
-0.991817, 297, 189, 360, 220
-0.991833, 305, 129, 368, 160
-0.991833, 369, 185, 432, 216
-0.991834, 41, 125, 104, 156
-0.991839, 257, 169, 320, 200
-0.99186, 37, 113, 68, 176
-0.991864, 145, 173, 208, 204
-0.991886, 65, 129, 128, 160
-0.99189, 433, 173, 496, 204
-0.991963, 105, 113, 168, 176
-0.991978, 137, 149, 200, 180
-0.991987, 113, 173, 176, 204
-0.992006, 161, 137, 416, 200
-0.992094, 281, 77, 344, 108
-0.992099, 265, 1, 328, 328
-0.992103, 49, 169, 176, 232
-0.992105, 41, 97, 104, 160
-0.992123, 225, 233, 288, 264
-0.992131, 345, 189, 408, 220
-0.992171, 121, 137, 152, 200
-0.992201, 241, 157, 304, 188
-0.992201, 401, 189, 464, 220
-0.992207, 73, 121, 104, 184
-0.99223, 281, 145, 312, 272
-0.99225, 185, 129, 248, 160
-0.992261, 129, 1, 192, 328
-0.992304, 321, 201, 352, 264
-0.992305, 209, 145, 240, 272
-0.992306, 377, 193, 408, 320
-0.992315, 241, 145, 304, 176
-0.992318, 97, 185, 160, 216
-0.992375, 229, 161, 260, 224
-0.992375, 201, 193, 264, 224
-0.992377, 425, 145, 488, 208
-0.992388, 409, 213, 472, 244
-0.992398, 161, 105, 288, 168
-0.992399, 241, 129, 272, 192
-0.992424, 185, 65, 248, 320
-0.992461, 161, 161, 416, 224
-0.992463, 109, 177, 140, 240
-0.992465, 273, 121, 336, 152
-0.992465, 225, 185, 288, 216
-0.992484, 257, 101, 320, 132
-0.992485, 129, 81, 192, 208
-0.992495, 129, 1, 384, 128
-0.992521, 193, 229, 256, 260
-0.992524, 321, 189, 384, 220
-0.992562, 257, 189, 320, 220
-0.992565, 241, 89, 304, 120
-0.992568, 65, 169, 320, 232
-0.992572, 241, 117, 304, 148
-0.992584, 353, 129, 480, 192
-0.992602, 249, 237, 312, 268
-0.992646, 177, 185, 240, 216
-0.992649, 161, 129, 224, 160
-0.99269, 169, 225, 232, 256
-0.9927, 257, 65, 320, 96
-0.992704, 233, 133, 296, 164
-0.992705, 153, 209, 216, 272
-0.992714, 341, 141, 372, 172
-0.992742, 257, 17, 320, 144
-0.992749, 1, 97, 128, 160
-0.992787, 393, 165, 424, 196
-0.992799, 209, 125, 272, 156
-0.9928, 305, 241, 368, 272
-0.992807, 225, 197, 288, 228
-0.992808, 233, 169, 296, 200
-0.992812, 89, 173, 152, 204
-0.992813, 369, 141, 432, 172
-0.992821, 153, 185, 216, 216
-0.992823, 273, 237, 336, 268
-0.992833, 129, 221, 192, 252
-0.992841, 309, 209, 340, 272
-0.992845, 273, 65, 400, 128
-0.992848, 377, 157, 408, 188
-0.99285, 113, 161, 176, 192
-0.992856, 345, 177, 376, 208
-0.99288, 41, 113, 104, 144
-0.992882, 329, 181, 360, 212
-0.992886, 129, 65, 192, 320
-0.992894, 305, 65, 336, 128
-0.992899, 121, 177, 152, 240
-0.992902, 289, 41, 352, 104
-0.992904, 241, 233, 368, 296
-0.992908, 289, 77, 320, 108
-0.99291, 145, 113, 208, 176
-0.992925, 305, 201, 368, 232
-0.992941, 289, 133, 320, 164
-0.992944, 313, 65, 344, 192
-0.992945, 449, 177, 480, 208
-0.992945, 353, 141, 384, 172
-0.992945, 381, 169, 412, 200
-0.992947, 413, 185, 444, 248
-0.992966, 305, 133, 336, 164
-0.992966, 265, 201, 328, 232
-0.992969, 361, 173, 392, 204
-0.99297, 161, 209, 288, 272
-0.992977, 153, 153, 184, 184
-0.992978, 237, 145, 268, 272
-0.992982, 317, 137, 348, 168
-0.992997, 137, 137, 200, 168
-0.992999, 309, 149, 340, 180
-0.993002, 317, 105, 348, 168
-0.993012, 401, 153, 432, 184
-0.993014, 205, 161, 236, 192
-0.993028, 393, 153, 456, 184
-0.993033, 329, 137, 360, 168
-0.99304, 317, 161, 348, 192
-0.99304, 133, 141, 164, 172
-0.993041, 201, 145, 264, 176
-0.993045, 225, 145, 256, 272
-0.993046, 217, 65, 280, 320
-0.993048, 289, 89, 320, 120
-0.993051, 289, 97, 352, 128
-0.993074, 297, 149, 328, 180
-0.993078, 197, 173, 228, 204
-0.993086, 105, 221, 168, 252
-0.993099, 329, 149, 360, 180
-0.993104, 65, 49, 128, 176
-0.993117, 121, 185, 184, 216
-0.993117, 409, 241, 472, 272
-0.993119, 9, 117, 40, 148
-0.993119, 353, 217, 416, 280
-0.99312, 345, 65, 408, 320
-0.993124, 297, 169, 328, 200
-0.993127, 89, 205, 152, 236
-0.993137, 353, 161, 384, 192
-0.993137, 185, 161, 216, 192
-0.993141, 153, 169, 184, 232
-0.993143, 73, 125, 104, 156
-0.993147, 333, 193, 364, 224
-0.993161, 305, 77, 336, 108
-0.99317, 277, 133, 308, 164
-0.993173, 365, 149, 396, 180
-0.993181, 401, 177, 432, 208
-0.993184, 29, 121, 60, 152
-0.993186, 153, 141, 184, 172
-0.993195, 189, 129, 220, 160
-0.993197, 425, 185, 488, 216
-0.993198, 429, 173, 460, 204
-0.993208, 313, 189, 344, 220
-0.99322, 105, 129, 168, 160
-0.993229, 353, 241, 416, 272
-0.993234, 93, 133, 124, 164
-0.993237, 129, 173, 160, 204
-0.993238, 281, 65, 344, 96
-0.993239, 1, 105, 64, 136
-0.993242, 65, 205, 128, 236
-0.993243, 309, 177, 340, 208
-0.993258, 273, 81, 304, 112
-0.993266, 413, 161, 444, 192
-0.99327, 113, 173, 144, 204
-0.993272, 389, 153, 420, 184
-0.993279, 113, 197, 176, 228
-0.993283, 361, 249, 424, 312
-0.993285, 233, 221, 296, 252
-0.993286, 213, 173, 244, 204
-0.993287, 381, 181, 412, 212
-0.993289, 185, 173, 216, 204
-0.993292, 285, 149, 316, 180
-0.9933, 349, 189, 380, 220
-0.993304, 293, 117, 324, 148
-0.993305, 225, 173, 256, 204
-0.993307, 165, 141, 196, 172
-0.993308, 429, 185, 460, 216
-0.993313, 277, 173, 308, 204
-0.993315, 465, 173, 496, 204
-0.993321, 165, 161, 196, 192
-0.993323, 157, 173, 188, 204
-0.993324, 301, 89, 332, 120
-0.993324, 281, 109, 344, 140
-0.993325, 73, 189, 136, 220
-0.993331, 229, 157, 260, 188
-0.993331, 313, 113, 344, 240
-0.993335, 285, 189, 316, 220
-0.993337, 137, 161, 168, 192
-0.993338, 365, 161, 396, 192
-0.99334, 413, 173, 444, 204
-0.993341, 361, 205, 424, 236
-0.993351, 305, 101, 336, 132
-0.993355, 337, 205, 400, 236
-0.993355, 341, 157, 372, 188
-0.993357, 109, 137, 140, 168
-0.993358, 361, 185, 392, 216
-0.993359, 45, 125, 76, 156
-0.993359, 241, 209, 304, 240
-0.993373, 329, 161, 360, 192
-0.993373, 297, 193, 328, 224
-0.993382, 97, 177, 128, 240
-0.993388, 1, 197, 64, 228
-0.993395, 1, 137, 500, 200
-0.993397, 265, 233, 296, 264
-0.993399, 385, 205, 448, 236
-0.993399, 417, 157, 480, 188
-0.9934, 425, 65, 488, 320
-0.9934, 417, 185, 448, 216
-0.993402, 229, 233, 260, 264
-0.99341, 265, 189, 296, 220
-0.993411, 41, 197, 104, 228
-0.993413, 281, 121, 312, 152
-0.993414, 177, 133, 208, 164
-0.993415, 209, 137, 240, 168
-0.993415, 113, 185, 144, 216
-0.993418, 145, 173, 176, 204
-0.993421, 233, 101, 296, 132
-0.993421, 169, 173, 200, 204
-0.993423, 269, 145, 300, 176
-0.993424, 265, 133, 296, 164
-0.993433, 273, 65, 304, 96
-0.993433, 61, 125, 92, 156
-0.993435, 113, 233, 176, 264
-0.993436, 401, 189, 432, 220
-0.993437, 261, 173, 292, 204
-0.993437, 257, 185, 500, 248
-0.993449, 185, 149, 216, 180
-0.993452, 205, 149, 236, 180
-0.993452, 101, 185, 132, 216
-0.993455, 233, 185, 264, 216
-0.993462, 121, 137, 152, 168
-0.993468, 217, 161, 248, 192
-0.993468, 277, 237, 308, 268
-0.993474, 17, 145, 80, 272
-0.993482, 253, 133, 284, 164
-0.993484, 329, 129, 392, 160
-0.993498, 217, 189, 248, 220
-0.993501, 229, 125, 260, 156
-0.993501, 253, 185, 284, 216
-0.993502, 145, 233, 208, 264
-0.993512, 249, 173, 280, 204
-0.993517, 457, 221, 488, 252
-0.993518, 273, 93, 304, 124
-0.99353, 173, 225, 204, 256
-0.99353, 217, 113, 280, 144
-0.993531, 285, 185, 316, 248
-0.993531, 217, 229, 248, 260
-0.993532, 205, 125, 236, 156
-0.993537, 205, 185, 236, 216
-0.993542, 253, 93, 284, 124
-0.993543, 317, 125, 348, 156
-0.993547, 133, 161, 164, 224
-0.993548, 241, 157, 272, 188
-0.993549, 185, 209, 248, 240
-0.993552, 253, 157, 284, 188
-0.993557, 297, 181, 328, 212
-0.993558, 345, 1, 408, 328
-0.993558, 377, 245, 440, 276
-0.993559, 225, 137, 256, 168
-0.993564, 281, 225, 344, 256
-0.993564, 389, 193, 420, 320
-0.993567, 97, 233, 224, 296
-0.993572, 305, 81, 368, 112
-0.993572, 317, 237, 348, 268
-0.993581, 305, 113, 336, 144
-0.993582, 65, 117, 128, 148
-0.993589, 277, 161, 308, 192
-0.993596, 453, 233, 484, 264
-0.993596, 49, 113, 80, 144
-0.993598, 317, 93, 348, 124
-0.993599, 137, 221, 168, 252
-0.993602, 229, 197, 260, 228
-0.993604, 289, 101, 320, 132
-0.993605, 149, 225, 180, 256
-0.993605, 245, 201, 276, 232
-0.993607, 201, 197, 232, 228
-0.993607, 245, 121, 276, 152
-0.993608, 329, 237, 392, 268
-0.993611, 129, 125, 192, 156
-0.993612, 237, 173, 268, 204
-0.993612, 125, 217, 156, 248
-0.993612, 373, 241, 404, 272
-0.993613, 125, 185, 156, 216
-0.993615, 441, 189, 472, 220
-0.993623, 153, 1, 216, 328
-0.993624, 401, 225, 464, 256
-0.993667, 185, 117, 248, 148
-0.993696, 185, 97, 216, 224
-0.993702, 433, 237, 496, 268
-0.993706, 177, 197, 240, 228
-0.993713, 257, 137, 500, 200
-0.993723, 265, 213, 328, 244
-0.993735, 329, 253, 392, 284
-0.993746, 465, 169, 496, 232
-0.99375, 81, 225, 144, 256
-0.993779, 201, 241, 264, 272
-0.993785, 137, 201, 200, 232
-0.993816, 233, 77, 296, 108
-0.99382, 409, 253, 472, 284
-0.99382, 297, 193, 328, 256
-0.993854, 205, 97, 236, 224
-0.993856, 9, 185, 72, 216
-0.993869, 209, 101, 272, 132
-0.993869, 97, 113, 352, 176
-0.993874, 105, 297, 168, 328
-0.993892, 265, 53, 328, 84
-0.993894, 409, 201, 472, 232
-0.993922, 329, 113, 360, 176
-0.993923, 305, 69, 368, 100
-0.993923, 113, 209, 176, 240
-0.993931, 73, 293, 136, 324
-0.993935, 289, 33, 352, 64
-0.993939, 313, 1, 376, 328
-0.993957, 305, 109, 368, 140
-0.993961, 353, 253, 416, 284
-0.993969, 65, 97, 128, 160
-0.994059, 269, 49, 300, 176
-0.994087, 1, 89, 64, 152
-0.994126, 269, 97, 300, 224
-0.994205, 121, 193, 184, 320
-0.994213, 201, 81, 264, 144
-0.994222, 209, 57, 336, 120
-0.994236, 377, 1, 440, 328
-0.994238, 377, 129, 408, 192
-0.99424, 241, 1, 304, 328
-0.994247, 377, 153, 392, 216
-0.994352, 269, 145, 300, 272
-0.994397, 257, 145, 288, 272
-0.994408, 389, 153, 404, 216
-0.994426, 437, 193, 468, 256
-0.994497, 61, 121, 92, 184
-0.99452, 365, 193, 396, 320
-0.994583, 165, 185, 196, 248
-0.994596, 437, 169, 468, 232
-0.994596, 257, 185, 288, 248
-0.99461, 337, 169, 464, 200
-0.994642, 383, 153, 398, 216
-0.994643, 33, 137, 288, 200
-0.994703, 293, 113, 324, 240
-0.994729, 49, 121, 80, 184
-0.99473, 385, 241, 448, 304
-0.99473, 1, 169, 500, 232
-0.994743, 257, 137, 384, 168
-0.994783, 217, 225, 280, 288
-0.994788, 257, 97, 288, 224
-0.994841, 305, 65, 368, 128
-0.994853, 193, 1, 256, 328
-0.994868, 97, 33, 224, 160
-0.994879, 201, 65, 264, 192
-0.994899, 371, 145, 386, 208
-0.9949, 241, 105, 272, 168
-0.994903, 355, 169, 370, 232
-0.99495, 417, 113, 448, 240
-0.994951, 257, 209, 500, 272
-0.994966, 49, 217, 176, 280
-0.994973, 161, 65, 224, 320
-0.994973, 371, 169, 386, 232
-0.994975, 457, 217, 488, 280
-0.995004, 363, 169, 378, 232
-0.995079, 281, 17, 312, 144
-0.995119, 217, 1, 280, 328
-0.995144, 409, 1, 472, 328
-0.995162, 347, 169, 362, 232
-0.995167, 429, 129, 460, 256
-0.995178, 395, 161, 410, 224
-0.995187, 49, 105, 176, 168
-0.995201, 193, 233, 320, 296
-0.995202, 289, 153, 416, 184
-0.995255, 257, 177, 384, 208
-0.995265, 1, 169, 64, 232
-0.995288, 233, 97, 264, 224
-0.995345, 157, 129, 188, 192
-0.995387, 289, 233, 416, 296
-0.995495, 129, 137, 256, 168
-0.995503, 305, 181, 432, 212
-0.995515, 41, 169, 104, 232
-0.995518, 145, 233, 208, 296
-0.995519, 295, 73, 310, 136
-0.995538, 285, 49, 316, 112
-0.995542, 365, 145, 380, 208
-0.995547, 225, 193, 256, 320
-0.995571, 353, 193, 384, 320
-0.995585, 373, 97, 404, 224
-0.995596, 105, 177, 136, 304
-0.995616, 193, 173, 320, 204
-0.995619, 357, 97, 388, 224
-0.995641, 177, 193, 208, 320
-0.995682, 121, 233, 184, 296
-0.995718, 377, 177, 392, 240
-0.995726, 97, 193, 352, 256
-0.995753, 273, 41, 400, 104
-0.995774, 117, 81, 148, 208
-0.995793, 177, 217, 240, 280
-0.995837, 345, 97, 376, 224
-0.995869, 369, 157, 496, 188
-0.995883, 341, 169, 356, 232
-0.995884, 369, 65, 432, 320
-0.995898, 113, 169, 240, 200
-0.996033, 413, 169, 428, 232
-0.996064, 257, 1, 384, 128
-0.99607, 199, 121, 214, 184
-0.996085, 225, 81, 480, 144
-0.996127, 351, 137, 366, 200
-0.996164, 249, 233, 312, 296
-0.996203, 295, 121, 310, 184
-0.996203, 193, 157, 320, 188
-0.996237, 389, 177, 404, 240
-0.996242, 357, 137, 372, 200
-0.996245, 337, 193, 352, 256
-0.99626, 401, 145, 416, 208
-0.996277, 383, 177, 398, 240
-0.996298, 209, 185, 336, 216
-0.996327, 339, 129, 354, 192
-0.996333, 193, 105, 256, 168
-0.996344, 85, 177, 116, 304
-0.996352, 1, 209, 500, 272
-0.996353, 177, 133, 304, 164
-0.996359, 279, 129, 294, 192
-0.996374, 205, 161, 220, 224
-0.996374, 237, 193, 268, 320
-0.996376, 113, 181, 240, 212
-0.996399, 289, 129, 304, 192
-0.996416, 319, 129, 334, 192
-0.996421, 469, 113, 500, 240
-0.996421, 1, 177, 32, 304
-0.996421, 81, 193, 112, 256
-0.996441, 193, 105, 448, 168
-0.996455, 409, 145, 424, 208
-0.996456, 351, 193, 366, 256
-0.996471, 33, 265, 160, 328
-0.996473, 101, 201, 132, 264
-0.996473, 441, 233, 472, 296
-0.996486, 225, 93, 352, 124
-0.996499, 145, 241, 272, 304
-0.99652, 129, 153, 256, 184
-0.996548, 197, 185, 228, 248
-0.996555, 17, 125, 144, 156
-0.996573, 1, 169, 128, 232
-0.996618, 157, 97, 188, 224
-0.996651, 303, 129, 318, 192
-0.996663, 207, 137, 222, 200
-0.99667, 81, 141, 208, 172
-0.996695, 345, 193, 360, 256
-0.996728, 171, 161, 186, 224
-0.996733, 345, 145, 360, 208
-0.996736, 335, 169, 350, 232
-0.996745, 161, 65, 288, 128
-0.996745, 401, 169, 416, 232
-0.996763, 33, 65, 64, 192
-0.996792, 245, 193, 276, 256
-0.996803, 445, 113, 476, 240
-0.996825, 165, 161, 180, 224
-0.996852, 401, 137, 464, 200
-0.99686, 305, 105, 432, 168
-0.99686, 309, 129, 324, 192
-0.996867, 435, 161, 450, 224
-0.99687, 69, 177, 100, 304
-0.99687, 281, 161, 296, 224
-0.996877, 419, 153, 434, 216
-0.996882, 407, 169, 422, 232
-0.996888, 247, 129, 262, 192
-0.996898, 179, 161, 194, 224
-0.996914, 393, 65, 456, 320
-0.996921, 257, 197, 384, 228
-0.996924, 193, 137, 208, 200
-0.996926, 295, 97, 310, 160
-0.996933, 389, 97, 420, 224
-0.99694, 97, 89, 352, 152
-0.996952, 147, 137, 162, 200
-0.996974, 313, 169, 328, 232
-0.996976, 85, 169, 116, 232
-0.996987, 353, 185, 480, 216
-0.996991, 275, 161, 290, 224
-0.996993, 65, 193, 96, 256
-0.996993, 153, 137, 168, 200
-0.997, 273, 165, 400, 196
-0.997001, 289, 161, 304, 224
-0.997002, 289, 257, 416, 320
-0.997016, 331, 137, 346, 200
-0.997022, 139, 137, 154, 200
-0.997034, 433, 1, 496, 328
-0.997053, 305, 141, 432, 172
-0.997058, 209, 145, 336, 176
-0.99706, 93, 105, 124, 168
-0.997064, 213, 137, 228, 200
-0.997067, 425, 153, 440, 216
-0.997071, 209, 117, 336, 148
-0.997082, 219, 121, 234, 184
-0.997086, 273, 129, 288, 192
-0.997095, 133, 137, 148, 200
-0.997099, 331, 193, 346, 256
-0.997106, 289, 105, 304, 168
-0.997115, 293, 33, 324, 288
-0.997132, 453, 169, 468, 232
-0.997143, 1, 97, 500, 160
-0.997145, 305, 89, 368, 152
-0.997153, 185, 169, 200, 232
-0.99717, 395, 185, 410, 248
-0.997184, 41, 113, 56, 176
-0.997189, 229, 145, 244, 208
-0.997212, 301, 73, 316, 136
-0.997232, 441, 153, 456, 216
-0.997242, 137, 185, 168, 248
-0.997249, 225, 121, 240, 184
-0.997252, 193, 197, 320, 228
-0.997252, 57, 177, 88, 304
-0.997256, 159, 161, 174, 224
-0.997256, 45, 193, 76, 256
-0.997257, 1, 201, 256, 264
-0.997263, 325, 129, 340, 192
-0.997267, 219, 145, 234, 208
-0.997274, 231, 121, 246, 184
-0.997286, 305, 161, 320, 224
-0.997293, 97, 225, 160, 288
-0.997302, 199, 161, 214, 224
-0.997323, 301, 105, 316, 168
-0.997326, 107, 129, 122, 192
-0.997337, 191, 161, 206, 224
-0.997339, 325, 177, 340, 240
-0.997346, 315, 97, 330, 160
-0.997355, 211, 161, 226, 224
-0.997355, 45, 65, 76, 192
-0.997365, 271, 89, 286, 152
-0.997376, 377, 209, 440, 272
-0.997385, 297, 241, 360, 304
-0.997386, 237, 121, 252, 184
-0.997388, 245, 81, 276, 208
-0.997398, 161, 229, 288, 260
-0.997402, 125, 137, 140, 200
-0.997417, 467, 169, 482, 232
-0.997427, 307, 89, 322, 152
-0.997468, 225, 81, 352, 112
-0.997475, 209, 233, 336, 264
-0.997481, 257, 113, 272, 176
-0.997487, 297, 161, 312, 224
-0.997494, 85, 121, 100, 184
-0.997496, 329, 241, 392, 304
-0.997517, 105, 169, 120, 232
-0.997519, 115, 137, 130, 200
-0.997522, 113, 197, 240, 228
-0.997525, 357, 193, 372, 256
-0.997533, 97, 125, 224, 156
-0.997553, 303, 185, 318, 248
-0.99756, 257, 161, 272, 224
-0.997567, 177, 201, 208, 264
-0.997567, 319, 161, 334, 224
-0.997575, 37, 193, 68, 320
-0.997587, 297, 49, 312, 112
-0.997593, 433, 241, 496, 304
-0.997594, 17, 49, 48, 176
-0.997595, 25, 113, 40, 176
-0.997602, 325, 153, 340, 216
-0.997615, 251, 161, 266, 224
-0.997615, 113, 201, 144, 264
-0.997633, 277, 33, 308, 288
-0.99765, 353, 241, 480, 272
-0.997651, 49, 97, 80, 160
-0.997651, 269, 169, 284, 232
-0.997666, 309, 193, 324, 256
-0.99767, 355, 141, 370, 172
-0.997677, 363, 193, 378, 256
-0.997687, 187, 137, 202, 200
-0.997689, 7, 113, 22, 176
-0.997692, 159, 137, 174, 200
-0.997696, 285, 65, 300, 128
-0.997704, 265, 25, 328, 88
-0.997712, 101, 129, 116, 192
-0.997713, 447, 169, 462, 232
-0.997728, 33, 201, 160, 232
-0.997759, 237, 161, 252, 224
-0.997763, 213, 113, 244, 176
-0.997768, 209, 185, 240, 248
-0.997779, 419, 185, 434, 248
-0.997789, 325, 209, 340, 272
-0.997797, 25, 193, 56, 256
-0.997801, 321, 89, 336, 152
-0.997801, 99, 177, 114, 240
-0.997807, 95, 129, 110, 192
-0.997815, 113, 225, 240, 256
-0.997816, 393, 193, 424, 256
-0.997828, 177, 185, 192, 248
-0.99783, 265, 97, 280, 160
-0.997837, 173, 97, 204, 224
-0.997838, 459, 177, 474, 240
-0.997854, 267, 129, 282, 192
-0.997861, 35, 113, 50, 176
-0.99787, 369, 209, 496, 240
-0.997872, 337, 1, 464, 64
-0.997888, 295, 77, 310, 108
-0.997907, 153, 201, 184, 264
-0.997919, 425, 185, 456, 248
-0.997925, 5, 49, 36, 176
-0.997931, 253, 137, 268, 200
-0.997932, 229, 97, 260, 160
-0.997935, 157, 149, 172, 180
-0.997939, 283, 105, 298, 168
-0.997943, 257, 237, 384, 268
-0.997943, 245, 161, 260, 224
-0.99795, 153, 161, 168, 224
-0.997965, 111, 177, 126, 240
-0.997969, 49, 121, 64, 184
-0.997979, 345, 177, 360, 208
-0.99798, 313, 149, 328, 180
-0.997987, 263, 161, 278, 224
-0.997998, 171, 185, 186, 248
-0.998001, 81, 257, 208, 320
-0.998006, 65, 225, 320, 288
-0.998019, 117, 177, 148, 304
-0.998021, 387, 129, 402, 192
-0.99803, 371, 193, 386, 256
-0.99803, 277, 105, 292, 168
-0.998039, 307, 133, 322, 164
-0.998041, 391, 157, 406, 188
-0.998042, 453, 173, 468, 204
-0.998054, 15, 113, 30, 176
-0.998056, 65, 173, 192, 204
-0.998056, 161, 185, 288, 216
-0.998058, 407, 165, 422, 196
-0.998066, 137, 81, 168, 208
-0.998067, 345, 149, 360, 180
-0.998069, 205, 161, 220, 192
-0.998071, 257, 125, 384, 156
-0.998088, 81, 153, 208, 184
-0.998108, 57, 65, 88, 320
-0.998108, 355, 173, 370, 204
-0.998114, 395, 169, 410, 200
-0.998115, 293, 133, 308, 164
-0.998123, 305, 193, 432, 224
-0.998139, 33, 137, 160, 168
-0.998146, 161, 121, 288, 152
-0.998149, 101, 65, 132, 320
-0.99815, 361, 173, 376, 204
-0.998151, 371, 173, 386, 204
-0.998153, 317, 133, 332, 164
-0.998172, 469, 145, 500, 208
-0.998175, 377, 173, 392, 204
-0.998186, 353, 185, 368, 216
-0.998195, 303, 149, 318, 180
-0.998199, 323, 149, 338, 180
-0.998202, 77, 65, 108, 320
-0.998205, 387, 177, 402, 208
-0.998222, 165, 193, 196, 320
-0.998233, 181, 169, 196, 200
-0.998242, 25, 65, 56, 320
-0.998243, 197, 129, 212, 160
-0.998258, 151, 141, 166, 172
-0.998262, 319, 161, 334, 192
-0.998267, 381, 157, 396, 188
-0.998269, 325, 49, 356, 176
-0.998274, 289, 201, 320, 216
-0.998274, 205, 125, 236, 140
-0.998275, 289, 143, 320, 158
-0.998276, 157, 159, 188, 174
-0.998276, 265, 205, 296, 220
-0.998276, 317, 103, 348, 118
-0.998277, 309, 195, 340, 210
-0.998277, 449, 173, 480, 188
-0.998277, 217, 235, 248, 250
-0.998278, 305, 109, 336, 124
-0.998278, 361, 209, 392, 224
-0.998278, 273, 143, 304, 158
-0.998278, 285, 127, 316, 142
-0.998279, 317, 147, 348, 162
-0.99828, 429, 177, 460, 192
-0.99828, 205, 167, 236, 182
-0.99828, 297, 187, 328, 202
-0.998281, 413, 177, 428, 208
-0.998281, 197, 183, 228, 198
-0.998282, 337, 209, 368, 224
-0.998283, 1, 233, 128, 296
-0.998284, 185, 169, 216, 184
-0.998284, 257, 105, 288, 120
-0.998284, 317, 175, 348, 190
-0.998284, 141, 177, 172, 192
-0.998284, 1, 97, 256, 160
-0.998285, 177, 135, 208, 150
-0.998285, 297, 129, 328, 144
-0.998285, 133, 145, 164, 160
-0.998285, 57, 129, 88, 144
-0.998285, 229, 185, 260, 200
-0.998285, 285, 187, 316, 202
-0.998286, 257, 143, 288, 158
-0.998287, 173, 229, 204, 244
-0.998287, 401, 165, 416, 196
-0.998287, 117, 173, 148, 188
-0.998288, 313, 131, 344, 146
-0.998289, 411, 153, 426, 184
-0.99829, 361, 187, 392, 202
-0.99829, 293, 99, 324, 114
-0.998291, 305, 91, 336, 106
-0.998291, 161, 229, 192, 244
-0.998293, 169, 175, 200, 190
-0.998293, 85, 133, 116, 148
-0.998294, 273, 83, 304, 98
-0.998295, 337, 159, 368, 174
-0.998295, 277, 237, 308, 252
-0.998296, 233, 17, 296, 144
-0.998297, 217, 199, 248, 214
-0.998297, 269, 133, 300, 148
-0.998298, 397, 173, 428, 188
-0.998299, 373, 187, 404, 202
-0.998299, 413, 167, 444, 182
-0.998299, 121, 181, 152, 196
-0.9983, 297, 163, 328, 178
-0.998301, 361, 141, 376, 172
-0.998301, 365, 177, 396, 192
-0.998301, 305, 103, 336, 118
-0.998302, 273, 71, 304, 86
-0.998302, 241, 201, 272, 216
-0.998303, 261, 149, 292, 164
-0.998303, 293, 207, 324, 222
-0.998304, 341, 183, 372, 198
-0.998304, 381, 171, 412, 186
-0.998305, 337, 141, 352, 172
-0.998306, 273, 99, 304, 114
-0.998306, 377, 177, 408, 192
-0.998307, 257, 133, 288, 148
-0.998309, 341, 195, 372, 210
-0.99831, 45, 127, 76, 142
-0.998311, 245, 235, 276, 250
-0.998313, 137, 157, 168, 172
-0.998316, 257, 235, 288, 250
-0.998316, 297, 177, 328, 192
-0.998316, 289, 85, 416, 116
-0.998317, 205, 159, 236, 174
-0.998317, 289, 135, 320, 150
-0.998318, 37, 65, 68, 320
-0.998319, 313, 203, 344, 218
-0.998322, 305, 151, 336, 166
-0.998322, 385, 189, 416, 204
-0.998324, 225, 173, 240, 204
-0.998325, 345, 193, 360, 224
-0.998327, 233, 233, 264, 248
-0.99833, 285, 149, 316, 164
-0.99833, 353, 143, 384, 158
-0.998331, 273, 89, 304, 104
-0.998332, 313, 137, 344, 152
-0.998332, 335, 189, 350, 220
-0.998333, 341, 139, 372, 154
-0.998336, 185, 163, 216, 178
-0.998338, 309, 187, 340, 202
-0.998338, 381, 159, 412, 174
-0.998338, 329, 143, 360, 158
-0.998342, 261, 65, 292, 320
-0.998344, 433, 189, 464, 204
-0.998345, 163, 153, 178, 184
-0.998345, 373, 153, 404, 168
-0.998346, 229, 199, 260, 214
-0.998347, 403, 153, 418, 184
-0.998348, 161, 233, 416, 296
-0.998349, 297, 171, 328, 186
-0.998349, 465, 173, 496, 188
-0.99835, 409, 189, 440, 204
-0.99835, 113, 141, 144, 156
-0.998351, 367, 149, 382, 180
-0.998355, 305, 79, 336, 94
-0.998356, 317, 159, 348, 174
-0.998357, 413, 161, 444, 176
-0.99836, 331, 149, 346, 180
-0.998361, 417, 157, 432, 188
-0.998364, 297, 157, 328, 172
-0.998364, 109, 179, 140, 194
-0.998365, 289, 87, 320, 102
-0.998369, 333, 203, 364, 218
-0.998369, 397, 189, 428, 204
-0.998369, 421, 189, 452, 204
-0.99837, 203, 173, 218, 204
-0.99837, 97, 137, 128, 152
-0.998373, 329, 181, 360, 196
-0.998374, 197, 175, 228, 190
-0.998376, 301, 135, 332, 150
-0.998378, 203, 129, 218, 160
-0.99838, 181, 179, 212, 194
-0.998383, 129, 173, 160, 188
-0.998385, 341, 153, 372, 168
-0.998386, 361, 155, 392, 170
-0.99839, 313, 181, 344, 196
-0.998393, 349, 189, 380, 204
-0.998393, 329, 153, 360, 168
-0.998394, 145, 145, 176, 160
-0.998395, 5, 65, 36, 320
-0.998396, 429, 183, 460, 198
-0.998397, 285, 133, 300, 164
-0.998397, 329, 187, 360, 202
-0.998398, 161, 149, 192, 164
-0.9984, 189, 133, 220, 148
-0.998402, 299, 133, 314, 164
-0.998403, 175, 161, 190, 192
-0.998404, 449, 179, 480, 194
-0.998404, 17, 193, 48, 320
-0.998405, 273, 149, 304, 164
-0.998406, 29, 121, 60, 136
-0.998406, 73, 127, 104, 142
-0.998407, 317, 153, 348, 168
-0.998411, 345, 177, 376, 192
-0.998417, 257, 241, 500, 304
-0.998417, 341, 217, 372, 280
-0.998417, 329, 193, 360, 208
-0.998421, 341, 145, 372, 160
-0.998423, 305, 85, 336, 100
-0.998423, 357, 149, 388, 164
-0.998427, 289, 93, 320, 108
-0.998429, 401, 159, 432, 174
-0.998437, 401, 167, 432, 182
-0.998438, 149, 153, 180, 168
-0.998446, 261, 57, 292, 120
-0.998446, 305, 241, 432, 272
-0.998448, 303, 189, 318, 220
-0.998454, 145, 141, 160, 172
-0.998456, 325, 137, 356, 152
-0.998457, 309, 169, 324, 200
-0.998458, 445, 185, 460, 216
-0.99846, 361, 161, 376, 192
-0.998465, 9, 117, 40, 132
-0.998469, 167, 169, 182, 200
-0.998472, 285, 77, 316, 92
-0.998472, 465, 169, 480, 200
-0.998473, 289, 149, 304, 180
-0.998476, 435, 173, 450, 204
-0.998479, 211, 173, 226, 204
-0.998498, 277, 209, 308, 272
-0.9985, 349, 161, 364, 192
-0.998501, 279, 173, 294, 204
-0.998503, 163, 141, 178, 172
-0.998506, 241, 257, 368, 320
-0.998506, 343, 137, 358, 168
-0.998508, 65, 185, 192, 216
-0.998518, 233, 185, 264, 248
-0.998528, 151, 161, 166, 192
-0.998532, 291, 173, 306, 204
-0.998532, 345, 113, 376, 176
-0.998533, 295, 193, 310, 224
-0.998535, 65, 221, 192, 252
-0.998535, 241, 209, 368, 240
-0.998535, 355, 161, 370, 192
-0.998538, 197, 165, 212, 196
-0.99854, 441, 173, 456, 204
-0.998542, 373, 149, 388, 180
-0.998546, 299, 117, 314, 148
-0.998549, 1, 189, 128, 220
-0.99855, 283, 157, 298, 188
-0.998552, 1, 119, 64, 134
-0.998553, 133, 173, 148, 204
-0.998553, 13, 193, 44, 256
-0.99856, 283, 193, 298, 224
-0.998571, 297, 137, 360, 152
-0.998574, 321, 145, 384, 160
-0.998576, 305, 205, 432, 236
-0.998585, 257, 79, 320, 94
-0.998591, 313, 153, 376, 168
-0.998593, 9, 113, 24, 144
-0.998596, 233, 157, 248, 188
-0.998599, 281, 149, 344, 164
-0.9986, 339, 161, 354, 192
-0.998603, 329, 177, 392, 192
-0.998604, 157, 161, 172, 192
-0.998605, 213, 193, 244, 320
-0.998606, 117, 113, 148, 176
-0.998607, 257, 151, 320, 166
-0.99861, 401, 189, 464, 204
-0.99861, 309, 193, 324, 224
-0.998611, 377, 189, 440, 204
-0.998611, 113, 143, 176, 158
-0.998612, 127, 173, 142, 204
-0.998613, 361, 159, 424, 174
-0.998613, 329, 137, 344, 168
-0.998613, 185, 133, 248, 148
-0.998614, 89, 65, 120, 320
-0.998614, 305, 183, 368, 198
-0.998614, 403, 185, 418, 216
-0.998614, 273, 135, 336, 150
-0.998616, 41, 127, 104, 142
-0.998617, 337, 153, 400, 168
-0.99862, 281, 79, 344, 94
-0.998623, 385, 167, 448, 182
-0.998625, 247, 157, 262, 188
-0.998625, 345, 187, 408, 202
-0.998626, 145, 153, 208, 168
-0.998627, 367, 161, 382, 192
-0.998629, 137, 173, 200, 188
-0.99863, 225, 235, 288, 250
-0.998635, 401, 183, 464, 198
-0.998636, 385, 161, 448, 176
-0.998637, 273, 175, 336, 190
-0.998637, 257, 91, 320, 106
-0.998638, 97, 177, 160, 192
-0.998639, 361, 153, 424, 168
-0.998639, 153, 167, 216, 182
-0.998642, 313, 159, 376, 174
-0.998643, 279, 133, 294, 164
-0.998645, 187, 165, 202, 196
-0.998645, 83, 125, 98, 156
-0.998646, 145, 137, 208, 152
-0.998647, 307, 85, 322, 116
-0.998647, 41, 117, 56, 148
-0.998649, 123, 137, 138, 168
-0.998649, 273, 143, 336, 158
-0.998649, 221, 97, 252, 224
-0.99865, 145, 147, 208, 162
-0.998653, 273, 167, 336, 182
-0.998653, 353, 25, 480, 88
-0.998654, 249, 237, 312, 252
-0.998656, 257, 157, 320, 172
-0.998657, 175, 173, 190, 204
-0.998658, 225, 105, 352, 136
-0.998658, 241, 133, 304, 148
-0.998658, 201, 159, 264, 174
-0.998661, 297, 169, 360, 184
-0.998662, 289, 155, 352, 170
-0.998662, 209, 201, 272, 216
-0.998662, 177, 167, 240, 182
-0.998663, 169, 157, 184, 188
-0.998663, 289, 189, 304, 220
-0.998664, 439, 189, 454, 220
-0.998664, 207, 149, 222, 180
-0.998666, 321, 205, 384, 220
-0.998666, 421, 169, 436, 200
-0.998667, 349, 137, 364, 168
-0.998667, 73, 135, 136, 150
-0.998669, 265, 85, 328, 100
-0.998669, 321, 189, 384, 204
-0.998669, 317, 177, 332, 208
-0.99867, 145, 161, 208, 176
-0.99867, 397, 185, 412, 216
-0.998671, 25, 117, 40, 148
-0.998672, 113, 183, 176, 198
-0.998673, 129, 227, 192, 242
-0.998673, 353, 177, 416, 192
-0.998674, 201, 127, 264, 142
-0.998674, 281, 95, 344, 110
-0.998675, 281, 187, 344, 202
-0.998676, 397, 153, 412, 184
-0.998677, 257, 57, 500, 120
-0.998678, 273, 239, 336, 254
-0.998678, 377, 185, 392, 216
-0.998679, 297, 205, 360, 220
-0.99868, 353, 171, 416, 186
-0.99868, 193, 175, 256, 190
-0.998682, 377, 173, 440, 188
-0.998683, 297, 143, 360, 158
-0.998684, 89, 129, 104, 160
-0.998684, 301, 233, 332, 296
-0.998685, 15, 113, 30, 144
-0.998686, 289, 161, 304, 192
-0.998687, 337, 159, 400, 174
-0.998687, 241, 169, 304, 184
-0.998687, 257, 97, 320, 112
-0.998688, 335, 177, 350, 208
-0.998688, 305, 177, 368, 192
-0.998691, 433, 175, 496, 190
-0.998691, 221, 161, 236, 192
-0.998691, 201, 233, 264, 248
-0.998692, 321, 139, 384, 154
-0.998693, 281, 101, 344, 116
-0.998693, 169, 173, 232, 188
-0.998693, 105, 199, 168, 214
-0.998694, 153, 179, 216, 194
-0.998694, 111, 137, 126, 168
-0.998695, 257, 73, 320, 88
-0.998695, 305, 195, 368, 210
-0.998696, 377, 179, 440, 194
-0.998697, 301, 81, 316, 112
-0.998697, 121, 157, 184, 172
-0.998697, 177, 229, 240, 244
-0.998697, 297, 131, 360, 146
-0.998698, 191, 129, 206, 160
-0.998698, 297, 85, 360, 100
-0.998698, 281, 181, 344, 196
-0.998699, 153, 227, 216, 242
-0.998699, 265, 127, 328, 142
-0.9987, 375, 161, 390, 192
-0.9987, 317, 189, 332, 220
-0.9987, 265, 207, 328, 222
-0.9987, 297, 241, 360, 256
-0.998701, 217, 185, 280, 200
-0.998702, 297, 73, 360, 88
-0.998702, 233, 97, 296, 112
-0.998702, 25, 121, 88, 136
-0.998702, 233, 149, 296, 164
-0.998702, 185, 199, 248, 214
-0.998702, 89, 141, 152, 156
-0.998704, 169, 141, 232, 156
-0.998704, 401, 247, 464, 262
-0.998706, 105, 225, 168, 240
-0.998706, 257, 185, 320, 200
-0.998707, 177, 183, 240, 198
-0.998707, 241, 105, 304, 120
-0.998708, 237, 173, 252, 204
-0.998712, 241, 111, 304, 126
-0.998714, 65, 129, 128, 144
-0.998714, 345, 145, 408, 160
-0.998714, 323, 133, 338, 164
-0.998714, 211, 161, 226, 192
-0.998715, 201, 165, 264, 180
-0.998716, 177, 159, 240, 174
-0.998716, 145, 233, 208, 248
-0.998716, 271, 189, 286, 220
-0.998717, 65, 201, 128, 216
-0.998718, 353, 221, 480, 252
-0.998719, 371, 185, 386, 216
-0.998719, 293, 117, 308, 148
-0.998719, 233, 207, 296, 222
-0.99872, 345, 209, 408, 224
-0.99872, 93, 65, 124, 192
-0.998721, 225, 123, 288, 138
-0.998721, 441, 145, 472, 208
-0.998721, 129, 201, 192, 216
-0.998722, 345, 195, 408, 210
-0.998722, 321, 211, 384, 226
-0.998723, 297, 211, 360, 226
-0.998724, 249, 201, 312, 216
-0.998724, 161, 203, 224, 218
-0.998724, 217, 133, 280, 148
-0.998725, 321, 245, 384, 260
-0.998726, 73, 207, 136, 222
-0.998727, 289, 201, 304, 232
-0.998728, 141, 173, 156, 204
-0.998729, 289, 161, 352, 176
-0.998729, 409, 217, 472, 232
-0.998729, 185, 193, 248, 208
-0.99873, 9, 199, 72, 214
-0.998733, 241, 143, 304, 158
-0.998735, 369, 211, 432, 226
-0.998735, 95, 133, 110, 164
-0.998735, 33, 201, 96, 216
-0.998735, 177, 127, 240, 142
-0.998735, 129, 167, 192, 182
-0.998736, 219, 173, 234, 204
-0.998737, 233, 155, 296, 170
-0.998738, 153, 173, 168, 204
-0.998738, 277, 193, 292, 224
-0.998738, 225, 241, 288, 256
-0.99874, 345, 245, 408, 260
-0.99874, 453, 145, 484, 208
-0.998741, 147, 173, 162, 204
-0.998741, 365, 185, 380, 216
-0.998743, 121, 151, 184, 166
-0.998744, 425, 187, 488, 202
-0.998744, 153, 185, 216, 200
-0.998744, 231, 173, 246, 204
-0.998745, 323, 177, 338, 208
-0.998745, 273, 73, 400, 104
-0.998745, 171, 145, 186, 176
-0.998747, 273, 173, 288, 204
-0.998753, 109, 173, 124, 204
-0.998755, 309, 97, 324, 128
-0.998757, 297, 149, 312, 180
-0.998766, 305, 33, 336, 288
-0.998766, 297, 169, 312, 200
-0.998785, 145, 49, 272, 176
-0.998797, 105, 81, 136, 208
-0.998801, 321, 65, 352, 320
-0.998805, 329, 49, 392, 176
-0.998815, 129, 65, 384, 128
-0.998815, 121, 65, 152, 320
-0.998827, 193, 209, 320, 240
-0.998832, 129, 209, 256, 240
-0.998872, 81, 237, 208, 268
-0.998881, 209, 69, 336, 100
-0.998886, 245, 65, 276, 320
-0.9989, 29, 89, 60, 152
-0.998921, 257, 33, 288, 160
-0.998937, 201, 65, 232, 320
-0.998957, 349, 65, 380, 320
-0.998987, 337, 129, 464, 160
-0.998998, 1, 113, 128, 144
-0.999004, 253, 193, 284, 320
-0.999035, 353, 141, 480, 172
-0.999036, 129, 217, 160, 280
-0.99907, 261, 209, 292, 272
-0.999083, 81, 113, 208, 144
-0.999127, 177, 85, 304, 116
-0.999133, 369, 253, 496, 284
-0.999156, 289, 113, 416, 144
-0.99916, 185, 241, 248, 304
-0.999179, 129, 265, 256, 328
-0.99918, 17, 89, 48, 152
-0.999181, 405, 177, 420, 304
-0.999186, 295, 65, 310, 192
-0.999192, 411, 145, 426, 272
-0.999205, 81, 209, 208, 240
-0.999211, 345, 177, 360, 304
-0.999217, 391, 145, 406, 272
-0.99922, 453, 161, 468, 288
-0.999232, 157, 145, 172, 272
-0.999233, 423, 177, 438, 304
-0.999236, 115, 129, 130, 256
-0.999238, 109, 113, 124, 240
-0.999242, 165, 145, 180, 272
-0.999249, 171, 145, 186, 272
-0.99925, 445, 177, 460, 304
-0.999255, 177, 33, 304, 96
-0.999258, 145, 241, 272, 272
-0.999269, 297, 17, 312, 144
-0.999272, 189, 65, 220, 320
-0.999273, 381, 145, 396, 272
-0.999277, 435, 161, 450, 288
-0.999281, 97, 113, 112, 240
-0.999282, 399, 177, 414, 304
-0.999283, 369, 249, 400, 312
-0.999285, 429, 65, 460, 320
-0.999285, 381, 249, 412, 312
-0.999286, 301, 65, 316, 192
-0.999286, 125, 129, 140, 256
-0.999289, 317, 81, 348, 144
-0.999291, 179, 145, 194, 272
-0.999301, 351, 145, 366, 272
-0.999302, 7, 97, 22, 224
-0.999305, 375, 145, 390, 272
-0.999309, 465, 161, 480, 288
-0.999315, 145, 121, 176, 184
-0.999316, 69, 97, 100, 160
-0.999317, 289, 101, 416, 132
-0.999321, 75, 113, 90, 240
-0.999325, 257, 61, 384, 92
-0.999329, 89, 113, 104, 240
-0.999334, 51, 113, 66, 240
-0.999334, 241, 81, 272, 144
-0.999334, 65, 113, 80, 240
-0.999335, 195, 161, 210, 288
-0.999341, 429, 177, 444, 304
-0.999344, 417, 145, 432, 272
-0.999345, 83, 113, 98, 240
-0.999345, 31, 113, 46, 240
-0.999347, 149, 129, 164, 256
-0.999357, 485, 145, 500, 272
-0.99936, 103, 113, 118, 240
-0.99936, 369, 145, 384, 272
-0.999361, 33, 161, 160, 192
-0.999362, 285, 145, 300, 272
-0.999363, 59, 113, 74, 240
-0.999365, 475, 161, 490, 288
-0.999366, 133, 129, 148, 256
-0.999368, 449, 65, 480, 320
-0.999374, 203, 161, 218, 288
-0.999376, 217, 65, 248, 320
-0.999377, 339, 177, 354, 304
-0.999381, 289, 81, 304, 208
-0.999384, 353, 197, 480, 228
-0.999384, 41, 97, 56, 224
-0.999384, 133, 65, 164, 320
-0.999388, 459, 161, 474, 288
-0.99939, 185, 145, 200, 272
-0.999399, 363, 145, 378, 272
-0.999401, 139, 129, 154, 256
-0.999405, 269, 185, 300, 248
-0.999412, 293, 145, 308, 272
-0.999416, 337, 113, 352, 240
-0.999416, 279, 145, 294, 272
-0.999423, 1, 97, 16, 224
-0.999423, 333, 65, 364, 320
-0.999429, 23, 97, 38, 224
-0.999441, 1, 201, 32, 264
-0.999441, 315, 145, 330, 272
-0.999442, 413, 193, 428, 320
-0.999444, 15, 97, 30, 224
-0.999445, 309, 145, 324, 272
-0.999445, 49, 81, 176, 144
-0.999449, 289, 253, 416, 284
-0.999449, 357, 145, 372, 272
-0.99945, 403, 113, 418, 240
-0.999452, 361, 121, 392, 184
-0.999459, 327, 177, 342, 304
-0.99946, 345, 129, 360, 256
-0.999471, 209, 245, 336, 276
-0.999472, 279, 97, 294, 224
-0.999473, 65, 65, 96, 192
-0.999489, 273, 145, 288, 272
-0.999498, 145, 65, 176, 320
-0.9995, 317, 81, 332, 208
-0.999507, 181, 173, 196, 188
-0.999507, 325, 159, 340, 174
-0.999507, 337, 197, 352, 212
-0.999507, 317, 103, 332, 118
-0.999507, 431, 163, 446, 178
-0.999507, 257, 133, 272, 148
-0.999508, 31, 123, 46, 138
-0.999508, 247, 199, 262, 214
-0.999509, 117, 141, 132, 156
-0.999509, 385, 157, 400, 172
-0.999509, 305, 17, 320, 144
-0.999509, 411, 169, 426, 184
-0.999509, 315, 187, 330, 202
-0.999509, 75, 127, 90, 142
-0.999509, 3, 119, 18, 134
-0.999509, 289, 167, 304, 182
-0.99951, 55, 127, 70, 142
-0.999511, 185, 135, 200, 150
-0.999511, 301, 91, 316, 106
-0.999511, 227, 125, 242, 140
-0.999512, 355, 177, 370, 192
-0.999512, 321, 137, 336, 152
-0.999512, 391, 193, 406, 320
-0.999512, 381, 177, 396, 192
-0.999513, 297, 135, 312, 150
-0.999513, 141, 173, 156, 188
-0.999513, 303, 129, 318, 144
-0.999513, 293, 153, 308, 168
-0.999514, 223, 193, 238, 208
-0.999514, 339, 147, 354, 162
-0.999515, 307, 97, 322, 112
-0.999515, 147, 173, 162, 188
-0.999515, 269, 205, 284, 220
-0.999515, 351, 193, 366, 320
-0.999515, 229, 145, 244, 272
-0.999516, 309, 191, 324, 206
-0.999517, 271, 149, 286, 164
-0.999517, 373, 157, 388, 172
-0.999518, 281, 167, 296, 182
-0.999518, 419, 189, 434, 204
-0.999519, 301, 187, 316, 202
-0.999519, 17, 177, 144, 208
-0.99952, 345, 199, 360, 214
-0.99952, 393, 169, 408, 184
-0.999521, 161, 105, 288, 136
-0.999522, 301, 149, 316, 164
-0.999523, 205, 159, 220, 174
-0.999523, 311, 181, 326, 196
-0.999523, 123, 177, 138, 192
-0.999523, 417, 167, 432, 182
-0.999524, 335, 189, 350, 204
-0.999525, 321, 147, 336, 162
-0.999526, 87, 129, 102, 144
-0.999526, 231, 201, 246, 216
-0.999526, 305, 157, 320, 172
-0.999526, 295, 201, 310, 216
-0.999527, 203, 131, 218, 146
-0.999527, 337, 203, 352, 218
-0.99953, 237, 201, 252, 216
-0.99953, 303, 135, 318, 150
-0.999531, 463, 173, 478, 188
-0.999531, 301, 201, 316, 216
-0.999531, 485, 171, 500, 186
-0.999533, 403, 159, 418, 174
-0.999533, 407, 189, 422, 204
-0.999533, 313, 159, 328, 174
-0.999534, 345, 155, 360, 170
-0.999534, 97, 135, 112, 150
-0.999535, 389, 187, 404, 202
-0.999535, 109, 179, 124, 194
-0.999536, 379, 153, 394, 168
-0.999536, 209, 145, 224, 272
-0.999536, 257, 225, 384, 256
-0.999536, 223, 199, 238, 214
-0.999536, 469, 65, 500, 320
-0.999538, 15, 117, 30, 132
-0.999539, 125, 141, 140, 156
-0.999539, 403, 167, 418, 182
-0.99954, 315, 135, 330, 150
-0.99954, 435, 185, 450, 200
-0.999541, 275, 205, 290, 220
-0.999542, 201, 175, 216, 190
-0.999543, 251, 145, 266, 272
-0.999544, 307, 83, 322, 98
-0.999544, 107, 137, 122, 152
-0.999545, 393, 159, 408, 174
-0.999546, 191, 113, 206, 240
-0.999546, 171, 149, 186, 164
-0.999547, 223, 145, 238, 272
-0.999547, 307, 205, 322, 220
-0.999547, 293, 77, 308, 92
-0.999548, 309, 135, 324, 150
-0.999548, 399, 189, 414, 204
-0.999548, 425, 189, 440, 204
-0.999549, 331, 183, 346, 198
-0.99955, 333, 177, 348, 304
-0.999551, 343, 187, 358, 202
-0.999551, 381, 193, 396, 320
-0.999553, 23, 117, 38, 132
-0.999553, 413, 189, 428, 204
-0.999553, 331, 137, 346, 152
-0.999554, 307, 81, 322, 208
-0.999554, 319, 159, 334, 174
-0.999554, 17, 145, 48, 272
-0.999555, 357, 155, 372, 170
-0.999556, 1, 297, 128, 328
-0.999556, 153, 145, 168, 160
-0.999556, 9, 117, 24, 132
-0.999556, 321, 161, 336, 288
-0.999557, 353, 189, 368, 204
-0.999557, 277, 149, 292, 164
-0.999558, 81, 125, 96, 140
-0.999558, 337, 137, 352, 152
-0.999559, 325, 181, 340, 196
-0.99956, 415, 161, 430, 176
-0.999561, 443, 183, 458, 198
-0.999561, 285, 149, 300, 164
-0.999563, 445, 189, 460, 204
-0.999565, 191, 135, 206, 150
-0.999566, 301, 145, 316, 272
-0.99957, 337, 153, 352, 168
-0.999571, 351, 153, 366, 168
-0.999572, 151, 157, 166, 172
-0.999574, 41, 121, 56, 136
-0.999574, 367, 155, 382, 170
-0.999576, 361, 149, 376, 164
-0.999577, 329, 153, 344, 168
-0.999579, 319, 153, 334, 168
-0.99958, 317, 181, 332, 196
-0.999581, 133, 173, 148, 188
-0.999582, 313, 153, 328, 168
-0.999582, 203, 97, 218, 224
-0.999582, 345, 193, 360, 208
-0.999583, 469, 173, 484, 188
-0.999585, 191, 179, 206, 194
-0.999585, 345, 139, 360, 154
-0.999585, 197, 131, 212, 146
-0.999591, 355, 145, 370, 160
-0.999593, 345, 149, 360, 164
-0.999593, 343, 205, 358, 220
-0.999594, 165, 233, 196, 296
-0.999595, 373, 151, 388, 166
-0.999595, 347, 177, 362, 192
-0.999597, 233, 65, 264, 320
-0.999597, 337, 183, 352, 198
-0.999602, 239, 145, 254, 272
-0.999603, 371, 193, 386, 320
-0.999608, 421, 161, 436, 176
-0.99961, 325, 113, 340, 240
-0.999611, 165, 209, 196, 272
-0.999613, 259, 145, 274, 272
-0.999614, 397, 129, 412, 256
-0.999616, 331, 113, 346, 240
-0.999617, 453, 177, 468, 192
-0.999619, 381, 97, 396, 224
-0.999619, 197, 113, 212, 240
-0.999621, 433, 193, 496, 256
-0.999622, 367, 149, 382, 164
-0.999623, 157, 155, 172, 170
-0.999624, 357, 193, 372, 320
-0.999625, 159, 147, 174, 162
-0.99963, 229, 193, 244, 320
-0.99963, 299, 77, 314, 92
-0.99963, 177, 65, 208, 320
-0.999636, 441, 129, 456, 256
-0.999641, 363, 193, 378, 320
-0.999642, 5, 89, 36, 152
-0.999643, 165, 149, 180, 164
-0.99965, 285, 33, 300, 160
-0.999651, 185, 193, 200, 320
-0.999654, 371, 97, 386, 224
-0.999656, 163, 97, 178, 224
-0.999659, 259, 97, 274, 224
-0.999666, 7, 177, 22, 304
-0.999669, 209, 221, 336, 252
-0.999671, 1, 177, 16, 304
-0.999674, 245, 145, 260, 272
-0.999677, 117, 81, 132, 208
-0.999678, 237, 193, 252, 320
-0.999679, 249, 97, 264, 224
-0.999685, 361, 217, 392, 280
-0.999685, 215, 145, 230, 272
-0.999686, 423, 113, 438, 240
-0.999688, 209, 97, 224, 224
-0.999691, 391, 97, 406, 224
-0.999691, 69, 177, 84, 304
-0.999695, 17, 213, 144, 244
-0.999697, 315, 193, 330, 320
-0.999697, 365, 97, 380, 224
-0.999699, 291, 17, 306, 144
-0.9997, 99, 193, 114, 320
-0.999701, 85, 177, 100, 304
-0.999701, 435, 113, 450, 240
-0.999701, 179, 193, 194, 320
-0.999702, 75, 177, 90, 304
-0.99971, 25, 257, 88, 320
-0.999717, 273, 97, 288, 224
-0.999718, 327, 65, 342, 192
-0.999723, 47, 193, 62, 320
-0.999723, 299, 193, 314, 320
-0.999725, 473, 113, 488, 240
-0.999727, 119, 177, 134, 304
-0.999728, 29, 65, 44, 192
-0.99973, 157, 97, 172, 224
-0.999731, 233, 97, 248, 224
-0.999732, 165, 33, 196, 288
-0.999733, 357, 97, 372, 224
-0.999738, 301, 33, 332, 96
-0.99974, 107, 161, 122, 288
-0.999741, 13, 49, 28, 176
-0.999741, 215, 97, 230, 224
-0.999744, 105, 65, 120, 192
-0.999766, 1, 257, 128, 288
-0.999776, 1, 101, 128, 132
-0.9998, 177, 265, 304, 328
-0.999818, 417, 65, 448, 320
-0.999819, 281, 193, 312, 320
-0.999827, 353, 65, 480, 192
-0.999838, 353, 1, 480, 128
-0.99984, 77, 65, 108, 192
-0.999842, 161, 73, 288, 104
-0.999843, 81, 293, 208, 324
-0.999846, 33, 233, 160, 264
-0.999848, 457, 113, 488, 240
-0.999854, 361, 65, 392, 320
-0.999875, 1, 265, 256, 328
-0.999893, 49, 273, 176, 304
-0.999902, 145, 177, 176, 304
-0.999912, 305, 229, 432, 260
-0.999919, 369, 265, 496, 328
-0.999922, 97, 41, 352, 104
-0.999967, 97, 257, 160, 320
-0.999977, 353, 21, 480, 52
-0.999979, 129, 193, 160, 320
-1, 81, 153, 144, 216
-1.00007, 405, 65, 436, 320
-1.00009, 305, 217, 432, 248
-1.00014, 209, 289, 336, 320
-1.00015, 49, 257, 176, 288
-1.00017, 177, 57, 304, 88
-1.00018, 373, 1, 404, 256
-1.00018, 129, 269, 256, 300
-1.00018, 353, 285, 480, 316
-1.00019, 1, 269, 128, 300
-1.0002, 1, 281, 128, 312
-1.00021, 161, 297, 288, 328
-1.00022, 257, 17, 384, 80
-1.00023, 225, 1, 480, 64
-1.00023, 273, 293, 400, 324
-1.00024, 17, 245, 144, 276
-1.00027, 73, 241, 136, 304
-1.00027, 353, 33, 480, 64
-1.00029, 337, 9, 464, 40
-1.0003, 321, 49, 448, 112
-1.00035, 305, 33, 432, 64
-1.00036, 113, 281, 240, 312
-1.00038, 369, 297, 496, 328
-1.00038, 393, 65, 424, 320
-1.00039, 209, 257, 336, 288
-1.00041, 377, 1, 440, 64
-1.00041, 1, 233, 500, 296
-1.00042, 161, 285, 288, 316
-1.00043, 73, 265, 136, 328
-1.00043, 225, 33, 480, 96
-1.00044, 1, 33, 128, 96
-1.00044, 33, 149, 160, 180
-1.00045, 129, 257, 256, 288
-1.00046, 305, 61, 432, 92
-1.00052, 241, 49, 368, 80
-1.00054, 353, 273, 480, 304
-1.00058, 305, 21, 432, 52
-1.00058, 81, 33, 208, 96
-1.00059, 289, 277, 416, 308
-1.00061, 265, 193, 296, 320
-1.00062, 305, 265, 432, 296
-1.00063, 241, 273, 368, 304
-1.00066, 65, 41, 192, 72
-1.00066, 257, 33, 384, 64
-1.00068, 321, 49, 448, 80
-1.00069, 321, 297, 448, 328
-1.00069, 289, 9, 416, 40
-1.0007, 209, 25, 336, 56
-1.00071, 17, 37, 144, 68
-1.00072, 161, 29, 288, 60
-1.00073, 129, 89, 256, 120
-1.00073, 241, 1, 368, 32
-1.00073, 113, 37, 240, 68
-1.00074, 321, 73, 448, 104
-1.00075, 257, 21, 384, 52
-1.00076, 337, 117, 464, 148
-1.00077, 97, 265, 352, 328
-1.00077, 65, 29, 192, 60
-1.00078, 193, 45, 320, 76
-1.0008, 369, 45, 496, 76
-1.0008, 1, 49, 128, 80
-1.00081, 1, 17, 128, 48
-1.00088, 169, 105, 232, 168
-1.00091, 193, 265, 448, 328
-1.00095, 1, 73, 256, 136
-1.00106, 1, 73, 128, 136
-1.00108, 1, 33, 256, 96
-1.00114, 353, 105, 480, 168
-1.00123, 129, 9, 384, 72
-1.00125, 129, 33, 256, 96
-1.00126, 49, 249, 112, 312
-1.00133, 33, 9, 160, 72
-1.00137, 209, 1, 336, 64
-1.00152, 1, 9, 256, 72
-1.00156, 1, 1, 500, 64
-1.00159, 81, 9, 208, 72
-1.00162, 321, 73, 448, 136
-1.00172, 225, 249, 288, 312
-1.00176, 245, 33, 276, 160
-1.00181, 225, 33, 288, 96
-1.0019, 269, 1, 300, 128
-1.002, 297, 9, 360, 72
-1.00207, 161, 9, 288, 72
-1.00208, 1, 257, 500, 320
-1.00209, 401, 17, 464, 80
-1.0021, 369, 49, 496, 112
-1.00224, 145, 1, 272, 128
-1.00227, 329, 97, 392, 160
-1.0023, 345, 49, 376, 176
-1.00232, 161, 257, 224, 320
-1.0024, 1, 49, 500, 112
-1.00242, 409, 257, 472, 320
-1.00242, 49, 57, 176, 120
-1.00242, 1, 73, 500, 136
-1.00242, 1, 25, 500, 88
-1.00248, 113, 57, 240, 120
-1.00255, 129, 265, 192, 328
-1.00262, 369, 73, 496, 136
-1.00262, 1, 145, 128, 208
-1.00267, 321, 33, 384, 96
-1.00277, 361, 105, 424, 168
-1.00299, 221, 33, 252, 160
-1.003, 233, 49, 264, 176
-1.00308, 1, 225, 64, 288
-1.0031, 185, 265, 248, 328
-1.00321, 313, 17, 344, 144
-1.00342, 49, 217, 112, 280
-1.00346, 209, 17, 272, 144
-1.00357, 25, 233, 88, 296
-1.0036, 29, 17, 60, 144
-1.00363, 353, 1, 416, 64
-1.00379, 17, 17, 144, 144
-1.00382, 305, 1, 368, 128
-1.00384, 377, 25, 440, 88
-1.00389, 329, 1, 392, 128
-1.00393, 1, 257, 64, 320
-1.00393, 109, 33, 140, 160
-1.00412, 89, 89, 152, 152
-1.00413, 325, 1, 356, 128
-1.00422, 189, 33, 220, 160
-1.00423, 113, 81, 240, 144
-1.00432, 377, 1, 440, 128
-1.00433, 329, 57, 392, 120
-1.00449, 329, 9, 392, 72
-1.00449, 353, 25, 416, 88
-1.00456, 357, 49, 388, 176
-1.00457, 209, 33, 240, 160
-1.00458, 337, 265, 400, 328
-1.00467, 313, 265, 376, 328
-1.0047, 249, 1, 312, 64
-1.00477, 273, 257, 336, 320
-1.00493, 425, 17, 488, 80
-1.00505, 357, 1, 388, 128
-1.00519, 49, 145, 112, 208
-1.00529, 201, 57, 264, 120
-1.00535, 401, 41, 464, 104
-1.0054, 381, 1, 412, 128
-1.00546, 385, 265, 448, 328
-1.00548, 369, 49, 400, 176
-1.00553, 249, 257, 312, 320
-1.00555, 405, 1, 436, 128
-1.00564, 105, 33, 168, 96
-1.00569, 153, 49, 184, 176
-1.00572, 369, 1, 400, 128
-1.00575, 393, 1, 424, 128
-1.00577, 45, 17, 76, 144
-1.00595, 177, 81, 240, 144
-1.00597, 25, 17, 88, 144
-1.00606, 25, 33, 88, 96
-1.00611, 353, 1, 416, 128
-1.00616, 97, 33, 160, 160
-1.00617, 469, 65, 500, 192
-1.00623, 417, 1, 448, 128
-1.00636, 337, 1, 368, 128
-1.00665, 177, 33, 208, 160
-1.00666, 433, 81, 464, 208
-1.00704, 169, 33, 232, 160
-1.00735, 429, 1, 460, 128
-1.00738, 393, 49, 424, 176
-1.00748, 381, 49, 412, 176
-1.00752, 141, 1, 172, 128
-1.00761, 233, 1, 264, 128
-1.0077, 401, 1, 464, 128
-1.00775, 421, 65, 452, 192
-1.00781, 121, 1, 152, 128
-1.00786, 369, 49, 432, 176
-1.0079, 157, 1, 188, 128
-1.00822, 57, 17, 88, 144
-1.00943, 145, 33, 208, 160
-1.01153, 425, 1, 488, 128
-1.01169, 121, 1, 184, 128
-1.01215, 433, 65, 496, 192
-1.01373, 65, 1, 128, 128
-1.01556, 393, 65, 456, 192
