1940
-0.475306, 1, 97, 500, 352
-0.552454, 193, 1, 448, 353
-0.561963, 1, 1, 500, 353
-0.594416, 1, 1, 500, 256
-0.657097, 225, 97, 480, 352
-0.697243, 97, 1, 352, 353
-0.738706, 1, 1, 256, 353
-0.797852, 129, 97, 384, 352
-0.811959, 33, 97, 288, 352
-0.832024, 161, 1, 416, 256
-0.869074, 305, 1, 432, 353
-0.874434, 337, 97, 464, 352
-0.883512, 289, 97, 416, 352
-0.889883, 353, 1, 480, 353
-0.896733, 225, 97, 352, 352
-0.899264, 257, 1, 384, 353
-0.903039, 1, 209, 500, 336
-0.906118, 193, 209, 448, 336
-0.906799, 1, 161, 500, 288
-0.908038, 257, 1, 500, 256
-0.912859, 129, 97, 256, 352
-0.915774, 193, 1, 320, 353
-0.91613, 113, 1, 240, 353
-0.917209, 225, 145, 480, 272
-0.919103, 1, 1, 256, 256
-0.919228, 33, 1, 160, 353
-0.922542, 273, 1, 400, 256
-0.92604, 337, 193, 400, 320
-0.928248, 273, 177, 400, 304
-0.928342, 313, 177, 376, 304
-0.930341, 177, 97, 304, 352
-0.930929, 273, 209, 336, 336
-0.932302, 65, 177, 320, 304
-0.93267, 1, 97, 500, 224
-0.934169, 225, 209, 352, 336
-0.93453, 305, 129, 432, 256
-0.93473, 33, 97, 160, 352
-0.935502, 209, 1, 336, 256
-0.938328, 369, 177, 432, 304
-0.941539, 321, 225, 448, 352
-0.942571, 353, 161, 480, 288
-0.944068, 321, 1, 448, 256
-0.944107, 297, 129, 360, 256
-0.9444, 1, 49, 500, 176
-0.944561, 65, 129, 320, 256
-0.944569, 345, 113, 408, 240
-0.944883, 361, 169, 424, 232
-0.945464, 361, 225, 424, 288
-0.945588, 273, 161, 336, 288
-0.945995, 313, 249, 376, 312
-0.946116, 225, 161, 352, 288
-0.947724, 337, 249, 400, 312
-0.947981, 81, 97, 208, 352
-0.948622, 193, 97, 448, 224
-0.948651, 313, 193, 376, 256
-0.949838, 369, 225, 496, 352
-0.950533, 377, 225, 440, 352
-0.951388, 281, 177, 344, 240
-0.951452, 273, 225, 400, 352
-0.951938, 113, 1, 240, 256
-0.952829, 361, 265, 424, 328
-0.953248, 1, 1, 128, 256
-0.953641, 369, 65, 432, 192
-0.953804, 337, 201, 400, 264
-0.955015, 129, 177, 256, 304
-0.955237, 321, 273, 384, 336
-0.955665, 369, 1, 496, 256
-0.955957, 393, 177, 456, 304
-0.95599, 225, 209, 288, 272
-0.95634, 265, 201, 328, 264
-0.956787, 313, 225, 376, 352
-0.956941, 177, 193, 304, 320
-0.958605, 1, 1, 500, 128
-0.958926, 305, 81, 432, 208
-0.959054, 337, 177, 400, 240
-0.959251, 329, 225, 392, 288
-0.959311, 225, 209, 288, 336
-0.961474, 321, 97, 384, 224
-0.961611, 97, 145, 160, 272
-0.962079, 161, 1, 288, 256
-0.962326, 65, 1, 192, 256
-0.962467, 353, 145, 416, 208
-0.962557, 369, 193, 432, 256
-0.962881, 345, 65, 408, 192
-0.963219, 281, 273, 344, 336
-0.96372, 273, 113, 336, 240
-0.964281, 177, 145, 304, 272
-0.964531, 313, 177, 344, 304
-0.964712, 337, 121, 400, 184
-0.96533, 289, 217, 352, 280
-0.965774, 305, 169, 368, 232
-0.965883, 353, 81, 480, 208
-0.965996, 217, 233, 280, 296
-0.966322, 313, 177, 344, 240
-0.966484, 65, 129, 192, 256
-0.966662, 425, 209, 488, 336
-0.966753, 365, 233, 396, 296
-0.966893, 365, 177, 396, 304
-0.966982, 249, 209, 312, 336
-0.967022, 369, 113, 432, 176
-0.967286, 81, 193, 208, 320
-0.967589, 225, 97, 352, 224
-0.967638, 393, 177, 424, 304
-0.967709, 333, 177, 364, 304
-0.967738, 257, 177, 320, 240
-0.967815, 349, 241, 380, 304
-0.968493, 321, 97, 384, 160
-0.968729, 113, 129, 240, 256
-0.969012, 305, 169, 432, 232
-0.969164, 381, 161, 412, 224
-0.969279, 393, 201, 456, 264
-0.969406, 377, 217, 408, 280
-0.969575, 353, 97, 416, 352
-0.969789, 113, 193, 176, 256
-0.970007, 417, 161, 480, 288
-0.97018, 361, 209, 392, 272
-0.970357, 401, 225, 464, 352
-0.970389, 369, 137, 400, 200
-0.970476, 305, 233, 432, 296
-0.970557, 373, 129, 404, 256
-0.970702, 369, 129, 432, 256
-0.971005, 329, 97, 392, 352
-0.971031, 129, 145, 192, 272
-0.971129, 249, 161, 312, 288
-0.971213, 57, 113, 120, 240
-0.971233, 193, 49, 448, 176
-0.971391, 17, 145, 144, 272
-0.971532, 273, 249, 336, 312
-0.971592, 257, 177, 384, 240
-0.971655, 325, 249, 356, 312
-0.971887, 329, 153, 392, 216
-0.971935, 377, 241, 408, 304
-0.972005, 381, 225, 412, 352
-0.972125, 381, 137, 412, 200
-0.972218, 209, 161, 272, 288
-0.972471, 409, 241, 472, 304
-0.97251, 325, 225, 356, 288
-0.973006, 233, 185, 296, 248
-0.973066, 385, 241, 448, 304
-0.973174, 381, 177, 412, 304
-0.973223, 345, 161, 376, 288
-0.973296, 433, 225, 496, 288
-0.97334, 321, 257, 448, 320
-0.973387, 297, 81, 360, 208
-0.973482, 273, 281, 400, 344
-0.973484, 393, 153, 456, 216
-0.973531, 337, 265, 368, 328
-0.973904, 193, 225, 256, 288
-0.973944, 89, 193, 152, 256
-0.974014, 281, 153, 344, 216
-0.974154, 329, 185, 360, 248
-0.974515, 353, 97, 384, 160
-0.974582, 145, 193, 208, 256
-0.974588, 349, 217, 380, 280
-0.974719, 337, 209, 464, 272
-0.974842, 361, 257, 392, 320
-0.974962, 365, 225, 396, 352
-0.975097, 289, 81, 352, 144
-0.975155, 225, 225, 256, 288
-0.975258, 337, 241, 368, 304
-0.975441, 97, 81, 352, 208
-0.975444, 345, 97, 408, 160
-0.975556, 353, 233, 480, 296
-0.975713, 257, 257, 384, 320
-0.975755, 353, 73, 416, 136
-0.975914, 305, 137, 432, 200
-0.976044, 89, 97, 152, 224
-0.976183, 169, 193, 232, 256
-0.976344, 365, 185, 396, 248
-0.97638, 257, 201, 384, 264
-0.976392, 353, 33, 480, 160
-0.976468, 301, 129, 332, 256
-0.97652, 57, 161, 120, 288
-0.97656, 241, 225, 272, 288
-0.976663, 389, 233, 420, 296
-0.976716, 353, 113, 384, 240
-0.976726, 209, 185, 272, 248
-0.97679, 357, 289, 388, 352
-0.976893, 113, 97, 176, 224
-0.976917, 325, 225, 356, 352
-0.977035, 325, 113, 356, 240
-0.977169, 161, 1, 416, 128
-0.977218, 301, 177, 332, 304
-0.97732, 177, 145, 240, 272
-0.977333, 345, 209, 376, 336
-0.977461, 117, 201, 148, 264
-0.978178, 289, 193, 320, 256
-0.978205, 261, 193, 292, 320
-0.978215, 373, 81, 404, 208
-0.978425, 97, 209, 224, 272
-0.978523, 305, 97, 368, 352
-0.978581, 313, 129, 344, 256
-0.978625, 257, 281, 320, 344
-0.978642, 257, 209, 288, 272
-0.978905, 273, 33, 400, 160
-0.97895, 341, 177, 372, 240
-0.978977, 65, 225, 320, 352
-0.979009, 269, 193, 300, 256
-0.979088, 301, 177, 332, 240
-0.979092, 313, 225, 344, 352
-0.979115, 105, 161, 168, 224
-0.979186, 321, 49, 384, 176
-0.979407, 377, 273, 408, 336
-0.979523, 385, 129, 416, 256
-0.979528, 257, 97, 384, 160
-0.979611, 153, 145, 216, 272
-0.979627, 213, 225, 244, 288
-0.979643, 313, 201, 344, 264
-0.979657, 369, 185, 496, 248
-0.979692, 273, 105, 336, 168
-0.979836, 341, 97, 372, 160
-0.97996, 97, 81, 224, 208
-0.979998, 281, 177, 312, 304
-0.980068, 89, 193, 152, 320
-0.980146, 65, 185, 128, 248
-0.980194, 369, 113, 400, 176
-0.980217, 305, 121, 368, 184
-0.980333, 193, 249, 256, 312
-0.98034, 177, 81, 304, 208
-0.980396, 409, 177, 440, 304
-0.980633, 397, 201, 428, 264
-0.980643, 209, 161, 336, 224
-0.980748, 393, 177, 424, 240
-0.980862, 313, 265, 344, 328
-0.981002, 393, 105, 456, 168
-0.981048, 257, 225, 384, 288
-0.981333, 357, 121, 388, 184
-0.981365, 113, 217, 176, 280
-0.981381, 201, 225, 264, 352
-0.981393, 377, 185, 408, 248
-0.981481, 249, 153, 312, 216
-0.981641, 393, 129, 456, 256
-0.981746, 265, 225, 328, 288
-0.981932, 381, 113, 412, 176
-0.981951, 249, 97, 312, 224
-0.981986, 305, 65, 432, 128
-0.98207, 257, 33, 320, 160
-0.982118, 245, 209, 276, 336
-0.98217, 209, 217, 336, 280
-0.982176, 145, 177, 176, 304
-0.982258, 209, 185, 336, 248
-0.98228, 1, 97, 128, 224
-0.982317, 337, 209, 368, 272
-0.982388, 393, 153, 424, 216
-0.98253, 33, 193, 160, 256
-0.982542, 345, 289, 408, 352
-0.982668, 233, 193, 264, 256
-0.982689, 209, 241, 336, 304
-0.982721, 449, 225, 480, 288
-0.982724, 349, 265, 380, 328
-0.982793, 161, 193, 288, 256
-0.982895, 325, 161, 356, 224
-0.982927, 253, 185, 284, 248
-0.983127, 401, 81, 464, 144
-0.983134, 361, 161, 392, 224
-0.983143, 33, 193, 160, 320
-0.983164, 273, 97, 336, 352
-0.983182, 105, 193, 136, 256
-0.983188, 337, 97, 464, 160
-0.983294, 57, 161, 120, 224
-0.983366, 269, 169, 300, 232
-0.983448, 153, 97, 216, 224
-0.983483, 113, 185, 240, 248
-0.983505, 313, 233, 344, 296
-0.983547, 81, 225, 144, 288
-0.983626, 289, 129, 320, 256
-0.983666, 393, 129, 424, 192
-0.983694, 377, 65, 408, 128
-0.983963, 393, 129, 456, 192
-0.984371, 393, 225, 424, 352
-0.984412, 217, 97, 280, 224
-0.984487, 41, 129, 104, 192
-0.98452, 313, 73, 376, 136
-0.984522, 345, 153, 376, 216
-0.984523, 377, 57, 440, 120
-0.984549, 465, 217, 496, 280
-0.98478, 269, 281, 300, 344
-0.984823, 281, 289, 312, 352
-0.984844, 201, 225, 232, 288
-0.984844, 161, 241, 288, 304
-0.98502, 269, 249, 300, 312
-0.985148, 353, 185, 384, 248
-0.985186, 425, 81, 488, 144
-0.985198, 249, 257, 312, 320
-0.985269, 121, 121, 184, 184
-0.985419, 1, 81, 256, 208
-0.985436, 129, 169, 192, 232
-0.985476, 445, 161, 476, 288
-0.985574, 401, 97, 464, 352
-0.985582, 325, 273, 356, 336
-0.985585, 353, 17, 416, 144
-0.985637, 49, 105, 112, 168
-0.985662, 1, 129, 64, 192
-0.985673, 329, 97, 360, 160
-0.985697, 385, 65, 416, 192
-0.985704, 181, 185, 212, 248
-0.985791, 433, 177, 496, 240
-0.985791, 233, 281, 296, 344
-0.985799, 301, 201, 332, 264
-0.985881, 413, 129, 444, 256
-0.985972, 353, 129, 480, 192
-0.985989, 377, 97, 440, 352
-0.986005, 133, 209, 164, 272
-0.986013, 257, 121, 384, 184
-0.98602, 145, 129, 176, 256
-0.98609, 457, 209, 488, 336
-0.986105, 25, 193, 88, 320
-0.986137, 225, 153, 288, 216
-0.986147, 89, 121, 152, 184
-0.986177, 401, 249, 432, 312
-0.986251, 225, 97, 288, 352
-0.986273, 97, 153, 224, 216
-0.986284, 221, 201, 252, 264
-0.986334, 305, 145, 368, 208
-0.986357, 169, 225, 232, 288
-0.98643, 221, 249, 252, 312
-0.986463, 117, 145, 148, 272
-0.986473, 345, 1, 408, 353
-0.986506, 305, 1, 368, 353
-0.986509, 213, 177, 244, 240
-0.986583, 1, 97, 64, 160
-0.986683, 281, 169, 312, 232
-0.986702, 353, 153, 480, 216
-0.986793, 257, 153, 288, 216
-0.986794, 257, 289, 288, 352
-0.986803, 257, 145, 384, 208
-0.986821, 241, 161, 272, 288
-0.986839, 405, 225, 436, 352
-0.986888, 413, 241, 444, 304
-0.986982, 405, 153, 436, 216
-0.987019, 33, 81, 96, 144
-0.987044, 261, 145, 292, 272
-0.987045, 169, 193, 232, 320
-0.987047, 305, 81, 336, 208
-0.987054, 301, 153, 332, 216
-0.987073, 49, 81, 176, 208
-0.987108, 177, 169, 240, 232
-0.987176, 121, 193, 184, 320
-0.987183, 445, 209, 476, 336
-0.987219, 289, 57, 352, 120
-0.987275, 249, 65, 312, 128
-0.987307, 145, 121, 208, 184
-0.9874, 361, 49, 392, 176
-0.98744, 369, 257, 496, 320
-0.987444, 185, 81, 248, 208
-0.987497, 225, 49, 352, 176
-0.987504, 369, 241, 432, 272
-0.987504, 133, 193, 164, 320
-0.98754, 393, 33, 456, 160
-0.987557, 213, 145, 244, 272
-0.987561, 17, 169, 144, 232
-0.987562, 401, 177, 464, 240
-0.987587, 353, 65, 480, 128
-0.9876, 249, 97, 312, 160
-0.987638, 429, 241, 460, 304
-0.987661, 81, 153, 144, 216
-0.987696, 433, 177, 464, 304
-0.987733, 353, 253, 416, 284
-0.987786, 193, 193, 224, 256
-0.987804, 265, 205, 328, 236
-0.987806, 25, 97, 88, 224
-0.98782, 17, 145, 80, 272
-0.987825, 145, 89, 208, 152
-0.987858, 297, 225, 328, 352
-0.98786, 329, 265, 392, 296
-0.98788, 337, 229, 400, 260
-0.987884, 225, 73, 352, 136
-0.987989, 161, 169, 288, 232
-0.98799, 145, 193, 208, 320
-0.987994, 341, 113, 372, 240
-0.988012, 65, 17, 320, 144
-0.988074, 321, 181, 384, 212
-0.98808, 113, 233, 240, 296
-0.988181, 209, 265, 336, 328
-0.988185, 313, 277, 376, 308
-0.988193, 161, 145, 224, 208
-0.988212, 385, 1, 448, 353
-0.988267, 401, 225, 432, 288
-0.988329, 205, 201, 236, 264
-0.988336, 269, 217, 300, 280
-0.988358, 353, 177, 416, 208
-0.988358, 421, 177, 452, 304
-0.988367, 389, 257, 420, 320
-0.988431, 129, 225, 256, 352
-0.988482, 365, 73, 396, 136
-0.9885, 73, 81, 136, 144
-0.988578, 461, 145, 492, 272
-0.988599, 361, 229, 424, 260
-0.988604, 153, 169, 216, 232
-0.988607, 389, 65, 420, 128
-0.988664, 329, 245, 392, 276
-0.988728, 1, 153, 64, 216
-0.988771, 201, 161, 264, 224
-0.988775, 169, 105, 232, 168
-0.988864, 313, 213, 376, 244
-0.989002, 337, 217, 400, 248
-0.989025, 425, 97, 488, 352
-0.989028, 217, 129, 280, 192
-0.989033, 313, 225, 376, 256
-0.98906, 397, 97, 428, 224
-0.989082, 353, 281, 480, 344
-0.989089, 185, 97, 248, 352
-0.98909, 377, 81, 440, 144
-0.989119, 161, 129, 192, 256
-0.989138, 209, 137, 336, 200
-0.98914, 297, 265, 360, 296
-0.989165, 105, 233, 136, 296
-0.989167, 361, 189, 424, 220
-0.989192, 433, 225, 464, 352
-0.989217, 353, 165, 416, 196
-0.989217, 33, 153, 96, 216
-0.989229, 405, 105, 436, 168
-0.989229, 241, 233, 304, 296
-0.989236, 405, 129, 436, 192
-0.989269, 193, 233, 256, 264
-0.98928, 353, 201, 416, 232
-0.989335, 297, 197, 360, 228
-0.989382, 225, 177, 256, 304
-0.989394, 57, 65, 120, 192
-0.989444, 301, 105, 332, 168
-0.989517, 169, 193, 200, 256
-0.989536, 201, 177, 232, 304
-0.989542, 297, 177, 360, 208
-0.989552, 257, 189, 320, 220
-0.98964, 265, 129, 328, 192
-0.98966, 417, 81, 480, 208
-0.989704, 33, 217, 160, 280
-0.989721, 225, 257, 288, 320
-0.989734, 233, 221, 296, 252
-0.989745, 129, 145, 160, 272
-0.98978, 129, 197, 192, 228
-0.989808, 209, 105, 336, 168
-0.989829, 409, 177, 440, 240
-0.989873, 249, 65, 312, 320
-0.989875, 257, 1, 500, 128
-0.989915, 289, 1, 352, 256
-0.989929, 97, 129, 224, 192
-0.989938, 189, 129, 220, 256
-0.989945, 337, 73, 368, 136
-0.990015, 225, 209, 480, 272
-0.990035, 377, 169, 440, 200
-0.990049, 281, 1, 344, 353
-0.990049, 401, 245, 464, 276
-0.990061, 305, 105, 368, 136
-0.990096, 129, 97, 192, 352
-0.990111, 105, 145, 136, 272
-0.990113, 377, 89, 408, 152
-0.990114, 293, 81, 324, 208
-0.990117, 169, 81, 232, 144
-0.990117, 225, 233, 480, 296
-0.990151, 281, 277, 344, 308
-0.990175, 329, 297, 392, 328
-0.990218, 233, 49, 296, 176
-0.990265, 373, 33, 404, 160
-0.99027, 145, 129, 272, 192
-0.990274, 209, 105, 272, 168
-0.990274, 65, 129, 128, 192
-0.990289, 393, 105, 424, 168
-0.99029, 353, 153, 416, 184
-0.990324, 33, 121, 160, 184
-0.990337, 117, 177, 148, 240
-0.990348, 149, 193, 180, 256
-0.99037, 329, 1, 392, 128
-0.990374, 1, 97, 64, 224
-0.990376, 321, 137, 352, 200
-0.990381, 249, 265, 280, 328
-0.990405, 289, 33, 352, 160
-0.990411, 241, 209, 304, 240
-0.990455, 361, 137, 424, 168
-0.990458, 337, 133, 400, 164
-0.990528, 17, 153, 48, 216
-0.990548, 273, 217, 336, 248
-0.99056, 297, 237, 360, 268
-0.990637, 233, 189, 296, 220
-0.990639, 1, 73, 64, 136
-0.990657, 297, 81, 328, 144
-0.990674, 377, 157, 440, 188
-0.990702, 273, 41, 400, 104
-0.990714, 385, 181, 448, 212
-0.990727, 361, 213, 424, 244
-0.990757, 233, 233, 296, 264
-0.990766, 277, 113, 308, 240
-0.990806, 321, 193, 384, 224
-0.990846, 105, 197, 168, 228
-0.990858, 85, 113, 116, 240
-0.990864, 97, 97, 160, 352
-0.990874, 353, 273, 416, 304
-0.990876, 361, 125, 424, 156
-0.990878, 377, 61, 440, 92
-0.990895, 281, 105, 344, 136
-0.990897, 297, 249, 360, 280
-0.990903, 17, 33, 144, 160
-0.990913, 289, 265, 320, 328
-0.990921, 469, 209, 500, 336
-0.990933, 265, 177, 328, 208
-0.990943, 201, 221, 264, 252
-0.990975, 169, 193, 232, 224
-0.991001, 329, 117, 392, 148
-0.991016, 273, 225, 304, 352
-0.991056, 321, 169, 384, 200
-0.991057, 161, 1, 224, 353
-0.991065, 313, 1, 376, 256
-0.991096, 177, 33, 304, 160
-0.991111, 409, 1, 472, 353
-0.991118, 345, 73, 408, 104
-0.991152, 369, 73, 432, 104
-0.991181, 329, 101, 392, 132
-0.991184, 217, 245, 280, 276
-0.991188, 289, 93, 352, 124
-0.991217, 393, 233, 456, 264
-0.991227, 97, 33, 224, 160
-0.991263, 25, 105, 88, 168
-0.991267, 93, 185, 124, 248
-0.991291, 353, 85, 416, 116
-0.991325, 273, 233, 336, 264
-0.991326, 393, 81, 456, 208
-0.991408, 257, 97, 320, 128
-0.99141, 205, 249, 236, 312
-0.991421, 241, 293, 304, 324
-0.991434, 257, 281, 320, 312
-0.991436, 289, 289, 352, 320
-0.991466, 377, 201, 440, 232
-0.991466, 385, 141, 448, 172
-0.991489, 265, 301, 328, 332
-0.99149, 193, 249, 256, 280
-0.991514, 257, 269, 320, 300
-0.991521, 377, 253, 440, 284
-0.991534, 73, 193, 136, 224
-0.991586, 129, 169, 384, 232
-0.991608, 361, 109, 424, 140
-0.991618, 169, 237, 232, 268
-0.991625, 97, 185, 160, 216
-0.991645, 301, 265, 332, 328
-0.991659, 361, 285, 424, 316
-0.991688, 217, 209, 280, 240
-0.991702, 105, 89, 168, 152
-0.991749, 241, 129, 304, 192
-0.991763, 253, 129, 284, 192
-0.991764, 161, 65, 224, 320
-0.991769, 273, 245, 336, 276
-0.991778, 145, 97, 272, 160
-0.991784, 117, 121, 148, 184
-0.991784, 289, 117, 352, 148
-0.991794, 341, 121, 372, 184
-0.991817, 393, 221, 456, 252
-0.991831, 97, 97, 128, 224
-0.991846, 133, 177, 164, 240
-0.991853, 385, 125, 448, 156
-0.991861, 97, 209, 160, 240
-0.991867, 285, 197, 316, 228
-0.991884, 105, 193, 136, 320
-0.991891, 417, 153, 480, 216
-0.991908, 257, 109, 320, 140
-0.991913, 369, 289, 432, 352
-0.991916, 345, 253, 376, 284
-0.991943, 425, 237, 488, 268
-0.991949, 193, 129, 448, 192
-0.99195, 385, 85, 448, 116
-0.991952, 417, 225, 448, 352
-0.991954, 357, 241, 388, 272
-0.991958, 317, 269, 348, 300
-0.991972, 385, 113, 448, 144
-0.991992, 129, 145, 192, 208
-0.99201, 49, 241, 176, 304
-0.99202, 375, 233, 390, 296
-0.992048, 353, 1, 416, 256
-0.99205, 185, 149, 248, 180
-0.992055, 313, 81, 344, 144
-0.992055, 385, 265, 448, 328
-0.992063, 249, 245, 312, 276
-0.992065, 297, 165, 360, 196
-0.992066, 401, 161, 464, 192
-0.992073, 377, 225, 408, 256
-0.99208, 241, 313, 304, 344
-0.992088, 221, 153, 252, 216
-0.992097, 329, 261, 360, 292
-0.992146, 145, 185, 208, 216
-0.992156, 371, 177, 386, 240
-0.992158, 105, 169, 136, 232
-0.992167, 361, 97, 424, 128
-0.992168, 381, 177, 412, 208
-0.992171, 97, 129, 128, 192
-0.992172, 361, 285, 392, 316
-0.992175, 337, 49, 400, 112
-0.992182, 313, 89, 376, 120
-0.992184, 201, 189, 264, 220
-0.992192, 305, 321, 368, 352
-0.992193, 361, 313, 424, 344
-0.9922, 401, 193, 464, 224
-0.992206, 345, 61, 408, 92
-0.992207, 241, 221, 272, 252
-0.992207, 361, 185, 392, 216
-0.992211, 313, 185, 344, 216
-0.992218, 341, 277, 372, 308
-0.992222, 265, 189, 296, 220
-0.992223, 297, 193, 328, 224
-0.992233, 205, 225, 236, 352
-0.992246, 365, 221, 396, 252
-0.992262, 153, 205, 216, 236
-0.992265, 161, 217, 288, 280
-0.992272, 37, 153, 68, 216
-0.992275, 353, 173, 384, 204
-0.992281, 337, 285, 400, 316
-0.992299, 333, 241, 364, 272
-0.992305, 129, 213, 192, 244
-0.992312, 369, 165, 400, 196
-0.992318, 357, 265, 388, 296
-0.992319, 145, 137, 208, 168
-0.992331, 129, 149, 192, 180
-0.992332, 385, 265, 448, 296
-0.992339, 433, 201, 496, 264
-0.992343, 265, 209, 296, 240
-0.992346, 345, 265, 376, 296
-0.992348, 377, 249, 408, 280
-0.992348, 317, 205, 348, 236
-0.992349, 329, 157, 392, 188
-0.992355, 221, 229, 252, 260
-0.992365, 161, 193, 192, 320
-0.992366, 313, 133, 376, 164
-0.992375, 153, 129, 184, 192
-0.992379, 205, 233, 236, 264
-0.992383, 345, 225, 376, 256
-0.992384, 327, 249, 342, 312
-0.992392, 329, 309, 392, 340
-0.992401, 369, 237, 400, 268
-0.992412, 341, 181, 372, 212
-0.992414, 365, 129, 396, 160
-0.992422, 33, 145, 160, 208
-0.992423, 357, 297, 388, 328
-0.992434, 305, 273, 336, 304
-0.992438, 185, 129, 248, 192
-0.992446, 325, 229, 356, 260
-0.992449, 381, 161, 412, 192
-0.992449, 301, 177, 332, 208
-0.99245, 357, 201, 388, 232
-0.992454, 265, 257, 328, 288
-0.992458, 81, 161, 144, 192
-0.992465, 65, 181, 128, 212
-0.992474, 325, 181, 356, 212
-0.992477, 285, 185, 316, 216
-0.99248, 361, 113, 392, 144
-0.992486, 1, 117, 64, 148
-0.992489, 113, 161, 176, 192
-0.99249, 253, 213, 284, 244
-0.992505, 433, 1, 496, 353
-0.992505, 353, 297, 416, 328
-0.992518, 305, 265, 432, 296
-0.99252, 305, 213, 336, 244
-0.992526, 381, 237, 412, 268
-0.992536, 57, 169, 120, 200
-0.992538, 377, 213, 408, 244
-0.992539, 381, 189, 412, 220
-0.992541, 17, 177, 80, 240
-0.992542, 265, 165, 328, 196
-0.992548, 409, 81, 440, 144
-0.992564, 73, 113, 104, 240
-0.992564, 385, 69, 416, 100
-0.992568, 329, 145, 392, 176
-0.992568, 357, 253, 388, 284
-0.992573, 397, 241, 428, 272
-0.992578, 193, 209, 256, 240
-0.992588, 225, 173, 288, 204
-0.992606, 117, 201, 148, 232
-0.99261, 65, 89, 192, 152
-0.992611, 281, 321, 344, 352
-0.992614, 337, 213, 368, 244
-0.992618, 393, 189, 424, 220
-0.992628, 277, 209, 308, 240
-0.992631, 393, 177, 424, 208
-0.992634, 433, 141, 496, 172
-0.99264, 321, 217, 352, 248
-0.992641, 341, 97, 372, 128
-0.992641, 129, 201, 384, 264
-0.992644, 145, 197, 176, 228
-0.992645, 177, 117, 240, 148
-0.992647, 293, 209, 324, 240
-0.992647, 321, 253, 448, 284
-0.99266, 421, 105, 452, 168
-0.99268, 369, 141, 400, 172
-0.992687, 393, 165, 424, 196
-0.992693, 381, 217, 396, 280
-0.992696, 437, 137, 468, 200
-0.992701, 225, 257, 288, 288
-0.992703, 201, 129, 264, 160
-0.992704, 345, 241, 376, 272
-0.992709, 329, 201, 360, 232
-0.992713, 217, 241, 248, 272
-0.992714, 321, 169, 352, 200
-0.992715, 257, 185, 500, 248
-0.992715, 1, 97, 64, 128
-0.992715, 409, 121, 472, 152
-0.992747, 297, 145, 360, 176
-0.992747, 97, 173, 160, 204
-0.992749, 417, 101, 480, 132
-0.992756, 257, 225, 288, 256
-0.992759, 351, 233, 366, 296
-0.99276, 41, 57, 104, 120
-0.992771, 161, 149, 224, 180
-0.992775, 225, 121, 288, 152
-0.992778, 289, 193, 416, 224
-0.992787, 241, 237, 272, 268
-0.992791, 353, 125, 384, 156
-0.992794, 25, 97, 88, 128
-0.992805, 381, 125, 412, 156
-0.99281, 313, 229, 344, 260
-0.992813, 157, 197, 188, 228
-0.992813, 201, 129, 232, 256
-0.99282, 253, 197, 284, 228
-0.992824, 373, 209, 388, 272
-0.992826, 133, 201, 164, 232
-0.992827, 341, 193, 372, 224
-0.992845, 329, 273, 360, 304
-0.992846, 101, 189, 132, 220
-0.992863, 21, 121, 52, 184
-0.992863, 81, 153, 112, 216
-0.992876, 273, 177, 304, 208
-0.99288, 177, 113, 208, 240
-0.992883, 349, 213, 380, 244
-0.992888, 381, 149, 412, 180
-0.992893, 261, 293, 292, 324
-0.992898, 229, 217, 260, 248
-0.992903, 369, 197, 400, 228
-0.992905, 465, 217, 496, 248
-0.992909, 373, 69, 404, 100
-0.99292, 193, 193, 224, 224
-0.992924, 331, 217, 346, 280
-0.992928, 369, 153, 400, 184
-0.992936, 357, 101, 388, 132
-0.992936, 413, 249, 444, 280
-0.992942, 177, 189, 208, 220
-0.992943, 225, 1, 288, 128
-0.992952, 449, 201, 480, 264
-0.992955, 381, 201, 412, 232
-0.992956, 65, 209, 128, 336
-0.992958, 293, 97, 324, 128
-0.992961, 405, 193, 436, 224
-0.992961, 393, 265, 424, 296
-0.992963, 389, 225, 420, 256
-0.992974, 269, 245, 300, 276
-0.992978, 445, 233, 476, 264
-0.99298, 377, 277, 408, 308
-0.992983, 321, 241, 352, 272
-0.992987, 221, 253, 252, 284
-0.992991, 301, 285, 332, 316
-0.992991, 105, 205, 136, 236
-0.992991, 349, 113, 380, 144
-0.992993, 345, 161, 376, 192
-0.99301, 381, 137, 412, 168
-0.993011, 289, 285, 320, 316
-0.993011, 181, 209, 212, 272
-0.993017, 373, 261, 404, 292
-0.993024, 317, 253, 348, 284
-0.993034, 373, 113, 404, 144
-0.993037, 317, 281, 348, 312
-0.993038, 269, 281, 300, 312
-0.993038, 393, 149, 424, 180
-0.993043, 273, 293, 304, 324
-0.993058, 241, 209, 272, 240
-0.993069, 289, 269, 320, 300
-0.99307, 229, 241, 260, 272
-0.993074, 377, 85, 408, 116
-0.993076, 205, 245, 236, 276
-0.99308, 333, 169, 364, 200
-0.993089, 301, 261, 332, 292
-0.993091, 253, 185, 284, 216
-0.993105, 333, 121, 364, 152
-0.993112, 305, 101, 336, 132
-0.993126, 305, 165, 336, 196
-0.993126, 389, 213, 420, 244
-0.993136, 363, 257, 378, 320
-0.993137, 425, 121, 488, 184
-0.993149, 405, 177, 436, 208
-0.993155, 389, 81, 420, 112
-0.993155, 41, 129, 72, 192
-0.993158, 457, 229, 488, 260
-0.993167, 253, 237, 284, 268
-0.993173, 249, 173, 280, 204
-0.99318, 269, 233, 300, 264
-0.993181, 189, 149, 220, 180
-0.993183, 293, 109, 324, 140
-0.99319, 289, 173, 320, 204
-0.993194, 405, 165, 436, 196
-0.993197, 193, 229, 320, 260
-0.993229, 389, 241, 404, 304
-0.99323, 57, 217, 120, 280
-0.993233, 33, 201, 288, 264
-0.993234, 429, 209, 460, 272
-0.993245, 9, 49, 72, 112
-0.993254, 369, 41, 496, 104
-0.993263, 13, 177, 44, 240
-0.993297, 337, 193, 352, 256
-0.993309, 17, 65, 144, 128
-0.993312, 345, 289, 376, 352
-0.993334, 177, 65, 304, 128
-0.993358, 429, 97, 460, 224
-0.993365, 81, 57, 208, 120
-0.993431, 97, 65, 160, 128
-0.993433, 367, 209, 382, 272
-0.993456, 305, 289, 336, 352
-0.993479, 225, 153, 480, 216
-0.993498, 341, 257, 356, 320
-0.993502, 193, 273, 448, 336
-0.99353, 201, 81, 264, 144
-0.993553, 379, 145, 394, 208
-0.993571, 1, 241, 500, 304
-0.993577, 225, 1, 352, 128
-0.993582, 153, 49, 216, 176
-0.993591, 193, 289, 320, 352
-0.993598, 129, 97, 160, 224
-0.993605, 181, 177, 212, 304
-0.993605, 245, 161, 276, 224
-0.993622, 1, 153, 32, 216
-0.993642, 345, 177, 360, 240
-0.993644, 365, 185, 380, 248
-0.993646, 105, 1, 168, 353
-0.993658, 241, 217, 368, 248
-0.993679, 193, 161, 224, 224
-0.993682, 413, 217, 444, 280
-0.993682, 325, 177, 340, 240
-0.99369, 429, 161, 460, 224
-0.99373, 289, 277, 416, 308
-0.993732, 129, 121, 160, 184
-0.993732, 37, 177, 68, 240
-0.993775, 361, 233, 376, 296
-0.99382, 385, 129, 400, 192
-0.993828, 371, 257, 386, 320
-0.993837, 161, 265, 288, 328
-0.993838, 333, 241, 348, 304
-0.99384, 289, 173, 416, 204
-0.993886, 249, 1, 312, 353
-0.99389, 337, 233, 464, 264
-0.993943, 105, 49, 168, 176
-0.993955, 241, 197, 368, 228
-0.993972, 377, 185, 392, 248
-0.994065, 349, 65, 380, 192
-0.994087, 129, 57, 192, 120
-0.994089, 193, 41, 320, 104
-0.994094, 273, 65, 304, 192
-0.994111, 225, 225, 256, 352
-0.994118, 383, 241, 398, 304
-0.994121, 193, 1, 256, 353
-0.994132, 361, 105, 376, 168
-0.994139, 359, 201, 374, 264
-0.994161, 377, 113, 392, 176
-0.994173, 49, 129, 80, 256
-0.994202, 393, 153, 408, 216
-0.994209, 241, 261, 368, 292
-0.994248, 49, 1, 112, 353
-0.994277, 319, 177, 334, 240
-0.994297, 333, 265, 348, 328
-0.994307, 395, 233, 410, 296
-0.994312, 1, 97, 128, 160
-0.994327, 347, 265, 362, 328
-0.994342, 405, 169, 420, 232
-0.994482, 233, 217, 248, 280
-0.994504, 385, 153, 400, 216
-0.994517, 273, 289, 400, 320
-0.994518, 1, 217, 500, 280
-0.994548, 343, 225, 358, 288
-0.994573, 373, 281, 388, 344
-0.994636, 125, 193, 140, 256
-0.994639, 399, 153, 414, 216
-0.994681, 177, 189, 304, 220
-0.994689, 381, 273, 396, 336
-0.994703, 305, 177, 320, 240
-0.994753, 385, 17, 416, 144
-0.994765, 197, 65, 228, 192
-0.994782, 331, 193, 346, 256
-0.994799, 241, 181, 368, 212
-0.994803, 129, 225, 384, 288
-0.994818, 289, 205, 416, 236
-0.994825, 129, 249, 384, 312
-0.994828, 351, 97, 366, 160
-0.994835, 325, 201, 340, 264
-0.994836, 193, 105, 448, 168
-0.994847, 371, 121, 386, 184
-0.994853, 389, 217, 404, 280
-0.994865, 217, 57, 280, 120
-0.994886, 225, 225, 240, 288
-0.994891, 61, 145, 92, 272
-0.994904, 349, 209, 364, 272
-0.994912, 257, 41, 320, 104
-0.994921, 369, 233, 384, 296
-0.994948, 1, 33, 128, 96
-0.994964, 357, 257, 372, 320
-0.994976, 365, 281, 380, 344
-0.99498, 115, 201, 130, 264
-0.994986, 257, 233, 384, 264
-0.995011, 49, 65, 112, 320
-0.995035, 289, 133, 416, 164
-0.995036, 105, 241, 168, 304
-0.995102, 215, 225, 230, 288
-0.995114, 17, 49, 80, 176
-0.995136, 9, 65, 72, 320
-0.995144, 129, 49, 256, 112
-0.995168, 225, 129, 256, 256
-0.995177, 117, 97, 148, 224
-0.995195, 351, 169, 366, 232
-0.995201, 407, 193, 422, 256
-0.995217, 353, 9, 480, 72
-0.99525, 89, 161, 120, 288
-0.995286, 453, 225, 468, 288
-0.995308, 283, 193, 298, 256
-0.995317, 395, 129, 410, 192
-0.995354, 337, 177, 464, 208
-0.995383, 241, 169, 368, 200
-0.995384, 1, 145, 500, 208
-0.99541, 129, 73, 256, 136
-0.995419, 289, 217, 416, 248
-0.995428, 291, 193, 306, 256
-0.995442, 113, 197, 240, 228
-0.995448, 401, 233, 416, 296
-0.995451, 319, 265, 334, 328
-0.995458, 257, 65, 500, 128
-0.995483, 161, 57, 224, 120
-0.995486, 285, 225, 316, 352
-0.995487, 273, 301, 400, 332
-0.995492, 177, 241, 304, 272
-0.995493, 441, 97, 472, 224
-0.995508, 385, 33, 448, 96
-0.99553, 25, 161, 56, 288
-0.995545, 113, 1, 240, 64
-0.995559, 245, 209, 260, 272
-0.99556, 337, 217, 352, 280
-0.995565, 25, 1, 88, 353
-0.99558, 389, 65, 404, 128
-0.995589, 213, 97, 244, 224
-0.995602, 395, 177, 410, 240
-0.995606, 353, 221, 480, 252
-0.995606, 177, 201, 304, 232
-0.995611, 377, 1, 440, 64
-0.995613, 323, 225, 338, 288
-0.995617, 249, 97, 280, 224
-0.995652, 271, 209, 286, 272
-0.995658, 41, 177, 72, 304
-0.995665, 305, 149, 432, 180
-0.995692, 359, 289, 374, 352
-0.995703, 121, 193, 152, 320
-0.995718, 277, 193, 292, 256
-0.995719, 401, 193, 416, 256
-0.995729, 107, 177, 122, 240
-0.995747, 1, 257, 128, 320
-0.995781, 225, 273, 352, 304
-0.995791, 133, 201, 148, 264
-0.995812, 273, 97, 400, 128
-0.99583, 1, 129, 256, 192
-0.99583, 383, 193, 398, 256
-0.995847, 337, 189, 464, 220
-0.995872, 1, 193, 500, 256
-0.995873, 401, 57, 464, 120
-0.995874, 305, 121, 432, 152
-0.99591, 5, 129, 36, 256
-0.99591, 345, 105, 360, 168
-0.995929, 1, 233, 64, 296
-0.995936, 177, 217, 304, 248
-0.99594, 273, 245, 400, 276
-0.995943, 343, 201, 358, 264
-0.995958, 109, 201, 124, 264
-0.995964, 369, 249, 496, 280
-0.995972, 235, 241, 250, 304
-0.995978, 319, 201, 334, 264
-0.995982, 371, 97, 386, 160
-0.995987, 137, 1, 200, 353
-0.995991, 217, 1, 280, 353
-0.995997, 41, 185, 104, 248
-0.995998, 207, 225, 222, 288
-0.996003, 263, 193, 278, 256
-0.996017, 129, 233, 256, 264
-0.996025, 145, 217, 208, 280
-0.996036, 381, 73, 396, 136
-0.996049, 369, 205, 496, 236
-0.996052, 351, 129, 366, 192
-0.996067, 305, 161, 432, 192
-0.996094, 407, 225, 422, 288
-0.996109, 147, 201, 162, 264
-0.996112, 97, 145, 352, 208
-0.996124, 281, 169, 296, 232
-0.996125, 297, 193, 312, 256
-0.996125, 309, 201, 324, 264
-0.996137, 469, 217, 484, 280
-0.996158, 233, 33, 296, 96
-0.996159, 349, 97, 380, 352
-0.996166, 325, 281, 340, 344
-0.996179, 1, 25, 64, 88
-0.996183, 65, 201, 192, 232
-0.996189, 293, 169, 308, 232
-0.996197, 353, 265, 480, 296
-0.996199, 385, 1, 448, 256
-0.996206, 1, 265, 500, 328
-0.996233, 257, 209, 272, 272
-0.996235, 413, 241, 428, 304
-0.996235, 77, 161, 108, 288
-0.99624, 371, 153, 386, 216
-0.996283, 207, 201, 222, 264
-0.996288, 315, 153, 330, 216
-0.9963, 311, 177, 326, 240
-0.9963, 225, 81, 288, 144
-0.996308, 81, 33, 208, 96
-0.996315, 185, 57, 248, 120
-0.996327, 273, 313, 400, 344
-0.996332, 399, 265, 414, 328
-0.996335, 265, 249, 280, 312
-0.996356, 353, 133, 480, 164
-0.996359, 193, 177, 320, 208
-0.99638, 285, 289, 300, 352
-0.996384, 257, 117, 384, 148
-0.996393, 33, 209, 96, 272
-0.996395, 33, 225, 288, 288
-0.996419, 413, 193, 428, 256
-0.996425, 353, 157, 480, 188
-0.996437, 303, 201, 318, 264
-0.996441, 373, 205, 388, 236
-0.996442, 387, 225, 402, 256
-0.996449, 121, 217, 136, 280
-0.996463, 337, 277, 464, 308
-0.996469, 239, 217, 254, 280
-0.996471, 361, 97, 392, 352
-0.996479, 1, 177, 256, 240
-0.996487, 365, 161, 380, 224
-0.996498, 373, 181, 388, 212
-0.996502, 313, 273, 328, 336
-0.996516, 99, 193, 114, 256
-0.996525, 335, 169, 350, 232
-0.996527, 395, 57, 410, 120
-0.996528, 335, 265, 350, 296
-0.996557, 171, 185, 186, 248
-0.996572, 341, 265, 356, 296
-0.996572, 353, 117, 480, 148
-0.996607, 433, 33, 496, 160
-0.996631, 361, 129, 376, 192
-0.996633, 307, 197, 322, 228
-0.996652, 405, 145, 420, 208
-0.996659, 321, 273, 336, 304
-0.996666, 369, 169, 384, 200
-0.996678, 1, 1, 64, 353
-0.996679, 377, 221, 392, 252
-0.996698, 379, 233, 394, 264
-0.996701, 1, 105, 256, 168
-0.996704, 359, 177, 374, 240
-0.996705, 139, 201, 154, 264
-0.996727, 337, 105, 464, 136
-0.99674, 327, 269, 342, 300
-0.996742, 483, 209, 498, 272
-0.996745, 353, 145, 480, 176
-0.996754, 271, 185, 286, 248
-0.996769, 61, 97, 92, 224
-0.996775, 381, 97, 412, 352
-0.996776, 73, 97, 136, 352
-0.996785, 251, 217, 266, 280
-0.996786, 385, 97, 400, 160
-0.996798, 17, 1, 144, 64
-0.99681, 393, 265, 408, 328
-0.996827, 395, 161, 410, 192
-0.996836, 309, 153, 324, 216
-0.996858, 369, 225, 384, 256
-0.996863, 433, 241, 448, 304
-0.996868, 405, 257, 420, 320
-0.996871, 351, 241, 366, 272
-0.996872, 331, 221, 346, 252
-0.996875, 225, 249, 352, 280
-0.996881, 119, 177, 134, 240
-0.996886, 321, 137, 336, 200
-0.996891, 265, 217, 280, 280
-0.996897, 37, 129, 68, 256
-0.996898, 385, 145, 400, 176
-0.996919, 301, 197, 316, 228
-0.99693, 399, 173, 414, 204
-0.99693, 153, 193, 168, 256
-0.996939, 415, 169, 430, 232
-0.996943, 209, 157, 336, 188
-0.996947, 313, 277, 328, 308
-0.996951, 295, 197, 310, 228
-0.996957, 387, 273, 402, 336
-0.996964, 329, 209, 344, 240
-0.996973, 375, 245, 390, 276
-0.996974, 273, 281, 288, 344
-0.996975, 347, 177, 362, 208
-0.996983, 309, 209, 324, 240
-0.99699, 217, 201, 232, 264
-0.997001, 287, 197, 302, 228
-0.997004, 317, 241, 332, 304
-0.99701, 351, 261, 366, 292
-0.997015, 361, 253, 376, 284
-0.997016, 17, 201, 144, 232
-0.997023, 395, 201, 410, 264
-0.997028, 365, 285, 380, 316
-0.997029, 161, 253, 288, 284
-0.99703, 321, 173, 336, 204
-0.997037, 113, 161, 240, 192
-0.997039, 113, 1, 176, 256
-0.997041, 321, 213, 336, 244
-0.997049, 361, 113, 376, 144
-0.997068, 129, 209, 256, 240
-0.997074, 361, 237, 376, 268
-0.997082, 263, 213, 278, 244
-0.997092, 389, 61, 404, 92
-0.997096, 369, 245, 384, 276
-0.997097, 385, 241, 400, 272
-0.99711, 397, 49, 428, 176
-0.997112, 391, 241, 406, 272
-0.997115, 253, 217, 268, 248
-0.997117, 329, 97, 360, 352
-0.997127, 345, 229, 360, 260
-0.997141, 81, 1, 144, 353
-0.997143, 341, 185, 356, 216
-0.997152, 113, 221, 240, 252
-0.997156, 65, 1, 192, 64
-0.997187, 1, 169, 500, 232
-0.997189, 269, 205, 284, 236
-0.997212, 279, 201, 294, 232
-0.997212, 349, 217, 364, 248
-0.997225, 329, 181, 344, 212
-0.997252, 13, 177, 44, 304
-0.997254, 357, 273, 372, 304
-0.997259, 359, 101, 374, 132
-0.99728, 225, 105, 352, 136
-0.99729, 367, 205, 382, 236
-0.997293, 367, 185, 382, 216
-0.997296, 325, 225, 340, 256
-0.997319, 321, 93, 448, 124
-0.99732, 1, 153, 256, 216
-0.997325, 285, 97, 316, 352
-0.997325, 389, 157, 404, 188
-0.997337, 315, 209, 330, 240
-0.997341, 335, 233, 350, 264
-0.997356, 407, 189, 422, 220
-0.997358, 267, 193, 282, 224
-0.997359, 315, 197, 330, 228
-0.997362, 201, 1, 264, 256
-0.997366, 387, 73, 402, 104
-0.997367, 161, 1, 288, 64
-0.997378, 293, 33, 324, 160
-0.997378, 457, 81, 488, 208
-0.997398, 207, 233, 222, 264
-0.997401, 367, 265, 382, 296
-0.997401, 1, 289, 500, 352
-0.997404, 233, 233, 248, 264
-0.997408, 331, 253, 346, 284
-0.997415, 273, 85, 400, 116
-0.997418, 367, 117, 382, 148
-0.997423, 273, 1, 304, 128
-0.997426, 247, 221, 262, 252
-0.997438, 21, 113, 52, 240
-0.997439, 309, 97, 340, 352
-0.997444, 65, 189, 192, 220
-0.997462, 299, 185, 314, 216
-0.997468, 373, 193, 388, 224
-0.99748, 317, 49, 348, 176
-0.997482, 161, 81, 416, 144
-0.997486, 129, 149, 256, 180
-0.99749, 375, 281, 390, 312
-0.997496, 353, 61, 480, 92
-0.9975, 97, 105, 352, 168
-0.997506, 225, 285, 352, 316
-0.997508, 351, 229, 366, 260
-0.997515, 305, 69, 432, 100
-0.99752, 357, 221, 372, 252
-0.997521, 337, 197, 352, 228
-0.997525, 353, 93, 368, 124
-0.997532, 417, 81, 448, 208
-0.997545, 353, 317, 480, 348
-0.997545, 393, 229, 408, 260
-0.99756, 359, 189, 374, 220
-0.997561, 231, 245, 246, 276
-0.997563, 161, 57, 416, 120
-0.997573, 81, 49, 144, 176
-0.997573, 393, 173, 408, 204
-0.997581, 381, 129, 396, 160
-0.997589, 269, 217, 284, 248
-0.997592, 307, 281, 322, 312
-0.997611, 381, 209, 396, 240
-0.997622, 377, 117, 392, 148
-0.997623, 113, 185, 240, 216
-0.997643, 337, 289, 464, 320
-0.997655, 401, 97, 432, 352
-0.997657, 145, 289, 272, 352
-0.997659, 153, 201, 168, 232
-0.99766, 363, 173, 378, 204
-0.99766, 385, 169, 400, 200
-0.997662, 177, 65, 208, 192
-0.997668, 303, 209, 318, 240
-0.99767, 375, 261, 390, 292
-0.997674, 343, 277, 358, 308
-0.997677, 17, 153, 144, 184
-0.997678, 273, 193, 288, 224
-0.997678, 385, 253, 400, 284
-0.997679, 215, 233, 230, 264
-0.997685, 163, 193, 178, 224
-0.997685, 259, 225, 274, 256
-0.997688, 321, 197, 336, 228
-0.997701, 173, 197, 188, 228
-0.997704, 383, 197, 398, 228
-0.997727, 227, 233, 242, 264
-0.997727, 379, 141, 394, 172
-0.99773, 375, 169, 390, 200
-0.997733, 109, 189, 124, 220
-0.997734, 333, 277, 348, 308
-0.997734, 17, 189, 144, 220
-0.997735, 193, 313, 320, 344
-0.997736, 353, 197, 368, 228
-0.997741, 369, 73, 496, 104
-0.997742, 147, 197, 162, 228
-0.997746, 337, 213, 352, 244
-0.997748, 277, 293, 292, 324
-0.997756, 327, 197, 342, 228
-0.997759, 369, 129, 384, 160
-0.997762, 351, 117, 366, 148
-0.997762, 345, 249, 360, 280
-0.997766, 405, 177, 420, 208
-0.997767, 347, 205, 362, 236
-0.997772, 81, 141, 208, 172
-0.99778, 383, 61, 398, 92
-0.997788, 223, 245, 238, 276
-0.997814, 119, 201, 134, 232
-0.997821, 255, 205, 270, 236
-0.997829, 383, 157, 398, 188
-0.997833, 395, 65, 410, 96
-0.997835, 65, 217, 192, 248
-0.997837, 305, 181, 320, 212
-0.997842, 351, 273, 366, 304
-0.997843, 289, 1, 416, 64
-0.997854, 411, 241, 426, 272
-0.99786, 133, 197, 148, 228
-0.997861, 359, 209, 374, 240
-0.997866, 177, 277, 304, 308
-0.997868, 363, 225, 378, 256
-0.99787, 315, 181, 330, 212
-0.997871, 325, 253, 340, 284
-0.997872, 399, 233, 414, 264
-0.997872, 379, 185, 394, 216
-0.997877, 1, 81, 256, 144
-0.997887, 275, 237, 290, 268
-0.997903, 325, 237, 340, 268
-0.997909, 237, 245, 252, 276
-0.997914, 387, 209, 402, 240
-0.997915, 343, 97, 358, 128
-0.997918, 327, 281, 342, 312
-0.99792, 393, 145, 408, 176
-0.997921, 261, 49, 292, 176
-0.99796, 209, 145, 336, 176
-0.997964, 145, 173, 272, 204
-0.997976, 209, 125, 336, 156
-0.997989, 193, 93, 320, 124
-0.998026, 145, 25, 272, 88
-0.998042, 257, 153, 384, 184
-0.998045, 417, 97, 448, 352
-0.998072, 17, 137, 144, 168
-0.998104, 337, 49, 368, 176
-0.998105, 65, 57, 320, 120
-0.99812, 93, 209, 124, 336
-0.998129, 353, 305, 480, 336
-0.998188, 129, 137, 256, 168
-0.998212, 241, 17, 368, 80
-0.99824, 1, 193, 64, 320
-0.998275, 289, 57, 416, 88
-0.998279, 321, 161, 336, 288
-0.998286, 17, 165, 144, 196
-0.998286, 13, 65, 44, 192
-0.998302, 381, 193, 396, 320
-0.998319, 305, 1, 336, 256
-0.998331, 129, 33, 192, 160
-0.99835, 65, 169, 192, 200
-0.99835, 313, 217, 376, 232
-0.998367, 361, 253, 424, 268
-0.99837, 329, 233, 392, 248
-0.998371, 193, 81, 320, 112
-0.998374, 321, 181, 384, 196
-0.998382, 353, 193, 416, 208
-0.998383, 337, 249, 400, 264
-0.998385, 353, 185, 416, 200
-0.998386, 265, 207, 328, 222
-0.998398, 177, 265, 304, 296
-0.998408, 345, 225, 408, 240
-0.998418, 321, 265, 384, 280
-0.998421, 385, 243, 448, 258
-0.998422, 329, 193, 392, 208
-0.998422, 345, 175, 408, 190
-0.998426, 113, 117, 240, 148
-0.998433, 313, 227, 376, 242
-0.998433, 289, 185, 352, 200
-0.998433, 361, 169, 424, 184
-0.998434, 361, 259, 424, 274
-0.998437, 1, 121, 500, 184
-0.998438, 329, 187, 392, 202
-0.998439, 389, 209, 404, 336
-0.998441, 17, 213, 144, 244
-0.998442, 257, 191, 320, 206
-0.998443, 329, 255, 392, 270
-0.998445, 389, 239, 420, 254
-0.998446, 273, 183, 304, 198
-0.998446, 337, 99, 368, 114
-0.998447, 293, 109, 324, 124
-0.998448, 273, 215, 336, 230
-0.998449, 329, 277, 392, 292
-0.998451, 357, 93, 388, 108
-0.998452, 297, 281, 360, 296
-0.998453, 237, 235, 268, 250
-0.998454, 325, 263, 356, 278
-0.998455, 385, 71, 416, 86
-0.998456, 337, 123, 368, 138
-0.998457, 365, 283, 396, 298
-0.998457, 213, 233, 244, 248
-0.998458, 405, 193, 436, 208
-0.998459, 353, 181, 384, 196
-0.99846, 193, 233, 256, 248
-0.99846, 129, 211, 160, 226
-0.998462, 297, 215, 328, 230
-0.998462, 361, 247, 424, 262
-0.998462, 349, 215, 380, 230
-0.998463, 317, 207, 348, 222
-0.998465, 317, 115, 348, 130
-0.998466, 289, 287, 320, 302
-0.998466, 361, 201, 424, 216
-0.998466, 381, 77, 412, 92
-0.998467, 341, 105, 372, 120
-0.998468, 329, 199, 392, 214
-0.998468, 393, 187, 424, 202
-0.998469, 397, 245, 428, 260
-0.99847, 181, 193, 212, 208
-0.998471, 317, 281, 348, 296
-0.998471, 157, 201, 188, 216
-0.998472, 297, 209, 360, 224
-0.998472, 325, 239, 356, 254
-0.998472, 345, 267, 408, 282
-0.998472, 441, 97, 472, 352
-0.998473, 297, 275, 360, 290
-0.998474, 209, 253, 240, 268
-0.998475, 269, 293, 300, 308
-0.998475, 313, 245, 376, 260
-0.998476, 217, 245, 248, 260
-0.998476, 337, 217, 400, 232
-0.998477, 385, 141, 416, 156
-0.998478, 381, 183, 412, 198
-0.998479, 361, 127, 424, 142
-0.998481, 273, 213, 304, 228
-0.998483, 321, 271, 384, 286
-0.998483, 145, 197, 176, 212
-0.998483, 329, 209, 344, 336
-0.998484, 341, 239, 372, 254
-0.998485, 333, 283, 364, 298
-0.998486, 365, 203, 396, 218
-0.998487, 349, 193, 380, 208
-0.998487, 389, 177, 420, 192
-0.998488, 293, 189, 324, 204
-0.998489, 113, 245, 240, 276
-0.99849, 453, 233, 484, 248
-0.99849, 361, 113, 392, 128
-0.99849, 381, 197, 412, 212
-0.99849, 281, 287, 344, 302
-0.99849, 333, 209, 364, 224
-0.998491, 149, 207, 180, 222
-0.998492, 325, 257, 356, 272
-0.998493, 353, 223, 384, 238
-0.998494, 249, 213, 312, 228
-0.998495, 329, 203, 360, 218
-0.998495, 201, 247, 232, 262
-0.998496, 305, 189, 336, 204
-0.998496, 377, 237, 408, 252
-0.998496, 393, 193, 424, 208
-0.998497, 337, 189, 368, 204
-0.998497, 337, 135, 400, 150
-0.998498, 201, 231, 232, 246
-0.998499, 373, 149, 404, 164
-0.998499, 397, 177, 412, 304
-0.998499, 313, 239, 376, 254
-0.9985, 361, 237, 424, 252
-0.9985, 369, 229, 432, 244
-0.998502, 261, 97, 292, 224
-0.998502, 261, 303, 292, 318
-0.998503, 289, 197, 352, 212
-0.998503, 369, 165, 400, 180
-0.998505, 293, 97, 324, 112
-0.998506, 329, 215, 360, 230
-0.998506, 201, 239, 264, 254
-0.998509, 305, 191, 368, 206
-0.99851, 133, 199, 164, 214
-0.99851, 333, 251, 364, 266
-0.998511, 317, 227, 348, 242
-0.998512, 233, 229, 296, 244
-0.998513, 345, 211, 408, 226
-0.998513, 317, 195, 348, 210
-0.998513, 1, 121, 128, 152
-0.998514, 253, 213, 284, 228
-0.998515, 349, 123, 380, 138
-0.998515, 117, 201, 148, 216
-0.998515, 333, 245, 364, 260
-0.998517, 337, 243, 400, 258
-0.998518, 397, 199, 428, 214
-0.998518, 273, 207, 304, 222
-0.998518, 369, 177, 432, 192
-0.998519, 313, 287, 376, 302
-0.998519, 209, 247, 272, 262
-0.99852, 257, 221, 288, 236
-0.99852, 345, 233, 376, 248
-0.998521, 337, 197, 368, 212
-0.998521, 325, 233, 356, 248
-0.998524, 221, 251, 252, 266
-0.998525, 129, 197, 192, 212
-0.998528, 381, 65, 412, 80
-0.998529, 337, 129, 400, 144
-0.998529, 377, 177, 408, 192
-0.99853, 365, 219, 396, 234
-0.99853, 381, 191, 412, 206
-0.99853, 261, 191, 292, 206
-0.998531, 393, 251, 424, 266
-0.998532, 337, 121, 400, 136
-0.998533, 377, 191, 440, 206
-0.998534, 297, 195, 328, 210
-0.998534, 201, 237, 232, 252
-0.998534, 305, 107, 368, 122
-0.998535, 365, 121, 396, 136
-0.998537, 393, 167, 424, 182
-0.998538, 377, 223, 408, 238
-0.998538, 273, 281, 336, 296
-0.998538, 265, 185, 328, 200
-0.99854, 373, 255, 404, 270
-0.998541, 361, 261, 392, 276
-0.998544, 369, 137, 432, 152
-0.998544, 373, 137, 404, 152
-0.998544, 337, 259, 368, 274
-0.998544, 297, 209, 328, 224
-0.998545, 377, 243, 408, 258
-0.998545, 385, 169, 448, 184
-0.998547, 233, 241, 296, 256
-0.998547, 365, 197, 396, 212
-0.998549, 245, 223, 276, 238
-0.998549, 367, 177, 382, 304
-0.998549, 353, 161, 416, 176
-0.99855, 285, 201, 316, 216
-0.99855, 329, 301, 392, 316
-0.99855, 325, 269, 356, 284
-0.99855, 321, 175, 384, 190
-0.998551, 309, 177, 340, 192
-0.998551, 297, 257, 360, 272
-0.998553, 225, 65, 256, 192
-0.998554, 33, 237, 160, 268
-0.998554, 373, 127, 404, 142
-0.998554, 321, 115, 384, 130
-0.998555, 369, 85, 496, 116
-0.998555, 337, 141, 400, 156
-0.998558, 169, 193, 232, 208
-0.998558, 217, 223, 280, 238
-0.998559, 369, 85, 432, 100
-0.998561, 289, 221, 352, 236
-0.998561, 337, 177, 352, 304
-0.998562, 289, 239, 352, 254
-0.998563, 129, 203, 192, 218
-0.998564, 365, 233, 396, 248
-0.998564, 317, 275, 348, 290
-0.998565, 225, 235, 256, 250
-0.998565, 361, 121, 424, 136
-0.998568, 297, 265, 360, 280
-0.99857, 321, 207, 384, 222
-0.99857, 381, 159, 412, 174
-0.998571, 343, 177, 358, 304
-0.998572, 373, 171, 404, 186
-0.998573, 1, 81, 32, 208
-0.998573, 345, 91, 408, 106
-0.998575, 153, 199, 216, 214
-0.998578, 289, 101, 352, 116
-0.998578, 257, 287, 320, 302
-0.998578, 345, 105, 408, 120
-0.99858, 301, 183, 332, 198
-0.99858, 353, 273, 416, 288
-0.99858, 365, 185, 396, 200
-0.998581, 277, 189, 308, 204
-0.998583, 353, 129, 384, 144
-0.998583, 241, 219, 304, 234
-0.998583, 305, 121, 368, 136
-0.998584, 409, 235, 472, 250
-0.998584, 113, 105, 240, 136
-0.998585, 353, 199, 384, 214
-0.998586, 225, 235, 288, 250
-0.998587, 361, 249, 392, 264
-0.998588, 297, 251, 360, 266
-0.998589, 385, 249, 448, 264
-0.998592, 297, 179, 360, 194
-0.998592, 241, 205, 304, 220
-0.998593, 377, 157, 440, 172
-0.998594, 273, 233, 336, 248
-0.998595, 361, 209, 392, 224
-0.998595, 289, 115, 352, 130
-0.998597, 265, 201, 328, 216
-0.998598, 361, 217, 424, 232
-0.998598, 353, 147, 416, 162
-0.998598, 213, 97, 244, 352
-0.998598, 233, 247, 296, 262
-0.998601, 333, 225, 364, 240
-0.998602, 281, 107, 344, 122
-0.998602, 345, 65, 408, 80
-0.998603, 265, 269, 328, 284
-0.998605, 289, 227, 352, 242
-0.998605, 285, 209, 316, 224
-0.998606, 89, 201, 152, 216
-0.998607, 241, 303, 304, 318
-0.998607, 385, 235, 448, 250
-0.998608, 289, 245, 352, 260
-0.998608, 89, 169, 152, 184
-0.998608, 281, 191, 344, 206
-0.998609, 313, 99, 376, 114
-0.998609, 297, 203, 360, 218
-0.998609, 369, 65, 432, 80
-0.998611, 393, 197, 456, 212
-0.998611, 393, 179, 456, 194
-0.998611, 325, 189, 356, 204
-0.998612, 225, 213, 288, 228
-0.998612, 265, 309, 328, 324
-0.998613, 265, 97, 328, 112
-0.998614, 409, 241, 472, 256
-0.998615, 393, 185, 456, 200
-0.998615, 329, 177, 360, 192
-0.998616, 337, 81, 400, 96
-0.998618, 357, 243, 388, 258
-0.998618, 353, 75, 416, 90
-0.998619, 361, 111, 424, 126
-0.998619, 225, 187, 288, 202
-0.998619, 193, 33, 448, 96
-0.99862, 257, 293, 320, 308
-0.998621, 241, 313, 304, 328
-0.998622, 383, 145, 398, 272
-0.998622, 365, 225, 396, 240
-0.998622, 89, 193, 152, 208
-0.998623, 337, 283, 400, 298
-0.998624, 321, 183, 352, 198
-0.998626, 313, 213, 344, 228
-0.998627, 169, 209, 232, 224
-0.998628, 233, 293, 296, 308
-0.998628, 393, 163, 456, 178
-0.998629, 297, 233, 360, 248
-0.998629, 361, 191, 392, 206
-0.998632, 241, 229, 272, 244
-0.998633, 233, 193, 296, 208
-0.998633, 349, 251, 380, 266
-0.998634, 265, 221, 328, 236
-0.998634, 313, 129, 376, 144
-0.998636, 341, 183, 372, 198
-0.99864, 357, 193, 372, 320
-0.998642, 315, 177, 330, 304
-0.998643, 377, 249, 408, 264
-0.998644, 321, 81, 448, 112
-0.998646, 357, 175, 388, 190
-0.998648, 369, 1, 400, 256
-0.998652, 1, 177, 32, 304
-0.998652, 209, 297, 336, 328
-0.998654, 361, 299, 392, 314
-0.998661, 377, 231, 408, 246
-0.998663, 305, 281, 336, 296
-0.998665, 375, 193, 390, 320
-0.998669, 465, 97, 496, 352
-0.99867, 361, 255, 392, 270
-0.998671, 17, 225, 144, 256
-0.998677, 341, 265, 372, 280
-0.998686, 379, 65, 394, 192
-0.998687, 327, 161, 342, 288
-0.998705, 317, 219, 348, 234
-0.998708, 65, 153, 192, 184
-0.998716, 429, 49, 460, 176
-0.998721, 321, 209, 336, 336
-0.998724, 237, 97, 268, 224
-0.998725, 429, 97, 460, 352
-0.998726, 153, 81, 184, 208
-0.998734, 385, 65, 400, 192
-0.998739, 97, 97, 128, 352
-0.998743, 85, 65, 116, 192
-0.998744, 375, 129, 390, 256
-0.998747, 121, 97, 152, 352
-0.998751, 349, 259, 380, 274
-0.998752, 81, 233, 208, 264
-0.99877, 33, 61, 160, 92
-0.998784, 469, 65, 500, 192
-0.998795, 389, 161, 404, 288
-0.998801, 65, 117, 192, 148
-0.998811, 5, 97, 36, 352
-0.998813, 407, 193, 422, 320
-0.99883, 33, 105, 160, 136
-0.998849, 345, 225, 360, 352
-0.998854, 315, 129, 330, 256
-0.998875, 161, 69, 288, 100
-0.998883, 65, 193, 96, 320
-0.998892, 349, 177, 364, 304
-0.998894, 65, 73, 192, 104
-0.9989, 25, 209, 56, 336
-0.998903, 365, 113, 380, 240
-0.998903, 161, 121, 288, 152
-0.998906, 161, 109, 288, 140
-0.998912, 1, 177, 128, 208
-0.998928, 307, 129, 322, 256
-0.998936, 49, 249, 176, 280
-0.998936, 369, 49, 496, 80
-0.998943, 113, 257, 240, 320
-0.998945, 351, 225, 366, 352
-0.998968, 261, 209, 276, 336
-0.998971, 109, 97, 140, 352
-0.998977, 33, 1, 288, 64
-0.998998, 309, 177, 324, 304
-0.999005, 357, 97, 372, 224
-0.999008, 65, 33, 320, 96
-0.999012, 297, 97, 328, 352
-0.999015, 1, 261, 128, 292
-0.999023, 391, 49, 406, 176
-0.999029, 369, 225, 384, 352
-0.999029, 453, 97, 484, 352
-0.999051, 351, 113, 366, 240
-0.999064, 399, 129, 414, 256
-0.999068, 225, 1, 288, 256
-0.999072, 113, 61, 240, 92
-0.999072, 1, 85, 128, 116
-0.999072, 1, 249, 256, 312
-0.999085, 157, 145, 172, 272
-0.999091, 329, 113, 344, 240
-0.999094, 413, 177, 428, 304
-0.999098, 335, 225, 350, 352
-0.999099, 225, 65, 256, 320
-0.999113, 81, 93, 208, 124
-0.999121, 267, 209, 282, 336
-0.999123, 275, 225, 290, 352
-0.999133, 335, 129, 350, 256
-0.999133, 145, 97, 176, 352
-0.999136, 113, 81, 240, 112
-0.999147, 261, 65, 292, 320
-0.999148, 193, 53, 320, 84
-0.999159, 371, 81, 386, 208
-0.999166, 393, 113, 408, 240
-0.999167, 413, 225, 428, 352
-0.999177, 297, 161, 312, 288
-0.999184, 241, 97, 272, 352
-0.999187, 321, 113, 336, 240
-0.99919, 161, 161, 288, 192
-0.999196, 1, 97, 500, 160
-0.9992, 161, 97, 192, 352
-0.999213, 399, 225, 414, 352
-0.999223, 257, 73, 384, 104
-0.999227, 461, 209, 476, 336
-0.999229, 255, 209, 270, 336
-0.999233, 343, 97, 358, 224
-0.999235, 315, 225, 330, 352
-0.999238, 201, 97, 232, 352
-0.99924, 299, 113, 314, 240
-0.999241, 453, 161, 468, 288
-0.999245, 207, 177, 222, 304
-0.999247, 1, 73, 128, 104
-0.999248, 285, 177, 300, 304
-0.99925, 109, 145, 124, 272
-0.999253, 215, 177, 230, 304
-0.999254, 145, 177, 160, 304
-0.999256, 225, 177, 240, 304
-0.999263, 133, 97, 164, 352
-0.999272, 65, 129, 192, 160
-0.999279, 305, 81, 320, 208
-0.999281, 445, 225, 460, 352
-0.999296, 357, 145, 372, 272
-0.999304, 437, 177, 452, 304
-0.999307, 309, 225, 324, 352
-0.99931, 145, 93, 272, 124
-0.999316, 321, 41, 448, 104
-0.99932, 139, 129, 154, 256
-0.99932, 169, 145, 184, 272
-0.999322, 147, 129, 162, 256
-0.999324, 459, 161, 474, 288
-0.999326, 263, 161, 278, 288
-0.999328, 353, 1, 384, 256
-0.999335, 293, 1, 324, 256
-0.999337, 337, 1, 464, 32
-0.999339, 185, 97, 216, 352
-0.99934, 399, 81, 414, 208
-0.999343, 291, 193, 306, 320
-0.999346, 253, 161, 268, 288
-0.999346, 163, 193, 178, 320
-0.999354, 455, 209, 470, 336
-0.999356, 405, 129, 420, 256
-0.999359, 225, 1, 352, 32
-0.999367, 133, 145, 148, 272
-0.99937, 273, 97, 304, 352
-0.999371, 325, 1, 356, 256
-0.999371, 97, 49, 224, 80
-0.999377, 275, 177, 290, 304
-0.999378, 447, 177, 462, 304
-0.99938, 235, 225, 250, 352
-0.99938, 467, 209, 482, 336
-0.999382, 197, 177, 212, 304
-0.999383, 235, 161, 250, 288
-0.999386, 207, 225, 222, 352
-0.999393, 217, 129, 232, 256
-0.999397, 363, 225, 378, 352
-0.999403, 419, 161, 434, 288
-0.999403, 221, 225, 236, 352
-0.999404, 17, 65, 48, 320
-0.999407, 473, 209, 488, 336
-0.999411, 287, 129, 302, 256
-0.999411, 431, 177, 446, 304
-0.999413, 303, 177, 318, 304
-0.999416, 283, 225, 298, 352
-0.99942, 293, 113, 308, 240
-0.999422, 139, 177, 154, 304
-0.999423, 397, 1, 428, 256
-0.999428, 1, 41, 128, 72
-0.99943, 385, 17, 400, 144
-0.999436, 465, 161, 480, 288
-0.999436, 439, 225, 454, 352
-0.999437, 1, 249, 128, 280
-0.99944, 151, 193, 166, 320
-0.999442, 101, 193, 116, 320
-0.999443, 479, 209, 494, 336
-0.999447, 157, 193, 172, 320
-0.999449, 419, 225, 434, 352
-0.99945, 311, 81, 326, 208
-0.999462, 243, 161, 258, 288
-0.999466, 485, 193, 500, 320
-0.999479, 191, 129, 206, 256
-0.999479, 209, 69, 336, 100
-0.999482, 379, 17, 394, 144
-0.999486, 121, 145, 136, 272
-0.999486, 425, 193, 440, 320
-0.999494, 269, 145, 284, 272
-0.999496, 45, 97, 76, 352
-0.999497, 481, 145, 496, 272
-0.999498, 185, 33, 248, 160
-0.9995, 163, 129, 178, 256
-0.999512, 99, 145, 114, 272
-0.999517, 127, 145, 142, 272
-0.999526, 225, 129, 240, 256
-0.999526, 361, 49, 376, 176
-0.999528, 107, 193, 122, 320
-0.999529, 431, 225, 446, 352
-0.999533, 393, 1, 408, 128
-0.999542, 475, 145, 490, 272
-0.999542, 347, 49, 362, 176
-0.999543, 161, 293, 288, 324
-0.999544, 289, 1, 416, 32
-0.999545, 273, 45, 400, 76
-0.999546, 115, 145, 130, 272
-0.999547, 381, 1, 412, 256
-0.999561, 133, 193, 148, 320
-0.999564, 101, 97, 116, 224
-0.999568, 297, 65, 312, 192
-0.999569, 81, 1, 208, 32
-0.999573, 337, 81, 352, 208
-0.999577, 213, 225, 228, 352
-0.999578, 129, 37, 256, 68
-0.999578, 197, 129, 212, 256
-0.999583, 185, 129, 200, 256
-0.999595, 207, 129, 222, 256
-0.999597, 441, 97, 456, 224
-0.999597, 97, 281, 352, 344
-0.9996, 371, 33, 386, 160
-0.999601, 281, 1, 312, 256
-0.999607, 1, 1, 128, 32
-0.999621, 73, 1, 136, 256
-0.999628, 177, 41, 304, 72
-0.999659, 85, 97, 116, 352
-0.999675, 365, 295, 380, 310
-0.999676, 325, 111, 340, 126
-0.999677, 143, 211, 158, 226
-0.999678, 321, 223, 336, 238
-0.999679, 359, 271, 374, 286
-0.999679, 173, 97, 204, 352
-0.999679, 275, 303, 290, 318
-0.99968, 349, 113, 364, 128
-0.99968, 335, 105, 350, 120
-0.99968, 371, 219, 386, 234
-0.999681, 329, 225, 344, 240
-0.999681, 265, 221, 280, 236
-0.999682, 357, 227, 372, 242
-0.999682, 381, 235, 396, 250
-0.999682, 349, 267, 364, 282
-0.999683, 323, 189, 338, 204
-0.999684, 359, 195, 374, 210
-0.999684, 361, 255, 376, 270
-0.999684, 261, 229, 276, 244
-0.999686, 235, 247, 250, 262
-0.999687, 233, 241, 248, 256
-0.999687, 289, 199, 304, 214
-0.999687, 353, 259, 368, 274
-0.999688, 377, 187, 392, 202
-0.999688, 351, 99, 366, 114
-0.999688, 345, 275, 360, 290
-0.99969, 335, 233, 350, 248
-0.99969, 353, 221, 368, 236
-0.99969, 267, 189, 282, 204
-0.999691, 387, 157, 402, 172
-0.999692, 377, 125, 392, 140
-0.999695, 333, 273, 348, 288
-0.999696, 327, 213, 342, 228
-0.999696, 463, 229, 478, 244
-0.999696, 247, 229, 262, 244
-0.999697, 273, 189, 288, 204
-0.999697, 329, 239, 344, 254
-0.999697, 357, 121, 372, 136
-0.999697, 371, 191, 386, 206
-0.999697, 361, 127, 376, 142
-0.999697, 303, 209, 318, 224
-0.999698, 371, 241, 386, 256
-0.999698, 73, 65, 104, 192
-0.999699, 207, 235, 222, 250
-0.9997, 247, 221, 262, 236
-0.999701, 401, 185, 416, 200
-0.999702, 375, 249, 390, 264
-0.999703, 445, 49, 476, 176
-0.999704, 339, 225, 354, 240
-0.999704, 383, 139, 398, 154
-0.999704, 235, 233, 250, 248
-0.999704, 335, 239, 350, 254
-0.999705, 339, 199, 354, 214
-0.999705, 339, 193, 354, 208
-0.999706, 389, 139, 404, 154
-0.999707, 221, 247, 236, 262
-0.999708, 363, 201, 378, 216
-0.999709, 389, 69, 404, 84
-0.999709, 383, 241, 398, 256
-0.99971, 363, 117, 378, 132
-0.999711, 451, 235, 466, 250
-0.999712, 377, 119, 392, 134
-0.999712, 371, 225, 386, 240
-0.999712, 299, 191, 314, 206
-0.999716, 407, 195, 422, 210
-0.999716, 323, 177, 338, 192
-0.999717, 387, 163, 402, 178
-0.999717, 347, 257, 362, 272
-0.999719, 393, 245, 408, 260
-0.999719, 209, 49, 272, 176
-0.99972, 349, 233, 364, 248
-0.99972, 329, 187, 344, 202
-0.99972, 339, 275, 354, 290
-0.999721, 253, 227, 268, 242
-0.999721, 359, 109, 374, 124
-0.999722, 159, 197, 174, 212
-0.999723, 409, 201, 424, 216
-0.999724, 319, 273, 334, 288
-0.999724, 367, 235, 382, 250
-0.999728, 383, 145, 398, 160
-0.999728, 259, 221, 274, 236
-0.999728, 317, 285, 332, 300
-0.999729, 367, 173, 382, 188
-0.999732, 315, 213, 330, 228
-0.999732, 321, 215, 336, 230
-0.999734, 329, 231, 344, 246
-0.999734, 367, 129, 382, 144
-0.999735, 359, 291, 374, 306
-0.999736, 341, 263, 356, 278
-0.999737, 393, 173, 408, 188
-0.999737, 151, 201, 166, 216
-0.999737, 373, 255, 388, 270
-0.999739, 351, 247, 366, 262
-0.99974, 387, 247, 402, 262
-0.99974, 373, 213, 388, 228
-0.999742, 399, 177, 414, 192
-0.999743, 263, 213, 278, 228
-0.999748, 207, 245, 222, 260
-0.99975, 295, 203, 310, 218
-0.99975, 367, 207, 382, 222
-0.999751, 353, 253, 368, 268
-0.999756, 1, 73, 500, 136
-0.999758, 57, 97, 88, 352
-0.999758, 343, 187, 358, 202
-0.999762, 375, 235, 390, 250
-0.999763, 357, 233, 372, 248
-0.999765, 373, 207, 388, 222
-0.999765, 309, 211, 324, 226
-0.999771, 365, 191, 380, 206
-0.999772, 381, 225, 396, 240
-0.999773, 387, 227, 402, 242
-0.999774, 367, 257, 382, 272
-0.999774, 213, 1, 244, 256
-0.999776, 347, 227, 362, 242
-0.999781, 377, 219, 392, 234
-0.999782, 381, 247, 396, 262
-0.999783, 333, 267, 348, 282
-0.999783, 457, 231, 472, 246
-0.999786, 389, 63, 404, 78
-0.999787, 329, 281, 344, 296
-0.999787, 253, 219, 268, 234
-0.999787, 319, 279, 334, 294
-0.999787, 109, 1, 140, 256
-0.999789, 269, 211, 284, 226
-0.999789, 307, 283, 322, 298
-0.999791, 373, 197, 388, 212
-0.999791, 275, 209, 290, 224
-0.999791, 347, 179, 362, 194
-0.999795, 285, 205, 300, 220
-0.999801, 29, 97, 60, 352
-0.999806, 327, 271, 342, 286
-0.99981, 229, 247, 244, 262
-0.999811, 371, 179, 386, 194
-0.999818, 329, 219, 344, 234
-0.999822, 395, 167, 410, 182
-0.999824, 361, 239, 376, 254
-0.999832, 359, 261, 374, 276
-0.999836, 371, 185, 386, 200
-0.999854, 313, 279, 328, 294
-0.999861, 49, 81, 80, 208
-0.999873, 5, 1, 36, 256
-0.999885, 193, 225, 224, 352
-0.999889, 65, 1, 128, 128
-0.999963, 37, 1, 68, 256
-0.999966, 141, 1, 172, 256
-1.00001, 337, 1, 368, 256
-1.00002, 257, 1, 500, 64
-1.00007, 169, 1, 200, 256
-1.0001, 121, 1, 152, 256
-1.00013, 197, 1, 228, 256
-1.00015, 93, 1, 124, 256
-1.00021, 5, 225, 36, 352
-1.00022, 141, 81, 172, 208
-1.00023, 73, 97, 104, 352
-1.00027, 61, 1, 92, 256
-1.00042, 129, 1, 384, 64
-1.00048, 237, 1, 268, 256
-1.00051, 49, 1, 80, 256
-1.00052, 77, 1, 108, 256
-1.00056, 249, 49, 280, 176
-1.00057, 157, 1, 188, 256
-1.00063, 65, 265, 192, 328
-1.00064, 1, 1, 500, 64
-1.00072, 421, 1, 452, 256
-1.00074, 185, 1, 216, 256
-1.00075, 469, 1, 500, 256
-1.0008, 457, 33, 488, 160
-1.00082, 409, 1, 440, 256
-1.00086, 53, 193, 84, 320
-1.00088, 137, 1, 200, 256
-1.00088, 305, 33, 336, 160
-1.00089, 449, 1, 480, 256
-1.00096, 25, 1, 88, 128
-1.00099, 249, 1, 280, 256
-1.00099, 165, 81, 196, 208
-1.00101, 109, 49, 140, 176
-1.00105, 1, 49, 500, 112
-1.0011, 437, 1, 468, 256
-1.00111, 409, 33, 440, 160
-1.00112, 397, 1, 428, 128
-1.00114, 37, 81, 68, 208
-1.00132, 1, 273, 256, 336
-1.00172, 65, 289, 192, 352
-1.00176, 1, 281, 128, 344
-1.00187, 161, 1, 224, 128
-1.00214, 1, 25, 500, 88
-1.00294, 1, 1, 64, 128
-1.00385, 409, 1, 472, 256
-1.00433, 97, 1, 160, 128
-1.00575, 433, 1, 496, 256
