2117
-0.291568, 1, 1, 474, 500
-0.338668, 1, 193, 474, 448
-0.418851, 225, 1, 474, 500
-0.423418, 1, 97, 474, 352
-0.486816, 97, 1, 352, 500
-0.522476, 225, 193, 474, 448
-0.533978, 1, 1, 474, 256
-0.572821, 129, 225, 384, 480
-0.588131, 1, 1, 256, 500
-0.594519, 33, 97, 288, 352
-0.645937, 1, 193, 256, 448
-0.663151, 129, 129, 384, 384
-0.731302, 129, 1, 384, 256
-0.782368, 225, 97, 474, 352
-0.808725, 225, 1, 474, 256
-0.828135, 305, 225, 432, 480
-0.835197, 353, 193, 474, 448
-0.84851, 97, 97, 224, 352
-0.853305, 241, 257, 368, 500
-0.853697, 241, 1, 368, 500
-0.859022, 241, 129, 368, 384
-0.862226, 289, 1, 416, 500
-0.862304, 17, 193, 144, 448
-0.863084, 177, 225, 304, 480
-0.863384, 337, 1, 464, 500
-0.870282, 1, 177, 474, 304
-0.874392, 1, 353, 474, 480
-0.880119, 145, 1, 272, 500
-0.880623, 113, 257, 240, 500
-0.88205, 193, 1, 320, 500
-0.885299, 65, 257, 192, 500
-0.887835, 193, 97, 320, 352
-0.889424, 1, 225, 474, 352
-0.890196, 1, 305, 474, 432
-0.891788, 289, 1, 416, 256
-0.893072, 225, 209, 474, 336
-0.894619, 145, 129, 272, 384
-0.894858, 193, 1, 320, 256
-0.895479, 81, 1, 208, 500
-0.896613, 49, 97, 176, 352
-0.899816, 289, 129, 416, 384
-0.906415, 1, 209, 256, 336
-0.906588, 33, 1, 160, 500
-0.908982, 241, 1, 368, 256
-0.913885, 1, 1, 474, 128
-0.914077, 65, 129, 320, 256
-0.914384, 193, 369, 448, 496
-0.915404, 129, 241, 384, 368
-0.91648, 161, 161, 416, 288
-0.920224, 1, 129, 474, 256
-0.920619, 337, 65, 464, 320
-0.921558, 113, 1, 240, 256
-0.926099, 337, 209, 464, 336
-0.928193, 65, 369, 320, 496
-0.929075, 225, 257, 474, 384
-0.92931, 1, 209, 128, 336
-0.929476, 1, 97, 128, 352
-0.930185, 225, 305, 474, 432
-0.934006, 65, 81, 320, 208
-0.934164, 177, 225, 304, 352
-0.934479, 129, 305, 384, 432
-0.93453, 321, 305, 448, 432
-0.9353, 193, 1, 448, 128
-0.936135, 305, 369, 432, 496
-0.937085, 1, 81, 474, 208
-0.937966, 241, 177, 368, 304
-0.938999, 241, 321, 368, 448
-0.939576, 337, 305, 400, 432
-0.940255, 361, 369, 424, 496
-0.941139, 321, 209, 384, 336
-0.941608, 305, 369, 368, 496
-0.942306, 385, 209, 448, 336
-0.94261, 337, 417, 400, 480
-0.943043, 289, 225, 416, 352
-0.94393, 257, 369, 384, 496
-0.943998, 361, 425, 424, 488
-0.944708, 225, 257, 352, 384
-0.944879, 409, 225, 472, 352
-0.945301, 353, 209, 416, 336
-0.947145, 241, 129, 368, 256
-0.948623, 193, 225, 256, 352
-0.948828, 105, 225, 168, 352
-0.949227, 409, 433, 472, 496
-0.949425, 297, 321, 360, 448
-0.949498, 97, 129, 160, 256
-0.949527, 385, 433, 448, 496
-0.949798, 49, 209, 176, 336
-0.950064, 97, 129, 224, 256
-0.950258, 329, 369, 392, 496
-0.950907, 297, 241, 360, 368
-0.951021, 393, 305, 456, 432
-0.951282, 241, 241, 304, 368
-0.951481, 17, 369, 144, 496
-0.95194, 81, 369, 208, 496
-0.951991, 65, 193, 128, 320
-0.952008, 97, 193, 224, 320
-0.952119, 305, 1, 368, 128
-0.952233, 289, 1, 416, 128
-0.952565, 273, 289, 336, 416
-0.952958, 329, 209, 392, 272
-0.953394, 17, 1, 144, 256
-0.953557, 361, 401, 424, 464
-0.953676, 385, 369, 448, 496
-0.954882, 209, 369, 336, 496
-0.955199, 97, 1, 352, 128
-0.955299, 113, 81, 240, 208
-0.95584, 297, 161, 360, 288
-0.955845, 1, 209, 64, 336
-0.956071, 161, 225, 224, 352
-0.956092, 337, 257, 464, 384
-0.956324, 273, 273, 400, 400
-0.956811, 377, 257, 440, 384
-0.956939, 201, 161, 264, 288
-0.957004, 1, 369, 64, 496
-0.957005, 161, 369, 288, 496
-0.957152, 97, 241, 224, 368
-0.95742, 185, 233, 248, 296
-0.95798, 337, 1, 464, 128
-0.95802, 105, 241, 168, 304
-0.958031, 1, 1, 256, 256
-0.958579, 161, 81, 416, 208
-0.958696, 305, 401, 368, 464
-0.959094, 361, 321, 424, 448
-0.959132, 249, 369, 312, 496
-0.959465, 33, 289, 288, 416
-0.959958, 113, 81, 176, 208
-0.96008, 57, 433, 120, 496
-0.960118, 257, 113, 320, 240
-0.960144, 217, 225, 280, 352
-0.960197, 193, 113, 320, 240
-0.960298, 193, 177, 320, 304
-0.960531, 65, 1, 192, 256
-0.960742, 73, 409, 136, 472
-0.960792, 33, 417, 96, 480
-0.961047, 25, 209, 88, 336
-0.961623, 273, 337, 336, 464
-0.961803, 329, 161, 392, 288
-0.961821, 233, 433, 296, 496
-0.961982, 337, 385, 400, 448
-0.96222, 89, 177, 152, 304
-0.962368, 17, 217, 80, 280
-0.962548, 145, 177, 272, 304
-0.962563, 377, 281, 440, 344
-0.962742, 33, 161, 160, 288
-0.962812, 225, 241, 288, 304
-0.962913, 193, 201, 256, 264
-0.96292, 49, 353, 112, 480
-0.962939, 177, 177, 240, 304
-0.963223, 113, 105, 176, 168
-0.9633, 129, 241, 192, 368
-0.963373, 201, 433, 264, 496
-0.963637, 353, 209, 416, 272
-0.963718, 241, 1, 368, 128
-0.963748, 65, 209, 128, 272
-0.963751, 329, 297, 392, 360
-0.963816, 409, 225, 472, 288
-0.963902, 313, 425, 376, 488
-0.964094, 321, 161, 448, 288
-0.964159, 201, 369, 264, 496
-0.964179, 377, 217, 440, 280
-0.96466, 273, 193, 336, 320
-0.965009, 177, 433, 240, 496
-0.965207, 329, 193, 392, 448
-0.965324, 1, 433, 64, 496
-0.965433, 65, 145, 128, 272
-0.965649, 25, 369, 88, 496
-0.965867, 193, 1, 320, 128
-0.96602, 385, 193, 448, 448
-0.966074, 1, 409, 64, 472
-0.966135, 377, 321, 440, 384
-0.966258, 289, 169, 352, 232
-0.966266, 337, 361, 400, 424
-0.966366, 81, 369, 144, 496
-0.966533, 305, 369, 368, 432
-0.966962, 417, 433, 448, 496
-0.967042, 337, 433, 464, 496
-0.967285, 257, 129, 320, 192
-0.967411, 385, 425, 416, 488
-0.967423, 81, 433, 144, 496
-0.967606, 389, 369, 420, 496
-0.967625, 41, 385, 104, 448
-0.967634, 381, 401, 412, 464
-0.967817, 321, 257, 384, 384
-0.967973, 385, 409, 448, 472
-0.968096, 137, 177, 200, 304
-0.968114, 137, 265, 200, 328
-0.968276, 281, 1, 344, 128
-0.96847, 409, 177, 472, 304
-0.968672, 17, 217, 144, 280
-0.96874, 73, 385, 136, 448
-0.968768, 329, 1, 392, 128
-0.968773, 105, 369, 168, 496
-0.968785, 337, 1, 400, 64
-0.968901, 169, 97, 232, 224
-0.96896, 257, 393, 384, 456
-0.968979, 289, 273, 352, 336
-0.969074, 113, 33, 240, 160
-0.969078, 161, 257, 224, 320
-0.969083, 353, 225, 416, 480
-0.969101, 265, 433, 328, 496
-0.969128, 265, 393, 328, 456
-0.969273, 97, 145, 160, 208
-0.969401, 369, 433, 400, 496
-0.969517, 233, 361, 296, 424
-0.969612, 361, 377, 424, 440
-0.969637, 353, 369, 474, 496
-0.969937, 405, 433, 436, 496
-0.970099, 297, 209, 360, 272
-0.97014, 325, 369, 356, 496
-0.970331, 89, 217, 152, 280
-0.970354, 329, 209, 360, 336
-0.970457, 361, 1, 424, 128
-0.97051, 297, 1, 360, 64
-0.970533, 357, 417, 388, 480
-0.970624, 273, 329, 336, 392
-0.970716, 81, 305, 208, 432
-0.970735, 441, 433, 472, 496
-0.970788, 441, 225, 472, 352
-0.970875, 409, 1, 472, 128
-0.970912, 233, 177, 296, 304
-0.970917, 233, 401, 296, 464
-0.9711, 305, 305, 432, 368
-0.97115, 145, 369, 208, 496
-0.971205, 321, 401, 448, 464
-0.971237, 305, 225, 368, 480
-0.971302, 177, 49, 304, 176
-0.971316, 409, 369, 472, 496
-0.971461, 429, 433, 460, 496
-0.971471, 281, 145, 344, 208
-0.971493, 225, 225, 288, 480
-0.971929, 273, 1, 336, 64
-0.971947, 409, 225, 472, 480
-0.972193, 361, 161, 424, 288
-0.972238, 177, 241, 304, 304
-0.97243, 265, 289, 328, 352
-0.972506, 209, 393, 272, 456
-0.972531, 97, 177, 160, 240
-0.972591, 137, 129, 200, 192
-0.972773, 129, 321, 256, 448
-0.972909, 409, 305, 472, 368
-0.973091, 113, 265, 176, 328
-0.973092, 185, 225, 248, 480
-0.973147, 161, 281, 224, 344
-0.97319, 321, 217, 448, 280
-0.973359, 273, 425, 400, 488
-0.973434, 201, 1, 264, 128
-0.973453, 225, 369, 288, 496
-0.973528, 105, 97, 168, 352
-0.973681, 257, 257, 320, 500
-0.973683, 289, 425, 352, 488
-0.973842, 409, 209, 440, 336
-0.97388, 353, 297, 416, 360
-0.974109, 17, 433, 144, 496
-0.974127, 177, 369, 240, 496
-0.974229, 65, 193, 128, 448
-0.974243, 353, 257, 416, 384
-0.974243, 161, 273, 224, 400
-0.974379, 313, 353, 344, 480
-0.974396, 337, 401, 368, 464
-0.974519, 93, 201, 124, 264
-0.974622, 1, 241, 64, 304
-0.974682, 193, 425, 320, 488
-0.974712, 281, 113, 344, 240
-0.974809, 401, 369, 432, 496
-0.974884, 97, 409, 160, 472
-0.974897, 321, 329, 448, 392
-0.975054, 57, 433, 88, 496
-0.975069, 321, 185, 384, 248
-0.975094, 429, 225, 460, 352
-0.975212, 169, 137, 232, 200
-0.975273, 137, 257, 200, 500
-0.975277, 321, 377, 448, 440
-0.975278, 345, 209, 376, 336
-0.975316, 97, 241, 224, 304
-0.975566, 129, 129, 192, 256
-0.975661, 425, 225, 456, 288
-0.975752, 145, 225, 208, 288
-0.975826, 337, 425, 368, 488
-0.975984, 297, 297, 360, 360
-0.976009, 401, 257, 464, 320
-0.976087, 97, 385, 160, 448
-0.976117, 353, 273, 474, 336
-0.976158, 225, 217, 288, 280
-0.976164, 1, 409, 128, 472
-0.976272, 93, 193, 124, 320
-0.976345, 169, 321, 232, 448
-0.976386, 65, 185, 128, 248
-0.976552, 49, 81, 176, 208
-0.976632, 313, 1, 376, 256
-0.976712, 397, 209, 428, 336
-0.976769, 73, 345, 136, 408
-0.976775, 257, 345, 384, 408
-0.976822, 289, 129, 352, 384
-0.976838, 1, 321, 128, 448
-0.976854, 193, 225, 224, 288
-0.97686, 1, 425, 32, 488
-0.976877, 325, 401, 356, 464
-0.976893, 329, 209, 360, 272
-0.976904, 193, 305, 320, 432
-0.976921, 177, 241, 208, 368
-0.976926, 17, 193, 80, 448
-0.97697, 113, 177, 176, 304
-0.976988, 257, 369, 384, 432
-0.977029, 297, 345, 360, 408
-0.977033, 241, 265, 304, 328
-0.977066, 313, 321, 376, 384
-0.977106, 385, 377, 448, 440
-0.977154, 341, 209, 372, 272
-0.977181, 145, 273, 272, 400
-0.977195, 41, 217, 104, 280
-0.977211, 193, 305, 256, 432
-0.977211, 169, 265, 200, 328
-0.977241, 73, 409, 104, 472
-0.977241, 237, 433, 268, 496
-0.977245, 337, 1, 464, 64
-0.977261, 1, 33, 256, 160
-0.97732, 137, 65, 200, 192
-0.977361, 369, 409, 400, 472
-0.977376, 337, 369, 368, 496
-0.977465, 9, 385, 72, 448
-0.977612, 385, 161, 448, 288
-0.977629, 189, 209, 220, 336
-0.977718, 257, 177, 384, 240
-0.977755, 89, 177, 120, 240
-0.977766, 401, 217, 432, 280
-0.977785, 357, 209, 388, 272
-0.977898, 313, 161, 344, 288
-0.97791, 113, 209, 240, 272
-0.977912, 113, 433, 176, 496
-0.97792, 385, 377, 416, 440
-0.977975, 289, 1, 416, 64
-0.977996, 225, 281, 352, 344
-0.977999, 49, 257, 176, 384
-0.978022, 273, 233, 336, 296
-0.978061, 97, 129, 224, 192
-0.97808, 1, 385, 128, 448
-0.978138, 409, 401, 472, 464
-0.978139, 69, 369, 100, 496
-0.978156, 373, 305, 404, 432
-0.978314, 385, 1, 448, 128
-0.978355, 381, 209, 412, 336
-0.978393, 65, 433, 192, 496
-0.978395, 393, 305, 424, 432
-0.978415, 209, 129, 336, 192
-0.978438, 241, 321, 304, 448
-0.978451, 153, 433, 216, 496
-0.978477, 217, 97, 280, 224
-0.978561, 73, 385, 104, 448
-0.978582, 113, 225, 144, 288
-0.978634, 161, 225, 224, 480
-0.978673, 137, 305, 200, 432
-0.978695, 49, 385, 176, 448
-0.978714, 353, 329, 416, 392
-0.978724, 321, 233, 384, 296
-0.978793, 441, 233, 472, 296
-0.978832, 249, 433, 280, 496
-0.978872, 181, 249, 212, 312
-0.978958, 117, 225, 148, 352
-0.978993, 401, 281, 464, 344
-0.97901, 209, 393, 336, 456
-0.979054, 357, 209, 388, 336
-0.97906, 273, 273, 400, 336
-0.979246, 313, 241, 344, 368
-0.979258, 121, 81, 184, 144
-0.97938, 229, 225, 260, 288
-0.979414, 169, 209, 232, 272
-0.979493, 113, 225, 176, 480
-0.979518, 169, 113, 232, 176
-0.979602, 89, 81, 152, 208
-0.979653, 401, 409, 432, 472
-0.979711, 333, 1, 364, 128
-0.979758, 377, 289, 408, 352
-0.979761, 209, 433, 240, 496
-0.979773, 241, 209, 368, 272
-0.979904, 257, 81, 384, 208
-0.979912, 221, 433, 252, 496
-0.980018, 193, 193, 320, 256
-0.980024, 225, 1, 288, 128
-0.980084, 361, 1, 424, 64
-0.980154, 329, 161, 360, 288
-0.980162, 281, 257, 344, 500
-0.980196, 41, 417, 72, 480
-0.980198, 85, 409, 116, 472
-0.980287, 201, 97, 264, 352
-0.980293, 49, 409, 176, 472
-0.980312, 125, 89, 156, 152
-0.980421, 97, 265, 224, 328
-0.980428, 257, 177, 320, 240
-0.980535, 249, 153, 312, 216
-0.980542, 33, 345, 96, 408
-0.9806, 145, 433, 272, 496
-0.980606, 289, 113, 352, 176
-0.980629, 313, 169, 344, 232
-0.980704, 177, 129, 240, 384
-0.980742, 241, 129, 304, 384
-0.980748, 293, 305, 324, 432
-0.980767, 325, 321, 356, 448
-0.980775, 201, 177, 232, 304
-0.980781, 365, 305, 396, 368
-0.980825, 101, 129, 132, 256
-0.980903, 257, 249, 288, 312
-0.980921, 369, 209, 400, 336
-0.981004, 333, 377, 364, 440
-0.981027, 113, 89, 240, 152
-0.981036, 353, 273, 416, 336
-0.981123, 253, 241, 284, 368
-0.98115, 257, 353, 320, 416
-0.981297, 41, 193, 104, 448
-0.981306, 73, 97, 136, 352
-0.981355, 389, 217, 420, 280
-0.981471, 429, 289, 460, 416
-0.981497, 413, 217, 444, 280
-0.981502, 345, 289, 376, 416
-0.981555, 321, 361, 352, 424
-0.981577, 241, 153, 368, 216
-0.981577, 225, 257, 352, 320
-0.98158, 261, 433, 292, 496
-0.981585, 177, 217, 304, 280
-0.981596, 121, 377, 184, 440
-0.981606, 69, 433, 100, 496
-0.981655, 145, 97, 208, 352
-0.981683, 193, 153, 320, 216
-0.981759, 285, 297, 316, 360
-0.981779, 121, 81, 152, 208
-0.981824, 193, 177, 256, 240
-0.981848, 217, 233, 248, 296
-0.981878, 309, 1, 340, 128
-0.981927, 33, 161, 96, 288
-0.981945, 229, 225, 260, 352
-0.981951, 377, 369, 408, 496
-0.982023, 137, 289, 200, 352
-0.982077, 81, 321, 144, 448
-0.982085, 297, 1, 328, 64
-0.982085, 321, 1, 352, 128
-0.982234, 241, 241, 272, 304
-0.982269, 9, 233, 40, 296
-0.982338, 169, 49, 232, 176
-0.982356, 401, 201, 464, 264
-0.982372, 397, 321, 428, 384
-0.982377, 409, 305, 440, 432
-0.982385, 1, 369, 32, 496
-0.982415, 305, 193, 432, 256
-0.982491, 177, 265, 304, 328
-0.982527, 93, 433, 124, 496
-0.982612, 377, 209, 408, 272
-0.982633, 373, 329, 404, 392
-0.982663, 397, 377, 428, 440
-0.982741, 325, 233, 356, 296
-0.982776, 333, 185, 364, 248
-0.982801, 81, 153, 208, 216
-0.982817, 185, 393, 248, 456
-0.982827, 241, 289, 304, 352
-0.982828, 89, 225, 152, 480
-0.98283, 265, 257, 328, 320
-0.982834, 333, 297, 364, 360
-0.982848, 145, 129, 272, 256
-0.982863, 201, 201, 232, 264
-0.982888, 265, 105, 328, 168
-0.98306, 273, 121, 304, 184
-0.983078, 257, 233, 384, 296
-0.98312, 313, 257, 376, 320
-0.983136, 21, 209, 52, 336
-0.983181, 337, 353, 464, 416
-0.983194, 1, 393, 32, 456
-0.983264, 5, 225, 36, 352
-0.983296, 117, 113, 148, 176
-0.98331, 81, 433, 112, 496
-0.983321, 101, 401, 132, 464
-0.983422, 353, 305, 474, 368
-0.983427, 289, 1, 352, 256
-0.983448, 277, 113, 308, 240
-0.983461, 297, 233, 360, 296
-0.983461, 353, 129, 416, 384
-0.983514, 161, 385, 288, 448
-0.983532, 73, 257, 136, 384
-0.983547, 89, 121, 152, 184
-0.983551, 125, 369, 156, 496
-0.983574, 385, 321, 416, 384
-0.983593, 201, 225, 232, 352
-0.983657, 217, 225, 248, 352
-0.983659, 241, 321, 368, 384
-0.983716, 249, 217, 312, 280
-0.983751, 1, 361, 128, 424
-0.983757, 29, 217, 60, 280
-0.983758, 241, 241, 272, 368
-0.983764, 105, 209, 136, 336
-0.983784, 209, 353, 272, 416
-0.983796, 33, 33, 160, 160
-0.98384, 217, 305, 280, 432
-0.983857, 17, 401, 48, 464
-0.983862, 325, 433, 356, 496
-0.983888, 321, 241, 448, 304
-0.983953, 333, 273, 364, 400
-0.983984, 313, 409, 344, 472
-0.98401, 241, 1, 368, 64
-0.984025, 193, 105, 320, 168
-0.984046, 361, 369, 392, 496
-0.984048, 193, 1, 256, 64
-0.984157, 273, 425, 304, 488
-0.984193, 105, 433, 136, 496
-0.984213, 321, 113, 448, 240
-0.984225, 341, 161, 372, 288
-0.984266, 309, 289, 340, 352
-0.984281, 257, 129, 384, 192
-0.984356, 233, 185, 296, 248
-0.984373, 97, 385, 224, 448
-0.984383, 89, 145, 120, 272
-0.984404, 265, 97, 328, 352
-0.98442, 53, 409, 84, 472
-0.984433, 281, 289, 312, 416
-0.984483, 265, 1, 328, 500
-0.984521, 409, 129, 472, 384
-0.984549, 297, 433, 328, 496
-0.984553, 137, 241, 168, 368
-0.98456, 429, 305, 460, 368
-0.984653, 17, 193, 144, 256
-0.984658, 17, 369, 48, 496
-0.984664, 229, 369, 260, 496
-0.984716, 317, 209, 348, 272
-0.984736, 241, 177, 272, 304
-0.984777, 217, 137, 280, 200
-0.984817, 61, 385, 92, 448
-0.984851, 209, 113, 272, 176
-0.984857, 49, 241, 176, 304
-0.984876, 121, 401, 184, 464
-0.984881, 241, 1, 304, 256
-0.984885, 257, 1, 320, 128
-0.984938, 273, 281, 304, 344
-0.984953, 289, 1, 352, 500
-0.984974, 241, 393, 272, 456
-0.984993, 265, 241, 328, 368
-0.98503, 137, 105, 200, 168
-0.985032, 81, 369, 112, 496
-0.985065, 101, 177, 132, 240
-0.985081, 57, 209, 88, 336
-0.985136, 145, 257, 176, 320
-0.985168, 149, 129, 180, 192
-0.985224, 321, 161, 384, 224
-0.98526, 49, 361, 176, 424
-0.985268, 129, 17, 192, 144
-0.985269, 205, 225, 236, 288
-0.985271, 61, 345, 92, 408
-0.985273, 113, 321, 176, 448
-0.985275, 161, 121, 192, 184
-0.985296, 401, 257, 432, 384
-0.985305, 37, 209, 68, 336
-0.985512, 65, 217, 192, 280
-0.985537, 329, 1, 392, 500
-0.985537, 121, 201, 184, 264
-0.985615, 309, 1, 340, 64
-0.985639, 405, 281, 436, 344
-0.985642, 333, 153, 364, 216
-0.985646, 217, 1, 280, 256
-0.985681, 269, 257, 300, 384
-0.985703, 321, 9, 352, 72
-0.985712, 305, 49, 432, 176
-0.985738, 97, 185, 224, 248
-0.985742, 97, 153, 128, 216
-0.985801, 33, 321, 96, 384
-0.985847, 441, 345, 472, 408
-0.985866, 165, 257, 196, 384
-0.985898, 197, 433, 228, 496
-0.985903, 257, 369, 288, 432
-0.985916, 369, 1, 400, 64
-0.985927, 29, 433, 60, 496
-0.985933, 353, 1, 416, 500
-0.985948, 229, 393, 260, 456
-0.98606, 265, 1, 328, 256
-0.986118, 441, 265, 472, 328
-0.986219, 345, 33, 408, 288
-0.986251, 9, 353, 72, 416
-0.986257, 181, 225, 212, 288
-0.986298, 393, 353, 456, 416
-0.986303, 1, 241, 128, 304
-0.986311, 253, 177, 284, 304
-0.986329, 369, 185, 432, 248
-0.986332, 129, 241, 160, 304
-0.986341, 417, 257, 448, 384
-0.986342, 69, 209, 100, 336
-0.986344, 185, 257, 248, 320
-0.986376, 153, 385, 216, 448
-0.986384, 345, 1, 376, 128
-0.986392, 441, 273, 472, 400
-0.986418, 209, 369, 336, 432
-0.986428, 293, 321, 324, 384
-0.986439, 33, 193, 96, 256
-0.986448, 149, 257, 180, 384
-0.986466, 357, 393, 388, 456
-0.986468, 161, 241, 192, 304
-0.98649, 177, 361, 240, 424
-0.986497, 393, 1, 456, 64
-0.986501, 29, 393, 60, 456
-0.986543, 177, 289, 208, 352
-0.986592, 261, 337, 292, 464
-0.986632, 157, 273, 188, 336
-0.986721, 313, 289, 344, 416
-0.986746, 81, 209, 112, 336
-0.986752, 353, 289, 384, 352
-0.986757, 213, 161, 244, 288
-0.986815, 169, 161, 232, 224
-0.986829, 101, 369, 132, 496
-0.986833, 293, 137, 324, 200
-0.986843, 201, 1, 264, 500
-0.986926, 345, 185, 408, 248
-0.986984, 425, 273, 456, 336
-0.98702, 321, 321, 352, 384
-0.987024, 333, 9, 364, 72
-0.987031, 393, 161, 424, 288
-0.987049, 349, 353, 380, 480
-0.987067, 57, 369, 88, 496
-0.98707, 293, 369, 324, 496
-0.987094, 437, 209, 468, 272
-0.987097, 193, 49, 256, 176
-0.987126, 285, 433, 316, 496
-0.987176, 197, 97, 228, 224
-0.987202, 117, 393, 148, 456
-0.987211, 89, 97, 152, 160
-0.987226, 321, 97, 384, 352
-0.987245, 297, 1, 328, 128
-0.987297, 273, 369, 304, 496
-0.987313, 29, 369, 60, 496
-0.987332, 65, 65, 128, 192
-0.987335, 405, 161, 436, 288
-0.987348, 145, 137, 272, 200
-0.987357, 261, 401, 292, 464
-0.987374, 1, 217, 256, 280
-0.987558, 65, 105, 192, 168
-0.987576, 41, 217, 72, 280
-0.987593, 361, 257, 392, 384
-0.98765, 385, 1, 448, 500
-0.987652, 373, 1, 404, 128
-0.987666, 177, 433, 208, 496
-0.98769, 241, 1, 304, 500
-0.987736, 161, 1, 288, 64
-0.987772, 249, 217, 280, 280
-0.987772, 113, 129, 144, 256
-0.987776, 97, 273, 160, 400
-0.987782, 177, 345, 304, 408
-0.987812, 61, 321, 92, 448
-0.987823, 57, 217, 88, 280
-0.987833, 265, 113, 296, 240
-0.987845, 1, 257, 32, 320
-0.987845, 393, 297, 424, 360
-0.987974, 389, 257, 420, 384
-0.988019, 161, 145, 192, 208
-0.988028, 105, 1, 168, 500
-0.98809, 373, 377, 404, 440
-0.988142, 421, 177, 452, 304
-0.988287, 73, 217, 104, 280
-0.988308, 361, 425, 424, 456
-0.988432, 81, 361, 112, 424
-0.988437, 261, 345, 292, 408
-0.988457, 97, 409, 224, 472
-0.988468, 105, 201, 136, 264
-0.988539, 417, 305, 448, 368
-0.988558, 337, 425, 400, 456
-0.988582, 417, 369, 448, 496
-0.988601, 249, 337, 280, 464
-0.988607, 257, 469, 320, 500
-0.988733, 49, 97, 112, 352
-0.988753, 329, 217, 392, 248
-0.988753, 185, 237, 248, 268
-0.988756, 377, 97, 440, 352
-0.988765, 161, 1, 224, 500
-0.988892, 305, 465, 368, 496
-0.988943, 225, 217, 474, 280
-0.989009, 361, 437, 424, 468
-0.989104, 181, 337, 212, 464
-0.989121, 9, 161, 72, 288
-0.989156, 169, 1, 232, 256
-0.989215, 345, 413, 408, 444
-0.989233, 89, 33, 152, 160
-0.989245, 229, 177, 260, 304
-0.989246, 225, 417, 474, 480
-0.989267, 113, 369, 144, 496
-0.989284, 357, 161, 388, 288
-0.989284, 217, 369, 248, 496
-0.989285, 353, 49, 474, 176
-0.989286, 281, 469, 344, 500
-0.989296, 1, 409, 474, 472
-0.989308, 145, 409, 272, 472
-0.98933, 129, 361, 256, 424
-0.989331, 289, 129, 320, 256
-0.989365, 321, 169, 448, 232
-0.989369, 193, 97, 256, 224
-0.98937, 1, 209, 474, 272
-0.989442, 133, 81, 164, 208
-0.989462, 377, 329, 440, 360
-0.989494, 357, 305, 388, 432
-0.989499, 117, 177, 148, 304
-0.989534, 177, 1, 240, 128
-0.989537, 437, 369, 468, 496
-0.989618, 45, 369, 76, 496
-0.989628, 153, 369, 184, 496
-0.989683, 25, 453, 88, 484
-0.989686, 205, 369, 236, 496
-0.989686, 81, 1, 144, 500
-0.989698, 113, 65, 240, 128
-0.989705, 73, 217, 136, 248
-0.989714, 129, 161, 256, 224
-0.989719, 57, 421, 120, 452
-0.989742, 337, 457, 400, 488
-0.989756, 305, 405, 368, 436
-0.989758, 381, 161, 412, 288
-0.989768, 165, 193, 196, 320
-0.989786, 305, 81, 368, 208
-0.98983, 1, 465, 64, 496
-0.989854, 57, 469, 120, 500
-0.989885, 169, 369, 200, 496
-0.989978, 293, 257, 324, 384
-0.989995, 401, 465, 464, 496
-0.990003, 97, 233, 352, 296
-0.99001, 345, 389, 408, 420
-0.990012, 385, 445, 448, 476
-0.990028, 233, 469, 296, 500
-0.99004, 369, 409, 432, 440
-0.990046, 161, 193, 416, 256
-0.99006, 257, 105, 384, 168
-0.990073, 265, 65, 328, 192
-0.990077, 17, 225, 80, 256
-0.990084, 113, 129, 176, 160
-0.990085, 313, 425, 376, 456
-0.990112, 189, 145, 220, 272
-0.990113, 49, 437, 112, 468
-0.990115, 337, 1, 400, 32
-0.990136, 145, 113, 272, 176
-0.990153, 169, 305, 200, 432
-0.990198, 217, 425, 280, 456
-0.990221, 361, 465, 424, 496
-0.990234, 385, 429, 448, 460
-0.990267, 361, 453, 424, 484
-0.990274, 49, 129, 176, 192
-0.990336, 209, 241, 272, 272
-0.990338, 113, 289, 240, 352
-0.990339, 337, 445, 400, 476
-0.990345, 297, 385, 360, 416
-0.990385, 281, 173, 344, 204
-0.990412, 353, 217, 416, 248
-0.990447, 65, 337, 192, 400
-0.990485, 225, 393, 474, 456
-0.990533, 345, 317, 408, 348
-0.990536, 113, 117, 176, 148
-0.990543, 25, 469, 88, 500
-0.990552, 33, 273, 160, 336
-0.990567, 337, 469, 400, 500
-0.990572, 257, 133, 320, 164
-0.990634, 301, 145, 332, 272
-0.990647, 385, 317, 448, 348
-0.990661, 1, 441, 64, 472
-0.990673, 161, 265, 224, 296
-0.990676, 297, 209, 360, 240
-0.990676, 81, 413, 144, 444
-0.990693, 81, 469, 144, 500
-0.990696, 233, 253, 296, 284
-0.990708, 105, 245, 168, 276
-0.990711, 409, 445, 472, 476
-0.990717, 337, 377, 400, 408
-0.990725, 25, 437, 88, 468
-0.990737, 1, 377, 474, 440
-0.990747, 17, 417, 80, 448
-0.990749, 1, 453, 64, 484
-0.990751, 377, 221, 440, 252
-0.990761, 153, 1, 216, 128
-0.990808, 409, 229, 472, 260
-0.990854, 369, 393, 432, 424
-0.990861, 173, 65, 204, 192
-0.990921, 113, 313, 240, 376
-0.99094, 161, 277, 224, 308
-0.990966, 385, 1, 416, 128
-0.990979, 105, 257, 168, 288
-0.990986, 345, 401, 408, 432
-0.990986, 273, 349, 336, 380
-0.990994, 289, 293, 352, 324
-0.990997, 137, 1, 200, 500
-0.991007, 393, 277, 456, 308
-0.991008, 137, 273, 200, 304
-0.991019, 177, 469, 240, 500
-0.991022, 209, 465, 272, 496
-0.991049, 129, 465, 192, 496
-0.991059, 237, 305, 268, 432
-0.991073, 137, 133, 200, 164
-0.9911, 157, 113, 188, 240
-0.991107, 185, 225, 248, 256
-0.991113, 33, 433, 288, 496
-0.991149, 313, 453, 376, 484
-0.991158, 241, 417, 304, 448
-0.991165, 353, 193, 474, 256
-0.991179, 273, 269, 336, 300
-0.991191, 25, 321, 88, 448
-0.991193, 145, 289, 208, 320
-0.991198, 121, 97, 184, 128
-0.991207, 273, 209, 304, 336
-0.991213, 193, 209, 256, 240
-0.991226, 193, 337, 224, 464
-0.991229, 193, 429, 256, 460
-0.991258, 297, 9, 360, 40
-0.991274, 41, 221, 104, 252
-0.991288, 321, 229, 384, 260
-0.991312, 169, 141, 232, 172
-0.991315, 313, 341, 376, 372
-0.991333, 73, 441, 136, 472
-0.991336, 97, 181, 160, 212
-0.991339, 129, 433, 384, 496
-0.99134, 273, 405, 336, 436
-0.991345, 49, 449, 112, 480
-0.991348, 289, 221, 352, 252
-0.99135, 373, 257, 404, 384
-0.991352, 265, 457, 328, 488
-0.991372, 153, 469, 216, 500
-0.991375, 353, 333, 416, 364
-0.991377, 297, 373, 360, 404
-0.991377, 1, 429, 64, 460
-0.991379, 321, 353, 384, 384
-0.991383, 241, 285, 304, 316
-0.991387, 105, 469, 168, 500
-0.99139, 97, 205, 160, 236
-0.991394, 145, 253, 208, 284
-0.991396, 1, 433, 474, 496
-0.991411, 65, 129, 320, 192
-0.991433, 289, 329, 352, 360
-0.991439, 225, 229, 288, 260
-0.991444, 437, 177, 468, 304
-0.991454, 105, 141, 168, 172
-0.991458, 225, 369, 288, 400
-0.991463, 17, 105, 144, 168
-0.991478, 1, 405, 64, 436
-0.991485, 33, 81, 160, 144
-0.99149, 401, 417, 464, 448
-0.991497, 121, 1, 184, 256
-0.99152, 289, 185, 352, 216
-0.991551, 233, 273, 296, 304
-0.991575, 289, 453, 352, 484
-0.991581, 213, 1, 244, 128
-0.991584, 329, 305, 392, 336
-0.991597, 137, 149, 200, 180
-0.991622, 265, 149, 328, 180
-0.991622, 329, 205, 392, 236
-0.991622, 97, 153, 160, 184
-0.991635, 177, 129, 240, 160
-0.991637, 265, 321, 328, 352
-0.991658, 369, 161, 400, 288
-0.991662, 145, 241, 208, 272
-0.991666, 393, 393, 456, 424
-0.991667, 289, 417, 352, 448
-0.991677, 209, 189, 272, 220
-0.991687, 1, 253, 64, 284
-0.991699, 321, 17, 384, 48
-0.991707, 241, 1, 272, 128
-0.991723, 265, 417, 328, 448
-0.991746, 137, 121, 200, 152
-0.991746, 177, 253, 240, 284
-0.991749, 289, 309, 352, 340
-0.991757, 257, 297, 320, 328
-0.991774, 313, 437, 376, 468
-0.991776, 297, 233, 360, 264
-0.991781, 241, 457, 304, 488
-0.991792, 9, 237, 72, 268
-0.991793, 257, 393, 320, 424
-0.991794, 89, 229, 152, 260
-0.991804, 97, 429, 160, 460
-0.991831, 97, 257, 352, 320
-0.991898, 129, 361, 384, 424
-0.991941, 225, 361, 474, 424
-0.991967, 25, 1, 88, 500
-0.99198, 177, 129, 208, 256
-0.991986, 369, 49, 432, 176
-0.992011, 225, 1, 474, 64
-0.992032, 77, 161, 108, 288
-0.99209, 9, 97, 72, 352
-0.992133, 241, 49, 304, 176
-0.992143, 357, 425, 388, 456
-0.992156, 441, 1, 472, 128
-0.992177, 1, 81, 128, 208
-0.992185, 225, 305, 474, 368
-0.992188, 229, 1, 260, 128
-0.992199, 381, 405, 412, 436
-0.992215, 161, 289, 288, 352
-0.992246, 33, 153, 160, 216
-0.99225, 361, 1, 392, 128
-0.992256, 113, 25, 240, 88
-0.992256, 385, 433, 416, 464
-0.99226, 193, 233, 224, 264
-0.992285, 65, 401, 320, 464
-0.992289, 1, 353, 474, 416
-0.992306, 57, 1, 120, 500
-0.99232, 337, 25, 464, 88
-0.992321, 17, 221, 144, 252
-0.992321, 221, 237, 252, 268
-0.992349, 369, 425, 400, 456
-0.992349, 317, 465, 348, 496
-0.992356, 381, 417, 412, 448
-0.992359, 289, 469, 320, 500
-0.99238, 225, 249, 474, 312
-0.992385, 333, 405, 364, 436
-0.992385, 137, 369, 168, 496
-0.992396, 353, 453, 384, 484
-0.992401, 365, 437, 396, 468
-0.99241, 337, 465, 368, 496
-0.992413, 381, 393, 412, 424
-0.992425, 393, 393, 424, 424
-0.992439, 261, 469, 292, 500
-0.992442, 209, 25, 336, 88
-0.992468, 337, 417, 368, 448
-0.992488, 329, 113, 392, 240
-0.992492, 333, 217, 364, 248
-0.992497, 133, 177, 164, 304
-0.9925, 145, 185, 272, 248
-0.992506, 217, 49, 280, 176
-0.992508, 61, 433, 92, 464
-0.992512, 1, 337, 128, 400
-0.992516, 165, 273, 196, 304
-0.992528, 97, 213, 128, 244
-0.992536, 353, 57, 474, 120
-0.992544, 189, 289, 220, 416
-0.992546, 401, 413, 432, 444
-0.992553, 405, 445, 436, 476
-0.992558, 277, 469, 308, 500
-0.992571, 73, 425, 104, 456
-0.992576, 349, 409, 380, 440
-0.992578, 381, 329, 412, 360
-0.992586, 49, 421, 80, 452
-0.992627, 1, 429, 32, 460
-0.992647, 369, 449, 400, 480
-0.992649, 301, 469, 332, 500
-0.992651, 417, 445, 448, 476
-0.99266, 345, 429, 376, 460
-0.992666, 41, 453, 72, 484
-0.99267, 9, 469, 40, 500
-0.992677, 441, 237, 472, 268
-0.992683, 373, 317, 404, 348
-0.992684, 29, 469, 60, 500
-0.992695, 65, 185, 320, 248
-0.992699, 117, 125, 148, 156
-0.992712, 101, 433, 132, 464
-0.992712, 241, 469, 368, 500
-0.992721, 53, 469, 84, 500
-0.992726, 253, 253, 284, 284
-0.992748, 417, 461, 448, 492
-0.992754, 181, 253, 212, 284
-0.992762, 249, 469, 280, 500
-0.992765, 425, 233, 456, 264
-0.99277, 225, 337, 474, 400
-0.992771, 49, 437, 80, 468
-0.992776, 241, 249, 272, 280
-0.992787, 61, 421, 92, 452
-0.992788, 25, 225, 56, 256
-0.992792, 357, 217, 388, 248
-0.992802, 353, 445, 474, 476
-0.992815, 169, 285, 200, 316
-0.992817, 289, 313, 416, 344
-0.992824, 125, 97, 156, 128
-0.992825, 233, 233, 264, 264
-0.992826, 65, 465, 96, 496
-0.992829, 405, 465, 436, 496
-0.99283, 9, 393, 40, 424
-0.99283, 1, 457, 32, 488
-0.992834, 437, 465, 468, 496
-0.992837, 273, 25, 400, 88
-0.992837, 385, 445, 416, 476
-0.99284, 221, 429, 252, 460
-0.992853, 157, 129, 188, 160
-0.992856, 117, 233, 148, 264
-0.992861, 109, 469, 140, 500
-0.992861, 161, 169, 416, 232
-0.992867, 433, 441, 464, 472
-0.992878, 137, 133, 168, 164
-0.992882, 353, 441, 384, 472
-0.992882, 393, 465, 424, 496
-0.992887, 345, 217, 376, 248
-0.992891, 65, 397, 96, 428
-0.992894, 409, 225, 440, 256
-0.992902, 423, 433, 438, 496
-0.992906, 29, 457, 60, 488
-0.992911, 233, 469, 264, 500
-0.992916, 373, 217, 404, 248
-0.992917, 333, 429, 364, 460
-0.992918, 277, 293, 308, 324
-0.99292, 209, 237, 240, 268
-0.992923, 257, 357, 288, 388
-0.992924, 401, 429, 432, 460
-0.992926, 65, 373, 96, 404
-0.99293, 389, 221, 420, 252
-0.992932, 325, 229, 356, 260
-0.992932, 369, 337, 400, 368
-0.992938, 333, 205, 364, 236
-0.992941, 361, 317, 392, 348
-0.992942, 209, 429, 240, 460
-0.992943, 17, 445, 48, 476
-0.992946, 181, 265, 212, 296
-0.992952, 329, 453, 360, 484
-0.992953, 37, 441, 68, 472
-0.992954, 441, 349, 472, 380
-0.992957, 97, 417, 128, 448
-0.992959, 333, 393, 364, 424
-0.992961, 365, 461, 396, 492
-0.992969, 309, 173, 340, 204
-0.99297, 85, 417, 116, 448
-0.992974, 297, 457, 328, 488
-0.992974, 357, 1, 388, 32
-0.992976, 385, 317, 416, 348
-0.992978, 233, 425, 264, 456
-0.99298, 261, 273, 292, 304
-0.99298, 121, 113, 152, 144
-0.992983, 349, 465, 380, 496
-0.992987, 97, 469, 128, 500
-0.992988, 321, 217, 352, 248
-0.992997, 1, 185, 474, 248
-0.992997, 329, 165, 360, 196
-0.992997, 21, 409, 52, 440
-0.993, 321, 413, 352, 444
-0.993007, 361, 413, 392, 444
-0.99301, 377, 465, 408, 496
-0.993016, 325, 241, 356, 272
-0.993019, 221, 469, 252, 500
-0.99302, 313, 329, 344, 360
-0.993021, 33, 297, 160, 360
-0.993029, 185, 469, 216, 500
-0.99303, 113, 425, 144, 456
-0.99303, 389, 381, 420, 412
-0.993032, 9, 417, 40, 448
-0.993036, 297, 293, 328, 324
-0.993037, 89, 441, 120, 472
-0.99305, 109, 201, 140, 232
-0.993051, 157, 149, 188, 180
-0.993053, 53, 449, 84, 480
-0.993059, 61, 409, 92, 440
-0.993064, 277, 457, 308, 488
-0.99307, 69, 221, 100, 252
-0.993074, 317, 369, 348, 400
-0.993075, 145, 145, 176, 176
-0.993077, 125, 245, 156, 276
-0.99308, 317, 453, 348, 484
-0.993083, 77, 469, 108, 500
-0.993083, 321, 405, 448, 436
-0.993122, 409, 1, 472, 500
-0.993164, 321, 145, 448, 208
-0.993174, 65, 105, 320, 168
-0.99327, 321, 465, 448, 496
-0.993277, 1, 1, 474, 64
-0.993323, 381, 433, 396, 496
-0.993343, 129, 297, 384, 360
-0.993347, 455, 433, 470, 496
-0.993349, 337, 221, 464, 252
-0.993375, 113, 1, 240, 64
-0.993379, 411, 433, 426, 496
-0.993398, 429, 433, 444, 496
-0.993399, 103, 177, 118, 240
-0.993429, 449, 433, 464, 496
-0.993449, 177, 81, 304, 144
-0.993492, 439, 433, 454, 496
-0.993498, 321, 425, 448, 456
-0.993531, 129, 337, 384, 400
-0.993612, 417, 433, 432, 496
-0.993664, 65, 153, 320, 216
-0.993712, 1, 241, 474, 304
-0.993739, 193, 321, 320, 384
-0.993748, 225, 273, 474, 336
-0.993752, 375, 417, 390, 480
-0.993752, 405, 433, 420, 496
-0.993807, 129, 337, 256, 400
-0.993828, 257, 405, 384, 436
-0.993846, 161, 137, 416, 200
-0.99388, 177, 245, 304, 276
-0.993944, 399, 425, 414, 488
-0.993972, 177, 57, 304, 120
-0.994016, 335, 209, 350, 272
-0.994064, 369, 425, 384, 488
-0.994202, 81, 385, 96, 448
-0.994279, 321, 393, 448, 424
-0.994286, 363, 417, 378, 480
-0.994304, 397, 401, 412, 464
-0.994305, 439, 225, 454, 288
-0.994311, 451, 233, 466, 296
-0.994383, 97, 185, 112, 248
-0.994393, 321, 1, 448, 32
-0.994441, 1, 241, 256, 304
-0.994455, 183, 257, 198, 320
-0.994456, 405, 377, 420, 440
-0.99446, 105, 201, 120, 264
-0.994475, 305, 49, 432, 112
-0.994502, 113, 229, 240, 260
-0.994522, 305, 121, 432, 184
-0.994549, 1, 129, 128, 192
-0.994558, 5, 425, 20, 488
-0.994566, 1, 321, 474, 384
-0.994569, 387, 433, 402, 496
-0.994611, 257, 417, 384, 448
-0.994622, 97, 253, 224, 284
-0.994626, 97, 1, 160, 256
-0.994629, 97, 133, 224, 164
-0.994633, 49, 469, 176, 500
-0.994634, 1, 453, 128, 484
-0.994648, 1, 469, 128, 500
-0.994668, 113, 469, 240, 500
-0.99468, 389, 385, 404, 448
-0.994686, 273, 457, 400, 488
-0.994696, 343, 401, 358, 464
-0.994737, 73, 425, 88, 488
-0.994775, 459, 233, 474, 296
-0.99478, 251, 433, 266, 496
-0.994785, 399, 369, 414, 432
-0.994804, 129, 1, 384, 64
-0.994813, 417, 217, 432, 280
-0.994829, 433, 225, 448, 288
-0.994831, 289, 301, 416, 332
-0.99488, 67, 425, 82, 488
-0.99488, 241, 433, 256, 496
-0.994889, 337, 377, 352, 440
-0.994918, 341, 217, 356, 280
-0.994935, 1, 425, 128, 456
-0.994949, 341, 433, 356, 496
-0.99495, 409, 217, 424, 280
-0.994952, 289, 325, 416, 356
-0.994981, 17, 437, 144, 468
-0.995004, 381, 409, 396, 472
-0.995044, 257, 373, 384, 404
-0.99506, 407, 409, 422, 472
-0.995065, 223, 433, 238, 496
-0.995078, 79, 417, 94, 480
-0.995097, 365, 209, 380, 272
-0.995106, 347, 217, 362, 280
-0.995118, 195, 225, 210, 288
-0.99512, 355, 425, 370, 488
-0.99512, 257, 433, 272, 496
-0.995132, 33, 57, 160, 120
-0.995133, 177, 257, 304, 288
-0.995146, 161, 33, 288, 96
-0.995191, 371, 209, 386, 272
-0.995194, 97, 81, 352, 144
-0.995197, 113, 217, 128, 280
-0.995215, 77, 345, 92, 408
-0.995226, 389, 209, 404, 272
-0.995245, 401, 217, 416, 280
-0.995271, 209, 133, 336, 164
-0.995298, 61, 433, 76, 496
-0.995318, 203, 201, 218, 264
-0.995319, 445, 225, 460, 288
-0.995334, 379, 305, 394, 368
-0.995344, 349, 417, 364, 480
-0.995345, 85, 409, 100, 472
-0.995349, 1, 289, 474, 352
-0.995351, 305, 337, 432, 368
-0.995361, 97, 269, 224, 300
-0.995362, 385, 305, 400, 368
-0.995384, 235, 433, 250, 496
-0.99539, 263, 433, 278, 496
-0.995393, 427, 225, 442, 288
-0.995403, 273, 429, 400, 460
-0.995446, 161, 105, 416, 168
-0.995449, 245, 241, 260, 304
-0.995471, 273, 281, 400, 312
-0.995504, 75, 385, 90, 448
-0.99551, 193, 469, 320, 500
-0.995526, 229, 433, 244, 496
-0.995547, 201, 225, 216, 288
-0.995549, 1, 265, 474, 328
-0.995564, 217, 433, 232, 496
-0.995566, 1, 1, 64, 500
-0.995571, 257, 393, 384, 424
-0.995612, 337, 321, 464, 352
-0.995626, 177, 233, 304, 264
-0.995654, 189, 233, 204, 296
-0.995657, 345, 193, 376, 448
-0.995658, 393, 425, 408, 488
-0.99567, 349, 393, 364, 456
-0.995671, 97, 241, 224, 272
-0.995678, 225, 233, 352, 264
-0.995684, 353, 293, 474, 324
-0.995693, 355, 401, 370, 464
-0.995698, 225, 261, 352, 292
-0.995716, 345, 49, 408, 176
-0.995718, 237, 217, 252, 280
-0.995726, 313, 1, 328, 64
-0.995731, 333, 401, 348, 464
-0.995732, 1, 397, 128, 428
-0.995734, 251, 241, 266, 304
-0.995741, 93, 409, 108, 472
-0.995756, 395, 209, 410, 272
-0.995759, 1, 413, 128, 444
-0.99576, 7, 249, 22, 312
-0.99576, 327, 169, 342, 232
-0.995762, 457, 345, 472, 408
-0.995767, 131, 89, 146, 152
-0.995767, 1, 265, 16, 328
-0.995776, 305, 349, 432, 380
-0.995779, 269, 433, 284, 496
-0.995789, 177, 269, 304, 300
-0.99579, 241, 357, 368, 388
-0.995803, 231, 225, 246, 288
-0.995815, 273, 257, 288, 320
-0.99583, 175, 265, 190, 328
-0.995842, 333, 193, 364, 448
-0.995844, 241, 181, 368, 212
-0.995848, 289, 445, 416, 476
-0.99585, 393, 193, 424, 448
-0.995854, 335, 425, 350, 488
-0.995855, 377, 209, 392, 272
-0.995874, 1, 145, 474, 208
-0.995881, 49, 417, 64, 480
-0.995897, 321, 377, 448, 408
-0.9959, 33, 377, 288, 440
-0.995902, 113, 217, 240, 248
-0.995904, 49, 393, 176, 424
-0.99591, 243, 217, 258, 280
-0.995913, 359, 209, 374, 272
-0.995916, 49, 421, 176, 452
-0.995939, 413, 193, 444, 448
-0.995941, 1, 385, 128, 416
-0.995951, 225, 277, 352, 308
-0.995961, 275, 433, 290, 496
-0.995965, 193, 1, 256, 256
-0.995969, 257, 9, 384, 40
-0.995973, 99, 409, 114, 472
-0.995975, 81, 149, 208, 180
-0.995986, 105, 153, 120, 216
-0.995996, 211, 433, 226, 496
-0.995998, 459, 409, 474, 472
-0.996, 337, 153, 352, 216
-0.996001, 87, 377, 102, 440
-0.996005, 207, 225, 222, 288
-0.996013, 1, 97, 474, 160
-0.996014, 97, 285, 224, 316
-0.996028, 95, 433, 110, 496
-0.996035, 209, 425, 336, 456
-0.996035, 225, 233, 240, 296
-0.996037, 167, 121, 182, 184
-0.996048, 113, 97, 240, 128
-0.996057, 209, 149, 336, 180
-0.996064, 373, 289, 388, 352
-0.996066, 365, 193, 396, 448
-0.996072, 381, 193, 412, 448
-0.996091, 33, 217, 48, 280
-0.996092, 209, 289, 336, 320
-0.996119, 331, 369, 346, 432
-0.996125, 15, 233, 30, 296
-0.996138, 305, 13, 432, 44
-0.996142, 265, 249, 280, 312
-0.996144, 55, 417, 70, 480
-0.996146, 215, 233, 230, 296
-0.996164, 373, 393, 388, 456
-0.996167, 43, 433, 58, 496
-0.996172, 395, 297, 410, 360
-0.996174, 97, 121, 224, 152
-0.996181, 429, 225, 460, 480
-0.996182, 257, 209, 384, 240
-0.996189, 81, 161, 208, 192
-0.996191, 21, 225, 36, 288
-0.9962, 353, 209, 368, 272
-0.996208, 1, 237, 128, 268
-0.996209, 211, 201, 226, 264
-0.996227, 297, 297, 312, 360
-0.996229, 391, 321, 406, 384
-0.99623, 61, 409, 76, 472
-0.996236, 337, 297, 352, 360
-0.996239, 89, 433, 104, 496
-0.996245, 257, 245, 384, 276
-0.996248, 161, 141, 288, 172
-0.996248, 209, 457, 336, 488
-0.996255, 263, 361, 278, 424
-0.996266, 431, 305, 446, 368
-0.996273, 337, 9, 352, 72
-0.996283, 421, 313, 436, 376
-0.996287, 441, 225, 472, 480
-0.996294, 337, 305, 464, 336
-0.996311, 449, 329, 464, 392
-0.996318, 119, 113, 134, 176
-0.996324, 225, 73, 352, 136
-0.996329, 335, 233, 350, 296
-0.996332, 119, 217, 134, 280
-0.996336, 287, 289, 302, 352
-0.996372, 321, 365, 448, 396
-0.996392, 237, 225, 268, 480
-0.996415, 321, 225, 352, 480
-0.996447, 33, 289, 288, 352
-0.996472, 353, 13, 474, 44
-0.996493, 1, 321, 64, 448
-0.996496, 1, 261, 128, 292
-0.996506, 209, 393, 336, 424
-0.99652, 225, 49, 352, 112
-0.996544, 241, 169, 368, 200
-0.996574, 1, 249, 128, 280
-0.996575, 273, 269, 400, 300
-0.996589, 225, 317, 352, 348
-0.996617, 241, 301, 368, 332
-0.996644, 193, 189, 320, 220
-0.996652, 145, 1, 208, 256
-0.996658, 241, 345, 368, 376
-0.996666, 289, 221, 416, 252
-0.996689, 321, 209, 448, 240
-0.996731, 65, 437, 192, 468
-0.996744, 65, 457, 192, 488
-0.996745, 379, 429, 394, 460
-0.996754, 101, 129, 132, 384
-0.996771, 241, 221, 368, 252
-0.996775, 173, 257, 204, 500
-0.996822, 401, 65, 464, 192
-0.996822, 321, 237, 448, 268
-0.996823, 273, 81, 400, 144
-0.996839, 177, 121, 304, 152
-0.996868, 193, 165, 320, 196
-0.996892, 65, 9, 192, 72
-0.996898, 253, 225, 284, 480
-0.996898, 49, 405, 176, 436
-0.996902, 57, 193, 88, 448
-0.99692, 161, 25, 416, 88
-0.996921, 353, 281, 474, 312
-0.996956, 197, 193, 228, 448
-0.99697, 373, 425, 388, 456
-0.996975, 193, 221, 320, 252
-0.996977, 269, 257, 300, 500
-0.996993, 325, 1, 356, 256
-0.996999, 257, 197, 384, 228
-0.997002, 1, 225, 32, 480
-0.997004, 97, 109, 224, 140
-0.997012, 225, 225, 256, 480
-0.997038, 161, 425, 288, 456
-0.997056, 353, 333, 474, 364
-0.997063, 113, 85, 240, 116
-0.997065, 105, 209, 120, 240
-0.997068, 209, 413, 336, 444
-0.997076, 113, 97, 144, 352
-0.99708, 1, 81, 256, 144
-0.997083, 405, 397, 420, 428
-0.997096, 353, 413, 368, 444
-0.997106, 213, 225, 244, 480
-0.997108, 1, 121, 474, 184
-0.997114, 81, 193, 112, 448
-0.997128, 401, 385, 416, 416
-0.997134, 81, 177, 208, 208
-0.997142, 399, 405, 414, 436
-0.997173, 1, 265, 256, 328
-0.997187, 343, 465, 358, 496
-0.997198, 49, 305, 112, 432
-0.9972, 145, 257, 176, 500
-0.997203, 343, 217, 358, 248
-0.997207, 193, 437, 320, 468
-0.997209, 391, 393, 406, 424
-0.997209, 33, 1, 288, 64
-0.997236, 49, 377, 176, 408
-0.997239, 257, 133, 384, 164
-0.99724, 1, 353, 256, 416
-0.997243, 241, 333, 368, 364
-0.997246, 293, 257, 324, 500
-0.997259, 333, 221, 348, 252
-0.997264, 97, 57, 352, 120
-0.997267, 257, 145, 384, 176
-0.997269, 193, 177, 320, 208
-0.99727, 387, 321, 402, 352
-0.997272, 1, 373, 128, 404
-0.997277, 193, 205, 320, 236
-0.997279, 161, 457, 288, 488
-0.99728, 49, 241, 176, 272
-0.997285, 453, 345, 468, 376
-0.997297, 375, 441, 390, 472
-0.997302, 129, 161, 256, 192
-0.997321, 161, 257, 192, 500
-0.997322, 33, 313, 288, 376
-0.997324, 197, 229, 212, 260
-0.997332, 277, 469, 292, 500
-0.997332, 309, 161, 340, 416
-0.997343, 309, 469, 324, 500
-0.997353, 455, 237, 470, 268
-0.997354, 103, 189, 118, 220
-0.997382, 65, 221, 192, 252
-0.997391, 145, 285, 272, 316
-0.997394, 17, 193, 48, 448
-0.997398, 367, 429, 382, 460
-0.9974, 75, 425, 90, 456
-0.997402, 349, 465, 364, 496
-0.997409, 113, 425, 240, 456
-0.997416, 337, 1, 368, 256
-0.99742, 401, 33, 464, 288
-0.997422, 359, 425, 374, 456
-0.99746, 185, 225, 216, 480
-0.997498, 317, 469, 332, 500
-0.997514, 337, 465, 352, 496
-0.997521, 231, 237, 246, 268
-0.997524, 273, 257, 400, 288
-0.997529, 329, 465, 344, 496
-0.99753, 5, 461, 20, 492
-0.997532, 271, 469, 286, 500
-0.997533, 297, 469, 312, 500
-0.997552, 335, 233, 350, 264
-0.997564, 69, 193, 100, 448
-0.997576, 303, 469, 318, 500
-0.997576, 29, 193, 60, 448
-0.997583, 369, 453, 384, 484
-0.997587, 183, 269, 198, 300
-0.997598, 31, 461, 46, 492
-0.997606, 265, 469, 280, 500
-0.997609, 59, 469, 74, 500
-0.997611, 381, 317, 396, 348
-0.997611, 67, 429, 82, 460
-0.997611, 369, 1, 432, 256
-0.997612, 381, 329, 396, 360
-0.997639, 209, 129, 240, 384
-0.997642, 347, 405, 362, 436
-0.997643, 385, 445, 400, 476
-0.997647, 117, 225, 148, 480
-0.997655, 273, 233, 400, 264
-0.997662, 393, 317, 408, 348
-0.997678, 283, 469, 298, 500
-0.997679, 425, 445, 440, 476
-0.997684, 411, 445, 426, 476
-0.997692, 291, 469, 306, 500
-0.9977, 419, 445, 434, 476
-0.997709, 309, 257, 340, 500
-0.997712, 49, 365, 176, 396
-0.997715, 395, 377, 410, 408
-0.997726, 65, 469, 80, 500
-0.997734, 397, 433, 412, 464
-0.997735, 49, 133, 176, 164
-0.997739, 407, 465, 422, 496
-0.99774, 57, 437, 72, 468
-0.997747, 161, 405, 288, 436
-0.997748, 133, 225, 164, 480
-0.997751, 49, 117, 176, 148
-0.997755, 439, 233, 454, 264
-0.997764, 407, 413, 422, 444
-0.997766, 285, 1, 316, 256
-0.997772, 423, 349, 438, 380
-0.997775, 321, 269, 448, 300
-0.997779, 433, 445, 448, 476
-0.997782, 41, 193, 72, 448
-0.997785, 187, 253, 202, 284
-0.99779, 281, 257, 312, 500
-0.99779, 97, 201, 224, 232
-0.997792, 209, 1, 336, 32
-0.997794, 173, 281, 188, 312
-0.997797, 341, 409, 356, 440
-0.997808, 313, 1, 344, 256
-0.997811, 323, 465, 338, 496
-0.997827, 347, 421, 362, 452
-0.997827, 259, 469, 274, 500
-0.99783, 193, 365, 320, 396
-0.997831, 191, 237, 206, 268
-0.997836, 49, 105, 176, 136
-0.997837, 347, 393, 362, 424
-0.99784, 355, 217, 370, 248
-0.99784, 389, 217, 404, 248
-0.997847, 97, 297, 224, 328
-0.997848, 31, 449, 46, 480
-0.997849, 225, 237, 240, 268
-0.997857, 375, 413, 390, 444
-0.997864, 33, 209, 160, 240
-0.997869, 407, 429, 422, 460
-0.997871, 145, 437, 272, 468
-0.997879, 237, 237, 252, 268
-0.997884, 161, 5, 288, 36
-0.997885, 129, 173, 256, 204
-0.997891, 433, 461, 448, 492
-0.997897, 81, 421, 96, 452
-0.997898, 103, 177, 118, 208
-0.997912, 417, 225, 432, 256
-0.997918, 65, 353, 192, 384
-0.997927, 403, 221, 418, 252
-0.997932, 365, 217, 380, 248
-0.997935, 49, 253, 176, 284
-0.997938, 83, 381, 98, 412
-0.997939, 449, 237, 464, 268
-0.997945, 125, 97, 156, 352
-0.997946, 325, 173, 340, 204
-0.997954, 349, 1, 380, 256
-0.997968, 247, 249, 262, 280
-0.997979, 405, 445, 420, 476
-0.997982, 261, 1, 292, 256
-0.997982, 29, 225, 44, 256
-0.997983, 369, 441, 384, 472
-0.997991, 25, 469, 40, 500
-0.997992, 371, 217, 386, 248
-0.997992, 353, 425, 368, 456
-0.997994, 401, 469, 416, 500
-0.998003, 245, 233, 260, 264
-0.998004, 115, 225, 130, 256
-0.998005, 425, 129, 456, 384
-0.998006, 123, 469, 138, 500
-0.998008, 415, 465, 430, 496
-0.998008, 441, 441, 456, 472
-0.998014, 17, 237, 32, 268
-0.998015, 249, 129, 280, 384
-0.998023, 397, 417, 412, 448
-0.998031, 153, 129, 184, 384
-0.998036, 385, 425, 400, 456
-0.998042, 267, 253, 282, 284
-0.998046, 341, 425, 356, 456
-0.998054, 393, 329, 408, 360
-0.998056, 451, 465, 466, 496
-0.998063, 335, 209, 350, 240
-0.998064, 67, 417, 82, 448
-0.998065, 331, 369, 346, 400
-0.998067, 355, 465, 370, 496
-0.998068, 289, 161, 320, 416
-0.998068, 89, 97, 120, 352
-0.998069, 227, 429, 242, 460
-0.99807, 361, 449, 376, 480
-0.998075, 425, 229, 440, 260
-0.998077, 165, 97, 196, 352
-0.998081, 23, 401, 38, 432
-0.998083, 97, 197, 112, 228
-0.998084, 233, 429, 248, 460
-0.998085, 113, 469, 128, 500
-0.998088, 3, 385, 18, 416
-0.998102, 159, 273, 174, 304
-0.998105, 9, 249, 24, 280
-0.998109, 165, 133, 180, 164
-0.998111, 77, 385, 92, 416
-0.998111, 239, 469, 254, 500
-0.998111, 265, 129, 296, 384
-0.998114, 253, 249, 268, 280
-0.998116, 183, 281, 198, 312
-0.998121, 421, 465, 436, 496
-0.998123, 77, 353, 92, 384
-0.998124, 113, 201, 128, 232
-0.998125, 441, 129, 472, 384
-0.998125, 401, 457, 416, 488
-0.998127, 131, 93, 146, 124
-0.998128, 253, 469, 268, 500
-0.998138, 207, 233, 222, 264
-0.998138, 219, 237, 234, 268
-0.998142, 433, 233, 448, 264
-0.998148, 457, 357, 472, 388
-0.99815, 17, 1, 144, 64
-0.998165, 105, 257, 136, 500
-0.99819, 273, 1, 304, 256
-0.998195, 197, 97, 228, 352
-0.998292, 297, 1, 328, 256
-0.998358, 225, 57, 474, 120
-0.998367, 277, 161, 308, 416
-0.998368, 49, 477, 112, 492
-0.998386, 333, 97, 364, 352
-0.998386, 185, 237, 248, 252
-0.998396, 385, 459, 416, 474
-0.998396, 113, 481, 144, 496
-0.998396, 257, 361, 288, 376
-0.998397, 157, 149, 188, 164
-0.998398, 401, 389, 432, 404
-0.998398, 353, 1, 384, 16
-0.998398, 77, 223, 108, 238
-0.998398, 369, 319, 400, 334
-0.9984, 69, 477, 100, 492
-0.9984, 1, 387, 32, 402
-0.998401, 417, 353, 448, 368
-0.998401, 25, 463, 56, 478
-0.998401, 49, 449, 80, 464
-0.998402, 441, 467, 472, 482
-0.998403, 1, 475, 32, 490
-0.998403, 1, 463, 32, 478
-0.998403, 97, 437, 128, 452
-0.998403, 357, 219, 388, 234
-0.998404, 141, 145, 172, 160
-0.998404, 41, 225, 72, 240
-0.998405, 65, 25, 320, 88
-0.998406, 1, 441, 32, 456
-0.998406, 225, 473, 256, 488
-0.998407, 101, 475, 132, 490
-0.998408, 169, 289, 200, 304
-0.998408, 357, 439, 388, 454
-0.99841, 217, 479, 248, 494
-0.998411, 233, 427, 264, 442
-0.998412, 117, 241, 148, 256
-0.998412, 369, 467, 400, 482
-0.998416, 357, 305, 388, 320
-0.998417, 409, 227, 440, 242
-0.998417, 57, 419, 88, 434
-0.998418, 65, 433, 96, 448
-0.998418, 253, 255, 284, 270
-0.998418, 421, 463, 452, 478
-0.99842, 69, 441, 100, 456
-0.998421, 401, 439, 432, 454
-0.998421, 329, 169, 360, 184
-0.998422, 313, 175, 344, 190
-0.998423, 181, 129, 212, 384
-0.998425, 37, 447, 68, 462
-0.998425, 233, 237, 264, 252
-0.998426, 185, 259, 216, 274
-0.998426, 181, 475, 212, 490
-0.998426, 109, 431, 140, 446
-0.998428, 181, 267, 212, 282
-0.998429, 441, 239, 472, 254
-0.998429, 333, 215, 364, 230
-0.998429, 233, 243, 264, 258
-0.998429, 105, 211, 136, 226
-0.99843, 101, 481, 132, 496
-0.998431, 329, 429, 392, 444
-0.998433, 441, 353, 472, 368
-0.998433, 321, 233, 352, 248
-0.998433, 13, 469, 44, 484
-0.998434, 353, 445, 384, 460
-0.998435, 373, 393, 404, 408
-0.998435, 429, 235, 460, 250
-0.998435, 9, 395, 40, 410
-0.998437, 329, 175, 360, 190
-0.998437, 381, 221, 412, 236
-0.998437, 361, 427, 424, 442
-0.998438, 389, 321, 420, 336
-0.998438, 341, 475, 372, 490
-0.998439, 57, 441, 88, 456
-0.99844, 53, 427, 84, 442
-0.998441, 321, 479, 352, 494
-0.998441, 397, 445, 428, 460
-0.998442, 213, 473, 244, 488
-0.998442, 293, 469, 324, 484
-0.998442, 125, 97, 156, 112
-0.998442, 165, 271, 196, 286
-0.998444, 321, 465, 384, 480
-0.998444, 369, 453, 400, 468
-0.998444, 53, 433, 84, 448
-0.998444, 41, 455, 72, 470
-0.998444, 373, 337, 404, 352
-0.998444, 273, 469, 304, 484
-0.998446, 241, 251, 272, 266
-0.998447, 357, 469, 388, 484
-0.998448, 297, 481, 328, 496
-0.998449, 397, 225, 428, 240
-0.99845, 69, 425, 100, 440
-0.99845, 125, 103, 156, 118
-0.99845, 361, 439, 424, 454
-0.99845, 401, 417, 432, 432
-0.99845, 29, 227, 60, 242
-0.998452, 369, 445, 432, 460
-0.998454, 217, 431, 248, 446
-0.998456, 89, 479, 120, 494
-0.998456, 229, 479, 260, 494
-0.998465, 433, 443, 464, 458
-0.998465, 437, 347, 468, 362
-0.998465, 393, 469, 424, 484
-0.998468, 305, 471, 336, 486
-0.99847, 233, 129, 264, 384
-0.998471, 345, 97, 376, 352
-0.998472, 233, 475, 296, 490
-0.998473, 329, 467, 360, 482
-0.998473, 345, 421, 376, 436
-0.998474, 373, 331, 404, 346
-0.998475, 345, 221, 376, 236
-0.998475, 369, 427, 400, 442
-0.998475, 329, 221, 392, 236
-0.998476, 421, 445, 452, 460
-0.998476, 253, 475, 284, 490
-0.998477, 221, 129, 252, 384
-0.998477, 385, 433, 416, 448
-0.99848, 169, 477, 232, 492
-0.998484, 373, 461, 404, 476
-0.998484, 341, 427, 372, 442
-0.998486, 289, 469, 352, 484
-0.998488, 361, 433, 424, 448
-0.998489, 337, 395, 400, 410
-0.998489, 345, 421, 408, 436
-0.998492, 353, 469, 416, 484
-0.998492, 381, 399, 412, 414
-0.998495, 241, 477, 272, 492
-0.998496, 73, 221, 136, 236
-0.998496, 281, 479, 344, 494
-0.998497, 393, 411, 424, 426
-0.998501, 345, 461, 408, 476
-0.998502, 25, 225, 88, 240
-0.998503, 377, 329, 440, 344
-0.998504, 361, 409, 424, 424
-0.998505, 165, 277, 196, 292
-0.998505, 353, 461, 384, 476
-0.99851, 117, 129, 148, 144
-0.998511, 305, 405, 368, 420
-0.998513, 353, 455, 416, 470
-0.998516, 317, 469, 348, 484
-0.998516, 113, 129, 176, 144
-0.998516, 193, 475, 224, 490
-0.998517, 341, 465, 372, 480
-0.998519, 137, 97, 168, 352
-0.998519, 329, 427, 360, 442
-0.998521, 365, 447, 396, 462
-0.998524, 381, 411, 412, 426
-0.998525, 193, 473, 256, 488
-0.998525, 257, 471, 320, 486
-0.998528, 1, 469, 32, 484
-0.998531, 377, 391, 440, 406
-0.998532, 385, 327, 416, 342
-0.998537, 345, 415, 408, 430
-0.998537, 337, 385, 400, 400
-0.998537, 329, 473, 392, 488
-0.998538, 369, 437, 400, 452
-0.998539, 377, 447, 408, 462
-0.99854, 369, 461, 432, 476
-0.998541, 393, 395, 424, 410
-0.998541, 25, 485, 88, 500
-0.998543, 305, 479, 368, 494
-0.998543, 65, 431, 128, 446
-0.998544, 165, 283, 196, 298
-0.998544, 385, 323, 448, 338
-0.998546, 333, 221, 364, 236
-0.998549, 25, 455, 88, 470
-0.99855, 385, 437, 448, 452
-0.998551, 353, 221, 416, 236
-0.998555, 1, 449, 64, 464
-0.998555, 353, 321, 416, 336
-0.998557, 321, 459, 384, 474
-0.998558, 193, 243, 256, 258
-0.998558, 93, 217, 124, 232
-0.998562, 1, 475, 64, 490
-0.998562, 401, 445, 464, 460
-0.998562, 369, 421, 432, 436
-0.998563, 137, 479, 200, 494
-0.998563, 57, 477, 88, 492
-0.998563, 73, 425, 136, 440
-0.998563, 73, 1, 136, 256
-0.998564, 385, 441, 416, 456
-0.998566, 405, 369, 420, 496
-0.998567, 385, 427, 416, 442
-0.998569, 209, 479, 272, 494
-0.99857, 193, 233, 224, 248
-0.99857, 57, 443, 120, 458
-0.998572, 185, 231, 248, 246
-0.998572, 297, 227, 360, 242
-0.998572, 337, 409, 368, 424
-0.998572, 121, 101, 184, 116
-0.998573, 281, 177, 344, 192
-0.998573, 33, 423, 96, 438
-0.998574, 381, 405, 412, 420
-0.998575, 209, 429, 272, 444
-0.998576, 377, 223, 440, 238
-0.998576, 313, 411, 376, 426
-0.998576, 459, 225, 474, 352
-0.998577, 337, 401, 400, 416
-0.998577, 73, 479, 136, 494
-0.998578, 257, 485, 320, 500
-0.998578, 357, 453, 388, 468
-0.998578, 297, 391, 360, 406
-0.998579, 357, 427, 388, 442
-0.99858, 305, 399, 368, 414
-0.998583, 345, 447, 408, 462
-0.998584, 337, 439, 400, 454
-0.998584, 273, 281, 336, 296
-0.998584, 137, 287, 200, 302
-0.998585, 217, 237, 248, 252
-0.998585, 25, 441, 88, 456
-0.998587, 161, 285, 224, 300
-0.998589, 369, 415, 432, 430
-0.998589, 113, 135, 176, 150
-0.998589, 1, 459, 64, 474
-0.99859, 113, 147, 176, 162
-0.998591, 25, 471, 88, 486
-0.998591, 381, 421, 412, 436
-0.998591, 73, 419, 136, 434
-0.998591, 289, 187, 352, 202
-0.998592, 321, 363, 384, 378
-0.998593, 289, 233, 352, 248
-0.998593, 329, 229, 392, 244
-0.998594, 65, 215, 128, 230
-0.998596, 97, 475, 160, 490
-0.998596, 161, 273, 224, 288
-0.998596, 145, 267, 208, 282
-0.998597, 393, 465, 456, 480
-0.998597, 97, 247, 160, 262
-0.998597, 321, 423, 384, 438
-0.998597, 305, 485, 368, 500
-0.998599, 145, 261, 208, 276
-0.998599, 257, 135, 320, 150
-0.9986, 345, 327, 408, 342
-0.9986, 389, 389, 420, 404
-0.9986, 161, 279, 224, 294
-0.998602, 225, 253, 288, 268
-0.998603, 289, 217, 352, 232
-0.998604, 337, 5, 400, 20
-0.998604, 97, 481, 160, 496
-0.998604, 289, 299, 352, 314
-0.998604, 257, 145, 320, 160
-0.998605, 25, 477, 88, 492
-0.998605, 137, 133, 200, 148
-0.998606, 377, 397, 440, 412
-0.998609, 401, 231, 464, 246
-0.998609, 41, 449, 104, 464
-0.99861, 161, 233, 224, 248
-0.99861, 281, 289, 344, 304
-0.99861, 337, 407, 400, 422
-0.99861, 65, 437, 128, 452
-0.998611, 313, 351, 376, 366
-0.998611, 377, 285, 440, 300
-0.998612, 113, 123, 176, 138
-0.998612, 9, 423, 72, 438
-0.998613, 409, 351, 472, 366
-0.998613, 1, 467, 64, 482
-0.998614, 369, 335, 432, 350
-0.998614, 233, 369, 296, 384
-0.998614, 233, 241, 296, 256
-0.998614, 273, 275, 336, 290
-0.998615, 329, 377, 392, 392
-0.998616, 377, 317, 440, 332
-0.998616, 169, 267, 232, 282
-0.998616, 225, 423, 288, 438
-0.998617, 161, 291, 224, 306
-0.998617, 129, 277, 192, 292
-0.998618, 153, 145, 216, 160
-0.998618, 281, 355, 344, 370
-0.998619, 329, 453, 392, 468
-0.99862, 337, 333, 400, 348
-0.99862, 89, 215, 152, 230
-0.99862, 145, 255, 208, 270
-0.998621, 241, 291, 304, 306
-0.998621, 65, 355, 128, 370
-0.998622, 209, 237, 272, 252
-0.998661, 453, 225, 468, 352
-0.998664, 417, 209, 432, 336
-0.998665, 425, 209, 440, 336
-0.998667, 321, 129, 352, 384
-0.998674, 357, 97, 388, 352
-0.998745, 105, 193, 120, 320
-0.998747, 395, 369, 410, 496
-0.998756, 337, 369, 352, 496
-0.998768, 65, 33, 192, 96
-0.998773, 343, 209, 358, 336
-0.998776, 331, 353, 346, 480
-0.998782, 351, 209, 366, 336
-0.998797, 411, 209, 426, 336
-0.998818, 431, 225, 446, 352
-0.998824, 185, 241, 200, 368
-0.998825, 347, 369, 362, 496
-0.998843, 325, 353, 340, 480
-0.998854, 399, 321, 414, 448
-0.998866, 403, 209, 418, 336
-0.998868, 437, 225, 452, 352
-0.998873, 249, 1, 280, 256
-0.998876, 443, 225, 458, 352
-0.998878, 389, 369, 404, 496
-0.998882, 387, 321, 402, 448
-0.998891, 237, 1, 268, 256
-0.998892, 45, 97, 76, 352
-0.998892, 115, 209, 130, 336
-0.9989, 405, 97, 436, 352
-0.998907, 335, 209, 350, 336
-0.998911, 317, 337, 332, 464
-0.998912, 377, 97, 408, 352
-0.998917, 105, 145, 120, 272
-0.99893, 93, 225, 124, 480
-0.998933, 1, 57, 256, 120
-0.998957, 363, 209, 378, 336
-0.998962, 221, 1, 252, 256
-0.998962, 357, 209, 372, 336
-0.998976, 395, 209, 410, 336
-0.998982, 77, 65, 108, 320
-0.998986, 389, 209, 404, 336
-0.998992, 201, 209, 216, 336
-0.998999, 329, 161, 344, 288
-0.999012, 405, 305, 420, 432
-0.999015, 381, 209, 396, 336
-0.999016, 337, 305, 352, 432
-0.999017, 413, 305, 428, 432
-0.999022, 1, 257, 128, 384
-0.999023, 373, 209, 388, 336
-0.999033, 113, 129, 128, 256
-0.999045, 65, 97, 96, 352
-0.999046, 213, 177, 228, 304
-0.99906, 393, 321, 408, 448
-0.999061, 15, 225, 30, 352
-0.999063, 195, 209, 210, 336
-0.999064, 347, 161, 362, 288
-0.999067, 77, 337, 92, 464
-0.999069, 361, 1, 392, 256
-0.99907, 329, 1, 344, 128
-0.999073, 381, 305, 396, 432
-0.999073, 393, 97, 424, 352
-0.999075, 323, 1, 338, 128
-0.999078, 437, 289, 452, 416
-0.999083, 349, 1, 364, 128
-0.999089, 339, 161, 354, 288
-0.999089, 421, 257, 436, 384
-0.999091, 337, 1, 352, 128
-0.999092, 9, 97, 40, 352
-0.999097, 459, 273, 474, 400
-0.999097, 329, 209, 344, 336
-0.999097, 313, 1, 328, 128
-0.999104, 5, 369, 20, 496
-0.999104, 5, 241, 20, 368
-0.999111, 283, 273, 298, 400
-0.999114, 83, 369, 98, 496
-0.999115, 233, 225, 248, 352
-0.999118, 29, 209, 44, 336
-0.999128, 33, 97, 64, 352
-0.999133, 353, 369, 368, 496
-0.999142, 411, 369, 426, 496
-0.999145, 331, 289, 346, 416
-0.999148, 99, 161, 114, 288
-0.999149, 425, 305, 440, 432
-0.999153, 343, 1, 358, 128
-0.999154, 285, 113, 300, 240
-0.999157, 241, 241, 256, 368
-0.999164, 247, 225, 262, 352
-0.999167, 431, 289, 446, 416
-0.999173, 343, 289, 358, 416
-0.999174, 179, 257, 194, 384
-0.999192, 61, 209, 76, 336
-0.999193, 133, 225, 148, 352
-0.999193, 321, 81, 448, 144
-0.999209, 223, 225, 238, 352
-0.999229, 131, 81, 146, 208
-0.99923, 49, 209, 64, 336
-0.99923, 35, 209, 50, 336
-0.999231, 355, 289, 370, 416
-0.999233, 295, 289, 310, 416
-0.999237, 317, 273, 332, 400
-0.999239, 215, 225, 230, 352
-0.999241, 255, 241, 270, 368
-0.999241, 305, 305, 320, 432
-0.999241, 121, 209, 136, 336
-0.999243, 275, 257, 290, 384
-0.999247, 69, 209, 84, 336
-0.999251, 75, 209, 90, 336
-0.999252, 241, 369, 256, 496
-0.999253, 407, 161, 422, 288
-0.999254, 55, 209, 70, 336
-0.999256, 311, 321, 326, 448
-0.999256, 445, 273, 460, 400
-0.999259, 451, 289, 466, 416
-0.999259, 207, 193, 222, 320
-0.999261, 41, 209, 56, 336
-0.999265, 251, 177, 266, 304
-0.999269, 243, 177, 258, 304
-0.999269, 323, 161, 338, 288
-0.999269, 23, 209, 38, 336
-0.999271, 413, 161, 428, 288
-0.999274, 421, 161, 436, 288
-0.999288, 127, 369, 142, 496
-0.999288, 11, 369, 26, 496
-0.999291, 433, 369, 448, 496
-0.999293, 87, 209, 102, 336
-0.999295, 269, 241, 284, 368
-0.999301, 307, 1, 322, 128
-0.999302, 295, 369, 310, 496
-0.999304, 209, 33, 240, 288
-0.999304, 171, 241, 186, 368
-0.999308, 61, 369, 76, 496
-0.999308, 129, 1, 160, 256
-0.99931, 125, 81, 140, 208
-0.999311, 95, 209, 110, 336
-0.999314, 175, 305, 190, 432
-0.999319, 177, 33, 208, 288
-0.99932, 307, 369, 322, 496
-0.999322, 275, 113, 290, 240
-0.999325, 295, 113, 310, 240
-0.999327, 219, 145, 234, 272
-0.999329, 205, 145, 220, 272
-0.99933, 101, 33, 132, 288
-0.999333, 401, 161, 416, 288
-0.99934, 301, 369, 316, 496
-0.999343, 349, 289, 364, 416
-0.999344, 81, 209, 96, 336
-0.999346, 141, 241, 156, 368
-0.999347, 287, 369, 302, 496
-0.999349, 235, 369, 250, 496
-0.999351, 369, 257, 384, 384
-0.999355, 391, 257, 406, 384
-0.999355, 413, 257, 428, 384
-0.999382, 21, 97, 52, 352
-0.999398, 145, 1, 176, 256
-0.999469, 117, 1, 148, 256
-0.999521, 165, 1, 196, 256
-0.999525, 1, 65, 474, 128
-0.999532, 193, 1, 224, 256
-0.999598, 285, 293, 300, 308
-0.999598, 335, 171, 350, 186
-0.999599, 433, 445, 448, 460
-0.999599, 25, 231, 40, 246
-0.999599, 265, 255, 280, 270
-0.999599, 81, 353, 96, 368
-0.999599, 169, 285, 184, 300
-0.999599, 365, 219, 380, 234
-0.9996, 213, 473, 228, 488
-0.9996, 355, 465, 370, 480
-0.999601, 183, 281, 198, 296
-0.999601, 75, 353, 90, 368
-0.999602, 329, 469, 344, 484
-0.999602, 123, 427, 138, 442
-0.999603, 419, 227, 434, 242
-0.999604, 351, 429, 366, 444
-0.999604, 369, 465, 384, 480
-0.999605, 387, 389, 402, 404
-0.999605, 323, 469, 338, 484
-0.999605, 345, 477, 360, 492
-0.999607, 209, 235, 224, 250
-0.999607, 395, 469, 410, 484
-0.999607, 375, 447, 390, 462
-0.999607, 265, 475, 280, 490
-0.999608, 387, 447, 402, 462
-0.999608, 101, 183, 116, 198
-0.999608, 389, 221, 404, 236
-0.999609, 367, 459, 382, 474
-0.999609, 183, 275, 198, 290
-0.99961, 103, 195, 118, 210
-0.999611, 231, 479, 246, 494
-0.999611, 107, 207, 122, 222
-0.999612, 397, 475, 412, 490
-0.999612, 387, 323, 402, 338
-0.999612, 5, 463, 20, 478
-0.999613, 347, 399, 362, 414
-0.999613, 243, 477, 258, 492
-0.999613, 443, 443, 458, 458
-0.999613, 345, 407, 360, 422
-0.999613, 453, 265, 468, 280
-0.999614, 337, 213, 352, 228
-0.999615, 105, 219, 120, 234
-0.999615, 381, 461, 396, 476
-0.999616, 103, 479, 118, 494
-0.999617, 259, 363, 274, 378
-0.999617, 399, 427, 414, 442
-0.999617, 245, 251, 260, 266
-0.999617, 63, 475, 78, 490
-0.999617, 419, 445, 434, 460
-0.999619, 187, 477, 202, 492
-0.999619, 391, 329, 406, 344
-0.999619, 363, 465, 378, 480
-0.99962, 407, 447, 422, 462
-0.99962, 345, 471, 360, 486
-0.999621, 173, 279, 188, 294
-0.999621, 455, 443, 470, 458
-0.999622, 79, 389, 94, 404
-0.999623, 73, 433, 88, 448
-0.999625, 311, 481, 326, 496
-0.999625, 203, 473, 218, 488
-0.999625, 237, 479, 252, 494
-0.999626, 311, 471, 326, 486
-0.999626, 359, 427, 374, 442
-0.999626, 183, 269, 198, 284
-0.999626, 349, 221, 364, 236
-0.999627, 117, 431, 132, 446
-0.999628, 403, 399, 418, 414
-0.999628, 195, 475, 210, 490
-0.999629, 77, 425, 92, 440
-0.99963, 337, 427, 352, 442
-0.999632, 359, 455, 374, 470
-0.999632, 337, 467, 352, 482
-0.999632, 355, 221, 370, 236
-0.999632, 343, 465, 358, 480
-0.999633, 407, 419, 422, 434
-0.999633, 427, 445, 442, 460
-0.999633, 349, 465, 364, 480
-0.999635, 31, 227, 46, 242
-0.999635, 455, 353, 470, 368
-0.999635, 233, 237, 248, 252
-0.999636, 331, 373, 346, 388
-0.999638, 189, 257, 204, 272
-0.999638, 259, 475, 274, 490
-0.999638, 325, 175, 340, 190
-0.999639, 65, 433, 80, 448
-0.99964, 375, 437, 390, 452
-0.99964, 353, 421, 368, 436
-0.999642, 457, 239, 472, 254
-0.999643, 1, 25, 474, 88
-0.999643, 249, 477, 264, 492
-0.999644, 335, 235, 350, 250
-0.999646, 449, 443, 464, 458
-0.999648, 379, 427, 394, 442
-0.999651, 185, 263, 200, 278
-0.999651, 407, 479, 422, 494
-0.999652, 317, 471, 332, 486
-0.999652, 381, 437, 396, 452
-0.999657, 397, 437, 412, 452
-0.999657, 391, 401, 406, 416
-0.999658, 405, 473, 420, 488
-0.999659, 225, 81, 474, 144
-0.999665, 399, 421, 414, 436
-0.999665, 333, 223, 348, 238
-0.999672, 393, 323, 408, 338
-0.999672, 407, 411, 422, 426
-0.999675, 399, 405, 414, 420
-0.999678, 227, 237, 242, 252
-0.999679, 103, 189, 118, 204
-0.999679, 371, 453, 386, 468
-0.99968, 221, 237, 236, 252
-0.99968, 369, 443, 384, 458
-0.999684, 365, 453, 380, 468
-0.999684, 379, 333, 394, 348
-0.999686, 423, 353, 438, 368
-0.999686, 167, 279, 182, 294
-0.999687, 397, 387, 412, 402
-0.99969, 343, 427, 358, 442
-0.999694, 199, 231, 214, 246
-0.999697, 331, 229, 346, 244
-0.999703, 385, 329, 400, 344
-0.999707, 399, 413, 414, 428
-0.999713, 381, 447, 396, 462
-0.999713, 3, 469, 18, 484
-0.999722, 57, 477, 72, 492
-0.999723, 453, 347, 468, 362
-0.999723, 391, 395, 406, 410
-0.999728, 341, 221, 356, 236
-0.99974, 351, 409, 366, 424
-0.999756, 373, 427, 388, 442
-0.999775, 399, 393, 414, 408
-0.999781, 105, 213, 120, 228
-0.999784, 405, 389, 420, 404
-1.00001, 393, 1, 424, 256
-1.0001, 373, 1, 404, 256
-1.00011, 417, 33, 448, 288
-1.00012, 429, 33, 460, 288
-1.00054, 89, 1, 120, 256
-1.00061, 405, 1, 436, 256
-1.00067, 441, 33, 472, 288
-1.00094, 1, 25, 128, 88
-1.00108, 9, 1, 40, 256
-1.00121, 353, 113, 474, 176
-1.00137, 33, 1, 64, 256
-1.00148, 65, 1, 96, 256
-1.0015, 21, 1, 52, 256
-1.00158, 53, 1, 84, 256
-1.00177, 1, 257, 64, 384
-1.00472, 409, 129, 472, 256
-1.00513, 57, 1, 120, 128
-1.00539, 49, 1, 112, 256
-1.00574, 1, 1, 64, 256
-1.00602, 41, 113, 104, 240
-1.00674, 25, 273, 88, 400
-1.00882, 25, 1, 88, 256
-1.00899, 33, 17, 96, 144
-1.00929, 9, 65, 72, 192
-1.00966, 353, 113, 416, 240
-1.00987, 9, 113, 72, 240
-1.01039, 33, 65, 96, 192
-1.01107, 1, 1, 64, 128
-1.01145, 49, 257, 112, 384
-1.01239, 377, 113, 440, 240
