1868
-0.37386, 1, 1, 500, 313
-0.434569, 1, 1, 500, 256
-0.555984, 97, 1, 352, 313
-0.561071, 1, 1, 256, 313
-0.599563, 257, 1, 500, 313
-0.673318, 1, 33, 256, 288
-0.690885, 97, 33, 352, 288
-0.718523, 225, 1, 480, 256
-0.873648, 369, 1, 496, 313
-0.88121, 17, 1, 144, 256
-0.882245, 289, 1, 416, 313
-0.882372, 49, 1, 176, 313
-0.888673, 129, 1, 256, 313
-0.888737, 1, 1, 128, 313
-0.889087, 1, 97, 500, 224
-0.89001, 97, 65, 224, 313
-0.890592, 193, 1, 320, 256
-0.890684, 209, 1, 336, 313
-0.893376, 273, 1, 400, 256
-0.895109, 1, 145, 500, 272
-0.895978, 321, 1, 448, 256
-0.899427, 369, 1, 496, 256
-0.901876, 145, 1, 272, 256
-0.910761, 161, 129, 416, 256
-0.919796, 1, 129, 256, 256
-0.927788, 33, 81, 288, 208
-0.929014, 1, 193, 500, 313
-0.931773, 249, 129, 312, 256
-0.932308, 17, 113, 144, 240
-0.932509, 1, 49, 500, 176
-0.934689, 241, 129, 368, 256
-0.935215, 97, 145, 224, 272
-0.937319, 145, 129, 272, 256
-0.938172, 57, 113, 120, 240
-0.938226, 257, 145, 500, 272
-0.938856, 25, 113, 88, 240
-0.939005, 1, 177, 256, 304
-0.940899, 129, 193, 384, 313
-0.941457, 193, 145, 320, 272
-0.942436, 1, 1, 500, 128
-0.94364, 81, 129, 144, 256
-0.943831, 153, 145, 216, 272
-0.945798, 273, 129, 336, 256
-0.946451, 105, 129, 168, 256
-0.947088, 25, 129, 88, 192
-0.947391, 297, 129, 360, 256
-0.948879, 289, 129, 416, 256
-0.948937, 145, 193, 272, 313
-0.94965, 49, 121, 112, 184
-0.950456, 177, 145, 240, 272
-0.950782, 129, 81, 384, 208
-0.951165, 233, 177, 296, 304
-0.952259, 49, 161, 176, 288
-0.953589, 225, 129, 288, 256
-0.953795, 249, 137, 312, 200
-0.954002, 129, 145, 192, 272
-0.954156, 321, 129, 384, 256
-0.954221, 257, 97, 500, 224
-0.954383, 81, 137, 144, 200
-0.954753, 65, 81, 192, 208
-0.955064, 41, 65, 104, 192
-0.955074, 337, 145, 400, 208
-0.955082, 313, 137, 376, 200
-0.955266, 113, 177, 176, 240
-0.955921, 193, 97, 320, 224
-0.956391, 17, 65, 80, 192
-0.956762, 201, 129, 264, 256
-0.957024, 17, 65, 144, 192
-0.958303, 289, 137, 352, 200
-0.958399, 169, 193, 232, 313
-0.958691, 345, 97, 408, 224
-0.958917, 1, 113, 64, 240
-0.960226, 81, 81, 144, 208
-0.960363, 289, 161, 352, 224
-0.96066, 241, 177, 304, 240
-0.960706, 257, 49, 500, 176
-0.960755, 193, 193, 320, 313
-0.961246, 17, 105, 80, 168
-0.961786, 193, 193, 256, 313
-0.961812, 369, 145, 432, 272
-0.961982, 369, 97, 432, 224
-0.962091, 265, 161, 328, 224
-0.962576, 113, 145, 176, 208
-0.962909, 337, 97, 464, 224
-0.963532, 137, 185, 200, 248
-0.963715, 217, 177, 280, 240
-0.964026, 217, 153, 280, 216
-0.964128, 289, 177, 352, 304
-0.964369, 257, 81, 320, 208
-0.964764, 1, 33, 256, 160
-0.96525, 337, 145, 464, 272
-0.96544, 241, 81, 368, 208
-0.965611, 289, 81, 416, 208
-0.966512, 33, 121, 64, 184
-0.966576, 297, 81, 360, 208
-0.966585, 113, 81, 176, 208
-0.966615, 241, 177, 368, 304
-0.966982, 81, 161, 144, 224
-0.9674, 361, 145, 424, 208
-0.967539, 97, 193, 224, 313
-0.968332, 137, 145, 200, 208
-0.968386, 257, 193, 320, 313
-0.968466, 97, 1, 352, 128
-0.968574, 113, 81, 240, 208
-0.968885, 137, 193, 200, 313
-0.968899, 193, 193, 256, 256
-0.969396, 57, 153, 120, 216
-0.969477, 393, 97, 456, 224
-0.969764, 105, 177, 168, 304
-0.970124, 301, 137, 332, 200
-0.970248, 321, 137, 352, 200
-0.970374, 169, 193, 232, 256
-0.970544, 393, 145, 456, 272
-0.970552, 17, 129, 144, 192
-0.970638, 257, 1, 500, 128
-0.970877, 89, 137, 120, 200
-0.971169, 137, 81, 200, 208
-0.971979, 241, 137, 368, 200
-0.972062, 17, 153, 80, 216
-0.97212, 177, 169, 240, 232
-0.972253, 345, 145, 408, 272
-0.972272, 49, 161, 112, 288
-0.972342, 49, 121, 80, 184
-0.972612, 313, 161, 376, 224
-0.972629, 109, 129, 140, 256
-0.972811, 41, 97, 104, 160
-0.972928, 1, 161, 128, 288
-0.973, 161, 97, 224, 224
-0.973103, 33, 113, 64, 240
-0.97316, 105, 145, 136, 208
-0.973423, 301, 161, 332, 224
-0.973489, 305, 145, 432, 208
-0.973619, 81, 177, 208, 240
-0.973653, 117, 145, 148, 208
-0.973734, 1, 129, 64, 192
-0.973824, 69, 113, 100, 176
-0.973901, 161, 177, 288, 240
-0.974002, 161, 145, 192, 272
-0.974186, 357, 145, 388, 208
-0.974228, 169, 145, 232, 208
-0.974293, 45, 81, 76, 208
-0.974339, 417, 97, 480, 224
-0.974389, 301, 129, 332, 256
-0.974784, 257, 177, 288, 240
-0.974886, 65, 33, 192, 160
-0.974936, 25, 161, 88, 288
-0.974969, 225, 81, 288, 208
-0.97499, 57, 113, 88, 240
-0.975039, 193, 81, 256, 208
-0.975445, 345, 137, 376, 200
-0.975578, 241, 161, 368, 224
-0.975679, 161, 185, 192, 248
-0.975754, 289, 161, 320, 224
-0.975794, 289, 177, 416, 304
-0.97613, 17, 161, 144, 224
-0.976313, 253, 129, 284, 256
-0.976326, 209, 185, 336, 248
-0.976338, 25, 65, 88, 313
-0.976566, 113, 145, 240, 208
-0.976614, 161, 153, 288, 216
-0.976652, 361, 121, 424, 184
-0.97669, 369, 49, 496, 176
-0.976737, 141, 177, 172, 240
-0.976887, 1, 1, 128, 128
-0.976898, 97, 129, 128, 256
-0.977004, 193, 145, 256, 208
-0.977009, 269, 129, 300, 256
-0.977116, 281, 129, 312, 256
-0.977132, 265, 185, 328, 248
-0.977203, 385, 153, 448, 216
-0.977281, 177, 145, 208, 272
-0.977649, 289, 137, 320, 200
-0.977759, 333, 137, 364, 200
-0.977789, 85, 113, 116, 240
-0.977909, 21, 121, 52, 184
-0.977953, 77, 137, 108, 200
-0.978073, 225, 193, 480, 313
-0.978106, 321, 81, 384, 208
-0.978182, 113, 121, 176, 184
-0.978255, 49, 1, 112, 256
-0.978427, 129, 145, 160, 208
-0.978441, 41, 145, 72, 208
-0.978465, 317, 129, 348, 256
-0.978536, 65, 145, 192, 208
-0.978796, 21, 113, 52, 240
-0.978802, 149, 129, 180, 256
-0.979018, 137, 129, 168, 256
-0.979046, 245, 177, 276, 240
-0.979343, 269, 177, 300, 240
-0.979401, 17, 105, 144, 168
-0.979407, 341, 129, 372, 256
-0.979864, 113, 1, 240, 128
-0.979882, 29, 145, 60, 208
-0.979912, 49, 97, 80, 160
-0.979926, 273, 113, 336, 176
-0.979937, 313, 177, 376, 304
-0.979946, 197, 145, 228, 272
-0.979995, 329, 129, 360, 256
-0.98001, 1, 17, 64, 144
-0.980134, 193, 49, 320, 176
-0.980181, 241, 153, 272, 216
-0.980183, 73, 113, 104, 240
-0.980311, 125, 129, 156, 256
-0.980338, 369, 145, 400, 208
-0.980372, 129, 169, 160, 232
-0.980445, 141, 145, 172, 208
-0.980491, 89, 161, 120, 224
-0.9805, 17, 81, 80, 144
-0.980571, 269, 137, 300, 200
-0.980661, 241, 129, 272, 256
-0.980729, 313, 113, 376, 176
-0.980734, 169, 65, 232, 313
-0.980742, 281, 1, 344, 256
-0.98076, 229, 177, 260, 240
-0.980799, 33, 65, 64, 192
-0.98087, 385, 129, 448, 192
-0.98091, 177, 1, 304, 128
-0.981016, 289, 169, 416, 232
-0.981132, 1, 1, 64, 256
-0.981228, 25, 17, 88, 144
-0.981268, 337, 121, 400, 184
-0.981437, 217, 129, 248, 256
-0.981553, 257, 137, 288, 200
-0.981698, 113, 1, 176, 256
-0.98173, 385, 1, 448, 256
-0.98177, 177, 121, 240, 184
-0.98179, 313, 169, 344, 232
-0.981808, 145, 33, 208, 288
-0.981821, 321, 17, 448, 144
-0.981835, 221, 153, 252, 216
-0.981897, 313, 1, 376, 256
-0.982008, 33, 97, 64, 160
-0.98215, 201, 65, 264, 313
-0.982222, 225, 129, 288, 192
-0.982236, 45, 129, 76, 256
-0.982332, 337, 1, 400, 256
-0.982351, 145, 209, 208, 272
-0.982497, 353, 129, 384, 256
-0.982539, 145, 201, 272, 264
-0.982554, 241, 1, 304, 256
-0.98258, 97, 81, 128, 208
-0.982693, 109, 169, 140, 232
-0.982771, 225, 1, 352, 128
-0.982801, 197, 193, 228, 313
-0.983157, 385, 49, 448, 176
-0.983198, 253, 177, 284, 304
-0.983395, 153, 145, 184, 208
-0.983406, 381, 145, 412, 208
-0.9836, 65, 121, 192, 184
-0.983685, 369, 1, 496, 128
-0.983755, 73, 1, 136, 256
-0.983846, 65, 97, 128, 160
-0.983852, 173, 185, 204, 248
-0.98399, 237, 177, 268, 304
-0.984053, 73, 33, 136, 160
-0.984283, 321, 81, 352, 208
-0.984351, 73, 177, 136, 304
-0.984353, 409, 1, 472, 256
-0.984428, 65, 65, 96, 192
-0.984433, 289, 121, 416, 184
-0.984538, 141, 177, 172, 304
-0.98458, 49, 17, 112, 144
-0.984602, 397, 97, 428, 224
-0.984633, 289, 185, 352, 248
-0.984699, 13, 65, 44, 192
-0.98476, 193, 129, 320, 192
-0.984789, 301, 81, 332, 208
-0.984831, 361, 1, 424, 256
-0.984875, 89, 113, 152, 176
-0.984916, 121, 1, 184, 128
-0.985103, 329, 161, 360, 224
-0.985177, 169, 1, 232, 128
-0.985189, 209, 193, 240, 256
-0.985221, 117, 81, 148, 208
-0.985233, 97, 201, 224, 264
-0.985365, 201, 121, 264, 184
-0.98539, 61, 161, 92, 224
-0.985599, 145, 1, 208, 128
-0.985636, 413, 97, 444, 224
-0.985648, 353, 145, 480, 208
-0.985654, 433, 1, 496, 256
-0.985664, 65, 89, 192, 152
-0.985677, 273, 1, 400, 128
-0.98572, 249, 113, 312, 176
-0.985728, 377, 97, 408, 224
-0.985729, 153, 113, 216, 176
-0.985779, 365, 129, 396, 256
-0.985821, 425, 17, 488, 144
-0.985891, 193, 1, 256, 128
-0.985935, 229, 129, 260, 256
-0.985975, 217, 201, 280, 264
-0.986109, 113, 121, 240, 184
-0.986199, 345, 49, 408, 176
-0.986364, 101, 121, 132, 184
-0.986455, 345, 161, 376, 224
-0.98657, 9, 121, 40, 184
-0.98667, 61, 137, 92, 200
-0.986741, 89, 113, 120, 176
-0.986765, 225, 1, 288, 128
-0.986771, 305, 1, 368, 313
-0.986825, 337, 169, 400, 232
-0.986831, 97, 1, 160, 128
-0.986941, 169, 81, 200, 208
-0.987009, 241, 113, 368, 176
-0.987048, 177, 193, 208, 313
-0.987077, 49, 1, 112, 313
-0.98709, 165, 145, 196, 208
-0.98717, 209, 169, 240, 232
-0.98718, 361, 1, 424, 313
-0.987213, 337, 121, 464, 184
-0.987315, 425, 1, 488, 313
-0.987379, 249, 17, 312, 144
-0.987446, 409, 137, 472, 200
-0.987446, 209, 145, 240, 208
-0.987511, 145, 81, 176, 208
-0.987513, 105, 1, 168, 313
-0.98759, 225, 105, 288, 168
-0.987598, 193, 105, 320, 168
-0.987625, 197, 193, 228, 256
-0.987746, 241, 201, 304, 264
-0.987776, 273, 1, 336, 128
-0.987896, 281, 185, 312, 248
-0.987924, 265, 177, 296, 304
-0.987947, 333, 81, 364, 208
-0.987958, 161, 1, 224, 313
-0.98801, 81, 1, 144, 313
-0.988033, 285, 81, 316, 208
-0.988051, 1, 161, 64, 288
-0.988135, 25, 1, 88, 313
-0.988156, 293, 185, 324, 248
-0.988306, 249, 1, 312, 313
-0.988307, 241, 185, 304, 216
-0.988336, 385, 1, 448, 313
-0.98835, 49, 129, 112, 160
-0.98841, 209, 193, 240, 313
-0.988422, 381, 145, 412, 272
-0.988462, 265, 173, 328, 204
-0.98852, 349, 81, 380, 208
-0.988522, 77, 65, 108, 192
-0.988535, 265, 81, 296, 208
-0.988571, 197, 81, 228, 208
-0.988643, 353, 153, 416, 184
-0.988719, 321, 153, 384, 184
-0.988743, 397, 145, 428, 272
-0.988804, 337, 1, 400, 313
-0.988806, 97, 173, 160, 204
-0.988806, 17, 125, 80, 156
-0.98882, 21, 97, 52, 160
-0.988827, 285, 193, 316, 313
-0.988905, 181, 97, 212, 224
-0.988907, 57, 149, 120, 180
-0.988922, 17, 113, 80, 144
-0.988935, 289, 161, 352, 192
-0.988958, 169, 49, 232, 176
-0.989003, 321, 17, 384, 144
-0.989021, 373, 121, 404, 184
-0.989039, 209, 1, 272, 313
-0.989173, 301, 177, 332, 304
-0.989224, 305, 141, 368, 172
-0.989233, 401, 1, 464, 128
-0.989238, 297, 1, 360, 128
-0.989268, 121, 185, 184, 216
-0.989284, 69, 89, 100, 152
-0.98931, 153, 193, 216, 224
-0.989336, 281, 1, 344, 313
-0.989364, 129, 1, 192, 313
-0.989366, 289, 173, 352, 204
-0.98938, 25, 157, 88, 188
-0.989482, 81, 141, 144, 172
-0.989484, 77, 161, 108, 224
-0.98954, 393, 145, 424, 208
-0.989546, 1, 1, 64, 313
-0.98955, 197, 145, 228, 208
-0.989553, 225, 177, 256, 304
-0.989653, 301, 113, 332, 176
-0.989673, 173, 209, 204, 272
-0.989681, 85, 161, 116, 288
-0.989733, 129, 177, 160, 304
-0.989735, 97, 145, 352, 208
-0.989761, 417, 145, 480, 272
-0.989762, 73, 161, 136, 192
-0.989823, 133, 81, 164, 208
-0.989855, 217, 185, 280, 216
-0.989885, 357, 121, 388, 184
-0.989893, 17, 81, 144, 144
-0.989894, 265, 185, 328, 216
-0.98991, 337, 169, 464, 232
-0.98991, 41, 117, 104, 148
-0.990027, 25, 145, 88, 176
-0.990048, 253, 81, 284, 208
-0.990048, 305, 97, 432, 160
-0.990241, 113, 149, 176, 180
-0.990245, 1, 145, 500, 208
-0.990281, 289, 105, 320, 168
-0.990282, 157, 81, 188, 208
-0.990285, 45, 33, 76, 160
-0.99031, 177, 145, 208, 208
-0.990368, 49, 165, 112, 196
-0.990396, 1, 121, 256, 184
-0.9904, 273, 137, 336, 168
-0.990438, 113, 121, 144, 184
-0.990452, 165, 193, 196, 313
-0.990471, 313, 165, 376, 196
-0.9905, 377, 1, 440, 128
-0.990552, 193, 193, 256, 224
-0.990559, 117, 177, 148, 304
-0.990561, 345, 165, 408, 196
-0.990656, 185, 1, 248, 313
-0.990662, 97, 161, 160, 192
-0.990678, 241, 197, 304, 228
-0.9907, 385, 105, 448, 168
-0.990705, 433, 97, 464, 224
-0.99071, 377, 153, 440, 184
-0.99076, 241, 169, 304, 200
-0.990778, 265, 161, 328, 192
-0.990844, 217, 197, 280, 228
-0.99091, 105, 177, 136, 304
-0.990946, 321, 177, 352, 304
-0.990949, 185, 177, 216, 240
-0.991003, 241, 81, 272, 208
-0.991048, 153, 209, 216, 240
-0.991055, 121, 173, 184, 204
-0.991109, 57, 177, 120, 240
-0.991118, 353, 1, 416, 128
-0.991148, 193, 145, 448, 208
-0.991196, 249, 141, 312, 172
-0.991208, 345, 141, 408, 172
-0.991277, 65, 161, 96, 288
-0.991306, 97, 185, 160, 216
-0.991308, 289, 185, 352, 216
-0.991311, 369, 165, 432, 196
-0.991358, 65, 73, 128, 136
-0.991384, 89, 185, 152, 248
-0.991396, 185, 201, 216, 264
-0.991416, 413, 145, 444, 272
-0.991433, 73, 129, 136, 160
-0.991481, 73, 173, 136, 204
-0.991497, 1, 153, 64, 184
-0.991526, 177, 205, 240, 236
-0.991557, 137, 153, 200, 184
-0.991591, 317, 105, 348, 168
-0.991658, 297, 129, 360, 160
-0.991679, 1, 177, 256, 240
-0.991684, 409, 97, 472, 160
-0.991686, 353, 97, 416, 160
-0.991694, 361, 169, 424, 232
-0.991696, 281, 149, 344, 180
-0.991699, 265, 197, 328, 228
-0.991728, 129, 201, 192, 232
-0.991826, 177, 149, 240, 180
-0.991866, 361, 81, 392, 208
-0.991869, 129, 177, 384, 240
-0.991882, 209, 145, 272, 176
-0.991919, 113, 201, 176, 264
-0.991921, 217, 165, 280, 196
-0.99193, 233, 129, 296, 160
-0.991931, 177, 181, 240, 212
-0.991953, 1, 141, 64, 172
-0.991968, 229, 121, 260, 184
-0.992014, 17, 145, 48, 208
-0.992029, 105, 197, 168, 228
-0.992035, 33, 125, 64, 156
-0.992037, 305, 161, 336, 192
-0.992042, 401, 149, 464, 180
-0.992061, 1, 145, 256, 208
-0.992091, 105, 133, 168, 164
-0.992128, 377, 153, 408, 184
-0.992133, 253, 181, 284, 212
-0.992141, 145, 169, 208, 200
-0.992199, 273, 125, 336, 156
-0.992229, 377, 141, 440, 172
-0.992242, 1, 129, 128, 160
-0.992248, 273, 185, 304, 216
-0.992256, 33, 185, 160, 248
-0.992268, 33, 149, 64, 180
-0.992279, 93, 137, 124, 168
-0.992283, 97, 165, 128, 196
-0.992295, 257, 193, 384, 256
-0.9923, 365, 153, 396, 184
-0.992305, 301, 173, 332, 204
-0.992306, 433, 97, 496, 160
-0.992307, 321, 129, 384, 160
-0.992323, 313, 177, 376, 208
-0.992333, 89, 149, 120, 180
-0.992349, 169, 193, 200, 224
-0.992362, 1, 165, 64, 196
-0.99237, 69, 125, 100, 156
-0.992371, 309, 141, 340, 172
-0.992377, 153, 181, 216, 212
-0.992392, 81, 133, 112, 164
-0.992422, 173, 121, 204, 184
-0.992426, 241, 185, 272, 216
-0.992442, 157, 189, 188, 220
-0.99245, 125, 173, 156, 204
-0.992456, 49, 113, 80, 144
-0.992456, 241, 201, 272, 264
-0.992469, 353, 153, 384, 184
-0.992473, 145, 185, 176, 216
-0.992487, 389, 153, 420, 184
-0.99249, 65, 113, 128, 144
-0.992491, 317, 161, 348, 192
-0.992519, 229, 189, 260, 220
-0.992526, 41, 73, 104, 136
-0.992548, 329, 105, 360, 168
-0.992548, 77, 149, 108, 180
-0.992555, 25, 101, 88, 132
-0.992565, 45, 145, 76, 176
-0.992581, 129, 137, 192, 168
-0.992595, 37, 113, 68, 144
-0.992598, 49, 129, 80, 160
-0.992608, 21, 113, 52, 144
-0.992629, 21, 153, 52, 184
-0.99263, 1, 81, 32, 208
-0.992654, 157, 201, 188, 232
-0.992658, 117, 149, 148, 180
-0.992671, 289, 149, 416, 180
-0.992683, 217, 193, 248, 224
-0.992691, 245, 113, 276, 176
-0.992696, 41, 161, 72, 192
-0.992699, 289, 173, 320, 204
-0.992719, 109, 169, 140, 200
-0.99272, 321, 141, 352, 172
-0.99272, 209, 129, 272, 160
-0.992722, 269, 113, 300, 176
-0.992724, 105, 141, 136, 172
-0.992731, 177, 133, 240, 164
-0.992735, 61, 113, 92, 144
-0.992736, 85, 161, 116, 192
-0.992747, 97, 121, 160, 152
-0.992768, 293, 161, 324, 192
-0.992783, 333, 141, 364, 172
-0.992783, 137, 173, 168, 204
-0.992785, 205, 197, 236, 228
-0.992787, 361, 165, 392, 196
-0.992791, 157, 209, 188, 272
-0.992804, 113, 181, 144, 212
-0.992811, 229, 81, 260, 208
-0.992812, 225, 169, 480, 232
-0.992819, 53, 165, 84, 196
-0.992826, 341, 153, 372, 184
-0.992837, 273, 173, 304, 204
-0.992839, 189, 121, 220, 184
-0.992856, 345, 129, 408, 160
-0.992859, 297, 141, 328, 172
-0.992859, 257, 193, 288, 224
-0.992864, 133, 185, 164, 216
-0.992878, 193, 201, 224, 232
-0.992882, 301, 129, 332, 160
-0.992882, 69, 165, 100, 196
-0.992886, 289, 185, 320, 216
-0.992898, 153, 141, 216, 172
-0.99293, 313, 173, 344, 204
-0.992937, 369, 97, 496, 160
-0.99294, 285, 137, 316, 168
-0.992952, 29, 17, 60, 144
-0.992969, 25, 169, 88, 200
-0.992978, 145, 81, 272, 144
-0.992989, 73, 185, 136, 216
-0.993006, 381, 165, 412, 196
-0.993017, 353, 141, 384, 172
-0.993022, 369, 141, 400, 172
-0.993027, 1, 17, 32, 144
-0.993034, 321, 129, 352, 160
-0.993034, 193, 189, 224, 220
-0.99304, 93, 125, 124, 156
-0.993042, 349, 165, 380, 196
-0.993048, 281, 197, 312, 228
-0.993066, 129, 213, 192, 244
-0.993069, 329, 161, 360, 192
-0.993089, 257, 169, 288, 200
-0.99309, 9, 117, 40, 148
-0.993096, 21, 141, 52, 172
-0.993108, 137, 153, 168, 184
-0.993111, 61, 153, 92, 184
-0.993111, 313, 137, 328, 200
-0.993119, 273, 137, 304, 168
-0.993122, 157, 177, 188, 208
-0.993128, 233, 145, 264, 176
-0.993133, 69, 137, 100, 168
-0.993139, 301, 185, 332, 216
-0.993139, 35, 121, 50, 184
-0.993164, 181, 205, 212, 236
-0.993166, 229, 177, 260, 208
-0.993173, 25, 165, 56, 196
-0.993174, 169, 149, 200, 180
-0.99319, 241, 173, 272, 204
-0.993191, 101, 153, 132, 184
-0.993194, 101, 181, 132, 212
-0.993198, 21, 125, 52, 156
-0.993198, 45, 113, 60, 176
-0.9932, 389, 141, 420, 172
-0.993213, 269, 197, 300, 228
-0.993216, 245, 197, 276, 228
-0.993223, 57, 17, 88, 144
-0.993227, 177, 81, 240, 144
-0.993235, 85, 173, 116, 204
-0.993235, 401, 153, 432, 184
-0.993248, 281, 161, 312, 192
-0.993251, 181, 193, 212, 224
-0.993259, 209, 193, 336, 224
-0.993269, 105, 129, 136, 160
-0.99327, 181, 149, 212, 180
-0.993273, 241, 157, 304, 188
-0.99328, 245, 145, 276, 176
-0.993286, 209, 149, 240, 180
-0.993295, 153, 153, 184, 184
-0.993302, 337, 173, 368, 204
-0.993305, 145, 197, 176, 228
-0.993311, 221, 145, 252, 176
-0.993311, 165, 213, 196, 244
-0.993313, 173, 181, 204, 212
-0.993313, 81, 197, 144, 228
-0.993336, 333, 129, 364, 160
-0.993337, 121, 161, 152, 192
-0.993338, 257, 145, 288, 176
-0.993342, 81, 121, 112, 152
-0.993343, 393, 165, 424, 196
-0.993344, 289, 197, 352, 228
-0.993349, 65, 101, 128, 132
-0.993359, 249, 129, 280, 160
-0.99336, 193, 169, 256, 200
-0.993367, 325, 173, 356, 204
-0.993371, 277, 125, 308, 156
-0.993377, 289, 125, 320, 156
-0.993388, 217, 181, 248, 212
-0.993389, 233, 201, 264, 232
-0.993396, 205, 185, 236, 216
-0.993398, 217, 81, 248, 208
-0.993414, 57, 141, 88, 172
-0.993419, 33, 177, 96, 240
-0.993421, 197, 149, 228, 180
-0.993421, 153, 213, 184, 244
-0.993423, 9, 129, 40, 256
-0.993424, 49, 177, 112, 208
-0.993437, 217, 121, 248, 184
-0.993438, 9, 141, 40, 172
-0.993445, 237, 129, 268, 160
-0.993454, 201, 121, 232, 184
-0.993469, 261, 129, 292, 160
-0.993477, 1, 101, 64, 132
-0.993482, 401, 141, 432, 172
-0.993489, 229, 165, 260, 196
-0.99349, 13, 165, 44, 196
-0.99349, 293, 197, 324, 228
-0.99349, 149, 165, 180, 196
-0.993496, 141, 141, 172, 172
-0.993497, 33, 137, 64, 168
-0.993528, 9, 129, 40, 160
-0.993533, 345, 129, 376, 160
-0.993536, 125, 137, 156, 168
-0.993556, 17, 165, 144, 196
-0.993569, 397, 121, 428, 184
-0.993586, 393, 165, 456, 196
-0.993598, 201, 81, 264, 144
-0.993605, 197, 169, 228, 232
-0.993614, 109, 161, 124, 224
-0.993653, 55, 113, 70, 176
-0.993661, 417, 101, 480, 132
-0.993679, 25, 205, 88, 236
-0.993705, 57, 201, 120, 232
-0.993707, 107, 137, 122, 200
-0.993721, 93, 129, 108, 192
-0.993734, 369, 97, 432, 128
-0.993749, 323, 137, 338, 200
-0.993763, 297, 253, 360, 284
-0.993765, 153, 129, 216, 160
-0.993766, 17, 141, 144, 172
-0.993773, 169, 265, 232, 296
-0.993783, 273, 225, 336, 256
-0.993786, 17, 217, 80, 248
-0.993787, 141, 121, 172, 184
-0.993793, 177, 281, 240, 312
-0.993798, 321, 257, 384, 288
-0.993802, 393, 101, 456, 132
-0.993804, 289, 213, 352, 244
-0.993812, 51, 137, 66, 200
-0.993815, 13, 1, 44, 128
-0.99383, 201, 273, 264, 304
-0.993833, 249, 249, 312, 280
-0.99384, 313, 93, 376, 124
-0.993859, 185, 109, 248, 140
-0.993872, 209, 257, 272, 288
-0.993877, 249, 237, 312, 268
-0.993898, 121, 73, 184, 136
-0.9939, 361, 273, 424, 304
-0.993903, 89, 273, 152, 304
-0.993906, 41, 221, 104, 252
-0.993911, 17, 237, 80, 268
-0.993928, 89, 109, 152, 140
-0.99394, 185, 249, 248, 280
-0.99395, 297, 233, 360, 264
-0.993955, 137, 249, 200, 280
-0.99396, 337, 93, 400, 124
-0.993963, 273, 253, 336, 284
-0.993969, 233, 117, 296, 148
-0.993979, 321, 269, 384, 300
-0.993984, 41, 277, 104, 308
-0.993989, 249, 213, 312, 244
-0.994005, 241, 265, 304, 296
-0.994008, 1, 69, 64, 100
-0.99401, 209, 245, 272, 276
-0.994015, 289, 265, 352, 296
-0.99402, 329, 241, 392, 272
-0.994026, 305, 117, 368, 148
-0.994033, 113, 73, 176, 104
-0.994041, 81, 209, 144, 240
-0.994046, 65, 281, 128, 312
-0.994046, 345, 225, 408, 256
-0.994054, 161, 193, 288, 224
-0.994056, 1, 201, 64, 232
-0.994057, 257, 277, 320, 308
-0.994067, 97, 201, 352, 264
-0.994069, 257, 113, 288, 176
-0.994076, 161, 121, 192, 184
-0.994078, 17, 185, 80, 216
-0.99413, 193, 233, 256, 296
-0.994131, 257, 173, 384, 204
-0.994135, 333, 177, 364, 304
-0.994137, 1, 117, 128, 148
-0.994248, 349, 137, 364, 200
-0.994277, 101, 137, 116, 200
-0.994282, 117, 145, 132, 208
-0.994299, 89, 81, 152, 144
-0.994305, 165, 177, 180, 240
-0.994319, 97, 189, 224, 220
-0.994412, 61, 113, 76, 176
-0.994449, 469, 49, 500, 176
-0.994479, 139, 145, 154, 208
-0.994481, 313, 89, 376, 152
-0.994496, 1, 57, 128, 120
-0.994502, 405, 145, 436, 208
-0.99451, 193, 181, 320, 212
-0.994554, 161, 121, 416, 184
-0.994556, 81, 149, 208, 180
-0.994587, 125, 121, 156, 184
-0.994587, 169, 217, 232, 280
-0.994589, 259, 177, 274, 240
-0.994599, 273, 137, 400, 168
-0.994609, 153, 81, 216, 144
-0.994622, 365, 145, 380, 208
-0.994652, 87, 129, 102, 192
-0.994664, 241, 81, 368, 144
-0.994665, 171, 177, 186, 240
-0.994668, 371, 145, 386, 208
-0.994686, 49, 73, 80, 136
-0.994702, 57, 137, 72, 200
-0.994728, 295, 137, 310, 200
-0.994728, 305, 161, 320, 224
-0.994731, 257, 89, 320, 152
-0.994734, 265, 177, 280, 240
-0.994737, 453, 49, 484, 176
-0.994749, 133, 145, 148, 208
-0.99476, 307, 137, 322, 200
-0.994779, 17, 217, 80, 280
-0.994792, 299, 161, 314, 224
-0.994792, 45, 137, 60, 200
-0.994797, 429, 49, 460, 176
-0.994815, 355, 137, 370, 200
-0.994816, 461, 97, 492, 224
-0.994841, 1, 153, 128, 184
-0.99487, 339, 137, 354, 200
-0.994916, 125, 145, 140, 208
-0.994935, 369, 65, 496, 128
-0.994961, 145, 145, 160, 208
-0.994975, 331, 145, 346, 208
-0.994978, 1, 209, 128, 272
-0.994982, 345, 113, 376, 176
-0.995032, 181, 1, 212, 128
-0.995069, 241, 161, 368, 192
-0.995087, 337, 157, 464, 188
-0.995096, 65, 173, 192, 204
-0.995112, 145, 173, 272, 204
-0.995115, 81, 121, 96, 184
-0.995136, 321, 65, 448, 128
-0.995141, 1, 121, 500, 184
-0.995145, 153, 177, 168, 240
-0.99516, 101, 1, 132, 128
-0.995218, 33, 97, 288, 160
-0.995245, 239, 185, 254, 248
-0.995248, 29, 161, 60, 288
-0.995257, 159, 177, 174, 240
-0.995297, 177, 185, 192, 248
-0.995305, 315, 161, 330, 224
-0.995311, 137, 169, 152, 232
-0.995325, 425, 145, 456, 272
-0.995341, 385, 121, 416, 184
-0.99535, 201, 1, 232, 128
-0.995357, 445, 97, 476, 224
-0.995359, 225, 141, 352, 172
-0.995373, 103, 161, 118, 224
-0.99538, 381, 49, 412, 176
-0.995385, 65, 137, 80, 200
-0.99539, 89, 33, 120, 160
-0.995397, 153, 193, 184, 313
-0.995398, 269, 137, 284, 200
-0.995403, 249, 177, 264, 240
-0.995406, 357, 169, 388, 232
-0.99541, 9, 97, 40, 160
-0.995417, 243, 145, 258, 208
-0.995429, 161, 1, 192, 128
-0.99545, 409, 161, 472, 224
-0.995461, 137, 1, 168, 128
-0.995483, 255, 145, 270, 208
-0.995485, 377, 169, 408, 232
-0.995492, 377, 145, 392, 208
-0.995493, 121, 1, 152, 128
-0.995525, 229, 1, 260, 128
-0.99553, 49, 209, 176, 272
-0.99557, 1, 57, 64, 120
-0.99557, 27, 129, 42, 192
-0.995574, 81, 137, 208, 168
-0.995612, 283, 137, 298, 200
-0.995633, 349, 177, 380, 304
-0.995636, 269, 1, 300, 128
-0.995643, 289, 161, 416, 192
-0.995667, 261, 145, 276, 208
-0.995668, 149, 1, 180, 128
-0.995688, 229, 145, 244, 208
-0.995692, 1, 1, 128, 64
-0.995695, 81, 89, 112, 152
-0.995706, 1, 169, 500, 232
-0.995725, 401, 73, 464, 136
-0.995735, 69, 113, 84, 176
-0.99574, 249, 145, 264, 208
-0.995755, 129, 57, 256, 120
-0.99577, 369, 25, 496, 88
-0.995788, 223, 145, 238, 208
-0.995792, 229, 201, 260, 264
-0.995797, 217, 1, 248, 128
-0.99583, 143, 177, 158, 240
-0.995832, 151, 145, 166, 208
-0.995846, 271, 177, 286, 240
-0.995849, 145, 205, 272, 236
-0.995857, 293, 161, 308, 224
-0.995858, 409, 17, 440, 144
-0.99588, 75, 113, 90, 176
-0.995888, 93, 153, 108, 216
-0.995892, 37, 73, 68, 136
-0.995933, 37, 153, 52, 216
-0.995952, 301, 137, 316, 200
-0.995969, 221, 169, 236, 232
-0.996047, 369, 177, 400, 304
-0.996047, 49, 121, 176, 152
-0.996057, 383, 145, 398, 208
-0.99606, 321, 9, 448, 72
-0.996066, 285, 177, 300, 240
-0.996068, 229, 169, 244, 232
-0.996085, 397, 49, 428, 176
-0.996087, 161, 1, 288, 64
-0.996087, 235, 153, 250, 216
-0.996098, 441, 17, 472, 144
-0.996113, 49, 1, 176, 64
-0.996114, 157, 145, 172, 208
-0.99614, 65, 49, 192, 112
-0.996144, 59, 89, 74, 152
-0.996147, 275, 137, 290, 200
-0.996152, 257, 185, 384, 216
-0.996168, 131, 169, 146, 232
-0.996177, 321, 161, 336, 224
-0.996224, 215, 193, 230, 256
-0.996229, 273, 209, 336, 272
-0.99623, 25, 105, 40, 168
-0.996235, 117, 169, 132, 232
-0.996254, 71, 137, 86, 200
-0.996263, 389, 145, 404, 208
-0.996269, 163, 145, 178, 208
-0.996298, 49, 89, 64, 152
-0.996322, 9, 177, 72, 240
-0.996322, 241, 241, 304, 304
-0.996337, 257, 1, 288, 128
-0.996338, 209, 241, 336, 304
-0.996356, 277, 161, 292, 224
-0.996378, 49, 169, 80, 232
-0.996401, 241, 1, 272, 128
-0.996411, 171, 201, 186, 264
-0.996418, 17, 233, 144, 296
-0.99643, 113, 1, 240, 64
-0.99643, 173, 145, 188, 208
-0.996442, 369, 145, 496, 176
-0.996458, 71, 161, 86, 224
-0.996467, 93, 133, 108, 164
-0.996471, 241, 217, 368, 280
-0.996479, 169, 249, 232, 312
-0.996506, 281, 89, 344, 152
-0.996509, 63, 161, 78, 224
-0.99651, 241, 17, 368, 80
-0.996529, 417, 153, 448, 216
-0.996536, 81, 249, 208, 312
-0.996545, 161, 149, 288, 180
-0.996557, 289, 137, 304, 200
-0.996575, 433, 137, 496, 200
-0.996575, 289, 217, 416, 280
-0.996576, 101, 137, 116, 168
-0.996604, 225, 193, 240, 256
-0.996606, 77, 1, 108, 128
-0.996611, 193, 81, 320, 144
-0.996627, 39, 97, 54, 160
-0.99663, 1, 193, 500, 256
-0.99663, 343, 161, 358, 224
-0.996655, 101, 149, 116, 180
-0.99666, 125, 169, 140, 232
-0.996668, 33, 1, 96, 64
-0.996669, 389, 153, 404, 184
-0.996675, 225, 129, 352, 160
-0.996696, 307, 161, 322, 192
-0.996708, 183, 177, 198, 240
-0.996726, 367, 121, 382, 184
-0.996736, 57, 217, 120, 280
-0.996739, 9, 1, 72, 64
-0.996745, 241, 57, 368, 120
-0.996764, 33, 65, 64, 313
-0.996765, 269, 201, 300, 264
-0.99677, 17, 33, 144, 96
-0.996781, 69, 89, 84, 152
-0.996791, 57, 161, 72, 224
-0.996791, 349, 161, 364, 224
-0.996801, 377, 81, 440, 144
-0.996807, 77, 161, 92, 224
-0.996815, 321, 33, 448, 96
-0.996852, 193, 57, 320, 120
-0.996852, 93, 149, 108, 180
-0.996856, 333, 169, 348, 232
-0.996865, 215, 169, 230, 232
-0.996872, 85, 153, 100, 216
-0.996882, 251, 185, 266, 216
-0.996888, 299, 185, 314, 248
-0.996893, 289, 33, 320, 160
-0.996901, 313, 161, 328, 192
-0.996901, 97, 161, 112, 192
-0.996908, 65, 161, 192, 192
-0.99691, 173, 193, 188, 224
-0.996919, 395, 145, 410, 208
-0.996933, 107, 161, 122, 192
-0.996943, 89, 49, 152, 112
-0.996943, 113, 49, 176, 112
-0.996944, 361, 121, 376, 184
-0.99695, 257, 121, 500, 184
-0.99695, 357, 161, 372, 224
-0.996963, 211, 145, 226, 208
-0.996989, 305, 113, 320, 176
-0.997007, 21, 73, 52, 136
-0.997014, 353, 193, 480, 313
-0.997017, 379, 153, 394, 184
-0.997024, 35, 153, 50, 184
-0.997028, 181, 145, 196, 208
-0.997035, 95, 105, 110, 168
-0.997047, 275, 185, 290, 216
-0.997052, 257, 97, 500, 160
-0.997058, 145, 201, 176, 264
-0.997071, 323, 113, 338, 176
-0.997071, 115, 121, 130, 184
-0.997072, 317, 105, 332, 168
-0.997072, 301, 1, 332, 128
-0.997077, 1, 201, 256, 264
-0.997082, 137, 249, 200, 312
-0.997088, 371, 153, 386, 184
-0.997097, 97, 209, 224, 240
-0.997099, 193, 201, 208, 264
-0.997105, 193, 25, 320, 88
-0.997112, 1, 89, 500, 152
-0.997119, 165, 201, 180, 264
-0.997124, 31, 89, 46, 152
-0.997129, 137, 49, 200, 112
-0.997129, 319, 161, 334, 192
-0.997132, 327, 169, 342, 232
-0.997135, 177, 209, 192, 272
-0.997147, 225, 73, 288, 136
-0.997154, 321, 133, 448, 164
-0.997173, 53, 1, 84, 256
-0.997175, 73, 1, 136, 64
-0.997188, 193, 169, 320, 200
-0.997202, 217, 145, 232, 208
-0.997204, 43, 149, 58, 180
-0.99722, 321, 141, 336, 172
-0.99722, 167, 189, 182, 220
-0.997225, 425, 73, 488, 136
-0.997239, 365, 153, 380, 184
-0.997246, 21, 169, 52, 232
-0.99725, 51, 125, 66, 156
-0.997256, 209, 193, 224, 256
-0.997257, 241, 189, 256, 220
-0.997265, 345, 1, 376, 128
-0.997286, 85, 97, 100, 160
-0.997287, 369, 1, 496, 64
-0.997287, 453, 97, 484, 160
-0.99731, 373, 121, 388, 184
-0.997312, 267, 181, 282, 212
-0.997313, 139, 173, 154, 204
-0.997314, 301, 169, 316, 200
-0.997323, 187, 201, 202, 264
-0.997324, 31, 153, 46, 216
-0.997328, 1, 73, 256, 136
-0.99733, 231, 193, 246, 256
-0.997331, 281, 181, 296, 212
-0.997339, 313, 149, 328, 180
-0.997349, 61, 125, 76, 156
-0.99735, 1, 105, 128, 136
-0.997367, 257, 241, 384, 304
-0.997373, 289, 1, 320, 256
-0.99738, 279, 185, 294, 248
-0.997381, 305, 1, 336, 256
-0.997393, 81, 25, 208, 88
-0.997394, 13, 1, 44, 256
-0.997398, 333, 121, 348, 184
-0.997399, 293, 181, 308, 212
-0.9974, 193, 145, 208, 208
-0.997401, 305, 173, 432, 204
-0.997407, 357, 153, 372, 184
-0.997408, 115, 169, 130, 200
-0.997411, 17, 177, 144, 208
-0.997411, 187, 145, 202, 208
-0.997438, 53, 113, 68, 144
-0.997446, 309, 137, 324, 168
-0.997446, 257, 185, 272, 216
-0.997447, 87, 137, 102, 168
-0.997467, 293, 193, 308, 256
-0.997472, 25, 153, 40, 216
-0.997474, 83, 125, 98, 156
-0.997486, 51, 141, 66, 172
-0.997487, 313, 1, 344, 128
-0.997489, 313, 173, 328, 204
-0.997505, 51, 161, 66, 224
-0.997517, 307, 173, 322, 204
-0.997517, 259, 121, 274, 184
-0.997522, 105, 193, 136, 256
-0.997522, 87, 149, 102, 180
-0.997524, 395, 153, 410, 184
-0.997528, 159, 185, 174, 216
-0.99754, 33, 49, 96, 112
-0.99754, 49, 193, 176, 224
-0.997541, 19, 113, 34, 176
-0.997543, 353, 73, 416, 136
-0.997543, 53, 177, 84, 304
-0.997545, 39, 113, 54, 144
-0.997548, 33, 125, 48, 156
-0.997566, 113, 97, 176, 160
-0.997569, 287, 185, 302, 216
-0.997572, 321, 1, 352, 256
-0.997575, 49, 109, 176, 140
-0.997582, 469, 97, 500, 160
-0.997584, 97, 1, 128, 256
-0.997585, 45, 125, 60, 156
-0.997594, 185, 33, 216, 288
-0.997595, 91, 165, 106, 196
-0.997597, 177, 129, 304, 160
-0.997606, 107, 141, 122, 172
-0.997629, 231, 193, 246, 224
-0.99763, 67, 113, 82, 144
-0.997648, 129, 137, 256, 168
-0.997668, 173, 33, 204, 288
-0.997671, 153, 33, 184, 288
-0.997672, 129, 25, 256, 88
-0.997683, 81, 1, 112, 256
-0.997698, 321, 249, 448, 312
-0.997699, 65, 1, 96, 256
-0.997709, 397, 1, 428, 128
-0.997722, 125, 169, 140, 200
-0.997725, 129, 233, 256, 296
-0.997727, 47, 113, 62, 144
-0.997733, 167, 201, 182, 232
-0.997752, 115, 145, 130, 176
-0.997756, 361, 17, 392, 144
-0.997758, 221, 197, 236, 228
-0.997764, 181, 49, 212, 176
-0.997764, 49, 161, 64, 192
-0.997782, 27, 153, 42, 184
-0.997787, 27, 113, 42, 144
-0.997788, 33, 113, 48, 144
-0.997788, 61, 113, 76, 144
-0.997789, 315, 137, 330, 168
-0.997796, 281, 241, 344, 304
-0.997809, 65, 165, 80, 196
-0.997825, 327, 161, 342, 192
-0.997843, 433, 97, 464, 160
-0.997846, 313, 241, 376, 304
-0.997847, 39, 125, 54, 156
-0.997854, 401, 153, 416, 184
-0.997858, 337, 225, 464, 288
-0.997866, 307, 149, 322, 180
-0.997868, 347, 141, 362, 172
-0.997889, 345, 249, 408, 312
-0.997895, 41, 161, 56, 192
-0.9979, 367, 165, 382, 196
-0.997901, 361, 1, 392, 256
-0.997901, 325, 1, 356, 128
-0.997904, 377, 1, 408, 256
-0.997924, 397, 1, 428, 256
-0.99793, 209, 201, 224, 232
-0.997933, 341, 1, 372, 256
-0.997936, 201, 1, 264, 64
-0.99794, 131, 169, 146, 200
-0.997948, 413, 121, 444, 184
-0.997949, 361, 165, 376, 196
-0.997949, 161, 201, 176, 232
-0.997965, 113, 1, 144, 256
-0.997974, 73, 117, 88, 148
-0.997978, 293, 169, 308, 200
-0.997982, 97, 1, 160, 64
-0.997982, 215, 197, 230, 228
-0.997985, 205, 33, 236, 288
-0.997991, 351, 153, 366, 184
-0.997995, 67, 125, 82, 156
-0.997995, 273, 173, 288, 204
-0.997996, 269, 1, 300, 256
-0.998007, 241, 17, 304, 80
-0.998008, 133, 1, 164, 256
-0.998011, 433, 1, 464, 256
-0.998011, 113, 157, 128, 188
-0.998014, 145, 185, 160, 216
-0.998024, 301, 141, 316, 172
-0.998034, 113, 161, 240, 192
-0.998036, 71, 165, 86, 196
-0.998056, 249, 1, 280, 256
-0.998064, 77, 165, 92, 196
-0.998067, 55, 161, 70, 192
-0.998069, 269, 193, 284, 224
-0.998071, 161, 57, 224, 120
-0.998077, 319, 173, 334, 204
-0.998088, 301, 89, 332, 152
-0.998097, 221, 1, 252, 256
-0.998101, 389, 141, 404, 172
-0.998103, 153, 189, 168, 220
-0.998121, 121, 9, 184, 72
-0.998121, 177, 9, 240, 72
-0.998143, 165, 177, 180, 208
-0.998147, 339, 137, 354, 168
-0.998147, 257, 165, 272, 196
-0.998148, 193, 197, 208, 228
-0.998148, 337, 193, 464, 256
-0.998155, 61, 153, 76, 184
-0.998155, 301, 181, 316, 212
-0.998163, 465, 1, 496, 256
-0.998169, 283, 169, 298, 200
-0.998172, 85, 165, 100, 196
-0.998173, 413, 1, 444, 256
-0.99818, 129, 185, 144, 216
-0.998182, 107, 173, 122, 204
-0.998197, 375, 165, 390, 196
-0.998201, 297, 193, 312, 224
-0.998201, 257, 201, 288, 264
-0.998203, 461, 1, 492, 128
-0.998203, 245, 177, 260, 208
-0.998205, 99, 125, 114, 156
-0.998207, 123, 149, 138, 180
-0.998211, 413, 97, 444, 160
-0.998218, 327, 141, 342, 172
-0.99822, 321, 129, 336, 160
-0.998221, 123, 185, 138, 216
-0.998239, 295, 137, 310, 168
-0.99824, 179, 193, 194, 224
-0.998241, 147, 173, 162, 204
-0.998242, 131, 149, 146, 180
-0.998247, 139, 185, 154, 216
-0.998254, 141, 153, 156, 184
-0.998258, 81, 149, 96, 180
-0.998267, 115, 181, 130, 212
-0.998268, 381, 141, 396, 172
-0.998271, 5, 65, 36, 128
-0.998272, 57, 137, 72, 168
-0.998273, 25, 141, 40, 172
-0.998275, 237, 1, 268, 256
-0.998276, 199, 205, 214, 236
-0.99828, 147, 153, 162, 184
-0.998281, 291, 197, 306, 228
-0.998282, 449, 1, 480, 256
-0.998283, 251, 197, 266, 228
-0.998287, 301, 157, 316, 188
-0.998288, 327, 129, 342, 160
-0.998295, 97, 125, 224, 156
-0.9983, 1, 25, 64, 88
-0.998305, 257, 197, 384, 228
-0.998306, 193, 217, 320, 280
-0.998317, 93, 121, 108, 152
-0.998318, 67, 153, 82, 184
-0.998321, 199, 193, 214, 224
-0.998323, 35, 165, 50, 196
-0.998335, 145, 175, 176, 190
-0.998336, 253, 203, 284, 218
-0.998336, 45, 121, 76, 136
-0.998337, 313, 185, 344, 200
-0.998338, 161, 185, 192, 200
-0.998338, 389, 169, 420, 184
-0.998338, 181, 151, 212, 166
-0.998341, 13, 163, 44, 178
-0.998342, 9, 119, 40, 134
-0.998345, 237, 179, 268, 194
-0.998346, 429, 1, 460, 128
-0.998346, 117, 149, 148, 164
-0.998347, 35, 141, 50, 172
-0.998348, 49, 169, 80, 184
-0.998348, 381, 165, 396, 196
-0.998349, 85, 177, 116, 192
-0.998349, 393, 151, 424, 166
-0.998351, 273, 175, 304, 190
-0.998352, 1, 1, 32, 256
-0.998358, 137, 193, 168, 208
-0.998358, 21, 121, 52, 136
-0.998359, 413, 161, 444, 176
-0.998359, 153, 207, 184, 222
-0.99836, 297, 195, 328, 210
-0.99836, 189, 199, 220, 214
-0.998361, 329, 177, 360, 192
-0.998362, 13, 131, 44, 146
-0.998367, 269, 141, 300, 156
-0.998369, 333, 149, 364, 164
-0.998369, 169, 213, 200, 228
-0.998369, 73, 165, 104, 180
-0.998371, 193, 57, 256, 120
-0.998375, 281, 17, 344, 80
-0.998375, 305, 17, 368, 80
-0.998377, 157, 213, 188, 228
-0.998378, 33, 147, 64, 162
-0.998379, 97, 151, 128, 166
-0.998381, 149, 197, 180, 212
-0.998381, 125, 169, 156, 184
-0.998384, 45, 149, 76, 164
-0.998384, 29, 133, 60, 148
-0.998384, 81, 129, 112, 144
-0.998384, 101, 175, 132, 190
-0.998384, 373, 149, 404, 164
-0.998386, 333, 137, 364, 152
-0.99839, 181, 209, 212, 224
-0.99839, 53, 129, 84, 144
-0.998391, 193, 205, 320, 236
-0.998394, 17, 127, 80, 142
-0.998398, 101, 181, 132, 196
-0.998398, 357, 145, 388, 160
-0.998399, 317, 135, 348, 150
-0.998399, 285, 199, 316, 214
-0.998399, 433, 33, 496, 96
-0.9984, 249, 193, 312, 208
-0.998401, 17, 163, 80, 178
-0.998402, 101, 139, 132, 154
-0.998404, 289, 163, 320, 178
-0.998405, 69, 147, 100, 162
-0.998405, 301, 147, 332, 162
-0.998406, 317, 147, 348, 162
-0.998407, 77, 135, 108, 150
-0.998407, 97, 157, 128, 172
-0.998408, 221, 199, 252, 214
-0.998409, 265, 199, 296, 214
-0.998411, 257, 177, 288, 192
-0.998413, 113, 187, 144, 202
-0.998415, 317, 179, 348, 194
-0.998416, 57, 117, 88, 132
-0.998417, 77, 153, 108, 168
-0.998417, 353, 153, 384, 168
-0.998418, 289, 185, 320, 200
-0.998419, 301, 135, 332, 150
-0.99842, 301, 187, 332, 202
-0.998421, 409, 25, 472, 88
-0.998423, 81, 145, 144, 160
-0.998426, 41, 145, 104, 160
-0.998427, 9, 125, 40, 140
-0.99843, 29, 139, 60, 154
-0.998431, 297, 171, 360, 186
-0.998431, 161, 97, 416, 160
-0.998432, 365, 155, 396, 170
-0.998434, 225, 191, 288, 206
-0.998435, 261, 191, 292, 206
-0.998437, 21, 115, 52, 130
-0.998438, 341, 169, 372, 184
-0.998439, 397, 163, 428, 178
-0.99844, 57, 135, 88, 150
-0.998441, 273, 181, 304, 196
-0.998443, 265, 179, 328, 194
-0.998446, 305, 143, 368, 158
-0.998446, 249, 189, 280, 204
-0.998447, 249, 185, 312, 200
-0.998447, 225, 193, 480, 256
-0.998449, 97, 173, 160, 188
-0.998453, 289, 165, 352, 180
-0.998453, 69, 129, 100, 144
-0.998454, 345, 155, 408, 170
-0.998455, 145, 181, 176, 196
-0.998455, 165, 205, 196, 220
-0.998464, 169, 197, 200, 212
-0.998464, 285, 193, 316, 208
-0.998465, 273, 141, 336, 156
-0.998465, 145, 187, 176, 202
-0.998465, 49, 143, 80, 158
-0.998466, 73, 165, 136, 180
-0.998467, 305, 193, 336, 256
-0.998467, 209, 199, 272, 214
-0.998468, 109, 163, 140, 178
-0.998469, 241, 199, 272, 214
-0.998469, 57, 133, 120, 148
-0.99847, 317, 167, 348, 182
-0.99847, 57, 139, 120, 154
-0.998472, 365, 165, 396, 180
-0.998473, 69, 123, 100, 138
-0.998473, 353, 167, 384, 182
-0.998476, 169, 195, 232, 210
-0.998476, 17, 115, 80, 130
-0.998477, 209, 199, 240, 214
-0.99848, 21, 157, 52, 172
-0.998482, 385, 161, 448, 176
-0.998485, 153, 201, 216, 216
-0.998486, 305, 159, 336, 174
-0.998489, 153, 1, 216, 64
-0.998489, 361, 17, 424, 80
-0.998493, 129, 187, 192, 202
-0.998494, 297, 141, 328, 156
-0.998497, 193, 205, 224, 220
-0.998497, 129, 185, 160, 200
-0.998497, 73, 171, 136, 186
-0.998498, 273, 173, 336, 188
-0.998502, 77, 141, 108, 156
-0.998503, 105, 145, 136, 160
-0.998503, 61, 167, 92, 182
-0.998503, 345, 145, 376, 160
-0.998505, 41, 167, 104, 182
-0.998506, 385, 1, 416, 128
-0.998507, 105, 185, 168, 200
-0.998507, 33, 153, 64, 168
-0.998508, 289, 179, 320, 194
-0.998509, 113, 179, 144, 194
-0.998512, 241, 199, 304, 214
-0.998512, 77, 171, 108, 186
-0.998514, 237, 189, 268, 204
-0.998515, 29, 127, 60, 142
-0.998515, 45, 163, 76, 178
-0.998516, 381, 163, 412, 178
-0.998519, 273, 125, 400, 156
-0.99852, 297, 177, 360, 192
-0.998521, 225, 185, 288, 200
-0.998524, 113, 173, 144, 188
-0.998525, 289, 169, 320, 184
-0.998527, 41, 127, 72, 142
-0.998531, 97, 179, 160, 194
-0.998533, 49, 127, 112, 142
-0.998536, 301, 181, 332, 196
-0.998539, 337, 25, 400, 88
-0.998542, 249, 141, 312, 156
-0.998544, 353, 165, 416, 180
-0.998551, 85, 147, 116, 162
-0.998552, 281, 139, 312, 154
-0.998554, 281, 185, 344, 200
-0.998555, 25, 163, 56, 178
-0.998555, 17, 139, 80, 154
-0.998555, 85, 161, 116, 176
-0.998556, 321, 167, 384, 182
-0.998556, 129, 193, 192, 208
-0.998559, 89, 135, 120, 150
-0.998562, 153, 209, 216, 224
-0.998562, 225, 193, 256, 208
-0.998566, 273, 193, 304, 208
-0.998566, 125, 175, 156, 190
-0.998572, 377, 155, 408, 170
-0.998573, 81, 151, 144, 166
-0.998573, 393, 157, 424, 172
-0.998575, 369, 155, 432, 170
-0.998576, 277, 187, 308, 202
-0.998577, 41, 121, 104, 136
-0.998578, 329, 145, 392, 160
-0.998578, 265, 165, 328, 180
-0.998579, 17, 133, 80, 148
-0.99858, 321, 141, 352, 156
-0.998581, 41, 151, 104, 166
-0.998582, 201, 193, 264, 208
-0.998582, 185, 203, 248, 218
-0.998584, 253, 197, 284, 212
-0.998585, 17, 157, 80, 172
-0.998586, 121, 177, 184, 192
-0.998587, 313, 173, 344, 188
-0.998587, 297, 159, 360, 174
-0.998595, 273, 193, 336, 208
-0.998595, 321, 121, 448, 152
-0.998605, 41, 161, 104, 176
-0.998608, 97, 167, 160, 182
-0.998611, 393, 153, 456, 168
-0.998611, 321, 173, 384, 188
-0.998612, 305, 149, 368, 164
-0.998616, 113, 153, 176, 168
-0.998617, 301, 175, 332, 190
-0.998618, 265, 199, 328, 214
-0.998619, 17, 145, 80, 160
-0.998619, 249, 171, 312, 186
-0.998619, 297, 137, 360, 152
-0.998623, 257, 183, 288, 198
-0.998626, 333, 143, 364, 158
-0.998628, 97, 169, 128, 184
-0.998629, 209, 179, 272, 194
-0.99863, 73, 159, 136, 174
-0.998632, 81, 139, 144, 154
-0.998633, 73, 177, 136, 192
-0.998635, 353, 147, 416, 162
-0.998636, 177, 189, 240, 204
-0.998636, 105, 145, 168, 160
-0.998642, 281, 147, 344, 162
-0.998644, 185, 209, 248, 224
-0.998644, 345, 171, 408, 186
-0.998645, 225, 147, 288, 162
-0.998646, 17, 121, 80, 136
-0.998646, 273, 135, 336, 150
-0.998647, 97, 163, 128, 178
-0.998648, 385, 147, 448, 162
-0.998649, 105, 191, 168, 206
-0.99865, 157, 191, 188, 206
-0.998651, 41, 173, 104, 188
-0.998652, 17, 151, 80, 166
-0.998655, 161, 151, 224, 166
-0.998657, 201, 149, 264, 164
-0.998658, 121, 207, 184, 222
-0.998662, 241, 179, 304, 194
-0.998663, 301, 165, 332, 180
-0.998664, 309, 141, 340, 156
-0.998665, 225, 205, 288, 220
-0.998671, 121, 199, 184, 214
-0.998671, 9, 171, 72, 186
-0.998674, 385, 25, 448, 88
-0.998676, 321, 137, 384, 152
-0.998676, 377, 167, 440, 182
-0.998677, 265, 159, 328, 174
-0.998677, 217, 169, 280, 184
-0.998682, 137, 171, 200, 186
-0.998683, 145, 181, 208, 196
-0.998684, 41, 115, 104, 130
-0.998684, 129, 147, 192, 162
-0.998685, 305, 183, 368, 198
-0.998688, 137, 153, 200, 168
-0.998689, 35, 113, 50, 240
-0.998693, 89, 141, 120, 156
-0.998696, 81, 133, 144, 148
-0.998697, 329, 161, 392, 176
-0.998698, 417, 155, 480, 170
-0.9987, 257, 147, 320, 162
-0.998702, 217, 141, 280, 156
-0.998709, 97, 197, 160, 212
-0.99871, 297, 191, 360, 206
-0.998711, 65, 121, 128, 136
-0.998714, 161, 145, 224, 160
-0.998714, 81, 127, 144, 142
-0.998714, 73, 115, 136, 130
-0.998716, 129, 213, 192, 228
-0.998717, 105, 139, 168, 154
-0.998717, 321, 155, 384, 170
-0.998718, 113, 161, 176, 176
-0.998718, 409, 161, 472, 176
-0.998721, 185, 143, 248, 158
-0.998722, 153, 187, 216, 202
-0.998723, 345, 139, 408, 154
-0.998723, 17, 109, 80, 124
-0.998724, 81, 187, 144, 202
-0.998727, 233, 135, 296, 150
-0.998732, 185, 173, 248, 188
-0.998734, 113, 129, 128, 256
-0.998738, 153, 215, 216, 230
-0.998746, 289, 199, 352, 214
-0.998751, 249, 205, 312, 220
-0.998751, 329, 179, 392, 194
-0.998755, 305, 131, 368, 146
-0.998758, 65, 109, 128, 124
-0.998759, 249, 129, 312, 144
-0.99876, 89, 121, 152, 136
-0.99876, 65, 193, 128, 208
-0.998764, 57, 187, 120, 202
-0.998767, 145, 123, 208, 138
-0.998767, 97, 49, 352, 112
-0.998783, 265, 129, 280, 256
-0.998785, 65, 41, 128, 104
-0.998785, 57, 249, 120, 312
-0.998818, 275, 129, 290, 256
-0.998835, 297, 209, 360, 272
-0.998842, 373, 1, 404, 128
-0.998846, 225, 9, 480, 72
-0.998851, 259, 129, 274, 256
-0.998852, 41, 97, 56, 224
-0.998854, 49, 81, 64, 208
-0.998857, 313, 129, 328, 256
-0.998868, 165, 161, 180, 288
-0.998888, 257, 65, 500, 128
-0.998895, 155, 129, 170, 256
-0.998905, 65, 97, 80, 224
-0.998918, 29, 113, 44, 240
-0.99893, 295, 129, 310, 256
-0.998935, 207, 145, 222, 272
-0.998935, 171, 145, 186, 272
-0.998935, 347, 129, 362, 256
-0.998939, 353, 169, 480, 200
-0.998946, 25, 25, 88, 88
-0.998957, 327, 129, 342, 256
-0.998966, 253, 129, 268, 256
-0.998968, 107, 113, 122, 240
-0.998974, 185, 145, 200, 272
-0.998976, 59, 81, 74, 208
-0.998986, 119, 129, 134, 256
-0.998996, 35, 65, 50, 192
-0.998997, 199, 145, 214, 272
-0.999, 307, 145, 322, 272
-0.999007, 107, 161, 122, 288
-0.999012, 149, 129, 164, 256
-0.999018, 87, 113, 102, 240
-0.999022, 193, 145, 208, 272
-0.999022, 101, 113, 116, 240
-0.999023, 341, 129, 356, 256
-0.999024, 141, 129, 156, 256
-0.999028, 59, 129, 74, 256
-0.999035, 319, 129, 334, 256
-0.999039, 355, 129, 370, 256
-0.99904, 33, 1, 288, 64
-0.999042, 89, 249, 152, 312
-0.999043, 333, 129, 348, 256
-0.999063, 369, 133, 496, 164
-0.999064, 307, 97, 322, 224
-0.999068, 433, 129, 464, 192
-0.99907, 177, 145, 192, 272
-0.999076, 127, 129, 142, 256
-0.999078, 189, 81, 220, 144
-0.999082, 135, 129, 150, 256
-0.999085, 213, 145, 228, 272
-0.9991, 155, 177, 170, 304
-0.999107, 281, 129, 296, 256
-0.999119, 247, 129, 262, 256
-0.99912, 393, 193, 456, 313
-0.999124, 193, 33, 448, 96
-0.999142, 267, 177, 282, 304
-0.99915, 95, 129, 110, 256
-0.999153, 71, 113, 86, 240
-0.999155, 301, 129, 316, 256
-0.999157, 323, 81, 338, 208
-0.999163, 239, 129, 254, 256
-0.999167, 289, 129, 304, 256
-0.999171, 33, 25, 288, 88
-0.999172, 219, 145, 234, 272
-0.999175, 29, 65, 44, 192
-0.999183, 393, 97, 424, 160
-0.999198, 79, 97, 94, 224
-0.99922, 367, 97, 382, 224
-0.999223, 163, 97, 178, 224
-0.999225, 313, 81, 328, 208
-0.999227, 197, 193, 212, 313
-0.999231, 369, 101, 496, 132
-0.999237, 209, 193, 224, 313
-0.999242, 101, 161, 116, 288
-0.999243, 373, 129, 388, 256
-0.999243, 169, 97, 184, 224
-0.999245, 421, 97, 436, 224
-0.999246, 361, 129, 376, 256
-0.99925, 239, 177, 254, 304
-0.999253, 345, 201, 408, 264
-0.999255, 1, 49, 256, 112
-0.999256, 53, 129, 68, 256
-0.999259, 229, 129, 244, 256
-0.999269, 117, 193, 148, 256
-0.999269, 273, 81, 288, 208
-0.99927, 119, 81, 134, 208
-0.999272, 411, 97, 426, 224
-0.999273, 95, 81, 110, 208
-0.999274, 47, 129, 62, 256
-0.999278, 49, 205, 176, 236
-0.999278, 345, 81, 360, 208
-0.999283, 149, 177, 164, 304
-0.999283, 399, 97, 414, 224
-0.999287, 203, 193, 218, 313
-0.999291, 379, 97, 394, 224
-0.999295, 387, 97, 402, 224
-0.999296, 281, 65, 344, 128
-0.999296, 217, 249, 280, 312
-0.999299, 193, 117, 320, 148
-0.999301, 209, 269, 336, 300
-0.999301, 261, 81, 276, 208
-0.999306, 113, 81, 128, 208
-0.999313, 177, 81, 192, 208
-0.999313, 129, 9, 384, 72
-0.999315, 255, 177, 270, 304
-0.999328, 427, 97, 442, 224
-0.999331, 157, 81, 172, 208
-0.999331, 393, 97, 408, 224
-0.999336, 41, 49, 56, 176
-0.999336, 261, 177, 276, 304
-0.999339, 247, 177, 262, 304
-0.99934, 23, 81, 38, 208
-0.999341, 161, 81, 192, 144
-0.999342, 329, 65, 392, 128
-0.999348, 275, 193, 290, 313
-0.999352, 65, 269, 192, 300
-0.999352, 257, 245, 384, 276
-0.999358, 335, 81, 350, 208
-0.999362, 357, 81, 372, 208
-0.999362, 129, 261, 256, 292
-0.999364, 1, 249, 64, 312
-0.999364, 215, 193, 230, 313
-0.999367, 201, 25, 264, 88
-0.999368, 191, 193, 206, 313
-0.999368, 17, 237, 144, 268
-0.999376, 89, 193, 120, 256
-0.999382, 85, 65, 100, 192
-0.999382, 351, 81, 366, 208
-0.999386, 289, 193, 304, 313
-0.999387, 297, 193, 312, 313
-0.999387, 297, 81, 312, 208
-0.999388, 141, 81, 172, 144
-0.99939, 289, 97, 416, 128
-0.999392, 151, 81, 166, 208
-0.999392, 389, 145, 404, 272
-0.999394, 267, 81, 282, 208
-0.999394, 145, 81, 160, 208
-0.99941, 289, 225, 416, 256
-0.999412, 205, 97, 220, 224
-0.999414, 405, 97, 420, 224
-0.999417, 161, 73, 416, 136
-0.999432, 283, 193, 298, 313
-0.999432, 41, 145, 56, 272
-0.999433, 323, 177, 338, 304
-0.999434, 233, 81, 264, 144
-0.999435, 33, 241, 96, 304
-0.999436, 143, 177, 158, 304
-0.999437, 133, 81, 148, 208
-0.999439, 179, 193, 194, 313
-0.999439, 249, 81, 264, 208
-0.999441, 183, 97, 198, 224
-0.999442, 257, 257, 384, 288
-0.999444, 283, 65, 298, 192
-0.999445, 71, 65, 86, 192
-0.999446, 421, 145, 436, 272
-0.999447, 379, 145, 394, 272
-0.999449, 139, 81, 154, 208
-0.999451, 23, 129, 38, 256
-0.999456, 193, 81, 208, 208
-0.999456, 225, 193, 240, 313
-0.999457, 233, 177, 248, 304
-0.999457, 73, 161, 88, 288
-0.999464, 255, 81, 270, 208
-0.999467, 101, 65, 116, 192
-0.999468, 79, 161, 94, 288
-0.999474, 33, 93, 160, 124
-0.999477, 17, 217, 144, 248
-0.999481, 65, 49, 80, 176
-0.999483, 125, 177, 140, 304
-0.999486, 199, 81, 214, 208
-0.999487, 59, 33, 74, 160
-0.999489, 193, 253, 320, 284
-0.999492, 241, 109, 368, 140
-0.999496, 377, 57, 440, 120
-0.999502, 101, 89, 132, 152
-0.999511, 129, 277, 256, 308
-0.999513, 37, 169, 68, 232
-0.999549, 321, 217, 384, 280
-0.99956, 145, 217, 272, 248
-0.999563, 389, 169, 420, 232
-0.999566, 289, 277, 416, 308
-0.999571, 257, 57, 320, 120
-0.999578, 321, 237, 448, 268
-0.999578, 145, 245, 272, 276
-0.999585, 1, 69, 128, 100
-0.999588, 81, 147, 96, 162
-0.999589, 45, 147, 60, 162
-0.99959, 355, 153, 370, 168
-0.999591, 87, 129, 102, 144
-0.999591, 377, 165, 392, 180
-0.999591, 69, 127, 84, 142
-0.999591, 323, 147, 338, 162
-0.999592, 305, 135, 320, 150
-0.999594, 193, 207, 208, 222
-0.999595, 349, 169, 364, 184
-0.999596, 43, 127, 58, 142
-0.999598, 31, 155, 46, 170
-0.999602, 369, 155, 384, 170
-0.999603, 207, 205, 222, 220
-0.999603, 51, 129, 66, 144
-0.999605, 395, 157, 410, 172
-0.999605, 297, 177, 312, 192
-0.999606, 245, 199, 260, 214
-0.999607, 209, 241, 336, 272
-0.999607, 113, 145, 128, 160
-0.999607, 397, 163, 412, 178
-0.999609, 87, 165, 102, 180
-0.999611, 77, 121, 92, 136
-0.999611, 225, 197, 240, 212
-0.999612, 141, 187, 156, 202
-0.999612, 321, 175, 336, 190
-0.999613, 115, 167, 130, 182
-0.999613, 369, 167, 384, 182
-0.999614, 349, 149, 364, 164
-0.999614, 23, 117, 38, 132
-0.999615, 251, 187, 266, 202
-0.999616, 303, 187, 318, 202
-0.999616, 1, 81, 128, 112
-0.999617, 209, 225, 336, 256
-0.999617, 391, 151, 406, 166
-0.999617, 97, 77, 224, 108
-0.999617, 309, 181, 324, 196
-0.999618, 259, 193, 274, 208
-0.999618, 115, 179, 130, 194
-0.99962, 303, 161, 318, 176
-0.99962, 213, 201, 228, 216
-0.999621, 297, 187, 312, 202
-0.999622, 233, 193, 248, 208
-0.999622, 321, 163, 336, 178
-0.999624, 317, 133, 332, 148
-0.999625, 385, 163, 400, 178
-0.999626, 375, 155, 390, 170
-0.999626, 157, 189, 172, 204
-0.999628, 365, 149, 380, 164
-0.999629, 131, 173, 146, 188
-0.999629, 219, 199, 234, 214
-0.99963, 151, 185, 166, 200
-0.999631, 279, 191, 294, 206
-0.999632, 129, 89, 256, 120
-0.999635, 87, 139, 102, 154
-0.999636, 125, 179, 140, 194
-0.999636, 79, 169, 94, 184
-0.999637, 167, 203, 182, 218
-0.999637, 289, 191, 304, 206
-0.999639, 199, 205, 214, 220
-0.999639, 65, 225, 192, 256
-0.99964, 293, 139, 308, 154
-0.999643, 63, 129, 78, 144
-0.999643, 291, 183, 306, 198
-0.999644, 59, 135, 74, 150
-0.999644, 43, 153, 58, 168
-0.999644, 139, 181, 154, 196
-0.999645, 305, 185, 432, 216
-0.999645, 265, 183, 280, 198
-0.999647, 265, 191, 280, 206
-0.999647, 1, 49, 500, 112
-0.999648, 37, 127, 52, 142
-0.999651, 259, 185, 274, 200
-0.999651, 1, 205, 128, 236
-0.999653, 281, 183, 296, 198
-0.999653, 99, 169, 114, 184
-0.999654, 139, 175, 154, 190
-0.999656, 103, 151, 118, 166
-0.99966, 87, 145, 102, 160
-0.999662, 31, 127, 46, 142
-0.999664, 49, 73, 176, 104
-0.999664, 145, 113, 272, 144
-0.999665, 381, 155, 396, 170
-0.999666, 33, 161, 48, 176
-0.999666, 391, 163, 406, 178
-0.999667, 357, 145, 372, 160
-0.999667, 315, 161, 330, 176
-0.999669, 87, 171, 102, 186
-0.999669, 315, 167, 330, 182
-0.99967, 1, 193, 128, 224
-0.999671, 93, 151, 108, 166
-0.999672, 53, 163, 68, 178
-0.999675, 57, 127, 72, 142
-0.999677, 331, 141, 346, 156
-0.999677, 177, 195, 192, 210
-0.999679, 161, 207, 176, 222
-0.99968, 321, 169, 336, 184
-0.99968, 163, 189, 178, 204
-0.999681, 209, 97, 336, 128
-0.999682, 51, 141, 66, 156
-0.999682, 47, 161, 62, 176
-0.999683, 115, 173, 130, 188
-0.999684, 239, 193, 254, 208
-0.999684, 363, 167, 378, 182
-0.999685, 59, 165, 74, 180
-0.999685, 245, 189, 260, 204
-0.999685, 93, 133, 108, 148
-0.999686, 39, 163, 54, 178
-0.999686, 125, 173, 140, 188
-0.999687, 101, 139, 116, 154
-0.999688, 401, 157, 416, 172
-0.999689, 273, 193, 288, 208
-0.999689, 297, 171, 312, 186
-0.99969, 225, 281, 352, 312
-0.999691, 297, 165, 312, 180
-0.999691, 295, 193, 310, 208
-0.999692, 99, 145, 114, 160
-0.999692, 69, 169, 84, 184
-0.999693, 93, 169, 108, 184
-0.999699, 305, 261, 432, 292
-0.999703, 271, 183, 286, 198
-0.999703, 27, 161, 42, 176
-0.999705, 273, 213, 400, 244
-0.999709, 257, 199, 272, 214
-0.999719, 337, 141, 352, 156
-0.999719, 303, 177, 318, 192
-0.999721, 95, 163, 110, 178
-0.999721, 107, 141, 122, 156
-0.999721, 169, 191, 184, 206
-0.999723, 257, 225, 500, 288
-0.999734, 303, 167, 318, 182
-0.999735, 97, 113, 224, 144
-0.999736, 251, 199, 266, 214
-0.999737, 267, 197, 282, 212
-0.999743, 217, 81, 248, 144
-0.999751, 325, 141, 340, 156
-0.999751, 317, 141, 332, 156
-0.999752, 107, 169, 122, 184
-0.999754, 389, 157, 404, 172
-0.999757, 337, 221, 464, 252
-0.999761, 37, 155, 52, 170
-0.999761, 315, 175, 330, 190
-0.999761, 347, 143, 362, 158
-0.999766, 161, 225, 416, 288
-0.999771, 109, 163, 124, 178
-0.999772, 309, 175, 324, 190
-0.999773, 81, 257, 208, 288
-0.999774, 309, 141, 324, 156
-0.999776, 101, 161, 116, 176
-0.999786, 93, 141, 108, 156
-0.999791, 49, 281, 176, 312
-0.999792, 337, 89, 464, 120
-0.999801, 309, 167, 324, 182
-0.99981, 305, 109, 432, 140
-0.999811, 145, 233, 272, 264
-0.999817, 369, 277, 496, 308
-0.999817, 33, 257, 160, 288
-0.999821, 369, 209, 496, 240
-0.99984, 1, 1, 500, 64
-0.999865, 309, 161, 324, 176
-0.999881, 321, 205, 448, 236
-0.999891, 321, 249, 448, 280
-0.999899, 65, 237, 192, 268
-0.9999, 81, 89, 208, 120
-0.9999, 5, 1, 36, 64
-0.999941, 1, 281, 128, 312
-0.999954, 353, 265, 480, 296
-0.99996, 369, 233, 496, 264
-0.999963, 257, 249, 500, 312
-0.999966, 209, 85, 336, 116
-0.99997, 145, 77, 272, 108
-1.00001, 1, 241, 256, 304
-1.00002, 369, 117, 496, 148
-1.00003, 113, 101, 240, 132
-1.00005, 369, 197, 496, 228
-1.00005, 381, 89, 412, 152
-1.00005, 273, 89, 304, 152
-1.00006, 161, 101, 288, 132
-1.00008, 353, 13, 480, 44
-1.00008, 177, 281, 304, 312
-1.00008, 369, 249, 496, 280
-1.00009, 1, 25, 500, 88
-1.0001, 369, 97, 400, 160
-1.00015, 289, 1, 416, 32
-1.00015, 353, 49, 480, 80
-1.00017, 17, 57, 144, 88
-1.00018, 289, 85, 416, 116
-1.00018, 17, 1, 144, 32
-1.0002, 129, 249, 384, 312
-1.00022, 65, 53, 192, 84
-1.00022, 369, 29, 496, 60
-1.00023, 257, 53, 384, 84
-1.00024, 17, 269, 144, 300
-1.00024, 125, 73, 156, 136
-1.00025, 129, 61, 256, 92
-1.00026, 17, 29, 144, 60
-1.00026, 193, 45, 320, 76
-1.00028, 369, 181, 496, 212
-1.00028, 305, 53, 432, 84
-1.00028, 209, 1, 336, 32
-1.00029, 161, 1, 288, 32
-1.00029, 65, 21, 192, 52
-1.00029, 129, 29, 256, 60
-1.0003, 145, 45, 272, 76
-1.00031, 1, 17, 128, 48
-1.00031, 289, 29, 416, 60
-1.00031, 241, 41, 368, 72
-1.00032, 209, 29, 336, 60
-1.00034, 73, 65, 104, 128
-1.00063, 369, 249, 496, 312
-1.00093, 1, 249, 500, 312
-1.0012, 337, 193, 400, 313
-1.00121, 1, 225, 500, 288
-1.00165, 41, 193, 72, 313
-1.00167, 5, 177, 36, 304
-1.002, 17, 177, 48, 304
-1.0022, 369, 193, 432, 313
-1.00258, 381, 193, 412, 313
-1.00274, 437, 145, 468, 272
-1.00282, 469, 145, 500, 272
-1.0029, 449, 145, 480, 272
-1.00327, 433, 193, 496, 313
