1948
-0.178792, 1, 1, 500, 375
-0.283879, 1, 97, 500, 352
-0.39714, 65, 1, 320, 375
-0.423445, 1, 1, 500, 256
-0.521178, 65, 97, 320, 352
-0.540218, 161, 1, 416, 375
-0.575336, 257, 1, 500, 375
-0.601964, 129, 1, 384, 256
-0.64038, 225, 65, 480, 320
-0.658571, 33, 1, 288, 256
-0.833733, 1, 65, 128, 320
-0.84544, 145, 97, 272, 352
-0.849106, 161, 1, 288, 375
-0.851466, 1, 81, 500, 208
-0.85769, 1, 1, 128, 375
-0.86338, 353, 129, 480, 375
-0.864043, 1, 129, 500, 256
-0.86952, 65, 1, 192, 375
-0.870967, 353, 1, 480, 375
-0.875846, 209, 1, 336, 256
-0.876304, 81, 1, 208, 256
-0.876525, 241, 97, 368, 352
-0.877456, 353, 33, 480, 288
-0.878144, 1, 177, 500, 304
-0.879754, 65, 129, 192, 375
-0.882432, 241, 1, 368, 375
-0.885268, 161, 1, 288, 256
-0.887094, 305, 97, 432, 352
-0.887668, 113, 1, 240, 375
-0.896943, 305, 1, 432, 375
-0.897764, 1, 33, 500, 160
-0.903045, 305, 1, 432, 256
-0.905705, 193, 97, 320, 352
-0.906455, 65, 129, 320, 256
-0.913301, 257, 1, 384, 256
-0.914552, 193, 65, 448, 192
-0.919851, 1, 49, 256, 176
-0.922385, 225, 177, 480, 304
-0.922474, 1, 241, 500, 368
-0.931521, 257, 113, 500, 240
-0.93241, 129, 17, 384, 144
-0.932532, 65, 209, 320, 336
-0.935125, 1, 1, 256, 128
-0.936343, 337, 225, 464, 352
-0.937183, 1, 81, 128, 208
-0.937704, 161, 97, 288, 224
-0.938811, 41, 49, 104, 176
-0.93932, 225, 33, 352, 160
-0.941715, 185, 65, 248, 192
-0.942313, 81, 1, 144, 128
-0.943399, 65, 161, 192, 288
-0.943921, 225, 241, 480, 368
-0.944778, 353, 129, 480, 256
-0.944825, 305, 65, 432, 192
-0.945597, 73, 129, 136, 256
-0.94692, 361, 209, 424, 336
-0.94711, 177, 49, 304, 176
-0.947711, 353, 65, 480, 192
-0.948576, 81, 81, 208, 208
-0.948893, 161, 209, 288, 336
-0.950258, 81, 209, 208, 336
-0.950584, 177, 1, 304, 128
-0.951107, 377, 49, 440, 176
-0.951715, 225, 81, 352, 208
-0.952057, 153, 33, 216, 160
-0.952143, 217, 1, 280, 128
-0.952566, 345, 185, 408, 248
-0.952619, 153, 129, 216, 256
-0.952792, 129, 33, 256, 160
-0.953024, 305, 177, 432, 304
-0.953207, 81, 33, 208, 160
-0.953697, 65, 185, 128, 248
-0.953902, 409, 225, 472, 352
-0.953939, 241, 145, 368, 272
-0.954544, 377, 81, 440, 144
-0.954736, 305, 113, 432, 240
-0.955135, 17, 161, 144, 288
-0.955208, 401, 81, 464, 208
-0.955214, 161, 129, 416, 256
-0.955475, 1, 1, 128, 128
-0.955931, 217, 113, 280, 240
-0.956186, 193, 17, 256, 144
-0.956636, 1, 225, 128, 352
-0.956675, 65, 177, 128, 304
-0.957324, 281, 33, 344, 160
-0.95735, 17, 81, 80, 208
-0.957741, 1, 1, 64, 128
-0.957826, 353, 17, 480, 144
-0.958581, 353, 161, 416, 288
-0.959447, 377, 161, 440, 288
-0.959486, 241, 65, 304, 192
-0.959622, 105, 161, 168, 288
-0.961042, 305, 1, 432, 128
-0.961126, 65, 49, 128, 176
-0.961166, 41, 97, 104, 224
-0.961239, 113, 129, 240, 256
-0.961262, 353, 177, 480, 304
-0.961559, 353, 161, 416, 224
-0.961919, 353, 113, 416, 240
-0.9623, 401, 1, 464, 128
-0.962412, 369, 313, 432, 375
-0.962765, 257, 1, 500, 128
-0.962904, 249, 177, 312, 304
-0.963136, 369, 201, 432, 264
-0.963412, 217, 49, 280, 176
-0.963819, 401, 297, 464, 360
-0.963839, 161, 81, 224, 208
-0.964295, 97, 81, 352, 208
-0.964894, 161, 145, 288, 272
-0.964966, 241, 1, 304, 128
-0.965148, 113, 113, 176, 240
-0.965158, 33, 89, 96, 152
-0.965618, 41, 65, 104, 128
-0.96575, 385, 241, 448, 368
-0.96582, 329, 193, 392, 320
-0.966013, 41, 177, 104, 304
-0.966226, 353, 65, 416, 192
-0.966228, 41, 209, 104, 272
-0.96655, 433, 217, 496, 280
-0.966778, 129, 225, 192, 352
-0.9668, 193, 97, 256, 160
-0.968011, 193, 65, 256, 128
-0.968035, 9, 97, 72, 352
-0.968124, 65, 225, 128, 352
-0.968627, 169, 129, 232, 192
-0.969042, 1, 113, 64, 176
-0.969123, 433, 193, 496, 320
-0.969265, 433, 49, 496, 176
-0.969335, 401, 121, 464, 184
-0.969456, 9, 225, 72, 352
-0.969602, 89, 1, 152, 64
-0.969684, 89, 201, 152, 264
-0.96991, 169, 1, 232, 64
-0.969941, 49, 65, 112, 320
-0.970075, 161, 129, 288, 192
-0.970095, 401, 97, 464, 160
-0.970138, 113, 193, 176, 256
-0.970392, 377, 177, 408, 240
-0.97046, 433, 145, 496, 272
-0.970479, 257, 193, 384, 320
-0.970819, 273, 57, 336, 120
-0.970935, 377, 57, 440, 120
-0.970997, 1, 113, 128, 176
-0.971058, 57, 1, 120, 64
-0.971078, 321, 193, 384, 256
-0.971304, 377, 1, 440, 128
-0.971353, 217, 161, 280, 288
-0.971421, 361, 289, 424, 352
-0.97156, 73, 161, 136, 224
-0.971595, 57, 121, 120, 184
-0.971605, 377, 113, 440, 240
-0.971697, 9, 233, 72, 296
-0.971712, 209, 129, 272, 192
-0.971745, 105, 1, 168, 128
-0.971824, 89, 209, 152, 336
-0.972016, 353, 233, 416, 296
-0.972451, 81, 225, 208, 288
-0.972455, 233, 1, 296, 64
-0.972706, 281, 97, 344, 224
-0.972789, 65, 217, 128, 280
-0.972892, 193, 25, 256, 88
-0.972923, 369, 201, 400, 264
-0.972945, 81, 89, 144, 152
-0.973144, 161, 97, 224, 352
-0.973372, 385, 161, 416, 288
-0.97354, 401, 57, 464, 120
-0.973555, 329, 65, 392, 192
-0.973732, 353, 97, 416, 352
-0.973863, 113, 169, 176, 232
-0.97391, 93, 129, 124, 256
-0.974137, 357, 185, 388, 248
-0.974141, 105, 145, 168, 208
-0.974178, 193, 113, 256, 240
-0.974313, 129, 161, 192, 288
-0.97447, 313, 1, 376, 128
-0.974626, 57, 1, 120, 128
-0.974753, 241, 193, 304, 256
-0.974757, 377, 129, 440, 375
-0.97494, 377, 137, 440, 200
-0.975166, 401, 65, 464, 320
-0.9752, 409, 129, 472, 256
-0.975334, 373, 209, 404, 336
-0.975336, 153, 193, 216, 256
-0.975341, 161, 225, 288, 288
-0.975435, 169, 209, 232, 336
-0.975519, 305, 177, 432, 240
-0.975619, 193, 1, 256, 64
-0.975624, 225, 209, 288, 336
-0.975644, 249, 145, 312, 208
-0.975661, 217, 225, 280, 288
-0.975679, 241, 241, 368, 368
-0.975689, 389, 201, 420, 264
-0.975788, 257, 113, 320, 240
-0.97579, 337, 73, 400, 136
-0.975956, 61, 49, 92, 176
-0.976051, 73, 97, 136, 352
-0.976053, 353, 313, 480, 375
-0.976207, 81, 201, 208, 264
-0.976304, 25, 113, 88, 176
-0.976532, 153, 1, 216, 256
-0.976582, 81, 65, 144, 128
-0.976678, 153, 217, 216, 280
-0.976746, 229, 1, 260, 128
-0.976769, 353, 177, 480, 240
-0.976792, 241, 265, 304, 328
-0.976812, 433, 313, 496, 375
-0.976848, 33, 73, 160, 136
-0.976925, 345, 209, 408, 272
-0.976933, 217, 185, 280, 248
-0.976979, 353, 81, 480, 144
-0.977005, 433, 241, 496, 368
-0.977199, 1, 201, 128, 264
-0.9773, 177, 81, 304, 144
-0.977338, 193, 49, 224, 176
-0.977341, 25, 1, 88, 128
-0.977345, 389, 161, 420, 224
-0.977416, 305, 49, 368, 176
-0.977416, 137, 81, 200, 208
-0.977549, 353, 105, 416, 168
-0.977652, 49, 241, 112, 304
-0.977691, 65, 177, 192, 240
-0.977742, 81, 137, 208, 200
-0.977744, 329, 65, 392, 320
-0.977775, 273, 25, 336, 88
-0.977776, 393, 137, 424, 200
-0.977778, 249, 113, 312, 176
-0.977825, 169, 73, 232, 136
-0.977844, 225, 105, 352, 168
-0.977868, 401, 249, 464, 312
-0.977883, 425, 289, 488, 352
-0.978018, 281, 145, 344, 272
-0.978018, 89, 1, 120, 128
-0.978099, 213, 65, 244, 192
-0.978119, 185, 65, 248, 320
-0.978354, 209, 97, 272, 352
-0.978469, 109, 1, 140, 128
-0.978485, 289, 97, 416, 160
-0.978535, 177, 217, 240, 280
-0.978556, 413, 65, 444, 192
-0.978712, 393, 65, 424, 192
-0.978717, 249, 241, 312, 368
-0.978776, 233, 81, 296, 144
-0.978784, 1, 241, 128, 304
-0.978842, 273, 169, 336, 232
-0.978902, 305, 73, 432, 136
-0.978965, 401, 33, 464, 96
-0.978978, 153, 153, 216, 216
-0.979052, 313, 73, 376, 136
-0.979064, 377, 113, 440, 176
-0.97912, 241, 169, 368, 232
-0.979157, 129, 233, 192, 296
-0.979174, 161, 249, 288, 312
-0.979213, 353, 289, 480, 352
-0.979225, 145, 97, 208, 160
-0.97924, 313, 113, 376, 240
-0.979302, 245, 129, 276, 256
-0.979344, 97, 169, 128, 232
-0.979381, 413, 225, 444, 352
-0.97941, 17, 177, 80, 304
-0.979462, 81, 105, 208, 168
-0.979548, 305, 177, 368, 304
-0.979549, 161, 41, 224, 104
-0.979591, 353, 129, 480, 192
-0.979601, 373, 161, 404, 288
-0.979725, 109, 1, 140, 64
-0.979775, 169, 313, 232, 375
-0.979784, 97, 193, 128, 256
-0.979834, 209, 1, 272, 256
-0.979848, 105, 65, 168, 320
-0.97985, 185, 1, 216, 64
-0.979893, 353, 105, 480, 168
-0.979921, 401, 1, 464, 64
-0.979921, 329, 281, 392, 344
-0.979992, 313, 161, 376, 224
-0.980045, 129, 33, 192, 160
-0.98008, 33, 97, 64, 160
-0.980174, 57, 97, 120, 160
-0.980214, 377, 249, 440, 312
-0.980219, 161, 305, 288, 368
-0.980458, 161, 281, 288, 344
-0.980482, 353, 57, 480, 120
-0.980593, 165, 129, 196, 256
-0.980604, 145, 105, 272, 168
-0.980671, 69, 209, 100, 272
-0.980752, 33, 225, 96, 352
-0.980812, 433, 81, 496, 144
-0.980834, 425, 225, 456, 352
-0.980848, 217, 153, 280, 216
-0.980888, 41, 65, 72, 192
-0.980935, 169, 105, 232, 168
-0.980988, 281, 1, 344, 256
-0.981071, 49, 1, 176, 64
-0.981084, 89, 225, 152, 288
-0.981113, 377, 161, 440, 224
-0.981133, 305, 201, 432, 264
-0.981148, 373, 233, 404, 296
-0.981158, 81, 97, 112, 224
-0.98119, 81, 1, 112, 64
-0.981321, 353, 129, 416, 192
-0.981342, 385, 113, 416, 240
-0.981391, 353, 201, 480, 264
-0.981469, 225, 137, 352, 200
-0.981614, 77, 161, 108, 288
-0.981671, 337, 249, 464, 312
-0.981692, 217, 41, 280, 104
-0.981701, 1, 1, 64, 375
-0.981705, 381, 121, 412, 184
-0.981816, 225, 57, 352, 120
-0.981837, 161, 249, 224, 312
-0.981865, 193, 33, 320, 96
-0.981885, 405, 305, 436, 368
-0.981977, 385, 225, 448, 288
-0.981988, 353, 265, 416, 328
-0.982013, 1, 201, 64, 264
-0.98205, 389, 81, 420, 144
-0.98208, 157, 225, 188, 352
-0.982105, 209, 73, 240, 136
-0.982111, 69, 97, 100, 224
-0.982136, 45, 81, 76, 144
-0.982139, 201, 313, 264, 375
-0.982149, 241, 33, 304, 96
-0.98215, 209, 17, 240, 144
-0.982278, 257, 193, 384, 256
-0.982313, 233, 1, 296, 256
-0.982325, 413, 97, 444, 160
-0.982369, 81, 137, 144, 200
-0.982372, 377, 33, 440, 288
-0.982378, 1, 129, 64, 256
-0.982399, 29, 65, 60, 192
-0.982505, 305, 41, 368, 104
-0.982554, 257, 177, 288, 304
-0.982576, 145, 129, 208, 192
-0.98259, 25, 1, 88, 256
-0.982674, 105, 121, 168, 184
-0.982719, 369, 1, 432, 64
-0.98275, 249, 97, 312, 352
-0.982843, 305, 153, 432, 216
-0.982938, 65, 65, 96, 128
-0.982957, 85, 209, 116, 272
-0.983021, 401, 273, 464, 336
-0.983091, 49, 1, 112, 375
-0.9831, 109, 193, 140, 256
-0.983149, 109, 161, 140, 288
-0.983217, 201, 241, 264, 368
-0.983249, 465, 201, 496, 264
-0.983287, 329, 305, 392, 368
-0.983294, 169, 1, 232, 375
-0.983372, 373, 81, 404, 208
-0.983375, 241, 137, 272, 200
-0.983383, 217, 105, 280, 168
-0.983394, 233, 49, 264, 176
-0.983404, 5, 113, 36, 240
-0.983411, 1, 129, 32, 192
-0.983464, 165, 233, 196, 296
-0.983496, 433, 57, 496, 120
-0.983534, 9, 89, 72, 152
-0.983535, 21, 233, 52, 296
-0.983546, 241, 265, 368, 328
-0.983581, 305, 121, 432, 184
-0.98363, 241, 225, 304, 288
-0.983633, 81, 49, 112, 176
-0.98373, 137, 273, 200, 336
-0.983751, 361, 209, 392, 336
-0.983764, 245, 1, 276, 128
-0.983796, 433, 1, 496, 128
-0.983803, 433, 177, 496, 240
-0.984126, 373, 153, 404, 216
-0.984157, 225, 1, 352, 64
-0.984187, 177, 57, 304, 120
-0.984218, 25, 1, 88, 375
-0.984282, 253, 225, 284, 288
-0.984341, 17, 209, 48, 336
-0.984363, 241, 57, 304, 120
-0.98437, 1, 225, 32, 288
-0.984381, 281, 97, 344, 352
-0.984399, 433, 153, 496, 216
-0.984428, 89, 129, 120, 192
-0.984474, 113, 41, 240, 104
-0.984533, 345, 1, 408, 128
-0.98457, 149, 177, 180, 304
-0.984571, 145, 201, 272, 264
-0.984577, 197, 73, 228, 136
-0.984583, 1, 209, 32, 336
-0.984682, 389, 209, 420, 336
-0.984707, 129, 129, 192, 375
-0.984774, 181, 33, 212, 160
-0.984823, 225, 81, 352, 144
-0.984883, 177, 1, 304, 64
-0.984896, 89, 233, 120, 296
-0.984927, 89, 65, 152, 192
-0.984936, 289, 241, 416, 368
-0.984943, 437, 225, 468, 352
-0.98497, 289, 41, 416, 104
-0.984989, 241, 1, 304, 375
-0.984991, 409, 73, 440, 136
-0.985019, 305, 305, 432, 368
-0.985042, 465, 177, 496, 304
-0.985048, 165, 137, 196, 200
-0.98508, 169, 289, 232, 352
-0.985088, 337, 241, 400, 368
-0.985089, 177, 81, 208, 208
-0.985111, 301, 33, 332, 160
-0.985149, 433, 97, 496, 224
-0.985175, 209, 1, 272, 375
-0.985184, 429, 97, 460, 160
-0.985194, 425, 265, 488, 328
-0.985195, 145, 153, 272, 216
-0.985364, 401, 1, 464, 375
-0.985392, 401, 1, 432, 128
-0.985452, 189, 105, 220, 168
-0.985455, 417, 297, 448, 360
-0.985547, 281, 89, 344, 152
-0.985602, 93, 209, 124, 336
-0.985635, 197, 33, 228, 96
-0.985638, 97, 1, 128, 64
-0.985661, 17, 161, 144, 224
-0.985698, 17, 121, 48, 184
-0.985715, 257, 1, 288, 64
-0.985733, 209, 257, 272, 320
-0.985741, 73, 41, 136, 104
-0.985784, 129, 81, 256, 144
-0.985805, 113, 1, 176, 375
-0.985824, 73, 177, 104, 240
-0.985897, 69, 105, 100, 168
-0.985928, 81, 97, 112, 160
-0.985973, 353, 1, 416, 256
-0.98598, 357, 161, 388, 288
-0.985982, 245, 169, 276, 232
-0.986002, 129, 1, 192, 256
-0.986012, 9, 49, 40, 176
-0.986044, 233, 113, 264, 240
-0.986046, 65, 161, 96, 288
-0.986069, 41, 185, 104, 248
-0.986101, 209, 289, 272, 352
-0.986151, 81, 265, 208, 328
-0.986199, 365, 73, 396, 136
-0.986266, 357, 265, 388, 328
-0.986286, 241, 169, 304, 232
-0.986319, 33, 49, 160, 112
-0.986348, 353, 33, 480, 96
-0.986362, 401, 113, 432, 240
-0.986396, 205, 1, 236, 64
-0.986473, 401, 193, 432, 320
-0.986478, 329, 257, 392, 320
-0.986527, 57, 209, 88, 272
-0.986558, 145, 1, 208, 64
-0.986561, 281, 113, 344, 176
-0.986571, 113, 1, 240, 64
-0.986656, 393, 193, 456, 256
-0.986674, 401, 241, 432, 368
-0.986725, 353, 153, 480, 216
-0.986764, 445, 129, 476, 256
-0.9868, 357, 313, 388, 375
-0.986843, 409, 225, 472, 288
-0.986843, 249, 241, 280, 368
-0.986906, 253, 265, 284, 328
-0.986984, 81, 289, 208, 352
-0.98703, 429, 297, 460, 360
-0.987032, 121, 33, 184, 96
-0.987054, 305, 17, 432, 80
-0.987084, 241, 225, 272, 288
-0.987113, 241, 33, 368, 96
-0.987199, 1, 137, 128, 200
-0.987202, 157, 193, 188, 256
-0.987211, 297, 185, 360, 248
-0.987266, 345, 193, 376, 256
-0.987309, 433, 129, 496, 375
-0.987325, 305, 97, 368, 352
-0.987344, 73, 1, 136, 375
-0.987364, 165, 33, 196, 160
-0.987466, 81, 81, 208, 144
-0.987467, 429, 241, 460, 304
-0.987561, 57, 89, 88, 152
-0.987575, 337, 49, 400, 112
-0.987584, 101, 217, 132, 280
-0.987586, 17, 97, 48, 224
-0.987591, 321, 65, 352, 192
-0.987597, 113, 1, 176, 64
-0.987625, 185, 193, 248, 256
-0.987706, 193, 1, 224, 128
-0.987728, 105, 73, 168, 136
-0.987829, 329, 1, 392, 375
-0.987832, 353, 1, 480, 64
-0.987835, 209, 193, 336, 320
-0.987851, 353, 189, 416, 220
-0.98789, 33, 233, 64, 296
-0.98794, 377, 1, 440, 375
-0.987943, 57, 241, 88, 304
-0.988016, 433, 113, 496, 176
-0.988039, 393, 313, 424, 375
-0.988058, 449, 209, 480, 336
-0.988114, 137, 297, 200, 360
-0.988153, 361, 161, 392, 224
-0.988158, 353, 225, 480, 288
-0.988164, 229, 121, 260, 184
-0.988201, 73, 1, 136, 256
-0.988214, 177, 121, 208, 184
-0.988243, 65, 209, 96, 336
-0.988257, 153, 225, 184, 288
-0.988289, 281, 137, 344, 200
-0.988386, 361, 49, 392, 176
-0.988437, 289, 17, 320, 144
-0.988439, 129, 177, 256, 240
-0.988462, 297, 25, 328, 88
-0.988504, 433, 97, 464, 224
-0.988508, 225, 49, 256, 112
-0.988516, 341, 193, 372, 320
-0.988531, 269, 17, 300, 144
-0.988532, 465, 177, 496, 240
-0.988566, 221, 113, 252, 240
-0.988613, 269, 177, 300, 304
-0.988624, 69, 241, 100, 304
-0.988663, 265, 193, 296, 256
-0.988667, 385, 57, 416, 120
-0.988668, 169, 177, 200, 304
-0.988723, 1, 1, 64, 256
-0.988725, 41, 41, 104, 104
-0.988739, 305, 225, 432, 288
-0.988747, 329, 233, 392, 296
-0.98876, 281, 1, 344, 375
-0.988766, 245, 49, 276, 176
-0.98877, 145, 1, 208, 375
-0.988826, 465, 129, 496, 256
-0.988845, 165, 81, 196, 208
-0.98889, 469, 313, 500, 375
-0.988953, 217, 113, 248, 176
-0.989003, 249, 193, 280, 256
-0.989044, 149, 81, 180, 208
-0.989101, 301, 57, 332, 120
-0.989185, 305, 281, 432, 344
-0.989186, 85, 185, 116, 248
-0.98919, 17, 209, 48, 272
-0.989202, 429, 49, 460, 176
-0.98926, 241, 313, 304, 375
-0.989272, 405, 49, 436, 112
-0.989277, 177, 177, 304, 240
-0.989326, 77, 209, 108, 336
-0.989346, 21, 1, 52, 128
-0.989347, 389, 225, 420, 288
-0.989458, 393, 105, 424, 168
-0.989516, 193, 97, 224, 224
-0.989522, 1, 1, 128, 64
-0.989557, 25, 161, 88, 224
-0.989606, 81, 113, 144, 176
-0.989614, 109, 169, 140, 232
-0.989648, 329, 189, 392, 220
-0.989722, 429, 57, 460, 120
-0.989755, 465, 145, 496, 208
-0.989774, 157, 169, 188, 232
-0.989824, 321, 73, 352, 136
-0.989903, 257, 1, 288, 128
-0.989953, 33, 113, 96, 144
-0.989954, 457, 297, 488, 360
-0.98997, 237, 209, 268, 336
-0.990033, 369, 345, 432, 375
-0.990086, 81, 313, 208, 375
-0.990102, 65, 145, 320, 208
-0.990118, 437, 129, 468, 192
-0.990126, 357, 289, 388, 352
-0.99014, 237, 81, 268, 144
-0.990169, 41, 73, 104, 104
-0.990176, 361, 205, 424, 236
-0.990202, 361, 225, 392, 288
-0.990215, 377, 313, 408, 375
-0.990253, 65, 193, 128, 224
-0.990254, 377, 81, 440, 112
-0.990279, 109, 81, 140, 208
-0.990281, 181, 217, 212, 280
-0.990302, 1, 137, 500, 200
-0.990306, 113, 213, 176, 244
-0.990361, 57, 213, 120, 244
-0.990393, 245, 1, 276, 64
-0.990419, 185, 81, 248, 112
-0.990429, 169, 225, 200, 352
-0.990434, 377, 97, 440, 128
-0.990499, 417, 241, 448, 304
-0.990508, 401, 301, 464, 332
-0.99051, 53, 193, 84, 320
-0.990559, 177, 97, 208, 160
-0.990573, 369, 113, 400, 176
-0.990589, 433, 1, 496, 256
-0.990598, 225, 89, 256, 152
-0.990611, 113, 201, 176, 232
-0.990652, 33, 101, 96, 132
-0.990661, 401, 129, 464, 160
-0.990683, 317, 17, 348, 144
-0.9907, 193, 33, 256, 64
-0.990709, 217, 225, 280, 256
-0.990716, 377, 69, 440, 100
-0.990718, 9, 117, 72, 148
-0.990727, 57, 1, 120, 32
-0.990729, 445, 289, 476, 352
-0.990733, 209, 313, 240, 375
-0.990738, 385, 113, 448, 144
-0.990782, 317, 177, 348, 304
-0.990784, 305, 1, 368, 375
-0.990793, 369, 233, 432, 264
-0.99083, 361, 301, 424, 332
-0.990831, 209, 129, 272, 160
-0.990845, 369, 333, 432, 364
-0.990849, 265, 161, 296, 224
-0.990873, 169, 133, 232, 164
-0.990882, 425, 293, 488, 324
-0.990922, 229, 9, 260, 72
-0.990922, 153, 221, 216, 252
-0.990928, 225, 193, 480, 256
-0.990932, 41, 85, 104, 116
-0.990934, 401, 313, 464, 344
-0.990947, 401, 185, 432, 248
-0.990966, 57, 125, 120, 156
-0.990989, 361, 313, 424, 344
-0.991009, 401, 177, 464, 304
-0.991013, 1, 233, 64, 264
-0.991023, 193, 97, 256, 128
-0.991025, 105, 149, 168, 180
-0.991044, 257, 1, 320, 256
-0.991088, 249, 145, 312, 176
-0.991095, 85, 73, 116, 136
-0.991098, 113, 181, 176, 212
-0.991104, 169, 37, 232, 68
-0.991121, 89, 5, 152, 36
-0.991131, 37, 49, 68, 112
-0.991143, 169, 345, 232, 375
-0.99115, 49, 17, 80, 144
-0.991152, 1, 97, 256, 160
-0.99116, 337, 201, 400, 232
-0.991182, 57, 241, 120, 272
-0.9912, 193, 117, 256, 148
-0.99121, 45, 105, 76, 168
-0.991227, 273, 29, 336, 60
-0.991227, 401, 69, 464, 100
-0.991234, 361, 121, 424, 152
-0.99124, 401, 81, 464, 112
-0.99124, 81, 213, 144, 244
-0.991274, 269, 81, 300, 144
-0.991293, 69, 1, 100, 64
-0.991303, 73, 105, 136, 136
-0.99132, 77, 1, 108, 128
-0.991323, 401, 249, 464, 280
-0.991329, 401, 97, 464, 128
-0.991336, 345, 217, 408, 248
-0.991338, 337, 73, 400, 104
-0.99135, 265, 129, 296, 256
-0.991357, 361, 173, 424, 204
-0.991358, 105, 169, 168, 200
-0.991372, 97, 225, 160, 256
-0.99138, 153, 209, 216, 240
-0.991388, 409, 1, 472, 32
-0.99139, 385, 201, 448, 232
-0.991413, 73, 181, 136, 212
-0.991421, 209, 41, 240, 104
-0.991444, 353, 1, 416, 375
-0.991474, 345, 237, 408, 268
-0.991487, 249, 129, 312, 160
-0.991491, 361, 289, 424, 320
-0.991491, 249, 157, 312, 188
-0.991492, 317, 1, 348, 64
-0.991495, 313, 201, 376, 232
-0.991495, 25, 241, 88, 272
-0.991497, 33, 229, 96, 260
-0.991498, 433, 217, 496, 248
-0.991499, 401, 57, 464, 88
-0.99151, 377, 141, 440, 172
-0.991512, 257, 173, 320, 204
-0.991513, 37, 17, 68, 144
-0.991517, 305, 185, 368, 216
-0.99152, 273, 65, 336, 96
-0.99153, 193, 273, 448, 336
-0.991532, 161, 1, 224, 32
-0.991536, 169, 333, 232, 364
-0.991568, 81, 65, 144, 96
-0.99158, 217, 73, 280, 104
-0.991584, 369, 1, 432, 32
-0.991601, 369, 217, 432, 248
-0.991607, 433, 1, 496, 375
-0.991612, 405, 249, 436, 312
-0.991613, 401, 345, 464, 375
-0.991625, 185, 1, 248, 32
-0.991654, 1, 129, 64, 160
-0.99166, 105, 209, 136, 336
-0.991667, 109, 129, 140, 192
-0.991672, 185, 57, 216, 120
-0.991672, 249, 273, 312, 304
-0.991674, 209, 345, 272, 375
-0.991678, 381, 33, 412, 160
-0.991698, 65, 41, 96, 104
-0.991704, 329, 277, 392, 308
-0.991704, 193, 69, 256, 100
-0.991707, 405, 129, 436, 192
-0.991709, 121, 1, 152, 64
-0.991711, 1, 161, 32, 288
-0.991716, 305, 1, 368, 256
-0.99172, 433, 305, 496, 336
-0.991729, 233, 1, 296, 32
-0.991742, 65, 137, 128, 168
-0.991746, 177, 221, 240, 252
-0.99177, 65, 233, 320, 296
-0.991773, 377, 249, 440, 280
-0.991775, 97, 137, 160, 168
-0.991799, 97, 125, 160, 156
-0.991805, 129, 229, 192, 260
-0.991812, 161, 149, 224, 180
-0.991829, 201, 329, 264, 360
-0.991857, 433, 345, 496, 375
-0.991859, 209, 313, 336, 375
-0.991863, 313, 77, 376, 108
-0.991867, 417, 237, 480, 268
-0.991874, 401, 289, 464, 320
-0.991903, 353, 133, 416, 164
-0.991912, 161, 49, 224, 80
-0.991913, 89, 197, 152, 228
-0.991919, 1, 105, 500, 168
-0.991932, 153, 165, 216, 196
-0.991935, 257, 65, 288, 192
-0.991938, 217, 89, 280, 120
-0.991943, 65, 229, 128, 260
-0.991945, 217, 173, 280, 204
-0.99195, 241, 85, 304, 116
-0.991958, 321, 289, 384, 320
-0.991959, 169, 121, 232, 152
-0.991961, 177, 129, 208, 256
-0.99197, 121, 133, 184, 164
-0.991975, 317, 177, 348, 240
-0.991984, 393, 333, 456, 364
-0.991989, 337, 337, 400, 368
-0.991992, 225, 213, 288, 244
-0.991998, 433, 189, 496, 220
-0.992002, 137, 37, 200, 68
-0.992004, 29, 209, 60, 272
-0.992014, 1, 209, 256, 272
-0.992016, 9, 85, 72, 116
-0.992036, 41, 57, 104, 88
-0.992038, 357, 189, 388, 220
-0.992057, 409, 13, 472, 44
-0.992059, 337, 169, 368, 232
-0.992065, 81, 81, 144, 112
-0.992075, 129, 121, 384, 184
-0.992078, 217, 141, 280, 172
-0.99208, 169, 257, 200, 320
-0.992083, 353, 145, 416, 176
-0.992099, 65, 149, 128, 180
-0.992117, 425, 325, 488, 356
-0.992135, 433, 81, 496, 112
-0.99214, 289, 57, 320, 120
-0.992148, 281, 181, 344, 212
-0.992164, 17, 61, 80, 92
-0.992169, 33, 1, 96, 32
-0.99218, 265, 1, 328, 32
-0.992183, 381, 189, 412, 220
-0.992272, 445, 313, 476, 375
-0.992277, 225, 289, 352, 352
-0.992305, 1, 161, 500, 224
-0.992308, 193, 81, 448, 144
-0.992326, 233, 161, 264, 288
-0.992338, 129, 33, 384, 96
-0.992339, 201, 97, 232, 160
-0.99235, 209, 209, 336, 272
-0.992359, 1, 273, 128, 336
-0.992366, 21, 89, 52, 152
-0.992406, 145, 169, 176, 232
-0.992422, 369, 225, 400, 256
-0.992432, 5, 201, 36, 264
-0.992453, 321, 113, 352, 240
-0.992506, 389, 205, 420, 236
-0.992506, 369, 205, 400, 236
-0.992518, 97, 193, 128, 224
-0.992542, 157, 273, 188, 336
-0.992573, 1, 81, 500, 144
-0.99258, 45, 241, 76, 304
-0.992601, 229, 221, 260, 252
-0.992604, 145, 201, 176, 264
-0.992606, 413, 1, 444, 128
-0.992652, 69, 193, 100, 224
-0.992652, 393, 137, 424, 168
-0.99269, 393, 341, 424, 372
-0.992692, 33, 121, 288, 184
-0.992712, 89, 213, 120, 244
-0.992714, 385, 177, 416, 208
-0.992723, 369, 193, 400, 224
-0.992725, 109, 213, 140, 244
-0.992728, 305, 189, 432, 220
-0.992733, 29, 113, 60, 144
-0.992755, 421, 297, 452, 328
-0.99278, 417, 101, 448, 132
-0.992789, 33, 241, 64, 272
-0.992811, 17, 121, 48, 152
-0.992824, 21, 233, 52, 264
-0.992835, 69, 1, 100, 32
-0.992839, 373, 177, 404, 208
-0.992857, 345, 189, 376, 220
-0.992866, 189, 1, 220, 32
-0.992871, 89, 237, 120, 268
-0.992874, 357, 205, 388, 236
-0.992879, 1, 229, 32, 260
-0.992884, 73, 121, 104, 152
-0.992885, 385, 81, 416, 112
-0.992886, 433, 289, 464, 320
-0.992889, 373, 241, 404, 272
-0.992893, 33, 25, 160, 88
-0.992894, 85, 5, 116, 36
-0.99291, 1, 121, 128, 152
-0.992914, 385, 125, 416, 156
-0.992915, 405, 69, 436, 100
-0.992916, 5, 129, 36, 160
-0.992918, 209, 81, 240, 112
-0.99293, 41, 93, 72, 124
-0.992932, 45, 77, 76, 108
-0.992935, 245, 169, 276, 200
-0.992938, 413, 89, 444, 120
-0.992948, 65, 69, 96, 100
-0.992952, 153, 129, 184, 256
-0.992957, 237, 133, 268, 164
-0.992964, 113, 1, 144, 32
-0.992971, 381, 217, 412, 248
-0.992973, 205, 33, 236, 64
-0.992974, 401, 197, 432, 228
-0.992976, 417, 113, 448, 144
-0.992986, 249, 225, 280, 256
-0.992992, 357, 281, 388, 312
-0.992993, 465, 205, 496, 236
-0.993003, 389, 165, 420, 196
-0.993004, 189, 29, 220, 60
-0.993005, 177, 221, 208, 252
-0.993007, 173, 133, 204, 164
-0.993008, 417, 249, 448, 280
-0.993009, 29, 89, 60, 120
-0.993012, 225, 125, 256, 156
-0.993014, 405, 333, 436, 364
-0.993027, 189, 17, 220, 48
-0.99303, 85, 129, 116, 160
-0.993036, 409, 305, 440, 336
-0.993038, 169, 261, 200, 292
-0.99304, 381, 137, 412, 168
-0.993047, 97, 181, 128, 212
-0.993054, 1, 209, 500, 272
-0.993058, 145, 225, 176, 256
-0.993061, 109, 197, 140, 228
-0.993068, 349, 241, 380, 368
-0.993074, 41, 109, 72, 140
-0.993074, 185, 125, 216, 156
-0.993084, 245, 157, 276, 188
-0.993093, 157, 233, 188, 264
-0.993096, 57, 245, 88, 276
-0.993101, 429, 245, 460, 276
-0.993103, 373, 121, 404, 152
-0.993114, 101, 5, 132, 36
-0.99312, 85, 193, 116, 224
-0.993123, 69, 245, 100, 276
-0.993127, 409, 345, 440, 375
-0.993128, 389, 233, 420, 264
-0.993129, 93, 81, 124, 208
-0.993129, 429, 105, 460, 136
-0.993132, 157, 205, 188, 236
-0.993137, 393, 153, 424, 184
-0.99314, 465, 185, 496, 216
-0.993143, 121, 1, 152, 128
-0.993144, 385, 69, 416, 100
-0.993149, 165, 221, 196, 252
-0.993154, 465, 345, 496, 375
-0.993155, 93, 153, 124, 184
-0.993156, 205, 113, 236, 240
-0.993161, 61, 113, 92, 144
-0.993164, 105, 225, 136, 256
-0.993166, 65, 89, 96, 120
-0.993168, 393, 161, 408, 224
-0.993168, 253, 269, 284, 300
-0.99317, 365, 73, 396, 104
-0.993174, 381, 337, 412, 368
-0.993175, 197, 89, 228, 120
-0.993176, 81, 105, 112, 136
-0.993177, 401, 125, 432, 156
-0.993178, 357, 269, 388, 300
-0.993181, 217, 221, 248, 252
-0.993184, 357, 217, 388, 248
-0.993188, 69, 53, 100, 84
-0.993188, 409, 321, 440, 352
-0.993193, 197, 77, 228, 108
-0.993195, 205, 221, 236, 252
-0.993196, 345, 205, 376, 236
-0.993197, 317, 185, 348, 216
-0.993203, 385, 101, 416, 132
-0.99321, 361, 333, 392, 364
-0.993212, 45, 241, 76, 272
-0.993213, 245, 181, 276, 212
-0.993215, 109, 153, 140, 184
-0.993217, 89, 141, 120, 172
-0.993217, 209, 21, 240, 52
-0.993217, 265, 173, 296, 204
-0.993221, 429, 93, 460, 124
-0.993223, 265, 1, 296, 32
-0.993224, 301, 29, 332, 60
-0.993227, 429, 121, 460, 152
-0.993227, 113, 177, 144, 208
-0.993229, 69, 181, 100, 212
-0.993234, 189, 113, 220, 144
-0.993236, 165, 153, 196, 184
-0.993239, 449, 293, 480, 324
-0.993239, 405, 249, 436, 280
-0.99324, 465, 313, 496, 344
-0.99324, 125, 1, 156, 32
-0.993241, 241, 209, 272, 240
-0.993249, 13, 221, 44, 252
-0.993251, 109, 137, 140, 168
-0.993253, 165, 245, 196, 276
-0.993255, 373, 157, 404, 188
-0.993255, 397, 1, 428, 32
-0.993276, 129, 169, 384, 232
-0.993297, 289, 249, 416, 312
-0.993355, 29, 225, 60, 352
-0.993402, 161, 137, 288, 168
-0.993439, 225, 241, 352, 304
-0.993472, 137, 145, 168, 272
-0.993479, 41, 225, 72, 352
-0.99349, 225, 217, 480, 280
-0.993495, 225, 297, 480, 360
-0.993558, 13, 161, 44, 288
-0.993734, 1, 73, 256, 136
-0.993747, 1, 185, 500, 248
-0.993796, 65, 265, 320, 328
-0.993798, 161, 57, 416, 120
-0.993811, 385, 177, 400, 240
-0.993972, 345, 65, 376, 192
-0.994089, 371, 193, 386, 256
-0.994117, 429, 1, 460, 128
-0.994117, 269, 81, 300, 208
-0.994117, 383, 209, 398, 272
-0.994128, 349, 1, 380, 128
-0.994141, 65, 233, 192, 264
-0.994168, 429, 177, 460, 304
-0.994276, 333, 129, 364, 256
-0.994315, 257, 129, 500, 192
-0.994362, 65, 1, 320, 64
-0.994367, 329, 193, 360, 320
-0.994369, 201, 1, 216, 64
-0.994401, 61, 1, 92, 128
-0.994412, 397, 137, 412, 200
-0.994416, 81, 141, 208, 172
-0.994448, 257, 241, 500, 304
-0.994497, 33, 49, 288, 112
-0.994526, 369, 345, 496, 375
-0.994667, 1, 217, 128, 248
-0.994669, 65, 289, 320, 352
-0.994704, 313, 241, 376, 368
-0.994718, 255, 225, 270, 288
-0.994722, 161, 125, 288, 156
-0.994764, 1, 305, 128, 368
-0.99479, 395, 185, 410, 248
-0.994791, 205, 33, 220, 96
-0.994801, 129, 209, 384, 272
-0.994807, 353, 313, 480, 344
-0.994813, 305, 177, 432, 208
-0.994821, 97, 213, 224, 244
-0.994878, 111, 169, 126, 232
-0.994883, 65, 313, 320, 375
-0.994891, 49, 113, 80, 240
-0.994896, 257, 193, 384, 224
-0.994953, 1, 241, 128, 272
-0.994977, 49, 197, 176, 228
-0.994985, 225, 105, 480, 168
-0.994985, 257, 153, 500, 216
-0.994995, 225, 129, 352, 160
-0.994995, 257, 217, 384, 280
-0.995033, 177, 89, 304, 120
-0.995087, 353, 177, 480, 208
-0.995115, 161, 225, 288, 256
-0.995131, 81, 153, 208, 184
-0.995137, 353, 297, 480, 328
-0.995149, 33, 185, 288, 248
-0.995156, 225, 1, 480, 64
-0.995172, 81, 129, 208, 160
-0.995188, 353, 193, 480, 224
-0.99521, 353, 113, 480, 144
-0.995218, 33, 1, 160, 32
-0.995223, 161, 149, 288, 180
-0.995243, 29, 113, 60, 240
-0.995286, 49, 81, 64, 144
-0.995303, 353, 85, 480, 116
-0.995319, 241, 177, 368, 208
-0.995325, 129, 49, 160, 176
-0.995402, 41, 97, 56, 160
-0.995408, 103, 193, 118, 256
-0.995411, 409, 313, 424, 375
-0.995434, 225, 145, 352, 176
-0.995437, 161, 313, 288, 344
-0.995456, 353, 325, 480, 356
-0.995468, 1, 133, 128, 164
-0.995477, 1, 57, 500, 120
-0.995491, 161, 333, 288, 364
-0.995499, 113, 193, 128, 256
-0.995516, 253, 137, 268, 200
-0.995534, 159, 225, 174, 288
-0.995545, 365, 177, 380, 240
-0.995548, 225, 117, 352, 148
-0.995548, 71, 209, 86, 272
-0.995564, 333, 65, 364, 192
-0.995606, 81, 217, 96, 280
-0.995618, 33, 177, 64, 304
-0.995625, 403, 137, 418, 200
-0.995653, 107, 1, 122, 64
-0.995654, 161, 285, 288, 316
-0.995656, 305, 121, 432, 152
-0.995656, 161, 269, 288, 300
-0.995665, 95, 193, 110, 256
-0.995672, 33, 73, 160, 104
-0.995692, 387, 121, 402, 184
-0.995722, 177, 101, 304, 132
-0.995725, 87, 209, 102, 272
-0.995732, 289, 105, 416, 136
-0.995735, 353, 73, 480, 104
-0.995737, 33, 85, 160, 116
-0.995766, 97, 1, 112, 64
-0.995767, 377, 185, 392, 248
-0.995779, 21, 225, 36, 288
-0.995787, 353, 97, 480, 128
-0.995791, 13, 97, 44, 352
-0.995791, 353, 125, 480, 156
-0.995837, 469, 225, 500, 352
-0.995849, 261, 225, 276, 288
-0.995852, 359, 185, 374, 248
-0.995869, 161, 257, 288, 288
-0.995873, 171, 233, 186, 296
-0.995884, 87, 1, 102, 64
-0.995895, 81, 165, 208, 196
-0.995897, 87, 89, 102, 152
-0.995901, 161, 345, 288, 375
-0.995916, 1, 137, 16, 200
-0.995917, 17, 229, 144, 260
-0.995942, 113, 1, 128, 64
-0.995944, 305, 81, 432, 112
-0.995968, 177, 113, 304, 144
-0.99597, 111, 217, 126, 280
-0.995976, 1, 97, 32, 352
-0.995986, 423, 81, 438, 144
-0.995994, 167, 145, 182, 208
-0.995999, 153, 1, 184, 128
-0.996044, 11, 225, 26, 288
-0.996049, 121, 1, 136, 64
-0.996069, 7, 129, 22, 192
-0.996082, 225, 33, 480, 96
-0.996086, 367, 257, 382, 320
-0.9961, 75, 177, 90, 240
-0.9961, 305, 209, 432, 240
-0.996115, 9, 1, 40, 128
-0.996131, 399, 161, 414, 224
-0.99614, 161, 301, 288, 332
-0.996154, 353, 137, 480, 168
-0.996175, 353, 205, 480, 236
-0.996176, 321, 345, 448, 375
-0.996179, 429, 89, 444, 152
-0.996179, 127, 1, 142, 64
-0.996181, 225, 89, 352, 120
-0.996188, 81, 1, 96, 64
-0.996206, 485, 225, 500, 288
-0.996215, 107, 145, 122, 208
-0.996215, 35, 233, 50, 296
-0.996217, 81, 117, 208, 148
-0.996224, 33, 25, 288, 88
-0.996233, 225, 33, 352, 64
-0.996234, 1, 305, 500, 368
-0.996238, 337, 285, 464, 316
-0.996242, 113, 41, 240, 72
-0.996247, 161, 249, 416, 312
-0.99626, 81, 177, 208, 208
-0.996268, 377, 233, 392, 296
-0.996295, 49, 217, 176, 248
-0.996321, 353, 229, 480, 260
-0.996327, 129, 101, 256, 132
-0.996329, 81, 97, 112, 352
-0.996332, 401, 185, 416, 248
-0.996333, 119, 193, 134, 256
-0.996336, 193, 105, 208, 168
-0.996345, 257, 57, 500, 120
-0.996346, 353, 249, 480, 280
-0.996353, 17, 109, 144, 140
-0.996372, 413, 97, 428, 160
-0.996385, 79, 105, 94, 168
-0.996387, 289, 93, 416, 124
-0.996395, 389, 73, 404, 136
-0.996408, 211, 73, 226, 136
-0.996409, 389, 97, 420, 352
-0.996411, 241, 157, 368, 188
-0.996414, 113, 57, 240, 88
-0.996421, 81, 269, 208, 300
-0.996425, 39, 73, 54, 136
-0.99643, 225, 277, 352, 308
-0.996434, 255, 265, 270, 328
-0.99644, 261, 225, 292, 352
-0.996443, 387, 145, 402, 208
-0.996454, 377, 209, 392, 272
-0.996464, 29, 233, 44, 296
-0.996466, 431, 297, 446, 360
-0.996466, 97, 129, 112, 192
-0.996471, 33, 113, 48, 176
-0.996482, 377, 73, 392, 136
-0.996504, 21, 121, 36, 184
-0.996508, 209, 313, 224, 375
-0.996509, 177, 73, 304, 104
-0.99651, 97, 1, 224, 32
-0.996512, 81, 245, 208, 276
-0.996517, 413, 113, 444, 240
-0.996537, 91, 233, 106, 296
-0.996552, 17, 97, 144, 128
-0.996555, 179, 129, 194, 192
-0.996576, 249, 225, 264, 288
-0.996607, 395, 209, 410, 272
-0.996612, 93, 129, 124, 375
-0.996621, 27, 113, 42, 176
-0.996624, 219, 73, 234, 136
-0.996629, 369, 297, 384, 360
-0.996645, 61, 65, 76, 128
-0.996653, 173, 137, 188, 200
-0.996664, 305, 165, 432, 196
-0.996666, 403, 313, 418, 375
-0.99667, 1, 1, 500, 64
-0.996675, 189, 241, 220, 368
-0.996686, 225, 105, 352, 136
-0.996688, 361, 1, 392, 128
-0.996693, 371, 233, 386, 296
-0.996706, 195, 1, 210, 64
-0.99671, 159, 193, 174, 256
-0.996713, 241, 129, 256, 192
-0.996718, 161, 161, 176, 224
-0.996722, 177, 37, 304, 68
-0.996726, 345, 129, 376, 256
-0.99674, 97, 217, 112, 280
-0.996745, 429, 241, 444, 304
-0.996751, 5, 225, 20, 288
-0.996757, 225, 69, 352, 100
-0.996766, 129, 113, 256, 144
-0.996786, 353, 61, 480, 92
-0.996787, 13, 121, 28, 184
-0.996794, 361, 265, 376, 328
-0.996814, 267, 1, 282, 64
-0.996816, 305, 241, 432, 272
-0.996819, 69, 65, 100, 320
-0.996827, 417, 73, 432, 136
-0.996829, 261, 185, 276, 248
-0.996831, 269, 193, 284, 256
-0.996834, 165, 129, 196, 375
-0.996836, 213, 1, 228, 64
-0.996838, 71, 241, 86, 304
-0.996843, 177, 249, 192, 312
-0.996845, 353, 217, 480, 248
-0.996846, 145, 237, 272, 268
-0.996849, 199, 97, 214, 160
-0.996849, 397, 113, 412, 176
-0.996852, 45, 65, 76, 320
-0.996867, 441, 281, 456, 344
-0.996883, 387, 233, 402, 296
-0.996884, 81, 241, 96, 304
-0.996897, 55, 81, 70, 144
-0.996906, 81, 177, 96, 240
-0.99691, 165, 233, 180, 296
-0.996914, 97, 189, 224, 220
-0.996914, 161, 145, 416, 208
-0.996916, 247, 129, 262, 192
-0.99692, 173, 1, 204, 256
-0.996925, 89, 121, 104, 184
-0.996927, 81, 49, 96, 112
-0.996941, 273, 1, 288, 64
-0.996955, 65, 209, 80, 272
-0.996961, 397, 57, 412, 120
-0.996965, 373, 129, 404, 375
-0.996974, 261, 1, 276, 64
-0.996974, 321, 177, 336, 240
-0.996974, 41, 233, 56, 296
-0.996982, 387, 97, 402, 160
-0.996988, 305, 69, 432, 100
-0.996991, 97, 201, 224, 232
-0.996993, 89, 185, 104, 248
-0.996994, 29, 97, 60, 352
-0.996995, 359, 189, 374, 220
-0.997001, 169, 273, 184, 336
-0.997008, 273, 225, 336, 352
-0.997014, 453, 137, 468, 200
-0.99702, 145, 161, 272, 192
-0.997023, 327, 177, 342, 240
-0.997024, 199, 73, 214, 136
-0.997026, 353, 193, 368, 256
-0.997031, 169, 209, 184, 272
-0.997056, 105, 217, 120, 280
-0.997056, 81, 257, 208, 288
-0.997063, 61, 241, 76, 304
-0.997073, 411, 65, 426, 128
-0.99709, 27, 209, 42, 272
-0.997095, 315, 25, 330, 88
-0.997101, 189, 1, 220, 256
-0.997108, 241, 89, 256, 152
-0.997114, 437, 305, 452, 368
-0.997119, 185, 121, 200, 184
-0.997122, 389, 209, 404, 272
-0.997123, 257, 205, 384, 236
-0.997126, 17, 181, 144, 212
-0.997139, 1, 33, 500, 96
-0.997145, 193, 53, 320, 84
-0.997156, 121, 129, 152, 256
-0.99718, 305, 45, 432, 76
-0.997208, 245, 129, 276, 375
-0.997244, 113, 225, 240, 256
-0.997252, 391, 173, 406, 204
-0.997257, 1, 233, 500, 296
-0.997265, 353, 1, 480, 32
-0.997271, 81, 281, 208, 312
-0.997275, 65, 105, 192, 136
-0.997327, 65, 61, 192, 92
-0.997351, 81, 85, 208, 116
-0.997359, 383, 209, 398, 240
-0.997376, 1, 205, 128, 236
-0.997383, 399, 193, 414, 224
-0.997387, 289, 133, 416, 164
-0.997412, 129, 81, 256, 112
-0.997416, 217, 1, 248, 256
-0.997424, 57, 1, 88, 256
-0.997436, 145, 213, 272, 244
-0.997455, 445, 33, 476, 160
-0.997468, 1, 281, 500, 344
-0.997479, 395, 157, 410, 188
-0.997491, 209, 221, 336, 252
-0.997495, 203, 29, 218, 60
-0.997495, 397, 133, 412, 164
-0.997499, 387, 185, 402, 216
-0.9975, 81, 293, 208, 324
-0.997515, 369, 189, 384, 220
-0.997528, 97, 341, 224, 372
-0.997529, 441, 129, 472, 375
-0.997545, 369, 33, 400, 288
-0.997554, 81, 305, 208, 336
-0.997572, 465, 81, 496, 208
-0.997572, 113, 217, 128, 248
-0.997574, 205, 65, 236, 320
-0.997575, 353, 165, 480, 196
-0.997585, 373, 201, 388, 232
-0.997585, 193, 161, 320, 192
-0.997588, 233, 97, 264, 352
-0.997589, 273, 289, 400, 320
-0.997599, 379, 189, 394, 220
-0.997613, 395, 209, 410, 240
-0.997633, 177, 97, 208, 352
-0.997644, 393, 189, 408, 220
-0.997646, 209, 1, 336, 32
-0.997658, 17, 161, 144, 192
-0.997659, 49, 89, 64, 120
-0.997659, 17, 145, 144, 176
-0.997659, 353, 13, 480, 44
-0.997665, 113, 193, 128, 224
-0.997669, 301, 113, 332, 240
-0.997679, 353, 41, 480, 72
-0.997687, 33, 237, 48, 268
-0.99769, 145, 25, 272, 56
-0.997697, 367, 265, 382, 296
-0.997703, 305, 229, 432, 260
-0.997704, 33, 49, 160, 80
-0.997708, 353, 129, 384, 375
-0.997714, 197, 1, 212, 32
-0.997731, 41, 109, 56, 140
-0.997733, 305, 25, 432, 56
-0.997747, 409, 33, 440, 288
-0.997773, 81, 321, 208, 352
-0.997778, 469, 17, 500, 144
-0.997779, 1, 257, 500, 320
-0.997789, 145, 1, 272, 32
-0.997796, 161, 1, 192, 256
-0.997828, 305, 57, 432, 88
-0.997833, 209, 13, 336, 44
-0.997835, 433, 293, 448, 324
-0.997836, 19, 233, 34, 264
-0.997859, 305, 301, 432, 332
-0.997867, 405, 193, 420, 224
-0.997873, 209, 325, 336, 356
-0.997876, 145, 225, 176, 352
-0.997878, 43, 97, 58, 128
-0.99789, 259, 225, 274, 256
-0.997892, 305, 329, 432, 360
-0.997896, 305, 317, 432, 348
-0.997897, 401, 145, 416, 176
-0.9979, 385, 169, 400, 200
-0.997929, 209, 345, 336, 375
-0.997931, 161, 173, 288, 204
-0.997936, 317, 1, 348, 256
-0.997937, 261, 97, 292, 352
-0.997939, 189, 97, 220, 352
-0.997939, 169, 233, 184, 264
-0.997949, 385, 197, 400, 228
-0.997956, 297, 1, 328, 256
-0.997963, 157, 225, 172, 256
-0.997965, 387, 121, 402, 152
-0.997969, 231, 221, 246, 252
-0.997978, 97, 5, 112, 36
-0.997985, 403, 345, 418, 375
-0.997987, 209, 189, 336, 220
-0.997988, 353, 25, 480, 56
-0.998, 43, 241, 58, 272
-0.998008, 253, 225, 268, 256
-0.998017, 203, 17, 218, 48
-0.998017, 413, 305, 428, 336
-0.998019, 79, 1, 94, 32
-0.998023, 171, 141, 186, 172
-0.998029, 357, 33, 388, 288
-0.99803, 77, 117, 92, 148
-0.998032, 27, 237, 42, 268
-0.99804, 431, 101, 446, 132
-0.998049, 289, 65, 320, 192
-0.998051, 371, 229, 386, 260
-0.998054, 251, 137, 266, 168
-0.998055, 9, 229, 24, 260
-0.998063, 1, 137, 16, 168
-0.998067, 353, 193, 368, 224
-0.998071, 377, 241, 392, 272
-0.998071, 125, 1, 140, 32
-0.998073, 481, 345, 496, 375
-0.9981, 221, 97, 252, 352
-0.998104, 407, 333, 422, 364
-0.998107, 153, 129, 184, 375
-0.998111, 1, 49, 16, 80
-0.998118, 107, 225, 122, 256
-0.998122, 7, 133, 22, 164
-0.99813, 323, 185, 338, 216
-0.998134, 83, 109, 98, 140
-0.998135, 13, 129, 28, 160
-0.998141, 237, 1, 268, 256
-0.998143, 401, 205, 416, 236
-0.998149, 103, 145, 118, 176
-0.998151, 33, 117, 48, 148
-0.998152, 391, 141, 406, 172
-0.998168, 381, 225, 396, 256
-0.99817, 193, 109, 208, 140
-0.998175, 423, 85, 438, 116
-0.998175, 389, 153, 404, 184
-0.998184, 87, 241, 102, 272
-0.998185, 243, 217, 258, 248
-0.998198, 43, 85, 58, 116
-0.998198, 91, 5, 106, 36
-0.998199, 177, 137, 192, 168
-0.9982, 149, 1, 180, 256
-0.9982, 185, 129, 200, 160
-0.998202, 21, 125, 36, 156
-0.998204, 81, 53, 96, 84
-0.998206, 429, 97, 460, 352
-0.998222, 109, 5, 124, 36
-0.998223, 385, 1, 416, 256
-0.998226, 97, 133, 112, 164
-0.998228, 27, 121, 42, 152
-0.998234, 211, 77, 226, 108
-0.998235, 333, 65, 364, 320
-0.998241, 419, 97, 434, 128
-0.998242, 427, 297, 442, 328
-0.998243, 277, 1, 292, 32
-0.998249, 237, 221, 252, 252
-0.998251, 363, 205, 378, 236
-0.998253, 75, 69, 90, 100
-0.998257, 193, 97, 208, 128
-0.998272, 111, 181, 126, 212
-0.998272, 199, 97, 214, 128
-0.998274, 7, 53, 22, 84
-0.998279, 103, 5, 118, 36
-0.99828, 401, 129, 432, 375
-0.998286, 167, 153, 182, 184
-0.998286, 439, 293, 454, 324
-0.998291, 121, 201, 136, 232
-0.998291, 255, 269, 270, 300
-0.998294, 209, 337, 224, 368
-0.998296, 387, 241, 402, 272
-0.998298, 93, 197, 108, 228
-0.998303, 329, 185, 344, 216
-0.998306, 385, 81, 400, 112
-0.99832, 353, 205, 368, 236
-0.99832, 387, 229, 402, 260
-0.998325, 105, 129, 136, 375
-0.998332, 49, 101, 64, 132
-0.998332, 59, 73, 74, 104
-0.998334, 85, 1, 100, 32
-0.998335, 421, 249, 436, 280
-0.998338, 237, 129, 252, 160
-0.99834, 119, 5, 134, 36
-0.998343, 99, 197, 114, 228
-0.998343, 397, 173, 412, 204
-0.998348, 103, 213, 118, 244
-0.99835, 223, 221, 238, 252
-0.998355, 159, 213, 174, 244
-0.998359, 69, 79, 100, 94
-0.998359, 17, 221, 32, 252
-0.99836, 373, 75, 404, 90
-0.99836, 369, 359, 400, 374
-0.99836, 197, 99, 228, 114
-0.99836, 45, 95, 76, 110
-0.998361, 177, 137, 208, 152
-0.998361, 221, 81, 236, 112
-0.998362, 441, 293, 472, 308
-0.998364, 113, 187, 144, 202
-0.998364, 417, 117, 448, 132
-0.998364, 417, 295, 448, 310
-0.998365, 357, 297, 388, 312
-0.998365, 57, 77, 88, 92
-0.998366, 193, 121, 208, 152
-0.998367, 85, 189, 116, 204
-0.998368, 77, 131, 108, 146
-0.998368, 71, 193, 86, 224
-0.998368, 69, 85, 100, 100
-0.998369, 185, 27, 216, 42
-0.99837, 373, 177, 404, 192
-0.99837, 337, 205, 368, 220
-0.99837, 389, 213, 420, 228
-0.998371, 409, 335, 440, 350
-0.998371, 369, 177, 384, 208
-0.998371, 429, 111, 460, 126
-0.998371, 169, 273, 200, 288
-0.998372, 329, 185, 360, 200
-0.998372, 465, 197, 496, 212
-0.998373, 109, 147, 140, 162
-0.998373, 99, 237, 114, 268
-0.998374, 253, 269, 284, 284
-0.998374, 109, 193, 140, 208
-0.998375, 405, 77, 436, 92
-0.998376, 465, 187, 496, 202
-0.998376, 373, 207, 404, 222
-0.998376, 121, 3, 152, 18
-0.998377, 377, 163, 408, 178
-0.998377, 189, 3, 220, 18
-0.998377, 357, 289, 388, 304
-0.998378, 109, 153, 140, 168
-0.99838, 381, 221, 412, 236
-0.99838, 1, 233, 32, 248
-0.998381, 25, 235, 56, 250
-0.998381, 75, 53, 90, 84
-0.998382, 145, 229, 176, 244
-0.998383, 199, 109, 214, 140
-0.998383, 189, 19, 220, 34
-0.998383, 381, 341, 412, 356
-0.998384, 85, 197, 100, 228
-0.998384, 469, 351, 500, 366
-0.998384, 245, 163, 276, 178
-0.998386, 209, 17, 224, 48
-0.998386, 245, 175, 276, 190
-0.998386, 205, 27, 236, 42
-0.998387, 109, 225, 140, 240
-0.998387, 389, 169, 420, 184
-0.998387, 429, 301, 460, 316
-0.998388, 157, 217, 188, 232
-0.998389, 409, 89, 440, 104
-0.998391, 361, 217, 392, 232
-0.998391, 385, 183, 416, 198
-0.998392, 421, 297, 436, 328
-0.998395, 97, 187, 128, 202
-0.998395, 417, 251, 448, 266
-0.998395, 61, 121, 92, 136
-0.998396, 205, 33, 236, 48
-0.998396, 393, 131, 424, 146
-0.998397, 465, 207, 496, 222
-0.998397, 89, 69, 104, 100
-0.998398, 77, 245, 92, 276
-0.998398, 157, 235, 188, 250
-0.9984, 401, 201, 432, 216
-0.9984, 385, 177, 416, 192
-0.998402, 419, 109, 434, 140
-0.998403, 465, 213, 496, 228
-0.998403, 207, 41, 222, 72
-0.998403, 407, 321, 422, 352
-0.998405, 37, 111, 68, 126
-0.998405, 397, 1, 428, 256
-0.998406, 417, 111, 448, 126
-0.998407, 385, 81, 416, 96
-0.998407, 1, 139, 32, 154
-0.998407, 9, 131, 40, 146
-0.998408, 413, 95, 444, 110
-0.99841, 21, 121, 52, 136
-0.99841, 93, 213, 124, 228
-0.998411, 21, 241, 52, 256
-0.998412, 381, 139, 412, 154
-0.998412, 73, 187, 104, 202
-0.998413, 233, 229, 264, 244
-0.998414, 49, 247, 80, 262
-0.998415, 85, 7, 116, 22
-0.998415, 469, 361, 500, 375
-0.998416, 389, 163, 420, 178
-0.998416, 185, 131, 216, 146
-0.998417, 39, 229, 54, 260
-0.998418, 89, 239, 120, 254
-0.998418, 341, 189, 372, 204
-0.998419, 171, 281, 186, 312
-0.998422, 61, 247, 92, 262
-0.998423, 83, 125, 98, 156
-0.998423, 401, 341, 432, 356
-0.998423, 69, 193, 100, 208
-0.998424, 225, 131, 256, 146
-0.998425, 249, 227, 280, 242
-0.998428, 101, 199, 132, 214
-0.998428, 317, 97, 348, 352
-0.998429, 429, 293, 460, 308
-0.998429, 193, 225, 224, 240
-0.998431, 109, 1, 140, 16
-0.998432, 377, 353, 408, 368
-0.998432, 205, 225, 236, 240
-0.998435, 65, 71, 96, 86
-0.998436, 109, 217, 140, 232
-0.998436, 317, 187, 348, 202
-0.998441, 105, 9, 136, 24
-0.998441, 353, 197, 384, 212
-0.998442, 389, 195, 420, 210
-0.998443, 245, 169, 276, 184
-0.998445, 393, 145, 424, 160
-0.99845, 365, 191, 396, 206
-0.998452, 373, 243, 404, 258
-0.998452, 201, 39, 232, 54
-0.998452, 381, 201, 412, 216
-0.998454, 429, 249, 460, 264
-0.998455, 205, 81, 236, 96
-0.998456, 393, 347, 424, 362
-0.998458, 413, 307, 444, 322
-0.998458, 69, 3, 100, 18
-0.99846, 25, 1, 56, 256
-0.99846, 153, 223, 216, 238
-0.998461, 77, 243, 108, 258
-0.998467, 177, 223, 208, 238
-0.998468, 193, 33, 224, 48
-0.998468, 73, 125, 104, 140
-0.998468, 373, 183, 404, 198
-0.998468, 381, 189, 412, 204
-0.99847, 345, 189, 408, 204
-0.998478, 41, 89, 72, 104
-0.998481, 417, 301, 448, 316
-0.998485, 369, 223, 400, 238
-0.998489, 97, 193, 128, 208
-0.998504, 313, 189, 376, 204
-0.998505, 33, 241, 64, 256
-0.998506, 129, 1, 160, 256
-0.998507, 25, 117, 88, 132
-0.998507, 395, 145, 410, 272
-0.998507, 13, 235, 44, 250
-0.998509, 361, 353, 424, 368
-0.99851, 217, 225, 248, 240
-0.99851, 65, 189, 128, 204
-0.99851, 33, 117, 64, 132
-0.998511, 373, 215, 404, 230
-0.998519, 373, 233, 404, 248
-0.998523, 401, 135, 464, 150
-0.998523, 361, 207, 392, 222
-0.99853, 345, 207, 408, 222
-0.998531, 361, 359, 424, 374
-0.998533, 193, 35, 256, 50
-0.998533, 389, 207, 420, 222
-0.998534, 265, 1, 296, 256
-0.998542, 237, 223, 268, 238
-0.998544, 401, 307, 464, 322
-0.998545, 377, 83, 440, 98
-0.998547, 369, 347, 432, 362
-0.998548, 417, 297, 480, 312
-0.998549, 17, 125, 80, 140
-0.998549, 225, 225, 288, 240
-0.998552, 361, 311, 424, 326
-0.998553, 33, 1, 96, 16
-0.998557, 65, 211, 128, 226
-0.998559, 89, 1, 152, 16
-0.99856, 105, 221, 168, 236
-0.998561, 345, 195, 408, 210
-0.998562, 393, 139, 424, 154
-0.998562, 201, 225, 264, 240
-0.998563, 169, 137, 232, 152
-0.998564, 113, 215, 176, 230
-0.998566, 401, 129, 464, 144
-0.998569, 65, 195, 128, 210
-0.99857, 33, 111, 96, 126
-0.99857, 65, 217, 128, 232
-0.998577, 9, 241, 72, 256
-0.998577, 177, 361, 240, 375
-0.998581, 377, 109, 440, 124
-0.998581, 345, 229, 408, 244
-0.998582, 49, 123, 112, 138
-0.998582, 361, 305, 424, 320
-0.998583, 369, 341, 432, 356
-0.998584, 65, 5, 128, 20
-0.998585, 401, 87, 464, 102
-0.998586, 369, 95, 432, 110
-0.998586, 369, 235, 432, 250
-0.998587, 161, 3, 224, 18
-0.998589, 193, 125, 256, 140
-0.99859, 353, 139, 416, 154
-0.99859, 145, 217, 208, 232
-0.998592, 113, 207, 176, 222
-0.998592, 169, 35, 232, 50
-0.998593, 409, 1, 472, 16
-0.998593, 377, 117, 440, 132
-0.998593, 209, 133, 272, 148
-0.998594, 361, 201, 424, 216
-0.998596, 377, 101, 440, 116
-0.998596, 41, 81, 104, 96
-0.998597, 185, 219, 248, 234
-0.998598, 385, 241, 448, 256
-0.998598, 249, 157, 312, 172
-0.998598, 81, 183, 144, 198
-0.998598, 41, 237, 104, 252
-0.998599, 177, 131, 240, 146
-0.998599, 41, 75, 104, 90
-0.998599, 113, 201, 176, 216
-0.998599, 377, 137, 440, 152
-0.998599, 361, 317, 424, 332
-0.998599, 401, 313, 464, 328
-0.998599, 337, 77, 400, 92
-0.998599, 345, 213, 408, 228
-0.9986, 201, 361, 264, 375
-0.998601, 249, 149, 312, 164
-0.998601, 201, 81, 264, 96
-0.998602, 401, 111, 464, 126
-0.998603, 41, 247, 104, 262
-0.998604, 97, 233, 160, 248
-0.998604, 273, 31, 336, 46
-0.998604, 345, 235, 408, 250
-0.998604, 185, 103, 248, 118
-0.998605, 105, 149, 168, 164
-0.998605, 57, 129, 120, 144
-0.998606, 377, 143, 440, 158
-0.998606, 369, 227, 432, 242
-0.998607, 1, 137, 64, 152
-0.998608, 313, 203, 376, 218
-0.998609, 113, 193, 176, 208
-0.99861, 121, 159, 184, 174
-0.99861, 97, 143, 160, 158
-0.99861, 249, 139, 312, 154
-0.998611, 369, 1, 432, 16
-0.998612, 41, 93, 104, 108
-0.998612, 105, 187, 168, 202
-0.998613, 41, 87, 104, 102
-0.998613, 337, 201, 400, 216
-0.998615, 185, 97, 248, 112
-0.998615, 249, 273, 312, 288
-0.998615, 353, 189, 384, 204
-0.998615, 121, 3, 184, 18
-0.998616, 81, 67, 144, 82
-0.998616, 321, 195, 384, 210
-0.998616, 65, 241, 128, 256
-0.998618, 169, 355, 232, 370
-0.998618, 209, 139, 272, 154
-0.998619, 369, 213, 432, 228
-0.998619, 89, 7, 152, 22
-0.998619, 377, 77, 440, 92
-0.998619, 169, 343, 232, 358
-0.99862, 361, 329, 424, 344
-0.99862, 369, 335, 432, 350
-0.99862, 121, 169, 184, 184
-0.99862, 409, 7, 472, 22
-0.998621, 393, 345, 456, 360
-0.998622, 57, 135, 120, 150
-0.998624, 377, 161, 440, 176
-0.998625, 401, 117, 464, 132
-0.998625, 393, 251, 456, 266
-0.998626, 393, 301, 456, 316
-0.998627, 401, 123, 464, 138
-0.998627, 377, 71, 440, 86
-0.998627, 369, 193, 432, 208
-0.998627, 169, 337, 232, 352
-0.998628, 433, 219, 496, 234
-0.998628, 321, 279, 384, 294
-0.998628, 161, 149, 224, 164
-0.998628, 177, 225, 240, 240
-0.998629, 33, 105, 96, 120
-0.998629, 417, 249, 480, 264
-0.998629, 345, 223, 408, 238
-0.998629, 345, 243, 408, 258
-0.99863, 361, 299, 424, 314
-0.998631, 377, 89, 440, 104
-0.998631, 369, 207, 432, 222
-0.998631, 249, 163, 312, 178
-0.998631, 73, 117, 136, 132
-0.998632, 41, 99, 104, 114
-0.998632, 401, 101, 464, 116
-0.998634, 13, 1, 44, 256
-0.998659, 385, 161, 400, 288
-0.998663, 93, 33, 124, 288
-0.998701, 81, 1, 112, 256
-0.998738, 107, 145, 122, 272
-0.998759, 345, 33, 376, 288
-0.998766, 253, 1, 284, 256
-0.998829, 101, 129, 116, 256
-0.998854, 79, 33, 94, 160
-0.998872, 1, 129, 16, 256
-0.998909, 73, 49, 88, 176
-0.998912, 387, 113, 402, 240
-0.998931, 97, 97, 352, 160
-0.998936, 211, 49, 226, 176
-0.998942, 113, 161, 128, 288
-0.998949, 161, 145, 176, 272
-0.998963, 427, 225, 442, 352
-0.998967, 377, 193, 392, 320
-0.998968, 469, 129, 500, 375
-0.998981, 273, 129, 304, 375
-0.998988, 257, 145, 272, 272
-0.998993, 83, 97, 98, 224
-0.999017, 413, 129, 444, 375
-0.999027, 115, 1, 130, 128
-0.999028, 257, 209, 272, 336
-0.999033, 9, 209, 24, 336
-0.999035, 109, 33, 140, 288
-0.999037, 205, 1, 220, 128
-0.999039, 121, 1, 136, 128
-0.999043, 109, 1, 124, 128
-0.999048, 103, 1, 118, 128
-0.999051, 45, 65, 60, 192
-0.999063, 195, 33, 210, 160
-0.999065, 21, 209, 36, 336
-0.999067, 185, 33, 200, 160
-0.999075, 57, 129, 88, 375
-0.999082, 91, 113, 106, 240
-0.999086, 167, 129, 182, 256
-0.999087, 233, 1, 248, 128
-0.99909, 265, 177, 280, 304
-0.999093, 415, 1, 430, 128
-0.999094, 205, 49, 220, 176
-0.999096, 221, 65, 236, 192
-0.999106, 395, 81, 410, 208
-0.999108, 421, 225, 436, 352
-0.999112, 83, 161, 98, 288
-0.999115, 89, 161, 104, 288
-0.999121, 401, 113, 416, 240
-0.999123, 33, 97, 48, 224
-0.999123, 97, 1, 112, 128
-0.99913, 161, 209, 176, 336
-0.999139, 249, 1, 264, 128
-0.999142, 411, 241, 426, 368
-0.999146, 75, 161, 90, 288
-0.999151, 445, 225, 460, 352
-0.999153, 367, 177, 382, 304
-0.999155, 433, 225, 448, 352
-0.999158, 245, 49, 260, 176
-0.999162, 423, 65, 438, 192
-0.999166, 39, 65, 54, 192
-0.999169, 169, 225, 184, 352
-0.999171, 59, 65, 74, 192
-0.999178, 251, 129, 266, 256
-0.999188, 403, 65, 418, 192
-0.999188, 367, 241, 382, 368
-0.999192, 9, 113, 24, 240
-0.999206, 7, 49, 22, 176
-0.999207, 227, 65, 242, 192
-0.999215, 453, 225, 468, 352
-0.999221, 67, 49, 82, 176
-0.999226, 413, 65, 428, 192
-0.999228, 239, 1, 254, 128
-0.999228, 239, 113, 254, 240
-0.999231, 95, 177, 110, 304
-0.999231, 233, 49, 248, 176
-0.999232, 187, 81, 202, 208
-0.999233, 53, 49, 68, 176
-0.999239, 395, 193, 410, 320
-0.999243, 85, 49, 100, 176
-0.999245, 439, 225, 454, 352
-0.999246, 105, 209, 120, 336
-0.999249, 3, 209, 18, 336
-0.99925, 181, 113, 196, 240
-0.999256, 401, 177, 416, 304
-0.999257, 389, 65, 404, 192
-0.999262, 77, 113, 92, 240
-0.999262, 17, 113, 32, 240
-0.999263, 239, 49, 254, 176
-0.999264, 453, 129, 484, 375
-0.999275, 175, 209, 190, 336
-0.999276, 387, 209, 402, 336
-0.99928, 461, 161, 476, 288
-0.99928, 315, 17, 330, 144
-0.999282, 1, 65, 16, 192
-0.999283, 455, 145, 470, 272
-0.999284, 257, 1, 272, 128
-0.999284, 173, 129, 188, 256
-0.999288, 173, 81, 188, 208
-0.999299, 401, 241, 416, 368
-0.9993, 177, 17, 192, 144
-0.999302, 111, 209, 126, 336
-0.999308, 91, 1, 106, 128
-0.999312, 245, 113, 260, 240
-0.999314, 193, 81, 208, 208
-0.999317, 381, 81, 396, 208
-0.99932, 155, 177, 170, 304
-0.999321, 69, 193, 84, 320
-0.99933, 429, 81, 444, 208
-0.999333, 251, 209, 266, 336
-0.999336, 97, 81, 112, 208
-0.99934, 35, 1, 50, 128
-0.999343, 27, 97, 42, 224
-0.999344, 167, 81, 182, 208
-0.999349, 321, 113, 336, 240
-0.999351, 255, 81, 270, 208
-0.999357, 1, 1, 32, 256
-0.999363, 91, 49, 106, 176
-0.99937, 13, 49, 28, 176
-0.999371, 429, 1, 460, 256
-0.999375, 75, 209, 90, 336
-0.999387, 1, 17, 16, 144
-0.999388, 169, 177, 184, 304
-0.999391, 325, 177, 340, 304
-0.999394, 283, 1, 298, 128
-0.999395, 459, 225, 474, 352
-0.999398, 217, 1, 232, 128
-0.999398, 293, 17, 308, 144
-0.999401, 407, 129, 422, 256
-0.999405, 465, 33, 496, 288
-0.999407, 15, 209, 30, 336
-0.999408, 179, 65, 194, 192
-0.999414, 71, 113, 86, 240
-0.999414, 89, 209, 104, 336
-0.999419, 305, 97, 336, 352
-0.999419, 359, 177, 374, 304
-0.99942, 141, 129, 172, 375
-0.999425, 285, 1, 316, 256
-0.999426, 81, 209, 96, 336
-0.999428, 127, 1, 142, 128
-0.999429, 373, 145, 388, 272
-0.999429, 271, 177, 286, 304
-0.999432, 485, 161, 500, 288
-0.999441, 181, 241, 196, 368
-0.999442, 301, 17, 316, 144
-0.999446, 41, 17, 56, 144
-0.999448, 233, 113, 248, 240
-0.999452, 199, 81, 214, 208
-0.99957, 117, 129, 148, 375
-0.999575, 385, 237, 400, 252
-0.999576, 97, 7, 112, 22
-0.999576, 203, 223, 218, 238
-0.999576, 79, 49, 94, 64
-0.999577, 111, 211, 126, 226
-0.999577, 379, 237, 394, 252
-0.999577, 93, 197, 108, 212
-0.999577, 35, 117, 50, 132
-0.999577, 113, 9, 128, 24
-0.999578, 393, 203, 408, 218
-0.999578, 387, 167, 402, 182
-0.999579, 85, 127, 100, 142
-0.99958, 103, 151, 118, 166
-0.99958, 327, 187, 342, 202
-0.99958, 379, 355, 394, 370
-0.999581, 403, 147, 418, 162
-0.999582, 91, 7, 106, 22
-0.999582, 485, 345, 500, 360
-0.999582, 131, 3, 146, 18
-0.999582, 47, 245, 62, 260
-0.999582, 113, 225, 128, 240
-0.999583, 101, 145, 116, 160
-0.999583, 195, 109, 210, 124
-0.999583, 209, 225, 224, 240
-0.999583, 181, 221, 196, 236
-0.999584, 51, 93, 66, 108
-0.999584, 417, 303, 432, 318
-0.999586, 397, 133, 412, 148
-0.999586, 91, 129, 106, 144
-0.999587, 401, 345, 416, 360
-0.999588, 79, 3, 94, 18
-0.999588, 177, 137, 192, 152
-0.999589, 245, 135, 260, 150
-0.999589, 17, 239, 32, 254
-0.999589, 57, 247, 72, 262
-0.99959, 261, 225, 276, 240
-0.99959, 357, 203, 372, 218
-0.99959, 183, 133, 198, 148
-0.999591, 367, 263, 382, 278
-0.999591, 119, 213, 134, 228
-0.999591, 369, 361, 384, 375
-0.999593, 13, 131, 28, 146
-0.999594, 413, 309, 428, 324
-0.999594, 75, 247, 90, 262
-0.999595, 201, 17, 216, 32
-0.999595, 115, 199, 130, 214
-0.999595, 157, 229, 172, 244
-0.999596, 197, 1, 212, 16
-0.999596, 19, 127, 34, 142
-0.999596, 377, 243, 392, 258
-0.999597, 253, 229, 268, 244
-0.999597, 125, 7, 140, 22
-0.999597, 371, 227, 386, 242
-0.999597, 85, 185, 100, 200
-0.999598, 205, 27, 220, 42
-0.999598, 63, 247, 78, 262
-0.999598, 357, 195, 372, 210
-0.999599, 385, 245, 400, 260
-0.999599, 433, 249, 448, 264
-0.999599, 197, 99, 212, 114
-0.9996, 207, 17, 222, 32
-0.999602, 7, 135, 22, 150
-0.999603, 79, 123, 94, 138
-0.999603, 69, 247, 84, 262
-0.999604, 425, 299, 440, 314
-0.999604, 381, 185, 396, 200
-0.999604, 395, 187, 410, 202
-0.999604, 257, 271, 272, 286
-0.999604, 427, 251, 442, 266
-0.999605, 227, 225, 242, 240
-0.999607, 199, 31, 214, 46
-0.999607, 97, 239, 112, 254
-0.999608, 17, 231, 32, 246
-0.999608, 401, 207, 416, 222
-0.999608, 81, 245, 96, 260
-0.999609, 379, 191, 394, 206
-0.999609, 203, 1, 218, 16
-0.999609, 87, 191, 102, 206
-0.999609, 375, 205, 390, 220
-0.99961, 391, 153, 406, 168
-0.99961, 371, 237, 386, 252
-0.999611, 105, 235, 120, 250
-0.999612, 403, 141, 418, 156
-0.999613, 169, 237, 184, 252
-0.999614, 107, 9, 122, 24
-0.999615, 397, 151, 412, 166
-0.999616, 211, 35, 226, 50
-0.999616, 29, 121, 44, 136
-0.999618, 75, 187, 90, 202
-0.999618, 321, 185, 336, 200
-0.999618, 1, 141, 16, 156
-0.999618, 41, 243, 56, 258
-0.999619, 481, 353, 496, 368
-0.99962, 87, 243, 102, 258
-0.999624, 113, 219, 128, 234
-0.999624, 29, 237, 44, 252
-0.999625, 195, 225, 210, 240
-0.999625, 465, 361, 480, 375
-0.999626, 217, 225, 232, 240
-0.999628, 367, 269, 382, 284
-0.999629, 205, 39, 220, 54
-0.999629, 373, 191, 388, 206
-0.999631, 351, 189, 366, 204
-0.999638, 403, 201, 418, 216
-0.999639, 111, 193, 126, 208
-0.999641, 397, 145, 412, 160
-0.999643, 233, 223, 248, 238
-0.999643, 383, 217, 398, 232
-0.999644, 395, 209, 410, 224
-0.999645, 397, 157, 412, 172
-0.999646, 363, 189, 378, 204
-0.999648, 393, 163, 408, 178
-0.999648, 389, 181, 404, 196
-0.999649, 431, 295, 446, 310
-0.99965, 187, 223, 202, 238
-0.999652, 7, 231, 22, 246
-0.999654, 23, 235, 38, 250
-0.999657, 35, 241, 50, 256
-0.999657, 45, 87, 60, 102
-0.999657, 399, 193, 414, 208
-0.999668, 391, 173, 406, 188
-0.999674, 125, 1, 140, 16
-0.999686, 285, 97, 316, 352
-0.999687, 243, 223, 258, 238
-0.999699, 41, 113, 56, 128
-0.999701, 205, 33, 220, 48
-0.999703, 1, 53, 16, 68
-0.999707, 387, 187, 402, 202
-0.999717, 357, 189, 372, 204
-0.999738, 441, 33, 472, 288
-0.99974, 397, 139, 412, 154
-0.999754, 385, 211, 400, 226
-1.00015, 129, 97, 160, 352
-1.00033, 453, 33, 484, 288
-1.00108, 257, 313, 384, 375
-1.00167, 193, 193, 256, 320
