1927
-0.4043, 1, 1, 333, 500
-0.436835, 1, 33, 333, 288
-0.591418, 65, 1, 320, 500
-0.605998, 1, 129, 333, 384
-0.626698, 1, 257, 333, 500
-0.690997, 65, 1, 320, 256
-0.747715, 1, 97, 256, 352
-0.816972, 1, 257, 256, 500
-0.845652, 33, 33, 160, 288
-0.848546, 33, 1, 160, 500
-0.866651, 1, 353, 333, 480
-0.877706, 1, 65, 333, 192
-0.877729, 49, 161, 176, 416
-0.892509, 209, 1, 333, 500
-0.893712, 65, 353, 320, 480
-0.898038, 81, 1, 208, 500
-0.90291, 1, 113, 333, 240
-0.907112, 17, 257, 144, 500
-0.908205, 1, 17, 333, 144
-0.908744, 81, 33, 208, 288
-0.909516, 1, 129, 128, 384
-0.911638, 209, 257, 333, 500
-0.914051, 113, 257, 240, 500
-0.921726, 113, 305, 176, 432
-0.921964, 97, 321, 224, 448
-0.926553, 57, 113, 120, 240
-0.928365, 209, 33, 333, 288
-0.928469, 65, 65, 320, 192
-0.930092, 81, 97, 144, 224
-0.931334, 97, 161, 224, 416
-0.932077, 73, 33, 136, 160
-0.935114, 161, 257, 288, 500
-0.935123, 49, 145, 176, 272
-0.935964, 1, 177, 333, 304
-0.936653, 105, 353, 168, 480
-0.938454, 97, 145, 160, 272
-0.93885, 65, 257, 192, 500
-0.939078, 129, 1, 256, 500
-0.939236, 1, 113, 64, 240
-0.939944, 1, 113, 128, 240
-0.940598, 129, 369, 256, 496
-0.940637, 209, 129, 333, 384
-0.941039, 113, 321, 176, 384
-0.941158, 137, 305, 200, 432
-0.941935, 65, 17, 320, 144
-0.942572, 1, 129, 256, 256
-0.943087, 209, 369, 333, 496
-0.943481, 49, 81, 176, 208
-0.944016, 113, 361, 176, 424
-0.944382, 33, 33, 160, 160
-0.944858, 97, 33, 160, 160
-0.945005, 33, 129, 96, 256
-0.945947, 201, 369, 264, 496
-0.946029, 129, 353, 192, 480
-0.946043, 33, 369, 160, 496
-0.94639, 73, 161, 136, 288
-0.948061, 49, 145, 112, 208
-0.948175, 81, 369, 208, 496
-0.948196, 273, 369, 333, 496
-0.948282, 41, 49, 104, 176
-0.948511, 169, 353, 232, 480
-0.949562, 1, 305, 333, 432
-0.950145, 25, 185, 88, 248
-0.950645, 49, 1, 112, 128
-0.950687, 1, 161, 128, 288
-0.950874, 1, 305, 256, 432
-0.951232, 89, 161, 152, 224
-0.952481, 65, 185, 128, 248
-0.952597, 153, 369, 216, 432
-0.953561, 129, 33, 256, 288
-0.953565, 1, 177, 256, 304
-0.954282, 81, 369, 144, 496
-0.954491, 105, 385, 168, 448
-0.95645, 1, 161, 64, 224
-0.95661, 273, 33, 333, 160
-0.956694, 9, 177, 72, 304
-0.956701, 249, 369, 312, 496
-0.956941, 41, 177, 104, 304
-0.957198, 225, 369, 288, 496
-0.957367, 81, 401, 144, 464
-0.957786, 49, 305, 176, 432
-0.957802, 81, 113, 144, 176
-0.958096, 201, 377, 264, 440
-0.958365, 137, 345, 200, 408
-0.958706, 105, 185, 168, 248
-0.95894, 89, 137, 152, 200
-0.959486, 105, 97, 168, 224
-0.959531, 265, 393, 328, 456
-0.960867, 65, 1, 128, 64
-0.961457, 209, 321, 333, 448
-0.961652, 65, 25, 128, 88
-0.961833, 1, 369, 64, 496
-0.962183, 1, 65, 64, 192
-0.962337, 129, 305, 160, 432
-0.962424, 49, 121, 112, 184
-0.963068, 233, 393, 296, 456
-0.963069, 273, 81, 333, 208
-0.963371, 53, 129, 84, 256
-0.963781, 33, 81, 96, 144
-0.964369, 1, 185, 64, 248
-0.964598, 41, 1, 104, 64
-0.964673, 113, 353, 144, 416
-0.964799, 113, 353, 144, 480
-0.965267, 25, 1, 88, 128
-0.9653, 49, 1, 112, 256
-0.965381, 177, 369, 240, 432
-0.965445, 81, 89, 144, 152
-0.965807, 65, 209, 128, 272
-0.966302, 149, 353, 180, 416
-0.967092, 9, 137, 72, 200
-0.967381, 89, 425, 152, 488
-0.967429, 1, 145, 128, 208
-0.967476, 81, 1, 144, 256
-0.967729, 25, 113, 88, 176
-0.967804, 89, 41, 152, 104
-0.967898, 65, 193, 192, 320
-0.967946, 289, 1, 320, 128
-0.968072, 1, 89, 64, 152
-0.968125, 13, 129, 44, 256
-0.968289, 65, 49, 128, 112
-0.968337, 25, 161, 88, 224
-0.968602, 301, 65, 332, 192
-0.968751, 5, 137, 36, 200
-0.968839, 5, 161, 36, 224
-0.968938, 65, 97, 96, 160
-0.968993, 129, 321, 160, 384
-0.969305, 149, 329, 180, 392
-0.969547, 113, 329, 144, 392
-0.969662, 289, 17, 320, 80
-0.969761, 273, 41, 333, 104
-0.969876, 25, 113, 56, 240
-0.969899, 1, 65, 64, 320
-0.970024, 113, 361, 240, 424
-0.97007, 1, 129, 32, 256
-0.970096, 69, 81, 100, 208
-0.970102, 1, 377, 64, 440
-0.970181, 121, 161, 152, 224
-0.970191, 149, 305, 180, 432
-0.970357, 49, 97, 112, 352
-0.97058, 109, 401, 140, 464
-0.970587, 137, 393, 200, 456
-0.9706, 161, 305, 224, 432
-0.970716, 77, 129, 108, 192
-0.970732, 145, 321, 272, 448
-0.970776, 129, 361, 160, 424
-0.970894, 97, 273, 224, 400
-0.970993, 109, 33, 140, 96
-0.971134, 273, 97, 333, 160
-0.97125, 33, 41, 160, 104
-0.971337, 77, 177, 108, 240
-0.971346, 113, 145, 176, 208
-0.971479, 33, 369, 96, 496
-0.971584, 73, 129, 104, 256
-0.971633, 49, 161, 176, 224
-0.97168, 1, 177, 128, 240
-0.971778, 81, 321, 144, 448
-0.971783, 89, 129, 152, 384
-0.971832, 89, 9, 152, 72
-0.971873, 9, 1, 72, 64
-0.97191, 273, 17, 333, 80
-0.971952, 85, 33, 116, 160
-0.972, 65, 121, 96, 184
-0.972057, 105, 65, 136, 192
-0.97206, 57, 97, 120, 160
-0.972128, 1, 65, 64, 128
-0.972241, 113, 113, 144, 240
-0.972336, 81, 33, 208, 160
-0.972388, 117, 49, 148, 176
-0.972402, 53, 169, 84, 232
-0.972674, 97, 393, 224, 456
-0.972764, 97, 337, 224, 400
-0.972773, 37, 113, 68, 240
-0.972791, 105, 81, 168, 144
-0.972865, 117, 305, 148, 432
-0.972942, 273, 177, 333, 304
-0.972957, 25, 33, 88, 288
-0.972963, 49, 137, 176, 200
-0.972995, 93, 113, 124, 240
-0.973018, 113, 297, 176, 360
-0.973073, 193, 409, 256, 472
-0.97311, 1, 1, 64, 128
-0.973141, 81, 337, 144, 400
-0.973154, 45, 201, 76, 264
-0.973433, 97, 161, 128, 288
-0.973819, 133, 353, 164, 480
-0.974261, 17, 153, 48, 216
-0.974464, 77, 105, 108, 168
-0.974566, 65, 177, 96, 240
-0.974569, 257, 417, 320, 480
-0.97471, 121, 161, 184, 288
-0.974854, 73, 153, 104, 216
-0.974912, 273, 369, 333, 432
-0.97501, 37, 177, 68, 240
-0.975016, 41, 57, 104, 120
-0.975037, 109, 137, 140, 200
-0.975178, 37, 161, 68, 288
-0.975236, 1, 185, 32, 248
-0.975348, 249, 369, 312, 432
-0.975385, 125, 129, 156, 256
-0.975438, 33, 105, 160, 168
-0.975543, 41, 209, 104, 272
-0.975614, 209, 1, 333, 128
-0.975707, 97, 169, 128, 232
-0.97582, 137, 393, 168, 456
-0.975975, 53, 137, 84, 200
-0.976052, 89, 129, 120, 192
-0.976118, 33, 401, 96, 464
-0.976186, 17, 401, 144, 464
-0.976205, 209, 113, 333, 240
-0.976271, 1, 113, 64, 176
-0.976315, 273, 129, 333, 256
-0.976334, 201, 353, 232, 480
-0.976371, 113, 97, 240, 224
-0.976384, 73, 1, 104, 64
-0.976456, 217, 369, 248, 496
-0.976572, 89, 361, 152, 424
-0.976603, 85, 33, 116, 96
-0.976636, 1, 321, 128, 448
-0.976697, 161, 369, 288, 432
-0.976746, 25, 113, 56, 176
-0.976833, 97, 401, 128, 464
-0.976897, 41, 25, 104, 88
-0.976898, 253, 393, 284, 456
-0.976993, 57, 65, 88, 192
-0.977034, 241, 393, 272, 456
-0.977228, 69, 1, 100, 128
-0.977267, 273, 305, 333, 432
-0.97727, 97, 17, 128, 80
-0.97727, 69, 25, 100, 88
-0.977323, 89, 313, 152, 376
-0.977396, 145, 305, 176, 368
-0.977498, 33, 17, 160, 80
-0.977574, 225, 417, 288, 480
-0.977621, 49, 65, 176, 128
-0.977636, 25, 161, 56, 288
-0.977647, 45, 97, 76, 160
-0.977698, 177, 353, 208, 480
-0.977781, 209, 393, 333, 456
-0.977828, 209, 49, 333, 176
-0.977851, 85, 161, 116, 288
-0.97789, 181, 369, 212, 432
-0.977924, 169, 345, 232, 408
-0.977966, 301, 105, 332, 168
-0.978112, 53, 177, 84, 304
-0.978114, 201, 369, 232, 432
-0.978116, 25, 185, 56, 248
-0.978143, 57, 73, 88, 136
-0.978237, 77, 201, 108, 264
-0.978275, 273, 65, 333, 128
-0.978404, 273, 33, 333, 288
-0.978445, 101, 369, 132, 496
-0.978461, 93, 97, 124, 160
-0.978522, 209, 273, 333, 400
-0.978555, 5, 81, 36, 208
-0.978561, 249, 33, 312, 160
-0.978688, 17, 369, 144, 432
-0.978706, 113, 209, 176, 272
-0.978736, 121, 41, 152, 104
-0.978858, 33, 257, 160, 384
-0.978958, 61, 209, 92, 272
-0.978958, 145, 313, 208, 376
-0.979004, 109, 177, 140, 240
-0.979012, 121, 129, 152, 192
-0.979065, 273, 393, 304, 456
-0.979109, 1, 225, 333, 352
-0.979134, 65, 177, 96, 304
-0.979231, 201, 321, 264, 448
-0.979252, 81, 81, 112, 208
-0.979305, 17, 425, 144, 488
-0.979346, 113, 65, 144, 128
-0.97937, 65, 425, 128, 488
-0.979515, 109, 201, 140, 264
-0.979561, 121, 113, 184, 176
-0.979698, 85, 153, 116, 216
-0.979803, 273, 201, 333, 264
-0.979874, 213, 377, 244, 440
-0.979889, 273, 121, 333, 184
-0.979919, 121, 33, 184, 160
-0.979959, 97, 313, 224, 376
-0.980119, 105, 257, 168, 500
-0.980145, 101, 17, 132, 144
-0.980281, 189, 353, 220, 480
-0.980292, 81, 1, 144, 500
-0.980409, 209, 417, 333, 480
-0.98057, 9, 209, 72, 272
-0.98061, 85, 9, 116, 72
-0.980842, 113, 409, 176, 472
-0.980848, 225, 385, 256, 448
-0.981034, 85, 417, 116, 480
-0.981137, 129, 81, 192, 208
-0.981247, 253, 369, 284, 496
-0.981269, 129, 185, 192, 248
-0.981289, 89, 209, 120, 272
-0.981317, 197, 401, 228, 464
-0.981401, 9, 1, 40, 64
-0.98143, 169, 417, 232, 480
-0.981435, 97, 41, 128, 104
-0.981509, 49, 321, 176, 384
-0.981533, 265, 369, 296, 496
-0.981572, 113, 105, 144, 168
-0.981606, 265, 145, 328, 208
-0.981609, 121, 185, 152, 248
-0.981683, 89, 209, 152, 272
-0.981697, 117, 305, 148, 368
-0.981787, 293, 41, 324, 104
-0.981871, 65, 361, 128, 424
-0.981909, 301, 1, 332, 128
-0.981947, 65, 193, 128, 448
-0.981949, 105, 1, 168, 256
-0.981952, 5, 177, 36, 304
-0.981979, 229, 369, 260, 496
-0.982071, 17, 209, 144, 336
-0.982167, 61, 1, 92, 64
-0.982202, 249, 33, 312, 96
-0.98221, 73, 57, 104, 120
-0.982225, 49, 185, 176, 248
-0.982282, 37, 121, 68, 184
-0.982289, 145, 257, 208, 500
-0.982301, 125, 385, 156, 448
-0.982424, 109, 161, 140, 288
-0.982571, 209, 353, 333, 416
-0.982602, 293, 385, 324, 448
-0.98266, 13, 185, 44, 248
-0.982765, 273, 257, 333, 384
-0.982874, 113, 377, 144, 440
-0.98289, 17, 81, 48, 144
-0.982912, 113, 257, 176, 384
-0.982969, 65, 425, 192, 488
-0.982992, 17, 49, 48, 176
-0.983009, 21, 377, 52, 440
-0.983055, 249, 57, 312, 120
-0.98319, 113, 1, 144, 128
-0.983374, 9, 161, 72, 416
-0.983409, 241, 369, 272, 496
-0.983445, 25, 425, 88, 488
-0.983488, 93, 73, 124, 136
-0.983701, 273, 177, 333, 240
-0.983756, 49, 1, 80, 64
-0.983774, 1, 113, 32, 176
-0.983785, 161, 409, 288, 472
-0.983826, 297, 81, 328, 144
-0.983844, 113, 433, 176, 496
-0.983971, 17, 369, 48, 496
-0.984101, 209, 225, 333, 352
-0.984107, 285, 369, 316, 496
-0.984138, 1, 1, 64, 500
-0.984166, 209, 161, 333, 288
-0.984227, 233, 321, 296, 448
-0.984273, 29, 153, 60, 216
-0.984356, 97, 145, 224, 272
-0.984384, 1, 209, 128, 272
-0.984449, 33, 345, 160, 408
-0.984554, 273, 1, 333, 500
-0.984616, 101, 377, 132, 440
-0.984619, 273, 329, 333, 392
-0.984647, 145, 273, 272, 400
-0.984681, 13, 105, 44, 168
-0.984709, 1, 81, 128, 144
-0.984716, 301, 129, 332, 192
-0.984863, 81, 113, 208, 176
-0.984873, 161, 353, 192, 480
-0.984895, 301, 17, 332, 80
-0.98504, 105, 1, 168, 500
-0.985115, 49, 41, 80, 104
-0.985115, 161, 361, 192, 424
-0.985132, 145, 161, 272, 416
-0.985169, 37, 65, 68, 192
-0.985246, 109, 425, 140, 488
-0.985517, 161, 337, 192, 400
-0.98563, 113, 49, 176, 112
-0.985642, 297, 353, 328, 480
-0.985659, 29, 369, 60, 496
-0.985714, 113, 161, 176, 416
-0.985716, 17, 33, 80, 96
-0.985737, 133, 177, 164, 304
-0.985951, 209, 25, 333, 88
-0.98614, 57, 1, 120, 500
-0.986154, 25, 1, 88, 500
-0.986408, 113, 417, 240, 480
-0.986462, 249, 9, 312, 72
-0.986527, 125, 81, 156, 144
-0.986565, 1, 401, 64, 464
-0.98657, 133, 177, 164, 240
-0.986615, 81, 41, 208, 104
-0.986623, 161, 305, 192, 432
-0.986677, 65, 369, 192, 432
-0.986729, 41, 145, 72, 208
-0.986875, 97, 193, 160, 320
-0.986959, 273, 17, 304, 144
-0.987077, 201, 353, 264, 416
-0.987228, 97, 137, 224, 200
-0.987237, 225, 369, 288, 432
-0.987256, 169, 321, 232, 384
-0.987404, 1, 89, 32, 152
-0.987417, 145, 337, 272, 400
-0.98749, 101, 321, 132, 384
-0.987511, 1, 353, 64, 416
-0.987516, 129, 49, 256, 176
-0.987535, 273, 129, 333, 384
-0.98759, 273, 305, 333, 368
-0.987704, 57, 401, 120, 464
-0.987704, 297, 209, 328, 336
-0.987738, 41, 17, 72, 144
-0.987804, 49, 181, 112, 212
-0.987823, 105, 361, 168, 392
-0.987849, 33, 209, 64, 272
-0.987946, 125, 105, 156, 168
-0.987947, 129, 353, 192, 384
-0.987995, 81, 209, 112, 336
-0.988066, 33, 81, 64, 144
-0.988087, 33, 193, 96, 448
-0.988104, 149, 385, 180, 448
-0.988157, 113, 325, 176, 356
-0.988205, 133, 129, 164, 192
-0.988221, 97, 169, 224, 232
-0.988249, 113, 377, 176, 408
-0.988262, 65, 385, 320, 448
-0.988345, 77, 81, 108, 144
-0.988467, 185, 417, 216, 480
-0.988467, 5, 369, 36, 496
-0.988475, 161, 393, 224, 456
-0.988496, 145, 305, 272, 368
-0.988513, 97, 181, 160, 212
-0.988564, 65, 209, 128, 336
-0.988608, 9, 1, 40, 128
-0.98861, 121, 177, 152, 304
-0.988748, 241, 369, 272, 432
-0.988759, 113, 193, 240, 320
-0.988772, 157, 305, 188, 368
-0.98879, 273, 225, 333, 288
-0.988793, 133, 153, 164, 216
-0.988843, 121, 17, 152, 80
-0.988859, 241, 401, 304, 432
-0.988875, 33, 193, 96, 224
-0.988881, 201, 413, 264, 444
-0.988948, 73, 169, 136, 200
-0.98897, 105, 397, 168, 428
-0.98899, 33, 377, 96, 440
-0.988999, 97, 425, 128, 488
-0.989029, 45, 73, 76, 136
-0.989087, 289, 49, 320, 176
-0.989107, 225, 417, 288, 448
-0.98911, 273, 225, 333, 480
-0.989165, 109, 9, 140, 72
-0.989176, 89, 145, 152, 176
-0.989185, 209, 137, 333, 200
-0.9892, 149, 353, 180, 480
-0.989259, 81, 273, 144, 400
-0.989264, 81, 17, 208, 80
-0.989278, 9, 169, 72, 200
-0.989279, 57, 29, 120, 60
-0.989292, 105, 349, 168, 380
-0.989309, 97, 65, 224, 128
-0.989332, 129, 365, 192, 396
-0.989347, 49, 157, 112, 188
-0.989353, 81, 117, 144, 148
-0.989356, 109, 209, 140, 336
-0.989357, 21, 1, 52, 64
-0.98936, 89, 425, 152, 456
-0.989364, 65, 209, 192, 272
-0.989405, 25, 181, 88, 212
-0.989423, 57, 209, 120, 240
-0.989426, 169, 257, 232, 500
-0.989466, 113, 337, 176, 368
-0.989488, 57, 197, 120, 228
-0.989492, 53, 1, 84, 128
-0.989498, 49, 133, 112, 164
-0.989522, 25, 145, 88, 176
-0.989536, 293, 145, 324, 272
-0.989544, 209, 329, 333, 392
-0.989566, 301, 433, 332, 496
-0.989605, 89, 157, 152, 188
-0.989625, 257, 417, 288, 480
-0.989647, 33, 393, 64, 456
-0.989667, 141, 257, 172, 384
-0.989668, 49, 169, 112, 200
-0.98967, 101, 321, 132, 448
-0.989671, 121, 425, 152, 488
-0.989674, 293, 361, 324, 424
-0.989705, 73, 17, 136, 48
-0.98971, 41, 221, 104, 252
-0.989721, 1, 433, 64, 496
-0.989733, 245, 417, 276, 480
-0.989742, 117, 257, 148, 384
-0.989785, 73, 185, 136, 216
-0.989806, 113, 89, 240, 152
-0.989924, 97, 409, 160, 440
-0.989964, 273, 281, 333, 344
-0.989965, 41, 121, 104, 152
-0.98999, 81, 37, 144, 68
-0.98999, 49, 145, 112, 176
-0.989999, 17, 205, 80, 236
-0.99003, 1, 385, 64, 416
-0.990039, 97, 169, 160, 200
-0.990041, 1, 101, 64, 132
-0.990065, 81, 129, 144, 160
-0.990065, 97, 49, 160, 80
-0.990068, 9, 157, 72, 188
-0.990091, 49, 1, 112, 32
-0.990117, 1, 361, 256, 424
-0.990133, 25, 1, 56, 128
-0.990136, 209, 49, 333, 112
-0.990157, 121, 25, 184, 88
-0.990166, 249, 413, 312, 444
-0.990208, 1, 1, 64, 32
-0.990226, 1, 189, 64, 220
-0.990232, 265, 425, 328, 456
-0.99027, 41, 73, 104, 104
-0.990285, 97, 193, 160, 224
-0.990321, 1, 377, 32, 440
-0.990326, 33, 13, 96, 44
-0.990331, 121, 313, 184, 344
-0.990341, 129, 33, 160, 160
-0.990348, 297, 185, 328, 248
-0.990422, 153, 357, 216, 388
-0.990432, 209, 397, 272, 428
-0.99045, 273, 397, 333, 428
-0.990467, 81, 217, 144, 248
-0.990474, 1, 57, 32, 120
-0.990475, 177, 373, 240, 404
-0.990489, 57, 101, 120, 132
-0.990507, 17, 133, 80, 164
-0.990517, 1, 377, 333, 440
-0.990559, 25, 425, 56, 488
-0.990564, 273, 249, 333, 312
-0.990589, 129, 397, 192, 428
-0.990624, 17, 113, 80, 144
-0.990633, 25, 85, 88, 116
-0.990641, 129, 1, 192, 500
-0.990671, 285, 97, 316, 224
-0.99072, 81, 97, 144, 128
-0.990742, 73, 5, 136, 36
-0.99075, 289, 153, 320, 216
-0.990754, 121, 209, 152, 272
-0.990782, 209, 105, 333, 168
-0.990815, 1, 145, 64, 176
-0.990833, 65, 61, 128, 92
-0.990834, 253, 369, 284, 432
-0.990962, 273, 113, 333, 144
-0.990963, 297, 233, 328, 296
-0.990977, 1, 89, 64, 120
-0.991003, 73, 49, 136, 80
-0.991026, 81, 357, 144, 388
-0.991039, 57, 337, 120, 464
-0.991069, 97, 85, 160, 116
-0.991071, 81, 393, 144, 424
-0.991092, 301, 257, 332, 320
-0.991093, 81, 205, 144, 236
-0.991102, 269, 369, 300, 432
-0.991112, 105, 65, 168, 96
-0.991132, 185, 305, 216, 432
-0.991151, 273, 49, 333, 80
-0.991152, 285, 129, 316, 192
-0.991246, 105, 209, 168, 240
-0.991262, 105, 37, 168, 68
-0.991276, 273, 65, 304, 128
-0.99128, 161, 433, 288, 496
-0.991282, 1, 73, 64, 104
-0.991335, 273, 413, 333, 444
-0.991336, 153, 373, 216, 404
-0.991348, 121, 409, 184, 440
-0.991387, 273, 73, 333, 104
-0.991401, 213, 321, 244, 448
-0.991404, 89, 441, 152, 472
-0.991414, 65, 229, 128, 260
-0.991418, 81, 345, 144, 376
-0.991445, 65, 73, 320, 136
-0.991478, 25, 97, 88, 128
-0.991483, 273, 37, 333, 68
-0.991483, 273, 125, 333, 156
-0.9915, 233, 429, 296, 460
-0.991506, 201, 385, 264, 416
-0.991518, 81, 317, 144, 348
-0.991569, 153, 401, 216, 432
-0.99157, 273, 101, 333, 132
-0.991583, 281, 97, 312, 160
-0.991585, 129, 89, 192, 152
-0.991592, 65, 409, 320, 472
-0.991634, 97, 25, 160, 56
-0.991641, 41, 369, 72, 496
-0.991652, 225, 257, 288, 500
-0.991661, 113, 361, 144, 392
-0.991661, 145, 317, 208, 348
-0.991664, 105, 105, 168, 136
-0.991669, 65, 429, 128, 460
-0.991669, 265, 61, 328, 92
-0.991705, 113, 149, 176, 180
-0.991714, 89, 333, 152, 364
-0.991718, 273, 17, 333, 48
-0.991748, 73, 73, 136, 104
-0.991771, 65, 145, 320, 208
-0.991776, 121, 193, 184, 224
-0.99178, 121, 181, 184, 212
-0.991802, 57, 89, 120, 120
-0.991805, 277, 17, 308, 80
-0.991805, 25, 1, 88, 32
-0.991811, 209, 273, 333, 336
-0.991812, 137, 329, 200, 360
-0.991816, 129, 169, 192, 200
-0.991819, 137, 97, 168, 224
-0.991822, 273, 385, 333, 416
-0.991829, 297, 209, 328, 272
-0.99187, 137, 65, 200, 128
-0.991884, 9, 13, 72, 44
-0.991891, 25, 61, 88, 92
-0.991912, 1, 185, 32, 216
-0.991917, 73, 381, 136, 412
-0.991921, 273, 213, 333, 244
-0.991936, 153, 389, 216, 420
-0.991945, 113, 221, 176, 252
-0.991966, 177, 409, 240, 440
-0.991967, 149, 361, 180, 392
-0.991981, 257, 89, 320, 120
-0.991984, 273, 373, 333, 404
-0.991985, 33, 209, 64, 336
-0.991999, 65, 313, 128, 376
-0.992, 65, 153, 96, 184
-0.992003, 117, 169, 148, 200
-0.992013, 265, 157, 328, 188
-0.992022, 209, 305, 333, 368
-0.99205, 273, 169, 333, 200
-0.992051, 129, 257, 160, 384
-0.992062, 33, 157, 160, 188
-0.992063, 1, 321, 64, 448
-0.992067, 1, 173, 32, 204
-0.992067, 121, 129, 184, 160
-0.992068, 101, 225, 132, 288
-0.992073, 121, 117, 184, 148
-0.992074, 153, 345, 216, 376
-0.992093, 249, 49, 312, 80
-0.992098, 137, 161, 200, 224
-0.992101, 209, 249, 333, 312
-0.992108, 133, 361, 164, 392
-0.99211, 273, 181, 333, 212
-0.992137, 77, 149, 108, 180
-0.992144, 89, 229, 152, 260
-0.992146, 61, 169, 92, 200
-0.992147, 9, 25, 72, 56
-0.992152, 33, 25, 96, 56
-0.992156, 73, 413, 136, 444
-0.992182, 149, 317, 180, 348
-0.992194, 25, 49, 88, 80
-0.992198, 241, 381, 304, 412
-0.992204, 9, 145, 40, 176
-0.992215, 101, 413, 132, 444
-0.992218, 73, 205, 104, 236
-0.992221, 77, 177, 108, 208
-0.992223, 237, 413, 268, 444
-0.992244, 65, 189, 96, 220
-0.992257, 137, 397, 168, 428
-0.992265, 73, 21, 104, 52
-0.992268, 113, 53, 144, 84
-0.992274, 109, 401, 140, 432
-0.992286, 69, 121, 100, 152
-0.99229, 285, 17, 316, 48
-0.992292, 117, 181, 148, 212
-0.992301, 149, 349, 180, 380
-0.992302, 13, 177, 44, 208
-0.992313, 127, 321, 142, 384
-0.992321, 73, 165, 104, 196
-0.992334, 245, 401, 276, 432
-0.992343, 57, 133, 88, 164
-0.992344, 73, 133, 104, 164
-0.992344, 97, 177, 128, 208
-0.99235, 45, 177, 76, 208
-0.992352, 85, 161, 116, 192
-0.992357, 13, 189, 44, 220
-0.992363, 209, 1, 333, 64
-0.992364, 37, 117, 68, 148
-0.992369, 129, 325, 160, 356
-0.99237, 33, 185, 64, 216
-0.992371, 65, 1, 96, 32
-0.992374, 101, 41, 132, 72
-0.992379, 117, 329, 148, 360
-0.992381, 113, 349, 144, 380
-0.992401, 5, 157, 36, 188
-0.992407, 197, 409, 228, 440
-0.992409, 161, 329, 176, 392
-0.99241, 129, 189, 160, 220
-0.992418, 209, 225, 333, 288
-0.99242, 1, 197, 32, 228
-0.992426, 85, 9, 116, 40
-0.992458, 301, 133, 332, 164
-0.992466, 105, 65, 136, 96
-0.992466, 45, 205, 76, 236
-0.992471, 209, 161, 333, 224
-0.992479, 65, 109, 96, 140
-0.992483, 101, 129, 132, 160
-0.992485, 113, 373, 144, 404
-0.992486, 125, 49, 140, 112
-0.992498, 301, 121, 332, 152
-0.9925, 89, 121, 120, 152
-0.9925, 117, 157, 148, 188
-0.992506, 193, 73, 320, 136
-0.992516, 129, 201, 160, 232
-0.992521, 53, 153, 84, 184
-0.992526, 93, 425, 124, 456
-0.992532, 65, 105, 320, 168
-0.99254, 113, 429, 144, 460
-0.99254, 121, 401, 152, 432
-0.992541, 49, 165, 80, 196
-0.992543, 249, 417, 280, 448
-0.992551, 97, 233, 160, 296
-0.992553, 17, 165, 48, 196
-0.992559, 149, 333, 180, 364
-0.992579, 101, 53, 132, 84
-0.992585, 33, 197, 64, 228
-0.992591, 105, 25, 136, 56
-0.992598, 93, 21, 124, 52
-0.9926, 85, 201, 116, 232
-0.99261, 157, 305, 172, 368
-0.992617, 209, 201, 333, 264
-0.992618, 89, 33, 120, 64
-0.992619, 89, 369, 120, 496
-0.99262, 151, 321, 166, 384
-0.992626, 97, 165, 128, 196
-0.992628, 105, 213, 136, 244
-0.992636, 45, 189, 76, 220
-0.992639, 113, 201, 144, 232
-0.99264, 81, 189, 112, 220
-0.992647, 297, 109, 328, 140
-0.992647, 121, 41, 152, 72
-0.992649, 89, 141, 120, 172
-0.992651, 53, 113, 84, 144
-0.992652, 73, 97, 104, 128
-0.992654, 109, 113, 140, 144
-0.992657, 89, 221, 120, 252
-0.992661, 133, 349, 164, 380
-0.99267, 25, 121, 56, 152
-0.992675, 33, 173, 64, 204
-0.992676, 117, 329, 132, 392
-0.992685, 121, 133, 152, 164
-0.992686, 213, 413, 244, 444
-0.992691, 289, 61, 320, 92
-0.992693, 289, 37, 320, 68
-0.992695, 113, 93, 144, 124
-0.992698, 113, 373, 240, 404
-0.992701, 61, 217, 92, 248
-0.992706, 293, 89, 324, 120
-0.992706, 9, 1, 40, 32
-0.992708, 113, 317, 144, 348
-0.992712, 13, 201, 44, 232
-0.992714, 15, 161, 30, 224
-0.992715, 269, 401, 300, 432
-0.99272, 57, 205, 88, 236
-0.992729, 109, 141, 140, 172
-0.992745, 225, 413, 256, 444
-0.992746, 257, 401, 288, 432
-0.992746, 1, 133, 32, 164
-0.99276, 93, 189, 124, 220
-0.992762, 233, 401, 264, 432
-0.992783, 45, 137, 76, 168
-0.992797, 109, 81, 140, 112
-0.992798, 57, 13, 88, 44
-0.992799, 41, 217, 72, 248
-0.992803, 129, 1, 256, 128
-0.992813, 113, 413, 144, 444
-0.992828, 93, 81, 124, 112
-0.992836, 25, 153, 56, 184
-0.992836, 75, 137, 90, 200
-0.992836, 21, 133, 52, 164
-0.992837, 41, 105, 72, 136
-0.992851, 71, 105, 86, 168
-0.992854, 89, 109, 120, 140
-0.992859, 129, 381, 160, 412
-0.992861, 29, 1, 60, 32
-0.992862, 105, 153, 136, 184
-0.992863, 69, 33, 100, 64
-0.992865, 53, 97, 84, 128
-0.992876, 121, 121, 152, 152
-0.992876, 293, 77, 324, 108
-0.992877, 153, 289, 216, 352
-0.992879, 117, 69, 148, 100
-0.992883, 37, 153, 68, 184
-0.992885, 85, 97, 116, 128
-0.992886, 25, 109, 56, 140
-0.992888, 169, 357, 200, 388
-0.992893, 129, 177, 160, 208
-0.992898, 21, 385, 52, 416
-0.992901, 289, 397, 320, 428
-0.992916, 77, 217, 108, 248
-0.992925, 117, 389, 148, 420
-0.992929, 193, 373, 224, 404
-0.992929, 297, 257, 328, 384
-0.992934, 87, 185, 102, 248
-0.992939, 149, 361, 164, 424
-0.992948, 123, 137, 138, 200
-0.992983, 33, 225, 288, 352
-0.993072, 49, 169, 176, 200
-0.993115, 33, 145, 160, 176
-0.993129, 67, 137, 82, 200
-0.993129, 47, 185, 62, 248
-0.993136, 5, 161, 20, 224
-0.99314, 1, 185, 16, 248
-0.993211, 125, 185, 140, 248
-0.993219, 117, 305, 132, 368
-0.993233, 113, 57, 128, 120
-0.99324, 81, 121, 96, 184
-0.993251, 107, 401, 122, 464
-0.993263, 87, 145, 102, 208
-0.99329, 1, 401, 333, 464
-0.993319, 97, 161, 112, 224
-0.993322, 71, 161, 86, 224
-0.993372, 145, 257, 208, 384
-0.993379, 115, 145, 130, 208
-0.993384, 249, 81, 312, 144
-0.99339, 131, 361, 146, 424
-0.993394, 105, 161, 120, 224
-0.993422, 1, 113, 333, 176
-0.993448, 77, 185, 92, 248
-0.993467, 101, 257, 132, 384
-0.993478, 99, 41, 114, 104
-0.993531, 1, 89, 333, 152
-0.993546, 1, 181, 128, 212
-0.993558, 107, 33, 122, 96
-0.993571, 97, 361, 224, 392
-0.993614, 115, 193, 130, 256
-0.99367, 113, 385, 128, 448
-0.993718, 173, 305, 204, 432
-0.993722, 21, 161, 36, 224
-0.993728, 129, 65, 192, 320
-0.993728, 143, 369, 158, 432
-0.993729, 293, 305, 324, 432
-0.993794, 111, 121, 126, 184
-0.993804, 41, 177, 56, 240
-0.993816, 19, 137, 34, 200
-0.993857, 155, 353, 170, 416
-0.993858, 119, 33, 134, 96
-0.993863, 73, 289, 136, 352
-0.993875, 59, 129, 74, 192
-0.993879, 233, 321, 264, 448
-0.993906, 131, 121, 146, 184
-0.993945, 139, 185, 154, 248
-0.993949, 9, 185, 24, 248
-0.99396, 125, 73, 140, 136
-0.993973, 49, 201, 176, 232
-0.993974, 193, 257, 256, 500
-0.994007, 133, 169, 148, 232
-0.994009, 139, 329, 154, 392
-0.994024, 65, 433, 320, 496
-0.994053, 65, 289, 192, 352
-0.994062, 201, 305, 232, 432
-0.994069, 33, 133, 160, 164
-0.994069, 49, 189, 176, 220
-0.994075, 117, 353, 132, 416
-0.994092, 125, 161, 140, 224
-0.994101, 249, 1, 312, 500
-0.994105, 105, 129, 120, 192
-0.994122, 81, 329, 208, 360
-0.994135, 307, 17, 322, 80
-0.994137, 65, 41, 320, 104
-0.994144, 81, 161, 96, 224
-0.99415, 37, 113, 52, 176
-0.994152, 129, 33, 256, 96
-0.994155, 93, 137, 108, 200
-0.994173, 1, 169, 128, 200
-0.994189, 25, 233, 88, 296
-0.994296, 97, 401, 224, 432
-0.994297, 99, 137, 114, 200
-0.994306, 119, 401, 134, 464
-0.994308, 33, 185, 48, 248
-0.994329, 81, 9, 96, 72
-0.994348, 63, 169, 78, 232
-0.994352, 65, 9, 320, 72
-0.994377, 89, 9, 104, 72
-0.994387, 27, 145, 42, 208
-0.994392, 103, 65, 118, 128
-0.994394, 81, 97, 96, 160
-0.994444, 21, 185, 36, 248
-0.994454, 291, 9, 306, 72
-0.994462, 29, 121, 44, 184
-0.994484, 123, 353, 138, 416
-0.994502, 33, 45, 160, 76
-0.994514, 51, 153, 66, 216
-0.994521, 33, 393, 160, 424
-0.994529, 121, 105, 136, 168
-0.994529, 75, 9, 90, 72
-0.99454, 209, 369, 224, 432
-0.994546, 193, 417, 320, 448
-0.99455, 97, 17, 112, 80
-0.994562, 17, 381, 144, 412
-0.994566, 11, 137, 26, 200
-0.994574, 197, 369, 212, 432
-0.99459, 87, 113, 102, 176
-0.994592, 1, 1, 128, 32
-0.994599, 115, 81, 130, 144
-0.994599, 253, 393, 268, 456
-0.994605, 115, 169, 130, 232
-0.994615, 1, 193, 128, 224
-0.994618, 193, 433, 256, 496
-0.994635, 97, 341, 224, 372
-0.994637, 133, 321, 148, 384
-0.994648, 109, 209, 124, 272
-0.994652, 263, 393, 278, 456
-0.994652, 131, 145, 146, 208
-0.994677, 113, 33, 128, 96
-0.99469, 1, 209, 256, 272
-0.994703, 145, 145, 272, 272
-0.994711, 103, 9, 118, 72
-0.994722, 149, 385, 164, 448
-0.994742, 105, 89, 120, 152
-0.994744, 131, 57, 146, 120
-0.994747, 57, 177, 72, 240
-0.994763, 225, 345, 288, 408
-0.994772, 193, 401, 320, 432
-0.994788, 33, 121, 160, 152
-0.99479, 1, 137, 333, 200
-0.994825, 1, 65, 333, 128
-0.994849, 135, 97, 150, 160
-0.994863, 65, 113, 80, 176
-0.994871, 129, 97, 144, 160
-0.994874, 49, 69, 176, 100
-0.994898, 145, 185, 160, 248
-0.994919, 241, 385, 256, 448
-0.994933, 33, 425, 160, 456
-0.994965, 1, 185, 256, 248
-0.994978, 47, 209, 62, 272
-0.994999, 61, 65, 92, 320
-0.995054, 67, 41, 82, 104
-0.995054, 35, 161, 50, 224
-0.995064, 129, 113, 256, 176
-0.995073, 45, 113, 60, 176
-0.995081, 201, 401, 216, 464
-0.995101, 5, 137, 20, 200
-0.995119, 33, 109, 160, 140
-0.995123, 137, 353, 152, 416
-0.995128, 71, 81, 86, 144
-0.995129, 71, 185, 86, 248
-0.995136, 247, 401, 262, 464
-0.99515, 19, 1, 34, 64
-0.995159, 317, 73, 332, 136
-0.995166, 97, 413, 224, 444
-0.995168, 93, 97, 108, 160
-0.995171, 203, 369, 218, 432
-0.995173, 101, 417, 116, 480
-0.995208, 69, 9, 84, 72
-0.99524, 1, 205, 128, 236
-0.995244, 145, 321, 160, 384
-0.995272, 19, 113, 34, 176
-0.995286, 15, 185, 30, 248
-0.995323, 93, 185, 108, 248
-0.995344, 99, 193, 114, 256
-0.995348, 65, 329, 320, 392
-0.995354, 17, 33, 144, 64
-0.995358, 273, 393, 288, 456
-0.995363, 65, 201, 80, 264
-0.995374, 49, 89, 176, 120
-0.995374, 105, 185, 120, 248
-0.995382, 129, 401, 144, 464
-0.995406, 145, 389, 272, 420
-0.995427, 209, 377, 333, 408
-0.995432, 33, 233, 160, 296
-0.995437, 89, 209, 104, 272
-0.995444, 125, 25, 140, 88
-0.995444, 91, 33, 106, 96
-0.995447, 17, 409, 144, 440
-0.995453, 119, 217, 134, 280
-0.995466, 311, 41, 326, 104
-0.995545, 1, 425, 333, 488
-0.995561, 1, 1, 333, 64
-0.995574, 37, 89, 52, 152
-0.99558, 1, 113, 16, 176
-0.995662, 57, 201, 72, 264
-0.995677, 49, 353, 176, 384
-0.995716, 113, 193, 240, 256
-0.995721, 163, 353, 178, 416
-0.995723, 139, 393, 154, 456
-0.995729, 97, 317, 224, 348
-0.99574, 215, 369, 230, 432
-0.99574, 1, 21, 128, 52
-0.995742, 85, 65, 116, 320
-0.995769, 235, 385, 250, 448
-0.995788, 191, 369, 206, 432
-0.995824, 1, 73, 128, 104
-0.995845, 21, 209, 52, 336
-0.995845, 33, 57, 160, 88
-0.995863, 113, 1, 144, 256
-0.995912, 21, 321, 52, 448
-0.995936, 17, 297, 144, 360
-0.996033, 209, 365, 333, 396
-0.996066, 1, 437, 128, 468
-0.996093, 145, 281, 272, 344
-0.996113, 41, 225, 104, 352
-0.996151, 101, 1, 132, 256
-0.996174, 1, 41, 333, 104
-0.996215, 257, 321, 288, 448
-0.996221, 1, 353, 333, 416
-0.996242, 49, 1, 80, 256
-0.996257, 145, 417, 272, 448
-0.996287, 117, 317, 132, 348
-0.996316, 145, 177, 176, 304
-0.996322, 301, 1, 332, 256
-0.996333, 137, 137, 200, 200
-0.996338, 49, 213, 176, 244
-0.996348, 81, 125, 208, 156
-0.996362, 33, 321, 96, 448
-0.996363, 117, 353, 132, 384
-0.996378, 105, 161, 136, 416
-0.996389, 249, 1, 312, 256
-0.99639, 157, 313, 172, 344
-0.996463, 73, 1, 104, 256
-0.996463, 87, 205, 102, 236
-0.99648, 81, 137, 208, 168
-0.996493, 113, 273, 176, 336
-0.99653, 1, 221, 128, 252
-0.996535, 209, 33, 333, 64
-0.996538, 159, 353, 174, 384
-0.996573, 81, 425, 208, 456
-0.996583, 289, 1, 320, 256
-0.996611, 131, 357, 146, 388
-0.996625, 115, 201, 130, 232
-0.996628, 149, 357, 164, 388
-0.996651, 81, 157, 208, 188
-0.996657, 129, 193, 160, 448
-0.996672, 121, 149, 136, 180
-0.996694, 81, 53, 208, 84
-0.996703, 11, 197, 26, 228
-0.996707, 9, 157, 24, 188
-0.996709, 115, 161, 130, 192
-0.996727, 1, 197, 16, 228
-0.996729, 147, 197, 162, 228
-0.99673, 125, 49, 140, 80
-0.996733, 41, 185, 56, 216
-0.996745, 119, 33, 134, 64
-0.996747, 141, 397, 156, 428
-0.996765, 77, 13, 92, 44
-0.996772, 145, 417, 208, 480
-0.996787, 87, 5, 102, 36
-0.996807, 85, 193, 100, 224
-0.996825, 249, 413, 264, 444
-0.99683, 79, 185, 94, 216
-0.996837, 51, 177, 66, 208
-0.996846, 65, 377, 192, 408
-0.99685, 83, 137, 98, 168
-0.996854, 145, 349, 272, 380
-0.996856, 269, 321, 300, 448
-0.996856, 123, 81, 138, 112
-0.996865, 45, 129, 76, 384
-0.996882, 121, 61, 136, 92
-0.996895, 139, 193, 154, 224
-0.996896, 73, 145, 88, 176
-0.99691, 87, 153, 102, 184
-0.996914, 111, 41, 126, 72
-0.996932, 1, 85, 128, 116
-0.996938, 5, 169, 20, 200
-0.996948, 121, 161, 136, 192
-0.996953, 19, 193, 34, 224
-0.996966, 95, 149, 110, 180
-0.996967, 125, 325, 140, 356
-0.996968, 77, 133, 92, 164
-0.99697, 37, 201, 52, 232
-0.996999, 209, 445, 333, 476
-0.997012, 113, 213, 128, 244
-0.997019, 247, 401, 262, 432
-0.997019, 49, 437, 176, 468
-0.997021, 65, 9, 192, 40
-0.997023, 149, 393, 164, 424
-0.997027, 133, 181, 148, 212
-0.997032, 49, 341, 176, 372
-0.997036, 79, 1, 94, 32
-0.997057, 89, 165, 104, 196
-0.997067, 99, 165, 114, 196
-0.997072, 65, 25, 192, 56
-0.997074, 37, 113, 52, 144
-0.997075, 97, 169, 224, 200
-0.997076, 67, 141, 82, 172
-0.997076, 65, 173, 80, 204
-0.997082, 117, 177, 132, 208
-0.997083, 73, 97, 104, 352
-0.997089, 243, 413, 258, 444
-0.997096, 117, 49, 132, 80
-0.997099, 273, 65, 304, 192
-0.997109, 77, 369, 108, 496
-0.997111, 85, 17, 100, 48
-0.997114, 113, 65, 128, 96
-0.997119, 21, 65, 52, 320
-0.997121, 65, 157, 80, 188
-0.997123, 113, 137, 128, 168
-0.997129, 161, 341, 176, 372
-0.997136, 289, 17, 304, 48
-0.99714, 117, 161, 148, 416
-0.997151, 93, 193, 108, 224
-0.997152, 111, 149, 126, 180
-0.997161, 73, 189, 88, 220
-0.997162, 125, 357, 140, 388
-0.997169, 75, 161, 90, 192
-0.99717, 33, 329, 160, 360
-0.997171, 97, 17, 112, 48
-0.997173, 71, 113, 86, 144
-0.997175, 1, 185, 333, 248
-0.997177, 149, 321, 164, 352
-0.997178, 19, 145, 34, 176
-0.997181, 141, 361, 156, 392
-0.997183, 81, 121, 96, 152
-0.997184, 131, 129, 146, 160
-0.997188, 129, 169, 144, 200
-0.997189, 25, 137, 40, 168
-0.997196, 15, 177, 30, 208
-0.9972, 59, 173, 74, 204
-0.997203, 77, 205, 92, 236
-0.997211, 117, 397, 132, 428
-0.997212, 5, 185, 20, 216
-0.997213, 17, 449, 144, 480
-0.997215, 129, 429, 256, 460
-0.997218, 71, 17, 86, 48
-0.99723, 123, 181, 138, 212
-0.997232, 37, 33, 68, 288
-0.997237, 97, 209, 112, 240
-0.997238, 209, 429, 333, 460
-0.997243, 145, 361, 272, 392
-0.997246, 89, 321, 120, 448
-0.997248, 137, 325, 152, 356
-0.997265, 107, 165, 122, 196
-0.997266, 109, 125, 124, 156
-0.99728, 193, 45, 320, 76
-0.997293, 29, 169, 44, 200
-0.997295, 123, 401, 138, 432
-0.997297, 119, 337, 134, 368
-0.997303, 97, 181, 224, 212
-0.997303, 131, 149, 146, 180
-0.997306, 109, 53, 124, 84
-0.997306, 127, 345, 142, 376
-0.997306, 25, 189, 40, 220
-0.997306, 253, 401, 268, 432
-0.997307, 103, 77, 118, 108
-0.997315, 101, 61, 116, 92
-0.997315, 115, 413, 130, 444
-0.997332, 57, 161, 72, 192
-0.997333, 103, 137, 118, 168
-0.997338, 105, 149, 120, 180
-0.997338, 47, 189, 62, 220
-0.997341, 123, 205, 138, 236
-0.997357, 117, 365, 132, 396
-0.997369, 155, 333, 170, 364
-0.997371, 39, 173, 54, 204
-0.997376, 79, 149, 94, 180
-0.99738, 9, 145, 24, 176
-0.997388, 123, 137, 138, 168
-0.99739, 85, 161, 116, 416
-0.997392, 69, 225, 100, 352
-0.997393, 17, 369, 144, 400
-0.997405, 15, 165, 30, 196
-0.997408, 93, 133, 108, 164
-0.99741, 93, 181, 108, 212
-0.997413, 81, 233, 208, 296
-0.997417, 105, 33, 120, 64
-0.997419, 23, 1, 38, 32
-0.99742, 59, 185, 74, 216
-0.997424, 113, 85, 128, 116
-0.997428, 117, 257, 148, 500
-0.99743, 237, 413, 252, 444
-0.997432, 31, 133, 46, 164
-0.997432, 67, 185, 82, 216
-0.997433, 3, 153, 18, 184
-0.997436, 29, 149, 44, 180
-0.997437, 203, 405, 218, 436
-0.997441, 71, 173, 86, 204
-0.997447, 101, 45, 116, 76
-0.997453, 145, 401, 272, 432
-0.997453, 101, 125, 116, 156
-0.997456, 9, 97, 40, 352
-0.997457, 109, 409, 124, 440
-0.997467, 117, 189, 132, 220
-0.99747, 103, 213, 118, 244
-0.997473, 35, 185, 50, 216
-0.997473, 127, 65, 142, 96
-0.997475, 123, 117, 138, 148
-0.997476, 87, 125, 102, 156
-0.997478, 133, 117, 148, 148
-0.997479, 83, 173, 98, 204
-0.99748, 65, 205, 80, 236
-0.997488, 145, 337, 272, 368
-0.997535, 97, 389, 224, 420
-0.997537, 97, 201, 224, 232
-0.997577, 153, 1, 216, 500
-0.99758, 49, 317, 176, 348
-0.997605, 93, 209, 124, 336
-0.997618, 97, 213, 224, 244
-0.997619, 113, 113, 240, 144
-0.997631, 81, 101, 208, 132
-0.997643, 65, 225, 192, 256
-0.997654, 209, 141, 333, 172
-0.99767, 145, 321, 272, 352
-0.997732, 1, 161, 333, 224
-0.997737, 97, 65, 224, 96
-0.997773, 125, 33, 156, 288
-0.997792, 81, 41, 208, 72
-0.997798, 193, 389, 320, 420
-0.997857, 21, 193, 52, 448
-0.997869, 149, 257, 180, 500
-0.997877, 1, 97, 128, 128
-0.997932, 277, 1, 308, 256
-0.997934, 209, 57, 333, 88
-0.997956, 297, 129, 328, 384
-0.997958, 17, 469, 144, 500
-0.997973, 209, 17, 333, 48
-0.997975, 105, 257, 136, 500
-0.997976, 113, 441, 240, 472
-0.997981, 209, 129, 333, 160
-0.998019, 161, 377, 288, 408
-0.998095, 81, 257, 208, 320
-0.998111, 33, 353, 96, 416
-0.998126, 1, 1, 32, 256
-0.998142, 57, 161, 88, 416
-0.998156, 33, 129, 64, 384
-0.99817, 113, 77, 240, 108
-0.998219, 209, 1, 272, 500
-0.998308, 81, 457, 208, 488
-0.998342, 105, 369, 168, 384
-0.998371, 113, 89, 240, 120
-0.998375, 129, 369, 192, 384
-0.998376, 67, 113, 82, 240
-0.998376, 49, 179, 112, 194
-0.998382, 105, 359, 168, 374
-0.998384, 85, 129, 100, 256
-0.998393, 129, 357, 192, 372
-0.998395, 121, 329, 184, 344
-0.998395, 9, 193, 40, 448
-0.998395, 209, 273, 333, 304
-0.998395, 209, 285, 333, 316
-0.998395, 209, 297, 333, 328
-0.998395, 209, 309, 333, 340
-0.998399, 201, 415, 264, 430
-0.9984, 105, 375, 168, 390
-0.998402, 129, 363, 192, 378
-0.998403, 193, 73, 320, 104
-0.998408, 113, 1, 176, 64
-0.99842, 245, 321, 276, 448
-0.998421, 97, 181, 160, 196
-0.998422, 49, 195, 112, 210
-0.998427, 81, 133, 144, 148
-0.998435, 113, 399, 176, 414
-0.998435, 7, 129, 22, 256
-0.998437, 49, 189, 112, 204
-0.99844, 65, 173, 128, 188
-0.998443, 209, 321, 333, 352
-0.998445, 129, 53, 256, 84
-0.998445, 17, 175, 80, 190
-0.998445, 49, 161, 112, 176
-0.998448, 131, 305, 146, 432
-0.998451, 125, 33, 140, 160
-0.998453, 121, 81, 136, 208
-0.99846, 73, 185, 136, 200
-0.998463, 97, 191, 160, 206
-0.998464, 41, 173, 104, 188
-0.998465, 209, 261, 333, 292
-0.998466, 73, 17, 136, 32
-0.998467, 297, 225, 328, 480
-0.998467, 41, 131, 104, 146
-0.998469, 25, 203, 88, 218
-0.998471, 49, 9, 112, 24
-0.998471, 9, 187, 72, 202
-0.998472, 209, 341, 333, 372
-0.998473, 9, 193, 72, 208
-0.998474, 89, 429, 152, 444
-0.998475, 209, 353, 333, 384
-0.998478, 209, 153, 333, 184
-0.998479, 121, 319, 184, 334
-0.998482, 121, 335, 184, 350
-0.998483, 77, 149, 108, 164
-0.998483, 81, 219, 112, 234
-0.998483, 109, 147, 140, 162
-0.998484, 109, 141, 140, 156
-0.998484, 249, 419, 312, 434
-0.998484, 37, 175, 68, 190
-0.998484, 209, 165, 333, 196
-0.998484, 93, 207, 124, 222
-0.998485, 57, 127, 88, 142
-0.998485, 49, 167, 112, 182
-0.998486, 93, 21, 124, 36
-0.998488, 25, 183, 56, 198
-0.998489, 33, 193, 64, 208
-0.99849, 77, 9, 108, 24
-0.99849, 105, 381, 168, 396
-0.99849, 105, 413, 136, 428
-0.99849, 285, 43, 316, 58
-0.99849, 101, 419, 132, 434
-0.99849, 77, 117, 108, 132
-0.998491, 125, 375, 156, 390
-0.998491, 73, 113, 88, 240
-0.998491, 225, 417, 288, 432
-0.998492, 77, 169, 108, 184
-0.998493, 117, 161, 148, 176
-0.998493, 109, 179, 140, 194
-0.998494, 97, 139, 128, 154
-0.998494, 65, 209, 128, 224
-0.998495, 73, 179, 136, 194
-0.998495, 85, 127, 116, 142
-0.998496, 193, 421, 224, 436
-0.998496, 89, 37, 152, 52
-0.998496, 33, 207, 64, 222
-0.998496, 97, 405, 160, 420
-0.998497, 113, 95, 144, 110
-0.998498, 93, 39, 124, 54
-0.998498, 139, 305, 154, 432
-0.998498, 61, 17, 92, 32
-0.998498, 41, 225, 104, 240
-0.9985, 145, 375, 208, 390
-0.9985, 65, 29, 128, 44
-0.9985, 49, 13, 80, 28
-0.998501, 77, 195, 108, 210
-0.998501, 113, 347, 176, 362
-0.998503, 81, 167, 144, 182
-0.998504, 105, 353, 168, 368
-0.998504, 89, 133, 120, 148
-0.998504, 97, 425, 128, 440
-0.998504, 85, 229, 116, 244
-0.998504, 65, 151, 96, 166
-0.998506, 9, 181, 72, 196
-0.998506, 209, 113, 333, 144
-0.998508, 157, 365, 188, 380
-0.998509, 57, 149, 120, 164
-0.998509, 101, 131, 132, 146
-0.99851, 69, 65, 84, 192
-0.99851, 81, 53, 144, 68
-0.998512, 49, 165, 80, 180
-0.998512, 153, 315, 184, 330
-0.998512, 101, 53, 132, 68
-0.998512, 53, 151, 84, 166
-0.998513, 137, 375, 168, 390
-0.998513, 73, 157, 136, 172
-0.998514, 45, 199, 76, 214
-0.998514, 105, 37, 136, 52
-0.998515, 57, 203, 120, 218
-0.998515, 61, 209, 92, 224
-0.998515, 297, 117, 328, 132
-0.998516, 9, 1, 72, 16
-0.998518, 1, 387, 64, 402
-0.998518, 113, 59, 144, 74
-0.998518, 17, 169, 80, 184
-0.99852, 89, 151, 152, 166
-0.998521, 113, 353, 144, 368
-0.998523, 201, 421, 264, 436
-0.998523, 121, 193, 152, 208
-0.998523, 1, 175, 32, 190
-0.998523, 273, 401, 304, 416
-0.998524, 33, 199, 64, 214
-0.998524, 53, 215, 84, 230
-0.998525, 9, 163, 72, 178
-0.998525, 57, 135, 88, 150
-0.998526, 65, 221, 96, 236
-0.998527, 149, 337, 180, 352
-0.998527, 115, 337, 130, 464
-0.998528, 97, 165, 128, 180
-0.998528, 49, 137, 112, 152
-0.998529, 65, 223, 128, 238
-0.99853, 1, 195, 32, 210
-0.99853, 301, 129, 332, 144
-0.998531, 85, 175, 116, 190
-0.998534, 113, 51, 144, 66
-0.998534, 33, 151, 96, 166
-0.998534, 273, 399, 333, 414
-0.998535, 57, 111, 88, 126
-0.998535, 89, 435, 152, 450
-0.998535, 1, 149, 32, 164
-0.998536, 89, 115, 152, 130
-0.998537, 33, 1, 96, 16
-0.998538, 41, 119, 104, 134
-0.998538, 73, 127, 136, 142
-0.998539, 97, 175, 160, 190
-0.99854, 113, 185, 144, 200
-0.99854, 113, 429, 144, 444
-0.99854, 73, 121, 136, 136
-0.99854, 89, 31, 152, 46
-0.998541, 225, 417, 256, 432
-0.998541, 169, 375, 232, 390
-0.998541, 57, 35, 120, 50
-0.998541, 89, 145, 152, 160
-0.998541, 45, 117, 76, 132
-0.998542, 209, 249, 333, 280
-0.998542, 89, 325, 152, 340
-0.998542, 41, 125, 104, 140
-0.998542, 121, 407, 184, 422
-0.998543, 249, 419, 280, 434
-0.998545, 101, 31, 132, 46
-0.998546, 285, 19, 316, 34
-0.998546, 1, 199, 64, 214
-0.998547, 61, 201, 92, 216
-0.998547, 73, 11, 136, 26
-0.998547, 53, 171, 84, 186
-0.998548, 17, 145, 80, 160
-0.998548, 113, 313, 176, 328
-0.998548, 149, 351, 180, 366
-0.998548, 125, 201, 156, 216
-0.998549, 137, 399, 200, 414
-0.99855, 113, 97, 128, 224
-0.99855, 105, 43, 136, 58
-0.998551, 45, 205, 76, 220
-0.998551, 121, 179, 152, 194
-0.998552, 105, 55, 168, 70
-0.998552, 129, 341, 192, 356
-0.998552, 81, 203, 144, 218
-0.998553, 113, 393, 176, 408
-0.998553, 105, 207, 168, 222
-0.998553, 49, 189, 80, 204
-0.998553, 1, 109, 64, 124
-0.998553, 153, 369, 216, 384
-0.998555, 97, 179, 128, 194
-0.998555, 57, 73, 120, 88
-0.998555, 77, 157, 108, 172
-0.998556, 89, 197, 152, 212
-0.998556, 65, 117, 96, 132
-0.998556, 117, 405, 148, 420
-0.998556, 97, 173, 128, 188
-0.998557, 97, 413, 160, 428
-0.998558, 65, 215, 128, 230
-0.998558, 213, 415, 244, 430
-0.998561, 13, 209, 44, 224
-0.998562, 81, 23, 144, 38
-0.998562, 249, 401, 312, 416
-0.998562, 25, 75, 88, 90
-0.998563, 89, 121, 120, 136
-0.998563, 77, 203, 108, 218
-0.998563, 61, 165, 92, 180
-0.998564, 1, 101, 64, 116
-0.998564, 41, 15, 104, 30
-0.998565, 73, 191, 136, 206
-0.998565, 89, 43, 152, 58
-0.998566, 73, 229, 136, 244
-0.998567, 97, 157, 160, 172
-0.998567, 69, 127, 100, 142
-0.998567, 77, 17, 108, 32
-0.998568, 105, 341, 168, 356
-0.998569, 117, 167, 148, 182
-0.998569, 33, 83, 96, 98
-0.998571, 9, 157, 72, 172
-0.998571, 49, 21, 112, 36
-0.998572, 53, 159, 84, 174
-0.998572, 225, 423, 288, 438
-0.998572, 193, 89, 320, 120
-0.998572, 73, 137, 104, 152
-0.998572, 89, 139, 152, 154
-0.998573, 301, 123, 332, 138
-0.998573, 1, 181, 32, 196
-0.998577, 125, 321, 140, 448
-0.998578, 57, 43, 120, 58
-0.998578, 209, 457, 333, 488
-0.99858, 301, 135, 332, 150
-0.99858, 61, 113, 76, 240
-0.998581, 1, 135, 64, 150
-0.998581, 75, 161, 90, 288
-0.998582, 41, 231, 104, 246
-0.998584, 25, 209, 88, 224
-0.998587, 73, 31, 104, 46
-0.998588, 31, 129, 46, 256
-0.998588, 137, 359, 168, 374
-0.998588, 1, 77, 64, 92
-0.998589, 73, 59, 136, 74
-0.998589, 89, 319, 152, 334
-0.998589, 81, 181, 112, 196
-0.998589, 81, 101, 144, 116
-0.998589, 209, 177, 333, 208
-0.998589, 209, 189, 333, 220
-0.998589, 209, 201, 333, 232
-0.998589, 209, 213, 333, 244
-0.998589, 209, 225, 333, 256
-0.998589, 209, 237, 333, 268
-0.99859, 77, 187, 108, 202
-0.99859, 17, 95, 80, 110
-0.998591, 105, 69, 136, 84
-0.998592, 41, 29, 104, 44
-0.998592, 117, 337, 148, 352
-0.998593, 69, 177, 100, 192
-0.998593, 61, 185, 92, 200
-0.998593, 73, 209, 104, 224
-0.998595, 13, 183, 44, 198
-0.998595, 65, 143, 128, 158
-0.998595, 25, 137, 88, 152
-0.998596, 41, 89, 104, 104
-0.998596, 145, 305, 160, 432
-0.998597, 273, 113, 333, 128
-0.998597, 113, 199, 176, 214
-0.998597, 13, 177, 44, 192
-0.998598, 193, 101, 320, 132
-0.998598, 89, 419, 152, 434
-0.998599, 57, 109, 120, 124
-0.9986, 249, 413, 312, 428
-0.9986, 177, 415, 240, 430
-0.998601, 81, 109, 144, 124
-0.998603, 201, 415, 232, 430
-0.998604, 125, 329, 156, 344
-0.998604, 81, 359, 144, 374
-0.998605, 145, 309, 272, 340
-0.998606, 1, 209, 64, 224
-0.998606, 105, 221, 168, 236
-0.998606, 117, 173, 148, 188
-0.998607, 1, 7, 64, 22
-0.998607, 37, 181, 68, 196
-0.998608, 1, 117, 64, 132
-0.998608, 9, 87, 72, 102
-0.998609, 145, 323, 208, 338
-0.998609, 61, 195, 92, 210
-0.998609, 21, 191, 52, 206
-0.998611, 151, 305, 166, 432
-0.998612, 13, 199, 44, 214
-0.998617, 77, 163, 108, 178
-0.99862, 23, 113, 38, 240
-0.998624, 109, 145, 124, 272
-0.998629, 113, 323, 144, 338
-0.998629, 1, 203, 32, 218
-0.99863, 105, 33, 120, 160
-0.998633, 13, 113, 28, 240
-0.998634, 125, 361, 156, 376
-0.998637, 65, 157, 96, 172
-0.99864, 237, 417, 268, 432
-0.998644, 149, 321, 180, 336
-0.998651, 43, 161, 58, 288
-0.998657, 65, 171, 96, 186
-0.99866, 145, 365, 176, 380
-0.998661, 79, 97, 94, 224
-0.998662, 57, 179, 88, 194
-0.998663, 137, 399, 168, 414
-0.998663, 9, 155, 40, 170
-0.998663, 103, 161, 118, 288
-0.998672, 149, 357, 180, 372
-0.998673, 125, 369, 140, 496
-0.998674, 119, 33, 134, 160
-0.998675, 295, 1, 310, 128
-0.998675, 113, 33, 128, 160
-0.998686, 1, 189, 32, 204
-0.998686, 113, 365, 144, 380
-0.998689, 93, 145, 108, 272
-0.998697, 209, 469, 333, 500
-0.998697, 89, 17, 104, 144
-0.998699, 149, 371, 180, 386
-0.998703, 103, 81, 118, 208
-0.998705, 37, 113, 52, 240
-0.998721, 113, 359, 144, 374
-0.998726, 113, 373, 144, 388
-0.998732, 159, 305, 174, 432
-0.998736, 91, 65, 106, 192
-0.998737, 203, 353, 218, 480
-0.998738, 133, 369, 164, 384
-0.998752, 121, 233, 184, 296
-0.998771, 37, 161, 52, 288
-0.998791, 135, 129, 150, 256
-0.998797, 99, 17, 114, 144
-0.998798, 1, 145, 16, 272
-0.998813, 119, 129, 134, 256
-0.99882, 311, 1, 326, 128
-0.998823, 57, 161, 72, 288
-0.998835, 131, 353, 146, 480
-0.998836, 129, 101, 256, 132
-0.998837, 131, 49, 146, 176
-0.998847, 93, 257, 124, 500
-0.998854, 317, 49, 332, 176
-0.998869, 209, 353, 224, 480
-0.998876, 317, 1, 332, 128
-0.998888, 193, 257, 224, 500
-0.99889, 53, 113, 68, 240
-0.998893, 129, 161, 144, 288
-0.998897, 69, 161, 84, 288
-0.998901, 191, 353, 206, 480
-0.998921, 173, 257, 204, 500
-0.998921, 49, 161, 64, 288
-0.998923, 231, 369, 246, 496
-0.998933, 83, 1, 98, 128
-0.998934, 289, 1, 304, 128
-0.998935, 313, 97, 328, 224
-0.998944, 161, 257, 192, 500
-0.998946, 43, 97, 58, 224
-0.998951, 67, 1, 82, 128
-0.998952, 97, 81, 112, 208
-0.998965, 141, 161, 172, 416
-0.998966, 81, 177, 96, 304
-0.998967, 81, 469, 208, 500
-0.998972, 129, 113, 144, 240
-0.998974, 165, 305, 180, 432
-0.998975, 3, 81, 18, 208
-0.998987, 109, 369, 124, 496
-0.998988, 267, 369, 282, 496
-0.998989, 77, 49, 92, 176
-0.999002, 285, 97, 316, 352
-0.999003, 19, 161, 34, 288
-0.99901, 63, 161, 78, 288
-0.999042, 197, 353, 212, 480
-0.999044, 139, 353, 154, 480
-0.999044, 31, 65, 46, 192
-0.999046, 65, 305, 320, 368
-0.999046, 115, 177, 130, 304
-0.999048, 185, 1, 248, 500
-0.999049, 145, 177, 160, 304
-0.999054, 85, 81, 100, 208
-0.999055, 219, 369, 234, 496
-0.999057, 87, 177, 102, 304
-0.999058, 113, 29, 240, 60
-0.999059, 63, 49, 78, 176
-0.99906, 225, 369, 240, 496
-0.999063, 73, 1, 88, 128
-0.999067, 17, 233, 144, 264
-0.999067, 109, 193, 124, 320
-0.999072, 303, 49, 318, 176
-0.999082, 161, 461, 288, 492
-0.99909, 185, 353, 200, 480
-0.999094, 255, 369, 270, 496
-0.999094, 193, 5, 320, 36
-0.99911, 177, 353, 192, 480
-0.999111, 277, 369, 292, 496
-0.999113, 1, 193, 16, 320
-0.999117, 247, 369, 262, 496
-0.999117, 237, 369, 252, 496
-0.999119, 129, 41, 256, 72
-0.999119, 31, 369, 46, 496
-0.999128, 261, 369, 276, 496
-0.99914, 145, 353, 160, 480
-0.999145, 129, 125, 256, 156
-0.999146, 25, 161, 40, 288
-0.999151, 13, 177, 28, 304
-0.999161, 121, 177, 136, 304
-0.999161, 65, 305, 192, 336
-0.999163, 283, 369, 298, 496
-0.999167, 49, 233, 112, 296
-0.99917, 7, 177, 22, 304
-0.999181, 169, 353, 184, 480
-0.999182, 61, 1, 76, 128
-0.999186, 21, 65, 36, 192
-0.999194, 137, 177, 152, 304
-0.999211, 309, 177, 324, 304
-0.999217, 13, 1, 28, 128
-0.999221, 1, 209, 333, 272
-0.999223, 311, 369, 326, 496
-0.999232, 25, 1, 40, 128
-0.999237, 15, 65, 30, 192
-0.999247, 301, 1, 316, 128
-0.999248, 303, 129, 318, 256
-0.999252, 31, 177, 46, 304
-0.999253, 73, 233, 136, 296
-0.999264, 9, 65, 24, 192
-0.999264, 1, 329, 333, 392
-0.999279, 49, 65, 64, 192
-0.999279, 297, 97, 312, 224
-0.999281, 283, 1, 298, 128
-0.999301, 57, 65, 72, 192
-0.999305, 119, 289, 134, 416
-0.999305, 41, 369, 56, 496
-0.99931, 311, 225, 326, 352
-0.999311, 53, 1, 68, 128
-0.999313, 103, 369, 118, 496
-0.999315, 209, 257, 240, 500
-0.999318, 317, 321, 332, 448
-0.99932, 43, 49, 58, 176
-0.999326, 25, 369, 40, 496
-0.999338, 317, 145, 332, 272
-0.999353, 289, 49, 304, 176
-0.999356, 69, 193, 100, 448
-0.999357, 289, 369, 304, 496
-0.999358, 145, 129, 160, 256
-0.999359, 137, 33, 152, 160
-0.99936, 299, 369, 314, 496
-0.999365, 19, 369, 34, 496
-0.999367, 1, 33, 16, 160
-0.999369, 151, 369, 166, 496
-0.999383, 129, 157, 256, 188
-0.999438, 5, 321, 36, 448
-0.999496, 161, 449, 288, 480
-0.999528, 137, 209, 200, 272
-0.999573, 33, 245, 160, 276
-0.999635, 137, 65, 168, 320
-0.999712, 59, 195, 74, 210
-0.999712, 139, 183, 154, 198
-0.999713, 147, 325, 162, 340
-0.999714, 23, 3, 38, 18
-0.999714, 9, 199, 24, 214
-0.999714, 111, 69, 126, 84
-0.999716, 3, 201, 18, 216
-0.999716, 151, 371, 166, 386
-0.999716, 77, 225, 92, 240
-0.999716, 155, 351, 170, 366
-0.999717, 115, 181, 130, 196
-0.999717, 123, 91, 138, 106
-0.999717, 103, 15, 118, 30
-0.999718, 113, 161, 128, 176
-0.999718, 31, 203, 46, 218
-0.999718, 129, 173, 144, 188
-0.999719, 83, 15, 98, 30
-0.999719, 113, 55, 128, 70
-0.999719, 255, 417, 270, 432
-0.999721, 155, 211, 170, 226
-0.999721, 87, 195, 102, 210
-0.999721, 37, 125, 52, 140
-0.999721, 109, 153, 124, 168
-0.999721, 141, 361, 156, 376
-0.999722, 119, 337, 134, 352
-0.999722, 123, 181, 138, 196
-0.999722, 53, 181, 68, 196
-0.999722, 45, 227, 60, 242
-0.999722, 77, 185, 92, 200
-0.999722, 289, 19, 304, 34
-0.999723, 131, 163, 146, 178
-0.999723, 135, 173, 150, 188
-0.999723, 69, 123, 84, 138
-0.999723, 133, 371, 148, 386
-0.999724, 137, 191, 152, 206
-0.999726, 59, 177, 74, 192
-0.999726, 117, 37, 132, 52
-0.999726, 61, 135, 76, 150
-0.999727, 61, 369, 92, 496
-0.999727, 115, 211, 130, 226
-0.999728, 113, 47, 128, 62
-0.999729, 109, 131, 124, 146
-0.99973, 113, 219, 128, 234
-0.99973, 63, 161, 78, 176
-0.99973, 95, 161, 110, 176
-0.99973, 129, 329, 144, 344
-0.999732, 41, 195, 56, 210
-0.999732, 109, 121, 124, 136
-0.999733, 59, 183, 74, 198
-0.999733, 19, 193, 34, 208
-0.999733, 77, 167, 92, 182
-0.999733, 47, 179, 62, 194
-0.999733, 37, 207, 52, 222
-0.999733, 239, 417, 254, 432
-0.999733, 77, 155, 92, 170
-0.999734, 103, 65, 118, 80
-0.999734, 71, 115, 86, 130
-0.999737, 87, 155, 102, 170
-0.999737, 145, 185, 272, 216
-0.999737, 77, 201, 92, 216
-0.999737, 161, 365, 176, 380
-0.999738, 87, 121, 102, 136
-0.999738, 69, 137, 84, 152
-0.99974, 127, 207, 142, 222
-0.99974, 121, 163, 136, 178
-0.99974, 71, 163, 86, 178
-0.999743, 117, 205, 132, 220
-0.999743, 79, 129, 94, 144
-0.999745, 139, 203, 154, 218
-0.999745, 71, 19, 86, 34
-0.999745, 133, 185, 148, 200
-0.999746, 97, 15, 112, 30
-0.999746, 135, 197, 150, 212
-0.999747, 117, 65, 132, 80
-0.999748, 11, 151, 26, 166
-0.999748, 11, 163, 26, 178
-0.999748, 73, 191, 88, 206
-0.999749, 139, 373, 154, 388
-0.999749, 107, 171, 122, 186
-0.999749, 123, 85, 138, 100
-0.99975, 7, 171, 22, 186
-0.99975, 15, 183, 30, 198
-0.999751, 79, 195, 94, 210
-0.999752, 127, 63, 142, 78
-0.999752, 151, 205, 166, 220
-0.999753, 105, 39, 120, 54
-0.999753, 249, 417, 264, 432
-0.999754, 83, 185, 98, 200
-0.999757, 89, 19, 104, 34
-0.999757, 41, 189, 56, 204
-0.999758, 87, 161, 102, 176
-0.999761, 15, 171, 30, 186
-0.999762, 117, 365, 132, 380
-0.999764, 7, 193, 22, 208
-0.999764, 85, 141, 100, 156
-0.999764, 69, 171, 84, 186
-0.999766, 165, 257, 196, 384
-0.999767, 233, 257, 264, 500
-0.999767, 91, 225, 106, 240
-0.999767, 79, 135, 94, 150
-0.999768, 95, 149, 110, 164
-0.999768, 127, 359, 142, 374
-0.999768, 81, 123, 96, 138
-0.999768, 51, 187, 66, 202
-0.999769, 143, 193, 158, 208
-0.999769, 9, 257, 72, 500
-0.999771, 11, 209, 26, 224
-0.999771, 113, 175, 128, 190
-0.999772, 123, 47, 138, 62
-0.999774, 89, 131, 104, 146
-0.999778, 77, 17, 92, 32
-0.999778, 37, 201, 52, 216
-0.999778, 67, 223, 82, 238
-0.999779, 145, 205, 160, 220
-0.999779, 149, 365, 164, 380
-0.999781, 37, 119, 52, 134
-0.999781, 121, 57, 136, 72
-0.999781, 1, 207, 16, 222
-0.999783, 71, 129, 86, 144
-0.999786, 69, 145, 84, 160
-0.999788, 121, 157, 136, 172
-0.999788, 115, 31, 130, 46
-0.999794, 101, 171, 116, 186
-0.999797, 39, 183, 54, 198
-0.999808, 17, 199, 32, 214
-0.99981, 161, 349, 176, 364
-0.999811, 111, 61, 126, 76
-0.999812, 151, 357, 166, 372
-0.999815, 117, 355, 132, 370
-0.999818, 145, 199, 160, 214
-0.999821, 129, 179, 144, 194
-0.999822, 87, 205, 102, 220
-0.999825, 77, 161, 92, 176
-0.999836, 157, 315, 172, 330
-0.999853, 33, 261, 160, 292
-0.999859, 117, 319, 132, 334
-0.999861, 41, 225, 72, 480
-0.999884, 221, 257, 252, 500
-0.999899, 145, 197, 272, 228
-0.999904, 81, 257, 208, 288
-0.999922, 81, 241, 208, 272
-0.999924, 249, 81, 312, 208
-0.999983, 145, 161, 272, 224
-1.00006, 17, 257, 144, 320
-1.00008, 81, 257, 112, 500
-1.0001, 269, 257, 300, 500
-1.00017, 257, 257, 288, 500
-1.00027, 161, 1, 288, 64
-1.00041, 1, 321, 128, 384
-1.00047, 1, 233, 256, 296
-1.00049, 281, 257, 312, 500
-1.00052, 153, 161, 184, 416
-1.00052, 245, 257, 276, 500
-1.00074, 145, 129, 208, 256
-1.00075, 45, 225, 76, 352
-1.00079, 129, 217, 256, 280
-1.00088, 53, 257, 84, 500
-1.00097, 89, 257, 120, 384
-1.00099, 65, 281, 320, 344
-1.00102, 249, 257, 312, 500
-1.00102, 41, 321, 72, 448
-1.00106, 165, 161, 196, 416
-1.00109, 149, 65, 180, 320
-1.00112, 149, 129, 180, 256
-1.00127, 201, 329, 264, 392
-1.00131, 145, 161, 208, 416
-1.00142, 281, 321, 312, 448
-1.00159, 249, 105, 312, 168
-1.00165, 169, 257, 232, 384
-1.00169, 265, 1, 296, 256
-1.00171, 129, 257, 256, 320
-1.00172, 205, 161, 236, 416
-1.00172, 161, 1, 192, 256
-1.00174, 217, 161, 248, 416
-1.00176, 173, 1, 204, 256
-1.00178, 273, 97, 304, 352
-1.00179, 253, 1, 284, 256
-1.00179, 65, 257, 320, 320
-1.0018, 177, 161, 208, 416
-1.00181, 193, 1, 224, 256
-1.00181, 205, 1, 236, 256
-1.00181, 241, 1, 272, 256
-1.00184, 225, 65, 256, 320
-1.00184, 193, 97, 224, 352
-1.00184, 237, 97, 268, 352
-1.00184, 249, 97, 280, 352
-1.00184, 261, 97, 292, 352
-1.0019, 249, 345, 312, 408
-1.00204, 145, 41, 208, 104
-1.00208, 141, 1, 172, 128
-1.00227, 145, 113, 208, 176
-1.00233, 57, 225, 88, 352
-1.00246, 141, 49, 172, 176
-1.00255, 161, 193, 288, 256
-1.00256, 1, 233, 333, 296
-1.00277, 161, 137, 288, 200
-1.00282, 1, 305, 333, 368
-1.00306, 161, 185, 224, 248
-1.00322, 1, 273, 333, 336
-1.00323, 145, 65, 272, 128
-1.00369, 153, 257, 184, 384
-1.00473, 157, 177, 188, 304
-1.00519, 145, 17, 208, 144
-1.00577, 201, 273, 264, 400
-1.00579, 17, 225, 80, 352
-1.00595, 33, 257, 96, 320
-1.00596, 81, 257, 144, 320
-1.00606, 161, 209, 224, 272
-1.00606, 145, 233, 208, 296
-1.00607, 261, 1, 292, 128
-1.00658, 5, 225, 36, 352
-1.00664, 213, 273, 244, 400
-1.00692, 121, 209, 184, 336
-1.00698, 145, 17, 208, 80
-1.00727, 145, 257, 208, 320
-1.0073, 169, 161, 232, 416
-1.00757, 161, 113, 192, 240
-1.00796, 69, 321, 100, 448
-1.00816, 169, 161, 200, 288
-1.0082, 153, 89, 216, 152
-1.00822, 1, 233, 64, 296
-1.0084, 53, 321, 84, 448
-1.00852, 153, 1, 216, 256
-1.00865, 249, 1, 280, 128
-1.00917, 161, 97, 288, 224
-1.00936, 237, 1, 268, 128
-1.0095, 257, 225, 288, 352
-1.00953, 181, 225, 212, 352
-1.00953, 209, 225, 240, 352
-1.00956, 185, 177, 216, 304
-1.00956, 213, 177, 244, 304
-1.00956, 237, 177, 268, 304
-1.00956, 249, 177, 280, 304
-1.00956, 261, 177, 292, 304
-1.00956, 197, 209, 228, 336
-1.00956, 225, 209, 256, 336
-1.00956, 273, 209, 304, 336
-1.00956, 237, 225, 268, 352
-1.00956, 285, 225, 316, 352
-1.00971, 145, 177, 208, 304
-1.01004, 201, 161, 264, 416
-1.01021, 249, 97, 312, 352
-1.01027, 185, 1, 248, 256
-1.01066, 217, 33, 280, 288
-1.01104, 57, 289, 120, 416
-1.0119, 161, 209, 288, 336
-1.01354, 225, 129, 288, 384
-1.01364, 225, 1, 288, 128
-1.01424, 25, 273, 88, 400
-1.01442, 185, 1, 248, 128
-1.01471, 201, 225, 264, 352
-1.01478, 177, 49, 240, 176
-1.01478, 225, 65, 288, 192
-1.01478, 201, 81, 264, 208
-1.01478, 177, 97, 240, 224
-1.01478, 225, 113, 288, 240
-1.01478, 201, 129, 264, 256
-1.01478, 177, 145, 240, 272
-1.01478, 225, 161, 288, 288
-1.01478, 201, 177, 264, 304
-1.01478, 249, 177, 312, 304
-1.01478, 177, 193, 240, 320
-1.01478, 225, 209, 288, 336
-1.01478, 249, 225, 312, 352
-1.01593, 153, 81, 216, 208
-1.01756, 225, 273, 288, 400
-1.01764, 249, 273, 312, 400
-1.01803, 1, 273, 64, 400
-1.01866, 249, 129, 312, 256
