1950
-0.23227, 1, 1, 500, 375
-0.274508, 1, 65, 500, 320
-0.396599, 225, 1, 480, 375
-0.412157, 129, 1, 384, 375
-0.43815, 33, 1, 288, 375
-0.473684, 193, 97, 448, 352
-0.502332, 97, 65, 352, 320
-0.570579, 193, 1, 448, 256
-0.598906, 1, 129, 256, 375
-0.651638, 1, 33, 256, 288
-0.808342, 289, 97, 416, 352
-0.83825, 209, 129, 336, 375
-0.842131, 161, 1, 288, 375
-0.84379, 145, 65, 272, 320
-0.844664, 337, 97, 464, 352
-0.845729, 1, 81, 500, 208
-0.84864, 209, 1, 336, 375
-0.84892, 369, 1, 496, 256
-0.852408, 369, 1, 496, 375
-0.855149, 225, 33, 352, 288
-0.857618, 81, 1, 208, 375
-0.858206, 65, 1, 192, 256
-0.858986, 97, 129, 224, 375
-0.872779, 273, 1, 400, 375
-0.873234, 33, 97, 160, 352
-0.874964, 321, 1, 448, 375
-0.87953, 1, 1, 500, 128
-0.880285, 1, 129, 500, 256
-0.883073, 1, 209, 500, 336
-0.883398, 305, 1, 432, 256
-0.886746, 225, 113, 480, 240
-0.892433, 33, 1, 160, 375
-0.90344, 129, 81, 384, 208
-0.906409, 257, 65, 500, 192
-0.909131, 97, 177, 352, 304
-0.909317, 17, 1, 144, 256
-0.916587, 225, 193, 480, 320
-0.919618, 1, 161, 256, 288
-0.923718, 65, 225, 320, 352
-0.923866, 161, 241, 416, 368
-0.923974, 305, 65, 432, 192
-0.92419, 33, 65, 288, 192
-0.924638, 193, 17, 448, 144
-0.925977, 145, 161, 272, 288
-0.926191, 281, 65, 344, 192
-0.929293, 129, 129, 384, 256
-0.930648, 321, 113, 448, 240
-0.9313, 257, 65, 384, 192
-0.932897, 209, 225, 336, 352
-0.93313, 65, 1, 320, 128
-0.935445, 273, 113, 400, 240
-0.93569, 433, 1, 496, 128
-0.936263, 193, 177, 320, 304
-0.936287, 193, 1, 320, 128
-0.936366, 273, 209, 400, 336
-0.936421, 369, 33, 496, 160
-0.937213, 193, 161, 256, 288
-0.937566, 409, 33, 472, 160
-0.938793, 385, 113, 448, 240
-0.938902, 257, 161, 320, 288
-0.939639, 161, 81, 288, 208
-0.939882, 241, 209, 304, 336
-0.94005, 225, 129, 352, 256
-0.940318, 281, 209, 344, 336
-0.940908, 433, 113, 496, 240
-0.941898, 369, 129, 496, 256
-0.942058, 361, 65, 424, 192
-0.942076, 113, 241, 240, 368
-0.942884, 249, 1, 312, 128
-0.943372, 289, 1, 352, 128
-0.944248, 49, 81, 176, 208
-0.944727, 1, 113, 256, 240
-0.945633, 273, 113, 336, 176
-0.946586, 409, 129, 472, 256
-0.946859, 233, 81, 296, 208
-0.946869, 217, 1, 280, 128
-0.94709, 385, 49, 448, 176
-0.947225, 169, 161, 232, 288
-0.947347, 305, 65, 368, 192
-0.947762, 353, 193, 480, 320
-0.948459, 241, 1, 368, 128
-0.948702, 305, 209, 368, 336
-0.948743, 209, 81, 336, 208
-0.948814, 337, 81, 400, 208
-0.949054, 137, 1, 200, 128
-0.949913, 137, 145, 200, 272
-0.950353, 257, 241, 500, 368
-0.95088, 49, 161, 176, 288
-0.950907, 281, 113, 344, 240
-0.95145, 153, 225, 216, 352
-0.953005, 289, 1, 416, 128
-0.953008, 185, 313, 248, 375
-0.953228, 377, 193, 440, 320
-0.953561, 97, 161, 224, 288
-0.954044, 177, 241, 240, 368
-0.954136, 145, 1, 272, 128
-0.954201, 65, 225, 192, 352
-0.954429, 49, 81, 112, 208
-0.955018, 257, 233, 320, 296
-0.955217, 105, 161, 168, 288
-0.955562, 113, 81, 240, 208
-0.955787, 353, 193, 416, 320
-0.956012, 337, 81, 400, 144
-0.956048, 217, 177, 280, 304
-0.956854, 409, 129, 472, 192
-0.956862, 17, 209, 80, 336
-0.957044, 409, 81, 472, 208
-0.957331, 177, 65, 240, 192
-0.957407, 353, 105, 416, 168
-0.957537, 1, 225, 128, 352
-0.957725, 81, 1, 208, 128
-0.957878, 233, 257, 296, 320
-0.957969, 273, 161, 400, 288
-0.958028, 305, 113, 368, 240
-0.958428, 193, 169, 256, 232
-0.958542, 121, 81, 184, 208
-0.958648, 289, 81, 352, 144
-0.958833, 361, 113, 424, 240
-0.959199, 401, 193, 464, 320
-0.959268, 369, 81, 496, 208
-0.959484, 329, 209, 392, 336
-0.959801, 49, 161, 112, 288
-0.960331, 281, 161, 344, 288
-0.960449, 297, 113, 360, 176
-0.960674, 433, 9, 496, 72
-0.960678, 201, 241, 264, 368
-0.961117, 433, 65, 496, 192
-0.961549, 433, 145, 496, 208
-0.961621, 1, 161, 128, 288
-0.961628, 257, 65, 320, 192
-0.961763, 129, 225, 192, 352
-0.961807, 161, 241, 288, 368
-0.962391, 385, 113, 448, 176
-0.962395, 73, 225, 136, 352
-0.96253, 97, 97, 160, 224
-0.962699, 313, 89, 376, 152
-0.962769, 193, 1, 256, 128
-0.962944, 273, 137, 336, 200
-0.963377, 161, 313, 224, 375
-0.963431, 289, 97, 352, 352
-0.964038, 1, 289, 64, 352
-0.964256, 25, 105, 88, 168
-0.964447, 401, 169, 464, 232
-0.964565, 265, 129, 328, 375
-0.964583, 233, 145, 296, 208
-0.964994, 321, 113, 384, 176
-0.965121, 257, 89, 320, 152
-0.965258, 313, 1, 376, 128
-0.965521, 129, 81, 192, 144
-0.965656, 285, 233, 316, 296
-0.966097, 377, 57, 440, 120
-0.966157, 297, 137, 360, 200
-0.966212, 81, 161, 144, 288
-0.9666, 409, 1, 472, 256
-0.966614, 297, 217, 360, 280
-0.966626, 233, 233, 296, 296
-0.966701, 193, 129, 256, 375
-0.966898, 169, 65, 232, 320
-0.966995, 289, 9, 352, 72
-0.967003, 321, 97, 384, 352
-0.967192, 1, 81, 128, 208
-0.967199, 281, 241, 344, 304
-0.967397, 25, 97, 88, 224
-0.967404, 321, 121, 448, 184
-0.967523, 321, 97, 448, 160
-0.967749, 281, 81, 312, 208
-0.967796, 233, 129, 296, 256
-0.968064, 193, 241, 256, 304
-0.968337, 145, 129, 208, 375
-0.9684, 361, 81, 424, 144
-0.96849, 257, 121, 384, 184
-0.968576, 233, 65, 296, 320
-0.968581, 161, 257, 224, 320
-0.968664, 409, 33, 472, 96
-0.968768, 193, 281, 256, 344
-0.96882, 413, 113, 444, 240
-0.969323, 121, 241, 184, 304
-0.969329, 289, 1, 352, 256
-0.969549, 281, 265, 344, 328
-0.969671, 385, 97, 448, 352
-0.969673, 209, 81, 272, 208
-0.969698, 129, 1, 192, 256
-0.969885, 169, 73, 232, 136
-0.970042, 257, 193, 320, 256
-0.970175, 409, 97, 472, 160
-0.970212, 65, 65, 128, 320
-0.970289, 145, 65, 208, 192
-0.970546, 433, 169, 496, 232
-0.970674, 73, 97, 136, 224
-0.970786, 329, 129, 392, 256
-0.970792, 277, 121, 308, 184
-0.970824, 129, 313, 192, 375
-0.970979, 209, 153, 336, 216
-0.971292, 209, 313, 272, 375
-0.971345, 1, 313, 64, 375
-0.971539, 277, 161, 308, 288
-0.971681, 273, 57, 336, 120
-0.971744, 361, 97, 424, 352
-0.971871, 161, 1, 224, 128
-0.971911, 429, 129, 460, 256
-0.971945, 321, 241, 448, 368
-0.972186, 33, 17, 160, 144
-0.972225, 417, 97, 480, 352
-0.97223, 297, 1, 328, 128
-0.972315, 209, 193, 272, 256
-0.972342, 337, 33, 400, 160
-0.972358, 25, 145, 88, 272
-0.972487, 257, 113, 320, 240
-0.972513, 409, 9, 472, 72
-0.972529, 249, 9, 312, 72
-0.972541, 289, 209, 320, 336
-0.972592, 297, 57, 360, 120
-0.972683, 65, 97, 128, 160
-0.97272, 433, 33, 496, 96
-0.972741, 257, 225, 288, 288
-0.972851, 305, 73, 432, 136
-0.97289, 137, 161, 200, 224
-0.972948, 233, 81, 296, 144
-0.972948, 181, 161, 212, 288
-0.973071, 213, 313, 244, 375
-0.973189, 241, 193, 272, 320
-0.973324, 433, 161, 496, 288
-0.973364, 137, 1, 200, 64
-0.973423, 89, 97, 152, 352
-0.973637, 1, 129, 64, 256
-0.973684, 461, 1, 492, 128
-0.973689, 401, 113, 432, 240
-0.973712, 273, 97, 400, 160
-0.97382, 249, 169, 312, 232
-0.973865, 393, 281, 456, 344
-0.973956, 169, 113, 232, 240
-0.973976, 97, 233, 160, 296
-0.974105, 381, 97, 412, 160
-0.974155, 41, 225, 104, 352
-0.974205, 269, 1, 300, 128
-0.974244, 201, 1, 264, 256
-0.974293, 385, 49, 416, 176
-0.974303, 301, 49, 332, 176
-0.97435, 345, 273, 408, 336
-0.974552, 369, 105, 496, 168
-0.974631, 441, 1, 472, 128
-0.974648, 433, 89, 496, 152
-0.974736, 169, 169, 232, 232
-0.974822, 369, 49, 496, 112
-0.975089, 193, 1, 256, 64
-0.97519, 289, 161, 352, 224
-0.975282, 217, 169, 248, 232
-0.975295, 113, 1, 176, 128
-0.975382, 81, 1, 144, 128
-0.975382, 377, 137, 440, 200
-0.975506, 225, 265, 352, 328
-0.975553, 265, 33, 328, 288
-0.975654, 257, 209, 288, 336
-0.97567, 433, 1, 496, 256
-0.975698, 129, 81, 256, 144
-0.975722, 441, 113, 472, 240
-0.975726, 145, 177, 272, 240
-0.975736, 429, 177, 460, 240
-0.975846, 353, 129, 416, 192
-0.975857, 129, 313, 256, 375
-0.975895, 177, 233, 304, 296
-0.97601, 369, 89, 400, 152
-0.976058, 393, 105, 424, 168
-0.976079, 297, 97, 328, 224
-0.97617, 225, 177, 352, 240
-0.976214, 57, 233, 120, 296
-0.976355, 201, 161, 232, 288
-0.976364, 89, 1, 152, 256
-0.976369, 441, 17, 472, 80
-0.976524, 385, 89, 448, 152
-0.976553, 105, 209, 168, 336
-0.976598, 33, 97, 96, 352
-0.976613, 1, 113, 64, 176
-0.976618, 249, 1, 280, 128
-0.976787, 169, 289, 232, 352
-0.976864, 401, 201, 464, 264
-0.976869, 285, 89, 316, 152
-0.977023, 369, 73, 496, 136
-0.977029, 233, 209, 296, 272
-0.977077, 65, 233, 192, 296
-0.977099, 229, 1, 260, 128
-0.97722, 121, 129, 184, 375
-0.977252, 325, 105, 356, 168
-0.977275, 225, 233, 352, 296
-0.977332, 265, 33, 328, 96
-0.977363, 461, 49, 492, 176
-0.977432, 377, 201, 440, 264
-0.977587, 453, 1, 484, 64
-0.97771, 313, 65, 344, 192
-0.977723, 397, 49, 428, 176
-0.977758, 369, 241, 496, 368
-0.977761, 193, 241, 224, 368
-0.977816, 269, 241, 300, 304
-0.977846, 309, 1, 340, 128
-0.977987, 17, 97, 144, 160
-0.978074, 305, 73, 336, 136
-0.978088, 225, 9, 288, 72
-0.978106, 353, 241, 416, 368
-0.978126, 217, 289, 280, 352
-0.978229, 269, 225, 300, 352
-0.978235, 257, 257, 320, 320
-0.978248, 381, 65, 412, 128
-0.978323, 193, 81, 256, 144
-0.978325, 309, 113, 340, 176
-0.978443, 405, 113, 436, 176
-0.978547, 33, 33, 96, 160
-0.978552, 369, 129, 496, 192
-0.978568, 305, 161, 368, 288
-0.978603, 305, 265, 368, 328
-0.978625, 129, 217, 192, 280
-0.978694, 417, 289, 480, 352
-0.9787, 1, 297, 32, 360
-0.978717, 301, 217, 332, 280
-0.978719, 421, 129, 452, 192
-0.978723, 329, 57, 392, 120
-0.978761, 161, 1, 192, 128
-0.978877, 189, 257, 220, 320
-0.978899, 289, 217, 416, 280
-0.978955, 461, 81, 492, 144
-0.97896, 105, 169, 168, 232
-0.979025, 349, 209, 380, 336
-0.979059, 293, 113, 324, 176
-0.979061, 97, 209, 160, 272
-0.979107, 249, 57, 312, 120
-0.97913, 1, 265, 64, 328
-0.979133, 177, 257, 304, 320
-0.979144, 425, 209, 488, 336
-0.979148, 301, 49, 332, 112
-0.979174, 265, 81, 296, 208
-0.979211, 97, 161, 224, 224
-0.979246, 161, 209, 288, 272
-0.979271, 297, 193, 360, 256
-0.979276, 281, 17, 312, 144
-0.979286, 189, 313, 220, 375
-0.979324, 81, 81, 208, 144
-0.979339, 201, 313, 232, 375
-0.979362, 321, 1, 352, 128
-0.979409, 225, 161, 256, 288
-0.979423, 177, 81, 304, 144
-0.979466, 113, 249, 240, 312
-0.979523, 337, 105, 368, 168
-0.979624, 425, 193, 488, 256
-0.979662, 225, 89, 352, 152
-0.979757, 277, 145, 308, 208
-0.979827, 173, 225, 204, 352
-0.979843, 209, 129, 336, 192
-0.979942, 409, 49, 440, 176
-0.979945, 33, 233, 96, 296
-0.979964, 169, 225, 232, 288
-0.979966, 237, 241, 268, 368
-0.979979, 433, 113, 496, 176
-0.979979, 273, 89, 304, 152
-0.98001, 369, 273, 432, 336
-0.980084, 249, 121, 312, 184
-0.980351, 381, 193, 412, 320
-0.980444, 377, 241, 440, 368
-0.980492, 225, 1, 288, 375
-0.980602, 321, 209, 352, 336
-0.98064, 185, 1, 248, 375
-0.980642, 293, 9, 324, 72
-0.980706, 433, 137, 464, 200
-0.980717, 25, 305, 88, 368
-0.980846, 409, 1, 472, 375
-0.981004, 361, 209, 392, 336
-0.981015, 461, 25, 492, 88
-0.981069, 385, 1, 448, 256
-0.981113, 177, 313, 304, 375
-0.981123, 301, 209, 332, 336
-0.981138, 257, 145, 384, 208
-0.981149, 289, 273, 416, 336
-0.981277, 9, 225, 72, 288
-0.981341, 169, 161, 200, 288
-0.981396, 417, 169, 448, 232
-0.981405, 241, 201, 368, 264
-0.981413, 193, 1, 320, 64
-0.981415, 341, 81, 372, 208
-0.981416, 337, 209, 368, 336
-0.981422, 385, 1, 448, 375
-0.981441, 273, 1, 336, 375
-0.981451, 433, 265, 496, 328
-0.981466, 217, 1, 248, 128
-0.981498, 321, 137, 384, 200
-0.981505, 133, 161, 164, 288
-0.981523, 389, 129, 420, 256
-0.981574, 409, 65, 472, 128
-0.981587, 145, 281, 272, 344
-0.981613, 249, 1, 312, 375
-0.981673, 321, 81, 352, 144
-0.981698, 105, 89, 168, 152
-0.981741, 297, 145, 328, 272
-0.981829, 57, 17, 120, 144
-0.981869, 9, 49, 72, 176
-0.981877, 177, 73, 208, 136
-0.982018, 289, 153, 320, 216
-0.982029, 149, 1, 180, 128
-0.982051, 169, 145, 232, 208
-0.982165, 145, 1, 272, 64
-0.982229, 313, 1, 376, 256
-0.982258, 273, 49, 400, 112
-0.982288, 361, 65, 392, 192
-0.982411, 121, 161, 152, 288
-0.982431, 257, 1, 384, 64
-0.982521, 353, 201, 480, 264
-0.982533, 129, 81, 160, 208
-0.982585, 353, 1, 416, 256
-0.982648, 169, 1, 232, 64
-0.982742, 345, 81, 376, 144
-0.982813, 9, 129, 72, 375
-0.982821, 397, 193, 428, 320
-0.982821, 425, 193, 456, 320
-0.982824, 441, 185, 472, 248
-0.982858, 373, 49, 404, 176
-0.982868, 225, 65, 352, 128
-0.982941, 105, 305, 168, 368
-0.983091, 205, 289, 236, 352
-0.983103, 385, 1, 448, 128
-0.983157, 69, 81, 100, 208
-0.983174, 213, 161, 244, 288
-0.983199, 353, 161, 480, 224
-0.983204, 325, 129, 356, 256
-0.983231, 377, 161, 440, 224
-0.983233, 213, 1, 244, 64
-0.983254, 9, 137, 72, 200
-0.983266, 129, 137, 192, 200
-0.983287, 353, 209, 416, 272
-0.983303, 161, 73, 192, 136
-0.983339, 209, 217, 272, 280
-0.983414, 433, 1, 496, 375
-0.98342, 33, 281, 96, 344
-0.983445, 313, 1, 376, 64
-0.983445, 169, 49, 232, 112
-0.983502, 325, 129, 356, 192
-0.983555, 469, 145, 500, 208
-0.983572, 161, 1, 224, 375
-0.983714, 41, 1, 104, 256
-0.98375, 233, 313, 296, 375
-0.983844, 89, 65, 152, 128
-0.983855, 101, 161, 132, 288
-0.983868, 261, 81, 292, 144
-0.983902, 409, 193, 440, 320
-0.983938, 281, 57, 312, 120
-0.983949, 169, 249, 200, 312
-0.984004, 149, 145, 180, 272
-0.984018, 337, 281, 464, 344
-0.984331, 53, 97, 84, 224
-0.984364, 253, 65, 284, 192
-0.984367, 205, 241, 236, 368
-0.984419, 337, 185, 400, 248
-0.984434, 429, 33, 460, 160
-0.984465, 57, 209, 120, 272
-0.984517, 361, 17, 424, 144
-0.984541, 329, 65, 360, 192
-0.984559, 369, 1, 496, 64
-0.98458, 401, 241, 464, 368
-0.984581, 33, 105, 64, 168
-0.98461, 369, 25, 496, 88
-0.984634, 289, 33, 352, 96
-0.984665, 313, 113, 344, 240
-0.98468, 461, 49, 492, 112
-0.984684, 329, 209, 392, 272
-0.984691, 377, 249, 440, 312
-0.984711, 465, 1, 496, 64
-0.984722, 49, 209, 176, 272
-0.984744, 189, 225, 220, 288
-0.984747, 441, 105, 472, 168
-0.984821, 301, 137, 332, 200
-0.98483, 241, 257, 272, 320
-0.984835, 93, 225, 124, 352
-0.984894, 237, 81, 268, 208
-0.984899, 225, 41, 352, 104
-0.984918, 245, 217, 276, 280
-0.984961, 301, 265, 332, 328
-0.984962, 129, 57, 192, 120
-0.985003, 449, 65, 480, 192
-0.985021, 369, 273, 400, 336
-0.985059, 445, 137, 476, 200
-0.985101, 89, 161, 120, 288
-0.985206, 157, 65, 188, 192
-0.98523, 313, 9, 344, 72
-0.985234, 181, 169, 212, 232
-0.985235, 265, 129, 296, 256
-0.985236, 329, 249, 392, 312
-0.985286, 81, 1, 208, 64
-0.985327, 85, 233, 116, 296
-0.985442, 361, 1, 424, 375
-0.985475, 137, 1, 200, 375
-0.985509, 357, 81, 388, 144
-0.985563, 373, 113, 404, 240
-0.985565, 305, 241, 368, 304
-0.985577, 353, 57, 416, 120
-0.985612, 81, 81, 112, 208
-0.985662, 81, 177, 144, 240
-0.985739, 425, 81, 456, 208
-0.985743, 217, 57, 280, 120
-0.985748, 181, 65, 212, 192
-0.985783, 161, 57, 288, 120
-0.98579, 209, 289, 336, 352
-0.985914, 417, 281, 448, 344
-0.985953, 209, 65, 240, 192
-0.98598, 201, 177, 232, 240
-0.986057, 1, 201, 64, 264
-0.986107, 1, 225, 128, 288
-0.986172, 37, 81, 68, 208
-0.986204, 105, 225, 136, 352
-0.986263, 297, 1, 360, 375
-0.986356, 1, 305, 128, 368
-0.986368, 161, 225, 192, 352
-0.986379, 69, 161, 100, 288
-0.98638, 265, 9, 296, 72
-0.986469, 421, 41, 452, 104
-0.986476, 113, 97, 144, 224
-0.986502, 113, 225, 240, 288
-0.986503, 393, 57, 424, 120
-0.986541, 305, 145, 432, 208
-0.98655, 265, 137, 296, 200
-0.98658, 169, 313, 200, 375
-0.986589, 81, 225, 112, 352
-0.98662, 449, 81, 480, 144
-0.986622, 237, 193, 268, 256
-0.986634, 173, 1, 204, 128
-0.986643, 381, 121, 412, 184
-0.986676, 225, 305, 256, 368
-0.986707, 289, 177, 416, 240
-0.986732, 97, 97, 128, 224
-0.986825, 397, 137, 428, 200
-0.98683, 405, 281, 436, 344
-0.986897, 41, 1, 104, 375
-0.986918, 9, 209, 40, 336
-0.986934, 289, 249, 416, 312
-0.98695, 1, 281, 128, 344
-0.986991, 157, 241, 188, 304
-0.987037, 49, 305, 112, 368
-0.987068, 465, 129, 496, 256
-0.987138, 169, 65, 200, 192
-0.987158, 433, 65, 496, 128
-0.987174, 37, 209, 68, 336
-0.98719, 229, 273, 260, 336
-0.987191, 49, 145, 80, 272
-0.987275, 205, 1, 236, 128
-0.987447, 289, 25, 416, 88
-0.987447, 113, 1, 176, 375
-0.987467, 81, 153, 144, 216
-0.987493, 65, 297, 192, 360
-0.987498, 361, 113, 392, 176
-0.987543, 305, 1, 432, 64
-0.987554, 153, 313, 184, 375
-0.98762, 333, 81, 364, 144
-0.987629, 449, 49, 480, 112
-0.987631, 277, 201, 308, 264
-0.987638, 81, 1, 144, 375
-0.987661, 257, 257, 288, 320
-0.987671, 457, 161, 488, 224
-0.98768, 129, 289, 192, 352
-0.98768, 337, 129, 368, 256
-0.987681, 369, 257, 496, 320
-0.987757, 145, 225, 176, 352
-0.987768, 225, 1, 256, 64
-0.987842, 33, 153, 96, 216
-0.987843, 133, 225, 164, 352
-0.987859, 285, 177, 316, 240
-0.98786, 33, 129, 64, 256
-0.987872, 193, 145, 256, 208
-0.987906, 393, 81, 424, 144
-0.987963, 169, 225, 200, 288
-0.987989, 409, 257, 472, 320
-0.98805, 125, 89, 156, 152
-0.988085, 225, 81, 256, 208
-0.988089, 257, 113, 500, 176
-0.988117, 193, 57, 256, 120
-0.988159, 145, 153, 272, 216
-0.988162, 33, 145, 160, 208
-0.988176, 453, 105, 484, 168
-0.988177, 349, 273, 380, 336
-0.98818, 469, 169, 500, 232
-0.988243, 81, 305, 144, 368
-0.988247, 17, 113, 48, 176
-0.988338, 313, 137, 344, 200
-0.988386, 297, 241, 328, 304
-0.988388, 273, 265, 304, 328
-0.988465, 165, 1, 196, 64
-0.988485, 13, 289, 44, 352
-0.988486, 385, 281, 416, 344
-0.988488, 145, 65, 176, 192
-0.988505, 437, 193, 468, 320
-0.988517, 49, 169, 176, 232
-0.988527, 409, 49, 440, 112
-0.988544, 81, 105, 208, 168
-0.988579, 221, 81, 252, 144
-0.988589, 117, 233, 148, 296
-0.988616, 161, 105, 288, 168
-0.988686, 277, 1, 308, 64
-0.988707, 77, 89, 108, 152
-0.988773, 101, 233, 132, 296
-0.988804, 389, 209, 420, 272
-0.988833, 165, 161, 196, 224
-0.988867, 161, 129, 288, 192
-0.988991, 89, 97, 120, 160
-0.989094, 49, 105, 80, 168
-0.989102, 233, 265, 296, 296
-0.989245, 225, 313, 352, 375
-0.989273, 337, 89, 400, 120
-0.989301, 177, 321, 240, 352
-0.989308, 225, 241, 256, 368
-0.989356, 1, 33, 64, 288
-0.989405, 133, 169, 164, 232
-0.989407, 417, 201, 448, 264
-0.989448, 429, 281, 460, 344
-0.989483, 225, 137, 480, 200
-0.989497, 77, 1, 108, 128
-0.989502, 405, 89, 436, 152
-0.989527, 273, 121, 336, 152
-0.989561, 297, 77, 360, 108
-0.989575, 405, 201, 436, 264
-0.989577, 393, 129, 456, 160
-0.989578, 81, 57, 208, 120
-0.989584, 273, 161, 336, 192
-0.989604, 193, 177, 256, 208
-0.989607, 433, 169, 496, 200
-0.98962, 385, 241, 416, 368
-0.98963, 361, 109, 424, 140
-0.989647, 29, 305, 60, 368
-0.989692, 1, 297, 64, 328
-0.989707, 445, 161, 476, 224
-0.98973, 201, 241, 232, 304
-0.989733, 17, 1, 80, 375
-0.989753, 97, 273, 224, 336
-0.989768, 137, 81, 200, 112
-0.989791, 305, 125, 368, 156
-0.989801, 349, 105, 380, 168
-0.989805, 301, 161, 332, 224
-0.989812, 133, 241, 164, 304
-0.989838, 321, 113, 384, 144
-0.98984, 97, 201, 224, 264
-0.989853, 1, 309, 64, 340
-0.989862, 193, 341, 256, 372
-0.989881, 385, 117, 448, 148
-0.989908, 265, 137, 328, 168
-0.989927, 265, 253, 328, 284
-0.98995, 409, 141, 472, 172
-0.989964, 81, 137, 208, 200
-0.989975, 353, 113, 384, 240
-0.98998, 21, 209, 52, 336
-0.990029, 297, 101, 360, 132
-0.990042, 97, 81, 352, 144
-0.990044, 217, 345, 280, 375
-0.990046, 121, 225, 152, 352
-0.990067, 265, 241, 328, 272
-0.990068, 337, 129, 368, 192
-0.990072, 273, 149, 336, 180
-0.990089, 345, 125, 408, 156
-0.990113, 233, 165, 296, 196
-0.990145, 57, 101, 120, 132
-0.990146, 1, 193, 128, 256
-0.990174, 373, 241, 404, 368
-0.990185, 253, 9, 284, 72
-0.990191, 297, 221, 360, 252
-0.990197, 289, 89, 352, 120
-0.990207, 177, 85, 240, 116
-0.990209, 417, 41, 480, 72
-0.990217, 137, 341, 200, 372
-0.990226, 145, 161, 176, 224
-0.990241, 25, 109, 88, 140
-0.990277, 25, 273, 56, 336
-0.990338, 337, 273, 368, 336
-0.990356, 177, 49, 208, 112
-0.990375, 137, 1, 168, 128
-0.990401, 169, 341, 232, 372
-0.990457, 433, 13, 496, 44
-0.990461, 129, 93, 192, 124
-0.990481, 345, 73, 408, 104
-0.990488, 321, 49, 448, 112
-0.990524, 441, 289, 472, 352
-0.990525, 433, 1, 496, 32
-0.990555, 1, 257, 128, 320
-0.99056, 393, 53, 456, 84
-0.99058, 273, 77, 336, 108
-0.990587, 137, 249, 200, 280
-0.990627, 297, 141, 360, 172
-0.990641, 209, 209, 272, 240
-0.990654, 409, 109, 472, 140
-0.990665, 137, 165, 200, 196
-0.990696, 165, 113, 196, 240
-0.990735, 169, 1, 232, 32
-0.990738, 257, 213, 320, 244
-0.990741, 145, 233, 176, 296
-0.990751, 161, 261, 224, 292
-0.990756, 289, 273, 352, 304
-0.990767, 321, 1, 384, 375
-0.990769, 329, 1, 360, 64
-0.990774, 257, 89, 320, 120
-0.990785, 145, 81, 176, 144
-0.990817, 309, 161, 340, 288
-0.990885, 321, 101, 384, 132
-0.990912, 409, 289, 472, 320
-0.990936, 433, 293, 496, 324
-0.99096, 297, 113, 360, 144
-0.990962, 273, 173, 336, 204
-0.990969, 217, 333, 280, 364
-0.990969, 289, 13, 352, 44
-0.990972, 193, 301, 256, 332
-0.990975, 233, 233, 296, 264
-0.990995, 417, 121, 480, 152
-0.991003, 193, 261, 256, 292
-0.991017, 233, 253, 296, 284
-0.991019, 201, 313, 264, 344
-0.991035, 385, 285, 448, 316
-0.99104, 433, 25, 496, 56
-0.99105, 1, 81, 500, 144
-0.991054, 33, 121, 160, 184
-0.991057, 161, 249, 224, 280
-0.991061, 105, 241, 168, 272
-0.991067, 201, 189, 264, 220
-0.991084, 253, 161, 284, 288
-0.991098, 61, 209, 92, 336
-0.991098, 401, 181, 464, 212
-0.991117, 17, 49, 48, 176
-0.991129, 161, 233, 416, 296
-0.991185, 433, 193, 496, 224
-0.991186, 105, 341, 168, 372
-0.991187, 201, 273, 264, 304
-0.991189, 193, 165, 256, 196
-0.991194, 417, 153, 480, 184
-0.991198, 289, 261, 352, 292
-0.9912, 453, 113, 484, 240
-0.991233, 185, 17, 216, 144
-0.99124, 401, 97, 464, 128
-0.991257, 193, 185, 448, 248
-0.991262, 349, 33, 380, 160
-0.991272, 385, 209, 448, 240
-0.991283, 97, 209, 352, 272
-0.991288, 297, 153, 360, 184
-0.991289, 369, 73, 432, 104
-0.991305, 193, 5, 256, 36
-0.991306, 33, 73, 160, 136
-0.991317, 265, 229, 328, 260
-0.991327, 161, 169, 224, 200
-0.991349, 361, 281, 424, 312
-0.991353, 321, 277, 384, 308
-0.991381, 225, 221, 288, 252
-0.991393, 193, 285, 256, 316
-0.991414, 409, 193, 472, 224
-0.991432, 361, 97, 424, 128
-0.991449, 249, 153, 312, 184
-0.991454, 161, 73, 224, 104
-0.991455, 201, 249, 264, 280
-0.991493, 49, 209, 80, 336
-0.991505, 153, 329, 216, 360
-0.991512, 265, 265, 328, 296
-0.991518, 129, 145, 384, 208
-0.991522, 233, 177, 296, 208
-0.991532, 145, 5, 208, 36
-0.991545, 313, 89, 376, 120
-0.991546, 1, 297, 256, 360
-0.991555, 217, 9, 280, 40
-0.991573, 297, 65, 360, 96
-0.991592, 97, 93, 160, 124
-0.991613, 321, 137, 384, 168
-0.991613, 153, 237, 216, 268
-0.991613, 1, 113, 500, 176
-0.991616, 433, 89, 496, 120
-0.99162, 393, 169, 456, 200
-0.99163, 1, 325, 64, 356
-0.99165, 257, 9, 320, 40
-0.991663, 361, 213, 424, 244
-0.991669, 249, 73, 312, 104
-0.991698, 321, 77, 384, 108
-0.991702, 329, 1, 392, 32
-0.99171, 273, 109, 336, 140
-0.991716, 81, 237, 144, 268
-0.991724, 1, 225, 64, 256
-0.991753, 161, 273, 224, 304
-0.991762, 409, 9, 472, 40
-0.99177, 369, 61, 432, 92
-0.99178, 265, 37, 328, 68
-0.991781, 1, 97, 256, 160
-0.991787, 233, 89, 296, 120
-0.991794, 129, 325, 192, 356
-0.99181, 1, 241, 256, 304
-0.991826, 161, 305, 224, 336
-0.991848, 57, 333, 120, 364
-0.991885, 361, 141, 424, 172
-0.991898, 433, 53, 496, 84
-0.991912, 377, 85, 440, 116
-0.991925, 433, 181, 496, 212
-0.991958, 377, 153, 440, 184
-0.991972, 97, 105, 160, 136
-0.991982, 225, 161, 480, 224
-0.992004, 225, 277, 288, 308
-0.99201, 65, 169, 320, 232
-0.992013, 1, 133, 64, 164
-0.992022, 225, 313, 288, 344
-0.992024, 193, 89, 448, 152
-0.99203, 369, 129, 432, 160
-0.992031, 353, 161, 384, 288
-0.992036, 217, 173, 248, 204
-0.992167, 189, 257, 220, 288
-0.992347, 317, 125, 348, 156
-0.992363, 257, 1, 500, 64
-0.992364, 1, 137, 500, 200
-0.992396, 1, 309, 32, 340
-0.992455, 277, 129, 308, 160
-0.992461, 397, 117, 428, 148
-0.99248, 209, 321, 240, 352
-0.992492, 281, 149, 312, 180
-0.992529, 453, 9, 484, 40
-0.992533, 225, 341, 256, 372
-0.992535, 333, 125, 364, 156
-0.992545, 97, 313, 352, 375
-0.992549, 13, 297, 44, 328
-0.992563, 341, 113, 372, 144
-0.992572, 285, 241, 316, 272
-0.992573, 285, 161, 316, 192
-0.992592, 165, 249, 196, 280
-0.99262, 293, 113, 324, 144
-0.992643, 441, 33, 472, 64
-0.992646, 257, 65, 500, 128
-0.992655, 457, 85, 488, 116
-0.992664, 325, 105, 356, 136
-0.992666, 177, 253, 208, 284
-0.992668, 389, 105, 420, 136
-0.992683, 197, 65, 228, 192
-0.992689, 129, 121, 384, 184
-0.992694, 409, 129, 440, 160
-0.992694, 25, 325, 56, 356
-0.992698, 433, 185, 464, 216
-0.9927, 453, 21, 484, 52
-0.992719, 245, 261, 276, 292
-0.992722, 293, 101, 324, 132
-0.992731, 209, 337, 240, 368
-0.992734, 301, 225, 332, 256
-0.992742, 301, 149, 332, 180
-0.992743, 189, 245, 220, 276
-0.992744, 285, 257, 316, 288
-0.992745, 25, 313, 56, 344
-0.992753, 13, 309, 44, 340
-0.99276, 257, 229, 288, 260
-0.992763, 129, 1, 384, 64
-0.992774, 345, 85, 376, 116
-0.9928, 321, 137, 352, 168
-0.992801, 181, 81, 212, 112
-0.992805, 365, 89, 396, 120
-0.992809, 265, 265, 296, 296
-0.99281, 169, 337, 200, 368
-0.992822, 125, 17, 156, 144
-0.992828, 1, 297, 32, 328
-0.992831, 217, 5, 248, 36
-0.992832, 257, 129, 384, 160
-0.992835, 1, 1, 128, 64
-0.992836, 265, 253, 296, 284
-0.992855, 29, 109, 60, 140
-0.992894, 357, 117, 388, 148
-0.992894, 441, 129, 472, 160
-0.992898, 89, 49, 152, 176
-0.992902, 289, 25, 320, 56
-0.992903, 281, 117, 312, 148
-0.992904, 161, 265, 416, 328
-0.992904, 169, 77, 200, 108
-0.99291, 157, 81, 188, 112
-0.99291, 293, 137, 324, 168
-0.992911, 197, 321, 228, 352
-0.992913, 1, 169, 128, 232
-0.992916, 445, 193, 476, 224
-0.992926, 285, 81, 316, 112
-0.992931, 417, 45, 448, 76
-0.992932, 189, 269, 220, 300
-0.992936, 185, 321, 216, 352
-0.992937, 377, 73, 408, 104
-0.992943, 321, 113, 448, 144
-0.992943, 301, 65, 332, 96
-0.992949, 297, 9, 328, 40
-0.992951, 245, 217, 276, 248
-0.992964, 465, 17, 496, 48
-0.992967, 325, 93, 356, 124
-0.992969, 305, 97, 336, 128
-0.992971, 381, 125, 412, 156
-0.992971, 105, 237, 136, 268
-0.992975, 289, 173, 320, 204
-0.992976, 397, 57, 428, 88
-0.992977, 293, 41, 324, 72
-0.992977, 141, 345, 172, 375
-0.992978, 433, 141, 464, 172
-0.992986, 37, 345, 68, 375
-0.992987, 149, 245, 180, 276
-0.99299, 361, 77, 392, 108
-0.99299, 469, 153, 500, 184
-0.99299, 261, 241, 292, 272
-0.992993, 265, 149, 296, 180
-0.992994, 377, 101, 408, 132
-0.993004, 305, 77, 336, 108
-0.993007, 217, 309, 248, 340
-0.993008, 13, 117, 44, 148
-0.993015, 429, 37, 460, 68
-0.993022, 341, 97, 372, 128
-0.993022, 189, 173, 220, 204
-0.993025, 309, 113, 340, 144
-0.993025, 465, 5, 496, 36
-0.993027, 325, 81, 356, 112
-0.993028, 205, 173, 236, 204
-0.99303, 301, 269, 332, 300
-0.993035, 209, 169, 336, 200
-0.993041, 357, 277, 388, 308
-0.993044, 37, 317, 68, 348
-0.993047, 169, 237, 200, 268
-0.993049, 421, 133, 452, 164
-0.993058, 205, 301, 236, 332
-0.993064, 461, 293, 492, 324
-0.993064, 273, 241, 304, 272
-0.993071, 1, 321, 32, 352
-0.993073, 277, 173, 308, 204
-0.993074, 9, 285, 40, 316
-0.993076, 441, 21, 472, 52
-0.993081, 469, 89, 500, 120
-0.993083, 289, 269, 320, 300
-0.993083, 381, 281, 412, 312
-0.993083, 229, 329, 260, 360
-0.993084, 125, 341, 156, 372
-0.993085, 277, 225, 308, 256
-0.993086, 81, 97, 112, 128
-0.993091, 281, 93, 312, 124
-0.993093, 237, 345, 268, 375
-0.993095, 301, 161, 332, 192
-0.993101, 185, 337, 216, 368
-0.993106, 269, 9, 300, 40
-0.993115, 325, 273, 356, 304
-0.993116, 401, 285, 432, 316
-0.993117, 93, 237, 124, 268
-0.993118, 197, 81, 228, 112
-0.993124, 433, 289, 464, 320
-0.993125, 309, 137, 340, 168
-0.993128, 133, 241, 164, 272
-0.993129, 97, 1, 128, 128
-0.99313, 449, 293, 480, 324
-0.993134, 345, 125, 376, 156
-0.993138, 429, 121, 460, 152
-0.993142, 37, 333, 68, 364
-0.993145, 205, 1, 236, 32
-0.993146, 201, 249, 232, 280
-0.993146, 133, 89, 164, 120
-0.993146, 393, 141, 424, 172
-0.993148, 285, 9, 316, 40
-0.993167, 225, 209, 480, 272
-0.993198, 21, 129, 52, 256
-0.993251, 257, 273, 500, 336
-0.99327, 417, 1, 448, 128
-0.99329, 1, 1, 64, 128
-0.993345, 305, 101, 432, 132
-0.993414, 201, 113, 232, 240
-0.993472, 1, 265, 256, 328
-0.99348, 365, 161, 396, 288
-0.993502, 305, 125, 432, 156
-0.993519, 177, 113, 208, 240
-0.993531, 49, 49, 80, 176
-0.993599, 129, 169, 256, 200
-0.993641, 289, 233, 304, 296
-0.993685, 393, 1, 424, 128
-0.993708, 1, 185, 500, 248
-0.99371, 1, 273, 500, 336
-0.993756, 49, 265, 176, 328
-0.993808, 217, 313, 232, 375
-0.99389, 281, 241, 296, 304
-0.993955, 283, 121, 298, 184
-0.993988, 469, 193, 500, 320
-0.994047, 453, 209, 484, 336
-0.994113, 225, 265, 352, 296
-0.994136, 373, 1, 404, 128
-0.994138, 273, 81, 400, 112
-0.994142, 33, 1, 288, 64
-0.994162, 297, 81, 312, 144
-0.99424, 1, 209, 500, 272
-0.994243, 257, 117, 384, 148
-0.994269, 1, 161, 500, 224
-0.994307, 225, 181, 352, 212
-0.994318, 213, 113, 244, 240
-0.994334, 383, 97, 398, 160
-0.994344, 81, 245, 208, 276
-0.994346, 193, 41, 448, 104
-0.994357, 287, 89, 302, 152
-0.994358, 265, 225, 280, 288
-0.994387, 271, 233, 286, 296
-0.994387, 145, 81, 272, 112
-0.994397, 17, 25, 144, 88
-0.994405, 403, 105, 418, 168
-0.994425, 145, 341, 272, 372
-0.994453, 257, 141, 384, 172
-0.994457, 409, 113, 424, 176
-0.994461, 189, 113, 220, 240
-0.994506, 391, 97, 406, 160
-0.994517, 397, 105, 412, 168
-0.994667, 1, 297, 16, 360
-0.994669, 227, 305, 242, 368
-0.994707, 201, 249, 216, 312
-0.99471, 177, 253, 304, 284
-0.994717, 289, 221, 416, 252
-0.994726, 317, 121, 332, 184
-0.99478, 449, 9, 464, 72
-0.994789, 321, 137, 448, 168
-0.994803, 177, 265, 304, 296
-0.994806, 305, 113, 320, 176
-0.994853, 369, 109, 496, 140
-0.994865, 417, 121, 432, 184
-0.994878, 257, 217, 272, 280
-0.994905, 205, 177, 220, 240
-0.994911, 369, 125, 496, 156
-0.994911, 225, 205, 352, 236
-0.994917, 177, 25, 304, 88
-0.994918, 297, 233, 312, 296
-0.994919, 291, 145, 306, 208
-0.994957, 145, 321, 272, 352
-0.994962, 303, 89, 318, 152
-0.994978, 285, 129, 316, 375
-0.99507, 333, 105, 348, 168
-0.995077, 437, 177, 452, 240
-0.995101, 193, 221, 320, 252
-0.995153, 423, 129, 438, 192
-0.995167, 339, 105, 354, 168
-0.995173, 1, 249, 500, 312
-0.995185, 1, 145, 256, 208
-0.995197, 257, 153, 384, 184
-0.9952, 461, 17, 476, 80
-0.995222, 1, 49, 128, 112
-0.995224, 445, 177, 460, 240
-0.995227, 461, 81, 476, 144
-0.995281, 427, 169, 442, 232
-0.995303, 145, 1, 272, 32
-0.995312, 327, 121, 342, 184
-0.995316, 337, 97, 368, 352
-0.99533, 377, 81, 392, 144
-0.995331, 207, 297, 222, 360
-0.995362, 1, 9, 500, 72
-0.995367, 429, 129, 444, 192
-0.995371, 297, 113, 312, 176
-0.995376, 225, 193, 352, 224
-0.995394, 269, 129, 300, 375
-0.995396, 129, 25, 256, 88
-0.995397, 81, 89, 208, 120
-0.995405, 455, 105, 470, 168
-0.995424, 225, 89, 352, 120
-0.995424, 183, 73, 198, 136
-0.995437, 7, 305, 22, 368
-0.995442, 229, 161, 244, 224
-0.995445, 433, 1, 464, 256
-0.995451, 1, 193, 256, 256
-0.995452, 215, 169, 230, 232
-0.995475, 257, 169, 384, 200
-0.995488, 209, 157, 336, 188
-0.995491, 327, 97, 342, 160
-0.995493, 303, 217, 318, 280
-0.995495, 353, 81, 480, 112
-0.995512, 277, 129, 292, 192
-0.995522, 17, 105, 144, 136
-0.995523, 177, 181, 304, 212
-0.995534, 439, 137, 454, 200
-0.995559, 455, 9, 470, 72
-0.995571, 241, 229, 368, 260
-0.995588, 181, 65, 212, 320
-0.995624, 443, 25, 458, 88
-0.995632, 389, 65, 404, 128
-0.995678, 311, 113, 326, 176
-0.995687, 485, 145, 500, 208
-0.995688, 347, 89, 362, 152
-0.995696, 229, 1, 244, 64
-0.995704, 353, 305, 480, 368
-0.995706, 295, 9, 310, 72
-0.99572, 353, 97, 384, 352
-0.995723, 97, 257, 224, 288
-0.995746, 369, 289, 496, 320
-0.995756, 209, 9, 336, 40
-0.995762, 225, 305, 480, 368
-0.995788, 257, 105, 384, 136
-0.995793, 353, 93, 480, 124
-0.9958, 217, 129, 248, 375
-0.995812, 13, 289, 28, 352
-0.995822, 197, 169, 212, 232
-0.995833, 321, 281, 448, 312
-0.995851, 471, 1, 486, 64
-0.995851, 177, 277, 304, 308
-0.995854, 251, 209, 266, 272
-0.995875, 369, 165, 496, 196
-0.995877, 307, 9, 322, 72
-0.995897, 485, 17, 500, 80
-0.995904, 305, 69, 432, 100
-0.995912, 367, 81, 382, 144
-0.995928, 345, 113, 360, 176
-0.99593, 369, 137, 496, 168
-0.99594, 281, 153, 296, 216
-0.99596, 97, 289, 352, 352
-0.995967, 293, 193, 308, 256
-0.995977, 221, 1, 252, 256
-0.995981, 421, 161, 436, 224
-0.995982, 463, 49, 478, 112
-0.99599, 201, 65, 232, 320
-0.995994, 317, 1, 348, 256
-0.996, 289, 121, 304, 184
-0.996003, 81, 333, 208, 364
-0.996008, 447, 145, 462, 208
-0.996013, 43, 305, 58, 368
-0.996017, 389, 121, 404, 184
-0.996023, 473, 81, 488, 144
-0.996029, 303, 153, 318, 216
-0.996038, 157, 1, 188, 256
-0.996051, 483, 89, 498, 152
-0.996054, 145, 309, 272, 340
-0.99606, 169, 65, 200, 320
-0.996063, 369, 233, 496, 296
-0.996067, 145, 193, 272, 224
-0.996077, 233, 289, 248, 352
-0.996079, 221, 169, 236, 232
-0.996089, 175, 73, 190, 136
-0.996106, 243, 193, 258, 256
-0.99611, 201, 305, 216, 368
-0.996127, 369, 57, 496, 88
-0.99613, 337, 129, 352, 192
-0.996135, 341, 73, 356, 136
-0.996142, 405, 65, 436, 320
-0.996153, 177, 225, 192, 288
-0.996154, 383, 73, 398, 136
-0.996157, 273, 273, 400, 304
-0.996176, 33, 237, 160, 268
-0.996177, 417, 97, 448, 352
-0.996181, 37, 105, 52, 168
-0.996182, 365, 97, 396, 352
-0.996187, 403, 137, 418, 200
-0.996189, 281, 89, 296, 152
-0.996191, 451, 185, 466, 248
-0.996203, 225, 77, 352, 108
-0.996218, 241, 217, 368, 248
-0.996222, 273, 81, 288, 144
-0.996226, 297, 161, 312, 224
-0.996242, 397, 129, 412, 192
-0.996247, 485, 169, 500, 232
-0.996251, 33, 121, 288, 184
-0.996254, 479, 9, 494, 72
-0.996255, 105, 233, 120, 296
-0.99627, 361, 81, 376, 144
-0.996292, 161, 209, 288, 240
-0.996296, 245, 65, 276, 320
-0.996309, 277, 33, 308, 288
-0.996316, 321, 97, 352, 352
-0.996325, 379, 273, 394, 336
-0.996332, 311, 41, 326, 104
-0.99635, 301, 1, 316, 64
-0.996368, 317, 9, 332, 72
-0.996375, 447, 113, 462, 176
-0.996375, 327, 73, 342, 136
-0.996381, 129, 297, 256, 328
-0.996382, 297, 97, 328, 352
-0.996388, 209, 141, 336, 172
-0.996392, 369, 45, 496, 76
-0.996405, 161, 233, 288, 264
-0.996406, 481, 49, 496, 112
-0.99643, 319, 73, 334, 136
-0.996431, 309, 217, 324, 280
-0.996435, 209, 317, 336, 348
-0.996435, 369, 181, 496, 212
-0.996443, 7, 281, 22, 344
-0.996449, 81, 65, 112, 320
-0.996484, 287, 177, 302, 240
-0.99649, 31, 297, 46, 360
-0.996491, 177, 293, 304, 324
-0.996514, 353, 209, 480, 240
-0.996515, 311, 137, 326, 200
-0.996518, 171, 313, 186, 375
-0.996518, 309, 97, 340, 352
-0.996525, 1, 273, 16, 336
-0.996528, 241, 265, 256, 328
-0.996534, 81, 101, 208, 132
-0.996535, 195, 249, 210, 312
-0.996535, 221, 1, 236, 64
-0.996538, 157, 129, 188, 375
-0.99654, 385, 97, 416, 352
-0.99654, 97, 57, 352, 120
-0.996553, 479, 145, 494, 208
-0.996553, 233, 65, 264, 320
-0.996559, 257, 9, 384, 40
-0.996559, 209, 329, 336, 360
-0.996565, 33, 341, 160, 372
-0.99657, 379, 121, 394, 184
-0.996573, 95, 233, 110, 296
-0.996576, 409, 145, 424, 208
-0.996578, 471, 49, 486, 112
-0.996578, 283, 9, 298, 72
-0.99658, 413, 281, 428, 344
-0.996582, 273, 257, 288, 320
-0.996591, 455, 81, 470, 144
-0.996595, 293, 57, 308, 120
-0.996604, 319, 97, 334, 160
-0.996609, 385, 273, 400, 336
-0.996624, 3, 301, 18, 332
-0.996633, 287, 265, 302, 328
-0.996634, 145, 1, 176, 256
-0.996643, 431, 281, 446, 344
-0.99665, 97, 97, 128, 352
-0.99665, 37, 297, 52, 360
-0.996651, 179, 249, 194, 312
-0.996651, 209, 345, 336, 375
-0.996658, 1, 217, 256, 280
-0.996665, 81, 169, 208, 200
-0.996666, 257, 249, 500, 312
-0.996688, 437, 33, 452, 96
-0.996695, 395, 57, 410, 120
-0.996702, 369, 69, 496, 100
-0.996721, 69, 65, 100, 320
-0.996727, 1, 73, 256, 136
-0.996733, 129, 65, 160, 320
-0.99675, 257, 65, 288, 320
-0.996785, 17, 117, 144, 148
-0.996792, 141, 129, 172, 375
-0.996808, 321, 149, 448, 180
-0.996829, 305, 1, 432, 32
-0.996854, 105, 1, 136, 256
-0.996886, 129, 285, 256, 316
-0.9969, 321, 161, 448, 192
-0.996931, 97, 229, 224, 260
-0.996942, 225, 241, 352, 272
-0.99696, 109, 97, 140, 352
-0.996976, 129, 269, 256, 300
-0.997017, 1, 293, 128, 324
-0.997031, 93, 1, 124, 256
-0.997084, 33, 93, 160, 124
-0.997089, 445, 1, 476, 256
-0.997106, 225, 49, 352, 80
-0.997111, 81, 1, 208, 32
-0.997125, 289, 201, 416, 232
-0.997133, 209, 129, 336, 160
-0.997162, 369, 13, 496, 44
-0.997167, 1, 313, 128, 344
-0.99717, 229, 337, 244, 368
-0.997183, 225, 253, 352, 284
-0.997206, 297, 1, 328, 256
-0.99721, 457, 1, 488, 256
-0.997221, 193, 305, 320, 336
-0.997225, 81, 345, 208, 375
-0.997231, 191, 249, 206, 280
-0.997241, 445, 97, 476, 352
-0.997271, 469, 1, 500, 256
-0.997306, 1, 313, 500, 375
-0.997322, 301, 101, 316, 132
-0.997332, 369, 149, 496, 180
-0.997335, 429, 97, 460, 352
-0.997337, 305, 57, 432, 88
-0.997343, 49, 157, 176, 188
-0.997346, 421, 1, 452, 256
-0.997356, 225, 277, 352, 308
-0.997358, 287, 241, 302, 272
-0.997371, 65, 321, 192, 352
-0.997373, 289, 261, 416, 292
-0.997382, 289, 181, 416, 212
-0.997415, 297, 113, 312, 144
-0.997433, 53, 65, 84, 320
-0.997444, 333, 117, 348, 148
-0.997447, 65, 25, 192, 88
-0.997452, 1, 225, 128, 256
-0.997474, 199, 257, 214, 288
-0.997483, 1, 49, 256, 112
-0.997493, 161, 13, 288, 44
-0.997494, 369, 33, 496, 64
-0.9975, 279, 257, 294, 288
-0.997506, 229, 169, 244, 200
-0.997517, 209, 321, 224, 352
-0.997552, 295, 237, 310, 268
-0.997555, 469, 97, 500, 352
-0.99757, 81, 77, 208, 108
-0.997583, 81, 13, 208, 44
-0.997592, 289, 297, 416, 360
-0.9976, 305, 41, 432, 72
-0.997611, 177, 93, 304, 124
-0.997611, 447, 189, 462, 220
-0.997612, 1, 57, 500, 120
-0.997613, 179, 249, 194, 280
-0.997622, 341, 125, 356, 156
-0.997628, 279, 133, 294, 164
-0.99764, 327, 125, 342, 156
-0.997648, 29, 313, 44, 344
-0.997657, 291, 161, 306, 192
-0.997682, 177, 77, 192, 108
-0.997685, 161, 125, 288, 156
-0.997685, 129, 181, 256, 212
-0.997687, 301, 89, 316, 120
-0.997709, 353, 1, 480, 32
-0.997711, 277, 245, 292, 276
-0.997717, 461, 85, 476, 116
-0.997719, 9, 297, 24, 328
-0.997731, 177, 337, 192, 368
-0.997732, 223, 317, 238, 348
-0.997747, 465, 1, 480, 32
-0.997749, 3, 321, 18, 352
-0.997754, 343, 109, 358, 140
-0.997759, 193, 65, 320, 96
-0.997763, 303, 225, 318, 256
-0.997771, 113, 157, 240, 188
-0.997779, 277, 153, 292, 184
-0.997779, 253, 213, 268, 244
-0.997783, 209, 177, 224, 208
-0.997785, 41, 309, 56, 340
-0.997787, 19, 293, 34, 324
-0.997796, 49, 221, 176, 252
-0.997796, 457, 13, 472, 44
-0.997797, 223, 169, 238, 200
-0.997805, 231, 325, 246, 356
-0.997806, 37, 321, 52, 352
-0.997818, 215, 173, 230, 204
-0.99782, 283, 149, 298, 180
-0.997822, 347, 77, 362, 108
-0.997829, 335, 129, 350, 160
-0.997833, 49, 341, 64, 372
-0.997834, 295, 97, 310, 128
-0.997835, 473, 9, 488, 40
-0.99784, 451, 13, 466, 44
-0.997842, 9, 309, 24, 340
-0.997859, 343, 93, 358, 124
-0.997861, 33, 177, 160, 208
-0.997862, 291, 113, 306, 144
-0.997864, 449, 29, 464, 60
-0.997865, 37, 97, 68, 352
-0.997884, 17, 329, 144, 360
-0.997885, 283, 121, 298, 152
-0.997889, 1, 281, 128, 312
-0.997892, 265, 229, 280, 260
-0.997892, 303, 153, 318, 184
-0.997895, 183, 81, 198, 112
-0.997899, 117, 1, 148, 256
-0.997911, 453, 193, 468, 224
-0.997916, 481, 17, 496, 48
-0.997916, 369, 197, 496, 228
-0.997922, 65, 25, 320, 88
-0.997927, 349, 113, 364, 144
-0.997939, 17, 269, 144, 300
-0.997944, 453, 1, 468, 32
-0.997947, 185, 253, 200, 284
-0.997948, 441, 185, 456, 216
-0.997948, 437, 37, 452, 68
-0.99795, 173, 245, 188, 276
-0.997954, 293, 25, 308, 56
-0.997958, 49, 305, 176, 336
-0.997958, 229, 313, 244, 344
-0.997962, 395, 105, 410, 136
-0.997965, 21, 129, 52, 375
-0.997967, 305, 121, 320, 152
-0.997974, 43, 333, 58, 364
-0.997986, 289, 269, 304, 300
-0.997988, 1, 33, 500, 96
-0.997997, 117, 237, 132, 268
-0.998005, 281, 169, 296, 200
-0.998012, 291, 9, 306, 40
-0.998012, 259, 221, 274, 252
-0.998016, 209, 337, 224, 368
-0.998018, 199, 177, 214, 208
-0.998023, 293, 173, 308, 204
-0.998034, 337, 261, 464, 292
-0.998046, 165, 245, 180, 276
-0.998048, 129, 245, 256, 276
-0.998053, 307, 137, 322, 168
-0.998055, 203, 245, 218, 276
-0.998058, 97, 217, 224, 248
-0.998059, 337, 105, 352, 136
-0.998059, 249, 261, 264, 292
-0.998061, 397, 133, 412, 164
-0.998063, 401, 109, 416, 140
-0.998065, 377, 81, 392, 112
-0.998069, 229, 5, 244, 36
-0.998075, 307, 269, 322, 300
-0.998079, 143, 345, 158, 375
-0.998083, 107, 237, 122, 268
-0.998088, 295, 81, 310, 112
-0.998098, 217, 317, 232, 348
-0.998102, 327, 113, 342, 144
-0.998105, 415, 117, 430, 148
-0.998109, 299, 181, 314, 212
-0.998116, 203, 321, 218, 352
-0.998118, 171, 345, 186, 375
-0.998119, 97, 309, 224, 340
-0.998127, 385, 1, 416, 256
-0.99813, 349, 89, 364, 120
-0.998138, 247, 205, 262, 236
-0.998141, 161, 153, 288, 184
-0.998142, 15, 309, 30, 340
-0.998144, 391, 125, 406, 156
-0.998147, 271, 145, 286, 176
-0.998147, 443, 29, 458, 60
-0.99815, 175, 93, 190, 124
-0.99815, 431, 45, 446, 76
-0.998157, 453, 129, 468, 160
-0.998157, 485, 177, 500, 208
-0.998161, 207, 305, 222, 336
-0.998162, 357, 77, 372, 108
-0.998163, 47, 317, 62, 348
-0.998167, 221, 5, 236, 36
-0.998167, 405, 145, 420, 176
-0.998168, 159, 245, 174, 276
-0.998178, 361, 113, 376, 144
-0.998179, 421, 125, 436, 156
-0.99818, 329, 137, 344, 168
-0.998182, 209, 117, 336, 148
-0.998186, 425, 169, 440, 200
-0.998187, 271, 233, 286, 264
-0.998189, 295, 141, 310, 172
-0.99819, 3, 289, 18, 320
-0.998191, 329, 1, 360, 256
-0.998193, 465, 17, 480, 48
-0.998194, 165, 341, 180, 372
-0.998199, 369, 277, 496, 308
-0.9982, 17, 129, 144, 160
-0.998201, 99, 241, 114, 272
-0.998204, 415, 157, 430, 188
-0.998205, 355, 113, 370, 144
-0.99821, 427, 133, 442, 164
-0.998211, 367, 89, 382, 120
-0.99822, 81, 113, 208, 144
-0.998222, 25, 301, 40, 332
-0.998228, 475, 89, 490, 120
-0.998228, 313, 141, 328, 172
-0.99823, 283, 269, 298, 300
-0.99823, 289, 97, 304, 128
-0.998239, 145, 69, 272, 100
-0.998267, 257, 25, 384, 56
-0.998327, 457, 97, 488, 352
-0.998384, 257, 65, 384, 96
-0.998391, 333, 133, 364, 148
-0.998391, 345, 127, 376, 142
-0.998392, 469, 161, 500, 176
-0.998392, 301, 163, 332, 178
-0.998392, 349, 279, 380, 294
-0.998393, 157, 247, 188, 262
-0.998393, 153, 343, 184, 358
-0.998393, 421, 51, 452, 66
-0.998394, 469, 297, 500, 312
-0.998395, 441, 199, 472, 214
-0.998396, 201, 323, 232, 338
-0.998397, 165, 339, 196, 354
-0.998397, 197, 179, 228, 194
-0.998398, 425, 291, 456, 306
-0.9984, 349, 89, 380, 104
-0.998401, 201, 313, 232, 328
-0.998401, 269, 155, 300, 170
-0.998402, 289, 37, 320, 52
-0.998403, 337, 121, 368, 136
-0.998403, 365, 97, 396, 112
-0.998404, 253, 359, 284, 374
-0.998405, 441, 293, 472, 308
-0.998405, 153, 83, 184, 98
-0.998405, 429, 185, 460, 200
-0.998405, 289, 249, 416, 280
-0.998405, 257, 239, 288, 254
-0.998406, 361, 85, 392, 100
-0.998406, 401, 127, 432, 142
-0.998407, 141, 361, 172, 375
-0.998408, 37, 109, 68, 124
-0.998408, 285, 149, 316, 164
-0.998409, 261, 89, 292, 104
-0.998409, 377, 283, 408, 298
-0.99841, 1, 227, 32, 242
-0.998411, 125, 345, 156, 360
-0.998413, 373, 125, 404, 140
-0.998413, 281, 273, 312, 288
-0.998414, 149, 351, 180, 366
-0.998414, 289, 121, 320, 136
-0.998414, 305, 119, 336, 134
-0.998414, 273, 243, 304, 258
-0.998415, 453, 295, 484, 310
-0.998416, 125, 339, 156, 354
-0.998416, 293, 43, 324, 58
-0.998416, 1, 323, 32, 338
-0.998417, 283, 97, 298, 224
-0.998418, 273, 233, 304, 248
-0.998419, 73, 99, 104, 114
-0.998419, 37, 349, 68, 364
-0.99842, 433, 129, 464, 144
-0.998421, 305, 97, 336, 112
-0.998421, 29, 313, 60, 328
-0.998422, 185, 335, 216, 350
-0.998422, 173, 263, 204, 278
-0.998423, 269, 259, 300, 274
-0.998424, 301, 77, 332, 92
-0.998426, 465, 23, 496, 38
-0.998428, 441, 135, 472, 150
-0.998428, 397, 121, 428, 136
-0.99843, 265, 145, 328, 160
-0.998431, 289, 97, 320, 112
-0.998432, 209, 25, 336, 56
-0.998432, 317, 141, 348, 156
-0.998434, 289, 181, 320, 196
-0.998434, 169, 355, 200, 370
-0.998435, 237, 351, 268, 366
-0.998437, 241, 221, 272, 236
-0.99844, 137, 245, 168, 260
-0.998441, 269, 267, 300, 282
-0.998441, 49, 257, 176, 288
-0.998442, 141, 345, 172, 360
-0.998443, 229, 333, 260, 348
-0.998444, 289, 89, 320, 104
-0.998444, 189, 249, 220, 264
-0.998447, 185, 347, 216, 362
-0.998448, 29, 335, 60, 350
-0.998448, 277, 135, 308, 150
-0.99845, 205, 341, 236, 356
-0.998451, 213, 335, 244, 350
-0.998451, 125, 243, 156, 258
-0.998451, 313, 135, 344, 150
-0.998451, 13, 305, 44, 320
-0.998452, 217, 179, 248, 194
-0.998453, 173, 81, 204, 96
-0.998454, 273, 145, 304, 160
-0.998454, 25, 319, 56, 334
-0.998454, 5, 297, 36, 312
-0.998456, 437, 41, 468, 56
-0.998458, 193, 175, 256, 190
-0.998458, 269, 361, 300, 375
-0.998459, 197, 261, 228, 276
-0.998459, 409, 55, 440, 70
-0.998461, 193, 37, 320, 68
-0.998461, 257, 37, 384, 68
-0.998463, 213, 7, 244, 22
-0.998467, 437, 191, 468, 206
-0.998468, 289, 81, 304, 208
-0.998469, 297, 143, 328, 158
-0.998469, 301, 273, 332, 288
-0.99847, 25, 327, 56, 342
-0.998472, 253, 229, 284, 244
-0.998472, 429, 113, 444, 240
-0.998474, 281, 169, 312, 184
-0.998475, 229, 345, 260, 360
-0.998476, 289, 91, 352, 106
-0.998476, 137, 349, 200, 364
-0.998477, 249, 265, 280, 280
-0.998477, 293, 177, 308, 304
-0.998479, 193, 319, 256, 334
-0.99848, 289, 123, 352, 138
-0.998483, 305, 149, 336, 164
-0.998483, 285, 241, 316, 256
-0.998484, 165, 349, 196, 364
-0.998484, 233, 267, 296, 282
-0.998485, 465, 17, 496, 32
-0.998485, 101, 239, 132, 254
-0.998486, 153, 337, 216, 352
-0.998488, 193, 343, 256, 358
-0.998488, 453, 9, 484, 24
-0.998488, 285, 175, 316, 190
-0.998489, 205, 349, 236, 364
-0.998489, 393, 135, 456, 150
-0.998491, 5, 317, 36, 332
-0.998492, 289, 267, 320, 282
-0.998493, 293, 115, 324, 130
-0.998493, 401, 141, 464, 156
-0.998496, 329, 91, 392, 106
-0.998497, 361, 91, 392, 106
-0.998497, 317, 127, 348, 142
-0.998498, 273, 161, 336, 176
-0.998499, 1, 317, 64, 332
-0.998499, 129, 343, 192, 358
-0.998501, 273, 171, 336, 186
-0.998501, 281, 97, 344, 112
-0.998506, 249, 91, 312, 106
-0.998507, 1, 309, 32, 324
-0.998507, 265, 139, 328, 154
-0.998508, 325, 121, 356, 136
-0.998508, 249, 221, 312, 236
-0.998509, 281, 155, 312, 170
-0.998511, 317, 147, 348, 162
-0.998511, 385, 129, 448, 144
-0.998512, 449, 3, 480, 18
-0.998512, 453, 23, 484, 38
-0.998513, 225, 357, 288, 372
-0.998514, 321, 127, 384, 142
-0.998514, 257, 227, 320, 242
-0.998514, 169, 349, 232, 364
-0.998514, 453, 15, 484, 30
-0.998515, 301, 225, 332, 240
-0.998517, 321, 119, 384, 134
-0.998517, 1, 309, 64, 324
-0.998518, 441, 33, 472, 48
-0.998518, 277, 125, 308, 140
-0.99852, 217, 317, 248, 332
-0.998521, 361, 113, 424, 128
-0.998523, 297, 275, 360, 290
-0.998524, 169, 251, 200, 266
-0.998525, 297, 225, 360, 240
-0.998525, 193, 181, 256, 196
-0.998525, 333, 127, 364, 142
-0.998525, 129, 361, 192, 375
-0.998527, 1, 303, 32, 318
-0.998528, 337, 83, 400, 98
-0.998529, 385, 123, 448, 138
-0.998529, 129, 355, 192, 370
-0.99853, 337, 97, 400, 112
-0.998531, 409, 119, 472, 134
-0.998534, 273, 151, 336, 166
-0.998534, 1, 323, 64, 338
-0.998535, 209, 349, 272, 364
-0.998535, 265, 239, 328, 254
-0.998537, 337, 77, 400, 92
-0.998537, 13, 311, 44, 326
-0.998539, 393, 57, 456, 72
-0.998539, 417, 129, 480, 144
-0.99854, 57, 103, 120, 118
-0.998541, 313, 111, 376, 126
-0.998541, 273, 177, 336, 192
-0.998543, 189, 267, 220, 282
-0.998543, 1, 303, 64, 318
-0.998544, 289, 133, 352, 148
-0.998544, 417, 47, 480, 62
-0.998544, 177, 5, 240, 20
-0.998544, 297, 79, 360, 94
-0.998544, 297, 145, 360, 160
-0.998544, 345, 129, 408, 144
-0.998544, 233, 175, 296, 190
-0.998545, 185, 169, 248, 184
-0.998546, 233, 167, 296, 182
-0.998546, 461, 87, 492, 102
-0.998547, 193, 331, 256, 346
-0.998549, 409, 113, 472, 128
-0.99855, 137, 169, 200, 184
-0.998554, 89, 241, 152, 256
-0.998554, 113, 247, 176, 262
-0.998555, 433, 179, 496, 194
-0.998555, 153, 83, 216, 98
-0.998556, 169, 343, 232, 358
-0.998558, 421, 113, 436, 240
-0.99856, 305, 139, 368, 154
-0.99856, 265, 259, 328, 274
-0.99856, 265, 133, 328, 148
-0.998561, 289, 103, 352, 118
-0.998562, 273, 273, 336, 288
-0.998563, 217, 341, 248, 356
-0.998565, 297, 85, 360, 100
-0.998566, 297, 117, 360, 132
-0.998567, 129, 95, 192, 110
-0.998569, 433, 173, 496, 188
-0.99857, 177, 255, 240, 270
-0.99857, 353, 107, 416, 122
-0.998572, 177, 85, 240, 100
-0.998573, 433, 23, 496, 38
-0.998574, 435, 129, 450, 256
-0.998575, 201, 191, 264, 206
-0.998575, 345, 121, 408, 136
-0.998576, 177, 261, 240, 276
-0.998577, 273, 85, 336, 100
-0.998579, 97, 351, 160, 366
-0.998579, 265, 233, 328, 248
-0.998582, 281, 161, 312, 176
-0.998584, 209, 213, 272, 228
-0.998585, 181, 255, 212, 270
-0.998585, 289, 73, 352, 88
-0.998585, 433, 15, 496, 30
-0.998587, 137, 257, 200, 272
-0.998587, 105, 343, 168, 358
-0.99859, 377, 285, 440, 300
-0.99859, 265, 123, 328, 138
-0.998591, 401, 105, 464, 120
-0.998591, 433, 33, 496, 48
-0.998592, 193, 313, 256, 328
-0.998592, 25, 109, 88, 124
-0.998592, 433, 185, 496, 200
-0.998593, 257, 267, 320, 282
-0.998593, 185, 325, 248, 340
-0.998593, 193, 337, 256, 352
-0.998594, 201, 271, 264, 286
-0.998597, 425, 39, 488, 54
-0.998598, 401, 147, 464, 162
-0.998598, 161, 267, 224, 282
-0.998599, 233, 273, 296, 288
-0.998599, 369, 93, 432, 108
-0.9986, 153, 249, 216, 264
-0.9986, 305, 97, 368, 112
-0.9986, 241, 237, 304, 252
-0.998602, 409, 155, 472, 170
-0.998602, 297, 151, 360, 166
-0.998602, 201, 203, 264, 218
-0.998602, 409, 193, 472, 208
-0.998603, 129, 89, 192, 104
-0.998604, 289, 13, 352, 28
-0.998604, 217, 337, 280, 352
-0.998605, 397, 49, 412, 176
-0.998605, 287, 177, 302, 304
-0.998606, 409, 291, 472, 306
-0.998607, 417, 53, 480, 68
-0.998608, 225, 231, 288, 246
-0.998609, 265, 253, 328, 268
-0.99861, 249, 161, 312, 176
-0.99861, 169, 331, 232, 346
-0.998611, 193, 283, 256, 298
-0.998611, 321, 277, 384, 292
-0.998611, 433, 295, 496, 310
-0.998612, 217, 225, 280, 240
-0.998612, 193, 307, 256, 322
-0.998612, 201, 265, 264, 280
-0.998613, 353, 283, 416, 298
-0.998613, 193, 277, 256, 292
-0.998613, 273, 117, 336, 132
-0.998644, 185, 261, 216, 276
-0.998646, 217, 173, 248, 188
-0.998653, 445, 129, 460, 256
-0.998693, 251, 193, 266, 320
-0.998696, 295, 81, 310, 208
-0.998738, 475, 1, 490, 128
-0.998746, 415, 113, 430, 240
-0.998751, 265, 209, 280, 336
-0.998752, 291, 225, 306, 352
-0.998764, 311, 1, 326, 128
-0.998767, 407, 97, 422, 224
-0.998771, 303, 81, 318, 208
-0.998778, 323, 1, 338, 128
-0.998785, 403, 49, 418, 176
-0.998796, 345, 65, 360, 192
-0.998818, 207, 161, 222, 288
-0.998823, 255, 1, 270, 128
-0.998825, 279, 1, 294, 128
-0.998828, 189, 161, 204, 288
-0.998829, 265, 1, 280, 128
-0.998831, 299, 161, 314, 288
-0.998834, 241, 1, 256, 128
-0.998844, 349, 1, 380, 256
-0.998845, 247, 1, 262, 128
-0.998848, 183, 161, 198, 288
-0.998849, 243, 177, 258, 304
-0.998849, 259, 209, 274, 336
-0.998857, 391, 49, 406, 176
-0.998864, 299, 209, 314, 336
-0.998881, 289, 33, 304, 160
-0.998883, 319, 65, 334, 192
-0.998885, 201, 241, 216, 368
-0.998893, 483, 81, 498, 208
-0.998899, 455, 1, 470, 128
-0.998904, 483, 1, 498, 128
-0.998905, 231, 1, 246, 128
-0.998906, 297, 1, 312, 128
-0.998906, 289, 129, 304, 256
-0.998909, 195, 161, 210, 288
-0.99891, 277, 81, 292, 208
-0.998919, 409, 49, 424, 176
-0.998921, 461, 1, 476, 128
-0.998928, 285, 225, 300, 352
-0.998932, 317, 1, 332, 128
-0.99894, 273, 1, 288, 128
-0.998946, 361, 209, 376, 336
-0.998952, 373, 1, 404, 256
-0.998953, 453, 97, 468, 224
-0.998959, 401, 129, 416, 256
-0.99896, 281, 161, 296, 288
-0.998967, 477, 81, 492, 208
-0.998972, 169, 1, 184, 128
-0.998977, 213, 161, 228, 288
-0.998977, 469, 1, 484, 128
-0.998978, 271, 209, 286, 336
-0.998978, 195, 241, 210, 368
-0.998979, 373, 209, 388, 336
-0.998982, 5, 33, 36, 288
-0.998986, 353, 209, 368, 336
-0.999, 367, 209, 382, 336
-0.999001, 351, 65, 366, 192
-0.999001, 389, 193, 404, 320
-0.999004, 271, 65, 286, 192
-0.999008, 305, 1, 320, 128
-0.999009, 305, 209, 320, 336
-0.999011, 327, 209, 342, 336
-0.999012, 385, 49, 400, 176
-0.999015, 1, 129, 32, 375
-0.999022, 313, 49, 328, 176
-0.999024, 161, 1, 176, 128
-0.999026, 317, 209, 332, 336
-0.999034, 183, 225, 198, 352
-0.999035, 311, 209, 326, 336
-0.999041, 347, 209, 362, 336
-0.999042, 225, 1, 240, 128
-0.999043, 415, 49, 430, 176
-0.999046, 279, 209, 294, 336
-0.999046, 335, 209, 350, 336
-0.99905, 341, 209, 356, 336
-0.999053, 333, 129, 348, 256
-0.999055, 449, 1, 464, 128
-0.999061, 229, 81, 244, 208
-0.999061, 383, 193, 398, 320
-0.999073, 397, 193, 412, 320
-0.999085, 17, 33, 48, 288
-0.999088, 201, 161, 216, 288
-0.99909, 173, 161, 188, 288
-0.999096, 421, 33, 436, 160
-0.999097, 219, 1, 234, 128
-0.999102, 429, 161, 444, 288
-0.999106, 343, 113, 358, 240
-0.999117, 275, 129, 290, 256
-0.999118, 219, 161, 234, 288
-0.999122, 175, 225, 190, 352
-0.999124, 325, 81, 340, 208
-0.999125, 131, 161, 146, 288
-0.999127, 125, 161, 140, 288
-0.999128, 403, 193, 418, 320
-0.999132, 329, 1, 344, 128
-0.999135, 139, 161, 154, 288
-0.99914, 357, 65, 372, 192
-0.999148, 409, 145, 424, 272
-0.99915, 337, 65, 352, 192
-0.999152, 207, 241, 222, 368
-0.999157, 435, 193, 450, 320
-0.999168, 233, 161, 248, 288
-0.99917, 117, 161, 132, 288
-0.999172, 461, 49, 476, 176
-0.99918, 239, 241, 254, 368
-0.999186, 227, 145, 242, 272
-0.999189, 377, 65, 392, 192
-0.999189, 245, 241, 260, 368
-0.999191, 307, 129, 322, 256
-0.999192, 99, 161, 114, 288
-0.999199, 395, 97, 410, 224
-0.999199, 145, 161, 160, 288
-0.9992, 155, 1, 170, 128
-0.9992, 41, 1, 72, 256
-0.999201, 235, 81, 250, 208
-0.999202, 173, 65, 188, 192
-0.999202, 419, 193, 434, 320
-0.999204, 411, 193, 426, 320
-0.999205, 485, 129, 500, 256
-0.999205, 385, 113, 400, 240
-0.999207, 67, 81, 82, 208
-0.999208, 55, 97, 70, 224
-0.999208, 175, 1, 190, 128
-0.999208, 73, 81, 88, 208
-0.999225, 103, 97, 118, 224
-0.999229, 441, 193, 456, 320
-0.999392, 361, 1, 392, 256
-0.999595, 39, 307, 54, 322
-0.999596, 197, 83, 212, 98
-0.999596, 315, 141, 330, 156
-0.999596, 347, 83, 362, 98
-0.999596, 45, 337, 60, 352
-0.999597, 443, 33, 458, 48
-0.999598, 25, 307, 40, 322
-0.999598, 303, 105, 318, 120
-0.999599, 169, 345, 184, 360
-0.9996, 485, 187, 500, 202
-0.9996, 337, 135, 352, 150
-0.999602, 21, 295, 36, 310
-0.999602, 485, 21, 500, 36
-0.999603, 179, 341, 194, 356
-0.999603, 173, 249, 188, 264
-0.999603, 289, 275, 304, 290
-0.999603, 173, 351, 188, 366
-0.999604, 295, 99, 310, 114
-0.999605, 373, 87, 388, 102
-0.999605, 341, 79, 356, 94
-0.999606, 473, 89, 488, 104
-0.999606, 45, 321, 60, 336
-0.999607, 169, 359, 184, 374
-0.999608, 269, 359, 284, 374
-0.999608, 1, 317, 16, 332
-0.999608, 455, 197, 470, 212
-0.999609, 277, 257, 292, 272
-0.999609, 203, 325, 218, 340
-0.999609, 139, 341, 154, 356
-0.999612, 147, 359, 162, 374
-0.999613, 331, 133, 346, 148
-0.999614, 129, 241, 144, 256
-0.999614, 229, 317, 244, 332
-0.999614, 463, 17, 478, 32
-0.999614, 293, 29, 308, 44
-0.999614, 295, 153, 310, 168
-0.999614, 209, 181, 224, 196
-0.999615, 309, 273, 324, 288
-0.999615, 211, 323, 226, 338
-0.999616, 281, 269, 296, 284
-0.999616, 45, 343, 60, 358
-0.999617, 289, 23, 304, 38
-0.999618, 201, 179, 216, 194
-0.999618, 357, 85, 372, 100
-0.999619, 301, 145, 316, 160
-0.99962, 285, 159, 300, 174
-0.999621, 291, 171, 306, 186
-0.999622, 229, 7, 244, 22
-0.999622, 253, 217, 268, 232
-0.999623, 485, 181, 500, 196
-0.999623, 277, 147, 292, 162
-0.999623, 465, 1, 480, 16
-0.999623, 293, 183, 308, 198
-0.999624, 55, 353, 70, 368
-0.999624, 361, 91, 376, 106
-0.999624, 119, 241, 134, 256
-0.999625, 185, 267, 200, 282
-0.999626, 303, 157, 318, 172
-0.999628, 187, 255, 202, 270
-0.999628, 273, 153, 288, 168
-0.999629, 221, 173, 236, 188
-0.99963, 351, 77, 366, 92
-0.99963, 179, 263, 194, 278
-0.999631, 471, 21, 486, 36
-0.999631, 251, 263, 266, 278
-0.999632, 43, 315, 58, 330
-0.999633, 143, 351, 158, 366
-0.999633, 223, 337, 238, 352
-0.999636, 145, 345, 160, 360
-0.999636, 331, 119, 346, 134
-0.999637, 13, 301, 28, 316
-0.999638, 265, 231, 280, 246
-0.999639, 283, 123, 298, 138
-0.999639, 449, 193, 464, 208
-0.99964, 285, 243, 300, 258
-0.999641, 449, 31, 464, 46
-0.999641, 161, 247, 176, 262
-0.999642, 307, 137, 322, 152
-0.999643, 151, 341, 166, 356
-0.999643, 329, 143, 344, 158
-0.999643, 319, 147, 334, 162
-0.999644, 457, 23, 472, 38
-0.999645, 181, 253, 196, 268
-0.999646, 181, 81, 196, 96
-0.999646, 179, 349, 194, 364
-0.999648, 307, 145, 322, 160
-0.999649, 177, 97, 192, 112
-0.99965, 49, 349, 64, 364
-0.99965, 343, 127, 358, 142
-0.999651, 193, 255, 208, 270
-0.999653, 367, 89, 382, 104
-0.999653, 215, 175, 230, 190
-0.999654, 55, 359, 70, 374
-0.999654, 29, 313, 44, 328
-0.999655, 229, 343, 244, 358
-0.999655, 195, 263, 210, 278
-0.999656, 35, 319, 50, 334
-0.999656, 305, 225, 320, 240
-0.999656, 227, 353, 242, 368
-0.999657, 209, 339, 224, 354
-0.999659, 291, 177, 306, 192
-0.999659, 257, 223, 272, 238
-0.999659, 463, 85, 478, 100
-0.999663, 277, 361, 292, 375
-0.999664, 7, 299, 22, 314
-0.999668, 307, 151, 322, 166
-0.999668, 479, 21, 494, 36
-0.999669, 375, 93, 390, 108
-0.999669, 201, 265, 216, 280
-0.999672, 469, 15, 484, 30
-0.999673, 337, 129, 352, 144
-0.999674, 337, 121, 352, 136
-0.999678, 301, 93, 316, 108
-0.999678, 295, 237, 310, 252
-0.99968, 281, 263, 296, 278
-0.999684, 13, 311, 28, 326
-0.999685, 457, 15, 472, 30
-0.999694, 229, 333, 244, 348
-0.999698, 313, 147, 328, 162
-0.999707, 201, 259, 216, 274
-0.999711, 227, 171, 242, 186
-0.999711, 37, 329, 52, 344
-0.999714, 293, 119, 308, 134
-0.999722, 1, 303, 16, 318
-0.999731, 3, 311, 18, 326
-0.999734, 297, 113, 312, 128
-0.999761, 331, 125, 346, 140
-0.999761, 189, 261, 204, 276
-0.999761, 279, 155, 294, 170
-0.999777, 7, 305, 22, 320
-0.999895, 29, 1, 60, 256
