1965
-0.277203, 1, 1, 500, 375
-0.280752, 1, 129, 500, 375
-0.412208, 129, 1, 384, 375
-0.420371, 1, 33, 500, 288
-0.53347, 225, 1, 480, 375
-0.605039, 33, 129, 288, 375
-0.623919, 161, 1, 416, 256
-0.666289, 225, 129, 480, 375
-0.671932, 33, 1, 288, 375
-0.703311, 129, 97, 384, 352
-0.805907, 65, 1, 320, 256
-0.806723, 257, 33, 500, 288
-0.824968, 1, 161, 500, 288
-0.838358, 193, 1, 320, 375
-0.849719, 193, 1, 320, 256
-0.859285, 241, 1, 368, 375
-0.873578, 49, 129, 176, 375
-0.877103, 113, 129, 240, 375
-0.883845, 1, 113, 500, 240
-0.891826, 289, 1, 416, 375
-0.892649, 145, 1, 272, 375
-0.892674, 177, 97, 304, 352
-0.892943, 273, 65, 400, 320
-0.893701, 337, 1, 464, 375
-0.894955, 321, 129, 448, 375
-0.897579, 1, 129, 128, 375
-0.900524, 1, 209, 500, 336
-0.903923, 33, 161, 288, 288
-0.905096, 321, 33, 448, 288
-0.905671, 97, 1, 224, 375
-0.909796, 49, 1, 176, 375
-0.909953, 225, 129, 352, 375
-0.91214, 225, 161, 480, 288
-0.912321, 145, 1, 272, 256
-0.915952, 97, 33, 224, 288
-0.918235, 1, 1, 128, 375
-0.925246, 1, 65, 500, 192
-0.92694, 369, 129, 496, 375
-0.927178, 49, 33, 176, 288
-0.9281, 1, 1, 128, 256
-0.929575, 161, 113, 416, 240
-0.93111, 49, 161, 176, 288
-0.937075, 321, 161, 448, 288
-0.937533, 57, 161, 120, 288
-0.939172, 369, 1, 496, 256
-0.941411, 65, 113, 320, 240
-0.942235, 193, 33, 448, 160
-0.944264, 1, 225, 256, 352
-0.944454, 257, 97, 500, 224
-0.946738, 17, 225, 80, 352
-0.947733, 129, 161, 384, 288
-0.948133, 105, 161, 168, 288
-0.949189, 257, 209, 500, 336
-0.951254, 153, 161, 216, 288
-0.95198, 369, 161, 432, 288
-0.952024, 113, 161, 240, 288
-0.953323, 417, 225, 480, 352
-0.953563, 209, 33, 336, 160
-0.953793, 193, 81, 320, 208
-0.956015, 369, 241, 496, 368
-0.956024, 113, 113, 240, 240
-0.956668, 289, 113, 352, 240
-0.956979, 273, 161, 400, 288
-0.957371, 1, 241, 128, 368
-0.958281, 289, 97, 416, 224
-0.958487, 97, 33, 352, 160
-0.958751, 225, 17, 288, 144
-0.959167, 225, 161, 352, 288
-0.959531, 57, 169, 120, 232
-0.959696, 17, 113, 80, 240
-0.961424, 241, 97, 368, 224
-0.961778, 49, 113, 176, 240
-0.962133, 161, 145, 288, 272
-0.962351, 201, 81, 264, 208
-0.962505, 153, 113, 216, 240
-0.962885, 265, 81, 328, 208
-0.963132, 1, 113, 128, 240
-0.963174, 313, 97, 376, 224
-0.963286, 241, 81, 304, 208
-0.964121, 1, 17, 500, 144
-0.964159, 121, 113, 184, 240
-0.964399, 129, 161, 192, 288
-0.964819, 265, 33, 328, 160
-0.965073, 81, 161, 144, 288
-0.965264, 81, 169, 144, 232
-0.965622, 369, 169, 432, 232
-0.966447, 17, 257, 80, 320
-0.966732, 105, 169, 168, 232
-0.967548, 65, 113, 128, 240
-0.968386, 89, 113, 152, 240
-0.968551, 337, 161, 400, 288
-0.968586, 273, 161, 336, 288
-0.968633, 361, 113, 424, 240
-0.968964, 185, 161, 248, 288
-0.96936, 1, 161, 128, 288
-0.969804, 281, 129, 344, 192
-0.970079, 297, 161, 360, 288
-0.97073, 369, 177, 496, 304
-0.971058, 337, 113, 464, 240
-0.971237, 129, 169, 192, 232
-0.971262, 33, 161, 96, 288
-0.971262, 393, 161, 456, 288
-0.971295, 25, 233, 88, 296
-0.971499, 177, 313, 240, 375
-0.971954, 49, 169, 176, 232
-0.972494, 393, 209, 456, 336
-0.972761, 161, 169, 224, 232
-0.972824, 57, 161, 88, 288
-0.97299, 297, 169, 360, 232
-0.973064, 273, 169, 336, 232
-0.973133, 201, 33, 264, 160
-0.973382, 337, 169, 400, 232
-0.973681, 249, 145, 312, 272
-0.973803, 225, 1, 288, 256
-0.973875, 249, 1, 312, 256
-0.97389, 1, 65, 256, 192
-0.974001, 177, 113, 240, 240
-0.974115, 417, 241, 480, 304
-0.974169, 225, 145, 288, 272
-0.974288, 257, 33, 384, 160
-0.974662, 37, 233, 68, 296
-0.9747, 297, 1, 360, 128
-0.975487, 9, 281, 72, 344
-0.975599, 89, 145, 152, 208
-0.975859, 57, 129, 120, 375
-0.975901, 417, 265, 480, 328
-0.976065, 49, 193, 112, 256
-0.976118, 377, 201, 440, 264
-0.976483, 369, 145, 432, 208
-0.976721, 9, 121, 72, 184
-0.976789, 225, 33, 288, 96
-0.976916, 321, 169, 448, 232
-0.977402, 201, 1, 264, 256
-0.977472, 177, 241, 240, 368
-0.977581, 193, 145, 256, 208
-0.977645, 169, 129, 232, 375
-0.977862, 57, 177, 88, 240
-0.978074, 321, 209, 448, 336
-0.978181, 161, 161, 192, 288
-0.978211, 49, 217, 112, 280
-0.978361, 185, 289, 248, 352
-0.978448, 209, 41, 336, 104
-0.978507, 273, 97, 336, 160
-0.978847, 161, 129, 224, 192
-0.979081, 161, 33, 288, 160
-0.979114, 257, 137, 320, 200
-0.979132, 305, 33, 432, 160
-0.979186, 33, 201, 160, 264
-0.979312, 113, 169, 240, 232
-0.979618, 1, 121, 32, 184
-0.979661, 9, 97, 72, 352
-0.979663, 113, 129, 176, 375
-0.979803, 393, 225, 456, 288
-0.979809, 313, 113, 344, 240
-0.979853, 273, 33, 336, 288
-0.979858, 41, 209, 104, 336
-0.980138, 405, 161, 436, 288
-0.980458, 177, 137, 304, 200
-0.980542, 305, 137, 368, 200
-0.980591, 369, 129, 432, 375
-0.980733, 13, 121, 44, 184
-0.980781, 405, 169, 436, 232
-0.980963, 37, 225, 68, 352
-0.980973, 249, 169, 312, 232
-0.980996, 109, 169, 140, 232
-0.98107, 17, 305, 80, 368
-0.9813, 49, 225, 176, 352
-0.981314, 161, 225, 288, 352
-0.981373, 137, 129, 200, 375
-0.981468, 365, 161, 396, 288
-0.981503, 1, 233, 64, 296
-0.981564, 141, 161, 172, 288
-0.981784, 417, 297, 480, 360
-0.981812, 113, 129, 240, 192
-0.981883, 273, 137, 400, 200
-0.981999, 429, 233, 460, 296
-0.982013, 281, 73, 344, 136
-0.982088, 1, 273, 128, 336
-0.982167, 365, 169, 396, 232
-0.982255, 265, 41, 328, 104
-0.982271, 297, 65, 360, 320
-0.982302, 273, 169, 400, 232
-0.982418, 353, 161, 384, 288
-0.982476, 321, 33, 384, 288
-0.982604, 417, 177, 480, 304
-0.982697, 337, 113, 400, 240
-0.982831, 1, 129, 128, 192
-0.982916, 409, 177, 472, 240
-0.982976, 337, 145, 400, 208
-0.983103, 269, 81, 300, 208
-0.983112, 305, 137, 336, 200
-0.98312, 417, 217, 480, 280
-0.983175, 81, 129, 144, 375
-0.983197, 81, 169, 112, 232
-0.983219, 409, 153, 472, 216
-0.983289, 285, 169, 316, 232
-0.983364, 33, 225, 160, 288
-0.983491, 153, 281, 216, 344
-0.983534, 301, 113, 332, 240
-0.983563, 265, 1, 328, 375
-0.983679, 181, 161, 212, 288
-0.983707, 469, 281, 500, 344
-0.983776, 105, 201, 168, 264
-0.983776, 205, 81, 236, 208
-0.983789, 41, 113, 104, 240
-0.983844, 117, 161, 148, 288
-0.983875, 137, 169, 168, 232
-0.983925, 185, 169, 248, 232
-0.98393, 17, 201, 80, 264
-0.983954, 125, 169, 156, 232
-0.983997, 397, 145, 428, 208
-0.98408, 425, 209, 456, 336
-0.984141, 333, 161, 364, 288
-0.984242, 369, 273, 496, 336
-0.984263, 217, 1, 280, 375
-0.984419, 49, 241, 112, 304
-0.984426, 345, 169, 376, 232
-0.98446, 337, 225, 464, 288
-0.984492, 241, 1, 304, 375
-0.984655, 33, 129, 96, 375
-0.984666, 225, 145, 352, 208
-0.984825, 293, 137, 324, 200
-0.984834, 97, 169, 128, 232
-0.984902, 9, 177, 72, 304
-0.984918, 113, 145, 176, 208
-0.984919, 1, 65, 128, 192
-0.985022, 393, 129, 424, 256
-0.985023, 93, 161, 124, 288
-0.985032, 1, 97, 32, 160
-0.985098, 69, 169, 100, 232
-0.985186, 217, 305, 280, 368
-0.985199, 217, 305, 248, 368
-0.985241, 289, 113, 320, 240
-0.985249, 273, 129, 336, 375
-0.985278, 321, 145, 448, 208
-0.985311, 1, 249, 128, 312
-0.98554, 177, 161, 304, 224
-0.985551, 325, 81, 356, 208
-0.985552, 329, 129, 392, 375
-0.985628, 129, 161, 160, 288
-0.985643, 309, 161, 340, 288
-0.985655, 165, 169, 196, 232
-0.985719, 289, 1, 352, 375
-0.985751, 17, 97, 80, 160
-0.985754, 141, 113, 172, 240
-0.985798, 181, 169, 212, 232
-0.985803, 285, 161, 316, 288
-0.98583, 409, 113, 472, 240
-0.985844, 313, 97, 376, 160
-0.985881, 225, 169, 352, 232
-0.985899, 325, 169, 356, 232
-0.985912, 181, 113, 212, 240
-0.985915, 57, 145, 120, 208
-0.986085, 193, 129, 256, 375
-0.986119, 217, 129, 280, 375
-0.986221, 281, 33, 312, 160
-0.986228, 225, 145, 288, 208
-0.986229, 205, 145, 236, 208
-0.986248, 381, 161, 412, 288
-0.98633, 25, 121, 56, 184
-0.986371, 157, 113, 188, 240
-0.986373, 1, 297, 128, 360
-0.986385, 149, 169, 180, 232
-0.9864, 181, 313, 212, 375
-0.986425, 77, 161, 108, 288
-0.986457, 125, 113, 156, 240
-0.98646, 217, 169, 280, 232
-0.986478, 49, 33, 112, 288
-0.986543, 1, 169, 500, 232
-0.986618, 105, 161, 136, 288
-0.986626, 337, 201, 464, 264
-0.986642, 353, 249, 480, 312
-0.986705, 297, 169, 328, 232
-0.986777, 33, 129, 64, 256
-0.986845, 217, 225, 280, 352
-0.986856, 137, 145, 200, 208
-0.986939, 209, 1, 272, 64
-0.98705, 145, 305, 208, 368
-0.98707, 13, 273, 44, 336
-0.987092, 161, 297, 288, 360
-0.987221, 257, 17, 288, 144
-0.987241, 193, 129, 224, 256
-0.987256, 113, 65, 240, 192
-0.987322, 201, 105, 264, 168
-0.987326, 37, 209, 68, 272
-0.987328, 153, 33, 216, 288
-0.987331, 77, 113, 108, 240
-0.987343, 305, 65, 368, 128
-0.987489, 201, 41, 264, 104
-0.987494, 297, 161, 328, 288
-0.987501, 457, 273, 488, 336
-0.987631, 185, 129, 216, 192
-0.98765, 385, 1, 448, 375
-0.98767, 57, 113, 88, 240
-0.987746, 169, 113, 200, 240
-0.987787, 289, 49, 352, 176
-0.987849, 193, 1, 256, 375
-0.987867, 129, 33, 192, 288
-0.987882, 1, 105, 128, 168
-0.987912, 245, 17, 276, 144
-0.987918, 177, 65, 240, 192
-0.987944, 129, 225, 384, 352
-0.987972, 305, 105, 432, 168
-0.988018, 17, 241, 48, 368
-0.988076, 317, 129, 348, 192
-0.988135, 57, 289, 120, 352
-0.988142, 177, 105, 304, 168
-0.988142, 361, 33, 424, 288
-0.988195, 97, 33, 160, 288
-0.988239, 321, 161, 352, 288
-0.988268, 385, 113, 448, 240
-0.98828, 321, 1, 384, 375
-0.988289, 17, 177, 80, 240
-0.988324, 385, 313, 448, 375
-0.988325, 97, 241, 224, 368
-0.988364, 201, 65, 264, 128
-0.988395, 225, 89, 352, 152
-0.988397, 49, 145, 176, 208
-0.988452, 17, 113, 48, 240
-0.988486, 469, 305, 500, 368
-0.988508, 109, 113, 140, 240
-0.988529, 445, 241, 476, 368
-0.988534, 129, 209, 192, 336
-0.988546, 305, 33, 368, 96
-0.988549, 233, 281, 296, 344
-0.988553, 209, 65, 336, 128
-0.988578, 1, 97, 32, 224
-0.988608, 289, 73, 416, 136
-0.988617, 241, 105, 304, 168
-0.988619, 409, 1, 472, 375
-0.98864, 193, 161, 224, 224
-0.988734, 41, 177, 72, 304
-0.988779, 337, 313, 464, 375
-0.988807, 309, 169, 340, 232
-0.988872, 289, 41, 416, 104
-0.988895, 217, 161, 248, 288
-0.988948, 373, 113, 404, 240
-0.988982, 337, 33, 400, 160
-0.989045, 361, 1, 424, 375
-0.989112, 377, 161, 408, 224
-0.989115, 245, 161, 276, 288
-0.989125, 49, 313, 176, 375
-0.989137, 1, 169, 128, 232
-0.989207, 49, 121, 112, 184
-0.989256, 89, 113, 120, 240
-0.989294, 249, 129, 312, 375
-0.989318, 177, 33, 240, 288
-0.989364, 57, 177, 120, 208
-0.989399, 385, 33, 448, 288
-0.989409, 73, 33, 136, 288
-0.989444, 269, 33, 300, 160
-0.989471, 293, 33, 324, 160
-0.98948, 205, 145, 236, 272
-0.989489, 273, 129, 304, 256
-0.989579, 101, 145, 132, 208
-0.989599, 369, 169, 496, 232
-0.989602, 41, 257, 72, 320
-0.989625, 393, 169, 424, 232
-0.989726, 53, 209, 84, 272
-0.989728, 281, 137, 312, 200
-0.989759, 25, 249, 56, 312
-0.989762, 225, 33, 256, 160
-0.98979, 417, 281, 448, 344
-0.989862, 113, 17, 240, 144
-0.989891, 49, 225, 80, 352
-0.989934, 221, 281, 252, 344
-0.989958, 229, 145, 260, 272
-0.990015, 49, 1, 112, 375
-0.990185, 9, 125, 72, 156
-0.99023, 269, 169, 300, 232
-0.990233, 369, 173, 432, 204
-0.990266, 229, 97, 260, 224
-0.990331, 209, 281, 336, 344
-0.99038, 33, 169, 288, 232
-0.9904, 389, 81, 420, 208
-0.990408, 213, 49, 244, 112
-0.990531, 17, 145, 80, 208
-0.990549, 257, 17, 384, 80
-0.990577, 49, 313, 112, 375
-0.990579, 181, 289, 212, 352
-0.99058, 369, 49, 496, 176
-0.990607, 13, 97, 44, 160
-0.990671, 257, 97, 288, 224
-0.990698, 233, 225, 264, 352
-0.99071, 161, 1, 224, 375
-0.99076, 425, 209, 456, 272
-0.990816, 353, 1, 480, 128
-0.990934, 405, 193, 436, 256
-0.990939, 113, 173, 176, 204
-0.99097, 81, 201, 144, 264
-0.990988, 113, 297, 240, 360
-0.99104, 237, 289, 268, 352
-0.991098, 137, 173, 200, 204
-0.991101, 49, 205, 112, 236
-0.991112, 417, 273, 480, 304
-0.991122, 161, 173, 224, 204
-0.991131, 369, 145, 496, 208
-0.991151, 273, 157, 336, 188
-0.991158, 81, 1, 144, 375
-0.991166, 377, 213, 440, 244
-0.991173, 9, 245, 72, 276
-0.991205, 309, 105, 340, 168
-0.991208, 17, 273, 80, 304
-0.99123, 185, 313, 248, 344
-0.991245, 33, 281, 96, 344
-0.991247, 413, 313, 444, 375
-0.991299, 13, 241, 44, 304
-0.991334, 45, 281, 76, 344
-0.991356, 225, 169, 480, 232
-0.991388, 89, 145, 120, 208
-0.991398, 417, 261, 480, 292
-0.991459, 105, 1, 168, 375
-0.991469, 417, 245, 480, 276
-0.99147, 17, 261, 80, 292
-0.991523, 153, 209, 216, 272
-0.991539, 89, 173, 152, 204
-0.991558, 269, 145, 300, 208
-0.991568, 33, 233, 96, 264
-0.991591, 213, 33, 244, 160
-0.991591, 337, 49, 400, 112
-0.991604, 337, 169, 400, 200
-0.991616, 377, 281, 440, 344
-0.991624, 17, 1, 80, 375
-0.991657, 369, 137, 400, 200
-0.991682, 281, 173, 344, 204
-0.991711, 241, 157, 304, 188
-0.991747, 429, 161, 460, 288
-0.991753, 113, 105, 240, 168
-0.991763, 369, 161, 432, 192
-0.991764, 49, 193, 112, 224
-0.991771, 33, 121, 96, 152
-0.991777, 337, 73, 400, 136
-0.991779, 17, 325, 80, 356
-0.991793, 25, 65, 88, 192
-0.991797, 361, 121, 424, 184
-0.991811, 169, 329, 232, 360
-0.991812, 49, 217, 112, 248
-0.991815, 201, 157, 264, 188
-0.991817, 233, 1, 296, 64
-0.991835, 401, 233, 464, 264
-0.991846, 257, 169, 320, 200
-0.991859, 305, 173, 368, 204
-0.991873, 81, 161, 144, 192
-0.991894, 185, 341, 248, 372
-0.9919, 161, 161, 224, 192
-0.991911, 273, 93, 336, 124
-0.991916, 233, 73, 296, 136
-0.991925, 417, 233, 448, 296
-0.991926, 9, 309, 72, 340
-0.991942, 209, 17, 336, 80
-0.991944, 353, 113, 384, 240
-0.991955, 409, 33, 472, 288
-0.991971, 57, 165, 120, 196
-0.991996, 297, 161, 360, 192
-0.99201, 13, 125, 44, 156
-0.992025, 417, 309, 480, 340
-0.992026, 225, 37, 288, 68
-0.992033, 409, 145, 440, 208
-0.992054, 377, 225, 440, 256
-0.992054, 417, 337, 480, 368
-0.99206, 1, 125, 32, 156
-0.992062, 185, 169, 248, 200
-0.992068, 113, 145, 144, 208
-0.992074, 225, 297, 288, 328
-0.992087, 9, 137, 72, 168
-0.99209, 433, 289, 496, 320
-0.992091, 33, 249, 96, 280
-0.992099, 17, 345, 80, 375
-0.992106, 225, 121, 352, 184
-0.992107, 321, 105, 352, 168
-0.992137, 393, 129, 456, 375
-0.992138, 273, 141, 336, 172
-0.992144, 201, 77, 264, 108
-0.992174, 377, 193, 440, 224
-0.99218, 145, 313, 208, 344
-0.992181, 417, 257, 448, 320
-0.992186, 245, 113, 276, 240
-0.992201, 257, 285, 320, 316
-0.992201, 9, 233, 72, 264
-0.992211, 161, 81, 288, 144
-0.992226, 345, 201, 376, 264
-0.992227, 409, 161, 472, 192
-0.992229, 381, 137, 412, 200
-0.992232, 17, 185, 80, 216
-0.992241, 417, 221, 480, 252
-0.992248, 113, 161, 176, 192
-0.992264, 337, 81, 368, 208
-0.992271, 17, 205, 80, 236
-0.992313, 145, 329, 208, 360
-0.992316, 193, 325, 256, 356
-0.992329, 413, 225, 444, 352
-0.992358, 233, 81, 296, 112
-0.99237, 409, 181, 472, 212
-0.992401, 445, 249, 476, 312
-0.992404, 177, 293, 240, 324
-0.992429, 417, 321, 480, 352
-0.992431, 409, 201, 472, 232
-0.992439, 297, 201, 360, 232
-0.992449, 57, 177, 88, 208
-0.992457, 17, 221, 80, 252
-0.992471, 409, 297, 472, 328
-0.992482, 281, 125, 344, 156
-0.992507, 37, 237, 68, 268
-0.99251, 405, 113, 436, 240
-0.99251, 345, 157, 408, 188
-0.992523, 169, 289, 200, 352
-0.992543, 137, 161, 200, 192
-0.992562, 393, 249, 456, 312
-0.992575, 281, 109, 344, 140
-0.992575, 1, 285, 64, 316
-0.992585, 201, 141, 264, 172
-0.99259, 253, 33, 284, 96
-0.992602, 257, 41, 320, 72
-0.99262, 137, 1, 200, 375
-0.992624, 221, 293, 252, 324
-0.992625, 201, 89, 264, 120
-0.992627, 425, 185, 456, 248
-0.992632, 233, 169, 296, 200
-0.992656, 161, 137, 416, 200
-0.992657, 357, 145, 388, 208
-0.992659, 193, 113, 256, 144
-0.992659, 217, 309, 280, 340
-0.992664, 9, 297, 72, 328
-0.992669, 409, 285, 472, 316
-0.992708, 257, 281, 320, 344
-0.99271, 201, 129, 264, 160
-0.992712, 265, 81, 328, 112
-0.99272, 297, 9, 360, 72
-0.992745, 405, 173, 436, 204
-0.992753, 25, 285, 88, 316
-0.992755, 305, 213, 368, 244
-0.992757, 393, 245, 456, 276
-0.992781, 273, 69, 336, 100
-0.992782, 161, 121, 224, 152
-0.992796, 97, 201, 224, 264
-0.992818, 225, 33, 256, 96
-0.992818, 297, 137, 360, 168
-0.992841, 193, 81, 224, 208
-0.992841, 237, 293, 268, 324
-0.992848, 257, 205, 320, 236
-0.992851, 289, 81, 352, 112
-0.992859, 161, 105, 224, 168
-0.99286, 73, 213, 136, 244
-0.992871, 201, 293, 264, 324
-0.992876, 217, 313, 248, 344
-0.99288, 221, 225, 252, 352
-0.99289, 241, 141, 304, 172
-0.9929, 225, 93, 288, 124
-0.992903, 321, 157, 384, 188
-0.992906, 57, 301, 120, 332
-0.992914, 29, 125, 60, 156
-0.992924, 305, 57, 368, 88
-0.992948, 425, 233, 488, 264
-0.992962, 37, 257, 68, 288
-0.992966, 201, 65, 264, 96
-0.992966, 217, 325, 280, 356
-0.992967, 393, 153, 424, 184
-0.992971, 369, 137, 432, 168
-0.992974, 129, 301, 192, 332
-0.992976, 225, 229, 288, 260
-0.992979, 377, 289, 440, 320
-0.992984, 1, 193, 500, 256
-0.992984, 145, 57, 272, 120
-0.992988, 217, 53, 280, 84
-0.992995, 57, 265, 120, 328
-0.992997, 305, 125, 368, 156
-0.992999, 425, 237, 456, 268
-0.993, 181, 329, 212, 360
-0.993, 369, 149, 432, 180
-0.993013, 133, 173, 164, 204
-0.993017, 145, 173, 176, 204
-0.993017, 17, 137, 48, 168
-0.993021, 177, 173, 208, 204
-0.993025, 17, 169, 80, 200
-0.993027, 157, 173, 188, 204
-0.993028, 305, 45, 368, 76
-0.993037, 229, 313, 260, 344
-0.993038, 121, 173, 152, 204
-0.993043, 9, 113, 72, 144
-0.993044, 49, 249, 176, 312
-0.993053, 401, 129, 464, 192
-0.993054, 305, 69, 368, 100
-0.993078, 109, 173, 140, 204
-0.993085, 49, 289, 176, 352
-0.993109, 249, 105, 312, 136
-0.99311, 377, 257, 440, 288
-0.993112, 21, 265, 52, 296
-0.993112, 257, 17, 320, 80
-0.993113, 13, 113, 44, 144
-0.993119, 305, 101, 368, 132
-0.993121, 85, 177, 116, 208
-0.993131, 209, 281, 272, 344
-0.993131, 289, 161, 320, 192
-0.993132, 189, 173, 220, 204
-0.993136, 385, 321, 448, 352
-0.993137, 265, 53, 328, 84
-0.99314, 57, 289, 120, 320
-0.99314, 49, 317, 112, 348
-0.993142, 177, 293, 208, 324
-0.993145, 169, 313, 200, 344
-0.99315, 193, 161, 224, 192
-0.993155, 205, 305, 236, 368
-0.993162, 229, 313, 260, 375
-0.993166, 405, 161, 436, 192
-0.993167, 289, 173, 320, 204
-0.993171, 181, 309, 212, 340
-0.993177, 53, 221, 84, 252
-0.99318, 73, 177, 104, 208
-0.993184, 105, 205, 168, 236
-0.993186, 369, 169, 400, 200
-0.993187, 17, 245, 48, 276
-0.99319, 417, 161, 448, 288
-0.99319, 97, 177, 128, 208
-0.993191, 37, 225, 68, 256
-0.993194, 169, 333, 200, 364
-0.993194, 205, 153, 236, 184
-0.993197, 1, 17, 256, 144
-0.993203, 433, 249, 464, 280
-0.993205, 1, 137, 32, 168
-0.993206, 469, 289, 500, 320
-0.993209, 1, 217, 500, 280
-0.993211, 305, 173, 336, 204
-0.993215, 257, 129, 320, 160
-0.993215, 277, 161, 308, 192
-0.993228, 145, 213, 208, 244
-0.993235, 201, 41, 264, 72
-0.993237, 33, 305, 96, 336
-0.993242, 57, 121, 120, 152
-0.993243, 353, 169, 384, 200
-0.993247, 161, 137, 224, 168
-0.993249, 209, 301, 240, 332
-0.993251, 57, 237, 120, 268
-0.993253, 321, 173, 352, 204
-0.993256, 13, 281, 44, 312
-0.993256, 161, 297, 192, 328
-0.99326, 277, 173, 308, 204
-0.993269, 105, 161, 136, 192
-0.993272, 217, 209, 280, 240
-0.993278, 5, 261, 36, 292
-0.993278, 301, 161, 332, 192
-0.993282, 445, 261, 476, 292
-0.993283, 333, 173, 364, 204
-0.993289, 113, 305, 144, 336
-0.993293, 57, 165, 88, 196
-0.993297, 49, 285, 80, 316
-0.993298, 305, 117, 336, 148
-0.993303, 233, 69, 296, 100
-0.993304, 385, 49, 448, 176
-0.993307, 53, 205, 84, 236
-0.993308, 89, 165, 120, 196
-0.993308, 469, 309, 500, 340
-0.993316, 265, 161, 296, 192
-0.99332, 257, 73, 320, 136
-0.99332, 17, 1, 80, 256
-0.993331, 305, 137, 336, 168
-0.993337, 393, 169, 424, 200
-0.993345, 381, 169, 412, 200
-0.993346, 1, 113, 32, 144
-0.993348, 425, 181, 456, 212
-0.993353, 409, 221, 440, 252
-0.993355, 425, 213, 456, 244
-0.993356, 433, 341, 464, 372
-0.993358, 237, 25, 268, 88
-0.993359, 37, 205, 68, 236
-0.99336, 249, 297, 280, 328
-0.993363, 161, 25, 288, 88
-0.993364, 429, 225, 460, 256
-0.993369, 37, 185, 68, 216
-0.993373, 217, 333, 248, 364
-0.993374, 13, 293, 44, 324
-0.99338, 121, 161, 152, 192
-0.993385, 377, 157, 408, 188
-0.993385, 217, 73, 248, 104
-0.99339, 53, 193, 84, 224
-0.993392, 417, 281, 448, 312
-0.993393, 201, 173, 232, 204
-0.993399, 417, 301, 448, 332
-0.993408, 361, 213, 392, 244
-0.993414, 229, 77, 260, 108
-0.993415, 45, 305, 76, 336
-0.993419, 165, 161, 196, 192
-0.993421, 177, 17, 240, 144
-0.993426, 349, 225, 380, 256
-0.99343, 177, 161, 208, 192
-0.99343, 365, 157, 396, 188
-0.993432, 321, 281, 448, 344
-0.993433, 69, 165, 100, 196
-0.993434, 181, 281, 212, 312
-0.993437, 413, 321, 444, 352
-0.993438, 41, 273, 72, 304
-0.993438, 65, 301, 96, 332
-0.993439, 405, 193, 436, 224
-0.993439, 321, 161, 352, 192
-0.993443, 181, 341, 212, 372
-0.993445, 457, 281, 488, 312
-0.993447, 237, 277, 268, 308
-0.993447, 425, 201, 456, 232
-0.993452, 241, 213, 272, 244
-0.993455, 321, 1, 352, 128
-0.993455, 409, 205, 440, 236
-0.993455, 393, 121, 424, 184
-0.993457, 237, 233, 268, 264
-0.993458, 153, 161, 184, 192
-0.993462, 449, 241, 480, 272
-0.993467, 261, 281, 292, 312
-0.993471, 57, 313, 88, 375
-0.993471, 145, 1, 272, 64
-0.993475, 141, 161, 172, 192
-0.993475, 425, 261, 456, 292
-0.993477, 289, 141, 320, 172
-0.99348, 197, 293, 228, 324
-0.993481, 209, 53, 240, 84
-0.993482, 321, 121, 352, 152
-0.993486, 93, 209, 124, 240
-0.993489, 205, 141, 236, 172
-0.993489, 393, 141, 424, 172
-0.993489, 57, 313, 88, 344
-0.993499, 49, 233, 80, 264
-0.9935, 265, 173, 296, 204
-0.993511, 317, 133, 348, 164
-0.993512, 245, 157, 276, 188
-0.993512, 229, 325, 260, 356
-0.993515, 205, 129, 236, 160
-0.993518, 425, 169, 456, 200
-0.993519, 233, 33, 264, 64
-0.993519, 269, 81, 300, 112
-0.993521, 253, 37, 284, 68
-0.993523, 293, 129, 324, 160
-0.993559, 425, 161, 456, 224
-0.993572, 313, 49, 376, 176
-0.993588, 361, 201, 392, 264
-0.993613, 261, 145, 292, 272
-0.993657, 105, 305, 168, 368
-0.993734, 177, 25, 240, 88
-0.993756, 57, 153, 88, 216
-0.99383, 177, 81, 240, 144
-0.993846, 1, 201, 256, 264
-0.993879, 217, 81, 248, 208
-0.993912, 197, 281, 228, 344
-0.993949, 305, 65, 336, 192
-0.993959, 161, 313, 192, 375
-0.994069, 257, 137, 500, 200
-0.994077, 209, 209, 336, 336
-0.994109, 125, 145, 156, 208
-0.994126, 177, 257, 304, 320
-0.994128, 141, 145, 172, 208
-0.994138, 69, 145, 100, 208
-0.994151, 205, 121, 236, 184
-0.994158, 429, 313, 460, 375
-0.994167, 193, 105, 448, 168
-0.994175, 113, 121, 176, 184
-0.994179, 417, 129, 480, 375
-0.994202, 1, 233, 256, 296
-0.994212, 1, 249, 32, 312
-0.994287, 257, 241, 500, 304
-0.994297, 385, 65, 448, 128
-0.994304, 33, 97, 64, 160
-0.994356, 257, 217, 500, 280
-0.994359, 1, 105, 500, 168
-0.994377, 1, 145, 500, 208
-0.994397, 221, 1, 252, 64
-0.994406, 173, 145, 204, 208
-0.994418, 245, 145, 276, 208
-0.994419, 129, 161, 384, 224
-0.994424, 369, 65, 496, 128
-0.994468, 157, 145, 188, 208
-0.994484, 193, 41, 448, 104
-0.994496, 113, 273, 240, 336
-0.99456, 45, 113, 76, 240
-0.994598, 49, 177, 176, 208
-0.994609, 49, 121, 176, 184
-0.994627, 297, 41, 328, 104
-0.994658, 281, 41, 312, 104
-0.994698, 257, 169, 288, 232
-0.994709, 321, 173, 448, 204
-0.994722, 269, 41, 300, 104
-0.99473, 209, 209, 336, 272
-0.994739, 1, 241, 500, 304
-0.994833, 33, 137, 288, 200
-0.994837, 329, 145, 360, 208
-0.994844, 257, 137, 288, 200
-0.994849, 205, 169, 236, 232
-0.994877, 59, 177, 74, 240
-0.99488, 381, 209, 412, 272
-0.994896, 457, 241, 488, 368
-0.994923, 57, 289, 88, 352
-0.994985, 457, 313, 488, 375
-0.994998, 229, 305, 244, 368
-0.995053, 193, 81, 448, 144
-0.99506, 113, 201, 144, 264
-0.995118, 113, 81, 240, 144
-0.995187, 193, 257, 256, 320
-0.995189, 485, 281, 500, 344
-0.995191, 217, 145, 248, 208
-0.995192, 37, 185, 68, 248
-0.995199, 21, 113, 36, 176
-0.995259, 205, 81, 236, 144
-0.995263, 433, 1, 496, 375
-0.995295, 161, 297, 288, 328
-0.995299, 1, 257, 256, 320
-0.99532, 1, 313, 256, 375
-0.995352, 469, 225, 500, 352
-0.995357, 297, 201, 360, 264
-0.99536, 27, 121, 42, 184
-0.995406, 225, 169, 256, 232
-0.995407, 225, 281, 480, 344
-0.99542, 1, 281, 256, 344
-0.995426, 237, 289, 252, 352
-0.995437, 127, 169, 142, 232
-0.99545, 21, 313, 52, 375
-0.995464, 177, 161, 304, 192
-0.995468, 245, 169, 276, 232
-0.995515, 15, 121, 30, 184
-0.995525, 223, 297, 238, 360
-0.995567, 113, 173, 240, 204
-0.995591, 417, 169, 432, 232
-0.995617, 229, 137, 260, 200
-0.995679, 7, 113, 22, 176
-0.995686, 1, 113, 256, 176
-0.995717, 345, 145, 376, 208
-0.995727, 57, 241, 88, 304
-0.99573, 1, 121, 128, 152
-0.995777, 121, 169, 136, 232
-0.99579, 407, 145, 422, 208
-0.995832, 413, 145, 428, 208
-0.995832, 257, 193, 500, 256
-0.995845, 337, 25, 464, 88
-0.995866, 337, 209, 464, 240
-0.995878, 137, 169, 152, 232
-0.995895, 315, 137, 330, 200
-0.995904, 257, 273, 384, 336
-0.995918, 209, 49, 336, 80
-0.995928, 115, 169, 130, 232
-0.995929, 177, 49, 240, 112
-0.995936, 309, 81, 340, 144
-0.995952, 309, 129, 324, 192
-0.995956, 51, 233, 66, 296
-0.995965, 109, 169, 124, 232
-0.995972, 177, 241, 208, 368
-0.996022, 1, 265, 500, 328
-0.996028, 353, 121, 480, 184
-0.99604, 257, 313, 500, 375
-0.99605, 1, 313, 32, 375
-0.996057, 475, 281, 490, 344
-0.996068, 235, 313, 250, 375
-0.996074, 113, 305, 144, 368
-0.996101, 349, 169, 364, 232
-0.996106, 291, 169, 306, 232
-0.99611, 1, 313, 500, 375
-0.996174, 97, 41, 352, 104
-0.996192, 89, 169, 104, 232
-0.996192, 201, 33, 232, 160
-0.996196, 333, 201, 364, 264
-0.996201, 189, 169, 204, 232
-0.99624, 195, 169, 210, 232
-0.996255, 17, 237, 144, 268
-0.996261, 99, 169, 114, 232
-0.996261, 429, 257, 460, 320
-0.996269, 1, 121, 16, 184
-0.996276, 429, 233, 444, 296
-0.996297, 37, 161, 68, 224
-0.996297, 353, 97, 416, 160
-0.996316, 79, 169, 94, 232
-0.99632, 303, 137, 318, 200
-0.996328, 161, 225, 288, 288
-0.996328, 161, 169, 176, 232
-0.996336, 333, 169, 348, 232
-0.996336, 305, 1, 432, 64
-0.996361, 299, 169, 314, 232
-0.996404, 179, 169, 194, 232
-0.996407, 237, 1, 268, 64
-0.996421, 13, 193, 44, 320
-0.996432, 155, 169, 170, 232
-0.996439, 33, 209, 160, 240
-0.996452, 113, 157, 240, 188
-0.996468, 367, 169, 382, 232
-0.996482, 217, 297, 232, 360
-0.996484, 337, 233, 464, 264
-0.996487, 383, 169, 398, 232
-0.996494, 97, 105, 352, 168
-0.996495, 359, 169, 374, 232
-0.996501, 341, 169, 356, 232
-0.996503, 309, 169, 324, 232
-0.996505, 1, 49, 32, 176
-0.996506, 113, 33, 240, 96
-0.996512, 405, 281, 436, 344
-0.996522, 297, 97, 328, 160
-0.996544, 33, 309, 160, 340
-0.996552, 205, 145, 220, 208
-0.996553, 173, 169, 188, 232
-0.996561, 323, 169, 338, 232
-0.996563, 147, 169, 162, 232
-0.996582, 323, 129, 338, 192
-0.996589, 209, 61, 336, 92
-0.996591, 15, 125, 30, 156
-0.996593, 187, 297, 202, 360
-0.996635, 153, 65, 216, 192
-0.996645, 297, 137, 312, 200
-0.996669, 167, 169, 182, 232
-0.996682, 73, 169, 88, 232
-0.996684, 273, 169, 400, 200
-0.996684, 229, 73, 260, 136
-0.996684, 333, 81, 364, 144
-0.996687, 385, 1, 448, 128
-0.996731, 1, 297, 128, 328
-0.996742, 27, 125, 42, 156
-0.996745, 57, 273, 72, 336
-0.996749, 273, 153, 400, 184
-0.996783, 281, 169, 296, 232
-0.996792, 33, 121, 48, 184
-0.9968, 21, 137, 36, 200
-0.996817, 225, 161, 352, 192
-0.99682, 369, 277, 496, 308
-0.996825, 17, 65, 48, 192
-0.996839, 27, 97, 42, 160
-0.996845, 419, 281, 434, 344
-0.996874, 377, 169, 392, 232
-0.99688, 365, 225, 396, 288
-0.996891, 353, 221, 480, 252
-0.99691, 253, 1, 284, 256
-0.99691, 1, 277, 128, 308
-0.996914, 21, 125, 36, 156
-0.996929, 199, 129, 214, 192
-0.996929, 15, 97, 30, 160
-0.996951, 17, 257, 144, 288
-0.996958, 209, 37, 336, 68
-0.997002, 321, 161, 448, 192
-0.997012, 113, 293, 240, 324
-0.997017, 177, 289, 192, 352
-0.997018, 33, 313, 64, 375
-0.997027, 373, 145, 388, 208
-0.997033, 269, 1, 300, 256
-0.997038, 177, 141, 304, 172
-0.997039, 113, 121, 240, 152
-0.997055, 97, 73, 352, 136
-0.997089, 5, 125, 20, 156
-0.997089, 41, 233, 56, 296
-0.997093, 49, 97, 176, 160
-0.997104, 33, 189, 160, 220
-0.997104, 33, 225, 160, 256
-0.997104, 345, 25, 408, 88
-0.997109, 201, 169, 216, 232
-0.99711, 51, 209, 66, 272
-0.997112, 287, 145, 302, 208
-0.997125, 19, 273, 34, 336
-0.997125, 185, 1, 248, 64
-0.997129, 257, 17, 500, 80
-0.99714, 353, 253, 480, 284
-0.997146, 217, 73, 248, 136
-0.997165, 419, 193, 434, 256
-0.997187, 389, 169, 404, 232
-0.997188, 317, 169, 332, 232
-0.997202, 329, 105, 344, 168
-0.997207, 337, 197, 464, 228
-0.997226, 33, 165, 160, 196
-0.99724, 233, 1, 264, 256
-0.997243, 1, 133, 128, 164
-0.99725, 59, 177, 74, 208
-0.997255, 321, 105, 336, 168
-0.997258, 67, 177, 82, 240
-0.997263, 63, 281, 78, 344
-0.997275, 209, 217, 240, 280
-0.997279, 225, 173, 352, 204
-0.997284, 57, 129, 88, 375
-0.997286, 113, 309, 240, 340
-0.997287, 145, 201, 272, 264
-0.997293, 59, 313, 74, 375
-0.997302, 57, 249, 72, 312
-0.997304, 423, 217, 438, 280
-0.997304, 427, 257, 442, 320
-0.99733, 273, 249, 400, 312
-0.997351, 173, 129, 204, 375
-0.997355, 409, 169, 424, 232
-0.997361, 115, 193, 130, 256
-0.997365, 161, 173, 288, 204
-0.997367, 231, 281, 246, 344
-0.997368, 57, 217, 72, 280
-0.997369, 289, 57, 416, 88
-0.99737, 95, 145, 110, 208
-0.997398, 185, 129, 216, 375
-0.997403, 101, 145, 116, 208
-0.997404, 435, 225, 450, 288
-0.997409, 395, 169, 410, 232
-0.997412, 193, 305, 208, 368
-0.997433, 33, 249, 48, 312
-0.997435, 1, 89, 256, 152
-0.997444, 161, 285, 288, 316
-0.997447, 369, 241, 432, 304
-0.997449, 385, 145, 400, 208
-0.997464, 177, 129, 304, 160
-0.997467, 385, 209, 400, 272
-0.99747, 429, 209, 444, 272
-0.99748, 481, 305, 496, 368
-0.997486, 297, 33, 328, 288
-0.997488, 225, 209, 352, 240
-0.997497, 337, 185, 464, 216
-0.99751, 349, 201, 364, 264
-0.997517, 441, 225, 456, 288
-0.997523, 281, 1, 312, 256
-0.997534, 221, 241, 252, 304
-0.997535, 201, 65, 232, 320
-0.997542, 289, 81, 416, 112
-0.997543, 157, 129, 188, 375
-0.997545, 425, 313, 440, 375
-0.997554, 63, 153, 78, 216
-0.997566, 209, 77, 336, 108
-0.997603, 1, 49, 64, 176
-0.997606, 89, 121, 152, 184
-0.997616, 401, 169, 416, 232
-0.997636, 417, 173, 432, 204
-0.99764, 379, 145, 394, 208
-0.997658, 397, 145, 412, 208
-0.997665, 171, 305, 186, 368
-0.997665, 225, 273, 240, 336
-0.997665, 289, 69, 416, 100
-0.997666, 19, 249, 34, 312
-0.997672, 467, 273, 482, 336
-0.997685, 113, 141, 240, 172
-0.997688, 289, 209, 416, 272
-0.997699, 1, 289, 500, 352
-0.997702, 177, 313, 192, 375
-0.997719, 281, 145, 296, 208
-0.99772, 209, 293, 336, 324
-0.997726, 369, 265, 496, 296
-0.997728, 485, 289, 500, 320
-0.997729, 187, 273, 202, 336
-0.997735, 315, 105, 330, 168
-0.997736, 405, 121, 420, 184
-0.997738, 329, 145, 344, 208
-0.997744, 207, 169, 222, 232
-0.997744, 275, 169, 290, 232
-0.997746, 1, 177, 128, 208
-0.997753, 369, 301, 496, 332
-0.997759, 239, 305, 254, 336
-0.99776, 111, 137, 126, 200
-0.997763, 305, 113, 432, 144
-0.997764, 353, 97, 480, 160
-0.997765, 391, 145, 406, 208
-0.997777, 367, 145, 382, 208
-0.99778, 33, 125, 48, 156
-0.997784, 325, 1, 356, 256
-0.997795, 1, 321, 128, 352
-0.997796, 235, 341, 250, 372
-0.997797, 223, 49, 238, 112
-0.997808, 305, 125, 432, 156
-0.997812, 161, 1, 416, 64
-0.997827, 1, 97, 16, 160
-0.99783, 265, 25, 280, 88
-0.997835, 407, 153, 422, 184
-0.99785, 213, 169, 228, 232
-0.997859, 225, 109, 352, 140
-0.997863, 5, 241, 36, 368
-0.997868, 193, 217, 256, 280
-0.99787, 353, 1, 480, 64
-0.997889, 369, 173, 496, 204
-0.997902, 369, 325, 496, 356
-0.997907, 401, 129, 432, 375
-0.997908, 229, 297, 244, 328
-0.997911, 185, 317, 200, 348
-0.997912, 421, 249, 436, 312
-0.997914, 117, 129, 148, 375
-0.997917, 83, 145, 98, 208
-0.997922, 425, 289, 440, 352
-0.997924, 69, 129, 100, 375
-0.997932, 429, 185, 444, 248
-0.997932, 217, 1, 248, 256
-0.99794, 93, 129, 124, 375
-0.99794, 233, 309, 248, 340
-0.997942, 141, 129, 172, 375
-0.997959, 229, 169, 244, 232
-0.997959, 117, 145, 132, 208
-0.997959, 133, 305, 148, 368
-0.997963, 145, 333, 272, 364
-0.997964, 223, 169, 238, 232
-0.997968, 241, 89, 368, 120
-0.997968, 161, 309, 288, 340
-0.997972, 475, 305, 490, 368
-0.997974, 13, 281, 28, 344
-0.997977, 177, 109, 304, 140
-0.997986, 357, 129, 388, 375
-0.997992, 235, 1, 250, 64
-0.998012, 317, 129, 348, 375
-0.998024, 413, 157, 428, 188
-0.998031, 429, 237, 444, 268
-0.998044, 223, 301, 238, 332
-0.998057, 177, 89, 304, 120
-0.998058, 385, 213, 400, 244
-0.998081, 239, 293, 254, 324
-0.998095, 161, 209, 288, 240
-0.998108, 389, 33, 420, 288
-0.998121, 137, 241, 200, 304
-0.998124, 449, 177, 480, 304
-0.998125, 129, 65, 160, 320
-0.998127, 225, 133, 352, 164
-0.998128, 37, 233, 52, 264
-0.998143, 353, 217, 368, 248
-0.998145, 185, 173, 200, 204
-0.998147, 13, 129, 44, 375
-0.998154, 175, 297, 190, 328
-0.998159, 161, 173, 176, 204
-0.998162, 81, 97, 112, 352
-0.998165, 289, 93, 416, 124
-0.998171, 49, 297, 176, 328
-0.998174, 51, 237, 66, 268
-0.998174, 257, 41, 384, 72
-0.998178, 353, 341, 480, 372
-0.998185, 167, 173, 182, 204
-0.998185, 179, 173, 194, 204
-0.998188, 191, 173, 206, 204
-0.998189, 17, 137, 32, 168
-0.998191, 155, 173, 170, 204
-0.998193, 29, 137, 44, 168
-0.998202, 147, 173, 162, 204
-0.998204, 1, 81, 128, 144
-0.998207, 337, 65, 368, 320
-0.998209, 173, 173, 188, 204
-0.99821, 125, 305, 140, 336
-0.998213, 313, 1, 344, 256
-0.998216, 23, 137, 38, 168
-0.998222, 139, 173, 154, 204
-0.998233, 361, 65, 424, 192
-0.998234, 205, 161, 220, 192
-0.998235, 479, 289, 494, 320
-0.998244, 369, 161, 496, 192
-0.99825, 417, 81, 448, 208
-0.99825, 133, 173, 148, 204
-0.998269, 191, 309, 206, 340
-0.998275, 227, 317, 242, 348
-0.998283, 39, 121, 54, 152
-0.998294, 123, 173, 138, 204
-0.998301, 349, 209, 380, 224
-0.998302, 349, 215, 380, 230
-0.998302, 21, 273, 52, 288
-0.998302, 409, 219, 440, 234
-0.998302, 53, 193, 84, 208
-0.998303, 37, 191, 68, 206
-0.998303, 297, 145, 328, 160
-0.998303, 169, 339, 200, 354
-0.998303, 197, 173, 212, 204
-0.998304, 257, 29, 384, 60
-0.998305, 301, 167, 332, 182
-0.998306, 69, 173, 100, 188
-0.998306, 417, 237, 448, 252
-0.998306, 225, 345, 256, 360
-0.998306, 173, 297, 204, 312
-0.998306, 21, 249, 52, 264
-0.998306, 229, 317, 260, 332
-0.998306, 357, 167, 388, 182
-0.998307, 413, 323, 444, 338
-0.998307, 45, 313, 76, 328
-0.998308, 409, 231, 440, 246
-0.998309, 37, 205, 68, 220
-0.99831, 37, 185, 68, 200
-0.998311, 425, 215, 456, 230
-0.998311, 161, 311, 192, 326
-0.998311, 309, 123, 340, 138
-0.998312, 345, 223, 376, 238
-0.998312, 333, 213, 364, 228
-0.998312, 13, 285, 44, 300
-0.998313, 53, 203, 84, 218
-0.998313, 61, 285, 76, 316
-0.998313, 49, 295, 80, 310
-0.998314, 225, 79, 256, 94
-0.998314, 45, 241, 76, 256
-0.998314, 225, 121, 352, 152
-0.998315, 189, 341, 220, 356
-0.998317, 197, 307, 228, 322
-0.998317, 397, 149, 428, 164
-0.998317, 265, 167, 296, 182
-0.998317, 209, 339, 240, 354
-0.998317, 189, 297, 204, 328
-0.998318, 185, 169, 216, 184
-0.998318, 405, 165, 436, 180
-0.998319, 433, 259, 464, 274
-0.998319, 57, 173, 88, 188
-0.998319, 433, 351, 464, 366
-0.99832, 1, 81, 500, 144
-0.99832, 377, 227, 408, 242
-0.998321, 257, 175, 288, 190
-0.998321, 97, 171, 128, 186
-0.998321, 445, 271, 476, 286
-0.998321, 425, 221, 456, 236
-0.998321, 53, 209, 84, 224
-0.998323, 97, 257, 128, 272
-0.998323, 157, 251, 188, 266
-0.998324, 37, 97, 68, 352
-0.998324, 257, 295, 288, 310
-0.998324, 169, 329, 200, 344
-0.998324, 289, 207, 320, 222
-0.998325, 295, 161, 310, 192
-0.998325, 301, 209, 332, 224
-0.998326, 221, 299, 252, 314
-0.998331, 425, 227, 456, 242
-0.998332, 373, 129, 404, 375
-0.998332, 301, 173, 332, 188
-0.998333, 289, 137, 416, 168
-0.998333, 225, 353, 256, 368
-0.998335, 393, 173, 424, 188
-0.998337, 53, 215, 84, 230
-0.998337, 91, 177, 106, 208
-0.998338, 353, 231, 384, 246
-0.998338, 369, 167, 400, 182
-0.998338, 13, 291, 44, 306
-0.998338, 53, 223, 84, 238
-0.998339, 41, 247, 72, 262
-0.99834, 197, 241, 228, 368
-0.99834, 277, 281, 308, 296
-0.998341, 289, 175, 320, 190
-0.998344, 177, 285, 208, 300
-0.998344, 389, 129, 420, 375
-0.998344, 193, 175, 224, 190
-0.998345, 113, 315, 144, 330
-0.998345, 121, 171, 152, 186
-0.998345, 381, 173, 412, 188
-0.998346, 33, 267, 64, 282
-0.998346, 369, 219, 400, 234
-0.998347, 237, 329, 252, 360
-0.998348, 289, 167, 320, 182
-0.998348, 97, 225, 224, 288
-0.99835, 277, 175, 308, 190
-0.99835, 89, 213, 120, 228
-0.998351, 53, 233, 84, 248
-0.998352, 21, 257, 52, 272
-0.998352, 393, 167, 424, 182
-0.998353, 161, 321, 288, 352
-0.998353, 277, 169, 308, 184
-0.998353, 317, 173, 348, 188
-0.998353, 201, 169, 232, 184
-0.998354, 169, 175, 200, 190
-0.998356, 37, 233, 68, 248
-0.998359, 341, 173, 372, 188
-0.99836, 329, 173, 360, 188
-0.998364, 103, 177, 118, 208
-0.998366, 217, 333, 248, 348
-0.998368, 113, 309, 144, 324
-0.99837, 81, 177, 112, 192
-0.99837, 149, 177, 180, 192
-0.998371, 157, 305, 188, 320
-0.998372, 291, 173, 306, 204
-0.998373, 429, 253, 460, 268
-0.998376, 69, 179, 100, 194
-0.998378, 217, 313, 248, 328
-0.998379, 365, 173, 396, 188
-0.99838, 109, 171, 140, 186
-0.998382, 229, 309, 260, 324
-0.998382, 85, 177, 100, 208
-0.998383, 353, 173, 384, 188
-0.998383, 361, 225, 392, 240
-0.998383, 229, 341, 244, 372
-0.998384, 181, 175, 212, 190
-0.998384, 105, 129, 136, 375
-0.998385, 97, 177, 112, 208
-0.998388, 173, 309, 204, 324
-0.998388, 429, 235, 460, 250
-0.998392, 33, 123, 64, 138
-0.998398, 241, 301, 272, 316
-0.998404, 137, 177, 168, 192
-0.998405, 241, 293, 272, 308
-0.998405, 225, 325, 256, 340
-0.998407, 37, 253, 68, 268
-0.998407, 177, 291, 208, 306
-0.998407, 65, 177, 80, 208
-0.998407, 13, 139, 44, 154
-0.998408, 13, 121, 44, 136
-0.99841, 93, 177, 124, 192
-0.99841, 175, 309, 190, 340
-0.99841, 1, 333, 128, 364
-0.998412, 289, 161, 304, 192
-0.998412, 353, 313, 480, 344
-0.998414, 105, 177, 136, 192
-0.998415, 33, 129, 64, 144
-0.998416, 397, 155, 428, 170
-0.998416, 125, 177, 156, 192
-0.998417, 419, 305, 434, 336
-0.998417, 301, 161, 316, 192
-0.99842, 419, 281, 434, 312
-0.998421, 19, 281, 34, 312
-0.998423, 289, 129, 320, 375
-0.998423, 145, 69, 272, 100
-0.998426, 25, 135, 56, 150
-0.998433, 37, 261, 68, 276
-0.998434, 181, 329, 212, 344
-0.998446, 217, 307, 248, 322
-0.998448, 225, 293, 256, 308
-0.998451, 31, 265, 46, 296
-0.998452, 9, 129, 72, 144
-0.998452, 297, 173, 312, 204
-0.998454, 283, 277, 298, 308
-0.99846, 1, 123, 32, 138
-0.99846, 33, 239, 64, 254
-0.998465, 309, 153, 324, 184
-0.998473, 225, 129, 256, 375
-0.998475, 199, 161, 214, 192
-0.998477, 181, 335, 212, 350
-0.998478, 97, 333, 224, 364
-0.998481, 317, 173, 332, 204
-0.998491, 101, 165, 116, 196
-0.998495, 233, 229, 248, 260
-0.998496, 5, 113, 20, 144
-0.998497, 225, 149, 352, 180
-0.998498, 325, 173, 340, 204
-0.998498, 405, 173, 436, 188
-0.998504, 381, 169, 396, 200
-0.998504, 117, 173, 132, 204
-0.998504, 49, 225, 64, 256
-0.998505, 369, 173, 432, 188
-0.998505, 57, 179, 120, 194
-0.998505, 79, 177, 94, 208
-0.998509, 331, 173, 346, 204
-0.99851, 13, 133, 44, 148
-0.998512, 223, 329, 238, 360
-0.998513, 59, 309, 74, 340
-0.998515, 311, 173, 326, 204
-0.998515, 109, 177, 124, 208
-0.998517, 337, 193, 400, 256
-0.998517, 245, 293, 260, 324
-0.998518, 303, 173, 318, 204
-0.998522, 9, 135, 72, 150
-0.99853, 71, 177, 86, 208
-0.998532, 473, 285, 488, 316
-0.998537, 281, 161, 296, 192
-0.998538, 1, 345, 128, 375
-0.998539, 57, 179, 88, 194
-0.998544, 181, 329, 196, 360
-0.998545, 119, 305, 134, 336
-0.998545, 59, 321, 74, 352
-0.998546, 49, 213, 112, 228
-0.998553, 259, 293, 274, 324
-0.998559, 297, 209, 360, 224
-0.998573, 81, 177, 144, 192
-0.998574, 183, 345, 198, 375
-0.998576, 163, 301, 178, 332
-0.998578, 49, 321, 176, 352
-0.998579, 65, 165, 80, 196
-0.998581, 359, 209, 374, 240
-0.998582, 411, 173, 426, 204
-0.998583, 189, 285, 204, 316
-0.998583, 1, 135, 32, 150
-0.998586, 49, 205, 112, 220
-0.998587, 299, 285, 314, 316
-0.998588, 21, 113, 36, 144
-0.998593, 377, 215, 440, 230
-0.998595, 377, 225, 440, 240
-0.998596, 105, 177, 168, 192
-0.998598, 337, 173, 352, 204
-0.9986, 169, 331, 232, 346
-0.998601, 181, 289, 196, 320
-0.998602, 1, 257, 64, 272
-0.998603, 49, 97, 112, 160
-0.998603, 451, 257, 466, 288
-0.998606, 305, 129, 336, 375
-0.998606, 321, 173, 384, 188
-0.99861, 161, 175, 224, 190
-0.998612, 361, 169, 376, 200
-0.998613, 1, 129, 32, 144
-0.998617, 297, 173, 360, 188
-0.998617, 257, 169, 320, 184
-0.998617, 195, 293, 210, 324
-0.998619, 313, 141, 328, 172
-0.998622, 9, 123, 72, 138
-0.998623, 129, 177, 192, 192
-0.998624, 321, 285, 448, 316
-0.998625, 369, 167, 432, 182
-0.998626, 221, 213, 236, 244
-0.998626, 9, 263, 72, 278
-0.998627, 145, 309, 208, 324
-0.998627, 285, 173, 300, 204
-0.998629, 11, 137, 26, 168
-0.99863, 345, 173, 408, 188
-0.99863, 13, 113, 28, 144
-0.998631, 17, 279, 80, 294
-0.998631, 9, 251, 72, 266
-0.998633, 367, 169, 382, 200
-0.998634, 417, 271, 480, 286
-0.998635, 191, 329, 206, 360
-0.998635, 417, 259, 480, 274
-0.998638, 377, 209, 440, 224
-0.998639, 193, 325, 256, 340
-0.99864, 353, 169, 368, 200
-0.998641, 185, 345, 248, 360
-0.998641, 375, 169, 390, 200
-0.998641, 25, 239, 88, 254
-0.998641, 17, 271, 80, 286
-0.998643, 281, 167, 344, 182
-0.998645, 479, 305, 494, 336
-0.998646, 417, 277, 480, 292
-0.998649, 193, 169, 256, 184
-0.998649, 257, 207, 320, 222
-0.99865, 97, 171, 160, 186
-0.998651, 343, 173, 358, 204
-0.998652, 221, 313, 236, 344
-0.998652, 401, 33, 432, 288
-0.998653, 417, 265, 480, 280
-0.998656, 113, 305, 176, 320
-0.998656, 59, 189, 74, 220
-0.998657, 421, 225, 436, 256
-0.998657, 161, 241, 176, 272
-0.998658, 321, 133, 336, 164
-0.998658, 429, 217, 444, 248
-0.998658, 217, 293, 280, 308
-0.998659, 241, 129, 272, 375
-0.998659, 73, 213, 136, 228
-0.998659, 249, 175, 312, 190
-0.99866, 231, 329, 246, 360
-0.998661, 49, 281, 176, 312
-0.998662, 193, 311, 256, 326
-0.998662, 49, 219, 112, 234
-0.998662, 33, 81, 64, 208
-0.998662, 33, 259, 96, 274
-0.998662, 417, 221, 480, 236
-0.998662, 169, 337, 232, 352
-0.998662, 33, 125, 96, 140
-0.998663, 161, 169, 224, 184
-0.998663, 185, 175, 248, 190
-0.998663, 381, 225, 396, 256
-0.998664, 17, 245, 80, 260
-0.998664, 417, 251, 480, 266
-0.998665, 17, 325, 80, 340
-0.998666, 9, 317, 72, 332
-0.998666, 185, 33, 216, 288
-0.998667, 217, 329, 280, 344
-0.998667, 203, 173, 218, 204
-0.998668, 177, 341, 192, 372
-0.99867, 193, 331, 256, 346
-0.99867, 417, 227, 480, 242
-0.99867, 49, 185, 112, 200
-0.998671, 169, 291, 232, 306
-0.998671, 273, 101, 336, 116
-0.998671, 49, 199, 112, 214
-0.998671, 417, 341, 480, 356
-0.998671, 25, 193, 56, 320
-0.998671, 249, 283, 312, 298
-0.998672, 401, 235, 464, 250
-0.998672, 49, 191, 112, 206
-0.998672, 33, 251, 96, 266
-0.998672, 409, 169, 472, 184
-0.998672, 409, 177, 472, 192
-0.998673, 59, 165, 74, 196
-0.998674, 273, 175, 336, 190
-0.998675, 225, 39, 288, 54
-0.998675, 201, 151, 264, 166
-0.998675, 145, 331, 208, 346
-0.998676, 273, 205, 400, 236
-0.998676, 409, 183, 472, 198
-0.998676, 17, 207, 80, 222
-0.998677, 49, 231, 112, 246
-0.998678, 17, 197, 80, 212
-0.998678, 89, 97, 152, 160
-0.998679, 377, 179, 440, 194
-0.998679, 169, 313, 232, 328
-0.99868, 417, 323, 480, 338
-0.99868, 121, 171, 184, 186
-0.99868, 217, 309, 280, 324
-0.998681, 377, 191, 440, 206
-0.998681, 17, 185, 80, 200
-0.998681, 73, 171, 136, 186
-0.998681, 17, 339, 80, 354
-0.998682, 169, 325, 232, 340
-0.998683, 41, 249, 56, 280
-0.998684, 49, 225, 112, 240
-0.998685, 401, 245, 464, 260
-0.998685, 25, 285, 88, 300
-0.998685, 17, 353, 80, 368
-0.998686, 417, 335, 480, 350
-0.998686, 409, 213, 472, 228
-0.998686, 201, 81, 264, 96
-0.998686, 433, 285, 496, 300
-0.998687, 17, 191, 80, 206
-0.998687, 337, 215, 400, 230
-0.998688, 201, 87, 264, 102
-0.998688, 281, 127, 344, 142
-0.998689, 17, 347, 80, 362
-0.99869, 17, 219, 80, 234
-0.99869, 9, 303, 72, 318
-0.998691, 233, 85, 296, 100
-0.998691, 17, 213, 80, 228
-0.998691, 257, 291, 320, 306
-0.998692, 417, 347, 480, 362
-0.998692, 377, 185, 440, 200
-0.998692, 25, 233, 88, 248
-0.998693, 225, 175, 288, 190
-0.998693, 305, 167, 368, 182
-0.998694, 417, 329, 480, 344
-0.998694, 273, 143, 336, 158
-0.998694, 409, 189, 472, 204
-0.998694, 33, 131, 96, 146
-0.998694, 377, 197, 440, 212
-0.998695, 345, 167, 408, 182
-0.998695, 33, 179, 96, 194
-0.998696, 259, 229, 274, 260
-0.998696, 17, 225, 80, 240
-0.998697, 233, 169, 296, 184
-0.998698, 161, 253, 224, 268
-0.998698, 121, 311, 184, 326
-0.998698, 177, 319, 240, 334
-0.998698, 17, 311, 80, 326
-0.998699, 409, 199, 472, 214
-0.998699, 273, 135, 336, 150
-0.9987, 185, 353, 248, 368
-0.9987, 107, 165, 122, 196
-0.9987, 407, 141, 422, 172
-0.9987, 33, 265, 96, 280
-0.998702, 17, 359, 80, 374
-0.998702, 17, 331, 80, 346
-0.998702, 417, 317, 480, 332
-0.998703, 321, 113, 336, 144
-0.998703, 145, 325, 208, 340
-0.998705, 101, 33, 132, 288
-0.998708, 115, 161, 130, 192
-0.99871, 1, 97, 32, 352
-0.99872, 141, 33, 172, 288
-0.998729, 209, 221, 336, 252
-0.998735, 65, 225, 96, 352
-0.998753, 161, 33, 288, 64
-0.998755, 209, 313, 336, 375
-0.998764, 33, 153, 160, 184
-0.998778, 13, 127, 44, 142
-0.998786, 169, 33, 200, 288
-0.998791, 153, 33, 184, 288
-0.998805, 177, 233, 304, 264
-0.998818, 129, 57, 256, 88
-0.998819, 413, 129, 444, 375
-0.998831, 33, 17, 288, 80
-0.998834, 113, 109, 240, 140
-0.998855, 241, 17, 368, 48
-0.99886, 61, 161, 76, 288
-0.998897, 289, 193, 416, 224
-0.998928, 65, 65, 192, 192
-0.998931, 277, 129, 308, 375
-0.998939, 213, 129, 244, 375
-0.998944, 163, 161, 178, 288
-0.998946, 225, 249, 288, 312
-0.998952, 305, 1, 432, 32
-0.998976, 417, 161, 432, 288
-0.998977, 49, 121, 176, 152
-0.998979, 153, 161, 168, 288
-0.998982, 353, 149, 480, 180
-0.998982, 119, 161, 134, 288
-0.998987, 369, 289, 496, 320
-0.999004, 61, 33, 92, 288
-0.99901, 105, 161, 120, 288
-0.999021, 161, 233, 224, 296
-0.999021, 225, 1, 352, 32
-0.999022, 351, 161, 366, 288
-0.999028, 321, 297, 448, 328
-0.999045, 265, 129, 296, 375
-0.99906, 377, 33, 408, 288
-0.999061, 299, 161, 314, 288
-0.999066, 349, 33, 380, 288
-0.999076, 369, 65, 496, 96
-0.999089, 381, 161, 396, 288
-0.999089, 305, 45, 432, 76
-0.999091, 317, 113, 332, 240
-0.999095, 1, 109, 128, 140
-0.999105, 335, 161, 350, 288
-0.999109, 329, 121, 392, 184
-0.999109, 325, 97, 340, 224
-0.99911, 367, 161, 382, 288
-0.99912, 311, 145, 326, 272
-0.999132, 117, 33, 148, 288
-0.999132, 249, 257, 312, 320
-0.999133, 289, 221, 416, 252
-0.999134, 209, 309, 336, 340
-0.999143, 341, 161, 356, 288
-0.999143, 25, 97, 56, 352
-0.999152, 325, 161, 340, 288
-0.999155, 359, 161, 374, 288
-0.999157, 425, 65, 456, 320
-0.999169, 195, 161, 210, 288
-0.999177, 387, 161, 402, 288
-0.999179, 281, 81, 296, 208
-0.999183, 175, 161, 190, 288
-0.999189, 185, 161, 200, 288
-0.999193, 395, 161, 410, 288
-0.999193, 77, 1, 108, 256
-0.999194, 169, 161, 184, 288
-0.999194, 407, 129, 422, 256
-0.9992, 129, 281, 384, 344
-0.999203, 199, 113, 214, 240
-0.999203, 253, 129, 284, 375
-0.999216, 145, 345, 272, 375
-0.99922, 97, 321, 224, 352
-0.999223, 331, 97, 346, 224
-0.999226, 299, 113, 314, 240
-0.999227, 311, 97, 326, 224
-0.999227, 147, 161, 162, 288
-0.99923, 129, 161, 144, 288
-0.99923, 137, 161, 152, 288
-0.999233, 155, 113, 170, 240
-0.999241, 113, 161, 128, 288
-0.999243, 57, 225, 72, 352
-0.999247, 161, 113, 176, 240
-0.999247, 205, 145, 220, 272
-0.99925, 321, 265, 448, 296
-0.999251, 375, 161, 390, 288
-0.999256, 51, 225, 66, 352
-0.999265, 55, 177, 70, 304
-0.999266, 173, 113, 188, 240
-0.999267, 305, 129, 320, 256
-0.999274, 183, 113, 198, 240
-0.999274, 87, 161, 102, 288
-0.999276, 65, 225, 128, 352
-0.999277, 21, 97, 36, 224
-0.999279, 139, 113, 154, 240
-0.99928, 161, 221, 288, 252
-0.999281, 291, 113, 306, 240
-0.999282, 161, 21, 288, 52
-0.999284, 81, 161, 96, 288
-0.999284, 429, 225, 444, 352
-0.999286, 75, 161, 90, 288
-0.999288, 93, 161, 108, 288
-0.999289, 281, 33, 296, 160
-0.99929, 127, 113, 142, 240
-0.999295, 145, 113, 160, 240
-0.999304, 191, 113, 206, 240
-0.999305, 113, 89, 240, 120
-0.999305, 207, 81, 222, 208
-0.999311, 63, 113, 78, 240
-0.999312, 133, 113, 148, 240
-0.99932, 67, 161, 82, 288
-0.999327, 291, 161, 306, 288
-0.999327, 413, 33, 444, 288
-0.999328, 225, 281, 352, 312
-0.999329, 345, 33, 376, 160
-0.999331, 99, 161, 114, 288
-0.999332, 93, 113, 108, 240
-0.999333, 167, 113, 182, 240
-0.999335, 79, 113, 94, 240
-0.999336, 393, 113, 408, 240
-0.999337, 115, 113, 130, 240
-0.99934, 319, 161, 334, 288
-0.999342, 241, 305, 304, 368
-0.999344, 73, 113, 88, 240
-0.999344, 85, 113, 100, 240
-0.999346, 423, 209, 438, 336
-0.999347, 247, 145, 262, 272
-0.999349, 97, 57, 224, 120
-0.999349, 275, 97, 290, 224
-0.999364, 287, 33, 302, 160
-0.999375, 37, 225, 52, 352
-0.999379, 293, 33, 308, 160
-0.99938, 285, 161, 300, 288
-0.999382, 387, 113, 402, 240
-0.999384, 353, 137, 480, 168
-0.999389, 89, 1, 120, 256
-0.99939, 129, 45, 256, 76
-0.999399, 49, 269, 176, 300
-0.999404, 269, 33, 284, 160
-0.999404, 129, 233, 256, 264
-0.999409, 209, 193, 336, 224
-0.999411, 261, 17, 276, 144
-0.999415, 99, 113, 114, 240
-0.999416, 105, 113, 120, 240
-0.999416, 275, 17, 290, 144
-0.999424, 231, 161, 246, 288
-0.999433, 27, 113, 42, 240
-0.999434, 365, 33, 396, 288
-0.999435, 401, 113, 416, 240
-0.999435, 161, 273, 288, 304
-0.999441, 401, 161, 416, 288
-0.999446, 229, 33, 244, 160
-0.999449, 305, 81, 320, 208
-0.99945, 121, 113, 136, 240
-0.999452, 213, 81, 228, 208
-0.999455, 377, 113, 392, 240
-0.999456, 321, 325, 448, 356
-0.999459, 449, 241, 464, 368
-0.999462, 223, 161, 238, 288
-0.999469, 17, 241, 32, 368
-0.999469, 257, 161, 272, 288
-0.999471, 15, 129, 30, 256
-0.999474, 247, 17, 262, 144
-0.999475, 43, 225, 58, 352
-0.999483, 269, 97, 284, 224
-0.999486, 341, 81, 356, 208
-0.999487, 367, 113, 382, 240
-0.999492, 235, 1, 250, 128
-0.999493, 413, 113, 428, 240
-0.999503, 217, 161, 232, 288
-0.999506, 441, 209, 456, 336
-0.999508, 49, 129, 64, 256
-0.99951, 461, 241, 476, 368
-0.999511, 425, 17, 488, 144
-0.999516, 249, 241, 312, 368
-0.999517, 429, 145, 444, 272
-0.999519, 255, 17, 270, 144
-0.99952, 49, 345, 176, 375
-0.99952, 467, 241, 482, 368
-0.999524, 1, 113, 16, 240
-0.999528, 161, 305, 416, 368
-0.99953, 129, 281, 192, 344
-0.999531, 289, 233, 416, 264
-0.999534, 239, 81, 254, 208
-0.999538, 217, 1, 232, 128
-0.999539, 279, 101, 294, 116
-0.99954, 61, 173, 76, 188
-0.99954, 175, 175, 190, 190
-0.99954, 327, 173, 342, 188
-0.99954, 1, 123, 16, 138
-0.999541, 389, 213, 404, 228
-0.999541, 411, 173, 426, 188
-0.999542, 359, 221, 374, 236
-0.999542, 99, 257, 114, 272
-0.999543, 31, 241, 46, 368
-0.999543, 49, 231, 64, 246
-0.999544, 483, 291, 498, 306
-0.999544, 163, 177, 178, 192
-0.999545, 343, 211, 358, 226
-0.999545, 181, 175, 196, 190
-0.999545, 85, 177, 100, 192
-0.999545, 41, 251, 56, 266
-0.999545, 407, 165, 422, 180
-0.999546, 249, 299, 264, 314
-0.999546, 39, 131, 54, 146
-0.999547, 21, 121, 36, 136
-0.999547, 359, 113, 374, 240
-0.999547, 237, 161, 252, 288
-0.999548, 27, 121, 42, 136
-0.999548, 341, 173, 356, 188
-0.999549, 349, 113, 364, 240
-0.999549, 187, 175, 202, 190
-0.999549, 337, 1, 400, 64
-0.99955, 333, 173, 348, 188
-0.999551, 247, 293, 262, 308
-0.999551, 349, 173, 364, 188
-0.999552, 179, 325, 194, 340
-0.999552, 233, 81, 248, 208
-0.999552, 361, 173, 376, 188
-0.999553, 423, 161, 438, 288
-0.999553, 481, 309, 496, 324
-0.999553, 291, 175, 306, 190
-0.999554, 37, 237, 52, 252
-0.999554, 223, 17, 238, 144
-0.999555, 13, 139, 28, 154
-0.999555, 355, 173, 370, 188
-0.999555, 383, 173, 398, 188
-0.999557, 137, 315, 152, 330
-0.999557, 217, 305, 232, 320
-0.999558, 255, 297, 270, 312
-0.999558, 295, 287, 310, 302
-0.999559, 7, 81, 22, 208
-0.999559, 113, 311, 128, 326
-0.999559, 219, 333, 234, 348
-0.99956, 219, 81, 234, 208
-0.99956, 195, 335, 210, 350
-0.999561, 283, 169, 298, 184
-0.999562, 131, 311, 146, 326
-0.999562, 233, 339, 248, 354
-0.999563, 205, 167, 220, 182
-0.999563, 119, 313, 134, 328
-0.999563, 419, 291, 434, 306
-0.999563, 241, 17, 256, 144
-0.999564, 123, 305, 138, 320
-0.999564, 157, 241, 188, 368
-0.999564, 49, 177, 64, 304
-0.999564, 415, 157, 430, 172
-0.999564, 305, 33, 320, 160
-0.999565, 91, 177, 106, 192
-0.999565, 157, 177, 172, 192
-0.999565, 281, 281, 296, 296
-0.999565, 67, 179, 82, 194
-0.999565, 257, 113, 272, 240
-0.999566, 291, 169, 306, 184
-0.999567, 429, 237, 444, 252
-0.999567, 115, 177, 130, 192
-0.999568, 79, 179, 94, 194
-0.999569, 195, 175, 210, 190
-0.999569, 367, 173, 382, 188
-0.999569, 359, 213, 374, 228
-0.99957, 275, 283, 290, 298
-0.99957, 49, 239, 64, 254
-0.999571, 109, 177, 124, 192
-0.999573, 373, 171, 388, 186
-0.999574, 239, 297, 254, 312
-0.999575, 73, 179, 88, 194
-0.999575, 33, 113, 48, 240
-0.999576, 225, 81, 240, 208
-0.999576, 413, 165, 428, 180
-0.999577, 455, 241, 470, 368
-0.999578, 125, 311, 140, 326
-0.999579, 97, 177, 112, 192
-0.999579, 185, 321, 200, 336
-0.999579, 277, 145, 292, 272
-0.999581, 149, 177, 164, 192
-0.999581, 223, 313, 238, 328
-0.999582, 349, 209, 364, 224
-0.999589, 39, 125, 54, 140
-0.999589, 33, 129, 48, 144
-0.99959, 385, 219, 400, 234
-0.99959, 191, 309, 206, 324
-0.99959, 103, 177, 118, 192
-0.999593, 191, 293, 206, 308
-0.999593, 121, 177, 136, 192
-0.999596, 143, 177, 158, 192
-0.999596, 235, 329, 250, 344
-0.999597, 137, 177, 152, 192
-0.999598, 127, 177, 142, 192
-0.999598, 353, 223, 368, 238
-0.9996, 197, 291, 212, 306
-0.9996, 19, 283, 34, 298
-0.999602, 175, 295, 190, 310
-0.999603, 237, 291, 252, 306
-0.999607, 159, 251, 174, 266
-0.999607, 189, 315, 204, 330
-0.999609, 165, 305, 180, 320
-0.999609, 153, 307, 168, 322
-0.999611, 1, 135, 16, 150
-0.999614, 189, 333, 204, 348
-0.999615, 301, 287, 316, 302
-0.999616, 261, 295, 276, 310
-0.999616, 171, 305, 186, 320
-0.999618, 239, 305, 254, 320
-0.999621, 229, 293, 244, 308
-0.999621, 49, 33, 80, 288
-0.999622, 237, 311, 252, 326
-0.999633, 225, 329, 240, 344
-0.999633, 7, 137, 22, 152
-0.999636, 353, 121, 480, 152
-0.999638, 407, 155, 422, 170
-0.999641, 233, 357, 248, 372
-0.999641, 21, 135, 36, 150
-0.999642, 185, 327, 200, 342
-0.999642, 191, 287, 206, 302
-0.999643, 181, 289, 196, 304
-0.999643, 349, 215, 364, 230
-0.999647, 13, 133, 28, 148
-0.999649, 229, 351, 244, 366
-0.999649, 231, 307, 246, 322
-0.999651, 185, 309, 200, 324
-0.999661, 383, 225, 398, 240
-0.999664, 175, 311, 190, 326
-0.999666, 417, 173, 432, 188
-0.999666, 223, 299, 238, 314
-0.999668, 7, 125, 22, 140
-0.999669, 223, 307, 238, 322
-0.99967, 105, 225, 168, 288
-0.999675, 231, 323, 246, 338
-0.999676, 185, 355, 200, 370
-0.999683, 31, 135, 46, 150
-0.99969, 233, 345, 248, 360
-0.999691, 1, 129, 16, 144
-0.999693, 61, 179, 76, 194
-0.999696, 305, 13, 432, 44
-0.999696, 81, 197, 208, 228
-0.9997, 153, 81, 216, 144
-0.999706, 161, 197, 288, 228
-0.999709, 321, 25, 448, 56
-0.999709, 369, 97, 496, 128
-0.999732, 21, 129, 36, 144
-0.999738, 97, 241, 352, 304
-0.999776, 65, 109, 192, 140
-0.999782, 13, 125, 28, 140
-0.999791, 27, 127, 42, 142
-0.999792, 37, 1, 68, 256
-0.999794, 209, 209, 240, 336
-0.999813, 7, 131, 22, 146
-0.999855, 209, 341, 336, 372
-0.999865, 209, 325, 336, 356
-0.999866, 49, 65, 112, 192
-0.999868, 333, 33, 364, 160
-0.999871, 97, 281, 224, 312
-0.999875, 97, 221, 224, 252
-0.999877, 233, 209, 296, 272
-0.999892, 49, 333, 176, 364
-0.9999, 353, 109, 480, 140
-0.999919, 393, 177, 424, 304
-0.999963, 337, 77, 464, 108
-1.00003, 469, 1, 500, 256
-1.00004, 161, 201, 416, 264
-1.00008, 129, 209, 192, 272
-1.0001, 1, 1, 32, 256
-1.00013, 13, 1, 44, 256
-1.00014, 389, 33, 420, 160
-1.00022, 1, 25, 500, 88
-1.00023, 209, 233, 336, 296
-1.00033, 361, 1, 424, 128
-1.00036, 449, 129, 480, 375
-1.00036, 437, 1, 468, 256
-1.00037, 453, 1, 484, 256
-1.00037, 1, 57, 256, 120
-1.00038, 385, 41, 448, 104
-1.00039, 361, 65, 424, 128
-1.00039, 81, 305, 144, 368
-1.00042, 25, 1, 56, 256
-1.00042, 385, 97, 448, 160
-1.00044, 461, 129, 492, 375
-1.00048, 437, 129, 468, 375
-1.00055, 297, 265, 360, 328
-1.00065, 349, 209, 380, 336
-1.00068, 309, 1, 340, 128
-1.0007, 433, 1, 496, 256
-1.00072, 1, 57, 500, 120
-1.00073, 433, 65, 496, 128
-1.0008, 409, 33, 440, 160
-1.00082, 241, 65, 272, 192
-1.00108, 121, 97, 184, 160
-1.00109, 137, 121, 200, 184
-1.00112, 409, 65, 472, 128
-1.00112, 1, 1, 500, 64
-1.00134, 281, 289, 344, 352
-1.00135, 153, 225, 216, 352
-1.00137, 433, 25, 496, 88
-1.0014, 193, 177, 224, 304
-1.00142, 113, 249, 240, 312
-1.00144, 33, 1, 160, 64
-1.00148, 1, 25, 128, 88
-1.00151, 397, 225, 428, 352
-1.00152, 49, 33, 176, 96
-1.00161, 433, 153, 496, 216
-1.0017, 369, 209, 432, 336
-1.00177, 369, 209, 400, 336
-1.00177, 265, 209, 328, 272
-1.0018, 113, 241, 144, 368
-1.0018, 89, 65, 152, 192
-1.0018, 273, 177, 304, 304
-1.00191, 437, 1, 468, 128
-1.00192, 273, 209, 400, 336
-1.00193, 469, 1, 500, 128
-1.00193, 409, 41, 472, 104
-1.00194, 433, 193, 496, 256
-1.00201, 273, 297, 400, 360
-1.00204, 453, 17, 484, 144
-1.00206, 373, 65, 404, 192
-1.00215, 1, 57, 128, 120
-1.00221, 257, 241, 288, 368
-1.00223, 97, 9, 224, 72
-1.00228, 189, 33, 220, 160
-1.00231, 337, 209, 368, 336
-1.00237, 141, 241, 172, 368
-1.00245, 49, 73, 176, 136
-1.0028, 425, 1, 456, 128
-1.00281, 433, 49, 464, 176
-1.00309, 469, 49, 500, 176
-1.0032, 369, 17, 400, 144
-1.00322, 45, 65, 76, 192
-1.00335, 101, 65, 132, 192
-1.00341, 1, 193, 32, 320
-1.00402, 357, 1, 388, 128
-1.00407, 113, 65, 176, 192
-1.00418, 409, 65, 472, 192
-1.00424, 1, 145, 32, 272
-1.00435, 97, 209, 128, 336
-1.00437, 469, 177, 500, 304
-1.00445, 1, 17, 128, 144
-1.0045, 121, 65, 152, 192
-1.00458, 177, 65, 208, 192
-1.00463, 65, 65, 96, 192
-1.00469, 77, 65, 108, 192
-1.00484, 149, 65, 180, 192
-1.00491, 381, 209, 412, 336
-1.00505, 153, 17, 216, 144
-1.00508, 245, 225, 276, 352
-1.00614, 89, 209, 152, 336
-1.0073, 65, 17, 192, 144
-1.0074, 433, 65, 496, 192
-1.00771, 433, 129, 496, 256
-1.0082, 49, 17, 112, 144
-1.00856, 249, 193, 312, 320
-1.00932, 273, 209, 336, 336
-1.00996, 17, 1, 80, 128
-1.00997, 345, 209, 408, 336
-1.01034, 73, 17, 136, 144
-1.01049, 297, 241, 360, 368
-1.01077, 113, 17, 176, 144
-1.01078, 321, 225, 384, 352
