2019
-0.250204, 1, 1, 400, 500
-0.39119, 1, 193, 400, 448
-0.451493, 1, 97, 400, 352
-0.452152, 97, 1, 352, 500
-0.547489, 1, 1, 400, 256
-0.556701, 1, 1, 256, 500
-0.595447, 97, 225, 352, 480
-0.644815, 1, 193, 256, 448
-0.715225, 97, 129, 352, 384
-0.735754, 1, 97, 256, 352
-0.739821, 97, 33, 352, 288
-0.805587, 1, 1, 256, 256
-0.835219, 49, 193, 176, 448
-0.866448, 257, 1, 384, 500
-0.86831, 81, 1, 208, 500
-0.877026, 209, 1, 336, 500
-0.879822, 129, 1, 256, 500
-0.88113, 1, 193, 128, 448
-0.882551, 1, 225, 400, 352
-0.884562, 273, 65, 400, 320
-0.887383, 1, 1, 128, 500
-0.890782, 113, 193, 240, 448
-0.890817, 209, 1, 336, 256
-0.904082, 33, 97, 160, 352
-0.904332, 1, 273, 400, 400
-0.905912, 161, 1, 288, 256
-0.905978, 193, 257, 320, 500
-0.907902, 273, 257, 400, 500
-0.911033, 1, 161, 400, 288
-0.913588, 113, 97, 240, 352
-0.916584, 129, 369, 384, 496
-0.916852, 193, 97, 320, 352
-0.922891, 1, 225, 256, 352
-0.923462, 1, 321, 400, 448
-0.927709, 1, 369, 400, 496
-0.927807, 33, 209, 160, 336
-0.931166, 129, 321, 384, 448
-0.932742, 1, 49, 400, 176
-0.933433, 1, 1, 400, 128
-0.935303, 1, 177, 256, 304
-0.935828, 113, 1, 240, 256
-0.936283, 257, 161, 384, 416
-0.938315, 129, 273, 384, 400
-0.938405, 1, 1, 128, 256
-0.93913, 1, 97, 400, 224
-0.939154, 49, 1, 176, 256
-0.942502, 97, 225, 352, 352
-0.942984, 49, 289, 176, 416
-0.943638, 49, 209, 112, 336
-0.94494, 273, 81, 400, 208
-0.946267, 337, 273, 400, 400
-0.947525, 97, 33, 352, 160
-0.949241, 1, 289, 256, 416
-0.949829, 137, 337, 200, 464
-0.950934, 97, 289, 160, 416
-0.951131, 273, 369, 400, 496
-0.951539, 1, 1, 256, 128
-0.952532, 129, 129, 384, 256
-0.954211, 113, 321, 240, 448
-0.954385, 137, 289, 200, 416
-0.955476, 73, 193, 136, 320
-0.956193, 97, 145, 224, 272
-0.958297, 129, 81, 384, 208
-0.958299, 305, 337, 368, 464
-0.958933, 225, 33, 352, 160
-0.959493, 257, 321, 384, 448
-0.960643, 273, 1, 400, 128
-0.960784, 137, 345, 200, 408
-0.961075, 337, 353, 400, 480
-0.961499, 1, 1, 128, 128
-0.961886, 113, 209, 240, 336
-0.962152, 1, 65, 256, 192
-0.962233, 1, 273, 128, 400
-0.962306, 129, 369, 256, 496
-0.962769, 329, 49, 392, 176
-0.962873, 137, 321, 200, 384
-0.963017, 113, 257, 240, 384
-0.963118, 281, 65, 344, 192
-0.963321, 121, 241, 184, 368
-0.963918, 1, 145, 128, 272
-0.963984, 329, 113, 392, 240
-0.964043, 89, 297, 152, 360
-0.964802, 137, 297, 200, 360
-0.964808, 337, 273, 400, 336
-0.964868, 9, 1, 72, 128
-0.965703, 305, 393, 368, 456
-0.96613, 193, 145, 256, 272
-0.966536, 73, 193, 136, 256
-0.966641, 25, 241, 88, 368
-0.966944, 177, 129, 304, 256
-0.967294, 337, 73, 400, 136
-0.967364, 337, 193, 400, 320
-0.967446, 41, 257, 104, 320
-0.967485, 65, 289, 128, 416
-0.967915, 97, 241, 160, 368
-0.967965, 337, 321, 400, 384
-0.968163, 73, 161, 136, 416
-0.968222, 337, 1, 400, 128
-0.968518, 1, 337, 256, 464
-0.968573, 1, 129, 256, 256
-0.968661, 41, 289, 104, 416
-0.969056, 337, 161, 400, 224
-0.969264, 225, 81, 352, 208
-0.969271, 49, 161, 176, 288
-0.969301, 193, 369, 320, 496
-0.969699, 225, 97, 288, 224
-0.970025, 97, 177, 352, 304
-0.970399, 249, 33, 312, 160
-0.970407, 337, 97, 400, 160
-0.970828, 273, 273, 400, 400
-0.97107, 337, 377, 400, 440
-0.971192, 337, 161, 400, 416
-0.971485, 337, 297, 400, 360
-0.971631, 177, 33, 304, 160
-0.971811, 49, 1, 176, 128
-0.971985, 1, 209, 64, 336
-0.972332, 33, 289, 96, 352
-0.972423, 41, 193, 104, 256
-0.972878, 161, 257, 288, 384
-0.972989, 61, 209, 92, 336
-0.97325, 337, 249, 400, 312
-0.97359, 161, 321, 224, 448
-0.973625, 305, 65, 368, 192
-0.973632, 97, 193, 160, 320
-0.973641, 217, 49, 280, 176
-0.973702, 241, 369, 304, 496
-0.973845, 313, 65, 376, 128
-0.97388, 329, 137, 392, 200
-0.973976, 241, 401, 304, 464
-0.974108, 113, 281, 176, 344
-0.974648, 97, 193, 160, 448
-0.974678, 33, 97, 160, 224
-0.974886, 129, 49, 256, 176
-0.974992, 161, 305, 288, 432
-0.975167, 49, 193, 112, 448
-0.975256, 73, 145, 136, 272
-0.97527, 25, 161, 88, 288
-0.975389, 337, 257, 400, 500
-0.975989, 33, 209, 160, 272
-0.975994, 365, 161, 396, 224
-0.976009, 265, 353, 328, 480
-0.976148, 273, 129, 400, 256
-0.97616, 45, 257, 76, 320
-0.97634, 313, 1, 376, 128
-0.976511, 33, 249, 160, 312
-0.976618, 145, 369, 208, 432
-0.976802, 313, 241, 376, 368
-0.976924, 49, 241, 80, 368
-0.977068, 65, 337, 192, 464
-0.977258, 257, 433, 384, 496
-0.977415, 365, 161, 396, 288
-0.977546, 1, 185, 64, 248
-0.977637, 201, 353, 264, 480
-0.977656, 113, 145, 176, 272
-0.977723, 9, 265, 72, 328
-0.977738, 349, 369, 380, 496
-0.97776, 81, 217, 144, 280
-0.97801, 305, 89, 368, 152
-0.978032, 1, 1, 64, 64
-0.978307, 257, 409, 384, 472
-0.978366, 65, 297, 192, 360
-0.978398, 257, 209, 384, 336
-0.978462, 73, 209, 104, 336
-0.978496, 57, 289, 120, 352
-0.978578, 145, 393, 208, 456
-0.978656, 233, 113, 296, 176
-0.978671, 313, 353, 376, 416
-0.978676, 369, 137, 400, 200
-0.978732, 273, 97, 400, 160
-0.978827, 105, 337, 168, 464
-0.978878, 365, 241, 396, 368
-0.979119, 57, 1, 120, 128
-0.979138, 57, 217, 120, 280
-0.979259, 209, 121, 272, 184
-0.979314, 57, 169, 120, 232
-0.979387, 49, 161, 112, 288
-0.979388, 1, 289, 128, 352
-0.979485, 281, 73, 344, 136
-0.979551, 145, 433, 208, 496
-0.979823, 145, 289, 176, 416
-0.979853, 337, 1, 400, 64
-0.979963, 185, 209, 248, 336
-0.979999, 369, 257, 400, 320
-0.98001, 313, 289, 376, 352
-0.980131, 169, 329, 232, 392
-0.980145, 193, 33, 256, 160
-0.980157, 209, 433, 272, 496
-0.980331, 217, 1, 280, 256
-0.98035, 337, 433, 400, 496
-0.980413, 1, 185, 128, 248
-0.980784, 137, 257, 200, 500
-0.980802, 361, 1, 392, 128
-0.980887, 73, 241, 136, 368
-0.980908, 249, 113, 312, 240
-0.980917, 121, 1, 184, 128
-0.980928, 369, 201, 400, 264
-0.980947, 273, 385, 400, 448
-0.981002, 105, 169, 168, 232
-0.981074, 17, 217, 80, 280
-0.981195, 265, 417, 328, 480
-0.981272, 57, 97, 120, 224
-0.981405, 129, 97, 256, 224
-0.981407, 1, 161, 64, 288
-0.981417, 337, 409, 400, 472
-0.981492, 161, 209, 288, 336
-0.981584, 105, 321, 168, 384
-0.981649, 337, 321, 368, 448
-0.981652, 233, 33, 296, 96
-0.98179, 337, 49, 400, 112
-0.98179, 233, 433, 296, 496
-0.981952, 365, 353, 396, 480
-0.981996, 257, 353, 384, 416
-0.982043, 65, 273, 192, 336
-0.982077, 161, 241, 224, 368
-0.982131, 241, 1, 304, 256
-0.98233, 349, 65, 380, 192
-0.982383, 129, 337, 256, 400
-0.982423, 117, 289, 148, 416
-0.982465, 129, 433, 256, 496
-0.982547, 361, 369, 392, 432
-0.982572, 113, 257, 176, 320
-0.982609, 177, 81, 304, 208
-0.982613, 273, 17, 336, 144
-0.982619, 121, 297, 152, 360
-0.982625, 337, 201, 400, 264
-0.982683, 217, 145, 280, 272
-0.982692, 329, 65, 392, 320
-0.982726, 273, 121, 400, 184
-0.982729, 97, 185, 128, 248
-0.982758, 349, 377, 380, 440
-0.982765, 97, 177, 224, 240
-0.982842, 141, 289, 172, 352
-0.982847, 113, 313, 240, 376
-0.982862, 273, 73, 400, 136
-0.98288, 97, 193, 160, 256
-0.982899, 145, 345, 176, 408
-0.982909, 349, 65, 380, 128
-0.982926, 85, 209, 116, 336
-0.982932, 193, 1, 256, 256
-0.982945, 361, 113, 392, 240
-0.982961, 9, 289, 72, 352
-0.982975, 145, 145, 208, 272
-0.98306, 305, 433, 368, 496
-0.983066, 177, 225, 240, 480
-0.983087, 257, 41, 320, 104
-0.983135, 305, 41, 368, 104
-0.983176, 1, 241, 64, 304
-0.983263, 157, 321, 188, 384
-0.983338, 25, 129, 88, 384
-0.983387, 329, 1, 392, 500
-0.983466, 37, 281, 68, 344
-0.983533, 97, 1, 224, 128
-0.983551, 289, 329, 352, 392
-0.983611, 45, 193, 76, 320
-0.983649, 129, 393, 256, 456
-0.983688, 361, 289, 392, 416
-0.98373, 209, 257, 272, 320
-0.983741, 165, 321, 196, 448
-0.983756, 81, 65, 208, 192
-0.983757, 273, 1, 336, 256
-0.983857, 121, 161, 184, 416
-0.983887, 201, 409, 264, 472
-0.984076, 185, 97, 248, 224
-0.984286, 105, 409, 168, 472
-0.984351, 185, 225, 248, 288
-0.984379, 349, 289, 380, 416
-0.984427, 57, 249, 88, 312
-0.984433, 33, 1, 96, 128
-0.984474, 209, 305, 336, 432
-0.98453, 105, 433, 168, 496
-0.984531, 357, 137, 388, 200
-0.984603, 225, 57, 352, 120
-0.984605, 209, 177, 336, 304
-0.984639, 41, 97, 104, 160
-0.9847, 273, 329, 400, 392
-0.984839, 113, 289, 240, 352
-0.98484, 313, 257, 376, 500
-0.984868, 233, 137, 296, 200
-0.985014, 337, 225, 400, 288
-0.985051, 225, 257, 352, 384
-0.985063, 313, 289, 376, 416
-0.985087, 257, 377, 320, 440
-0.985156, 305, 113, 368, 240
-0.985171, 273, 1, 336, 500
-0.985196, 61, 193, 92, 256
-0.985197, 113, 209, 240, 272
-0.985203, 217, 1, 280, 128
-0.98533, 349, 1, 380, 128
-0.98536, 101, 161, 132, 288
-0.98544, 73, 217, 104, 280
-0.985522, 97, 1, 160, 128
-0.985549, 65, 289, 96, 352
-0.985626, 109, 297, 140, 360
-0.985763, 161, 305, 224, 368
-0.985804, 185, 193, 248, 256
-0.985872, 365, 281, 396, 344
-0.985905, 233, 209, 296, 336
-0.985922, 145, 153, 208, 216
-0.985946, 105, 385, 168, 448
-0.98602, 209, 121, 336, 184
-0.986024, 137, 241, 168, 368
-0.986044, 361, 73, 392, 136
-0.986044, 193, 433, 320, 496
-0.986048, 209, 217, 272, 280
-0.986059, 117, 225, 148, 352
-0.986075, 69, 289, 100, 416
-0.986076, 281, 393, 344, 456
-0.986103, 85, 201, 116, 264
-0.986121, 129, 361, 256, 424
-0.986149, 65, 321, 192, 384
-0.986255, 313, 257, 376, 320
-0.986301, 337, 353, 400, 416
-0.986308, 49, 289, 80, 352
-0.986311, 185, 129, 248, 192
-0.986344, 25, 225, 88, 480
-0.986362, 145, 337, 176, 464
-0.986387, 209, 209, 272, 336
-0.986392, 177, 145, 304, 208
-0.986425, 185, 161, 248, 224
-0.986448, 129, 305, 160, 432
-0.986453, 241, 257, 304, 320
-0.986515, 329, 393, 360, 456
-0.98656, 273, 17, 400, 80
-0.986561, 89, 273, 152, 336
-0.986587, 349, 113, 380, 176
-0.986608, 225, 377, 352, 440
-0.986654, 209, 33, 272, 96
-0.986675, 129, 233, 256, 296
-0.986679, 81, 289, 112, 416
-0.986718, 193, 409, 320, 472
-0.986723, 49, 185, 176, 248
-0.986762, 369, 225, 400, 288
-0.986776, 93, 289, 124, 416
-0.986796, 105, 345, 168, 408
-0.9868, 253, 393, 284, 456
-0.986812, 105, 1, 168, 500
-0.9869, 49, 1, 112, 500
-0.986917, 49, 97, 112, 352
-0.986971, 161, 121, 288, 184
-0.987016, 337, 65, 368, 192
-0.987051, 69, 161, 100, 288
-0.987186, 313, 313, 376, 376
-0.98719, 105, 289, 136, 416
-0.987207, 113, 145, 176, 208
-0.987214, 57, 161, 88, 288
-0.987339, 1, 129, 64, 384
-0.987367, 349, 113, 380, 240
-0.987426, 145, 265, 272, 328
-0.987454, 169, 33, 232, 160
-0.987482, 233, 97, 296, 352
-0.987559, 81, 1, 144, 500
-0.987606, 329, 73, 360, 136
-0.987607, 97, 297, 128, 360
-0.987622, 161, 281, 224, 344
-0.987623, 333, 353, 364, 416
-0.987631, 273, 41, 400, 104
-0.987823, 225, 81, 352, 144
-0.987829, 313, 113, 376, 176
-0.987849, 249, 369, 280, 496
-0.987892, 313, 193, 376, 320
-0.987915, 305, 65, 368, 320
-0.988025, 1, 225, 64, 480
-0.988037, 145, 313, 176, 376
-0.988064, 65, 265, 128, 328
-0.988098, 1, 49, 128, 176
-0.988108, 225, 121, 256, 184
-0.988196, 281, 97, 344, 160
-0.988216, 169, 345, 200, 408
-0.988234, 97, 153, 224, 216
-0.988317, 257, 281, 384, 344
-0.988329, 361, 97, 392, 160
-0.988374, 325, 369, 356, 496
-0.988436, 57, 289, 88, 416
-0.988549, 337, 281, 368, 344
-0.988577, 185, 1, 248, 500
-0.98863, 337, 113, 368, 240
-0.988669, 161, 305, 288, 368
-0.988687, 277, 433, 308, 496
-0.988689, 185, 41, 248, 104
-0.988697, 225, 1, 288, 500
-0.988729, 361, 65, 392, 192
-0.988757, 49, 209, 80, 272
-0.98881, 369, 337, 400, 400
-0.988821, 289, 369, 352, 432
-0.988835, 353, 193, 384, 320
-0.988902, 137, 1, 200, 500
-0.988918, 305, 1, 368, 500
-0.989027, 85, 145, 116, 272
-0.989053, 25, 169, 88, 232
-0.989131, 257, 129, 320, 192
-0.98915, 353, 161, 384, 224
-0.989195, 73, 177, 104, 240
-0.989217, 177, 201, 304, 264
-0.989217, 129, 433, 384, 496
-0.98922, 1, 89, 64, 152
-0.98924, 169, 433, 232, 496
-0.989263, 85, 297, 116, 360
-0.989299, 153, 193, 216, 320
-0.989338, 169, 145, 232, 272
-0.989348, 217, 273, 280, 400
-0.989366, 249, 1, 312, 500
-0.989387, 209, 257, 336, 320
-0.989442, 273, 145, 400, 208
-0.989476, 241, 97, 272, 224
-0.989508, 357, 1, 388, 64
-0.989527, 265, 409, 296, 472
-0.98953, 1, 1, 128, 64
-0.989569, 1, 89, 128, 152
-0.989618, 337, 25, 400, 88
-0.989713, 201, 129, 264, 384
-0.989742, 273, 17, 336, 80
-0.989775, 1, 1, 64, 500
-0.989777, 25, 9, 88, 72
-0.989785, 1, 161, 128, 224
-0.989802, 129, 321, 192, 352
-0.989805, 145, 1, 208, 128
-0.989816, 33, 1, 64, 128
-0.989826, 289, 289, 352, 416
-0.989861, 317, 81, 348, 208
-0.989898, 241, 113, 272, 176
-0.989928, 257, 33, 288, 160
-0.989933, 161, 369, 224, 496
-0.989943, 81, 345, 208, 408
-0.989972, 137, 353, 200, 384
-0.989974, 301, 65, 332, 192
-0.989997, 201, 257, 264, 500
-0.990064, 225, 9, 288, 72
-0.990066, 9, 1, 40, 128
-0.990088, 145, 49, 272, 112
-0.990092, 233, 233, 296, 296
-0.990097, 233, 257, 296, 500
-0.990172, 161, 1, 224, 500
-0.990213, 185, 305, 248, 432
-0.990214, 357, 201, 388, 264
-0.990262, 333, 273, 364, 400
-0.990286, 129, 321, 160, 384
-0.990307, 37, 241, 68, 368
-0.990327, 341, 137, 372, 200
-0.990327, 25, 209, 56, 336
-0.990327, 1, 273, 64, 400
-0.990332, 257, 257, 320, 500
-0.990349, 177, 353, 240, 416
-0.99036, 145, 369, 176, 432
-0.990367, 209, 369, 272, 432
-0.99043, 81, 213, 144, 244
-0.990435, 1, 161, 64, 224
-0.990472, 305, 401, 368, 432
-0.990473, 145, 129, 208, 384
-0.990532, 49, 417, 176, 480
-0.990534, 177, 369, 304, 432
-0.990555, 89, 305, 152, 336
-0.990573, 337, 281, 400, 312
-0.990587, 257, 249, 384, 312
-0.99065, 337, 97, 400, 128
-0.990706, 137, 341, 200, 372
-0.990707, 305, 73, 336, 136
-0.990708, 137, 365, 200, 396
-0.990721, 225, 33, 256, 160
-0.990737, 225, 129, 352, 256
-0.990756, 265, 353, 328, 416
-0.990784, 209, 33, 336, 96
-0.990795, 25, 281, 56, 344
-0.990814, 321, 369, 352, 432
-0.990824, 217, 129, 248, 256
-0.990853, 49, 385, 176, 448
-0.990882, 129, 309, 192, 340
-0.990889, 169, 1, 232, 256
-0.990895, 337, 69, 400, 100
-0.990899, 345, 433, 376, 496
-0.990918, 197, 417, 228, 480
-0.990936, 33, 281, 96, 312
-0.990961, 177, 169, 304, 232
-0.990963, 145, 393, 176, 456
-0.991029, 313, 389, 376, 420
-0.991032, 65, 97, 96, 160
-0.991039, 89, 65, 152, 320
-0.991068, 337, 109, 400, 140
-0.991078, 233, 369, 296, 432
-0.991102, 337, 333, 400, 364
-0.991115, 321, 85, 384, 116
-0.991119, 345, 257, 376, 320
-0.991128, 65, 193, 128, 224
-0.991156, 161, 49, 224, 112
-0.991165, 1, 257, 256, 320
-0.991165, 337, 469, 400, 500
-0.991186, 337, 293, 400, 324
-0.991195, 121, 293, 184, 324
-0.991202, 185, 249, 248, 312
-0.991248, 337, 305, 400, 336
-0.991263, 337, 269, 400, 300
-0.991274, 273, 305, 400, 368
-0.991284, 241, 401, 272, 464
-0.99131, 213, 65, 244, 192
-0.991338, 33, 297, 96, 328
-0.991345, 337, 173, 400, 204
-0.99135, 329, 357, 392, 388
-0.991362, 245, 33, 276, 160
-0.991383, 65, 81, 192, 144
-0.991395, 337, 345, 400, 376
-0.991395, 1, 9, 64, 40
-0.991397, 105, 469, 168, 500
-0.991413, 73, 257, 136, 500
-0.991431, 313, 73, 376, 104
-0.991453, 57, 205, 120, 236
-0.991499, 129, 393, 384, 456
-0.99151, 229, 113, 260, 240
-0.991513, 329, 161, 392, 192
-0.991516, 1, 113, 128, 176
-0.991518, 169, 273, 200, 400
-0.991527, 209, 145, 272, 208
-0.991539, 21, 1, 52, 128
-0.99157, 161, 217, 224, 280
-0.991595, 1, 281, 64, 312
-0.991617, 1, 189, 64, 220
-0.991622, 73, 225, 136, 256
-0.991647, 297, 401, 328, 464
-0.99167, 337, 129, 400, 160
-0.991688, 121, 273, 152, 336
-0.991693, 57, 297, 120, 328
-0.991717, 337, 57, 400, 88
-0.991717, 269, 49, 300, 176
-0.991735, 1, 233, 256, 296
-0.991746, 9, 293, 72, 324
-0.99175, 337, 321, 400, 352
-0.991756, 297, 413, 360, 444
-0.99176, 337, 393, 400, 424
-0.991803, 273, 469, 336, 500
-0.99181, 329, 149, 392, 180
-0.991817, 137, 421, 200, 452
-0.991829, 49, 105, 176, 168
-0.991835, 337, 441, 400, 472
-0.991846, 213, 121, 244, 184
-0.991852, 233, 449, 296, 480
-0.991854, 249, 437, 312, 468
-0.991863, 313, 61, 376, 92
-0.991868, 33, 269, 96, 300
-0.991875, 57, 245, 120, 276
-0.991876, 313, 373, 376, 404
-0.991879, 337, 453, 400, 484
-0.991888, 289, 257, 352, 320
-0.991898, 289, 257, 352, 500
-0.991913, 237, 137, 268, 200
-0.991913, 89, 201, 152, 232
-0.991921, 137, 381, 200, 412
-0.991929, 137, 393, 200, 424
-0.991941, 177, 225, 304, 288
-0.991958, 337, 429, 400, 460
-0.991964, 361, 41, 392, 104
-0.991974, 49, 1, 112, 32
-0.991974, 217, 149, 280, 180
-0.991977, 145, 469, 208, 500
-0.991998, 105, 333, 168, 364
-0.992003, 241, 141, 304, 172
-0.992015, 209, 445, 272, 476
-0.992046, 337, 13, 400, 44
-0.992052, 337, 381, 400, 412
-0.992052, 225, 261, 288, 292
-0.992054, 137, 445, 200, 476
-0.99206, 49, 257, 112, 288
-0.992075, 253, 97, 284, 224
-0.992088, 105, 209, 136, 336
-0.992089, 49, 217, 112, 248
-0.9921, 137, 409, 200, 440
-0.992117, 281, 281, 344, 344
-0.992117, 201, 145, 232, 272
-0.992142, 329, 105, 360, 168
-0.992143, 41, 101, 104, 132
-0.992145, 137, 433, 200, 464
-0.992151, 25, 189, 88, 220
-0.992152, 217, 129, 280, 160
-0.992154, 305, 469, 368, 500
-0.992156, 305, 437, 368, 468
-0.992158, 1, 97, 64, 128
-0.99218, 45, 289, 76, 416
-0.992188, 29, 1, 60, 64
-0.992191, 169, 345, 232, 376
-0.992216, 337, 253, 400, 284
-0.992216, 169, 409, 232, 472
-0.99222, 313, 289, 376, 320
-0.992222, 137, 265, 168, 328
-0.992226, 337, 417, 400, 448
-0.992229, 193, 257, 256, 384
-0.992248, 105, 429, 168, 460
-0.992263, 201, 261, 264, 292
-0.992286, 113, 345, 176, 376
-0.992288, 17, 233, 80, 264
-0.992296, 217, 45, 280, 76
-0.992305, 105, 441, 168, 472
-0.992316, 105, 453, 168, 484
-0.992321, 137, 457, 200, 488
-0.992326, 305, 449, 368, 480
-0.992334, 129, 369, 384, 432
-0.992338, 257, 257, 320, 384
-0.992382, 269, 353, 300, 480
-0.992398, 257, 433, 288, 496
-0.99242, 33, 81, 96, 208
-0.992425, 9, 245, 72, 276
-0.99243, 225, 145, 352, 208
-0.992431, 57, 181, 120, 212
-0.992435, 37, 225, 68, 288
-0.992435, 305, 105, 368, 136
-0.992443, 105, 417, 168, 448
-0.992466, 105, 397, 168, 428
-0.992475, 225, 329, 352, 392
-0.992477, 41, 229, 104, 260
-0.992482, 313, 313, 376, 344
-0.992497, 241, 45, 304, 76
-0.992502, 169, 289, 200, 352
-0.992512, 233, 469, 296, 500
-0.99253, 49, 161, 176, 224
-0.992543, 233, 117, 296, 148
-0.992554, 137, 161, 200, 192
-0.992581, 273, 69, 336, 100
-0.992583, 97, 321, 160, 352
-0.992594, 201, 433, 264, 464
-0.992604, 357, 61, 388, 92
-0.992609, 105, 385, 168, 416
-0.992611, 305, 425, 368, 456
-0.992612, 305, 117, 368, 148
-0.992617, 177, 357, 240, 388
-0.992634, 161, 317, 224, 348
-0.992643, 169, 469, 232, 500
-0.992651, 129, 65, 192, 192
-0.992652, 1, 257, 64, 288
-0.992653, 129, 433, 160, 496
-0.992656, 193, 153, 256, 184
-0.992658, 233, 421, 296, 452
-0.992659, 209, 273, 272, 304
-0.992664, 97, 293, 160, 324
-0.992664, 25, 1, 88, 500
-0.992666, 161, 333, 224, 364
-0.992668, 113, 121, 240, 184
-0.992668, 249, 33, 312, 64
-0.992669, 169, 441, 232, 472
-0.992676, 121, 309, 152, 340
-0.992682, 313, 161, 376, 416
-0.992688, 337, 205, 400, 236
-0.992689, 241, 409, 304, 440
-0.992694, 177, 49, 240, 80
-0.9927, 313, 301, 376, 332
-0.992701, 1, 249, 400, 312
-0.992707, 317, 305, 348, 432
-0.992714, 265, 97, 296, 224
-0.992715, 97, 173, 160, 204
-0.992721, 81, 49, 144, 176
-0.992736, 153, 293, 216, 324
-0.992737, 369, 269, 400, 300
-0.99277, 297, 85, 360, 116
-0.992782, 357, 161, 388, 192
-0.992785, 65, 285, 128, 316
-0.992793, 357, 377, 388, 408
-0.992793, 329, 189, 392, 220
-0.992793, 257, 393, 320, 424
-0.992799, 41, 277, 72, 308
-0.992818, 137, 273, 200, 336
-0.992821, 89, 1, 152, 32
-0.992825, 185, 165, 248, 196
-0.992827, 97, 197, 128, 228
-0.992831, 369, 145, 400, 176
-0.992833, 369, 205, 400, 236
-0.992836, 337, 241, 400, 272
-0.992844, 41, 73, 104, 136
-0.992857, 45, 1, 76, 128
-0.992884, 325, 305, 356, 368
-0.992884, 177, 345, 304, 408
-0.992887, 81, 81, 144, 144
-0.992888, 349, 73, 380, 104
-0.992894, 145, 349, 176, 380
-0.992905, 89, 145, 152, 208
-0.992933, 177, 353, 208, 480
-0.992944, 9, 185, 40, 248
-0.99295, 225, 209, 352, 272
-0.992952, 257, 105, 320, 168
-0.992954, 341, 89, 372, 152
-0.992963, 333, 397, 364, 428
-0.992964, 369, 169, 400, 200
-0.99297, 97, 345, 352, 408
-0.992972, 369, 217, 400, 248
-0.992978, 365, 281, 396, 312
-0.992984, 369, 257, 400, 288
-0.992993, 365, 193, 396, 224
-0.993, 369, 369, 400, 400
-0.993004, 61, 225, 92, 288
-0.993012, 37, 289, 68, 320
-0.993017, 65, 297, 96, 328
-0.993054, 141, 321, 172, 352
-0.993057, 129, 273, 384, 336
-0.993065, 73, 197, 104, 228
-0.993066, 209, 65, 272, 128
-0.993072, 109, 305, 140, 336
-0.993072, 369, 229, 400, 260
-0.993078, 197, 433, 228, 464
-0.99308, 149, 433, 180, 496
-0.993083, 341, 169, 372, 232
-0.993084, 361, 73, 392, 104
-0.993096, 33, 209, 288, 272
-0.993097, 89, 301, 120, 332
-0.993125, 129, 97, 256, 160
-0.993129, 225, 41, 256, 104
-0.993131, 237, 145, 268, 176
-0.993133, 349, 149, 380, 180
-0.993135, 53, 253, 84, 284
-0.993136, 345, 389, 376, 420
-0.993141, 253, 105, 284, 168
-0.993152, 341, 469, 372, 500
-0.993155, 129, 465, 160, 496
-0.993159, 65, 237, 96, 268
-0.993162, 81, 217, 112, 248
-0.993162, 157, 341, 188, 372
-0.993165, 121, 33, 184, 288
-0.993181, 65, 105, 96, 136
-0.993182, 145, 305, 176, 336
-0.993187, 345, 61, 376, 92
-0.993188, 277, 469, 308, 500
-0.993192, 357, 173, 388, 204
-0.993193, 245, 445, 276, 476
-0.993195, 285, 65, 316, 192
-0.993207, 145, 469, 176, 500
-0.993208, 365, 93, 396, 124
-0.993208, 65, 105, 128, 168
-0.993211, 49, 293, 80, 324
-0.993213, 365, 293, 396, 324
-0.993221, 357, 205, 388, 236
-0.993221, 165, 361, 196, 392
-0.993224, 253, 33, 284, 96
-0.993224, 333, 93, 364, 124
-0.993228, 365, 105, 396, 136
-0.993229, 225, 145, 256, 176
-0.99323, 89, 181, 120, 212
-0.993231, 25, 285, 56, 316
-0.993238, 349, 133, 380, 164
-0.993241, 369, 241, 400, 272
-0.993241, 345, 97, 376, 128
-0.993243, 365, 133, 396, 164
-0.993244, 257, 449, 288, 480
-0.993244, 261, 437, 292, 468
-0.993255, 225, 321, 288, 448
-0.993256, 261, 141, 292, 172
-0.993256, 1, 25, 128, 88
-0.993257, 9, 189, 40, 220
-0.993258, 1, 469, 32, 500
-0.993258, 77, 301, 108, 332
-0.993261, 249, 137, 280, 168
-0.99327, 273, 433, 304, 464
-0.993271, 285, 445, 316, 476
-0.993277, 65, 209, 96, 240
-0.993285, 17, 469, 48, 500
-0.993288, 129, 313, 384, 376
-0.993302, 253, 405, 284, 436
-0.993308, 341, 289, 372, 320
-0.99331, 345, 85, 376, 116
-0.993318, 145, 397, 176, 428
-0.993319, 129, 337, 160, 368
-0.99332, 313, 1, 376, 64
-0.993326, 77, 229, 108, 260
-0.993328, 345, 457, 376, 488
-0.993347, 45, 265, 76, 296
-0.993353, 245, 265, 276, 296
-0.993355, 257, 305, 320, 432
-0.993361, 145, 417, 176, 448
-0.993364, 33, 465, 64, 496
-0.993365, 225, 125, 256, 156
-0.993366, 93, 209, 124, 240
-0.993367, 237, 133, 268, 164
-0.993367, 145, 437, 176, 468
-0.993371, 229, 261, 260, 292
-0.993372, 345, 441, 376, 472
-0.99338, 129, 401, 160, 464
-0.993382, 369, 321, 400, 352
-0.993383, 149, 361, 180, 392
-0.993384, 297, 69, 328, 100
-0.993384, 369, 181, 400, 212
-0.993385, 129, 453, 160, 484
-0.993386, 321, 385, 352, 416
-0.993389, 185, 429, 216, 460
-0.99339, 153, 329, 184, 360
-0.993394, 197, 421, 228, 452
-0.993396, 169, 345, 200, 376
-0.993401, 157, 273, 188, 400
-0.993404, 329, 81, 360, 112
-0.993406, 145, 385, 176, 416
-0.993409, 73, 469, 104, 500
-0.99341, 369, 309, 400, 340
-0.993411, 145, 457, 176, 488
-0.993416, 129, 441, 160, 472
-0.993425, 329, 121, 360, 152
-0.993429, 353, 273, 384, 304
-0.99343, 229, 45, 260, 76
-0.99343, 129, 413, 160, 444
-0.993433, 245, 45, 276, 76
-0.993433, 345, 329, 376, 392
-0.993433, 129, 429, 160, 460
-0.993434, 53, 1, 84, 32
-0.993436, 145, 373, 176, 404
-0.993439, 45, 469, 76, 500
-0.993441, 173, 373, 204, 404
-0.993441, 349, 429, 380, 460
-0.993444, 57, 221, 88, 252
-0.993446, 369, 157, 400, 188
-0.993447, 53, 189, 84, 220
-0.993448, 349, 113, 380, 144
-0.993448, 5, 101, 36, 132
-0.993454, 369, 61, 400, 92
-0.993454, 121, 297, 152, 328
-0.993455, 133, 297, 164, 328
-0.993455, 273, 445, 304, 476
-0.993459, 1, 1, 32, 32
-0.99346, 57, 469, 88, 500
-0.993461, 97, 469, 128, 500
-0.993464, 325, 469, 356, 500
-0.993466, 129, 401, 160, 432
-0.993468, 129, 129, 384, 192
-0.993469, 125, 325, 156, 356
-0.993472, 109, 193, 140, 224
-0.993473, 365, 349, 396, 380
-0.993474, 337, 301, 368, 332
-0.993574, 157, 345, 188, 408
-0.993579, 169, 129, 232, 384
-0.993588, 209, 305, 336, 368
-0.9936, 57, 1, 88, 128
-0.993601, 233, 281, 296, 344
-0.993607, 25, 33, 88, 288
-0.993617, 1, 65, 128, 128
-0.993626, 209, 281, 272, 344
-0.993723, 369, 305, 400, 368
-0.993753, 9, 9, 40, 72
-0.993788, 273, 185, 400, 248
-0.993798, 281, 41, 344, 104
-0.993824, 77, 1, 108, 128
-0.993842, 181, 361, 212, 424
-0.993843, 9, 113, 72, 240
-0.993846, 77, 273, 108, 336
-0.993901, 47, 265, 62, 328
-0.993908, 105, 97, 168, 224
-0.993914, 21, 249, 52, 312
-0.993926, 33, 257, 64, 320
-0.993936, 81, 249, 208, 312
-0.993976, 257, 97, 320, 352
-0.993997, 49, 129, 176, 192
-0.994045, 81, 169, 144, 232
-0.994065, 105, 225, 168, 288
-0.994108, 153, 193, 216, 256
-0.994121, 189, 337, 220, 464
-0.994143, 9, 161, 40, 288
-0.994167, 129, 377, 160, 440
-0.994168, 177, 97, 304, 160
-0.994184, 1, 49, 64, 176
-0.994194, 313, 193, 376, 256
-0.994198, 317, 89, 348, 152
-0.994232, 237, 433, 268, 496
-0.994244, 265, 33, 296, 96
-0.99426, 161, 25, 288, 88
-0.994282, 85, 177, 116, 240
-0.994341, 329, 17, 360, 144
-0.994345, 153, 289, 184, 352
-0.99435, 213, 209, 244, 336
-0.994355, 1, 185, 256, 248
-0.994358, 257, 65, 320, 128
-0.994375, 93, 273, 124, 336
-0.994398, 249, 9, 312, 72
-0.994401, 217, 345, 280, 408
-0.994418, 1, 1, 64, 256
-0.994431, 197, 209, 228, 336
-0.994458, 53, 257, 68, 320
-0.994476, 309, 377, 340, 440
-0.994505, 209, 225, 240, 288
-0.994521, 257, 469, 384, 500
-0.994529, 169, 321, 200, 384
-0.994531, 281, 225, 344, 352
-0.99454, 153, 97, 216, 224
-0.994547, 137, 57, 200, 120
-0.994548, 253, 369, 284, 432
-0.994562, 313, 161, 376, 224
-0.994609, 289, 433, 320, 496
-0.994632, 341, 225, 372, 352
-0.994646, 125, 1, 156, 128
-0.994657, 1, 273, 400, 336
-0.994686, 301, 1, 332, 128
-0.994698, 265, 137, 296, 200
-0.994714, 193, 281, 320, 344
-0.994722, 357, 249, 388, 312
-0.994734, 181, 321, 212, 384
-0.994739, 241, 17, 272, 80
-0.994749, 209, 9, 336, 72
-0.994755, 129, 249, 384, 312
-0.994757, 113, 1, 144, 128
-0.994762, 129, 73, 256, 136
-0.994762, 97, 57, 352, 120
-0.994772, 137, 1, 168, 128
-0.994805, 369, 137, 384, 200
-0.994834, 269, 113, 300, 176
-0.994895, 185, 209, 216, 336
-0.994937, 145, 33, 208, 288
-0.994957, 213, 1, 244, 128
-0.995, 345, 193, 376, 256
-0.995023, 49, 245, 176, 276
-0.995036, 59, 249, 74, 312
-0.995041, 273, 125, 400, 156
-0.995103, 265, 361, 296, 424
-0.995105, 349, 409, 380, 472
-0.995108, 237, 273, 268, 336
-0.995108, 41, 273, 56, 336
-0.995111, 257, 453, 384, 484
-0.995113, 281, 17, 312, 144
-0.995114, 209, 49, 240, 112
-0.995206, 257, 437, 384, 468
-0.995213, 81, 25, 208, 88
-0.995213, 97, 49, 224, 112
-0.995223, 49, 233, 176, 264
-0.995228, 49, 49, 176, 112
-0.99523, 377, 161, 392, 224
-0.995306, 185, 385, 216, 448
-0.995315, 105, 273, 136, 336
-0.995354, 225, 249, 256, 312
-0.995367, 341, 161, 372, 288
-0.995386, 349, 41, 380, 104
-0.995394, 137, 145, 168, 208
-0.995395, 325, 417, 356, 480
-0.995407, 1, 161, 256, 224
-0.995418, 33, 221, 160, 252
-0.995441, 1, 193, 128, 224
-0.995456, 1, 289, 256, 352
-0.995495, 277, 33, 308, 96
-0.995531, 77, 105, 108, 168
-0.995543, 135, 305, 150, 368
-0.995571, 357, 377, 372, 440
-0.995603, 293, 65, 324, 128
-0.995617, 369, 17, 400, 80
-0.995666, 369, 193, 400, 448
-0.995671, 371, 161, 386, 224
-0.995706, 33, 261, 160, 292
-0.99571, 285, 409, 316, 472
-0.995719, 81, 97, 144, 224
-0.995728, 69, 193, 100, 448
-0.995767, 129, 353, 160, 480
-0.995785, 197, 225, 228, 288
-0.995819, 257, 397, 384, 428
-0.995829, 65, 305, 192, 336
-0.995838, 113, 313, 240, 344
-0.995839, 73, 113, 104, 240
-0.995845, 381, 201, 396, 264
-0.995877, 33, 433, 288, 496
-0.99588, 257, 425, 384, 456
-0.99588, 201, 337, 232, 464
-0.995895, 113, 329, 240, 360
-0.995908, 363, 153, 378, 216
-0.995909, 1, 205, 128, 236
-0.995925, 357, 337, 388, 400
-0.995935, 1, 337, 256, 400
-0.995945, 121, 225, 152, 288
-0.995949, 1, 297, 400, 360
-0.995953, 377, 353, 392, 416
-0.995959, 383, 337, 398, 400
-0.995966, 129, 153, 384, 216
-0.995968, 1, 433, 400, 496
-0.995972, 257, 305, 288, 432
-0.995973, 369, 369, 384, 432
-0.995974, 109, 169, 140, 232
-0.99599, 65, 469, 192, 500
-0.996019, 241, 249, 272, 312
-0.996026, 61, 81, 92, 208
-0.996026, 1, 297, 128, 328
-0.996048, 9, 161, 40, 224
-0.99606, 129, 437, 256, 468
-0.996067, 25, 185, 56, 248
-0.996089, 257, 409, 384, 440
-0.996164, 49, 1, 176, 64
-0.996168, 113, 469, 240, 500
-0.996169, 301, 321, 332, 448
-0.996176, 273, 57, 400, 88
-0.996177, 237, 49, 268, 112
-0.996198, 375, 137, 390, 200
-0.996208, 273, 357, 400, 388
-0.996211, 85, 193, 116, 448
-0.99622, 109, 193, 140, 256
-0.996226, 33, 273, 160, 304
-0.996258, 269, 1, 300, 128
-0.996266, 1, 353, 400, 416
-0.99627, 129, 349, 256, 380
-0.996284, 169, 145, 200, 272
-0.996299, 33, 97, 288, 160
-0.996359, 47, 289, 62, 352
-0.996363, 343, 393, 358, 456
-0.996372, 71, 201, 86, 264
-0.996377, 79, 289, 94, 352
-0.996381, 351, 385, 366, 448
-0.996393, 169, 321, 184, 384
-0.996403, 113, 145, 144, 272
-0.996406, 175, 337, 190, 400
-0.996415, 193, 449, 320, 480
-0.996423, 121, 297, 136, 360
-0.996425, 81, 217, 96, 280
-0.996426, 129, 449, 256, 480
-0.996439, 65, 285, 192, 316
-0.996453, 185, 145, 216, 272
-0.996453, 55, 289, 70, 352
-0.996458, 1, 329, 400, 392
-0.996471, 129, 185, 384, 248
-0.996478, 71, 289, 86, 352
-0.996495, 1, 185, 400, 248
-0.996498, 87, 209, 102, 272
-0.996519, 75, 225, 90, 288
-0.996523, 375, 65, 390, 128
-0.996541, 97, 1, 128, 128
-0.996545, 177, 73, 304, 136
-0.996556, 129, 405, 256, 436
-0.996608, 273, 113, 400, 144
-0.996621, 81, 209, 208, 240
-0.996623, 273, 73, 400, 104
-0.996627, 97, 161, 128, 416
-0.996637, 65, 249, 80, 312
-0.996642, 61, 289, 76, 352
-0.996656, 95, 201, 110, 264
-0.99666, 193, 469, 320, 500
-0.996663, 355, 57, 370, 120
-0.996665, 113, 301, 240, 332
-0.996667, 357, 257, 388, 500
-0.996669, 113, 297, 128, 360
-0.996675, 105, 297, 120, 360
-0.996684, 257, 385, 384, 416
-0.996706, 93, 297, 108, 360
-0.996719, 107, 185, 122, 248
-0.996719, 1, 401, 400, 464
-0.996729, 1, 225, 400, 288
-0.996732, 369, 209, 384, 272
-0.996765, 101, 193, 116, 256
-0.996775, 143, 337, 158, 400
-0.99678, 57, 193, 88, 448
-0.996809, 99, 297, 114, 360
-0.996821, 161, 1, 288, 64
-0.996824, 129, 193, 192, 320
-0.996833, 29, 161, 60, 288
-0.996836, 381, 137, 396, 200
-0.996843, 113, 193, 144, 448
-0.996855, 81, 341, 208, 372
-0.996855, 363, 369, 378, 432
-0.996875, 129, 417, 256, 448
-0.996886, 273, 97, 400, 128
-0.996923, 95, 177, 110, 240
-0.996932, 257, 137, 384, 168
-0.996937, 149, 345, 164, 408
-0.996964, 63, 209, 78, 272
-0.99697, 257, 369, 384, 400
-0.996982, 1, 73, 256, 136
-0.996982, 77, 193, 92, 256
-0.996996, 237, 193, 268, 320
-0.99701, 377, 113, 392, 176
-0.997023, 367, 265, 382, 328
-0.997028, 129, 265, 256, 296
-0.997044, 239, 121, 254, 184
-0.997052, 347, 73, 362, 136
-0.997062, 101, 169, 116, 232
-0.997062, 185, 1, 216, 128
-0.997064, 97, 193, 224, 224
-0.997072, 145, 297, 160, 360
-0.997079, 129, 369, 256, 400
-0.99708, 87, 297, 102, 360
-0.997088, 163, 313, 178, 376
-0.997096, 273, 345, 400, 376
-0.997097, 1, 285, 128, 316
-0.997113, 85, 185, 100, 248
-0.997114, 193, 421, 320, 452
-0.997117, 65, 317, 192, 348
-0.997128, 369, 73, 384, 136
-0.997136, 1, 433, 128, 496
-0.99714, 1, 101, 128, 132
-0.997163, 273, 85, 400, 116
-0.997166, 181, 353, 196, 416
-0.997168, 181, 289, 212, 416
-0.997171, 245, 401, 260, 464
-0.997177, 231, 121, 246, 184
-0.997195, 161, 1, 192, 128
-0.997204, 381, 225, 396, 288
-0.997215, 1, 161, 400, 224
-0.997215, 129, 393, 256, 424
-0.997223, 49, 197, 176, 228
-0.997228, 351, 97, 366, 160
-0.997229, 373, 249, 388, 312
-0.997231, 43, 277, 58, 308
-0.997232, 1, 313, 128, 376
-0.997233, 369, 185, 384, 248
-0.997238, 129, 81, 384, 144
-0.997247, 285, 433, 300, 496
-0.997252, 347, 433, 362, 496
-0.997256, 127, 297, 142, 360
-0.997265, 341, 257, 372, 500
-0.997272, 1, 337, 128, 464
-0.997278, 65, 329, 192, 360
-0.997292, 363, 49, 378, 112
-0.997292, 265, 401, 280, 464
-0.997293, 1, 49, 400, 112
-0.997308, 273, 225, 400, 288
-0.997328, 361, 113, 376, 176
-0.997338, 361, 73, 376, 136
-0.99734, 225, 69, 352, 100
-0.997344, 365, 97, 396, 352
-0.997354, 125, 225, 156, 480
-0.997361, 129, 145, 160, 272
-0.99737, 291, 417, 306, 480
-0.997372, 33, 1, 160, 32
-0.997387, 1, 361, 256, 424
-0.997388, 321, 257, 352, 384
-0.997391, 177, 129, 304, 160
-0.997397, 225, 117, 352, 148
-0.997423, 193, 433, 320, 464
-0.997427, 33, 121, 288, 184
-0.997429, 1, 13, 128, 44
-0.997433, 237, 353, 268, 480
-0.997436, 361, 289, 376, 352
-0.997442, 113, 221, 240, 252
-0.997445, 1, 313, 256, 376
-0.997456, 107, 161, 122, 224
-0.997475, 197, 417, 212, 480
-0.99748, 1, 181, 128, 212
-0.997481, 225, 225, 256, 352
-0.997486, 341, 81, 356, 144
-0.997495, 149, 257, 180, 500
-0.997504, 383, 169, 398, 232
-0.99751, 255, 385, 270, 448
-0.997512, 1, 49, 256, 112
-0.997514, 1, 233, 128, 264
-0.99752, 129, 253, 256, 284
-0.997533, 1, 25, 256, 88
-0.997539, 359, 249, 374, 312
-0.997541, 129, 381, 256, 412
-0.997554, 209, 417, 224, 480
-0.997556, 133, 281, 148, 344
-0.997563, 1, 73, 400, 136
-0.997565, 273, 153, 400, 184
-0.997569, 129, 277, 256, 308
-0.997602, 357, 137, 372, 200
-0.997603, 377, 9, 392, 72
-0.997615, 245, 113, 260, 176
-0.997617, 203, 393, 218, 456
-0.997617, 313, 353, 344, 480
-0.997618, 113, 185, 128, 248
-0.997621, 245, 1, 276, 256
-0.997621, 225, 121, 240, 184
-0.997634, 35, 273, 50, 336
-0.997635, 149, 321, 164, 384
-0.997656, 249, 433, 264, 496
-0.997673, 375, 329, 390, 392
-0.997675, 341, 105, 356, 168
-0.997681, 177, 153, 304, 184
-0.997682, 39, 249, 54, 312
-0.99769, 41, 225, 72, 480
-0.997692, 319, 81, 334, 144
-0.997694, 1, 377, 128, 440
-0.997695, 299, 409, 314, 472
-0.9977, 177, 205, 304, 236
-0.997703, 133, 309, 148, 340
-0.997704, 1, 409, 256, 472
-0.997707, 97, 169, 224, 200
-0.997707, 217, 369, 248, 496
-0.997707, 327, 369, 342, 432
-0.997714, 69, 225, 84, 288
-0.997715, 367, 161, 382, 192
-0.997719, 209, 57, 336, 88
-0.99772, 327, 97, 342, 160
-0.997721, 1, 401, 128, 464
-0.997724, 257, 1, 288, 256
-0.99773, 337, 369, 368, 496
-0.997735, 273, 333, 400, 364
-0.997741, 75, 97, 90, 160
-0.997742, 97, 33, 352, 96
-0.997746, 221, 1, 252, 256
-0.99776, 57, 217, 72, 280
-0.997768, 1, 1, 256, 64
-0.997778, 265, 105, 280, 168
-0.997787, 377, 169, 392, 200
-0.997795, 201, 1, 232, 128
-0.997796, 1, 385, 256, 448
-0.997801, 1, 337, 128, 400
-0.997802, 209, 261, 336, 292
-0.997812, 97, 157, 224, 188
-0.997818, 225, 81, 352, 112
-0.997831, 353, 273, 368, 336
-0.997833, 273, 45, 400, 76
-0.997835, 129, 225, 384, 288
-0.997836, 149, 385, 164, 448
-0.997837, 255, 433, 270, 496
-0.997843, 353, 161, 368, 224
-0.997845, 359, 385, 374, 416
-0.997854, 1, 377, 400, 440
-0.997859, 65, 453, 192, 484
-0.997862, 271, 113, 286, 176
-0.997865, 257, 261, 384, 292
-0.997877, 45, 145, 76, 272
-0.997878, 149, 1, 180, 128
-0.997883, 193, 1, 320, 32
-0.997883, 273, 9, 400, 40
-0.997886, 235, 41, 250, 104
-0.997887, 85, 273, 100, 336
-0.997892, 311, 65, 326, 128
-0.997901, 9, 185, 24, 248
-0.997909, 361, 345, 376, 408
-0.99791, 49, 433, 176, 464
-0.99791, 187, 361, 202, 424
-0.997913, 257, 297, 384, 328
-0.997919, 145, 289, 272, 320
-0.99793, 383, 281, 398, 344
-0.997933, 375, 369, 390, 400
-0.997934, 313, 17, 344, 144
-0.997941, 113, 241, 240, 272
-0.997956, 369, 345, 384, 408
-0.997957, 161, 321, 288, 352
-0.99796, 385, 313, 400, 376
-0.997961, 359, 1, 374, 64
-0.997961, 149, 433, 164, 496
-0.997968, 177, 165, 304, 196
-0.997972, 129, 1, 384, 64
-0.997981, 145, 61, 272, 92
-0.997985, 375, 193, 390, 256
-0.997989, 97, 181, 224, 212
-0.997996, 385, 349, 400, 380
-0.998002, 141, 433, 156, 496
-0.998004, 109, 193, 124, 224
-0.998007, 273, 1, 304, 256
-0.998009, 381, 81, 396, 144
-0.998013, 347, 361, 362, 424
-0.998016, 81, 353, 208, 384
-0.998019, 193, 141, 320, 172
-0.998024, 161, 289, 176, 352
-0.998026, 157, 345, 172, 408
-0.998028, 149, 409, 164, 472
-0.99803, 355, 61, 370, 92
-0.998031, 65, 421, 192, 452
-0.998032, 255, 113, 270, 176
-0.998033, 71, 265, 86, 328
-0.998033, 77, 97, 108, 352
-0.998039, 91, 273, 106, 336
-0.99804, 353, 33, 368, 96
-0.998041, 369, 145, 384, 176
-0.998042, 81, 105, 96, 168
-0.998044, 37, 285, 52, 316
-0.998045, 51, 225, 66, 288
-0.998048, 367, 61, 382, 92
-0.99805, 1, 249, 128, 280
-0.998057, 53, 261, 68, 292
-0.998059, 381, 205, 396, 236
-0.998067, 361, 57, 376, 88
-0.998076, 75, 233, 90, 264
-0.998085, 81, 225, 96, 256
-0.998088, 49, 405, 176, 436
-0.998091, 59, 253, 74, 284
-0.998091, 225, 185, 352, 248
-0.998096, 97, 205, 112, 236
-0.998103, 91, 213, 106, 244
-0.998106, 363, 149, 378, 180
-0.998107, 133, 129, 164, 384
-0.998129, 69, 241, 84, 272
-0.998133, 277, 113, 308, 240
-0.99814, 103, 197, 118, 228
-0.998143, 129, 1, 256, 32
-0.998144, 113, 1, 240, 64
-0.998165, 45, 129, 76, 384
-0.998172, 149, 349, 164, 380
-0.998175, 45, 293, 60, 324
-0.998177, 199, 429, 214, 460
-0.998177, 49, 393, 176, 424
-0.998179, 145, 141, 272, 172
-0.998179, 161, 309, 288, 340
-0.998183, 209, 377, 336, 408
-0.998207, 73, 297, 88, 328
-0.998212, 369, 373, 384, 404
-0.998218, 49, 273, 64, 304
-0.998226, 239, 145, 254, 176
-0.998235, 237, 305, 268, 432
-0.998237, 345, 397, 360, 428
-0.998244, 93, 301, 108, 332
-0.998245, 119, 305, 134, 336
-0.998253, 225, 357, 352, 388
-0.998258, 177, 217, 304, 248
-0.99826, 57, 1, 120, 256
-0.998266, 233, 1, 264, 256
-0.998267, 177, 361, 304, 392
-0.998269, 79, 297, 94, 328
-0.998279, 1, 25, 128, 56
-0.998279, 257, 285, 384, 316
-0.998286, 143, 317, 158, 348
-0.998286, 201, 65, 232, 192
-0.998288, 67, 297, 82, 328
-0.998289, 161, 333, 288, 364
-0.998295, 1, 105, 400, 168
-0.998298, 381, 217, 396, 248
-0.9983, 273, 21, 400, 52
-0.998311, 99, 301, 114, 332
-0.998311, 345, 465, 376, 480
-0.998311, 341, 471, 372, 486
-0.998311, 125, 337, 156, 352
-0.998311, 365, 299, 396, 314
-0.998313, 145, 339, 176, 354
-0.998313, 145, 413, 176, 428
-0.998313, 145, 429, 176, 444
-0.998313, 245, 135, 276, 150
-0.998314, 365, 99, 396, 114
-0.998314, 145, 451, 176, 466
-0.998314, 345, 453, 376, 468
-0.998315, 273, 439, 304, 454
-0.998316, 149, 361, 180, 376
-0.998317, 349, 143, 380, 158
-0.998317, 93, 485, 124, 500
-0.998317, 365, 107, 396, 122
-0.998317, 245, 265, 276, 280
-0.998317, 89, 189, 120, 204
-0.998318, 145, 407, 176, 422
-0.998319, 345, 85, 376, 100
-0.99832, 57, 65, 88, 320
-0.998321, 345, 459, 376, 474
-0.998322, 45, 473, 76, 488
-0.998322, 357, 213, 388, 228
-0.998323, 65, 483, 96, 498
-0.998323, 325, 89, 356, 104
-0.998325, 145, 349, 176, 364
-0.998325, 141, 331, 172, 346
-0.998326, 21, 291, 52, 306
-0.998326, 289, 437, 304, 468
-0.998326, 349, 67, 380, 82
-0.998326, 129, 471, 160, 486
-0.998329, 329, 95, 360, 110
-0.998329, 77, 201, 108, 216
-0.998329, 349, 153, 380, 168
-0.99833, 165, 355, 196, 370
-0.99833, 141, 469, 156, 500
-0.998331, 345, 397, 376, 412
-0.998331, 369, 157, 400, 172
-0.998333, 369, 251, 400, 266
-0.998333, 141, 311, 172, 326
-0.998334, 365, 145, 396, 160
-0.998334, 379, 193, 394, 224
-0.998334, 245, 151, 276, 166
-0.998335, 85, 221, 116, 236
-0.998336, 69, 245, 100, 260
-0.998336, 185, 433, 216, 448
-0.998336, 77, 483, 108, 498
-0.998336, 49, 271, 80, 286
-0.998336, 365, 195, 396, 210
-0.998337, 285, 447, 316, 462
-0.998337, 209, 273, 336, 304
-0.998338, 197, 439, 228, 454
-0.998338, 149, 485, 180, 500
-0.998338, 1, 1, 400, 64
-0.998339, 369, 257, 400, 272
-0.998339, 81, 229, 112, 244
-0.998339, 209, 409, 336, 440
-0.99834, 129, 343, 160, 358
-0.99834, 51, 293, 66, 324
-0.998341, 89, 215, 120, 230
-0.998341, 53, 265, 84, 280
-0.998341, 179, 357, 194, 388
-0.998342, 349, 65, 380, 320
-0.998343, 45, 277, 76, 292
-0.998344, 383, 361, 398, 392
-0.998345, 57, 473, 88, 488
-0.998346, 57, 255, 88, 270
-0.998347, 105, 485, 136, 500
-0.998349, 273, 485, 304, 500
-0.99835, 369, 245, 400, 260
-0.99835, 101, 197, 132, 212
-0.998352, 353, 385, 368, 416
-0.998352, 265, 141, 296, 156
-0.998353, 249, 141, 280, 156
-0.998353, 73, 239, 104, 254
-0.998354, 353, 391, 384, 406
-0.998355, 37, 485, 68, 500
-0.998355, 369, 237, 400, 252
-0.998356, 345, 79, 376, 94
-0.998356, 49, 381, 176, 412
-0.998357, 265, 447, 296, 462
-0.998358, 21, 485, 52, 500
-0.998359, 371, 209, 386, 240
-0.99836, 341, 477, 372, 492
-0.998362, 369, 177, 400, 192
-0.998364, 141, 325, 172, 340
-0.998367, 373, 65, 388, 96
-0.998367, 325, 485, 356, 500
-0.998367, 161, 349, 192, 364
-0.998367, 245, 405, 276, 420
-0.998368, 365, 293, 396, 308
-0.998369, 81, 303, 112, 318
-0.998371, 369, 373, 400, 388
-0.998371, 349, 161, 380, 416
-0.998372, 257, 313, 384, 344
-0.998376, 5, 479, 36, 494
-0.998377, 369, 231, 400, 246
-0.998377, 237, 145, 268, 160
-0.998378, 9, 473, 40, 488
-0.998379, 337, 483, 368, 498
-0.998379, 141, 319, 172, 334
-0.998381, 197, 433, 228, 448
-0.998383, 261, 455, 292, 470
-0.998383, 65, 299, 96, 314
-0.998385, 97, 305, 128, 320
-0.998386, 97, 209, 128, 224
-0.998388, 49, 485, 80, 500
-0.998388, 369, 225, 400, 240
-0.998391, 33, 295, 64, 310
-0.998391, 353, 159, 384, 174
-0.998392, 349, 73, 380, 88
-0.998392, 141, 337, 156, 368
-0.998394, 361, 71, 392, 86
-0.998395, 45, 297, 76, 312
-0.998395, 245, 449, 276, 464
-0.998395, 343, 469, 358, 500
-0.998395, 9, 485, 40, 500
-0.998396, 365, 287, 396, 302
-0.9984, 365, 201, 396, 216
-0.998401, 117, 485, 148, 500
-0.998401, 85, 97, 116, 224
-0.998403, 369, 263, 400, 278
-0.998404, 361, 173, 376, 204
-0.998404, 73, 477, 104, 492
-0.998405, 129, 477, 160, 492
-0.998405, 357, 385, 388, 400
-0.998405, 109, 307, 140, 322
-0.998408, 113, 305, 128, 336
-0.998412, 333, 399, 364, 414
-0.998413, 369, 219, 400, 234
-0.998415, 129, 105, 384, 168
-0.998416, 1, 465, 128, 496
-0.998416, 145, 355, 176, 370
-0.998416, 121, 311, 152, 326
-0.998422, 365, 379, 396, 394
-0.998426, 369, 213, 400, 228
-0.998427, 369, 281, 400, 296
-0.998428, 87, 301, 102, 332
-0.998431, 357, 165, 388, 180
-0.998443, 89, 479, 120, 494
-0.998444, 101, 203, 132, 218
-0.998445, 117, 479, 148, 494
-0.998448, 365, 151, 396, 166
-0.998448, 137, 483, 168, 498
-0.998449, 37, 287, 68, 302
-0.998452, 365, 207, 396, 222
-0.998454, 37, 479, 68, 494
-0.998457, 369, 269, 400, 284
-0.99846, 193, 41, 320, 72
-0.998461, 105, 301, 120, 332
-0.998462, 125, 305, 140, 336
-0.998462, 365, 171, 396, 186
-0.998465, 61, 297, 76, 328
-0.998468, 1, 89, 128, 120
-0.998469, 369, 275, 400, 290
-0.998477, 17, 479, 48, 494
-0.998485, 137, 257, 168, 500
-0.998494, 253, 445, 268, 476
-0.998494, 81, 1, 208, 32
-0.998502, 251, 137, 266, 168
-0.998508, 105, 479, 136, 494
-0.998509, 1, 137, 128, 200
-0.998509, 53, 469, 68, 500
-0.998513, 97, 479, 160, 494
-0.998513, 381, 229, 396, 260
-0.998514, 41, 479, 104, 494
-0.998517, 129, 323, 192, 338
-0.998523, 129, 329, 192, 344
-0.998524, 357, 61, 388, 76
-0.998525, 349, 77, 364, 108
-0.998528, 377, 149, 392, 180
-0.99853, 245, 145, 260, 176
-0.998531, 59, 241, 74, 368
-0.998541, 81, 221, 144, 236
-0.998542, 137, 343, 200, 358
-0.998542, 185, 369, 200, 400
-0.998543, 53, 479, 84, 494
-0.998545, 217, 273, 248, 400
-0.998548, 263, 137, 278, 168
-0.998552, 137, 355, 200, 370
-0.998553, 281, 469, 296, 500
-0.998553, 17, 481, 80, 496
-0.998553, 175, 345, 190, 376
-0.998557, 65, 479, 128, 494
-0.998558, 129, 315, 192, 330
-0.998559, 377, 357, 392, 388
-0.99856, 329, 257, 360, 500
-0.998562, 361, 69, 376, 100
-0.998562, 177, 397, 304, 428
-0.998566, 129, 335, 192, 350
-0.998568, 313, 389, 376, 404
-0.998568, 293, 425, 308, 456
-0.998568, 337, 63, 400, 78
-0.998568, 81, 215, 144, 230
-0.998571, 33, 297, 96, 312
-0.998575, 385, 337, 400, 368
-0.998576, 337, 285, 400, 300
-0.998577, 305, 401, 368, 416
-0.998577, 249, 53, 264, 84
-0.99858, 121, 303, 184, 318
-0.998586, 137, 349, 200, 364
-0.998587, 113, 485, 176, 500
-0.998587, 379, 249, 394, 280
-0.998588, 329, 165, 392, 180
-0.998591, 1, 113, 128, 144
-0.998593, 321, 97, 384, 112
-0.998596, 209, 1, 240, 256
-0.998598, 337, 173, 400, 188
-0.998598, 63, 465, 78, 496
-0.998598, 73, 197, 136, 212
-0.998598, 57, 205, 120, 220
-0.998599, 137, 361, 200, 376
-0.9986, 177, 117, 304, 148
-0.9986, 145, 369, 208, 384
-0.998601, 81, 209, 144, 224
-0.998602, 337, 295, 400, 310
-0.998602, 149, 469, 164, 500
-0.998602, 337, 307, 400, 322
-0.998603, 329, 485, 392, 500
-0.998605, 337, 301, 400, 316
-0.998606, 225, 249, 352, 280
-0.998608, 33, 285, 96, 300
-0.998609, 337, 275, 400, 290
-0.99861, 81, 305, 144, 320
-0.99861, 257, 397, 272, 428
-0.998611, 193, 225, 224, 480
-0.998612, 329, 367, 392, 382
-0.998616, 313, 65, 344, 320
-0.998616, 321, 91, 384, 106
-0.998616, 105, 473, 168, 488
-0.998618, 363, 257, 378, 288
-0.998619, 57, 301, 120, 316
-0.998619, 313, 395, 376, 410
-0.99862, 337, 113, 400, 128
-0.998621, 337, 343, 400, 358
-0.998621, 145, 433, 208, 448
-0.998622, 337, 69, 400, 84
-0.998622, 207, 421, 222, 452
-0.998624, 337, 335, 400, 350
-0.998625, 73, 231, 136, 246
-0.998625, 329, 479, 392, 494
-0.998626, 71, 225, 86, 352
-0.998627, 145, 161, 176, 416
-0.998628, 305, 485, 368, 500
-0.998629, 337, 473, 400, 488
-0.998629, 225, 93, 352, 124
-0.99863, 337, 313, 400, 328
-0.99863, 129, 309, 192, 324
-0.99863, 305, 407, 368, 422
-0.99863, 329, 159, 392, 174
-0.998632, 385, 161, 400, 192
-0.998632, 57, 251, 120, 266
-0.998632, 321, 377, 384, 392
-0.998633, 337, 395, 400, 410
-0.998633, 71, 469, 86, 500
-0.998633, 337, 355, 400, 370
-0.998633, 337, 349, 400, 364
-0.998634, 41, 275, 104, 290
-0.998634, 313, 77, 376, 92
-0.998634, 321, 85, 384, 100
-0.998635, 145, 375, 208, 390
-0.998635, 41, 227, 104, 242
-0.998636, 337, 461, 400, 476
-0.998637, 217, 447, 280, 462
-0.998637, 273, 485, 336, 500
-0.998637, 329, 127, 392, 142
-0.998638, 337, 467, 400, 482
-0.998639, 65, 243, 128, 258
-0.998639, 49, 263, 112, 278
-0.998639, 329, 361, 392, 376
-0.998639, 49, 105, 176, 136
-0.998639, 129, 113, 256, 144
-0.99864, 337, 103, 400, 118
-0.99864, 313, 383, 376, 398
-0.99864, 145, 483, 208, 498
-0.998641, 121, 479, 184, 494
-0.998642, 349, 453, 364, 484
-0.998642, 337, 269, 400, 284
-0.998643, 329, 119, 392, 134
-0.998644, 337, 75, 400, 90
-0.998644, 9, 293, 72, 308
-0.998645, 377, 77, 392, 108
-0.998645, 337, 455, 400, 470
-0.998645, 241, 447, 304, 462
-0.998647, 73, 485, 136, 500
-0.998648, 337, 441, 400, 456
-0.998649, 33, 237, 96, 252
-0.998651, 337, 449, 400, 464
-0.998651, 363, 81, 378, 112
-0.998652, 337, 329, 400, 344
-0.998653, 49, 215, 112, 230
-0.998654, 145, 65, 176, 192
-0.998654, 1, 287, 64, 302
-0.998655, 137, 423, 200, 438
-0.998656, 137, 447, 200, 462
-0.998657, 137, 461, 200, 476
-0.998658, 41, 269, 104, 284
-0.998658, 337, 435, 400, 450
-0.998658, 1, 191, 64, 206
-0.998659, 145, 469, 208, 484
-0.998659, 137, 453, 200, 468
-0.99866, 225, 147, 288, 162
-0.99866, 233, 483, 296, 498
-0.998661, 337, 321, 400, 336
-0.998661, 337, 133, 400, 148
-0.998661, 329, 401, 392, 416
-0.998662, 137, 397, 200, 412
-0.998662, 329, 153, 392, 168
-0.998662, 17, 247, 80, 262
-0.998662, 113, 297, 176, 312
-0.998662, 273, 113, 336, 240
-0.998663, 9, 475, 72, 490
-0.998663, 97, 201, 160, 216
-0.998663, 137, 387, 200, 402
-0.998663, 137, 407, 200, 422
-0.998663, 17, 257, 80, 272
-0.998665, 1, 279, 64, 294
-0.998665, 97, 339, 160, 354
-0.998665, 361, 161, 376, 192
-0.998665, 65, 237, 128, 252
-0.998665, 9, 13, 72, 28
-0.998666, 97, 311, 160, 326
-0.998666, 137, 381, 200, 396
-0.998666, 377, 129, 392, 160
-0.998667, 49, 257, 112, 272
-0.998667, 313, 69, 376, 84
-0.998667, 337, 179, 400, 194
-0.998668, 337, 425, 400, 440
-0.998668, 145, 439, 208, 454
-0.998669, 297, 413, 360, 428
-0.99867, 297, 479, 360, 494
-0.99867, 305, 455, 368, 470
-0.998671, 105, 345, 168, 360
-0.998671, 41, 485, 104, 500
-0.998671, 9, 269, 72, 284
-0.998673, 9, 241, 40, 368
-0.998673, 89, 469, 104, 500
-0.998674, 137, 413, 200, 428
-0.998674, 217, 453, 280, 468
-0.998674, 257, 441, 320, 456
-0.998677, 273, 449, 288, 480
-0.998681, 79, 105, 94, 136
-0.998696, 247, 265, 262, 296
-0.998708, 21, 469, 36, 500
-0.998711, 127, 469, 142, 500
-0.998711, 369, 197, 384, 228
-0.998715, 165, 321, 180, 352
-0.998718, 157, 353, 172, 384
-0.998718, 241, 97, 272, 352
-0.998721, 383, 173, 398, 204
-0.998724, 275, 41, 290, 72
-0.998726, 259, 449, 274, 480
-0.99873, 269, 133, 284, 164
-0.998734, 371, 265, 386, 296
-0.998735, 361, 1, 392, 256
-0.99874, 199, 441, 214, 472
-0.99874, 341, 121, 356, 152
-0.998747, 349, 97, 364, 128
-0.998751, 137, 325, 152, 356
-0.998756, 49, 185, 176, 216
-0.998756, 65, 225, 80, 352
-0.998757, 177, 233, 304, 264
-0.998759, 247, 441, 262, 472
-0.998764, 359, 269, 374, 300
-0.998765, 97, 145, 224, 176
-0.998766, 103, 177, 118, 208
-0.998766, 349, 65, 364, 96
-0.998773, 81, 369, 208, 400
-0.998773, 257, 129, 272, 160
-0.998773, 353, 241, 384, 368
-0.998776, 177, 177, 304, 208
-0.998783, 9, 189, 24, 220
-0.998785, 223, 61, 238, 92
-0.99879, 257, 141, 272, 172
-0.998792, 233, 145, 248, 176
-0.9988, 79, 465, 94, 496
-0.9988, 343, 133, 358, 164
-0.998802, 355, 97, 370, 128
-0.998804, 169, 337, 184, 368
-0.998806, 149, 333, 164, 364
-0.998809, 141, 457, 156, 488
-0.998811, 3, 1, 18, 32
-0.998812, 57, 285, 72, 316
-0.998814, 5, 113, 36, 240
-0.998815, 165, 257, 196, 500
-0.998816, 349, 441, 364, 472
-0.998817, 97, 257, 128, 500
-0.99882, 49, 89, 176, 120
-0.998827, 381, 113, 396, 144
-0.998828, 319, 85, 334, 116
-0.998828, 257, 209, 320, 336
-0.998831, 83, 209, 98, 336
-0.998838, 371, 221, 386, 252
-0.998839, 231, 125, 246, 156
-0.998839, 369, 277, 384, 308
-0.998841, 267, 413, 282, 444
-0.998842, 111, 293, 126, 324
-0.998843, 177, 193, 304, 224
-0.998846, 225, 157, 352, 188
-0.998847, 357, 141, 372, 172
-0.998847, 63, 285, 78, 316
-0.998848, 193, 425, 208, 456
-0.998855, 33, 129, 64, 384
-0.998857, 145, 49, 272, 80
-0.998893, 49, 13, 176, 44
-0.998894, 285, 1, 316, 256
-0.9989, 177, 249, 304, 280
-0.998913, 53, 241, 68, 368
-0.998913, 273, 33, 400, 64
-0.998945, 5, 129, 36, 384
-0.998946, 229, 97, 260, 352
-0.998955, 337, 33, 368, 288
-0.998962, 77, 209, 92, 336
-0.998974, 289, 257, 320, 384
-0.998985, 193, 345, 320, 376
-0.998993, 101, 113, 132, 240
-0.999024, 379, 161, 394, 288
-0.99904, 355, 369, 370, 496
-0.99904, 185, 1, 216, 256
-0.999051, 369, 161, 384, 288
-0.999058, 375, 353, 390, 480
-0.999068, 253, 225, 284, 352
-0.999073, 205, 225, 236, 480
-0.99908, 89, 209, 104, 336
-0.999082, 141, 321, 156, 448
-0.999086, 265, 241, 296, 368
-0.999095, 361, 289, 376, 416
-0.999097, 261, 97, 292, 352
-0.999102, 177, 225, 208, 480
-0.999103, 59, 193, 74, 320
-0.999104, 237, 257, 268, 500
-0.999118, 117, 65, 148, 320
-0.999123, 289, 161, 352, 416
-0.999129, 351, 321, 366, 448
-0.999151, 1, 129, 400, 192
-0.999151, 17, 129, 48, 384
-0.999157, 383, 321, 398, 448
-0.999158, 343, 337, 358, 464
-0.999159, 367, 113, 382, 240
-0.999176, 131, 225, 146, 352
-0.999185, 51, 193, 66, 320
-0.999185, 297, 257, 328, 500
-0.999186, 165, 305, 180, 432
-0.999192, 281, 337, 312, 464
-0.999193, 361, 1, 376, 128
-0.99921, 171, 321, 186, 448
-0.999211, 133, 289, 148, 416
-0.99922, 379, 113, 394, 240
-0.999224, 205, 129, 236, 384
-0.999232, 355, 1, 370, 128
-0.99924, 325, 97, 356, 352
-0.999243, 81, 289, 96, 416
-0.999246, 123, 209, 138, 336
-0.99925, 379, 209, 394, 336
-0.99925, 75, 289, 90, 416
-0.999253, 1, 25, 400, 88
-0.999254, 197, 1, 228, 256
-0.999262, 373, 1, 388, 128
-0.999262, 149, 273, 164, 400
-0.999263, 351, 65, 366, 192
-0.999269, 69, 289, 84, 416
-0.999271, 89, 289, 104, 416
-0.999276, 363, 369, 378, 496
-0.999283, 217, 161, 248, 416
-0.999283, 109, 289, 124, 416
-0.999284, 105, 161, 120, 288
-0.99929, 103, 289, 118, 416
-0.999294, 97, 289, 112, 416
-0.999296, 133, 33, 164, 288
-0.999298, 65, 161, 80, 288
-0.999299, 115, 289, 130, 416
-0.999308, 143, 257, 158, 384
-0.999308, 121, 289, 136, 416
-0.99931, 47, 241, 62, 368
-0.999311, 89, 33, 120, 288
-0.999311, 337, 161, 368, 416
-0.999313, 367, 1, 382, 128
-0.999322, 353, 113, 368, 240
-0.999336, 365, 209, 380, 336
-0.999341, 95, 209, 110, 336
-0.999344, 63, 289, 78, 416
-0.999345, 77, 161, 92, 288
-0.999355, 127, 289, 142, 416
-0.999357, 265, 257, 296, 500
-0.999357, 137, 241, 152, 368
-0.999359, 71, 161, 86, 288
-0.99936, 169, 129, 200, 384
-0.99936, 255, 369, 270, 496
-0.999361, 9, 225, 40, 480
-0.999366, 225, 257, 256, 500
-0.999367, 297, 33, 328, 288
-0.99937, 159, 289, 174, 416
-0.999372, 369, 353, 384, 480
-0.999377, 105, 33, 136, 288
-0.999387, 357, 49, 372, 176
-0.999388, 99, 145, 114, 272
-0.9994, 259, 33, 274, 160
-0.999402, 83, 161, 98, 288
-0.999403, 367, 273, 382, 400
-0.999406, 359, 97, 374, 224
-0.999412, 373, 113, 388, 240
-0.999414, 359, 193, 374, 320
-0.999418, 93, 161, 108, 288
-0.999418, 257, 97, 272, 224
-0.999423, 125, 65, 156, 192
-0.999424, 273, 33, 288, 160
-0.99943, 373, 225, 388, 352
-0.999438, 149, 337, 164, 464
-0.99944, 381, 1, 396, 128
-0.999441, 177, 321, 192, 448
-0.999448, 349, 369, 364, 496
-0.999451, 285, 17, 300, 144
-0.999451, 341, 81, 356, 208
-0.999454, 267, 33, 282, 160
-0.999457, 225, 65, 240, 192
-0.999459, 45, 1, 60, 128
-0.99946, 383, 273, 398, 400
-0.999464, 249, 257, 280, 500
-0.999468, 153, 129, 184, 256
-0.999468, 277, 257, 308, 384
-0.999468, 117, 209, 132, 336
-0.999473, 29, 225, 60, 480
-0.999473, 249, 49, 264, 176
-0.999476, 261, 369, 276, 496
-0.999477, 171, 273, 186, 400
-0.999483, 279, 49, 294, 176
-0.999483, 141, 145, 172, 272
-0.999484, 377, 65, 392, 192
-0.999486, 349, 257, 364, 384
-0.999488, 331, 289, 346, 416
-0.99949, 235, 33, 250, 160
-0.999494, 39, 209, 54, 336
-0.999496, 349, 1, 364, 128
-0.999497, 39, 1, 54, 128
-0.9995, 223, 113, 238, 240
-0.9995, 337, 337, 352, 464
-0.999501, 317, 225, 348, 480
-0.999505, 251, 97, 266, 224
-0.999506, 161, 1, 192, 256
-0.999512, 323, 81, 338, 208
-0.999515, 293, 49, 308, 176
-0.999516, 265, 97, 280, 224
-0.999518, 287, 65, 302, 192
-0.999522, 381, 235, 396, 250
-0.999523, 377, 367, 392, 382
-0.999523, 161, 357, 176, 372
-0.999524, 317, 65, 332, 192
-0.999524, 207, 427, 222, 442
-0.999524, 65, 485, 80, 500
-0.999524, 93, 473, 108, 488
-0.999525, 141, 471, 156, 486
-0.999525, 149, 477, 164, 492
-0.999525, 379, 199, 394, 214
-0.999525, 143, 319, 158, 334
-0.999525, 331, 97, 346, 224
-0.999525, 293, 435, 308, 450
-0.999526, 141, 345, 156, 360
-0.99953, 29, 1, 44, 128
-0.99953, 365, 61, 380, 76
-0.999531, 375, 69, 390, 84
-0.999532, 111, 241, 126, 368
-0.999532, 53, 485, 68, 500
-0.999534, 199, 437, 214, 452
-0.999534, 185, 379, 200, 394
-0.999535, 179, 363, 194, 378
-0.999536, 111, 161, 126, 288
-0.999536, 133, 475, 148, 490
-0.999536, 7, 477, 22, 492
-0.999537, 383, 167, 398, 182
-0.999537, 377, 289, 392, 416
-0.999538, 139, 169, 154, 184
-0.999539, 373, 165, 388, 180
-0.999539, 385, 209, 400, 336
-0.99954, 101, 209, 116, 336
-0.999542, 371, 211, 386, 226
-0.999544, 359, 175, 374, 190
-0.999546, 53, 473, 68, 488
-0.999547, 277, 485, 292, 500
-0.999548, 353, 393, 368, 408
-0.999548, 183, 369, 198, 384
-0.999548, 285, 257, 316, 500
-0.999548, 99, 303, 114, 318
-0.999548, 369, 205, 384, 220
-0.999549, 355, 67, 370, 82
-0.999549, 367, 159, 382, 174
-0.999549, 143, 331, 158, 346
-0.99955, 343, 479, 358, 494
-0.99955, 17, 485, 32, 500
-0.999551, 355, 241, 370, 368
-0.999551, 45, 193, 60, 320
-0.999552, 289, 443, 304, 458
-0.999552, 23, 1, 38, 128
-0.999553, 381, 229, 396, 244
-0.999553, 177, 273, 192, 400
-0.999553, 247, 53, 262, 68
-0.999554, 341, 273, 356, 400
-0.999555, 33, 289, 48, 304
-0.999555, 11, 485, 26, 500
-0.999555, 57, 289, 72, 416
-0.999555, 127, 485, 142, 500
-0.999556, 149, 1, 180, 256
-0.999558, 243, 49, 258, 176
-0.999559, 385, 161, 400, 288
-0.99956, 361, 153, 376, 168
-0.99956, 3, 485, 18, 500
-0.99956, 139, 339, 154, 354
-0.999561, 173, 1, 204, 256
-0.999561, 67, 1, 82, 128
-0.999562, 113, 305, 128, 320
-0.999563, 39, 295, 54, 310
-0.999564, 77, 299, 92, 314
-0.999565, 127, 473, 142, 488
-0.999566, 63, 297, 78, 312
-0.999567, 117, 485, 132, 500
-0.999568, 73, 473, 88, 488
-0.999569, 229, 129, 244, 256
-0.999569, 33, 485, 48, 500
-0.999569, 371, 63, 386, 78
-0.999569, 47, 295, 62, 310
-0.99957, 127, 309, 142, 324
-0.999571, 219, 65, 234, 192
-0.999571, 217, 145, 232, 272
-0.999572, 381, 211, 396, 226
-0.999573, 383, 367, 398, 382
-0.999574, 93, 303, 108, 318
-0.999576, 143, 325, 158, 340
-0.999576, 187, 337, 202, 464
-0.999576, 83, 301, 98, 316
-0.999576, 3, 1, 18, 128
-0.999576, 381, 223, 396, 238
-0.999576, 365, 65, 380, 192
-0.999576, 15, 473, 30, 488
-0.999577, 385, 353, 400, 368
-0.999577, 147, 483, 162, 498
-0.999577, 107, 305, 122, 320
-0.999578, 119, 307, 134, 322
-0.999579, 271, 97, 286, 224
-0.999581, 97, 209, 112, 224
-0.999582, 55, 265, 70, 280
-0.999582, 339, 485, 354, 500
-0.999583, 73, 485, 88, 500
-0.999583, 379, 205, 394, 220
-0.999584, 51, 271, 66, 286
-0.999585, 149, 349, 164, 364
-0.999585, 239, 145, 254, 160
-0.999585, 43, 485, 58, 500
-0.999585, 81, 231, 96, 246
-0.999585, 379, 177, 394, 192
-0.999586, 71, 299, 86, 314
-0.999586, 33, 479, 48, 494
-0.999587, 27, 479, 42, 494
-0.999587, 57, 297, 72, 312
-0.999587, 135, 481, 150, 496
-0.999587, 87, 223, 102, 238
-0.999589, 103, 203, 118, 218
-0.999589, 93, 215, 108, 230
-0.999589, 381, 217, 396, 232
-0.999591, 45, 33, 76, 288
-0.999592, 141, 477, 156, 492
-0.999592, 255, 401, 270, 416
-0.999592, 67, 247, 82, 262
-0.999592, 267, 369, 282, 496
-0.999593, 45, 279, 60, 294
-0.999594, 279, 1, 294, 128
-0.999594, 385, 361, 400, 376
-0.999595, 385, 97, 400, 224
-0.999595, 385, 347, 400, 362
-0.999595, 331, 337, 346, 464
-0.999596, 59, 259, 74, 274
-0.999598, 267, 141, 282, 156
-0.999598, 75, 239, 90, 254
-0.999599, 73, 1, 88, 128
-0.999601, 63, 253, 78, 268
-0.999601, 211, 145, 226, 272
-0.999603, 59, 481, 74, 496
-0.999603, 367, 165, 382, 180
-0.999604, 347, 397, 362, 412
-0.999604, 279, 97, 294, 224
-0.999605, 369, 149, 384, 164
-0.999605, 193, 369, 208, 496
-0.999605, 13, 479, 28, 494
-0.999606, 109, 485, 124, 500
-0.999609, 197, 431, 212, 446
-0.99961, 81, 479, 96, 494
-0.99961, 375, 373, 390, 388
-0.999614, 113, 479, 128, 494
-0.999616, 359, 61, 374, 76
-0.999616, 99, 481, 114, 496
-0.999617, 251, 445, 266, 460
-0.999618, 373, 171, 388, 186
-0.999619, 47, 479, 62, 494
-0.99962, 367, 379, 382, 394
-0.999626, 87, 479, 102, 494
-0.999628, 9, 33, 40, 288
-0.999628, 141, 483, 156, 498
-0.999631, 361, 159, 376, 174
-0.999635, 109, 195, 124, 210
-0.999642, 93, 479, 108, 494
-0.999646, 21, 477, 36, 492
-0.99965, 135, 313, 150, 328
-0.999656, 65, 479, 80, 494
-0.999658, 59, 475, 74, 490
-0.999665, 127, 479, 142, 494
-0.999665, 73, 479, 88, 494
-0.999667, 359, 385, 374, 400
-0.999677, 39, 287, 54, 302
-0.999679, 119, 479, 134, 494
-0.999679, 53, 479, 68, 494
-0.999687, 39, 479, 54, 494
-0.999727, 173, 1, 204, 128
-0.999732, 325, 1, 356, 256
-0.999734, 105, 479, 120, 494
-0.999762, 113, 97, 144, 224
-0.999815, 157, 161, 188, 416
-0.999894, 193, 129, 224, 384
-0.999974, 73, 1, 104, 256
-1.00002, 273, 129, 304, 384
-1.00012, 265, 161, 328, 288
-1.00017, 181, 129, 212, 384
-1.00027, 33, 1, 64, 256
-1.00055, 21, 33, 52, 288
-1.00055, 293, 161, 324, 416
-1.00073, 305, 161, 336, 416
-1.00093, 57, 49, 120, 176
-1.00174, 289, 177, 352, 304
-1.00207, 241, 161, 304, 288
-1.00226, 105, 49, 168, 176
-1.00656, 9, 321, 72, 448
-1.01059, 9, 369, 72, 496
-1.01124, 49, 337, 112, 464
-1.01267, 81, 337, 144, 464
