1964
-0.214682, 1, 1, 375, 500
-0.338196, 1, 257, 375, 500
-0.363857, 1, 161, 375, 416
-0.408031, 33, 1, 288, 500
-0.466057, 1, 65, 375, 320
-0.478319, 129, 1, 375, 500
-0.616505, 1, 65, 256, 320
-0.632116, 65, 257, 320, 500
-0.659931, 33, 161, 288, 416
-0.683231, 97, 65, 352, 320
-0.703583, 129, 161, 375, 416
-0.853646, 65, 1, 192, 500
-0.856821, 209, 1, 336, 256
-0.859538, 209, 129, 336, 384
-0.859948, 65, 97, 192, 352
-0.865484, 129, 1, 256, 500
-0.86827, 1, 81, 375, 208
-0.869885, 17, 1, 144, 500
-0.871598, 145, 225, 272, 480
-0.872295, 17, 65, 144, 320
-0.876305, 209, 1, 336, 500
-0.884222, 129, 33, 256, 288
-0.884335, 1, 209, 375, 336
-0.885427, 1, 33, 375, 160
-0.88848, 1, 273, 375, 400
-0.889587, 241, 225, 368, 480
-0.889935, 1, 225, 128, 480
-0.894505, 65, 193, 192, 448
-0.897738, 161, 129, 288, 384
-0.901742, 1, 65, 256, 192
-0.904765, 65, 1, 192, 256
-0.905614, 1, 129, 375, 256
-0.909639, 113, 129, 240, 384
-0.912572, 1, 321, 375, 448
-0.916915, 33, 273, 288, 400
-0.919895, 1, 369, 375, 496
-0.922042, 97, 81, 352, 208
-0.926709, 129, 225, 375, 352
-0.927491, 33, 193, 288, 320
-0.928533, 129, 33, 375, 160
-0.93081, 313, 193, 375, 320
-0.930901, 33, 33, 160, 160
-0.935294, 1, 17, 256, 144
-0.935752, 81, 209, 208, 336
-0.936305, 193, 257, 320, 500
-0.937396, 33, 145, 288, 272
-0.937866, 129, 65, 256, 192
-0.938524, 57, 97, 120, 224
-0.941023, 193, 97, 256, 224
-0.94107, 81, 81, 208, 208
-0.941088, 25, 49, 88, 176
-0.941879, 209, 129, 336, 256
-0.941965, 129, 145, 375, 272
-0.94262, 17, 97, 144, 224
-0.945358, 129, 273, 375, 400
-0.945628, 81, 97, 144, 224
-0.945942, 209, 33, 336, 160
-0.946345, 129, 257, 256, 384
-0.948031, 65, 105, 128, 168
-0.948033, 305, 185, 368, 248
-0.948086, 209, 177, 336, 304
-0.948156, 281, 193, 344, 320
-0.948665, 57, 49, 120, 176
-0.948884, 65, 241, 128, 368
-0.949829, 129, 369, 375, 496
-0.950319, 305, 145, 368, 272
-0.951112, 49, 273, 176, 400
-0.951246, 81, 33, 208, 160
-0.951293, 241, 369, 368, 496
-0.951365, 129, 161, 256, 288
-0.951532, 281, 369, 344, 496
-0.952796, 1, 241, 128, 368
-0.953997, 25, 89, 88, 152
-0.955161, 313, 241, 375, 368
-0.955178, 105, 81, 168, 208
-0.955976, 313, 225, 375, 288
-0.956071, 177, 241, 240, 368
-0.956104, 209, 81, 336, 208
-0.956127, 241, 289, 368, 416
-0.956274, 129, 65, 192, 192
-0.956475, 81, 33, 144, 160
-0.956575, 281, 401, 344, 464
-0.957016, 97, 321, 352, 448
-0.957098, 41, 225, 104, 352
-0.957235, 49, 161, 176, 288
-0.957441, 33, 97, 96, 224
-0.957571, 193, 49, 256, 176
-0.957629, 217, 193, 280, 320
-0.958531, 305, 161, 368, 224
-0.958829, 217, 97, 280, 224
-0.95933, 217, 33, 280, 160
-0.959351, 129, 209, 192, 336
-0.959715, 305, 369, 368, 496
-0.959717, 89, 225, 152, 352
-0.960566, 161, 209, 288, 336
-0.960858, 313, 417, 375, 480
-0.960988, 49, 129, 112, 192
-0.961066, 49, 161, 112, 288
-0.961187, 145, 113, 272, 240
-0.961567, 193, 369, 320, 496
-0.962034, 297, 65, 360, 192
-0.962633, 121, 273, 184, 400
-0.962729, 169, 161, 232, 288
-0.962876, 25, 65, 88, 128
-0.963258, 321, 201, 352, 264
-0.96348, 73, 289, 136, 416
-0.964014, 153, 257, 216, 384
-0.964105, 193, 145, 256, 272
-0.96414, 153, 65, 216, 192
-0.964268, 305, 73, 368, 136
-0.964394, 193, 113, 256, 176
-0.964651, 89, 89, 152, 152
-0.964768, 249, 393, 312, 456
-0.964781, 225, 225, 352, 352
-0.965125, 257, 129, 320, 256
-0.96525, 9, 97, 72, 224
-0.965251, 281, 65, 344, 128
-0.965294, 289, 209, 352, 272
-0.965362, 65, 233, 128, 296
-0.965489, 105, 33, 168, 160
-0.965666, 333, 209, 364, 336
-0.965925, 185, 81, 248, 144
-0.966289, 81, 145, 144, 272
-0.966557, 97, 289, 160, 416
-0.966772, 257, 369, 320, 496
-0.966916, 177, 321, 304, 448
-0.966995, 273, 33, 336, 160
-0.967056, 145, 17, 272, 144
-0.967108, 161, 65, 224, 128
-0.967679, 1, 49, 64, 176
-0.967956, 177, 257, 240, 320
-0.968139, 25, 233, 88, 296
-0.968227, 313, 161, 344, 288
-0.968241, 233, 145, 296, 272
-0.968521, 313, 249, 375, 312
-0.968543, 281, 185, 344, 248
-0.968791, 129, 73, 192, 136
-0.968926, 1, 161, 128, 288
-0.9691, 81, 257, 144, 320
-0.96916, 333, 209, 364, 272
-0.969492, 201, 153, 264, 216
-0.969967, 301, 145, 332, 272
-0.970039, 289, 433, 352, 496
-0.970183, 309, 177, 340, 240
-0.970205, 113, 265, 176, 328
-0.970247, 1, 81, 128, 144
-0.970287, 73, 289, 136, 352
-0.970524, 281, 161, 344, 224
-0.971043, 273, 81, 336, 208
-0.971285, 225, 105, 288, 168
-0.971314, 321, 209, 352, 336
-0.971777, 145, 41, 208, 104
-0.971987, 313, 281, 375, 344
-0.971997, 201, 241, 264, 368
-0.972064, 49, 49, 112, 112
-0.972185, 273, 377, 336, 440
-0.972211, 233, 337, 296, 464
-0.97254, 145, 17, 208, 144
-0.972816, 257, 169, 320, 232
-0.972861, 277, 393, 308, 456
-0.972876, 153, 209, 216, 336
-0.9729, 345, 177, 375, 240
-0.973037, 305, 289, 368, 416
-0.973159, 137, 257, 200, 320
-0.973189, 1, 1, 64, 128
-0.973315, 281, 145, 344, 272
-0.973451, 129, 73, 256, 136
-0.973505, 233, 129, 296, 192
-0.97352, 161, 225, 224, 288
-0.973616, 73, 97, 136, 352
-0.973642, 341, 233, 372, 296
-0.973745, 57, 209, 120, 272
-0.973855, 81, 129, 144, 192
-0.973924, 325, 249, 356, 312
-0.973934, 97, 41, 160, 104
-0.973961, 297, 65, 360, 320
-0.97397, 61, 97, 92, 224
-0.973984, 265, 121, 328, 184
-0.974285, 25, 145, 88, 272
-0.974307, 65, 81, 128, 144
-0.974586, 317, 65, 348, 128
-0.974769, 273, 41, 336, 104
-0.974807, 145, 281, 208, 344
-0.974829, 113, 297, 176, 360
-0.974878, 193, 193, 256, 320
-0.974997, 345, 193, 375, 320
-0.975272, 41, 129, 104, 384
-0.975335, 17, 225, 80, 352
-0.975381, 81, 241, 112, 368
-0.975407, 209, 161, 336, 224
-0.975462, 201, 225, 264, 288
-0.975473, 265, 321, 328, 448
-0.975493, 17, 121, 80, 184
-0.975788, 105, 161, 168, 288
-0.975797, 313, 193, 375, 448
-0.975826, 185, 65, 248, 320
-0.976055, 209, 49, 336, 112
-0.976118, 241, 393, 368, 456
-0.976208, 293, 401, 324, 464
-0.976277, 217, 65, 280, 128
-0.976457, 73, 121, 104, 184
-0.976479, 57, 129, 88, 192
-0.976516, 121, 41, 184, 104
-0.97659, 297, 153, 328, 216
-0.976621, 33, 57, 160, 120
-0.976721, 221, 145, 252, 272
-0.976732, 65, 265, 192, 328
-0.976751, 265, 433, 328, 496
-0.976757, 57, 97, 88, 160
-0.976802, 41, 81, 72, 208
-0.976823, 337, 417, 368, 480
-0.976923, 109, 81, 140, 208
-0.976958, 137, 233, 200, 296
-0.976982, 57, 1, 120, 128
-0.976995, 185, 57, 248, 120
-0.977023, 309, 201, 340, 264
-0.977134, 97, 305, 224, 432
-0.977178, 317, 409, 348, 472
-0.977199, 209, 289, 272, 416
-0.977233, 321, 177, 352, 240
-0.977269, 221, 97, 252, 160
-0.977297, 233, 1, 296, 256
-0.977354, 233, 25, 296, 88
-0.977395, 289, 241, 352, 368
-0.977428, 153, 289, 184, 416
-0.977436, 305, 209, 336, 336
-0.977441, 185, 1, 248, 128
-0.977518, 177, 193, 240, 256
-0.977552, 321, 225, 352, 288
-0.977648, 29, 49, 60, 176
-0.977657, 209, 185, 336, 248
-0.977691, 49, 89, 176, 152
-0.977907, 293, 369, 324, 496
-0.97806, 329, 161, 360, 288
-0.97806, 297, 193, 328, 256
-0.978169, 333, 257, 364, 384
-0.978184, 217, 81, 248, 208
-0.978428, 89, 97, 120, 224
-0.9785, 333, 185, 364, 248
-0.978503, 145, 273, 272, 336
-0.978615, 257, 145, 320, 208
-0.978645, 137, 337, 200, 400
-0.978682, 161, 161, 224, 416
-0.978711, 185, 33, 248, 96
-0.978718, 169, 161, 232, 224
-0.978755, 57, 1, 120, 256
-0.978904, 137, 129, 200, 256
-0.978923, 177, 257, 304, 384
-0.979078, 305, 65, 336, 128
-0.97911, 49, 265, 112, 328
-0.979135, 309, 49, 340, 176
-0.97917, 209, 137, 336, 200
-0.979389, 289, 233, 352, 296
-0.979442, 57, 225, 120, 480
-0.979475, 1, 49, 64, 112
-0.979486, 137, 289, 168, 416
-0.979576, 345, 273, 375, 336
-0.979677, 57, 153, 120, 216
-0.979697, 85, 105, 116, 168
-0.979717, 65, 241, 192, 304
-0.979722, 201, 177, 264, 240
-0.979948, 17, 65, 80, 320
-0.979955, 1, 337, 256, 464
-0.979975, 81, 249, 112, 312
-0.97998, 305, 401, 336, 464
-0.979982, 281, 369, 312, 496
-0.980013, 73, 49, 104, 176
-0.980033, 297, 137, 360, 200
-0.980059, 93, 241, 124, 368
-0.980066, 33, 121, 160, 184
-0.980068, 69, 209, 100, 336
-0.98012, 53, 49, 84, 176
-0.980265, 261, 385, 292, 448
-0.98027, 217, 201, 280, 264
-0.980282, 97, 225, 160, 288
-0.980337, 293, 129, 324, 192
-0.980345, 65, 297, 192, 360
-0.980425, 293, 97, 324, 224
-0.980462, 97, 49, 224, 112
-0.980567, 129, 209, 192, 272
-0.980739, 241, 281, 368, 344
-0.980899, 209, 73, 240, 136
-0.98099, 309, 225, 340, 288
-0.980994, 209, 73, 336, 136
-0.981006, 1, 249, 128, 312
-0.981075, 197, 249, 228, 312
-0.981094, 313, 353, 344, 480
-0.981099, 77, 97, 108, 224
-0.981148, 1, 241, 64, 304
-0.981321, 205, 81, 236, 208
-0.981431, 193, 393, 320, 456
-0.981496, 185, 193, 248, 448
-0.981514, 105, 65, 168, 128
-0.981746, 25, 81, 56, 144
-0.9818, 177, 97, 304, 160
-0.981806, 225, 377, 288, 440
-0.981833, 113, 249, 240, 312
-0.981842, 241, 417, 368, 480
-0.981894, 333, 281, 364, 344
-0.981933, 101, 89, 132, 152
-0.982041, 113, 33, 144, 160
-0.982194, 73, 225, 104, 288
-0.982221, 305, 17, 368, 144
-0.982222, 325, 369, 356, 496
-0.982288, 73, 1, 136, 500
-0.982308, 121, 81, 152, 144
-0.982323, 33, 145, 160, 208
-0.982368, 221, 161, 252, 224
-0.98237, 337, 369, 368, 496
-0.98238, 265, 369, 296, 496
-0.982499, 81, 153, 144, 216
-0.982513, 89, 33, 120, 160
-0.98252, 177, 137, 240, 200
-0.982537, 157, 33, 188, 160
-0.982609, 97, 129, 160, 384
-0.982633, 129, 65, 160, 192
-0.98265, 73, 161, 104, 288
-0.982659, 1, 81, 64, 144
-0.982681, 209, 97, 272, 352
-0.982696, 37, 65, 68, 128
-0.982785, 73, 57, 136, 120
-0.982872, 25, 1, 88, 128
-0.982917, 141, 33, 172, 160
-0.982933, 49, 217, 176, 280
-0.982945, 333, 161, 364, 224
-0.982995, 169, 57, 200, 120
-0.983048, 113, 257, 144, 384
-0.983083, 281, 89, 344, 152
-0.983101, 73, 81, 104, 144
-0.983108, 241, 417, 304, 480
-0.983207, 61, 313, 92, 376
-0.98324, 289, 161, 352, 416
-0.983242, 341, 145, 372, 272
-0.983277, 257, 97, 320, 160
-0.983309, 293, 49, 324, 112
-0.983311, 305, 393, 368, 456
-0.983367, 49, 321, 112, 448
-0.983381, 241, 209, 368, 272
-0.983382, 237, 185, 268, 248
-0.983395, 113, 225, 240, 288
-0.983402, 297, 433, 328, 496
-0.983409, 209, 193, 272, 448
-0.983456, 73, 281, 104, 344
-0.983482, 89, 257, 152, 500
-0.983498, 105, 121, 168, 184
-0.983557, 233, 17, 264, 144
-0.983629, 221, 185, 252, 248
-0.983692, 25, 49, 56, 112
-0.983724, 161, 161, 288, 224
-0.983761, 53, 145, 84, 272
-0.983776, 221, 193, 252, 320
-0.983876, 69, 273, 100, 400
-0.983902, 137, 73, 168, 136
-0.98393, 9, 25, 72, 88
-0.984005, 49, 57, 80, 120
-0.984058, 33, 313, 96, 376
-0.984082, 101, 33, 132, 160
-0.9841, 209, 233, 240, 296
-0.984113, 1, 225, 128, 288
-0.984119, 93, 257, 124, 320
-0.984252, 265, 1, 328, 256
-0.984281, 313, 273, 344, 400
-0.984286, 125, 289, 156, 416
-0.984352, 97, 33, 160, 288
-0.984356, 81, 353, 208, 480
-0.984451, 129, 105, 256, 168
-0.984459, 49, 233, 80, 296
-0.984471, 161, 137, 288, 200
-0.984479, 193, 209, 320, 272
-0.984493, 161, 249, 288, 312
-0.984629, 25, 145, 88, 208
-0.984703, 285, 433, 316, 496
-0.984729, 249, 257, 312, 384
-0.984754, 33, 1, 96, 500
-0.984758, 313, 153, 344, 216
-0.984802, 189, 65, 220, 128
-0.984813, 129, 241, 160, 368
-0.984825, 153, 289, 184, 352
-0.98483, 193, 417, 320, 480
-0.984854, 33, 33, 160, 96
-0.98501, 173, 257, 204, 384
-0.985026, 281, 105, 312, 168
-0.985033, 153, 241, 184, 368
-0.985037, 233, 113, 264, 240
-0.98505, 57, 225, 88, 352
-0.985151, 137, 257, 200, 500
-0.985197, 129, 185, 256, 248
-0.985209, 89, 201, 152, 264
-0.985292, 149, 41, 180, 104
-0.985353, 129, 1, 192, 500
-0.985396, 109, 209, 140, 336
-0.985411, 209, 1, 272, 256
-0.985506, 161, 33, 288, 96
-0.985524, 1, 321, 128, 448
-0.985544, 169, 105, 232, 168
-0.985644, 141, 225, 172, 352
-0.985669, 241, 1, 304, 128
-0.985693, 289, 161, 320, 288
-0.985732, 233, 193, 264, 320
-0.985737, 113, 225, 176, 480
-0.985777, 81, 113, 208, 176
-0.98589, 169, 249, 200, 312
-0.985894, 305, 97, 336, 224
-0.985946, 217, 321, 280, 384
-0.985948, 49, 25, 112, 88
-0.985956, 221, 33, 252, 160
-0.985959, 121, 265, 152, 328
-0.986003, 49, 313, 80, 376
-0.986039, 209, 25, 336, 88
-0.986051, 97, 1, 160, 500
-0.986068, 241, 81, 304, 208
-0.986141, 121, 65, 184, 320
-0.98615, 209, 289, 272, 352
-0.98618, 17, 273, 144, 336
-0.986182, 169, 49, 200, 176
-0.98624, 201, 1, 264, 500
-0.986305, 45, 89, 76, 152
-0.986345, 9, 89, 40, 152
-0.986459, 57, 185, 120, 248
-0.986483, 313, 49, 375, 112
-0.986483, 33, 209, 96, 272
-0.986484, 289, 257, 352, 500
-0.986567, 149, 73, 180, 136
-0.98663, 217, 121, 248, 184
-0.986641, 137, 265, 168, 328
-0.986697, 225, 153, 288, 216
-0.986721, 169, 113, 232, 240
-0.98677, 209, 129, 240, 256
-0.986793, 201, 249, 264, 312
-0.986794, 225, 257, 352, 320
-0.986794, 225, 209, 256, 272
-0.986807, 285, 169, 316, 232
-0.986816, 209, 225, 240, 352
-0.986901, 189, 65, 220, 192
-0.987047, 241, 1, 304, 64
-0.987184, 185, 265, 216, 328
-0.987269, 81, 145, 208, 208
-0.9873, 157, 257, 188, 320
-0.987316, 273, 417, 304, 480
-0.987336, 109, 257, 140, 320
-0.987349, 177, 1, 240, 500
-0.98739, 289, 273, 352, 336
-0.987406, 17, 49, 48, 176
-0.987445, 41, 33, 72, 160
-0.987499, 81, 409, 144, 472
-0.987519, 257, 73, 320, 136
-0.987567, 345, 241, 375, 368
-0.98758, 321, 65, 352, 192
-0.987582, 345, 297, 375, 360
-0.987618, 137, 41, 168, 104
-0.987643, 5, 33, 36, 160
-0.987651, 225, 97, 352, 160
-0.987653, 305, 97, 368, 160
-0.987692, 177, 369, 304, 432
-0.987702, 249, 321, 280, 448
-0.987706, 301, 89, 332, 152
-0.987725, 129, 17, 160, 144
-0.98774, 25, 1, 56, 128
-0.987817, 61, 265, 92, 328
-0.98786, 249, 305, 312, 368
-0.98786, 277, 97, 308, 224
-0.987877, 229, 57, 260, 120
-0.987925, 113, 153, 176, 216
-0.987938, 153, 1, 216, 256
-0.98795, 89, 353, 152, 480
-0.987965, 61, 217, 92, 280
-0.987981, 169, 281, 200, 344
-0.988073, 45, 121, 76, 184
-0.988125, 225, 177, 288, 240
-0.988144, 93, 289, 124, 352
-0.98819, 153, 1, 216, 500
-0.98823, 101, 129, 132, 192
-0.988249, 229, 121, 260, 184
-0.988277, 237, 153, 268, 216
-0.98829, 125, 49, 156, 112
-0.988354, 305, 221, 368, 252
-0.988389, 289, 49, 320, 176
-0.988507, 233, 129, 296, 384
-0.98851, 113, 345, 176, 408
-0.988554, 265, 321, 296, 448
-0.988563, 185, 241, 216, 304
-0.988579, 93, 193, 124, 320
-0.988621, 153, 313, 216, 376
-0.988622, 9, 1, 72, 500
-0.988632, 257, 337, 320, 400
-0.988669, 241, 345, 368, 408
-0.98868, 65, 185, 192, 248
-0.988683, 313, 233, 375, 264
-0.988717, 345, 201, 375, 264
-0.98874, 273, 405, 336, 436
-0.98882, 41, 161, 72, 288
-0.988832, 305, 193, 368, 224
-0.988865, 41, 273, 104, 400
-0.988872, 329, 65, 360, 128
-0.988873, 161, 305, 288, 368
-0.988907, 209, 41, 272, 104
-0.988985, 297, 205, 360, 236
-0.988987, 101, 289, 132, 416
-0.989013, 17, 89, 80, 120
-0.98902, 249, 177, 280, 240
-0.989025, 161, 257, 224, 500
-0.989071, 241, 369, 368, 432
-0.989078, 1, 177, 128, 240
-0.989086, 265, 97, 328, 352
-0.989093, 273, 1, 336, 500
-0.989108, 29, 97, 60, 224
-0.989111, 185, 209, 216, 336
-0.989148, 89, 81, 120, 144
-0.989152, 277, 369, 308, 432
-0.989177, 65, 121, 128, 152
-0.98918, 85, 409, 116, 472
-0.989263, 297, 181, 360, 212
-0.989289, 241, 305, 368, 368
-0.989338, 49, 409, 112, 472
-0.989436, 305, 77, 368, 108
-0.989451, 321, 289, 352, 352
-0.989471, 33, 177, 96, 240
-0.989481, 193, 257, 224, 384
-0.989484, 105, 289, 136, 352
-0.989515, 189, 161, 220, 224
-0.989563, 249, 361, 312, 424
-0.989573, 277, 25, 308, 88
-0.989587, 129, 65, 375, 128
-0.989635, 145, 137, 208, 200
-0.989638, 165, 209, 196, 336
-0.989761, 129, 185, 192, 248
-0.989792, 33, 73, 288, 136
-0.989799, 25, 257, 88, 320
-0.989877, 85, 145, 116, 272
-0.989911, 225, 1, 288, 500
-0.989935, 113, 49, 144, 112
-0.98994, 345, 289, 375, 416
-0.990018, 25, 101, 88, 132
-0.990034, 281, 73, 344, 104
-0.990066, 113, 121, 144, 184
-0.990111, 209, 145, 240, 208
-0.990139, 57, 133, 120, 164
-0.990166, 137, 297, 168, 360
-0.99017, 65, 257, 128, 288
-0.990197, 257, 173, 320, 204
-0.990211, 161, 73, 224, 104
-0.990229, 177, 273, 240, 304
-0.990297, 313, 293, 375, 324
-0.990325, 65, 97, 320, 160
-0.990334, 305, 89, 368, 120
-0.990384, 65, 85, 128, 116
-0.990396, 265, 393, 328, 424
-0.990435, 205, 113, 236, 176
-0.990474, 309, 433, 340, 496
-0.990493, 109, 129, 140, 256
-0.990544, 257, 177, 320, 304
-0.990565, 241, 97, 272, 160
-0.990644, 161, 329, 288, 392
-0.990662, 25, 129, 88, 160
-0.990669, 269, 137, 300, 200
-0.990724, 25, 245, 88, 276
-0.990729, 241, 121, 272, 184
-0.990739, 169, 253, 232, 284
-0.990758, 73, 109, 136, 140
-0.990761, 289, 445, 352, 476
-0.990815, 233, 121, 296, 152
-0.990815, 137, 73, 200, 104
-0.990816, 81, 289, 112, 416
-0.990817, 253, 369, 284, 496
-0.990817, 241, 397, 304, 428
-0.990837, 17, 161, 80, 416
-0.990849, 273, 189, 336, 220
-0.990908, 237, 289, 268, 416
-0.99091, 25, 77, 88, 108
-0.990919, 57, 245, 120, 276
-0.990984, 237, 313, 268, 376
-0.991011, 57, 153, 88, 216
-0.991012, 205, 177, 236, 304
-0.991012, 185, 85, 248, 116
-0.991045, 33, 265, 288, 328
-0.991048, 57, 329, 120, 392
-0.991064, 193, 157, 256, 188
-0.991071, 33, 113, 96, 144
-0.991078, 113, 85, 176, 116
-0.99109, 177, 161, 208, 224
-0.991091, 305, 281, 368, 312
-0.991099, 225, 109, 288, 140
-0.991109, 209, 193, 272, 224
-0.991122, 61, 49, 92, 112
-0.991156, 233, 137, 296, 168
-0.99116, 57, 233, 120, 264
-0.991166, 273, 209, 336, 240
-0.991172, 213, 209, 244, 272
-0.991182, 65, 97, 128, 128
-0.991192, 185, 213, 248, 244
-0.991204, 125, 297, 156, 360
-0.991209, 313, 257, 375, 288
-0.991237, 153, 61, 216, 92
-0.991242, 97, 97, 160, 128
-0.991244, 57, 149, 120, 180
-0.991252, 193, 113, 256, 144
-0.991257, 33, 241, 288, 304
-0.991257, 265, 133, 328, 164
-0.991265, 297, 169, 360, 200
-0.991266, 201, 133, 264, 164
-0.99127, 265, 209, 328, 272
-0.991275, 281, 417, 344, 448
-0.991287, 277, 321, 308, 448
-0.991344, 145, 265, 208, 296
-0.991344, 137, 221, 200, 252
-0.991352, 265, 121, 328, 152
-0.991372, 89, 153, 152, 184
-0.991375, 161, 9, 288, 72
-0.991385, 241, 185, 304, 216
-0.991399, 313, 269, 375, 300
-0.9914, 49, 57, 112, 88
-0.991409, 305, 1, 368, 500
-0.991411, 193, 97, 256, 128
-0.991412, 313, 453, 375, 484
-0.99142, 137, 293, 200, 324
-0.991427, 313, 421, 375, 452
-0.991429, 281, 229, 344, 260
-0.99143, 265, 433, 328, 464
-0.991431, 125, 145, 156, 272
-0.991452, 217, 173, 280, 204
-0.991453, 233, 413, 296, 444
-0.991605, 1, 81, 375, 144
-0.991609, 233, 33, 296, 64
-0.991616, 217, 77, 280, 108
-0.991631, 233, 25, 264, 88
-0.991631, 89, 297, 152, 328
-0.991645, 89, 137, 120, 200
-0.991652, 325, 321, 356, 448
-0.991655, 185, 65, 248, 96
-0.991662, 241, 425, 304, 456
-0.99169, 281, 85, 344, 116
-0.991695, 229, 289, 260, 352
-0.991699, 273, 57, 336, 88
-0.991701, 33, 121, 64, 184
-0.991702, 241, 281, 304, 344
-0.991715, 97, 57, 128, 120
-0.991721, 313, 245, 375, 276
-0.991727, 313, 65, 375, 96
-0.991754, 161, 33, 192, 96
-0.991754, 225, 97, 288, 128
-0.991756, 209, 233, 336, 296
-0.99176, 209, 209, 272, 240
-0.991783, 1, 265, 375, 328
-0.99181, 65, 289, 128, 320
-0.991823, 145, 97, 208, 160
-0.991826, 289, 245, 352, 276
-0.991846, 77, 385, 108, 448
-0.991846, 33, 269, 96, 300
-0.99185, 313, 89, 344, 152
-0.991851, 97, 141, 160, 172
-0.991863, 177, 225, 240, 256
-0.991876, 49, 69, 112, 100
-0.991881, 261, 409, 292, 472
-0.9919, 329, 221, 360, 252
-0.9919, 233, 149, 296, 180
-0.991905, 73, 269, 136, 300
-0.991934, 89, 69, 152, 100
-0.991934, 177, 169, 240, 200
-0.99194, 161, 285, 224, 316
-0.991948, 33, 49, 288, 112
-0.991965, 33, 217, 288, 280
-0.991972, 265, 193, 328, 448
-0.991975, 185, 53, 248, 84
-0.991977, 209, 337, 272, 464
-0.991985, 289, 293, 352, 324
-0.991992, 9, 53, 72, 84
-0.992019, 81, 385, 208, 448
-0.992026, 121, 45, 184, 76
-0.992028, 325, 209, 356, 240
-0.992041, 113, 301, 176, 332
-0.992042, 33, 233, 96, 264
-0.992048, 189, 145, 220, 272
-0.992053, 317, 193, 348, 224
-0.992058, 57, 417, 120, 448
-0.992061, 41, 281, 104, 312
-0.992081, 1, 253, 64, 284
-0.992096, 305, 41, 336, 104
-0.992106, 81, 417, 144, 448
-0.99211, 129, 349, 192, 380
-0.992111, 313, 73, 344, 104
-0.992113, 57, 45, 120, 76
-0.992115, 57, 221, 120, 252
-0.992123, 1, 401, 128, 464
-0.992123, 113, 321, 176, 384
-0.992125, 33, 369, 160, 496
-0.992136, 113, 157, 176, 188
-0.992142, 145, 305, 208, 432
-0.992146, 313, 205, 344, 236
-0.992162, 193, 145, 256, 176
-0.992163, 173, 225, 204, 288
-0.992171, 209, 225, 272, 256
-0.992179, 281, 157, 344, 188
-0.992188, 305, 189, 336, 220
-0.992192, 105, 129, 168, 160
-0.992197, 25, 257, 88, 288
-0.992208, 337, 233, 368, 264
-0.992213, 217, 161, 280, 192
-0.992213, 273, 145, 336, 176
-0.992219, 1, 321, 128, 384
-0.992225, 201, 253, 264, 284
-0.992228, 89, 177, 152, 240
-0.99223, 1, 77, 64, 108
-0.992241, 241, 21, 304, 52
-0.992245, 25, 325, 88, 356
-0.992254, 241, 257, 304, 500
-0.992254, 193, 181, 256, 212
-0.992259, 129, 233, 375, 296
-0.992273, 113, 285, 176, 316
-0.992277, 49, 289, 112, 352
-0.992284, 169, 281, 232, 344
-0.992285, 201, 201, 232, 264
-0.992287, 153, 161, 216, 192
-0.992288, 169, 237, 232, 268
-0.992299, 33, 153, 96, 184
-0.992306, 157, 209, 188, 272
-0.99231, 281, 281, 344, 312
-0.992317, 73, 33, 136, 96
-0.992344, 141, 81, 172, 208
-0.992345, 217, 65, 280, 96
-0.992351, 49, 165, 112, 196
-0.99239, 197, 225, 228, 288
-0.992393, 257, 161, 320, 192
-0.992397, 129, 265, 375, 328
-0.9924, 317, 221, 348, 252
-0.992403, 201, 237, 264, 268
-0.99242, 309, 177, 340, 208
-0.992423, 41, 225, 72, 352
-0.992429, 81, 237, 144, 268
-0.992434, 277, 397, 308, 428
-0.992435, 265, 33, 328, 64
-0.992445, 289, 297, 352, 360
-0.992448, 233, 45, 296, 76
-0.992462, 61, 321, 92, 448
-0.992465, 97, 217, 160, 248
-0.992476, 233, 209, 296, 240
-0.992478, 113, 97, 176, 160
-0.992493, 137, 209, 200, 240
-0.992499, 25, 321, 88, 448
-0.992516, 101, 393, 132, 456
-0.992559, 301, 1, 332, 128
-0.992563, 45, 153, 76, 216
-0.992564, 73, 121, 104, 152
-0.992565, 137, 161, 200, 416
-0.992567, 137, 225, 168, 288
-0.992595, 89, 385, 152, 448
-0.9926, 297, 165, 328, 196
-0.9926, 333, 189, 364, 220
-0.992604, 121, 353, 184, 480
-0.992614, 325, 77, 356, 108
-0.992622, 129, 209, 375, 272
-0.992631, 305, 217, 336, 248
-0.992656, 301, 205, 332, 236
-0.992656, 25, 85, 56, 116
-0.992661, 321, 65, 336, 128
-0.992676, 321, 233, 352, 264
-0.992689, 249, 1, 312, 500
-0.992692, 293, 189, 324, 220
-0.992702, 173, 1, 204, 128
-0.992702, 345, 285, 375, 316
-0.992713, 245, 185, 276, 216
-0.992714, 37, 81, 68, 112
-0.992732, 209, 17, 240, 144
-0.992733, 229, 193, 260, 224
-0.99275, 297, 177, 328, 208
-0.992757, 329, 289, 360, 320
-0.992759, 313, 85, 344, 116
-0.992767, 325, 253, 356, 284
-0.992775, 53, 129, 84, 160
-0.992779, 345, 197, 375, 228
-0.992786, 261, 397, 292, 428
-0.992786, 153, 337, 184, 368
-0.992793, 33, 289, 288, 352
-0.992793, 5, 249, 36, 312
-0.992813, 213, 233, 244, 264
-0.992814, 65, 133, 96, 164
-0.992816, 1, 337, 375, 400
-0.992817, 221, 109, 252, 140
-0.992836, 233, 213, 264, 244
-0.99284, 329, 17, 360, 144
-0.992841, 205, 85, 236, 116
-0.992869, 213, 97, 244, 128
-0.992882, 77, 97, 108, 128
-0.992887, 345, 185, 375, 216
-0.992889, 9, 209, 72, 272
-0.992891, 193, 269, 224, 300
-0.992892, 293, 441, 324, 472
-0.992903, 1, 201, 128, 264
-0.992905, 221, 221, 252, 252
-0.992906, 333, 177, 364, 208
-0.992908, 57, 317, 88, 348
-0.992914, 301, 77, 332, 108
-0.992921, 329, 277, 360, 308
-0.992925, 57, 145, 88, 176
-0.992927, 309, 233, 340, 264
-0.992928, 165, 289, 196, 320
-0.992929, 73, 109, 104, 140
-0.99293, 189, 161, 220, 192
-0.992934, 281, 37, 312, 68
-0.992938, 221, 133, 252, 164
-0.992939, 69, 245, 100, 276
-0.992941, 109, 93, 140, 124
-0.992946, 297, 153, 328, 184
-0.992946, 65, 233, 96, 264
-0.992948, 33, 257, 96, 500
-0.99295, 345, 85, 375, 116
-0.992966, 341, 221, 372, 252
-0.992971, 129, 81, 160, 112
-0.992975, 61, 333, 92, 364
-0.992987, 49, 241, 80, 272
-0.992989, 221, 181, 252, 212
-0.992992, 173, 57, 204, 88
-0.992993, 85, 409, 116, 440
-0.992997, 221, 121, 252, 152
-0.992997, 81, 25, 208, 88
-0.993006, 89, 113, 120, 144
-0.993008, 65, 153, 320, 216
-0.993016, 193, 73, 224, 104
-0.993027, 281, 121, 312, 152
-0.993031, 141, 77, 172, 108
-0.993032, 61, 117, 92, 148
-0.993033, 269, 385, 300, 416
-0.993041, 181, 253, 212, 284
-0.993042, 345, 173, 375, 204
-0.993048, 341, 253, 372, 284
-0.993059, 17, 97, 48, 128
-0.993061, 69, 217, 100, 248
-0.993073, 345, 269, 375, 300
-0.993078, 221, 209, 252, 240
-0.993085, 49, 57, 80, 88
-0.993088, 141, 345, 172, 376
-0.993104, 325, 453, 356, 484
-0.993107, 277, 429, 308, 460
-0.993111, 53, 93, 84, 124
-0.993112, 313, 245, 344, 276
-0.993114, 209, 245, 240, 276
-0.993115, 177, 277, 208, 308
-0.993116, 345, 461, 375, 492
-0.993118, 81, 289, 112, 320
-0.993118, 45, 69, 76, 100
-0.993118, 5, 89, 36, 120
-0.993119, 209, 221, 240, 252
-0.993125, 345, 313, 375, 344
-0.993126, 69, 281, 100, 312
-0.993132, 309, 165, 340, 196
-0.993133, 97, 101, 128, 132
-0.993134, 153, 297, 184, 328
-0.993139, 325, 89, 356, 120
-0.99314, 305, 445, 336, 476
-0.99314, 301, 89, 332, 120
-0.993149, 217, 145, 248, 176
-0.99315, 293, 141, 324, 172
-0.993151, 121, 157, 152, 188
-0.993151, 181, 69, 212, 100
-0.993156, 305, 409, 336, 440
-0.993161, 241, 125, 272, 156
-0.993161, 269, 165, 300, 196
-0.993161, 341, 297, 372, 328
-0.993162, 197, 257, 228, 288
-0.993163, 321, 265, 352, 296
-0.993168, 285, 49, 316, 80
-0.993168, 29, 69, 60, 100
-0.993169, 237, 105, 268, 136
-0.99317, 293, 129, 324, 160
-0.993173, 241, 201, 272, 232
-0.993173, 261, 177, 292, 208
-0.993173, 337, 421, 368, 452
-0.993175, 153, 73, 184, 104
-0.993175, 341, 209, 372, 240
-0.993178, 41, 137, 72, 168
-0.993179, 49, 321, 176, 384
-0.99318, 261, 409, 292, 440
-0.99318, 317, 413, 348, 444
-0.993192, 169, 265, 200, 296
-0.993192, 5, 81, 36, 208
-0.993193, 293, 65, 324, 96
-0.993195, 241, 409, 368, 440
-0.993195, 281, 181, 312, 212
-0.993196, 329, 301, 360, 332
-0.993197, 193, 241, 224, 272
-0.9932, 97, 297, 128, 328
-0.993204, 57, 161, 88, 192
-0.993204, 73, 257, 104, 288
-0.993206, 329, 201, 344, 264
-0.993244, 1, 377, 128, 440
-0.993286, 265, 113, 296, 240
-0.993294, 113, 77, 240, 108
-0.993298, 145, 161, 208, 224
-0.993303, 277, 145, 308, 272
-0.993316, 217, 353, 280, 416
-0.993345, 17, 9, 144, 72
-0.99335, 1, 93, 128, 124
-0.993373, 177, 161, 208, 288
-0.993481, 225, 1, 352, 64
-0.993506, 339, 201, 354, 264
-0.993508, 1, 289, 375, 352
-0.993671, 315, 201, 330, 264
-0.993724, 289, 353, 352, 416
-0.993732, 329, 113, 360, 240
-0.99376, 173, 97, 204, 224
-0.993777, 319, 177, 334, 240
-0.993835, 311, 161, 326, 224
-0.993838, 129, 41, 375, 104
-0.993898, 317, 113, 348, 240
-0.99391, 17, 77, 144, 108
-0.99397, 129, 177, 375, 240
-0.993974, 321, 209, 336, 272
-0.994005, 345, 81, 375, 208
-0.994045, 313, 361, 375, 424
-0.994082, 49, 409, 176, 472
-0.99409, 157, 337, 188, 464
-0.994108, 245, 161, 276, 288
-0.99415, 33, 185, 288, 248
-0.994157, 307, 185, 322, 248
-0.994161, 283, 393, 298, 456
-0.994199, 129, 409, 375, 472
-0.994223, 201, 1, 264, 64
-0.994245, 1, 241, 375, 304
-0.994248, 1, 105, 375, 168
-0.994317, 153, 193, 184, 320
-0.994318, 1, 57, 375, 120
-0.994337, 305, 161, 320, 224
-0.994373, 327, 177, 342, 240
-0.994395, 265, 17, 328, 80
-0.994407, 1, 201, 375, 264
-0.994429, 327, 225, 342, 288
-0.99444, 1, 153, 375, 216
-0.994483, 345, 217, 360, 280
-0.99453, 153, 81, 184, 208
-0.994536, 17, 105, 144, 136
-0.994559, 65, 129, 320, 192
-0.994596, 17, 97, 48, 224
-0.994607, 65, 273, 192, 304
-0.994666, 231, 105, 246, 168
-0.994673, 69, 105, 84, 168
-0.994781, 347, 185, 362, 248
-0.994808, 327, 65, 342, 128
-0.994819, 271, 385, 286, 448
-0.994823, 315, 65, 330, 128
-0.994828, 225, 193, 352, 224
-0.994921, 353, 417, 368, 480
-0.994956, 353, 193, 368, 256
-0.994967, 331, 409, 346, 472
-0.994973, 289, 393, 304, 456
-0.994986, 339, 225, 354, 288
-0.995004, 67, 305, 82, 368
-0.995005, 113, 297, 240, 360
-0.995018, 75, 105, 90, 168
-0.995023, 29, 225, 60, 352
-0.995024, 313, 401, 328, 464
-0.995066, 129, 433, 375, 496
-0.995123, 239, 185, 254, 248
-0.99513, 343, 417, 358, 480
-0.995132, 333, 225, 348, 288
-0.995146, 359, 177, 374, 240
-0.995151, 1, 33, 375, 96
-0.995155, 361, 425, 375, 488
-0.995167, 33, 65, 160, 96
-0.995171, 307, 401, 322, 464
-0.995214, 299, 169, 314, 232
-0.995217, 295, 393, 310, 456
-0.995218, 323, 409, 338, 472
-0.995222, 59, 129, 74, 192
-0.995231, 1, 241, 32, 368
-0.995243, 343, 257, 358, 320
-0.995261, 225, 209, 352, 240
-0.995281, 145, 285, 272, 316
-0.995289, 337, 417, 352, 480
-0.995299, 113, 305, 144, 432
-0.995302, 311, 137, 326, 200
-0.995303, 177, 397, 304, 428
-0.995317, 65, 1, 96, 128
-0.995334, 145, 393, 272, 456
-0.995348, 241, 77, 368, 108
-0.995369, 325, 249, 340, 312
-0.995371, 347, 281, 362, 344
-0.995373, 209, 105, 336, 136
-0.99538, 1, 253, 128, 284
-0.995391, 301, 401, 316, 464
-0.995394, 293, 321, 324, 448
-0.995399, 49, 345, 176, 408
-0.995421, 335, 249, 350, 312
-0.995431, 225, 181, 352, 212
-0.995433, 61, 313, 76, 376
-0.995451, 277, 393, 292, 456
-0.995492, 53, 1, 84, 128
-0.995493, 197, 17, 228, 144
-0.995495, 353, 225, 368, 288
-0.995497, 225, 89, 240, 152
-0.995514, 49, 93, 176, 124
-0.995517, 53, 65, 68, 128
-0.99553, 249, 113, 280, 240
-0.995549, 49, 257, 176, 288
-0.99555, 1, 401, 375, 464
-0.99558, 233, 193, 248, 256
-0.995596, 65, 129, 80, 192
-0.995612, 353, 273, 368, 336
-0.995613, 333, 177, 348, 240
-0.995639, 129, 289, 375, 352
-0.995645, 313, 65, 344, 320
-0.995647, 17, 297, 144, 360
-0.99566, 29, 81, 44, 144
-0.995666, 145, 101, 272, 132
-0.995669, 91, 249, 106, 312
-0.995714, 361, 233, 375, 296
-0.995743, 317, 153, 332, 216
-0.995749, 97, 337, 352, 400
-0.995769, 353, 169, 368, 232
-0.995769, 209, 169, 336, 200
-0.995798, 23, 89, 38, 152
-0.995816, 97, 401, 112, 464
-0.995817, 33, 25, 288, 88
-0.995839, 113, 89, 128, 152
-0.995846, 129, 385, 375, 448
-0.995859, 209, 221, 336, 252
-0.995861, 193, 69, 320, 100
-0.995891, 33, 149, 160, 180
-0.9959, 339, 177, 354, 240
-0.995908, 185, 17, 216, 144
-0.995913, 59, 57, 74, 120
-0.995926, 33, 137, 160, 168
-0.995933, 63, 97, 78, 160
-0.995936, 17, 117, 144, 148
-0.995938, 299, 145, 314, 208
-0.995958, 213, 233, 228, 296
-0.995985, 161, 165, 288, 196
-0.995986, 1, 313, 375, 376
-0.995991, 127, 81, 142, 144
-0.995994, 241, 421, 368, 452
-0.996001, 99, 105, 114, 168
-0.996003, 241, 445, 368, 476
-0.996025, 241, 297, 368, 328
-0.996026, 147, 73, 162, 136
-0.996039, 129, 217, 256, 248
-0.996048, 219, 81, 234, 144
-0.996049, 339, 289, 354, 352
-0.99605, 71, 129, 86, 192
-0.996063, 301, 121, 316, 184
-0.996065, 75, 273, 90, 336
-0.996068, 209, 145, 336, 176
-0.996075, 129, 65, 256, 96
-0.99608, 113, 233, 240, 264
-0.996081, 225, 65, 240, 128
-0.996085, 1, 345, 128, 408
-0.996109, 225, 273, 256, 400
-0.99612, 293, 169, 308, 232
-0.996128, 299, 433, 314, 496
-0.996132, 291, 433, 306, 496
-0.996132, 47, 65, 62, 128
-0.996142, 81, 49, 208, 80
-0.996155, 81, 89, 96, 152
-0.996155, 145, 369, 272, 496
-0.996162, 53, 129, 68, 192
-0.996168, 315, 225, 330, 288
-0.996204, 193, 429, 320, 460
-0.996206, 121, 89, 136, 152
-0.996211, 91, 393, 106, 456
-0.996212, 219, 225, 234, 288
-0.996217, 285, 425, 300, 488
-0.99622, 57, 273, 88, 400
-0.99622, 85, 249, 100, 312
-0.996225, 233, 153, 248, 216
-0.996227, 97, 253, 224, 284
-0.996246, 141, 73, 156, 136
-0.996249, 105, 97, 120, 160
-0.996258, 69, 97, 100, 352
-0.996264, 309, 209, 324, 272
-0.996268, 237, 65, 268, 192
-0.996272, 241, 397, 368, 428
-0.996284, 63, 225, 78, 288
-0.996288, 213, 81, 228, 144
-0.996289, 41, 49, 56, 112
-0.996298, 155, 289, 170, 352
-0.996305, 83, 121, 98, 184
-0.996308, 91, 113, 106, 176
-0.996314, 163, 41, 178, 104
-0.996329, 179, 65, 194, 128
-0.996334, 209, 89, 336, 120
-0.996346, 205, 257, 220, 320
-0.99635, 231, 49, 246, 112
-0.996356, 241, 113, 256, 176
-0.996356, 163, 329, 178, 392
-0.996385, 133, 81, 148, 144
-0.996387, 329, 225, 360, 480
-0.996388, 161, 289, 176, 352
-0.996424, 185, 57, 200, 120
-0.996449, 97, 257, 112, 320
-0.996454, 361, 265, 375, 328
-0.996468, 301, 193, 316, 256
-0.996471, 55, 153, 70, 216
-0.996481, 129, 193, 160, 320
-0.996482, 209, 157, 336, 188
-0.996491, 361, 201, 375, 264
-0.996503, 217, 97, 248, 352
-0.996512, 113, 265, 240, 296
-0.996512, 161, 273, 288, 304
-0.996517, 65, 297, 192, 328
-0.996525, 85, 281, 100, 344
-0.996527, 69, 217, 84, 280
-0.996527, 97, 89, 224, 120
-0.996535, 305, 433, 320, 496
-0.99654, 97, 145, 128, 272
-0.996554, 1, 129, 375, 192
-0.996555, 347, 161, 362, 224
-0.996556, 141, 337, 172, 464
-0.996577, 153, 73, 168, 136
-0.996581, 209, 129, 336, 160
-0.996586, 161, 265, 176, 328
-0.996587, 151, 41, 166, 104
-0.996596, 299, 49, 314, 112
-0.996611, 249, 1, 280, 128
-0.996611, 177, 417, 304, 448
-0.996617, 49, 369, 112, 496
-0.996619, 151, 265, 166, 328
-0.996619, 65, 213, 192, 244
-0.996626, 157, 337, 172, 400
-0.996645, 33, 45, 160, 76
-0.996645, 179, 249, 194, 312
-0.996648, 225, 285, 352, 316
-0.996652, 65, 313, 320, 376
-0.996652, 293, 209, 324, 336
-0.996654, 173, 65, 188, 128
-0.996658, 223, 201, 238, 264
-0.996677, 69, 329, 84, 392
-0.996677, 195, 65, 210, 128
-0.996689, 345, 225, 375, 480
-0.996694, 245, 177, 260, 240
-0.996713, 129, 149, 256, 180
-0.996724, 145, 265, 160, 328
-0.996733, 157, 41, 172, 104
-0.996735, 109, 289, 124, 352
-0.996796, 49, 245, 176, 276
-0.996806, 209, 45, 336, 76
-0.996815, 323, 73, 338, 104
-0.996852, 49, 161, 176, 192
-0.996868, 1, 425, 375, 488
-0.996874, 209, 33, 336, 64
-0.996879, 81, 65, 112, 320
-0.99688, 113, 345, 240, 408
-0.996887, 257, 273, 288, 400
-0.996903, 177, 253, 304, 284
-0.996907, 1, 425, 128, 488
-0.996925, 81, 161, 112, 416
-0.996926, 145, 197, 272, 228
-0.996927, 97, 285, 224, 316
-0.996931, 311, 197, 326, 228
-0.996946, 81, 105, 208, 136
-0.996954, 277, 49, 308, 176
-0.996978, 1, 281, 128, 312
-0.99698, 145, 125, 272, 156
-0.996983, 297, 1, 328, 256
-0.996983, 323, 221, 338, 252
-0.996983, 61, 193, 92, 448
-0.996985, 209, 57, 336, 88
-0.996996, 1, 377, 375, 440
-0.997022, 229, 1, 260, 256
-0.99703, 347, 221, 362, 252
-0.997053, 241, 233, 368, 264
-0.997059, 317, 209, 332, 240
-0.997075, 193, 117, 320, 148
-0.997089, 339, 205, 354, 236
-0.997095, 1, 177, 64, 304
-0.997114, 161, 137, 288, 168
-0.997126, 317, 193, 348, 448
-0.997141, 161, 177, 288, 208
-0.997175, 305, 185, 320, 216
-0.997178, 145, 297, 272, 328
-0.997192, 317, 69, 332, 100
-0.997199, 327, 233, 342, 264
-0.997211, 113, 161, 240, 192
-0.997221, 327, 201, 342, 232
-0.997227, 193, 233, 320, 264
-0.997233, 333, 193, 348, 224
-0.997237, 129, 113, 256, 144
-0.997259, 353, 229, 368, 260
-0.997273, 157, 337, 172, 368
-0.997294, 93, 97, 124, 352
-0.997314, 81, 149, 208, 180
-0.997324, 161, 89, 288, 120
-0.997336, 239, 193, 254, 224
-0.997356, 65, 125, 192, 156
-0.997363, 193, 97, 224, 352
-0.997368, 321, 189, 336, 220
-0.997379, 17, 293, 144, 324
-0.997396, 57, 1, 88, 256
-0.997398, 337, 225, 352, 256
-0.997426, 145, 37, 272, 68
-0.997426, 241, 309, 368, 340
-0.997432, 331, 213, 346, 244
-0.997445, 281, 397, 296, 428
-0.997462, 93, 409, 108, 440
-0.99747, 329, 77, 344, 108
-0.997482, 81, 61, 208, 92
-0.99751, 335, 77, 350, 108
-0.997519, 59, 133, 74, 164
-0.997521, 33, 233, 160, 264
-0.997526, 361, 185, 375, 216
-0.997535, 333, 129, 364, 384
-0.997539, 317, 177, 332, 208
-0.99754, 57, 97, 88, 352
-0.99754, 269, 393, 284, 424
-0.997546, 305, 161, 336, 416
-0.997553, 129, 49, 256, 80
-0.997559, 301, 173, 316, 204
-0.997565, 67, 321, 82, 352
-0.997571, 177, 385, 304, 416
-0.997617, 225, 273, 352, 304
-0.99764, 251, 181, 266, 212
-0.997666, 1, 177, 375, 240
-0.997668, 67, 129, 82, 160
-0.997669, 355, 181, 370, 212
-0.997686, 331, 245, 346, 276
-0.9977, 219, 233, 234, 264
-0.997707, 345, 129, 375, 384
-0.997709, 45, 65, 76, 320
-0.997723, 245, 189, 260, 220
-0.997742, 223, 217, 238, 248
-0.997749, 193, 281, 320, 344
-0.997775, 163, 337, 178, 368
-0.99778, 353, 293, 368, 324
-0.997783, 73, 125, 88, 156
-0.997787, 225, 345, 352, 376
-0.997788, 1, 265, 128, 296
-0.997793, 229, 97, 260, 352
-0.997795, 311, 165, 326, 196
-0.997802, 263, 181, 278, 212
-0.997807, 297, 185, 312, 216
-0.997822, 85, 257, 116, 500
-0.997825, 73, 257, 104, 500
-0.997828, 359, 237, 374, 268
-0.997842, 275, 397, 290, 428
-0.997847, 353, 281, 368, 312
-0.997859, 311, 77, 326, 108
-0.997862, 45, 161, 76, 416
-0.997869, 23, 85, 38, 116
-0.997874, 43, 77, 58, 108
-0.997888, 241, 457, 368, 488
-0.997912, 65, 145, 80, 176
-0.997915, 97, 361, 352, 424
-0.997916, 151, 341, 166, 372
-0.997928, 361, 273, 375, 304
-0.997938, 241, 381, 368, 412
-0.997955, 295, 45, 310, 76
-0.997959, 77, 109, 92, 140
-0.997963, 329, 181, 344, 212
-0.997966, 33, 65, 64, 320
-0.997971, 73, 325, 88, 356
-0.997971, 97, 137, 224, 168
-0.997981, 65, 77, 192, 108
-0.99799, 301, 197, 316, 228
-0.997992, 225, 233, 240, 264
-0.997992, 213, 249, 228, 280
-0.997995, 241, 257, 368, 288
-0.997997, 37, 81, 52, 112
-0.998006, 345, 293, 360, 324
-0.998008, 205, 129, 236, 384
-0.998011, 205, 261, 220, 292
-0.998012, 49, 69, 64, 100
-0.998014, 33, 173, 160, 204
-0.998019, 359, 285, 374, 316
-0.998025, 293, 113, 308, 144
-0.998032, 91, 421, 106, 452
-0.998038, 243, 209, 258, 240
-0.998038, 343, 325, 358, 356
-0.998041, 317, 85, 332, 116
-0.998042, 69, 1, 100, 256
-0.998045, 287, 433, 302, 464
-0.998047, 69, 101, 84, 132
-0.998048, 233, 213, 248, 244
-0.998051, 69, 337, 84, 368
-0.998052, 1, 9, 375, 72
-0.998059, 105, 129, 136, 384
-0.998061, 189, 161, 204, 192
-0.998062, 113, 173, 240, 204
-0.998067, 337, 337, 352, 368
-0.998068, 1, 33, 128, 64
-0.998079, 31, 81, 46, 112
-0.998082, 69, 221, 84, 252
-0.998083, 307, 209, 322, 240
-0.998086, 303, 129, 318, 160
-0.998087, 59, 153, 74, 184
-0.998087, 233, 197, 248, 228
-0.998099, 217, 193, 248, 448
-0.998101, 161, 337, 288, 368
-0.998105, 177, 369, 240, 496
-0.998111, 231, 225, 246, 256
-0.998112, 313, 225, 328, 256
-0.998112, 129, 225, 160, 480
-0.998113, 339, 285, 354, 316
-0.998115, 273, 409, 288, 440
-0.998125, 263, 393, 278, 424
-0.998127, 221, 77, 236, 108
-0.998127, 65, 201, 192, 232
-0.998134, 97, 409, 224, 472
-0.998144, 99, 417, 114, 448
-0.998149, 343, 233, 358, 264
-0.998154, 185, 61, 200, 92
-0.998157, 213, 233, 228, 264
-0.998158, 329, 293, 344, 324
-0.998158, 325, 89, 340, 120
-0.998158, 309, 65, 324, 96
-0.998177, 129, 17, 375, 80
-0.998178, 291, 177, 306, 208
-0.998184, 1, 221, 128, 252
-0.998191, 349, 81, 364, 112
-0.998196, 53, 57, 68, 88
-0.998198, 183, 281, 198, 312
-0.998205, 345, 209, 360, 240
-0.998211, 75, 277, 90, 308
-0.998232, 161, 325, 288, 356
-0.998238, 189, 277, 204, 308
-0.99824, 225, 93, 240, 124
-0.998241, 1, 413, 128, 444
-0.998242, 337, 253, 352, 284
-0.998243, 257, 185, 272, 216
-0.998244, 297, 437, 312, 468
-0.998244, 177, 161, 208, 416
-0.998247, 125, 153, 140, 184
-0.998247, 131, 157, 146, 188
-0.998252, 341, 185, 356, 216
-0.998253, 17, 93, 32, 124
-0.998256, 195, 69, 210, 100
-0.998265, 79, 125, 94, 156
-0.998265, 105, 33, 136, 288
-0.998266, 241, 321, 368, 352
-0.998273, 241, 117, 256, 148
-0.998274, 281, 425, 296, 456
-0.998282, 319, 237, 334, 268
-0.998292, 293, 97, 324, 352
-0.998293, 97, 109, 112, 140
-0.998294, 61, 313, 76, 344
-0.998296, 49, 81, 64, 112
-0.998302, 33, 1, 288, 64
-0.998303, 349, 317, 364, 348
-0.998305, 349, 177, 364, 208
-0.998309, 309, 145, 324, 176
-0.998313, 269, 173, 284, 204
-0.998315, 239, 101, 254, 132
-0.998316, 105, 101, 120, 132
-0.998324, 101, 225, 132, 480
-0.998325, 205, 33, 236, 288
-0.998326, 323, 273, 338, 304
-0.998328, 241, 357, 368, 388
-0.998329, 225, 21, 352, 52
-0.99833, 81, 285, 96, 316
-0.998332, 197, 225, 228, 480
-0.998338, 153, 353, 168, 384
-0.998339, 169, 337, 184, 368
-0.99834, 85, 121, 100, 152
-0.998341, 287, 121, 302, 152
-0.998343, 197, 161, 212, 192
-0.998348, 127, 85, 142, 116
-0.998352, 175, 289, 190, 320
-0.998353, 229, 105, 244, 136
-0.998369, 269, 1, 300, 256
-0.998376, 289, 87, 320, 102
-0.998376, 73, 215, 104, 230
-0.998376, 277, 41, 308, 56
-0.998376, 77, 105, 108, 120
-0.998377, 61, 337, 92, 352
-0.998377, 113, 185, 240, 216
-0.998378, 329, 257, 360, 272
-0.998379, 117, 159, 148, 174
-0.99838, 9, 97, 40, 112
-0.99838, 149, 219, 180, 234
-0.99838, 257, 407, 288, 422
-0.998381, 237, 113, 268, 128
-0.998382, 289, 185, 320, 200
-0.998382, 193, 247, 224, 262
-0.998383, 241, 1, 272, 256
-0.998383, 189, 71, 220, 86
-0.998385, 341, 177, 372, 192
-0.998385, 57, 147, 88, 162
-0.998386, 213, 235, 244, 250
-0.998387, 221, 195, 252, 210
-0.998389, 141, 353, 172, 368
-0.99839, 325, 183, 356, 198
-0.99839, 297, 69, 328, 84
-0.99839, 193, 441, 320, 472
-0.998391, 173, 75, 204, 90
-0.998391, 321, 297, 352, 312
-0.998391, 165, 293, 196, 308
-0.998392, 225, 205, 256, 220
-0.998392, 157, 335, 188, 350
-0.998392, 73, 117, 104, 132
-0.998393, 285, 121, 316, 136
-0.998394, 297, 167, 328, 182
-0.998395, 213, 223, 244, 238
-0.998395, 305, 225, 336, 240
-0.998396, 321, 251, 352, 266
-0.998397, 117, 93, 148, 108
-0.998397, 221, 135, 252, 150
-0.9984, 341, 225, 372, 240
-0.9984, 281, 437, 312, 452
-0.9984, 89, 295, 120, 310
-0.998401, 217, 111, 248, 126
-0.998402, 297, 79, 328, 94
-0.998402, 221, 125, 252, 140
-0.998402, 221, 143, 252, 158
-0.998402, 85, 423, 116, 438
-0.998403, 321, 291, 352, 306
-0.998403, 305, 447, 336, 462
-0.998403, 333, 207, 364, 222
-0.998404, 309, 177, 340, 192
-0.998405, 329, 195, 360, 210
-0.998407, 201, 85, 232, 100
-0.998408, 265, 405, 328, 420
-0.998408, 345, 231, 375, 246
-0.99841, 153, 297, 184, 312
-0.99841, 337, 459, 368, 474
-0.99841, 293, 195, 324, 210
-0.998412, 145, 79, 176, 94
-0.998412, 341, 201, 372, 216
-0.998412, 141, 345, 172, 360
-0.998413, 345, 269, 375, 284
-0.998413, 153, 353, 184, 368
-0.998414, 313, 183, 344, 198
-0.998416, 297, 177, 328, 192
-0.998417, 321, 453, 352, 468
-0.998418, 309, 413, 340, 428
-0.998418, 313, 233, 375, 248
-0.99842, 129, 85, 160, 100
-0.998421, 57, 131, 88, 146
-0.998422, 69, 251, 100, 266
-0.998422, 297, 203, 360, 218
-0.998423, 57, 317, 88, 332
-0.998423, 321, 419, 352, 434
-0.998423, 337, 245, 368, 260
-0.998424, 225, 217, 256, 232
-0.998427, 293, 407, 324, 422
-0.998427, 305, 217, 368, 232
-0.998427, 65, 329, 96, 344
-0.998429, 337, 217, 368, 232
-0.99843, 341, 427, 372, 442
-0.998431, 305, 211, 368, 226
-0.998433, 317, 245, 348, 260
-0.998437, 73, 111, 104, 126
-0.998437, 21, 93, 52, 108
-0.99844, 193, 79, 224, 94
-0.998441, 221, 211, 252, 226
-0.998442, 281, 1, 312, 256
-0.998443, 305, 227, 368, 242
-0.998443, 285, 47, 316, 62
-0.998443, 273, 411, 336, 426
-0.998444, 317, 89, 348, 104
-0.998445, 345, 287, 375, 302
-0.998446, 221, 119, 252, 134
-0.998447, 305, 81, 368, 96
-0.998448, 293, 441, 324, 456
-0.998452, 249, 183, 280, 198
-0.998452, 69, 131, 100, 146
-0.998453, 45, 245, 76, 260
-0.998456, 245, 189, 276, 204
-0.998459, 297, 201, 328, 216
-0.998459, 281, 405, 312, 420
-0.99846, 177, 209, 304, 240
-0.99846, 157, 347, 188, 362
-0.998461, 297, 193, 360, 208
-0.998464, 57, 323, 88, 338
-0.998464, 197, 271, 228, 286
-0.998465, 185, 165, 216, 180
-0.998466, 73, 123, 104, 138
-0.998466, 341, 87, 372, 102
-0.998469, 329, 87, 360, 102
-0.99847, 261, 395, 292, 410
-0.99847, 37, 89, 68, 104
-0.99847, 333, 239, 364, 254
-0.998471, 9, 273, 72, 400
-0.998472, 301, 183, 332, 198
-0.998473, 29, 83, 60, 98
-0.998474, 317, 81, 348, 96
-0.998475, 329, 189, 360, 204
-0.998476, 313, 239, 375, 254
-0.998478, 117, 225, 148, 480
-0.998479, 301, 209, 332, 224
-0.998479, 305, 219, 336, 234
-0.998482, 1, 185, 128, 216
-0.998484, 345, 293, 375, 308
-0.998486, 85, 413, 116, 428
-0.998486, 241, 195, 272, 210
-0.998486, 57, 137, 88, 152
-0.998487, 321, 239, 352, 254
-0.998489, 177, 469, 304, 500
-0.99849, 305, 75, 368, 90
-0.998496, 341, 195, 372, 210
-0.998498, 313, 293, 375, 308
-0.998503, 317, 231, 348, 246
-0.998505, 345, 183, 375, 198
-0.998505, 65, 189, 192, 220
-0.998507, 25, 93, 88, 108
-0.998507, 281, 73, 344, 88
-0.998507, 153, 75, 216, 90
-0.998512, 313, 189, 344, 204
-0.998512, 17, 345, 144, 376
-0.998516, 305, 85, 336, 100
-0.998516, 345, 237, 375, 252
-0.998517, 301, 189, 332, 204
-0.998525, 161, 309, 288, 340
-0.998529, 333, 81, 364, 96
-0.99853, 65, 101, 128, 116
-0.998533, 25, 99, 88, 114
-0.998541, 305, 187, 368, 202
-0.998542, 313, 87, 375, 102
-0.99855, 257, 399, 320, 414
-0.998555, 65, 107, 128, 122
-0.998556, 25, 249, 88, 264
-0.998556, 65, 133, 128, 148
-0.998556, 65, 259, 128, 274
-0.998557, 305, 195, 336, 210
-0.99856, 289, 87, 352, 102
-0.99856, 41, 243, 104, 258
-0.998562, 333, 293, 364, 308
-0.998562, 313, 245, 375, 260
-0.998563, 257, 187, 320, 202
-0.998565, 217, 181, 280, 196
-0.998568, 65, 113, 128, 128
-0.99857, 65, 141, 128, 156
-0.998573, 65, 127, 128, 142
-0.998573, 65, 95, 128, 110
-0.998576, 65, 265, 128, 280
-0.998576, 177, 279, 240, 294
-0.998576, 313, 213, 344, 228
-0.998577, 17, 87, 80, 102
-0.998578, 257, 179, 320, 194
-0.998581, 185, 71, 248, 86
-0.998581, 281, 417, 344, 432
-0.998583, 305, 181, 368, 196
-0.998583, 25, 107, 88, 122
-0.998583, 309, 203, 340, 218
-0.998584, 57, 253, 120, 268
-0.998585, 317, 221, 348, 236
-0.998585, 289, 449, 352, 464
-0.998587, 281, 79, 344, 94
-0.998588, 273, 443, 336, 458
-0.998589, 225, 115, 288, 130
-0.998589, 333, 233, 364, 248
-0.998591, 113, 49, 176, 64
-0.998592, 233, 137, 296, 152
-0.998592, 281, 215, 344, 230
-0.998592, 233, 397, 296, 412
-0.998597, 209, 197, 272, 212
-0.998597, 185, 163, 248, 178
-0.998599, 313, 425, 375, 440
-0.998599, 161, 267, 224, 282
-0.998601, 329, 193, 344, 320
-0.998601, 225, 99, 288, 114
-0.998602, 193, 121, 256, 136
-0.998603, 25, 113, 88, 128
-0.998604, 233, 129, 296, 144
-0.998605, 273, 399, 304, 414
-0.998607, 289, 289, 352, 304
-0.998608, 129, 65, 160, 320
-0.998609, 233, 121, 296, 136
-0.998609, 233, 41, 296, 56
-0.998609, 89, 159, 152, 174
-0.99861, 313, 459, 375, 474
-0.99861, 141, 225, 172, 480
-0.998611, 257, 437, 320, 452
-0.998612, 169, 261, 232, 276
-0.998612, 185, 273, 248, 288
-0.998612, 169, 255, 232, 270
-0.998612, 41, 123, 104, 138
-0.998613, 313, 299, 375, 314
-0.998613, 201, 143, 264, 158
-0.998613, 65, 121, 128, 136
-0.998614, 225, 109, 288, 124
-0.998615, 233, 147, 296, 162
-0.998616, 25, 133, 88, 148
-0.998616, 273, 197, 336, 212
-0.998617, 193, 157, 256, 172
-0.998618, 297, 93, 360, 108
-0.998619, 265, 135, 328, 150
-0.99862, 153, 341, 184, 356
-0.99862, 185, 101, 248, 116
-0.99862, 201, 203, 264, 218
-0.998621, 129, 79, 192, 94
-0.998621, 297, 283, 360, 298
-0.998622, 57, 147, 120, 162
-0.998623, 161, 257, 192, 500
-0.998623, 241, 431, 304, 446
-0.998623, 113, 293, 176, 308
-0.998624, 57, 237, 120, 252
-0.998625, 257, 173, 320, 188
-0.998626, 325, 213, 356, 228
-0.998626, 241, 419, 304, 434
-0.998626, 57, 425, 120, 440
-0.998626, 93, 1, 124, 256
-0.998626, 177, 83, 240, 98
-0.998628, 9, 97, 40, 352
-0.99863, 281, 171, 344, 186
-0.998631, 281, 187, 344, 202
-0.998631, 177, 285, 240, 300
-0.998632, 145, 221, 208, 236
-0.998633, 265, 485, 328, 500
-0.998633, 81, 417, 144, 432
-0.998633, 289, 233, 352, 248
-0.998633, 73, 297, 136, 312
-0.998633, 233, 413, 296, 428
-0.998633, 209, 187, 272, 202
-0.998634, 41, 285, 104, 300
-0.998634, 57, 157, 120, 172
-0.998634, 209, 211, 272, 226
-0.998636, 281, 209, 344, 224
-0.998636, 129, 355, 192, 370
-0.998637, 17, 255, 80, 270
-0.998638, 321, 205, 352, 220
-0.998638, 281, 221, 344, 236
-0.998639, 145, 295, 208, 310
-0.998639, 209, 81, 272, 96
-0.99864, 121, 221, 184, 236
-0.99864, 265, 141, 328, 156
-0.998641, 193, 115, 256, 130
-0.998641, 317, 197, 348, 212
-0.998641, 89, 81, 152, 96
-0.998641, 233, 47, 296, 62
-0.998641, 25, 139, 88, 154
-0.998642, 177, 169, 240, 184
-0.998642, 153, 341, 216, 356
-0.998643, 113, 303, 176, 318
-0.998643, 273, 203, 336, 218
-0.998643, 57, 419, 120, 434
-0.998645, 17, 81, 80, 96
-0.998645, 233, 153, 296, 168
-0.998646, 57, 291, 120, 306
-0.998646, 193, 107, 256, 122
-0.998647, 1, 93, 64, 108
-0.998647, 49, 59, 112, 74
-0.998648, 41, 75, 104, 90
-0.998648, 185, 223, 248, 238
-0.998648, 329, 223, 360, 238
-0.998648, 193, 127, 256, 142
-0.998649, 177, 77, 240, 92
-0.998671, 321, 209, 336, 336
-0.998673, 145, 25, 272, 56
-0.99868, 1, 161, 128, 192
-0.998687, 1, 209, 128, 240
-0.998692, 293, 193, 324, 448
-0.998706, 313, 75, 344, 90
-0.998709, 241, 369, 368, 400
-0.998718, 225, 333, 352, 364
-0.99872, 315, 145, 330, 272
-0.998724, 335, 177, 350, 304
-0.998727, 241, 245, 368, 276
-0.998754, 161, 161, 192, 416
-0.998757, 325, 33, 356, 288
-0.998768, 117, 129, 148, 384
-0.998786, 309, 129, 324, 256
-0.998789, 229, 225, 260, 480
-0.9988, 343, 193, 358, 320
-0.998807, 303, 129, 318, 256
-0.998812, 57, 65, 72, 192
-0.998812, 113, 349, 240, 380
-0.998813, 313, 193, 328, 320
-0.998818, 21, 97, 52, 352
-0.998831, 229, 65, 244, 192
-0.998838, 351, 225, 366, 352
-0.998855, 225, 9, 352, 40
-0.998868, 67, 97, 82, 224
-0.99887, 89, 241, 104, 368
-0.998872, 323, 161, 338, 288
-0.998877, 1, 345, 256, 408
-0.998883, 51, 81, 66, 208
-0.99889, 81, 413, 208, 444
-0.998891, 233, 145, 248, 272
-0.9989, 193, 457, 320, 488
-0.998904, 161, 361, 288, 392
-0.99891, 359, 177, 374, 304
-0.99891, 177, 257, 208, 500
-0.998912, 157, 289, 172, 416
-0.998929, 117, 33, 148, 288
-0.99894, 287, 369, 302, 496
-0.998955, 81, 225, 96, 352
-0.998963, 111, 81, 126, 208
-0.998966, 95, 241, 110, 368
-0.998968, 93, 97, 108, 224
-0.998968, 65, 357, 192, 388
-0.998971, 293, 369, 308, 496
-0.998971, 69, 257, 84, 384
-0.998974, 141, 33, 172, 288
-0.998977, 79, 113, 94, 240
-0.998986, 325, 353, 340, 480
-0.998987, 303, 369, 318, 496
-0.998989, 161, 349, 288, 380
-0.998993, 345, 145, 360, 272
-0.998993, 329, 241, 344, 368
-0.999008, 301, 81, 316, 208
-0.99902, 63, 49, 78, 176
-0.999022, 241, 433, 368, 464
-0.999024, 145, 289, 160, 416
-0.999026, 43, 49, 58, 176
-0.999029, 305, 177, 320, 304
-0.999034, 59, 129, 74, 256
-0.999035, 335, 225, 350, 352
-0.999035, 127, 81, 142, 208
-0.999041, 127, 257, 142, 384
-0.999045, 117, 81, 132, 208
-0.999052, 1, 397, 128, 428
-0.999055, 73, 97, 88, 224
-0.999056, 1, 197, 128, 228
-0.999059, 223, 65, 238, 192
-0.999064, 323, 49, 338, 176
-0.999069, 49, 33, 176, 64
-0.999071, 1, 385, 128, 416
-0.999073, 217, 81, 232, 208
-0.999077, 135, 65, 150, 192
-0.999077, 295, 113, 310, 240
-0.999079, 99, 97, 114, 224
-0.999083, 87, 97, 102, 224
-0.999086, 261, 257, 292, 500
-0.999086, 333, 369, 348, 496
-0.999088, 165, 273, 180, 400
-0.99909, 73, 193, 88, 320
-0.999095, 115, 33, 130, 160
-0.999097, 129, 369, 256, 432
-0.999097, 315, 353, 330, 480
-0.999099, 241, 129, 256, 256
-0.9991, 353, 161, 368, 288
-0.999101, 21, 1, 52, 256
-0.999105, 17, 425, 144, 456
-0.999107, 81, 273, 96, 400
-0.999107, 101, 241, 116, 368
-0.999109, 235, 193, 250, 320
-0.999111, 343, 369, 358, 496
-0.999111, 105, 81, 120, 208
-0.999112, 309, 369, 324, 496
-0.999118, 151, 33, 166, 160
-0.999119, 125, 33, 140, 160
-0.99912, 281, 369, 296, 496
-0.999127, 75, 257, 90, 384
-0.999131, 227, 145, 242, 272
-0.999135, 49, 333, 176, 364
-0.999137, 139, 289, 154, 416
-0.999138, 157, 33, 172, 160
-0.999139, 151, 289, 166, 416
-0.999141, 225, 469, 352, 500
-0.999143, 29, 49, 44, 176
-0.999143, 143, 33, 158, 160
-0.999148, 81, 65, 96, 192
-0.999155, 315, 81, 330, 208
-0.999156, 109, 33, 124, 160
-0.999157, 107, 241, 122, 368
-0.999159, 133, 257, 148, 384
-0.99916, 165, 33, 180, 160
-0.99916, 171, 33, 186, 160
-0.999162, 71, 49, 86, 176
-0.999168, 181, 65, 212, 320
-0.99917, 87, 193, 102, 320
-0.999173, 301, 33, 316, 160
-0.999177, 349, 369, 364, 496
-0.999181, 237, 33, 252, 160
-0.999184, 149, 225, 164, 352
-0.999186, 355, 369, 370, 496
-0.999187, 307, 65, 322, 192
-0.999192, 113, 241, 128, 368
-0.999194, 161, 1, 288, 32
-0.999194, 329, 145, 344, 272
-0.999198, 37, 49, 52, 176
-0.999199, 97, 401, 224, 432
-0.999201, 351, 273, 366, 400
-0.999204, 211, 241, 226, 368
-0.999206, 33, 321, 160, 352
-0.999212, 323, 257, 338, 384
-0.999212, 79, 177, 94, 304
-0.999215, 67, 145, 82, 272
-0.999217, 281, 97, 312, 352
-0.999217, 219, 193, 234, 320
-0.99922, 143, 209, 158, 336
-0.999228, 361, 369, 375, 496
-0.999233, 121, 241, 136, 368
-0.999247, 63, 241, 78, 368
-0.999259, 89, 33, 104, 160
-0.999262, 235, 97, 250, 224
-0.999263, 103, 33, 118, 160
-0.999265, 343, 257, 358, 384
-0.999271, 155, 225, 170, 352
-0.999271, 361, 225, 375, 352
-0.999273, 119, 289, 134, 416
-0.999279, 297, 161, 312, 288
-0.99928, 113, 289, 128, 416
-0.999281, 149, 129, 180, 384
-0.999285, 305, 257, 336, 500
-0.999285, 175, 241, 190, 368
-0.999295, 51, 33, 66, 160
-0.999301, 145, 13, 272, 44
-0.999305, 321, 97, 336, 224
-0.999305, 357, 273, 372, 400
-0.999308, 57, 17, 72, 144
-0.99931, 93, 193, 108, 320
-0.999312, 217, 1, 248, 256
-0.999316, 271, 337, 286, 464
-0.999316, 257, 337, 272, 464
-0.999321, 9, 225, 40, 480
-0.99933, 177, 33, 192, 160
-0.999332, 97, 49, 112, 176
-0.999334, 337, 129, 352, 256
-0.999335, 15, 33, 30, 160
-0.999341, 137, 209, 152, 336
-0.999345, 189, 65, 204, 192
-0.999357, 135, 17, 150, 144
-0.999367, 169, 209, 184, 336
-0.999374, 283, 97, 298, 224
-0.999379, 329, 289, 344, 416
-0.999395, 67, 193, 82, 320
-0.999397, 131, 209, 146, 336
-0.999398, 187, 257, 202, 384
-0.9994, 289, 97, 304, 224
-0.999409, 241, 161, 272, 416
-0.999415, 1, 1, 32, 256
-0.999425, 97, 381, 224, 412
-0.999457, 113, 321, 240, 384
-0.999554, 1, 369, 256, 432
-0.999568, 33, 393, 288, 456
-0.999571, 337, 33, 368, 288
-0.999578, 349, 319, 364, 334
-0.999579, 163, 297, 178, 312
-0.999579, 303, 87, 318, 102
-0.999579, 59, 141, 74, 156
-0.999581, 271, 407, 286, 422
-0.999582, 91, 293, 106, 308
-0.999583, 307, 145, 322, 160
-0.999583, 31, 83, 46, 98
-0.999584, 297, 121, 312, 136
-0.999584, 325, 183, 340, 198
-0.999584, 149, 345, 164, 360
-0.999585, 21, 93, 36, 108
-0.999585, 189, 165, 204, 180
-0.999585, 355, 181, 370, 196
-0.999585, 131, 87, 146, 102
-0.999586, 197, 73, 212, 88
-0.999586, 79, 285, 94, 300
-0.999587, 241, 119, 256, 134
-0.999587, 203, 169, 218, 184
-0.999589, 245, 211, 260, 226
-0.999589, 69, 337, 84, 352
-0.999589, 285, 433, 300, 448
-0.99959, 361, 245, 375, 260
-0.999591, 175, 291, 190, 306
-0.999591, 291, 437, 306, 452
-0.999593, 77, 119, 92, 134
-0.999593, 173, 341, 188, 356
-0.999594, 227, 231, 242, 246
-0.999594, 281, 401, 296, 416
-0.999598, 85, 289, 100, 304
-0.999598, 267, 401, 282, 416
-0.999598, 361, 275, 375, 290
-0.999598, 295, 179, 310, 194
-0.999599, 361, 195, 375, 210
-0.999599, 319, 191, 334, 206
-0.9996, 217, 245, 232, 260
-0.9996, 293, 115, 308, 130
-0.9996, 203, 75, 218, 90
-0.9996, 353, 295, 368, 310
-0.999601, 189, 279, 204, 294
-0.999601, 43, 81, 58, 96
-0.999602, 223, 237, 238, 252
-0.999602, 329, 215, 344, 230
-0.999602, 1, 425, 256, 488
-0.999604, 59, 315, 74, 330
-0.999606, 231, 213, 246, 228
-0.999606, 331, 223, 346, 238
-0.999607, 335, 291, 350, 306
-0.999607, 239, 207, 254, 222
-0.999608, 327, 297, 342, 312
-0.999609, 215, 83, 230, 98
-0.999609, 157, 1, 188, 256
-0.99961, 97, 429, 112, 444
-0.999611, 361, 289, 375, 304
-0.999612, 67, 147, 82, 162
-0.999612, 361, 189, 375, 204
-0.999613, 299, 129, 314, 144
-0.999614, 341, 225, 356, 240
-0.999615, 351, 287, 366, 302
-0.999615, 217, 89, 232, 104
-0.999618, 263, 395, 278, 410
-0.999618, 309, 79, 324, 94
-0.999618, 73, 125, 88, 140
-0.99962, 257, 179, 272, 194
-0.99962, 333, 251, 348, 266
-0.999621, 297, 185, 312, 200
-0.999622, 325, 205, 340, 220
-0.999623, 239, 201, 254, 216
-0.999624, 297, 51, 312, 66
-0.999625, 323, 91, 338, 106
-0.999625, 63, 135, 78, 150
-0.999626, 211, 241, 226, 256
-0.999626, 281, 257, 312, 500
-0.999628, 329, 87, 344, 102
-0.999629, 161, 347, 176, 362
-0.999634, 239, 113, 254, 128
-0.999634, 347, 235, 362, 250
-0.999636, 329, 189, 344, 204
-0.999636, 217, 235, 232, 250
-0.999637, 167, 347, 182, 362
-0.999639, 321, 197, 336, 212
-0.999639, 167, 337, 182, 352
-0.999642, 71, 323, 86, 338
-0.999644, 45, 257, 76, 500
-0.999644, 341, 291, 356, 306
-0.999646, 203, 269, 218, 284
-0.999647, 155, 339, 170, 354
-0.999647, 25, 87, 40, 102
-0.999649, 257, 1, 288, 256
-0.99965, 335, 83, 350, 98
-0.99965, 313, 85, 328, 100
-0.99965, 353, 241, 368, 256
-0.999651, 249, 191, 264, 206
-0.999652, 347, 223, 362, 238
-0.999654, 329, 245, 344, 260
-0.999658, 269, 177, 284, 192
-0.999661, 325, 73, 340, 88
-0.999661, 223, 223, 238, 238
-0.999661, 301, 179, 316, 194
-0.999661, 319, 221, 334, 236
-0.999662, 69, 131, 84, 146
-0.999663, 269, 393, 284, 408
-0.999664, 307, 191, 322, 206
-0.999664, 91, 417, 106, 432
-0.999665, 65, 323, 80, 338
-0.999665, 221, 229, 236, 244
-0.999667, 97, 417, 112, 432
-0.99967, 317, 215, 332, 230
-0.999675, 33, 225, 64, 480
-0.999676, 331, 195, 346, 210
-0.999677, 321, 227, 336, 242
-0.999677, 325, 235, 340, 250
-0.999677, 309, 199, 324, 214
-0.999678, 313, 207, 328, 222
-0.999681, 333, 201, 348, 216
-0.999685, 353, 229, 368, 244
-0.999686, 155, 351, 170, 366
-0.999688, 95, 411, 110, 426
-0.99969, 65, 317, 80, 332
-0.99969, 347, 293, 362, 308
-0.999691, 339, 213, 354, 228
-0.999691, 1, 257, 64, 500
-0.999691, 335, 207, 350, 222
-0.999692, 359, 239, 374, 254
-0.999692, 303, 185, 318, 200
-0.999692, 263, 183, 278, 198
-0.999692, 241, 257, 272, 500
-0.999702, 67, 329, 82, 344
-0.999715, 275, 397, 290, 412
-0.99972, 243, 195, 258, 210
-0.999722, 319, 73, 334, 88
-0.999723, 91, 423, 106, 438
-0.999728, 353, 235, 368, 250
-0.999734, 347, 229, 362, 244
-0.999736, 341, 219, 356, 234
-0.999744, 169, 33, 200, 288
-0.999751, 155, 345, 170, 360
-0.999758, 145, 425, 272, 488
-0.999763, 253, 185, 268, 200
-0.999789, 161, 341, 176, 356
-0.999869, 193, 1, 224, 256
-0.999963, 21, 193, 52, 448
-1.00004, 269, 97, 300, 352
-1.00008, 97, 433, 224, 496
-1.00009, 253, 129, 284, 384
-1.0002, 81, 1, 208, 64
-1.00085, 49, 433, 176, 496
-1.00159, 145, 353, 208, 480
-1.0036, 1, 353, 64, 480
-1.00441, 169, 321, 232, 448
-1.00444, 225, 241, 288, 368
-1.00617, 25, 369, 88, 496
