1962
-0.255354, 1, 1, 500, 375
-0.282734, 1, 65, 500, 320
-0.341641, 1, 1, 256, 375
-0.408766, 129, 1, 384, 375
-0.4514, 225, 1, 480, 375
-0.504045, 193, 129, 448, 375
-0.511875, 97, 129, 352, 375
-0.545327, 1, 33, 256, 288
-0.574438, 1, 129, 256, 375
-0.616921, 161, 1, 416, 256
-0.640973, 257, 1, 500, 256
-0.816653, 289, 97, 416, 352
-0.824606, 225, 129, 352, 375
-0.826128, 177, 129, 304, 375
-0.827667, 97, 129, 224, 375
-0.831412, 337, 97, 464, 352
-0.833164, 1, 97, 128, 352
-0.839788, 1, 1, 128, 375
-0.845597, 321, 1, 448, 375
-0.846985, 49, 1, 176, 375
-0.847426, 273, 1, 400, 375
-0.850723, 161, 1, 288, 375
-0.850993, 49, 97, 176, 352
-0.85102, 1, 65, 500, 192
-0.85566, 81, 1, 208, 256
-0.856519, 113, 1, 240, 375
-0.861593, 289, 1, 416, 256
-0.864618, 1, 145, 500, 272
-0.864776, 369, 1, 496, 375
-0.866157, 1, 209, 500, 336
-0.866719, 17, 1, 144, 256
-0.866794, 209, 33, 336, 288
-0.867364, 225, 1, 352, 375
-0.876583, 129, 33, 256, 288
-0.877932, 337, 1, 464, 256
-0.888107, 33, 225, 288, 352
-0.898705, 97, 129, 352, 256
-0.899054, 193, 193, 448, 320
-0.899161, 97, 177, 352, 304
-0.900492, 1, 17, 500, 144
-0.901969, 1, 129, 256, 256
-0.902873, 257, 113, 500, 240
-0.906075, 129, 241, 384, 368
-0.910773, 1, 177, 256, 304
-0.916669, 305, 113, 368, 240
-0.917042, 49, 177, 176, 304
-0.918142, 257, 209, 384, 336
-0.919737, 97, 81, 352, 208
-0.920838, 49, 145, 112, 272
-0.9216, 289, 129, 416, 256
-0.921717, 129, 161, 256, 288
-0.922155, 257, 65, 500, 192
-0.922515, 209, 177, 336, 304
-0.922686, 209, 241, 336, 368
-0.922803, 1, 193, 128, 320
-0.927748, 353, 97, 480, 224
-0.927964, 49, 241, 176, 368
-0.928232, 65, 193, 128, 320
-0.928368, 1, 145, 64, 272
-0.928795, 289, 209, 352, 336
-0.929278, 97, 225, 224, 352
-0.929392, 385, 97, 448, 224
-0.929464, 105, 145, 168, 272
-0.92967, 225, 241, 480, 368
-0.930013, 161, 33, 416, 160
-0.930857, 1, 145, 128, 272
-0.931058, 81, 113, 208, 240
-0.931253, 137, 129, 200, 256
-0.93171, 241, 177, 304, 304
-0.932597, 1, 65, 256, 192
-0.933085, 209, 129, 336, 256
-0.933558, 361, 97, 424, 224
-0.934157, 73, 145, 136, 272
-0.934309, 25, 177, 88, 304
-0.934424, 305, 193, 432, 320
-0.935168, 145, 209, 272, 336
-0.935947, 145, 225, 208, 352
-0.936138, 89, 241, 152, 368
-0.936647, 113, 209, 176, 336
-0.937349, 345, 161, 408, 288
-0.937713, 337, 145, 464, 272
-0.937988, 217, 241, 280, 368
-0.940251, 265, 161, 328, 288
-0.940874, 1, 17, 256, 144
-0.941144, 25, 225, 88, 352
-0.94134, 265, 209, 328, 336
-0.942006, 129, 113, 256, 240
-0.942203, 433, 129, 496, 256
-0.942301, 201, 193, 264, 320
-0.942849, 177, 129, 240, 256
-0.94403, 329, 97, 392, 224
-0.946136, 73, 65, 136, 192
-0.946197, 137, 153, 200, 216
-0.94628, 321, 241, 448, 368
-0.946669, 57, 153, 120, 216
-0.946789, 433, 65, 496, 192
-0.94706, 409, 113, 472, 240
-0.947495, 257, 49, 384, 176
-0.947668, 89, 153, 152, 216
-0.948225, 25, 249, 88, 312
-0.948314, 113, 241, 176, 304
-0.948326, 193, 241, 256, 368
-0.948651, 153, 177, 216, 304
-0.948831, 393, 105, 456, 168
-0.949257, 33, 161, 96, 224
-0.949386, 49, 65, 176, 192
-0.949461, 281, 225, 344, 288
-0.949806, 209, 65, 336, 192
-0.949811, 257, 17, 500, 144
-0.949981, 353, 193, 480, 320
-0.950067, 289, 249, 352, 312
-0.950453, 1, 161, 64, 224
-0.950496, 393, 169, 456, 232
-0.950508, 1, 241, 64, 368
-0.950566, 297, 161, 360, 288
-0.950685, 241, 241, 304, 368
-0.950807, 1, 241, 128, 368
-0.950871, 97, 177, 160, 240
-0.951063, 249, 233, 312, 296
-0.951198, 209, 145, 272, 272
-0.951446, 57, 209, 120, 272
-0.951752, 321, 113, 384, 176
-0.951835, 25, 185, 88, 248
-0.952325, 233, 129, 296, 256
-0.952485, 121, 129, 184, 192
-0.952866, 105, 81, 168, 208
-0.95328, 305, 97, 368, 352
-0.953333, 25, 129, 88, 256
-0.953456, 305, 177, 368, 240
-0.953474, 57, 185, 120, 248
-0.95378, 353, 169, 416, 232
-0.953938, 361, 105, 424, 168
-0.954093, 329, 209, 392, 336
-0.954119, 1, 193, 64, 320
-0.954357, 289, 1, 352, 128
-0.954516, 1, 193, 64, 256
-0.954546, 321, 49, 384, 176
-0.954645, 145, 201, 208, 264
-0.954664, 369, 49, 496, 176
-0.954665, 217, 313, 280, 375
-0.954692, 97, 17, 224, 144
-0.954781, 345, 49, 408, 176
-0.954828, 177, 177, 240, 304
-0.954898, 241, 1, 368, 128
-0.955187, 409, 145, 472, 208
-0.955656, 393, 161, 456, 288
-0.955679, 113, 65, 240, 192
-0.955812, 209, 209, 272, 272
-0.956319, 1, 249, 64, 312
-0.95659, 433, 153, 496, 216
-0.956832, 89, 257, 152, 320
-0.95714, 353, 145, 416, 208
-0.957252, 89, 193, 152, 320
-0.957718, 65, 241, 128, 368
-0.957936, 65, 281, 128, 344
-0.958206, 137, 81, 200, 208
-0.958514, 185, 217, 248, 280
-0.958656, 169, 137, 232, 200
-0.958686, 57, 233, 120, 296
-0.958691, 305, 49, 432, 176
-0.958696, 369, 81, 432, 144
-0.958912, 113, 209, 176, 272
-0.959049, 217, 249, 280, 312
-0.959231, 185, 281, 248, 344
-0.959268, 297, 129, 360, 192
-0.959528, 265, 145, 328, 208
-0.959587, 409, 49, 472, 176
-0.959589, 81, 209, 144, 272
-0.959632, 145, 97, 208, 352
-0.959808, 25, 217, 88, 280
-0.95996, 433, 129, 496, 192
-0.960408, 369, 241, 496, 368
-0.96056, 145, 265, 208, 328
-0.961021, 1, 97, 64, 224
-0.961119, 297, 49, 360, 176
-0.961147, 257, 113, 320, 240
-0.961208, 161, 65, 288, 192
-0.961511, 105, 17, 168, 144
-0.961541, 113, 153, 176, 216
-0.961568, 377, 137, 440, 200
-0.96192, 305, 225, 368, 288
-0.962022, 249, 201, 312, 264
-0.962204, 153, 233, 216, 296
-0.962266, 337, 1, 464, 128
-0.962292, 209, 289, 272, 352
-0.962451, 169, 225, 232, 352
-0.962503, 433, 177, 496, 304
-0.962618, 361, 97, 424, 352
-0.962699, 433, 97, 496, 160
-0.96285, 89, 129, 152, 192
-0.962878, 233, 273, 296, 336
-0.963176, 25, 273, 88, 336
-0.963291, 105, 281, 168, 344
-0.963377, 281, 113, 344, 240
-0.963464, 17, 129, 80, 375
-0.963902, 225, 185, 288, 248
-0.964074, 113, 129, 176, 375
-0.964321, 193, 1, 320, 128
-0.964348, 345, 193, 408, 256
-0.964364, 49, 129, 112, 375
-0.96458, 33, 217, 160, 280
-0.964634, 137, 177, 200, 240
-0.964698, 105, 1, 168, 256
-0.964762, 361, 265, 424, 328
-0.964862, 81, 161, 208, 224
-0.964903, 17, 1, 144, 128
-0.964959, 393, 97, 456, 352
-0.965279, 305, 1, 368, 64
-0.965358, 265, 49, 328, 176
-0.965358, 329, 145, 392, 208
-0.965483, 329, 281, 392, 344
-0.965686, 73, 129, 136, 375
-0.965742, 81, 145, 112, 272
-0.965801, 361, 97, 392, 224
-0.96585, 241, 129, 304, 375
-0.965857, 377, 49, 440, 176
-0.965903, 1, 153, 128, 216
-0.965909, 289, 1, 416, 128
-0.965952, 145, 129, 208, 192
-0.965958, 169, 193, 232, 256
-0.966065, 361, 241, 424, 368
-0.966286, 177, 97, 240, 352
-0.966336, 1, 81, 128, 208
-0.966344, 177, 257, 240, 320
-0.966443, 289, 129, 416, 192
-0.966523, 345, 81, 408, 144
-0.96669, 201, 81, 264, 208
-0.966808, 193, 145, 256, 208
-0.96686, 281, 129, 344, 375
-0.966894, 273, 201, 336, 264
-0.967081, 193, 313, 256, 375
-0.967235, 1, 177, 128, 240
-0.967261, 225, 233, 352, 296
-0.967328, 209, 129, 272, 375
-0.967404, 293, 217, 324, 280
-0.967414, 241, 297, 304, 360
-0.967473, 77, 153, 108, 216
-0.967796, 89, 313, 152, 375
-0.967887, 337, 97, 400, 352
-0.967908, 409, 1, 472, 128
-0.967921, 49, 145, 80, 272
-0.967924, 209, 201, 336, 264
-0.968097, 265, 177, 328, 240
-0.968124, 49, 153, 80, 216
-0.968136, 161, 81, 224, 208
-0.968179, 293, 177, 324, 304
-0.968361, 417, 177, 480, 240
-0.968387, 57, 193, 88, 256
-0.968404, 329, 249, 392, 312
-0.968577, 25, 65, 88, 192
-0.968592, 129, 161, 256, 224
-0.968599, 289, 273, 352, 336
-0.968701, 289, 161, 416, 224
-0.968729, 273, 225, 400, 288
-0.968779, 69, 129, 100, 256
-0.968826, 337, 153, 464, 216
-0.969172, 73, 1, 136, 128
-0.9692, 117, 225, 148, 352
-0.969259, 257, 265, 384, 328
-0.969351, 25, 137, 88, 200
-0.969434, 117, 249, 148, 312
-0.969454, 321, 161, 384, 288
-0.969468, 145, 201, 272, 264
-0.96953, 49, 185, 176, 248
-0.96953, 297, 201, 360, 264
-0.969666, 73, 81, 136, 144
-0.969703, 177, 233, 304, 296
-0.969752, 1, 33, 64, 288
-0.969906, 337, 105, 464, 168
-0.969924, 385, 73, 416, 136
-0.96997, 425, 241, 488, 368
-0.969983, 97, 233, 224, 296
-0.970051, 233, 161, 296, 224
-0.970058, 209, 137, 336, 200
-0.970086, 137, 1, 200, 128
-0.970104, 149, 113, 180, 240
-0.970161, 81, 1, 144, 256
-0.970222, 161, 1, 224, 128
-0.970306, 401, 265, 464, 328
-0.970493, 137, 193, 168, 320
-0.970581, 281, 17, 344, 80
-0.970635, 385, 209, 448, 336
-0.97083, 361, 113, 392, 176
-0.970854, 1, 217, 64, 280
-0.970878, 145, 1, 272, 128
-0.970965, 381, 81, 412, 208
-0.970979, 337, 129, 464, 192
-0.971035, 1, 273, 64, 336
-0.971102, 1, 249, 128, 312
-0.971213, 289, 201, 416, 264
-0.971243, 105, 225, 136, 352
-0.971319, 369, 177, 496, 240
-0.971373, 425, 265, 488, 328
-0.971393, 461, 113, 492, 240
-0.971407, 49, 97, 112, 224
-0.971416, 81, 137, 208, 200
-0.971606, 25, 177, 56, 304
-0.971624, 429, 161, 460, 224
-0.971648, 49, 217, 80, 280
-0.971725, 13, 153, 44, 216
-0.97178, 65, 57, 128, 120
-0.971783, 49, 241, 176, 304
-0.971786, 13, 129, 44, 256
-0.972021, 409, 57, 472, 120
-0.972077, 25, 73, 88, 136
-0.972084, 105, 225, 136, 288
-0.972175, 393, 193, 456, 256
-0.972259, 129, 137, 256, 200
-0.972261, 9, 305, 72, 368
-0.972266, 25, 257, 56, 320
-0.97233, 45, 241, 76, 304
-0.972499, 193, 169, 256, 232
-0.972504, 33, 33, 96, 288
-0.972653, 137, 209, 168, 272
-0.972658, 93, 177, 124, 304
-0.972775, 49, 129, 112, 192
-0.972886, 305, 153, 368, 216
-0.972918, 177, 257, 304, 320
-0.972924, 65, 257, 128, 320
-0.972944, 361, 169, 392, 232
-0.972948, 117, 225, 148, 288
-0.973066, 445, 129, 476, 256
-0.973077, 409, 81, 440, 208
-0.973171, 393, 81, 456, 144
-0.973173, 97, 273, 224, 336
-0.97318, 337, 217, 400, 280
-0.973244, 393, 97, 424, 224
-0.973267, 237, 145, 268, 272
-0.973279, 377, 1, 440, 256
-0.973283, 421, 97, 452, 224
-0.973342, 117, 145, 148, 208
-0.97347, 73, 193, 104, 256
-0.973484, 265, 257, 328, 320
-0.973506, 337, 1, 400, 256
-0.973532, 97, 193, 224, 256
-0.973613, 65, 193, 96, 320
-0.97362, 5, 209, 36, 336
-0.973646, 25, 241, 56, 368
-0.973723, 449, 153, 480, 216
-0.973735, 1, 193, 32, 256
-0.973807, 49, 209, 80, 336
-0.973828, 169, 169, 232, 232
-0.973842, 401, 225, 464, 288
-0.973878, 313, 129, 344, 192
-0.9739, 1, 137, 64, 200
-0.973974, 33, 161, 64, 224
-0.97399, 333, 113, 364, 176
-0.973994, 1, 161, 32, 224
-0.974058, 61, 169, 92, 232
-0.974083, 165, 161, 196, 288
-0.974103, 313, 1, 376, 128
-0.974182, 241, 177, 368, 240
-0.974244, 425, 241, 488, 304
-0.97432, 249, 241, 280, 368
-0.974349, 357, 145, 388, 272
-0.974379, 265, 33, 328, 288
-0.974419, 221, 241, 252, 368
-0.97462, 357, 145, 388, 208
-0.97469, 425, 201, 488, 264
-0.974726, 433, 129, 496, 375
-0.974785, 17, 281, 144, 344
-0.974807, 389, 105, 420, 168
-0.974809, 129, 137, 160, 200
-0.974809, 237, 209, 268, 336
-0.974812, 1, 145, 32, 272
-0.974864, 369, 89, 400, 152
-0.974883, 401, 81, 432, 144
-0.974989, 221, 289, 252, 352
-0.97503, 433, 129, 464, 256
-0.975041, 461, 105, 492, 168
-0.975068, 337, 97, 368, 224
-0.975086, 13, 257, 44, 320
-0.975094, 461, 65, 492, 192
-0.975156, 305, 209, 336, 336
-0.975293, 309, 113, 340, 240
-0.975307, 305, 1, 368, 256
-0.975513, 321, 257, 448, 320
-0.975523, 117, 129, 148, 256
-0.975687, 141, 129, 172, 192
-0.975714, 381, 145, 412, 208
-0.97586, 89, 233, 152, 296
-0.975961, 285, 129, 316, 256
-0.975967, 129, 129, 160, 256
-0.976008, 161, 161, 192, 224
-0.976021, 101, 129, 132, 256
-0.976037, 137, 241, 168, 304
-0.976056, 225, 201, 256, 264
-0.976082, 349, 97, 380, 224
-0.976086, 57, 33, 120, 288
-0.976164, 89, 57, 152, 120
-0.976204, 129, 1, 192, 256
-0.976205, 13, 225, 44, 288
-0.976209, 425, 33, 488, 288
-0.976254, 89, 209, 120, 272
-0.976259, 281, 209, 312, 336
-0.976289, 265, 1, 328, 128
-0.976295, 293, 225, 324, 352
-0.976307, 65, 217, 96, 280
-0.976352, 321, 225, 448, 288
-0.976406, 45, 185, 76, 248
-0.976454, 225, 137, 288, 200
-0.976461, 113, 57, 176, 120
-0.976557, 37, 217, 68, 280
-0.976587, 237, 225, 268, 288
-0.976597, 213, 209, 244, 272
-0.976599, 157, 209, 188, 272
-0.976658, 369, 145, 432, 272
-0.976712, 177, 161, 304, 224
-0.97692, 461, 145, 492, 208
-0.976949, 177, 281, 304, 344
-0.976965, 25, 185, 56, 248
-0.976966, 149, 225, 180, 352
-0.97699, 369, 289, 432, 352
-0.976995, 377, 241, 440, 304
-0.977205, 297, 105, 360, 168
-0.977293, 141, 153, 172, 216
-0.977326, 105, 249, 136, 312
-0.977363, 177, 177, 208, 304
-0.977382, 425, 25, 488, 88
-0.977477, 61, 129, 92, 192
-0.97748, 169, 113, 232, 176
-0.977482, 369, 145, 400, 208
-0.977484, 305, 281, 432, 344
-0.977549, 113, 305, 176, 368
-0.977573, 81, 193, 112, 320
-0.977649, 401, 289, 464, 352
-0.977714, 221, 193, 252, 320
-0.977855, 309, 233, 340, 296
-0.977857, 221, 313, 252, 375
-0.977924, 17, 17, 80, 144
-0.977944, 265, 121, 328, 184
-0.978022, 369, 257, 496, 320
-0.978028, 369, 193, 432, 256
-0.978146, 321, 49, 352, 176
-0.978192, 177, 305, 304, 368
-0.978274, 401, 161, 432, 224
-0.978275, 345, 105, 376, 168
-0.978325, 237, 145, 268, 208
-0.978334, 337, 201, 464, 264
-0.978338, 269, 177, 300, 304
-0.97835, 41, 297, 104, 360
-0.978406, 337, 209, 368, 336
-0.978517, 105, 89, 168, 152
-0.978626, 185, 129, 216, 256
-0.978636, 441, 177, 472, 240
-0.978686, 445, 49, 476, 176
-0.978704, 461, 169, 492, 232
-0.978714, 265, 289, 328, 352
-0.978732, 225, 289, 352, 352
-0.978748, 217, 17, 280, 144
-0.978928, 97, 177, 128, 240
-0.978986, 329, 169, 392, 232
-0.979063, 293, 241, 324, 304
-0.979092, 309, 161, 340, 224
-0.979102, 417, 161, 448, 224
-0.979121, 321, 257, 352, 320
-0.979147, 361, 1, 424, 128
-0.979153, 449, 113, 480, 176
-0.979252, 241, 65, 304, 192
-0.979274, 305, 185, 336, 248
-0.979276, 313, 1, 376, 375
-0.979284, 201, 217, 232, 280
-0.979342, 265, 313, 328, 375
-0.979394, 237, 313, 268, 375
-0.979466, 149, 161, 180, 288
-0.979577, 305, 25, 368, 88
-0.979658, 317, 225, 348, 352
-0.979661, 217, 129, 248, 256
-0.979675, 129, 105, 192, 168
-0.979725, 201, 145, 232, 272
-0.979735, 97, 25, 160, 88
-0.979767, 289, 193, 320, 256
-0.979785, 145, 289, 208, 352
-0.979838, 321, 305, 384, 368
-0.979844, 169, 193, 200, 256
-0.979937, 157, 137, 188, 200
-0.980039, 437, 193, 468, 320
-0.980063, 217, 41, 280, 104
-0.980071, 85, 185, 116, 248
-0.980107, 189, 217, 220, 280
-0.980138, 161, 233, 192, 296
-0.98016, 429, 137, 460, 200
-0.980164, 161, 113, 192, 240
-0.980203, 257, 177, 288, 304
-0.980225, 209, 241, 240, 304
-0.980322, 89, 153, 120, 216
-0.980356, 113, 65, 240, 128
-0.980374, 17, 57, 144, 120
-0.98039, 37, 241, 68, 368
-0.980444, 161, 113, 288, 176
-0.980445, 217, 153, 248, 216
-0.980488, 237, 289, 268, 352
-0.980495, 169, 305, 232, 368
-0.980517, 97, 65, 128, 192
-0.980537, 289, 265, 320, 328
-0.980547, 225, 225, 256, 288
-0.980559, 417, 97, 448, 160
-0.980576, 281, 1, 344, 375
-0.980612, 129, 297, 256, 360
-0.980671, 201, 121, 264, 184
-0.980752, 37, 177, 68, 304
-0.980756, 289, 105, 416, 168
-0.980791, 85, 281, 116, 344
-0.980811, 209, 265, 240, 328
-0.980827, 177, 65, 240, 128
-0.980852, 433, 17, 496, 144
-0.980869, 17, 81, 144, 144
-0.980875, 249, 313, 280, 375
-0.980894, 181, 129, 212, 192
-0.980928, 373, 129, 404, 256
-0.980985, 305, 81, 432, 144
-0.980994, 181, 193, 212, 256
-0.981008, 57, 1, 120, 375
-0.981008, 5, 81, 36, 208
-0.981014, 401, 1, 464, 256
-0.981051, 241, 313, 368, 375
-0.981052, 373, 169, 404, 232
-0.981095, 241, 113, 368, 176
-0.981151, 373, 121, 404, 184
-0.981157, 257, 9, 320, 72
-0.981157, 25, 41, 88, 104
-0.98116, 197, 273, 228, 336
-0.981165, 209, 241, 240, 368
-0.981239, 101, 153, 132, 216
-0.981246, 113, 89, 240, 152
-0.981378, 309, 161, 340, 288
-0.981383, 321, 225, 352, 288
-0.981447, 137, 185, 168, 248
-0.981483, 217, 33, 280, 288
-0.981487, 125, 177, 156, 304
-0.981503, 109, 81, 140, 208
-0.981548, 353, 81, 480, 144
-0.981573, 197, 209, 228, 336
-0.981657, 461, 49, 492, 112
-0.981662, 37, 129, 68, 256
-0.981693, 133, 289, 164, 352
-0.981705, 265, 297, 296, 360
-0.981763, 129, 241, 160, 368
-0.981771, 237, 169, 268, 232
-0.981787, 289, 145, 320, 208
-0.981804, 153, 185, 184, 248
-0.981809, 321, 1, 352, 128
-0.981813, 401, 105, 432, 168
-0.981832, 13, 281, 44, 344
-0.981832, 273, 129, 304, 256
-0.981836, 241, 33, 304, 288
-0.981902, 37, 265, 68, 328
-0.981962, 1, 265, 32, 328
-0.981977, 201, 65, 232, 192
-0.981998, 1, 217, 32, 280
-0.982118, 153, 1, 216, 375
-0.982121, 49, 265, 80, 328
-0.982127, 177, 1, 240, 375
-0.982203, 337, 1, 400, 128
-0.982227, 169, 129, 200, 192
-0.982234, 1, 1, 64, 375
-0.982247, 237, 193, 268, 256
-0.982308, 25, 281, 56, 344
-0.982313, 349, 193, 380, 320
-0.982314, 345, 129, 376, 192
-0.982318, 341, 273, 372, 336
-0.98232, 13, 177, 44, 240
-0.982363, 97, 1, 160, 375
-0.98237, 121, 81, 152, 208
-0.982421, 33, 305, 160, 368
-0.982587, 257, 1, 384, 64
-0.982612, 241, 249, 272, 312
-0.982622, 97, 273, 128, 336
-0.982662, 353, 281, 480, 344
-0.982741, 25, 1, 88, 375
-0.982746, 25, 129, 56, 256
-0.982782, 133, 81, 164, 208
-0.982878, 369, 225, 496, 288
-0.98303, 73, 65, 104, 192
-0.983065, 169, 1, 232, 256
-0.983076, 257, 1, 320, 375
-0.983093, 273, 241, 304, 304
-0.983182, 149, 233, 180, 296
-0.9832, 337, 1, 400, 375
-0.983217, 129, 161, 160, 224
-0.983251, 117, 17, 148, 144
-0.98329, 181, 225, 212, 352
-0.983313, 309, 49, 340, 176
-0.983337, 353, 57, 480, 120
-0.98335, 241, 25, 368, 88
-0.983419, 209, 193, 240, 320
-0.983447, 93, 241, 124, 368
-0.983491, 253, 273, 284, 336
-0.983532, 117, 121, 148, 184
-0.983557, 381, 177, 412, 304
-0.983603, 445, 201, 476, 264
-0.983633, 49, 17, 112, 144
-0.983656, 221, 249, 252, 312
-0.983673, 393, 49, 424, 176
-0.983676, 65, 289, 96, 352
-0.983719, 341, 49, 372, 176
-0.983744, 57, 81, 88, 208
-0.983759, 449, 177, 480, 304
-0.983775, 273, 201, 304, 264
-0.983788, 301, 1, 332, 128
-0.983806, 389, 177, 420, 240
-0.983881, 109, 177, 140, 304
-0.983906, 25, 233, 56, 296
-0.983947, 81, 297, 208, 360
-0.983961, 161, 209, 192, 336
-0.98398, 393, 1, 456, 375
-0.984044, 13, 129, 44, 192
-0.984151, 65, 113, 192, 176
-0.984173, 145, 273, 176, 336
-0.984175, 433, 1, 496, 375
-0.98418, 429, 113, 460, 176
-0.984228, 461, 81, 492, 144
-0.984283, 353, 33, 480, 96
-0.984324, 129, 1, 192, 375
-0.984475, 65, 241, 96, 368
-0.984481, 213, 129, 244, 192
-0.984537, 297, 129, 328, 256
-0.984587, 13, 201, 44, 264
-0.984667, 321, 1, 448, 64
-0.984791, 65, 57, 192, 120
-0.984918, 385, 1, 448, 128
-0.985215, 369, 1, 432, 375
-0.985342, 369, 49, 400, 176
-0.985358, 193, 65, 320, 128
-0.985427, 209, 1, 336, 64
-0.985642, 225, 1, 288, 375
-0.985824, 65, 81, 192, 144
-0.985832, 213, 81, 244, 208
-0.98593, 241, 1, 304, 128
-0.986084, 173, 113, 204, 240
-0.986201, 113, 1, 240, 64
-0.986243, 49, 1, 176, 64
-0.986291, 421, 33, 452, 160
-0.986477, 177, 25, 304, 88
-0.986488, 261, 129, 292, 256
-0.986535, 113, 113, 240, 176
-0.98655, 461, 161, 492, 288
-0.986629, 33, 33, 160, 96
-0.986644, 261, 241, 292, 368
-0.986764, 321, 305, 448, 368
-0.986903, 421, 145, 452, 272
-0.986942, 1, 129, 128, 192
-0.986957, 169, 1, 200, 128
-0.986961, 185, 1, 248, 128
-0.987054, 321, 177, 352, 304
-0.987176, 321, 113, 352, 240
-0.987188, 465, 17, 496, 144
-0.987223, 241, 57, 368, 120
-0.987243, 425, 193, 456, 320
-0.987378, 193, 1, 256, 256
-0.987806, 293, 49, 324, 176
-0.987917, 201, 1, 264, 375
-0.987934, 257, 121, 500, 184
-0.987994, 249, 129, 280, 256
-0.988122, 329, 113, 392, 144
-0.988214, 57, 161, 120, 192
-0.988221, 281, 265, 344, 296
-0.98825, 289, 1, 320, 128
-0.988297, 33, 177, 96, 208
-0.988308, 153, 65, 184, 192
-0.988338, 129, 25, 256, 88
-0.988338, 305, 41, 432, 104
-0.988431, 1, 189, 64, 220
-0.98851, 101, 1, 132, 128
-0.988525, 89, 157, 152, 188
-0.988564, 129, 157, 192, 188
-0.988591, 193, 209, 448, 272
-0.988598, 433, 165, 496, 196
-0.988638, 17, 245, 80, 276
-0.988638, 17, 165, 80, 196
-0.988662, 433, 137, 496, 168
-0.988678, 393, 181, 456, 212
-0.988708, 249, 253, 312, 284
-0.988743, 177, 89, 304, 152
-0.98876, 281, 229, 344, 260
-0.988767, 9, 257, 72, 288
-0.988772, 113, 253, 176, 284
-0.988782, 385, 101, 448, 132
-0.988783, 249, 229, 312, 260
-0.988799, 249, 241, 312, 272
-0.988804, 29, 81, 60, 208
-0.988808, 257, 145, 500, 208
-0.988815, 65, 273, 320, 336
-0.988816, 81, 25, 208, 88
-0.988835, 393, 169, 456, 200
-0.988844, 281, 249, 344, 280
-0.988855, 357, 49, 388, 176
-0.988892, 57, 209, 120, 240
-0.988948, 389, 225, 420, 352
-0.988975, 65, 217, 320, 280
-0.988978, 305, 133, 368, 164
-0.989006, 249, 217, 312, 248
-0.989078, 345, 173, 408, 204
-0.989093, 49, 197, 112, 228
-0.98915, 209, 209, 272, 240
-0.989172, 433, 125, 496, 156
-0.989187, 393, 113, 456, 144
-0.989209, 257, 169, 500, 232
-0.989234, 281, 217, 344, 248
-0.98926, 97, 249, 352, 312
-0.989275, 369, 241, 400, 368
-0.989277, 25, 193, 88, 224
-0.98931, 137, 173, 200, 204
-0.989371, 137, 209, 200, 240
-0.989381, 173, 65, 204, 192
-0.989486, 369, 89, 432, 120
-0.989494, 97, 169, 160, 200
-0.989497, 433, 197, 496, 228
-0.989504, 57, 237, 120, 268
-0.989507, 381, 33, 412, 160
-0.98953, 33, 185, 288, 248
-0.989552, 121, 137, 184, 168
-0.989553, 361, 101, 424, 132
-0.989561, 145, 273, 208, 304
-0.989576, 1, 177, 64, 208
-0.989593, 161, 185, 416, 248
-0.98965, 217, 325, 280, 356
-0.989657, 369, 169, 432, 200
-0.98967, 237, 97, 268, 224
-0.989697, 305, 225, 368, 256
-0.989719, 105, 265, 168, 296
-0.989724, 353, 121, 416, 152
-0.989741, 453, 1, 484, 128
-0.989762, 297, 173, 360, 204
-0.989776, 241, 273, 304, 304
-0.989793, 217, 249, 280, 280
-0.989798, 57, 181, 120, 212
-0.9898, 1, 137, 256, 200
-0.989828, 265, 149, 328, 180
-0.98983, 193, 241, 448, 304
-0.989833, 433, 113, 496, 144
-0.989847, 209, 221, 272, 252
-0.989856, 409, 153, 472, 184
-0.989859, 433, 149, 496, 180
-0.989916, 369, 177, 400, 304
-0.989946, 49, 293, 112, 324
-0.989962, 345, 189, 408, 220
-0.989967, 17, 153, 80, 184
-0.98998, 97, 145, 160, 176
-0.99, 105, 241, 168, 272
-0.990037, 361, 157, 424, 188
-0.990059, 89, 181, 152, 212
-0.990061, 73, 221, 136, 252
-0.99007, 177, 257, 240, 288
-0.990084, 17, 273, 80, 304
-0.990089, 257, 197, 320, 228
-0.990111, 1, 1, 128, 64
-0.990135, 1, 81, 500, 144
-0.990164, 105, 221, 168, 252
-0.990174, 433, 185, 496, 216
-0.990176, 97, 277, 160, 308
-0.990182, 177, 217, 240, 248
-0.990184, 345, 205, 408, 236
-0.990211, 353, 133, 416, 164
-0.990219, 89, 321, 152, 352
-0.990243, 225, 197, 288, 228
-0.990266, 97, 161, 352, 224
-0.990289, 17, 81, 48, 208
-0.990303, 337, 157, 400, 188
-0.990309, 425, 97, 488, 128
-0.990311, 185, 81, 216, 208
-0.990316, 217, 261, 280, 292
-0.990318, 233, 305, 296, 336
-0.990321, 73, 145, 136, 176
-0.990328, 21, 33, 52, 160
-0.990338, 257, 325, 320, 356
-0.99034, 145, 237, 208, 268
-0.990344, 305, 185, 368, 216
-0.99035, 193, 265, 448, 328
-0.990352, 17, 229, 80, 260
-0.990366, 305, 213, 368, 244
-0.990368, 1, 217, 64, 248
-0.990369, 225, 153, 288, 184
-0.9904, 361, 277, 424, 308
-0.990403, 209, 313, 272, 344
-0.990407, 137, 185, 200, 216
-0.990429, 329, 125, 392, 156
-0.990438, 329, 285, 392, 316
-0.990452, 405, 17, 436, 144
-0.990469, 161, 137, 224, 168
-0.990475, 65, 73, 128, 104
-0.990498, 225, 337, 288, 368
-0.990523, 337, 145, 400, 176
-0.990526, 49, 149, 112, 180
-0.990538, 89, 341, 152, 372
-0.990576, 193, 289, 256, 320
-0.990579, 409, 141, 472, 172
-0.990587, 17, 285, 80, 316
-0.990592, 157, 1, 188, 128
-0.990601, 97, 197, 160, 228
-0.990633, 321, 173, 384, 204
-0.990652, 305, 121, 368, 152
-0.990662, 185, 229, 248, 260
-0.990665, 193, 273, 256, 304
-0.990672, 105, 289, 168, 320
-0.990673, 281, 205, 344, 236
-0.990675, 217, 289, 280, 320
-0.990676, 405, 129, 436, 256
-0.990678, 97, 137, 352, 200
-0.990682, 409, 125, 472, 156
-0.99069, 465, 209, 496, 336
-0.990701, 233, 185, 296, 216
-0.990703, 209, 237, 272, 268
-0.990709, 17, 205, 80, 236
-0.990729, 361, 145, 424, 176
-0.99073, 49, 221, 112, 252
-0.990735, 73, 193, 136, 224
-0.990735, 185, 301, 248, 332
-0.990737, 1, 161, 500, 224
-0.990764, 25, 305, 88, 336
-0.990803, 169, 201, 232, 232
-0.990809, 305, 253, 368, 284
-0.990816, 1, 273, 500, 336
-0.99082, 401, 289, 464, 320
-0.990837, 257, 177, 320, 208
-0.990844, 393, 205, 456, 236
-0.990851, 433, 209, 496, 240
-0.990861, 305, 5, 368, 36
-0.990876, 201, 137, 264, 168
-0.990876, 361, 289, 424, 320
-0.990878, 145, 253, 208, 284
-0.990881, 73, 285, 136, 316
-0.990909, 105, 309, 168, 340
-0.99091, 329, 269, 392, 300
-0.990925, 1, 161, 256, 224
-0.991042, 129, 17, 160, 144
-0.99114, 1, 57, 500, 120
-0.991172, 197, 1, 228, 128
-0.991549, 433, 81, 464, 208
-0.991601, 97, 305, 352, 368
-0.991736, 1, 65, 256, 128
-0.991755, 85, 65, 116, 192
-0.991789, 1, 209, 500, 272
-0.99185, 389, 81, 420, 112
-0.991939, 369, 305, 496, 368
-0.992099, 1, 249, 256, 312
-0.99211, 389, 93, 420, 124
-0.99211, 45, 245, 76, 276
-0.992119, 73, 193, 104, 224
-0.992135, 97, 105, 352, 168
-0.992139, 377, 109, 408, 140
-0.992158, 117, 153, 148, 184
-0.992159, 337, 117, 368, 148
-0.992178, 229, 317, 260, 348
-0.992185, 53, 209, 84, 240
-0.992189, 405, 169, 436, 200
-0.992191, 241, 89, 368, 152
-0.9922, 113, 229, 144, 260
-0.992201, 353, 113, 384, 144
-0.992218, 233, 153, 264, 184
-0.992221, 49, 161, 80, 192
-0.992221, 289, 217, 320, 248
-0.992224, 65, 205, 96, 236
-0.992234, 337, 169, 464, 200
-0.992254, 29, 253, 60, 284
-0.992261, 81, 173, 208, 204
-0.992282, 81, 161, 112, 192
-0.992307, 53, 181, 84, 212
-0.99231, 357, 165, 388, 196
-0.992312, 77, 149, 108, 180
-0.99232, 461, 133, 492, 164
-0.992327, 81, 157, 208, 188
-0.992332, 113, 241, 144, 272
-0.992342, 461, 145, 492, 176
-0.992345, 425, 169, 456, 200
-0.992353, 33, 181, 160, 212
-0.992356, 57, 225, 88, 256
-0.992356, 77, 205, 108, 236
-0.992363, 405, 97, 436, 128
-0.992373, 293, 229, 324, 260
-0.992397, 369, 169, 400, 200
-0.992398, 49, 193, 80, 224
-0.992407, 105, 157, 136, 188
-0.992446, 13, 237, 44, 268
-0.992449, 357, 177, 388, 208
-0.992451, 461, 157, 492, 188
-0.992459, 313, 133, 344, 164
-0.99246, 17, 161, 48, 192
-0.992464, 357, 149, 388, 180
-0.992467, 21, 193, 52, 224
-0.992468, 101, 229, 132, 260
-0.992469, 33, 177, 64, 208
-0.99247, 33, 169, 160, 200
-0.99249, 9, 269, 40, 300
-0.992493, 65, 173, 96, 204
-0.992496, 365, 121, 396, 152
-0.992503, 377, 93, 408, 124
-0.992506, 49, 149, 80, 180
-0.992508, 461, 121, 492, 152
-0.992511, 337, 181, 464, 212
-0.992512, 65, 145, 96, 176
-0.992518, 125, 241, 156, 272
-0.992519, 441, 161, 472, 192
-0.992519, 29, 165, 60, 196
-0.992526, 97, 341, 128, 372
-0.992532, 21, 265, 52, 296
-0.992537, 153, 209, 184, 240
-0.992537, 193, 289, 448, 352
-0.99254, 309, 253, 340, 284
-0.992543, 137, 157, 168, 188
-0.99255, 9, 173, 40, 204
-0.99255, 225, 209, 256, 240
-0.992553, 93, 157, 124, 188
-0.992571, 1, 185, 500, 248
-0.992583, 117, 165, 148, 196
-0.992588, 1, 305, 256, 368
-0.992589, 409, 289, 440, 320
-0.992591, 445, 193, 476, 224
-0.992591, 97, 217, 128, 248
-0.992599, 377, 81, 408, 112
-0.992605, 241, 221, 272, 252
-0.992606, 449, 145, 480, 176
-0.992613, 1, 161, 32, 192
-0.992613, 1, 185, 32, 216
-0.992617, 377, 121, 408, 152
-0.992619, 225, 165, 256, 196
-0.99262, 257, 97, 500, 160
-0.992623, 77, 217, 108, 248
-0.992635, 389, 109, 420, 140
-0.992643, 289, 169, 416, 200
-0.992644, 253, 329, 284, 360
-0.992648, 61, 193, 92, 224
-0.992648, 1, 213, 32, 244
-0.992648, 385, 165, 416, 196
-0.992651, 17, 253, 48, 284
-0.992651, 461, 181, 492, 212
-0.992651, 289, 265, 320, 296
-0.992655, 321, 257, 352, 288
-0.992658, 61, 157, 92, 188
-0.992665, 33, 193, 64, 224
-0.992665, 93, 177, 124, 208
-0.992668, 101, 241, 132, 272
-0.992669, 237, 241, 268, 272
-0.992674, 397, 181, 428, 212
-0.992675, 293, 249, 324, 280
-0.992676, 1, 249, 500, 312
-0.992678, 233, 141, 264, 172
-0.992684, 369, 141, 400, 172
-0.992684, 229, 197, 260, 228
-0.99269, 29, 241, 60, 272
-0.992691, 129, 141, 160, 172
-0.992696, 221, 245, 252, 276
-0.9927, 461, 109, 492, 140
-0.992702, 221, 289, 252, 320
-0.992706, 81, 289, 112, 320
-0.99271, 365, 109, 396, 140
-0.992711, 289, 137, 416, 168
-0.992713, 305, 169, 336, 200
-0.992714, 1, 197, 32, 228
-0.992716, 341, 301, 372, 332
-0.992722, 157, 157, 188, 188
-0.992722, 217, 153, 248, 184
-0.992722, 129, 281, 160, 312
-0.992723, 301, 265, 332, 296
-0.992724, 373, 157, 404, 188
-0.992727, 449, 125, 480, 156
-0.992727, 1, 197, 128, 228
-0.992727, 117, 253, 148, 284
-0.992728, 149, 137, 180, 168
-0.992729, 165, 213, 196, 244
-0.992733, 293, 149, 324, 180
-0.992737, 1, 225, 32, 256
-0.992738, 453, 169, 484, 200
-0.992744, 117, 141, 148, 172
-0.992746, 285, 197, 316, 228
-0.992749, 1, 281, 32, 312
-0.99275, 237, 297, 268, 328
-0.992759, 401, 85, 432, 116
-0.992771, 141, 201, 172, 232
-0.992774, 173, 197, 204, 228
-0.992775, 77, 173, 108, 204
-0.992775, 337, 177, 368, 208
-0.992776, 445, 113, 476, 144
-0.992777, 213, 225, 244, 256
-0.992777, 357, 137, 388, 168
-0.99278, 21, 285, 52, 316
-0.992781, 129, 305, 160, 336
-0.992781, 65, 293, 96, 324
-0.992783, 41, 257, 72, 288
-0.992787, 233, 285, 264, 316
-0.992787, 341, 281, 372, 312
-0.992821, 161, 1, 288, 64
-0.99283, 193, 65, 448, 128
-0.992876, 241, 233, 368, 264
-0.992981, 81, 185, 208, 216
-0.993088, 1, 121, 500, 184
-0.993159, 1, 157, 128, 188
-0.99321, 193, 241, 320, 272
-0.993226, 337, 157, 464, 188
-0.993239, 209, 253, 336, 284
-0.993255, 365, 105, 380, 168
-0.993272, 289, 153, 416, 184
-0.993338, 1, 217, 128, 248
-0.993389, 129, 157, 256, 188
-0.993487, 321, 289, 448, 320
-0.993489, 71, 169, 86, 232
-0.993511, 389, 97, 404, 160
-0.993513, 383, 81, 398, 144
-0.993518, 81, 209, 208, 240
-0.99358, 129, 209, 256, 240
-0.993586, 71, 193, 86, 256
-0.993603, 49, 285, 176, 316
-0.993618, 131, 145, 146, 208
-0.993659, 361, 129, 376, 192
-0.993661, 273, 245, 400, 276
-0.993669, 225, 313, 480, 375
-0.99367, 97, 73, 352, 136
-0.993681, 289, 181, 416, 212
-0.993716, 97, 33, 352, 96
-0.993718, 193, 229, 320, 260
-0.993719, 1, 297, 500, 360
-0.993769, 55, 153, 70, 216
-0.993769, 33, 241, 48, 304
-0.993773, 441, 153, 456, 216
-0.993775, 61, 209, 76, 272
-0.993794, 209, 157, 336, 188
-0.993795, 117, 225, 132, 288
-0.993817, 65, 185, 80, 248
-0.993832, 289, 225, 416, 256
-0.993849, 93, 153, 108, 216
-0.993856, 61, 161, 76, 224
-0.993867, 257, 289, 384, 320
-0.993872, 337, 109, 464, 140
-0.993883, 403, 81, 418, 144
-0.993889, 241, 273, 368, 304
-0.993897, 151, 201, 166, 264
-0.993902, 81, 197, 208, 228
-0.993918, 25, 257, 40, 320
-0.993937, 161, 173, 288, 204
-0.993971, 79, 153, 94, 216
-0.993971, 69, 225, 84, 288
-0.994001, 209, 193, 336, 224
-0.994016, 237, 193, 252, 256
-0.994058, 17, 253, 144, 284
-0.994105, 337, 125, 464, 156
-0.994137, 33, 229, 160, 260
-0.994141, 227, 201, 242, 264
-0.99415, 97, 277, 224, 308
-0.994179, 55, 177, 70, 240
-0.994199, 177, 289, 304, 320
-0.994199, 99, 177, 114, 240
-0.994203, 19, 153, 34, 216
-0.99422, 119, 249, 134, 312
-0.994223, 247, 153, 262, 216
-0.994234, 71, 137, 86, 200
-0.994251, 391, 73, 406, 136
-0.994271, 315, 225, 330, 288
-0.994274, 121, 137, 136, 200
-0.994296, 59, 233, 74, 296
-0.994297, 5, 161, 20, 224
-0.994303, 441, 121, 456, 184
-0.99431, 371, 129, 386, 192
-0.994314, 209, 205, 336, 236
-0.994318, 37, 161, 52, 224
-0.994318, 25, 145, 40, 208
-0.994331, 99, 209, 114, 272
-0.994332, 151, 129, 166, 192
-0.994372, 369, 9, 496, 72
-0.994379, 359, 105, 374, 168
-0.994379, 293, 225, 308, 288
-0.994382, 365, 153, 380, 216
-0.994387, 209, 145, 336, 176
-0.994401, 309, 161, 324, 224
-0.994413, 399, 105, 414, 168
-0.994426, 43, 177, 58, 240
-0.994444, 435, 153, 450, 216
-0.994461, 321, 213, 448, 244
-0.994465, 289, 193, 416, 224
-0.994466, 33, 297, 160, 328
-0.994496, 159, 209, 174, 272
-0.994502, 337, 145, 464, 176
-0.994503, 17, 73, 144, 104
-0.994509, 347, 105, 362, 168
-0.994555, 231, 289, 246, 352
-0.994558, 15, 201, 30, 264
-0.994559, 235, 161, 250, 224
-0.99456, 127, 233, 142, 296
-0.994603, 145, 221, 272, 252
-0.994637, 1, 113, 256, 176
-0.994641, 177, 273, 304, 304
-0.994656, 209, 169, 336, 200
-0.994684, 139, 217, 154, 280
-0.994687, 241, 133, 368, 164
-0.994692, 129, 233, 256, 264
-0.994693, 49, 273, 176, 304
-0.994697, 237, 289, 252, 352
-0.99472, 141, 137, 156, 200
-0.994769, 161, 137, 176, 200
-0.99477, 335, 121, 350, 184
-0.994772, 129, 197, 256, 228
-0.994775, 309, 97, 340, 352
-0.99479, 47, 153, 62, 216
-0.994815, 257, 1, 500, 64
-0.994867, 201, 217, 216, 280
-0.994872, 97, 245, 224, 276
-0.994879, 301, 201, 316, 264
-0.994882, 257, 257, 384, 288
-0.994891, 337, 193, 464, 224
-0.994895, 21, 129, 52, 375
-0.994905, 35, 265, 50, 328
-0.994909, 289, 125, 416, 156
-0.994913, 305, 257, 432, 288
-0.994918, 9, 193, 24, 256
-0.994922, 305, 277, 432, 308
-0.994942, 315, 129, 330, 192
-0.994942, 97, 297, 224, 328
-0.994953, 1, 97, 32, 352
-0.994953, 99, 153, 114, 216
-0.994956, 241, 221, 368, 252
-0.994957, 237, 137, 252, 200
-0.99498, 429, 161, 444, 224
-0.994981, 1, 89, 256, 152
-0.994983, 55, 201, 70, 264
-0.994989, 49, 241, 176, 272
-0.995017, 381, 105, 396, 168
-0.995027, 1, 277, 128, 308
-0.995031, 389, 121, 404, 184
-0.995041, 1, 41, 256, 104
-0.995042, 127, 209, 142, 272
-0.995047, 293, 129, 324, 375
-0.995049, 445, 177, 460, 240
-0.995052, 369, 97, 400, 352
-0.995064, 223, 297, 238, 360
-0.995073, 53, 225, 68, 288
-0.995087, 105, 161, 120, 224
-0.995088, 175, 161, 190, 224
-0.995088, 1, 265, 128, 296
-0.995097, 145, 201, 160, 264
-0.995102, 23, 233, 38, 296
-0.995107, 193, 217, 320, 248
-0.995107, 97, 265, 224, 296
-0.995108, 233, 225, 248, 288
-0.995118, 369, 205, 496, 236
-0.995131, 77, 193, 92, 256
-0.995137, 225, 305, 352, 336
-0.995148, 49, 321, 176, 352
-0.995148, 123, 113, 138, 176
-0.99515, 39, 241, 54, 304
-0.995152, 409, 81, 424, 144
-0.995156, 129, 185, 256, 216
-0.995159, 171, 137, 186, 200
-0.995161, 113, 309, 240, 340
-0.99517, 309, 225, 324, 288
-0.995173, 247, 297, 262, 360
-0.99518, 141, 161, 156, 224
-0.995189, 341, 97, 372, 352
-0.99519, 45, 241, 60, 304
-0.995205, 209, 321, 336, 352
-0.995206, 481, 121, 496, 184
-0.995211, 111, 233, 126, 296
-0.995213, 465, 41, 480, 104
-0.995225, 147, 153, 162, 216
-0.995233, 377, 145, 392, 208
-0.995251, 405, 161, 420, 224
-0.99526, 293, 265, 308, 328
-0.995264, 257, 33, 500, 96
-0.995277, 385, 145, 400, 208
-0.995298, 69, 97, 100, 352
-0.995303, 257, 313, 272, 375
-0.995306, 371, 105, 386, 168
-0.995308, 115, 145, 130, 208
-0.995315, 243, 185, 258, 248
-0.995324, 49, 145, 176, 176
-0.995338, 163, 233, 178, 296
-0.995351, 321, 97, 352, 352
-0.995354, 285, 241, 300, 304
-0.995355, 11, 161, 26, 224
-0.995362, 81, 129, 112, 375
-0.995364, 149, 241, 164, 304
-0.995368, 183, 193, 198, 256
-0.995372, 25, 281, 40, 344
-0.995379, 1, 241, 128, 272
-0.995393, 213, 81, 228, 144
-0.995395, 93, 201, 108, 264
-0.995406, 257, 209, 384, 240
-0.995417, 343, 273, 358, 336
-0.995422, 249, 209, 264, 272
-0.995423, 359, 169, 374, 232
-0.995426, 353, 269, 480, 300
-0.995429, 85, 145, 100, 208
-0.995448, 161, 145, 288, 176
-0.995459, 321, 301, 448, 332
-0.995465, 397, 73, 412, 136
-0.995465, 105, 217, 120, 280
-0.995467, 31, 153, 46, 216
-0.995478, 345, 225, 360, 288
-0.995487, 219, 217, 234, 280
-0.995489, 475, 129, 490, 192
-0.995492, 101, 33, 132, 288
-0.995506, 33, 309, 160, 340
-0.995507, 97, 221, 224, 252
-0.995514, 341, 105, 356, 168
-0.995521, 241, 181, 368, 212
-0.995526, 203, 241, 218, 304
-0.995542, 485, 145, 500, 208
-0.995543, 423, 161, 438, 224
-0.995553, 139, 289, 154, 352
-0.995554, 133, 121, 148, 184
-0.995558, 17, 105, 144, 168
-0.99557, 305, 137, 320, 200
-0.99557, 321, 237, 448, 268
-0.995572, 213, 113, 228, 176
-0.995591, 167, 209, 182, 272
-0.995594, 201, 265, 216, 328
-0.995595, 243, 225, 258, 288
-0.9956, 405, 105, 420, 168
-0.995606, 353, 97, 480, 128
-0.995611, 355, 129, 370, 192
-0.995613, 97, 137, 224, 168
-0.995633, 49, 129, 80, 375
-0.995653, 149, 97, 180, 352
-0.995758, 353, 249, 480, 280
-0.99579, 177, 309, 304, 340
-0.995815, 353, 85, 480, 116
-0.995921, 1, 33, 500, 96
-0.995946, 145, 253, 272, 284
-0.995983, 117, 1, 148, 256
-0.99599, 381, 65, 412, 320
-0.995998, 281, 129, 312, 375
-0.996002, 369, 289, 496, 320
-0.996004, 289, 113, 416, 144
-0.996019, 169, 97, 200, 352
-0.996025, 133, 129, 164, 375
-0.996066, 97, 321, 224, 352
-0.996073, 113, 117, 240, 148
-0.996075, 461, 97, 492, 352
-0.996123, 113, 69, 240, 100
-0.996183, 357, 97, 388, 352
-0.996218, 33, 85, 160, 116
-0.996262, 1, 329, 128, 360
-0.996272, 269, 129, 300, 375
-0.996276, 65, 65, 192, 96
-0.996279, 369, 221, 496, 252
-0.996289, 37, 129, 68, 375
-0.996326, 237, 129, 268, 375
-0.996335, 401, 97, 432, 352
-0.996353, 197, 129, 228, 375
-0.996359, 73, 193, 88, 224
-0.99637, 181, 97, 212, 352
-0.996379, 273, 301, 400, 332
-0.996382, 289, 1, 416, 32
-0.996386, 305, 97, 432, 128
-0.996403, 93, 129, 124, 375
-0.996414, 161, 321, 288, 352
-0.99648, 395, 85, 410, 116
-0.996497, 1, 145, 128, 176
-0.996531, 117, 129, 148, 375
-0.996535, 209, 21, 336, 52
-0.99654, 369, 233, 496, 264
-0.996554, 129, 9, 384, 72
-0.996559, 273, 321, 400, 352
-0.996573, 161, 133, 288, 164
-0.996575, 13, 33, 44, 288
-0.996595, 257, 25, 384, 56
-0.996609, 177, 333, 304, 364
-0.996621, 309, 1, 340, 256
-0.996626, 209, 97, 240, 352
-0.996646, 113, 105, 240, 136
-0.996652, 421, 65, 452, 320
-0.996692, 105, 129, 136, 375
-0.996693, 485, 129, 500, 160
-0.996727, 57, 33, 88, 288
-0.99674, 445, 129, 476, 375
-0.996746, 241, 121, 368, 152
-0.996764, 387, 81, 402, 112
-0.996834, 1, 1, 256, 64
-0.996847, 69, 205, 84, 236
-0.996863, 81, 333, 208, 364
-0.996863, 363, 113, 378, 144
-0.996866, 25, 257, 40, 288
-0.996869, 305, 85, 432, 116
-0.996873, 129, 333, 256, 364
-0.996921, 241, 333, 368, 364
-0.996922, 357, 1, 388, 256
-0.996922, 113, 81, 240, 112
-0.996934, 341, 1, 372, 256
-0.996935, 369, 73, 496, 104
-0.996949, 449, 33, 480, 288
-0.996952, 95, 157, 110, 188
-0.996969, 133, 1, 164, 256
-0.996972, 129, 21, 256, 52
-0.996975, 85, 145, 100, 176
-0.996997, 347, 113, 362, 144
-0.997001, 237, 141, 252, 172
-0.99701, 225, 129, 256, 375
-0.997014, 113, 93, 240, 124
-0.997015, 413, 169, 428, 200
-0.997015, 127, 241, 142, 272
-0.99703, 121, 145, 136, 176
-0.997035, 81, 33, 112, 288
-0.997037, 81, 9, 208, 40
-0.997043, 1, 61, 128, 92
-0.997044, 257, 129, 288, 375
-0.99706, 391, 101, 406, 132
-0.997072, 117, 229, 132, 260
-0.997084, 35, 245, 50, 276
-0.997085, 5, 185, 20, 216
-0.997091, 353, 41, 480, 72
-0.997096, 433, 97, 464, 352
-0.997111, 151, 205, 166, 236
-0.997116, 353, 57, 480, 88
-0.997124, 193, 73, 320, 104
-0.997147, 1, 1, 32, 256
-0.997152, 79, 157, 94, 188
-0.997153, 441, 169, 456, 200
-0.997155, 407, 89, 422, 120
-0.997165, 51, 241, 66, 272
-0.997168, 469, 1, 500, 256
-0.997177, 479, 149, 494, 180
-0.997194, 381, 89, 396, 120
-0.9972, 65, 181, 80, 212
-0.9972, 19, 261, 34, 292
-0.997205, 209, 9, 336, 40
-0.997206, 237, 153, 252, 184
-0.997208, 289, 333, 416, 364
-0.997212, 393, 73, 408, 104
-0.997229, 247, 153, 262, 184
-0.997232, 407, 169, 422, 200
-0.997234, 27, 153, 42, 184
-0.997259, 293, 233, 308, 264
-0.997261, 131, 157, 146, 188
-0.997269, 401, 85, 416, 116
-0.99727, 113, 157, 128, 188
-0.99727, 109, 233, 124, 264
-0.997276, 361, 177, 376, 208
-0.997279, 103, 165, 118, 196
-0.997283, 29, 33, 60, 288
-0.997286, 71, 177, 86, 208
-0.997288, 485, 145, 500, 176
-0.997301, 71, 161, 86, 192
-0.997302, 475, 137, 490, 168
-0.997311, 289, 33, 320, 288
-0.997315, 37, 177, 52, 208
-0.997317, 63, 201, 78, 232
-0.99732, 375, 161, 390, 192
-0.997339, 305, 173, 320, 204
-0.997344, 55, 149, 70, 180
-0.997347, 237, 165, 252, 196
-0.997348, 335, 121, 350, 152
-0.997358, 43, 253, 58, 284
-0.997362, 381, 113, 396, 144
-0.997362, 53, 161, 68, 192
-0.997364, 45, 181, 60, 212
-0.997366, 401, 109, 416, 140
-0.997366, 353, 173, 368, 204
-0.997369, 393, 1, 424, 256
-0.997369, 59, 161, 74, 192
-0.997374, 379, 173, 394, 204
-0.997379, 359, 133, 374, 164
-0.997382, 193, 61, 320, 92
-0.997387, 19, 161, 34, 192
-0.997392, 63, 213, 78, 244
-0.997394, 257, 13, 384, 44
-0.997394, 119, 249, 134, 280
-0.997395, 341, 113, 356, 144
-0.997396, 65, 345, 192, 375
-0.997401, 7, 197, 22, 228
-0.997405, 69, 1, 100, 256
-0.997416, 31, 257, 46, 288
-0.997417, 101, 213, 116, 244
-0.99742, 137, 157, 152, 188
-0.99743, 59, 245, 74, 276
-0.997433, 369, 165, 384, 196
-0.997439, 153, 1, 184, 256
-0.997444, 65, 169, 80, 200
-0.997448, 17, 341, 144, 372
-0.997451, 35, 165, 50, 196
-0.997468, 409, 1, 440, 256
-0.997474, 1, 161, 16, 192
-0.997475, 53, 213, 68, 244
-0.997478, 161, 121, 288, 152
-0.99748, 59, 181, 74, 212
-0.997486, 257, 37, 384, 68
-0.997488, 369, 1, 400, 256
-0.997489, 85, 193, 100, 224
-0.997497, 299, 217, 314, 248
-0.997497, 293, 269, 308, 300
-0.9975, 25, 269, 40, 300
-0.997503, 201, 221, 216, 252
-0.99751, 127, 145, 142, 176
-0.997527, 365, 153, 380, 184
-0.997533, 413, 93, 428, 124
-0.997539, 97, 185, 112, 216
-0.997539, 371, 121, 386, 152
-0.997544, 25, 245, 40, 276
-0.997546, 419, 169, 434, 200
-0.997548, 51, 173, 66, 204
-0.997566, 225, 209, 240, 240
-0.997577, 409, 289, 424, 320
-0.997585, 143, 157, 158, 188
-0.997589, 481, 161, 496, 192
-0.997595, 119, 157, 134, 188
-0.997598, 197, 33, 228, 288
-0.997606, 43, 193, 58, 224
-0.997612, 241, 189, 256, 220
-0.997612, 37, 189, 52, 220
-0.997613, 53, 201, 68, 232
-0.997615, 73, 217, 88, 248
-0.997618, 285, 145, 300, 176
-0.997619, 95, 205, 110, 236
-0.997632, 321, 1, 352, 256
-0.997638, 245, 285, 260, 316
-0.997641, 29, 177, 44, 208
-0.997644, 357, 117, 372, 148
-0.997664, 25, 165, 40, 196
-0.997665, 151, 217, 166, 248
-0.997666, 61, 225, 76, 256
-0.997666, 389, 129, 404, 160
-0.997667, 135, 141, 150, 172
-0.997677, 233, 313, 248, 344
-0.997684, 259, 329, 274, 360
-0.997688, 241, 317, 256, 348
-0.99769, 407, 101, 422, 132
-0.99769, 433, 169, 448, 200
-0.997693, 25, 281, 40, 312
-0.997695, 71, 149, 86, 180
-0.997701, 377, 125, 392, 156
-0.997702, 315, 253, 330, 284
-0.997706, 75, 205, 90, 236
-0.997708, 61, 257, 76, 288
-0.997714, 401, 97, 416, 128
-0.997717, 107, 217, 122, 248
-0.997719, 359, 165, 374, 196
-0.997727, 45, 33, 76, 288
-0.997728, 11, 217, 26, 248
-0.997733, 9, 161, 24, 192
-0.997734, 269, 33, 300, 288
-0.99774, 145, 205, 160, 236
-0.997741, 425, 169, 440, 200
-0.997748, 443, 157, 458, 188
-0.997754, 153, 133, 168, 164
-0.997759, 27, 189, 42, 220
-0.997762, 313, 133, 328, 164
-0.997762, 249, 325, 264, 356
-0.99781, 253, 33, 284, 288
-0.997962, 165, 1, 196, 256
-0.997981, 1, 1, 500, 64
-0.998152, 437, 1, 468, 256
-0.99819, 221, 33, 252, 288
-0.998265, 177, 1, 208, 256
-0.998331, 71, 129, 86, 256
-0.998382, 303, 177, 318, 304
-0.998394, 363, 97, 378, 224
-0.998399, 361, 175, 424, 190
-0.998404, 9, 195, 72, 210
-0.998406, 281, 267, 344, 282
-0.998407, 57, 169, 120, 184
-0.998411, 329, 117, 392, 132
-0.998419, 57, 215, 120, 230
-0.99842, 33, 163, 96, 178
-0.998421, 433, 131, 496, 146
-0.998425, 281, 255, 344, 270
-0.998426, 305, 225, 368, 240
-0.998427, 433, 201, 496, 216
-0.998427, 249, 243, 312, 258
-0.998431, 25, 171, 88, 186
-0.998432, 17, 257, 80, 272
-0.998434, 249, 227, 312, 242
-0.998436, 89, 157, 152, 172
-0.998436, 393, 171, 456, 186
-0.998439, 281, 223, 344, 238
-0.998439, 49, 201, 112, 216
-0.998441, 25, 189, 88, 204
-0.998442, 249, 261, 312, 276
-0.998443, 297, 177, 360, 192
-0.998443, 249, 237, 312, 252
-0.998446, 89, 343, 152, 358
-0.998446, 393, 181, 456, 196
-0.998447, 385, 107, 448, 122
-0.998447, 1, 163, 64, 178
-0.998448, 433, 145, 496, 160
-0.998449, 25, 251, 88, 266
-0.998449, 305, 135, 368, 150
-0.998451, 137, 217, 200, 232
-0.998453, 97, 167, 160, 182
-0.998453, 337, 173, 400, 188
-0.998453, 113, 251, 176, 266
-0.998454, 281, 233, 344, 248
-0.998454, 425, 113, 488, 128
-0.998455, 393, 113, 456, 128
-0.998456, 433, 155, 496, 170
-0.99846, 249, 249, 312, 264
-0.998461, 329, 123, 392, 138
-0.998463, 433, 125, 496, 140
-0.998467, 97, 219, 160, 234
-0.998472, 89, 151, 152, 166
-0.998472, 49, 189, 112, 204
-0.998472, 281, 217, 344, 232
-0.998473, 113, 281, 176, 296
-0.998474, 1, 169, 64, 184
-0.998476, 393, 119, 456, 134
-0.998477, 137, 175, 200, 190
-0.998478, 353, 191, 416, 206
-0.998478, 249, 255, 312, 270
-0.99848, 281, 249, 344, 264
-0.998481, 129, 157, 192, 172
-0.998481, 249, 221, 312, 236
-0.998482, 433, 195, 496, 210
-0.998483, 281, 243, 344, 258
-0.998484, 369, 93, 432, 108
-0.998484, 1, 265, 64, 280
-0.998484, 25, 177, 88, 192
-0.998485, 137, 195, 200, 210
-0.998485, 81, 289, 144, 304
-0.998486, 153, 277, 216, 292
-0.998486, 49, 183, 112, 198
-0.998487, 433, 139, 496, 154
-0.998488, 97, 177, 160, 192
-0.998488, 353, 113, 416, 128
-0.998489, 49, 195, 112, 210
-0.998489, 305, 219, 368, 234
-0.998489, 25, 263, 88, 278
-0.99849, 65, 221, 128, 236
-0.99849, 113, 259, 176, 274
-0.998491, 381, 173, 412, 188
-0.998491, 305, 223, 336, 238
-0.998491, 373, 89, 404, 104
-0.998493, 105, 245, 168, 260
-0.998494, 385, 193, 416, 208
-0.998494, 25, 183, 88, 198
-0.998495, 441, 197, 472, 212
-0.998496, 401, 91, 432, 106
-0.998497, 25, 241, 88, 256
-0.998497, 357, 167, 388, 182
-0.998497, 305, 179, 336, 194
-0.998497, 33, 195, 64, 210
-0.998498, 57, 235, 120, 250
-0.998498, 365, 113, 396, 128
-0.998498, 241, 329, 272, 344
-0.998499, 353, 119, 416, 134
-0.998499, 353, 173, 384, 188
-0.9985, 449, 137, 480, 152
-0.9985, 361, 169, 424, 184
-0.9985, 377, 101, 440, 116
-0.998501, 321, 129, 384, 144
-0.998502, 433, 161, 496, 176
-0.998503, 345, 181, 408, 196
-0.998503, 109, 231, 140, 246
-0.998503, 57, 161, 120, 176
-0.998503, 1, 163, 32, 178
-0.998504, 57, 175, 120, 190
-0.998504, 53, 209, 84, 224
-0.998505, 209, 229, 272, 244
-0.998505, 401, 183, 432, 198
-0.998505, 237, 163, 268, 178
-0.998505, 73, 165, 104, 180
-0.998506, 137, 251, 168, 266
-0.998506, 21, 195, 52, 210
-0.998507, 289, 261, 352, 276
-0.998508, 433, 179, 496, 194
-0.998509, 445, 123, 476, 138
-0.998509, 97, 211, 160, 226
-0.998509, 417, 167, 480, 182
-0.998509, 217, 209, 280, 224
-0.998509, 105, 253, 136, 268
-0.998511, 321, 179, 384, 194
-0.998512, 313, 137, 344, 152
-0.998512, 305, 171, 368, 186
-0.998513, 465, 123, 496, 138
-0.998513, 129, 163, 192, 178
-0.998513, 57, 209, 120, 224
-0.998513, 1, 245, 64, 260
-0.998514, 13, 241, 44, 256
-0.998515, 289, 239, 320, 254
-0.998516, 137, 221, 168, 236
-0.998516, 137, 211, 200, 226
-0.998516, 265, 149, 328, 164
-0.998516, 325, 177, 356, 192
-0.998516, 381, 107, 412, 122
-0.998517, 17, 169, 48, 184
-0.998517, 105, 275, 168, 290
-0.998517, 17, 235, 80, 250
-0.998517, 445, 131, 476, 146
-0.998518, 137, 169, 200, 184
-0.998518, 193, 283, 256, 298
-0.998519, 305, 173, 336, 188
-0.998519, 1, 189, 64, 204
-0.998519, 1, 185, 32, 200
-0.998519, 209, 329, 272, 344
-0.998519, 81, 291, 112, 306
-0.998519, 9, 177, 40, 192
-0.99852, 33, 249, 64, 264
-0.99852, 133, 159, 164, 174
-0.99852, 193, 315, 256, 330
-0.998521, 33, 207, 96, 222
-0.998521, 81, 211, 112, 226
-0.998523, 29, 187, 60, 202
-0.998523, 21, 271, 52, 286
-0.998523, 109, 237, 140, 252
-0.998523, 93, 165, 124, 180
-0.998524, 249, 213, 312, 228
-0.998524, 25, 269, 88, 284
-0.998526, 1, 223, 32, 238
-0.998526, 65, 159, 96, 174
-0.998526, 89, 183, 152, 198
-0.998526, 193, 293, 256, 308
-0.998527, 209, 323, 272, 338
-0.998527, 389, 179, 420, 194
-0.998527, 461, 153, 492, 168
-0.998528, 61, 183, 92, 198
-0.998529, 217, 255, 280, 270
-0.998529, 433, 119, 496, 134
-0.998529, 301, 267, 332, 282
-0.998529, 345, 213, 408, 228
-0.99853, 61, 153, 92, 168
-0.998531, 217, 289, 280, 304
-0.998531, 449, 151, 480, 166
-0.998531, 357, 133, 388, 148
-0.998531, 357, 181, 388, 196
-0.998531, 121, 251, 152, 266
-0.998531, 449, 143, 480, 158
-0.998532, 289, 231, 320, 246
-0.998532, 1, 201, 64, 216
-0.998532, 65, 213, 96, 228
-0.998533, 281, 149, 312, 164
-0.998533, 209, 223, 272, 238
-0.998533, 9, 279, 40, 294
-0.998535, 57, 293, 120, 308
-0.998535, 61, 197, 92, 212
-0.998535, 237, 289, 268, 304
-0.998535, 185, 223, 248, 238
-0.998535, 13, 247, 44, 262
-0.998535, 73, 149, 104, 164
-0.998536, 389, 79, 420, 94
-0.998536, 469, 185, 500, 200
-0.998537, 225, 319, 256, 334
-0.998537, 1, 183, 64, 198
-0.998537, 145, 209, 176, 224
-0.998537, 265, 155, 328, 170
-0.998537, 105, 321, 168, 336
-0.998538, 241, 321, 304, 336
-0.998538, 425, 107, 488, 122
-0.998539, 113, 151, 176, 166
-0.998539, 429, 179, 460, 194
-0.998539, 109, 161, 140, 176
-0.998539, 237, 225, 268, 240
-0.99854, 45, 265, 76, 280
-0.99854, 149, 217, 180, 232
-0.99854, 305, 213, 368, 228
-0.998541, 137, 181, 200, 196
-0.998541, 461, 177, 492, 192
-0.998542, 177, 261, 240, 276
-0.998542, 377, 115, 408, 130
-0.998542, 57, 241, 120, 256
-0.998543, 89, 281, 152, 296
-0.998544, 353, 135, 416, 150
-0.998544, 225, 337, 288, 352
-0.998545, 17, 163, 48, 178
-0.998545, 293, 151, 324, 166
-0.998546, 105, 243, 136, 258
-0.998546, 57, 227, 88, 242
-0.998547, 77, 189, 108, 204
-0.998548, 117, 153, 148, 168
-0.99855, 405, 291, 436, 306
-0.99855, 77, 219, 108, 234
-0.99855, 337, 177, 368, 192
-0.998555, 449, 157, 480, 172
-0.998557, 33, 171, 64, 186
-0.998557, 49, 255, 80, 270
-0.998558, 365, 173, 396, 188
-0.998562, 461, 145, 492, 160
-0.998562, 9, 265, 40, 280
-0.998563, 1, 199, 32, 214
-0.998563, 33, 181, 64, 196
-0.998564, 77, 205, 108, 220
-0.998564, 333, 127, 364, 142
-0.998565, 113, 343, 144, 358
-0.998572, 117, 167, 148, 182
-0.998572, 45, 177, 76, 192
-0.998573, 409, 101, 440, 116
-0.998573, 49, 219, 80, 234
-0.998573, 117, 245, 148, 260
-0.998576, 357, 123, 388, 138
-0.998579, 377, 123, 408, 138
-0.99858, 33, 263, 64, 278
-0.99858, 9, 273, 40, 288
-0.998583, 81, 159, 112, 174
-0.998583, 45, 163, 76, 178
-0.998584, 157, 211, 188, 226
-0.998584, 53, 203, 84, 218
-0.998585, 383, 81, 398, 208
-0.998588, 461, 129, 492, 144
-0.998589, 57, 173, 88, 188
-0.998589, 93, 159, 124, 174
-0.99859, 121, 159, 152, 174
-0.998591, 405, 171, 436, 186
-0.998597, 53, 189, 84, 204
-0.998597, 389, 91, 420, 106
-0.998598, 229, 325, 260, 340
-0.998604, 23, 129, 38, 256
-0.998606, 461, 139, 492, 154
-0.998606, 433, 97, 448, 224
-0.998606, 99, 145, 114, 272
-0.998608, 233, 157, 264, 172
-0.998609, 389, 97, 420, 112
-0.99861, 45, 249, 76, 264
-0.998616, 21, 265, 52, 280
-0.998617, 293, 223, 324, 238
-0.998617, 225, 293, 256, 308
-0.998621, 293, 217, 324, 232
-0.998624, 81, 145, 96, 272
-0.998633, 29, 165, 60, 180
-0.998644, 145, 193, 160, 320
-0.99865, 65, 145, 80, 272
-0.998653, 239, 161, 254, 288
-0.998654, 353, 115, 384, 130
-0.998659, 73, 195, 104, 210
-0.998661, 341, 117, 372, 132
-0.998666, 385, 85, 416, 100
-0.998672, 121, 225, 136, 352
-0.998678, 343, 225, 358, 352
-0.998678, 13, 145, 28, 272
-0.998689, 309, 209, 324, 336
-0.998691, 389, 113, 404, 240
-0.998692, 23, 241, 38, 368
-0.998695, 101, 343, 132, 358
-0.998705, 441, 113, 456, 240
-0.998707, 87, 129, 102, 256
-0.99871, 7, 145, 22, 272
-0.99871, 297, 209, 312, 336
-0.998711, 29, 257, 60, 272
-0.998723, 151, 145, 166, 272
-0.99873, 399, 97, 414, 224
-0.998738, 481, 113, 496, 240
-0.99874, 97, 193, 112, 320
-0.998741, 291, 209, 306, 336
-0.99875, 63, 193, 78, 320
-0.99877, 151, 193, 166, 320
-0.99877, 111, 145, 126, 272
-0.998776, 93, 145, 108, 272
-0.998777, 233, 177, 248, 304
-0.998786, 55, 129, 70, 256
-0.998792, 127, 225, 142, 352
-0.998804, 213, 65, 228, 192
-0.998813, 123, 81, 138, 208
-0.998822, 33, 241, 48, 368
-0.998825, 69, 193, 84, 320
-0.998827, 309, 161, 324, 288
-0.998834, 465, 33, 480, 160
-0.998835, 145, 113, 160, 240
-0.998839, 353, 113, 368, 240
-0.99884, 19, 81, 34, 208
-0.998844, 475, 129, 490, 256
-0.998845, 241, 1, 272, 256
-0.998846, 249, 209, 264, 336
-0.998848, 105, 161, 120, 288
-0.998861, 113, 225, 128, 352
-0.998865, 39, 177, 54, 304
-0.998865, 373, 97, 388, 224
-0.998866, 413, 81, 428, 208
-0.998869, 43, 241, 58, 368
-0.99887, 139, 145, 154, 272
-0.998873, 177, 161, 192, 288
-0.998873, 421, 81, 436, 208
-0.998875, 15, 209, 30, 336
-0.998879, 447, 129, 462, 256
-0.998881, 159, 113, 174, 240
-0.998893, 245, 129, 260, 256
-0.998893, 169, 145, 184, 272
-0.9989, 151, 241, 166, 368
-0.998902, 239, 209, 254, 336
-0.998918, 233, 241, 248, 368
-0.998932, 301, 129, 316, 256
-0.998937, 361, 145, 376, 272
-0.99894, 49, 129, 64, 256
-0.99894, 285, 209, 300, 336
-0.998944, 1, 145, 16, 272
-0.998946, 293, 161, 308, 288
-0.998959, 315, 209, 330, 336
-0.998961, 139, 241, 154, 368
-0.998979, 133, 225, 148, 352
-0.99898, 203, 209, 218, 336
-0.998988, 391, 49, 406, 176
-0.998992, 353, 193, 368, 320
-0.998999, 25, 81, 40, 208
-0.999003, 255, 241, 270, 368
-0.999004, 77, 193, 92, 320
-0.999005, 33, 177, 48, 304
-0.999006, 279, 129, 294, 256
-0.999006, 107, 209, 122, 336
-0.999007, 47, 177, 62, 304
-0.99901, 405, 97, 420, 224
-0.999015, 49, 241, 64, 368
-0.999016, 115, 81, 130, 208
-0.999017, 303, 241, 318, 368
-0.999023, 285, 129, 300, 256
-0.999023, 25, 177, 40, 304
-0.999028, 189, 209, 204, 336
-0.99903, 427, 97, 442, 224
-0.999031, 227, 241, 242, 368
-0.999034, 339, 49, 354, 176
-0.999035, 233, 129, 248, 256
-0.999038, 325, 49, 340, 176
-0.999039, 55, 209, 70, 336
-0.999047, 119, 129, 134, 256
-0.999056, 251, 161, 266, 288
-0.999056, 121, 177, 136, 304
-0.999057, 347, 97, 362, 224
-0.999069, 261, 177, 276, 304
-0.999069, 197, 129, 212, 256
-0.999073, 465, 97, 480, 224
-0.999076, 69, 81, 84, 208
-0.999078, 175, 113, 190, 240
-0.999079, 333, 209, 348, 336
-0.999081, 161, 225, 176, 352
-0.999084, 311, 113, 326, 240
-0.99909, 457, 161, 472, 288
-0.999091, 227, 177, 242, 304
-0.999092, 383, 129, 398, 256
-0.999095, 219, 129, 234, 256
-0.999096, 129, 81, 144, 208
-0.999102, 345, 49, 360, 176
-0.999104, 133, 161, 148, 288
-0.99911, 187, 113, 202, 240
-0.999111, 317, 65, 332, 192
-0.999111, 439, 193, 454, 320
-0.999115, 61, 241, 76, 368
-0.999116, 121, 17, 136, 144
-0.999118, 139, 193, 154, 320
-0.999118, 79, 65, 94, 192
-0.999119, 333, 49, 348, 176
-0.999121, 163, 177, 178, 304
-0.999122, 219, 241, 234, 368
-0.999127, 127, 161, 142, 288
-0.999128, 475, 49, 490, 176
-0.999129, 449, 177, 464, 304
-0.999131, 89, 225, 104, 352
-0.999142, 353, 49, 368, 176
-0.999147, 151, 97, 166, 224
-0.999152, 5, 209, 20, 336
-0.999158, 109, 1, 124, 128
-0.999394, 209, 1, 240, 256
-0.999671, 223, 323, 238, 338
-0.999672, 23, 239, 38, 254
-0.999673, 475, 153, 490, 168
-0.999674, 61, 259, 76, 274
-0.999674, 119, 245, 134, 260
-0.999675, 337, 177, 352, 192
-0.999675, 249, 223, 264, 238
-0.999675, 309, 265, 324, 280
-0.999675, 413, 171, 428, 186
-0.999675, 13, 215, 28, 230
-0.999676, 117, 157, 132, 172
-0.999676, 7, 163, 22, 178
-0.999676, 359, 135, 374, 150
-0.999677, 57, 207, 72, 222
-0.999678, 203, 281, 218, 296
-0.999678, 103, 223, 118, 238
-0.999678, 353, 177, 368, 192
-0.999678, 401, 85, 416, 100
-0.999679, 221, 297, 236, 312
-0.999679, 291, 229, 306, 244
-0.999679, 53, 215, 68, 230
-0.99968, 127, 237, 142, 252
-0.99968, 247, 157, 262, 172
-0.99968, 47, 195, 62, 210
-0.99968, 359, 149, 374, 164
-0.999681, 389, 125, 404, 140
-0.999682, 53, 247, 68, 262
-0.999683, 241, 161, 256, 176
-0.999683, 99, 351, 114, 366
-0.999683, 175, 207, 190, 222
-0.999684, 365, 135, 380, 150
-0.999685, 381, 127, 396, 142
-0.999686, 405, 97, 420, 112
-0.999686, 109, 241, 124, 256
-0.999687, 93, 187, 108, 202
-0.999687, 27, 169, 42, 184
-0.999687, 287, 221, 302, 236
-0.999688, 89, 159, 104, 174
-0.999688, 27, 163, 42, 178
-0.999689, 295, 269, 310, 284
-0.999689, 97, 213, 112, 228
-0.999689, 403, 183, 418, 198
-0.99969, 485, 147, 500, 162
-0.99969, 15, 269, 30, 284
-0.999691, 235, 167, 250, 182
-0.999691, 123, 255, 138, 270
-0.999691, 233, 291, 248, 306
-0.999692, 17, 163, 32, 178
-0.999692, 47, 205, 62, 220
-0.999692, 25, 279, 40, 294
-0.999693, 167, 209, 182, 224
-0.999693, 243, 287, 258, 302
-0.999694, 259, 331, 274, 346
-0.999694, 253, 329, 268, 344
-0.999695, 55, 149, 70, 164
-0.999696, 37, 187, 52, 202
-0.999698, 53, 201, 68, 216
-0.999699, 105, 159, 120, 174
-0.999699, 149, 219, 164, 234
-0.999699, 63, 175, 78, 190
-0.9997, 31, 269, 46, 284
-0.999701, 109, 235, 124, 250
-0.999701, 45, 265, 60, 280
-0.999702, 299, 223, 314, 238
-0.999702, 119, 231, 134, 246
-0.999703, 381, 91, 396, 106
-0.999703, 141, 221, 156, 236
-0.999704, 75, 205, 90, 220
-0.999705, 485, 131, 500, 146
-0.999706, 381, 121, 396, 136
-0.999706, 33, 165, 48, 180
-0.999708, 393, 87, 408, 102
-0.999708, 227, 293, 242, 308
-0.999709, 357, 117, 372, 132
-0.999709, 285, 147, 300, 162
-0.999709, 397, 93, 412, 108
-0.99971, 63, 205, 78, 220
-0.999711, 441, 179, 456, 194
-0.999712, 335, 127, 350, 142
-0.999712, 65, 181, 80, 196
-0.999712, 157, 209, 172, 224
-0.999712, 293, 235, 308, 250
-0.999712, 23, 273, 38, 288
-0.999715, 25, 259, 40, 274
-0.999715, 123, 159, 138, 174
-0.999716, 237, 143, 252, 158
-0.999717, 87, 289, 102, 304
-0.999718, 485, 185, 500, 200
-0.999718, 79, 159, 94, 174
-0.999719, 25, 267, 40, 282
-0.999719, 403, 91, 418, 106
-0.999724, 87, 195, 102, 210
-0.999725, 409, 291, 424, 306
-0.999726, 45, 257, 60, 272
-0.999727, 407, 175, 422, 190
-0.999728, 235, 159, 250, 174
-0.999729, 311, 225, 326, 240
-0.99973, 111, 163, 126, 178
-0.999733, 123, 145, 138, 160
-0.999736, 147, 213, 162, 228
-0.999737, 29, 189, 44, 204
-0.999737, 309, 217, 324, 232
-0.999738, 67, 213, 82, 228
-0.999739, 55, 239, 70, 254
-0.999739, 105, 165, 120, 180
-0.999739, 363, 177, 378, 192
-0.999746, 483, 141, 498, 156
-0.999746, 71, 165, 86, 180
-0.999746, 373, 169, 388, 184
-0.999747, 369, 175, 384, 190
-0.999747, 393, 79, 408, 94
-0.999751, 1, 225, 16, 240
-0.999753, 33, 255, 48, 270
-0.999753, 475, 139, 490, 154
-0.999753, 127, 243, 142, 258
-0.999754, 105, 341, 120, 356
-0.999756, 85, 149, 100, 164
-0.999757, 71, 171, 86, 186
-0.999758, 117, 343, 132, 358
-0.999761, 95, 159, 110, 174
-0.999761, 111, 341, 126, 356
-0.999765, 99, 343, 114, 358
-0.999765, 347, 115, 362, 130
-0.999766, 73, 195, 88, 210
-0.999767, 305, 175, 320, 190
-0.99977, 133, 159, 148, 174
-0.999771, 117, 253, 132, 268
-0.999774, 363, 113, 378, 128
-0.999779, 151, 207, 166, 222
-0.999783, 387, 87, 402, 102
