1932
-0.302924, 1, 1, 500, 339
-0.376843, 1, 65, 500, 320
-0.459335, 1, 1, 256, 339
-0.488616, 257, 1, 500, 339
-0.57202, 1, 33, 256, 288
-0.619212, 97, 1, 352, 339
-0.709316, 97, 97, 352, 339
-0.710742, 257, 65, 500, 320
-0.744961, 97, 1, 352, 256
-0.815965, 1, 1, 128, 256
-0.83353, 369, 1, 496, 256
-0.839283, 369, 1, 496, 339
-0.874882, 1, 1, 500, 128
-0.880683, 1, 113, 500, 240
-0.885391, 81, 1, 208, 256
-0.886379, 1, 177, 500, 304
-0.886861, 289, 97, 416, 339
-0.891491, 81, 1, 208, 339
-0.892401, 113, 97, 240, 339
-0.893065, 1, 1, 128, 339
-0.897355, 305, 1, 432, 339
-0.898973, 1, 65, 500, 192
-0.902189, 193, 97, 320, 339
-0.907985, 33, 97, 160, 339
-0.908318, 1, 177, 256, 304
-0.909062, 337, 97, 464, 339
-0.913279, 321, 1, 448, 256
-0.913453, 257, 1, 384, 339
-0.913592, 161, 1, 288, 256
-0.915812, 161, 1, 288, 339
-0.9189, 1, 1, 128, 128
-0.918999, 257, 177, 500, 304
-0.921454, 1, 1, 256, 128
-0.921513, 369, 1, 496, 128
-0.921978, 1, 129, 256, 256
-0.923014, 273, 1, 400, 256
-0.926483, 161, 209, 416, 336
-0.927846, 209, 1, 336, 339
-0.929477, 1, 65, 256, 192
-0.930906, 273, 209, 400, 336
-0.935876, 97, 1, 352, 128
-0.936208, 241, 97, 368, 339
-0.936761, 425, 1, 488, 128
-0.937476, 209, 209, 336, 336
-0.940579, 9, 1, 72, 128
-0.940992, 385, 1, 448, 128
-0.942163, 65, 1, 128, 128
-0.942805, 257, 1, 500, 128
-0.944333, 225, 1, 352, 256
-0.946379, 97, 161, 352, 288
-0.946554, 1, 161, 128, 288
-0.947149, 345, 273, 408, 336
-0.947995, 113, 177, 240, 304
-0.948288, 81, 1, 208, 128
-0.949214, 425, 273, 488, 336
-0.950767, 369, 209, 496, 336
-0.95096, 105, 1, 168, 128
-0.951132, 257, 49, 500, 176
-0.951147, 385, 9, 448, 72
-0.951351, 369, 49, 496, 176
-0.951623, 321, 129, 448, 256
-0.952656, 401, 177, 464, 304
-0.9529, 1, 49, 128, 176
-0.95363, 257, 129, 500, 256
-0.954119, 313, 177, 376, 304
-0.954807, 321, 209, 448, 336
-0.955455, 369, 257, 432, 320
-0.955943, 273, 177, 336, 304
-0.956124, 97, 81, 352, 208
-0.956721, 193, 161, 320, 288
-0.95779, 97, 81, 224, 208
-0.958264, 49, 129, 176, 256
-0.958393, 1, 97, 128, 224
-0.959253, 409, 1, 472, 64
-0.95943, 9, 177, 72, 304
-0.95986, 273, 161, 400, 288
-0.96024, 249, 209, 312, 336
-0.960542, 9, 1, 72, 64
-0.960583, 57, 9, 120, 72
-0.960734, 377, 209, 440, 336
-0.960759, 273, 233, 336, 296
-0.960792, 401, 273, 464, 336
-0.960976, 369, 97, 496, 224
-0.961917, 1, 209, 128, 336
-0.96198, 433, 9, 496, 72
-0.962482, 193, 193, 256, 320
-0.962948, 433, 49, 496, 176
-0.963016, 161, 209, 224, 336
-0.963331, 433, 97, 496, 224
-0.964096, 361, 145, 424, 272
-0.964202, 1, 9, 128, 72
-0.965034, 273, 97, 400, 224
-0.965164, 241, 241, 304, 304
-0.965174, 201, 233, 264, 296
-0.965572, 89, 113, 152, 240
-0.965616, 97, 129, 224, 256
-0.966233, 161, 209, 288, 336
-0.966294, 369, 161, 496, 288
-0.966486, 369, 273, 496, 336
-0.966573, 385, 113, 448, 240
-0.966843, 321, 1, 448, 128
-0.967014, 369, 9, 496, 72
-0.967453, 105, 65, 168, 192
-0.967703, 161, 225, 224, 288
-0.967891, 337, 177, 400, 304
-0.967972, 457, 1, 488, 128
-0.968008, 33, 1, 96, 128
-0.968031, 9, 113, 72, 240
-0.968206, 361, 1, 424, 128
-0.968314, 225, 209, 288, 336
-0.968435, 9, 177, 72, 240
-0.968792, 385, 1, 448, 256
-0.969149, 49, 193, 176, 320
-0.970256, 305, 209, 368, 272
-0.970408, 397, 9, 428, 72
-0.97059, 17, 1, 48, 128
-0.970953, 305, 49, 432, 176
-0.97123, 321, 185, 384, 248
-0.971602, 457, 9, 488, 72
-0.97162, 361, 153, 424, 216
-0.971764, 193, 209, 256, 272
-0.971916, 33, 1, 96, 64
-0.971943, 369, 233, 432, 296
-0.972115, 345, 249, 408, 312
-0.972191, 225, 113, 352, 240
-0.97221, 321, 273, 384, 336
-0.97237, 393, 249, 456, 312
-0.972417, 65, 1, 128, 256
-0.97247, 105, 9, 168, 72
-0.97256, 397, 1, 428, 128
-0.972594, 161, 97, 224, 224
-0.972733, 433, 41, 496, 104
-0.972809, 1, 273, 64, 336
-0.972967, 273, 97, 336, 224
-0.973033, 289, 233, 416, 296
-0.973063, 249, 217, 312, 280
-0.973111, 161, 1, 288, 128
-0.973254, 425, 145, 488, 272
-0.973327, 193, 225, 320, 288
-0.973381, 105, 273, 168, 336
-0.973419, 433, 105, 496, 168
-0.973456, 321, 265, 448, 328
-0.973605, 105, 73, 168, 136
-0.973693, 241, 161, 304, 288
-0.973873, 13, 9, 44, 72
-0.973933, 385, 33, 448, 96
-0.974003, 361, 97, 424, 224
-0.974196, 273, 209, 336, 272
-0.974318, 293, 241, 324, 304
-0.974431, 353, 273, 384, 336
-0.974556, 369, 33, 496, 96
-0.974713, 49, 81, 176, 208
-0.974798, 425, 1, 488, 256
-0.974934, 425, 273, 456, 336
-0.975169, 9, 201, 72, 264
-0.975209, 73, 65, 136, 192
-0.975341, 1, 1, 64, 256
-0.9754, 337, 129, 400, 256
-0.975698, 85, 9, 116, 72
-0.975739, 273, 273, 336, 336
-0.975764, 425, 209, 488, 336
-0.975793, 433, 81, 496, 144
-0.975833, 273, 257, 400, 320
-0.976002, 65, 145, 128, 272
-0.976149, 385, 49, 448, 176
-0.976275, 161, 81, 288, 208
-0.976347, 353, 9, 416, 72
-0.97647, 409, 273, 440, 336
-0.976511, 89, 1, 120, 128
-0.976665, 289, 193, 320, 320
-0.976792, 177, 97, 240, 160
-0.976869, 305, 249, 368, 312
-0.976875, 377, 177, 440, 240
-0.976915, 353, 241, 480, 304
-0.97705, 129, 177, 192, 304
-0.977105, 129, 233, 256, 296
-0.977391, 381, 273, 412, 336
-0.977536, 9, 137, 72, 200
-0.977602, 9, 65, 72, 192
-0.977616, 273, 209, 400, 272
-0.977669, 281, 185, 344, 248
-0.977885, 297, 113, 360, 240
-0.977964, 65, 41, 128, 104
-0.978028, 345, 185, 408, 248
-0.97805, 89, 145, 152, 208
-0.978121, 1, 161, 128, 224
-0.978212, 209, 249, 336, 312
-0.9783, 97, 97, 224, 160
-0.978371, 413, 9, 444, 72
-0.978494, 393, 225, 456, 288
-0.978497, 225, 217, 288, 280
-0.978647, 1, 33, 128, 96
-0.978696, 409, 201, 472, 264
-0.979053, 321, 177, 448, 240
-0.979144, 469, 17, 500, 80
-0.979193, 297, 273, 360, 336
-0.979212, 445, 1, 476, 64
-0.979494, 409, 1, 440, 128
-0.979507, 109, 1, 140, 128
-0.979561, 361, 209, 424, 272
-0.979654, 433, 249, 496, 312
-0.979693, 89, 177, 152, 304
-0.979712, 209, 1, 336, 128
-0.979877, 445, 1, 476, 128
-0.979941, 1, 57, 128, 120
-0.980028, 361, 129, 424, 192
-0.980096, 105, 49, 168, 112
-0.980103, 401, 161, 464, 224
-0.98027, 433, 129, 496, 192
-0.980328, 1, 193, 128, 256
-0.980386, 37, 1, 68, 64
-0.980425, 433, 1, 464, 64
-0.980467, 433, 97, 496, 339
-0.980475, 369, 57, 496, 120
-0.98057, 81, 177, 144, 240
-0.980598, 113, 129, 176, 256
-0.980689, 65, 273, 192, 336
-0.98069, 205, 233, 236, 296
-0.980696, 465, 273, 496, 336
-0.980782, 389, 249, 420, 312
-0.980871, 437, 273, 468, 336
-0.980935, 453, 265, 484, 328
-0.981077, 105, 185, 168, 248
-0.981142, 1, 113, 128, 176
-0.98125, 1, 81, 128, 144
-0.981424, 409, 97, 472, 224
-0.981448, 153, 97, 216, 160
-0.981492, 353, 97, 416, 339
-0.981557, 285, 217, 316, 280
-0.981723, 177, 249, 240, 312
-0.981769, 13, 185, 44, 248
-0.98177, 81, 121, 144, 184
-0.981798, 185, 217, 216, 280
-0.981813, 401, 137, 464, 200
-0.981952, 177, 201, 304, 264
-0.982005, 81, 9, 144, 72
-0.982024, 1, 273, 32, 336
-0.982045, 1, 25, 64, 88
-0.982066, 1, 49, 64, 112
-0.982106, 105, 97, 168, 160
-0.982119, 289, 97, 352, 160
-0.982143, 81, 73, 208, 136
-0.982159, 1, 225, 64, 288
-0.982227, 321, 201, 448, 264
-0.982231, 345, 49, 408, 176
-0.982376, 365, 257, 396, 320
-0.982394, 177, 145, 240, 272
-0.982444, 97, 209, 224, 272
-0.982447, 313, 217, 344, 280
-0.982456, 13, 177, 44, 304
-0.982474, 137, 209, 200, 272
-0.982616, 329, 209, 392, 272
-0.982651, 217, 257, 280, 320
-0.982655, 105, 1, 168, 256
-0.982727, 469, 1, 500, 128
-0.982736, 257, 97, 320, 339
-0.982774, 385, 113, 448, 176
-0.982822, 385, 1, 448, 339
-0.982861, 153, 161, 216, 288
-0.982866, 425, 177, 488, 240
-0.98287, 9, 73, 72, 136
-0.98287, 9, 97, 72, 160
-0.982898, 369, 185, 496, 248
-0.983006, 1, 249, 64, 312
-0.983148, 457, 41, 488, 104
-0.983156, 97, 185, 224, 248
-0.98321, 225, 1, 288, 128
-0.983328, 369, 81, 496, 144
-0.983334, 65, 97, 128, 160
-0.983342, 425, 177, 456, 304
-0.983402, 129, 1, 192, 128
-0.983432, 193, 1, 256, 128
-0.983441, 321, 161, 384, 224
-0.983544, 425, 1, 488, 339
-0.983559, 145, 273, 208, 336
-0.983677, 105, 121, 168, 184
-0.983679, 49, 145, 176, 208
-0.983682, 277, 209, 308, 336
-0.98387, 109, 73, 140, 136
-0.983884, 353, 153, 480, 216
-0.983959, 41, 161, 104, 288
-0.983986, 305, 209, 336, 336
-0.984047, 81, 9, 208, 72
-0.984067, 109, 113, 140, 240
-0.984096, 385, 97, 448, 339
-0.984159, 65, 153, 128, 216
-0.98423, 225, 193, 352, 256
-0.984251, 109, 9, 140, 72
-0.984286, 321, 9, 448, 72
-0.984402, 77, 1, 108, 128
-0.984442, 169, 193, 232, 256
-0.984447, 113, 65, 144, 192
-0.984466, 65, 1, 96, 128
-0.984468, 185, 97, 248, 224
-0.984495, 289, 65, 352, 320
-0.984526, 225, 273, 352, 336
-0.984543, 409, 209, 440, 336
-0.984629, 13, 209, 44, 272
-0.984646, 349, 185, 380, 248
-0.984657, 273, 1, 400, 128
-0.984672, 409, 25, 472, 88
-0.984693, 1, 273, 128, 336
-0.984726, 401, 249, 432, 312
-0.984745, 1, 217, 128, 280
-0.984828, 97, 121, 224, 184
-0.984849, 189, 97, 220, 160
-0.98489, 389, 193, 420, 320
-0.984896, 13, 129, 44, 256
-0.984927, 41, 1, 104, 256
-0.985056, 369, 113, 496, 176
-0.98509, 81, 41, 208, 104
-0.98514, 33, 169, 96, 232
-0.985147, 161, 257, 288, 320
-0.985153, 81, 273, 144, 336
-0.985198, 265, 97, 328, 160
-0.985213, 145, 129, 272, 256
-0.985232, 421, 1, 452, 128
-0.985274, 73, 9, 104, 72
-0.985284, 153, 249, 216, 312
-0.985414, 1, 9, 32, 72
-0.985497, 177, 73, 240, 136
-0.985505, 281, 241, 312, 304
-0.985531, 197, 193, 228, 320
-0.985573, 221, 209, 252, 336
-0.985688, 313, 97, 376, 339
-0.985703, 273, 177, 400, 240
-0.985711, 173, 217, 204, 280
-0.985754, 433, 153, 496, 216
-0.985816, 297, 265, 328, 328
-0.985897, 353, 33, 416, 96
-0.98598, 385, 73, 448, 136
-0.985997, 385, 1, 416, 128
-0.986047, 49, 193, 176, 256
-0.986047, 177, 65, 240, 320
-0.986077, 13, 145, 44, 208
-0.986094, 289, 97, 416, 160
-0.98614, 385, 201, 448, 264
-0.986179, 221, 233, 252, 296
-0.986188, 61, 9, 92, 72
-0.986199, 305, 145, 432, 208
-0.986251, 189, 241, 220, 304
-0.986267, 361, 1, 424, 256
-0.986294, 1, 137, 128, 200
-0.986397, 113, 249, 176, 312
-0.986405, 209, 193, 240, 320
-0.986413, 53, 1, 84, 128
-0.986498, 49, 1, 80, 64
-0.986505, 181, 81, 212, 208
-0.986543, 25, 1, 56, 64
-0.986566, 377, 241, 408, 304
-0.986567, 233, 233, 264, 296
-0.986582, 13, 81, 44, 208
-0.986612, 345, 177, 376, 304
-0.986706, 305, 73, 432, 136
-0.986717, 217, 161, 280, 288
-0.98678, 93, 41, 124, 104
-0.986899, 5, 1, 36, 128
-0.986945, 185, 209, 216, 336
-0.986974, 409, 169, 440, 232
-0.987024, 393, 33, 424, 96
-0.987076, 233, 209, 264, 336
-0.987125, 177, 121, 240, 184
-0.987148, 209, 49, 336, 176
-0.987157, 433, 1, 464, 128
-0.987205, 301, 217, 332, 280
-0.987263, 285, 273, 316, 336
-0.987343, 73, 1, 136, 339
-0.987355, 133, 273, 164, 336
-0.987386, 89, 97, 152, 339
-0.987412, 469, 41, 500, 104
-0.987438, 457, 49, 488, 176
-0.987522, 121, 161, 184, 224
-0.987549, 161, 1, 224, 128
-0.987611, 97, 113, 128, 176
-0.987627, 1, 97, 64, 339
-0.987668, 225, 177, 288, 240
-0.987688, 341, 273, 372, 336
-0.987735, 265, 233, 296, 296
-0.987743, 257, 137, 384, 200
-0.987745, 337, 1, 400, 128
-0.987764, 97, 81, 128, 208
-0.987768, 153, 97, 216, 339
-0.987781, 57, 273, 120, 336
-0.98781, 361, 105, 424, 168
-0.98781, 233, 137, 296, 200
-0.987845, 425, 193, 456, 256
-0.987845, 385, 113, 416, 240
-0.987947, 453, 209, 484, 336
-0.987971, 73, 73, 136, 136
-0.987997, 137, 65, 200, 192
-0.988114, 81, 201, 144, 264
-0.988172, 225, 81, 288, 208
-0.988257, 369, 209, 496, 272
-0.988317, 385, 13, 448, 44
-0.988355, 201, 105, 232, 168
-0.98837, 197, 201, 228, 264
-0.988406, 97, 145, 224, 208
-0.988422, 241, 97, 368, 160
-0.988428, 113, 273, 240, 336
-0.988446, 361, 161, 392, 224
-0.988465, 297, 161, 360, 224
-0.988475, 249, 265, 312, 328
-0.988506, 13, 57, 44, 120
-0.988506, 13, 81, 44, 144
-0.988506, 13, 105, 44, 168
-0.988524, 305, 49, 432, 112
-0.988608, 361, 1, 424, 339
-0.988609, 29, 1, 60, 128
-0.988632, 129, 185, 192, 248
-0.988725, 413, 161, 444, 288
-0.988759, 385, 9, 416, 72
-0.988796, 289, 73, 352, 136
-0.988803, 201, 97, 264, 339
-0.988825, 177, 49, 240, 176
-0.98889, 357, 161, 388, 288
-0.988939, 265, 161, 328, 224
-0.988941, 337, 193, 368, 256
-0.989048, 137, 1, 200, 256
-0.989061, 305, 241, 336, 304
-0.989113, 177, 97, 208, 160
-0.989205, 325, 161, 356, 288
-0.989225, 337, 1, 400, 256
-0.989257, 305, 185, 336, 248
-0.989276, 13, 265, 44, 328
-0.989314, 433, 281, 496, 312
-0.989335, 377, 285, 440, 316
-0.989398, 113, 137, 144, 200
-0.989399, 297, 1, 360, 128
-0.989411, 409, 285, 472, 316
-0.989463, 1, 241, 128, 304
-0.989523, 233, 97, 296, 339
-0.989535, 57, 13, 120, 44
-0.989543, 397, 273, 428, 336
-0.989573, 1, 217, 256, 280
-0.989587, 17, 5, 80, 36
-0.989604, 393, 301, 456, 332
-0.989606, 217, 113, 280, 176
-0.989635, 177, 81, 304, 144
-0.98965, 425, 5, 488, 36
-0.98971, 361, 301, 424, 332
-0.989718, 265, 1, 328, 339
-0.989769, 413, 249, 444, 312
-0.989786, 321, 185, 352, 248
-0.989807, 457, 65, 488, 128
-0.989811, 401, 161, 432, 288
-0.989835, 265, 177, 296, 304
-0.989881, 337, 301, 400, 332
-0.98989, 249, 193, 312, 256
-0.98992, 185, 193, 216, 256
-0.989939, 265, 253, 328, 284
-0.989963, 113, 177, 144, 240
-0.989986, 193, 245, 256, 276
-0.989989, 245, 225, 276, 288
-0.990013, 9, 1, 72, 339
-0.990014, 373, 129, 404, 256
-0.990015, 49, 169, 176, 232
-0.990043, 401, 225, 432, 288
-0.990051, 377, 137, 408, 200
-0.990052, 57, 185, 120, 248
-0.990059, 293, 193, 324, 256
-0.990089, 345, 285, 408, 316
-0.99013, 305, 89, 336, 152
-0.990151, 309, 161, 340, 288
-0.990232, 49, 121, 176, 184
-0.990279, 13, 233, 44, 296
-0.990297, 81, 233, 208, 296
-0.990298, 397, 81, 428, 208
-0.9903, 377, 209, 408, 336
-0.990309, 305, 65, 368, 192
-0.990321, 137, 73, 200, 136
-0.990331, 413, 209, 444, 272
-0.990336, 1, 41, 32, 104
-0.990379, 97, 9, 128, 72
-0.990404, 133, 1, 164, 128
-0.990446, 409, 97, 472, 339
-0.99045, 433, 17, 496, 48
-0.990455, 209, 209, 240, 272
-0.990458, 377, 273, 440, 304
-0.990482, 389, 129, 420, 192
-0.9905, 433, 309, 496, 339
-0.990502, 241, 253, 304, 284
-0.990526, 169, 101, 232, 132
-0.990533, 441, 209, 472, 336
-0.990545, 457, 97, 488, 224
-0.990602, 177, 161, 208, 288
-0.990602, 353, 57, 416, 120
-0.990638, 161, 229, 224, 260
-0.99064, 257, 241, 320, 272
-0.990656, 469, 49, 500, 176
-0.990681, 13, 33, 44, 96
-0.990683, 361, 253, 424, 284
-0.990688, 97, 241, 352, 304
-0.990695, 97, 13, 160, 44
-0.990696, 109, 49, 140, 112
-0.990714, 273, 265, 336, 296
-0.990727, 353, 273, 416, 304
-0.990743, 433, 45, 496, 76
-0.990761, 161, 105, 288, 168
-0.990823, 41, 1, 72, 128
-0.990853, 429, 169, 460, 232
-0.990893, 425, 297, 488, 328
-0.990894, 349, 161, 380, 224
-0.990895, 121, 1, 152, 128
-0.990898, 385, 25, 448, 56
-0.990908, 321, 209, 384, 240
-0.990948, 225, 169, 352, 232
-0.99096, 265, 225, 328, 256
-0.990966, 1, 193, 256, 256
-0.990984, 185, 229, 248, 260
-0.991003, 1, 17, 64, 48
-0.991065, 401, 1, 464, 32
-0.991113, 313, 97, 376, 160
-0.991122, 433, 109, 496, 140
-0.99113, 1, 25, 500, 88
-0.991201, 9, 309, 72, 339
-0.991201, 361, 209, 392, 336
-0.991218, 9, 213, 72, 244
-0.991239, 409, 113, 440, 240
-0.991243, 93, 89, 124, 152
-0.991278, 337, 137, 400, 200
-0.991291, 337, 193, 400, 224
-0.991307, 105, 77, 168, 108
-0.991309, 9, 177, 72, 208
-0.99137, 457, 97, 488, 160
-0.991385, 105, 1, 168, 339
-0.991392, 305, 221, 368, 252
-0.991397, 305, 1, 368, 339
-0.991403, 1, 161, 256, 224
-0.991405, 281, 209, 344, 240
-0.99142, 433, 269, 496, 300
-0.99144, 433, 97, 496, 128
-0.991451, 353, 21, 416, 52
-0.991452, 361, 161, 424, 192
-0.991453, 1, 89, 256, 152
-0.991455, 305, 189, 368, 220
-0.99146, 9, 189, 72, 220
-0.991501, 305, 269, 368, 300
-0.991511, 385, 37, 448, 68
-0.991522, 9, 161, 72, 192
-0.991522, 161, 241, 224, 272
-0.991538, 273, 277, 336, 308
-0.991544, 97, 129, 128, 256
-0.991562, 145, 301, 208, 332
-0.991564, 329, 273, 392, 304
-0.991586, 241, 265, 304, 296
-0.991589, 129, 97, 192, 339
-0.991604, 433, 121, 496, 152
-0.991614, 217, 245, 280, 276
-0.991643, 289, 97, 352, 128
-0.991648, 97, 33, 160, 64
-0.991651, 245, 209, 276, 336
-0.991664, 433, 85, 496, 116
-0.991684, 105, 65, 168, 96
-0.991688, 369, 241, 432, 272
-0.991702, 281, 241, 344, 272
-0.991703, 225, 225, 480, 288
-0.991706, 201, 89, 264, 152
-0.991739, 401, 161, 464, 192
-0.991742, 433, 73, 496, 104
-0.991745, 41, 1, 104, 32
-0.991749, 121, 309, 184, 339
-0.991792, 433, 61, 496, 92
-0.991799, 409, 273, 472, 304
-0.991802, 105, 117, 168, 148
-0.991805, 393, 261, 456, 292
-0.99182, 361, 149, 424, 180
-0.991821, 1, 13, 128, 44
-0.991832, 409, 205, 472, 236
-0.991836, 217, 261, 280, 292
-0.991837, 181, 73, 212, 136
-0.991856, 225, 73, 352, 136
-0.991858, 437, 145, 468, 272
-0.991893, 337, 129, 368, 256
-0.991898, 361, 173, 424, 204
-0.991899, 437, 249, 468, 312
-0.9919, 153, 169, 216, 232
-0.991902, 257, 1, 320, 128
-0.991921, 105, 45, 168, 76
-0.991942, 257, 193, 500, 256
-0.991944, 325, 209, 356, 272
-0.99195, 401, 173, 464, 204
-0.991953, 73, 53, 136, 84
-0.99197, 313, 301, 376, 332
-0.991971, 105, 105, 168, 136
-0.991973, 377, 185, 440, 216
-0.991974, 225, 249, 480, 312
-0.991978, 1, 285, 64, 316
-0.99198, 373, 9, 404, 72
-0.991981, 9, 225, 72, 256
-0.99199, 89, 149, 152, 180
-0.991995, 65, 25, 128, 56
-0.992003, 57, 309, 120, 339
-0.992008, 409, 29, 472, 60
-0.992012, 1, 201, 64, 232
-0.992015, 305, 233, 368, 264
-0.992049, 97, 89, 160, 120
-0.992055, 105, 201, 168, 232
-0.992065, 1, 33, 64, 64
-0.992068, 193, 97, 224, 224
-0.992083, 433, 133, 496, 164
-0.992105, 393, 105, 424, 168
-0.992116, 337, 261, 400, 292
-0.992116, 113, 129, 176, 160
-0.992119, 409, 49, 472, 176
-0.992127, 397, 13, 428, 44
-0.992129, 409, 217, 472, 248
-0.992148, 1, 49, 64, 80
-0.992159, 257, 49, 320, 176
-0.992165, 433, 33, 496, 64
-0.992166, 401, 241, 464, 272
-0.99217, 1, 137, 256, 200
-0.992181, 9, 149, 72, 180
-0.992187, 81, 189, 144, 220
-0.99219, 433, 149, 496, 180
-0.9922, 161, 253, 224, 284
-0.992218, 73, 125, 136, 156
-0.992219, 137, 113, 200, 240
-0.992233, 209, 229, 272, 260
-0.992234, 1, 237, 64, 268
-0.992239, 9, 61, 72, 92
-0.992239, 9, 73, 72, 104
-0.992239, 9, 85, 72, 116
-0.992239, 9, 97, 72, 128
-0.992239, 9, 109, 72, 140
-0.992239, 9, 121, 72, 152
-0.992239, 9, 133, 72, 164
-0.992243, 377, 49, 408, 176
-0.992243, 321, 289, 384, 320
-0.992244, 97, 305, 160, 336
-0.992244, 225, 9, 288, 72
-0.992264, 233, 233, 296, 264
-0.992268, 409, 229, 472, 260
-0.992269, 193, 265, 256, 296
-0.992275, 305, 121, 432, 184
-0.992283, 177, 129, 304, 192
-0.992285, 377, 137, 440, 168
-0.992285, 417, 193, 480, 224
-0.992295, 145, 113, 208, 144
-0.992303, 217, 1, 280, 256
-0.992325, 337, 181, 400, 212
-0.992334, 193, 217, 256, 248
-0.992334, 201, 49, 264, 176
-0.992336, 129, 273, 384, 336
-0.992338, 137, 101, 200, 132
-0.992346, 201, 257, 232, 320
-0.992354, 73, 65, 136, 96
-0.992359, 401, 149, 464, 180
-0.992373, 137, 221, 200, 252
-0.992377, 401, 129, 464, 160
-0.992406, 65, 41, 128, 72
-0.992415, 369, 9, 496, 40
-0.992433, 13, 13, 44, 44
-0.99244, 1, 249, 32, 312
-0.992442, 65, 109, 128, 140
-0.992445, 385, 49, 448, 80
-0.992476, 1, 65, 256, 128
-0.992495, 289, 265, 320, 296
-0.992496, 177, 177, 304, 240
-0.99251, 413, 285, 444, 316
-0.992514, 81, 13, 112, 44
-0.992524, 97, 217, 352, 280
-0.992526, 217, 257, 248, 320
-0.992531, 429, 277, 460, 308
-0.992569, 137, 9, 200, 72
-0.992583, 37, 1, 68, 32
-0.992589, 313, 137, 376, 200
-0.992593, 1, 113, 256, 176
-0.992598, 469, 285, 500, 316
-0.992616, 257, 273, 500, 336
-0.992619, 433, 1, 464, 32
-0.992624, 49, 97, 176, 160
-0.992632, 189, 229, 220, 260
-0.992641, 389, 217, 420, 280
-0.992644, 289, 253, 320, 284
-0.992655, 265, 121, 328, 184
-0.992663, 409, 97, 472, 160
-0.992693, 409, 13, 440, 44
-0.992697, 1, 241, 256, 304
-0.992722, 1, 21, 32, 52
-0.992746, 1, 49, 32, 176
-0.992749, 349, 113, 380, 240
-0.992752, 441, 277, 472, 308
-0.99278, 337, 169, 368, 232
-0.992781, 409, 73, 472, 136
-0.992796, 453, 273, 484, 304
-0.992814, 361, 273, 392, 304
-0.992838, 469, 41, 500, 72
-0.992842, 229, 1, 260, 128
-0.992845, 105, 13, 136, 44
-0.992845, 177, 101, 208, 132
-0.99285, 457, 49, 488, 80
-0.992854, 457, 13, 488, 44
-0.992858, 397, 301, 428, 332
-0.992872, 469, 25, 500, 56
-0.992886, 189, 105, 220, 136
-0.992887, 197, 245, 228, 276
-0.992902, 1, 285, 32, 316
-0.992916, 445, 5, 476, 36
-0.99292, 337, 113, 400, 176
-0.992936, 441, 309, 472, 339
-0.992937, 277, 161, 308, 288
-0.992947, 269, 245, 300, 276
-0.992948, 13, 217, 44, 248
-0.992952, 257, 9, 500, 72
-0.992963, 289, 241, 320, 272
-0.992964, 13, 185, 44, 216
-0.992965, 437, 289, 468, 320
-0.992966, 121, 145, 152, 272
-0.992967, 301, 101, 332, 132
-0.992969, 369, 261, 400, 292
-0.99299, 69, 13, 100, 44
-0.992993, 421, 301, 452, 332
-0.992995, 13, 169, 44, 200
-0.992999, 345, 301, 376, 332
-0.993002, 145, 273, 176, 336
-0.993005, 149, 305, 180, 336
-0.993006, 305, 113, 336, 240
-0.993008, 409, 301, 440, 332
-0.99301, 421, 9, 452, 40
-0.993011, 317, 221, 348, 252
-0.993011, 25, 273, 88, 336
-0.993024, 349, 197, 380, 228
-0.993029, 189, 145, 220, 272
-0.993051, 57, 13, 88, 44
-0.993053, 381, 281, 412, 312
-0.993056, 301, 265, 332, 296
-0.993058, 393, 33, 424, 64
-0.99306, 305, 233, 336, 264
-0.993072, 401, 289, 432, 320
-0.99308, 373, 301, 404, 332
-0.993089, 453, 301, 484, 332
-0.99309, 109, 81, 140, 112
-0.993102, 209, 245, 240, 276
-0.993102, 49, 1, 80, 32
-0.993103, 25, 9, 56, 40
-0.993109, 357, 305, 388, 336
-0.993116, 93, 13, 124, 44
-0.99312, 265, 257, 296, 288
-0.993122, 377, 17, 408, 48
-0.993126, 297, 277, 328, 308
-0.993128, 93, 53, 124, 84
-0.993131, 13, 197, 44, 228
-0.993131, 177, 237, 208, 268
-0.993136, 357, 185, 388, 216
-0.993155, 137, 309, 168, 339
-0.993158, 13, 229, 44, 260
-0.993163, 333, 305, 364, 336
-0.993165, 57, 309, 88, 339
-0.993167, 13, 61, 44, 92
-0.993167, 13, 73, 44, 104
-0.993167, 13, 85, 44, 116
-0.993167, 13, 97, 44, 128
-0.993167, 13, 109, 44, 140
-0.993167, 13, 121, 44, 152
-0.993167, 13, 133, 44, 164
-0.993167, 13, 145, 44, 176
-0.993167, 173, 225, 204, 256
-0.993175, 333, 209, 364, 240
-0.993175, 13, 157, 44, 188
-0.993176, 301, 217, 332, 248
-0.993179, 317, 97, 348, 160
-0.993183, 457, 29, 488, 60
-0.993183, 201, 117, 232, 148
-0.993191, 469, 305, 500, 336
-0.993196, 113, 69, 144, 100
-0.993203, 1, 193, 500, 256
-0.993211, 381, 253, 412, 284
-0.993212, 409, 185, 440, 216
-0.993217, 289, 225, 320, 256
-0.99322, 109, 33, 140, 64
-0.993222, 245, 249, 276, 312
-0.993222, 353, 285, 384, 316
-0.993224, 425, 289, 456, 320
-0.993224, 469, 9, 484, 72
-0.993233, 13, 241, 44, 272
-0.993233, 209, 229, 240, 260
-0.993233, 301, 253, 332, 284
-0.993236, 337, 281, 464, 312
-0.993239, 229, 257, 260, 320
-0.99324, 253, 257, 284, 288
-0.993242, 389, 269, 420, 300
-0.993246, 285, 277, 316, 308
-0.993249, 29, 309, 60, 339
-0.993249, 185, 217, 216, 248
-0.993251, 361, 185, 392, 248
-0.993252, 479, 17, 494, 80
-0.993253, 165, 97, 196, 160
-0.993254, 429, 193, 460, 224
-0.993256, 249, 245, 280, 276
-0.993256, 13, 41, 44, 72
-0.993263, 109, 141, 140, 172
-0.993274, 393, 249, 424, 280
-0.993276, 13, 265, 44, 296
-0.993277, 101, 129, 132, 160
-0.993285, 1, 309, 32, 339
-0.993286, 109, 97, 140, 128
-0.993288, 113, 49, 144, 80
-0.993291, 201, 105, 232, 136
-0.993292, 241, 261, 272, 292
-0.993292, 453, 241, 484, 304
-0.993292, 185, 249, 216, 280
-0.993296, 457, 77, 488, 108
-0.993296, 341, 185, 372, 216
-0.993301, 385, 305, 416, 336
-0.993303, 457, 93, 488, 124
-0.993304, 165, 105, 196, 136
-0.993305, 277, 265, 308, 296
-0.993314, 389, 137, 420, 168
-0.993322, 13, 253, 44, 284
-0.993323, 101, 137, 132, 200
-0.993325, 401, 237, 432, 268
-0.993329, 433, 201, 496, 264
-0.99333, 457, 61, 488, 92
-0.99333, 329, 197, 360, 228
-0.993336, 221, 245, 252, 276
-0.993343, 93, 41, 124, 72
-0.993347, 1, 45, 32, 76
-0.993347, 229, 161, 260, 288
-0.993347, 89, 29, 120, 60
-0.993351, 201, 265, 232, 296
-0.993352, 457, 105, 488, 136
-0.993356, 1, 1, 500, 64
-0.993357, 469, 13, 500, 44
-0.993381, 1, 97, 500, 160
-0.9934, 1, 49, 500, 112
-0.993456, 381, 33, 412, 96
-0.993507, 249, 113, 312, 240
-0.993519, 425, 129, 456, 256
-0.99352, 201, 177, 264, 240
-0.993563, 365, 233, 396, 296
-0.993595, 173, 209, 204, 336
-0.993632, 401, 193, 432, 256
-0.993651, 33, 193, 96, 256
-0.993701, 109, 113, 140, 176
-0.993729, 125, 185, 156, 248
-0.993746, 1, 17, 256, 80
-0.993752, 1, 41, 256, 104
-0.99379, 249, 9, 312, 72
-0.993791, 121, 273, 152, 336
-0.993792, 313, 1, 376, 256
-0.993827, 249, 73, 312, 136
-0.993856, 1, 145, 32, 272
-0.993861, 201, 9, 264, 72
-0.993876, 89, 241, 152, 304
-0.993896, 17, 9, 32, 72
-0.993905, 97, 193, 352, 256
-0.99391, 69, 145, 100, 272
-0.993915, 401, 9, 416, 72
-0.993916, 361, 81, 424, 144
-0.993929, 109, 273, 140, 336
-0.993963, 261, 129, 292, 256
-0.994012, 321, 73, 384, 136
-0.994019, 309, 65, 340, 192
-0.994029, 161, 9, 288, 72
-0.994048, 337, 269, 464, 300
-0.994053, 289, 265, 416, 296
-0.994069, 1, 153, 500, 216
-0.994069, 261, 137, 292, 200
-0.994124, 273, 9, 400, 72
-0.994147, 241, 1, 272, 128
-0.99415, 441, 33, 472, 96
-0.994154, 453, 1, 468, 64
-0.994158, 369, 33, 496, 64
-0.994175, 425, 145, 456, 208
-0.994183, 337, 293, 464, 324
-0.994185, 317, 209, 348, 336
-0.994215, 169, 81, 200, 208
-0.994219, 209, 253, 336, 284
-0.994243, 1, 249, 500, 312
-0.994253, 9, 17, 24, 80
-0.994285, 289, 97, 320, 160
-0.994287, 133, 161, 164, 224
-0.994292, 425, 273, 440, 336
-0.994324, 137, 1, 200, 339
-0.99433, 303, 241, 318, 304
-0.994336, 321, 305, 448, 336
-0.994337, 1, 73, 500, 136
-0.994421, 1, 121, 500, 184
-0.994444, 373, 1, 404, 128
-0.994461, 445, 81, 476, 208
-0.994489, 177, 1, 240, 339
-0.994517, 157, 273, 188, 336
-0.994551, 161, 209, 192, 336
-0.994558, 1, 217, 500, 280
-0.994563, 257, 33, 500, 96
-0.994569, 369, 305, 496, 336
-0.994578, 97, 273, 128, 336
-0.994615, 257, 169, 500, 232
-0.994635, 137, 209, 168, 336
-0.994649, 369, 45, 496, 76
-0.994651, 293, 97, 324, 224
-0.994693, 431, 1, 446, 64
-0.994696, 309, 233, 324, 296
-0.994705, 441, 169, 472, 232
-0.994708, 101, 177, 132, 240
-0.994713, 97, 9, 352, 72
-0.994737, 85, 145, 116, 272
-0.994746, 257, 49, 384, 176
-0.994762, 85, 273, 116, 336
-0.994765, 1, 177, 32, 240
-0.994775, 177, 241, 304, 272
-0.994787, 415, 9, 430, 72
-0.994791, 97, 105, 352, 168
-0.9948, 473, 273, 488, 336
-0.994806, 201, 1, 264, 339
-0.994831, 221, 209, 252, 272
-0.994857, 145, 153, 272, 216
-0.994864, 333, 209, 364, 336
-0.994866, 407, 9, 422, 72
-0.994881, 421, 9, 436, 72
-0.994945, 419, 273, 434, 336
-0.994945, 97, 9, 112, 72
-0.994998, 1, 273, 500, 336
-0.995031, 9, 273, 24, 336
-0.995034, 209, 265, 336, 296
-0.995064, 173, 1, 204, 128
-0.995091, 389, 161, 420, 224
-0.995096, 7, 41, 22, 104
-0.995112, 97, 73, 352, 136
-0.995118, 463, 9, 478, 72
-0.995214, 437, 273, 452, 336
-0.995241, 297, 241, 312, 304
-0.995246, 1, 61, 128, 92
-0.995252, 1, 49, 128, 80
-0.995269, 265, 1, 328, 256
-0.995272, 257, 81, 500, 144
-0.995288, 477, 41, 492, 104
-0.99529, 289, 277, 416, 308
-0.995293, 201, 225, 216, 288
-0.995318, 289, 237, 416, 268
-0.99532, 97, 101, 224, 132
-0.995323, 257, 253, 384, 284
-0.995324, 257, 57, 500, 120
-0.995328, 447, 1, 462, 64
-0.995333, 361, 113, 392, 240
-0.995342, 209, 225, 336, 256
-0.99536, 479, 273, 494, 336
-0.995404, 431, 273, 446, 336
-0.995407, 65, 97, 128, 339
-0.99541, 207, 233, 222, 296
-0.995421, 359, 273, 374, 336
-0.995423, 41, 1, 56, 64
-0.995453, 1, 73, 128, 104
-0.995475, 413, 273, 428, 336
-0.995512, 1, 309, 128, 339
-0.995551, 105, 33, 120, 96
-0.995573, 273, 221, 400, 252
-0.995584, 369, 57, 496, 88
-0.995611, 457, 145, 488, 272
-0.995618, 17, 185, 32, 248
-0.99562, 53, 1, 68, 64
-0.99563, 369, 21, 496, 52
-0.99563, 113, 233, 240, 264
-0.995637, 121, 209, 152, 336
-0.995639, 291, 241, 306, 304
-0.995645, 113, 65, 128, 128
-0.995649, 97, 113, 224, 144
-0.99565, 241, 1, 304, 339
-0.995658, 109, 161, 140, 288
-0.995673, 1, 93, 128, 124
-0.995705, 189, 33, 220, 160
-0.995714, 1, 105, 128, 136
-0.99572, 1, 37, 128, 68
-0.995733, 209, 9, 336, 72
-0.995756, 485, 17, 500, 80
-0.995756, 365, 273, 380, 336
-0.995761, 113, 245, 240, 276
-0.995766, 1, 169, 128, 200
-0.995774, 57, 145, 88, 272
-0.995787, 201, 145, 232, 272
-0.995788, 1, 197, 128, 228
-0.995798, 97, 49, 352, 112
-0.995807, 395, 9, 410, 72
-0.995809, 129, 301, 256, 332
-0.99587, 195, 217, 210, 280
-0.99588, 353, 273, 368, 336
-0.995906, 369, 73, 496, 104
-0.995931, 385, 273, 400, 336
-0.995945, 443, 265, 458, 328
-0.995964, 81, 89, 208, 120
-0.995971, 109, 9, 124, 72
-0.995976, 305, 253, 432, 284
-0.995985, 337, 1, 400, 339
-0.995992, 23, 9, 38, 72
-0.996002, 469, 49, 484, 112
-0.996006, 129, 257, 256, 288
-0.996014, 161, 57, 288, 120
-0.996023, 257, 145, 500, 208
-0.996034, 317, 113, 348, 240
-0.996058, 1, 117, 128, 148
-0.996063, 133, 161, 164, 288
-0.996064, 321, 13, 448, 44
-0.996067, 17, 1, 48, 256
-0.996092, 397, 1, 428, 256
-0.996116, 321, 185, 448, 216
-0.996127, 1, 209, 32, 336
-0.996154, 315, 217, 330, 280
-0.996186, 257, 105, 500, 168
-0.996187, 321, 217, 448, 248
-0.996198, 161, 169, 416, 232
-0.996223, 35, 1, 50, 64
-0.996226, 111, 113, 126, 176
-0.996232, 91, 9, 106, 72
-0.996234, 47, 1, 62, 64
-0.996244, 67, 9, 82, 72
-0.996244, 73, 9, 88, 72
-0.996244, 79, 9, 94, 72
-0.996244, 85, 9, 100, 72
-0.996246, 1, 213, 128, 244
-0.996247, 17, 209, 32, 272
-0.996263, 189, 217, 204, 280
-0.996289, 3, 17, 18, 80
-0.996293, 29, 9, 44, 72
-0.9963, 1, 1, 128, 32
-0.996302, 29, 161, 60, 288
-0.996325, 203, 97, 218, 160
-0.996326, 161, 229, 288, 260
-0.996367, 1, 181, 128, 212
-0.996384, 409, 65, 440, 192
-0.996398, 297, 265, 312, 328
-0.996404, 289, 273, 304, 336
-0.996412, 241, 161, 272, 288
-0.996413, 353, 169, 480, 200
-0.99642, 1, 25, 128, 56
-0.996428, 369, 93, 496, 124
-0.996428, 1, 157, 128, 188
-0.996433, 289, 97, 416, 128
-0.996436, 321, 205, 448, 236
-0.996445, 113, 221, 240, 252
-0.99645, 353, 257, 480, 288
-0.996452, 227, 233, 242, 296
-0.996453, 391, 265, 406, 328
-0.996458, 235, 233, 250, 296
-0.996472, 97, 129, 352, 192
-0.996484, 97, 141, 224, 172
-0.996489, 217, 1, 248, 128
-0.996504, 93, 1, 124, 256
-0.996504, 225, 241, 352, 272
-0.996513, 1, 141, 128, 172
-0.996517, 1, 97, 32, 224
-0.996519, 273, 301, 400, 332
-0.996532, 17, 153, 32, 216
-0.99656, 353, 157, 480, 188
-0.996574, 453, 1, 484, 256
-0.996588, 145, 1, 176, 128
-0.996594, 311, 257, 326, 320
-0.996597, 379, 273, 394, 336
-0.996601, 15, 273, 30, 336
-0.996603, 355, 169, 370, 232
-0.996608, 165, 145, 196, 272
-0.996611, 449, 265, 464, 328
-0.996622, 361, 1, 392, 128
-0.996636, 187, 89, 202, 152
-0.996639, 241, 277, 368, 308
-0.996643, 305, 209, 320, 272
-0.996646, 65, 305, 192, 336
-0.996666, 289, 289, 416, 320
-0.996675, 201, 1, 232, 128
-0.996683, 305, 265, 320, 328
-0.996685, 81, 21, 208, 52
-0.996687, 369, 181, 496, 212
-0.996692, 199, 249, 214, 312
-0.996692, 399, 257, 414, 320
-0.996694, 81, 45, 208, 76
-0.996696, 213, 225, 228, 288
-0.996696, 379, 249, 394, 312
-0.996704, 405, 249, 420, 312
-0.99672, 81, 33, 208, 64
-0.996726, 373, 257, 388, 320
-0.996728, 219, 233, 234, 296
-0.996728, 225, 209, 352, 240
-0.99673, 59, 1, 74, 64
-0.996738, 41, 113, 104, 240
-0.996744, 285, 249, 300, 312
-0.996749, 181, 97, 196, 160
-0.996762, 1, 273, 256, 336
-0.996766, 103, 9, 118, 72
-0.996766, 3, 273, 18, 336
-0.996787, 109, 209, 140, 336
-0.996789, 81, 65, 208, 96
-0.996789, 97, 125, 224, 156
-0.99679, 243, 233, 258, 296
-0.996802, 1, 129, 128, 160
-0.99681, 455, 273, 470, 336
-0.996859, 193, 241, 208, 304
-0.996874, 257, 1, 288, 128
-0.996879, 17, 65, 32, 128
-0.996879, 17, 89, 32, 152
-0.996879, 17, 113, 32, 176
-0.996885, 363, 161, 378, 224
-0.996896, 249, 233, 264, 296
-0.9969, 81, 77, 208, 108
-0.996924, 407, 273, 422, 336
-0.996928, 1, 225, 128, 256
-0.996935, 289, 217, 304, 280
-0.99694, 17, 241, 32, 304
-0.996941, 195, 97, 210, 160
-0.996949, 369, 193, 496, 224
-0.996962, 297, 217, 312, 280
-0.996965, 65, 289, 192, 320
-0.996975, 369, 113, 496, 144
-0.996976, 425, 81, 456, 208
-0.996998, 181, 209, 196, 272
-0.997001, 9, 169, 24, 232
-0.997002, 273, 209, 400, 240
-0.997004, 97, 205, 224, 236
-0.997012, 305, 25, 432, 56
-0.997024, 255, 233, 270, 296
-0.997028, 281, 225, 296, 288
-0.997031, 353, 237, 480, 268
-0.997032, 65, 153, 192, 184
-0.997062, 9, 73, 24, 136
-0.997062, 9, 97, 24, 160
-0.997062, 9, 121, 24, 184
-0.997063, 217, 145, 248, 272
-0.997066, 81, 1, 112, 256
-0.99707, 397, 233, 412, 296
-0.997074, 9, 145, 24, 208
-0.997078, 359, 193, 374, 256
-0.997079, 305, 173, 432, 204
-0.997082, 7, 25, 22, 56
-0.997099, 9, 249, 24, 312
-0.9971, 353, 145, 480, 176
-0.997101, 117, 137, 132, 200
-0.997154, 81, 9, 208, 40
-0.997156, 409, 1, 440, 256
-0.997156, 467, 273, 482, 336
-0.997178, 9, 193, 24, 256
-0.997183, 469, 81, 484, 144
-0.997191, 273, 149, 400, 180
-0.997204, 225, 49, 352, 112
-0.997206, 401, 13, 416, 44
-0.997209, 385, 241, 400, 304
-0.997215, 133, 113, 164, 240
-0.99723, 311, 193, 326, 256
-0.997241, 69, 1, 100, 256
-0.997247, 477, 41, 492, 72
-0.997247, 9, 217, 24, 280
-0.997251, 305, 89, 320, 152
-0.997264, 147, 273, 162, 336
-0.997266, 321, 225, 336, 288
-0.997268, 209, 105, 224, 168
-0.997283, 391, 241, 406, 304
-0.997283, 17, 13, 32, 44
-0.997295, 241, 1, 304, 256
-0.997317, 483, 25, 498, 56
-0.997321, 113, 193, 240, 224
-0.997326, 469, 105, 484, 168
-0.997332, 347, 273, 362, 336
-0.997338, 49, 165, 176, 196
-0.997339, 369, 205, 496, 236
-0.997343, 145, 101, 272, 132
-0.997353, 95, 13, 110, 44
-0.997356, 105, 105, 120, 168
-0.997368, 45, 161, 76, 288
-0.997371, 403, 225, 418, 288
-0.997375, 399, 33, 414, 96
-0.99738, 177, 213, 304, 244
-0.997382, 369, 129, 496, 160
-0.997404, 433, 249, 448, 312
-0.99744, 17, 33, 32, 96
-0.997453, 369, 153, 384, 216
-0.997455, 205, 81, 236, 208
-0.99746, 275, 129, 290, 192
-0.997477, 51, 1, 66, 32
-0.997501, 209, 97, 336, 128
-0.997517, 281, 97, 312, 224
-0.997521, 161, 1, 192, 128
-0.997541, 305, 161, 432, 192
-0.997553, 429, 281, 444, 312
-0.997559, 309, 257, 324, 288
-0.997579, 49, 205, 176, 236
-0.997579, 7, 45, 22, 76
-0.997582, 423, 285, 438, 316
-0.997598, 385, 1, 416, 256
-0.997601, 113, 1, 144, 256
-0.997604, 439, 277, 454, 308
-0.997613, 289, 85, 416, 116
-0.997625, 477, 21, 492, 52
-0.997637, 419, 13, 434, 44
-0.997648, 129, 289, 256, 320
-0.997651, 57, 1, 88, 256
-0.997653, 107, 13, 122, 44
-0.997663, 257, 197, 384, 228
-0.997667, 1, 269, 128, 300
-0.997685, 299, 265, 314, 296
-0.997689, 3, 289, 18, 320
-0.99769, 445, 277, 460, 308
-0.99769, 1, 297, 128, 328
-0.99769, 9, 285, 24, 316
-0.997702, 413, 13, 428, 44
-0.997719, 289, 109, 416, 140
-0.997721, 1, 237, 128, 268
-0.997728, 483, 289, 498, 320
-0.997739, 293, 97, 324, 339
-0.997772, 477, 285, 492, 316
-0.997779, 369, 225, 496, 256
-0.997811, 65, 277, 192, 308
-0.997819, 407, 13, 422, 44
-0.99785, 203, 245, 218, 276
-0.997856, 145, 269, 272, 300
-0.997863, 417, 289, 432, 320
-0.997877, 305, 269, 320, 300
-0.997887, 289, 257, 304, 288
-0.99789, 429, 5, 444, 36
-0.997907, 305, 37, 432, 68
-0.997913, 469, 49, 484, 80
-0.997918, 469, 13, 484, 44
-0.997934, 241, 109, 368, 140
-0.997943, 349, 1, 380, 128
-0.997965, 65, 193, 128, 320
-0.997985, 45, 1, 60, 32
-0.998004, 1, 253, 128, 284
-0.998012, 65, 193, 192, 224
-0.998014, 257, 165, 384, 196
-0.998024, 181, 101, 196, 132
-0.998024, 445, 1, 460, 32
-0.998029, 303, 245, 318, 276
-0.99804, 185, 97, 216, 339
-0.998042, 273, 137, 400, 168
-0.998053, 201, 233, 216, 264
-0.998057, 477, 309, 492, 339
-0.998064, 7, 309, 22, 339
-0.998079, 395, 13, 410, 44
-0.99808, 173, 97, 204, 339
-0.99808, 23, 13, 38, 44
-0.99809, 181, 1, 212, 256
-0.9981, 435, 1, 450, 32
-0.998101, 407, 301, 422, 332
-0.998104, 389, 97, 420, 339
-0.998116, 193, 245, 208, 276
-0.998122, 273, 185, 400, 216
-0.998122, 17, 189, 32, 220
-0.998123, 49, 129, 176, 160
-0.99813, 71, 13, 86, 44
-0.99813, 77, 13, 92, 44
-0.99813, 83, 13, 98, 44
-0.99813, 89, 13, 104, 44
-0.998132, 1, 29, 16, 60
-0.998134, 177, 33, 304, 96
-0.998134, 17, 221, 32, 252
-0.998143, 107, 53, 122, 84
-0.998144, 151, 309, 166, 339
-0.998155, 193, 225, 208, 256
-0.998157, 113, 181, 240, 212
-0.998177, 39, 5, 54, 36
-0.998178, 145, 113, 272, 144
-0.998185, 149, 177, 180, 304
-0.998188, 205, 105, 220, 136
-0.998194, 451, 5, 466, 36
-0.9982, 65, 217, 192, 248
-0.998214, 269, 1, 300, 128
-0.998218, 65, 13, 80, 44
-0.998219, 311, 273, 326, 304
-0.998224, 17, 173, 32, 204
-0.998229, 457, 9, 472, 40
-0.998261, 33, 9, 48, 40
-0.998275, 209, 249, 224, 280
-0.998276, 485, 301, 500, 332
-0.998281, 451, 277, 466, 308
-0.998287, 303, 101, 318, 132
-0.99829, 5, 1, 36, 256
-0.998301, 187, 237, 202, 268
-0.998303, 297, 249, 312, 280
-0.998311, 469, 37, 484, 68
-0.998315, 313, 233, 328, 264
-0.998321, 469, 97, 500, 224
-0.998334, 177, 109, 208, 124
-0.998334, 393, 43, 424, 58
-0.998337, 285, 243, 316, 258
-0.998337, 113, 55, 144, 70
-0.998338, 13, 21, 44, 36
-0.998338, 209, 245, 240, 260
-0.998338, 13, 279, 44, 294
-0.998338, 469, 25, 500, 40
-0.998339, 93, 57, 124, 72
-0.99834, 401, 301, 416, 332
-0.99834, 423, 301, 438, 332
-0.99834, 305, 49, 432, 80
-0.998341, 97, 63, 128, 78
-0.998342, 361, 323, 392, 338
-0.998342, 13, 199, 44, 214
-0.998343, 301, 223, 332, 238
-0.998343, 113, 77, 128, 108
-0.998343, 285, 279, 316, 294
-0.998344, 433, 291, 464, 306
-0.998344, 313, 97, 344, 112
-0.998345, 381, 17, 412, 32
-0.998345, 365, 275, 396, 290
-0.998346, 305, 61, 432, 92
-0.998346, 241, 263, 272, 278
-0.998347, 211, 113, 226, 144
-0.998347, 273, 277, 304, 292
-0.998348, 149, 313, 180, 328
-0.998349, 453, 275, 484, 290
-0.998349, 13, 207, 44, 222
-0.99835, 337, 323, 368, 338
-0.998352, 57, 9, 72, 40
-0.998352, 349, 207, 380, 222
-0.998353, 13, 47, 44, 62
-0.998353, 397, 25, 428, 40
-0.998354, 113, 75, 144, 90
-0.998354, 197, 253, 228, 268
-0.998355, 445, 287, 476, 302
-0.998356, 425, 11, 456, 26
-0.998356, 297, 103, 328, 118
-0.998358, 29, 9, 60, 24
-0.998358, 105, 35, 136, 50
-0.998358, 133, 317, 164, 332
-0.998359, 317, 97, 348, 339
-0.998359, 17, 237, 32, 268
-0.99836, 461, 301, 492, 316
-0.99836, 105, 29, 136, 44
-0.998361, 109, 49, 140, 64
-0.998362, 173, 239, 204, 254
-0.998362, 109, 43, 140, 58
-0.998362, 13, 241, 44, 256
-0.998363, 17, 205, 32, 236
-0.998364, 13, 169, 44, 184
-0.998364, 393, 37, 424, 52
-0.998364, 269, 251, 300, 266
-0.998364, 109, 83, 140, 98
-0.998365, 117, 137, 132, 168
-0.998365, 413, 9, 444, 24
-0.998365, 333, 315, 364, 330
-0.998366, 469, 295, 500, 310
-0.998366, 389, 255, 420, 270
-0.998366, 13, 213, 44, 228
-0.998367, 253, 259, 284, 274
-0.998368, 13, 55, 44, 70
-0.998368, 13, 61, 44, 76
-0.998368, 13, 67, 44, 82
-0.998368, 13, 73, 44, 88
-0.998368, 13, 79, 44, 94
-0.998368, 13, 85, 44, 100
-0.998368, 13, 91, 44, 106
-0.998368, 13, 97, 44, 112
-0.998368, 13, 103, 44, 118
-0.998368, 13, 109, 44, 124
-0.998368, 13, 115, 44, 130
-0.998368, 13, 121, 44, 136
-0.998368, 13, 127, 44, 142
-0.998368, 13, 133, 44, 148
-0.998368, 13, 139, 44, 154
-0.998368, 13, 145, 44, 160
-0.998368, 13, 151, 44, 166
-0.998368, 13, 157, 44, 172
-0.998368, 13, 163, 44, 178
-0.998369, 113, 65, 144, 80
-0.99837, 101, 23, 132, 38
-0.99837, 405, 301, 436, 316
-0.998371, 297, 279, 328, 294
-0.998371, 413, 321, 444, 336
-0.998375, 13, 235, 44, 250
-0.998376, 177, 181, 304, 212
-0.998376, 185, 227, 216, 242
-0.998377, 1, 291, 32, 306
-0.998382, 289, 249, 320, 264
-0.998383, 445, 9, 476, 24
-0.998384, 13, 227, 44, 242
-0.998389, 457, 53, 488, 68
-0.998389, 101, 33, 116, 64
-0.99839, 421, 1, 452, 256
-0.99839, 397, 31, 428, 46
-0.998391, 193, 113, 320, 144
-0.998392, 457, 281, 488, 296
-0.998392, 13, 193, 44, 208
-0.998393, 321, 1, 448, 32
-0.998394, 185, 221, 200, 252
-0.998394, 9, 323, 40, 338
-0.998394, 13, 219, 44, 234
-0.998397, 89, 323, 120, 338
-0.998397, 101, 323, 132, 338
-0.998398, 61, 15, 92, 30
-0.998398, 349, 315, 380, 330
-0.998399, 297, 261, 328, 276
-0.998399, 69, 323, 100, 338
-0.998399, 193, 109, 224, 124
-0.998399, 13, 97, 44, 339
-0.998399, 113, 323, 144, 338
-0.9984, 13, 175, 44, 190
-0.998401, 17, 57, 32, 88
-0.998401, 17, 69, 32, 100
-0.998401, 17, 81, 32, 112
-0.998401, 17, 93, 32, 124
-0.998401, 17, 105, 32, 136
-0.998401, 17, 117, 32, 148
-0.998401, 17, 129, 32, 160
-0.998401, 17, 141, 32, 172
-0.998401, 17, 153, 32, 184
-0.998407, 457, 277, 472, 308
-0.99841, 349, 323, 380, 338
-0.99841, 193, 141, 320, 172
-0.99841, 129, 323, 160, 338
-0.998412, 409, 15, 440, 30
-0.998414, 13, 181, 44, 196
-0.998415, 101, 17, 132, 32
-0.998415, 461, 323, 492, 338
-0.998421, 1, 31, 32, 46
-0.998423, 409, 295, 440, 310
-0.998424, 457, 41, 488, 56
-0.998426, 297, 267, 328, 282
-0.998427, 265, 257, 296, 272
-0.998428, 193, 241, 224, 256
-0.99843, 13, 187, 44, 202
-0.99843, 463, 13, 478, 44
-0.998431, 9, 181, 24, 212
-0.998438, 9, 269, 24, 300
-0.998439, 189, 235, 220, 250
-0.99844, 289, 73, 416, 104
-0.998442, 457, 15, 488, 30
-0.998442, 289, 255, 320, 270
-0.998448, 413, 289, 444, 304
-0.998449, 457, 47, 488, 62
-0.99845, 315, 221, 330, 252
-0.99845, 291, 269, 306, 300
-0.998453, 177, 103, 208, 118
-0.998455, 17, 41, 32, 72
-0.998458, 315, 261, 330, 292
-0.998459, 469, 289, 500, 304
-0.998462, 437, 279, 468, 294
-0.998463, 25, 9, 88, 24
-0.998465, 49, 323, 112, 338
-0.998468, 193, 247, 224, 262
-0.998469, 115, 65, 130, 96
-0.99847, 385, 15, 448, 30
-0.998473, 425, 281, 488, 296
-0.998473, 417, 9, 480, 24
-0.998478, 469, 273, 484, 304
-0.998479, 9, 61, 24, 92
-0.998479, 9, 73, 24, 104
-0.998479, 9, 85, 24, 116
-0.998479, 9, 97, 24, 128
-0.998479, 9, 109, 24, 140
-0.998479, 9, 121, 24, 152
-0.998479, 9, 133, 24, 164
-0.998479, 9, 145, 24, 176
-0.998479, 9, 157, 24, 188
-0.99848, 469, 1, 484, 128
-0.99848, 33, 323, 64, 338
-0.998481, 293, 273, 324, 288
-0.998482, 373, 301, 388, 332
-0.998483, 485, 37, 500, 68
-0.998484, 355, 185, 370, 216
-0.998486, 291, 281, 306, 312
-0.998489, 111, 129, 126, 160
-0.99849, 101, 13, 116, 44
-0.998492, 469, 43, 500, 58
-0.998492, 49, 141, 176, 172
-0.998494, 285, 265, 316, 280
-0.998495, 289, 145, 320, 272
-0.998499, 309, 221, 324, 252
-0.9985, 273, 265, 336, 280
-0.998503, 59, 309, 74, 339
-0.998503, 9, 169, 24, 200
-0.998505, 175, 101, 190, 132
-0.99851, 9, 225, 24, 256
-0.99851, 161, 89, 288, 120
-0.998511, 241, 289, 368, 320
-0.998511, 321, 221, 336, 252
-0.998512, 17, 265, 32, 296
-0.998512, 469, 105, 484, 136
-0.998513, 365, 309, 380, 339
-0.998514, 257, 255, 320, 270
-0.998514, 369, 297, 432, 312
-0.998515, 397, 15, 428, 30
-0.998516, 377, 291, 440, 306
-0.998518, 411, 289, 426, 320
-0.99852, 201, 261, 216, 292
-0.99852, 81, 15, 112, 30
-0.998522, 425, 283, 456, 298
-0.998524, 433, 323, 496, 338
-0.998529, 357, 309, 372, 339
-0.998529, 327, 209, 342, 240
-0.998529, 397, 37, 412, 68
-0.99853, 273, 271, 336, 286
-0.998531, 381, 285, 396, 316
-0.998531, 49, 15, 112, 30
-0.998531, 281, 245, 296, 276
-0.998535, 25, 323, 88, 338
-0.998539, 189, 101, 204, 132
-0.998541, 409, 289, 472, 304
-0.998541, 241, 263, 304, 278
-0.998545, 169, 105, 232, 120
-0.99855, 429, 297, 444, 328
-0.998553, 437, 323, 468, 338
-0.998553, 377, 279, 440, 294
-0.998554, 433, 5, 464, 20
-0.998561, 337, 301, 400, 316
-0.998562, 53, 323, 84, 338
-0.998565, 9, 15, 72, 30
-0.998565, 41, 7, 72, 22
-0.998565, 337, 295, 400, 310
-0.998567, 433, 287, 496, 302
-0.998568, 9, 317, 72, 332
-0.998568, 209, 193, 336, 224
-0.998573, 425, 317, 488, 332
-0.998574, 1, 281, 128, 312
-0.998574, 369, 285, 432, 300
-0.998576, 1, 323, 64, 338
-0.998576, 345, 277, 408, 292
-0.998576, 17, 15, 48, 30
-0.998576, 185, 245, 248, 260
-0.998577, 401, 299, 464, 314
-0.998577, 401, 283, 464, 298
-0.998578, 369, 303, 432, 318
-0.998578, 409, 323, 472, 338
-0.998578, 345, 283, 408, 298
-0.998579, 425, 15, 488, 30
-0.998582, 361, 257, 424, 272
-0.998583, 353, 271, 416, 286
-0.998585, 337, 289, 400, 304
-0.998586, 265, 249, 328, 264
-0.998587, 361, 263, 424, 278
-0.99859, 433, 47, 496, 62
-0.998591, 385, 27, 448, 42
-0.998592, 19, 1, 34, 128
-0.998594, 185, 239, 248, 254
-0.998596, 433, 21, 496, 36
-0.998597, 433, 111, 496, 126
-0.998598, 65, 265, 192, 296
-0.998598, 105, 323, 168, 338
-0.998602, 273, 225, 336, 240
-0.998602, 329, 313, 392, 328
-0.998603, 281, 277, 344, 292
-0.998603, 385, 273, 448, 288
-0.998607, 433, 105, 496, 120
-0.998607, 305, 275, 368, 290
-0.998607, 393, 305, 456, 320
-0.99861, 97, 17, 160, 32
-0.99861, 457, 97, 488, 339
-0.998611, 73, 323, 136, 338
-0.998611, 161, 239, 224, 254
-0.998611, 329, 323, 392, 338
-0.998612, 9, 181, 72, 196
-0.998612, 361, 315, 424, 330
-0.998614, 289, 101, 352, 116
-0.998614, 385, 323, 448, 338
-0.998614, 265, 241, 328, 256
-0.998615, 329, 307, 392, 322
-0.998615, 425, 295, 488, 310
-0.998619, 433, 117, 496, 132
-0.99862, 385, 21, 448, 36
-0.99862, 385, 33, 448, 48
-0.998621, 361, 251, 424, 266
-0.998621, 9, 175, 72, 190
-0.998621, 281, 259, 344, 274
-0.998622, 201, 97, 232, 339
-0.998622, 201, 257, 264, 272
-0.998623, 97, 29, 160, 44
-0.998623, 169, 111, 232, 126
-0.998624, 321, 213, 384, 228
-0.998625, 305, 33, 336, 288
-0.998627, 425, 3, 488, 18
-0.998627, 9, 169, 72, 184
-0.998628, 9, 219, 72, 234
-0.998629, 105, 81, 168, 96
-0.998629, 433, 275, 496, 290
-0.99863, 105, 67, 168, 82
-0.99863, 477, 1, 492, 128
-0.998631, 9, 187, 72, 202
-0.998632, 257, 277, 320, 292
-0.998632, 433, 99, 496, 114
-0.998632, 433, 125, 496, 140
-0.998633, 161, 245, 224, 260
-0.998634, 385, 9, 448, 24
-0.998634, 105, 315, 168, 330
-0.998636, 97, 23, 160, 38
-0.998636, 105, 73, 168, 88
-0.998637, 97, 43, 160, 58
-0.998638, 177, 233, 240, 248
-0.998639, 385, 39, 448, 54
-0.998639, 433, 81, 496, 96
-0.99864, 433, 93, 496, 108
-0.99864, 1, 285, 64, 300
-0.998641, 329, 205, 392, 220
-0.998642, 433, 39, 496, 54
-0.998643, 97, 35, 160, 50
-0.998643, 353, 29, 416, 44
-0.998644, 1, 39, 64, 54
-0.998644, 433, 71, 496, 86
-0.998645, 185, 251, 248, 266
-0.998645, 433, 311, 496, 326
-0.998645, 105, 53, 168, 68
-0.998645, 137, 315, 200, 330
-0.998645, 9, 225, 72, 240
-0.998647, 433, 87, 496, 102
-0.998647, 1, 21, 64, 36
-0.998648, 313, 269, 376, 284
-0.998648, 105, 61, 168, 76
-0.998648, 337, 195, 400, 210
-0.998648, 409, 97, 440, 339
-0.998648, 313, 219, 376, 234
-0.99865, 9, 163, 72, 178
-0.99865, 9, 233, 72, 248
-0.998651, 433, 33, 496, 48
-0.998652, 369, 243, 432, 258
-0.998652, 273, 231, 336, 246
-0.998652, 401, 169, 464, 184
-0.998652, 353, 17, 416, 32
-0.998653, 433, 53, 496, 68
-0.998653, 9, 203, 72, 218
-0.998653, 409, 213, 472, 228
-0.998654, 393, 317, 456, 332
-0.998654, 97, 97, 160, 112
-0.998654, 305, 195, 368, 210
-0.998654, 281, 219, 344, 234
-0.998655, 289, 107, 352, 122
-0.998655, 97, 107, 160, 122
-0.998656, 65, 29, 128, 44
-0.998657, 377, 149, 440, 164
-0.998657, 401, 175, 464, 190
-0.998657, 433, 131, 496, 146
-0.99868, 129, 161, 256, 192
-0.998687, 49, 101, 176, 132
-0.998723, 399, 1, 414, 128
-0.998728, 225, 181, 352, 212
-0.998733, 105, 97, 136, 339
-0.998737, 465, 1, 496, 256
-0.998746, 377, 97, 408, 339
-0.998758, 461, 1, 476, 128
-0.998828, 299, 193, 314, 320
-0.998849, 455, 1, 470, 128
-0.998902, 113, 1, 128, 128
-0.998903, 405, 1, 420, 128
-0.998908, 301, 1, 332, 128
-0.998914, 103, 1, 118, 128
-0.998916, 361, 97, 392, 339
-0.998917, 129, 1, 160, 256
-0.998954, 373, 1, 404, 256
-0.998964, 291, 209, 306, 336
-0.99898, 469, 209, 500, 336
-0.998982, 169, 1, 200, 256
-0.999007, 413, 1, 428, 128
-0.999019, 249, 97, 280, 224
-0.999022, 281, 97, 312, 339
-0.999037, 193, 1, 224, 256
-0.99905, 17, 177, 32, 304
-0.99907, 97, 1, 112, 128
-0.999075, 419, 1, 434, 128
-0.999083, 153, 129, 184, 256
-0.999086, 393, 1, 408, 128
-0.999094, 111, 49, 126, 176
-0.999095, 111, 113, 126, 240
-0.999099, 305, 193, 320, 320
-0.999101, 427, 1, 442, 128
-0.99912, 357, 1, 388, 256
-0.999139, 441, 65, 472, 320
-0.999151, 285, 209, 300, 336
-0.999157, 25, 1, 40, 128
-0.999162, 9, 49, 24, 176
-0.999181, 33, 1, 48, 128
-0.999181, 67, 1, 82, 128
-0.999181, 73, 1, 88, 128
-0.999181, 79, 1, 94, 128
-0.999181, 85, 1, 100, 128
-0.999181, 91, 1, 106, 128
-0.999199, 9, 1, 24, 128
-0.999205, 317, 1, 348, 256
-0.999206, 17, 129, 32, 256
-0.999207, 61, 1, 76, 128
-0.999213, 39, 1, 54, 128
-0.999214, 479, 49, 494, 176
-0.999239, 205, 1, 236, 256
-0.99924, 449, 1, 464, 128
-0.99924, 311, 193, 326, 320
-0.999249, 469, 49, 484, 176
-0.999251, 265, 97, 296, 339
-0.99929, 157, 1, 188, 256
-0.999299, 403, 193, 418, 320
-0.999302, 235, 209, 250, 336
-0.999311, 319, 177, 334, 304
-0.999313, 213, 193, 228, 320
-0.999317, 201, 209, 216, 336
-0.99932, 117, 129, 132, 256
-0.99932, 9, 145, 24, 272
-0.999322, 17, 81, 32, 208
-0.999324, 229, 209, 244, 336
-0.999327, 105, 81, 120, 208
-0.999342, 241, 209, 256, 336
-0.999355, 435, 177, 450, 304
-0.999358, 419, 209, 434, 336
-0.999364, 207, 193, 222, 320
-0.999365, 185, 65, 200, 192
-0.999367, 427, 177, 442, 304
-0.999369, 191, 177, 206, 304
-0.999372, 233, 97, 264, 339
-0.999372, 117, 65, 132, 192
-0.999376, 219, 193, 234, 320
-0.999381, 433, 1, 448, 128
-0.999382, 9, 97, 24, 224
-0.999391, 329, 33, 360, 288
-0.999396, 397, 193, 412, 320
-0.999404, 413, 209, 428, 336
-0.999409, 393, 49, 408, 176
-0.999411, 247, 209, 262, 336
-0.999412, 117, 97, 148, 339
-0.999414, 55, 1, 70, 128
-0.999415, 325, 177, 340, 304
-0.999418, 469, 97, 484, 224
-0.999423, 119, 1, 134, 128
-0.999424, 397, 97, 412, 224
-0.999435, 441, 1, 456, 128
-0.999438, 275, 129, 290, 256
-0.999441, 359, 177, 374, 304
-0.999442, 421, 97, 452, 339
-0.999449, 387, 193, 402, 320
-0.999453, 483, 1, 498, 128
-0.999454, 279, 209, 294, 336
-0.999458, 455, 209, 470, 336
-0.99947, 191, 81, 206, 208
-0.999476, 181, 113, 196, 240
-0.999478, 9, 193, 24, 320
-0.999483, 161, 97, 192, 339
-0.999485, 373, 209, 388, 336
-0.99949, 197, 161, 212, 288
-0.999495, 139, 1, 154, 128
-0.999496, 443, 209, 458, 336
-0.999497, 367, 209, 382, 336
-0.999501, 449, 209, 464, 336
-0.999506, 245, 1, 276, 256
-0.999511, 413, 161, 428, 288
-0.999515, 367, 161, 382, 288
-0.99952, 129, 33, 256, 96
-0.999523, 131, 1, 146, 128
-0.999531, 253, 209, 268, 336
-0.999537, 29, 1, 60, 256
-0.999537, 125, 1, 140, 128
-0.999541, 303, 81, 318, 208
-0.999547, 197, 81, 212, 208
-0.999548, 237, 1, 252, 128
-0.999552, 391, 113, 406, 240
-0.999552, 353, 177, 368, 304
-0.999553, 9, 145, 24, 160
-0.999553, 9, 151, 24, 166
-0.999553, 9, 157, 24, 172
-0.999553, 9, 163, 24, 178
-0.999553, 9, 169, 24, 184
-0.999553, 9, 175, 24, 190
-0.999554, 9, 235, 24, 250
-0.999555, 307, 271, 322, 286
-0.999555, 123, 129, 138, 256
-0.999555, 311, 97, 326, 224
-0.999556, 1, 303, 16, 318
-0.999556, 211, 117, 226, 132
-0.999557, 331, 161, 346, 288
-0.999557, 301, 101, 316, 116
-0.999558, 485, 303, 500, 318
-0.999558, 429, 129, 444, 256
-0.999559, 435, 7, 450, 22
-0.999559, 291, 257, 306, 272
-0.999559, 447, 279, 462, 294
-0.99956, 147, 317, 162, 332
-0.99956, 299, 275, 314, 290
-0.99956, 57, 9, 72, 24
-0.999561, 9, 313, 24, 328
-0.999561, 9, 187, 24, 202
-0.999561, 115, 75, 130, 90
-0.999562, 1, 41, 16, 56
-0.999562, 181, 161, 196, 288
-0.999562, 17, 215, 32, 230
-0.999563, 17, 241, 32, 256
-0.999563, 347, 129, 362, 256
-0.999564, 287, 279, 302, 294
-0.999564, 469, 317, 484, 332
-0.999564, 17, 51, 32, 66
-0.999564, 17, 57, 32, 72
-0.999564, 17, 63, 32, 78
-0.999564, 17, 69, 32, 84
-0.999564, 17, 75, 32, 90
-0.999564, 17, 81, 32, 96
-0.999564, 17, 87, 32, 102
-0.999564, 17, 93, 32, 108
-0.999564, 17, 99, 32, 114
-0.999564, 17, 105, 32, 120
-0.999564, 17, 111, 32, 126
-0.999564, 17, 117, 32, 132
-0.999564, 17, 123, 32, 138
-0.999564, 17, 129, 32, 144
-0.999564, 17, 135, 32, 150
-0.999564, 17, 141, 32, 156
-0.999564, 17, 147, 32, 162
-0.999564, 17, 153, 32, 168
-0.999564, 17, 159, 32, 174
-0.999564, 17, 165, 32, 180
-0.999564, 17, 171, 32, 186
-0.999565, 301, 263, 316, 278
-0.999565, 17, 235, 32, 250
-0.999567, 201, 105, 216, 120
-0.999567, 17, 177, 32, 192
-0.999568, 1, 97, 32, 339
-0.999569, 107, 25, 122, 40
-0.999569, 341, 1, 372, 256
-0.999569, 479, 37, 494, 52
-0.99957, 289, 263, 304, 278
-0.99957, 175, 97, 190, 224
-0.999571, 433, 325, 448, 339
-0.999571, 17, 227, 32, 242
-0.999571, 423, 287, 438, 302
-0.999571, 17, 197, 32, 212
-0.999571, 393, 17, 408, 32
-0.999572, 485, 39, 500, 54
-0.999573, 407, 15, 422, 30
-0.999574, 435, 281, 450, 296
-0.999574, 429, 283, 444, 298
-0.999575, 413, 15, 428, 30
-0.999576, 445, 3, 460, 18
-0.999576, 107, 61, 122, 76
-0.999576, 71, 15, 86, 30
-0.999578, 77, 15, 92, 30
-0.999578, 83, 15, 98, 30
-0.999578, 311, 259, 326, 274
-0.999578, 241, 161, 256, 288
-0.999578, 89, 15, 104, 30
-0.99958, 469, 41, 484, 56
-0.99958, 141, 1, 172, 256
-0.99958, 9, 39, 24, 54
-0.999581, 479, 309, 494, 324
-0.999582, 441, 279, 456, 294
-0.999583, 363, 323, 378, 338
-0.999583, 309, 279, 324, 294
-0.999583, 403, 81, 418, 208
-0.999583, 351, 323, 366, 338
-0.999583, 139, 323, 154, 338
-0.999584, 27, 15, 42, 30
-0.999584, 17, 221, 32, 236
-0.999584, 65, 15, 80, 30
-0.999585, 421, 145, 436, 272
-0.999586, 181, 101, 196, 116
-0.999586, 101, 129, 116, 256
-0.999587, 79, 323, 94, 338
-0.999587, 85, 323, 100, 338
-0.999587, 91, 323, 106, 338
-0.999587, 97, 323, 112, 338
-0.999587, 103, 323, 118, 338
-0.999587, 109, 323, 124, 338
-0.999587, 115, 323, 130, 338
-0.999587, 121, 323, 136, 338
-0.999588, 441, 321, 456, 336
-0.999589, 71, 323, 86, 338
-0.999589, 127, 323, 142, 338
-0.99959, 17, 183, 32, 198
-0.999591, 341, 129, 356, 256
-0.999592, 133, 323, 148, 338
-0.999593, 451, 7, 466, 22
-0.999594, 19, 323, 34, 338
-0.999595, 231, 1, 246, 128
-0.999597, 423, 15, 438, 30
-0.999598, 353, 129, 368, 256
-0.999599, 177, 1, 192, 128
-0.999599, 375, 129, 390, 256
-0.999601, 357, 323, 372, 338
-0.999603, 61, 323, 76, 338
-0.999603, 201, 249, 216, 264
-0.999605, 305, 257, 320, 272
-0.999606, 17, 191, 32, 206
-0.999606, 289, 161, 304, 288
-0.999607, 41, 7, 56, 22
-0.999608, 309, 265, 324, 280
-0.999609, 469, 47, 484, 62
-0.999609, 459, 11, 474, 26
-0.99961, 429, 9, 444, 24
-0.99961, 479, 23, 494, 38
-0.999612, 35, 11, 50, 26
-0.999612, 277, 1, 308, 256
-0.999612, 269, 113, 284, 240
-0.999613, 467, 323, 482, 338
-0.999615, 469, 53, 484, 68
-0.999615, 243, 1, 258, 128
-0.999618, 233, 1, 264, 256
-0.999618, 131, 177, 146, 304
-0.999618, 203, 81, 218, 208
-0.999619, 359, 129, 374, 256
-0.999619, 387, 1, 402, 128
-0.999619, 9, 25, 24, 40
-0.999623, 469, 97, 500, 339
-0.999626, 75, 145, 90, 272
-0.999629, 105, 15, 120, 30
-0.99963, 221, 1, 252, 256
-0.999633, 95, 145, 110, 272
-0.999641, 317, 113, 332, 240
-0.999641, 477, 287, 492, 302
-0.999642, 145, 1, 160, 128
-0.999644, 485, 27, 500, 42
-0.999646, 81, 145, 96, 272
-0.999647, 89, 145, 104, 272
-0.999648, 381, 209, 396, 336
-0.999649, 1, 291, 16, 306
-0.999651, 349, 97, 380, 339
-0.999651, 273, 177, 288, 304
-0.999652, 281, 161, 296, 288
-0.999655, 3, 29, 18, 44
-0.999656, 265, 177, 280, 304
-0.999656, 9, 287, 24, 302
-0.999661, 485, 291, 500, 306
-0.999662, 125, 177, 140, 304
-0.999662, 477, 97, 492, 224
-0.999664, 469, 15, 484, 30
-0.999667, 435, 129, 450, 256
-0.999667, 185, 209, 200, 336
-0.999669, 439, 1, 454, 16
-0.999671, 49, 5, 64, 20
-0.999673, 95, 15, 110, 30
-0.999682, 55, 323, 70, 338
-0.999687, 45, 1, 76, 256
-0.999689, 401, 15, 416, 30
-0.999707, 253, 97, 284, 339
-0.999717, 9, 47, 24, 62
-0.999729, 479, 43, 494, 58
-0.999731, 19, 15, 34, 30
-0.999788, 33, 1, 96, 339
-0.999816, 221, 97, 252, 339
-0.999821, 293, 1, 324, 256
-0.999949, 333, 1, 364, 128
-0.999966, 129, 97, 160, 339
-1.00001, 93, 97, 124, 339
-1.00004, 321, 1, 352, 128
-1.0001, 257, 1, 288, 256
-1.00017, 97, 177, 128, 304
-1.00018, 289, 1, 320, 128
-1.00041, 141, 97, 172, 339
-1.00052, 225, 97, 256, 224
-1.00062, 77, 97, 108, 339
-1.0007, 125, 65, 156, 192
-1.00076, 65, 97, 96, 339
-1.00106, 49, 97, 80, 339
-1.00124, 37, 97, 68, 339
-1.00171, 25, 97, 56, 339
-1.00288, 41, 97, 104, 339
-1.00336, 281, 49, 344, 176
-1.00656, 41, 209, 104, 336
-1.00916, 49, 65, 112, 192
