1966
-0.455578, 1, 129, 500, 375
-0.562637, 193, 97, 448, 352
-0.584775, 193, 1, 448, 375
-0.60109, 1, 33, 500, 288
-0.604862, 1, 1, 500, 375
-0.662445, 65, 129, 320, 375
-0.693328, 1, 1, 256, 375
-0.70448, 97, 1, 352, 375
-0.816315, 97, 33, 352, 288
-0.846019, 1, 33, 256, 288
-0.848197, 257, 1, 500, 256
-0.852617, 225, 65, 352, 320
-0.875343, 145, 129, 272, 375
-0.875943, 273, 65, 400, 320
-0.877467, 225, 1, 352, 375
-0.879886, 353, 129, 480, 375
-0.894725, 81, 97, 208, 352
-0.901879, 161, 97, 416, 224
-0.902649, 1, 129, 500, 256
-0.907994, 1, 97, 128, 352
-0.911315, 145, 1, 272, 375
-0.911544, 273, 1, 400, 375
-0.917768, 65, 1, 192, 375
-0.921901, 1, 1, 128, 375
-0.922003, 321, 1, 448, 375
-0.922302, 65, 129, 320, 256
-0.924496, 321, 33, 448, 288
-0.925722, 161, 33, 288, 288
-0.926379, 1, 241, 500, 368
-0.928677, 257, 145, 500, 272
-0.930396, 369, 1, 496, 375
-0.930955, 273, 65, 336, 192
-0.931187, 257, 97, 384, 224
-0.93165, 257, 97, 500, 224
-0.935949, 193, 113, 320, 240
-0.936185, 1, 177, 500, 304
-0.940297, 225, 113, 288, 240
-0.940375, 1, 81, 500, 208
-0.942211, 33, 1, 160, 256
-0.943347, 281, 89, 344, 152
-0.943893, 161, 145, 416, 272
-0.948091, 249, 97, 312, 224
-0.948572, 97, 1, 224, 256
-0.949784, 313, 97, 376, 224
-0.950101, 353, 145, 480, 272
-0.950367, 369, 33, 496, 288
-0.953071, 209, 65, 336, 192
-0.954093, 81, 129, 208, 256
-0.954177, 201, 129, 264, 256
-0.954661, 257, 145, 384, 272
-0.955146, 129, 225, 384, 352
-0.956001, 145, 129, 272, 256
-0.956338, 305, 97, 432, 224
-0.956483, 129, 49, 384, 176
-0.957546, 233, 121, 296, 184
-0.95853, 289, 113, 352, 240
-0.959036, 225, 225, 480, 352
-0.960655, 153, 129, 216, 256
-0.960818, 353, 129, 416, 256
-0.96197, 273, 113, 336, 176
-0.962667, 65, 177, 320, 304
-0.962852, 177, 129, 240, 256
-0.964476, 433, 145, 496, 272
-0.965215, 1, 113, 128, 240
-0.965263, 1, 81, 256, 208
-0.965473, 305, 145, 432, 272
-0.965864, 329, 145, 392, 272
-0.966451, 281, 65, 344, 320
-0.966561, 377, 145, 440, 272
-0.966742, 241, 209, 368, 336
-0.967009, 161, 193, 288, 320
-0.967401, 129, 129, 192, 256
-0.967424, 305, 137, 368, 200
-0.967931, 169, 137, 232, 200
-0.969158, 129, 81, 256, 208
-0.969865, 409, 145, 472, 272
-0.970152, 89, 113, 152, 240
-0.970445, 33, 241, 288, 368
-0.970664, 321, 105, 384, 168
-0.97073, 289, 241, 416, 368
-0.970835, 209, 161, 336, 288
-0.971026, 209, 161, 272, 224
-0.971081, 433, 153, 496, 216
-0.971288, 17, 113, 80, 240
-0.971374, 225, 121, 352, 184
-0.971578, 257, 97, 384, 160
-0.971948, 353, 153, 416, 216
-0.972144, 241, 97, 304, 352
-0.972248, 193, 137, 256, 200
-0.972755, 265, 145, 328, 272
-0.972842, 297, 65, 328, 192
-0.973315, 305, 241, 368, 368
-0.974093, 385, 153, 448, 216
-0.974565, 49, 113, 112, 240
-0.975048, 293, 81, 324, 144
-0.975071, 209, 97, 272, 352
-0.975364, 277, 81, 308, 208
-0.975602, 113, 177, 240, 304
-0.975604, 129, 129, 192, 192
-0.975622, 321, 193, 384, 320
-0.975749, 305, 81, 336, 144
-0.976015, 257, 49, 384, 176
-0.976088, 241, 161, 304, 288
-0.976161, 257, 49, 500, 176
-0.976184, 65, 225, 192, 352
-0.976407, 261, 113, 292, 240
-0.976415, 353, 225, 416, 352
-0.976646, 313, 129, 376, 375
-0.976676, 237, 113, 268, 240
-0.976836, 289, 193, 416, 320
-0.976857, 329, 145, 392, 208
-0.9769, 305, 129, 432, 192
-0.976903, 177, 81, 240, 208
-0.977114, 249, 97, 312, 160
-0.977199, 273, 241, 336, 368
-0.977584, 49, 81, 176, 208
-0.97771, 273, 161, 336, 224
-0.977741, 145, 241, 272, 368
-0.977973, 353, 97, 480, 224
-0.978083, 241, 225, 304, 352
-0.978433, 353, 241, 480, 368
-0.978568, 353, 153, 480, 216
-0.978577, 309, 65, 340, 192
-0.978582, 409, 153, 472, 216
-0.978771, 281, 97, 312, 160
-0.978867, 169, 177, 232, 304
-0.978953, 105, 129, 168, 192
-0.979105, 225, 65, 288, 192
-0.97919, 361, 129, 424, 375
-0.97921, 1, 121, 64, 184
-0.979238, 249, 177, 312, 240
-0.979278, 177, 137, 304, 200
-0.979368, 257, 153, 384, 216
-0.979375, 249, 113, 280, 240
-0.97939, 213, 129, 244, 256
-0.979406, 129, 225, 192, 352
-0.979574, 265, 305, 328, 368
-0.979599, 321, 121, 352, 184
-0.979725, 313, 265, 376, 328
-0.979935, 305, 297, 368, 360
-0.980027, 433, 129, 496, 375
-0.980051, 177, 129, 240, 375
-0.980063, 313, 241, 376, 304
-0.980154, 385, 129, 448, 375
-0.980156, 57, 129, 120, 192
-0.980204, 129, 97, 192, 352
-0.980294, 321, 97, 352, 224
-0.980485, 237, 121, 268, 184
-0.980613, 353, 225, 416, 288
-0.980668, 97, 241, 160, 368
-0.980959, 185, 169, 248, 232
-0.980981, 281, 137, 344, 200
-0.981074, 25, 121, 88, 184
-0.981238, 305, 161, 368, 224
-0.981281, 113, 265, 176, 328
-0.981448, 353, 281, 416, 344
-0.981534, 81, 129, 144, 192
-0.981638, 181, 129, 212, 256
-0.981767, 129, 137, 256, 200
-0.981786, 449, 153, 480, 216
-0.981963, 321, 33, 384, 288
-0.982127, 185, 113, 248, 176
-0.98214, 217, 137, 248, 200
-0.982202, 225, 113, 256, 240
-0.982248, 321, 185, 384, 248
-0.982288, 353, 129, 416, 192
-0.982341, 241, 265, 304, 328
-0.982416, 409, 129, 472, 375
-0.982608, 153, 81, 216, 208
-0.982798, 201, 129, 232, 256
-0.982874, 289, 161, 352, 288
-0.982891, 257, 137, 320, 200
-0.983066, 257, 129, 288, 192
-0.983129, 65, 177, 192, 304
-0.983221, 337, 193, 464, 320
-0.983343, 89, 97, 152, 352
-0.983407, 281, 65, 344, 128
-0.983423, 329, 241, 392, 368
-0.983578, 49, 129, 176, 192
-0.983591, 313, 49, 376, 176
-0.983639, 337, 129, 400, 375
-0.983664, 153, 129, 216, 375
-0.983712, 161, 161, 288, 224
-0.983782, 17, 241, 144, 368
-0.983808, 269, 105, 300, 168
-0.983946, 161, 129, 192, 256
-0.984049, 193, 241, 320, 368
-0.984056, 145, 201, 272, 264
-0.984109, 249, 49, 312, 176
-0.984116, 305, 97, 432, 160
-0.984166, 65, 97, 128, 352
-0.984284, 201, 81, 264, 208
-0.984301, 465, 161, 496, 224
-0.984343, 1, 97, 64, 352
-0.984373, 149, 129, 180, 256
-0.984673, 409, 97, 472, 224
-0.984877, 361, 129, 392, 256
-0.984937, 289, 281, 416, 344
-0.984947, 137, 297, 200, 360
-0.985065, 1, 65, 128, 192
-0.985095, 385, 97, 448, 224
-0.985207, 161, 185, 224, 248
-0.985229, 121, 241, 184, 304
-0.985287, 41, 97, 104, 352
-0.985317, 113, 81, 176, 208
-0.98535, 201, 137, 232, 200
-0.985363, 17, 177, 144, 304
-0.985373, 17, 209, 80, 336
-0.985451, 209, 113, 272, 176
-0.985459, 469, 145, 500, 272
-0.985461, 209, 97, 336, 160
-0.985468, 345, 81, 408, 208
-0.985538, 417, 145, 448, 272
-0.985683, 297, 113, 360, 176
-0.985726, 353, 257, 416, 320
-0.985769, 17, 161, 80, 288
-0.985785, 305, 49, 432, 176
-0.98583, 337, 137, 368, 200
-0.985872, 153, 161, 216, 224
-0.985873, 445, 145, 476, 272
-0.986004, 353, 257, 480, 320
-0.986037, 225, 313, 352, 375
-0.986049, 1, 129, 128, 192
-0.986101, 433, 97, 496, 224
-0.986142, 349, 145, 380, 272
-0.986314, 417, 289, 480, 352
-0.986387, 313, 73, 376, 136
-0.986391, 313, 217, 376, 280
-0.986404, 353, 177, 416, 304
-0.986488, 397, 153, 428, 216
-0.986503, 137, 113, 168, 240
-0.986568, 73, 241, 136, 304
-0.986682, 337, 305, 400, 368
-0.986708, 397, 129, 428, 256
-0.986814, 269, 129, 300, 192
-0.986851, 241, 273, 368, 336
-0.986871, 325, 145, 356, 208
-0.98689, 309, 113, 340, 240
-0.98691, 433, 145, 464, 272
-0.986931, 209, 169, 336, 232
-0.986933, 357, 153, 388, 216
-0.986984, 321, 305, 352, 368
-0.987008, 241, 225, 368, 288
-0.987037, 305, 153, 432, 216
-0.9871, 21, 113, 52, 240
-0.987161, 105, 313, 168, 375
-0.987164, 65, 233, 192, 296
-0.987201, 353, 177, 416, 240
-0.987429, 281, 1, 344, 375
-0.987448, 337, 129, 368, 256
-0.987507, 153, 113, 216, 176
-0.987522, 129, 113, 256, 176
-0.987553, 273, 73, 400, 136
-0.987554, 281, 93, 344, 124
-0.987573, 145, 225, 272, 288
-0.987645, 41, 209, 104, 336
-0.987783, 417, 153, 448, 216
-0.987786, 457, 145, 488, 272
-0.98781, 25, 233, 88, 296
-0.987989, 281, 265, 344, 328
-0.988056, 385, 145, 416, 208
-0.988075, 257, 177, 288, 240
-0.988185, 209, 201, 272, 264
-0.988213, 109, 113, 140, 240
-0.988228, 385, 265, 448, 328
-0.988233, 73, 225, 136, 352
-0.988247, 309, 137, 340, 200
-0.988256, 209, 193, 336, 256
-0.988261, 433, 153, 464, 216
-0.988271, 249, 201, 312, 264
-0.988292, 253, 105, 284, 168
-0.988304, 325, 97, 356, 160
-0.988363, 289, 145, 320, 272
-0.988368, 1, 65, 64, 192
-0.988373, 73, 113, 104, 240
-0.988484, 97, 113, 128, 240
-0.988489, 153, 241, 216, 368
-0.988496, 257, 177, 384, 240
-0.988503, 409, 129, 472, 192
-0.98852, 121, 177, 184, 304
-0.98854, 353, 201, 416, 264
-0.988551, 365, 225, 396, 352
-0.988566, 9, 113, 40, 240
-0.98857, 137, 129, 168, 192
-0.988615, 385, 145, 416, 272
-0.988732, 289, 201, 352, 264
-0.988732, 373, 129, 404, 256
-0.988769, 289, 225, 416, 288
-0.988776, 241, 249, 368, 312
-0.988824, 385, 209, 448, 272
-0.98896, 153, 137, 184, 200
-0.98896, 417, 201, 480, 264
-0.988978, 49, 265, 176, 328
-0.989043, 289, 257, 416, 320
-0.989151, 161, 129, 416, 192
-0.989153, 33, 113, 64, 240
-0.989168, 49, 113, 80, 240
-0.989203, 81, 161, 208, 224
-0.989242, 353, 281, 480, 344
-0.98926, 409, 265, 472, 328
-0.989276, 373, 145, 404, 208
-0.989288, 81, 265, 144, 328
-0.989372, 281, 117, 344, 148
-0.989411, 349, 129, 380, 192
-0.989476, 233, 129, 296, 160
-0.989492, 433, 177, 496, 240
-0.989498, 1, 121, 32, 184
-0.989507, 257, 1, 320, 256
-0.989536, 257, 161, 288, 288
-0.989585, 49, 225, 112, 288
-0.989635, 41, 161, 104, 288
-0.989635, 393, 225, 456, 352
-0.989635, 181, 137, 212, 200
-0.989649, 353, 201, 480, 264
-0.989741, 281, 105, 344, 136
-0.989767, 281, 241, 344, 304
-0.98979, 113, 129, 144, 192
-0.989793, 357, 281, 388, 344
-0.989823, 81, 209, 208, 272
-0.989838, 97, 289, 160, 352
-0.989917, 125, 129, 156, 192
-0.989956, 377, 129, 440, 192
-0.99005, 225, 73, 352, 136
-0.990093, 281, 129, 312, 192
-0.990093, 61, 113, 92, 240
-0.990093, 121, 113, 152, 240
-0.990138, 433, 265, 496, 328
-0.99016, 169, 33, 232, 288
-0.990228, 241, 233, 304, 296
-0.99025, 281, 81, 344, 112
-0.99025, 461, 137, 492, 200
-0.990336, 305, 305, 432, 368
-0.990352, 81, 305, 208, 368
-0.990352, 349, 97, 380, 224
-0.990358, 313, 141, 376, 172
-0.990432, 233, 145, 296, 208
-0.990451, 241, 1, 304, 375
-0.990465, 321, 105, 384, 136
-0.990479, 73, 65, 136, 192
-0.990481, 137, 273, 200, 336
-0.990487, 289, 161, 320, 224
-0.990498, 1, 33, 500, 160
-0.99057, 265, 129, 328, 160
-0.990653, 85, 113, 116, 240
-0.990688, 169, 137, 200, 200
-0.990719, 337, 169, 368, 232
-0.990735, 13, 121, 44, 184
-0.99083, 241, 117, 304, 148
-0.990831, 153, 217, 216, 280
-0.990852, 121, 193, 184, 256
-0.990919, 273, 201, 400, 264
-0.990929, 145, 265, 272, 328
-0.99098, 273, 161, 304, 224
-0.990997, 273, 129, 304, 256
-0.991023, 201, 177, 264, 304
-0.991058, 289, 161, 352, 192
-0.991102, 97, 129, 128, 192
-0.99112, 33, 33, 288, 160
-0.991156, 337, 153, 400, 184
-0.991198, 425, 157, 488, 188
-0.9912, 321, 1, 384, 375
-0.991224, 113, 105, 176, 168
-0.991258, 33, 65, 96, 192
-0.991282, 113, 217, 176, 280
-0.991289, 45, 121, 76, 184
-0.991313, 1, 225, 64, 288
-0.991318, 121, 137, 184, 168
-0.99132, 313, 125, 376, 156
-0.991359, 253, 225, 284, 352
-0.991365, 353, 141, 416, 172
-0.991368, 1, 1, 64, 375
-0.991372, 193, 141, 256, 172
-0.991379, 161, 105, 416, 168
-0.991383, 209, 129, 272, 160
-0.991442, 433, 129, 496, 192
-0.991444, 393, 157, 456, 188
-0.991454, 417, 241, 480, 368
-0.991474, 145, 241, 208, 304
-0.991485, 321, 177, 448, 240
-0.991522, 353, 129, 480, 192
-0.99153, 57, 105, 120, 168
-0.991552, 305, 333, 368, 364
-0.991576, 353, 225, 384, 352
-0.991589, 213, 81, 244, 208
-0.991608, 1, 233, 128, 296
-0.991616, 273, 141, 336, 172
-0.991616, 385, 289, 448, 352
-0.991659, 313, 153, 376, 184
-0.991691, 297, 305, 328, 368
-0.991707, 77, 129, 108, 192
-0.991709, 209, 169, 240, 232
-0.991727, 289, 17, 352, 144
-0.991742, 81, 217, 144, 280
-0.991745, 369, 153, 432, 184
-0.991765, 97, 257, 224, 320
-0.991776, 353, 233, 480, 296
-0.991776, 65, 177, 128, 304
-0.991781, 257, 65, 288, 192
-0.991802, 57, 265, 120, 328
-0.99181, 257, 145, 500, 208
-0.991827, 169, 141, 232, 172
-0.991831, 289, 129, 352, 160
-0.991832, 209, 177, 272, 208
-0.991833, 281, 73, 312, 136
-0.991837, 41, 129, 104, 160
-0.991853, 313, 261, 376, 292
-0.991882, 313, 93, 376, 124
-0.991892, 97, 137, 160, 168
-0.991923, 297, 57, 328, 120
-0.991924, 169, 1, 232, 375
-0.991952, 65, 137, 320, 200
-0.991966, 1, 125, 64, 156
-0.991978, 177, 305, 304, 368
-0.991979, 145, 137, 208, 168
-0.991986, 129, 1, 192, 375
-0.991986, 129, 289, 256, 352
-0.992013, 273, 313, 336, 344
-0.992015, 313, 321, 376, 352
-0.992023, 177, 193, 240, 224
-0.992065, 121, 225, 184, 256
-0.992068, 225, 1, 288, 256
-0.992076, 409, 289, 472, 320
-0.992097, 73, 133, 136, 164
-0.992132, 217, 161, 280, 192
-0.992133, 233, 305, 296, 368
-0.992136, 309, 313, 340, 375
-0.992165, 217, 141, 280, 172
-0.992194, 301, 105, 332, 168
-0.992217, 185, 129, 248, 160
-0.992234, 25, 121, 56, 184
-0.992234, 57, 129, 88, 192
-0.99224, 433, 289, 496, 320
-0.992262, 353, 285, 416, 316
-0.992283, 97, 293, 160, 324
-0.992305, 249, 193, 312, 224
-0.992309, 257, 93, 320, 124
-0.99231, 385, 289, 448, 320
-0.992318, 313, 273, 376, 304
-0.992319, 201, 1, 264, 375
-0.992327, 313, 301, 376, 332
-0.99233, 249, 177, 312, 208
-0.992342, 321, 249, 384, 280
-0.992343, 197, 177, 228, 240
-0.992363, 173, 177, 204, 304
-0.992364, 257, 105, 320, 136
-0.992382, 309, 209, 340, 336
-0.992398, 345, 297, 408, 328
-0.992416, 9, 229, 72, 260
-0.992436, 297, 85, 328, 116
-0.992449, 237, 169, 268, 232
-0.99245, 121, 285, 184, 316
-0.992454, 49, 105, 176, 168
-0.992461, 225, 89, 288, 152
-0.992464, 345, 129, 408, 160
-0.992471, 353, 249, 416, 280
-0.992484, 241, 165, 304, 196
-0.992485, 97, 241, 160, 304
-0.992507, 329, 237, 392, 268
-0.992527, 345, 33, 408, 288
-0.992532, 161, 161, 416, 224
-0.992534, 393, 185, 456, 248
-0.992541, 353, 169, 416, 200
-0.992544, 17, 241, 80, 272
-0.992562, 121, 237, 184, 268
-0.992564, 385, 141, 448, 172
-0.992565, 289, 261, 352, 292
-0.992583, 265, 165, 328, 196
-0.992593, 285, 93, 316, 124
-0.992594, 313, 169, 376, 200
-0.992603, 353, 261, 416, 292
-0.992604, 249, 273, 280, 336
-0.992606, 329, 285, 392, 316
-0.992607, 237, 129, 268, 160
-0.992608, 257, 81, 320, 112
-0.99262, 309, 89, 340, 120
-0.992643, 329, 213, 392, 244
-0.992643, 361, 217, 424, 248
-0.992649, 321, 225, 384, 256
-0.992661, 361, 229, 424, 260
-0.992662, 257, 301, 320, 332
-0.992692, 353, 273, 416, 304
-0.992692, 33, 229, 96, 260
-0.992697, 257, 73, 320, 136
-0.992698, 333, 273, 364, 336
-0.992708, 141, 257, 172, 320
-0.99274, 241, 265, 304, 296
-0.992759, 113, 273, 176, 304
-0.992762, 185, 181, 248, 212
-0.992768, 241, 277, 304, 308
-0.99277, 309, 101, 340, 132
-0.992773, 321, 129, 352, 160
-0.992801, 161, 125, 224, 156
-0.992819, 433, 33, 496, 288
-0.992822, 145, 177, 208, 208
-0.992828, 297, 345, 360, 375
-0.992828, 65, 245, 128, 276
-0.992833, 209, 205, 272, 236
-0.992844, 281, 117, 312, 148
-0.99286, 329, 113, 360, 144
-0.992861, 365, 249, 396, 312
-0.992882, 177, 165, 240, 196
-0.992885, 361, 197, 424, 228
-0.992898, 121, 125, 184, 156
-0.9929, 249, 129, 280, 160
-0.992917, 317, 149, 348, 180
-0.992919, 273, 177, 336, 208
-0.992919, 289, 273, 352, 304
-0.992924, 317, 333, 348, 364
-0.992927, 65, 265, 128, 296
-0.992929, 129, 213, 192, 244
-0.992934, 369, 177, 496, 240
-0.99295, 241, 249, 304, 280
-0.992955, 161, 345, 224, 375
-0.992956, 329, 185, 392, 216
-0.992956, 337, 145, 368, 176
-0.99296, 249, 221, 312, 252
-0.992961, 161, 237, 224, 268
-0.992963, 241, 289, 304, 320
-0.992963, 181, 185, 212, 248
-0.992963, 213, 145, 244, 176
-0.992967, 321, 197, 384, 228
-0.992975, 249, 153, 312, 184
-0.992975, 401, 129, 432, 192
-0.992975, 433, 205, 496, 236
-0.992988, 365, 217, 396, 280
-0.992988, 289, 245, 352, 276
-0.992995, 425, 301, 488, 332
-0.992996, 57, 229, 120, 260
-0.993007, 457, 161, 488, 192
-0.993011, 233, 309, 296, 340
-0.993017, 269, 117, 300, 148
-0.993018, 33, 253, 96, 284
-0.993019, 361, 129, 392, 192
-0.993025, 285, 81, 316, 112
-0.993026, 117, 137, 148, 168
-0.99303, 209, 225, 272, 288
-0.99303, 281, 297, 344, 328
-0.993031, 213, 113, 244, 176
-0.993033, 469, 289, 500, 352
-0.993034, 121, 297, 184, 328
-0.993036, 121, 253, 184, 284
-0.993037, 397, 153, 428, 184
-0.993041, 373, 145, 404, 176
-0.993043, 169, 153, 232, 184
-0.993046, 89, 281, 152, 312
-0.993047, 313, 81, 376, 112
-0.993048, 309, 117, 340, 148
-0.99305, 193, 153, 256, 184
-0.993055, 281, 105, 312, 136
-0.993065, 137, 317, 200, 348
-0.993069, 425, 225, 488, 288
-0.99307, 385, 145, 416, 176
-0.993074, 1, 257, 128, 320
-0.993088, 241, 205, 304, 236
-0.993089, 261, 129, 292, 160
-0.993093, 133, 133, 164, 164
-0.993097, 329, 97, 360, 128
-0.993098, 353, 157, 384, 188
-0.993099, 89, 177, 152, 304
-0.993102, 257, 189, 288, 220
-0.993104, 345, 109, 408, 140
-0.993115, 325, 317, 356, 348
-0.993116, 97, 125, 160, 156
-0.993117, 229, 141, 260, 172
-0.993124, 385, 121, 416, 184
-0.99313, 225, 189, 288, 220
-0.993135, 153, 137, 184, 168
-0.993141, 305, 149, 336, 180
-0.99315, 41, 241, 104, 272
-0.993153, 377, 133, 408, 164
-0.993156, 409, 145, 472, 176
-0.993159, 409, 157, 440, 188
-0.993163, 445, 157, 476, 188
-0.993164, 241, 233, 304, 264
-0.993166, 425, 157, 456, 188
-0.993168, 81, 221, 144, 252
-0.993172, 145, 289, 176, 352
-0.993177, 145, 293, 208, 324
-0.993182, 65, 285, 128, 316
-0.993183, 101, 133, 132, 164
-0.993187, 105, 333, 168, 364
-0.993191, 469, 161, 500, 192
-0.993193, 225, 153, 256, 184
-0.993199, 153, 189, 216, 220
-0.9932, 289, 213, 352, 244
-0.993202, 269, 169, 300, 200
-0.993209, 257, 177, 288, 208
-0.99321, 249, 141, 312, 172
-0.993213, 201, 81, 232, 208
-0.993216, 433, 233, 496, 264
-0.993217, 1, 105, 128, 168
-0.993218, 365, 133, 396, 164
-0.993221, 441, 285, 472, 316
-0.993221, 153, 201, 216, 232
-0.993229, 337, 321, 400, 352
-0.993237, 217, 133, 248, 164
-0.993238, 337, 169, 368, 200
-0.99324, 277, 129, 308, 160
-0.993244, 265, 105, 296, 136
-0.993245, 141, 281, 172, 312
-0.993246, 357, 293, 388, 324
-0.993253, 201, 1, 264, 256
-0.993257, 201, 145, 232, 176
-0.993276, 81, 105, 144, 168
-0.99328, 257, 117, 288, 148
-0.993286, 197, 185, 228, 216
-0.993287, 165, 141, 196, 172
-0.993288, 425, 289, 456, 320
-0.993296, 301, 309, 332, 340
-0.993309, 97, 185, 224, 248
-0.993314, 305, 137, 336, 168
-0.993323, 341, 157, 372, 188
-0.993326, 45, 129, 76, 160
-0.993337, 29, 125, 60, 156
-0.993339, 289, 165, 320, 196
-0.993344, 221, 161, 252, 224
-0.993346, 349, 145, 380, 176
-0.993347, 313, 345, 344, 375
-0.99335, 297, 97, 328, 128
-0.99336, 453, 285, 484, 316
-0.993363, 217, 165, 248, 196
-0.993371, 89, 133, 120, 164
-0.993378, 1, 125, 32, 156
-0.993379, 373, 157, 404, 188
-0.99338, 353, 133, 384, 164
-0.993382, 273, 93, 304, 124
-0.993384, 177, 141, 208, 172
-0.993387, 389, 133, 420, 164
-0.993391, 369, 285, 400, 316
-0.993391, 69, 129, 100, 160
-0.993392, 25, 1, 88, 375
-0.993395, 189, 141, 220, 172
-0.993396, 341, 337, 372, 368
-0.993401, 385, 157, 416, 188
-0.993402, 17, 125, 48, 156
-0.993404, 281, 153, 312, 184
-0.993413, 245, 293, 276, 324
-0.993416, 129, 285, 160, 316
-0.993418, 269, 181, 300, 212
-0.993426, 305, 217, 336, 248
-0.993429, 297, 73, 328, 104
-0.993447, 169, 129, 200, 160
-0.993449, 365, 249, 396, 280
-0.993453, 301, 161, 332, 192
-0.993458, 149, 241, 180, 272
-0.993461, 405, 289, 436, 320
-0.993462, 317, 257, 348, 288
-0.993465, 145, 301, 176, 332
-0.993468, 365, 221, 396, 252
-0.993469, 325, 161, 356, 192
-0.993474, 365, 197, 396, 228
-0.993479, 465, 149, 496, 180
-0.99348, 365, 233, 396, 264
-0.993485, 177, 197, 208, 228
-0.993489, 149, 229, 180, 260
-0.993495, 245, 117, 276, 148
-0.993496, 465, 285, 496, 316
-0.993499, 361, 145, 392, 176
-0.993502, 357, 169, 388, 200
-0.993505, 57, 129, 88, 160
-0.993507, 309, 77, 340, 108
-0.993507, 329, 85, 360, 116
-0.993509, 129, 297, 160, 328
-0.993516, 457, 281, 488, 344
-0.99352, 401, 137, 432, 168
-0.993521, 237, 181, 268, 212
-0.993522, 389, 289, 420, 320
-0.993523, 329, 341, 360, 372
-0.993523, 149, 217, 180, 248
-0.993527, 141, 269, 172, 300
-0.993531, 365, 177, 396, 304
-0.993533, 297, 125, 328, 156
-0.993542, 345, 181, 376, 212
-0.993543, 241, 309, 272, 340
-0.993545, 361, 185, 392, 216
-0.993546, 305, 241, 336, 272
-0.993546, 361, 269, 392, 300
-0.993546, 417, 145, 448, 176
-0.993548, 353, 281, 384, 312
-0.993548, 1, 229, 32, 260
-0.993548, 149, 253, 180, 284
-0.99355, 89, 229, 120, 260
-0.993553, 353, 305, 384, 336
-0.993556, 205, 173, 236, 204
-0.993559, 205, 133, 236, 164
-0.993562, 117, 125, 148, 156
-0.993563, 461, 269, 492, 300
-0.993565, 385, 121, 416, 152
-0.99357, 269, 141, 300, 172
-0.99357, 313, 161, 344, 192
-0.993571, 225, 121, 352, 152
-0.9936, 321, 145, 352, 272
-0.993601, 1, 1, 64, 256
-0.993672, 369, 281, 400, 344
-0.993699, 345, 105, 408, 168
-0.993715, 81, 225, 112, 288
-0.993727, 257, 97, 500, 160
-0.99374, 185, 193, 248, 256
-0.993741, 145, 225, 176, 352
-0.993747, 17, 153, 144, 216
-0.993754, 313, 265, 344, 328
-0.99376, 365, 193, 396, 256
-0.993762, 321, 241, 352, 368
-0.99377, 193, 17, 320, 144
-0.993779, 329, 49, 360, 176
-0.99381, 161, 209, 192, 336
-0.993812, 217, 273, 280, 336
-0.99394, 33, 297, 160, 360
-0.993947, 193, 217, 320, 280
-0.994034, 385, 241, 448, 304
-0.994038, 345, 297, 376, 360
-0.994065, 25, 145, 88, 208
-0.994076, 209, 133, 336, 164
-0.994085, 361, 1, 424, 375
-0.99411, 141, 233, 172, 296
-0.994113, 17, 209, 144, 272
-0.994158, 257, 121, 500, 184
-0.994185, 89, 1, 152, 375
-0.994186, 1, 137, 500, 200
-0.994194, 317, 225, 348, 288
-0.994194, 225, 265, 480, 328
-0.994198, 49, 201, 112, 264
-0.994222, 293, 129, 324, 192
-0.994223, 321, 89, 336, 152
-0.994241, 57, 1, 120, 375
-0.994316, 33, 1, 96, 256
-0.994317, 193, 241, 320, 304
-0.994335, 377, 33, 440, 288
-0.994335, 417, 97, 448, 224
-0.994343, 287, 89, 302, 152
-0.99435, 305, 161, 336, 288
-0.994356, 273, 97, 400, 128
-0.994375, 265, 81, 296, 144
-0.994401, 129, 169, 192, 232
-0.994417, 461, 97, 492, 224
-0.994431, 377, 225, 408, 352
-0.994461, 193, 185, 448, 248
-0.994505, 145, 177, 208, 304
-0.994671, 425, 1, 488, 375
-0.994672, 101, 241, 132, 304
-0.994674, 169, 201, 200, 264
-0.994698, 295, 81, 310, 144
-0.994723, 193, 281, 320, 344
-0.994733, 233, 65, 264, 192
-0.994768, 153, 241, 184, 304
-0.994802, 209, 241, 272, 368
-0.994815, 161, 81, 416, 144
-0.994822, 1, 145, 64, 208
-0.994847, 97, 265, 128, 328
-0.994858, 273, 109, 400, 140
-0.994875, 393, 265, 424, 328
-0.994887, 1, 201, 64, 264
-0.994958, 269, 33, 300, 160
-0.994972, 1, 65, 32, 192
-0.994988, 331, 105, 346, 168
-0.995019, 69, 225, 100, 352
-0.995029, 333, 241, 364, 368
-0.995076, 345, 217, 376, 280
-0.995077, 49, 185, 176, 248
-0.995177, 177, 73, 304, 136
-0.995209, 289, 153, 416, 184
-0.995214, 225, 89, 352, 120
-0.995219, 337, 113, 368, 176
-0.99522, 189, 177, 220, 304
-0.995263, 301, 161, 332, 224
-0.995293, 337, 157, 464, 188
-0.995294, 345, 193, 376, 256
-0.99531, 433, 97, 464, 224
-0.995323, 149, 209, 180, 272
-0.995364, 229, 137, 244, 200
-0.995368, 239, 121, 254, 184
-0.995368, 393, 1, 456, 375
-0.995381, 305, 209, 336, 272
-0.995414, 293, 17, 324, 144
-0.995458, 257, 165, 384, 196
-0.99547, 373, 121, 404, 184
-0.995481, 253, 233, 284, 296
-0.995508, 341, 193, 372, 320
-0.995541, 445, 281, 476, 344
-0.995541, 1, 177, 128, 240
-0.995544, 193, 209, 448, 272
-0.995545, 385, 97, 416, 224
-0.995547, 245, 65, 276, 192
-0.995559, 33, 161, 288, 224
-0.995574, 309, 17, 340, 144
-0.995579, 33, 217, 288, 280
-0.995585, 301, 81, 316, 144
-0.995588, 463, 153, 478, 216
-0.995597, 145, 141, 272, 172
-0.995645, 225, 109, 352, 140
-0.9957, 25, 169, 88, 232
-0.995702, 97, 281, 352, 344
-0.995724, 1, 161, 32, 288
-0.995732, 323, 121, 338, 184
-0.995752, 157, 81, 188, 208
-0.995776, 321, 73, 448, 136
-0.995777, 413, 281, 444, 344
-0.995799, 241, 145, 272, 208
-0.995831, 125, 241, 156, 368
-0.995853, 307, 81, 322, 144
-0.995859, 469, 265, 500, 328
-0.995874, 481, 153, 496, 216
-0.995879, 9, 97, 72, 160
-0.995879, 25, 209, 88, 272
-0.995883, 33, 257, 96, 320
-0.995889, 97, 241, 352, 304
-0.995901, 279, 105, 294, 168
-0.995903, 73, 1, 136, 256
-0.995915, 357, 129, 372, 192
-0.995916, 315, 81, 330, 144
-0.995932, 49, 161, 112, 224
-0.995934, 273, 121, 400, 152
-0.995942, 85, 241, 116, 368
-0.995972, 177, 81, 208, 208
-0.995986, 261, 153, 292, 216
-0.995991, 233, 161, 264, 288
-0.996015, 351, 137, 366, 200
-0.996024, 33, 105, 288, 168
-0.996029, 417, 193, 480, 320
-0.996047, 97, 185, 352, 248
-0.996056, 129, 313, 256, 375
-0.996059, 305, 133, 432, 164
-0.996073, 257, 177, 384, 208
-0.996081, 161, 113, 192, 176
-0.99609, 475, 161, 490, 224
-0.99609, 105, 169, 168, 232
-0.99609, 1, 257, 64, 320
-0.996099, 365, 153, 380, 216
-0.99611, 361, 81, 392, 208
-0.996136, 209, 297, 272, 360
-0.996147, 297, 241, 328, 368
-0.996167, 257, 289, 500, 352
-0.996183, 201, 249, 264, 312
-0.996186, 271, 129, 286, 192
-0.996193, 129, 305, 384, 368
-0.996209, 209, 145, 336, 176
-0.996233, 109, 225, 140, 352
-0.996251, 305, 233, 336, 296
-0.996258, 309, 65, 340, 320
-0.996269, 1, 305, 500, 368
-0.99628, 161, 169, 192, 232
-0.996281, 257, 121, 272, 184
-0.996287, 273, 241, 304, 368
-0.996291, 1, 129, 128, 160
-0.996297, 253, 97, 284, 352
-0.996297, 21, 161, 52, 288
-0.996302, 249, 121, 264, 184
-0.996307, 53, 209, 84, 336
-0.996343, 145, 129, 272, 160
-0.996343, 263, 121, 278, 184
-0.996347, 217, 137, 232, 200
-0.996355, 129, 265, 160, 328
-0.996359, 465, 185, 496, 248
-0.996377, 277, 129, 292, 192
-0.996378, 413, 129, 444, 192
-0.996386, 273, 85, 400, 116
-0.996386, 133, 65, 164, 192
-0.996402, 253, 201, 284, 264
-0.996414, 97, 137, 224, 168
-0.996423, 445, 97, 476, 224
-0.99644, 29, 225, 60, 288
-0.996485, 41, 209, 72, 336
-0.996536, 49, 161, 80, 288
-0.996597, 81, 153, 144, 216
-0.996597, 73, 297, 136, 360
-0.996606, 129, 313, 160, 375
-0.996622, 245, 297, 276, 360
-0.996623, 233, 97, 264, 352
-0.996629, 211, 137, 226, 200
-0.99663, 341, 129, 356, 192
-0.996665, 81, 177, 144, 240
-0.996666, 281, 33, 312, 160
-0.996694, 13, 65, 44, 192
-0.996697, 69, 233, 100, 296
-0.996724, 49, 133, 176, 164
-0.996738, 403, 153, 418, 216
-0.996751, 193, 177, 320, 208
-0.996758, 25, 65, 56, 192
-0.996763, 65, 257, 96, 320
-0.996765, 381, 281, 412, 344
-0.996785, 129, 129, 144, 192
-0.996788, 193, 241, 448, 304
-0.996792, 441, 129, 472, 192
-0.996793, 225, 113, 256, 176
-0.996802, 121, 225, 152, 288
-0.996813, 321, 313, 336, 375
-0.996817, 205, 137, 220, 200
-0.996833, 329, 129, 344, 192
-0.99685, 409, 33, 472, 288
-0.996852, 321, 193, 352, 320
-0.996866, 353, 305, 480, 368
-0.996894, 457, 153, 472, 216
-0.996895, 189, 81, 220, 208
-0.996912, 375, 145, 390, 208
-0.996919, 411, 153, 426, 216
-0.996933, 285, 65, 316, 320
-0.996936, 193, 137, 208, 200
-0.99694, 353, 105, 480, 168
-0.996946, 223, 137, 238, 200
-0.996948, 145, 1, 208, 256
-0.99695, 449, 153, 464, 216
-0.996958, 377, 257, 408, 320
-0.99696, 117, 257, 148, 320
-0.996965, 435, 153, 450, 216
-0.996969, 323, 93, 338, 124
-0.996977, 121, 129, 136, 192
-0.996978, 161, 193, 288, 224
-0.996989, 241, 97, 272, 160
-0.996991, 185, 161, 216, 224
-0.996999, 419, 153, 434, 216
-0.997004, 359, 153, 374, 216
-0.997014, 317, 137, 332, 200
-0.997023, 441, 153, 456, 216
-0.997033, 33, 97, 96, 160
-0.997046, 105, 1, 168, 256
-0.997049, 269, 105, 284, 168
-0.997055, 117, 289, 148, 352
-0.997072, 369, 129, 400, 375
-0.997084, 257, 73, 500, 136
-0.997086, 345, 153, 360, 216
-0.997098, 1, 121, 16, 184
-0.997101, 65, 229, 192, 260
-0.997106, 199, 137, 214, 200
-0.997107, 405, 81, 436, 208
-0.997108, 387, 153, 402, 216
-0.99712, 237, 201, 268, 264
-0.99713, 257, 141, 384, 172
-0.99713, 469, 161, 484, 224
-0.997132, 349, 257, 380, 320
-0.997168, 1, 169, 500, 232
-0.997171, 13, 209, 44, 336
-0.997171, 297, 65, 328, 320
-0.997173, 125, 161, 156, 288
-0.997183, 151, 129, 166, 192
-0.997187, 429, 153, 444, 216
-0.997193, 285, 241, 316, 368
-0.997205, 173, 137, 188, 200
-0.997205, 37, 161, 68, 288
-0.997213, 397, 145, 412, 208
-0.997217, 111, 129, 126, 192
-0.99722, 393, 121, 408, 184
-0.997223, 139, 129, 154, 192
-0.997229, 159, 137, 174, 200
-0.997235, 25, 209, 56, 336
-0.997238, 241, 253, 368, 284
-0.997242, 15, 121, 30, 184
-0.997242, 433, 265, 464, 328
-0.997243, 193, 49, 320, 112
-0.997251, 403, 129, 418, 192
-0.997251, 225, 313, 352, 344
-0.997254, 57, 225, 88, 288
-0.997256, 365, 265, 380, 328
-0.997259, 281, 153, 296, 216
-0.997269, 149, 113, 180, 176
-0.99727, 353, 289, 480, 320
-0.997272, 291, 161, 306, 224
-0.997276, 201, 177, 232, 304
-0.99728, 89, 177, 120, 304
-0.997287, 161, 209, 288, 240
-0.997288, 285, 121, 300, 184
-0.997289, 17, 297, 80, 360
-0.997302, 183, 137, 198, 200
-0.997303, 193, 157, 320, 188
-0.997314, 471, 137, 486, 200
-0.997316, 117, 65, 148, 192
-0.997331, 287, 93, 302, 124
-0.997352, 65, 105, 96, 168
-0.997356, 225, 301, 352, 332
-0.997356, 311, 305, 326, 368
-0.99736, 81, 249, 112, 312
-0.997362, 367, 241, 382, 304
-0.99737, 241, 241, 272, 368
-0.997376, 265, 97, 296, 352
-0.997378, 377, 217, 408, 280
-0.997387, 93, 129, 108, 192
-0.997391, 1, 209, 32, 336
-0.997407, 457, 257, 488, 320
-0.997413, 363, 121, 378, 184
-0.997421, 65, 285, 192, 316
-0.997423, 295, 85, 310, 116
-0.997423, 449, 129, 480, 375
-0.997424, 1, 265, 500, 328
-0.997427, 105, 65, 136, 192
-0.997436, 145, 293, 272, 324
-0.997442, 357, 177, 372, 240
-0.997446, 321, 261, 448, 292
-0.997453, 321, 65, 352, 320
-0.997455, 321, 201, 352, 264
-0.997456, 397, 129, 428, 375
-0.99746, 79, 129, 94, 192
-0.997469, 165, 137, 180, 200
-0.997475, 9, 121, 24, 184
-0.997481, 289, 305, 416, 336
-0.997487, 55, 121, 70, 184
-0.997488, 17, 225, 48, 288
-0.9975, 359, 281, 374, 344
-0.997506, 85, 65, 116, 192
-0.997511, 367, 201, 382, 264
-0.997517, 373, 81, 404, 208
-0.997521, 31, 121, 46, 184
-0.997528, 241, 265, 368, 296
-0.99753, 145, 129, 160, 192
-0.997537, 251, 273, 266, 336
-0.997542, 85, 129, 100, 192
-0.997554, 67, 129, 82, 192
-0.99756, 381, 129, 396, 192
-0.99756, 321, 113, 448, 144
-0.997566, 145, 177, 176, 304
-0.997569, 323, 137, 338, 168
-0.99757, 1, 229, 128, 260
-0.997572, 101, 129, 116, 192
-0.997572, 353, 277, 480, 308
-0.997578, 261, 177, 276, 240
-0.997589, 469, 129, 500, 375
-0.997591, 461, 273, 476, 336
-0.997608, 161, 241, 288, 272
-0.99761, 241, 229, 368, 260
-0.997616, 225, 289, 352, 320
-0.997618, 177, 129, 208, 375
-0.997624, 351, 161, 366, 224
-0.997627, 337, 129, 368, 375
-0.997629, 257, 1, 500, 128
-0.997629, 289, 285, 416, 316
-0.997631, 337, 145, 464, 176
-0.997639, 289, 317, 416, 348
-0.997644, 165, 241, 196, 304
-0.997661, 21, 121, 36, 184
-0.997664, 313, 85, 328, 116
-0.99767, 39, 121, 54, 184
-0.997671, 133, 289, 164, 352
-0.997675, 295, 57, 310, 120
-0.997676, 485, 289, 500, 352
-0.997682, 335, 145, 350, 208
-0.997682, 235, 145, 250, 208
-0.997689, 303, 57, 318, 120
-0.997697, 261, 97, 276, 160
-0.9977, 209, 129, 240, 375
-0.997704, 265, 193, 328, 320
-0.997723, 337, 169, 464, 200
-0.997733, 355, 105, 370, 168
-0.997735, 425, 289, 456, 352
-0.997749, 41, 217, 72, 280
-0.997752, 145, 97, 176, 352
-0.997754, 301, 81, 316, 112
-0.997755, 353, 297, 368, 360
-0.997769, 241, 241, 368, 272
-0.99777, 475, 281, 490, 344
-0.997782, 49, 121, 64, 184
-0.997786, 65, 81, 320, 144
-0.997793, 53, 65, 84, 192
-0.997793, 333, 109, 348, 140
-0.997794, 1, 193, 256, 256
-0.997806, 229, 141, 244, 172
-0.99781, 207, 177, 222, 240
-0.997816, 221, 97, 252, 352
-0.997825, 149, 273, 164, 336
-0.997831, 455, 273, 470, 336
-0.997837, 237, 133, 252, 164
-0.99784, 425, 129, 456, 375
-0.997844, 1, 313, 256, 375
-0.997845, 321, 101, 448, 132
-0.997851, 141, 265, 156, 328
-0.997853, 161, 229, 288, 260
-0.997855, 97, 125, 224, 156
-0.997856, 217, 169, 232, 232
-0.997858, 285, 109, 300, 140
-0.997858, 267, 177, 282, 240
-0.997862, 381, 153, 396, 216
-0.997864, 311, 57, 326, 120
-0.997873, 1, 241, 500, 304
-0.99788, 289, 337, 416, 368
-0.99788, 73, 97, 104, 352
-0.99789, 97, 97, 128, 352
-0.997897, 101, 233, 116, 296
-0.9979, 61, 129, 76, 192
-0.997907, 289, 245, 416, 276
-0.997912, 273, 49, 400, 112
-0.997915, 197, 129, 228, 375
-0.997918, 1, 217, 500, 280
-0.997918, 147, 297, 162, 360
-0.997923, 81, 217, 208, 248
-0.997931, 73, 129, 88, 192
-0.997931, 177, 201, 192, 264
-0.997938, 371, 281, 386, 344
-0.997942, 289, 273, 416, 304
-0.997949, 163, 209, 178, 272
-0.99796, 349, 113, 364, 176
-0.997963, 323, 65, 338, 128
-0.997964, 361, 305, 424, 368
-0.997965, 157, 225, 172, 288
-0.997967, 155, 265, 170, 328
-0.997977, 409, 129, 440, 375
-0.997986, 65, 265, 192, 296
-0.997991, 323, 257, 338, 320
-0.997991, 307, 85, 322, 116
-0.997992, 145, 281, 272, 312
-0.998002, 387, 121, 402, 184
-0.99801, 409, 129, 424, 192
-0.998011, 227, 113, 242, 176
-0.998016, 275, 169, 290, 232
-0.99802, 437, 129, 468, 375
-0.998027, 61, 97, 92, 352
-0.998041, 273, 193, 400, 224
-0.998042, 165, 129, 196, 375
-0.998045, 291, 121, 306, 184
-0.99806, 353, 197, 480, 228
-0.998061, 321, 149, 336, 180
-0.998064, 65, 65, 96, 192
-0.998074, 121, 265, 136, 328
-0.998084, 225, 213, 352, 244
-0.998087, 349, 65, 380, 320
-0.998089, 469, 273, 484, 336
-0.998092, 77, 161, 108, 288
-0.998093, 177, 117, 304, 148
-0.998093, 117, 97, 148, 352
-0.998096, 225, 313, 480, 375
-0.998099, 381, 129, 412, 375
-0.998107, 301, 161, 316, 224
-0.998113, 167, 233, 182, 296
-0.998116, 201, 177, 216, 240
-0.99812, 337, 185, 464, 216
-0.998126, 329, 281, 344, 344
-0.998131, 275, 121, 290, 152
-0.998131, 461, 157, 476, 188
-0.998137, 369, 121, 384, 184
-0.998141, 483, 161, 498, 192
-0.998147, 337, 305, 464, 336
-0.99816, 37, 65, 68, 192
-0.998164, 367, 177, 382, 240
-0.998165, 243, 129, 258, 160
-0.998167, 265, 129, 280, 160
-0.998169, 5, 97, 36, 352
-0.998179, 409, 153, 424, 184
-0.998186, 399, 145, 414, 176
-0.998187, 81, 245, 208, 276
-0.998188, 335, 149, 350, 180
-0.99819, 145, 65, 176, 192
-0.998192, 61, 161, 92, 288
-0.998197, 129, 97, 160, 352
-0.9982, 225, 189, 352, 220
-0.998203, 289, 225, 416, 256
-0.998218, 85, 97, 116, 352
-0.99822, 25, 97, 56, 352
-0.998229, 273, 213, 400, 244
-0.998237, 97, 241, 128, 368
-0.998238, 353, 213, 480, 244
-0.998238, 323, 125, 338, 156
-0.99824, 391, 141, 406, 172
-0.998247, 233, 65, 296, 128
-0.998263, 271, 133, 286, 164
-0.998264, 135, 137, 150, 168
-0.998272, 241, 277, 368, 308
-0.998279, 341, 141, 356, 172
-0.998279, 25, 127, 56, 142
-0.998279, 365, 257, 396, 272
-0.99828, 149, 245, 180, 260
-0.99828, 69, 237, 100, 252
-0.998281, 157, 215, 188, 230
-0.998281, 349, 289, 380, 304
-0.998281, 357, 299, 388, 314
-0.998281, 265, 185, 296, 200
-0.998282, 277, 133, 292, 164
-0.998282, 333, 311, 364, 326
-0.998282, 337, 347, 368, 362
-0.998283, 293, 119, 324, 134
-0.998283, 297, 99, 328, 114
-0.998283, 389, 137, 420, 152
-0.998284, 309, 307, 340, 322
-0.998284, 53, 131, 84, 146
-0.998284, 141, 289, 172, 304
-0.998286, 369, 235, 400, 250
-0.998286, 245, 301, 276, 316
-0.998286, 425, 291, 456, 306
-0.998286, 165, 141, 196, 156
-0.998286, 217, 169, 248, 184
-0.998286, 365, 245, 396, 260
-0.998286, 225, 133, 256, 148
-0.998287, 289, 157, 320, 172
-0.998287, 365, 271, 396, 286
-0.998291, 1, 125, 32, 140
-0.998291, 353, 169, 384, 184
-0.998291, 437, 291, 468, 306
-0.998291, 277, 173, 308, 188
-0.998292, 237, 157, 268, 172
-0.998293, 457, 167, 488, 182
-0.998293, 81, 133, 112, 148
-0.998293, 65, 231, 96, 246
-0.998295, 81, 233, 112, 248
-0.998295, 141, 275, 172, 290
-0.998296, 337, 173, 368, 188
-0.998298, 305, 131, 336, 146
-0.998298, 329, 353, 360, 368
-0.998299, 153, 239, 184, 254
-0.998299, 389, 159, 420, 174
-0.998299, 365, 219, 396, 234
-0.998299, 109, 149, 140, 164
-0.998301, 325, 321, 356, 336
-0.998302, 41, 129, 72, 144
-0.998303, 13, 125, 44, 140
-0.998304, 121, 133, 136, 164
-0.998304, 305, 313, 336, 328
-0.998304, 365, 229, 396, 244
-0.998305, 381, 141, 396, 172
-0.998305, 279, 169, 294, 200
-0.998305, 281, 135, 312, 150
-0.998305, 101, 135, 132, 150
-0.998306, 181, 143, 212, 158
-0.998307, 305, 113, 336, 128
-0.998307, 373, 291, 404, 306
-0.998308, 225, 145, 256, 160
-0.99831, 365, 251, 396, 266
-0.998311, 329, 165, 360, 180
-0.998312, 125, 139, 156, 154
-0.998312, 465, 157, 496, 172
-0.998312, 197, 189, 228, 204
-0.998314, 161, 137, 176, 168
-0.998315, 229, 151, 260, 166
-0.998316, 197, 145, 228, 160
-0.998318, 353, 147, 384, 162
-0.998318, 301, 163, 332, 178
-0.998319, 217, 151, 248, 166
-0.99832, 269, 179, 300, 194
-0.998321, 389, 225, 420, 352
-0.998322, 149, 133, 164, 164
-0.998323, 309, 125, 340, 140
-0.998324, 317, 265, 348, 280
-0.998326, 141, 281, 172, 296
-0.998326, 413, 159, 444, 174
-0.998329, 309, 355, 340, 370
-0.998329, 425, 159, 456, 174
-0.99833, 321, 347, 352, 362
-0.99833, 277, 91, 308, 106
-0.998331, 361, 285, 392, 300
-0.998333, 357, 155, 388, 170
-0.998333, 269, 113, 300, 128
-0.998334, 113, 189, 240, 220
-0.998334, 251, 129, 266, 160
-0.998335, 373, 147, 404, 162
-0.998336, 145, 253, 272, 284
-0.998336, 361, 291, 392, 306
-0.998337, 225, 163, 256, 178
-0.998339, 281, 167, 312, 182
-0.99834, 113, 137, 144, 152
-0.998341, 321, 331, 352, 346
-0.998341, 333, 155, 364, 170
-0.998343, 337, 147, 368, 162
-0.998343, 329, 133, 344, 164
-0.998344, 233, 139, 264, 154
-0.998345, 265, 119, 296, 134
-0.998345, 153, 139, 184, 154
-0.998349, 81, 337, 208, 368
-0.998349, 321, 95, 352, 110
-0.998351, 265, 107, 296, 122
-0.998353, 213, 137, 244, 152
-0.998354, 385, 149, 416, 164
-0.998357, 317, 135, 348, 150
-0.998357, 141, 137, 172, 152
-0.998357, 437, 161, 468, 176
-0.998358, 257, 197, 288, 212
-0.998359, 113, 157, 240, 188
-0.99836, 301, 143, 332, 158
-0.99836, 317, 339, 348, 354
-0.99836, 323, 105, 338, 136
-0.99836, 373, 153, 404, 168
-0.998362, 257, 191, 288, 206
-0.998362, 225, 157, 256, 172
-0.998364, 231, 153, 246, 184
-0.998365, 401, 157, 432, 172
-0.998366, 281, 103, 312, 118
-0.99837, 317, 113, 348, 128
-0.998371, 309, 151, 340, 166
-0.998371, 371, 153, 386, 184
-0.998375, 329, 111, 360, 126
-0.998377, 41, 97, 72, 352
-0.998378, 321, 153, 352, 168
-0.998381, 313, 159, 344, 174
-0.998381, 213, 145, 244, 160
-0.998382, 325, 123, 356, 138
-0.998387, 289, 91, 320, 106
-0.99839, 257, 125, 272, 156
-0.998392, 265, 135, 296, 150
-0.998393, 353, 249, 480, 280
-0.998395, 281, 89, 344, 104
-0.998397, 33, 245, 160, 276
-0.998401, 313, 145, 328, 176
-0.998403, 341, 153, 356, 184
-0.998404, 277, 129, 308, 144
-0.998405, 309, 101, 340, 116
-0.998405, 329, 101, 360, 116
-0.998408, 469, 163, 500, 178
-0.998413, 241, 333, 368, 364
-0.998413, 129, 137, 144, 168
-0.998415, 449, 161, 480, 176
-0.998416, 387, 153, 402, 184
-0.998421, 321, 147, 352, 162
-0.998422, 329, 149, 344, 180
-0.998423, 309, 95, 340, 110
-0.998424, 281, 99, 344, 114
-0.998424, 233, 131, 296, 146
-0.998425, 329, 129, 360, 144
-0.998427, 321, 141, 352, 156
-0.998428, 225, 201, 352, 232
-0.998434, 313, 107, 344, 122
-0.998438, 467, 161, 482, 192
-0.998438, 237, 131, 268, 146
-0.998446, 267, 117, 282, 148
-0.998448, 349, 145, 364, 176
-0.998449, 309, 119, 340, 134
-0.998453, 281, 121, 312, 136
-0.998458, 65, 297, 192, 328
-0.998461, 281, 113, 312, 128
-0.998462, 265, 181, 280, 212
-0.998464, 275, 181, 290, 212
-0.998466, 365, 153, 380, 184
-0.998468, 281, 121, 344, 136
-0.998469, 285, 97, 316, 112
-0.998471, 431, 157, 446, 188
-0.998471, 351, 173, 366, 204
-0.998475, 477, 161, 492, 192
-0.998482, 281, 131, 344, 146
-0.998484, 265, 125, 296, 140
-0.998488, 331, 121, 346, 152
-0.99849, 357, 137, 372, 168
-0.99849, 281, 107, 344, 122
-0.99849, 249, 129, 280, 144
-0.998492, 305, 89, 336, 104
-0.998492, 417, 157, 432, 188
-0.998493, 447, 289, 462, 320
-0.998498, 329, 117, 360, 132
-0.998507, 145, 265, 272, 296
-0.998508, 145, 177, 272, 208
-0.998508, 261, 113, 276, 144
-0.998508, 221, 145, 236, 176
-0.998511, 283, 121, 298, 152
-0.998512, 177, 105, 304, 136
-0.998513, 321, 107, 384, 122
-0.998513, 359, 149, 374, 180
-0.998515, 273, 113, 336, 128
-0.99852, 107, 133, 122, 164
-0.998529, 317, 333, 332, 364
-0.99853, 293, 97, 308, 128
-0.998541, 377, 153, 392, 184
-0.998543, 441, 157, 456, 188
-0.998548, 439, 289, 454, 320
-0.99855, 453, 285, 468, 316
-0.99855, 425, 157, 440, 188
-0.998554, 313, 147, 376, 162
-0.998557, 379, 129, 394, 160
-0.998557, 317, 305, 332, 336
-0.99856, 241, 125, 304, 140
-0.998563, 115, 133, 130, 164
-0.998566, 319, 81, 334, 112
-0.998567, 417, 161, 480, 176
-0.998578, 193, 77, 320, 108
-0.998581, 297, 163, 360, 178
-0.998581, 99, 133, 114, 164
-0.998583, 179, 141, 194, 172
-0.998584, 321, 113, 384, 128
-0.998587, 387, 125, 402, 156
-0.998588, 313, 153, 376, 168
-0.998589, 225, 137, 288, 152
-0.99859, 353, 149, 416, 164
-0.998594, 313, 141, 376, 156
-0.998595, 265, 137, 328, 152
-0.998595, 193, 253, 320, 284
-0.998602, 393, 159, 456, 174
-0.998604, 45, 125, 60, 156
-0.998607, 361, 289, 376, 320
-0.998607, 113, 137, 176, 152
-0.998609, 333, 97, 348, 128
-0.998612, 285, 161, 300, 192
-0.998612, 321, 85, 448, 116
-0.998614, 215, 145, 230, 176
-0.998617, 291, 109, 306, 140
-0.998618, 273, 145, 336, 160
-0.99862, 321, 101, 384, 116
-0.998621, 279, 109, 294, 140
-0.998622, 321, 125, 384, 140
-0.998624, 445, 241, 476, 368
-0.998627, 257, 131, 320, 146
-0.998629, 293, 85, 324, 100
-0.99863, 185, 137, 248, 152
-0.998633, 353, 225, 480, 256
-0.998634, 353, 285, 416, 300
-0.998634, 129, 89, 256, 152
-0.998634, 155, 137, 170, 168
-0.998635, 1, 265, 256, 328
-0.998637, 193, 143, 256, 158
-0.998637, 361, 155, 424, 170
-0.998638, 353, 291, 416, 306
-0.99864, 81, 135, 144, 150
-0.998641, 313, 327, 376, 342
-0.998641, 313, 135, 376, 150
-0.998642, 49, 321, 176, 352
-0.998643, 305, 339, 368, 354
-0.998643, 49, 149, 176, 180
-0.998643, 337, 157, 400, 172
-0.998647, 289, 81, 304, 112
-0.998649, 329, 293, 392, 308
-0.998651, 337, 143, 400, 158
-0.998651, 385, 153, 448, 168
-0.998654, 405, 141, 420, 172
-0.998656, 143, 133, 158, 164
-0.998656, 425, 241, 456, 368
-0.998657, 395, 157, 410, 188
-0.998657, 161, 143, 224, 158
-0.998659, 273, 153, 336, 168
-0.998659, 305, 345, 368, 360
-0.998659, 163, 221, 178, 252
-0.998661, 321, 269, 384, 284
-0.998662, 289, 139, 352, 154
-0.998663, 449, 161, 464, 192
-0.998664, 313, 93, 376, 108
-0.998665, 297, 113, 360, 128
-0.998665, 217, 163, 280, 178
-0.998666, 241, 119, 304, 134
-0.998667, 281, 83, 344, 98
-0.998669, 113, 293, 176, 308
-0.998671, 321, 275, 384, 290
-0.998671, 241, 113, 304, 128
-0.998673, 313, 263, 376, 278
-0.998673, 17, 129, 80, 144
-0.998674, 57, 133, 120, 148
-0.998675, 313, 321, 376, 336
-0.998677, 273, 163, 336, 178
-0.998678, 1, 1, 128, 64
-0.998678, 209, 183, 272, 198
-0.998678, 257, 85, 320, 100
-0.998679, 337, 345, 352, 375
-0.99868, 89, 133, 104, 164
-0.998681, 121, 245, 184, 260
-0.998681, 361, 225, 424, 240
-0.998682, 137, 137, 200, 152
-0.998682, 313, 243, 376, 258
-0.998683, 225, 143, 288, 158
-0.998683, 281, 317, 344, 332
-0.998684, 305, 333, 368, 348
-0.998685, 161, 135, 224, 150
-0.998685, 249, 93, 312, 108
-0.998686, 377, 291, 440, 306
-0.998686, 313, 257, 376, 272
-0.998687, 305, 309, 368, 324
-0.998687, 455, 157, 470, 188
-0.998687, 297, 353, 360, 368
-0.998689, 169, 141, 184, 172
-0.998689, 361, 249, 424, 264
-0.99869, 369, 293, 384, 324
-0.998691, 305, 169, 368, 184
-0.998691, 177, 201, 240, 216
-0.998691, 329, 221, 392, 236
-0.998692, 289, 265, 352, 280
-0.998692, 121, 233, 184, 248
-0.998693, 177, 195, 240, 210
-0.998694, 321, 215, 384, 230
-0.998694, 121, 239, 184, 254
-0.998695, 209, 171, 272, 186
-0.998695, 233, 171, 296, 186
-0.998696, 313, 119, 376, 134
-0.998696, 329, 287, 392, 302
-0.998696, 249, 195, 312, 210
-0.998697, 329, 249, 392, 264
-0.998697, 329, 281, 392, 296
-0.998697, 273, 311, 336, 326
-0.998699, 433, 289, 496, 304
-0.998699, 329, 229, 392, 244
-0.9987, 361, 215, 424, 230
-0.9987, 367, 249, 382, 280
-0.998701, 209, 177, 272, 192
-0.998702, 209, 157, 272, 172
-0.998702, 1, 113, 500, 176
-0.998703, 25, 239, 88, 254
-0.998703, 223, 133, 238, 164
-0.998703, 337, 163, 400, 178
-0.998703, 413, 193, 444, 320
-0.998704, 209, 195, 272, 210
-0.998704, 409, 291, 472, 306
-0.998705, 241, 107, 304, 122
-0.998705, 345, 169, 408, 184
-0.998706, 209, 131, 272, 146
-0.998706, 185, 189, 248, 204
-0.998706, 121, 219, 184, 234
-0.998706, 345, 179, 408, 194
-0.998706, 361, 209, 424, 224
-0.998707, 233, 185, 296, 200
-0.998707, 121, 285, 184, 300
-0.998707, 329, 237, 392, 252
-0.998707, 177, 157, 240, 172
-0.998707, 353, 259, 416, 274
-0.998708, 361, 243, 424, 258
-0.998708, 361, 197, 424, 212
-0.99871, 353, 297, 416, 312
-0.99871, 49, 231, 112, 246
-0.998711, 241, 201, 304, 216
-0.998711, 153, 239, 216, 254
-0.998712, 257, 177, 320, 192
-0.998712, 113, 205, 240, 236
-0.998713, 313, 85, 376, 100
-0.998713, 321, 321, 336, 352
-0.998714, 353, 237, 416, 252
-0.998714, 73, 229, 136, 244
-0.998714, 41, 245, 104, 260
-0.998714, 417, 155, 480, 170
-0.998714, 49, 237, 112, 252
-0.998715, 241, 225, 304, 240
-0.998715, 353, 271, 416, 286
-0.998716, 241, 303, 304, 318
-0.998716, 113, 271, 176, 286
-0.998717, 313, 315, 376, 330
-0.998719, 257, 99, 320, 114
-0.998719, 153, 191, 216, 206
-0.998719, 377, 285, 440, 300
-0.99872, 233, 313, 296, 328
-0.998721, 225, 157, 240, 188
-0.998723, 153, 217, 168, 248
-0.998724, 81, 129, 96, 160
-0.998724, 349, 125, 364, 156
-0.998726, 239, 157, 254, 188
-0.998729, 129, 341, 256, 372
-0.99873, 459, 285, 474, 316
-0.99873, 281, 97, 296, 128
-0.99874, 369, 141, 384, 172
-0.998743, 345, 169, 360, 200
-0.998745, 63, 129, 78, 160
-0.998748, 249, 293, 264, 324
-0.998754, 375, 289, 390, 320
-0.998759, 169, 217, 184, 248
-0.998761, 39, 125, 54, 156
-0.998764, 191, 141, 206, 172
-0.998772, 9, 125, 24, 156
-0.998774, 357, 301, 372, 332
-0.998774, 57, 129, 72, 160
-0.998776, 161, 305, 288, 336
-0.998779, 293, 65, 308, 192
-0.99878, 207, 141, 222, 172
-0.998783, 471, 285, 486, 316
-0.998784, 343, 333, 358, 364
-0.998788, 285, 133, 300, 164
-0.998789, 31, 125, 46, 156
-0.998791, 357, 181, 372, 212
-0.998795, 159, 233, 174, 264
-0.998798, 23, 125, 38, 156
-0.998799, 311, 341, 326, 372
-0.998805, 237, 145, 252, 176
-0.998806, 71, 129, 86, 160
-0.99881, 349, 157, 364, 188
-0.998812, 415, 289, 430, 320
-0.998812, 51, 129, 66, 160
-0.998815, 307, 73, 322, 104
-0.998816, 113, 321, 240, 352
-0.998817, 401, 157, 416, 188
-0.998823, 1, 241, 256, 304
-0.998825, 1, 217, 128, 248
-0.998838, 271, 113, 286, 240
-0.998842, 265, 113, 280, 240
-0.998853, 287, 81, 302, 208
-0.998861, 317, 65, 332, 192
-0.998863, 229, 209, 260, 336
-0.998867, 273, 1, 304, 256
-0.998874, 49, 121, 176, 152
-0.998893, 245, 161, 276, 288
-0.998894, 1, 337, 128, 368
-0.998906, 337, 81, 400, 144
-0.99891, 299, 65, 314, 192
-0.998911, 281, 97, 296, 224
-0.998916, 337, 321, 464, 352
-0.998926, 369, 265, 496, 296
-0.998941, 17, 265, 144, 296
-0.998941, 305, 65, 320, 192
-0.998942, 245, 1, 276, 256
-0.998942, 401, 177, 432, 304
-0.998954, 113, 229, 240, 260
-0.998955, 49, 309, 176, 340
-0.998968, 323, 97, 338, 224
-0.99897, 17, 281, 144, 312
-0.998992, 311, 65, 326, 192
-0.998993, 337, 333, 464, 364
-0.998993, 201, 33, 232, 288
-0.998999, 333, 33, 364, 288
-0.999004, 101, 177, 132, 304
-0.999008, 253, 113, 268, 240
-0.999008, 259, 113, 274, 240
-0.999009, 329, 81, 344, 208
-0.99901, 177, 89, 304, 120
-0.99902, 97, 57, 352, 120
-0.999043, 231, 129, 246, 256
-0.999059, 49, 169, 176, 200
-0.99906, 247, 113, 262, 240
-0.999064, 261, 1, 292, 256
-0.999073, 409, 241, 440, 368
-0.999073, 219, 129, 234, 256
-0.999088, 289, 73, 416, 104
-0.999089, 197, 129, 212, 256
-0.999112, 165, 33, 196, 288
-0.99912, 185, 33, 216, 288
-0.999121, 225, 129, 240, 256
-0.999122, 97, 173, 224, 204
-0.999128, 65, 205, 192, 236
-0.999132, 237, 113, 252, 240
-0.999151, 353, 237, 480, 268
-0.999154, 1, 117, 128, 148
-0.999156, 365, 129, 380, 256
-0.999167, 207, 129, 222, 256
-0.999173, 1, 1, 32, 256
-0.999177, 191, 129, 206, 256
-0.999183, 213, 129, 228, 256
-0.999187, 177, 129, 192, 256
-0.999204, 481, 145, 496, 272
-0.999213, 217, 1, 248, 256
-0.999217, 183, 129, 198, 256
-0.99923, 113, 305, 240, 336
-0.999233, 313, 49, 376, 112
-0.999247, 149, 113, 164, 240
-0.999248, 161, 129, 176, 256
-0.999249, 475, 145, 490, 272
-0.99925, 1, 149, 128, 180
-0.999251, 351, 129, 366, 256
-0.999258, 357, 129, 372, 256
-0.999267, 361, 33, 392, 288
-0.999267, 415, 145, 430, 272
-0.999269, 461, 145, 476, 272
-0.999271, 373, 145, 388, 272
-0.999275, 465, 33, 496, 288
-0.999276, 425, 145, 440, 272
-0.999276, 169, 129, 184, 256
-0.999282, 435, 145, 450, 272
-0.999285, 1, 165, 128, 196
-0.999294, 393, 145, 408, 272
-0.999301, 467, 145, 482, 272
-0.999305, 1, 305, 128, 336
-0.999315, 401, 145, 416, 272
-0.999319, 155, 129, 170, 256
-0.999326, 9, 113, 24, 240
-0.99934, 383, 145, 398, 272
-0.99934, 449, 145, 464, 272
-0.999341, 63, 113, 78, 240
-0.999343, 3, 113, 18, 240
-0.999345, 23, 113, 38, 240
-0.999349, 45, 113, 60, 240
-0.999349, 101, 113, 116, 240
-0.999358, 135, 113, 150, 240
-0.99936, 141, 129, 156, 256
-0.999365, 33, 113, 48, 240
-0.99937, 91, 113, 106, 240
-0.999375, 441, 145, 456, 272
-0.99938, 455, 145, 470, 272
-0.999381, 77, 113, 92, 240
-0.999388, 125, 113, 140, 240
-0.999388, 51, 113, 66, 240
-0.999395, 119, 113, 134, 240
-0.999398, 85, 113, 100, 240
-0.999403, 367, 225, 382, 352
-0.999405, 111, 113, 126, 240
-0.999407, 309, 145, 324, 272
-0.999407, 321, 145, 336, 272
-0.999408, 407, 145, 422, 272
-0.999411, 39, 113, 54, 240
-0.999411, 295, 113, 310, 240
-0.999416, 17, 113, 32, 240
-0.999435, 57, 113, 72, 240
-0.999438, 209, 345, 336, 375
-0.999441, 69, 113, 84, 240
-0.999442, 1, 289, 256, 352
-0.999443, 161, 313, 224, 375
-0.999456, 65, 193, 192, 224
-0.999459, 303, 145, 318, 272
-0.999463, 325, 193, 340, 320
-0.999466, 315, 145, 330, 272
-0.999467, 323, 49, 338, 176
-0.999468, 13, 1, 44, 256
-0.999468, 257, 49, 320, 112
-0.99947, 381, 97, 396, 224
-0.999474, 357, 177, 372, 304
-0.999475, 373, 33, 404, 288
-0.999477, 1, 177, 128, 208
-0.999477, 333, 129, 348, 256
-0.999478, 293, 193, 324, 320
-0.999487, 361, 225, 376, 352
-0.999488, 253, 225, 268, 352
-0.999494, 225, 81, 240, 208
-0.999497, 233, 1, 264, 256
-0.999498, 145, 33, 272, 160
-0.999503, 135, 137, 150, 152
-0.999503, 391, 139, 406, 154
-0.999503, 117, 135, 132, 150
-0.999503, 369, 245, 384, 260
-0.999504, 31, 127, 46, 142
-0.999504, 367, 259, 382, 274
-0.999504, 119, 143, 134, 158
-0.999505, 343, 141, 358, 156
-0.999505, 267, 113, 282, 128
-0.999505, 325, 325, 340, 340
-0.999505, 51, 129, 66, 144
-0.999505, 315, 143, 330, 158
-0.999506, 261, 123, 276, 138
-0.999506, 295, 97, 310, 112
-0.999506, 175, 217, 190, 232
-0.999507, 131, 283, 146, 298
-0.999507, 161, 139, 176, 154
-0.999509, 193, 273, 320, 304
-0.999509, 345, 129, 360, 256
-0.99951, 231, 139, 246, 154
-0.99951, 365, 285, 380, 300
-0.999511, 373, 111, 388, 126
-0.999511, 259, 161, 274, 288
-0.999511, 391, 159, 406, 174
-0.999511, 117, 149, 132, 164
-0.999511, 111, 135, 126, 150
-0.999512, 351, 177, 366, 192
-0.999512, 285, 137, 300, 152
-0.999512, 363, 109, 378, 124
-0.999514, 313, 351, 328, 366
-0.999515, 17, 293, 144, 324
-0.999515, 279, 177, 294, 192
-0.999516, 473, 157, 488, 172
-0.999516, 341, 155, 356, 170
-0.999516, 167, 141, 182, 156
-0.999517, 317, 341, 332, 356
-0.999518, 95, 133, 110, 148
-0.99952, 391, 145, 406, 160
-0.99952, 331, 93, 346, 108
-0.99952, 379, 157, 394, 172
-0.999521, 129, 137, 144, 152
-0.999521, 315, 149, 330, 164
-0.999522, 335, 355, 350, 370
-0.999523, 165, 219, 180, 234
-0.999523, 399, 159, 414, 174
-0.999523, 297, 119, 312, 134
-0.999523, 389, 153, 404, 168
-0.999523, 285, 161, 300, 176
-0.999523, 355, 145, 370, 160
-0.999523, 285, 125, 300, 140
-0.999523, 447, 163, 462, 178
-0.999525, 141, 137, 156, 152
-0.999525, 209, 145, 224, 160
-0.999525, 293, 167, 308, 182
-0.999526, 265, 161, 280, 288
-0.999527, 327, 147, 342, 162
-0.999527, 155, 139, 170, 154
-0.999527, 271, 65, 286, 192
-0.999528, 369, 221, 384, 236
-0.999528, 337, 165, 352, 180
-0.999529, 361, 293, 376, 308
-0.999531, 283, 95, 298, 110
-0.999532, 275, 189, 290, 204
-0.999532, 365, 157, 380, 172
-0.999533, 311, 83, 326, 98
-0.999533, 265, 185, 280, 200
-0.999534, 355, 107, 370, 122
-0.999535, 291, 113, 306, 128
-0.999536, 167, 225, 182, 240
-0.999537, 427, 159, 442, 174
-0.999538, 287, 169, 302, 184
-0.99954, 167, 209, 182, 336
-0.999541, 321, 333, 336, 348
-0.999541, 231, 81, 246, 208
-0.999541, 293, 83, 308, 98
-0.999543, 361, 151, 376, 166
-0.999544, 231, 157, 246, 172
-0.999544, 277, 137, 292, 152
-0.999547, 477, 163, 492, 178
-0.999548, 279, 109, 294, 124
-0.999549, 323, 115, 338, 130
-0.999549, 419, 159, 434, 174
-0.999549, 469, 165, 484, 180
-0.99955, 351, 151, 366, 166
-0.99955, 373, 225, 388, 352
-0.99955, 373, 97, 388, 224
-0.99955, 435, 159, 450, 174
-0.999551, 347, 171, 362, 186
-0.999552, 327, 153, 342, 168
-0.999553, 287, 89, 302, 104
-0.999554, 349, 145, 364, 160
-0.999555, 271, 123, 286, 138
-0.999555, 277, 123, 292, 138
-0.999556, 371, 153, 386, 168
-0.999556, 389, 97, 404, 224
-0.999556, 281, 171, 296, 186
-0.999557, 233, 151, 248, 166
-0.999557, 225, 145, 240, 160
-0.999558, 333, 151, 348, 166
-0.999558, 217, 81, 232, 208
-0.999558, 237, 139, 252, 154
-0.999558, 327, 131, 342, 146
-0.999559, 457, 161, 472, 176
-0.999562, 147, 135, 162, 150
-0.999567, 285, 117, 300, 132
-0.999567, 281, 131, 296, 146
-0.999567, 231, 145, 246, 160
-0.999568, 333, 99, 348, 114
-0.999568, 239, 155, 254, 170
-0.999568, 383, 151, 398, 166
-0.999569, 441, 159, 456, 174
-0.999569, 247, 129, 262, 144
-0.999569, 339, 129, 354, 256
-0.999571, 323, 105, 338, 120
-0.999572, 321, 153, 336, 168
-0.999573, 277, 145, 292, 272
-0.999575, 333, 105, 348, 120
-0.999578, 333, 123, 348, 138
-0.999578, 289, 145, 304, 272
-0.999579, 385, 145, 400, 160
-0.999583, 241, 131, 256, 146
-0.999583, 253, 129, 268, 144
-0.999584, 409, 157, 424, 172
-0.999585, 377, 151, 392, 166
-0.999586, 343, 147, 358, 162
-0.999587, 331, 177, 346, 304
-0.999588, 285, 111, 300, 126
-0.999591, 363, 81, 378, 208
-0.999592, 323, 137, 338, 152
-0.999592, 403, 97, 418, 224
-0.999592, 41, 1, 72, 256
-0.999593, 387, 225, 402, 352
-0.999594, 483, 163, 498, 178
-0.999595, 261, 65, 276, 192
-0.999595, 399, 149, 414, 164
-0.999597, 269, 133, 284, 148
-0.999597, 409, 97, 424, 224
-0.9996, 305, 85, 320, 100
-0.999601, 323, 121, 338, 136
-0.999601, 279, 115, 294, 130
-0.999603, 313, 193, 328, 320
-0.999604, 261, 129, 276, 144
-0.999605, 355, 81, 370, 208
-0.99961, 471, 97, 486, 224
-0.999611, 207, 81, 222, 208
-0.999611, 183, 177, 198, 304
-0.999612, 143, 81, 158, 208
-0.999613, 389, 33, 420, 288
-0.999615, 61, 1, 92, 256
-0.999615, 247, 65, 262, 192
-0.999615, 29, 1, 60, 256
-0.999617, 275, 129, 290, 144
-0.999617, 297, 17, 312, 144
-0.999618, 319, 225, 334, 352
-0.999618, 21, 209, 36, 336
-0.99962, 281, 49, 296, 176
-0.999622, 379, 225, 394, 352
-0.999623, 239, 65, 254, 192
-0.999625, 287, 101, 302, 116
-0.999625, 73, 209, 88, 336
-0.999628, 155, 209, 170, 336
-0.999628, 321, 143, 336, 158
-0.99963, 157, 81, 172, 208
-0.999631, 437, 33, 468, 288
-0.999632, 309, 17, 324, 144
-0.999633, 287, 33, 302, 160
-0.999635, 189, 177, 204, 304
-0.999636, 175, 177, 190, 304
-0.999638, 303, 17, 318, 144
-0.99964, 367, 177, 382, 304
-0.99964, 137, 225, 152, 352
-0.999642, 299, 85, 314, 100
-0.999642, 315, 89, 330, 104
-0.999642, 271, 161, 286, 288
-0.999646, 323, 99, 338, 114
-0.999652, 463, 161, 478, 176
-0.999654, 423, 97, 438, 224
-0.99966, 395, 97, 410, 224
-0.999662, 161, 329, 288, 360
-0.999664, 149, 209, 164, 336
-0.999665, 483, 97, 498, 224
-0.999666, 459, 97, 474, 224
-0.999666, 441, 97, 456, 224
-0.999669, 3, 65, 18, 192
-0.99967, 331, 113, 346, 128
-0.999674, 289, 95, 304, 110
-0.999676, 321, 93, 336, 108
-0.999682, 1, 33, 128, 96
-0.999686, 1, 325, 128, 356
-0.999686, 293, 89, 308, 104
-0.999698, 353, 133, 480, 164
-0.999712, 81, 1, 112, 256
-0.999722, 409, 33, 440, 288
-0.99974, 49, 181, 176, 212
-0.999755, 17, 205, 144, 236
-0.999821, 269, 177, 300, 304
-0.999823, 177, 317, 304, 348
-0.999859, 453, 33, 484, 288
-0.999915, 137, 1, 168, 256
-0.999915, 425, 33, 456, 288
-0.99992, 41, 305, 104, 368
-0.999923, 257, 49, 500, 112
-0.999944, 469, 241, 500, 368
-0.999966, 113, 1, 144, 256
-0.999966, 1, 193, 128, 224
-0.999969, 201, 89, 264, 152
-1.00007, 1, 193, 500, 256
-1.00007, 125, 1, 156, 256
-1.00011, 97, 1, 128, 256
-1.00015, 369, 345, 496, 375
-1.00017, 369, 113, 496, 144
-1.0002, 161, 273, 224, 336
-1.0002, 153, 1, 184, 256
-1.00023, 1, 1, 128, 32
-1.00027, 1, 13, 128, 44
-1.00028, 17, 81, 144, 144
-1.00031, 457, 225, 488, 352
-1.00033, 17, 105, 144, 136
-1.0004, 65, 85, 192, 116
-1.00041, 369, 1, 496, 64
-1.00042, 1, 25, 128, 56
-1.00042, 129, 113, 256, 144
-1.00044, 65, 109, 192, 140
-1.00059, 369, 81, 496, 144
-1.00059, 289, 1, 416, 128
-1.00064, 1, 9, 256, 72
-1.00073, 1, 57, 128, 120
-1.00092, 377, 105, 440, 168
-1.00094, 1, 33, 256, 96
-1.00109, 113, 177, 144, 304
-1.00124, 49, 33, 176, 160
-1.00128, 281, 193, 312, 320
-1.0013, 433, 313, 496, 375
-1.00153, 81, 49, 208, 112
-1.00154, 49, 1, 176, 64
-1.00155, 257, 1, 500, 64
-1.00162, 1, 89, 500, 152
-1.00176, 65, 81, 192, 144
-1.00176, 1, 169, 64, 232
-1.00177, 193, 25, 448, 88
-1.00197, 97, 9, 352, 72
-1.00202, 1, 57, 256, 120
-1.00211, 433, 193, 464, 320
-1.00214, 1, 1, 128, 128
-1.00216, 401, 313, 464, 375
-1.00219, 469, 193, 500, 320
-1.00219, 129, 57, 256, 120
-1.00222, 241, 25, 368, 88
-1.00234, 65, 25, 192, 88
-1.00234, 1, 1, 500, 64
-1.0025, 193, 273, 256, 336
-1.00256, 113, 9, 240, 72
-1.00256, 369, 25, 496, 88
-1.00265, 353, 49, 480, 112
-1.00276, 193, 17, 320, 80
-1.00284, 97, 33, 352, 96
-1.00285, 321, 1, 448, 64
-1.00291, 273, 1, 400, 64
-1.003, 145, 33, 272, 96
-1.00305, 321, 25, 448, 88
-1.00329, 1, 33, 500, 96
-1.00356, 161, 1, 416, 128
-1.00376, 1, 57, 500, 120
-1.00416, 313, 1, 376, 128
-1.00489, 201, 33, 264, 160
-1.00515, 353, 49, 480, 176
-1.0052, 249, 1, 312, 128
-1.00529, 97, 33, 224, 160
-1.00619, 185, 225, 248, 352
-1.00696, 433, 1, 496, 128
-1.00702, 105, 33, 168, 160
-1.00782, 9, 1, 72, 128
-1.00826, 369, 1, 496, 128
-1.0089, 241, 1, 368, 128
-1.01006, 145, 33, 208, 160
-1.01182, 369, 49, 432, 176
-1.01244, 409, 1, 472, 128
-1.0126, 393, 49, 456, 176
-1.01263, 65, 1, 128, 128
-1.01285, 33, 1, 96, 128
-1.01289, 337, 33, 400, 160
-1.01432, 369, 1, 432, 128
-1.01438, 177, 33, 240, 160
-1.01619, 225, 17, 288, 144
-1.0162, 433, 49, 496, 176
