1862
-0.0340853, 1, 1, 500, 324
-0.164609, 1, 1, 500, 256
-0.255166, 33, 1, 288, 324
-0.283203, 193, 1, 448, 324
-0.408543, 65, 1, 320, 256
-0.444412, 193, 1, 448, 256
-0.793479, 65, 1, 192, 324
-0.816093, 1, 65, 128, 320
-0.820873, 161, 1, 288, 324
-0.822251, 49, 33, 176, 288
-0.822299, 193, 1, 320, 256
-0.822784, 97, 33, 224, 288
-0.825832, 145, 33, 272, 288
-0.826151, 113, 1, 240, 324
-0.826979, 257, 1, 384, 256
-0.831472, 1, 113, 500, 240
-0.843187, 225, 1, 352, 324
-0.846896, 17, 1, 144, 324
-0.852213, 1, 65, 500, 192
-0.859357, 305, 1, 432, 324
-0.860411, 369, 1, 496, 256
-0.862332, 1, 17, 500, 144
-0.864769, 321, 1, 448, 256
-0.876035, 1, 177, 500, 304
-0.877638, 33, 193, 288, 320
-0.881205, 65, 49, 320, 176
-0.882983, 353, 1, 480, 324
-0.886627, 161, 1, 416, 128
-0.893596, 1, 113, 256, 240
-0.894359, 193, 97, 448, 224
-0.905131, 65, 1, 320, 128
-0.90857, 257, 17, 500, 144
-0.909984, 177, 17, 304, 144
-0.910092, 81, 1, 208, 128
-0.91028, 161, 49, 416, 176
-0.911492, 49, 177, 176, 304
-0.912067, 113, 193, 240, 320
-0.913087, 97, 145, 352, 272
-0.913173, 97, 97, 352, 224
-0.913352, 33, 81, 160, 208
-0.914604, 145, 1, 208, 128
-0.916018, 81, 177, 144, 304
-0.91638, 9, 145, 72, 272
-0.917268, 305, 17, 368, 144
-0.917389, 1, 145, 128, 272
-0.918155, 41, 97, 104, 224
-0.918682, 81, 1, 144, 128
-0.918864, 249, 17, 312, 144
-0.919843, 113, 145, 240, 272
-0.920229, 273, 33, 336, 160
-0.921176, 113, 113, 176, 240
-0.921297, 145, 65, 272, 192
-0.921824, 225, 1, 288, 128
-0.922137, 129, 1, 256, 128
-0.922205, 257, 65, 384, 192
-0.922208, 65, 129, 192, 256
-0.922764, 225, 1, 352, 128
-0.923252, 145, 49, 208, 176
-0.923416, 97, 65, 224, 192
-0.923501, 113, 1, 176, 128
-0.923972, 1, 193, 128, 320
-0.924036, 89, 49, 152, 176
-0.924171, 73, 129, 136, 256
-0.924344, 209, 65, 272, 192
-0.924698, 113, 177, 176, 304
-0.925533, 33, 161, 96, 288
-0.925673, 137, 177, 200, 304
-0.9267, 209, 65, 336, 192
-0.927187, 65, 65, 128, 192
-0.927537, 185, 129, 248, 256
-0.927915, 161, 129, 224, 256
-0.928141, 57, 177, 120, 304
-0.928717, 129, 193, 384, 320
-0.929021, 177, 17, 240, 144
-0.930022, 161, 177, 224, 304
-0.931955, 249, 65, 312, 192
-0.932084, 9, 193, 72, 320
-0.932646, 33, 33, 160, 160
-0.933467, 209, 113, 336, 240
-0.933519, 305, 17, 432, 144
-0.93408, 161, 193, 288, 320
-0.934421, 201, 1, 264, 128
-0.934666, 121, 49, 184, 176
-0.935972, 49, 113, 112, 176
-0.937074, 305, 33, 368, 96
-0.93743, 57, 17, 120, 144
-0.9378, 217, 17, 280, 80
-0.938532, 65, 65, 128, 128
-0.939036, 249, 17, 312, 80
-0.93945, 49, 185, 112, 248
-0.940444, 337, 33, 400, 160
-0.941128, 9, 169, 72, 232
-0.941153, 193, 129, 256, 192
-0.941384, 233, 113, 296, 240
-0.94148, 161, 145, 288, 272
-0.941493, 89, 25, 152, 88
-0.941516, 353, 17, 480, 144
-0.94262, 73, 153, 136, 216
-0.942789, 9, 209, 72, 272
-0.942928, 25, 233, 88, 296
-0.94312, 161, 33, 224, 96
-0.943281, 105, 113, 168, 176
-0.943466, 73, 177, 136, 240
-0.943724, 169, 81, 232, 208
-0.944247, 193, 193, 256, 320
-0.944746, 209, 113, 272, 240
-0.946394, 137, 9, 200, 72
-0.946447, 209, 177, 336, 304
-0.946477, 89, 1, 152, 64
-0.946966, 33, 137, 96, 200
-0.947108, 209, 81, 272, 144
-0.947108, 153, 89, 216, 152
-0.947279, 17, 97, 80, 224
-0.947448, 249, 49, 312, 112
-0.947656, 121, 193, 184, 256
-0.947968, 185, 241, 248, 304
-0.948398, 225, 145, 480, 272
-0.948412, 97, 89, 160, 152
-0.948611, 137, 113, 200, 240
-0.948848, 305, 73, 368, 136
-0.948913, 49, 89, 112, 152
-0.949247, 281, 25, 344, 88
-0.949504, 105, 137, 168, 200
-0.949953, 73, 129, 136, 192
-0.949968, 209, 49, 272, 112
-0.9501, 121, 49, 184, 112
-0.950337, 281, 81, 344, 144
-0.950645, 185, 57, 248, 120
-0.950728, 161, 241, 224, 304
-0.950769, 305, 65, 368, 192
-0.950771, 281, 49, 344, 112
-0.950932, 41, 209, 104, 272
-0.951197, 33, 161, 96, 224
-0.951459, 161, 161, 224, 224
-0.951572, 233, 73, 296, 136
-0.951618, 209, 105, 272, 168
-0.951988, 161, 193, 224, 256
-0.951996, 185, 33, 248, 96
-0.952012, 233, 97, 296, 160
-0.952049, 17, 257, 80, 320
-0.952113, 129, 81, 192, 144
-0.952168, 65, 209, 128, 272
-0.952326, 73, 89, 136, 152
-0.952945, 185, 209, 248, 272
-0.953012, 353, 129, 480, 256
-0.953074, 137, 217, 200, 280
-0.953084, 185, 161, 248, 224
-0.953257, 185, 9, 248, 72
-0.953298, 161, 137, 224, 200
-0.95351, 113, 9, 176, 72
-0.953552, 33, 49, 96, 176
-0.953715, 273, 81, 336, 208
-0.95376, 305, 97, 432, 224
-0.95377, 105, 217, 168, 280
-0.95432, 65, 33, 128, 96
-0.954496, 73, 241, 136, 304
-0.955261, 209, 1, 272, 256
-0.955715, 97, 257, 160, 320
-0.95616, 89, 57, 152, 120
-0.956706, 209, 257, 272, 320
-0.956779, 49, 249, 112, 312
-0.957051, 161, 217, 224, 280
-0.957062, 81, 1, 144, 256
-0.957125, 97, 193, 160, 256
-0.957419, 129, 113, 192, 176
-0.957693, 25, 1, 88, 128
-0.95808, 369, 17, 432, 144
-0.958786, 137, 241, 200, 304
-0.958964, 113, 1, 176, 256
-0.959144, 337, 1, 400, 64
-0.959298, 313, 9, 376, 72
-0.959373, 41, 33, 104, 288
-0.959423, 325, 17, 356, 144
-0.959553, 217, 137, 280, 200
-0.959848, 273, 1, 336, 64
-0.960103, 329, 49, 392, 112
-0.960163, 125, 177, 156, 304
-0.960172, 217, 161, 280, 288
-0.960293, 161, 1, 224, 64
-0.960378, 185, 185, 248, 248
-0.960699, 257, 89, 320, 152
-0.960832, 85, 41, 116, 104
-0.960863, 425, 161, 488, 288
-0.960894, 145, 177, 176, 304
-0.961054, 33, 193, 160, 256
-0.961077, 33, 97, 160, 160
-0.961087, 257, 113, 320, 176
-0.961135, 41, 41, 104, 104
-0.961451, 289, 249, 352, 312
-0.961768, 145, 185, 176, 248
-0.961776, 261, 9, 292, 72
-0.962019, 97, 17, 128, 80
-0.962066, 385, 1, 448, 64
-0.962078, 9, 145, 72, 208
-0.962079, 89, 97, 120, 224
-0.962146, 249, 1, 312, 256
-0.962181, 53, 97, 84, 160
-0.962394, 113, 177, 144, 304
-0.962992, 161, 65, 224, 128
-0.963119, 113, 201, 240, 264
-0.963283, 249, 25, 280, 88
-0.963286, 209, 9, 336, 72
-0.963296, 153, 1, 216, 256
-0.96341, 269, 49, 300, 176
-0.963433, 217, 161, 280, 224
-0.963641, 93, 1, 124, 128
-0.963661, 257, 1, 288, 128
-0.96368, 177, 97, 240, 160
-0.963827, 185, 1, 248, 256
-0.963828, 145, 129, 176, 256
-0.963853, 225, 17, 256, 80
-0.963853, 337, 17, 368, 144
-0.963921, 297, 193, 360, 320
-0.964073, 237, 1, 268, 128
-0.964299, 169, 1, 200, 128
-0.964327, 49, 57, 176, 120
-0.964343, 13, 161, 44, 288
-0.964593, 73, 33, 104, 160
-0.964601, 61, 65, 92, 192
-0.964601, 209, 145, 240, 272
-0.964731, 145, 177, 272, 240
-0.964736, 17, 129, 144, 192
-0.96486, 97, 25, 224, 88
-0.964862, 69, 81, 100, 144
-0.964924, 241, 33, 368, 96
-0.964968, 345, 97, 408, 224
-0.965087, 313, 17, 344, 144
-0.96512, 1, 161, 128, 224
-0.965213, 177, 97, 304, 160
-0.965247, 45, 97, 76, 224
-0.965275, 245, 81, 276, 208
-0.965578, 149, 1, 180, 128
-0.965592, 149, 25, 180, 88
-0.965616, 161, 1, 288, 64
-0.965691, 61, 161, 92, 288
-0.965768, 137, 49, 168, 176
-0.96591, 317, 25, 348, 88
-0.966039, 161, 9, 192, 72
-0.966062, 121, 73, 152, 136
-0.966192, 93, 145, 124, 272
-0.966291, 101, 89, 132, 152
-0.966295, 305, 1, 368, 256
-0.966343, 361, 25, 424, 88
-0.966389, 109, 1, 140, 64
-0.966403, 65, 121, 192, 184
-0.966487, 393, 1, 456, 128
-0.966536, 349, 33, 380, 160
-0.966592, 97, 89, 224, 152
-0.966616, 333, 41, 364, 104
-0.966623, 137, 113, 168, 176
-0.966629, 225, 81, 256, 208
-0.966702, 129, 241, 256, 304
-0.966732, 97, 145, 224, 208
-0.966777, 81, 105, 112, 168
-0.966828, 249, 1, 280, 64
-0.966845, 57, 9, 120, 72
-0.967184, 177, 73, 304, 136
-0.967226, 49, 25, 176, 88
-0.967303, 73, 177, 104, 304
-0.967309, 137, 169, 200, 232
-0.967313, 105, 33, 136, 160
-0.967392, 101, 113, 132, 176
-0.967429, 145, 41, 272, 104
-0.967441, 369, 113, 432, 240
-0.967458, 105, 161, 168, 224
-0.967567, 117, 193, 148, 256
-0.967628, 257, 9, 384, 72
-0.967652, 81, 1, 208, 64
-0.967666, 205, 81, 236, 208
-0.968021, 301, 33, 332, 160
-0.96813, 25, 113, 88, 176
-0.968181, 133, 89, 164, 152
-0.968183, 29, 145, 60, 272
-0.968188, 181, 1, 212, 128
-0.968235, 49, 217, 176, 280
-0.96832, 393, 129, 456, 256
-0.968374, 93, 49, 124, 176
-0.968416, 257, 49, 288, 176
-0.968455, 213, 153, 244, 216
-0.968482, 277, 1, 308, 128
-0.968485, 17, 41, 80, 104
-0.968495, 85, 129, 116, 192
-0.968555, 73, 169, 104, 232
-0.968736, 73, 113, 104, 240
-0.968737, 109, 41, 140, 104
-0.968813, 113, 97, 144, 160
-0.968833, 249, 257, 312, 320
-0.968888, 1, 177, 32, 304
-0.968927, 1, 233, 64, 296
-0.968928, 41, 217, 72, 280
-0.96894, 93, 153, 124, 216
-0.968996, 209, 17, 240, 144
-0.969039, 225, 57, 352, 120
-0.969169, 125, 113, 156, 176
-0.969199, 241, 137, 304, 200
-0.969225, 97, 49, 224, 112
-0.96928, 41, 121, 72, 184
-0.969283, 149, 225, 180, 288
-0.96933, 225, 1, 256, 128
-0.969354, 289, 9, 320, 72
-0.969413, 217, 57, 248, 120
-0.969414, 149, 1, 180, 64
-0.969482, 17, 241, 144, 304
-0.969516, 193, 33, 320, 96
-0.969516, 65, 169, 192, 232
-0.969537, 1, 193, 32, 256
-0.969569, 281, 49, 312, 176
-0.969617, 145, 121, 272, 184
-0.969647, 197, 113, 228, 176
-0.969668, 369, 1, 432, 256
-0.969678, 217, 89, 248, 152
-0.969698, 45, 193, 76, 320
-0.969725, 237, 25, 268, 88
-0.96974, 225, 193, 480, 320
-0.96975, 157, 177, 188, 304
-0.969759, 153, 113, 216, 176
-0.969858, 117, 97, 148, 224
-0.969999, 13, 169, 44, 232
-0.970126, 129, 193, 160, 256
-0.970188, 101, 97, 132, 224
-0.970315, 65, 257, 192, 320
-0.970316, 237, 49, 268, 112
-0.970327, 49, 193, 80, 256
-0.970378, 345, 9, 376, 72
-0.970473, 385, 25, 448, 88
-0.970528, 281, 1, 344, 256
-0.970572, 65, 57, 96, 120
-0.970581, 137, 217, 168, 280
-0.970606, 273, 17, 304, 80
-0.970619, 193, 177, 224, 304
-0.970693, 105, 249, 136, 312
-0.970731, 145, 145, 272, 208
-0.970808, 53, 241, 84, 304
-0.970854, 45, 145, 76, 272
-0.970857, 53, 145, 84, 208
-0.970862, 281, 89, 312, 152
-0.970901, 85, 193, 116, 320
-0.970927, 169, 33, 200, 96
-0.97098, 345, 105, 408, 168
-0.971018, 5, 249, 36, 312
-0.971046, 117, 1, 148, 128
-0.971087, 129, 33, 160, 96
-0.971091, 261, 33, 292, 96
-0.971144, 245, 97, 276, 160
-0.971324, 237, 1, 268, 64
-0.971465, 317, 73, 348, 136
-0.971472, 65, 121, 96, 184
-0.971506, 113, 129, 144, 192
-0.971544, 273, 193, 400, 320
-0.971643, 137, 1, 168, 128
-0.971654, 257, 113, 384, 240
-0.971657, 329, 65, 360, 128
-0.971733, 193, 241, 224, 304
-0.971888, 305, 65, 336, 128
-0.971949, 141, 49, 172, 112
-0.972074, 1, 217, 128, 280
-0.972176, 69, 33, 100, 96
-0.972235, 321, 25, 448, 88
-0.97227, 189, 41, 220, 104
-0.972274, 225, 81, 352, 144
-0.972311, 57, 217, 88, 280
-0.972319, 333, 17, 364, 80
-0.972339, 249, 129, 280, 192
-0.972361, 213, 177, 244, 240
-0.972386, 217, 193, 248, 320
-0.972402, 173, 9, 204, 72
-0.972505, 57, 113, 88, 240
-0.972526, 305, 97, 368, 160
-0.972546, 281, 49, 312, 112
-0.972622, 229, 81, 260, 144
-0.972639, 213, 209, 244, 272
-0.972699, 273, 97, 400, 160
-0.972703, 41, 241, 72, 304
-0.972746, 401, 49, 464, 176
-0.972751, 145, 153, 176, 216
-0.972798, 149, 49, 180, 176
-0.972843, 133, 97, 164, 224
-0.97291, 73, 257, 104, 320
-0.973034, 69, 145, 100, 208
-0.973036, 369, 81, 496, 208
-0.973044, 209, 33, 240, 96
-0.973072, 157, 129, 188, 256
-0.973291, 425, 121, 488, 184
-0.973328, 329, 1, 392, 256
-0.973357, 297, 41, 328, 104
-0.97341, 249, 49, 280, 112
-0.973436, 21, 241, 52, 304
-0.973449, 433, 145, 496, 208
-0.973592, 317, 49, 348, 112
-0.973662, 105, 65, 136, 128
-0.973718, 197, 65, 228, 128
-0.973749, 21, 217, 52, 280
-0.973789, 289, 225, 352, 288
-0.97391, 17, 65, 80, 320
-0.974002, 121, 49, 152, 176
-0.974053, 161, 1, 224, 324
-0.974082, 25, 193, 56, 320
-0.974103, 417, 113, 480, 240
-0.974241, 417, 1, 480, 64
-0.974305, 25, 153, 56, 216
-0.974419, 105, 185, 136, 248
-0.974514, 281, 105, 344, 168
-0.974523, 161, 49, 192, 176
-0.974559, 85, 17, 116, 80
-0.974615, 197, 129, 228, 256
-0.97463, 101, 193, 132, 320
-0.974662, 81, 1, 144, 324
-0.974683, 57, 169, 88, 232
-0.974688, 153, 73, 184, 136
-0.974693, 25, 25, 56, 88
-0.97474, 1, 33, 128, 96
-0.974744, 209, 201, 272, 264
-0.974843, 241, 129, 272, 256
-0.974863, 229, 145, 260, 272
-0.974869, 197, 17, 228, 144
-0.974939, 213, 241, 244, 304
-0.974941, 185, 65, 216, 128
-0.974941, 249, 73, 280, 136
-0.975008, 393, 137, 456, 200
-0.975026, 265, 97, 296, 160
-0.975099, 29, 129, 60, 192
-0.975133, 81, 65, 112, 128
-0.975315, 129, 257, 160, 320
-0.975405, 137, 1, 200, 324
-0.975407, 157, 193, 188, 256
-0.975422, 5, 225, 36, 288
-0.975427, 209, 233, 272, 296
-0.975596, 261, 65, 292, 128
-0.975621, 37, 177, 68, 240
-0.975639, 201, 177, 232, 240
-0.97565, 185, 17, 216, 80
-0.975651, 193, 1, 256, 324
-0.975666, 193, 209, 224, 272
-0.975812, 181, 249, 212, 312
-0.976, 161, 201, 288, 264
-0.976007, 337, 65, 368, 192
-0.976062, 117, 257, 148, 320
-0.976138, 209, 121, 336, 184
-0.976148, 229, 161, 260, 224
-0.976155, 57, 33, 88, 96
-0.976212, 361, 33, 392, 160
-0.976224, 321, 1, 448, 64
-0.97626, 169, 177, 200, 304
-0.976366, 273, 73, 400, 136
-0.976391, 97, 41, 128, 104
-0.976415, 329, 249, 392, 312
-0.976427, 345, 33, 376, 96
-0.976446, 413, 9, 444, 72
-0.976482, 85, 201, 116, 264
-0.97657, 57, 17, 88, 144
-0.976621, 69, 201, 100, 264
-0.976631, 421, 1, 452, 128
-0.976756, 165, 217, 196, 280
-0.976811, 217, 1, 280, 324
-0.97686, 157, 49, 188, 112
-0.97691, 193, 81, 224, 208
-0.976958, 229, 137, 260, 200
-0.976965, 205, 193, 236, 320
-0.977039, 241, 153, 272, 216
-0.977046, 205, 89, 236, 152
-0.977124, 125, 217, 156, 280
-0.977392, 369, 121, 432, 184
-0.977421, 53, 73, 84, 136
-0.977624, 209, 145, 336, 208
-0.977833, 321, 193, 384, 320
-0.978033, 141, 249, 172, 312
-0.978066, 209, 129, 240, 192
-0.978239, 73, 233, 104, 296
-0.97834, 361, 1, 424, 64
-0.978349, 277, 97, 308, 224
-0.978441, 337, 25, 400, 88
-0.978523, 209, 9, 240, 72
-0.978542, 433, 209, 496, 272
-0.978545, 425, 177, 488, 240
-0.978549, 185, 97, 216, 160
-0.978603, 313, 65, 344, 192
-0.978628, 169, 57, 200, 120
-0.978737, 193, 225, 320, 288
-0.978748, 157, 161, 188, 224
-0.978762, 41, 65, 104, 128
-0.978812, 193, 169, 320, 232
-0.978908, 297, 249, 328, 312
-0.978914, 369, 193, 496, 320
-0.979104, 177, 249, 304, 312
-0.97917, 201, 153, 232, 216
-0.979188, 33, 97, 64, 224
-0.979287, 105, 1, 168, 324
-0.97941, 41, 1, 104, 324
-0.979495, 289, 49, 416, 112
-0.979561, 25, 89, 88, 152
-0.979978, 257, 113, 288, 240
-0.980089, 1, 33, 64, 160
-0.980102, 17, 1, 144, 64
-0.980118, 129, 145, 192, 208
-0.980164, 393, 1, 456, 256
-0.980525, 425, 1, 488, 128
-0.980726, 345, 1, 408, 324
-0.980864, 461, 193, 492, 320
-0.98088, 45, 17, 76, 144
-0.981008, 225, 249, 352, 312
-0.981166, 289, 1, 320, 128
-0.981188, 329, 73, 392, 136
-0.981383, 177, 49, 208, 176
-0.981421, 181, 193, 212, 320
-0.981422, 325, 65, 356, 192
-0.981533, 405, 1, 436, 128
-0.982103, 373, 33, 404, 160
-0.982172, 369, 1, 432, 324
-0.9822, 369, 249, 432, 312
-0.982323, 9, 17, 72, 80
-0.982388, 369, 33, 496, 96
-0.982643, 289, 97, 320, 224
-0.982817, 33, 1, 64, 128
-0.982832, 389, 17, 420, 144
-0.982835, 209, 201, 336, 264
-0.98303, 181, 145, 212, 272
-0.983041, 1, 73, 128, 136
-0.983042, 273, 193, 336, 320
-0.983102, 265, 1, 328, 324
-0.983278, 369, 1, 496, 64
-0.983345, 241, 1, 304, 324
-0.983374, 453, 129, 484, 256
-0.98342, 433, 49, 496, 112
-0.983632, 361, 97, 392, 224
-0.983867, 289, 1, 352, 324
-0.984174, 425, 65, 488, 192
-0.984174, 321, 1, 384, 324
-0.984279, 441, 113, 472, 240
-0.984561, 401, 161, 464, 224
-0.984597, 369, 153, 496, 216
-0.984715, 273, 241, 400, 304
-0.984808, 417, 249, 480, 312
-0.98483, 321, 113, 448, 176
-0.984937, 161, 17, 416, 80
-0.985286, 369, 65, 432, 192
-0.985466, 301, 97, 332, 224
-0.985531, 409, 97, 472, 160
-0.985887, 233, 193, 264, 320
-0.985955, 377, 97, 408, 224
-0.985978, 65, 89, 320, 152
-0.986007, 349, 81, 380, 208
-0.986131, 333, 193, 364, 320
-0.986253, 1, 121, 64, 184
-0.986342, 393, 113, 424, 240
-0.986368, 437, 65, 468, 192
-0.986476, 449, 177, 480, 304
-0.986526, 33, 17, 96, 80
-0.986554, 97, 49, 352, 112
-0.986612, 241, 193, 304, 320
-0.986702, 249, 233, 312, 296
-0.986725, 369, 89, 496, 152
-0.986892, 21, 1, 52, 128
-0.986992, 33, 209, 288, 272
-0.987118, 369, 193, 432, 320
-0.987165, 241, 1, 304, 32
-0.987216, 313, 225, 376, 288
-0.987401, 1, 137, 256, 200
-0.987455, 73, 185, 136, 216
-0.987481, 337, 257, 464, 320
-0.987507, 305, 49, 368, 80
-0.987516, 393, 1, 456, 324
-0.987562, 17, 217, 80, 248
-0.987565, 313, 37, 376, 68
-0.987569, 305, 193, 336, 320
-0.987613, 49, 193, 112, 224
-0.987631, 105, 149, 168, 180
-0.987644, 65, 9, 320, 72
-0.987652, 97, 13, 160, 44
-0.987668, 73, 173, 136, 204
-0.987672, 145, 29, 208, 60
-0.987699, 409, 129, 440, 256
-0.987738, 1, 1, 500, 64
-0.98775, 17, 113, 48, 240
-0.987767, 281, 49, 344, 80
-0.98777, 1, 241, 256, 304
-0.987786, 89, 137, 152, 168
-0.987794, 241, 25, 304, 56
-0.987808, 233, 77, 296, 108
-0.98781, 161, 209, 224, 240
-0.987841, 257, 121, 384, 184
-0.987877, 225, 113, 480, 176
-0.98788, 73, 157, 136, 188
-0.98791, 321, 137, 448, 200
-0.987947, 273, 65, 336, 96
-0.987965, 289, 201, 352, 264
-0.98798, 73, 65, 136, 96
-0.987986, 265, 13, 328, 44
-0.988002, 57, 85, 120, 116
-0.988014, 185, 261, 248, 292
-0.988074, 201, 149, 264, 180
-0.988076, 33, 205, 96, 236
-0.988091, 49, 173, 112, 204
-0.988107, 201, 161, 264, 192
-0.988151, 137, 61, 200, 92
-0.988168, 185, 245, 248, 276
-0.988187, 89, 25, 152, 56
-0.988197, 265, 37, 328, 68
-0.988215, 437, 161, 468, 288
-0.988216, 225, 13, 288, 44
-0.988232, 169, 65, 232, 96
-0.988247, 1, 113, 256, 176
-0.988254, 265, 81, 328, 112
-0.988268, 417, 25, 480, 88
-0.98829, 17, 169, 80, 200
-0.988302, 121, 121, 184, 152
-0.98831, 281, 277, 344, 308
-0.988323, 169, 77, 232, 108
-0.988331, 289, 29, 352, 60
-0.988339, 81, 269, 144, 300
-0.988359, 33, 125, 96, 156
-0.988378, 209, 73, 272, 104
-0.98838, 89, 117, 152, 148
-0.98838, 9, 237, 72, 268
-0.988393, 329, 277, 392, 308
-0.988423, 209, 277, 272, 308
-0.988448, 369, 193, 496, 256
-0.988466, 137, 217, 200, 248
-0.988474, 209, 93, 272, 124
-0.988488, 201, 33, 264, 64
-0.988502, 1, 57, 256, 120
-0.988506, 193, 129, 256, 160
-0.988507, 185, 21, 248, 52
-0.988509, 57, 125, 120, 156
-0.988566, 41, 253, 104, 284
-0.98857, 249, 61, 312, 92
-0.98858, 49, 97, 112, 128
-0.988593, 57, 289, 120, 320
-0.988597, 137, 45, 200, 76
-0.988617, 89, 37, 152, 68
-0.988638, 161, 81, 416, 144
-0.988644, 25, 157, 88, 188
-0.988651, 113, 37, 176, 68
-0.988658, 217, 133, 280, 164
-0.988668, 217, 1, 280, 32
-0.988689, 465, 145, 496, 272
-0.988702, 57, 277, 120, 308
-0.98872, 17, 277, 80, 308
-0.988731, 121, 133, 184, 164
-0.988749, 9, 261, 72, 292
-0.98876, 1, 105, 500, 168
-0.988804, 97, 105, 160, 136
-0.988805, 49, 109, 112, 140
-0.98881, 161, 165, 224, 196
-0.988818, 249, 285, 312, 316
-0.98882, 241, 41, 304, 72
-0.988858, 145, 1, 208, 32
-0.988862, 185, 273, 248, 304
-0.988864, 161, 265, 224, 296
-0.988867, 161, 197, 224, 228
-0.988878, 1, 33, 256, 96
-0.988889, 185, 193, 248, 224
-0.988891, 73, 209, 136, 240
-0.988894, 137, 245, 200, 276
-0.988898, 113, 25, 176, 56
-0.988906, 89, 197, 152, 228
-0.988922, 193, 57, 448, 120
-0.988928, 273, 93, 336, 124
-0.988948, 297, 61, 360, 92
-0.988953, 121, 1, 184, 32
-0.988981, 121, 201, 184, 232
-0.988998, 161, 249, 224, 280
-0.989003, 65, 141, 128, 172
-0.989004, 81, 257, 144, 288
-0.989007, 113, 49, 176, 80
-0.989023, 1, 181, 64, 212
-0.98903, 89, 49, 152, 80
-0.989036, 161, 45, 224, 76
-0.98907, 49, 157, 112, 188
-0.989077, 49, 33, 112, 64
-0.989091, 1, 197, 64, 228
-0.989094, 417, 277, 480, 308
-0.98911, 137, 73, 200, 104
-0.989119, 105, 229, 168, 260
-0.989126, 425, 145, 456, 272
-0.989137, 225, 57, 288, 88
-0.989143, 33, 177, 288, 240
-0.989158, 417, 1, 480, 256
-0.989162, 145, 17, 208, 48
-0.989182, 137, 257, 200, 288
-0.989188, 249, 273, 312, 304
-0.989206, 41, 221, 104, 252
-0.989212, 169, 129, 200, 256
-0.989214, 181, 97, 212, 224
-0.989224, 369, 277, 432, 308
-0.98925, 145, 145, 208, 176
-0.989307, 105, 65, 168, 96
-0.989313, 81, 281, 144, 312
-0.989318, 217, 121, 280, 152
-0.989339, 97, 1, 160, 32
-0.989339, 113, 265, 176, 296
-0.989362, 265, 25, 328, 56
-0.989386, 97, 217, 160, 248
-0.989388, 9, 249, 72, 280
-0.989395, 161, 221, 224, 252
-0.989397, 209, 293, 272, 324
-0.989411, 249, 101, 312, 132
-0.989414, 193, 61, 256, 92
-0.98942, 41, 265, 104, 296
-0.98944, 33, 233, 96, 264
-0.989463, 329, 49, 392, 80
-0.989468, 185, 49, 248, 80
-0.98949, 169, 33, 232, 64
-0.989503, 185, 213, 248, 244
-0.989548, 177, 145, 240, 176
-0.98957, 33, 141, 96, 172
-0.989571, 17, 289, 80, 320
-0.989578, 201, 177, 264, 208
-0.989604, 169, 89, 232, 120
-0.989619, 105, 161, 168, 192
-0.989649, 113, 253, 176, 284
-0.989663, 105, 173, 168, 204
-0.989667, 153, 125, 216, 156
-0.98967, 385, 25, 448, 56
-0.989753, 97, 137, 352, 200
-0.989932, 1, 65, 500, 128
-0.989951, 17, 1, 80, 324
-0.989953, 241, 161, 304, 224
-0.989978, 369, 129, 496, 192
-0.989999, 353, 49, 416, 112
-0.990057, 257, 129, 320, 256
-0.990092, 353, 81, 416, 144
-0.990198, 1, 33, 500, 96
-0.990511, 257, 33, 500, 96
-0.990561, 1, 129, 500, 192
-0.990632, 97, 113, 352, 176
-0.990845, 1, 161, 500, 224
-0.990865, 417, 1, 480, 324
-0.990878, 257, 9, 500, 72
-0.99098, 321, 81, 448, 144
-0.991032, 369, 65, 496, 128
-0.991333, 129, 209, 384, 272
-0.991468, 161, 77, 288, 108
-0.991514, 257, 37, 384, 68
-0.991543, 293, 193, 324, 320
-0.991706, 341, 33, 356, 96
-0.991716, 337, 49, 368, 80
-0.991733, 97, 233, 352, 296
-0.991781, 321, 113, 384, 240
-0.991792, 33, 109, 160, 140
-0.991802, 103, 9, 118, 72
-0.991858, 249, 17, 280, 48
-0.991878, 105, 129, 136, 160
-0.991884, 137, 221, 168, 252
-0.991888, 49, 109, 80, 140
-0.99191, 433, 81, 496, 144
-0.991918, 87, 33, 102, 96
-0.991925, 237, 25, 268, 56
-0.991933, 97, 25, 128, 56
-0.99194, 149, 225, 180, 256
-0.99195, 145, 141, 176, 172
-0.991956, 177, 25, 304, 56
-0.991965, 53, 97, 84, 128
-0.99197, 93, 161, 124, 192
-0.991976, 245, 1, 276, 32
-0.991983, 269, 13, 300, 44
-0.992004, 209, 97, 336, 128
-0.992006, 261, 77, 292, 108
-0.992007, 81, 5, 208, 36
-0.992016, 317, 49, 348, 80
-0.992019, 21, 29, 52, 60
-0.992019, 81, 57, 112, 88
-0.992022, 269, 25, 300, 56
-0.992026, 65, 73, 96, 104
-0.992035, 341, 37, 372, 68
-0.992053, 73, 173, 104, 204
-0.992056, 233, 13, 264, 44
-0.992057, 1, 33, 128, 64
-0.992057, 93, 117, 124, 148
-0.992059, 161, 37, 192, 68
-0.992059, 265, 1, 296, 32
-0.992061, 145, 193, 176, 224
-0.992065, 281, 81, 312, 112
-0.992073, 227, 17, 242, 80
-0.992082, 81, 161, 112, 192
-0.992083, 267, 9, 282, 72
-0.992094, 117, 85, 148, 116
-0.992101, 49, 217, 64, 280
-0.992102, 401, 49, 464, 112
-0.992104, 77, 37, 108, 68
-0.992105, 113, 141, 144, 172
-0.992105, 325, 37, 356, 68
-0.992119, 273, 37, 304, 68
-0.992123, 37, 217, 68, 248
-0.992139, 137, 57, 168, 88
-0.992144, 189, 249, 220, 280
-0.992146, 5, 201, 36, 232
-0.992148, 317, 65, 348, 96
-0.99215, 105, 97, 136, 128
-0.992157, 145, 213, 272, 244
-0.992161, 145, 197, 272, 228
-0.992162, 333, 273, 364, 304
-0.992165, 163, 1, 178, 64
-0.99217, 61, 85, 92, 116
-0.992173, 169, 69, 200, 100
-0.992179, 129, 121, 160, 152
-0.992184, 89, 45, 120, 76
-0.992185, 185, 261, 216, 292
-0.992185, 169, 25, 200, 56
-0.992187, 233, 73, 264, 104
-0.992187, 145, 153, 176, 184
-0.992189, 213, 193, 244, 224
-0.99219, 209, 161, 240, 192
-0.992197, 17, 205, 144, 236
-0.992202, 181, 25, 212, 56
-0.992205, 97, 13, 128, 44
-0.99221, 145, 205, 176, 236
-0.992219, 125, 65, 156, 96
-0.992221, 73, 265, 104, 296
-0.992222, 313, 29, 344, 60
-0.992222, 149, 37, 180, 68
-0.992223, 65, 37, 192, 68
-0.992224, 145, 181, 176, 212
-0.992229, 357, 277, 388, 308
-0.992233, 177, 1, 208, 32
-0.992234, 117, 129, 148, 160
-0.992235, 221, 165, 252, 196
-0.992237, 173, 37, 204, 68
-0.992238, 109, 109, 140, 140
-0.992238, 129, 249, 256, 280
-0.992238, 277, 1, 308, 32
-0.992239, 277, 273, 308, 304
-0.992241, 151, 17, 166, 80
-0.992243, 133, 37, 164, 68
-0.992246, 181, 53, 212, 84
-0.992249, 117, 217, 148, 248
-0.99225, 149, 241, 180, 272
-0.992252, 69, 57, 100, 88
-0.992256, 5, 281, 36, 312
-0.99226, 213, 269, 244, 300
-0.992262, 153, 49, 184, 80
-0.992263, 305, 73, 336, 104
-0.99227, 225, 37, 256, 68
-0.992271, 113, 33, 128, 96
-0.992283, 149, 253, 180, 284
-0.99229, 105, 65, 136, 96
-0.992291, 81, 41, 96, 104
-0.992296, 249, 37, 280, 68
-0.992296, 93, 149, 124, 180
-0.992298, 53, 201, 84, 232
-0.992301, 17, 221, 48, 252
-0.992302, 129, 185, 384, 248
-0.992302, 257, 277, 288, 308
-0.992304, 93, 173, 124, 204
-0.992305, 109, 37, 140, 68
-0.992307, 353, 37, 384, 68
-0.992312, 53, 173, 84, 204
-0.992313, 233, 1, 264, 32
-0.992314, 249, 77, 280, 108
-0.992314, 281, 13, 312, 44
-0.992317, 213, 77, 244, 108
-0.992317, 149, 17, 180, 48
-0.992329, 201, 269, 232, 300
-0.99233, 57, 241, 88, 272
-0.992331, 169, 261, 200, 292
-0.992336, 413, 277, 444, 308
-0.992341, 105, 1, 136, 32
-0.992341, 125, 53, 156, 84
-0.992344, 149, 1, 180, 32
-0.992348, 197, 133, 228, 164
-0.992354, 141, 121, 172, 152
-0.992357, 45, 37, 76, 68
-0.992358, 213, 237, 244, 268
-0.992358, 329, 61, 360, 92
-0.992358, 81, 17, 208, 48
-0.992361, 169, 49, 200, 80
-0.992362, 81, 201, 208, 232
-0.992363, 161, 65, 288, 96
-0.992363, 213, 257, 244, 288
-0.992365, 37, 245, 68, 276
-0.992368, 69, 149, 100, 180
-0.992369, 161, 5, 192, 36
-0.99237, 5, 249, 36, 280
-0.99237, 261, 37, 292, 68
-0.992375, 297, 41, 328, 72
-0.992375, 221, 21, 252, 52
-0.992376, 193, 197, 224, 228
-0.992381, 209, 81, 336, 112
-0.992383, 105, 85, 136, 116
-0.992385, 145, 165, 176, 196
-0.992386, 265, 129, 296, 160
-0.992386, 41, 233, 72, 264
-0.992388, 81, 137, 112, 168
-0.992389, 129, 77, 160, 108
-0.992389, 25, 201, 56, 232
-0.99239, 181, 81, 212, 112
-0.992395, 305, 281, 336, 312
-0.992398, 345, 273, 376, 304
-0.992404, 73, 185, 104, 216
-0.992405, 201, 41, 232, 72
-0.992408, 5, 293, 36, 324
-0.992414, 353, 53, 384, 84
-0.992416, 63, 81, 78, 144
-0.992419, 321, 269, 352, 300
-0.992427, 401, 21, 432, 52
-0.992451, 243, 17, 258, 80
-0.992451, 159, 185, 174, 248
-0.992454, 141, 193, 156, 256
-0.992475, 425, 49, 456, 176
-0.992513, 235, 17, 250, 80
-0.992539, 13, 241, 28, 304
-0.992548, 241, 49, 368, 80
-0.992563, 277, 9, 292, 72
-0.992571, 17, 129, 144, 160
-0.992573, 231, 161, 246, 224
-0.992594, 177, 45, 304, 76
-0.992606, 225, 137, 480, 200
-0.992608, 217, 33, 232, 96
-0.992619, 331, 33, 346, 96
-0.992651, 73, 41, 88, 104
-0.992653, 283, 25, 298, 88
-0.99267, 97, 125, 224, 156
-0.992678, 145, 225, 272, 256
-0.992686, 193, 233, 448, 296
-0.992693, 9, 185, 24, 248
-0.992716, 313, 201, 376, 264
-0.992721, 257, 89, 500, 152
-0.992737, 151, 193, 166, 256
-0.992761, 17, 141, 144, 172
-0.992763, 65, 217, 192, 248
-0.992782, 289, 209, 416, 272
-0.992785, 145, 181, 272, 212
-0.992816, 49, 49, 176, 80
-0.992839, 145, 105, 160, 168
-0.992845, 47, 113, 62, 176
-0.992849, 49, 73, 176, 104
-0.99286, 441, 1, 472, 128
-0.992865, 137, 81, 152, 144
-0.992889, 273, 105, 400, 136
-0.992893, 177, 117, 304, 148
-0.992903, 177, 1, 304, 32
-0.992905, 1, 277, 128, 308
-0.992907, 109, 1, 124, 64
-0.992918, 325, 65, 340, 128
-0.992924, 131, 113, 146, 176
-0.992926, 73, 65, 88, 128
-0.992929, 57, 97, 72, 160
-0.992946, 107, 65, 122, 128
-0.992949, 33, 97, 160, 128
-0.992961, 33, 193, 160, 224
-0.992976, 187, 25, 202, 88
-0.992985, 321, 41, 336, 104
-0.992992, 145, 265, 272, 296
-0.992993, 97, 189, 224, 220
-0.992996, 137, 113, 152, 176
-0.993011, 81, 89, 208, 120
-0.993018, 465, 97, 496, 224
-0.993029, 107, 121, 122, 184
-0.993035, 97, 41, 112, 104
-0.993041, 277, 33, 292, 96
-0.993046, 153, 113, 168, 176
-0.993052, 113, 29, 240, 60
-0.993052, 145, 13, 272, 44
-0.993061, 119, 9, 134, 72
-0.993086, 41, 201, 56, 264
-0.993087, 129, 101, 256, 132
-0.993089, 81, 61, 208, 92
-0.993092, 145, 145, 272, 176
-0.993096, 145, 17, 160, 80
-0.9931, 49, 241, 176, 272
-0.993101, 17, 217, 144, 248
-0.993104, 17, 161, 144, 192
-0.993127, 241, 9, 368, 40
-0.993135, 97, 97, 112, 160
-0.993144, 153, 217, 168, 280
-0.993145, 5, 257, 20, 320
-0.993152, 145, 165, 272, 196
-0.993152, 49, 269, 176, 300
-0.993163, 149, 153, 164, 216
-0.993167, 225, 61, 352, 92
-0.99317, 261, 17, 276, 80
-0.993175, 237, 49, 252, 112
-0.99318, 249, 9, 264, 72
-0.993187, 169, 1, 184, 64
-0.993188, 151, 241, 166, 304
-0.993215, 333, 57, 348, 120
-0.99323, 405, 49, 436, 176
-0.993237, 71, 209, 86, 272
-0.99324, 1, 241, 500, 304
-0.99327, 19, 249, 34, 312
-0.993273, 93, 121, 108, 184
-0.99328, 65, 145, 192, 176
-0.993284, 17, 217, 32, 280
-0.993288, 9, 65, 72, 128
-0.993328, 129, 49, 144, 112
-0.99333, 271, 33, 286, 96
-0.99337, 97, 237, 224, 268
-0.993393, 225, 25, 352, 56
-0.993393, 201, 121, 216, 184
-0.993394, 145, 133, 272, 164
-0.993397, 247, 49, 262, 112
-0.993407, 97, 17, 112, 80
-0.993416, 59, 193, 74, 256
-0.993418, 97, 157, 224, 188
-0.99344, 65, 161, 80, 224
-0.99344, 1, 185, 500, 248
-0.993451, 255, 17, 270, 80
-0.993454, 73, 169, 88, 232
-0.993482, 81, 73, 96, 136
-0.993483, 129, 45, 256, 76
-0.993513, 123, 73, 138, 136
-0.99352, 33, 137, 48, 200
-0.993531, 1, 173, 128, 204
-0.993532, 133, 193, 148, 256
-0.993535, 145, 49, 160, 112
-0.993539, 121, 33, 136, 96
-0.993543, 15, 169, 30, 232
-0.993562, 85, 153, 100, 216
-0.99357, 319, 73, 334, 136
-0.993575, 97, 265, 224, 296
-0.993588, 427, 1, 442, 64
-0.993589, 273, 277, 400, 308
-0.993595, 205, 145, 220, 208
-0.993599, 317, 193, 348, 320
-0.993609, 51, 177, 66, 240
-0.993618, 33, 49, 64, 176
-0.993628, 23, 217, 38, 280
-0.993653, 191, 1, 206, 64
-0.993669, 321, 193, 448, 320
-0.993674, 207, 233, 222, 296
-0.993686, 97, 177, 224, 208
-0.99369, 41, 129, 56, 192
-0.993693, 203, 33, 218, 96
-0.993696, 155, 153, 170, 216
-0.993712, 347, 33, 362, 96
-0.99375, 25, 241, 40, 304
-0.993759, 31, 241, 46, 304
-0.993765, 121, 193, 136, 256
-0.993768, 127, 193, 142, 256
-0.993771, 113, 89, 128, 152
-0.993783, 181, 33, 196, 96
-0.993788, 167, 169, 182, 232
-0.993789, 247, 81, 262, 144
-0.993793, 163, 25, 178, 88
-0.993802, 305, 37, 432, 68
-0.993809, 39, 25, 54, 88
-0.993822, 129, 89, 256, 120
-0.993848, 161, 153, 176, 216
-0.99385, 75, 137, 90, 200
-0.993866, 227, 57, 242, 120
-0.993875, 1, 249, 128, 280
-0.993876, 75, 249, 90, 312
-0.993878, 193, 25, 208, 88
-0.993888, 185, 57, 200, 120
-0.993891, 257, 49, 272, 112
-0.993896, 103, 89, 118, 152
-0.993898, 301, 73, 316, 136
-0.993899, 173, 25, 188, 88
-0.993901, 477, 217, 492, 280
-0.993909, 291, 33, 306, 96
-0.99391, 417, 9, 432, 72
-0.993912, 471, 185, 486, 248
-0.993929, 179, 1, 194, 64
-0.993937, 251, 129, 266, 192
-0.993944, 107, 33, 122, 96
-0.993947, 225, 277, 352, 308
-0.993962, 69, 89, 84, 152
-0.993963, 203, 257, 218, 320
-0.993965, 1, 289, 128, 320
-0.993965, 59, 145, 74, 208
-0.99398, 131, 89, 146, 152
-0.99399, 279, 89, 294, 152
-0.993992, 205, 177, 220, 240
-0.993996, 15, 193, 30, 256
-0.993999, 147, 217, 162, 280
-0.994001, 111, 185, 126, 248
-0.994012, 211, 113, 226, 176
-0.994023, 151, 81, 166, 144
-0.994041, 67, 185, 82, 248
-0.994055, 269, 193, 300, 320
-0.994063, 155, 41, 170, 104
-0.994071, 283, 1, 298, 64
-0.994072, 1, 261, 128, 292
-0.994076, 485, 241, 500, 304
-0.994078, 77, 217, 92, 280
-0.994092, 87, 121, 102, 184
-0.994092, 193, 257, 448, 320
-0.99411, 157, 9, 172, 72
-0.994151, 161, 161, 416, 224
-0.994168, 225, 1, 256, 256
-0.994178, 97, 257, 352, 320
-0.994197, 245, 1, 276, 256
-0.994223, 145, 237, 272, 268
-0.994264, 321, 1, 448, 32
-0.994284, 297, 113, 360, 240
-0.994293, 129, 1, 256, 32
-0.994311, 65, 253, 192, 284
-0.994327, 257, 89, 384, 120
-0.994386, 97, 73, 224, 104
-0.9944, 273, 25, 400, 56
-0.994408, 321, 25, 448, 56
-0.994413, 129, 113, 256, 144
-0.994422, 321, 277, 448, 308
-0.994426, 49, 177, 176, 208
-0.994443, 177, 277, 304, 308
-0.994479, 1, 217, 500, 280
-0.994555, 73, 1, 104, 256
-0.994568, 321, 233, 448, 296
-0.994595, 49, 229, 176, 260
-0.994636, 353, 41, 480, 72
-0.994651, 53, 65, 84, 320
-0.994711, 193, 245, 320, 276
-0.994719, 453, 81, 484, 208
-0.994801, 213, 65, 244, 320
-0.994817, 101, 1, 132, 256
-0.994818, 273, 1, 304, 256
-0.994818, 389, 65, 420, 192
-0.994846, 85, 65, 116, 320
-0.994855, 33, 21, 160, 52
-0.994929, 261, 1, 292, 256
-0.994961, 193, 33, 224, 288
-0.994984, 193, 293, 320, 324
-0.99508, 81, 281, 208, 312
-0.995094, 209, 129, 336, 160
-0.995102, 1, 237, 128, 268
-0.995133, 273, 61, 400, 92
-0.995155, 457, 17, 488, 144
-0.995172, 353, 193, 384, 320
-0.995272, 193, 233, 320, 264
-0.995295, 209, 165, 336, 196
-0.995308, 305, 13, 432, 44
-0.995314, 129, 277, 256, 308
-0.995434, 209, 265, 336, 296
-0.995447, 257, 161, 500, 224
-0.995451, 113, 33, 144, 288
-0.995523, 33, 85, 160, 116
-0.99555, 273, 161, 400, 224
-0.995555, 81, 101, 208, 132
-0.995646, 1, 49, 128, 80
-0.995687, 225, 145, 352, 176
-0.99569, 241, 117, 368, 148
-0.995711, 377, 1, 408, 256
-0.995712, 141, 1, 172, 256
-0.995746, 193, 13, 320, 44
-0.995754, 345, 193, 408, 320
-0.99582, 257, 73, 384, 104
-0.995821, 129, 1, 160, 256
-0.995841, 305, 49, 432, 80
-0.99587, 145, 293, 272, 324
-0.995894, 209, 221, 336, 252
-0.995927, 329, 1, 360, 256
-0.995935, 369, 277, 496, 308
-0.995939, 33, 65, 64, 320
-0.996001, 81, 293, 208, 324
-0.996002, 193, 197, 320, 228
-0.996011, 241, 289, 368, 320
-0.996015, 289, 117, 416, 148
-0.996089, 165, 33, 196, 288
-0.996096, 181, 1, 212, 256
-0.996122, 313, 1, 344, 256
-0.996148, 1, 129, 32, 256
-0.996157, 87, 37, 102, 68
-0.996234, 235, 21, 250, 52
-0.99624, 393, 1, 424, 256
-0.996252, 193, 177, 320, 208
-0.996257, 81, 113, 208, 144
-0.996264, 33, 61, 160, 92
-0.996324, 25, 29, 40, 60
-0.996349, 37, 33, 52, 64
-0.99635, 145, 37, 160, 68
-0.996353, 341, 1, 372, 256
-0.996359, 369, 217, 496, 280
-0.996368, 109, 29, 124, 60
-0.996373, 285, 1, 316, 256
-0.996395, 349, 49, 364, 80
-0.996403, 341, 37, 356, 68
-0.996407, 147, 217, 162, 248
-0.996463, 85, 161, 100, 192
-0.996484, 209, 209, 336, 240
-0.996516, 153, 1, 184, 256
-0.99653, 249, 29, 264, 60
-0.996531, 327, 37, 342, 68
-0.996536, 405, 1, 436, 256
-0.996539, 235, 165, 250, 196
-0.996539, 121, 37, 136, 68
-0.996558, 321, 45, 336, 76
-0.996568, 421, 97, 452, 224
-0.996571, 369, 29, 496, 60
-0.996592, 277, 1, 292, 32
-0.996601, 241, 29, 256, 60
-0.996612, 211, 37, 226, 68
-0.996614, 279, 37, 294, 68
-0.996615, 45, 213, 60, 244
-0.99666, 281, 25, 296, 56
-0.996661, 237, 9, 252, 40
-0.996666, 209, 269, 224, 300
-0.996667, 369, 1, 496, 32
-0.996671, 153, 253, 168, 284
-0.996678, 269, 41, 284, 72
-0.996678, 167, 1, 182, 32
-0.996698, 217, 37, 232, 68
-0.9967, 369, 105, 496, 136
-0.996705, 95, 33, 110, 64
-0.996706, 121, 129, 136, 160
-0.996708, 185, 37, 200, 68
-0.996713, 283, 1, 298, 32
-0.996721, 261, 1, 276, 32
-0.996726, 241, 41, 256, 72
-0.996737, 271, 77, 286, 108
-0.996737, 107, 117, 122, 148
-0.996747, 131, 41, 146, 72
-0.996756, 229, 181, 244, 212
-0.996757, 85, 53, 100, 84
-0.996757, 51, 233, 66, 264
-0.99676, 285, 273, 300, 304
-0.996763, 259, 41, 274, 72
-0.996765, 291, 41, 306, 72
-0.996774, 109, 9, 124, 40
-0.996774, 255, 25, 270, 56
-0.996776, 341, 49, 356, 80
-0.996777, 249, 13, 264, 44
-0.99678, 199, 41, 214, 72
-0.996781, 249, 41, 264, 72
-0.996785, 77, 41, 92, 72
-0.996798, 305, 289, 432, 320
-0.996807, 229, 33, 244, 64
-0.996807, 137, 37, 152, 68
-0.996807, 315, 29, 330, 60
-0.99681, 277, 77, 292, 108
-0.996812, 63, 85, 78, 116
-0.996819, 55, 105, 70, 136
-0.996819, 271, 9, 286, 40
-0.996837, 13, 233, 28, 264
-0.99684, 289, 5, 304, 36
-0.996841, 173, 33, 188, 64
-0.996843, 331, 269, 346, 300
-0.996849, 267, 29, 282, 60
-0.996849, 141, 217, 156, 248
-0.996852, 47, 37, 62, 68
-0.996853, 179, 69, 194, 100
-0.996861, 293, 277, 308, 308
-0.996864, 163, 37, 178, 68
-0.996867, 337, 149, 464, 180
-0.996869, 103, 25, 118, 56
-0.996871, 365, 1, 396, 256
-0.996877, 63, 169, 78, 200
-0.996884, 161, 1, 176, 32
-0.996888, 149, 57, 164, 88
-0.996896, 45, 193, 60, 224
-0.996898, 265, 77, 280, 108
-0.996902, 447, 277, 462, 308
-0.996904, 71, 77, 86, 108
-0.996905, 21, 33, 52, 288
-0.996905, 253, 73, 268, 104
-0.996906, 193, 25, 208, 56
-0.996914, 313, 277, 328, 308
-0.996914, 319, 77, 334, 108
-0.99692, 205, 193, 220, 224
-0.996922, 113, 41, 128, 72
-0.996922, 201, 141, 216, 172
-0.996927, 9, 193, 24, 224
-0.996927, 19, 241, 34, 272
-0.996928, 321, 281, 336, 312
-0.996946, 157, 193, 172, 224
-0.996947, 33, 1, 160, 32
-0.99695, 153, 225, 168, 256
-0.996951, 149, 153, 164, 184
-0.996965, 201, 129, 216, 160
-0.996965, 339, 273, 354, 304
-0.996967, 305, 265, 432, 296
-0.996969, 69, 41, 84, 72
-0.996976, 51, 217, 66, 248
-0.996978, 249, 141, 264, 172
-0.996979, 185, 81, 200, 112
-0.996984, 273, 237, 400, 268
-0.996987, 203, 153, 218, 184
-0.996987, 113, 109, 128, 140
-0.996991, 229, 21, 244, 52
-0.996993, 153, 241, 168, 272
-0.996994, 91, 113, 106, 144
-0.996998, 257, 277, 272, 308
-0.996999, 333, 57, 348, 88
-0.997009, 123, 77, 138, 108
-0.997014, 307, 277, 322, 308
-0.997015, 275, 25, 290, 56
-0.997018, 175, 57, 190, 88
-0.997019, 175, 21, 190, 52
-0.99702, 99, 117, 114, 148
-0.997024, 261, 17, 276, 48
-0.997027, 205, 37, 220, 68
-0.997029, 431, 33, 446, 64
-0.99703, 151, 185, 166, 216
-0.997035, 13, 253, 28, 284
-0.997036, 235, 37, 250, 68
-0.997038, 323, 65, 338, 96
-0.997045, 57, 177, 72, 208
-0.997047, 169, 197, 184, 228
-0.997048, 39, 201, 54, 232
-0.997056, 155, 141, 170, 172
-0.997061, 1, 73, 128, 104
-0.997061, 357, 41, 372, 72
-0.997061, 271, 277, 286, 308
-0.997064, 209, 257, 224, 288
-0.997069, 295, 81, 310, 112
-0.997069, 203, 269, 218, 300
-0.997072, 21, 229, 36, 260
-0.99708, 255, 1, 270, 32
-0.997085, 101, 105, 116, 136
-0.997086, 453, 277, 468, 308
-0.997091, 49, 117, 64, 148
-0.997091, 257, 265, 384, 296
-0.997091, 49, 253, 64, 284
-0.997092, 233, 277, 248, 308
-0.997094, 279, 277, 294, 308
-0.997111, 321, 129, 448, 160
-0.997187, 369, 13, 496, 44
-0.997229, 305, 73, 432, 104
-0.997256, 257, 253, 384, 284
-0.997261, 257, 209, 500, 272
-0.997312, 369, 189, 496, 220
-0.997403, 369, 161, 496, 192
-0.997404, 321, 61, 448, 92
-0.997554, 369, 217, 496, 248
-0.997555, 353, 93, 480, 124
-0.997596, 301, 1, 332, 256
-0.997806, 369, 121, 496, 152
-0.997899, 369, 133, 496, 164
-0.998018, 453, 65, 484, 320
-0.998028, 353, 265, 480, 296
-0.998033, 421, 1, 452, 256
-0.998055, 151, 161, 166, 288
-0.998145, 325, 113, 356, 240
-0.998169, 305, 185, 432, 248
-0.998195, 139, 177, 154, 304
-0.99821, 247, 1, 262, 128
-0.998217, 105, 97, 120, 224
-0.998229, 129, 177, 144, 304
-0.998281, 85, 113, 100, 240
-0.998284, 259, 1, 274, 128
-0.998286, 97, 1, 112, 128
-0.998287, 157, 161, 172, 288
-0.998287, 111, 33, 126, 160
-0.998291, 153, 1, 168, 128
-0.998298, 123, 177, 138, 304
-0.998299, 249, 81, 264, 208
-0.9983, 79, 49, 94, 176
-0.998311, 17, 193, 32, 320
-0.998311, 353, 17, 368, 144
-0.998313, 161, 209, 224, 224
-0.998328, 9, 177, 24, 304
-0.998335, 249, 37, 312, 52
-0.998337, 281, 281, 344, 296
-0.99834, 129, 29, 192, 44
-0.99834, 17, 219, 80, 234
-0.998343, 81, 43, 144, 58
-0.998343, 225, 19, 288, 34
-0.998344, 49, 185, 112, 200
-0.998346, 105, 151, 168, 166
-0.99835, 401, 281, 464, 296
-0.998351, 9, 257, 72, 272
-0.998353, 121, 39, 184, 54
-0.998354, 73, 183, 136, 198
-0.998355, 225, 29, 288, 44
-0.998357, 329, 281, 392, 296
-0.998358, 9, 33, 40, 288
-0.998361, 49, 201, 112, 216
-0.998364, 305, 51, 368, 66
-0.998365, 97, 31, 160, 46
-0.998367, 49, 97, 64, 224
-0.998367, 73, 193, 136, 208
-0.998369, 49, 193, 112, 208
-0.998369, 65, 157, 128, 172
-0.99837, 57, 283, 120, 298
-0.998371, 353, 1, 384, 256
-0.998375, 17, 283, 80, 298
-0.998376, 185, 201, 248, 216
-0.998377, 341, 17, 356, 144
-0.998377, 437, 1, 468, 256
-0.998378, 89, 143, 152, 158
-0.998379, 41, 259, 104, 274
-0.998382, 73, 175, 136, 190
-0.998383, 87, 33, 102, 160
-0.998383, 233, 43, 296, 58
-0.998384, 145, 17, 160, 144
-0.998384, 65, 65, 80, 192
-0.998385, 209, 37, 272, 52
-0.998387, 121, 5, 184, 20
-0.998387, 17, 213, 80, 228
-0.998391, 321, 39, 384, 54
-0.998391, 145, 23, 208, 38
-0.998392, 89, 133, 152, 148
-0.998392, 273, 83, 336, 98
-0.998393, 73, 61, 136, 76
-0.998393, 65, 145, 80, 272
-0.998395, 33, 207, 96, 222
-0.998395, 193, 279, 256, 294
-0.998396, 9, 267, 72, 282
-0.998396, 113, 21, 176, 36
-0.998396, 181, 1, 196, 128
-0.998397, 201, 165, 264, 180
-0.998397, 145, 71, 208, 86
-0.998397, 241, 283, 304, 298
-0.998398, 115, 177, 130, 304
-0.998398, 217, 139, 280, 154
-0.998398, 49, 41, 112, 56
-0.998398, 209, 45, 272, 60
-0.998399, 153, 17, 216, 32
-0.998401, 185, 249, 248, 264
-0.998401, 169, 37, 232, 52
-0.998401, 25, 273, 88, 288
-0.998401, 81, 37, 144, 52
-0.998402, 59, 145, 74, 272
-0.998402, 249, 11, 312, 26
-0.998402, 155, 113, 170, 240
-0.998402, 161, 203, 224, 218
-0.998403, 73, 165, 136, 180
-0.998404, 153, 31, 216, 46
-0.998406, 137, 45, 200, 60
-0.998407, 241, 5, 304, 20
-0.998408, 31, 145, 46, 272
-0.998409, 285, 49, 300, 176
-0.998411, 273, 61, 336, 76
-0.998412, 57, 209, 120, 224
-0.998412, 265, 51, 328, 66
-0.998412, 271, 33, 286, 160
-0.998413, 241, 53, 304, 68
-0.998413, 177, 77, 240, 92
-0.998414, 49, 175, 112, 190
-0.998415, 57, 289, 120, 304
-0.998417, 161, 49, 224, 64
-0.998418, 289, 33, 352, 48
-0.998418, 137, 201, 200, 216
-0.998418, 249, 59, 312, 74
-0.998419, 177, 261, 240, 276
-0.998419, 121, 143, 184, 158
-0.998419, 265, 21, 328, 36
-0.998419, 113, 51, 176, 66
-0.99842, 253, 1, 268, 128
-0.99842, 361, 283, 424, 298
-0.99842, 191, 1, 206, 128
-0.998421, 161, 215, 224, 230
-0.998421, 41, 115, 104, 130
-0.998422, 273, 41, 336, 56
-0.998423, 277, 49, 292, 176
-0.998424, 201, 149, 264, 164
-0.998424, 25, 159, 88, 174
-0.998424, 41, 125, 104, 140
-0.998425, 65, 67, 128, 82
-0.998426, 177, 309, 240, 324
-0.998426, 17, 169, 80, 184
-0.998427, 137, 263, 200, 278
-0.998428, 97, 15, 160, 30
-0.998429, 97, 67, 160, 82
-0.998429, 209, 285, 272, 300
-0.998429, 305, 57, 368, 72
-0.99843, 65, 81, 128, 96
-0.998432, 321, 17, 336, 144
-0.998432, 17, 175, 80, 190
-0.998432, 81, 271, 144, 286
-0.998433, 217, 133, 280, 148
-0.998433, 185, 29, 248, 44
-0.998434, 305, 45, 368, 60
-0.998434, 193, 133, 256, 148
-0.998435, 425, 281, 488, 296
-0.998435, 201, 159, 264, 174
-0.998437, 89, 127, 152, 142
-0.998438, 209, 93, 272, 108
-0.99844, 225, 277, 288, 292
-0.998441, 257, 65, 272, 192
-0.998441, 393, 29, 456, 44
-0.998442, 193, 139, 256, 154
-0.998443, 17, 225, 80, 240
-0.998444, 121, 123, 184, 138
-0.998445, 201, 173, 264, 188
-0.998445, 65, 75, 128, 90
-0.998445, 81, 287, 144, 302
-0.998446, 265, 29, 328, 44
-0.998447, 137, 217, 200, 232
-0.998447, 161, 281, 224, 296
-0.998447, 41, 253, 104, 268
-0.99845, 33, 131, 96, 146
-0.99845, 137, 255, 200, 270
-0.998451, 185, 15, 248, 30
-0.998451, 81, 265, 144, 280
-0.998452, 41, 265, 104, 280
-0.998452, 209, 71, 272, 86
-0.998452, 57, 93, 120, 108
-0.998452, 49, 277, 112, 292
-0.998453, 105, 45, 168, 60
-0.998454, 169, 43, 232, 58
-0.998455, 121, 225, 184, 240
-0.998456, 1, 183, 64, 198
-0.998456, 185, 207, 248, 222
-0.998457, 75, 161, 90, 288
-0.998457, 185, 269, 248, 284
-0.998457, 145, 39, 208, 54
-0.998457, 145, 149, 208, 164
-0.998458, 161, 197, 224, 212
-0.998459, 185, 67, 248, 82
-0.998459, 65, 151, 128, 166
-0.998459, 249, 289, 312, 304
-0.99847, 347, 17, 362, 144
-0.998473, 171, 1, 186, 128
-0.998488, 81, 161, 96, 288
-0.998502, 147, 65, 162, 192
-0.998503, 53, 177, 68, 304
-0.998515, 71, 65, 86, 192
-0.998519, 153, 65, 168, 192
-0.998523, 91, 113, 106, 240
-0.998523, 23, 161, 38, 288
-0.998524, 239, 1, 254, 128
-0.99853, 59, 81, 74, 208
-0.998531, 233, 1, 248, 128
-0.998532, 41, 145, 56, 272
-0.998539, 105, 1, 120, 128
-0.998543, 291, 49, 306, 176
-0.998543, 75, 113, 90, 240
-0.998548, 145, 145, 160, 272
-0.998558, 201, 97, 216, 224
-0.998559, 197, 17, 212, 144
-0.998561, 67, 193, 82, 320
-0.998567, 221, 49, 236, 176
-0.99857, 299, 49, 314, 176
-0.998576, 89, 47, 120, 62
-0.998576, 153, 53, 184, 68
-0.998577, 125, 51, 156, 66
-0.998577, 201, 193, 232, 208
-0.998577, 161, 43, 192, 58
-0.998577, 133, 43, 164, 58
-0.998579, 73, 265, 104, 280
-0.99858, 333, 33, 348, 160
-0.998581, 117, 41, 148, 56
-0.998581, 21, 215, 52, 230
-0.998581, 113, 97, 144, 112
-0.998581, 201, 279, 232, 294
-0.998581, 121, 1, 136, 128
-0.998582, 37, 199, 68, 214
-0.998582, 5, 295, 36, 310
-0.998582, 137, 49, 168, 64
-0.998582, 327, 17, 342, 144
-0.998583, 61, 87, 92, 102
-0.998583, 73, 187, 104, 202
-0.998583, 93, 49, 108, 176
-0.998583, 149, 261, 180, 276
-0.998584, 311, 33, 326, 160
-0.998584, 21, 31, 52, 46
-0.998584, 1, 213, 32, 228
-0.998585, 125, 141, 156, 156
-0.998586, 229, 49, 260, 64
-0.998587, 205, 307, 236, 322
-0.998587, 239, 81, 254, 208
-0.998588, 97, 123, 128, 138
-0.998588, 269, 285, 300, 300
-0.998589, 273, 31, 304, 46
-0.998589, 385, 129, 416, 144
-0.99859, 263, 49, 278, 176
-0.998591, 69, 17, 84, 144
-0.998591, 89, 117, 120, 132
-0.998592, 285, 279, 316, 294
-0.998592, 37, 137, 68, 152
-0.998592, 281, 59, 312, 74
-0.998592, 209, 193, 224, 320
-0.998594, 37, 223, 68, 238
-0.998594, 41, 193, 72, 208
-0.998595, 381, 281, 412, 296
-0.998595, 145, 159, 176, 174
-0.998597, 221, 187, 252, 202
-0.998597, 5, 255, 36, 270
-0.998597, 93, 177, 124, 192
-0.998598, 193, 75, 224, 90
-0.998599, 21, 229, 52, 244
-0.998599, 373, 119, 404, 134
-0.998602, 33, 41, 64, 56
-0.998603, 241, 141, 272, 156
-0.998603, 205, 145, 220, 272
-0.998603, 397, 281, 428, 296
-0.998603, 113, 133, 144, 148
-0.998603, 227, 17, 242, 144
-0.998604, 133, 35, 164, 50
-0.998604, 145, 191, 176, 206
-0.998605, 359, 33, 374, 160
-0.998606, 229, 23, 260, 38
-0.998607, 333, 61, 364, 76
-0.998607, 81, 165, 112, 180
-0.998607, 161, 37, 192, 52
-0.998608, 109, 1, 140, 16
-0.998609, 73, 171, 104, 186
-0.998611, 209, 161, 240, 176
-0.998612, 113, 85, 144, 100
-0.998612, 301, 85, 332, 100
-0.998613, 125, 81, 156, 96
-0.998613, 57, 173, 88, 188
-0.998613, 37, 205, 68, 220
-0.998614, 53, 203, 84, 218
-0.998614, 153, 27, 184, 42
-0.998615, 257, 27, 288, 42
-0.998616, 81, 129, 112, 144
-0.998617, 241, 49, 272, 64
-0.998617, 169, 23, 200, 38
-0.998617, 317, 283, 348, 298
-0.998617, 157, 21, 188, 36
-0.998618, 101, 49, 116, 176
-0.998618, 97, 17, 128, 32
-0.998618, 53, 43, 84, 58
-0.998619, 145, 193, 160, 320
-0.998619, 149, 241, 180, 256
-0.998619, 225, 29, 256, 44
-0.998619, 161, 3, 192, 18
-0.99862, 261, 43, 292, 58
-0.99862, 309, 29, 340, 44
-0.998621, 145, 153, 176, 168
-0.998621, 73, 67, 104, 82
-0.998622, 317, 67, 348, 82
-0.998623, 3, 193, 18, 320
-0.998624, 337, 277, 368, 292
-0.998624, 93, 157, 124, 172
-0.998625, 273, 3, 304, 18
-0.998625, 165, 203, 196, 218
-0.998625, 265, 1, 280, 128
-0.998626, 61, 193, 76, 320
-0.998627, 77, 47, 108, 62
-0.998627, 261, 55, 292, 70
-0.998628, 97, 97, 112, 224
-0.99863, 417, 281, 448, 296
-0.998631, 69, 39, 100, 54
-0.998631, 85, 123, 116, 138
-0.998631, 265, 49, 296, 64
-0.998632, 65, 81, 96, 96
-0.998635, 261, 35, 292, 50
-0.998636, 329, 39, 360, 54
-0.998636, 237, 31, 268, 46
-0.998636, 197, 261, 228, 276
-0.998638, 53, 179, 84, 194
-0.998638, 471, 177, 486, 304
-0.998639, 165, 49, 196, 64
-0.998641, 97, 129, 128, 144
-0.998643, 45, 119, 76, 134
-0.998643, 121, 49, 136, 176
-0.998643, 109, 193, 124, 320
-0.998644, 229, 15, 260, 30
-0.998645, 249, 33, 280, 48
-0.998646, 169, 29, 200, 44
-0.998647, 317, 55, 348, 70
-0.998648, 57, 97, 88, 112
-0.998649, 149, 231, 180, 246
-0.998649, 145, 35, 176, 50
-0.998649, 333, 283, 364, 298
-0.99865, 93, 23, 124, 38
-0.998651, 145, 145, 176, 160
-0.998652, 117, 113, 132, 240
-0.998653, 77, 57, 108, 72
-0.998653, 289, 1, 304, 128
-0.998655, 325, 49, 356, 64
-0.998656, 277, 1, 292, 128
-0.998657, 101, 141, 132, 156
-0.998659, 225, 37, 256, 52
-0.998659, 69, 73, 100, 88
-0.998661, 93, 163, 124, 178
-0.998661, 353, 283, 384, 298
-0.998669, 169, 177, 184, 304
-0.998669, 269, 25, 300, 40
-0.998669, 49, 113, 80, 128
-0.99867, 257, 21, 288, 36
-0.998671, 149, 225, 180, 240
-0.998671, 213, 81, 228, 208
-0.998672, 137, 227, 168, 242
-0.998674, 73, 177, 104, 192
-0.998675, 245, 281, 276, 296
-0.998675, 53, 105, 84, 120
-0.998675, 97, 53, 128, 68
-0.998676, 249, 43, 280, 58
-0.998679, 89, 33, 120, 48
-0.998682, 145, 197, 176, 212
-0.998684, 235, 161, 250, 288
-0.998684, 349, 41, 380, 56
-0.998685, 61, 17, 76, 144
-0.998687, 87, 177, 102, 304
-0.998693, 273, 37, 304, 52
-0.998695, 245, 17, 276, 32
-0.998696, 149, 45, 180, 60
-0.998698, 227, 97, 242, 224
-0.998701, 337, 53, 368, 68
-0.998704, 225, 145, 240, 272
-0.998706, 215, 129, 230, 256
-0.998713, 139, 129, 154, 256
-0.998723, 159, 17, 174, 144
-0.998738, 283, 1, 298, 128
-0.998757, 241, 25, 272, 40
-0.998758, 45, 193, 60, 320
-0.998768, 201, 193, 216, 320
-0.998772, 369, 33, 384, 160
-0.998783, 93, 161, 108, 288
-0.998784, 337, 113, 368, 240
-0.998788, 163, 65, 178, 192
-0.998794, 257, 185, 384, 248
-0.998802, 465, 145, 480, 272
-0.998804, 457, 113, 472, 240
-0.998809, 221, 97, 236, 224
-0.998809, 39, 193, 54, 320
-0.998813, 211, 17, 226, 144
-0.998821, 137, 49, 152, 176
-0.998826, 225, 193, 240, 320
-0.998827, 31, 193, 46, 320
-0.998831, 165, 1, 180, 128
-0.998839, 205, 17, 220, 144
-0.99884, 111, 129, 126, 256
-0.998842, 43, 97, 58, 224
-0.998843, 305, 49, 320, 176
-0.998859, 131, 33, 146, 160
-0.998863, 225, 185, 480, 248
-0.998864, 163, 161, 178, 288
-0.998864, 207, 81, 222, 208
-0.998881, 249, 129, 264, 256
-0.998891, 123, 113, 138, 240
-0.998895, 197, 145, 212, 272
-0.998896, 263, 97, 278, 224
-0.998896, 233, 81, 248, 208
-0.998897, 245, 193, 276, 320
-0.998905, 477, 193, 492, 320
-0.99891, 243, 129, 258, 256
-0.998914, 215, 193, 230, 320
-0.998924, 469, 65, 500, 320
-0.998924, 349, 65, 364, 192
-0.998924, 129, 129, 144, 256
-0.998938, 161, 113, 176, 240
-0.998949, 99, 145, 114, 272
-0.99895, 99, 193, 114, 320
-0.99895, 15, 145, 30, 272
-0.998952, 55, 17, 70, 144
-0.998961, 317, 65, 332, 192
-0.999434, 469, 33, 500, 160
-0.999656, 381, 193, 412, 320
-0.999765, 39, 203, 54, 218
-0.999766, 139, 35, 154, 50
-0.999766, 81, 65, 96, 80
-0.999766, 169, 201, 184, 216
-0.999767, 57, 201, 72, 216
-0.999767, 201, 141, 216, 156
-0.999767, 233, 15, 248, 30
-0.999767, 271, 39, 286, 54
-0.999768, 175, 43, 190, 58
-0.999768, 299, 277, 314, 292
-0.999769, 101, 125, 116, 140
-0.999769, 401, 127, 416, 142
-0.99977, 431, 33, 446, 48
-0.99977, 251, 39, 266, 54
-0.999771, 279, 49, 294, 64
-0.999773, 89, 47, 104, 62
-0.999774, 35, 43, 50, 58
-0.999774, 79, 81, 94, 96
-0.999774, 255, 51, 270, 66
-0.999776, 31, 217, 46, 232
-0.999776, 47, 227, 62, 242
-0.999777, 287, 7, 302, 22
-0.999777, 243, 27, 258, 42
-0.999777, 239, 43, 254, 58
-0.999777, 185, 45, 200, 60
-0.999778, 175, 25, 190, 40
-0.999779, 277, 37, 292, 52
-0.99978, 85, 173, 100, 188
-0.99978, 341, 41, 356, 56
-0.99978, 163, 43, 178, 58
-0.99978, 325, 35, 340, 50
-0.999781, 269, 45, 284, 60
-0.999781, 41, 225, 56, 240
-0.999782, 49, 209, 64, 224
-0.999782, 213, 283, 228, 298
-0.999783, 151, 221, 166, 236
-0.999783, 11, 241, 26, 256
-0.999783, 233, 21, 248, 36
-0.999783, 57, 45, 72, 60
-0.999784, 337, 275, 352, 290
-0.999784, 291, 41, 306, 56
-0.999784, 263, 53, 278, 68
-0.999784, 65, 95, 80, 110
-0.999785, 393, 123, 408, 138
-0.999787, 263, 41, 278, 56
-0.999788, 53, 39, 68, 54
-0.999788, 251, 27, 266, 42
-0.999788, 231, 281, 246, 296
-0.999788, 49, 119, 64, 134
-0.999788, 271, 21, 286, 36
-0.999788, 17, 247, 32, 262
-0.999788, 225, 281, 240, 296
-0.999791, 161, 3, 176, 18
-0.999791, 293, 277, 308, 292
-0.999792, 87, 55, 102, 70
-0.999792, 21, 239, 36, 254
-0.999793, 155, 37, 170, 52
-0.999793, 39, 139, 54, 154
-0.999793, 103, 25, 118, 40
-0.999794, 149, 261, 164, 276
-0.999795, 137, 227, 152, 242
-0.999795, 351, 37, 366, 52
-0.999796, 231, 185, 246, 200
-0.999797, 313, 281, 328, 296
-0.999797, 293, 283, 308, 298
-0.999797, 87, 127, 102, 142
-0.999798, 351, 53, 366, 68
-0.999798, 239, 13, 254, 28
-0.999798, 35, 37, 50, 52
-0.999799, 265, 281, 280, 296
-0.999799, 65, 199, 80, 214
-0.9998, 269, 51, 284, 66
-0.9998, 245, 39, 260, 54
-0.999802, 303, 283, 318, 298
-0.999802, 95, 41, 110, 56
-0.999802, 95, 115, 110, 130
-0.999803, 417, 281, 432, 296
-0.999805, 71, 85, 86, 100
-0.999806, 13, 233, 28, 248
-0.999806, 229, 37, 244, 52
-0.999806, 33, 23, 48, 38
-0.999807, 27, 27, 42, 42
-0.999807, 153, 255, 168, 270
-0.999809, 205, 41, 220, 56
-0.99981, 249, 17, 264, 32
-0.99981, 403, 283, 418, 298
-0.999811, 259, 23, 274, 38
-0.999811, 203, 283, 218, 298
-0.999812, 91, 121, 106, 136
-0.999812, 147, 39, 162, 54
-0.999816, 245, 45, 260, 60
-0.999816, 141, 41, 156, 56
-0.999816, 255, 277, 270, 292
-0.999817, 245, 281, 260, 296
-0.999817, 53, 111, 68, 126
-0.999818, 239, 35, 254, 50
-0.999819, 199, 41, 214, 56
-0.999819, 239, 21, 254, 36
-0.999821, 81, 49, 96, 64
-0.999821, 341, 63, 356, 78
-0.999822, 189, 39, 204, 54
-0.999823, 255, 45, 270, 60
-0.999823, 447, 281, 462, 296
-0.999823, 455, 281, 470, 296
-0.999825, 277, 43, 292, 58
-0.999825, 61, 39, 76, 54
-0.999826, 461, 281, 476, 296
-0.999826, 239, 281, 254, 296
-0.999827, 285, 281, 300, 296
-0.999828, 147, 227, 162, 242
-0.999829, 331, 283, 346, 298
-0.999832, 121, 39, 136, 54
-0.999835, 41, 41, 56, 56
-0.999837, 67, 45, 82, 60
-0.99984, 271, 281, 286, 296
-0.999841, 135, 45, 150, 60
-0.999842, 249, 33, 264, 48
-0.999843, 215, 43, 230, 58
-0.999843, 321, 281, 336, 296
-0.999843, 77, 43, 92, 58
-0.999843, 339, 281, 354, 296
-0.999845, 87, 41, 102, 56
-0.999846, 365, 281, 380, 296
-0.999848, 121, 47, 136, 62
-0.99985, 285, 39, 300, 54
-0.999856, 427, 281, 442, 296
-0.999856, 393, 281, 408, 296
-0.999869, 113, 43, 128, 58
-0.999877, 237, 27, 252, 42
-0.99988, 127, 43, 142, 58
-0.999891, 321, 161, 448, 224
-0.999942, 305, 145, 432, 272
-1.00009, 313, 113, 344, 240
-1.00038, 413, 177, 444, 304
-1.0004, 293, 145, 324, 272
-1.00101, 21, 65, 52, 192
-1.00109, 393, 193, 424, 320
-1.00129, 257, 193, 288, 320
-1.00143, 281, 193, 312, 320
-1.00553, 401, 193, 464, 320
-1.01527, 345, 145, 408, 272
