1979
-0.56475, 1, 97, 500, 352
-0.669611, 1, 1, 500, 375
-0.710005, 1, 1, 500, 256
-0.7187, 257, 129, 500, 375
-0.723953, 33, 1, 288, 375
-0.750506, 257, 1, 500, 375
-0.759089, 161, 1, 416, 375
-0.806131, 33, 129, 288, 375
-0.897405, 129, 129, 384, 375
-0.900862, 1, 225, 500, 352
-0.909823, 257, 209, 500, 336
-0.914814, 369, 129, 496, 375
-0.921243, 369, 1, 496, 375
-0.923169, 1, 177, 500, 304
-0.925952, 273, 129, 400, 375
-0.927773, 113, 129, 240, 375
-0.928228, 129, 1, 256, 375
-0.928512, 193, 1, 320, 375
-0.929891, 241, 1, 368, 375
-0.931303, 193, 129, 320, 375
-0.932127, 65, 97, 192, 352
-0.933314, 97, 241, 352, 368
-0.933525, 1, 193, 256, 320
-0.934, 161, 193, 416, 320
-0.934736, 49, 1, 176, 375
-0.936493, 289, 1, 416, 375
-0.936605, 17, 129, 144, 375
-0.938037, 257, 161, 500, 288
-0.941285, 321, 129, 448, 375
-0.941814, 425, 225, 488, 352
-0.943589, 425, 161, 488, 288
-0.944683, 401, 161, 464, 288
-0.945158, 193, 209, 320, 336
-0.945724, 337, 209, 464, 336
-0.949137, 353, 161, 480, 288
-0.952891, 257, 33, 500, 288
-0.957471, 289, 193, 416, 320
-0.958411, 1, 145, 256, 272
-0.95885, 369, 33, 496, 288
-0.958898, 1, 65, 500, 192
-0.95958, 1, 1, 128, 375
-0.959778, 433, 257, 496, 320
-0.959871, 113, 193, 240, 320
-0.960366, 409, 185, 472, 248
-0.960797, 289, 209, 352, 336
-0.961089, 433, 161, 496, 224
-0.961262, 1, 177, 128, 304
-0.962308, 145, 33, 272, 288
-0.96236, 241, 177, 368, 304
-0.9626, 169, 193, 232, 320
-0.962652, 209, 209, 272, 336
-0.96279, 1, 241, 256, 368
-0.962808, 249, 209, 312, 336
-0.962911, 289, 241, 416, 368
-0.962974, 9, 97, 72, 224
-0.963018, 17, 177, 80, 304
-0.963072, 161, 145, 416, 272
-0.963945, 241, 33, 368, 288
-0.965264, 17, 33, 144, 288
-0.965311, 385, 209, 448, 336
-0.965504, 377, 217, 440, 280
-0.965939, 321, 177, 384, 304
-0.966746, 433, 113, 496, 240
-0.967452, 321, 33, 448, 288
-0.967457, 1, 97, 256, 224
-0.967532, 433, 161, 464, 288
-0.967699, 209, 225, 272, 288
-0.968895, 49, 177, 176, 304
-0.969086, 361, 193, 424, 320
-0.969522, 241, 225, 368, 352
-0.969988, 345, 217, 408, 280
-0.970009, 25, 209, 88, 272
-0.970095, 289, 233, 352, 296
-0.97072, 257, 217, 320, 280
-0.970824, 281, 209, 344, 272
-0.970862, 321, 217, 384, 280
-0.970889, 401, 209, 464, 272
-0.971031, 1, 225, 64, 352
-0.971195, 1, 129, 500, 256
-0.971574, 129, 241, 256, 368
-0.971759, 233, 217, 296, 280
-0.97178, 129, 177, 192, 304
-0.971823, 177, 161, 304, 288
-0.971901, 57, 209, 120, 272
-0.973384, 193, 233, 320, 296
-0.973552, 65, 1, 192, 256
-0.973653, 17, 129, 144, 256
-0.973719, 257, 241, 320, 304
-0.973907, 201, 161, 264, 288
-0.974026, 433, 169, 464, 232
-0.974183, 41, 177, 104, 304
-0.974744, 361, 193, 424, 256
-0.975134, 321, 193, 384, 256
-0.975344, 429, 241, 460, 368
-0.975376, 425, 233, 488, 296
-0.976315, 65, 193, 128, 320
-0.976343, 129, 193, 192, 256
-0.976526, 97, 33, 352, 288
-0.976986, 169, 217, 232, 280
-0.977003, 209, 249, 272, 312
-0.977285, 169, 241, 232, 368
-0.977311, 17, 185, 80, 248
-0.977336, 17, 113, 80, 176
-0.977506, 113, 249, 176, 312
-0.977518, 65, 241, 192, 368
-0.977732, 169, 249, 232, 312
-0.977785, 337, 217, 464, 280
-0.978237, 1, 17, 500, 144
-0.978322, 1, 209, 64, 272
-0.978452, 233, 161, 296, 288
-0.978535, 113, 217, 176, 280
-0.978663, 421, 177, 452, 304
-0.978704, 273, 161, 336, 288
-0.978709, 289, 257, 352, 320
-0.978724, 273, 209, 400, 272
-0.978725, 429, 257, 460, 320
-0.979107, 377, 145, 440, 272
-0.97951, 81, 129, 208, 256
-0.979552, 193, 33, 320, 288
-0.979583, 421, 185, 452, 248
-0.979639, 401, 161, 464, 224
-0.97966, 49, 185, 112, 248
-0.979689, 369, 185, 496, 248
-0.979735, 353, 113, 480, 240
-0.979892, 433, 185, 496, 248
-0.980167, 385, 185, 448, 248
-0.980177, 409, 257, 472, 320
-0.980239, 225, 209, 352, 272
-0.980296, 129, 209, 256, 272
-0.980327, 273, 241, 400, 304
-0.980384, 81, 225, 144, 288
-0.98042, 453, 241, 484, 368
-0.980502, 89, 177, 152, 304
-0.98054, 433, 129, 496, 375
-0.980821, 113, 257, 240, 320
-0.980936, 369, 257, 496, 320
-0.981093, 465, 241, 496, 368
-0.981164, 405, 217, 436, 280
-0.981197, 465, 257, 496, 320
-0.981637, 17, 225, 144, 352
-0.982106, 49, 201, 176, 264
-0.982164, 1, 201, 128, 264
-0.98228, 401, 233, 464, 296
-0.982291, 433, 193, 464, 256
-0.982358, 57, 209, 88, 272
-0.982528, 97, 233, 224, 296
-0.982573, 445, 161, 476, 288
-0.982595, 377, 241, 440, 304
-0.982671, 441, 209, 472, 336
-0.98283, 329, 137, 392, 200
-0.982832, 297, 233, 328, 296
-0.982891, 97, 193, 160, 256
-0.982923, 137, 249, 200, 312
-0.982935, 305, 145, 432, 272
-0.982957, 357, 201, 388, 264
-0.983145, 245, 217, 276, 280
-0.983174, 437, 225, 468, 288
-0.983234, 1, 233, 64, 296
-0.983342, 469, 161, 500, 288
-0.983372, 257, 113, 500, 240
-0.983484, 137, 225, 200, 288
-0.98377, 125, 201, 156, 264
-0.983875, 65, 145, 128, 272
-0.983878, 329, 209, 360, 272
-0.983959, 277, 241, 308, 304
-0.98405, 277, 209, 308, 336
-0.98411, 345, 201, 376, 264
-0.984176, 113, 241, 176, 368
-0.984207, 193, 257, 320, 320
-0.984317, 417, 241, 448, 368
-0.984353, 193, 201, 256, 264
-0.984432, 345, 241, 408, 304
-0.984605, 49, 225, 176, 288
-0.984668, 21, 177, 52, 304
-0.984671, 97, 81, 224, 208
-0.984724, 89, 129, 152, 256
-0.984771, 421, 217, 452, 280
-0.98489, 213, 233, 244, 296
-0.984925, 313, 225, 376, 352
-0.985032, 69, 201, 100, 264
-0.985042, 345, 145, 408, 272
-0.985055, 153, 193, 216, 256
-0.985133, 73, 185, 136, 248
-0.985259, 141, 185, 172, 248
-0.985293, 421, 129, 452, 256
-0.985305, 289, 185, 352, 248
-0.985363, 337, 161, 464, 224
-0.985375, 321, 185, 448, 248
-0.98539, 365, 161, 396, 288
-0.985739, 49, 241, 112, 304
-0.985741, 401, 129, 464, 375
-0.985866, 409, 193, 440, 320
-0.98589, 193, 193, 224, 320
-0.985898, 249, 193, 312, 256
-0.985922, 345, 177, 376, 304
-0.985945, 285, 217, 316, 280
-0.985982, 469, 153, 500, 216
-0.986091, 33, 161, 96, 224
-0.986101, 25, 225, 88, 352
-0.986146, 309, 233, 340, 296
-0.986258, 145, 233, 272, 296
-0.986266, 377, 217, 408, 280
-0.986333, 305, 137, 368, 200
-0.986379, 1, 177, 128, 240
-0.986433, 213, 241, 244, 368
-0.98646, 321, 241, 384, 304
-0.986541, 457, 161, 488, 288
-0.986566, 445, 177, 476, 240
-0.986628, 453, 217, 484, 280
-0.986637, 393, 217, 424, 280
-0.986714, 433, 137, 496, 200
-0.986728, 45, 209, 76, 272
-0.986742, 177, 209, 304, 272
-0.986758, 385, 209, 416, 336
-0.986826, 33, 113, 96, 240
-0.986831, 329, 177, 360, 304
-0.986917, 297, 161, 360, 288
-0.987048, 1, 225, 32, 352
-0.987111, 281, 313, 344, 375
-0.987132, 121, 81, 184, 208
-0.987186, 25, 233, 88, 296
-0.987202, 337, 225, 400, 352
-0.987277, 233, 225, 264, 288
-0.987386, 221, 209, 252, 272
-0.987396, 421, 161, 452, 224
-0.987409, 65, 257, 192, 320
-0.98744, 273, 185, 400, 248
-0.987504, 105, 145, 136, 272
-0.987557, 321, 233, 352, 296
-0.987603, 145, 73, 208, 136
-0.987627, 33, 209, 64, 272
-0.987644, 321, 241, 448, 304
-0.98767, 133, 177, 164, 304
-0.987671, 445, 257, 476, 320
-0.987716, 105, 193, 136, 256
-0.987752, 81, 209, 112, 272
-0.987778, 17, 201, 48, 264
-0.987804, 1, 145, 64, 208
-0.987811, 297, 209, 328, 336
-0.987859, 145, 65, 208, 192
-0.987925, 49, 177, 176, 240
-0.987981, 169, 273, 232, 336
-0.988141, 33, 177, 64, 304
-0.988152, 193, 313, 320, 375
-0.988203, 197, 209, 228, 272
-0.988226, 53, 185, 84, 248
-0.988304, 417, 297, 480, 360
-0.988382, 301, 209, 332, 272
-0.988435, 89, 153, 152, 216
-0.988436, 145, 249, 176, 312
-0.988465, 9, 145, 40, 272
-0.988536, 1, 33, 256, 288
-0.988625, 33, 113, 64, 240
-0.988653, 13, 97, 44, 224
-0.988666, 57, 177, 88, 304
-0.98873, 17, 249, 144, 312
-0.988767, 317, 209, 348, 272
-0.988871, 73, 249, 136, 312
-0.988919, 241, 129, 368, 256
-0.988919, 377, 161, 440, 224
-0.988986, 353, 129, 480, 192
-0.989021, 409, 345, 472, 375
-0.989053, 233, 241, 296, 304
-0.989103, 145, 185, 272, 248
-0.989158, 245, 209, 276, 336
-0.989237, 121, 193, 152, 320
-0.989299, 145, 209, 176, 272
-0.98932, 385, 265, 448, 328
-0.989322, 121, 169, 184, 232
-0.989343, 353, 225, 384, 288
-0.989467, 97, 185, 224, 248
-0.989518, 45, 161, 76, 288
-0.98953, 1, 225, 128, 288
-0.989631, 469, 185, 500, 248
-0.989691, 65, 241, 128, 368
-0.989743, 37, 185, 68, 248
-0.989808, 425, 181, 488, 212
-0.989825, 289, 241, 352, 272
-0.989961, 433, 209, 496, 272
-0.989972, 97, 193, 128, 320
-0.990011, 181, 209, 212, 336
-0.990027, 297, 257, 328, 320
-0.990051, 133, 225, 164, 288
-0.9901, 357, 209, 388, 336
-0.99015, 73, 177, 104, 240
-0.990172, 153, 177, 184, 304
-0.990194, 317, 209, 348, 336
-0.990258, 273, 209, 304, 272
-0.99026, 257, 225, 500, 288
-0.990278, 249, 313, 312, 375
-0.99032, 377, 161, 408, 288
-0.990332, 273, 313, 400, 375
-0.990346, 425, 169, 488, 200
-0.990349, 409, 169, 440, 232
-0.990391, 401, 169, 464, 200
-0.990416, 65, 153, 192, 216
-0.990435, 25, 113, 56, 176
-0.990538, 217, 129, 280, 375
-0.990562, 233, 209, 264, 336
-0.990586, 193, 281, 320, 344
-0.990589, 417, 233, 480, 264
-0.990659, 109, 225, 140, 288
-0.990673, 265, 225, 296, 352
-0.990683, 397, 177, 428, 304
-0.990714, 265, 245, 328, 276
-0.990757, 1, 313, 128, 375
-0.990804, 393, 217, 456, 248
-0.990831, 197, 249, 228, 312
-0.990841, 257, 217, 288, 280
-0.990852, 289, 253, 352, 284
-0.990858, 433, 261, 496, 292
-0.990888, 209, 241, 272, 272
-0.990933, 221, 161, 252, 288
-0.990939, 169, 233, 200, 296
-0.99099, 273, 265, 400, 328
-0.991022, 425, 153, 488, 184
-0.991035, 393, 185, 424, 248
-0.991044, 169, 257, 232, 288
-0.991053, 265, 177, 296, 304
-0.991057, 137, 257, 200, 288
-0.991068, 65, 141, 128, 172
-0.991075, 409, 193, 472, 224
-0.991084, 289, 213, 352, 244
-0.991102, 25, 213, 88, 244
-0.991104, 401, 181, 464, 212
-0.991135, 33, 49, 288, 176
-0.99115, 457, 193, 488, 256
-0.991153, 161, 113, 224, 240
-0.991181, 385, 345, 448, 375
-0.991198, 233, 237, 296, 268
-0.991219, 365, 225, 396, 288
-0.991289, 89, 225, 152, 352
-0.991297, 9, 121, 72, 152
-0.991311, 409, 205, 472, 236
-0.991323, 201, 253, 264, 284
-0.991325, 377, 313, 440, 375
-0.991334, 1, 241, 32, 304
-0.991347, 433, 245, 496, 276
-0.991349, 93, 193, 124, 256
-0.991374, 329, 217, 392, 248
-0.991396, 33, 201, 96, 232
-0.991413, 465, 225, 496, 288
-0.991437, 161, 193, 192, 256
-0.991446, 13, 121, 44, 184
-0.991447, 129, 241, 384, 304
-0.991465, 313, 241, 376, 272
-0.991472, 65, 129, 128, 375
-0.991514, 121, 225, 152, 288
-0.991525, 57, 205, 120, 236
-0.991529, 149, 81, 180, 144
-0.991532, 157, 257, 188, 320
-0.991533, 469, 113, 500, 240
-0.991562, 129, 205, 192, 236
-0.991608, 161, 201, 224, 232
-0.991617, 9, 201, 72, 232
-0.991636, 249, 209, 312, 240
-0.991636, 25, 189, 88, 220
-0.991638, 457, 161, 488, 224
-0.991664, 345, 237, 408, 268
-0.991669, 105, 273, 168, 336
-0.991684, 65, 305, 128, 368
-0.991694, 121, 81, 184, 144
-0.991695, 241, 249, 304, 280
-0.99172, 265, 225, 328, 256
-0.991757, 417, 257, 448, 320
-0.991764, 169, 269, 232, 300
-0.991781, 17, 233, 80, 264
-0.991792, 105, 221, 168, 252
-0.991812, 169, 129, 232, 375
-0.991818, 289, 229, 352, 260
-0.99182, 161, 245, 224, 276
-0.991831, 1, 113, 128, 176
-0.991857, 161, 169, 224, 232
-0.991865, 69, 177, 100, 304
-0.991868, 369, 193, 400, 256
-0.991884, 225, 221, 288, 252
-0.991896, 133, 249, 164, 312
-0.991911, 369, 201, 432, 232
-0.99192, 385, 249, 448, 280
-0.991921, 121, 193, 184, 224
-0.991958, 97, 193, 160, 224
-0.991959, 329, 201, 392, 232
-0.991965, 33, 209, 288, 272
-0.991974, 97, 209, 160, 240
-0.991976, 113, 261, 176, 292
-0.991978, 369, 217, 432, 248
-0.991986, 305, 137, 432, 200
-0.99199, 433, 193, 496, 224
-0.992011, 289, 201, 352, 232
-0.992047, 333, 233, 364, 296
-0.992079, 17, 137, 144, 200
-0.992091, 57, 241, 120, 272
-0.992095, 437, 113, 468, 240
-0.992102, 289, 281, 352, 344
-0.992111, 257, 257, 500, 320
-0.992116, 1, 245, 64, 276
-0.992121, 57, 217, 120, 248
-0.992124, 185, 205, 248, 236
-0.992154, 373, 209, 404, 336
-0.992157, 345, 137, 376, 200
-0.992186, 193, 217, 256, 248
-0.992198, 181, 217, 212, 280
-0.992211, 241, 161, 272, 288
-0.992214, 225, 185, 352, 248
-0.99222, 433, 173, 464, 204
-0.992231, 1, 213, 64, 244
-0.992265, 265, 241, 296, 304
-0.992282, 433, 141, 496, 172
-0.992285, 433, 221, 496, 252
-0.992298, 241, 129, 304, 375
-0.992331, 321, 229, 384, 260
-0.992333, 225, 209, 288, 240
-0.99234, 65, 193, 128, 224
-0.992342, 33, 121, 96, 152
-0.992376, 321, 145, 384, 176
-0.992384, 117, 129, 148, 256
-0.992395, 409, 253, 472, 284
-0.992398, 81, 229, 144, 260
-0.992405, 393, 229, 456, 260
-0.992411, 145, 77, 208, 108
-0.992418, 313, 253, 376, 284
-0.992456, 145, 189, 208, 220
-0.99247, 201, 229, 264, 260
-0.992485, 137, 241, 200, 272
-0.992494, 89, 253, 152, 284
-0.9925, 297, 241, 328, 272
-0.992501, 413, 169, 444, 200
-0.992503, 321, 169, 384, 232
-0.992504, 281, 337, 344, 368
-0.992545, 249, 345, 312, 375
-0.992556, 25, 249, 88, 280
-0.992577, 185, 241, 248, 272
-0.992578, 433, 185, 464, 216
-0.992586, 337, 249, 400, 280
-0.992605, 65, 281, 128, 344
-0.992611, 369, 233, 432, 264
-0.992614, 425, 285, 488, 316
-0.992617, 113, 241, 176, 272
-0.992631, 177, 193, 208, 256
-0.992639, 433, 345, 464, 375
-0.992645, 57, 229, 120, 260
-0.992661, 309, 237, 340, 268
-0.992665, 81, 153, 144, 184
-0.992673, 433, 345, 496, 375
-0.9927, 129, 221, 192, 252
-0.992701, 409, 193, 440, 256
-0.992708, 157, 225, 188, 288
-0.992751, 469, 145, 500, 176
-0.99276, 117, 257, 148, 320
-0.992766, 433, 209, 496, 240
-0.992769, 385, 289, 448, 320
-0.992777, 1, 249, 500, 312
-0.992794, 321, 185, 352, 248
-0.992796, 321, 241, 352, 272
-0.99281, 265, 257, 328, 288
-0.992812, 113, 129, 176, 256
-0.992812, 193, 345, 256, 375
-0.992818, 417, 345, 448, 375
-0.99283, 369, 185, 432, 216
-0.992832, 353, 345, 416, 375
-0.992847, 169, 281, 232, 312
-0.992851, 153, 213, 216, 244
-0.992854, 33, 257, 288, 320
-0.992865, 289, 265, 352, 296
-0.992866, 425, 253, 456, 284
-0.992869, 169, 193, 200, 320
-0.99287, 385, 261, 448, 292
-0.992878, 249, 1, 312, 375
-0.992878, 377, 169, 440, 200
-0.992891, 145, 269, 208, 300
-0.992894, 113, 273, 176, 304
-0.992897, 121, 85, 184, 116
-0.992898, 141, 197, 172, 228
-0.992899, 17, 109, 80, 140
-0.992907, 281, 245, 312, 276
-0.992911, 289, 129, 352, 375
-0.992919, 157, 257, 188, 288
-0.992923, 465, 261, 496, 292
-0.992938, 337, 177, 368, 240
-0.992944, 425, 161, 456, 192
-0.992961, 17, 201, 48, 232
-0.992964, 421, 217, 452, 248
-0.992971, 321, 213, 352, 244
-0.992977, 345, 201, 376, 232
-0.992979, 145, 257, 176, 288
-0.992982, 1, 81, 128, 208
-0.992984, 437, 233, 468, 264
-0.992985, 121, 209, 152, 240
-0.992992, 81, 241, 144, 272
-0.992997, 201, 269, 264, 300
-0.993001, 337, 213, 368, 244
-0.993003, 417, 301, 480, 332
-0.993009, 57, 213, 88, 244
-0.99301, 413, 253, 444, 284
-0.993011, 409, 213, 440, 244
-0.993014, 329, 229, 360, 260
-0.99302, 153, 345, 216, 375
-0.993022, 425, 197, 456, 228
-0.993024, 465, 249, 496, 280
-0.993026, 89, 269, 152, 300
-0.993033, 469, 177, 500, 208
-0.993033, 409, 265, 472, 296
-0.993046, 177, 229, 240, 260
-0.993046, 301, 253, 332, 284
-0.993052, 445, 185, 476, 216
-0.99306, 29, 117, 60, 148
-0.993062, 37, 213, 68, 244
-0.993064, 133, 253, 164, 284
-0.993066, 193, 257, 224, 288
-0.993067, 77, 137, 108, 168
-0.993068, 385, 333, 448, 364
-0.993079, 209, 253, 240, 284
-0.99308, 333, 245, 364, 276
-0.993082, 65, 181, 128, 212
-0.993086, 1, 237, 32, 268
-0.993088, 49, 165, 112, 196
-0.993091, 357, 201, 388, 232
-0.99311, 177, 205, 208, 236
-0.993115, 245, 241, 276, 272
-0.99312, 385, 221, 416, 252
-0.993124, 453, 253, 484, 284
-0.993125, 401, 157, 464, 188
-0.993133, 229, 237, 260, 268
-0.993138, 329, 189, 392, 220
-0.993139, 257, 185, 500, 248
-0.993141, 437, 217, 468, 248
-0.993148, 357, 233, 388, 264
-0.993155, 465, 165, 496, 196
-0.993155, 417, 181, 448, 212
-0.993158, 425, 241, 456, 272
-0.993165, 441, 197, 472, 228
-0.993168, 169, 185, 232, 216
-0.993169, 145, 209, 176, 240
-0.99317, 145, 241, 176, 272
-0.993172, 201, 205, 232, 236
-0.993173, 113, 197, 144, 228
-0.993179, 281, 325, 344, 356
-0.99318, 401, 85, 464, 116
-0.99318, 437, 161, 468, 192
-0.993182, 189, 205, 220, 236
-0.993186, 365, 221, 396, 252
-0.993187, 113, 73, 176, 104
-0.993188, 145, 81, 176, 112
-0.993191, 213, 241, 244, 272
-0.993192, 341, 225, 372, 256
-0.993192, 313, 225, 344, 256
-0.993196, 417, 333, 480, 364
-0.993198, 41, 137, 104, 168
-0.993199, 89, 133, 152, 164
-0.993203, 61, 233, 92, 264
-0.993205, 33, 177, 96, 208
-0.993205, 417, 229, 448, 260
-0.993206, 457, 149, 488, 180
-0.993214, 265, 197, 328, 228
-0.993219, 165, 201, 196, 232
-0.993222, 245, 217, 276, 248
-0.993222, 133, 209, 164, 240
-0.993226, 65, 201, 96, 232
-0.993226, 157, 77, 188, 108
-0.993227, 337, 141, 368, 172
-0.993228, 457, 181, 488, 212
-0.99323, 257, 237, 288, 268
-0.993231, 1, 173, 64, 204
-0.993241, 97, 201, 128, 232
-0.993258, 381, 241, 412, 272
-0.993263, 125, 265, 156, 296
-0.993264, 129, 193, 160, 224
-0.993264, 241, 229, 272, 260
-0.993265, 65, 325, 128, 356
-0.993271, 157, 245, 188, 276
-0.993276, 1, 345, 64, 375
-0.993281, 453, 217, 484, 248
-0.993281, 369, 241, 400, 272
-0.993284, 153, 197, 184, 228
-0.993285, 309, 209, 340, 240
-0.993289, 89, 141, 120, 172
-0.993291, 281, 313, 344, 344
-0.993292, 221, 217, 252, 248
-0.993297, 77, 217, 108, 248
-0.993299, 361, 249, 424, 280
-0.993299, 397, 217, 428, 248
-0.9933, 345, 237, 376, 268
-0.993301, 193, 193, 256, 224
-0.993306, 425, 265, 456, 296
-0.993306, 249, 333, 312, 364
-0.993311, 169, 257, 200, 288
-0.993312, 25, 213, 56, 244
-0.993313, 13, 229, 44, 260
-0.993317, 125, 221, 156, 252
-0.99332, 445, 89, 476, 120
-0.993321, 281, 257, 312, 288
-0.993325, 449, 165, 480, 196
-0.993326, 181, 257, 212, 288
-0.993326, 409, 285, 440, 316
-0.993327, 181, 217, 212, 248
-0.993329, 141, 221, 172, 252
-0.993331, 113, 221, 144, 252
-0.993337, 321, 129, 384, 256
-0.99334, 265, 249, 296, 280
-0.993341, 33, 193, 64, 224
-0.993341, 293, 213, 324, 244
-0.993342, 313, 253, 344, 284
-0.993344, 97, 225, 128, 288
-0.993344, 405, 345, 436, 375
-0.993348, 349, 213, 380, 244
-0.993349, 45, 233, 76, 264
-0.993349, 385, 345, 416, 375
-0.993352, 409, 241, 440, 272
-0.993353, 201, 177, 264, 240
-0.993353, 273, 209, 304, 240
-0.993361, 193, 269, 224, 300
-0.993365, 329, 201, 360, 232
-0.993366, 437, 261, 468, 292
-0.993373, 109, 253, 140, 284
-0.993375, 53, 197, 84, 228
-0.993378, 301, 225, 332, 256
-0.993389, 453, 197, 484, 228
-0.993391, 49, 313, 176, 375
-0.993391, 437, 245, 468, 276
-0.993396, 373, 125, 404, 156
-0.993402, 413, 197, 444, 228
-0.993408, 469, 193, 500, 224
-0.993411, 457, 229, 488, 260
-0.993422, 97, 233, 128, 264
-0.993423, 109, 209, 140, 240
-0.993435, 185, 121, 216, 152
-0.993437, 201, 193, 232, 224
-0.993438, 13, 121, 44, 152
-0.993442, 345, 249, 376, 280
-0.993446, 385, 97, 448, 224
-0.993478, 13, 145, 44, 208
-0.993496, 33, 233, 288, 296
-0.993497, 97, 281, 224, 344
-0.99358, 445, 153, 476, 216
-0.99358, 249, 265, 312, 328
-0.993715, 69, 225, 100, 288
-0.993725, 121, 177, 152, 240
-0.993726, 209, 177, 240, 304
-0.993765, 345, 113, 408, 176
-0.993787, 1, 217, 32, 280
-0.993831, 357, 177, 388, 240
-0.993869, 97, 129, 224, 192
-0.993892, 113, 313, 240, 375
-0.993907, 441, 161, 456, 224
-0.993919, 369, 289, 496, 352
-0.993931, 313, 161, 344, 288
-0.993948, 129, 217, 384, 280
-0.99397, 129, 97, 384, 224
-0.994011, 377, 129, 440, 375
-0.994032, 193, 249, 320, 280
-0.994047, 17, 225, 48, 288
-0.994096, 405, 249, 436, 312
-0.994098, 17, 177, 48, 240
-0.994109, 281, 1, 344, 375
-0.99411, 113, 145, 144, 208
-0.994129, 129, 129, 256, 256
-0.99413, 1, 313, 64, 375
-0.994153, 225, 193, 288, 256
-0.994165, 185, 249, 216, 312
-0.994172, 369, 81, 496, 144
-0.994199, 129, 73, 256, 136
-0.994209, 241, 241, 368, 272
-0.994327, 337, 313, 464, 375
-0.994341, 225, 1, 288, 375
-0.994356, 409, 113, 472, 240
-0.994358, 169, 313, 232, 375
-0.994369, 257, 281, 500, 344
-0.994371, 49, 281, 176, 344
-0.994388, 425, 305, 456, 368
-0.99439, 193, 129, 256, 375
-0.994405, 201, 273, 264, 336
-0.994419, 483, 145, 498, 208
-0.994457, 105, 129, 168, 375
-0.994485, 257, 137, 384, 200
-0.994492, 273, 161, 400, 224
-0.994501, 249, 289, 312, 352
-0.994504, 253, 161, 284, 288
-0.994528, 129, 185, 384, 248
-0.994529, 409, 145, 440, 272
-0.994569, 209, 257, 240, 320
-0.99465, 289, 241, 416, 272
-0.994691, 97, 249, 128, 312
-0.994739, 1, 129, 64, 375
-0.99479, 449, 113, 480, 240
-0.994819, 393, 289, 456, 352
-0.994841, 201, 313, 264, 375
-0.994861, 129, 265, 384, 328
-0.994918, 369, 345, 496, 375
-0.994943, 277, 161, 308, 288
-0.994999, 193, 241, 224, 368
-0.995001, 329, 1, 392, 375
-0.995053, 109, 193, 140, 320
-0.995089, 485, 169, 500, 232
-0.9951, 369, 65, 496, 192
-0.9951, 45, 209, 76, 336
-0.99517, 53, 233, 84, 296
-0.995182, 225, 229, 352, 260
-0.995198, 433, 145, 464, 208
-0.995225, 289, 113, 352, 176
-0.995293, 273, 289, 400, 352
-0.995316, 33, 185, 288, 248
-0.995357, 149, 65, 180, 192
-0.99537, 145, 97, 208, 352
-0.995393, 33, 313, 288, 375
-0.995404, 161, 313, 416, 375
-0.99541, 297, 313, 328, 375
-0.995421, 145, 65, 272, 192
-0.995433, 333, 129, 364, 192
-0.995434, 113, 257, 240, 288
-0.995448, 329, 225, 360, 352
-0.995453, 477, 169, 492, 232
-0.99547, 431, 257, 446, 320
-0.995473, 33, 129, 96, 375
-0.995511, 201, 1, 264, 375
-0.995512, 113, 269, 240, 300
-0.995523, 409, 1, 472, 375
-0.995542, 381, 185, 412, 248
-0.995548, 401, 137, 464, 200
-0.995552, 437, 185, 452, 248
-0.995619, 33, 281, 288, 344
-0.995624, 433, 1, 496, 375
-0.995627, 353, 217, 480, 248
-0.995651, 41, 113, 104, 176
-0.995667, 477, 257, 492, 320
-0.995675, 37, 113, 68, 176
-0.995686, 1, 201, 500, 264
-0.995731, 321, 265, 448, 328
-0.995735, 321, 233, 336, 296
-0.995739, 433, 33, 496, 288
-0.995758, 145, 225, 208, 352
-0.99576, 301, 217, 316, 280
-0.995831, 117, 241, 148, 368
-0.995837, 297, 161, 328, 288
-0.995864, 253, 241, 284, 304
-0.995875, 435, 161, 450, 224
-0.995875, 305, 225, 432, 256
-0.995898, 65, 153, 128, 216
-0.995949, 13, 225, 44, 352
-0.99596, 145, 161, 272, 224
-0.995965, 65, 209, 80, 272
-0.995982, 447, 169, 462, 232
-0.995994, 49, 209, 176, 240
-0.995994, 273, 253, 400, 284
-0.996, 289, 213, 416, 244
-0.996029, 193, 185, 224, 248
-0.996031, 439, 233, 454, 296
-0.996054, 309, 185, 340, 248
-0.996076, 359, 201, 374, 264
-0.996079, 329, 209, 344, 272
-0.996122, 449, 233, 464, 296
-0.996136, 413, 209, 428, 272
-0.996136, 97, 105, 224, 168
-0.996156, 369, 261, 496, 292
-0.996192, 177, 237, 304, 268
-0.996195, 81, 81, 208, 144
-0.996198, 291, 241, 306, 304
-0.996203, 305, 1, 368, 375
-0.996227, 321, 201, 448, 232
-0.996243, 135, 193, 150, 256
-0.996251, 247, 217, 262, 280
-0.996287, 169, 1, 232, 375
-0.996324, 121, 1, 184, 375
-0.996338, 1, 193, 128, 224
-0.996348, 57, 209, 72, 272
-0.99636, 315, 217, 330, 280
-0.996376, 213, 249, 228, 312
-0.996402, 169, 169, 200, 232
-0.996457, 369, 189, 496, 220
-0.996459, 1, 1, 64, 375
-0.99647, 257, 313, 500, 375
-0.996475, 71, 209, 86, 272
-0.99648, 153, 209, 168, 272
-0.996526, 301, 241, 316, 304
-0.996532, 209, 209, 240, 272
-0.996538, 351, 193, 366, 256
-0.996544, 239, 225, 254, 288
-0.996554, 309, 217, 324, 280
-0.996559, 297, 161, 360, 224
-0.996562, 157, 57, 188, 120
-0.996563, 49, 197, 176, 228
-0.996593, 415, 185, 430, 248
-0.9966, 113, 57, 176, 120
-0.996606, 35, 209, 50, 272
-0.996615, 181, 113, 212, 240
-0.996622, 443, 193, 458, 256
-0.996633, 369, 169, 496, 200
-0.996633, 407, 217, 422, 280
-0.996647, 327, 233, 342, 296
-0.996651, 439, 257, 454, 320
-0.996662, 241, 249, 272, 312
-0.996665, 49, 229, 176, 260
-0.996666, 1, 273, 500, 336
-0.99667, 467, 257, 482, 320
-0.996697, 477, 225, 492, 288
-0.996702, 353, 1, 416, 375
-0.996709, 65, 253, 192, 284
-0.99671, 1, 213, 128, 244
-0.996718, 445, 257, 460, 320
-0.996727, 381, 217, 396, 280
-0.99673, 433, 129, 464, 375
-0.996755, 433, 233, 448, 296
-0.996761, 323, 193, 338, 256
-0.996767, 29, 201, 44, 264
-0.996776, 101, 153, 132, 216
-0.99679, 449, 193, 464, 256
-0.996795, 157, 185, 172, 248
-0.996797, 387, 217, 402, 280
-0.996798, 37, 161, 68, 224
-0.996824, 57, 1, 120, 375
-0.996828, 295, 209, 310, 272
-0.996831, 461, 257, 476, 320
-0.996854, 65, 269, 192, 300
-0.99687, 451, 257, 466, 320
-0.996873, 49, 49, 176, 176
-0.996877, 145, 221, 272, 252
-0.99688, 471, 217, 486, 280
-0.996882, 241, 217, 368, 248
-0.996888, 477, 145, 492, 208
-0.996913, 233, 217, 248, 280
-0.99692, 1, 233, 128, 264
-0.99692, 219, 225, 234, 288
-0.99692, 421, 137, 452, 200
-0.996925, 51, 209, 66, 272
-0.996953, 469, 129, 500, 192
-0.996954, 409, 177, 424, 240
-0.996954, 345, 209, 360, 272
-0.996958, 25, 137, 88, 200
-0.996964, 259, 217, 274, 280
-0.996967, 127, 201, 142, 264
-0.996975, 423, 217, 438, 280
-0.996978, 371, 209, 386, 272
-0.99698, 193, 345, 320, 375
-0.996986, 337, 241, 464, 272
-0.996997, 97, 209, 224, 240
-0.997018, 21, 121, 36, 184
-0.997032, 245, 193, 276, 256
-0.997042, 225, 161, 352, 224
-0.997054, 145, 185, 160, 248
-0.997055, 431, 193, 446, 256
-0.997066, 65, 57, 192, 120
-0.997068, 159, 73, 174, 136
-0.99707, 29, 113, 44, 176
-0.997075, 81, 161, 112, 288
-0.997083, 405, 241, 436, 368
-0.997087, 273, 113, 400, 176
-0.997104, 439, 165, 454, 196
-0.997111, 309, 241, 324, 304
-0.997113, 401, 217, 416, 280
-0.99712, 193, 261, 320, 292
-0.997122, 393, 217, 408, 280
-0.997134, 129, 289, 384, 352
-0.997157, 225, 17, 480, 144
-0.99716, 369, 205, 496, 236
-0.997162, 269, 217, 284, 280
-0.997174, 113, 241, 240, 272
-0.997177, 149, 241, 164, 304
-0.99718, 45, 209, 60, 272
-0.997183, 141, 161, 172, 224
-0.997184, 147, 209, 162, 272
-0.9972, 455, 233, 470, 296
-0.997205, 287, 217, 302, 280
-0.997213, 137, 129, 168, 256
-0.99722, 37, 185, 52, 248
-0.997235, 365, 209, 380, 272
-0.997235, 335, 217, 350, 280
-0.99725, 157, 169, 188, 232
-0.997256, 225, 145, 480, 208
-0.997268, 433, 65, 496, 192
-0.997274, 253, 217, 268, 280
-0.99728, 155, 241, 170, 304
-0.997285, 337, 129, 400, 375
-0.997286, 121, 193, 136, 256
-0.997289, 25, 225, 56, 352
-0.997289, 49, 241, 176, 272
-0.997312, 321, 253, 448, 284
-0.997328, 141, 217, 156, 280
-0.997349, 485, 177, 500, 208
-0.997356, 385, 1, 448, 375
-0.99736, 479, 193, 494, 256
-0.997365, 1, 225, 500, 288
-0.997373, 181, 161, 212, 288
-0.997377, 471, 185, 486, 248
-0.997389, 379, 193, 394, 256
-0.99739, 321, 345, 448, 375
-0.997396, 63, 185, 78, 248
-0.997399, 3, 225, 18, 288
-0.997426, 25, 49, 88, 176
-0.997428, 381, 241, 412, 304
-0.997441, 273, 337, 400, 368
-0.997442, 337, 129, 464, 160
-0.997452, 369, 229, 496, 260
-0.997465, 113, 225, 128, 288
-0.997465, 1, 161, 256, 224
-0.997475, 167, 193, 182, 256
-0.997478, 193, 273, 224, 336
-0.997482, 337, 105, 464, 168
-0.997486, 73, 185, 88, 248
-0.997489, 369, 281, 496, 312
-0.99749, 177, 113, 304, 240
-0.997491, 169, 257, 200, 320
-0.997496, 347, 137, 362, 200
-0.997506, 357, 225, 372, 288
-0.997508, 83, 201, 98, 264
-0.997509, 165, 49, 196, 176
-0.997509, 177, 121, 208, 184
-0.997514, 199, 209, 214, 272
-0.997537, 307, 193, 322, 256
-0.997539, 97, 197, 224, 228
-0.997541, 321, 189, 448, 220
-0.997542, 445, 297, 476, 360
-0.997543, 437, 209, 452, 272
-0.997545, 283, 241, 298, 304
-0.997561, 167, 257, 182, 320
-0.997562, 133, 169, 148, 232
-0.997582, 469, 289, 500, 352
-0.997583, 431, 297, 446, 360
-0.997584, 203, 233, 218, 296
-0.997591, 269, 241, 284, 304
-0.997591, 277, 241, 292, 304
-0.997591, 45, 113, 76, 240
-0.997591, 35, 105, 50, 168
-0.997601, 257, 65, 500, 192
-0.997602, 299, 313, 314, 375
-0.997611, 189, 201, 204, 264
-0.997611, 103, 209, 118, 272
-0.997616, 285, 193, 316, 256
-0.997618, 193, 333, 320, 364
-0.997627, 483, 145, 498, 176
-0.997627, 163, 233, 178, 296
-0.99763, 17, 141, 144, 172
-0.997635, 73, 225, 104, 352
-0.997647, 133, 241, 164, 368
-0.997662, 475, 249, 490, 280
-0.997672, 41, 113, 56, 176
-0.997672, 351, 217, 366, 280
-0.997684, 57, 185, 72, 248
-0.99769, 213, 217, 228, 280
-0.997709, 345, 169, 408, 232
-0.997709, 455, 193, 470, 256
-0.997709, 423, 257, 438, 320
-0.997712, 339, 129, 354, 192
-0.997712, 225, 225, 240, 288
-0.997717, 429, 169, 444, 232
-0.997717, 241, 205, 368, 236
-0.997723, 21, 201, 36, 264
-0.997743, 465, 217, 480, 280
-0.997778, 145, 1, 208, 375
-0.997778, 143, 241, 158, 304
-0.997779, 305, 97, 432, 224
-0.997784, 385, 33, 448, 288
-0.997785, 145, 197, 272, 228
-0.997789, 425, 193, 440, 256
-0.997792, 331, 185, 346, 248
-0.997799, 93, 201, 108, 264
-0.997799, 129, 161, 384, 224
-0.997813, 9, 209, 24, 272
-0.997832, 429, 249, 444, 280
-0.997848, 479, 185, 494, 216
-0.997854, 17, 89, 144, 152
-0.99786, 109, 185, 124, 248
-0.997862, 49, 173, 176, 204
-0.997868, 351, 241, 366, 304
-0.997874, 145, 281, 272, 344
-0.997875, 1, 289, 128, 352
-0.997877, 129, 33, 384, 160
-0.997882, 115, 153, 130, 216
-0.997883, 81, 1, 144, 375
-0.997887, 425, 341, 440, 372
-0.9979, 153, 65, 168, 128
-0.997909, 1, 337, 128, 368
-0.997912, 197, 145, 228, 272
-0.997914, 25, 117, 40, 148
-0.997914, 1, 249, 128, 280
-0.997921, 355, 137, 370, 200
-0.997924, 325, 237, 340, 268
-0.997926, 191, 233, 206, 296
-0.997932, 153, 49, 216, 112
-0.997933, 435, 181, 450, 212
-0.997934, 137, 65, 168, 128
-0.997939, 25, 313, 88, 375
-0.99794, 301, 193, 316, 256
-0.997942, 1, 313, 500, 375
-0.997943, 485, 193, 500, 256
-0.997944, 435, 193, 450, 224
-0.997945, 31, 117, 46, 148
-0.997961, 157, 77, 172, 108
-0.997979, 177, 209, 304, 240
-0.997982, 177, 113, 240, 176
-0.997993, 1, 177, 500, 240
-0.997997, 265, 65, 328, 320
-0.998001, 133, 209, 148, 240
-0.998015, 305, 241, 320, 272
-0.998015, 297, 281, 328, 344
-0.998017, 83, 137, 98, 168
-0.998037, 331, 241, 346, 272
-0.998044, 471, 145, 486, 176
-0.998049, 369, 153, 496, 184
-0.998053, 469, 245, 484, 276
-0.998064, 295, 241, 310, 272
-0.998072, 337, 129, 368, 256
-0.998074, 445, 169, 460, 200
-0.998077, 93, 145, 124, 272
-0.998097, 193, 273, 320, 304
-0.9981, 423, 249, 438, 280
-0.998113, 173, 257, 188, 288
-0.998118, 155, 197, 170, 228
-0.998119, 477, 173, 492, 204
-0.998121, 151, 257, 166, 288
-0.998122, 193, 317, 320, 348
-0.998123, 357, 213, 372, 244
-0.99813, 113, 345, 240, 375
-0.998139, 321, 153, 448, 184
-0.998147, 1, 181, 128, 212
-0.998148, 339, 237, 354, 268
-0.998152, 97, 221, 224, 252
-0.998153, 123, 201, 138, 232
-0.998159, 5, 193, 36, 256
-0.998165, 437, 345, 452, 375
-0.99817, 359, 201, 374, 232
-0.998172, 419, 345, 434, 375
-0.998175, 341, 213, 356, 244
-0.998195, 477, 261, 492, 292
-0.998197, 29, 89, 60, 152
-0.99821, 383, 241, 398, 272
-0.998214, 143, 209, 158, 240
-0.99822, 273, 265, 400, 296
-0.998223, 65, 185, 192, 216
-0.998232, 67, 209, 82, 240
-0.998242, 433, 261, 448, 292
-0.998254, 229, 249, 260, 312
-0.998254, 417, 169, 432, 200
-0.998255, 17, 261, 144, 292
-0.998258, 133, 193, 148, 224
-0.998261, 301, 253, 316, 284
-0.998268, 447, 345, 462, 375
-0.998271, 437, 229, 452, 260
-0.998271, 25, 145, 56, 208
-0.998285, 89, 305, 152, 368
-0.998289, 193, 201, 208, 232
-0.998293, 57, 213, 72, 244
-0.9983, 259, 237, 274, 268
-0.998301, 449, 89, 464, 120
-0.998302, 465, 97, 496, 352
-0.998307, 447, 181, 462, 212
-0.998312, 213, 253, 228, 284
-0.998316, 431, 161, 446, 192
-0.998317, 431, 345, 446, 375
-0.99832, 193, 297, 320, 328
-0.99832, 333, 213, 348, 244
-0.998326, 3, 237, 18, 268
-0.998329, 157, 209, 172, 240
-0.99833, 157, 257, 172, 288
-0.998332, 33, 1, 96, 375
-0.998332, 13, 121, 44, 136
-0.998333, 25, 125, 56, 140
-0.998333, 401, 239, 432, 254
-0.998333, 445, 129, 476, 375
-0.998333, 381, 247, 412, 262
-0.998333, 305, 213, 336, 228
-0.998334, 381, 241, 412, 256
-0.998335, 417, 353, 448, 368
-0.998335, 321, 237, 352, 252
-0.998335, 109, 263, 140, 278
-0.998336, 321, 225, 352, 240
-0.998336, 97, 255, 128, 270
-0.998336, 441, 167, 472, 182
-0.998337, 197, 217, 228, 232
-0.998338, 377, 221, 408, 236
-0.998338, 53, 213, 84, 228
-0.998339, 417, 165, 448, 180
-0.998339, 447, 221, 462, 252
-0.998339, 293, 357, 324, 372
-0.99834, 445, 351, 476, 366
-0.99834, 349, 141, 364, 172
-0.998341, 273, 145, 400, 176
-0.998341, 149, 197, 164, 228
-0.998342, 285, 219, 316, 234
-0.998342, 9, 153, 40, 168
-0.998347, 113, 199, 144, 214
-0.998347, 449, 263, 480, 278
-0.998348, 165, 79, 196, 94
-0.998349, 185, 203, 216, 218
-0.998349, 433, 201, 464, 216
-0.998351, 437, 87, 468, 102
-0.998351, 177, 217, 208, 232
-0.998352, 13, 203, 44, 218
-0.998352, 213, 249, 244, 264
-0.998353, 357, 203, 388, 218
-0.998353, 193, 259, 224, 274
-0.998353, 345, 245, 360, 276
-0.998354, 351, 205, 366, 236
-0.998354, 413, 253, 444, 268
-0.998354, 469, 143, 500, 158
-0.998355, 113, 155, 144, 170
-0.998355, 393, 219, 424, 234
-0.998355, 453, 229, 484, 244
-0.998356, 273, 221, 304, 236
-0.998357, 433, 215, 464, 230
-0.998357, 329, 257, 360, 272
-0.998357, 449, 149, 480, 164
-0.998359, 411, 177, 426, 208
-0.998359, 61, 235, 92, 250
-0.998363, 477, 141, 492, 172
-0.998363, 421, 185, 452, 200
-0.998364, 333, 243, 364, 258
-0.998364, 441, 257, 472, 272
-0.998364, 221, 241, 252, 256
-0.998365, 425, 233, 456, 248
-0.998367, 341, 251, 372, 266
-0.998367, 401, 217, 416, 248
-0.998367, 465, 191, 496, 206
-0.998367, 361, 219, 392, 234
-0.998368, 373, 351, 404, 366
-0.998368, 177, 209, 208, 224
-0.99837, 453, 183, 484, 198
-0.99837, 345, 207, 376, 222
-0.998371, 149, 199, 180, 214
-0.998371, 201, 253, 232, 268
-0.998372, 207, 141, 222, 172
-0.998374, 165, 209, 196, 224
-0.998374, 133, 253, 164, 268
-0.998375, 193, 209, 224, 224
-0.998375, 69, 141, 100, 156
-0.998378, 141, 81, 172, 96
-0.998379, 369, 141, 496, 172
-0.998379, 413, 361, 444, 375
-0.998379, 337, 227, 368, 242
-0.99838, 97, 203, 128, 218
-0.998381, 413, 195, 444, 210
-0.998381, 29, 205, 44, 236
-0.998382, 465, 185, 496, 200
-0.998383, 129, 261, 160, 276
-0.998383, 365, 227, 396, 242
-0.998384, 357, 209, 388, 224
-0.998385, 457, 353, 488, 368
-0.998385, 1, 241, 32, 256
-0.998385, 417, 177, 448, 192
-0.998386, 189, 265, 220, 280
-0.998387, 289, 125, 416, 156
-0.998387, 465, 155, 496, 170
-0.998389, 133, 211, 164, 226
-0.998389, 133, 197, 164, 212
-0.998389, 241, 241, 272, 256
-0.99839, 65, 213, 96, 228
-0.99839, 373, 125, 404, 140
-0.99839, 193, 285, 320, 316
-0.99839, 441, 189, 456, 220
-0.998392, 13, 209, 44, 224
-0.998392, 449, 89, 480, 104
-0.998392, 109, 257, 140, 272
-0.998394, 453, 189, 484, 204
-0.998394, 433, 227, 464, 242
-0.998394, 169, 203, 200, 218
-0.998396, 293, 213, 324, 228
-0.998396, 461, 255, 492, 270
-0.998397, 343, 141, 358, 172
-0.998397, 201, 205, 216, 236
-0.998397, 337, 215, 368, 230
-0.998398, 145, 137, 272, 200
-0.998398, 313, 251, 344, 266
-0.998398, 311, 237, 326, 268
-0.998398, 277, 313, 308, 375
-0.998399, 421, 213, 452, 228
-0.998401, 389, 359, 420, 374
-0.998403, 481, 245, 496, 276
-0.998403, 337, 145, 368, 160
-0.998411, 133, 203, 164, 218
-0.998411, 421, 223, 452, 238
-0.998414, 321, 243, 352, 258
-0.998416, 321, 217, 352, 232
-0.998417, 247, 241, 262, 272
-0.998421, 465, 263, 496, 278
-0.998422, 297, 255, 328, 270
-0.998422, 319, 237, 334, 268
-0.998423, 153, 209, 184, 224
-0.998425, 479, 161, 494, 192
-0.998425, 405, 355, 436, 370
-0.998425, 113, 205, 144, 220
-0.998426, 153, 81, 184, 96
-0.998428, 281, 247, 312, 262
-0.998429, 385, 353, 416, 368
-0.998429, 41, 117, 56, 148
-0.998431, 189, 213, 204, 244
-0.998431, 429, 263, 460, 278
-0.998432, 425, 255, 456, 270
-0.998432, 37, 121, 68, 136
-0.998433, 469, 179, 500, 194
-0.998433, 121, 255, 152, 270
-0.998436, 425, 217, 440, 248
-0.998438, 437, 233, 468, 248
-0.998439, 323, 205, 338, 236
-0.998442, 443, 233, 458, 264
-0.998443, 425, 281, 456, 344
-0.998445, 321, 159, 352, 174
-0.998445, 309, 245, 340, 260
-0.998446, 337, 249, 352, 280
-0.998447, 267, 229, 282, 260
-0.998451, 409, 347, 472, 362
-0.998454, 151, 77, 166, 108
-0.998455, 315, 225, 330, 256
-0.998458, 97, 281, 224, 312
-0.998459, 203, 257, 218, 288
-0.998459, 297, 249, 328, 264
-0.99846, 89, 137, 104, 168
-0.99846, 239, 237, 254, 268
-0.998461, 297, 243, 328, 258
-0.998462, 367, 221, 382, 252
-0.998462, 157, 261, 188, 276
-0.998468, 289, 245, 304, 276
-0.998471, 35, 213, 50, 244
-0.998473, 51, 213, 66, 244
-0.998474, 309, 239, 340, 254
-0.998475, 129, 81, 256, 112
-0.998476, 425, 183, 488, 198
-0.998476, 329, 249, 360, 264
-0.998479, 433, 347, 464, 362
-0.99848, 429, 167, 460, 182
-0.998482, 313, 213, 328, 244
-0.998483, 325, 253, 340, 284
-0.998486, 471, 261, 486, 292
-0.998487, 435, 241, 450, 272
-0.998487, 179, 261, 194, 292
-0.998489, 433, 193, 464, 208
-0.998489, 389, 221, 404, 252
-0.998494, 25, 119, 56, 134
-0.998496, 405, 217, 436, 232
-0.998501, 425, 193, 488, 208
-0.998502, 145, 253, 160, 284
-0.998502, 289, 245, 352, 260
-0.998504, 421, 347, 452, 362
-0.998506, 77, 141, 92, 172
-0.99851, 351, 241, 366, 272
-0.99851, 401, 361, 432, 375
-0.998511, 167, 257, 182, 288
-0.998512, 143, 197, 158, 228
-0.998512, 141, 259, 172, 274
-0.998514, 63, 233, 78, 264
-0.998515, 425, 177, 488, 192
-0.99852, 461, 257, 476, 288
-0.998525, 461, 149, 492, 164
-0.998526, 81, 141, 112, 156
-0.998526, 9, 121, 72, 136
-0.998527, 433, 173, 464, 188
-0.998529, 1, 325, 128, 356
-0.998532, 253, 241, 268, 272
-0.998533, 303, 225, 318, 256
-0.99854, 425, 167, 488, 182
-0.998543, 129, 261, 192, 276
-0.998544, 169, 265, 232, 280
-0.998548, 113, 209, 128, 240
-0.998549, 439, 161, 454, 288
-0.998555, 165, 241, 196, 368
-0.998556, 219, 241, 234, 272
-0.998557, 417, 171, 448, 186
-0.998557, 265, 247, 328, 262
-0.998557, 433, 179, 464, 194
-0.998558, 425, 263, 488, 278
-0.998559, 401, 187, 464, 202
-0.99856, 431, 221, 446, 252
-0.998561, 297, 251, 360, 266
-0.998561, 401, 173, 464, 188
-0.998562, 401, 193, 464, 208
-0.998562, 409, 353, 472, 368
-0.998565, 357, 225, 372, 256
-0.998569, 433, 149, 496, 164
-0.998569, 289, 257, 352, 272
-0.998569, 407, 217, 422, 248
-0.99857, 441, 217, 456, 248
-0.998572, 485, 189, 500, 220
-0.998572, 1, 289, 64, 352
-0.998574, 169, 259, 232, 274
-0.998575, 335, 225, 350, 256
-0.998576, 385, 355, 448, 370
-0.998577, 415, 201, 430, 232
-0.998577, 393, 217, 456, 232
-0.998579, 113, 255, 176, 270
-0.99858, 267, 217, 282, 248
-0.998582, 153, 209, 216, 224
-0.998587, 297, 217, 360, 232
-0.998587, 401, 179, 464, 194
-0.998589, 289, 239, 352, 254
-0.998589, 321, 177, 448, 208
-0.99859, 429, 185, 444, 216
-0.99859, 129, 207, 192, 222
-0.998591, 163, 77, 178, 108
-0.998591, 385, 361, 448, 375
-0.998592, 409, 209, 472, 224
-0.998593, 9, 233, 24, 264
-0.998594, 233, 241, 296, 256
-0.998594, 385, 125, 400, 156
-0.998595, 209, 245, 272, 260
-0.998595, 273, 213, 336, 228
-0.998597, 387, 345, 402, 375
-0.998597, 321, 147, 384, 162
-0.998597, 355, 145, 370, 176
-0.998598, 167, 197, 182, 228
-0.998598, 161, 49, 288, 112
-0.9986, 45, 213, 60, 244
-0.998601, 321, 217, 384, 232
-0.998606, 409, 199, 472, 214
-0.998607, 57, 207, 120, 222
-0.998607, 331, 153, 346, 184
-0.998612, 369, 219, 432, 234
-0.998612, 401, 167, 464, 182
-0.998613, 279, 249, 294, 280
-0.998614, 337, 251, 400, 266
-0.998615, 433, 187, 464, 202
-0.998615, 161, 245, 176, 276
-0.998618, 129, 201, 192, 216
-0.99862, 57, 233, 72, 264
-0.99862, 73, 201, 88, 232
-0.99862, 161, 203, 224, 218
-0.998621, 385, 347, 448, 362
-0.998621, 433, 257, 496, 272
-0.998621, 135, 253, 150, 284
-0.998622, 425, 361, 488, 375
-0.998622, 313, 243, 376, 258
-0.998622, 173, 245, 188, 276
-0.998624, 65, 143, 128, 158
-0.998625, 455, 85, 470, 116
-0.99863, 129, 267, 192, 282
-0.998632, 409, 235, 472, 250
-0.998637, 377, 245, 440, 260
-0.998637, 33, 205, 96, 220
-0.998637, 105, 261, 168, 276
-0.998638, 17, 213, 80, 228
-0.998639, 341, 225, 372, 352
-0.998639, 273, 285, 400, 316
-0.99864, 169, 253, 232, 268
-0.998641, 169, 271, 232, 286
-0.998643, 369, 211, 432, 226
-0.998643, 65, 129, 192, 160
-0.998644, 257, 241, 320, 256
-0.998645, 417, 215, 480, 230
-0.998646, 57, 221, 120, 236
-0.998647, 145, 81, 208, 96
-0.998648, 233, 221, 296, 236
-0.998648, 361, 359, 424, 374
-0.998649, 409, 227, 472, 242
-0.998649, 353, 353, 416, 368
-0.998649, 433, 229, 496, 244
-0.99865, 73, 129, 136, 192
-0.99865, 297, 207, 360, 222
-0.998651, 433, 157, 496, 172
-0.998652, 289, 223, 352, 238
-0.998652, 193, 255, 256, 270
-0.998652, 337, 241, 400, 256
-0.998654, 1, 207, 64, 222
-0.998655, 113, 333, 240, 364
-0.998655, 193, 239, 256, 254
-0.998655, 89, 205, 152, 220
-0.998656, 345, 223, 408, 238
-0.998656, 257, 253, 320, 268
-0.998657, 433, 353, 496, 368
-0.998657, 145, 255, 208, 270
-0.99866, 393, 255, 456, 270
-0.99866, 313, 257, 376, 272
-0.998661, 425, 249, 488, 264
-0.998661, 25, 199, 88, 214
-0.998662, 193, 221, 256, 236
-0.998662, 49, 245, 112, 260
-0.998663, 265, 223, 328, 238
-0.998665, 97, 225, 160, 240
-0.998665, 81, 265, 144, 280
-0.998666, 401, 87, 464, 102
-0.998667, 249, 215, 312, 230
-0.998668, 89, 255, 152, 270
-0.998672, 41, 213, 104, 228
-0.998674, 97, 211, 160, 226
-0.998675, 321, 231, 384, 246
-0.998675, 305, 159, 368, 174
-0.998676, 33, 123, 96, 138
-0.998677, 1, 237, 64, 252
-0.998677, 233, 249, 296, 264
-0.998677, 17, 115, 80, 130
-0.998678, 377, 239, 440, 254
-0.99868, 97, 197, 160, 212
-0.998681, 169, 113, 200, 240
-0.998681, 121, 33, 184, 288
-0.998682, 9, 127, 72, 142
-0.998684, 233, 235, 296, 250
-0.998686, 89, 155, 152, 170
-0.998687, 385, 199, 448, 214
-0.998688, 1, 249, 64, 264
-0.998689, 321, 211, 384, 226
-0.998689, 433, 89, 496, 104
-0.99869, 121, 81, 184, 96
-0.99869, 161, 351, 224, 366
-0.998691, 57, 229, 120, 244
-0.998693, 185, 207, 248, 222
-0.998694, 425, 221, 488, 236
-0.998694, 17, 229, 80, 244
-0.998695, 281, 349, 344, 364
-0.998695, 81, 217, 144, 232
-0.998696, 33, 191, 96, 206
-0.998696, 193, 215, 256, 230
-0.998697, 249, 351, 312, 366
-0.998697, 313, 357, 376, 372
-0.998697, 425, 295, 488, 310
-0.998699, 257, 259, 320, 274
-0.998699, 369, 193, 432, 208
-0.998701, 281, 357, 344, 372
-0.998701, 369, 89, 496, 120
-0.998702, 33, 235, 96, 250
-0.998702, 345, 125, 408, 140
-0.998702, 161, 215, 224, 230
-0.998703, 233, 227, 296, 242
-0.998703, 401, 263, 464, 278
-0.998703, 369, 205, 432, 220
-0.998703, 297, 147, 360, 162
-0.998704, 57, 201, 120, 216
-0.998705, 345, 233, 408, 248
-0.998719, 49, 345, 176, 375
-0.99872, 1, 169, 128, 200
-0.998727, 25, 257, 88, 320
-0.998729, 273, 301, 400, 332
-0.998743, 421, 97, 452, 352
-0.998754, 485, 129, 500, 256
-0.998773, 221, 129, 252, 375
-0.998779, 445, 161, 460, 288
-0.998795, 273, 169, 400, 200
-0.998796, 273, 193, 400, 224
-0.998802, 369, 113, 496, 144
-0.998828, 433, 241, 448, 368
-0.998829, 273, 325, 400, 356
-0.998869, 273, 313, 400, 344
-0.998878, 49, 333, 176, 364
-0.998883, 249, 169, 312, 232
-0.998885, 337, 293, 464, 324
-0.998911, 153, 97, 184, 352
-0.998949, 479, 177, 494, 304
-0.998965, 477, 225, 492, 352
-0.998973, 245, 129, 276, 375
-0.998987, 433, 177, 448, 304
-0.998993, 49, 281, 176, 312
-0.998993, 49, 113, 176, 176
-0.998999, 113, 121, 176, 184
-0.999001, 73, 129, 104, 375
-0.999003, 321, 333, 448, 364
-0.999009, 57, 225, 88, 352
-0.999028, 321, 141, 448, 172
-0.999043, 273, 181, 400, 212
-0.999086, 443, 241, 458, 368
-0.999091, 471, 209, 486, 336
-0.999101, 81, 161, 208, 192
-0.999107, 129, 141, 256, 172
-0.999117, 459, 209, 474, 336
-0.999123, 453, 209, 468, 336
-0.999127, 57, 97, 120, 224
-0.999128, 479, 129, 494, 256
-0.999131, 1, 97, 256, 160
-0.999134, 81, 81, 208, 112
-0.999145, 137, 81, 168, 208
-0.999147, 113, 185, 240, 216
-0.999153, 397, 129, 428, 256
-0.999163, 321, 165, 448, 196
-0.999164, 409, 129, 440, 375
-0.999173, 473, 161, 488, 288
-0.999178, 273, 113, 400, 144
-0.999185, 225, 193, 352, 224
-0.999195, 465, 241, 480, 368
-0.999204, 485, 177, 500, 304
-0.999205, 331, 177, 346, 304
-0.999211, 277, 129, 308, 375
-0.999229, 427, 241, 442, 368
-0.999235, 427, 177, 442, 304
-0.999252, 291, 209, 306, 336
-0.999257, 65, 317, 192, 348
-0.99926, 29, 177, 44, 304
-0.99926, 265, 129, 296, 375
-0.999263, 17, 153, 144, 184
-0.999268, 451, 161, 466, 288
-0.99927, 25, 97, 40, 224
-0.999272, 321, 265, 448, 296
-0.999275, 301, 209, 316, 336
-0.999275, 1, 125, 128, 156
-0.999276, 225, 157, 352, 188
-0.999286, 65, 141, 192, 172
-0.999292, 1, 257, 64, 320
-0.99931, 11, 145, 26, 272
-0.999328, 213, 241, 228, 368
-0.999334, 117, 129, 132, 256
-0.999335, 97, 173, 224, 204
-0.999339, 353, 177, 368, 304
-0.99934, 81, 69, 208, 100
-0.999348, 35, 177, 50, 304
-0.999353, 17, 305, 144, 336
-0.999356, 19, 145, 34, 272
-0.999357, 433, 129, 448, 256
-0.999367, 387, 209, 402, 336
-0.99937, 361, 177, 376, 304
-0.999379, 439, 113, 454, 240
-0.99938, 371, 193, 386, 320
-0.999381, 49, 293, 176, 324
-0.999382, 337, 177, 352, 304
-0.999384, 157, 129, 188, 256
-0.999384, 145, 241, 176, 368
-0.999387, 97, 293, 224, 324
-0.999389, 41, 89, 104, 152
-0.999396, 325, 209, 340, 336
-0.999403, 247, 209, 262, 336
-0.999407, 241, 209, 256, 336
-0.999407, 157, 177, 172, 304
-0.99941, 381, 161, 396, 288
-0.999411, 193, 209, 208, 336
-0.999419, 241, 133, 368, 164
-0.999423, 233, 129, 264, 375
-0.999426, 421, 209, 436, 336
-0.999428, 203, 193, 218, 320
-0.999432, 65, 305, 192, 336
-0.999434, 347, 177, 362, 304
-0.999438, 45, 161, 60, 288
-0.999439, 19, 97, 34, 224
-0.999442, 193, 129, 224, 375
-0.999443, 261, 209, 276, 336
-0.999446, 369, 333, 496, 364
-0.999447, 267, 225, 282, 352
-0.999448, 461, 161, 476, 288
-0.999454, 1, 73, 256, 136
-0.999456, 415, 177, 430, 304
-0.999457, 111, 145, 126, 272
-0.999461, 285, 193, 300, 320
-0.999466, 279, 225, 294, 352
-0.999467, 129, 193, 144, 320
-0.999468, 467, 161, 482, 288
-0.999468, 33, 97, 48, 224
-0.999471, 139, 177, 154, 304
-0.999477, 39, 97, 54, 224
-0.99948, 353, 77, 480, 108
-0.999482, 243, 161, 258, 288
-0.999484, 273, 225, 288, 352
-0.999486, 57, 177, 72, 304
-0.999487, 129, 69, 256, 100
-0.999488, 395, 209, 410, 336
-0.999489, 269, 177, 284, 304
-0.999492, 177, 165, 304, 196
-0.999495, 321, 281, 448, 312
-0.999499, 255, 209, 270, 336
-0.9995, 3, 225, 18, 352
-0.999501, 217, 193, 232, 320
-0.999503, 73, 177, 88, 304
-0.999511, 113, 321, 240, 352
-0.999514, 5, 145, 20, 272
-0.999515, 157, 65, 172, 192
-0.999516, 21, 193, 36, 320
-0.999517, 319, 209, 334, 336
-0.999518, 63, 177, 78, 304
-0.99952, 381, 209, 396, 336
-0.999524, 141, 65, 172, 320
-0.999525, 277, 177, 292, 304
-0.999532, 235, 209, 250, 336
-0.999534, 149, 177, 164, 304
-0.999539, 1, 273, 128, 304
-0.99954, 209, 181, 336, 212
-0.999543, 387, 161, 402, 288
-0.999548, 51, 177, 66, 304
-0.999549, 61, 129, 92, 375
-0.999549, 161, 113, 288, 176
-0.999551, 325, 161, 340, 288
-0.999554, 445, 113, 460, 240
-0.999555, 123, 193, 138, 320
-0.999557, 151, 79, 166, 94
-0.999557, 333, 241, 348, 256
-0.999558, 387, 357, 402, 372
-0.999558, 163, 177, 178, 304
-0.999558, 443, 257, 458, 272
-0.999558, 193, 209, 208, 224
-0.999559, 413, 179, 428, 194
-0.999559, 203, 257, 218, 272
-0.999559, 357, 219, 372, 234
-0.99956, 221, 157, 236, 172
-0.99956, 173, 265, 188, 280
-0.99956, 353, 185, 368, 200
-0.999561, 299, 221, 314, 236
-0.999561, 311, 223, 326, 238
-0.999561, 405, 219, 420, 234
-0.999561, 435, 203, 450, 218
-0.999561, 141, 209, 156, 224
-0.999562, 85, 135, 100, 150
-0.999562, 25, 125, 40, 140
-0.999563, 441, 227, 456, 242
-0.999564, 373, 243, 388, 258
-0.999565, 433, 173, 448, 188
-0.999565, 207, 143, 222, 158
-0.999566, 319, 251, 334, 266
-0.999566, 441, 179, 456, 194
-0.999567, 351, 211, 366, 226
-0.999567, 461, 263, 476, 278
-0.999567, 135, 255, 150, 270
-0.999567, 431, 345, 446, 360
-0.999567, 15, 193, 30, 320
-0.999568, 353, 253, 368, 268
-0.999568, 185, 177, 200, 304
-0.999568, 203, 265, 218, 280
-0.999568, 469, 353, 484, 368
-0.999568, 435, 227, 450, 242
-0.999569, 177, 141, 304, 172
-0.99957, 341, 215, 356, 230
-0.99957, 401, 209, 416, 336
-0.999571, 307, 217, 322, 232
-0.999571, 135, 201, 150, 216
-0.999572, 471, 263, 486, 278
-0.999573, 7, 239, 22, 254
-0.999574, 163, 83, 178, 98
-0.999574, 295, 213, 310, 228
-0.999574, 337, 225, 352, 240
-0.999574, 431, 263, 446, 278
-0.999575, 35, 125, 50, 140
-0.999576, 417, 171, 432, 186
-0.999576, 347, 251, 362, 266
-0.999577, 447, 89, 462, 104
-0.999577, 99, 141, 114, 156
-0.999578, 289, 217, 304, 232
-0.999578, 185, 121, 200, 136
-0.999579, 383, 247, 398, 262
-0.999583, 341, 249, 356, 264
-0.999584, 419, 217, 434, 232
-0.999586, 253, 161, 268, 288
-0.999586, 301, 255, 316, 270
-0.999586, 425, 217, 440, 232
-0.999587, 293, 249, 308, 264
-0.999588, 113, 257, 128, 272
-0.999588, 309, 245, 324, 260
-0.999589, 375, 125, 390, 140
-0.999589, 385, 125, 400, 140
-0.99959, 267, 223, 282, 238
-0.99959, 333, 253, 348, 268
-0.99959, 151, 263, 166, 278
-0.999591, 337, 157, 352, 172
-0.999591, 165, 261, 180, 276
-0.999592, 325, 253, 340, 268
-0.999592, 447, 349, 462, 364
-0.999592, 437, 347, 452, 362
-0.999593, 259, 161, 274, 288
-0.999593, 123, 203, 138, 218
-0.999594, 165, 209, 180, 224
-0.999594, 325, 157, 340, 172
-0.999594, 407, 209, 422, 336
-0.999595, 483, 81, 498, 208
-0.999596, 157, 209, 172, 224
-0.999596, 425, 253, 440, 268
-0.999596, 231, 161, 246, 288
-0.999597, 477, 263, 492, 278
-0.999601, 19, 119, 34, 134
-0.999602, 121, 257, 136, 272
-0.999605, 173, 259, 188, 274
-0.999605, 223, 177, 238, 304
-0.999605, 291, 161, 306, 288
-0.999606, 447, 187, 462, 202
-0.999607, 355, 145, 370, 160
-0.999607, 395, 355, 410, 370
-0.999608, 79, 141, 94, 156
-0.999611, 483, 241, 498, 368
-0.999611, 307, 209, 322, 336
-0.999612, 325, 241, 340, 256
-0.999614, 477, 181, 492, 196
-0.999614, 417, 359, 432, 374
-0.999614, 483, 153, 498, 168
-0.999617, 433, 167, 448, 182
-0.999617, 51, 121, 66, 136
-0.999618, 331, 217, 346, 232
-0.999618, 453, 89, 468, 104
-0.999618, 411, 215, 426, 230
-0.999619, 435, 183, 450, 198
-0.99962, 421, 161, 436, 288
-0.99962, 335, 247, 350, 262
-0.999621, 313, 209, 328, 336
-0.999622, 159, 259, 174, 274
-0.999622, 45, 97, 60, 224
-0.999623, 223, 225, 238, 352
-0.999623, 123, 129, 138, 256
-0.999624, 431, 195, 446, 210
-0.999624, 441, 189, 456, 204
-0.999625, 477, 255, 492, 270
-0.999625, 209, 129, 240, 375
-0.999626, 303, 243, 318, 258
-0.999628, 141, 257, 156, 272
-0.999628, 431, 255, 446, 270
-0.999628, 447, 231, 462, 246
-0.99963, 401, 359, 416, 374
-0.999633, 237, 161, 252, 288
-0.999636, 339, 147, 354, 162
-0.999636, 387, 351, 402, 366
-0.999637, 193, 161, 208, 288
-0.999638, 337, 225, 352, 352
-0.999638, 301, 249, 316, 264
-0.99964, 441, 233, 456, 248
-0.99964, 117, 153, 132, 168
-0.99964, 207, 241, 222, 368
-0.999641, 463, 147, 478, 162
-0.999641, 395, 161, 410, 288
-0.999641, 297, 129, 328, 375
-0.999643, 93, 141, 108, 156
-0.999643, 427, 129, 442, 256
-0.999645, 1, 239, 16, 254
-0.999645, 305, 161, 320, 288
-0.999649, 471, 253, 486, 268
-0.99965, 407, 359, 422, 374
-0.999651, 147, 257, 162, 272
-0.999651, 113, 309, 240, 340
-0.999654, 477, 149, 492, 164
-0.999656, 153, 257, 168, 272
-0.999657, 171, 177, 186, 304
-0.999659, 337, 57, 464, 120
-0.99966, 297, 243, 312, 258
-0.999662, 441, 173, 456, 188
-0.999663, 35, 49, 50, 176
-0.999664, 361, 129, 392, 375
-0.999665, 113, 129, 240, 160
-0.999666, 329, 247, 344, 262
-0.999667, 319, 161, 334, 288
-0.999668, 209, 193, 224, 320
-0.999668, 117, 97, 148, 352
-0.99967, 331, 157, 346, 172
-0.999671, 229, 241, 244, 368
-0.999671, 109, 193, 124, 320
-0.999676, 369, 145, 384, 272
-0.999678, 161, 129, 176, 256
-0.999679, 331, 225, 346, 352
-0.999679, 189, 113, 204, 240
-0.999679, 31, 119, 46, 134
-0.999679, 401, 161, 416, 288
-0.999681, 483, 147, 498, 162
-0.999681, 485, 185, 500, 200
-0.999682, 101, 193, 116, 320
-0.999683, 41, 121, 56, 136
-0.999683, 349, 145, 364, 160
-0.999683, 479, 187, 494, 202
-0.999683, 57, 129, 88, 256
-0.999684, 1, 109, 128, 140
-0.999686, 157, 79, 172, 94
-0.999686, 407, 161, 422, 288
-0.999692, 163, 65, 178, 192
-0.999695, 129, 129, 384, 192
-0.999695, 117, 193, 132, 320
-0.999695, 363, 225, 378, 352
-0.999697, 445, 33, 476, 288
-0.999697, 25, 49, 40, 176
-0.999698, 471, 149, 486, 164
-0.999698, 25, 65, 56, 192
-0.999699, 425, 345, 440, 360
-0.9997, 483, 179, 498, 194
-0.9997, 51, 129, 66, 256
-0.999705, 435, 189, 450, 204
-0.999708, 25, 119, 40, 134
-0.999709, 451, 113, 466, 240
-0.999711, 161, 185, 288, 216
-0.999711, 151, 49, 166, 176
-0.999711, 9, 225, 24, 352
-0.999712, 285, 241, 300, 368
-0.999715, 85, 141, 100, 156
-0.999719, 113, 49, 240, 112
-0.999722, 313, 161, 328, 288
-0.999723, 79, 161, 94, 288
-0.999726, 439, 167, 454, 182
-0.999735, 145, 281, 272, 312
-0.999742, 85, 129, 116, 375
-0.999753, 273, 157, 400, 188
-0.999753, 185, 153, 248, 216
-0.999756, 129, 129, 160, 375
-0.999785, 145, 97, 208, 160
-0.999799, 209, 129, 336, 192
-0.999804, 1, 289, 128, 320
-0.999813, 321, 81, 448, 144
-0.999825, 369, 305, 496, 336
-0.999831, 1, 89, 64, 152
-0.999832, 33, 1, 288, 128
-0.999839, 129, 153, 256, 184
-0.999847, 13, 65, 44, 320
-0.999851, 169, 97, 200, 352
-0.999864, 353, 145, 416, 208
-0.999867, 37, 129, 68, 375
-0.999896, 1, 129, 32, 375
-0.999904, 97, 129, 128, 375
-0.999912, 337, 65, 368, 320
-0.999925, 49, 129, 80, 375
-0.999932, 177, 77, 304, 108
-0.999948, 1, 89, 500, 152
-0.99997, 113, 93, 240, 124
-1, 49, 117, 176, 148
-1.00003, 385, 65, 416, 320
-1.00005, 321, 105, 384, 168
-1.00005, 225, 145, 352, 176
-1.00006, 93, 241, 124, 368
-1.00006, 145, 17, 272, 144
-1.00006, 193, 121, 320, 152
-1.00008, 25, 129, 56, 375
-1.00009, 177, 73, 304, 136
-1.00012, 33, 121, 288, 184
-1.00013, 153, 121, 216, 184
-1.00016, 329, 313, 392, 375
-1.00017, 97, 105, 224, 136
-1.0002, 373, 129, 404, 375
-1.00025, 317, 65, 348, 320
-1.00025, 441, 65, 472, 192
-1.00027, 397, 97, 428, 352
-1.00028, 1, 137, 500, 200
-1.00031, 349, 129, 380, 375
-1.00032, 129, 105, 384, 168
-1.00035, 97, 73, 352, 136
-1.00039, 273, 89, 400, 152
-1.00039, 113, 145, 176, 208
-1.00041, 425, 81, 456, 208
-1.00042, 181, 97, 212, 352
-1.00043, 1, 49, 256, 112
-1.00048, 365, 33, 396, 288
-1.0005, 121, 81, 152, 208
-1.00055, 433, 113, 496, 176
-1.00056, 153, 1, 184, 256
-1.00057, 41, 289, 104, 352
-1.00057, 349, 129, 380, 256
-1.00058, 81, 33, 112, 288
-1.00059, 177, 81, 240, 144
-1.00062, 353, 313, 416, 375
-1.00063, 1, 113, 500, 176
-1.00064, 421, 1, 452, 256
-1.00067, 265, 33, 296, 288
-1.00068, 433, 33, 464, 288
-1.00069, 1, 1, 128, 64
-1.00071, 153, 17, 216, 144
-1.00073, 221, 33, 252, 288
-1.00073, 353, 33, 384, 288
-1.00074, 57, 33, 88, 288
-1.00077, 93, 33, 124, 288
-1.0008, 165, 1, 196, 256
-1.0008, 225, 105, 352, 168
-1.00082, 25, 33, 56, 288
-1.00082, 129, 33, 160, 288
-1.00084, 233, 33, 264, 288
-1.00084, 249, 33, 280, 288
-1.00084, 209, 33, 240, 288
-1.00087, 1, 17, 256, 80
-1.0009, 37, 33, 68, 288
-1.00092, 189, 65, 220, 192
-1.00093, 137, 129, 200, 256
-1.00094, 1, 33, 128, 96
-1.00094, 281, 33, 312, 288
-1.00094, 409, 33, 440, 288
-1.00095, 257, 121, 500, 184
-1.00097, 465, 1, 496, 256
-1.00101, 69, 33, 100, 288
-1.00102, 105, 33, 136, 288
-1.00104, 117, 1, 148, 256
-1.00104, 193, 33, 224, 288
-1.00106, 97, 49, 352, 112
-1.00108, 293, 33, 324, 288
-1.00108, 225, 169, 288, 232
-1.00109, 65, 33, 192, 96
-1.00109, 225, 97, 480, 160
-1.0011, 305, 33, 336, 288
-1.00113, 1, 33, 32, 288
-1.00118, 97, 97, 128, 224
-1.00121, 365, 113, 396, 240
-1.00122, 181, 1, 212, 256
-1.00123, 257, 73, 500, 136
-1.00123, 257, 1, 500, 64
-1.00123, 113, 305, 176, 368
-1.00133, 369, 1, 496, 64
-1.00134, 397, 1, 428, 256
-1.00136, 369, 33, 496, 96
-1.00141, 161, 9, 416, 72
-1.00143, 193, 49, 448, 112
-1.00148, 413, 81, 444, 208
-1.00152, 13, 49, 44, 176
-1.00153, 193, 113, 256, 240
-1.00156, 289, 57, 416, 120
-1.00156, 145, 273, 208, 336
-1.00157, 33, 33, 96, 288
-1.00157, 129, 25, 256, 88
-1.00162, 257, 25, 500, 88
-1.00162, 289, 33, 416, 96
-1.00165, 69, 129, 100, 256
-1.00166, 1, 1, 500, 64
-1.0017, 417, 89, 480, 152
-1.00175, 17, 57, 144, 120
-1.00177, 1, 25, 500, 88
-1.0018, 313, 65, 376, 320
-1.00181, 137, 17, 168, 144
-1.00184, 257, 9, 384, 72
-1.00191, 401, 81, 432, 208
-1.00193, 321, 9, 448, 72
-1.00199, 409, 65, 472, 192
-1.00204, 1, 65, 500, 128
-1.00205, 305, 313, 368, 375
-1.00212, 361, 33, 424, 288
-1.00215, 209, 9, 336, 72
-1.00218, 105, 17, 168, 144
-1.00218, 105, 241, 136, 368
-1.00223, 273, 161, 336, 224
-1.00226, 209, 41, 336, 104
-1.00229, 201, 33, 264, 288
-1.00233, 337, 33, 400, 288
-1.00236, 45, 49, 76, 176
-1.0024, 321, 289, 448, 352
-1.00242, 225, 97, 288, 224
-1.00246, 81, 33, 144, 288
-1.00255, 241, 65, 368, 128
-1.00256, 185, 65, 248, 192
-1.00259, 1, 97, 32, 224
-1.00259, 113, 1, 240, 64
-1.0026, 409, 65, 472, 128
-1.00272, 49, 1, 176, 64
-1.00283, 161, 1, 288, 64
-1.00286, 361, 241, 424, 368
-1.00287, 281, 137, 344, 200
-1.00293, 193, 49, 320, 176
-1.00303, 209, 145, 272, 208
-1.00304, 361, 265, 424, 328
-1.00304, 177, 65, 208, 192
-1.00323, 337, 17, 464, 144
-1.00324, 209, 113, 240, 240
-1.00325, 145, 145, 208, 208
-1.0034, 377, 113, 408, 240
-1.00341, 1, 33, 128, 160
-1.00355, 465, 65, 496, 192
-1.00361, 229, 113, 260, 240
-1.00362, 153, 1, 216, 256
-1.00365, 409, 33, 472, 288
-1.00381, 177, 33, 240, 288
-1.00387, 385, 89, 448, 152
-1.00388, 89, 105, 152, 168
-1.00393, 401, 17, 464, 144
-1.00396, 1, 33, 64, 96
-1.00396, 241, 81, 368, 208
-1.004, 177, 49, 240, 112
-1.00413, 265, 129, 296, 256
-1.00414, 233, 33, 296, 288
-1.00418, 289, 33, 416, 160
-1.00423, 1, 49, 32, 176
-1.00426, 157, 1, 188, 128
-1.00444, 81, 113, 112, 240
-1.00444, 1, 1, 64, 256
-1.00452, 201, 65, 232, 192
-1.00452, 1, 33, 64, 160
-1.00456, 49, 1, 176, 128
-1.00459, 81, 81, 144, 208
-1.00472, 25, 17, 56, 144
-1.00492, 325, 129, 356, 256
-1.00496, 433, 17, 464, 144
-1.00498, 97, 17, 224, 144
-1.00499, 281, 113, 312, 240
-1.00508, 309, 113, 340, 240
-1.00535, 193, 1, 320, 128
-1.00548, 413, 17, 444, 144
-1.00555, 453, 65, 484, 192
-1.0056, 189, 17, 220, 144
-1.00566, 241, 113, 272, 240
-1.00576, 249, 113, 312, 240
-1.00576, 253, 113, 284, 240
-1.00576, 101, 49, 132, 176
-1.00586, 289, 33, 352, 288
-1.00591, 389, 17, 420, 144
-1.00594, 293, 113, 324, 240
-1.00595, 177, 17, 208, 144
-1.00608, 361, 97, 424, 224
-1.00613, 389, 81, 420, 208
-1.00618, 9, 1, 40, 128
-1.00633, 281, 33, 312, 160
-1.00659, 241, 1, 368, 128
-1.00672, 57, 33, 120, 288
-1.00693, 273, 113, 336, 240
-1.00699, 297, 113, 360, 240
-1.00753, 49, 49, 112, 176
-1.00876, 369, 49, 432, 176
-1.00887, 257, 33, 320, 160
-1.00961, 185, 17, 248, 144
-1.00984, 425, 1, 488, 128
-1.01007, 305, 33, 368, 160
-1.01039, 129, 17, 192, 144
-1.01051, 81, 33, 144, 160
-1.01061, 329, 81, 392, 208
-1.01065, 281, 1, 344, 128
-1.01068, 345, 17, 408, 144
-1.01094, 233, 33, 296, 160
-1.01159, 369, 1, 432, 128
-1.01201, 209, 33, 272, 160
-1.01217, 281, 49, 344, 176
-1.01349, 25, 1, 88, 128
-1.01412, 49, 1, 112, 128
