1967
-0.203087, 1, 1, 500, 375
-0.244789, 1, 33, 500, 288
-0.295091, 97, 1, 352, 375
-0.303163, 1, 129, 500, 375
-0.304163, 1, 1, 256, 375
-0.392596, 193, 1, 448, 375
-0.463468, 257, 97, 500, 352
-0.469617, 1, 1, 256, 256
-0.47828, 129, 1, 384, 256
-0.489617, 1, 129, 256, 375
-0.520443, 97, 129, 352, 375
-0.574102, 225, 1, 480, 256
-0.822546, 49, 1, 176, 256
-0.825188, 161, 1, 288, 375
-0.826128, 209, 1, 336, 256
-0.826401, 225, 1, 352, 375
-0.826745, 113, 129, 240, 375
-0.830161, 81, 1, 208, 375
-0.834192, 97, 1, 224, 256
-0.83682, 1, 97, 128, 352
-0.840595, 17, 1, 144, 375
-0.845793, 369, 97, 496, 352
-0.848934, 145, 1, 272, 256
-0.848982, 161, 97, 288, 352
-0.852675, 1, 241, 500, 368
-0.853076, 65, 97, 192, 352
-0.853842, 273, 1, 400, 375
-0.857917, 1, 129, 500, 256
-0.860111, 1, 1, 128, 256
-0.863446, 257, 1, 384, 256
-0.867151, 209, 129, 336, 375
-0.86743, 1, 33, 500, 160
-0.868704, 1, 177, 500, 304
-0.874708, 257, 97, 384, 352
-0.87524, 1, 81, 500, 208
-0.882945, 353, 1, 480, 375
-0.887629, 65, 129, 320, 256
-0.890749, 129, 33, 384, 160
-0.891307, 321, 129, 448, 375
-0.898361, 65, 193, 320, 320
-0.8986, 129, 241, 384, 368
-0.90169, 193, 145, 448, 272
-0.901695, 321, 1, 448, 256
-0.907243, 1, 81, 256, 208
-0.907302, 369, 1, 496, 256
-0.908107, 33, 241, 288, 368
-0.909192, 97, 81, 352, 208
-0.909964, 33, 17, 288, 144
-0.909976, 257, 241, 500, 368
-0.914476, 161, 209, 288, 336
-0.91484, 257, 97, 500, 224
-0.918736, 129, 209, 192, 336
-0.919214, 49, 17, 176, 144
-0.920485, 225, 49, 480, 176
-0.921422, 113, 209, 240, 336
-0.921774, 145, 129, 272, 256
-0.92237, 1, 97, 128, 224
-0.922731, 369, 113, 496, 240
-0.923465, 209, 177, 336, 304
-0.924504, 161, 209, 224, 336
-0.924603, 113, 97, 176, 224
-0.925325, 81, 129, 208, 256
-0.925419, 161, 129, 224, 256
-0.927697, 193, 129, 320, 256
-0.927896, 225, 193, 480, 320
-0.928603, 201, 193, 264, 320
-0.928736, 225, 17, 352, 144
-0.928813, 241, 129, 368, 256
-0.929086, 137, 145, 200, 272
-0.929308, 209, 81, 336, 208
-0.931335, 97, 81, 224, 208
-0.931785, 289, 145, 416, 272
-0.932494, 33, 177, 160, 304
-0.932508, 257, 81, 384, 208
-0.933931, 297, 129, 360, 256
-0.934636, 97, 225, 160, 352
-0.935307, 337, 129, 400, 256
-0.936188, 65, 241, 192, 368
-0.937582, 249, 129, 312, 256
-0.937619, 241, 17, 304, 144
-0.937657, 89, 177, 152, 304
-0.937962, 49, 81, 176, 208
-0.938601, 273, 81, 336, 208
-0.938641, 97, 17, 160, 144
-0.939348, 161, 81, 288, 208
-0.939371, 9, 97, 72, 224
-0.939402, 201, 129, 264, 256
-0.939968, 313, 81, 376, 208
-0.940356, 233, 81, 296, 208
-0.940729, 249, 177, 312, 304
-0.940899, 81, 129, 144, 256
-0.941688, 121, 265, 184, 328
-0.941919, 209, 241, 336, 368
-0.942385, 281, 33, 344, 160
-0.942518, 209, 65, 272, 192
-0.942523, 137, 65, 200, 192
-0.942532, 273, 241, 336, 368
-0.942674, 225, 177, 288, 304
-0.943673, 273, 129, 336, 256
-0.943803, 433, 113, 496, 240
-0.944058, 97, 289, 160, 352
-0.944563, 1, 225, 128, 352
-0.944598, 273, 241, 400, 368
-0.945226, 9, 193, 72, 320
-0.945287, 49, 193, 112, 320
-0.945961, 113, 145, 176, 272
-0.946618, 241, 185, 304, 248
-0.947096, 249, 137, 312, 200
-0.947151, 225, 1, 480, 128
-0.947535, 337, 161, 464, 288
-0.947789, 57, 185, 120, 248
-0.94784, 305, 97, 432, 224
-0.947841, 65, 81, 128, 208
-0.948315, 369, 113, 432, 240
-0.948321, 145, 137, 208, 200
-0.948475, 121, 201, 184, 264
-0.948921, 145, 17, 272, 144
-0.949486, 337, 225, 464, 352
-0.949997, 313, 177, 376, 304
-0.950225, 105, 113, 168, 176
-0.95097, 81, 185, 144, 248
-0.950983, 1, 49, 128, 176
-0.951131, 177, 129, 240, 192
-0.951247, 33, 65, 96, 192
-0.95157, 257, 193, 384, 320
-0.951646, 161, 81, 224, 208
-0.95173, 57, 33, 120, 160
-0.951878, 233, 161, 296, 224
-0.951891, 425, 241, 488, 368
-0.95242, 345, 169, 408, 232
-0.952611, 97, 33, 224, 160
-0.953086, 121, 289, 184, 352
-0.953174, 329, 137, 392, 200
-0.953263, 9, 241, 72, 368
-0.95328, 273, 137, 336, 200
-0.953333, 385, 305, 448, 368
-0.953812, 297, 137, 360, 200
-0.95428, 65, 241, 128, 368
-0.95459, 57, 273, 120, 336
-0.954956, 193, 241, 256, 368
-0.955081, 145, 97, 208, 160
-0.955082, 393, 113, 456, 240
-0.955102, 305, 49, 432, 176
-0.95511, 273, 193, 336, 320
-0.955285, 425, 193, 488, 320
-0.955495, 369, 161, 432, 288
-0.955883, 273, 273, 336, 336
-0.956042, 217, 265, 280, 328
-0.956208, 273, 169, 336, 232
-0.956696, 345, 177, 408, 304
-0.956744, 105, 169, 168, 232
-0.956908, 25, 193, 88, 256
-0.956937, 153, 241, 216, 304
-0.957087, 105, 145, 168, 208
-0.957576, 153, 217, 216, 280
-0.957604, 145, 273, 208, 336
-0.958096, 121, 225, 184, 288
-0.958164, 225, 241, 288, 368
-0.958185, 249, 241, 312, 368
-0.958595, 177, 241, 240, 304
-0.958798, 33, 113, 96, 240
-0.958811, 137, 129, 200, 375
-0.958864, 401, 225, 464, 352
-0.958983, 97, 257, 160, 320
-0.958999, 209, 201, 272, 264
-0.959155, 193, 265, 256, 328
-0.959432, 409, 289, 472, 352
-0.959763, 65, 97, 128, 160
-0.959804, 121, 17, 184, 144
-0.959849, 1, 121, 64, 184
-0.959976, 225, 129, 288, 256
-0.960442, 313, 169, 376, 232
-0.960462, 9, 97, 72, 352
-0.96052, 177, 105, 240, 168
-0.96084, 145, 193, 208, 256
-0.960965, 241, 1, 304, 256
-0.961258, 105, 89, 168, 152
-0.961435, 209, 145, 272, 208
-0.961482, 121, 1, 184, 256
-0.961534, 177, 209, 240, 272
-0.961751, 33, 297, 96, 360
-0.961905, 305, 241, 368, 368
-0.961909, 73, 121, 136, 184
-0.961942, 89, 209, 152, 272
-0.962062, 89, 65, 152, 192
-0.962106, 33, 81, 96, 144
-0.962229, 217, 121, 280, 184
-0.962313, 233, 41, 296, 104
-0.962603, 201, 225, 264, 288
-0.962825, 369, 241, 432, 368
-0.962905, 377, 185, 440, 248
-0.96299, 193, 1, 256, 128
-0.963019, 433, 281, 496, 344
-0.963032, 337, 81, 400, 208
-0.963065, 361, 313, 424, 375
-0.963201, 433, 129, 496, 192
-0.963345, 137, 73, 200, 136
-0.963362, 273, 201, 336, 264
-0.963699, 289, 1, 416, 128
-0.963974, 353, 65, 480, 192
-0.963995, 9, 273, 72, 336
-0.964112, 145, 169, 208, 232
-0.964147, 401, 177, 464, 304
-0.964242, 249, 265, 312, 328
-0.964598, 281, 41, 344, 104
-0.964651, 201, 65, 264, 128
-0.964999, 161, 129, 224, 375
-0.965186, 265, 1, 328, 256
-0.965188, 209, 169, 272, 232
-0.965255, 241, 137, 368, 200
-0.965335, 137, 313, 200, 375
-0.965494, 161, 129, 192, 256
-0.965554, 217, 17, 280, 144
-0.965569, 369, 121, 432, 184
-0.965668, 273, 305, 336, 368
-0.965706, 305, 33, 368, 160
-0.965718, 113, 97, 176, 352
-0.96572, 57, 305, 120, 368
-0.965748, 65, 1, 128, 256
-0.965932, 25, 17, 88, 144
-0.96599, 313, 193, 376, 256
-0.966167, 185, 81, 248, 208
-0.96622, 33, 297, 160, 360
-0.966247, 337, 225, 400, 352
-0.966593, 41, 113, 104, 176
-0.966654, 1, 193, 64, 256
-0.966682, 225, 41, 352, 104
-0.966697, 281, 73, 344, 136
-0.966707, 273, 161, 400, 224
-0.96675, 9, 297, 72, 360
-0.966867, 129, 129, 256, 192
-0.966888, 1, 249, 64, 312
-0.966922, 313, 297, 376, 360
-0.966959, 137, 209, 168, 336
-0.966982, 65, 209, 128, 272
-0.967034, 169, 161, 232, 224
-0.967037, 305, 89, 368, 152
-0.967158, 153, 225, 184, 352
-0.967211, 209, 1, 272, 256
-0.967408, 81, 161, 144, 224
-0.967696, 241, 89, 304, 152
-0.967711, 81, 97, 144, 352
-0.967721, 225, 129, 288, 375
-0.967733, 25, 217, 88, 280
-0.967739, 105, 17, 168, 80
-0.967854, 9, 97, 72, 160
-0.967887, 145, 1, 208, 256
-0.967956, 161, 265, 288, 328
-0.968021, 169, 273, 232, 336
-0.968135, 177, 145, 304, 208
-0.968146, 113, 233, 240, 296
-0.968184, 161, 177, 192, 304
-0.968284, 409, 313, 472, 375
-0.968286, 33, 193, 160, 256
-0.968608, 145, 145, 176, 272
-0.968799, 417, 97, 480, 352
-0.969032, 97, 97, 224, 160
-0.969124, 409, 193, 472, 256
-0.969128, 209, 193, 336, 256
-0.969134, 401, 113, 464, 176
-0.969136, 33, 33, 96, 288
-0.969241, 201, 97, 264, 352
-0.969322, 277, 137, 308, 200
-0.969429, 81, 177, 208, 240
-0.969496, 145, 17, 208, 144
-0.969557, 81, 281, 208, 344
-0.969592, 41, 241, 104, 368
-0.969829, 97, 1, 160, 256
-0.969855, 17, 225, 48, 352
-0.969902, 1, 113, 128, 176
-0.969921, 305, 273, 368, 336
-0.969949, 369, 97, 432, 352
-0.970023, 89, 185, 120, 248
-0.970201, 81, 153, 208, 216
-0.97026, 165, 209, 196, 272
-0.970345, 369, 121, 496, 184
-0.970566, 241, 193, 272, 320
-0.970606, 205, 193, 236, 320
-0.970629, 425, 257, 488, 320
-0.970637, 257, 153, 288, 216
-0.970687, 249, 113, 312, 176
-0.97079, 241, 241, 304, 304
-0.970803, 9, 169, 72, 232
-0.970838, 57, 129, 120, 256
-0.971248, 57, 25, 120, 88
-0.971361, 249, 97, 312, 352
-0.971396, 273, 113, 336, 176
-0.971517, 161, 169, 288, 232
-0.971606, 97, 233, 160, 296
-0.971826, 305, 313, 432, 375
-0.971876, 149, 185, 180, 248
-0.971986, 353, 145, 416, 208
-0.972007, 101, 169, 132, 232
-0.972034, 133, 209, 164, 272
-0.972078, 181, 129, 212, 256
-0.972139, 9, 145, 72, 272
-0.972187, 197, 97, 228, 160
-0.972227, 129, 281, 160, 344
-0.972258, 321, 137, 352, 200
-0.972342, 97, 313, 160, 375
-0.972368, 173, 209, 204, 336
-0.972507, 113, 201, 240, 264
-0.972545, 33, 129, 96, 375
-0.972552, 193, 209, 224, 336
-0.972637, 249, 17, 280, 144
-0.972687, 49, 89, 176, 152
-0.972697, 49, 25, 176, 88
-0.972894, 369, 305, 496, 368
-0.972931, 285, 113, 316, 240
-0.972944, 341, 161, 372, 224
-0.972975, 329, 113, 392, 176
-0.973059, 321, 177, 448, 240
-0.973078, 33, 273, 96, 336
-0.973113, 229, 193, 260, 320
-0.973185, 149, 81, 180, 208
-0.973287, 145, 217, 176, 280
-0.973353, 5, 113, 36, 240
-0.973406, 169, 137, 200, 200
-0.973447, 133, 17, 164, 144
-0.973506, 289, 1, 352, 256
-0.973547, 305, 81, 336, 208
-0.973613, 297, 241, 328, 368
-0.973615, 205, 113, 236, 240
-0.973631, 209, 265, 336, 328
-0.973634, 201, 121, 232, 184
-0.973828, 81, 257, 208, 320
-0.973878, 345, 137, 376, 200
-0.973931, 81, 121, 208, 184
-0.974013, 145, 265, 176, 328
-0.974015, 337, 33, 400, 160
-0.974025, 133, 233, 164, 296
-0.974069, 365, 161, 396, 224
-0.974135, 293, 265, 324, 328
-0.974194, 241, 17, 304, 80
-0.974194, 257, 81, 288, 208
-0.974208, 369, 49, 432, 176
-0.974232, 161, 225, 288, 288
-0.974428, 385, 281, 448, 344
-0.974615, 433, 193, 496, 256
-0.97463, 113, 65, 176, 128
-0.974638, 217, 209, 248, 336
-0.974643, 125, 209, 156, 336
-0.974732, 241, 81, 368, 144
-0.974737, 209, 169, 336, 232
-0.974763, 273, 249, 336, 312
-0.974767, 189, 121, 220, 184
-0.974771, 145, 289, 176, 352
-0.974804, 13, 177, 44, 304
-0.974806, 201, 97, 264, 160
-0.974964, 33, 201, 64, 264
-0.974985, 277, 177, 308, 240
-0.974996, 257, 257, 384, 320
-0.975005, 265, 17, 328, 80
-0.975026, 265, 17, 296, 144
-0.975059, 177, 185, 240, 248
-0.97516, 237, 49, 268, 176
-0.975176, 289, 137, 416, 200
-0.975221, 153, 153, 184, 216
-0.975319, 69, 193, 100, 256
-0.975323, 105, 289, 136, 352
-0.975327, 461, 113, 492, 240
-0.975363, 221, 129, 252, 256
-0.975389, 97, 113, 128, 240
-0.975419, 305, 65, 368, 128
-0.975464, 429, 289, 460, 352
-0.975475, 117, 17, 148, 144
-0.975505, 17, 233, 48, 296
-0.97553, 305, 249, 368, 312
-0.975535, 289, 161, 320, 224
-0.975546, 377, 113, 408, 240
-0.975754, 313, 33, 344, 160
-0.97582, 81, 73, 144, 136
-0.97582, 157, 281, 188, 344
-0.975857, 1, 169, 128, 232
-0.975866, 213, 137, 244, 200
-0.975882, 269, 81, 300, 208
-0.975887, 449, 241, 480, 368
-0.975895, 17, 217, 144, 280
-0.975998, 49, 193, 80, 256
-0.976036, 305, 97, 368, 352
-0.97604, 177, 121, 304, 184
-0.976111, 337, 129, 368, 256
-0.976171, 261, 129, 292, 192
-0.976173, 321, 129, 352, 256
-0.976187, 309, 137, 340, 200
-0.976209, 117, 265, 148, 328
-0.976237, 245, 193, 276, 256
-0.976271, 253, 89, 284, 152
-0.976289, 401, 65, 464, 192
-0.976306, 193, 81, 320, 144
-0.976332, 249, 289, 312, 352
-0.976337, 297, 193, 328, 320
-0.976481, 409, 305, 440, 368
-0.976502, 345, 97, 408, 352
-0.976504, 337, 297, 400, 360
-0.976539, 37, 297, 68, 360
-0.976545, 149, 241, 180, 304
-0.976551, 113, 209, 144, 336
-0.97659, 253, 129, 284, 256
-0.976651, 145, 57, 272, 120
-0.976653, 129, 1, 192, 64
-0.976677, 365, 129, 396, 256
-0.976718, 145, 97, 272, 160
-0.976724, 309, 129, 340, 256
-0.976767, 321, 113, 448, 176
-0.97677, 1, 89, 128, 152
-0.976771, 13, 265, 44, 328
-0.976783, 313, 313, 344, 375
-0.976804, 233, 193, 264, 256
-0.97685, 333, 137, 364, 200
-0.976862, 181, 97, 212, 160
-0.976902, 237, 145, 268, 272
-0.977032, 113, 201, 144, 264
-0.977044, 297, 113, 360, 176
-0.977088, 289, 289, 416, 352
-0.977115, 393, 313, 424, 375
-0.977122, 25, 241, 88, 304
-0.977145, 17, 273, 144, 336
-0.97719, 1, 177, 32, 304
-0.977251, 389, 113, 420, 240
-0.977326, 281, 265, 312, 328
-0.977401, 193, 113, 224, 240
-0.977441, 445, 281, 476, 344
-0.977455, 73, 249, 136, 312
-0.977471, 281, 209, 312, 336
-0.977481, 321, 81, 352, 208
-0.977528, 369, 265, 496, 328
-0.977535, 161, 249, 192, 312
-0.977592, 49, 297, 80, 360
-0.977595, 249, 1, 312, 375
-0.9776, 237, 97, 268, 224
-0.977654, 201, 1, 264, 375
-0.977704, 233, 209, 296, 272
-0.977749, 353, 161, 384, 224
-0.977762, 237, 41, 268, 104
-0.977801, 301, 201, 332, 264
-0.977877, 57, 129, 120, 375
-0.977884, 289, 137, 320, 200
-0.977898, 225, 17, 352, 80
-0.977904, 57, 193, 88, 320
-0.977917, 81, 17, 144, 80
-0.977979, 237, 81, 268, 144
-0.97798, 129, 81, 160, 208
-0.977998, 313, 49, 344, 112
-0.978006, 245, 129, 276, 192
-0.978054, 273, 113, 400, 176
-0.978173, 225, 289, 352, 352
-0.978189, 49, 65, 80, 192
-0.978252, 13, 193, 44, 256
-0.978325, 365, 137, 396, 200
-0.978342, 281, 17, 312, 144
-0.978346, 257, 177, 288, 240
-0.978348, 101, 121, 132, 184
-0.9784, 181, 265, 212, 328
-0.978424, 129, 1, 192, 375
-0.978444, 85, 193, 116, 320
-0.978445, 329, 161, 360, 224
-0.978522, 385, 257, 448, 320
-0.978569, 65, 65, 192, 128
-0.97857, 169, 1, 232, 256
-0.978669, 129, 289, 256, 352
-0.978743, 17, 97, 48, 224
-0.978744, 245, 265, 276, 328
-0.978792, 201, 17, 264, 80
-0.978798, 145, 9, 272, 72
-0.978813, 5, 225, 36, 352
-0.978842, 161, 81, 192, 208
-0.978843, 193, 209, 224, 272
-0.978851, 161, 201, 288, 264
-0.97891, 225, 1, 288, 375
-0.978968, 133, 89, 164, 152
-0.978989, 109, 129, 140, 256
-0.978991, 57, 161, 120, 224
-0.979022, 65, 89, 96, 152
-0.979064, 133, 129, 164, 256
-0.979088, 65, 217, 192, 280
-0.979098, 169, 169, 200, 232
-0.979104, 425, 105, 488, 168
-0.979227, 81, 305, 208, 368
-0.979238, 433, 305, 496, 368
-0.979247, 281, 1, 344, 375
-0.979294, 145, 313, 176, 375
-0.979347, 33, 169, 96, 232
-0.979369, 209, 217, 336, 280
-0.979377, 457, 265, 488, 328
-0.979441, 197, 265, 228, 328
-0.979443, 409, 233, 472, 296
-0.979475, 345, 273, 408, 336
-0.979485, 301, 289, 332, 352
-0.979506, 297, 129, 328, 256
-0.979518, 1, 49, 64, 176
-0.979524, 133, 257, 164, 320
-0.979578, 245, 161, 276, 224
-0.979588, 65, 33, 96, 160
-0.979596, 221, 265, 252, 328
-0.979597, 9, 121, 40, 184
-0.979601, 229, 153, 260, 216
-0.979661, 333, 81, 364, 208
-0.979667, 337, 193, 400, 256
-0.97968, 301, 33, 332, 160
-0.979685, 265, 129, 296, 256
-0.979697, 221, 201, 252, 264
-0.979733, 129, 33, 256, 96
-0.97985, 189, 241, 220, 304
-0.979858, 205, 233, 236, 296
-0.979887, 105, 17, 136, 144
-0.979925, 29, 193, 60, 320
-0.979943, 393, 97, 456, 352
-0.979962, 85, 113, 116, 240
-0.980003, 281, 97, 344, 352
-0.980105, 205, 201, 236, 264
-0.980114, 93, 297, 124, 360
-0.980173, 149, 105, 180, 168
-0.980197, 261, 273, 292, 336
-0.980201, 69, 193, 100, 320
-0.980206, 113, 161, 144, 224
-0.98021, 33, 57, 96, 120
-0.98021, 233, 65, 296, 128
-0.980296, 29, 89, 60, 152
-0.980307, 145, 25, 208, 88
-0.98031, 289, 193, 320, 256
-0.980403, 345, 177, 376, 304
-0.980412, 17, 97, 48, 160
-0.980491, 233, 265, 264, 328
-0.980493, 77, 97, 108, 160
-0.980547, 345, 1, 408, 256
-0.980558, 137, 177, 168, 240
-0.980584, 65, 241, 96, 368
-0.980588, 97, 241, 128, 368
-0.98071, 181, 217, 212, 280
-0.980743, 97, 1, 160, 375
-0.980764, 433, 233, 496, 296
-0.980787, 177, 1, 240, 375
-0.980825, 173, 81, 204, 208
-0.98101, 377, 129, 408, 192
-0.981056, 321, 73, 352, 136
-0.981126, 129, 113, 160, 176
-0.981202, 57, 1, 120, 375
-0.981239, 169, 81, 232, 144
-0.981382, 253, 209, 284, 336
-0.98141, 285, 65, 316, 192
-0.981522, 221, 225, 252, 288
-0.981526, 209, 241, 336, 304
-0.981552, 369, 185, 496, 248
-0.981619, 77, 273, 108, 336
-0.981671, 437, 241, 468, 368
-0.981688, 305, 217, 368, 280
-0.981695, 377, 177, 408, 240
-0.981763, 381, 313, 412, 375
-0.981771, 269, 177, 300, 304
-0.981806, 89, 105, 120, 168
-0.981842, 169, 273, 200, 336
-0.981864, 301, 169, 332, 232
-0.981875, 313, 1, 376, 256
-0.981897, 117, 289, 148, 352
-0.981951, 41, 193, 72, 320
-0.982034, 333, 89, 364, 152
-0.982056, 425, 65, 488, 192
-0.982074, 405, 185, 436, 248
-0.982095, 41, 113, 72, 176
-0.982114, 217, 65, 248, 192
-0.98212, 441, 113, 472, 240
-0.982128, 225, 113, 352, 176
-0.982136, 25, 289, 56, 352
-0.982143, 77, 241, 108, 368
-0.982143, 425, 241, 456, 368
-0.982146, 53, 241, 84, 368
-0.98227, 149, 73, 180, 136
-0.982338, 169, 33, 232, 160
-0.982411, 313, 289, 344, 352
-0.982442, 453, 177, 484, 304
-0.982512, 113, 105, 144, 168
-0.982527, 353, 113, 384, 176
-0.982571, 153, 1, 216, 375
-0.982637, 145, 33, 176, 160
-0.98271, 193, 145, 224, 208
-0.982797, 225, 313, 352, 375
-0.982859, 101, 193, 132, 256
-0.982868, 345, 185, 376, 248
-0.982881, 53, 73, 84, 136
-0.982887, 33, 249, 160, 312
-0.982892, 425, 193, 456, 256
-0.982956, 17, 1, 80, 375
-0.983012, 313, 201, 344, 264
-0.983084, 377, 1, 440, 256
-0.983153, 29, 225, 60, 288
-0.983165, 349, 113, 380, 240
-0.983243, 229, 241, 260, 368
-0.983264, 257, 185, 384, 248
-0.983311, 137, 25, 168, 88
-0.98335, 149, 129, 180, 192
-0.983362, 97, 265, 128, 328
-0.983386, 377, 177, 408, 304
-0.983451, 61, 113, 92, 240
-0.983461, 209, 265, 240, 328
-0.983534, 281, 161, 312, 288
-0.983577, 405, 97, 436, 224
-0.983611, 301, 33, 332, 96
-0.98362, 193, 65, 224, 192
-0.983684, 65, 281, 96, 344
-0.983835, 457, 113, 488, 176
-0.983837, 129, 313, 256, 375
-0.983863, 413, 241, 444, 368
-0.98399, 421, 313, 452, 375
-0.984035, 9, 1, 72, 256
-0.984037, 265, 97, 296, 160
-0.984057, 53, 113, 84, 176
-0.984058, 297, 313, 328, 375
-0.984072, 305, 49, 432, 112
-0.984134, 289, 89, 416, 152
-0.984176, 289, 233, 416, 296
-0.98427, 465, 177, 496, 304
-0.984272, 273, 209, 400, 272
-0.984415, 309, 209, 340, 336
-0.984449, 193, 161, 224, 288
-0.984453, 49, 17, 80, 144
-0.984526, 289, 17, 416, 80
-0.984563, 97, 161, 128, 288
-0.984636, 409, 1, 472, 256
-0.984738, 353, 241, 384, 368
-0.984848, 441, 177, 472, 304
-0.984883, 37, 97, 68, 224
-0.984912, 237, 1, 268, 128
-0.98508, 117, 81, 148, 208
-0.985187, 389, 177, 420, 304
-0.985228, 321, 201, 448, 264
-0.985293, 101, 65, 132, 192
-0.985328, 401, 177, 432, 304
-0.985341, 1, 137, 128, 200
-0.985417, 265, 241, 296, 368
-0.985504, 369, 161, 496, 224
-0.985644, 241, 241, 272, 368
-0.985645, 305, 1, 368, 375
-0.985682, 49, 113, 80, 240
-0.985821, 369, 97, 496, 160
-0.985966, 49, 1, 176, 64
-0.986008, 177, 289, 304, 352
-0.986029, 205, 241, 236, 368
-0.986057, 369, 241, 496, 304
-0.986074, 81, 33, 112, 160
-0.986079, 17, 65, 144, 128
-0.986086, 29, 241, 60, 368
-0.986298, 429, 113, 460, 240
-0.986425, 305, 257, 432, 320
-0.986449, 1, 1, 128, 128
-0.986562, 97, 1, 224, 64
-0.98658, 73, 129, 104, 256
-0.9868, 421, 177, 452, 304
-0.986805, 161, 137, 416, 200
-0.987095, 37, 49, 68, 176
-0.987152, 369, 209, 496, 272
-0.987321, 157, 33, 188, 160
-0.987434, 417, 97, 448, 224
-0.98747, 97, 281, 352, 344
-0.987688, 65, 145, 320, 208
-0.987717, 461, 225, 492, 352
-0.987788, 65, 169, 320, 232
-0.987892, 333, 177, 364, 304
-0.987896, 73, 81, 104, 208
-0.987955, 401, 241, 432, 368
-0.988009, 1, 305, 500, 368
-0.988061, 225, 17, 256, 144
-0.98807, 369, 1, 432, 375
-0.988106, 241, 193, 304, 224
-0.988114, 37, 145, 68, 272
-0.988123, 177, 217, 240, 248
-0.988189, 105, 293, 168, 324
-0.988216, 337, 165, 400, 196
-0.988236, 93, 17, 124, 144
-0.988362, 121, 277, 184, 308
-0.988376, 57, 193, 120, 224
-0.988445, 213, 1, 244, 128
-0.988463, 129, 289, 192, 320
-0.988544, 241, 165, 304, 196
-0.988588, 129, 209, 192, 240
-0.98862, 105, 117, 168, 148
-0.988744, 225, 153, 288, 184
-0.988833, 89, 201, 152, 232
-0.988846, 305, 325, 368, 356
-0.988851, 281, 81, 344, 112
-0.98886, 65, 201, 320, 264
-0.988916, 353, 181, 416, 212
-0.988917, 65, 257, 320, 320
-0.988927, 145, 277, 208, 308
-0.988981, 201, 265, 264, 296
-0.989005, 265, 281, 328, 312
-0.98901, 145, 153, 208, 184
-0.989036, 121, 233, 184, 264
-0.989072, 361, 325, 424, 356
-0.989075, 1, 89, 500, 152
-0.989087, 1, 281, 500, 344
-0.989095, 161, 169, 416, 232
-0.989116, 365, 209, 396, 336
-0.989143, 1, 121, 256, 184
-0.989159, 121, 245, 184, 276
-0.989192, 329, 141, 392, 172
-0.989243, 1, 169, 500, 232
-0.98928, 325, 33, 356, 160
-0.989286, 137, 221, 200, 252
-0.989298, 49, 305, 112, 336
-0.989314, 257, 121, 500, 184
-0.989322, 105, 165, 168, 196
-0.989358, 129, 305, 384, 368
-0.989361, 97, 305, 160, 336
-0.989366, 385, 313, 448, 344
-0.989426, 389, 241, 420, 368
-0.989434, 49, 209, 112, 240
-0.989436, 169, 141, 232, 172
-0.989452, 129, 265, 192, 296
-0.989462, 113, 137, 176, 168
-0.98948, 105, 149, 168, 180
-0.989491, 201, 205, 264, 236
-0.989502, 17, 297, 80, 328
-0.989549, 297, 145, 360, 176
-0.989587, 249, 145, 312, 176
-0.989589, 241, 273, 304, 304
-0.989637, 417, 293, 480, 324
-0.989648, 25, 201, 88, 232
-0.989654, 393, 121, 456, 152
-0.989662, 217, 129, 280, 160
-0.989668, 1, 89, 256, 152
-0.989682, 33, 117, 96, 148
-0.989689, 313, 165, 376, 196
-0.989691, 333, 241, 364, 368
-0.989699, 41, 241, 72, 368
-0.989788, 329, 1, 392, 375
-0.989815, 249, 33, 312, 64
-0.989829, 305, 93, 368, 124
-0.98983, 129, 197, 192, 228
-0.989865, 193, 145, 256, 176
-0.989872, 169, 273, 232, 304
-0.989945, 177, 129, 240, 160
-0.989978, 73, 181, 136, 212
-0.989988, 1, 125, 64, 156
-0.989988, 145, 141, 208, 172
-0.989988, 241, 89, 304, 120
-0.989995, 121, 305, 184, 336
-0.989999, 25, 217, 88, 248
-0.990001, 153, 209, 216, 240
-0.990006, 161, 97, 224, 128
-0.990011, 57, 117, 120, 148
-0.990013, 33, 25, 288, 88
-0.990014, 105, 261, 168, 292
-0.990016, 265, 269, 328, 300
-0.99002, 321, 241, 352, 368
-0.990057, 425, 197, 488, 228
-0.990065, 121, 101, 184, 132
-0.990066, 329, 153, 392, 184
-0.990133, 153, 261, 216, 292
-0.990136, 145, 125, 208, 156
-0.990142, 241, 181, 304, 212
-0.990145, 257, 205, 320, 236
-0.990149, 9, 189, 72, 220
-0.990154, 281, 313, 344, 344
-0.990163, 297, 209, 360, 240
-0.990176, 105, 213, 168, 244
-0.990207, 257, 289, 500, 352
-0.990208, 201, 161, 264, 192
-0.990212, 281, 169, 344, 200
-0.990219, 105, 177, 168, 208
-0.990267, 425, 125, 488, 156
-0.990342, 81, 289, 144, 320
-0.99035, 257, 169, 500, 232
-0.990367, 49, 293, 112, 324
-0.99037, 97, 105, 160, 136
-0.990386, 337, 129, 400, 160
-0.990414, 177, 161, 240, 192
-0.990417, 273, 37, 336, 68
-0.990423, 289, 281, 352, 312
-0.990426, 433, 277, 496, 308
-0.990438, 1, 33, 128, 96
-0.990455, 225, 141, 288, 172
-0.99047, 313, 337, 376, 368
-0.990472, 25, 309, 88, 340
-0.990475, 273, 293, 336, 324
-0.990475, 305, 313, 368, 344
-0.990488, 81, 213, 144, 244
-0.990506, 73, 301, 136, 332
-0.990512, 257, 129, 320, 160
-0.990525, 73, 269, 136, 300
-0.990526, 305, 293, 368, 324
-0.990526, 161, 229, 224, 260
-0.990534, 137, 317, 200, 348
-0.990551, 9, 285, 72, 316
-0.990555, 401, 197, 464, 228
-0.990569, 129, 41, 384, 104
-0.990579, 49, 281, 112, 312
-0.990595, 97, 97, 352, 160
-0.990617, 377, 189, 440, 220
-0.99062, 81, 121, 144, 152
-0.99062, 153, 293, 216, 324
-0.990621, 49, 221, 112, 252
-0.990644, 1, 289, 256, 352
-0.990672, 385, 337, 448, 368
-0.990676, 73, 105, 136, 136
-0.990697, 145, 169, 208, 200
-0.990713, 241, 261, 304, 292
-0.990722, 305, 81, 368, 112
-0.990724, 361, 341, 424, 372
-0.990725, 145, 109, 208, 140
-0.99075, 1, 201, 64, 232
-0.990778, 321, 201, 384, 232
-0.990798, 337, 333, 400, 364
-0.990802, 33, 85, 96, 116
-0.990802, 273, 149, 336, 180
-0.990813, 1, 261, 64, 292
-0.990818, 145, 305, 208, 336
-0.990821, 33, 189, 96, 220
-0.990825, 137, 85, 200, 116
-0.990829, 49, 101, 112, 132
-0.990843, 377, 289, 440, 320
-0.990847, 49, 317, 112, 348
-0.990849, 209, 225, 272, 256
-0.990883, 425, 265, 488, 296
-0.99091, 225, 209, 288, 240
-0.990913, 193, 201, 448, 264
-0.990914, 193, 97, 448, 160
-0.990917, 73, 313, 136, 344
-0.990921, 209, 81, 272, 112
-0.990925, 225, 45, 288, 76
-0.990928, 9, 109, 72, 140
-0.990943, 97, 273, 160, 304
-0.991202, 257, 313, 500, 375
-0.991253, 337, 1, 464, 128
-0.991272, 337, 73, 464, 136
-0.991459, 241, 145, 368, 176
-0.99148, 417, 1, 480, 375
-0.991592, 1, 1, 64, 128
-0.991635, 33, 57, 288, 120
-0.99167, 161, 225, 416, 288
-0.991687, 65, 233, 320, 296
-0.991696, 129, 65, 384, 128
-0.991963, 393, 1, 456, 375
-0.992024, 345, 165, 376, 196
-0.992062, 193, 121, 224, 152
-0.992063, 1, 313, 256, 375
-0.992066, 1, 1, 128, 64
-0.992147, 137, 209, 168, 240
-0.992153, 225, 41, 480, 104
-0.992195, 113, 201, 144, 232
-0.992216, 1, 193, 500, 256
-0.992237, 257, 265, 500, 328
-0.992237, 133, 289, 164, 320
-0.992253, 133, 269, 164, 300
-0.992254, 257, 161, 288, 192
-0.992269, 53, 201, 84, 232
-0.992279, 157, 205, 188, 236
-0.992283, 85, 193, 116, 224
-0.992315, 97, 181, 128, 212
-0.992316, 293, 273, 324, 304
-0.992318, 153, 157, 184, 188
-0.992343, 93, 301, 124, 332
-0.992347, 177, 269, 304, 300
-0.992357, 129, 145, 256, 176
-0.992363, 109, 293, 140, 324
-0.992372, 149, 273, 180, 304
-0.992377, 233, 201, 264, 232
-0.992378, 273, 281, 304, 312
-0.99238, 273, 197, 304, 228
-0.992394, 317, 321, 348, 352
-0.992401, 317, 77, 348, 108
-0.992403, 217, 265, 248, 296
-0.99244, 33, 197, 160, 228
-0.992444, 81, 301, 208, 332
-0.992466, 33, 293, 64, 324
-0.992468, 365, 165, 396, 196
-0.99247, 81, 305, 112, 336
-0.992475, 333, 145, 364, 176
-0.992483, 69, 213, 100, 244
-0.992488, 373, 329, 404, 360
-0.992495, 165, 217, 196, 248
-0.992509, 333, 157, 364, 188
-0.992515, 133, 225, 164, 256
-0.992517, 145, 317, 176, 348
-0.992545, 257, 185, 288, 216
-0.992545, 241, 269, 272, 300
-0.992548, 221, 209, 252, 240
-0.992549, 97, 197, 128, 228
-0.992549, 297, 205, 328, 236
-0.992559, 121, 281, 152, 312
-0.992566, 257, 89, 288, 120
-0.992572, 125, 205, 156, 236
-0.992581, 329, 89, 360, 120
-0.992582, 265, 141, 296, 172
-0.992586, 145, 225, 176, 256
-0.992587, 453, 277, 484, 308
-0.992593, 177, 277, 208, 308
-0.992594, 153, 101, 184, 132
-0.992605, 69, 305, 100, 336
-0.992606, 321, 145, 352, 176
-0.992606, 241, 85, 272, 116
-0.992617, 253, 273, 284, 304
-0.992618, 189, 269, 220, 300
-0.992626, 53, 305, 84, 336
-0.992635, 365, 177, 396, 208
-0.992645, 453, 129, 484, 160
-0.992648, 149, 237, 180, 268
-0.992656, 285, 205, 316, 236
-0.992661, 73, 197, 104, 228
-0.992665, 277, 185, 308, 216
-0.992672, 377, 173, 408, 204
-0.992672, 173, 141, 204, 172
-0.992674, 281, 265, 312, 296
-0.992675, 129, 17, 384, 80
-0.992679, 225, 149, 256, 180
-0.992681, 93, 121, 124, 152
-0.992699, 181, 217, 212, 248
-0.992701, 417, 197, 448, 228
-0.992704, 37, 205, 68, 236
-0.992706, 145, 193, 176, 224
-0.992706, 277, 173, 308, 204
-0.992712, 41, 117, 72, 148
-0.992713, 165, 285, 196, 316
-0.992716, 77, 117, 108, 148
-0.992718, 405, 313, 436, 344
-0.992724, 137, 101, 168, 132
-0.992726, 141, 329, 172, 360
-0.992726, 153, 297, 184, 328
-0.992727, 445, 289, 476, 320
-0.992729, 21, 281, 52, 312
-0.992732, 429, 297, 460, 328
-0.992733, 385, 325, 416, 356
-0.992735, 149, 137, 180, 168
-0.992742, 285, 81, 316, 112
-0.992751, 85, 181, 116, 212
-0.992752, 201, 269, 232, 300
-0.992753, 465, 133, 496, 164
-0.992754, 337, 201, 368, 232
-0.992756, 389, 185, 420, 216
-0.992756, 433, 197, 464, 228
-0.992756, 229, 265, 260, 296
-0.99276, 165, 229, 196, 260
-0.992761, 201, 141, 232, 172
-0.992763, 265, 173, 296, 204
-0.992765, 245, 165, 276, 196
-0.992767, 129, 301, 160, 332
-0.992768, 129, 213, 256, 244
-0.992768, 433, 121, 464, 152
-0.99278, 33, 305, 160, 336
-0.99278, 17, 241, 48, 272
-0.992781, 1, 257, 500, 320
-0.992783, 301, 285, 332, 316
-0.992787, 313, 309, 344, 340
-0.992787, 353, 125, 480, 156
-0.992788, 53, 117, 84, 148
-0.992798, 245, 213, 276, 244
-0.992801, 353, 129, 384, 160
-0.992804, 401, 185, 432, 216
-0.992804, 141, 345, 172, 375
-0.992805, 17, 201, 48, 232
-0.992807, 173, 169, 204, 200
-0.992808, 181, 129, 212, 160
-0.992809, 313, 209, 344, 240
-0.99281, 345, 141, 376, 172
-0.99281, 253, 129, 284, 160
-0.992811, 225, 41, 352, 72
-0.992813, 333, 133, 364, 164
-0.992815, 161, 265, 192, 296
-0.992816, 25, 229, 56, 260
-0.992816, 209, 213, 240, 244
-0.992817, 145, 285, 176, 316
-0.992818, 73, 185, 104, 216
-0.992819, 265, 25, 296, 56
-0.992821, 5, 133, 36, 164
-0.992822, 289, 29, 320, 60
-0.992827, 305, 325, 432, 356
-0.992828, 213, 141, 244, 172
-0.99283, 433, 321, 464, 352
-0.992831, 373, 141, 404, 172
-0.992831, 245, 141, 276, 172
-0.992831, 97, 209, 128, 240
-0.992833, 45, 317, 76, 348
-0.992833, 405, 337, 436, 368
-0.992833, 277, 145, 308, 176
-0.992835, 285, 289, 316, 320
-0.992838, 29, 121, 60, 152
-0.992839, 29, 193, 60, 224
-0.992845, 9, 189, 40, 220
-0.992846, 245, 197, 276, 228
-0.992858, 177, 33, 304, 96
-0.993035, 209, 209, 336, 240
-0.993043, 1, 117, 128, 148
-0.993073, 241, 169, 368, 200
-0.993162, 111, 169, 126, 232
-0.993176, 1, 33, 500, 96
-0.993267, 97, 125, 224, 156
-0.993295, 17, 293, 144, 324
-0.993296, 81, 289, 208, 320
-0.993302, 113, 273, 240, 304
-0.993329, 97, 169, 224, 200
-0.993333, 81, 209, 208, 240
-0.993378, 433, 1, 496, 256
-0.993383, 105, 177, 120, 240
-0.993408, 177, 161, 304, 192
-0.993454, 305, 341, 432, 372
-0.993584, 113, 97, 240, 128
-0.99359, 203, 137, 218, 200
-0.993659, 281, 169, 296, 232
-0.993727, 33, 317, 160, 348
-0.99374, 177, 137, 192, 200
-0.993744, 355, 161, 370, 224
-0.993789, 97, 257, 224, 288
-0.993793, 177, 141, 304, 172
-0.993799, 257, 145, 500, 208
-0.993816, 151, 281, 166, 344
-0.993825, 159, 265, 174, 328
-0.993841, 81, 157, 208, 188
-0.993843, 225, 81, 352, 112
-0.993858, 213, 121, 228, 184
-0.993867, 81, 181, 208, 212
-0.993869, 209, 197, 336, 228
-0.993869, 33, 209, 160, 240
-0.993873, 97, 177, 112, 240
-0.993916, 295, 265, 310, 328
-0.993974, 137, 201, 152, 264
-0.993995, 159, 193, 174, 256
-0.994011, 1, 217, 500, 280
-0.994021, 219, 137, 234, 200
-0.994022, 253, 169, 268, 232
-0.994053, 1, 129, 500, 192
-0.994088, 167, 145, 182, 208
-0.994098, 115, 121, 130, 184
-0.994103, 263, 129, 278, 192
-0.994109, 193, 121, 208, 184
-0.994112, 17, 185, 144, 216
-0.994123, 117, 281, 132, 344
-0.994139, 1, 57, 500, 120
-0.994207, 113, 197, 240, 228
-0.994209, 17, 233, 32, 296
-0.99421, 247, 185, 262, 248
-0.994212, 325, 137, 340, 200
-0.994225, 165, 177, 180, 240
-0.994252, 145, 233, 272, 264
-0.994267, 111, 289, 126, 352
-0.994289, 235, 201, 250, 264
-0.994322, 289, 137, 304, 200
-0.994329, 283, 137, 298, 200
-0.99434, 157, 217, 172, 280
-0.994346, 81, 109, 208, 140
-0.994347, 167, 201, 182, 264
-0.994347, 161, 257, 416, 320
-0.994351, 127, 257, 142, 320
-0.994355, 197, 97, 212, 160
-0.994374, 241, 157, 368, 188
-0.994384, 55, 297, 70, 360
-0.99439, 465, 265, 480, 328
-0.994394, 351, 137, 366, 200
-0.994395, 33, 1, 288, 64
-0.994402, 47, 289, 62, 352
-0.994427, 289, 157, 416, 188
-0.994434, 49, 29, 176, 60
-0.994439, 333, 137, 348, 200
-0.994446, 337, 189, 464, 220
-0.99445, 377, 129, 392, 192
-0.994466, 337, 313, 464, 344
-0.994475, 63, 193, 78, 256
-0.994476, 273, 137, 288, 200
-0.994488, 17, 129, 144, 160
-0.994491, 133, 265, 148, 328
-0.994494, 257, 281, 384, 312
-0.994496, 319, 305, 334, 368
-0.994496, 305, 301, 432, 332
-0.994516, 183, 137, 198, 200
-0.994522, 141, 289, 156, 352
-0.994524, 161, 281, 288, 312
-0.994528, 203, 97, 218, 160
-0.994529, 345, 137, 360, 200
-0.994545, 369, 145, 384, 208
-0.994559, 153, 121, 168, 184
-0.994567, 241, 153, 256, 216
-0.994567, 287, 169, 302, 232
-0.994596, 161, 129, 288, 160
-0.994598, 155, 153, 170, 216
-0.9946, 105, 289, 120, 352
-0.994633, 289, 169, 416, 200
-0.994641, 27, 193, 42, 256
-0.994658, 99, 297, 114, 360
-0.994659, 225, 137, 240, 200
-0.994673, 113, 245, 240, 276
-0.994673, 319, 137, 334, 200
-0.994681, 257, 129, 272, 192
-0.994696, 161, 177, 288, 208
-0.994699, 257, 241, 500, 304
-0.994717, 225, 69, 352, 100
-0.994726, 423, 305, 438, 368
-0.994734, 117, 161, 132, 224
-0.994741, 171, 281, 186, 344
-0.99478, 209, 97, 224, 160
-0.994793, 177, 169, 192, 232
-0.994803, 249, 1, 280, 256
-0.994809, 305, 201, 320, 264
-0.994815, 91, 177, 106, 240
-0.994815, 257, 97, 272, 160
-0.994816, 65, 269, 192, 300
-0.994817, 297, 169, 312, 232
-0.994825, 127, 201, 142, 264
-0.994827, 161, 129, 192, 375
-0.994832, 185, 97, 200, 160
-0.994839, 161, 201, 288, 232
-0.994857, 369, 289, 496, 320
-0.994869, 353, 301, 480, 332
-0.994873, 165, 257, 180, 320
-0.994875, 433, 297, 448, 360
-0.994875, 129, 157, 256, 188
-0.994886, 147, 313, 162, 375
-0.994893, 273, 133, 400, 164
-0.994894, 239, 41, 254, 104
-0.994896, 157, 297, 172, 360
-0.9949, 225, 73, 480, 136
-0.99491, 257, 93, 384, 124
-0.994923, 141, 129, 172, 375
-0.994931, 241, 193, 256, 256
-0.994932, 1, 137, 16, 200
-0.994935, 81, 137, 208, 168
-0.994939, 17, 281, 144, 312
-0.99494, 327, 49, 342, 112
-0.994941, 291, 193, 306, 256
-0.994952, 21, 265, 36, 328
-0.994958, 209, 281, 336, 312
-0.994975, 289, 257, 304, 320
-0.994982, 29, 225, 44, 288
-0.995001, 225, 269, 352, 300
-0.995013, 149, 209, 164, 272
-0.995015, 33, 101, 160, 132
-0.995023, 307, 137, 322, 200
-0.995023, 149, 257, 164, 320
-0.99503, 353, 325, 480, 356
-0.995049, 81, 313, 208, 344
-0.995057, 405, 313, 420, 375
-0.995057, 163, 289, 178, 352
-0.995057, 177, 81, 304, 112
-0.99507, 287, 281, 302, 344
-0.995074, 127, 281, 142, 344
-0.995082, 445, 289, 460, 352
-0.995086, 297, 137, 312, 200
-0.995092, 161, 153, 176, 216
-0.995094, 265, 153, 280, 216
-0.995121, 455, 281, 470, 344
-0.995124, 313, 137, 328, 200
-0.99513, 49, 73, 176, 104
-0.995154, 161, 189, 288, 220
-0.995174, 439, 289, 454, 352
-0.995178, 179, 273, 194, 336
-0.995182, 153, 185, 168, 248
-0.995186, 349, 161, 364, 224
-0.995192, 293, 1, 324, 256
-0.995195, 111, 97, 126, 160
-0.995204, 145, 105, 160, 168
-0.995205, 257, 193, 272, 256
-0.995214, 49, 221, 176, 252
-0.995214, 171, 169, 186, 232
-0.995227, 229, 201, 244, 264
-0.995239, 241, 185, 368, 216
-0.995242, 37, 201, 52, 264
-0.995247, 383, 161, 398, 224
-0.995254, 225, 17, 480, 80
-0.995258, 257, 265, 272, 328
-0.995262, 315, 201, 330, 264
-0.995264, 193, 93, 320, 124
-0.995268, 261, 1, 292, 256
-0.995281, 289, 313, 416, 344
-0.99529, 39, 289, 54, 352
-0.995309, 191, 97, 206, 160
-0.995313, 199, 265, 214, 328
-0.995314, 245, 73, 260, 136
-0.995323, 85, 185, 100, 248
-0.995325, 225, 221, 352, 252
-0.995329, 183, 209, 198, 272
-0.99533, 247, 161, 262, 224
-0.995336, 25, 97, 56, 352
-0.995336, 145, 257, 272, 288
-0.995344, 273, 273, 288, 336
-0.995355, 225, 29, 352, 60
-0.995362, 351, 97, 366, 160
-0.995362, 197, 217, 212, 280
-0.995366, 205, 241, 220, 304
-0.995366, 65, 85, 192, 116
-0.995366, 143, 201, 158, 264
-0.995369, 233, 145, 248, 208
-0.99539, 1, 173, 128, 204
-0.995393, 195, 241, 210, 304
-0.995395, 313, 281, 328, 344
-0.995396, 97, 233, 224, 264
-0.995403, 417, 313, 432, 375
-0.995418, 411, 313, 426, 375
-0.995426, 27, 273, 42, 336
-0.995436, 65, 245, 192, 276
-0.995453, 247, 41, 262, 104
-0.995461, 49, 333, 176, 364
-0.995466, 471, 265, 486, 328
-0.995467, 145, 117, 272, 148
-0.99548, 263, 265, 278, 328
-0.995483, 99, 273, 114, 336
-0.995514, 397, 313, 412, 375
-0.995517, 273, 161, 288, 224
-0.995528, 49, 345, 176, 375
-0.995548, 237, 1, 268, 256
-0.995578, 225, 133, 352, 164
-0.995579, 133, 1, 164, 256
-0.995644, 321, 137, 448, 168
-0.99566, 113, 97, 144, 352
-0.995691, 289, 209, 416, 240
-0.995713, 277, 1, 308, 256
-0.995731, 209, 257, 336, 288
-0.995739, 237, 97, 268, 352
-0.995743, 173, 129, 204, 375
-0.99575, 13, 97, 44, 352
-0.995754, 153, 1, 184, 256
-0.995766, 225, 57, 352, 88
-0.995781, 321, 113, 448, 144
-0.995788, 37, 97, 68, 352
-0.995822, 177, 105, 304, 136
-0.995824, 105, 1, 136, 256
-0.995845, 369, 137, 496, 168
-0.995871, 49, 61, 176, 92
-0.995876, 145, 69, 272, 100
-0.995885, 273, 261, 400, 292
-0.995906, 257, 197, 384, 228
-0.995916, 369, 201, 496, 232
-0.995933, 225, 309, 352, 340
-0.995935, 129, 293, 256, 324
-0.995941, 241, 121, 368, 152
-0.995951, 49, 97, 80, 352
-0.996066, 457, 97, 488, 352
-0.996107, 145, 25, 272, 56
-0.99612, 249, 97, 280, 352
-0.996154, 61, 33, 92, 288
-0.996194, 145, 53, 272, 84
-0.996219, 129, 313, 256, 344
-0.996231, 49, 169, 176, 200
-0.996235, 165, 1, 196, 256
-0.996252, 225, 293, 352, 324
-0.996271, 257, 325, 384, 356
-0.996273, 17, 233, 144, 264
-0.996276, 1, 97, 32, 352
-0.996281, 369, 177, 496, 208
-0.996303, 305, 1, 336, 256
-0.996309, 17, 257, 144, 288
-0.996329, 49, 45, 176, 76
-0.996337, 93, 1, 124, 256
-0.99636, 445, 97, 476, 352
-0.996368, 289, 181, 416, 212
-0.996446, 353, 337, 480, 368
-0.996448, 201, 97, 232, 352
-0.996451, 289, 249, 416, 280
-0.996462, 273, 81, 400, 112
-0.996465, 269, 97, 300, 352
-0.99648, 369, 277, 496, 308
-0.996488, 113, 325, 240, 356
-0.996545, 185, 129, 216, 375
-0.996547, 289, 25, 416, 56
-0.996623, 77, 1, 108, 256
-0.996627, 17, 269, 144, 300
-0.996634, 17, 89, 144, 120
-0.996654, 145, 41, 272, 72
-0.996668, 177, 221, 304, 252
-0.996676, 121, 1, 152, 256
-0.996703, 377, 97, 408, 352
-0.99675, 17, 157, 144, 188
-0.996752, 135, 205, 150, 236
-0.996762, 279, 181, 294, 212
-0.996774, 125, 97, 156, 352
-0.996819, 161, 245, 288, 276
-0.996867, 305, 69, 432, 100
-0.996878, 425, 97, 456, 352
-0.996893, 225, 245, 352, 276
-0.996898, 49, 17, 176, 48
-0.9969, 113, 85, 240, 116
-0.996938, 221, 1, 252, 256
-0.996939, 389, 97, 420, 352
-0.996961, 285, 97, 316, 352
-0.996985, 93, 129, 124, 375
-0.996999, 305, 289, 432, 320
-0.99702, 177, 1, 208, 256
-0.997036, 337, 213, 464, 244
-0.997038, 225, 337, 352, 368
-0.997038, 401, 97, 432, 352
-0.997089, 353, 9, 480, 72
-0.997097, 369, 237, 496, 268
-0.997104, 193, 1, 224, 256
-0.997109, 155, 101, 170, 132
-0.997111, 117, 293, 132, 324
-0.997122, 65, 129, 96, 375
-0.997124, 109, 297, 124, 328
-0.997126, 305, 53, 432, 84
-0.997142, 353, 257, 480, 288
-0.997144, 149, 213, 164, 244
-0.997149, 113, 13, 240, 44
-0.997168, 99, 185, 114, 216
-0.997187, 297, 97, 328, 352
-0.997206, 193, 233, 320, 264
-0.997206, 469, 269, 484, 300
-0.997214, 77, 97, 108, 352
-0.997234, 213, 129, 244, 375
-0.997238, 319, 317, 334, 348
-0.997239, 159, 197, 174, 228
-0.997253, 295, 269, 310, 300
-0.997254, 107, 177, 122, 208
-0.997259, 345, 129, 376, 375
-0.997266, 343, 157, 358, 188
-0.997293, 103, 301, 118, 332
-0.997313, 333, 77, 348, 108
-0.997333, 413, 97, 444, 352
-0.997335, 95, 305, 110, 336
-0.997336, 357, 129, 388, 375
-0.997348, 135, 281, 150, 312
-0.997362, 341, 141, 356, 172
-0.997366, 287, 197, 302, 228
-0.997376, 303, 209, 318, 240
-0.997403, 255, 89, 270, 120
-0.997422, 109, 197, 124, 228
-0.99743, 49, 1, 80, 256
-0.997432, 335, 141, 350, 172
-0.99744, 197, 125, 212, 156
-0.997451, 225, 97, 256, 352
-0.997458, 89, 305, 104, 336
-0.99746, 99, 197, 114, 228
-0.997461, 21, 233, 36, 264
-0.997461, 327, 81, 342, 112
-0.997468, 339, 89, 354, 120
-0.997468, 125, 289, 140, 320
-0.997469, 159, 237, 174, 268
-0.997473, 191, 125, 206, 156
-0.997484, 147, 285, 162, 316
-0.997496, 121, 197, 136, 228
-0.997496, 143, 209, 158, 240
-0.997497, 291, 289, 306, 320
-0.997507, 265, 137, 280, 168
-0.997514, 165, 205, 180, 236
-0.997515, 213, 141, 228, 172
-0.997517, 153, 281, 168, 312
-0.997524, 75, 269, 90, 300
-0.997524, 263, 273, 278, 304
-0.997524, 77, 205, 92, 236
-0.997537, 245, 201, 260, 232
-0.997557, 385, 1, 416, 256
-0.997558, 271, 277, 286, 308
-0.997559, 279, 169, 294, 200
-0.997566, 325, 317, 340, 348
-0.997577, 113, 177, 128, 208
-0.997589, 63, 205, 78, 236
-0.99759, 359, 165, 374, 196
-0.997592, 369, 161, 384, 192
-0.997617, 93, 189, 108, 220
-0.997619, 203, 269, 218, 300
-0.997623, 239, 205, 254, 236
-0.997623, 313, 209, 328, 240
-0.997626, 155, 157, 170, 188
-0.997626, 137, 221, 152, 252
-0.99763, 255, 269, 270, 300
-0.997633, 93, 117, 108, 148
-0.997635, 335, 157, 350, 188
-0.997643, 273, 161, 288, 192
-0.997651, 393, 177, 408, 208
-0.997652, 399, 181, 414, 212
-0.997654, 131, 265, 146, 296
-0.997659, 151, 257, 166, 288
-0.997666, 151, 305, 166, 336
-0.99767, 255, 101, 270, 132
-0.997672, 159, 269, 174, 300
-0.997673, 159, 225, 174, 256
-0.997682, 251, 193, 266, 224
-0.997686, 141, 277, 156, 308
-0.997687, 183, 217, 198, 248
-0.997691, 463, 129, 478, 160
-0.997691, 17, 245, 32, 276
-0.997699, 247, 81, 262, 112
-0.997706, 117, 165, 132, 196
-0.997718, 247, 161, 262, 192
-0.997719, 171, 145, 186, 176
-0.997722, 199, 145, 214, 176
-0.997723, 101, 121, 116, 152
-0.997725, 83, 305, 98, 336
-0.99773, 373, 329, 388, 360
-0.997731, 233, 149, 248, 180
-0.997735, 381, 129, 396, 160
-0.997737, 469, 97, 500, 352
-0.99774, 175, 213, 190, 244
-0.997745, 147, 269, 162, 300
-0.997748, 261, 157, 276, 188
-0.997756, 87, 193, 102, 224
-0.997765, 53, 297, 68, 328
-0.997767, 113, 129, 128, 160
-0.997771, 255, 177, 270, 208
-0.997778, 223, 145, 238, 176
-0.997778, 45, 293, 60, 324
-0.997783, 383, 329, 398, 360
-0.997786, 223, 213, 238, 244
-0.997787, 69, 193, 84, 224
-0.99779, 175, 281, 190, 312
-0.997793, 55, 217, 70, 248
-0.997795, 27, 225, 42, 256
-0.997796, 67, 217, 82, 248
-0.997797, 81, 189, 96, 220
-0.997798, 349, 165, 364, 196
-0.997798, 219, 265, 234, 296
-0.997798, 357, 33, 388, 288
-0.997799, 301, 277, 316, 308
-0.9978, 241, 265, 256, 296
-0.997803, 133, 297, 148, 328
-0.997803, 159, 297, 174, 328
-0.997812, 471, 133, 486, 164
-0.997815, 67, 305, 82, 336
-0.99782, 295, 201, 310, 232
-0.997822, 349, 189, 364, 220
-0.997822, 345, 93, 360, 124
-0.997826, 61, 305, 76, 336
-0.997829, 57, 197, 72, 228
-0.99783, 183, 277, 198, 308
-0.997831, 231, 265, 246, 296
-0.997834, 285, 185, 300, 216
-0.997835, 287, 81, 302, 112
-0.997836, 147, 109, 162, 140
-0.997843, 357, 325, 372, 356
-0.997849, 31, 293, 46, 324
-0.997852, 329, 53, 344, 84
-0.997853, 445, 121, 460, 152
-0.997853, 271, 141, 286, 172
-0.997853, 91, 177, 106, 208
-0.997853, 73, 305, 88, 336
-0.997856, 49, 197, 64, 228
-0.997858, 241, 157, 256, 188
-0.997859, 115, 197, 130, 228
-0.99786, 387, 169, 402, 200
-0.997999, 317, 33, 348, 288
-0.998023, 25, 1, 56, 256
-0.998157, 329, 1, 360, 256
-0.99823, 333, 97, 364, 352
-0.998298, 205, 1, 236, 256
-0.998312, 159, 225, 174, 352
-0.998374, 121, 281, 184, 296
-0.99839, 373, 1, 404, 256
-0.9984, 281, 83, 344, 98
-0.998402, 49, 209, 112, 224
-0.998404, 309, 129, 340, 375
-0.998428, 241, 199, 304, 214
-0.998431, 129, 213, 192, 228
-0.998435, 105, 301, 168, 316
-0.998438, 337, 181, 400, 196
-0.99844, 129, 275, 192, 290
-0.99844, 129, 207, 192, 222
-0.998442, 177, 143, 240, 158
-0.998443, 233, 163, 296, 178
-0.998443, 113, 291, 176, 306
-0.998445, 121, 231, 184, 246
-0.998445, 345, 33, 376, 288
-0.998446, 65, 199, 128, 214
-0.998449, 105, 167, 168, 182
-0.99845, 105, 207, 168, 222
-0.998451, 337, 175, 400, 190
-0.998452, 41, 217, 72, 232
-0.998452, 149, 249, 180, 264
-0.998452, 89, 181, 120, 196
-0.998452, 413, 1, 444, 256
-0.998453, 37, 293, 68, 308
-0.998456, 141, 333, 172, 348
-0.998456, 345, 187, 408, 202
-0.998456, 149, 243, 180, 258
-0.998457, 129, 301, 160, 316
-0.998457, 265, 183, 296, 198
-0.998457, 17, 289, 48, 304
-0.998458, 253, 275, 284, 290
-0.998458, 157, 299, 188, 314
-0.998459, 465, 275, 496, 290
-0.998459, 301, 215, 332, 230
-0.998459, 453, 289, 484, 304
-0.998459, 193, 269, 256, 284
-0.99846, 441, 125, 472, 140
-0.99846, 297, 323, 328, 338
-0.998461, 401, 193, 432, 208
-0.998461, 97, 211, 128, 226
-0.998462, 401, 317, 432, 332
-0.998462, 157, 275, 188, 290
-0.998462, 313, 147, 344, 162
-0.998462, 189, 273, 220, 288
-0.998463, 313, 341, 376, 356
-0.998463, 289, 211, 352, 226
-0.998463, 333, 93, 364, 108
-0.998463, 121, 225, 184, 240
-0.998463, 217, 213, 248, 228
-0.998463, 153, 97, 216, 112
-0.998463, 113, 211, 144, 226
-0.998464, 105, 175, 168, 190
-0.998464, 145, 287, 208, 302
-0.998464, 385, 183, 416, 198
-0.998464, 329, 139, 392, 154
-0.998465, 37, 303, 68, 318
-0.998465, 413, 335, 444, 350
-0.998466, 49, 309, 112, 324
-0.998466, 201, 217, 232, 232
-0.998466, 133, 235, 164, 250
-0.998466, 285, 203, 316, 218
-0.998466, 293, 271, 324, 286
-0.998468, 33, 123, 64, 138
-0.998468, 169, 289, 200, 304
-0.998469, 145, 201, 176, 216
-0.998469, 33, 205, 64, 220
-0.998469, 229, 159, 260, 174
-0.99847, 73, 193, 104, 208
-0.99847, 469, 141, 500, 156
-0.99847, 257, 283, 320, 298
-0.998471, 69, 219, 100, 234
-0.998471, 249, 205, 312, 220
-0.998471, 209, 213, 272, 228
-0.998471, 241, 271, 272, 286
-0.998471, 17, 299, 80, 314
-0.998472, 181, 97, 212, 112
-0.998473, 273, 145, 304, 160
-0.998473, 173, 219, 204, 234
-0.998473, 159, 145, 174, 272
-0.998473, 149, 109, 180, 124
-0.998474, 265, 173, 296, 188
-0.998474, 429, 197, 460, 212
-0.998475, 209, 145, 240, 160
-0.998475, 457, 197, 488, 212
-0.998476, 137, 113, 168, 128
-0.998476, 165, 233, 196, 248
-0.998476, 145, 359, 176, 374
-0.998477, 241, 169, 304, 184
-0.998478, 137, 293, 200, 308
-0.998479, 121, 247, 184, 262
-0.998479, 329, 165, 392, 180
-0.998479, 305, 77, 336, 92
-0.99848, 249, 155, 280, 170
-0.99848, 153, 145, 168, 272
-0.998481, 141, 351, 172, 366
-0.998481, 157, 97, 188, 112
-0.998483, 129, 299, 192, 314
-0.998483, 249, 141, 312, 156
-0.998485, 313, 319, 344, 334
-0.998485, 233, 275, 296, 290
-0.998486, 1, 9, 500, 72
-0.998486, 105, 119, 168, 134
-0.998486, 257, 85, 320, 100
-0.998486, 289, 145, 352, 160
-0.998486, 121, 239, 184, 254
-0.998486, 105, 309, 168, 324
-0.998486, 145, 327, 176, 342
-0.998487, 97, 125, 128, 140
-0.998487, 121, 219, 184, 234
-0.998488, 365, 165, 396, 180
-0.998488, 277, 167, 308, 182
-0.998488, 81, 119, 112, 134
-0.998489, 89, 213, 152, 228
-0.998489, 25, 205, 88, 220
-0.99849, 101, 199, 132, 214
-0.998492, 137, 101, 168, 116
-0.998492, 237, 87, 268, 102
-0.998493, 313, 213, 344, 228
-0.998493, 277, 287, 308, 302
-0.998493, 145, 281, 208, 296
-0.998494, 153, 151, 184, 166
-0.998494, 397, 185, 428, 200
-0.998495, 145, 159, 208, 174
-0.998495, 73, 199, 104, 214
-0.998495, 113, 161, 176, 176
-0.998497, 121, 253, 184, 268
-0.998497, 49, 117, 112, 132
-0.998497, 305, 335, 368, 350
-0.998497, 321, 145, 384, 160
-0.998498, 105, 149, 168, 164
-0.998498, 257, 37, 320, 52
-0.998499, 457, 283, 488, 298
-0.998499, 353, 337, 416, 352
-0.9985, 133, 229, 164, 244
-0.9985, 141, 223, 172, 238
-0.9985, 241, 193, 304, 208
-0.9985, 241, 199, 272, 214
-0.9985, 241, 175, 304, 190
-0.998501, 265, 289, 328, 304
-0.998502, 413, 195, 444, 210
-0.998503, 313, 209, 376, 224
-0.998503, 149, 237, 180, 252
-0.998503, 397, 1, 428, 256
-0.998504, 385, 321, 448, 336
-0.998504, 297, 287, 328, 302
-0.998504, 241, 91, 304, 106
-0.998504, 417, 299, 480, 314
-0.998505, 353, 135, 384, 150
-0.998505, 377, 191, 440, 206
-0.998506, 121, 155, 184, 170
-0.998507, 225, 143, 288, 158
-0.998507, 237, 205, 268, 220
-0.998507, 297, 93, 360, 108
-0.998508, 149, 311, 180, 326
-0.998508, 345, 169, 376, 184
-0.998509, 175, 129, 190, 256
-0.998509, 145, 269, 208, 284
-0.998511, 121, 259, 184, 274
-0.998511, 329, 163, 360, 178
-0.998511, 273, 189, 304, 204
-0.998512, 149, 157, 180, 172
-0.998512, 153, 213, 216, 228
-0.998513, 217, 207, 280, 222
-0.998514, 145, 219, 208, 234
-0.998514, 49, 219, 112, 234
-0.998516, 217, 157, 280, 172
-0.998516, 213, 113, 228, 240
-0.998516, 453, 131, 484, 146
-0.998517, 393, 197, 456, 212
-0.998517, 93, 305, 124, 320
-0.998518, 357, 337, 388, 352
-0.998519, 81, 303, 144, 318
-0.998519, 61, 213, 92, 228
-0.99852, 105, 125, 168, 140
-0.99852, 361, 181, 424, 196
-0.99852, 169, 219, 232, 234
-0.99852, 25, 295, 56, 310
-0.998522, 125, 287, 156, 302
-0.998523, 257, 91, 288, 106
-0.998523, 153, 275, 216, 290
-0.998523, 365, 173, 396, 188
-0.998524, 89, 265, 152, 280
-0.998525, 25, 305, 88, 320
-0.998525, 257, 141, 288, 156
-0.998525, 345, 203, 376, 218
-0.998526, 161, 235, 224, 250
-0.998526, 9, 293, 72, 308
-0.998526, 393, 121, 456, 136
-0.998526, 257, 269, 320, 284
-0.998527, 321, 151, 384, 166
-0.998527, 425, 293, 488, 308
-0.99853, 61, 199, 92, 214
-0.998531, 121, 141, 184, 156
-0.998531, 281, 281, 344, 296
-0.998531, 145, 321, 176, 336
-0.998532, 409, 309, 472, 324
-0.998533, 65, 191, 128, 206
-0.998534, 153, 281, 184, 296
-0.998534, 161, 103, 224, 118
-0.998535, 193, 163, 256, 178
-0.998536, 177, 143, 208, 158
-0.998536, 377, 327, 440, 342
-0.998536, 325, 87, 356, 102
-0.998536, 19, 225, 34, 352
-0.998537, 305, 329, 368, 344
-0.998537, 241, 213, 304, 228
-0.998537, 337, 157, 400, 172
-0.998537, 145, 173, 208, 188
-0.998538, 145, 119, 208, 134
-0.998538, 241, 187, 304, 202
-0.998538, 161, 241, 224, 256
-0.998538, 165, 129, 180, 256
-0.998538, 289, 217, 352, 232
-0.998538, 81, 273, 144, 288
-0.998538, 285, 83, 316, 98
-0.998538, 145, 229, 176, 244
-0.998538, 217, 137, 280, 152
-0.998539, 1, 127, 64, 142
-0.99854, 257, 147, 320, 162
-0.99854, 257, 277, 320, 292
-0.99854, 281, 313, 344, 328
-0.998541, 137, 271, 168, 286
-0.998542, 129, 97, 192, 112
-0.998542, 145, 141, 208, 156
-0.998542, 145, 127, 208, 142
-0.998542, 241, 181, 304, 196
-0.998543, 37, 1, 68, 256
-0.998543, 177, 137, 240, 152
-0.998543, 113, 265, 176, 280
-0.998544, 281, 319, 344, 334
-0.998544, 289, 287, 352, 302
-0.998546, 17, 195, 80, 210
-0.998547, 401, 315, 464, 330
-0.998547, 97, 315, 160, 330
-0.998547, 281, 275, 312, 290
-0.998548, 89, 25, 152, 40
-0.998548, 133, 209, 164, 224
-0.998548, 153, 263, 216, 278
-0.998549, 85, 191, 116, 206
-0.99855, 121, 201, 184, 216
-0.99855, 257, 163, 288, 178
-0.998551, 265, 211, 328, 226
-0.998551, 317, 331, 348, 346
-0.998552, 417, 197, 480, 212
-0.998552, 217, 269, 280, 284
-0.998555, 25, 219, 88, 234
-0.998555, 105, 181, 168, 196
-0.998555, 133, 295, 164, 310
-0.998556, 105, 131, 168, 146
-0.998556, 273, 295, 336, 310
-0.998558, 333, 143, 364, 158
-0.998559, 273, 199, 304, 214
-0.998559, 193, 123, 224, 138
-0.99856, 145, 287, 176, 302
-0.99856, 313, 83, 344, 98
-0.998561, 193, 97, 224, 112
-0.998562, 321, 207, 352, 222
-0.998566, 157, 213, 188, 228
-0.998568, 73, 213, 104, 228
-0.998576, 105, 299, 136, 314
-0.998577, 181, 129, 196, 256
-0.998583, 333, 207, 364, 222
-0.998584, 297, 209, 328, 224
-0.998584, 117, 293, 148, 308
-0.998586, 133, 281, 164, 296
-0.998589, 257, 191, 288, 206
-0.998591, 365, 179, 396, 194
-0.998592, 133, 215, 164, 230
-0.998596, 209, 193, 224, 320
-0.998599, 53, 205, 84, 220
-0.99861, 293, 281, 324, 296
-0.998615, 117, 205, 148, 220
-0.998623, 153, 207, 184, 222
-0.998639, 237, 177, 252, 304
-0.998645, 313, 325, 344, 340
-0.998645, 203, 193, 218, 320
-0.998645, 245, 193, 260, 320
-0.998653, 259, 81, 274, 208
-0.998655, 153, 97, 168, 224
-0.99868, 219, 193, 234, 320
-0.998699, 25, 225, 40, 352
-0.998702, 153, 209, 168, 336
-0.998725, 147, 129, 162, 256
-0.998736, 133, 17, 148, 144
-0.99874, 183, 193, 198, 320
-0.998742, 321, 81, 336, 208
-0.998749, 381, 113, 396, 240
-0.99875, 231, 177, 246, 304
-0.998752, 169, 193, 184, 320
-0.998753, 141, 209, 156, 336
-0.998754, 287, 113, 302, 240
-0.998757, 249, 17, 264, 144
-0.998757, 19, 177, 34, 304
-0.998761, 131, 209, 146, 336
-0.998767, 311, 81, 326, 208
-0.998771, 147, 17, 162, 144
-0.998773, 441, 1, 472, 256
-0.998781, 297, 209, 312, 336
-0.998782, 191, 113, 206, 240
-0.998782, 301, 113, 316, 240
-0.998797, 393, 113, 408, 240
-0.998797, 257, 17, 272, 144
-0.99881, 277, 81, 292, 208
-0.998813, 25, 177, 40, 304
-0.998822, 331, 81, 346, 208
-0.998829, 177, 209, 192, 336
-0.998832, 265, 81, 280, 208
-0.998834, 251, 193, 266, 320
-0.998837, 13, 113, 28, 240
-0.998839, 351, 129, 366, 256
-0.998846, 147, 225, 162, 352
-0.998854, 103, 113, 118, 240
-0.998856, 225, 177, 240, 304
-0.998858, 279, 17, 294, 144
-0.998862, 207, 113, 222, 240
-0.998862, 165, 241, 180, 368
-0.998864, 113, 81, 128, 208
-0.998869, 257, 129, 272, 256
-0.998873, 293, 129, 308, 256
-0.998876, 251, 97, 266, 224
-0.998878, 199, 129, 214, 256
-0.998881, 189, 209, 204, 336
-0.998881, 197, 209, 212, 336
-0.998893, 181, 81, 196, 208
-0.998893, 291, 241, 306, 368
-0.998895, 5, 129, 20, 256
-0.998901, 315, 129, 330, 256
-0.998902, 263, 17, 278, 144
-0.998903, 315, 33, 330, 160
-0.99891, 425, 1, 456, 256
-0.998913, 159, 97, 174, 224
-0.998923, 67, 33, 82, 160
-0.998925, 5, 1, 36, 256
-0.998929, 327, 129, 342, 256
-0.998931, 455, 241, 470, 368
-0.998937, 387, 113, 402, 240
-0.99894, 139, 17, 154, 144
-0.998942, 337, 129, 352, 256
-0.998946, 61, 33, 76, 160
-0.998946, 345, 129, 360, 256
-0.998949, 19, 113, 34, 240
-0.99895, 477, 129, 492, 256
-0.998951, 467, 241, 482, 368
-0.998951, 119, 17, 134, 144
-0.998954, 369, 33, 496, 96
-0.998955, 285, 17, 300, 144
-0.998955, 117, 129, 132, 256
-0.998956, 127, 17, 142, 144
-0.998958, 235, 129, 250, 256
-0.998959, 153, 33, 168, 160
-0.998963, 243, 49, 258, 176
-0.998965, 31, 225, 46, 352
-0.998966, 175, 81, 190, 208
-0.998969, 299, 161, 314, 288
-0.998976, 257, 193, 272, 320
-0.998983, 63, 225, 78, 352
-0.998987, 307, 129, 322, 256
-0.998989, 287, 65, 302, 192
-0.998991, 327, 33, 342, 160
-0.998991, 219, 113, 234, 240
-0.998992, 443, 241, 458, 368
-0.998997, 111, 129, 126, 256
-0.998997, 305, 225, 320, 352
-0.998997, 107, 209, 122, 336
-0.999, 281, 129, 296, 256
-0.999007, 309, 33, 324, 160
-0.999009, 271, 81, 286, 208
-0.999009, 357, 177, 372, 304
-0.999009, 73, 193, 88, 320
-0.99901, 101, 161, 116, 288
-0.999011, 57, 209, 72, 336
-0.999011, 99, 241, 114, 368
-0.999015, 269, 17, 284, 144
-0.999016, 471, 113, 486, 240
-0.999019, 143, 65, 158, 192
-0.99902, 95, 193, 110, 320
-0.999024, 321, 129, 336, 256
-0.999027, 303, 65, 318, 192
-0.999035, 227, 129, 242, 256
-0.999036, 387, 161, 402, 288
-0.999039, 251, 145, 266, 272
-0.999052, 191, 161, 206, 288
-0.999055, 123, 113, 138, 240
-0.999057, 227, 225, 242, 352
-0.999061, 399, 113, 414, 240
-0.999063, 467, 177, 482, 304
-0.999063, 203, 241, 218, 368
-0.999064, 165, 81, 180, 208
-0.999065, 297, 17, 312, 144
-0.999068, 485, 129, 500, 256
-0.999082, 241, 129, 256, 256
-0.999086, 465, 113, 480, 240
-0.99909, 237, 225, 252, 352
-0.999091, 11, 177, 26, 304
-0.999094, 121, 177, 136, 304
-0.999096, 297, 65, 312, 192
-0.9991, 457, 113, 472, 240
-0.999102, 357, 113, 372, 240
-0.999102, 287, 177, 302, 304
-0.999116, 453, 1, 484, 256
-0.999416, 465, 1, 496, 256
-0.999433, 321, 129, 352, 375
-0.999549, 409, 17, 472, 144
-0.999631, 141, 293, 156, 308
-0.999632, 115, 173, 130, 188
-0.999633, 455, 315, 470, 330
-0.999633, 395, 323, 410, 338
-0.999633, 287, 281, 302, 296
-0.999634, 321, 85, 336, 100
-0.999634, 89, 211, 104, 226
-0.999634, 289, 195, 304, 210
-0.999635, 345, 99, 360, 114
-0.999635, 135, 221, 150, 236
-0.999635, 391, 187, 406, 202
-0.999635, 153, 219, 168, 234
-0.999635, 121, 169, 136, 184
-0.999635, 165, 291, 180, 306
-0.999635, 111, 299, 126, 314
-0.999636, 463, 131, 478, 146
-0.999636, 139, 275, 154, 290
-0.999638, 119, 309, 134, 324
-0.999638, 171, 287, 186, 302
-0.999638, 97, 213, 112, 228
-0.999639, 189, 141, 204, 156
-0.99964, 145, 211, 160, 226
-0.99964, 157, 275, 172, 290
-0.99964, 443, 323, 458, 338
-0.99964, 105, 265, 120, 280
-0.99964, 313, 217, 328, 232
-0.99964, 359, 169, 374, 184
-0.999641, 159, 237, 174, 252
-0.999641, 325, 207, 340, 222
-0.999641, 307, 283, 322, 298
-0.999642, 279, 199, 294, 214
-0.999642, 327, 87, 342, 102
-0.999642, 329, 145, 344, 160
-0.999642, 113, 131, 128, 146
-0.999642, 179, 281, 194, 296
-0.999643, 125, 305, 140, 320
-0.999644, 357, 197, 372, 212
-0.999644, 435, 327, 450, 342
-0.999645, 325, 321, 340, 336
-0.999645, 367, 337, 382, 352
-0.999645, 97, 121, 112, 136
-0.999646, 205, 121, 220, 136
-0.999646, 283, 169, 298, 184
-0.999646, 385, 173, 400, 188
-0.999647, 71, 277, 86, 292
-0.999649, 259, 133, 274, 148
-0.999649, 313, 289, 328, 304
-0.999649, 131, 267, 146, 282
-0.999649, 157, 195, 172, 210
-0.99965, 245, 203, 260, 218
-0.999651, 297, 279, 312, 294
-0.999652, 21, 241, 36, 256
-0.999652, 295, 267, 310, 282
-0.999652, 25, 233, 40, 248
-0.999652, 341, 93, 356, 108
-0.999653, 45, 205, 60, 220
-0.999653, 449, 319, 464, 334
-0.999655, 65, 229, 80, 244
-0.999656, 125, 295, 140, 310
-0.999657, 431, 301, 446, 316
-0.999658, 119, 291, 134, 306
-0.999658, 345, 141, 360, 156
-0.999658, 423, 195, 438, 210
-0.999658, 409, 189, 424, 204
-0.999658, 113, 199, 128, 214
-0.999659, 287, 287, 302, 302
-0.999659, 135, 287, 150, 302
-0.99966, 103, 123, 118, 138
-0.999661, 325, 327, 340, 342
-0.999661, 175, 215, 190, 230
-0.999661, 149, 283, 164, 298
-0.999661, 75, 199, 90, 214
-0.999662, 151, 313, 166, 328
-0.999664, 31, 227, 46, 242
-0.999664, 63, 203, 78, 218
-0.999664, 337, 155, 352, 170
-0.999665, 101, 183, 116, 198
-0.999665, 191, 97, 206, 112
-0.999665, 213, 139, 228, 154
-0.999667, 369, 163, 384, 178
-0.999668, 63, 217, 78, 232
-0.999669, 137, 227, 152, 242
-0.999669, 147, 273, 162, 288
-0.999669, 395, 181, 410, 196
-0.99967, 273, 165, 288, 180
-0.999672, 295, 205, 310, 220
-0.999673, 351, 203, 366, 218
-0.999673, 257, 97, 272, 112
-0.999675, 361, 339, 376, 354
-0.999675, 317, 319, 332, 334
-0.999676, 47, 293, 62, 308
-0.999676, 335, 89, 350, 104
-0.999677, 57, 207, 72, 222
-0.999677, 283, 193, 298, 208
-0.999678, 261, 139, 276, 154
-0.999679, 343, 205, 358, 220
-0.999679, 197, 97, 212, 112
-0.999682, 205, 97, 220, 112
-0.999682, 69, 201, 84, 216
-0.999682, 129, 283, 144, 298
-0.999683, 137, 207, 152, 222
-0.999684, 133, 299, 148, 314
-0.999684, 121, 205, 136, 220
-0.999685, 169, 209, 184, 224
-0.999687, 401, 185, 416, 200
-0.999687, 125, 289, 140, 304
-0.999687, 251, 87, 266, 102
-0.999689, 335, 145, 350, 160
-0.99969, 259, 89, 274, 104
-0.99969, 371, 169, 386, 184
-0.999691, 289, 201, 304, 216
-0.999693, 85, 193, 100, 208
-0.999693, 433, 197, 448, 212
-0.999695, 137, 281, 152, 296
-0.999696, 253, 197, 268, 212
-0.999698, 77, 273, 92, 288
-0.9997, 171, 149, 186, 164
-0.999702, 153, 159, 168, 174
-0.999703, 341, 161, 356, 176
-0.999707, 469, 271, 484, 286
-0.999709, 335, 207, 350, 222
-0.999711, 129, 203, 144, 218
-0.999713, 195, 123, 210, 138
-0.999714, 77, 213, 92, 228
-0.999717, 295, 273, 310, 288
-0.999718, 161, 201, 176, 216
-0.999721, 317, 211, 332, 226
-0.999729, 93, 189, 108, 204
-0.999762, 279, 185, 294, 200
-0.999764, 319, 325, 334, 340
-1.00024, 369, 1, 432, 128
-1.00282, 177, 313, 304, 375
-1.00965, 433, 17, 496, 144
