1883
-0.343158, 1, 65, 500, 320
-0.41901, 1, 1, 500, 333
-0.468426, 65, 1, 320, 333
-0.590371, 33, 65, 288, 320
-0.614457, 161, 1, 416, 333
-0.615435, 257, 1, 500, 333
-0.6313, 129, 65, 384, 320
-0.664831, 257, 65, 500, 320
-0.820433, 81, 1, 208, 256
-0.852727, 129, 65, 256, 320
-0.853646, 49, 1, 176, 333
-0.854346, 369, 33, 496, 288
-0.85587, 1, 1, 128, 333
-0.866494, 321, 65, 448, 320
-0.867205, 1, 1, 500, 128
-0.867636, 369, 1, 496, 333
-0.868908, 1, 113, 500, 240
-0.875307, 113, 1, 240, 333
-0.876419, 33, 65, 160, 320
-0.887882, 1, 161, 500, 288
-0.889987, 1, 49, 500, 176
-0.894164, 289, 1, 416, 333
-0.896058, 225, 65, 352, 320
-0.897253, 177, 65, 304, 320
-0.905288, 1, 209, 500, 333
-0.908378, 161, 1, 288, 333
-0.911196, 209, 1, 336, 333
-0.91648, 97, 177, 352, 304
-0.916513, 161, 129, 416, 256
-0.917302, 273, 65, 400, 320
-0.921567, 33, 97, 288, 224
-0.92484, 1, 193, 256, 320
-0.931542, 257, 177, 500, 304
-0.935977, 33, 17, 288, 144
-0.939468, 81, 1, 208, 128
-0.939726, 145, 113, 272, 240
-0.940178, 377, 81, 440, 208
-0.940348, 145, 177, 208, 304
-0.940526, 113, 113, 176, 240
-0.941014, 369, 65, 496, 192
-0.943841, 257, 129, 500, 256
-0.944764, 289, 129, 416, 256
-0.945858, 289, 209, 352, 333
-0.946209, 49, 193, 176, 320
-0.946689, 89, 1, 152, 128
-0.948415, 209, 129, 336, 256
-0.949191, 97, 193, 224, 320
-0.949267, 97, 161, 160, 288
-0.949409, 65, 17, 128, 144
-0.949598, 297, 225, 360, 288
-0.950007, 81, 97, 208, 224
-0.951198, 153, 81, 216, 208
-0.951238, 113, 1, 176, 128
-0.952117, 193, 113, 256, 240
-0.952871, 329, 113, 392, 240
-0.952871, 17, 65, 144, 192
-0.952876, 145, 177, 272, 304
-0.953197, 353, 97, 416, 224
-0.953242, 65, 193, 128, 320
-0.953415, 257, 81, 500, 208
-0.953421, 409, 49, 472, 176
-0.953437, 145, 193, 208, 256
-0.953744, 41, 217, 104, 280
-0.954262, 321, 81, 448, 208
-0.954356, 65, 49, 192, 176
-0.954415, 417, 57, 480, 120
-0.954786, 273, 129, 336, 256
-0.954818, 209, 177, 336, 304
-0.955425, 169, 185, 232, 248
-0.955465, 89, 97, 152, 224
-0.955859, 89, 89, 152, 152
-0.955953, 1, 145, 256, 272
-0.956532, 1, 233, 64, 296
-0.956718, 321, 177, 448, 304
-0.957227, 129, 81, 384, 208
-0.95742, 89, 17, 152, 80
-0.957703, 113, 1, 176, 256
-0.957902, 297, 257, 360, 320
-0.957986, 121, 193, 184, 320
-0.958339, 433, 33, 496, 160
-0.959057, 217, 129, 280, 256
-0.959244, 433, 209, 496, 333
-0.959636, 25, 209, 88, 333
-0.960867, 369, 169, 432, 232
-0.961023, 65, 145, 192, 272
-0.961074, 49, 49, 112, 112
-0.961456, 297, 201, 360, 264
-0.96152, 169, 177, 232, 304
-0.961815, 65, 81, 128, 208
-0.961964, 297, 161, 360, 288
-0.962474, 65, 209, 128, 272
-0.962601, 377, 89, 440, 152
-0.963055, 65, 145, 128, 272
-0.963061, 369, 177, 496, 304
-0.963458, 153, 97, 216, 160
-0.963832, 161, 33, 416, 160
-0.963919, 249, 129, 312, 256
-0.963932, 369, 161, 432, 288
-0.964091, 113, 201, 176, 264
-0.964287, 305, 113, 368, 240
-0.9643, 1, 209, 128, 333
-0.964471, 1, 193, 64, 320
-0.964576, 89, 49, 152, 176
-0.965733, 97, 113, 160, 176
-0.965841, 145, 129, 208, 256
-0.966067, 145, 1, 208, 64
-0.966278, 25, 241, 88, 304
-0.966373, 89, 1, 152, 256
-0.966422, 97, 177, 160, 240
-0.966512, 193, 177, 256, 240
-0.966751, 401, 33, 464, 288
-0.966864, 145, 65, 208, 320
-0.967275, 113, 9, 176, 72
-0.967345, 337, 129, 464, 256
-0.967675, 425, 209, 488, 272
-0.967749, 377, 193, 440, 256
-0.967799, 89, 225, 152, 288
-0.967916, 169, 65, 232, 320
-0.96794, 321, 193, 384, 256
-0.967976, 17, 17, 144, 144
-0.968339, 89, 49, 152, 112
-0.968614, 273, 185, 336, 248
-0.968831, 185, 105, 248, 168
-0.968839, 257, 177, 384, 304
-0.968952, 17, 145, 144, 272
-0.96896, 89, 209, 152, 333
-0.969003, 57, 73, 120, 136
-0.969018, 17, 209, 80, 272
-0.969041, 265, 209, 328, 333
-0.969249, 73, 113, 136, 176
-0.969333, 385, 81, 416, 208
-0.96965, 65, 17, 128, 80
-0.97012, 329, 129, 392, 192
-0.970206, 409, 177, 472, 240
-0.970592, 113, 97, 144, 224
-0.970834, 137, 217, 200, 280
-0.970835, 417, 161, 480, 288
-0.970856, 369, 65, 432, 320
-0.971108, 41, 1, 104, 128
-0.971137, 49, 241, 112, 304
-0.971249, 129, 105, 256, 168
-0.971285, 345, 169, 408, 232
-0.971535, 137, 1, 200, 128
-0.97157, 321, 177, 384, 304
-0.971714, 93, 25, 124, 88
-0.971844, 305, 217, 336, 280
-0.971893, 49, 209, 176, 272
-0.972468, 145, 169, 208, 232
-0.9726, 185, 209, 248, 272
-0.972789, 105, 161, 136, 288
-0.972803, 241, 81, 368, 208
-0.97291, 97, 1, 128, 128
-0.972919, 393, 65, 456, 128
-0.973381, 181, 185, 212, 248
-0.973508, 113, 89, 176, 152
-0.973605, 45, 225, 76, 288
-0.973833, 369, 113, 432, 176
-0.97427, 61, 225, 92, 288
-0.974318, 393, 161, 456, 288
-0.974385, 89, 201, 152, 264
-0.974555, 81, 9, 208, 72
-0.974715, 225, 121, 288, 184
-0.974752, 197, 177, 228, 240
-0.975228, 353, 193, 416, 256
-0.975243, 433, 33, 496, 96
-0.975255, 129, 65, 256, 192
-0.975345, 145, 185, 272, 248
-0.975367, 401, 217, 464, 280
-0.975535, 65, 65, 128, 320
-0.975656, 105, 17, 136, 80
-0.975714, 81, 201, 112, 264
-0.97574, 353, 145, 416, 208
-0.975777, 313, 169, 376, 232
-0.975874, 389, 169, 420, 232
-0.975883, 97, 209, 224, 272
-0.975922, 105, 209, 136, 272
-0.976062, 337, 105, 400, 168
-0.976084, 193, 161, 256, 288
-0.976177, 461, 33, 492, 96
-0.976182, 81, 73, 208, 136
-0.976214, 273, 209, 336, 272
-0.97631, 369, 177, 496, 240
-0.976502, 125, 113, 156, 240
-0.97656, 145, 113, 176, 240
-0.976575, 157, 161, 188, 288
-0.976602, 305, 193, 432, 256
-0.976691, 17, 233, 144, 296
-0.976697, 25, 161, 88, 288
-0.976732, 169, 129, 232, 256
-0.976748, 381, 121, 412, 184
-0.976749, 257, 241, 320, 304
-0.976865, 193, 129, 256, 192
-0.976903, 257, 121, 320, 184
-0.976906, 313, 177, 344, 304
-0.976918, 209, 153, 272, 216
-0.976976, 105, 153, 168, 216
-0.97698, 185, 65, 248, 192
-0.977264, 21, 225, 52, 288
-0.97727, 169, 161, 232, 224
-0.977302, 425, 49, 456, 176
-0.977321, 161, 217, 224, 280
-0.977416, 113, 49, 176, 176
-0.977497, 209, 201, 336, 264
-0.977498, 137, 161, 168, 288
-0.977568, 121, 113, 184, 176
-0.977606, 81, 33, 112, 96
-0.977701, 401, 81, 432, 208
-0.977742, 173, 177, 204, 304
-0.977826, 409, 209, 472, 333
-0.977847, 225, 81, 288, 208
-0.977942, 33, 89, 96, 152
-0.977954, 313, 185, 344, 248
-0.97808, 125, 1, 156, 64
-0.978137, 77, 17, 108, 144
-0.978187, 257, 1, 500, 128
-0.978299, 97, 185, 224, 248
-0.978312, 97, 73, 128, 136
-0.978384, 425, 33, 488, 288
-0.978394, 81, 105, 208, 168
-0.978399, 217, 185, 280, 248
-0.978497, 73, 177, 136, 240
-0.978505, 345, 113, 376, 240
-0.978586, 385, 89, 416, 152
-0.978755, 345, 65, 408, 320
-0.978819, 425, 57, 456, 120
-0.978859, 113, 1, 176, 333
-0.979, 369, 89, 496, 152
-0.979109, 321, 265, 352, 328
-0.979318, 157, 97, 188, 224
-0.979356, 61, 193, 92, 320
-0.979467, 461, 209, 492, 333
-0.97947, 193, 65, 320, 192
-0.979494, 241, 225, 368, 288
-0.979501, 385, 193, 416, 256
-0.979544, 157, 1, 188, 64
-0.979635, 1, 233, 32, 296
-0.979639, 33, 241, 64, 304
-0.97964, 93, 161, 124, 288
-0.979852, 257, 129, 384, 192
-0.979864, 249, 201, 312, 264
-0.98003, 101, 97, 132, 224
-0.980035, 433, 265, 496, 328
-0.980041, 281, 129, 344, 192
-0.980045, 93, 1, 124, 64
-0.980048, 329, 129, 360, 256
-0.980056, 377, 169, 408, 232
-0.980059, 1, 33, 128, 96
-0.980093, 129, 209, 160, 272
-0.980139, 41, 9, 104, 72
-0.980203, 309, 129, 340, 256
-0.980227, 97, 49, 128, 112
-0.980259, 369, 113, 400, 240
-0.980273, 169, 81, 200, 208
-0.9803, 125, 161, 156, 288
-0.980337, 377, 145, 408, 208
-0.980376, 1, 81, 128, 144
-0.980383, 289, 169, 416, 232
-0.98039, 305, 65, 368, 320
-0.98041, 117, 113, 148, 176
-0.980424, 261, 129, 292, 256
-0.980486, 289, 249, 416, 312
-0.980513, 193, 65, 256, 320
-0.980561, 217, 113, 248, 240
-0.980603, 89, 1, 152, 333
-0.980674, 449, 33, 480, 160
-0.980699, 317, 209, 348, 272
-0.9808, 293, 129, 324, 256
-0.980837, 121, 177, 184, 240
-0.980854, 469, 17, 500, 144
-0.980937, 409, 177, 440, 240
-0.980968, 145, 1, 176, 128
-0.981033, 113, 177, 144, 240
-0.981045, 65, 153, 128, 216
-0.981061, 1, 209, 128, 272
-0.98111, 305, 121, 368, 184
-0.981133, 281, 129, 312, 256
-0.981232, 169, 185, 200, 248
-0.981283, 73, 193, 104, 320
-0.981334, 145, 105, 176, 168
-0.981424, 385, 33, 448, 160
-0.981505, 389, 129, 420, 256
-0.981599, 397, 81, 428, 144
-0.981614, 369, 65, 496, 128
-0.981628, 73, 225, 104, 288
-0.981677, 113, 225, 176, 288
-0.981689, 201, 97, 232, 224
-0.981697, 289, 105, 416, 168
-0.981833, 149, 193, 180, 256
-0.98194, 145, 209, 272, 272
-0.981999, 81, 241, 208, 304
-0.982116, 417, 241, 480, 304
-0.98213, 113, 209, 144, 333
-0.98227, 57, 1, 120, 333
-0.982276, 49, 209, 80, 333
-0.982341, 193, 177, 320, 240
-0.982341, 289, 241, 320, 304
-0.982367, 289, 33, 416, 160
-0.982391, 161, 97, 192, 160
-0.982397, 453, 209, 484, 272
-0.982409, 305, 249, 336, 312
-0.982416, 437, 57, 468, 120
-0.98247, 241, 257, 368, 320
-0.982487, 345, 161, 408, 288
-0.982492, 161, 209, 192, 272
-0.982558, 289, 225, 416, 288
-0.982671, 209, 129, 336, 192
-0.982777, 241, 177, 368, 240
-0.982812, 117, 89, 148, 152
-0.982826, 401, 113, 464, 240
-0.982862, 33, 217, 64, 280
-0.982877, 249, 129, 280, 256
-0.982935, 365, 161, 396, 224
-0.983028, 149, 217, 180, 280
-0.983043, 93, 209, 124, 272
-0.98306, 325, 177, 356, 240
-0.983162, 413, 65, 444, 128
-0.983295, 117, 1, 148, 128
-0.983317, 65, 49, 192, 112
-0.983385, 189, 81, 220, 208
-0.983397, 161, 33, 224, 160
-0.983431, 137, 1, 168, 64
-0.983484, 273, 65, 336, 320
-0.983514, 281, 81, 344, 208
-0.983627, 13, 193, 44, 320
-0.98367, 329, 65, 392, 192
-0.983725, 425, 1, 488, 333
-0.983758, 369, 17, 496, 144
-0.983891, 201, 105, 232, 168
-0.983905, 329, 241, 392, 304
-0.983924, 413, 49, 444, 176
-0.983968, 93, 113, 124, 176
-0.983973, 185, 161, 216, 288
-0.984028, 325, 209, 356, 333
-0.984078, 225, 97, 288, 160
-0.984086, 305, 129, 432, 192
-0.984118, 301, 185, 332, 248
-0.984166, 1, 193, 32, 320
-0.984358, 89, 233, 120, 296
-0.984477, 309, 273, 340, 333
-0.984489, 17, 105, 144, 168
-0.984507, 81, 89, 112, 152
-0.984521, 321, 233, 352, 296
-0.984574, 177, 89, 208, 152
-0.984593, 217, 113, 248, 176
-0.984601, 125, 65, 156, 192
-0.984618, 301, 177, 332, 304
-0.984632, 133, 97, 164, 160
-0.984658, 341, 129, 372, 192
-0.984726, 145, 1, 208, 333
-0.984729, 89, 97, 120, 224
-0.984753, 449, 41, 480, 104
-0.98482, 93, 49, 124, 176
-0.984882, 257, 201, 384, 264
-0.984897, 61, 201, 92, 264
-0.984922, 389, 145, 420, 208
-0.984965, 401, 1, 464, 333
-0.985049, 369, 201, 496, 264
-0.985082, 101, 177, 132, 240
-0.985113, 17, 185, 80, 248
-0.985115, 209, 105, 336, 168
-0.985166, 445, 193, 476, 320
-0.98519, 373, 97, 404, 160
-0.985266, 125, 177, 156, 240
-0.985301, 33, 9, 160, 72
-0.985325, 73, 249, 136, 312
-0.985342, 397, 193, 428, 256
-0.985354, 117, 209, 148, 272
-0.985455, 365, 129, 396, 192
-0.98548, 129, 1, 256, 128
-0.985483, 113, 233, 144, 296
-0.985542, 353, 113, 480, 176
-0.985556, 129, 145, 192, 208
-0.985614, 129, 81, 256, 144
-0.985634, 437, 217, 468, 280
-0.985667, 129, 129, 256, 192
-0.98568, 1, 57, 128, 120
-0.985804, 209, 185, 240, 248
-0.985807, 137, 65, 168, 192
-0.985817, 169, 129, 200, 256
-0.985886, 289, 201, 320, 264
-0.985888, 25, 193, 56, 320
-0.985907, 353, 49, 416, 176
-0.985936, 125, 153, 156, 216
-0.98594, 329, 217, 392, 280
-0.985948, 289, 273, 416, 333
-0.985951, 377, 137, 440, 200
-0.986054, 37, 193, 68, 320
-0.986074, 129, 1, 160, 128
-0.986148, 173, 225, 204, 288
-0.986159, 289, 161, 352, 224
-0.986277, 437, 49, 468, 176
-0.986305, 237, 129, 268, 256
-0.986345, 317, 129, 348, 192
-0.986452, 281, 121, 312, 184
-0.986475, 233, 145, 296, 208
-0.986545, 121, 65, 184, 128
-0.986565, 97, 153, 224, 216
-0.986581, 377, 1, 440, 333
-0.986679, 1, 257, 64, 320
-0.986689, 417, 209, 448, 272
-0.986763, 45, 249, 76, 312
-0.986862, 81, 65, 112, 128
-0.986884, 241, 193, 304, 320
-0.986885, 189, 97, 220, 160
-0.986937, 9, 201, 40, 264
-0.986955, 337, 185, 368, 248
-0.986968, 105, 153, 136, 216
-0.986972, 465, 209, 496, 272
-0.986975, 17, 145, 144, 208
-0.98704, 209, 153, 336, 216
-0.987098, 401, 153, 464, 216
-0.987136, 329, 265, 392, 328
-0.987204, 105, 113, 136, 176
-0.987337, 285, 177, 316, 304
-0.987359, 421, 161, 452, 288
-0.987404, 185, 1, 248, 333
-0.987432, 137, 185, 168, 248
-0.987505, 1, 257, 128, 320
-0.98753, 337, 153, 464, 216
-0.987627, 157, 1, 188, 128
-0.987686, 265, 265, 328, 328
-0.987756, 97, 209, 128, 333
-0.987756, 125, 209, 156, 333
-0.987778, 225, 65, 288, 320
-0.987824, 441, 185, 472, 248
-0.987907, 193, 201, 224, 264
-0.987965, 129, 233, 256, 296
-0.988056, 293, 121, 324, 184
-0.988183, 409, 33, 472, 96
-0.988216, 145, 241, 208, 304
-0.988236, 401, 153, 432, 216
-0.98825, 157, 209, 188, 333
-0.988253, 433, 89, 496, 152
-0.988255, 133, 121, 164, 184
-0.988281, 97, 249, 160, 312
-0.988343, 85, 209, 116, 333
-0.988427, 369, 161, 400, 288
-0.988465, 433, 185, 496, 248
-0.988519, 169, 201, 232, 232
-0.988553, 197, 161, 228, 288
-0.988593, 17, 169, 144, 232
-0.988611, 161, 73, 224, 136
-0.988636, 113, 41, 176, 104
-0.988642, 417, 65, 480, 96
-0.988695, 169, 1, 232, 64
-0.988758, 297, 229, 360, 260
-0.988779, 81, 109, 144, 140
-0.988817, 421, 185, 452, 248
-0.98882, 297, 257, 360, 288
-0.988842, 145, 193, 208, 224
-0.988846, 17, 65, 80, 128
-0.98886, 177, 185, 240, 216
-0.988904, 249, 177, 312, 240
-0.988905, 145, 161, 176, 224
-0.988909, 145, 217, 208, 248
-0.988939, 173, 1, 204, 128
-0.988957, 41, 1, 104, 256
-0.989049, 265, 121, 296, 184
-0.989063, 365, 185, 396, 248
-0.989124, 41, 113, 104, 240
-0.989159, 209, 209, 272, 272
-0.989192, 117, 25, 148, 88
-0.989229, 237, 137, 268, 200
-0.989264, 409, 1, 472, 128
-0.989281, 57, 249, 88, 312
-0.9893, 101, 233, 132, 296
-0.989346, 33, 105, 288, 168
-0.989363, 41, 229, 104, 260
-0.989371, 181, 161, 212, 224
-0.989395, 449, 65, 480, 128
-0.989422, 357, 113, 388, 240
-0.989427, 337, 161, 368, 224
-0.989444, 405, 161, 436, 288
-0.989444, 433, 161, 464, 288
-0.989449, 297, 281, 360, 312
-0.989494, 69, 1, 100, 64
-0.989499, 217, 177, 280, 304
-0.989575, 25, 217, 88, 248
-0.989591, 89, 97, 152, 128
-0.989595, 361, 105, 392, 168
-0.989611, 81, 9, 112, 72
-0.989615, 81, 33, 144, 64
-0.98963, 337, 177, 368, 304
-0.989668, 297, 241, 360, 272
-0.989697, 121, 221, 184, 252
-0.989699, 265, 185, 296, 248
-0.989719, 329, 121, 360, 184
-0.989738, 161, 201, 416, 264
-0.989744, 145, 161, 272, 224
-0.989815, 105, 209, 168, 240
-0.989835, 49, 113, 112, 176
-0.989864, 153, 101, 216, 132
-0.9899, 221, 185, 252, 248
-0.989901, 249, 65, 312, 320
-0.989925, 113, 17, 176, 48
-0.989935, 353, 1, 416, 333
-0.989965, 157, 49, 188, 176
-0.990041, 73, 17, 136, 48
-0.990045, 81, 237, 144, 268
-0.990049, 433, 1, 464, 128
-0.990056, 341, 241, 372, 304
-0.990067, 273, 205, 336, 236
-0.990073, 49, 245, 112, 276
-0.990156, 9, 233, 72, 264
-0.990178, 185, 81, 248, 144
-0.990178, 41, 49, 104, 176
-0.990195, 369, 181, 432, 212
-0.990205, 65, 205, 128, 236
-0.990217, 105, 109, 168, 140
-0.990221, 97, 5, 160, 36
-0.990271, 1, 217, 64, 248
-0.990271, 45, 201, 76, 264
-0.990305, 121, 197, 184, 228
-0.990327, 221, 153, 252, 216
-0.990351, 89, 169, 120, 232
-0.990362, 41, 193, 104, 256
-0.99038, 377, 93, 440, 124
-0.990397, 313, 205, 376, 236
-0.990403, 113, 49, 144, 112
-0.990407, 297, 269, 360, 300
-0.990411, 49, 61, 112, 92
-0.990422, 133, 233, 164, 296
-0.990439, 81, 113, 112, 176
-0.990467, 121, 1, 184, 32
-0.99047, 289, 217, 352, 248
-0.990473, 1, 81, 500, 144
-0.990479, 193, 201, 256, 232
-0.990526, 49, 45, 112, 76
-0.990527, 25, 249, 88, 280
-0.99054, 169, 161, 200, 224
-0.990577, 425, 213, 488, 244
-0.990584, 57, 217, 120, 248
-0.990601, 169, 137, 232, 200
-0.990613, 21, 249, 52, 312
-0.990643, 321, 81, 448, 144
-0.990652, 17, 65, 80, 320
-0.990656, 369, 197, 432, 228
-0.990658, 353, 165, 416, 196
-0.99067, 197, 153, 228, 216
-0.990693, 345, 121, 408, 152
-0.990715, 97, 225, 160, 256
-0.990771, 145, 205, 208, 236
-0.990816, 377, 217, 440, 280
-0.99083, 129, 105, 192, 136
-0.990884, 353, 225, 480, 288
-0.990885, 273, 189, 336, 220
-0.990901, 89, 49, 152, 80
-0.990905, 113, 93, 176, 124
-0.990939, 89, 69, 152, 100
-0.990966, 57, 33, 120, 64
-0.990976, 169, 213, 232, 244
-0.991004, 353, 129, 384, 192
-0.991024, 49, 161, 80, 288
-0.991036, 145, 1, 208, 32
-0.991046, 409, 197, 472, 228
-0.991048, 257, 81, 320, 208
-0.991058, 153, 181, 216, 212
-0.991089, 409, 77, 472, 108
-0.991098, 1, 121, 500, 184
-0.991099, 393, 213, 456, 244
-0.991127, 297, 293, 360, 324
-0.991137, 49, 89, 112, 120
-0.991139, 21, 193, 52, 256
-0.991153, 289, 177, 320, 240
-0.991158, 377, 109, 440, 140
-0.991158, 217, 197, 280, 228
-0.991162, 257, 193, 500, 256
-0.991166, 193, 105, 448, 168
-0.991179, 97, 185, 160, 216
-0.991224, 77, 81, 108, 208
-0.99125, 409, 53, 472, 84
-0.991269, 225, 125, 288, 156
-0.991284, 305, 129, 336, 192
-0.9913, 329, 189, 392, 220
-0.991303, 377, 169, 440, 200
-0.991312, 169, 1, 200, 64
-0.991313, 1, 245, 64, 276
-0.99132, 213, 65, 244, 192
-0.991326, 1, 145, 64, 272
-0.991356, 97, 161, 160, 192
-0.99139, 369, 125, 432, 156
-0.99139, 81, 85, 144, 116
-0.991396, 153, 113, 216, 144
-0.991396, 113, 173, 176, 204
-0.991397, 401, 173, 464, 204
-0.991398, 185, 113, 248, 144
-0.991401, 113, 121, 176, 152
-0.991409, 273, 129, 336, 160
-0.991411, 49, 105, 112, 136
-0.991413, 145, 73, 176, 136
-0.991438, 137, 13, 200, 44
-0.991439, 161, 89, 224, 120
-0.991458, 349, 177, 380, 240
-0.991461, 225, 141, 288, 172
-0.991463, 33, 1, 96, 333
-0.991464, 129, 1, 256, 64
-0.991476, 433, 53, 496, 84
-0.991491, 81, 145, 112, 272
-0.991516, 193, 129, 256, 160
-0.991546, 369, 149, 432, 180
-0.991564, 345, 109, 408, 140
-0.99158, 313, 161, 344, 224
-0.991581, 249, 129, 312, 160
-0.991591, 201, 181, 264, 212
-0.991591, 145, 229, 208, 260
-0.991592, 73, 249, 136, 280
-0.99161, 365, 65, 396, 192
-0.991613, 121, 233, 184, 264
-0.991613, 369, 49, 432, 112
-0.991629, 377, 81, 440, 112
-0.991631, 313, 169, 376, 200
-0.991678, 393, 185, 456, 216
-0.991723, 329, 133, 392, 164
-0.991724, 297, 185, 360, 216
-0.991726, 57, 77, 120, 108
-0.991749, 401, 89, 464, 152
-0.991766, 169, 229, 232, 260
-0.991779, 329, 81, 392, 144
-0.991795, 57, 1, 120, 32
-0.991799, 73, 121, 136, 152
-0.99182, 177, 81, 304, 144
-0.991826, 193, 213, 256, 244
-0.991865, 329, 217, 392, 248
-0.991874, 105, 245, 168, 276
-0.991877, 73, 165, 136, 196
-0.991886, 369, 209, 432, 240
-0.991889, 169, 169, 232, 200
-0.991916, 177, 101, 240, 132
-0.991941, 329, 157, 392, 188
-0.991944, 273, 269, 336, 300
-0.991974, 257, 241, 320, 272
-0.992006, 41, 21, 104, 52
-0.992017, 33, 261, 96, 292
-0.992067, 329, 249, 392, 280
-0.992115, 1, 57, 500, 120
-0.992148, 241, 193, 304, 224
-0.992149, 109, 13, 140, 44
-0.992199, 1, 201, 256, 264
-0.992206, 369, 25, 496, 88
-0.992209, 297, 97, 360, 160
-0.99221, 425, 233, 488, 264
-0.992218, 193, 225, 320, 288
-0.992218, 297, 121, 360, 152
-0.99222, 433, 41, 496, 72
-0.992228, 169, 189, 200, 220
-0.992283, 41, 233, 72, 264
-0.992292, 105, 49, 136, 176
-0.992309, 89, 197, 152, 228
-0.992318, 353, 137, 416, 168
-0.992323, 49, 121, 112, 152
-0.99234, 121, 249, 184, 312
-0.992343, 61, 245, 92, 276
-0.992349, 173, 209, 204, 240
-0.992351, 385, 189, 416, 220
-0.992357, 25, 201, 88, 232
-0.992389, 193, 129, 448, 192
-0.992395, 77, 37, 108, 68
-0.992395, 97, 13, 128, 44
-0.992395, 381, 121, 412, 152
-0.992407, 129, 1, 160, 32
-0.992408, 145, 209, 176, 333
-0.992421, 185, 193, 216, 224
-0.992421, 337, 201, 400, 232
-0.992421, 321, 273, 384, 304
-0.992435, 89, 205, 120, 236
-0.992447, 81, 241, 112, 272
-0.992449, 401, 161, 464, 192
-0.992455, 65, 1, 96, 128
-0.992472, 401, 225, 464, 256
-0.992478, 65, 149, 128, 180
-0.992479, 25, 265, 88, 328
-0.992482, 469, 161, 500, 288
-0.992484, 433, 245, 496, 276
-0.992485, 249, 141, 312, 172
-0.992489, 41, 249, 72, 280
-0.99249, 369, 1, 496, 64
-0.992495, 257, 253, 320, 284
-0.992499, 157, 221, 188, 252
-0.992503, 345, 177, 408, 208
-0.992507, 201, 185, 232, 216
-0.992508, 193, 141, 256, 172
-0.992513, 105, 229, 136, 260
-0.99253, 33, 33, 96, 64
-0.992532, 89, 25, 120, 56
-0.992537, 305, 1, 368, 333
-0.992537, 305, 285, 336, 316
-0.99254, 309, 217, 340, 248
-0.992545, 65, 129, 192, 192
-0.992546, 153, 1, 184, 32
-0.992547, 117, 233, 148, 264
-0.992547, 29, 217, 60, 248
-0.992548, 425, 61, 456, 92
-0.992555, 49, 217, 80, 248
-0.992559, 113, 1, 144, 32
-0.992576, 1, 201, 500, 264
-0.992593, 117, 209, 148, 240
-0.992598, 397, 185, 428, 216
-0.992602, 321, 277, 352, 308
-0.992619, 117, 109, 148, 140
-0.992621, 69, 145, 100, 272
-0.992626, 89, 109, 120, 140
-0.992627, 189, 181, 220, 212
-0.992637, 185, 209, 216, 333
-0.992641, 161, 209, 192, 240
-0.992648, 93, 233, 124, 264
-0.992648, 129, 17, 160, 48
-0.992652, 385, 97, 416, 128
-0.992658, 309, 205, 340, 236
-0.992662, 381, 133, 412, 164
-0.992669, 125, 221, 156, 252
-0.992678, 461, 37, 492, 68
-0.992681, 305, 65, 368, 192
-0.992688, 109, 161, 140, 192
-0.992691, 21, 229, 52, 260
-0.992711, 389, 173, 420, 204
-0.992718, 101, 209, 132, 240
-0.992719, 173, 221, 204, 252
-0.992734, 1, 225, 256, 288
-0.992743, 69, 229, 100, 260
-0.992745, 445, 49, 476, 80
-0.992751, 141, 1, 172, 32
-0.992751, 153, 193, 184, 224
-0.992753, 201, 201, 232, 232
-0.992754, 185, 205, 216, 236
-0.992755, 197, 101, 228, 132
-0.992764, 397, 197, 428, 228
-0.992769, 273, 81, 400, 144
-0.99277, 157, 13, 188, 44
-0.992771, 321, 265, 352, 296
-0.992788, 81, 225, 112, 256
-0.99279, 97, 93, 128, 124
-0.992791, 21, 241, 52, 272
-0.992801, 161, 97, 192, 128
-0.992806, 449, 65, 480, 96
-0.992819, 397, 85, 428, 116
-0.992821, 101, 29, 132, 60
-0.992827, 409, 173, 440, 204
-0.992839, 381, 149, 412, 180
-0.992856, 145, 121, 208, 184
-0.992857, 97, 77, 128, 108
-0.992857, 225, 193, 256, 224
-0.992866, 137, 197, 168, 228
-0.992871, 305, 261, 336, 292
-0.992871, 1, 221, 32, 252
-0.992872, 137, 225, 168, 256
-0.992881, 285, 125, 316, 156
-0.992886, 77, 25, 108, 56
-0.992887, 1, 241, 500, 304
-0.992897, 137, 105, 168, 136
-0.992904, 85, 13, 116, 44
-0.992909, 305, 273, 336, 304
-0.992914, 97, 53, 128, 84
-0.992914, 445, 213, 476, 244
-0.992915, 177, 93, 208, 124
-0.992918, 1, 25, 500, 88
-0.992926, 125, 173, 156, 204
-0.99293, 137, 209, 168, 240
-0.992931, 393, 33, 424, 160
-0.992936, 101, 1, 132, 32
-0.99294, 293, 205, 324, 236
-0.992942, 77, 89, 108, 120
-0.992943, 409, 197, 440, 228
-0.992945, 77, 61, 108, 92
-0.992948, 61, 217, 92, 248
-0.992954, 329, 241, 360, 272
-0.992959, 105, 109, 136, 140
-0.992962, 457, 213, 488, 244
-0.992968, 373, 185, 404, 216
-0.992968, 321, 201, 352, 232
-0.992969, 201, 173, 232, 204
-0.992983, 425, 213, 456, 244
-0.99299, 409, 81, 440, 112
-0.99299, 69, 205, 100, 236
-0.992993, 381, 109, 412, 140
-0.992994, 421, 73, 452, 104
-0.993004, 437, 61, 468, 92
-0.993014, 361, 133, 392, 164
-0.993015, 309, 185, 340, 216
-0.993017, 365, 153, 396, 184
-0.99302, 141, 13, 172, 44
-0.993021, 317, 81, 348, 208
-0.993024, 441, 201, 472, 232
-0.993024, 377, 173, 408, 204
-0.993024, 153, 109, 184, 140
-0.99303, 145, 125, 176, 156
-0.99303, 217, 121, 248, 152
-0.993032, 289, 241, 320, 272
-0.993033, 57, 229, 88, 260
-0.993035, 105, 241, 136, 272
-0.99304, 313, 297, 344, 328
-0.993046, 301, 233, 332, 264
-0.993048, 197, 213, 228, 244
-0.993049, 117, 93, 148, 124
-0.993055, 401, 209, 432, 240
-0.993055, 77, 49, 108, 80
-0.993056, 109, 173, 140, 204
-0.993056, 369, 197, 400, 228
-0.99306, 457, 49, 488, 80
-0.993062, 385, 85, 416, 116
-0.993062, 321, 221, 352, 252
-0.99308, 133, 121, 164, 152
-0.993086, 125, 161, 156, 192
-0.993095, 213, 189, 244, 220
-0.9931, 77, 101, 108, 132
-0.993102, 385, 161, 416, 192
-0.993104, 101, 197, 132, 228
-0.993105, 213, 201, 244, 232
-0.993105, 381, 205, 412, 236
-0.993113, 137, 145, 168, 176
-0.993154, 265, 1, 328, 333
-0.993175, 305, 57, 432, 120
-0.993228, 129, 105, 256, 136
-0.993253, 217, 1, 280, 333
-0.993266, 97, 193, 224, 224
-0.993301, 161, 177, 416, 240
-0.993306, 353, 81, 416, 144
-0.993394, 189, 193, 204, 256
-0.993421, 17, 237, 144, 268
-0.993464, 433, 209, 464, 333
-0.993499, 49, 209, 176, 240
-0.993545, 401, 129, 464, 192
-0.993583, 273, 177, 304, 304
-0.993593, 289, 81, 320, 208
-0.99365, 33, 177, 288, 240
-0.993797, 161, 189, 288, 220
-0.993798, 329, 1, 392, 333
-0.993866, 257, 145, 320, 208
-0.993885, 17, 41, 80, 104
-0.993969, 33, 9, 288, 72
-0.993986, 33, 73, 288, 136
-0.994062, 369, 249, 496, 312
-0.994092, 41, 169, 104, 232
-0.994101, 391, 89, 406, 152
-0.994144, 81, 225, 208, 256
-0.99416, 221, 161, 252, 288
-0.994171, 103, 25, 118, 88
-0.994176, 199, 177, 214, 240
-0.994231, 93, 25, 108, 88
-0.994288, 65, 93, 192, 124
-0.9943, 257, 169, 500, 232
-0.994354, 385, 209, 448, 333
-0.994357, 461, 41, 476, 104
-0.99436, 385, 97, 400, 160
-0.994381, 395, 169, 410, 232
-0.994385, 319, 193, 334, 256
-0.994387, 393, 177, 424, 304
-0.994401, 425, 1, 488, 64
-0.994409, 1, 177, 500, 240
-0.994443, 257, 217, 500, 280
-0.994446, 97, 209, 224, 240
-0.994476, 311, 201, 326, 264
-0.99452, 129, 1, 160, 256
-0.994529, 25, 145, 56, 272
-0.994537, 57, 225, 72, 288
-0.994607, 1, 249, 256, 312
-0.994613, 411, 177, 426, 240
-0.994621, 399, 81, 414, 144
-0.994661, 97, 225, 352, 288
-0.994663, 193, 81, 448, 144
-0.994696, 237, 81, 268, 208
-0.994709, 81, 241, 208, 272
-0.994715, 137, 25, 200, 88
-0.994726, 177, 205, 304, 236
-0.994756, 17, 225, 144, 256
-0.994767, 141, 105, 156, 168
-0.994788, 409, 1, 440, 128
-0.994835, 43, 233, 58, 296
-0.994836, 81, 13, 208, 44
-0.994845, 67, 217, 82, 280
-0.994865, 115, 9, 130, 72
-0.994888, 413, 97, 444, 224
-0.994902, 193, 209, 256, 333
-0.994907, 193, 265, 320, 328
-0.99492, 117, 1, 148, 256
-0.994925, 335, 233, 350, 296
-0.994927, 49, 225, 64, 288
-0.99493, 353, 177, 384, 304
-0.994989, 301, 233, 316, 296
-0.994999, 325, 193, 340, 256
-0.995023, 401, 169, 416, 232
-0.995052, 413, 81, 428, 144
-0.99509, 309, 249, 324, 312
-0.995095, 241, 1, 304, 333
-0.995118, 423, 65, 438, 128
-0.99512, 111, 209, 126, 272
-0.99513, 65, 109, 192, 140
-0.995134, 17, 97, 144, 128
-0.995138, 125, 1, 140, 64
-0.995149, 25, 225, 40, 288
-0.995151, 1, 145, 32, 272
-0.995155, 305, 201, 432, 232
-0.995156, 151, 201, 166, 264
-0.995162, 421, 1, 452, 128
-0.99518, 273, 97, 336, 160
-0.995188, 65, 29, 192, 60
-0.995194, 257, 177, 288, 304
-0.995198, 93, 49, 108, 112
-0.995204, 1, 41, 128, 72
-0.995237, 107, 1, 122, 64
-0.995239, 127, 209, 142, 272
-0.995242, 197, 201, 212, 264
-0.995252, 321, 33, 448, 96
-0.995254, 329, 81, 360, 208
-0.995262, 241, 237, 368, 268
-0.995281, 209, 125, 336, 156
-0.995287, 93, 81, 108, 144
-0.99529, 457, 161, 488, 288
-0.995312, 183, 201, 198, 264
-0.995314, 289, 121, 416, 152
-0.995332, 1, 153, 500, 216
-0.995336, 173, 201, 188, 264
-0.99534, 17, 109, 144, 140
-0.995349, 485, 17, 500, 80
-0.995356, 159, 9, 174, 72
-0.995377, 75, 209, 90, 272
-0.99538, 123, 89, 138, 152
-0.995389, 245, 177, 276, 304
-0.995403, 131, 113, 146, 176
-0.995423, 65, 1, 192, 32
-0.995459, 445, 145, 476, 272
-0.995486, 149, 1, 180, 256
-0.995496, 453, 65, 468, 128
-0.995522, 33, 33, 288, 96
-0.995523, 37, 233, 52, 296
-0.995533, 13, 145, 44, 272
-0.995548, 147, 113, 162, 176
-0.995555, 189, 33, 220, 160
-0.995564, 111, 161, 126, 224
-0.995575, 161, 153, 416, 216
-0.995588, 145, 9, 160, 72
-0.995589, 161, 217, 176, 280
-0.995591, 101, 1, 132, 256
-0.995617, 311, 225, 326, 288
-0.995629, 331, 193, 346, 256
-0.995662, 309, 273, 324, 333
-0.995666, 31, 225, 46, 288
-0.995667, 433, 57, 448, 120
-0.995699, 215, 177, 230, 240
-0.995707, 131, 9, 146, 72
-0.995717, 99, 49, 114, 112
-0.995732, 197, 65, 228, 320
-0.995738, 205, 177, 220, 240
-0.995738, 105, 201, 120, 264
-0.995746, 467, 33, 482, 96
-0.995748, 15, 217, 30, 280
-0.995778, 63, 241, 78, 304
-0.995782, 389, 169, 404, 232
-0.995804, 443, 57, 458, 120
-0.995809, 277, 81, 308, 208
-0.995815, 385, 65, 416, 320
-0.995818, 369, 197, 496, 228
-0.995822, 103, 73, 118, 136
-0.995831, 385, 121, 400, 184
-0.995835, 209, 185, 336, 216
-0.995836, 179, 97, 194, 160
-0.995855, 321, 213, 448, 244
-0.995873, 417, 33, 448, 288
-0.995896, 177, 65, 208, 320
-0.99591, 9, 233, 24, 296
-0.99591, 369, 181, 496, 212
-0.995914, 201, 49, 232, 176
-0.995917, 129, 121, 256, 152
-0.99592, 289, 189, 416, 220
-0.995925, 261, 81, 292, 208
-0.995937, 289, 245, 416, 276
-0.995946, 231, 113, 246, 176
-0.995947, 165, 97, 180, 160
-0.995951, 85, 233, 100, 296
-0.995955, 117, 209, 132, 272
-0.995955, 369, 105, 496, 136
-0.995965, 257, 133, 384, 164
-0.995973, 83, 25, 98, 88
-0.995984, 137, 1, 152, 64
-0.995985, 111, 185, 126, 248
-0.995996, 301, 201, 316, 264
-0.99601, 305, 81, 336, 208
-0.996017, 129, 89, 144, 152
-0.996021, 155, 105, 170, 168
-0.99604, 93, 105, 108, 168
-0.996045, 117, 177, 132, 240
-0.996069, 3, 233, 18, 296
-0.996077, 317, 217, 332, 280
-0.99608, 461, 209, 476, 272
-0.996083, 1, 85, 128, 116
-0.996088, 143, 201, 158, 264
-0.996091, 225, 197, 352, 228
-0.996099, 65, 129, 320, 192
-0.9961, 381, 33, 412, 160
-0.996102, 103, 113, 118, 176
-0.996102, 89, 1, 120, 256
-0.996104, 137, 209, 152, 272
-0.996114, 379, 113, 394, 176
-0.996126, 185, 57, 248, 120
-0.99613, 101, 1, 116, 64
-0.996134, 257, 249, 500, 312
-0.996134, 99, 225, 114, 288
-0.996137, 1, 65, 128, 96
-0.996141, 33, 249, 160, 280
-0.996146, 161, 57, 288, 120
-0.996153, 407, 81, 422, 144
-0.996164, 9, 105, 72, 168
-0.996182, 289, 169, 416, 200
-0.996193, 397, 65, 428, 320
-0.996197, 241, 225, 368, 256
-0.996219, 37, 209, 52, 272
-0.996224, 121, 233, 136, 296
-0.996226, 199, 97, 214, 160
-0.99623, 145, 133, 272, 164
-0.996233, 473, 33, 488, 96
-0.996233, 209, 137, 336, 168
-0.996237, 381, 169, 396, 232
-0.996239, 97, 201, 112, 264
-0.99624, 101, 177, 116, 240
-0.996251, 161, 65, 192, 320
-0.996261, 179, 177, 194, 240
-0.996267, 171, 177, 186, 240
-0.996269, 343, 241, 358, 304
-0.996275, 339, 161, 354, 224
-0.996276, 167, 217, 182, 280
-0.996279, 221, 185, 236, 248
-0.996279, 17, 21, 144, 52
-0.996281, 1, 213, 128, 244
-0.996325, 307, 177, 322, 240
-0.99634, 193, 169, 208, 232
-0.996348, 241, 261, 368, 292
-0.996351, 129, 229, 256, 260
-0.996355, 423, 177, 438, 240
-0.99636, 113, 105, 128, 168
-0.99637, 91, 233, 106, 296
-0.99637, 185, 97, 200, 160
-0.996371, 89, 209, 104, 272
-0.996374, 429, 33, 460, 288
-0.996377, 333, 257, 348, 320
-0.996387, 325, 217, 340, 280
-0.996395, 161, 177, 288, 208
-0.996399, 313, 177, 328, 240
-0.996412, 321, 225, 448, 256
-0.996436, 81, 57, 208, 88
-0.99645, 193, 89, 208, 152
-0.996472, 469, 209, 484, 272
-0.996482, 211, 105, 226, 168
-0.996483, 1, 1, 64, 333
-0.996493, 167, 1, 182, 64
-0.996493, 403, 193, 418, 256
-0.996513, 441, 217, 456, 280
-0.996515, 105, 233, 120, 296
-0.996518, 417, 201, 432, 264
-0.99652, 75, 241, 90, 304
-0.996533, 113, 33, 240, 96
-0.996547, 173, 89, 188, 152
-0.996551, 125, 113, 140, 176
-0.996555, 369, 89, 496, 120
-0.996572, 1, 53, 128, 84
-0.996578, 117, 153, 132, 216
-0.996578, 455, 41, 470, 104
-0.996582, 55, 249, 70, 312
-0.996585, 49, 265, 112, 328
-0.9966, 331, 129, 346, 192
-0.996611, 391, 145, 406, 208
-0.996613, 339, 201, 354, 264
-0.996613, 141, 177, 156, 240
-0.996615, 479, 25, 494, 88
-0.996617, 1, 81, 64, 208
-0.996635, 209, 113, 336, 144
-0.996648, 337, 121, 464, 152
-0.99665, 209, 193, 240, 320
-0.996667, 457, 1, 488, 256
-0.996735, 369, 169, 496, 200
-0.996735, 369, 209, 496, 240
-0.996736, 65, 45, 192, 76
-0.996743, 65, 81, 192, 112
-0.996749, 199, 189, 214, 220
-0.996799, 17, 9, 144, 40
-0.996821, 289, 281, 416, 312
-0.996872, 111, 13, 126, 44
-0.996876, 241, 273, 368, 304
-0.996877, 289, 109, 416, 140
-0.996896, 369, 77, 496, 108
-0.9969, 193, 193, 208, 224
-0.996901, 145, 217, 272, 248
-0.996904, 289, 157, 416, 188
-0.99696, 289, 257, 416, 288
-0.996986, 17, 1, 80, 64
-0.996989, 225, 209, 352, 240
-0.996996, 369, 61, 496, 92
-0.99704, 341, 65, 372, 192
-0.997048, 129, 1, 256, 32
-0.997051, 337, 237, 352, 268
-0.997052, 209, 65, 240, 320
-0.997058, 1, 1, 500, 64
-0.997101, 369, 41, 496, 72
-0.99712, 317, 205, 332, 236
-0.997121, 163, 1, 178, 32
-0.997124, 17, 197, 144, 228
-0.997131, 411, 189, 426, 220
-0.997139, 189, 205, 204, 236
-0.997146, 161, 257, 416, 320
-0.99716, 179, 189, 194, 220
-0.997169, 369, 273, 496, 333
-0.997176, 241, 289, 368, 320
-0.997178, 381, 177, 412, 304
-0.997184, 441, 33, 472, 288
-0.99721, 113, 181, 240, 212
-0.997219, 273, 213, 400, 244
-0.997239, 175, 209, 190, 240
-0.99724, 183, 213, 198, 244
-0.997268, 373, 65, 404, 320
-0.997277, 81, 69, 208, 100
-0.997283, 425, 65, 440, 96
-0.997287, 321, 133, 448, 164
-0.997287, 1, 261, 128, 292
-0.997288, 313, 65, 344, 320
-0.997289, 257, 273, 500, 333
-0.997321, 185, 189, 200, 220
-0.997326, 169, 1, 184, 32
-0.997347, 113, 93, 240, 124
-0.997348, 93, 109, 108, 140
-0.997362, 103, 57, 118, 88
-0.997362, 61, 241, 76, 272
-0.997369, 141, 109, 156, 140
-0.997372, 101, 233, 116, 264
-0.997377, 95, 29, 110, 60
-0.997386, 77, 1, 108, 256
-0.997389, 469, 1, 500, 256
-0.997398, 121, 5, 136, 36
-0.997401, 17, 149, 144, 180
-0.997402, 417, 209, 448, 333
-0.997406, 289, 293, 416, 324
-0.997433, 389, 189, 404, 220
-0.997434, 215, 189, 230, 220
-0.997435, 309, 281, 324, 312
-0.997435, 311, 205, 326, 236
-0.997481, 127, 5, 142, 36
-0.997483, 135, 1, 150, 32
-0.997488, 385, 121, 400, 152
-0.99749, 141, 1, 156, 32
-0.997495, 303, 233, 318, 264
-0.9975, 89, 33, 104, 64
-0.997506, 321, 73, 448, 104
-0.997515, 121, 233, 136, 264
-0.997516, 457, 57, 472, 88
-0.997529, 241, 301, 368, 332
-0.997534, 325, 65, 356, 320
-0.997537, 99, 77, 114, 108
-0.997537, 117, 17, 132, 48
-0.997539, 45, 229, 60, 260
-0.99754, 41, 145, 104, 208
-0.997547, 163, 217, 178, 248
-0.997548, 91, 17, 106, 48
-0.997555, 177, 221, 192, 252
-0.997556, 461, 45, 476, 76
-0.997556, 205, 189, 220, 220
-0.997569, 199, 177, 214, 208
-0.997569, 105, 205, 120, 236
-0.997579, 85, 237, 100, 268
-0.997589, 127, 209, 142, 240
-0.997595, 289, 269, 416, 300
-0.9976, 67, 245, 82, 276
-0.997606, 241, 249, 368, 280
-0.997609, 199, 201, 214, 232
-0.99762, 171, 189, 186, 220
-0.997627, 209, 173, 336, 204
-0.997633, 289, 145, 416, 176
-0.997661, 35, 241, 50, 272
-0.997663, 311, 217, 326, 248
-0.997674, 343, 249, 358, 280
-0.997677, 39, 217, 54, 248
-0.997677, 401, 85, 416, 116
-0.997679, 345, 57, 408, 120
-0.997683, 105, 13, 120, 44
-0.997686, 81, 29, 96, 60
-0.997688, 93, 61, 108, 92
-0.997693, 187, 225, 202, 256
-0.997703, 99, 205, 114, 236
-0.997708, 95, 241, 110, 272
-0.997717, 111, 209, 126, 240
-0.997718, 33, 221, 48, 252
-0.997721, 127, 229, 142, 260
-0.997728, 407, 177, 422, 208
-0.997728, 433, 145, 496, 208
-0.99774, 209, 73, 272, 136
-0.997742, 63, 217, 78, 248
-0.997755, 387, 93, 402, 124
-0.997759, 45, 217, 60, 248
-0.997769, 65, 181, 192, 212
-0.997773, 397, 173, 412, 204
-0.997774, 43, 249, 58, 280
-0.997775, 467, 37, 482, 68
-0.997777, 117, 97, 132, 128
-0.997777, 485, 17, 500, 48
-0.997795, 157, 109, 172, 140
-0.997795, 411, 201, 426, 232
-0.997797, 55, 233, 70, 264
-0.997797, 93, 89, 108, 120
-0.997798, 123, 109, 138, 140
-0.997809, 337, 65, 368, 320
-0.997812, 145, 145, 272, 176
-0.997814, 149, 229, 164, 260
-0.997815, 153, 197, 168, 228
-0.997819, 155, 9, 170, 40
-0.997825, 393, 125, 408, 156
-0.997826, 337, 153, 464, 184
-0.997829, 99, 109, 114, 140
-0.997837, 161, 13, 176, 44
-0.997843, 221, 65, 252, 320
-0.997844, 181, 201, 196, 232
-0.997845, 101, 29, 116, 60
-0.997845, 323, 201, 338, 232
-0.997846, 333, 261, 348, 292
-0.997848, 301, 65, 332, 320
-0.997851, 309, 257, 324, 288
-0.997852, 49, 241, 64, 272
-0.997857, 17, 129, 144, 160
-0.997859, 321, 85, 448, 116
-0.997866, 165, 189, 180, 220
-0.997884, 65, 121, 192, 152
-0.99789, 147, 121, 162, 152
-0.997895, 101, 1, 116, 32
-0.997898, 157, 221, 172, 252
-0.997898, 193, 177, 208, 208
-0.997899, 109, 25, 124, 56
-0.997901, 415, 85, 430, 116
-0.997903, 441, 61, 456, 92
-0.997907, 133, 13, 148, 44
-0.997908, 441, 221, 456, 252
-0.99791, 83, 41, 98, 72
-0.997911, 435, 217, 450, 248
-0.997914, 369, 133, 496, 164
-0.997915, 291, 121, 306, 152
-0.997915, 149, 9, 164, 40
-0.997917, 329, 221, 344, 252
-0.997921, 171, 221, 186, 252
-0.997925, 257, 25, 500, 88
-0.997926, 199, 213, 214, 244
-0.99793, 407, 165, 422, 196
-0.997933, 79, 237, 94, 268
-0.997933, 205, 177, 220, 208
-0.997934, 409, 85, 424, 116
-0.997935, 65, 137, 192, 168
-0.997938, 93, 49, 108, 80
-0.997941, 121, 209, 136, 240
-0.997952, 113, 109, 128, 140
-0.997955, 451, 53, 466, 84
-0.997956, 55, 253, 70, 284
-0.997962, 233, 193, 264, 320
-0.997969, 171, 93, 186, 124
-0.99798, 115, 1, 130, 32
-0.997981, 141, 209, 156, 240
-0.997982, 23, 225, 38, 256
-0.997984, 107, 233, 122, 264
-0.997987, 189, 93, 204, 124
-0.997987, 401, 193, 416, 224
-0.997989, 417, 209, 432, 240
-0.997998, 307, 269, 322, 300
-0.997998, 321, 217, 336, 248
-0.997999, 477, 33, 492, 64
-0.998001, 131, 117, 146, 148
-0.998001, 123, 17, 138, 48
-0.998008, 85, 121, 100, 152
-0.998014, 97, 17, 112, 48
-0.998022, 111, 165, 126, 196
-0.998035, 169, 241, 232, 304
-0.99806, 81, 153, 208, 184
-0.998066, 305, 97, 432, 128
-0.998089, 17, 169, 144, 200
-0.998117, 209, 149, 336, 180
-0.998173, 369, 241, 496, 272
-0.998178, 97, 169, 224, 200
-0.998218, 129, 1, 384, 64
-0.998229, 281, 65, 312, 320
-0.998239, 349, 65, 380, 320
-0.998249, 129, 157, 256, 188
-0.998262, 17, 185, 144, 216
-0.998279, 369, 25, 496, 56
-0.998327, 33, 153, 288, 216
-0.998338, 193, 225, 320, 256
-0.998405, 145, 215, 176, 230
-0.998405, 141, 7, 172, 22
-0.998407, 405, 183, 436, 198
-0.998407, 81, 73, 112, 88
-0.998407, 457, 215, 488, 230
-0.998411, 321, 261, 352, 276
-0.998411, 321, 273, 352, 288
-0.998411, 29, 235, 60, 250
-0.998411, 193, 97, 320, 128
-0.998411, 453, 61, 484, 76
-0.998411, 97, 245, 128, 260
-0.998413, 161, 227, 192, 242
-0.998414, 13, 223, 44, 238
-0.998414, 321, 291, 352, 306
-0.998414, 129, 13, 256, 44
-0.998414, 313, 301, 344, 316
-0.998415, 101, 235, 132, 250
-0.998415, 421, 69, 452, 84
-0.998415, 185, 101, 216, 116
-0.998417, 169, 95, 200, 110
-0.998417, 193, 189, 224, 204
-0.998419, 301, 243, 332, 258
-0.99842, 161, 233, 192, 248
-0.99842, 101, 51, 132, 66
-0.998421, 33, 249, 64, 264
-0.998421, 101, 221, 132, 236
-0.998422, 373, 189, 404, 204
-0.998422, 57, 231, 88, 246
-0.998425, 41, 233, 72, 248
-0.998425, 53, 219, 84, 234
-0.998426, 89, 239, 120, 254
-0.998426, 173, 1, 204, 16
-0.998427, 197, 103, 228, 118
-0.998428, 381, 133, 412, 148
-0.998428, 97, 83, 128, 98
-0.998429, 77, 47, 108, 62
-0.998431, 77, 83, 108, 98
-0.998431, 161, 101, 192, 116
-0.998431, 385, 145, 416, 160
-0.998432, 425, 217, 456, 232
-0.998432, 393, 169, 424, 184
-0.998432, 429, 175, 460, 190
-0.998432, 313, 179, 344, 194
-0.998433, 89, 53, 120, 68
-0.998433, 101, 31, 132, 46
-0.998433, 321, 267, 352, 282
-0.998435, 97, 69, 128, 84
-0.998435, 145, 193, 208, 208
-0.998435, 77, 95, 108, 110
-0.998436, 125, 227, 156, 242
-0.998438, 61, 245, 92, 260
-0.998439, 325, 209, 356, 224
-0.99844, 125, 179, 156, 194
-0.99844, 77, 33, 108, 48
-0.998441, 137, 197, 168, 212
-0.998441, 93, 117, 124, 132
-0.998441, 189, 195, 220, 210
-0.998442, 97, 13, 128, 28
-0.998444, 105, 161, 136, 176
-0.998444, 297, 263, 360, 278
-0.998445, 109, 177, 140, 192
-0.998446, 81, 63, 112, 78
-0.998448, 265, 203, 296, 218
-0.998449, 177, 221, 208, 236
-0.99845, 417, 65, 480, 80
-0.998451, 85, 225, 116, 240
-0.998451, 165, 215, 196, 230
-0.998452, 69, 225, 100, 240
-0.998455, 141, 21, 172, 36
-0.998456, 85, 231, 116, 246
-0.998457, 97, 107, 128, 122
-0.998458, 17, 237, 48, 252
-0.998459, 305, 265, 336, 280
-0.99846, 77, 23, 108, 38
-0.998461, 129, 11, 160, 26
-0.998462, 457, 49, 488, 64
-0.998463, 97, 93, 128, 108
-0.998465, 465, 39, 496, 54
-0.998465, 221, 207, 252, 222
-0.998465, 21, 243, 52, 258
-0.998466, 321, 197, 352, 212
-0.998466, 137, 111, 168, 126
-0.998469, 385, 99, 416, 114
-0.998469, 321, 285, 352, 300
-0.998469, 329, 243, 360, 258
-0.99847, 181, 211, 212, 226
-0.998473, 81, 113, 144, 128
-0.998475, 105, 9, 168, 24
-0.998475, 389, 187, 420, 202
-0.998476, 201, 183, 232, 198
-0.998476, 81, 41, 112, 56
-0.998477, 161, 11, 192, 26
-0.998478, 109, 245, 140, 260
-0.998479, 109, 1, 140, 16
-0.998479, 145, 221, 208, 236
-0.99848, 113, 19, 176, 34
-0.998481, 93, 25, 124, 40
-0.998481, 45, 253, 76, 268
-0.998483, 409, 177, 440, 192
-0.998484, 161, 213, 224, 228
-0.998484, 37, 243, 68, 258
-0.998488, 49, 249, 112, 264
-0.998488, 297, 243, 360, 258
-0.998489, 297, 273, 360, 288
-0.998493, 385, 193, 416, 208
-0.998493, 405, 83, 436, 98
-0.998493, 169, 205, 232, 220
-0.998494, 25, 219, 88, 234
-0.998496, 189, 203, 220, 218
-0.998497, 65, 209, 128, 224
-0.998497, 129, 19, 160, 34
-0.998499, 77, 89, 108, 104
-0.998501, 381, 139, 412, 154
-0.998501, 289, 233, 352, 248
-0.998502, 305, 283, 336, 298
-0.998502, 173, 227, 204, 242
-0.998504, 89, 15, 152, 30
-0.998506, 81, 31, 144, 46
-0.998506, 93, 209, 124, 224
-0.998506, 73, 25, 136, 40
-0.998506, 297, 289, 360, 304
-0.998508, 105, 211, 168, 226
-0.998509, 81, 245, 112, 260
-0.99851, 441, 57, 472, 72
-0.99851, 297, 257, 360, 272
-0.99851, 61, 251, 92, 266
-0.998511, 141, 13, 172, 28
-0.998512, 377, 97, 440, 112
-0.998514, 113, 213, 144, 228
-0.998514, 69, 231, 100, 246
-0.998515, 281, 207, 344, 222
-0.998518, 169, 193, 200, 208
-0.99852, 309, 273, 340, 288
-0.998521, 289, 227, 352, 242
-0.998521, 33, 241, 96, 256
-0.998522, 321, 279, 352, 294
-0.998523, 73, 245, 136, 260
-0.998523, 393, 89, 424, 104
-0.998523, 381, 125, 412, 140
-0.998523, 1, 247, 64, 262
-0.998525, 193, 205, 256, 220
-0.998526, 1, 239, 64, 254
-0.998527, 105, 229, 136, 244
-0.998527, 297, 281, 360, 296
-0.998531, 65, 223, 128, 238
-0.998532, 201, 213, 232, 228
-0.998533, 393, 87, 456, 102
-0.998535, 429, 63, 460, 78
-0.998536, 157, 221, 188, 236
-0.998537, 309, 207, 340, 222
-0.998538, 129, 1, 192, 16
-0.99854, 225, 203, 288, 218
-0.99854, 401, 175, 464, 190
-0.998542, 201, 205, 232, 220
-0.998545, 105, 25, 136, 40
-0.998545, 49, 91, 112, 106
-0.998546, 73, 91, 136, 106
-0.998547, 137, 13, 200, 28
-0.998547, 121, 111, 184, 126
-0.998549, 225, 131, 288, 146
-0.998549, 153, 227, 216, 242
-0.998549, 153, 105, 216, 120
-0.998549, 153, 193, 184, 208
-0.998552, 353, 127, 416, 142
-0.998555, 145, 201, 208, 216
-0.998555, 41, 233, 104, 248
-0.998555, 177, 199, 240, 214
-0.998555, 57, 19, 120, 34
-0.998555, 305, 207, 368, 222
-0.998557, 309, 217, 340, 232
-0.998558, 89, 99, 152, 114
-0.998559, 129, 1, 160, 16
-0.998559, 117, 9, 148, 24
-0.99856, 129, 231, 192, 246
-0.998561, 169, 183, 232, 198
-0.998562, 113, 113, 144, 128
-0.998564, 105, 223, 168, 238
-0.998565, 401, 217, 464, 232
-0.998565, 49, 243, 80, 258
-0.99857, 93, 59, 124, 74
-0.998573, 17, 233, 80, 248
-0.998574, 89, 57, 152, 72
-0.998575, 89, 33, 120, 48
-0.998575, 377, 169, 440, 184
-0.998576, 145, 207, 208, 222
-0.998576, 89, 237, 152, 252
-0.998576, 193, 189, 256, 204
-0.998578, 169, 189, 232, 204
-0.998579, 425, 215, 488, 230
-0.99858, 225, 139, 288, 154
-0.998581, 157, 5, 188, 20
-0.998581, 49, 51, 112, 66
-0.998581, 305, 289, 336, 304
-0.998582, 89, 105, 152, 120
-0.998583, 417, 59, 480, 74
-0.998584, 89, 51, 152, 66
-0.998586, 297, 249, 360, 264
-0.998586, 185, 215, 248, 230
-0.998586, 129, 241, 256, 272
-0.998586, 57, 63, 120, 78
-0.998587, 97, 229, 160, 244
-0.998587, 281, 221, 344, 236
-0.998587, 57, 85, 120, 100
-0.998588, 297, 295, 360, 310
-0.998589, 409, 79, 472, 94
-0.99859, 305, 217, 368, 232
-0.99859, 137, 239, 200, 254
-0.99859, 49, 45, 112, 60
-0.99859, 57, 33, 120, 48
-0.998591, 265, 201, 328, 216
-0.998592, 369, 107, 432, 122
-0.998592, 313, 181, 376, 196
-0.998593, 193, 183, 256, 198
-0.998594, 25, 253, 88, 268
-0.998595, 89, 119, 152, 134
-0.998597, 153, 97, 216, 112
-0.998597, 9, 1, 72, 128
-0.998598, 369, 113, 432, 128
-0.9986, 241, 161, 368, 192
-0.9986, 89, 19, 120, 34
-0.998601, 329, 131, 392, 146
-0.998601, 137, 213, 200, 228
-0.998601, 257, 133, 320, 148
-0.998602, 385, 183, 448, 198
-0.998603, 25, 247, 88, 262
-0.998603, 89, 83, 152, 98
-0.998605, 65, 215, 128, 230
-0.998607, 161, 235, 224, 250
-0.998607, 153, 1, 216, 16
-0.998608, 73, 45, 136, 60
-0.998612, 369, 175, 432, 190
-0.998612, 81, 5, 144, 20
-0.998612, 337, 119, 400, 134
-0.998612, 57, 73, 120, 88
-0.998613, 353, 165, 416, 180
-0.998615, 409, 207, 472, 222
-0.998615, 113, 217, 176, 232
-0.998616, 297, 301, 360, 316
-0.998616, 265, 127, 328, 142
-0.998617, 17, 225, 80, 240
-0.998617, 129, 7, 192, 22
-0.998617, 225, 125, 288, 140
-0.998617, 409, 73, 472, 88
-0.998618, 369, 199, 432, 214
-0.998618, 361, 193, 424, 208
-0.99862, 185, 119, 248, 134
-0.99862, 401, 93, 464, 108
-0.998621, 105, 201, 168, 216
-0.998622, 49, 39, 112, 54
-0.998623, 49, 101, 112, 116
-0.998623, 65, 229, 128, 244
-0.998624, 49, 109, 112, 124
-0.998624, 97, 163, 160, 178
-0.998625, 153, 111, 216, 126
-0.998625, 377, 209, 440, 224
-0.998626, 289, 183, 352, 198
-0.998627, 105, 179, 168, 194
-0.998628, 313, 173, 376, 188
-0.998628, 113, 117, 176, 132
-0.998628, 321, 201, 384, 216
-0.998631, 369, 91, 432, 106
-0.998631, 193, 137, 256, 152
-0.998632, 281, 189, 344, 204
-0.998633, 225, 145, 288, 160
-0.998633, 109, 17, 140, 32
-0.998634, 49, 65, 80, 320
-0.998649, 249, 81, 280, 208
-0.998666, 89, 1, 104, 128
-0.998679, 115, 97, 130, 224
-0.998681, 393, 81, 408, 208
-0.998691, 61, 65, 92, 320
-0.998701, 257, 49, 500, 112
-0.998717, 361, 65, 392, 320
-0.99872, 387, 81, 402, 208
-0.998734, 101, 17, 116, 144
-0.998739, 209, 33, 272, 160
-0.99874, 261, 65, 292, 320
-0.998798, 117, 161, 132, 288
-0.998805, 107, 161, 122, 288
-0.998823, 457, 33, 472, 160
-0.998823, 321, 57, 448, 88
-0.998825, 127, 97, 142, 224
-0.998843, 403, 81, 418, 208
-0.998854, 173, 161, 188, 288
-0.998857, 225, 65, 256, 192
-0.998859, 369, 221, 496, 252
-0.998865, 37, 145, 68, 272
-0.998874, 187, 177, 202, 304
-0.998878, 147, 113, 162, 240
-0.998885, 231, 113, 246, 240
-0.998889, 369, 13, 496, 44
-0.998893, 163, 161, 178, 288
-0.998898, 81, 253, 208, 284
-0.9989, 193, 161, 320, 192
-0.998905, 159, 97, 174, 224
-0.998909, 155, 161, 170, 288
-0.99893, 453, 81, 484, 208
-0.998932, 95, 17, 110, 144
-0.998935, 141, 97, 156, 224
-0.998941, 145, 1, 160, 128
-0.998944, 101, 97, 116, 224
-0.998962, 311, 209, 326, 333
-0.998968, 283, 113, 298, 240
-0.998974, 485, 1, 500, 128
-0.998976, 263, 129, 278, 256
-0.998976, 179, 161, 194, 288
-0.998981, 483, 209, 498, 333
-0.998985, 107, 113, 122, 240
-0.998993, 73, 193, 88, 320
-0.999002, 83, 1, 98, 128
-0.999004, 153, 97, 168, 224
-0.999011, 333, 129, 348, 256
-0.999013, 473, 209, 488, 333
-0.999013, 197, 209, 228, 333
-0.999018, 123, 161, 138, 288
-0.999028, 329, 177, 344, 304
-0.999028, 121, 97, 136, 224
-0.99903, 217, 113, 232, 240
-0.99904, 65, 193, 80, 320
-0.999043, 429, 49, 444, 176
-0.999047, 113, 1, 128, 128
-0.999049, 225, 113, 240, 240
-0.99905, 107, 17, 122, 144
-0.999054, 131, 1, 146, 128
-0.999061, 193, 269, 320, 300
-0.999062, 467, 209, 482, 333
-0.999064, 309, 129, 324, 256
-0.999065, 233, 65, 264, 320
-0.999072, 477, 17, 492, 144
-0.999073, 179, 81, 194, 208
-0.999077, 319, 129, 334, 256
-0.999079, 159, 1, 174, 128
-0.99908, 165, 113, 180, 240
-0.999082, 269, 129, 284, 256
-0.999086, 249, 129, 264, 256
-0.999088, 135, 177, 150, 304
-0.999089, 171, 81, 186, 208
-0.999092, 423, 49, 438, 176
-0.999094, 413, 81, 428, 208
-0.999103, 203, 81, 218, 208
-0.999104, 289, 113, 304, 240
-0.999105, 13, 193, 28, 320
-0.999106, 133, 113, 148, 240
-0.999111, 441, 49, 456, 176
-0.99912, 381, 97, 396, 224
-0.999141, 463, 33, 478, 160
-0.999158, 187, 81, 202, 208
-0.999159, 101, 177, 116, 304
-0.999164, 301, 209, 316, 333
-0.999165, 59, 193, 74, 320
-0.999168, 45, 193, 60, 320
-0.999171, 435, 49, 450, 176
-0.999172, 277, 129, 292, 256
-0.999173, 25, 193, 40, 320
-0.999174, 395, 129, 410, 256
-0.999186, 255, 129, 270, 256
-0.999192, 325, 129, 340, 256
-0.999193, 237, 113, 252, 240
-0.999195, 469, 17, 484, 144
-0.999198, 123, 209, 138, 333
-0.999202, 209, 97, 224, 224
-0.999205, 149, 177, 164, 304
-0.999219, 35, 193, 50, 320
-0.99922, 357, 113, 372, 240
-0.999223, 193, 193, 208, 320
-0.999224, 193, 81, 208, 208
-0.999226, 95, 193, 110, 320
-0.999226, 299, 129, 314, 256
-0.999241, 129, 193, 144, 320
-0.999245, 53, 193, 68, 320
-0.999249, 451, 33, 466, 160
-0.999249, 1, 209, 16, 333
-0.999253, 107, 209, 122, 333
-0.999255, 335, 209, 350, 333
-0.999261, 375, 113, 390, 240
-0.999264, 137, 49, 152, 176
-0.999266, 173, 1, 188, 128
-0.999267, 323, 209, 338, 333
-0.99927, 339, 161, 354, 288
-0.999274, 245, 65, 276, 320
-0.999274, 93, 65, 108, 192
-0.999277, 349, 113, 364, 240
-0.999277, 89, 193, 104, 320
-0.999278, 461, 209, 476, 333
-0.999279, 79, 193, 94, 320
-0.999282, 137, 1, 152, 128
-0.999283, 19, 193, 34, 320
-0.999283, 317, 193, 332, 320
-0.999287, 385, 145, 400, 272
-0.999289, 343, 113, 358, 240
-0.999292, 177, 209, 192, 333
-0.999296, 21, 65, 52, 320
-0.999296, 121, 17, 136, 144
-0.999301, 141, 145, 156, 272
-0.999322, 7, 209, 22, 333
-0.999337, 151, 1, 166, 128
-0.999343, 179, 1, 194, 128
-0.999344, 367, 113, 382, 240
-0.99935, 403, 129, 418, 256
-0.999352, 411, 161, 426, 288
-0.999355, 53, 1, 84, 128
-0.999357, 199, 161, 214, 288
-0.99936, 1, 65, 32, 320
-0.999366, 451, 177, 466, 304
-0.999373, 177, 85, 304, 116
-0.999374, 115, 49, 130, 176
-0.999381, 243, 129, 258, 256
-0.999386, 107, 65, 122, 192
-0.999389, 185, 129, 200, 256
-0.999396, 75, 145, 90, 272
-0.999397, 117, 209, 132, 333
-0.999407, 193, 129, 208, 256
-0.999408, 433, 161, 448, 288
-0.999412, 445, 193, 460, 320
-0.999423, 163, 209, 178, 333
-0.999431, 185, 1, 200, 128
-0.999434, 293, 161, 308, 288
-0.999436, 223, 65, 238, 192
-0.999452, 193, 241, 320, 272
-0.999478, 193, 253, 320, 284
-0.999485, 97, 265, 224, 328
-0.999505, 113, 41, 240, 72
-0.99951, 193, 285, 320, 316
-0.999526, 49, 265, 176, 328
-0.999615, 403, 199, 418, 214
-0.999615, 333, 259, 348, 274
-0.999617, 91, 87, 106, 102
-0.999617, 219, 213, 234, 228
-0.999618, 107, 115, 122, 130
-0.999618, 95, 105, 110, 120
-0.999619, 107, 13, 122, 28
-0.99962, 473, 37, 488, 52
-0.99962, 151, 19, 166, 34
-0.999621, 413, 87, 428, 102
-0.999621, 97, 245, 112, 260
-0.999621, 105, 59, 120, 74
-0.999621, 141, 1, 156, 16
-0.999622, 407, 175, 422, 190
-0.999622, 163, 215, 178, 230
-0.999622, 157, 109, 172, 124
-0.999623, 113, 21, 128, 36
-0.999623, 309, 281, 324, 296
-0.999624, 311, 179, 326, 194
-0.999624, 271, 203, 286, 218
-0.999628, 401, 93, 416, 108
-0.999628, 397, 185, 412, 200
-0.999629, 411, 193, 426, 208
-0.99963, 171, 193, 186, 208
-0.99963, 383, 119, 398, 134
-0.999631, 135, 3, 150, 18
-0.999631, 111, 59, 126, 74
-0.999631, 215, 183, 230, 198
-0.999631, 461, 51, 476, 66
-0.999631, 55, 255, 70, 270
-0.999634, 391, 95, 406, 110
-0.999634, 207, 181, 222, 196
-0.999634, 205, 213, 220, 228
-0.999635, 155, 13, 170, 28
-0.999635, 133, 19, 148, 34
-0.999635, 317, 291, 332, 306
-0.999636, 45, 243, 60, 258
-0.999636, 403, 169, 418, 184
-0.999636, 127, 5, 142, 20
-0.999636, 69, 231, 84, 246
-0.999636, 105, 235, 120, 250
-0.999637, 311, 275, 326, 290
-0.999638, 93, 65, 108, 80
-0.999638, 213, 211, 228, 226
-0.999638, 215, 203, 230, 218
-0.999639, 155, 117, 170, 132
-0.999639, 411, 205, 426, 220
-0.99964, 199, 205, 214, 220
-0.99964, 461, 63, 476, 78
-0.99964, 209, 109, 224, 124
-0.999641, 225, 207, 240, 222
-0.999641, 1, 233, 16, 248
-0.999641, 127, 19, 142, 34
-0.999642, 407, 89, 422, 104
-0.999643, 85, 241, 100, 256
-0.999643, 181, 1, 196, 16
-0.999643, 341, 255, 356, 270
-0.999644, 143, 13, 158, 28
-0.999644, 369, 253, 496, 284
-0.999644, 309, 261, 324, 276
-0.999645, 85, 41, 100, 56
-0.999645, 35, 241, 50, 256
-0.999646, 179, 193, 194, 208
-0.999646, 67, 217, 82, 232
-0.999646, 103, 65, 118, 80
-0.999647, 303, 237, 318, 252
-0.999648, 313, 217, 328, 232
-0.999648, 129, 77, 256, 108
-0.999648, 165, 5, 180, 20
-0.999648, 1, 265, 500, 328
-0.999649, 99, 81, 114, 96
-0.999649, 65, 249, 80, 264
-0.999649, 177, 227, 192, 242
-0.999649, 95, 43, 110, 58
-0.99965, 193, 201, 208, 216
-0.99965, 249, 97, 312, 160
-0.999651, 97, 111, 112, 126
-0.999653, 169, 213, 184, 228
-0.999653, 199, 217, 214, 232
-0.999654, 83, 121, 98, 136
-0.999655, 199, 211, 214, 226
-0.999656, 117, 113, 132, 128
-0.999656, 77, 225, 92, 240
-0.999657, 385, 99, 400, 114
-0.999658, 393, 125, 408, 140
-0.999659, 119, 21, 134, 36
-0.999659, 93, 93, 108, 108
-0.999661, 123, 111, 138, 126
-0.999661, 407, 181, 422, 196
-0.999662, 173, 221, 188, 236
-0.999663, 133, 11, 148, 26
-0.999664, 165, 193, 180, 208
-0.999665, 427, 67, 442, 82
-0.999666, 197, 187, 212, 202
-0.999667, 441, 63, 456, 78
-0.999667, 467, 39, 482, 54
-0.999668, 303, 249, 318, 264
-0.999669, 319, 205, 334, 220
-0.999669, 387, 191, 402, 206
-0.99967, 57, 245, 72, 260
-0.99967, 337, 237, 352, 252
-0.999671, 193, 207, 208, 222
-0.999674, 113, 29, 128, 44
-0.999675, 113, 211, 128, 226
-0.999675, 189, 193, 204, 208
-0.999676, 67, 243, 82, 258
-0.999677, 141, 115, 156, 130
-0.999677, 119, 9, 134, 24
-0.999679, 321, 199, 336, 214
-0.999679, 339, 243, 354, 258
-0.999681, 171, 3, 186, 18
-0.999682, 461, 45, 476, 60
-0.999683, 91, 23, 106, 38
-0.999685, 163, 221, 178, 236
-0.999686, 455, 59, 470, 74
-0.999687, 145, 19, 160, 34
-0.999688, 157, 193, 172, 208
-0.999688, 161, 13, 176, 28
-0.99969, 309, 287, 324, 302
-0.99969, 95, 51, 110, 66
-0.99969, 353, 65, 384, 192
-0.999693, 189, 227, 204, 242
-0.999695, 121, 15, 136, 30
-0.999698, 315, 281, 330, 296
-0.999699, 99, 29, 114, 44
-0.999699, 417, 81, 432, 96
-0.9997, 105, 207, 120, 222
-0.999702, 327, 197, 342, 212
-0.999705, 401, 87, 416, 102
-0.99971, 107, 25, 122, 40
-0.999714, 303, 243, 318, 258
-0.999726, 99, 59, 114, 74
-0.99973, 273, 85, 400, 116
-0.999734, 127, 11, 142, 26
-0.999742, 29, 49, 60, 176
-0.999748, 89, 35, 104, 50
-0.999764, 113, 15, 128, 30
-0.999809, 353, 217, 416, 280
-0.999812, 33, 65, 64, 320
-0.999829, 337, 289, 464, 320
-0.999864, 193, 297, 320, 328
-0.999963, 113, 25, 240, 56
-0.999994, 1, 1, 32, 128
-1.00001, 145, 257, 272, 320
-1.00003, 337, 269, 464, 300
-1.00011, 177, 1, 304, 32
-1.00011, 57, 49, 88, 176
-1.00016, 161, 33, 288, 64
-1.00018, 177, 65, 304, 96
-1.00021, 33, 297, 160, 328
-1.00025, 1, 273, 128, 304
-1.00029, 321, 45, 448, 76
-1.00031, 17, 137, 80, 200
-1.00035, 257, 97, 384, 128
-1.00035, 369, 301, 496, 332
-1.00036, 465, 65, 496, 192
-1.00049, 385, 25, 448, 88
-1.00064, 425, 113, 456, 240
-1.00078, 41, 81, 72, 208
-1.0009, 65, 273, 320, 333
-1.00108, 29, 1, 60, 128
-1.00112, 161, 33, 288, 96
-1.00116, 1, 81, 32, 208
-1.00125, 225, 81, 352, 144
-1.00133, 185, 17, 248, 144
-1.00149, 161, 57, 416, 120
-1.00149, 257, 1, 500, 64
-1.00154, 433, 81, 496, 208
-1.00164, 41, 33, 72, 160
-1.00207, 129, 33, 384, 96
-1.00276, 193, 9, 320, 72
-1.00288, 241, 41, 368, 104
-1.00291, 273, 17, 400, 80
-1.00309, 353, 209, 416, 333
-1.00391, 321, 9, 448, 72
-1.00449, 177, 17, 304, 144
-1.00568, 361, 1, 424, 128
-1.00786, 241, 33, 368, 160
-1.0082, 233, 33, 296, 160
-1.00857, 329, 17, 392, 144
-1.00912, 281, 33, 344, 160
-1.01474, 257, 33, 320, 160
-1.01724, 305, 1, 368, 128
