1954
-0.323585, 1, 1, 500, 375
-0.329768, 1, 97, 500, 352
-0.409556, 1, 1, 500, 256
-0.452623, 65, 1, 320, 375
-0.519014, 225, 1, 480, 375
-0.659804, 65, 1, 320, 256
-0.697659, 161, 129, 416, 375
-0.736058, 257, 129, 500, 375
-0.755305, 65, 129, 320, 375
-0.799934, 225, 33, 480, 288
-0.86008, 257, 97, 384, 352
-0.862934, 97, 1, 224, 375
-0.86465, 177, 97, 304, 352
-0.866847, 193, 1, 320, 256
-0.87249, 177, 1, 304, 375
-0.874191, 1, 177, 500, 304
-0.879758, 49, 1, 176, 375
-0.880738, 257, 1, 384, 256
-0.880919, 369, 129, 496, 375
-0.881876, 129, 1, 256, 256
-0.883081, 273, 1, 400, 375
-0.893076, 305, 129, 432, 375
-0.894231, 81, 1, 208, 256
-0.894265, 1, 129, 500, 256
-0.89484, 129, 97, 256, 352
-0.895233, 337, 1, 464, 375
-0.897378, 1, 225, 500, 352
-0.897603, 1, 1, 500, 128
-0.900176, 1, 1, 128, 375
-0.900874, 33, 129, 160, 375
-0.906924, 225, 209, 480, 336
-0.912859, 225, 1, 352, 375
-0.913032, 81, 129, 208, 375
-0.913054, 305, 33, 432, 288
-0.914328, 65, 1, 320, 128
-0.920059, 33, 33, 160, 288
-0.922198, 369, 1, 496, 256
-0.928122, 33, 177, 288, 304
-0.929431, 129, 161, 384, 288
-0.934012, 161, 33, 416, 160
-0.936205, 1, 81, 500, 208
-0.936213, 225, 161, 480, 288
-0.938842, 353, 193, 416, 320
-0.939094, 65, 97, 320, 224
-0.939489, 289, 177, 416, 304
-0.940136, 225, 81, 480, 208
-0.940617, 1, 225, 256, 352
-0.940738, 265, 193, 328, 320
-0.941371, 33, 49, 288, 176
-0.943075, 257, 17, 500, 144
-0.943887, 129, 225, 384, 352
-0.944391, 313, 209, 376, 336
-0.944746, 337, 177, 464, 304
-0.944972, 257, 193, 320, 256
-0.946493, 193, 1, 320, 128
-0.947757, 273, 241, 336, 368
-0.948989, 353, 201, 416, 264
-0.949166, 425, 161, 488, 288
-0.949444, 145, 1, 272, 128
-0.949958, 241, 161, 368, 288
-0.950012, 161, 97, 288, 224
-0.950127, 249, 1, 312, 128
-0.950249, 241, 49, 368, 176
-0.95055, 257, 145, 320, 272
-0.951159, 289, 177, 352, 304
-0.951164, 177, 177, 304, 304
-0.951966, 249, 49, 312, 176
-0.951982, 337, 129, 400, 256
-0.95206, 241, 97, 368, 224
-0.952344, 201, 1, 264, 128
-0.953401, 257, 225, 384, 352
-0.953772, 217, 25, 280, 88
-0.953974, 81, 177, 208, 304
-0.954687, 257, 1, 384, 128
-0.954771, 81, 225, 208, 352
-0.954788, 377, 177, 440, 304
-0.954891, 169, 1, 232, 128
-0.955258, 297, 201, 360, 264
-0.955334, 369, 225, 496, 352
-0.955395, 241, 209, 304, 336
-0.956529, 249, 49, 312, 112
-0.95654, 1, 225, 128, 352
-0.95678, 73, 1, 136, 128
-0.957077, 177, 225, 304, 352
-0.957615, 177, 49, 304, 176
-0.957685, 161, 113, 224, 240
-0.957937, 97, 177, 160, 304
-0.958382, 97, 33, 224, 160
-0.958726, 41, 177, 104, 304
-0.958929, 225, 1, 288, 128
-0.959025, 257, 97, 320, 224
-0.959626, 177, 49, 240, 176
-0.959852, 321, 1, 448, 128
-0.960054, 305, 241, 432, 368
-0.96027, 393, 225, 456, 352
-0.960421, 425, 177, 488, 240
-0.960421, 321, 201, 384, 264
-0.961024, 177, 177, 240, 304
-0.961218, 129, 177, 256, 304
-0.961243, 361, 177, 424, 240
-0.96134, 369, 129, 496, 256
-0.961371, 217, 129, 280, 256
-0.961429, 65, 225, 128, 352
-0.961682, 17, 161, 144, 288
-0.961838, 273, 233, 336, 296
-0.961992, 289, 129, 352, 256
-0.962202, 137, 145, 200, 272
-0.962248, 385, 217, 448, 280
-0.962463, 433, 225, 496, 352
-0.962712, 273, 289, 336, 352
-0.962787, 1, 209, 64, 336
-0.962841, 289, 129, 416, 256
-0.962934, 137, 33, 200, 160
-0.963516, 17, 1, 144, 128
-0.96376, 289, 49, 416, 176
-0.963988, 337, 169, 400, 232
-0.96411, 145, 193, 208, 320
-0.964285, 385, 1, 448, 128
-0.964512, 201, 1, 264, 64
-0.964614, 113, 113, 240, 240
-0.96494, 289, 17, 352, 144
-0.965041, 73, 177, 136, 304
-0.965163, 297, 177, 360, 240
-0.965284, 241, 25, 304, 88
-0.965401, 353, 225, 416, 288
-0.965612, 65, 201, 128, 264
-0.965929, 201, 177, 264, 304
-0.965943, 105, 217, 168, 280
-0.965985, 97, 17, 160, 144
-0.966081, 361, 241, 424, 368
-0.966664, 137, 233, 200, 296
-0.966712, 385, 193, 448, 256
-0.966807, 313, 161, 376, 288
-0.967166, 129, 225, 256, 352
-0.967247, 225, 1, 288, 64
-0.967325, 289, 65, 352, 128
-0.967618, 313, 225, 376, 288
-0.968321, 249, 105, 312, 168
-0.968519, 361, 65, 424, 192
-0.96868, 185, 97, 248, 224
-0.968911, 225, 217, 288, 280
-0.968932, 321, 81, 384, 208
-0.968972, 249, 217, 312, 280
-0.969183, 385, 201, 416, 264
-0.969356, 393, 265, 456, 328
-0.969399, 185, 41, 248, 104
-0.969419, 401, 177, 464, 304
-0.969435, 289, 201, 416, 264
-0.969529, 97, 185, 160, 248
-0.969529, 209, 49, 272, 176
-0.969621, 177, 17, 240, 80
-0.969715, 289, 65, 352, 192
-0.969764, 217, 153, 280, 216
-0.9699, 169, 137, 232, 200
-0.970089, 145, 25, 208, 88
-0.970095, 97, 241, 160, 304
-0.970299, 425, 201, 488, 264
-0.970357, 33, 225, 96, 352
-0.970408, 65, 241, 128, 304
-0.970613, 177, 241, 240, 368
-0.970956, 337, 241, 400, 368
-0.971043, 269, 185, 300, 248
-0.97107, 249, 73, 312, 136
-0.971073, 65, 1, 128, 64
-0.971096, 305, 249, 368, 312
-0.971409, 401, 113, 464, 240
-0.971511, 337, 217, 464, 280
-0.971527, 257, 33, 320, 288
-0.97157, 361, 129, 424, 256
-0.971756, 153, 97, 216, 160
-0.971787, 289, 185, 320, 248
-0.972027, 225, 49, 288, 112
-0.97228, 289, 161, 320, 288
-0.97232, 273, 257, 336, 320
-0.972345, 241, 169, 304, 232
-0.972549, 289, 33, 352, 96
-0.972564, 121, 225, 184, 352
-0.972756, 381, 193, 412, 320
-0.972801, 41, 209, 104, 272
-0.973044, 137, 97, 200, 224
-0.97311, 209, 9, 336, 72
-0.973229, 1, 145, 64, 272
-0.973258, 361, 265, 424, 328
-0.973547, 425, 129, 488, 375
-0.973663, 273, 89, 336, 152
-0.973722, 433, 289, 496, 352
-0.973906, 145, 1, 208, 256
-0.974092, 249, 1, 312, 64
-0.974111, 169, 241, 232, 304
-0.974112, 49, 97, 176, 224
-0.974145, 233, 193, 296, 256
-0.974163, 241, 265, 304, 328
-0.974256, 145, 201, 208, 264
-0.97429, 313, 281, 376, 344
-0.974491, 137, 177, 200, 240
-0.974584, 433, 241, 496, 304
-0.97464, 9, 1, 72, 128
-0.974748, 337, 65, 400, 128
-0.974786, 33, 233, 96, 296
-0.974808, 353, 1, 416, 128
-0.974832, 249, 305, 312, 368
-0.974837, 17, 193, 80, 256
-0.974874, 65, 177, 128, 240
-0.975067, 257, 233, 384, 296
-0.975083, 89, 225, 152, 352
-0.975201, 289, 177, 416, 240
-0.975357, 177, 233, 304, 296
-0.975374, 241, 193, 368, 256
-0.975402, 265, 169, 328, 232
-0.975481, 353, 169, 480, 232
-0.975498, 369, 193, 400, 256
-0.975551, 201, 113, 264, 176
-0.975565, 177, 33, 240, 288
-0.975568, 313, 73, 376, 136
-0.975649, 337, 65, 464, 192
-0.975704, 361, 129, 424, 375
-0.975727, 269, 177, 300, 304
-0.975808, 153, 49, 216, 112
-0.97592, 289, 129, 352, 375
-0.975923, 97, 97, 160, 224
-0.975989, 273, 41, 400, 104
-0.976002, 257, 129, 320, 375
-0.976068, 89, 9, 152, 72
-0.976073, 241, 145, 304, 208
-0.976136, 185, 193, 248, 256
-0.976154, 257, 1, 288, 128
-0.976237, 201, 1, 264, 256
-0.976237, 385, 169, 448, 232
-0.976365, 225, 241, 288, 304
-0.976601, 453, 161, 484, 224
-0.976794, 177, 113, 240, 176
-0.976894, 273, 1, 304, 128
-0.97692, 193, 97, 320, 160
-0.976933, 217, 225, 280, 352
-0.977045, 161, 49, 288, 112
-0.977293, 361, 289, 424, 352
-0.977321, 161, 161, 224, 224
-0.977341, 321, 33, 384, 160
-0.977344, 337, 193, 464, 256
-0.977354, 9, 217, 72, 280
-0.977355, 273, 65, 304, 128
-0.977366, 289, 225, 320, 288
-0.977372, 285, 49, 316, 176
-0.97754, 129, 153, 192, 216
-0.977772, 121, 25, 184, 88
-0.977877, 373, 169, 404, 232
-0.977925, 225, 1, 256, 128
-0.977937, 433, 265, 496, 328
-0.97796, 281, 41, 312, 104
-0.977979, 225, 1, 256, 64
-0.978006, 329, 193, 360, 256
-0.978006, 233, 97, 296, 352
-0.978078, 409, 1, 472, 128
-0.978157, 273, 89, 400, 152
-0.97819, 393, 193, 424, 320
-0.978389, 349, 1, 380, 128
-0.978431, 49, 1, 112, 128
-0.978439, 161, 73, 224, 136
-0.97853, 289, 209, 320, 336
-0.978547, 341, 49, 372, 112
-0.978565, 269, 49, 300, 176
-0.978665, 261, 41, 292, 104
-0.978797, 41, 185, 104, 248
-0.978853, 277, 225, 308, 352
-0.978875, 329, 41, 392, 104
-0.978888, 273, 9, 304, 72
-0.978938, 313, 129, 376, 375
-0.978956, 9, 1, 72, 64
-0.978997, 249, 25, 280, 88
-0.979, 81, 233, 208, 296
-0.979017, 265, 129, 328, 192
-0.979024, 33, 49, 160, 176
-0.979079, 153, 241, 216, 368
-0.979119, 209, 97, 272, 352
-0.979256, 273, 313, 336, 375
-0.979304, 225, 105, 288, 168
-0.979306, 257, 257, 384, 320
-0.979313, 145, 9, 272, 72
-0.979343, 345, 1, 408, 256
-0.979403, 293, 281, 324, 344
-0.979428, 201, 233, 264, 296
-0.979472, 337, 257, 400, 320
-0.979532, 369, 193, 400, 320
-0.979553, 401, 289, 464, 352
-0.979684, 257, 1, 288, 64
-0.979692, 329, 105, 392, 168
-0.979722, 337, 137, 400, 200
-0.979769, 145, 121, 272, 184
-0.979809, 393, 1, 456, 64
-0.979847, 177, 145, 304, 208
-0.979879, 189, 49, 220, 176
-0.979905, 89, 1, 152, 256
-0.979915, 237, 1, 268, 128
-0.979942, 213, 1, 244, 64
-0.980022, 129, 201, 160, 264
-0.980029, 225, 65, 352, 128
-0.980097, 453, 145, 484, 272
-0.980127, 213, 1, 244, 128
-0.980198, 281, 89, 312, 152
-0.980375, 169, 217, 232, 280
-0.980426, 337, 129, 400, 375
-0.980437, 129, 225, 160, 288
-0.980471, 337, 281, 400, 344
-0.980474, 33, 241, 160, 304
-0.980499, 349, 209, 380, 336
-0.980514, 249, 241, 312, 304
-0.980529, 393, 241, 456, 304
-0.98055, 209, 177, 272, 240
-0.980588, 329, 1, 392, 64
-0.980612, 49, 49, 112, 176
-0.980627, 257, 17, 384, 80
-0.980633, 357, 201, 388, 264
-0.980663, 269, 129, 300, 256
-0.980674, 85, 177, 116, 304
-0.980724, 177, 73, 304, 136
-0.980801, 301, 241, 332, 304
-0.980812, 33, 209, 160, 272
-0.980821, 129, 241, 256, 304
-0.980839, 221, 25, 252, 88
-0.98086, 369, 145, 400, 272
-0.981005, 301, 225, 332, 352
-0.981134, 97, 97, 160, 352
-0.981163, 329, 177, 360, 304
-0.98121, 129, 121, 192, 184
-0.981215, 425, 153, 488, 216
-0.981367, 393, 129, 456, 375
-0.981471, 401, 217, 432, 280
-0.981509, 97, 25, 224, 88
-0.981543, 265, 25, 328, 88
-0.981562, 369, 17, 496, 144
-0.981595, 381, 241, 412, 368
-0.98161, 241, 169, 368, 232
-0.981717, 89, 33, 152, 96
-0.981765, 109, 217, 140, 280
-0.981778, 1, 185, 128, 248
-0.981846, 381, 273, 412, 336
-0.981914, 277, 113, 308, 176
-0.981953, 113, 145, 240, 208
-0.981955, 425, 97, 488, 224
-0.982023, 137, 257, 200, 320
-0.982047, 381, 145, 412, 272
-0.982098, 113, 1, 176, 375
-0.982314, 281, 33, 344, 288
-0.982425, 337, 289, 464, 352
-0.982455, 381, 225, 412, 288
-0.982507, 133, 177, 164, 304
-0.982524, 353, 265, 480, 328
-0.982531, 169, 33, 200, 96
-0.982555, 1, 113, 128, 240
-0.982565, 341, 81, 372, 144
-0.982575, 297, 153, 360, 216
-0.982619, 73, 177, 104, 304
-0.982648, 329, 41, 360, 104
-0.982718, 97, 201, 128, 264
-0.982745, 257, 81, 288, 208
-0.982747, 101, 193, 132, 320
-0.982752, 185, 65, 248, 128
-0.982789, 141, 233, 172, 296
-0.982818, 337, 241, 464, 304
-0.982886, 89, 1, 120, 64
-0.982969, 261, 225, 292, 288
-0.982977, 193, 145, 256, 208
-0.983009, 129, 1, 192, 64
-0.983021, 185, 169, 248, 232
-0.983073, 193, 121, 320, 184
-0.983092, 145, 209, 272, 272
-0.983123, 1, 1, 128, 64
-0.983134, 237, 17, 268, 80
-0.98316, 65, 1, 192, 64
-0.983194, 121, 81, 184, 144
-0.983206, 313, 225, 344, 352
-0.983207, 193, 185, 320, 248
-0.983231, 121, 57, 184, 120
-0.983234, 457, 281, 488, 344
-0.983264, 121, 1, 184, 256
-0.983285, 197, 1, 228, 128
-0.983299, 205, 145, 236, 208
-0.983309, 337, 225, 368, 352
-0.983424, 225, 1, 288, 256
-0.983448, 305, 305, 368, 368
-0.983462, 209, 33, 240, 96
-0.983476, 277, 241, 308, 304
-0.983507, 257, 105, 288, 168
-0.983509, 105, 161, 168, 224
-0.983527, 1, 1, 32, 128
-0.983573, 385, 177, 416, 240
-0.983611, 41, 97, 104, 352
-0.983645, 97, 113, 224, 176
-0.983733, 269, 145, 300, 208
-0.983748, 285, 113, 316, 240
-0.983779, 113, 241, 144, 304
-0.983784, 225, 81, 288, 144
-0.983808, 241, 113, 368, 176
-0.983819, 209, 33, 336, 96
-0.983826, 249, 129, 280, 256
-0.983884, 25, 209, 56, 336
-0.98389, 309, 201, 340, 264
-0.983895, 181, 121, 212, 184
-0.983905, 369, 1, 432, 64
-0.983911, 337, 33, 368, 160
-0.983945, 209, 265, 336, 328
-0.983988, 273, 65, 400, 128
-0.984003, 169, 33, 200, 160
-0.98401, 209, 177, 240, 304
-0.98405, 257, 209, 288, 336
-0.984076, 425, 1, 488, 64
-0.984091, 305, 105, 368, 168
-0.984096, 353, 57, 384, 120
-0.984115, 249, 81, 280, 144
-0.984147, 321, 1, 384, 256
-0.984156, 181, 33, 212, 96
-0.98418, 97, 81, 224, 144
-0.984187, 13, 1, 44, 128
-0.984189, 305, 265, 432, 328
-0.984248, 73, 57, 136, 120
-0.98426, 121, 177, 152, 304
-0.984271, 337, 1, 400, 375
-0.984297, 349, 113, 380, 240
-0.984309, 41, 129, 104, 256
-0.984321, 129, 97, 192, 352
-0.984335, 137, 1, 200, 375
-0.984336, 241, 49, 272, 176
-0.98437, 81, 169, 208, 232
-0.984386, 289, 153, 416, 216
-0.984436, 81, 201, 112, 264
-0.984455, 169, 1, 232, 375
-0.984488, 193, 49, 224, 112
-0.984536, 89, 1, 120, 128
-0.984573, 405, 209, 436, 336
-0.984584, 461, 209, 492, 336
-0.984585, 9, 209, 40, 336
-0.984625, 205, 81, 236, 208
-0.984663, 169, 81, 200, 144
-0.984672, 161, 1, 192, 64
-0.984676, 177, 193, 208, 320
-0.984682, 249, 57, 280, 120
-0.984706, 401, 265, 432, 328
-0.984723, 185, 113, 216, 240
-0.984788, 377, 1, 408, 128
-0.984798, 185, 1, 216, 128
-0.984862, 417, 209, 448, 336
-0.984895, 385, 49, 448, 176
-0.984906, 181, 217, 212, 280
-0.98491, 469, 185, 500, 248
-0.984922, 285, 161, 316, 224
-0.984926, 49, 65, 112, 128
-0.984977, 289, 289, 416, 352
-0.985108, 257, 193, 288, 256
-0.98513, 81, 81, 144, 144
-0.985132, 97, 177, 128, 240
-0.98517, 93, 241, 124, 304
-0.985223, 401, 193, 432, 256
-0.985223, 281, 1, 344, 375
-0.985241, 361, 89, 424, 152
-0.985325, 433, 313, 496, 375
-0.985398, 241, 1, 304, 375
-0.985425, 113, 49, 240, 112
-0.985512, 61, 217, 92, 280
-0.985557, 169, 129, 232, 375
-0.985572, 185, 241, 216, 304
-0.985605, 289, 9, 352, 72
-0.985634, 5, 1, 36, 64
-0.985652, 185, 89, 248, 152
-0.985657, 465, 145, 496, 272
-0.985663, 321, 81, 448, 144
-0.985687, 33, 25, 160, 88
-0.985697, 89, 1, 152, 375
-0.985721, 317, 225, 348, 288
-0.985764, 165, 225, 196, 352
-0.985778, 213, 113, 244, 176
-0.98579, 105, 17, 136, 144
-0.985794, 217, 265, 280, 328
-0.985803, 117, 193, 148, 256
-0.985824, 45, 177, 76, 304
-0.985834, 345, 169, 376, 232
-0.985875, 321, 25, 448, 88
-0.985933, 81, 225, 112, 352
-0.985948, 269, 89, 300, 152
-0.985962, 321, 57, 448, 120
-0.985992, 341, 25, 372, 88
-0.986001, 393, 241, 424, 368
-0.986068, 261, 65, 292, 128
-0.986101, 441, 209, 472, 336
-0.986172, 33, 1, 96, 64
-0.986202, 193, 1, 256, 375
-0.986234, 65, 129, 128, 256
-0.986245, 81, 257, 208, 320
-0.986249, 337, 225, 368, 288
-0.986251, 237, 121, 268, 184
-0.986295, 457, 185, 488, 248
-0.986309, 309, 265, 340, 328
-0.986314, 169, 161, 200, 224
-0.986333, 81, 201, 208, 264
-0.986365, 225, 129, 256, 256
-0.986426, 365, 1, 396, 128
-0.986436, 193, 113, 224, 176
-0.986444, 433, 49, 496, 176
-0.986459, 241, 137, 368, 200
-0.986475, 1, 129, 64, 375
-0.986478, 77, 1, 108, 128
-0.986515, 141, 225, 172, 352
-0.98652, 429, 241, 460, 368
-0.986565, 357, 161, 388, 288
-0.986614, 173, 113, 204, 240
-0.986657, 141, 209, 172, 272
-0.986738, 285, 1, 316, 128
-0.98683, 361, 145, 424, 208
-0.986831, 277, 273, 308, 336
-0.987017, 65, 57, 192, 120
-0.987022, 153, 121, 184, 184
-0.987072, 129, 169, 256, 232
-0.987105, 445, 297, 476, 360
-0.987132, 173, 241, 204, 304
-0.987149, 65, 225, 96, 352
-0.987149, 385, 33, 448, 288
-0.987167, 309, 305, 340, 368
-0.987171, 437, 193, 468, 256
-0.987176, 73, 97, 136, 352
-0.987194, 153, 177, 184, 304
-0.987198, 233, 41, 264, 104
-0.987201, 401, 145, 464, 208
-0.987204, 153, 233, 184, 296
-0.987275, 137, 33, 168, 160
-0.98729, 221, 241, 252, 304
-0.98729, 129, 265, 256, 328
-0.987293, 285, 65, 316, 128
-0.987303, 49, 97, 112, 160
-0.987328, 73, 49, 136, 176
-0.987395, 301, 177, 332, 304
-0.987412, 225, 129, 256, 192
-0.987414, 65, 145, 192, 208
-0.987455, 229, 153, 260, 216
-0.987518, 417, 1, 480, 256
-0.987527, 325, 225, 356, 352
-0.987542, 321, 1, 352, 128
-0.987594, 245, 193, 276, 256
-0.98765, 325, 65, 356, 128
-0.98765, 369, 25, 432, 88
-0.987706, 81, 241, 112, 304
-0.987714, 469, 273, 500, 336
-0.987718, 289, 113, 416, 176
-0.98772, 109, 25, 140, 88
-0.987726, 169, 105, 200, 168
-0.987731, 153, 25, 184, 88
-0.987768, 353, 113, 384, 176
-0.987779, 361, 49, 424, 112
-0.987792, 169, 265, 232, 328
-0.987816, 225, 289, 352, 352
-0.987822, 169, 137, 200, 200
-0.987843, 61, 177, 92, 304
-0.987869, 237, 89, 268, 152
-0.98789, 117, 17, 148, 144
-0.987897, 9, 281, 72, 344
-0.987903, 341, 105, 372, 168
-0.988074, 321, 1, 448, 64
-0.988097, 353, 145, 480, 208
-0.988104, 257, 153, 288, 216
-0.988127, 25, 225, 56, 288
-0.988146, 165, 177, 196, 304
-0.988154, 273, 305, 304, 368
-0.988178, 433, 217, 464, 280
-0.988182, 377, 213, 440, 244
-0.988206, 197, 161, 228, 288
-0.988242, 145, 97, 272, 160
-0.9883, 393, 129, 424, 256
-0.988303, 17, 65, 144, 128
-0.98831, 141, 177, 172, 240
-0.988321, 369, 225, 400, 288
-0.988467, 189, 225, 220, 352
-0.988476, 45, 225, 76, 352
-0.988501, 81, 177, 112, 240
-0.988509, 353, 205, 416, 236
-0.98851, 101, 1, 132, 64
-0.988532, 45, 193, 76, 256
-0.988561, 469, 225, 500, 288
-0.988571, 285, 137, 316, 200
-0.988592, 169, 217, 200, 280
-0.988625, 17, 65, 80, 192
-0.988688, 353, 257, 384, 320
-0.988689, 29, 1, 60, 128
-0.988691, 313, 177, 344, 304
-0.988698, 157, 145, 188, 208
-0.988703, 193, 209, 320, 272
-0.988731, 197, 25, 228, 88
-0.98876, 345, 201, 376, 264
-0.988769, 393, 289, 424, 352
-0.988795, 153, 225, 184, 352
-0.988845, 465, 161, 496, 224
-0.988905, 441, 169, 472, 232
-0.988962, 369, 97, 400, 224
-0.989005, 149, 17, 180, 144
-0.989036, 45, 233, 76, 296
-0.98904, 33, 89, 160, 152
-0.989072, 257, 201, 320, 232
-0.989078, 429, 193, 460, 320
-0.989092, 297, 201, 360, 232
-0.989106, 273, 209, 304, 272
-0.989109, 217, 153, 248, 216
-0.989123, 129, 33, 160, 96
-0.989214, 249, 217, 280, 280
-0.989234, 381, 249, 412, 312
-0.989247, 365, 113, 396, 176
-0.989249, 249, 65, 312, 96
-0.989287, 441, 161, 472, 288
-0.989304, 377, 201, 440, 232
-0.989336, 361, 81, 392, 144
-0.989354, 225, 49, 256, 176
-0.989358, 433, 1, 496, 375
-0.989399, 209, 29, 272, 60
-0.989496, 305, 217, 368, 248
-0.989501, 365, 49, 396, 176
-0.989508, 345, 217, 408, 248
-0.989509, 393, 1, 456, 375
-0.989541, 313, 1, 376, 375
-0.989615, 257, 189, 320, 220
-0.989656, 337, 185, 400, 216
-0.989675, 273, 241, 336, 272
-0.98973, 405, 1, 436, 128
-0.989754, 281, 297, 344, 328
-0.989756, 237, 97, 268, 224
-0.98976, 53, 33, 84, 160
-0.989775, 241, 33, 304, 64
-0.989827, 125, 225, 156, 352
-0.989831, 249, 53, 312, 84
-0.989891, 281, 185, 344, 216
-0.989899, 385, 225, 448, 256
-0.989914, 313, 245, 376, 276
-0.989939, 433, 189, 496, 220
-0.989967, 325, 49, 356, 176
-0.989981, 209, 45, 272, 76
-0.989991, 185, 117, 248, 148
-0.990036, 281, 217, 344, 248
-0.990075, 297, 233, 360, 264
-0.990077, 225, 1, 288, 32
-0.990096, 5, 145, 36, 272
-0.990163, 241, 21, 304, 52
-0.990176, 433, 177, 496, 208
-0.990176, 105, 237, 168, 268
-0.990187, 241, 221, 304, 252
-0.990208, 281, 309, 344, 340
-0.990234, 329, 197, 392, 228
-0.990241, 217, 1, 280, 375
-0.990249, 113, 205, 176, 236
-0.99026, 65, 1, 128, 256
-0.990306, 97, 145, 128, 272
-0.990337, 353, 229, 416, 260
-0.990341, 369, 1, 432, 375
-0.990345, 385, 1, 448, 32
-0.990369, 417, 1, 448, 128
-0.990384, 281, 285, 344, 316
-0.990388, 177, 45, 240, 76
-0.990402, 113, 217, 176, 248
-0.990438, 273, 229, 336, 260
-0.990485, 361, 189, 424, 220
-0.990501, 301, 97, 332, 224
-0.990518, 349, 49, 380, 176
-0.990545, 369, 17, 496, 80
-0.990562, 193, 253, 256, 284
-0.990587, 249, 81, 312, 112
-0.990591, 81, 245, 144, 276
-0.990594, 233, 193, 296, 224
-0.990627, 217, 17, 280, 48
-0.990638, 337, 85, 400, 116
-0.990638, 193, 233, 448, 296
-0.990643, 81, 233, 144, 264
-0.990681, 241, 233, 304, 264
-0.990703, 313, 257, 376, 288
-0.990756, 297, 85, 360, 116
-0.990775, 249, 97, 312, 128
-0.990777, 289, 69, 352, 100
-0.99078, 65, 197, 128, 228
-0.990786, 97, 189, 160, 220
-0.990801, 337, 57, 400, 88
-0.990807, 289, 53, 352, 84
-0.99081, 337, 169, 400, 200
-0.990818, 257, 313, 384, 375
-0.990832, 41, 241, 104, 272
-0.990834, 65, 1, 128, 375
-0.990855, 169, 33, 232, 64
-0.990857, 241, 129, 304, 160
-0.990862, 153, 217, 216, 248
-0.990885, 201, 1, 264, 32
-0.990885, 249, 145, 312, 176
-0.990895, 281, 253, 344, 284
-0.990896, 425, 165, 488, 196
-0.990905, 25, 161, 56, 288
-0.990917, 1, 121, 128, 184
-0.990943, 217, 181, 280, 212
-0.990958, 273, 81, 336, 112
-0.990969, 201, 57, 264, 88
-0.990969, 273, 265, 336, 296
-0.990969, 241, 209, 272, 336
-0.990993, 177, 17, 240, 48
-0.991002, 153, 205, 216, 236
-0.991017, 9, 209, 72, 240
-0.991018, 337, 73, 400, 104
-0.991023, 241, 245, 304, 276
-0.991057, 169, 137, 232, 168
-0.991058, 401, 213, 464, 244
-0.991091, 237, 145, 268, 272
-0.991096, 57, 1, 120, 32
-0.991108, 33, 213, 96, 244
-0.991113, 209, 157, 272, 188
-0.991121, 1, 1, 64, 32
-0.991131, 1, 1, 64, 375
-0.991136, 345, 161, 376, 288
-0.991136, 305, 189, 368, 220
-0.991142, 433, 293, 496, 324
-0.991153, 161, 249, 224, 280
-0.991158, 321, 289, 384, 320
-0.991188, 393, 237, 456, 268
-0.991193, 385, 189, 448, 220
-0.991195, 65, 17, 320, 80
-0.991208, 121, 257, 184, 288
-0.991209, 433, 257, 496, 288
-0.991214, 313, 97, 376, 128
-0.991217, 465, 97, 496, 224
-0.991233, 89, 201, 152, 232
-0.991234, 193, 197, 256, 228
-0.991249, 73, 221, 136, 252
-0.991249, 41, 193, 104, 224
-0.991253, 321, 233, 384, 264
-0.99126, 233, 157, 296, 188
-0.991271, 345, 245, 408, 276
-0.991273, 217, 253, 280, 284
-0.991288, 145, 29, 208, 60
-0.991291, 193, 177, 256, 208
-0.991291, 241, 265, 304, 296
-0.991294, 153, 121, 216, 152
-0.991314, 225, 57, 288, 88
-0.991324, 137, 229, 200, 260
-0.991345, 109, 145, 140, 272
-0.991377, 97, 257, 160, 288
-0.991381, 361, 1, 424, 32
-0.991392, 209, 145, 272, 176
-0.991425, 249, 177, 312, 208
-0.991433, 297, 41, 360, 72
-0.991433, 353, 257, 416, 288
-0.991434, 289, 97, 352, 128
-0.991443, 305, 301, 368, 332
-0.99149, 17, 233, 80, 264
-0.991494, 169, 57, 232, 88
-0.991495, 9, 221, 72, 252
-0.991516, 329, 109, 392, 140
-0.991521, 249, 305, 312, 336
-0.991533, 257, 1, 320, 32
-0.991542, 337, 81, 368, 208
-0.991546, 273, 137, 336, 168
-0.991563, 385, 273, 448, 304
-0.991566, 9, 197, 72, 228
-0.991566, 345, 273, 408, 304
-0.991571, 361, 177, 424, 208
-0.991589, 201, 133, 264, 164
-0.991589, 257, 285, 320, 316
-0.9916, 305, 277, 368, 308
-0.99161, 417, 201, 480, 232
-0.991636, 169, 165, 232, 196
-0.991645, 265, 21, 328, 52
-0.991652, 137, 189, 200, 220
-0.991689, 49, 181, 112, 212
-0.991692, 225, 117, 288, 148
-0.991711, 81, 25, 144, 56
-0.991747, 1, 281, 128, 344
-0.991854, 121, 129, 152, 256
-0.991906, 1, 209, 500, 272
-0.991971, 41, 1, 104, 375
-0.991976, 65, 49, 96, 176
-0.992039, 381, 213, 412, 244
-0.99205, 17, 153, 144, 216
-0.992051, 153, 97, 184, 224
-0.99206, 201, 241, 232, 368
-0.992114, 257, 273, 500, 336
-0.99213, 369, 65, 496, 128
-0.992154, 49, 113, 176, 176
-0.992238, 409, 161, 440, 288
-0.99226, 221, 177, 252, 304
-0.99228, 289, 205, 320, 236
-0.992283, 453, 169, 484, 200
-0.992328, 353, 105, 480, 168
-0.992346, 377, 177, 408, 208
-0.992347, 405, 217, 436, 248
-0.992373, 385, 201, 416, 232
-0.992375, 269, 189, 300, 220
-0.992403, 65, 41, 320, 104
-0.992406, 213, 129, 244, 256
-0.99242, 281, 85, 312, 116
-0.992449, 365, 197, 396, 228
-0.992472, 389, 225, 420, 256
-0.992487, 281, 45, 312, 76
-0.992497, 365, 241, 396, 368
-0.992507, 281, 73, 312, 104
-0.992527, 261, 61, 292, 92
-0.992538, 393, 213, 424, 244
-0.992555, 1, 33, 64, 288
-0.992562, 9, 1, 40, 32
-0.992564, 249, 33, 280, 64
-0.992596, 125, 205, 156, 236
-0.992608, 297, 49, 328, 176
-0.99261, 345, 189, 376, 220
-0.992615, 289, 229, 320, 260
-0.992615, 457, 181, 488, 212
-0.992619, 189, 49, 220, 80
-0.992641, 341, 93, 372, 124
-0.992647, 285, 189, 316, 220
-0.992649, 369, 209, 400, 240
-0.992653, 281, 57, 312, 88
-0.99266, 269, 49, 300, 80
-0.992664, 333, 77, 364, 108
-0.992668, 353, 213, 384, 244
-0.992679, 377, 189, 408, 220
-0.992693, 289, 217, 320, 248
-0.992693, 325, 185, 356, 216
-0.9927, 345, 61, 376, 92
-0.992711, 281, 101, 312, 132
-0.992724, 261, 17, 292, 48
-0.992726, 161, 209, 416, 272
-0.992727, 205, 45, 236, 76
-0.992727, 145, 221, 176, 252
-0.992731, 325, 197, 356, 228
-0.992737, 301, 237, 332, 268
-0.992743, 253, 49, 284, 80
-0.992747, 297, 1, 328, 128
-0.992749, 217, 9, 248, 40
-0.992753, 261, 33, 292, 64
-0.992753, 333, 221, 364, 252
-0.99276, 201, 117, 232, 148
-0.99276, 405, 205, 436, 236
-0.992761, 225, 29, 256, 60
-0.992761, 309, 221, 340, 252
-0.992762, 105, 193, 136, 224
-0.992766, 269, 73, 300, 104
-0.992788, 357, 57, 388, 88
-0.992788, 137, 205, 168, 236
-0.992794, 261, 89, 292, 120
-0.992808, 229, 17, 260, 48
-0.992809, 229, 1, 260, 32
-0.992824, 385, 285, 416, 316
-0.992831, 233, 41, 264, 72
-0.992833, 353, 81, 384, 112
-0.992843, 125, 233, 156, 264
-0.992843, 249, 1, 280, 32
-0.992843, 333, 209, 364, 240
-0.992846, 365, 185, 396, 216
-0.992854, 213, 33, 244, 64
-0.992861, 117, 193, 148, 224
-0.99287, 185, 125, 216, 156
-0.99287, 217, 45, 248, 76
-0.992873, 341, 41, 372, 72
-0.992876, 305, 313, 432, 375
-0.992877, 289, 241, 320, 272
-0.992878, 289, 285, 320, 316
-0.99288, 289, 209, 416, 240
-0.99288, 245, 21, 276, 52
-0.992881, 109, 237, 140, 268
-0.992881, 461, 293, 492, 324
-0.992892, 353, 273, 384, 304
-0.992893, 33, 209, 288, 272
-0.992897, 429, 209, 460, 240
-0.992904, 377, 225, 408, 256
-0.992907, 369, 41, 496, 104
-0.992916, 221, 253, 252, 284
-0.992917, 345, 201, 376, 232
-0.992917, 293, 297, 324, 328
-0.992921, 373, 277, 404, 308
-0.992925, 365, 221, 396, 252
-0.992939, 269, 201, 300, 232
-0.992939, 173, 61, 204, 92
-0.992942, 321, 237, 352, 268
-0.992946, 313, 289, 344, 320
-0.992947, 301, 249, 332, 280
-0.992948, 37, 81, 68, 208
-0.992954, 89, 193, 120, 224
-0.992955, 237, 161, 268, 192
-0.99296, 277, 305, 308, 336
-0.992962, 273, 145, 304, 176
-0.992969, 333, 281, 364, 312
-0.992971, 313, 249, 344, 280
-0.992972, 273, 265, 304, 296
-0.992974, 393, 1, 424, 32
-0.992975, 217, 177, 248, 208
-0.992978, 277, 25, 308, 56
-0.992981, 245, 85, 276, 116
-0.992985, 421, 1, 452, 32
-0.992986, 349, 1, 380, 32
-0.992992, 133, 245, 164, 276
-0.992995, 349, 125, 380, 156
-0.992997, 209, 129, 240, 160
-0.992999, 213, 153, 244, 184
-0.993003, 161, 49, 416, 112
-0.993006, 249, 145, 280, 176
-0.993009, 49, 221, 80, 252
-0.993013, 441, 297, 472, 328
-0.993013, 261, 1, 292, 32
-0.993016, 469, 193, 500, 224
-0.99302, 269, 217, 300, 248
-0.993023, 337, 249, 368, 280
-0.993024, 209, 257, 240, 288
-0.993024, 313, 301, 344, 332
-0.993025, 93, 245, 124, 276
-0.993026, 117, 253, 148, 284
-0.993029, 281, 133, 312, 164
-0.99303, 417, 217, 448, 248
-0.993034, 93, 9, 124, 40
-0.993036, 229, 141, 260, 172
-0.993038, 261, 101, 292, 132
-0.99304, 293, 97, 324, 128
-0.993042, 273, 13, 304, 44
-0.993047, 469, 173, 500, 204
-0.99305, 353, 113, 384, 144
-0.993057, 309, 205, 340, 236
-0.993063, 457, 157, 488, 188
-0.993064, 277, 317, 308, 348
-0.993065, 213, 21, 244, 52
-0.993065, 97, 205, 128, 236
-0.99307, 77, 1, 108, 32
-0.993071, 185, 61, 216, 92
-0.993071, 133, 189, 164, 220
-0.993071, 169, 45, 200, 76
-0.993073, 369, 69, 400, 100
-0.993155, 385, 169, 400, 232
-0.993173, 113, 225, 144, 352
-0.993286, 1, 1, 500, 64
-0.993287, 321, 129, 352, 256
-0.993374, 33, 241, 288, 304
-0.993377, 391, 193, 406, 256
-0.993393, 177, 241, 208, 368
-0.993416, 81, 129, 112, 256
-0.993452, 137, 97, 168, 224
-0.993491, 21, 65, 52, 192
-0.993511, 161, 105, 416, 168
-0.993538, 389, 17, 420, 144
-0.993551, 109, 97, 140, 224
-0.993661, 353, 197, 480, 228
-0.993678, 369, 313, 496, 375
-0.993694, 305, 225, 432, 256
-0.993728, 1, 185, 256, 248
-0.993759, 193, 45, 320, 76
-0.993765, 273, 185, 400, 216
-0.993771, 225, 169, 480, 232
-0.993777, 225, 1, 480, 64
-0.993816, 285, 49, 300, 112
-0.993846, 257, 297, 500, 360
-0.993862, 1, 265, 500, 328
-0.99389, 193, 29, 320, 60
-0.993891, 461, 1, 492, 128
-0.993894, 161, 25, 416, 88
-0.993926, 441, 113, 472, 240
-0.993941, 61, 129, 92, 256
-0.993963, 305, 197, 432, 228
-0.994054, 177, 297, 304, 360
-0.994057, 241, 197, 368, 228
-0.994092, 311, 217, 326, 280
-0.994106, 379, 169, 394, 232
-0.994215, 291, 49, 306, 112
-0.994216, 397, 209, 412, 272
-0.994338, 349, 217, 364, 280
-0.994355, 257, 209, 500, 272
-0.99438, 279, 25, 294, 88
-0.994381, 283, 185, 298, 248
-0.994388, 1, 25, 500, 88
-0.994389, 287, 73, 302, 136
-0.994426, 345, 41, 360, 104
-0.994446, 385, 193, 400, 256
-0.994463, 25, 1, 88, 256
-0.99447, 275, 49, 290, 112
-0.994471, 129, 73, 384, 136
-0.994491, 227, 1, 242, 64
-0.99453, 353, 173, 480, 204
-0.994576, 273, 73, 400, 104
-0.994607, 1, 49, 500, 112
-0.994678, 225, 221, 352, 252
-0.994696, 257, 33, 500, 96
-0.99471, 1, 1, 128, 32
-0.994721, 339, 177, 354, 240
-0.994723, 129, 273, 384, 336
-0.994792, 193, 137, 448, 200
-0.994907, 369, 185, 496, 216
-0.994978, 293, 73, 308, 136
-0.995025, 1, 177, 500, 240
-0.995028, 337, 41, 352, 104
-0.995048, 341, 73, 356, 136
-0.995084, 289, 105, 304, 168
-0.995107, 301, 193, 316, 256
-0.995111, 321, 185, 448, 216
-0.995113, 97, 161, 352, 224
-0.995114, 269, 41, 284, 104
-0.995116, 241, 209, 368, 240
-0.995121, 1, 233, 500, 296
-0.995121, 257, 241, 384, 272
-0.995127, 193, 1, 320, 32
-0.995136, 49, 281, 176, 344
-0.995154, 337, 209, 464, 240
-0.995155, 221, 17, 236, 80
-0.995176, 241, 93, 368, 124
-0.995186, 295, 97, 310, 160
-0.995198, 461, 161, 476, 224
-0.99521, 1, 305, 128, 368
-0.995219, 193, 17, 320, 48
-0.995221, 253, 17, 268, 80
-0.995277, 281, 73, 296, 136
-0.995292, 339, 201, 354, 264
-0.995301, 373, 185, 388, 248
-0.995313, 263, 33, 278, 96
-0.995339, 143, 233, 158, 296
-0.995383, 255, 49, 270, 112
-0.995395, 243, 1, 258, 64
-0.995414, 113, 305, 240, 368
-0.995418, 211, 49, 226, 112
-0.99542, 145, 25, 272, 56
-0.995448, 353, 221, 480, 252
-0.99545, 103, 193, 118, 256
-0.995464, 293, 177, 308, 240
-0.995493, 65, 229, 192, 260
-0.995517, 271, 17, 286, 80
-0.995517, 257, 49, 384, 80
-0.995526, 137, 209, 152, 272
-0.995532, 403, 217, 418, 280
-0.995547, 253, 81, 268, 144
-0.995551, 209, 105, 336, 136
-0.995569, 273, 1, 304, 256
-0.995581, 177, 221, 304, 252
-0.995587, 209, 233, 336, 264
-0.995603, 177, 253, 304, 284
-0.995614, 145, 149, 272, 180
-0.995617, 329, 193, 344, 256
-0.99562, 257, 57, 500, 120
-0.995622, 293, 153, 308, 216
-0.995627, 193, 157, 320, 188
-0.995652, 97, 185, 352, 248
-0.995664, 149, 233, 164, 296
-0.9957, 241, 61, 368, 92
-0.995703, 407, 193, 422, 256
-0.995733, 235, 9, 250, 72
-0.995741, 103, 1, 118, 64
-0.995746, 395, 169, 410, 232
-0.995746, 285, 17, 300, 80
-0.995749, 161, 209, 288, 240
-0.995761, 273, 105, 400, 136
-0.995789, 177, 125, 304, 156
-0.995834, 145, 5, 272, 36
-0.995836, 241, 37, 368, 68
-0.995854, 193, 57, 320, 88
-0.995857, 359, 201, 374, 264
-0.995868, 479, 289, 494, 352
-0.995873, 185, 217, 200, 280
-0.995883, 289, 293, 416, 324
-0.995903, 281, 105, 296, 168
-0.995934, 317, 225, 332, 288
-0.995946, 485, 201, 500, 264
-0.995953, 161, 265, 288, 296
-0.995971, 347, 65, 362, 128
-0.995982, 449, 169, 464, 232
-0.995991, 347, 193, 362, 256
-0.995993, 245, 33, 260, 96
-0.995994, 321, 61, 448, 92
-0.995995, 269, 193, 284, 256
-0.996004, 351, 241, 366, 304
-0.996013, 307, 241, 322, 304
-0.996019, 81, 29, 208, 60
-0.996027, 245, 57, 260, 120
-0.996029, 379, 209, 394, 272
-0.996037, 385, 225, 400, 288
-0.996043, 293, 9, 308, 72
-0.996053, 33, 121, 288, 184
-0.996076, 33, 65, 288, 128
-0.996083, 397, 233, 412, 296
-0.996089, 259, 217, 274, 280
-0.996095, 305, 237, 432, 268
-0.996117, 129, 245, 256, 276
-0.996118, 353, 49, 368, 112
-0.996124, 257, 81, 500, 144
-0.996128, 161, 305, 416, 368
-0.996134, 279, 153, 294, 216
-0.99615, 359, 97, 374, 160
-0.996164, 457, 129, 488, 375
-0.996174, 109, 225, 124, 288
-0.996176, 285, 129, 316, 375
-0.996183, 33, 245, 160, 276
-0.996189, 471, 281, 486, 344
-0.996193, 1, 89, 256, 152
-0.996201, 193, 41, 208, 104
-0.996204, 367, 193, 382, 256
-0.996223, 113, 45, 240, 76
-0.996226, 397, 265, 412, 328
-0.996231, 369, 233, 496, 264
-0.996238, 97, 1, 112, 64
-0.996238, 467, 161, 482, 224
-0.996243, 151, 209, 166, 272
-0.996251, 65, 201, 192, 232
-0.996268, 475, 185, 490, 248
-0.996285, 433, 233, 448, 296
-0.996285, 341, 1, 356, 64
-0.996296, 81, 17, 208, 48
-0.996297, 65, 305, 192, 368
-0.9963, 1, 97, 500, 160
-0.996302, 241, 265, 368, 296
-0.996305, 177, 197, 304, 228
-0.996322, 263, 57, 278, 120
-0.996322, 173, 145, 188, 208
-0.996325, 435, 209, 450, 272
-0.996329, 265, 1, 280, 64
-0.996332, 177, 1, 192, 64
-0.996338, 201, 49, 216, 112
-0.99634, 129, 117, 256, 148
-0.996349, 145, 177, 160, 240
-0.996353, 455, 161, 470, 224
-0.996357, 279, 257, 294, 320
-0.996365, 289, 93, 416, 124
-0.996367, 211, 25, 226, 88
-0.996369, 285, 241, 300, 304
-0.996371, 271, 89, 286, 152
-0.996382, 49, 189, 176, 220
-0.996385, 97, 257, 224, 288
-0.996388, 145, 89, 272, 120
-0.996388, 131, 185, 146, 248
-0.99641, 145, 57, 272, 88
-0.996419, 391, 233, 406, 296
-0.996422, 315, 249, 330, 312
-0.996428, 23, 1, 38, 64
-0.996436, 369, 301, 496, 332
-0.996437, 97, 177, 112, 240
-0.996454, 155, 233, 170, 296
-0.996457, 215, 113, 230, 176
-0.996465, 337, 253, 464, 284
-0.996468, 185, 33, 200, 96
-0.996476, 1, 213, 128, 244
-0.996482, 403, 265, 418, 328
-0.996485, 115, 225, 130, 288
-0.99649, 263, 81, 278, 144
-0.996511, 357, 249, 372, 312
-0.996512, 209, 145, 336, 176
-0.996516, 287, 161, 302, 224
-0.996521, 355, 73, 370, 136
-0.996521, 341, 105, 356, 168
-0.996546, 273, 173, 400, 204
-0.996554, 229, 41, 244, 104
-0.996556, 367, 89, 382, 152
-0.996566, 197, 113, 212, 176
-0.996567, 145, 137, 272, 168
-0.996569, 1, 137, 500, 200
-0.99657, 295, 281, 310, 344
-0.996577, 343, 225, 358, 288
-0.996578, 249, 121, 264, 184
-0.996582, 99, 241, 114, 304
-0.996582, 225, 253, 352, 284
-0.996587, 277, 177, 292, 240
-0.996596, 257, 193, 272, 256
-0.996607, 97, 201, 112, 264
-0.996616, 483, 265, 498, 328
-0.99663, 401, 185, 416, 248
-0.996641, 273, 145, 288, 208
-0.996642, 217, 41, 232, 104
-0.996645, 391, 273, 406, 336
-0.996648, 177, 241, 192, 304
-0.996651, 401, 289, 416, 352
-0.996684, 195, 217, 210, 280
-0.996695, 121, 201, 136, 264
-0.996704, 161, 233, 176, 296
-0.996706, 277, 233, 292, 296
-0.996708, 49, 193, 64, 256
-0.996712, 145, 233, 272, 264
-0.996715, 209, 185, 336, 216
-0.996723, 81, 5, 208, 36
-0.996723, 161, 73, 288, 104
-0.996791, 161, 101, 288, 132
-0.996793, 285, 1, 316, 256
-0.996797, 97, 213, 224, 244
-0.996803, 369, 289, 496, 320
-0.996814, 385, 177, 400, 208
-0.996828, 397, 213, 412, 244
-0.996832, 241, 277, 368, 308
-0.996852, 337, 273, 464, 304
-0.996854, 385, 209, 400, 240
-0.996858, 225, 73, 352, 104
-0.996863, 1, 233, 128, 264
-0.996881, 1, 13, 128, 44
-0.996894, 463, 165, 478, 196
-0.996899, 353, 161, 480, 192
-0.9969, 269, 97, 300, 352
-0.996901, 257, 113, 500, 176
-0.996917, 343, 77, 358, 108
-0.996933, 81, 245, 208, 276
-0.996958, 177, 1, 208, 256
-0.996965, 193, 1, 224, 256
-0.996989, 125, 1, 156, 256
-0.99699, 221, 1, 252, 256
-0.996992, 389, 197, 404, 228
-0.997007, 241, 321, 368, 352
-0.997064, 49, 217, 176, 248
-0.997074, 193, 85, 320, 116
-0.997078, 349, 241, 364, 272
-0.997086, 373, 129, 404, 375
-0.99709, 277, 57, 292, 88
-0.997097, 161, 185, 288, 216
-0.997098, 273, 309, 400, 340
-0.99711, 81, 73, 208, 104
-0.99711, 225, 117, 352, 148
-0.997125, 305, 49, 432, 80
-0.997148, 97, 185, 224, 216
-0.997189, 1, 189, 128, 220
-0.997191, 17, 25, 144, 56
-0.997193, 141, 1, 172, 256
-0.9972, 273, 117, 400, 148
-0.997201, 257, 21, 384, 52
-0.997218, 275, 41, 290, 72
-0.997221, 289, 261, 416, 292
-0.997233, 471, 173, 486, 204
-0.997249, 349, 225, 364, 256
-0.99726, 33, 265, 288, 328
-0.997265, 223, 33, 238, 64
-0.997282, 321, 77, 448, 108
-0.997282, 253, 25, 268, 56
-0.99729, 293, 61, 308, 92
-0.997294, 379, 177, 394, 208
-0.99731, 209, 1, 240, 256
-0.997325, 249, 33, 280, 288
-0.997327, 321, 305, 448, 336
-0.997329, 287, 49, 302, 80
-0.997337, 145, 161, 272, 192
-0.997358, 219, 21, 234, 52
-0.997376, 113, 1, 144, 256
-0.997382, 457, 165, 472, 196
-0.997389, 291, 93, 306, 124
-0.997393, 437, 129, 468, 375
-0.99741, 1, 77, 128, 108
-0.997426, 97, 153, 224, 184
-0.997427, 287, 61, 302, 92
-0.997433, 391, 217, 406, 248
-0.99747, 165, 1, 196, 256
-0.997497, 261, 1, 292, 256
-0.997499, 353, 49, 480, 80
-0.997499, 347, 65, 362, 96
-0.997506, 337, 181, 352, 212
-0.997518, 225, 297, 352, 328
-0.997525, 273, 141, 400, 172
-0.99753, 1, 73, 500, 136
-0.99753, 17, 201, 144, 232
-0.997538, 97, 105, 224, 136
-0.99754, 395, 201, 410, 232
-0.997551, 293, 189, 308, 220
-0.997554, 223, 1, 238, 32
-0.997557, 121, 129, 152, 375
-0.997559, 361, 129, 392, 375
-0.997565, 291, 73, 306, 104
-0.997568, 289, 273, 416, 304
-0.997575, 345, 205, 360, 236
-0.997577, 129, 197, 256, 228
-0.997578, 225, 169, 352, 200
-0.997581, 277, 13, 292, 44
-0.997586, 313, 233, 328, 264
-0.99759, 261, 29, 276, 60
-0.997595, 361, 1, 392, 256
-0.99761, 97, 85, 224, 116
-0.997615, 283, 73, 298, 104
-0.997617, 269, 45, 284, 76
-0.997618, 267, 1, 282, 32
-0.99762, 405, 217, 420, 248
-0.997625, 143, 197, 158, 228
-0.997629, 241, 1, 368, 32
-0.99763, 273, 161, 400, 192
-0.997632, 399, 225, 414, 256
-0.997639, 295, 105, 310, 136
-0.99764, 309, 129, 340, 375
-0.997641, 309, 213, 324, 244
-0.997653, 345, 65, 376, 320
-0.997656, 301, 197, 316, 228
-0.997658, 281, 45, 296, 76
-0.997676, 383, 221, 398, 252
-0.997692, 213, 37, 228, 68
-0.997695, 177, 173, 304, 204
-0.997698, 377, 209, 392, 240
-0.997701, 343, 53, 358, 84
-0.997706, 113, 173, 240, 204
-0.997714, 367, 201, 382, 232
-0.997722, 317, 253, 332, 284
-0.997724, 271, 17, 286, 48
-0.997733, 465, 177, 480, 208
-0.997736, 339, 93, 354, 124
-0.997736, 425, 217, 440, 248
-0.997737, 351, 253, 366, 284
-0.997743, 393, 229, 408, 260
-0.997745, 367, 65, 382, 96
-0.997745, 233, 97, 264, 352
-0.997746, 395, 285, 410, 316
-0.997755, 237, 1, 252, 32
-0.997756, 81, 57, 208, 88
-0.997756, 97, 133, 224, 164
-0.997765, 391, 185, 406, 216
-0.997766, 321, 33, 448, 64
-0.997767, 283, 13, 298, 44
-0.99777, 381, 193, 396, 224
-0.997781, 297, 93, 312, 124
-0.997783, 243, 1, 258, 32
-0.997785, 233, 1, 264, 256
-0.997787, 337, 53, 352, 84
-0.997794, 341, 241, 356, 272
-0.997797, 349, 77, 364, 108
-0.997814, 217, 1, 232, 32
-0.997819, 247, 41, 262, 72
-0.997825, 191, 121, 206, 152
-0.997836, 435, 241, 450, 272
-0.997836, 293, 45, 308, 76
-0.997843, 303, 209, 318, 240
-0.997843, 49, 257, 176, 288
-0.997846, 149, 221, 164, 252
-0.997848, 283, 181, 298, 212
-0.997848, 477, 293, 492, 324
-0.997854, 207, 53, 222, 84
-0.997855, 131, 201, 146, 232
-0.997855, 1, 177, 128, 208
-0.99787, 375, 193, 390, 224
-0.997872, 105, 193, 120, 224
-0.997874, 407, 205, 422, 236
-0.997879, 261, 81, 276, 112
-0.997881, 193, 317, 320, 348
-0.997893, 369, 81, 496, 112
-0.997908, 229, 5, 244, 36
-0.997908, 213, 49, 228, 80
-0.997913, 255, 37, 270, 68
-0.997926, 305, 1, 432, 32
-0.997926, 339, 41, 354, 72
-0.997927, 343, 225, 358, 256
-0.997937, 65, 173, 192, 204
-0.997938, 235, 45, 250, 76
-0.997938, 349, 53, 364, 84
-0.99794, 297, 177, 312, 208
-0.997942, 193, 277, 320, 308
-0.997943, 273, 85, 288, 116
-0.997944, 11, 1, 26, 32
-0.997946, 19, 1, 34, 32
-0.997951, 225, 21, 240, 52
-0.997951, 401, 285, 416, 316
-0.997954, 241, 129, 368, 160
-0.997954, 271, 61, 286, 92
-0.997958, 471, 185, 486, 216
-0.997961, 353, 89, 368, 120
-0.997969, 99, 193, 114, 224
-0.997974, 339, 65, 354, 96
-0.997983, 277, 69, 292, 100
-0.997984, 409, 1, 424, 32
-0.997984, 355, 229, 370, 260
-0.997985, 369, 85, 384, 116
-0.997986, 133, 129, 164, 375
-0.997991, 283, 105, 298, 136
-0.997992, 291, 137, 306, 168
-0.997993, 367, 53, 382, 84
-0.997996, 283, 205, 298, 236
-0.997996, 209, 97, 240, 352
-0.997999, 247, 29, 262, 60
-0.998005, 385, 129, 416, 375
-0.99801, 389, 33, 420, 288
-0.998013, 137, 213, 152, 244
-0.998014, 109, 129, 140, 375
-0.998021, 337, 101, 464, 132
-0.998023, 99, 245, 114, 276
-0.99803, 377, 77, 392, 108
-0.998033, 231, 25, 246, 56
-0.998036, 137, 193, 152, 224
-0.998039, 199, 49, 214, 80
-0.99804, 127, 257, 142, 288
-0.99804, 431, 213, 446, 244
-0.998042, 283, 133, 298, 164
-0.998048, 155, 217, 170, 248
-0.998048, 323, 233, 338, 264
-0.998056, 261, 41, 276, 72
-0.998059, 283, 29, 298, 60
-0.998066, 357, 45, 372, 76
-0.998074, 183, 37, 198, 68
-0.998076, 289, 113, 304, 144
-0.998077, 65, 41, 192, 72
-0.998078, 333, 129, 364, 375
-0.99808, 381, 161, 396, 192
-0.998088, 363, 113, 378, 144
-0.998096, 199, 117, 214, 148
-0.998109, 369, 69, 496, 100
-0.99811, 325, 305, 340, 336
-0.998115, 93, 185, 108, 216
-0.998116, 225, 253, 240, 284
-0.998118, 471, 293, 486, 324
-0.998121, 477, 193, 492, 224
-0.998128, 89, 129, 120, 375
-0.998138, 81, 117, 208, 148
-0.998143, 101, 1, 132, 256
-0.998144, 145, 97, 176, 352
-0.998148, 469, 129, 500, 375
-0.998163, 257, 129, 288, 375
-0.998164, 1, 161, 256, 224
-0.998176, 1, 57, 128, 88
-0.998178, 297, 129, 328, 375
-0.998234, 409, 129, 440, 375
-0.998247, 49, 141, 176, 172
-0.998292, 33, 89, 160, 120
-0.998352, 49, 161, 176, 192
-0.998376, 113, 269, 240, 300
-0.998377, 221, 97, 252, 352
-0.998379, 333, 1, 364, 256
-0.998399, 321, 1, 352, 256
-0.998402, 1, 129, 32, 375
-0.998402, 197, 97, 228, 352
-0.998417, 377, 223, 440, 238
-0.998422, 377, 217, 440, 232
-0.998425, 257, 147, 288, 162
-0.998425, 145, 193, 176, 208
-0.998426, 281, 187, 312, 202
-0.998426, 373, 191, 404, 206
-0.998426, 225, 217, 256, 232
-0.998427, 297, 311, 328, 326
-0.998427, 317, 307, 348, 322
-0.998427, 337, 91, 368, 106
-0.998428, 269, 99, 300, 114
-0.99843, 245, 227, 276, 242
-0.99843, 325, 187, 356, 202
-0.99843, 401, 203, 432, 218
-0.99843, 185, 55, 216, 70
-0.99843, 249, 47, 312, 62
-0.998431, 241, 53, 272, 68
-0.998431, 381, 283, 412, 298
-0.998432, 353, 223, 416, 238
-0.998432, 453, 181, 484, 196
-0.998433, 281, 143, 312, 158
-0.998433, 349, 217, 380, 232
-0.998434, 261, 19, 292, 34
-0.998434, 89, 247, 120, 262
-0.998434, 261, 109, 292, 124
-0.998434, 289, 287, 320, 302
-0.998436, 269, 201, 300, 216
-0.998436, 345, 199, 376, 214
-0.998436, 405, 215, 436, 230
-0.998437, 105, 201, 136, 216
-0.998437, 257, 41, 288, 56
-0.998438, 21, 1, 52, 16
-0.998438, 105, 207, 136, 222
-0.998439, 245, 197, 276, 212
-0.99844, 341, 75, 372, 90
-0.99844, 257, 55, 320, 70
-0.99844, 81, 203, 112, 218
-0.998441, 289, 225, 320, 240
-0.998441, 341, 235, 372, 250
-0.998442, 253, 87, 284, 102
-0.998442, 349, 47, 380, 62
-0.998442, 349, 85, 380, 100
-0.998443, 297, 33, 328, 288
-0.998443, 337, 209, 400, 224
-0.998445, 241, 1, 272, 16
-0.998445, 309, 241, 340, 256
-0.998446, 465, 191, 496, 206
-0.998447, 337, 243, 368, 258
-0.998448, 113, 195, 144, 210
-0.998449, 217, 23, 248, 38
-0.998449, 213, 35, 244, 50
-0.99845, 337, 227, 368, 242
-0.99845, 261, 31, 292, 46
-0.998451, 261, 65, 292, 80
-0.998452, 397, 129, 428, 375
-0.998453, 229, 35, 260, 50
-0.998455, 153, 1, 184, 256
-0.998455, 461, 293, 492, 308
-0.998456, 289, 231, 320, 246
-0.998456, 301, 247, 332, 262
-0.998456, 349, 61, 380, 76
-0.998457, 289, 245, 320, 260
-0.998457, 353, 201, 416, 216
-0.998457, 121, 257, 152, 272
-0.998459, 345, 205, 376, 220
-0.998459, 249, 65, 312, 80
-0.998461, 369, 219, 400, 234
-0.998461, 205, 53, 236, 68
-0.998462, 281, 87, 312, 102
-0.998462, 345, 211, 376, 226
-0.998462, 217, 47, 248, 62
-0.998462, 341, 105, 372, 120
-0.998463, 189, 49, 220, 64
-0.998463, 129, 199, 160, 214
-0.998464, 337, 215, 400, 230
-0.998464, 117, 205, 148, 220
-0.998468, 273, 235, 336, 250
-0.998468, 305, 235, 336, 250
-0.998469, 209, 35, 272, 50
-0.99847, 289, 213, 320, 228
-0.998472, 281, 309, 344, 324
-0.998475, 233, 17, 264, 32
-0.998475, 337, 57, 368, 72
-0.998475, 365, 203, 396, 218
-0.998476, 281, 103, 312, 118
-0.998476, 17, 37, 144, 68
-0.998478, 209, 49, 272, 64
-0.998479, 93, 203, 124, 218
-0.998481, 217, 1, 248, 16
-0.998481, 385, 211, 448, 226
-0.998481, 257, 221, 320, 236
-0.998481, 385, 233, 416, 248
-0.998482, 237, 47, 268, 62
-0.998482, 333, 207, 364, 222
-0.998484, 385, 203, 416, 218
-0.998484, 289, 219, 320, 234
-0.998485, 281, 199, 344, 214
-0.998486, 273, 59, 304, 74
-0.998487, 393, 221, 424, 236
-0.998487, 257, 201, 320, 216
-0.998488, 269, 75, 300, 90
-0.998488, 321, 237, 352, 252
-0.998488, 337, 41, 368, 56
-0.998488, 269, 41, 300, 56
-0.99849, 281, 65, 312, 80
-0.99849, 453, 189, 484, 204
-0.998491, 289, 205, 320, 220
-0.998494, 277, 313, 308, 328
-0.998495, 453, 175, 484, 190
-0.998496, 341, 69, 372, 84
-0.998496, 241, 229, 304, 244
-0.998497, 249, 219, 280, 234
-0.998497, 257, 215, 320, 230
-0.9985, 245, 41, 276, 56
-0.998501, 229, 3, 260, 18
-0.998502, 89, 197, 120, 212
-0.998502, 249, 191, 312, 206
-0.998503, 337, 85, 368, 100
-0.998504, 373, 227, 404, 242
-0.998504, 433, 193, 496, 208
-0.998505, 273, 15, 304, 30
-0.998505, 281, 95, 312, 110
-0.998507, 225, 17, 288, 32
-0.998509, 237, 221, 268, 236
-0.99851, 129, 205, 160, 220
-0.99851, 217, 7, 248, 22
-0.998511, 277, 81, 308, 96
-0.998511, 385, 205, 448, 220
-0.998511, 325, 201, 356, 216
-0.998512, 289, 77, 352, 92
-0.998512, 289, 193, 320, 208
-0.998512, 169, 97, 200, 352
-0.998513, 305, 257, 368, 272
-0.998515, 281, 303, 344, 318
-0.998516, 241, 237, 304, 252
-0.998517, 361, 207, 424, 222
-0.998518, 297, 221, 360, 236
-0.998518, 289, 205, 352, 220
-0.998519, 337, 97, 368, 112
-0.998519, 297, 243, 360, 258
-0.998522, 313, 235, 376, 250
-0.998522, 329, 203, 392, 218
-0.998522, 121, 211, 152, 226
-0.998523, 249, 75, 312, 90
-0.998524, 249, 31, 280, 46
-0.998526, 345, 229, 408, 244
-0.998526, 329, 83, 392, 98
-0.998527, 193, 119, 256, 134
-0.998527, 225, 55, 288, 70
-0.998528, 229, 25, 260, 40
-0.998528, 393, 215, 424, 230
-0.99853, 365, 209, 396, 224
-0.998531, 281, 315, 344, 330
-0.998531, 225, 1, 288, 16
-0.998532, 377, 179, 408, 194
-0.998534, 273, 241, 336, 256
-0.998536, 297, 229, 360, 244
-0.998537, 129, 199, 192, 214
-0.998537, 113, 207, 176, 222
-0.998538, 377, 229, 440, 244
-0.998539, 337, 185, 400, 200
-0.99854, 209, 41, 272, 56
-0.998541, 353, 79, 384, 94
-0.998541, 289, 49, 352, 64
-0.998541, 273, 249, 336, 264
-0.998543, 261, 47, 292, 62
-0.998543, 377, 1, 440, 16
-0.998543, 209, 29, 272, 44
-0.998544, 289, 239, 320, 254
-0.998544, 89, 197, 152, 212
-0.998545, 389, 227, 420, 242
-0.998545, 281, 47, 312, 62
-0.998547, 177, 43, 240, 58
-0.998547, 329, 223, 392, 238
-0.998548, 433, 199, 496, 214
-0.998549, 321, 191, 384, 206
-0.998549, 221, 17, 252, 32
-0.998549, 385, 7, 448, 22
-0.998549, 425, 169, 488, 184
-0.99855, 313, 209, 376, 224
-0.99855, 281, 71, 312, 86
-0.998551, 241, 31, 304, 46
-0.998551, 249, 47, 280, 62
-0.998554, 289, 99, 352, 114
-0.998555, 253, 55, 284, 70
-0.998555, 329, 105, 392, 120
-0.998555, 233, 197, 296, 212
-0.998555, 273, 191, 336, 206
-0.998557, 177, 37, 240, 52
-0.998557, 297, 187, 360, 202
-0.99856, 345, 239, 408, 254
-0.998561, 305, 215, 368, 230
-0.998561, 73, 97, 104, 352
-0.998562, 401, 221, 464, 236
-0.998562, 225, 221, 288, 236
-0.998563, 257, 181, 320, 196
-0.998563, 273, 71, 336, 86
-0.998564, 105, 231, 168, 246
-0.998564, 269, 191, 300, 206
-0.998566, 97, 255, 160, 270
-0.998567, 241, 243, 304, 258
-0.998569, 137, 231, 200, 246
-0.998569, 113, 225, 176, 240
-0.99857, 33, 129, 64, 375
-0.99857, 289, 55, 352, 70
-0.998573, 273, 53, 304, 68
-0.998573, 241, 37, 304, 52
-0.998574, 321, 111, 384, 126
-0.998574, 225, 11, 288, 26
-0.998575, 289, 199, 320, 214
-0.998575, 9, 217, 72, 232
-0.998575, 305, 251, 368, 266
-0.998576, 361, 195, 424, 210
-0.998576, 89, 205, 152, 220
-0.998576, 329, 197, 392, 212
-0.998576, 289, 63, 352, 78
-0.998576, 345, 77, 408, 92
-0.998576, 281, 211, 344, 226
-0.998577, 337, 89, 400, 104
-0.998577, 241, 209, 304, 224
-0.998578, 249, 103, 312, 118
-0.998578, 177, 51, 240, 66
-0.998579, 129, 33, 192, 48
-0.998579, 177, 23, 240, 38
-0.998579, 337, 179, 400, 194
-0.998579, 281, 287, 344, 302
-0.99858, 281, 257, 344, 272
-0.998582, 105, 237, 168, 252
-0.998582, 81, 247, 144, 262
-0.998583, 105, 191, 168, 206
-0.998583, 249, 81, 312, 96
-0.998584, 5, 7, 36, 22
-0.998585, 265, 293, 328, 308
-0.998585, 145, 217, 208, 232
-0.998587, 57, 5, 120, 20
-0.998588, 9, 1, 40, 16
-0.998588, 433, 187, 496, 202
-0.998588, 225, 181, 288, 196
-0.998588, 153, 125, 216, 140
-0.998589, 249, 87, 312, 102
-0.99859, 121, 261, 184, 276
-0.998591, 249, 135, 312, 150
-0.998592, 385, 199, 448, 214
-0.998592, 321, 245, 384, 260
-0.998593, 249, 315, 312, 330
-0.998594, 177, 59, 240, 74
-0.998595, 153, 223, 216, 238
-0.998596, 9, 1, 72, 16
-0.998596, 225, 167, 288, 182
-0.998597, 405, 221, 436, 236
-0.998598, 265, 229, 328, 244
-0.998599, 353, 255, 416, 270
-0.998599, 385, 209, 416, 224
-0.998599, 65, 205, 128, 220
-0.998599, 257, 95, 320, 110
-0.998599, 169, 1, 232, 16
-0.998599, 249, 143, 312, 158
-0.9986, 305, 199, 368, 214
-0.9986, 289, 83, 352, 98
-0.9986, 329, 255, 392, 270
-0.9986, 185, 15, 248, 30
-0.998601, 321, 291, 384, 306
-0.998601, 81, 29, 144, 44
-0.998609, 381, 215, 412, 230
-0.998619, 373, 197, 404, 212
-0.998619, 21, 97, 52, 352
-0.998623, 409, 49, 472, 176
-0.998655, 45, 97, 76, 352
-0.998676, 425, 129, 456, 375
-0.998679, 453, 169, 484, 184
-0.998691, 381, 221, 412, 236
-0.998707, 245, 129, 276, 375
-0.998708, 401, 1, 432, 256
-0.998714, 429, 1, 460, 256
-0.998715, 391, 177, 406, 304
-0.998756, 311, 209, 326, 336
-0.998778, 469, 1, 500, 256
-0.998795, 377, 1, 408, 256
-0.998795, 201, 49, 216, 176
-0.998825, 65, 297, 320, 360
-0.998847, 321, 129, 352, 375
-0.998847, 397, 193, 412, 320
-0.998872, 343, 177, 358, 304
-0.998873, 5, 1, 36, 256
-0.998873, 281, 241, 296, 368
-0.998879, 21, 1, 52, 256
-0.998886, 351, 209, 366, 336
-0.99889, 287, 17, 302, 144
-0.998893, 317, 225, 332, 352
-0.998903, 185, 97, 216, 352
-0.998906, 283, 177, 298, 304
-0.998911, 305, 193, 320, 320
-0.998924, 239, 1, 254, 128
-0.99895, 1, 289, 500, 352
-0.998952, 385, 193, 400, 320
-0.998953, 275, 1, 290, 128
-0.998958, 293, 49, 308, 176
-0.998971, 193, 1, 208, 128
-0.998977, 103, 177, 118, 304
-0.99899, 375, 161, 390, 288
-0.999, 393, 241, 408, 368
-0.99901, 453, 33, 484, 288
-0.999017, 251, 17, 266, 144
-0.999021, 195, 49, 210, 176
-0.999026, 61, 129, 92, 375
-0.99903, 463, 145, 478, 272
-0.999042, 201, 1, 216, 128
-0.999044, 485, 225, 500, 352
-0.999045, 345, 1, 360, 128
-0.999048, 291, 113, 306, 240
-0.99905, 209, 17, 224, 144
-0.999067, 337, 161, 352, 288
-0.999074, 403, 209, 418, 336
-0.999078, 359, 1, 374, 128
-0.999079, 339, 1, 354, 128
-0.999088, 91, 177, 106, 304
-0.999092, 365, 1, 380, 128
-0.999094, 279, 49, 294, 176
-0.999099, 233, 1, 248, 128
-0.999103, 269, 1, 284, 128
-0.999107, 225, 1, 240, 128
-0.999118, 157, 129, 188, 375
-0.999128, 85, 177, 100, 304
-0.999137, 185, 33, 200, 160
-0.999142, 133, 33, 148, 160
-0.999149, 139, 177, 154, 304
-0.99915, 289, 177, 304, 304
-0.99915, 261, 1, 276, 128
-0.999155, 381, 145, 396, 272
-0.999164, 347, 129, 362, 256
-0.999168, 369, 129, 384, 256
-0.999169, 477, 241, 492, 368
-0.99917, 429, 209, 444, 336
-0.999173, 25, 1, 40, 128
-0.999173, 109, 1, 124, 128
-0.999174, 379, 209, 394, 336
-0.999174, 89, 1, 104, 128
-0.999177, 387, 129, 402, 256
-0.999177, 297, 129, 312, 256
-0.999187, 1, 1, 16, 128
-0.999189, 343, 49, 358, 176
-0.999192, 275, 177, 290, 304
-0.999193, 143, 17, 158, 144
-0.999193, 171, 177, 186, 304
-0.999194, 299, 177, 314, 304
-0.999197, 411, 209, 426, 336
-0.999203, 351, 33, 366, 160
-0.999205, 41, 209, 56, 336
-0.999206, 263, 49, 278, 176
-0.999214, 19, 209, 34, 336
-0.999216, 379, 1, 394, 128
-0.999216, 279, 97, 294, 224
-0.999222, 191, 225, 206, 352
-0.999224, 245, 1, 260, 128
-0.999226, 359, 49, 374, 176
-0.999226, 1, 193, 16, 320
-0.99923, 11, 193, 26, 320
-0.999233, 77, 177, 92, 304
-0.999234, 171, 33, 186, 160
-0.999234, 185, 193, 200, 320
-0.999241, 219, 1, 234, 128
-0.999242, 145, 193, 160, 320
-0.999247, 323, 209, 338, 336
-0.999249, 177, 33, 192, 160
-0.999249, 371, 49, 386, 176
-0.99925, 95, 1, 110, 128
-0.999253, 15, 1, 30, 128
-0.999253, 27, 209, 42, 336
-0.999254, 457, 145, 472, 272
-0.999256, 103, 1, 118, 128
-0.999257, 177, 225, 192, 352
-0.999258, 273, 129, 288, 256
-0.999259, 163, 17, 178, 144
-0.999262, 337, 49, 352, 176
-0.999262, 83, 225, 98, 352
-0.999269, 109, 193, 124, 320
-0.99927, 293, 1, 308, 128
-0.999273, 367, 193, 382, 320
-0.999273, 209, 97, 224, 224
-0.999275, 89, 33, 120, 288
-0.999276, 115, 17, 130, 144
-0.999277, 359, 193, 374, 320
-0.999279, 121, 17, 136, 144
-0.999283, 287, 225, 302, 352
-0.999283, 439, 193, 454, 320
-0.999284, 257, 81, 272, 208
-0.999284, 99, 225, 114, 352
-0.999286, 215, 49, 230, 176
-0.999287, 245, 81, 260, 208
-0.99929, 285, 97, 300, 224
-0.999291, 33, 33, 64, 288
-0.999297, 97, 177, 112, 304
-0.999306, 423, 177, 438, 304
-0.999311, 267, 177, 282, 304
-0.999317, 33, 209, 48, 336
-0.999319, 393, 1, 408, 128
-0.999319, 51, 177, 66, 304
-0.999323, 267, 129, 282, 256
-0.999323, 71, 193, 86, 320
-0.999323, 237, 81, 252, 208
-0.999329, 199, 225, 214, 352
-0.999332, 483, 177, 498, 304
-0.999334, 219, 97, 234, 224
-0.999335, 259, 145, 274, 272
-0.999335, 411, 1, 426, 128
-0.999339, 281, 1, 296, 128
-0.99934, 149, 33, 164, 160
-0.999343, 393, 129, 408, 256
-0.999351, 65, 225, 80, 352
-0.999356, 429, 1, 444, 128
-0.999362, 157, 17, 172, 144
-0.999364, 269, 81, 284, 208
-0.999367, 127, 17, 142, 144
-0.999368, 211, 177, 226, 304
-0.999369, 373, 1, 388, 128
-0.99937, 293, 225, 308, 352
-0.999371, 77, 225, 92, 352
-0.999464, 441, 1, 472, 256
-0.999523, 61, 1, 92, 256
-0.999625, 183, 41, 198, 56
-0.999625, 435, 243, 450, 258
-0.999626, 223, 25, 238, 40
-0.999626, 289, 101, 304, 116
-0.999626, 231, 9, 246, 24
-0.999626, 283, 183, 298, 198
-0.999627, 127, 257, 142, 272
-0.999628, 477, 191, 492, 206
-0.999628, 213, 53, 228, 68
-0.999629, 275, 51, 290, 66
-0.99963, 143, 207, 158, 222
-0.999631, 291, 109, 306, 124
-0.999632, 249, 221, 264, 236
-0.999632, 239, 217, 254, 232
-0.999632, 323, 307, 338, 322
-0.999633, 3, 7, 18, 22
-0.999633, 395, 279, 410, 294
-0.999633, 255, 221, 270, 236
-0.999633, 431, 217, 446, 232
-0.999633, 337, 49, 352, 64
-0.999633, 369, 197, 384, 212
-0.999635, 355, 49, 370, 64
-0.999635, 469, 175, 484, 190
-0.999636, 213, 13, 228, 28
-0.999637, 275, 93, 290, 108
-0.999637, 255, 23, 270, 38
-0.999637, 263, 55, 278, 70
-0.999638, 315, 251, 330, 266
-0.999638, 219, 1, 234, 16
-0.999638, 105, 197, 120, 212
-0.999639, 245, 1, 260, 16
-0.999639, 271, 57, 286, 72
-0.99964, 219, 19, 234, 34
-0.99964, 309, 223, 324, 238
-0.99964, 181, 27, 196, 42
-0.999641, 237, 3, 252, 18
-0.999641, 289, 191, 304, 206
-0.999642, 301, 203, 316, 218
-0.999642, 273, 87, 288, 102
-0.999642, 293, 199, 308, 214
-0.999643, 343, 233, 358, 248
-0.999643, 201, 51, 216, 66
-0.999643, 375, 81, 390, 96
-0.999643, 297, 107, 312, 122
-0.999645, 257, 231, 272, 246
-0.999645, 191, 125, 206, 140
-0.999647, 409, 215, 424, 230
-0.999647, 231, 1, 246, 16
-0.999648, 311, 233, 326, 248
-0.999648, 477, 301, 492, 316
-0.999648, 411, 221, 426, 236
-0.999648, 345, 87, 360, 102
-0.999649, 275, 193, 290, 208
-0.999649, 321, 237, 336, 252
-0.99965, 343, 239, 358, 254
-0.999652, 391, 227, 406, 242
-0.999652, 339, 79, 354, 94
-0.999652, 381, 209, 396, 224
-0.999653, 425, 217, 440, 232
-0.999655, 317, 257, 332, 272
-0.999656, 313, 239, 328, 254
-0.999656, 287, 85, 302, 100
-0.999657, 291, 71, 306, 86
-0.999658, 225, 7, 240, 22
-0.999659, 285, 17, 300, 32
-0.999659, 263, 49, 278, 64
-0.999659, 339, 65, 354, 80
-0.99966, 473, 293, 488, 308
-0.999661, 285, 197, 300, 212
-0.999661, 231, 15, 246, 30
-0.999661, 15, 7, 30, 22
-0.999663, 391, 233, 406, 248
-0.999664, 99, 195, 114, 210
-0.999665, 341, 203, 356, 218
-0.999668, 345, 39, 360, 54
-0.99967, 293, 83, 308, 98
-0.99967, 139, 199, 154, 214
-0.99967, 257, 47, 272, 62
-0.99967, 467, 169, 482, 184
-0.999671, 285, 47, 300, 62
-0.999672, 285, 75, 300, 90
-0.999673, 9, 1, 24, 16
-0.999674, 351, 257, 366, 272
-0.999674, 339, 73, 354, 88
-0.999676, 403, 223, 418, 238
-0.999677, 359, 107, 374, 122
-0.999679, 347, 77, 362, 92
-0.999681, 395, 205, 410, 220
-0.999682, 401, 229, 416, 244
-0.999682, 291, 45, 306, 60
-0.999684, 403, 215, 418, 230
-0.999686, 293, 95, 308, 110
-0.999688, 365, 113, 380, 128
-0.999689, 251, 41, 266, 56
-0.99969, 277, 63, 292, 78
-0.999691, 379, 179, 394, 194
-0.999691, 395, 215, 410, 230
-0.999693, 131, 205, 146, 220
-0.999694, 293, 77, 308, 92
-0.999694, 269, 51, 284, 66
-0.999695, 309, 33, 340, 288
-0.999695, 337, 43, 352, 58
-0.999696, 339, 183, 354, 198
-0.999696, 351, 241, 366, 256
-0.9997, 281, 189, 296, 204
-0.999703, 291, 51, 306, 66
-0.999704, 471, 189, 486, 204
-0.999706, 291, 59, 306, 74
-0.999706, 391, 221, 406, 236
-0.999707, 275, 45, 290, 60
-0.999709, 383, 227, 398, 242
-0.999711, 291, 65, 306, 80
-0.999711, 383, 187, 398, 202
-0.999718, 341, 95, 356, 110
-0.999723, 389, 197, 404, 212
-0.999723, 21, 3, 36, 18
-0.999724, 345, 71, 360, 86
-0.999727, 251, 31, 266, 46
-0.999729, 275, 17, 290, 32
-0.99973, 349, 227, 364, 242
-0.999737, 347, 247, 362, 262
-0.999738, 389, 211, 404, 226
-0.999742, 349, 235, 364, 250
-0.999745, 277, 57, 292, 72
-0.999749, 285, 57, 300, 72
-0.999761, 385, 219, 400, 234
-0.999762, 295, 193, 310, 208
-0.999764, 397, 223, 412, 238
-0.99977, 461, 167, 476, 182
-0.999771, 49, 1, 80, 256
-0.999772, 285, 67, 300, 82
-0.99978, 413, 1, 444, 256
-0.999813, 385, 177, 400, 192
-0.99982, 433, 1, 496, 128
-1.00004, 77, 1, 108, 256
-1.00161, 1, 313, 500, 375
