1958
-0.178921, 1, 1, 375, 500
-0.319668, 65, 1, 320, 500
-0.334825, 1, 33, 375, 288
-0.371313, 1, 225, 375, 480
-0.386632, 1, 129, 375, 384
-0.538666, 33, 1, 288, 256
-0.598345, 33, 225, 288, 480
-0.639755, 65, 129, 320, 384
-0.708931, 129, 257, 375, 500
-0.717227, 129, 1, 375, 256
-0.841991, 161, 1, 288, 500
-0.842916, 49, 1, 176, 500
-0.855233, 65, 1, 192, 256
-0.85738, 1, 1, 128, 500
-0.858082, 145, 97, 272, 352
-0.858267, 97, 1, 224, 500
-0.862533, 129, 1, 256, 256
-0.865471, 17, 1, 144, 256
-0.868682, 193, 129, 320, 384
-0.870296, 81, 225, 208, 480
-0.871836, 161, 257, 288, 500
-0.878104, 1, 209, 375, 336
-0.878751, 1, 33, 375, 160
-0.879852, 209, 1, 336, 500
-0.886118, 1, 257, 375, 384
-0.886387, 1, 129, 375, 256
-0.888453, 209, 33, 336, 288
-0.888907, 17, 161, 144, 416
-0.891219, 209, 225, 336, 480
-0.90099, 1, 305, 375, 432
-0.903693, 65, 129, 192, 384
-0.906146, 65, 17, 320, 144
-0.909154, 33, 257, 160, 500
-0.910433, 33, 241, 288, 368
-0.911972, 1, 193, 256, 320
-0.912459, 1, 81, 375, 208
-0.912586, 241, 129, 368, 384
-0.927663, 65, 129, 320, 256
-0.928116, 65, 65, 320, 192
-0.92891, 97, 193, 352, 320
-0.930454, 129, 257, 375, 384
-0.932346, 177, 193, 304, 320
-0.933492, 65, 321, 320, 448
-0.933831, 1, 353, 375, 480
-0.936092, 113, 225, 240, 352
-0.936364, 185, 241, 248, 368
-0.936465, 225, 129, 288, 256
-0.937253, 177, 241, 304, 368
-0.938632, 225, 193, 288, 320
-0.939477, 1, 33, 128, 160
-0.942147, 33, 225, 160, 352
-0.943848, 25, 49, 88, 176
-0.944923, 249, 241, 312, 368
-0.945067, 225, 225, 352, 352
-0.945684, 161, 257, 224, 384
-0.945924, 193, 1, 256, 128
-0.946343, 49, 177, 176, 304
-0.946603, 129, 273, 256, 400
-0.94692, 201, 193, 264, 320
-0.947075, 65, 17, 192, 144
-0.947823, 161, 129, 288, 256
-0.948506, 209, 145, 336, 272
-0.9487, 121, 209, 184, 336
-0.948879, 81, 273, 208, 400
-0.949201, 89, 257, 152, 384
-0.949423, 209, 241, 272, 368
-0.949784, 209, 49, 336, 176
-0.950253, 201, 97, 264, 224
-0.95047, 33, 369, 288, 496
-0.95069, 49, 161, 112, 288
-0.950796, 217, 209, 280, 272
-0.951032, 145, 49, 272, 176
-0.95126, 193, 289, 320, 416
-0.952222, 65, 257, 128, 384
-0.952413, 273, 225, 336, 352
-0.952625, 129, 1, 256, 128
-0.95319, 177, 193, 240, 320
-0.954399, 97, 17, 160, 144
-0.954541, 65, 209, 128, 336
-0.954546, 57, 81, 120, 208
-0.954976, 225, 185, 288, 248
-0.955175, 241, 217, 304, 280
-0.955329, 97, 209, 160, 336
-0.955434, 65, 321, 128, 448
-0.955465, 225, 145, 288, 208
-0.955738, 65, 33, 128, 160
-0.956345, 81, 321, 208, 448
-0.956976, 33, 273, 160, 400
-0.957043, 25, 57, 88, 120
-0.957049, 201, 145, 264, 272
-0.957468, 177, 225, 240, 288
-0.957928, 209, 49, 272, 176
-0.957957, 49, 57, 112, 120
-0.958248, 137, 33, 200, 160
-0.958425, 169, 49, 232, 176
-0.958807, 233, 241, 296, 304
-0.959034, 185, 289, 248, 416
-0.959172, 121, 217, 184, 280
-0.959281, 137, 257, 200, 384
-0.959591, 153, 305, 216, 432
-0.960394, 1, 177, 128, 304
-0.960592, 273, 257, 336, 320
-0.9606, 265, 201, 328, 264
-0.960718, 1, 49, 64, 176
-0.960753, 265, 161, 328, 288
-0.961077, 241, 97, 368, 224
-0.961142, 73, 41, 136, 104
-0.9615, 169, 249, 232, 312
-0.961541, 33, 97, 96, 224
-0.961656, 145, 321, 272, 448
-0.961741, 97, 25, 160, 88
-0.961866, 153, 209, 216, 336
-0.962264, 225, 1, 352, 128
-0.962363, 113, 177, 240, 304
-0.96249, 137, 33, 200, 96
-0.962649, 201, 241, 264, 304
-0.962724, 169, 273, 232, 336
-0.962898, 193, 289, 256, 352
-0.962906, 201, 185, 264, 248
-0.963195, 25, 161, 88, 288
-0.963448, 209, 121, 272, 184
-0.963481, 17, 81, 144, 208
-0.963884, 209, 289, 272, 416
-0.964015, 185, 97, 248, 160
-0.964237, 81, 241, 144, 304
-0.964246, 33, 321, 160, 448
-0.965053, 177, 1, 304, 128
-0.96535, 201, 73, 264, 136
-0.96581, 113, 257, 176, 384
-0.965958, 209, 97, 272, 352
-0.966076, 241, 273, 304, 336
-0.966121, 9, 113, 72, 240
-0.966222, 281, 233, 344, 296
-0.966407, 49, 153, 112, 216
-0.966792, 273, 273, 336, 400
-0.966972, 105, 241, 168, 304
-0.967204, 33, 129, 160, 256
-0.967317, 89, 321, 152, 448
-0.967425, 1, 369, 128, 496
-0.967547, 145, 257, 208, 320
-0.968107, 97, 369, 224, 496
-0.968271, 49, 105, 112, 168
-0.968379, 81, 217, 144, 280
-0.968579, 129, 321, 192, 448
-0.968583, 1, 57, 64, 120
-0.968596, 105, 161, 168, 288
-0.968704, 153, 225, 216, 288
-0.968925, 233, 289, 296, 416
-0.969146, 25, 241, 88, 368
-0.969193, 89, 369, 152, 496
-0.969447, 49, 369, 176, 496
-0.969554, 81, 1, 144, 256
-0.969878, 137, 297, 200, 360
-0.970011, 49, 81, 112, 144
-0.970052, 97, 57, 160, 120
-0.970143, 265, 177, 328, 240
-0.970326, 65, 65, 192, 192
-0.970378, 113, 113, 240, 240
-0.970724, 129, 369, 375, 496
-0.970787, 177, 249, 304, 312
-0.970856, 25, 89, 88, 152
-0.970938, 225, 1, 288, 128
-0.970957, 201, 49, 264, 112
-0.97101, 193, 25, 256, 88
-0.971154, 233, 129, 296, 384
-0.971184, 225, 81, 288, 144
-0.971186, 249, 193, 280, 320
-0.9715, 169, 201, 232, 264
-0.971721, 201, 193, 264, 448
-0.971831, 145, 369, 208, 496
-0.971924, 161, 225, 288, 288
-0.971983, 177, 97, 240, 224
-0.972006, 169, 305, 232, 368
-0.972045, 57, 233, 120, 296
-0.972095, 65, 265, 128, 328
-0.97217, 81, 129, 144, 256
-0.972311, 113, 265, 176, 328
-0.972368, 297, 241, 360, 368
-0.972583, 177, 145, 240, 272
-0.972935, 209, 1, 272, 256
-0.972952, 81, 137, 144, 200
-0.973028, 65, 161, 128, 416
-0.973098, 89, 65, 152, 192
-0.973137, 65, 305, 128, 368
-0.973237, 33, 233, 96, 296
-0.973254, 65, 369, 128, 496
-0.973276, 153, 57, 216, 120
-0.97328, 233, 49, 296, 176
-0.973366, 161, 89, 224, 152
-0.973397, 25, 153, 88, 216
-0.973543, 221, 241, 252, 368
-0.973562, 265, 241, 296, 304
-0.973577, 65, 225, 192, 288
-0.973581, 161, 225, 224, 480
-0.973634, 177, 65, 240, 128
-0.973679, 245, 129, 276, 256
-0.97379, 105, 241, 136, 368
-0.973827, 225, 57, 288, 120
-0.973888, 105, 193, 168, 256
-0.973925, 145, 369, 272, 496
-0.973934, 121, 193, 184, 448
-0.973957, 273, 281, 336, 344
-0.973974, 109, 241, 140, 304
-0.973977, 173, 257, 204, 384
-0.974071, 113, 257, 240, 320
-0.974173, 73, 81, 136, 144
-0.974188, 201, 265, 264, 328
-0.974359, 209, 225, 240, 288
-0.97438, 105, 321, 168, 384
-0.974606, 213, 97, 244, 160
-0.974613, 185, 65, 248, 320
-0.974634, 1, 49, 128, 112
-0.974817, 225, 201, 256, 264
-0.974828, 49, 33, 176, 96
-0.974974, 221, 193, 252, 320
-0.974994, 17, 33, 80, 288
-0.975122, 233, 33, 296, 96
-0.97519, 145, 321, 208, 384
-0.975454, 145, 281, 272, 344
-0.975462, 33, 129, 96, 192
-0.97549, 89, 265, 152, 328
-0.97556, 177, 193, 304, 256
-0.975599, 113, 225, 240, 288
-0.975603, 261, 193, 292, 320
-0.975676, 65, 337, 128, 400
-0.975714, 193, 241, 224, 304
-0.97574, 137, 1, 200, 256
-0.975806, 29, 33, 60, 160
-0.975853, 229, 145, 260, 272
-0.975914, 129, 33, 256, 96
-0.976048, 253, 217, 284, 280
-0.97608, 33, 209, 96, 272
-0.976104, 17, 233, 144, 296
-0.97613, 105, 297, 168, 360
-0.976272, 49, 185, 112, 248
-0.976312, 185, 161, 248, 224
-0.976315, 49, 385, 112, 448
-0.976362, 81, 193, 144, 256
-0.976396, 33, 321, 96, 448
-0.976455, 41, 33, 104, 288
-0.976486, 217, 297, 280, 360
-0.976502, 209, 225, 240, 352
-0.976681, 237, 177, 268, 240
-0.976767, 289, 177, 352, 304
-0.976771, 73, 49, 104, 176
-0.976864, 265, 217, 296, 280
-0.976901, 225, 177, 256, 240
-0.976945, 265, 97, 328, 224
-0.976965, 81, 41, 112, 104
-0.976984, 313, 177, 375, 304
-0.976998, 57, 129, 120, 192
-0.977015, 57, 57, 88, 120
-0.977134, 313, 129, 375, 256
-0.977239, 57, 49, 88, 176
-0.977353, 225, 225, 352, 288
-0.977481, 33, 369, 96, 496
-0.977507, 193, 281, 320, 344
-0.977543, 81, 393, 144, 456
-0.97756, 213, 97, 244, 224
-0.977581, 177, 353, 240, 480
-0.977595, 89, 193, 152, 448
-0.977624, 213, 1, 244, 128
-0.977681, 77, 65, 108, 128
-0.977683, 185, 49, 216, 176
-0.977891, 193, 241, 224, 368
-0.977913, 33, 49, 64, 112
-0.977941, 145, 305, 272, 368
-0.977975, 93, 33, 124, 96
-0.978059, 237, 209, 268, 272
-0.978059, 181, 233, 212, 296
-0.978076, 49, 273, 176, 336
-0.978078, 249, 225, 312, 480
-0.978108, 193, 1, 256, 64
-0.97814, 165, 257, 196, 320
-0.978206, 209, 145, 336, 208
-0.978288, 65, 81, 96, 144
-0.978302, 69, 145, 100, 208
-0.97839, 153, 345, 216, 408
-0.978481, 233, 225, 264, 352
-0.978516, 217, 137, 248, 200
-0.978579, 161, 241, 192, 368
-0.978726, 49, 33, 112, 96
-0.978767, 233, 65, 264, 192
-0.978823, 241, 273, 368, 400
-0.978878, 241, 297, 304, 360
-0.978911, 213, 193, 244, 256
-0.978947, 177, 169, 304, 232
-0.979031, 297, 273, 360, 336
-0.979113, 49, 193, 176, 256
-0.979168, 145, 193, 208, 256
-0.979175, 161, 65, 224, 320
-0.979339, 105, 425, 168, 488
-0.979353, 221, 297, 252, 360
-0.979409, 197, 217, 228, 280
-0.9795, 233, 1, 296, 64
-0.97953, 129, 97, 256, 160
-0.979672, 113, 1, 176, 256
-0.979693, 173, 209, 204, 336
-0.979698, 181, 273, 212, 336
-0.979732, 81, 361, 144, 424
-0.979763, 237, 137, 268, 200
-0.979788, 97, 201, 224, 264
-0.979846, 289, 185, 352, 248
-0.979861, 273, 153, 336, 216
-0.979877, 289, 321, 352, 448
-0.979939, 145, 433, 208, 496
-0.979983, 89, 65, 120, 192
-0.980012, 57, 209, 120, 272
-0.980099, 9, 185, 72, 248
-0.98011, 129, 57, 256, 120
-0.980188, 53, 161, 84, 288
-0.980196, 9, 385, 72, 448
-0.980294, 65, 97, 96, 224
-0.980353, 49, 65, 176, 128
-0.980356, 129, 9, 256, 72
-0.980357, 25, 1, 88, 128
-0.980361, 113, 169, 176, 232
-0.980382, 225, 225, 256, 288
-0.980483, 109, 193, 140, 320
-0.98049, 193, 337, 320, 464
-0.980591, 209, 81, 336, 144
-0.980625, 89, 305, 120, 432
-0.980703, 193, 313, 256, 376
-0.980722, 265, 193, 296, 256
-0.980741, 281, 257, 312, 320
-0.980784, 249, 145, 280, 208
-0.980799, 193, 337, 256, 400
-0.980857, 129, 169, 256, 232
-0.980866, 225, 201, 352, 264
-0.980921, 65, 145, 96, 272
-0.980938, 213, 249, 244, 312
-0.980977, 25, 161, 88, 416
-0.981003, 257, 145, 288, 272
-0.981044, 209, 273, 240, 400
-0.981139, 49, 153, 176, 216
-0.981193, 49, 97, 80, 224
-0.981228, 57, 1, 120, 500
-0.981282, 117, 25, 148, 88
-0.981293, 185, 65, 216, 128
-0.981309, 209, 41, 336, 104
-0.981363, 129, 161, 192, 288
-0.981374, 265, 305, 328, 368
-0.981377, 1, 161, 64, 288
-0.98142, 249, 153, 312, 216
-0.981483, 253, 241, 284, 304
-0.981553, 65, 249, 192, 312
-0.981601, 225, 257, 352, 320
-0.981755, 81, 297, 208, 360
-0.981757, 101, 17, 132, 144
-0.981762, 217, 1, 280, 500
-0.981763, 161, 313, 192, 376
-0.981785, 45, 49, 76, 176
-0.981805, 169, 1, 232, 500
-0.98182, 197, 193, 228, 320
-0.981849, 1, 73, 128, 136
-0.981884, 25, 257, 88, 320
-0.981929, 97, 1, 160, 500
-0.981995, 45, 57, 76, 120
-0.982085, 265, 97, 328, 352
-0.982093, 217, 9, 248, 72
-0.982103, 209, 273, 240, 336
-0.982123, 161, 289, 192, 416
-0.982156, 121, 345, 184, 408
-0.982167, 185, 137, 248, 200
-0.982171, 9, 1, 72, 500
-0.982209, 305, 217, 368, 280
-0.982251, 229, 273, 260, 336
-0.982297, 225, 177, 352, 240
-0.982313, 89, 193, 120, 320
-0.98232, 33, 305, 96, 368
-0.982343, 85, 17, 116, 144
-0.982358, 33, 401, 160, 464
-0.982369, 9, 225, 72, 288
-0.98244, 129, 1, 192, 500
-0.982462, 9, 417, 72, 480
-0.982482, 1, 65, 32, 128
-0.982484, 57, 433, 120, 496
-0.982496, 201, 337, 264, 464
-0.982517, 73, 105, 104, 168
-0.982534, 1, 1, 64, 128
-0.982542, 65, 257, 128, 500
-0.982563, 81, 105, 144, 168
-0.982595, 9, 129, 72, 192
-0.982619, 105, 329, 136, 392
-0.98271, 97, 337, 224, 400
-0.982748, 297, 17, 360, 144
-0.982834, 1, 257, 128, 320
-0.982842, 217, 145, 248, 272
-0.982863, 17, 57, 48, 120
-0.982938, 233, 33, 296, 288
-0.982967, 89, 313, 120, 376
-0.982975, 289, 129, 352, 256
-0.982978, 209, 305, 336, 368
-0.983009, 93, 257, 124, 384
-0.983011, 177, 321, 208, 448
-0.983029, 49, 209, 80, 336
-0.983063, 113, 289, 144, 416
-0.983067, 73, 169, 136, 232
-0.983077, 161, 33, 224, 96
-0.983092, 1, 153, 128, 216
-0.983105, 165, 281, 196, 344
-0.983109, 169, 233, 200, 296
-0.983125, 253, 193, 284, 256
-0.983127, 77, 97, 108, 224
-0.983133, 209, 121, 336, 184
-0.983159, 265, 241, 296, 368
-0.983299, 41, 217, 72, 280
-0.983303, 161, 129, 288, 192
-0.983309, 41, 409, 104, 472
-0.983383, 57, 153, 88, 216
-0.983386, 97, 353, 128, 480
-0.983435, 41, 137, 72, 200
-0.983471, 101, 57, 132, 120
-0.983477, 5, 49, 36, 176
-0.983548, 229, 97, 260, 160
-0.983573, 97, 361, 224, 424
-0.983625, 285, 233, 316, 296
-0.983629, 165, 337, 196, 400
-0.983688, 49, 129, 176, 192
-0.983714, 9, 369, 72, 496
-0.983752, 185, 209, 216, 272
-0.983761, 285, 209, 316, 336
-0.983781, 213, 161, 244, 224
-0.983805, 109, 217, 140, 280
-0.983906, 281, 225, 344, 480
-0.983916, 93, 249, 124, 312
-0.983936, 257, 169, 288, 232
-0.983939, 37, 113, 68, 240
-0.983943, 109, 305, 140, 368
-0.984005, 33, 1, 96, 500
-0.98407, 69, 41, 100, 104
-0.984094, 41, 329, 104, 392
-0.984097, 121, 57, 184, 120
-0.984149, 233, 113, 296, 176
-0.984185, 1, 209, 128, 272
-0.984258, 193, 1, 256, 500
-0.984261, 105, 273, 136, 336
-0.984262, 149, 289, 180, 416
-0.984268, 125, 209, 156, 336
-0.984282, 93, 81, 124, 144
-0.98438, 97, 353, 128, 416
-0.984402, 237, 241, 268, 304
-0.984404, 313, 153, 375, 216
-0.984407, 173, 33, 204, 160
-0.984421, 265, 369, 328, 496
-0.984436, 305, 193, 368, 448
-0.98444, 225, 17, 352, 80
-0.984612, 249, 241, 280, 368
-0.984615, 113, 17, 144, 144
-0.98462, 197, 265, 228, 328
-0.984689, 133, 33, 164, 96
-0.984694, 289, 65, 352, 192
-0.984747, 177, 297, 208, 360
-0.984759, 97, 209, 128, 272
-0.984779, 177, 17, 304, 80
-0.984802, 241, 353, 368, 480
-0.984818, 217, 321, 280, 384
-0.984828, 145, 329, 272, 392
-0.984865, 49, 329, 176, 392
-0.984888, 149, 217, 180, 280
-0.984944, 121, 129, 184, 192
-0.984958, 161, 17, 192, 144
-0.984991, 49, 105, 176, 168
-0.985009, 89, 97, 152, 352
-0.985089, 181, 321, 212, 384
-0.985104, 17, 49, 48, 176
-0.985111, 277, 201, 308, 264
-0.985117, 17, 377, 144, 440
-0.985161, 229, 73, 260, 136
-0.985201, 165, 33, 196, 96
-0.985382, 173, 209, 204, 272
-0.985473, 257, 113, 320, 176
-0.98552, 105, 113, 168, 240
-0.98552, 277, 257, 308, 384
-0.985554, 241, 281, 368, 344
-0.985615, 1, 81, 64, 144
-0.985676, 109, 337, 140, 464
-0.98573, 313, 81, 375, 208
-0.985753, 97, 433, 224, 496
-0.985842, 153, 193, 184, 320
-0.985847, 313, 185, 375, 248
-0.985854, 69, 257, 100, 384
-0.985897, 81, 433, 144, 496
-0.985969, 141, 33, 172, 160
-0.985977, 161, 1, 224, 128
-0.986, 237, 33, 268, 96
-0.98601, 37, 161, 68, 288
-0.986036, 153, 369, 216, 432
-0.98608, 121, 97, 184, 352
-0.986117, 113, 65, 176, 192
-0.986123, 165, 337, 196, 464
-0.98614, 201, 97, 232, 224
-0.986179, 225, 257, 288, 500
-0.986203, 289, 305, 352, 368
-0.98622, 153, 145, 216, 272
-0.986326, 269, 265, 300, 328
-0.986367, 289, 257, 320, 384
-0.986427, 265, 321, 328, 448
-0.986468, 273, 1, 336, 500
-0.986479, 1, 313, 128, 376
-0.98648, 105, 401, 168, 464
-0.986516, 105, 25, 136, 88
-0.986521, 177, 369, 240, 432
-0.986561, 233, 273, 264, 400
-0.986631, 25, 33, 88, 96
-0.986633, 225, 249, 256, 312
-0.986678, 305, 177, 336, 304
-0.986686, 53, 121, 84, 184
-0.986761, 149, 33, 180, 96
-0.986765, 137, 9, 200, 72
-0.986808, 1, 97, 128, 160
-0.986833, 145, 401, 208, 464
-0.986889, 41, 281, 104, 344
-0.986913, 73, 17, 136, 80
-0.986939, 121, 209, 152, 272
-0.986951, 45, 81, 76, 144
-0.986952, 77, 337, 108, 464
-0.987082, 153, 281, 184, 344
-0.987091, 125, 257, 156, 384
-0.987105, 1, 33, 64, 96
-0.987146, 265, 329, 328, 392
-0.987204, 273, 193, 304, 320
-0.987213, 237, 313, 268, 376
-0.987223, 193, 89, 224, 152
-0.987232, 145, 97, 208, 224
-0.987247, 121, 257, 152, 320
-0.98727, 81, 401, 208, 464
-0.987309, 57, 361, 120, 424
-0.987359, 1, 177, 128, 240
-0.987362, 1, 433, 128, 496
-0.987363, 197, 193, 228, 256
-0.987409, 221, 49, 252, 176
-0.987525, 65, 321, 96, 448
-0.987564, 285, 305, 316, 432
-0.987608, 249, 281, 280, 344
-0.987644, 233, 17, 264, 144
-0.98765, 241, 1, 304, 500
-0.987754, 1, 153, 64, 216
-0.987757, 201, 145, 232, 272
-0.987832, 313, 129, 375, 192
-0.987867, 73, 337, 104, 400
-0.987878, 121, 369, 184, 432
-0.987954, 113, 137, 240, 200
-0.987966, 297, 305, 328, 432
-0.987968, 153, 249, 184, 312
-0.988001, 49, 353, 176, 416
-0.988003, 137, 273, 168, 400
-0.988015, 145, 345, 176, 408
-0.988039, 49, 425, 176, 488
-0.988087, 125, 17, 156, 144
-0.988106, 57, 177, 88, 240
-0.988114, 125, 321, 156, 448
-0.988136, 305, 241, 336, 368
-0.988214, 197, 305, 228, 368
-0.988337, 77, 161, 108, 288
-0.988389, 185, 193, 216, 320
-0.988441, 37, 169, 68, 232
-0.988454, 1, 209, 64, 336
-0.988499, 149, 305, 180, 368
-0.988524, 189, 289, 220, 416
-0.98872, 209, 65, 240, 128
-0.988724, 1, 121, 128, 184
-0.988752, 305, 97, 368, 352
-0.988757, 61, 401, 92, 464
-0.988811, 113, 145, 144, 272
-0.988819, 117, 129, 148, 192
-0.988822, 309, 129, 340, 256
-0.988893, 297, 313, 328, 376
-0.988942, 9, 321, 72, 448
-0.988999, 33, 81, 64, 144
-0.989028, 217, 213, 280, 244
-0.989032, 313, 1, 375, 500
-0.989041, 177, 361, 304, 424
-0.989075, 77, 377, 108, 440
-0.989078, 97, 129, 128, 256
-0.989164, 85, 121, 116, 184
-0.989172, 129, 409, 256, 472
-0.989202, 37, 209, 68, 336
-0.989241, 41, 257, 104, 500
-0.989312, 49, 249, 80, 312
-0.989322, 129, 233, 160, 296
-0.989353, 133, 209, 164, 272
-0.989368, 241, 253, 304, 284
-0.989395, 329, 97, 360, 224
-0.989448, 89, 377, 120, 440
-0.989491, 193, 229, 256, 260
-0.989573, 65, 233, 96, 296
-0.989597, 225, 193, 288, 224
-0.989647, 221, 289, 252, 416
-0.989678, 85, 225, 116, 288
-0.989691, 301, 281, 332, 344
-0.989705, 161, 229, 224, 260
-0.989741, 65, 25, 320, 88
-0.989744, 209, 49, 240, 176
-0.989758, 121, 221, 184, 252
-0.989836, 313, 209, 344, 272
-0.989859, 89, 57, 152, 88
-0.989871, 169, 253, 232, 284
-0.989882, 309, 233, 340, 296
-0.989927, 97, 29, 160, 60
-0.989935, 217, 141, 280, 172
-0.989939, 81, 145, 112, 208
-0.989958, 273, 273, 336, 304
-0.989986, 217, 225, 280, 256
-0.989991, 49, 289, 80, 352
-0.990001, 177, 41, 208, 104
-0.99004, 73, 249, 136, 280
-0.990062, 137, 37, 200, 68
-0.990072, 129, 385, 256, 448
-0.990076, 25, 57, 88, 88
-0.990125, 17, 85, 80, 116
-0.990142, 177, 285, 240, 316
-0.990157, 241, 205, 304, 236
-0.990174, 65, 49, 128, 80
-0.990175, 201, 89, 264, 120
-0.990222, 1, 345, 128, 408
-0.990227, 257, 97, 288, 224
-0.990235, 281, 261, 344, 292
-0.990258, 201, 77, 264, 108
-0.990281, 181, 353, 212, 416
-0.9903, 193, 209, 256, 240
-0.990311, 225, 177, 288, 208
-0.990325, 217, 237, 280, 268
-0.990329, 45, 377, 76, 440
-0.99035, 113, 233, 176, 264
-0.990363, 265, 217, 328, 248
-0.99037, 209, 297, 272, 328
-0.990372, 241, 225, 304, 256
-0.990392, 141, 225, 172, 352
-0.990396, 81, 261, 144, 292
-0.990447, 1, 69, 64, 100
-0.990463, 101, 185, 132, 248
-0.990469, 245, 81, 276, 208
-0.990471, 177, 385, 304, 448
-0.990472, 193, 329, 224, 392
-0.990495, 65, 249, 320, 312
-0.990496, 209, 249, 272, 280
-0.990497, 53, 217, 84, 280
-0.990501, 125, 313, 156, 376
-0.990502, 57, 89, 120, 120
-0.990504, 161, 217, 224, 248
-0.990542, 305, 257, 336, 320
-0.990544, 141, 433, 172, 496
-0.990558, 177, 89, 240, 120
-0.990562, 321, 145, 352, 272
-0.990569, 169, 241, 232, 272
-0.990573, 113, 49, 144, 112
-0.990585, 321, 1, 352, 128
-0.990589, 209, 329, 336, 392
-0.9906, 193, 65, 256, 96
-0.990604, 277, 177, 308, 240
-0.990621, 93, 273, 124, 336
-0.99064, 313, 289, 375, 416
-0.99065, 141, 281, 172, 344
-0.990681, 177, 265, 240, 296
-0.990693, 237, 9, 268, 72
-0.990737, 17, 97, 48, 224
-0.990781, 117, 337, 148, 400
-0.9908, 57, 69, 120, 100
-0.990807, 105, 245, 168, 276
-0.990813, 65, 305, 320, 368
-0.990814, 185, 101, 248, 132
-0.990841, 137, 273, 200, 304
-0.990851, 1, 289, 128, 352
-0.990861, 105, 341, 168, 372
-0.990873, 1, 217, 256, 280
-0.990887, 281, 245, 344, 276
-0.990899, 273, 285, 336, 316
-0.990923, 201, 197, 264, 228
-0.990932, 113, 45, 176, 76
-0.990951, 201, 185, 264, 216
-0.990994, 193, 53, 256, 84
-0.990999, 105, 261, 168, 292
-0.99102, 17, 97, 80, 128
-0.991039, 49, 105, 112, 136
-0.991046, 53, 289, 84, 416
-0.991049, 57, 265, 120, 296
-0.99105, 313, 185, 344, 248
-0.991056, 241, 241, 304, 272
-0.99106, 25, 149, 88, 180
-0.991069, 249, 285, 312, 316
-0.991092, 89, 217, 152, 248
-0.991094, 201, 129, 264, 160
-0.991094, 273, 205, 336, 236
-0.991107, 65, 393, 128, 424
-0.99115, 233, 165, 296, 196
-0.991157, 265, 233, 328, 264
-0.991165, 209, 277, 272, 308
-0.991172, 225, 85, 288, 116
-0.991176, 49, 145, 112, 176
-0.991177, 65, 321, 128, 352
-0.991202, 49, 161, 112, 192
-0.991207, 293, 161, 324, 288
-0.991216, 73, 237, 136, 268
-0.991224, 73, 37, 136, 68
-0.99123, 145, 325, 208, 356
-0.991243, 33, 57, 288, 120
-0.991261, 113, 205, 176, 236
-0.991283, 33, 237, 96, 268
-0.991288, 233, 265, 296, 296
-0.991309, 97, 273, 160, 304
-0.991318, 41, 45, 104, 76
-0.991344, 161, 69, 224, 100
-0.991345, 193, 41, 256, 72
-0.991352, 65, 369, 96, 496
-0.991353, 225, 73, 288, 104
-0.991353, 153, 353, 216, 384
-0.991367, 129, 261, 192, 292
-0.991378, 249, 193, 312, 224
-0.991381, 25, 257, 88, 288
-0.991396, 129, 249, 192, 280
-0.991421, 105, 457, 168, 488
-0.991459, 201, 261, 264, 292
-0.991488, 225, 153, 288, 184
-0.991491, 141, 337, 172, 464
-0.991502, 265, 177, 328, 208
-0.991502, 81, 333, 144, 364
-0.991517, 225, 57, 288, 88
-0.99152, 233, 37, 296, 68
-0.991527, 177, 313, 240, 344
-0.991528, 177, 333, 240, 364
-0.991538, 241, 361, 368, 424
-0.991541, 1, 281, 256, 344
-0.991569, 1, 53, 64, 84
-0.991577, 217, 101, 280, 132
-0.991593, 49, 173, 112, 204
-0.991601, 65, 305, 128, 336
-0.991612, 65, 349, 128, 380
-0.991627, 137, 289, 200, 320
-0.991629, 225, 121, 288, 152
-0.991632, 249, 313, 312, 344
-0.991635, 145, 49, 208, 80
-0.99165, 137, 233, 200, 264
-0.99166, 129, 313, 192, 344
-0.991695, 145, 341, 208, 372
-0.991705, 81, 69, 144, 100
-0.99171, 65, 277, 128, 308
-0.991721, 145, 433, 272, 496
-0.991724, 217, 1, 280, 32
-0.991741, 113, 57, 176, 88
-0.991743, 105, 329, 168, 360
-0.991744, 137, 301, 200, 332
-0.991752, 153, 313, 216, 344
-0.991764, 177, 297, 240, 328
-0.99184, 73, 153, 136, 184
-0.991848, 81, 9, 208, 72
-0.991854, 273, 313, 336, 344
-0.991879, 257, 301, 320, 332
-0.991882, 89, 313, 152, 344
-0.991885, 1, 217, 375, 280
-0.991893, 25, 169, 88, 200
-0.991913, 81, 129, 144, 160
-0.991915, 25, 69, 88, 100
-0.991922, 73, 185, 136, 216
-0.991925, 113, 301, 176, 332
-0.991926, 97, 225, 352, 288
-0.991934, 73, 1, 104, 128
-0.991968, 57, 289, 120, 320
-0.991976, 97, 285, 160, 316
-0.991976, 193, 13, 256, 44
-0.991977, 57, 133, 120, 164
-0.991999, 81, 377, 144, 408
-0.992005, 145, 437, 208, 468
-0.992006, 153, 85, 216, 116
-0.992012, 65, 185, 320, 248
-0.992026, 161, 377, 224, 408
-0.992031, 65, 225, 128, 256
-0.992042, 333, 49, 364, 176
-0.992068, 189, 369, 220, 496
-0.992087, 297, 113, 328, 240
-0.9921, 313, 81, 344, 208
-0.992104, 201, 321, 232, 448
-0.992237, 1, 25, 128, 88
-0.992342, 201, 229, 232, 260
-0.99235, 81, 45, 112, 76
-0.99237, 65, 149, 96, 180
-0.992428, 225, 185, 256, 216
-0.992491, 197, 241, 228, 272
-0.992492, 105, 245, 136, 276
-0.992493, 53, 1, 84, 128
-0.992499, 153, 353, 184, 480
-0.992502, 1, 337, 32, 464
-0.992518, 269, 145, 300, 272
-0.992527, 265, 249, 296, 280
-0.992532, 1, 249, 375, 312
-0.992541, 213, 121, 244, 152
-0.992544, 249, 237, 280, 268
-0.992557, 221, 233, 252, 264
-0.992557, 213, 253, 244, 284
-0.992565, 241, 225, 272, 256
-0.992628, 57, 89, 88, 120
-0.99264, 33, 53, 64, 84
-0.992642, 77, 81, 108, 112
-0.992659, 245, 209, 276, 240
-0.992662, 37, 85, 68, 116
-0.992664, 97, 53, 128, 84
-0.992666, 69, 209, 100, 336
-0.992667, 1, 33, 375, 96
-0.992682, 225, 205, 256, 236
-0.99271, 209, 241, 240, 272
-0.992711, 177, 257, 208, 288
-0.992714, 105, 257, 136, 288
-0.992714, 81, 69, 112, 100
-0.992722, 209, 105, 240, 136
-0.992722, 185, 233, 216, 264
-0.992745, 221, 217, 252, 248
-0.992752, 237, 193, 268, 224
-0.992758, 9, 69, 40, 100
-0.992769, 101, 33, 132, 64
-0.99277, 69, 53, 100, 84
-0.992773, 229, 141, 260, 172
-0.992781, 113, 49, 144, 80
-0.992783, 169, 269, 200, 300
-0.992787, 265, 197, 296, 228
-0.992788, 185, 245, 216, 276
-0.992789, 113, 369, 176, 496
-0.992798, 117, 225, 148, 256
-0.992801, 133, 145, 164, 272
-0.992802, 233, 241, 264, 272
-0.992816, 65, 161, 320, 224
-0.992822, 265, 225, 296, 256
-0.992828, 201, 257, 232, 288
-0.992833, 133, 37, 164, 68
-0.992836, 165, 33, 196, 64
-0.992841, 77, 101, 108, 132
-0.992843, 189, 89, 220, 120
-0.992844, 169, 229, 200, 260
-0.992848, 257, 209, 288, 240
-0.992857, 229, 305, 260, 336
-0.99286, 285, 265, 316, 296
-0.992864, 253, 225, 284, 256
-0.992866, 61, 101, 92, 132
-0.992875, 189, 221, 220, 252
-0.992886, 21, 241, 52, 368
-0.992891, 161, 345, 192, 376
-0.992894, 249, 253, 280, 284
-0.992895, 65, 245, 96, 276
-0.992899, 185, 69, 216, 100
-0.992906, 213, 265, 244, 296
-0.992906, 241, 141, 272, 172
-0.992916, 117, 25, 148, 56
-0.992917, 129, 53, 160, 84
-0.992921, 213, 93, 244, 124
-0.992925, 213, 197, 244, 228
-0.992929, 257, 49, 320, 176
-0.99294, 213, 185, 244, 216
-0.992941, 181, 333, 212, 364
-0.992957, 49, 101, 80, 132
-0.992961, 229, 129, 260, 160
-0.992973, 149, 37, 180, 68
-0.992975, 169, 297, 200, 328
-0.99298, 169, 241, 200, 272
-0.992984, 69, 393, 100, 424
-0.992985, 217, 165, 248, 196
-0.992989, 213, 281, 244, 312
-0.992994, 69, 161, 100, 192
-0.992994, 217, 141, 248, 172
-0.992999, 93, 329, 124, 360
-0.993005, 93, 349, 124, 380
-0.993006, 53, 169, 84, 200
-0.993008, 109, 317, 140, 348
-0.993008, 113, 329, 144, 360
-0.993012, 253, 185, 284, 216
-0.993015, 225, 97, 256, 128
-0.993015, 269, 209, 300, 240
-0.993015, 229, 257, 260, 288
-0.993019, 109, 61, 140, 92
-0.993023, 193, 269, 224, 300
-0.993027, 213, 81, 244, 112
-0.993027, 169, 325, 200, 356
-0.993031, 25, 81, 56, 112
-0.993031, 57, 69, 88, 100
-0.993034, 49, 153, 80, 184
-0.993035, 117, 265, 148, 296
-0.993036, 213, 297, 244, 328
-0.993042, 165, 257, 196, 288
-0.993042, 109, 341, 140, 372
-0.993044, 225, 285, 256, 316
-0.993048, 149, 221, 180, 252
-0.993049, 181, 313, 212, 344
-0.993053, 13, 81, 44, 112
-0.993055, 85, 57, 116, 88
-0.993056, 281, 277, 312, 308
-0.99306, 141, 345, 172, 376
-0.993062, 117, 237, 148, 268
-0.993063, 181, 281, 212, 312
-0.99307, 201, 217, 232, 248
-0.993071, 193, 333, 224, 364
-0.993073, 53, 249, 84, 280
-0.993089, 157, 309, 188, 340
-0.993094, 209, 5, 240, 36
-0.993098, 89, 253, 120, 284
-0.993109, 233, 69, 264, 100
-0.993109, 101, 269, 132, 300
-0.993117, 109, 281, 140, 312
-0.993118, 69, 113, 100, 144
-0.993129, 97, 365, 128, 396
-0.993132, 49, 217, 80, 248
-0.993133, 237, 45, 268, 76
-0.993134, 49, 137, 80, 168
-0.99314, 273, 177, 304, 208
-0.993145, 125, 333, 156, 364
-0.993146, 117, 129, 148, 160
-0.993147, 121, 213, 152, 244
-0.99315, 221, 25, 252, 56
-0.99316, 121, 37, 152, 68
-0.993161, 161, 357, 192, 388
-0.993162, 229, 85, 260, 116
-0.993168, 113, 461, 144, 492
-0.993172, 21, 65, 52, 96
-0.993172, 253, 197, 284, 228
-0.993179, 265, 237, 296, 268
-0.99318, 37, 161, 68, 192
-0.993181, 157, 285, 188, 316
-0.993185, 97, 281, 352, 344
-0.993185, 169, 213, 200, 244
-0.993213, 197, 49, 228, 176
-0.993255, 169, 145, 200, 272
-0.99329, 177, 369, 208, 496
-0.993346, 25, 161, 56, 288
-0.993355, 1, 57, 375, 120
-0.99342, 241, 401, 368, 464
-0.993508, 1, 129, 375, 192
-0.993587, 145, 225, 272, 256
-0.993615, 33, 113, 288, 176
-0.99363, 235, 177, 250, 240
-0.993639, 233, 321, 264, 448
-0.993723, 1, 281, 375, 344
-0.993735, 65, 137, 320, 200
-0.993756, 1, 129, 64, 384
-0.993758, 101, 65, 132, 192
-0.993837, 53, 369, 84, 496
-0.993842, 245, 289, 276, 416
-0.993915, 65, 1, 320, 64
-0.993959, 177, 249, 304, 280
-0.994041, 1, 81, 375, 144
-0.994043, 289, 1, 352, 256
-0.994055, 1, 193, 375, 256
-0.994175, 13, 1, 44, 128
-0.99422, 33, 329, 288, 392
-0.994245, 33, 89, 288, 152
-0.994249, 129, 49, 375, 112
-0.99427, 81, 33, 208, 64
-0.99429, 269, 217, 284, 280
-0.99432, 13, 337, 44, 464
-0.99433, 1, 257, 64, 500
-0.994354, 81, 257, 208, 288
-0.994379, 17, 241, 144, 272
-0.994395, 129, 65, 160, 192
-0.994441, 275, 241, 290, 304
-0.99449, 161, 261, 288, 292
-0.994538, 1, 57, 128, 88
-0.994563, 81, 257, 112, 384
-0.994612, 111, 241, 126, 304
-0.994632, 225, 245, 352, 276
-0.994643, 285, 369, 316, 496
-0.994656, 129, 337, 375, 400
-0.994673, 65, 245, 192, 276
-0.994691, 193, 229, 320, 260
-0.994703, 219, 225, 234, 288
-0.994724, 1, 305, 375, 368
-0.99473, 41, 369, 72, 496
-0.994732, 193, 217, 320, 248
-0.994792, 41, 1, 72, 128
-0.994812, 309, 33, 340, 160
-0.994832, 177, 201, 304, 232
-0.994857, 175, 265, 190, 328
-0.994857, 193, 425, 320, 488
-0.994865, 247, 193, 262, 256
-0.994872, 113, 245, 240, 276
-0.994906, 113, 81, 144, 208
-0.994953, 107, 329, 122, 392
-0.994958, 265, 1, 328, 256
-0.994965, 33, 45, 160, 76
-0.994966, 229, 177, 244, 240
-0.994988, 1, 257, 64, 384
-0.99499, 65, 229, 192, 260
-0.994998, 289, 369, 352, 496
-0.995001, 55, 57, 70, 120
-0.995018, 213, 225, 228, 288
-0.995034, 317, 193, 348, 320
-0.995044, 267, 241, 282, 304
-0.995055, 161, 289, 288, 320
-0.99506, 145, 45, 272, 76
-0.995062, 67, 65, 82, 128
-0.995101, 129, 65, 256, 96
-0.995104, 215, 249, 230, 312
-0.995115, 41, 257, 72, 384
-0.995156, 161, 301, 288, 332
-0.995164, 169, 81, 200, 208
-0.995178, 113, 269, 240, 300
-0.995188, 93, 41, 108, 104
-0.995195, 241, 185, 256, 248
-0.995199, 275, 201, 290, 264
-0.995207, 241, 217, 256, 280
-0.995216, 185, 249, 200, 312
-0.995237, 235, 201, 250, 264
-0.99527, 257, 217, 272, 280
-0.995277, 81, 41, 96, 104
-0.995302, 231, 137, 246, 200
-0.995335, 229, 201, 244, 264
-0.995341, 203, 241, 218, 304
-0.995365, 33, 353, 288, 416
-0.995365, 183, 273, 198, 336
-0.995369, 145, 29, 272, 60
-0.995406, 229, 17, 244, 80
-0.995408, 105, 25, 120, 88
-0.995422, 223, 97, 238, 160
-0.995425, 49, 49, 64, 112
-0.995432, 65, 377, 320, 440
-0.995484, 225, 225, 240, 288
-0.995484, 1, 169, 375, 232
-0.99551, 191, 233, 206, 296
-0.995512, 97, 217, 224, 248
-0.995512, 209, 285, 336, 316
-0.995516, 117, 233, 132, 296
-0.995547, 1, 69, 128, 100
-0.995562, 75, 41, 90, 104
-0.995567, 281, 241, 296, 304
-0.995571, 95, 89, 110, 152
-0.995583, 33, 261, 160, 292
-0.995584, 83, 65, 98, 128
-0.995585, 129, 81, 375, 144
-0.995597, 223, 177, 238, 240
-0.99562, 227, 265, 242, 328
-0.995627, 99, 33, 114, 96
-0.995637, 145, 213, 272, 244
-0.995641, 169, 241, 184, 304
-0.995654, 1, 93, 128, 124
-0.995666, 197, 217, 212, 280
-0.995706, 49, 209, 176, 240
-0.995716, 17, 229, 144, 260
-0.995717, 3, 65, 18, 128
-0.995729, 221, 249, 236, 312
-0.995744, 209, 61, 336, 92
-0.995745, 113, 281, 240, 312
-0.995753, 1, 433, 256, 496
-0.995788, 73, 145, 88, 208
-0.995794, 183, 297, 198, 360
-0.995797, 61, 57, 76, 120
-0.995801, 67, 145, 82, 208
-0.995808, 193, 273, 320, 304
-0.995813, 49, 281, 176, 312
-0.995813, 269, 177, 284, 240
-0.995825, 129, 17, 256, 48
-0.995828, 235, 233, 250, 296
-0.995828, 287, 257, 302, 320
-0.995831, 87, 33, 102, 96
-0.995835, 175, 233, 190, 296
-0.995839, 91, 65, 106, 128
-0.995844, 221, 289, 236, 352
-0.995847, 207, 217, 222, 280
-0.995848, 313, 1, 375, 256
-0.99586, 115, 25, 130, 88
-0.995864, 133, 25, 148, 88
-0.995872, 217, 97, 232, 160
-0.995882, 97, 45, 224, 76
-0.995893, 65, 57, 192, 88
-0.995907, 243, 137, 258, 200
-0.995919, 253, 137, 268, 200
-0.995933, 213, 193, 244, 448
-0.995946, 265, 153, 280, 216
-0.995948, 1, 105, 375, 168
-0.995958, 127, 25, 142, 88
-0.995972, 223, 137, 238, 200
-0.995986, 17, 81, 144, 112
-0.995992, 17, 65, 32, 128
-0.995995, 173, 313, 188, 376
-0.996006, 65, 333, 192, 364
-0.996015, 263, 217, 278, 280
-0.996019, 173, 289, 188, 352
-0.996023, 27, 57, 42, 120
-0.996047, 177, 189, 304, 220
-0.996051, 281, 201, 296, 264
-0.996068, 143, 33, 158, 96
-0.996078, 197, 65, 212, 128
-0.996079, 221, 97, 252, 352
-0.996082, 53, 209, 68, 272
-0.996085, 215, 201, 230, 264
-0.996085, 209, 125, 336, 156
-0.996096, 251, 217, 266, 280
-0.996107, 1, 329, 375, 392
-0.996118, 231, 97, 246, 160
-0.996155, 61, 153, 76, 216
-0.996155, 129, 113, 375, 176
-0.996178, 97, 417, 352, 480
-0.996185, 49, 157, 176, 188
-0.996185, 97, 205, 224, 236
-0.996186, 243, 161, 258, 224
-0.996188, 209, 73, 336, 104
-0.996194, 75, 105, 90, 168
-0.9962, 237, 289, 252, 352
-0.996203, 145, 325, 272, 356
-0.996203, 197, 241, 212, 304
-0.996209, 49, 189, 176, 220
-0.99621, 189, 281, 204, 344
-0.996212, 1, 409, 256, 472
-0.996223, 81, 301, 208, 332
-0.996225, 233, 337, 296, 464
-0.996225, 225, 49, 352, 80
-0.996226, 129, 89, 256, 120
-0.996228, 233, 73, 248, 136
-0.996229, 209, 29, 336, 60
-0.996243, 215, 273, 230, 336
-0.996247, 65, 81, 192, 112
-0.996248, 9, 65, 24, 128
-0.996249, 97, 453, 224, 484
-0.996251, 129, 77, 256, 108
-0.996266, 225, 173, 352, 204
-0.996267, 79, 153, 94, 216
-0.996268, 37, 49, 52, 112
-0.996271, 187, 49, 202, 112
-0.99628, 245, 305, 260, 368
-0.996281, 207, 97, 222, 160
-0.996283, 229, 1, 260, 256
-0.99629, 237, 137, 252, 200
-0.996292, 217, 137, 232, 200
-0.996313, 57, 81, 72, 144
-0.996322, 231, 297, 246, 360
-0.996322, 101, 313, 116, 376
-0.996324, 209, 9, 336, 40
-0.996342, 241, 129, 272, 384
-0.996345, 209, 97, 240, 352
-0.996347, 89, 105, 104, 168
-0.996353, 241, 241, 256, 304
-0.996356, 113, 337, 128, 400
-0.996356, 161, 313, 288, 344
-0.996357, 129, 105, 256, 136
-0.996372, 49, 145, 176, 176
-0.996373, 163, 273, 178, 336
-0.996387, 77, 81, 92, 144
-0.996402, 105, 265, 120, 328
-0.996412, 209, 161, 336, 192
-0.996413, 261, 241, 276, 304
-0.996439, 183, 225, 198, 288
-0.996439, 281, 265, 296, 328
-0.996444, 239, 33, 254, 96
-0.996451, 33, 401, 160, 432
-0.996453, 43, 49, 58, 112
-0.996471, 81, 349, 208, 380
-0.99648, 161, 137, 288, 168
-0.996481, 251, 281, 266, 344
-0.996491, 225, 313, 352, 344
-0.996495, 113, 225, 144, 480
-0.996499, 119, 329, 134, 392
-0.996509, 43, 137, 58, 200
-0.996512, 145, 337, 272, 368
-0.996514, 51, 89, 66, 152
-0.996535, 163, 337, 178, 400
-0.996541, 1, 361, 375, 424
-0.996556, 69, 89, 84, 152
-0.996571, 183, 329, 198, 392
-0.996579, 17, 105, 144, 136
-0.99658, 225, 205, 352, 236
-0.996583, 175, 337, 190, 400
-0.996593, 49, 129, 64, 192
-0.996593, 85, 1, 116, 256
-0.996594, 257, 193, 272, 256
-0.9966, 177, 177, 304, 208
-0.996606, 109, 1, 140, 256
-0.996606, 167, 305, 182, 368
-0.996609, 49, 33, 80, 288
-0.996618, 97, 1, 128, 256
-0.996619, 113, 201, 128, 264
-0.996623, 123, 249, 138, 312
-0.99663, 89, 129, 104, 192
-0.996641, 217, 1, 232, 64
-0.996642, 47, 217, 62, 280
-0.996643, 81, 105, 96, 168
-0.996645, 121, 33, 136, 96
-0.996648, 105, 49, 120, 112
-0.996671, 225, 193, 352, 224
-0.996685, 157, 33, 172, 96
-0.996698, 223, 201, 238, 264
-0.996701, 151, 33, 166, 96
-0.996707, 241, 137, 368, 168
-0.99671, 279, 177, 294, 240
-0.996715, 97, 193, 224, 224
-0.996728, 113, 313, 240, 344
-0.996729, 209, 101, 336, 132
-0.996729, 249, 241, 264, 304
-0.996746, 121, 1, 152, 256
-0.996785, 49, 69, 176, 100
-0.996802, 209, 89, 336, 120
-0.996834, 209, 149, 336, 180
-0.996837, 49, 93, 176, 124
-0.996842, 225, 297, 352, 328
-0.996846, 129, 125, 256, 156
-0.99686, 69, 1, 100, 256
-0.996901, 33, 33, 160, 64
-0.996905, 1, 149, 128, 180
-0.996916, 49, 313, 176, 344
-0.996921, 217, 1, 248, 256
-0.996926, 97, 361, 224, 392
-0.996943, 225, 257, 352, 288
-0.996948, 241, 229, 368, 260
-0.997019, 89, 193, 120, 448
-0.997044, 65, 377, 192, 408
-0.997056, 101, 193, 132, 448
-0.997065, 229, 193, 260, 448
-0.997117, 69, 129, 100, 384
-0.997132, 129, 173, 256, 204
-0.997151, 33, 301, 160, 332
-0.997155, 209, 325, 336, 356
-0.997159, 157, 225, 188, 480
-0.997161, 65, 433, 192, 464
-0.997175, 37, 33, 68, 288
-0.997187, 17, 177, 144, 208
-0.997206, 209, 113, 336, 144
-0.997232, 235, 185, 250, 216
-0.997235, 1, 421, 128, 452
-0.997258, 21, 33, 52, 288
-0.99729, 253, 129, 284, 384
-0.997291, 1, 389, 128, 420
-0.997295, 189, 65, 220, 320
-0.997298, 161, 149, 288, 180
-0.997308, 193, 225, 224, 480
-0.997347, 149, 1, 180, 256
-0.997359, 241, 217, 368, 248
-0.99739, 65, 421, 192, 452
-0.997401, 81, 465, 208, 496
-0.997404, 177, 193, 208, 448
-0.997413, 57, 161, 88, 416
-0.997426, 257, 1, 320, 128
-0.997434, 1, 273, 128, 304
-0.997477, 145, 353, 272, 384
-0.997522, 129, 441, 256, 472
-0.997547, 109, 245, 124, 276
-0.997547, 297, 193, 328, 448
-0.99755, 135, 33, 150, 64
-0.997569, 113, 153, 240, 184
-0.997576, 309, 193, 340, 448
-0.997583, 69, 149, 84, 180
-0.99759, 137, 1, 168, 256
-0.99759, 65, 133, 192, 164
-0.997592, 33, 465, 160, 496
-0.997608, 9, 33, 40, 288
-0.997624, 145, 1, 272, 32
-0.99763, 265, 129, 296, 384
-0.997633, 17, 333, 144, 364
-0.997651, 49, 389, 176, 420
-0.997659, 211, 229, 226, 260
-0.997684, 225, 185, 240, 216
-0.997718, 113, 53, 128, 84
-0.997719, 125, 193, 156, 448
-0.99772, 237, 209, 252, 240
-0.997725, 1, 161, 128, 192
-0.997735, 115, 237, 130, 268
-0.997737, 1, 449, 128, 480
-0.997741, 217, 229, 232, 260
-0.997761, 215, 257, 230, 288
-0.997763, 201, 245, 216, 276
-0.997771, 249, 201, 264, 232
-0.997774, 259, 233, 274, 264
-0.997779, 107, 349, 122, 380
-0.997782, 241, 273, 368, 304
-0.997813, 77, 53, 92, 84
-0.99782, 225, 197, 240, 228
-0.997827, 85, 41, 100, 72
-0.997827, 325, 97, 356, 352
-0.997834, 241, 229, 256, 260
-0.997834, 17, 345, 144, 376
-0.997843, 209, 245, 224, 276
-0.997843, 223, 245, 238, 276
-0.997844, 205, 229, 220, 260
-0.997856, 241, 193, 256, 224
-0.997859, 97, 409, 224, 440
-0.997867, 95, 41, 110, 72
-0.997871, 113, 373, 240, 404
-0.99788, 123, 53, 138, 84
-0.997881, 97, 389, 224, 420
-0.997885, 69, 93, 84, 124
-0.997887, 85, 69, 100, 100
-0.997899, 219, 185, 234, 216
-0.997912, 61, 89, 76, 120
-0.997912, 243, 217, 258, 248
-0.997915, 63, 241, 78, 272
-0.997919, 281, 253, 296, 284
-0.997922, 261, 209, 276, 240
-0.997929, 1, 317, 128, 348
-0.997932, 81, 85, 96, 116
-0.99794, 71, 105, 86, 136
-0.997944, 109, 97, 140, 352
-0.997949, 105, 33, 120, 64
-0.997949, 1, 197, 128, 228
-0.997951, 75, 89, 90, 120
-0.997954, 253, 237, 268, 268
-0.997954, 1, 285, 128, 316
-0.997955, 1, 217, 128, 248
-0.99796, 267, 225, 282, 256
-0.997964, 253, 141, 268, 172
-0.997964, 221, 109, 236, 140
-0.997972, 195, 229, 210, 260
-0.997986, 21, 69, 36, 100
-0.997997, 105, 329, 120, 360
-0.997998, 129, 29, 144, 60
-0.998001, 49, 365, 176, 396
-0.998009, 51, 85, 66, 116
-0.998013, 27, 61, 42, 92
-0.998017, 91, 85, 106, 116
-0.998021, 179, 269, 194, 300
-0.998022, 1, 385, 375, 448
-0.998024, 1, 1, 128, 64
-0.998026, 163, 353, 178, 384
-0.998027, 49, 117, 176, 148
-0.998027, 65, 169, 192, 200
-0.998028, 231, 25, 246, 56
-0.998029, 231, 257, 246, 288
-0.998032, 1, 65, 16, 96
-0.998033, 153, 349, 168, 380
-0.998036, 225, 121, 240, 152
-0.998038, 173, 261, 188, 292
-0.998043, 279, 205, 294, 236
-0.998047, 89, 57, 104, 88
-0.99805, 49, 445, 176, 476
-0.998053, 123, 225, 138, 256
-0.998055, 161, 161, 288, 192
-0.998056, 161, 369, 288, 400
-0.998057, 261, 149, 276, 180
-0.998057, 93, 73, 108, 104
-0.998059, 247, 141, 262, 172
-0.998061, 271, 197, 286, 228
-0.998066, 235, 237, 250, 268
-0.998072, 1, 1, 375, 64
-0.998074, 227, 225, 242, 256
-0.998078, 113, 341, 128, 372
-0.998079, 147, 37, 162, 68
-0.998081, 195, 241, 210, 272
-0.998087, 113, 41, 128, 72
-0.99809, 79, 153, 94, 184
-0.998092, 269, 245, 284, 276
-0.998093, 133, 45, 148, 76
-0.998102, 161, 1, 192, 256
-0.998107, 259, 221, 274, 252
-0.99811, 123, 25, 138, 56
-0.998119, 217, 217, 232, 248
-0.998124, 277, 225, 308, 480
-0.998125, 243, 301, 258, 332
-0.998148, 221, 281, 236, 312
-0.998148, 185, 253, 200, 284
-0.998153, 219, 197, 234, 228
-0.998154, 173, 341, 188, 372
-0.99816, 125, 329, 140, 360
-0.998161, 197, 69, 212, 100
-0.998168, 189, 233, 204, 264
-0.998179, 123, 261, 138, 292
-0.998179, 7, 69, 22, 100
-0.998181, 85, 149, 100, 180
-0.998182, 173, 293, 188, 324
-0.998184, 129, 465, 256, 496
-0.998186, 127, 41, 142, 72
-0.998189, 137, 161, 168, 416
-0.998199, 43, 89, 58, 120
-0.998204, 129, 57, 144, 88
-0.99821, 181, 341, 196, 372
-0.998211, 215, 109, 230, 140
-0.998212, 263, 245, 278, 276
-0.998226, 103, 57, 118, 88
-0.998231, 183, 321, 198, 352
-0.998234, 161, 389, 288, 420
-0.998235, 283, 273, 298, 304
-0.99824, 217, 5, 232, 36
-0.99824, 233, 129, 248, 160
-0.998245, 203, 217, 218, 248
-0.998248, 249, 249, 264, 280
-0.99825, 223, 13, 238, 44
-0.99825, 45, 193, 76, 448
-0.998252, 241, 33, 272, 288
-0.998253, 177, 33, 208, 288
-0.998258, 233, 141, 248, 172
-0.998265, 275, 285, 290, 316
-0.998267, 91, 101, 106, 132
-0.99827, 69, 253, 84, 284
-0.998271, 77, 101, 92, 132
-0.998273, 249, 225, 280, 480
-0.998274, 89, 125, 104, 156
-0.998275, 241, 249, 256, 280
-0.998276, 171, 249, 186, 280
-0.998279, 1, 433, 375, 496
-0.998282, 251, 305, 266, 336
-0.998284, 231, 97, 246, 128
-0.998285, 203, 257, 218, 288
-0.998291, 169, 305, 184, 336
-0.998297, 47, 53, 62, 84
-0.998298, 251, 213, 266, 244
-0.998298, 207, 89, 222, 120
-0.998299, 231, 205, 246, 236
-0.998305, 209, 105, 224, 136
-0.998306, 227, 269, 242, 300
-0.998307, 57, 61, 72, 92
-0.998307, 63, 101, 78, 132
-0.998311, 81, 97, 112, 352
-0.998314, 119, 329, 134, 360
-0.998317, 97, 313, 112, 344
-0.998321, 173, 281, 188, 312
-0.998321, 309, 97, 340, 352
-0.998323, 225, 257, 240, 288
-0.998324, 215, 277, 230, 308
-0.998326, 179, 37, 194, 68
-0.99833, 193, 333, 208, 364
-0.99833, 179, 301, 194, 332
-0.998331, 105, 305, 120, 336
-0.998349, 209, 349, 336, 380
-0.998372, 225, 105, 256, 120
-0.998372, 121, 335, 152, 350
-0.998373, 221, 143, 252, 158
-0.998374, 213, 117, 244, 132
-0.998374, 269, 219, 300, 234
-0.998375, 257, 291, 288, 306
-0.998375, 69, 97, 100, 112
-0.998376, 161, 295, 192, 310
-0.998376, 249, 255, 280, 270
-0.998377, 25, 83, 56, 98
-0.998378, 229, 137, 260, 152
-0.998378, 237, 51, 268, 66
-0.998378, 49, 161, 80, 176
-0.998379, 97, 63, 128, 78
-0.998379, 177, 343, 208, 358
-0.998379, 233, 77, 264, 92
-0.998381, 281, 283, 312, 298
-0.998382, 77, 123, 108, 138
-0.998383, 249, 145, 280, 160
-0.998384, 145, 221, 176, 236
-0.998384, 109, 329, 140, 344
-0.998384, 185, 87, 216, 102
-0.998386, 229, 261, 260, 276
-0.998386, 85, 65, 116, 80
-0.998386, 265, 255, 296, 270
-0.998386, 69, 167, 100, 182
-0.998387, 193, 277, 224, 292
-0.998387, 37, 103, 68, 118
-0.998387, 229, 199, 260, 214
-0.998388, 269, 209, 300, 224
-0.998389, 113, 277, 144, 292
-0.998389, 181, 337, 212, 352
-0.998389, 97, 41, 128, 56
-0.99839, 81, 71, 112, 86
-0.99839, 229, 99, 260, 114
-0.99839, 85, 257, 116, 272
-0.998391, 289, 265, 320, 280
-0.998391, 85, 57, 116, 72
-0.998393, 117, 129, 148, 144
-0.998393, 233, 249, 264, 264
-0.998393, 217, 289, 248, 304
-0.998393, 173, 267, 204, 282
-0.998394, 169, 231, 200, 246
-0.998394, 109, 63, 140, 78
-0.998395, 213, 129, 244, 144
-0.998395, 49, 85, 80, 100
-0.998395, 245, 237, 276, 252
-0.998396, 41, 93, 72, 108
-0.998396, 117, 343, 148, 358
-0.998396, 213, 87, 244, 102
-0.998397, 53, 105, 84, 120
-0.998398, 225, 241, 256, 256
-0.998398, 253, 193, 284, 208
-0.998398, 253, 227, 284, 242
-0.9984, 145, 41, 176, 56
-0.998403, 109, 335, 140, 350
-0.998403, 181, 327, 212, 342
-0.998406, 201, 263, 232, 278
-0.998406, 185, 69, 216, 84
-0.998407, 285, 271, 316, 286
-0.998408, 61, 91, 92, 106
-0.998409, 65, 63, 96, 78
-0.998411, 65, 251, 96, 266
-0.998411, 117, 239, 148, 254
-0.998412, 81, 81, 112, 96
-0.998413, 173, 281, 204, 296
-0.998415, 149, 349, 180, 364
-0.998415, 69, 161, 100, 176
-0.998416, 209, 109, 240, 124
-0.998418, 101, 35, 132, 50
-0.998418, 189, 225, 220, 240
-0.998419, 121, 227, 152, 242
-0.998422, 261, 203, 292, 218
-0.998423, 129, 37, 160, 52
-0.998423, 213, 137, 244, 152
-0.998424, 185, 233, 216, 248
-0.998424, 193, 93, 224, 108
-0.998425, 213, 93, 244, 108
-0.998426, 197, 253, 228, 268
-0.998426, 257, 209, 288, 224
-0.998429, 165, 349, 196, 364
-0.998429, 53, 99, 84, 114
-0.99843, 285, 277, 316, 292
-0.99843, 245, 215, 276, 230
-0.99843, 253, 33, 284, 288
-0.998433, 241, 203, 272, 218
-0.998434, 165, 273, 196, 288
-0.998434, 129, 57, 160, 72
-0.998434, 113, 141, 240, 172
-0.998435, 5, 71, 36, 86
-0.998435, 265, 227, 296, 242
-0.998437, 213, 251, 244, 266
-0.998437, 225, 209, 256, 224
-0.998439, 237, 231, 268, 246
-0.998439, 173, 255, 204, 270
-0.99844, 69, 103, 100, 118
-0.998442, 117, 233, 148, 248
-0.998446, 213, 263, 244, 278
-0.998448, 213, 201, 244, 216
-0.998449, 77, 87, 108, 102
-0.998449, 177, 261, 208, 276
-0.99845, 221, 235, 252, 250
-0.998451, 205, 237, 236, 252
-0.998455, 109, 263, 140, 278
-0.998455, 257, 217, 288, 232
-0.998458, 1, 125, 128, 156
-0.998459, 241, 225, 272, 240
-0.998462, 241, 381, 368, 412
-0.998465, 189, 247, 220, 262
-0.998467, 209, 337, 336, 368
-0.998469, 73, 57, 104, 72
-0.998471, 217, 229, 248, 244
-0.998473, 193, 335, 224, 350
-0.998474, 201, 243, 232, 258
-0.998475, 229, 193, 260, 208
-0.998475, 157, 35, 188, 50
-0.998476, 265, 249, 296, 264
-0.998476, 77, 225, 108, 480
-0.998477, 37, 87, 68, 102
-0.998478, 113, 29, 144, 44
-0.998479, 245, 209, 276, 224
-0.998482, 325, 1, 356, 256
-0.998483, 249, 245, 280, 260
-0.998484, 197, 231, 228, 246
-0.998486, 113, 55, 144, 70
-0.998493, 209, 257, 240, 272
-0.998495, 145, 429, 272, 460
-0.998495, 97, 57, 128, 72
-0.998496, 185, 253, 216, 268
-0.998498, 213, 123, 244, 138
-0.998498, 213, 99, 244, 114
-0.998502, 169, 259, 232, 274
-0.998502, 273, 277, 336, 292
-0.998503, 105, 247, 136, 262
-0.998505, 233, 219, 296, 234
-0.998506, 225, 193, 288, 208
-0.998508, 185, 93, 248, 108
-0.998509, 217, 225, 280, 240
-0.99851, 281, 271, 344, 286
-0.998513, 225, 187, 256, 202
-0.998514, 89, 61, 152, 76
-0.998519, 233, 143, 264, 158
-0.99852, 105, 257, 136, 272
-0.998521, 65, 57, 128, 72
-0.998522, 33, 55, 64, 70
-0.998522, 161, 227, 224, 242
-0.998523, 97, 33, 160, 48
-0.998526, 65, 153, 96, 168
-0.998526, 25, 63, 88, 78
-0.998527, 65, 253, 128, 268
-0.998528, 233, 213, 296, 228
-0.99853, 193, 75, 256, 90
-0.998531, 217, 247, 280, 262
-0.998534, 81, 47, 112, 62
-0.998536, 161, 233, 224, 248
-0.998536, 137, 37, 200, 52
-0.998536, 241, 253, 304, 268
-0.998537, 201, 87, 264, 102
-0.998537, 273, 283, 336, 298
-0.99854, 193, 65, 256, 80
-0.998542, 217, 145, 280, 160
-0.998547, 281, 265, 344, 280
-0.998549, 113, 227, 176, 242
-0.99855, 201, 233, 264, 248
-0.998552, 129, 235, 192, 250
-0.998554, 185, 99, 248, 114
-0.998554, 225, 187, 288, 202
-0.998554, 193, 81, 256, 96
-0.998554, 49, 95, 112, 110
-0.998555, 209, 201, 272, 216
-0.998555, 309, 1, 340, 256
-0.998555, 89, 55, 152, 70
-0.998558, 169, 265, 232, 280
-0.998558, 81, 259, 144, 274
-0.99856, 281, 255, 344, 270
-0.998562, 193, 239, 256, 254
-0.998563, 185, 245, 248, 260
-0.998563, 177, 293, 240, 308
-0.998564, 25, 57, 88, 72
-0.998567, 161, 243, 224, 258
-0.998568, 241, 207, 304, 222
-0.998573, 169, 253, 232, 268
-0.998574, 193, 59, 256, 74
-0.998576, 49, 51, 112, 66
-0.998576, 73, 241, 136, 256
-0.998577, 193, 227, 256, 242
-0.998578, 105, 243, 168, 258
-0.998579, 65, 265, 128, 280
-0.998579, 137, 277, 200, 292
-0.998581, 73, 247, 136, 262
-0.998584, 161, 93, 224, 108
-0.998585, 265, 215, 328, 230
-0.998586, 41, 101, 104, 116
-0.998587, 225, 295, 288, 310
-0.998587, 169, 271, 232, 286
-0.998587, 201, 105, 264, 120
-0.998588, 217, 241, 280, 256
-0.998588, 105, 235, 168, 250
-0.998588, 105, 347, 168, 362
-0.998588, 97, 265, 160, 280
-0.998588, 137, 229, 200, 244
-0.998589, 265, 221, 328, 236
-0.99859, 105, 271, 168, 286
-0.998591, 57, 67, 120, 82
-0.998591, 225, 231, 288, 246
-0.998591, 113, 57, 176, 72
-0.998592, 177, 287, 240, 302
-0.998592, 225, 181, 288, 196
-0.998592, 97, 251, 160, 266
-0.998593, 49, 149, 112, 164
-0.998595, 137, 223, 200, 238
-0.998597, 97, 279, 160, 294
-0.998597, 233, 201, 296, 216
-0.998599, 129, 263, 192, 278
-0.998599, 209, 219, 272, 234
-0.998599, 73, 47, 136, 62
-0.998599, 137, 269, 200, 284
-0.9986, 113, 221, 176, 236
-0.9986, 17, 99, 80, 114
-0.998602, 225, 87, 288, 102
-0.998603, 265, 227, 328, 242
-0.998604, 145, 347, 208, 362
-0.998605, 161, 71, 224, 86
-0.998606, 73, 235, 136, 250
-0.998606, 33, 87, 96, 102
-0.998607, 209, 99, 272, 114
-0.998607, 265, 209, 328, 224
-0.998608, 65, 271, 128, 286
-0.998608, 89, 227, 152, 242
-0.998608, 89, 41, 152, 56
-0.998608, 241, 425, 368, 488
-0.998609, 177, 105, 240, 120
-0.99861, 265, 249, 328, 264
-0.998611, 201, 139, 264, 154
-0.998612, 57, 259, 120, 274
-0.998613, 65, 399, 128, 414
-0.998614, 209, 213, 272, 228
-0.998614, 73, 339, 136, 354
-0.998615, 81, 67, 144, 82
-0.998615, 217, 289, 280, 304
-0.998617, 177, 277, 240, 292
-0.998618, 161, 87, 224, 102
-0.998619, 113, 47, 176, 62
-0.99862, 33, 241, 96, 256
-0.99862, 193, 53, 256, 68
-0.998621, 105, 259, 168, 274
-0.998621, 233, 37, 296, 52
-0.998622, 25, 161, 88, 176
-0.998623, 49, 173, 112, 188
-0.998623, 257, 289, 320, 304
-0.998624, 241, 225, 304, 240
-0.998624, 209, 123, 272, 138
-0.998625, 65, 333, 128, 348
-0.998625, 25, 259, 88, 274
-0.998625, 169, 337, 232, 352
-0.998625, 57, 85, 120, 100
-0.998626, 201, 207, 264, 222
-0.998626, 241, 275, 304, 290
-0.998627, 65, 165, 128, 180
-0.998627, 185, 221, 248, 236
-0.998628, 225, 81, 288, 96
-0.998628, 241, 245, 304, 260
-0.998629, 201, 185, 264, 200
-0.998629, 65, 393, 128, 408
-0.99863, 145, 43, 208, 58
-0.99863, 241, 259, 304, 274
-0.998631, 17, 93, 80, 108
-0.998631, 209, 263, 272, 278
-0.998631, 145, 253, 208, 268
-0.998632, 225, 73, 288, 88
-0.998667, 61, 257, 92, 500
-0.998691, 125, 97, 156, 352
-0.998725, 97, 97, 128, 352
-0.998738, 141, 257, 172, 500
-0.99876, 285, 129, 316, 384
-0.998814, 79, 33, 94, 160
-0.998817, 165, 97, 196, 352
-0.998818, 241, 129, 256, 256
-0.998819, 219, 209, 234, 336
-0.99884, 261, 193, 276, 320
-0.998845, 249, 129, 264, 256
-0.99885, 115, 225, 130, 352
-0.998856, 233, 65, 248, 192
-0.998869, 273, 193, 288, 320
-0.998874, 231, 129, 246, 256
-0.998889, 77, 81, 92, 208
-0.99889, 227, 1, 242, 128
-0.998893, 177, 257, 192, 384
-0.998899, 259, 129, 274, 256
-0.998909, 213, 241, 228, 368
-0.998915, 107, 273, 122, 400
-0.998921, 267, 193, 282, 320
-0.998926, 267, 145, 282, 272
-0.998939, 183, 257, 198, 384
-0.998943, 227, 81, 242, 208
-0.998956, 59, 161, 74, 288
-0.99897, 227, 241, 242, 368
-0.998974, 167, 225, 182, 352
-0.998976, 225, 193, 240, 320
-0.999001, 251, 193, 266, 320
-0.999003, 169, 273, 184, 400
-0.999006, 51, 33, 66, 160
-0.999016, 107, 225, 122, 352
-0.999018, 41, 33, 56, 160
-0.99902, 113, 273, 128, 400
-0.99902, 191, 257, 206, 384
-0.999026, 243, 193, 258, 320
-0.999031, 213, 193, 228, 320
-0.999036, 207, 241, 222, 368
-0.99904, 71, 49, 86, 176
-0.999047, 231, 177, 246, 304
-0.999058, 33, 129, 64, 384
-0.999065, 177, 209, 192, 336
-0.999078, 51, 81, 66, 208
-0.999082, 123, 257, 138, 384
-0.999084, 87, 65, 102, 192
-0.999091, 99, 305, 114, 432
-0.999102, 163, 289, 178, 416
-0.999106, 237, 209, 252, 336
-0.999108, 199, 225, 214, 352
-0.999111, 179, 321, 194, 448
-0.999114, 53, 161, 68, 288
-0.999119, 101, 17, 116, 144
-0.999126, 205, 1, 236, 256
-0.999132, 279, 193, 294, 320
-0.999135, 59, 49, 74, 176
-0.999137, 221, 257, 236, 384
-0.999152, 105, 321, 120, 448
-0.999158, 29, 33, 44, 160
-0.999162, 273, 241, 288, 368
-0.999166, 35, 33, 50, 160
-0.999166, 297, 97, 328, 352
-0.999168, 95, 33, 110, 160
-0.999172, 149, 129, 180, 384
-0.999174, 71, 97, 86, 224
-0.999176, 19, 65, 34, 192
-0.999181, 191, 49, 206, 176
-0.999183, 309, 225, 324, 352
-0.999183, 243, 241, 258, 368
-0.999187, 7, 49, 22, 176
-0.999189, 317, 177, 332, 304
-0.999192, 85, 17, 100, 144
-0.999196, 221, 113, 236, 240
-0.999198, 233, 17, 248, 144
-0.999201, 185, 209, 200, 336
-0.999205, 65, 49, 80, 176
-0.999205, 299, 289, 314, 416
-0.99921, 265, 225, 296, 480
-0.999213, 13, 49, 28, 176
-0.99922, 121, 193, 136, 320
-0.999228, 233, 257, 248, 384
-0.999231, 47, 129, 62, 256
-0.999236, 187, 305, 202, 432
-0.999237, 337, 1, 368, 256
-0.999239, 201, 49, 216, 176
-0.999243, 113, 17, 128, 144
-0.999244, 61, 225, 76, 352
-0.999245, 323, 129, 338, 256
-0.99925, 219, 161, 234, 288
-0.99925, 193, 209, 208, 336
-0.999252, 101, 193, 116, 320
-0.999265, 211, 97, 226, 224
-0.999267, 239, 49, 254, 176
-0.999273, 241, 1, 256, 128
-0.999274, 125, 321, 140, 448
-0.999275, 71, 241, 86, 368
-0.999277, 251, 241, 266, 368
-0.999281, 57, 97, 72, 224
-0.999281, 119, 321, 134, 448
-0.999282, 215, 289, 230, 416
-0.999283, 99, 257, 114, 384
-0.999283, 113, 337, 128, 464
-0.999292, 281, 241, 296, 368
-0.999295, 131, 17, 146, 144
-0.999295, 43, 81, 58, 208
-0.9993, 119, 17, 134, 144
-0.999305, 197, 273, 212, 400
-0.99931, 65, 161, 80, 288
-0.999311, 1, 49, 16, 176
-0.999312, 173, 321, 188, 448
-0.999313, 183, 33, 198, 160
-0.999315, 157, 273, 172, 400
-0.999317, 107, 177, 122, 304
-0.999319, 129, 257, 144, 384
-0.999324, 49, 209, 64, 336
-0.999327, 129, 209, 144, 336
-0.99933, 139, 17, 154, 144
-0.999334, 205, 193, 220, 320
-0.999337, 179, 369, 194, 496
-0.999339, 85, 113, 100, 240
-0.999342, 65, 97, 80, 224
-0.999343, 41, 145, 56, 272
-0.999344, 327, 1, 342, 128
-0.999344, 93, 81, 108, 208
-0.999346, 71, 321, 86, 448
-0.999351, 161, 209, 176, 336
-0.999351, 165, 17, 180, 144
-0.999352, 93, 305, 108, 432
-0.999357, 221, 1, 236, 128
-0.999358, 329, 81, 344, 208
-0.999358, 243, 289, 258, 416
-0.999359, 115, 177, 130, 304
-0.999363, 173, 17, 188, 144
-0.999367, 267, 241, 282, 368
-0.999371, 125, 17, 140, 144
-0.999375, 287, 241, 302, 368
-0.999375, 147, 33, 162, 160
-0.999379, 153, 33, 168, 160
-0.999379, 155, 225, 170, 352
-0.99938, 213, 145, 228, 272
-0.999381, 79, 145, 94, 272
-0.999393, 127, 161, 142, 288
-0.999412, 33, 225, 64, 480
-0.999482, 17, 193, 48, 448
-0.999496, 273, 33, 304, 288
-0.999524, 5, 257, 36, 500
-0.999559, 247, 219, 262, 234
-0.999559, 75, 151, 90, 166
-0.999559, 79, 143, 94, 158
-0.999559, 243, 225, 258, 240
-0.999559, 253, 245, 268, 260
-0.99956, 227, 237, 242, 252
-0.999561, 241, 325, 256, 340
-0.999561, 193, 251, 208, 266
-0.999561, 43, 53, 58, 68
-0.999562, 135, 59, 150, 74
-0.999562, 63, 65, 78, 80
-0.999562, 131, 329, 146, 344
-0.999564, 1, 409, 375, 472
-0.999564, 225, 189, 240, 204
-0.999564, 207, 101, 222, 116
-0.999564, 115, 63, 130, 78
-0.999565, 79, 85, 94, 100
-0.999566, 37, 53, 52, 68
-0.999566, 213, 247, 228, 262
-0.999566, 175, 349, 190, 364
-0.999566, 65, 253, 80, 268
-0.999566, 123, 231, 138, 246
-0.999568, 181, 261, 196, 276
-0.999568, 209, 267, 224, 282
-0.999568, 221, 111, 236, 126
-0.999568, 193, 235, 208, 250
-0.999569, 237, 199, 252, 214
-0.99957, 189, 281, 204, 296
-0.99957, 219, 11, 234, 26
-0.99957, 111, 31, 126, 46
-0.99957, 95, 79, 110, 94
-0.99957, 227, 203, 242, 218
-0.999572, 89, 93, 104, 108
-0.999572, 203, 259, 218, 274
-0.999572, 65, 91, 80, 106
-0.999573, 93, 85, 108, 100
-0.999575, 179, 277, 194, 292
-0.999575, 67, 103, 82, 118
-0.999575, 67, 243, 82, 258
-0.999575, 75, 97, 90, 112
-0.999575, 279, 217, 294, 232
-0.999576, 227, 139, 242, 154
-0.999576, 273, 289, 288, 304
-0.999577, 257, 225, 272, 240
-0.999578, 245, 205, 260, 220
-0.999578, 213, 3, 228, 18
-0.999578, 197, 69, 212, 84
-0.999579, 233, 233, 248, 248
-0.99958, 237, 239, 252, 254
-0.999581, 223, 119, 238, 134
-0.999581, 227, 21, 242, 36
-0.999582, 135, 53, 150, 68
-0.999583, 201, 231, 216, 246
-0.999583, 149, 41, 164, 56
-0.999583, 251, 213, 266, 228
-0.999584, 27, 65, 42, 80
-0.999584, 213, 99, 228, 114
-0.999586, 237, 211, 252, 226
-0.999586, 117, 337, 132, 352
-0.999587, 105, 35, 120, 50
-0.999587, 41, 87, 56, 102
-0.999587, 121, 35, 136, 50
-0.999587, 215, 267, 230, 282
-0.999587, 229, 259, 244, 274
-0.999588, 113, 347, 128, 362
-0.999588, 175, 293, 190, 308
-0.99959, 49, 87, 64, 102
-0.99959, 191, 335, 206, 350
-0.99959, 127, 337, 142, 352
-0.999591, 89, 101, 104, 116
-0.999591, 117, 27, 132, 42
-0.999591, 85, 153, 100, 168
-0.999591, 261, 213, 276, 228
-0.999592, 127, 29, 142, 44
-0.999593, 109, 61, 124, 76
-0.999593, 107, 255, 122, 270
-0.999594, 259, 149, 274, 164
-0.999594, 129, 131, 144, 146
-0.999594, 245, 195, 260, 210
-0.999595, 91, 47, 106, 62
-0.999595, 223, 249, 238, 264
-0.999596, 157, 351, 172, 366
-0.999596, 89, 123, 104, 138
-0.999597, 123, 57, 138, 72
-0.9996, 179, 255, 194, 270
-0.9996, 211, 259, 226, 274
-0.999601, 227, 231, 242, 246
-0.999601, 211, 231, 226, 246
-0.999601, 223, 197, 238, 212
-0.999601, 233, 141, 248, 156
-0.999601, 251, 201, 266, 216
-0.999601, 259, 235, 274, 250
-0.999603, 239, 231, 254, 246
-0.999604, 253, 315, 268, 330
-0.999605, 89, 61, 104, 76
-0.999605, 119, 237, 134, 252
-0.999605, 267, 227, 282, 242
-0.999606, 281, 211, 296, 226
-0.999609, 125, 331, 140, 346
-0.999612, 55, 85, 70, 100
-0.999613, 135, 41, 150, 56
-0.999615, 243, 143, 258, 158
-0.999615, 189, 341, 204, 356
-0.999616, 169, 33, 184, 48
-0.999616, 179, 343, 194, 358
-0.999617, 113, 243, 128, 258
-0.999618, 209, 253, 224, 268
-0.999618, 75, 107, 90, 122
-0.999619, 107, 55, 122, 70
-0.99962, 263, 245, 278, 260
-0.99962, 275, 249, 290, 264
-0.999621, 207, 93, 222, 108
-0.999623, 175, 269, 190, 284
-0.999625, 195, 245, 210, 260
-0.999628, 85, 45, 100, 60
-0.999628, 187, 253, 202, 268
-0.999629, 133, 33, 148, 48
-0.99963, 203, 243, 218, 258
-0.999632, 81, 101, 96, 116
-0.999634, 77, 59, 92, 74
-0.999635, 197, 333, 212, 348
-0.999641, 163, 359, 178, 374
-0.999644, 83, 57, 98, 72
-0.999647, 221, 255, 236, 270
-0.999647, 79, 49, 94, 64
-0.999649, 233, 185, 248, 200
-0.999655, 115, 55, 130, 70
-0.999658, 69, 149, 84, 164
-0.999663, 217, 229, 232, 244
-0.999669, 217, 261, 232, 276
-0.999669, 253, 143, 268, 158
-0.999805, 1, 129, 32, 384
-0.999822, 321, 193, 352, 448
-1.00048, 297, 1, 328, 256
-1.00083, 313, 369, 375, 496
-1.00087, 337, 97, 368, 352
-1.00096, 285, 33, 316, 288
-1.0011, 345, 225, 375, 480
-1.00135, 333, 193, 364, 448
