1962
-0.368876, 65, 1, 320, 375
-0.418861, 1, 1, 500, 256
-0.429287, 1, 1, 500, 375
-0.438656, 1, 129, 500, 375
-0.503194, 225, 1, 480, 375
-0.548593, 161, 129, 416, 375
-0.564846, 1, 1, 256, 256
-0.582829, 65, 129, 320, 375
-0.666225, 257, 129, 500, 375
-0.753656, 97, 1, 352, 256
-0.760222, 193, 1, 448, 256
-0.850217, 1, 225, 500, 352
-0.85267, 97, 1, 224, 375
-0.857015, 225, 129, 352, 375
-0.857544, 145, 129, 272, 375
-0.862116, 337, 1, 464, 375
-0.868654, 17, 1, 144, 375
-0.871439, 305, 129, 432, 375
-0.873114, 177, 1, 304, 375
-0.875899, 17, 129, 144, 375
-0.879013, 81, 1, 208, 256
-0.879747, 225, 225, 480, 352
-0.885753, 17, 1, 144, 256
-0.891224, 257, 1, 384, 375
-0.892824, 97, 225, 352, 352
-0.894775, 1, 33, 500, 160
-0.894871, 65, 129, 192, 375
-0.895039, 193, 1, 320, 256
-0.896124, 129, 1, 256, 256
-0.898716, 1, 177, 500, 304
-0.90615, 337, 1, 464, 256
-0.90803, 33, 177, 288, 304
-0.909318, 193, 161, 448, 288
-0.910147, 369, 129, 496, 375
-0.914454, 1, 241, 256, 368
-0.915339, 289, 225, 416, 352
-0.916677, 1, 81, 500, 208
-0.917021, 225, 209, 352, 336
-0.917612, 177, 225, 304, 352
-0.922524, 33, 225, 160, 352
-0.925211, 1, 33, 256, 160
-0.925342, 369, 241, 496, 368
-0.925599, 361, 225, 424, 352
-0.926296, 273, 33, 400, 288
-0.927267, 321, 225, 384, 352
-0.928046, 233, 225, 296, 352
-0.928403, 113, 225, 240, 352
-0.929308, 257, 225, 320, 352
-0.930507, 273, 177, 400, 304
-0.930518, 297, 241, 360, 368
-0.931876, 201, 193, 264, 320
-0.93206, 177, 145, 304, 272
-0.93502, 1, 129, 500, 256
-0.935567, 281, 193, 344, 320
-0.935807, 401, 241, 464, 368
-0.936553, 65, 129, 320, 256
-0.938823, 9, 209, 72, 336
-0.939691, 49, 209, 112, 336
-0.941424, 1, 177, 128, 304
-0.944478, 161, 209, 224, 336
-0.944672, 409, 297, 472, 360
-0.945264, 241, 145, 304, 272
-0.945858, 41, 161, 104, 288
-0.946001, 217, 249, 280, 312
-0.946056, 273, 257, 336, 320
-0.946131, 249, 265, 312, 328
-0.946393, 425, 241, 488, 368
-0.947251, 201, 241, 264, 368
-0.947375, 345, 241, 408, 304
-0.947385, 337, 193, 464, 320
-0.947517, 313, 177, 376, 304
-0.947893, 377, 305, 440, 368
-0.948026, 81, 241, 144, 368
-0.948147, 297, 273, 360, 336
-0.948681, 193, 145, 256, 272
-0.94872, 161, 1, 416, 128
-0.948858, 241, 225, 304, 288
-0.949579, 17, 161, 80, 288
-0.949706, 337, 305, 400, 368
-0.95028, 161, 97, 416, 224
-0.950513, 1, 81, 256, 208
-0.951146, 281, 225, 344, 288
-0.95135, 209, 225, 272, 288
-0.951563, 321, 265, 384, 328
-0.951689, 385, 281, 448, 344
-0.951828, 129, 177, 256, 304
-0.95263, 121, 265, 184, 328
-0.952717, 273, 305, 336, 368
-0.953613, 305, 241, 368, 304
-0.953772, 433, 297, 496, 360
-0.954027, 401, 257, 464, 320
-0.954032, 121, 289, 184, 352
-0.954204, 225, 161, 352, 288
-0.955068, 121, 225, 184, 352
-0.955167, 345, 265, 408, 328
-0.955348, 1, 241, 64, 304
-0.955956, 65, 177, 192, 304
-0.956136, 249, 289, 312, 352
-0.956218, 337, 177, 400, 304
-0.957098, 113, 113, 240, 240
-0.957174, 17, 1, 144, 128
-0.957523, 97, 1, 224, 128
-0.957689, 41, 225, 104, 288
-0.957719, 377, 233, 440, 296
-0.958178, 57, 1, 120, 128
-0.958215, 273, 97, 400, 224
-0.958348, 217, 145, 280, 272
-0.958573, 185, 281, 248, 344
-0.958741, 273, 281, 336, 344
-0.958822, 297, 297, 360, 360
-0.959094, 377, 257, 440, 320
-0.959226, 433, 273, 496, 336
-0.959438, 81, 249, 144, 312
-0.959515, 153, 225, 216, 288
-0.96017, 169, 161, 232, 288
-0.960254, 17, 17, 80, 144
-0.960312, 201, 201, 264, 264
-0.960515, 153, 33, 216, 160
-0.960674, 105, 225, 168, 288
-0.9608, 361, 177, 424, 304
-0.961299, 33, 201, 96, 264
-0.961324, 153, 281, 216, 344
-0.961518, 265, 145, 328, 272
-0.961785, 209, 273, 272, 336
-0.962069, 233, 137, 296, 200
-0.962076, 257, 113, 500, 240
-0.962125, 313, 97, 376, 224
-0.962549, 369, 289, 496, 352
-0.962572, 193, 257, 320, 320
-0.962641, 353, 233, 384, 296
-0.962999, 417, 1, 480, 128
-0.963048, 261, 225, 292, 352
-0.963082, 369, 1, 496, 128
-0.96313, 377, 33, 440, 160
-0.963233, 1, 113, 64, 240
-0.963304, 305, 265, 432, 328
-0.96333, 9, 273, 72, 336
-0.963786, 193, 49, 448, 176
-0.964053, 193, 249, 256, 312
-0.964087, 65, 145, 128, 272
-0.964333, 249, 161, 312, 224
-0.964416, 161, 281, 288, 344
-0.964422, 353, 81, 416, 208
-0.96446, 321, 145, 448, 272
-0.964588, 161, 249, 224, 312
-0.96491, 241, 281, 368, 344
-0.96498, 49, 129, 176, 256
-0.96581, 345, 129, 408, 256
-0.966021, 273, 241, 304, 368
-0.966111, 209, 169, 272, 232
-0.9663, 249, 129, 312, 375
-0.966337, 249, 225, 280, 352
-0.966475, 193, 145, 256, 208
-0.966506, 313, 97, 376, 160
-0.966994, 305, 305, 432, 368
-0.967025, 445, 281, 476, 344
-0.967075, 9, 201, 72, 264
-0.967125, 9, 297, 72, 360
-0.967195, 329, 257, 360, 320
-0.967573, 241, 225, 272, 288
-0.967591, 321, 33, 448, 160
-0.967612, 241, 257, 368, 320
-0.967739, 177, 177, 240, 240
-0.967763, 269, 257, 300, 320
-0.968088, 253, 249, 284, 312
-0.968227, 89, 177, 152, 304
-0.968257, 177, 1, 304, 128
-0.968324, 345, 225, 376, 352
-0.968378, 329, 241, 360, 368
-0.968576, 313, 129, 376, 375
-0.968656, 33, 249, 160, 312
-0.968779, 225, 233, 352, 296
-0.968791, 385, 313, 416, 375
-0.968916, 177, 97, 304, 224
-0.969095, 129, 17, 192, 80
-0.969257, 221, 161, 252, 288
-0.96928, 353, 81, 480, 208
-0.96928, 17, 217, 144, 280
-0.969423, 1, 129, 128, 256
-0.969638, 257, 273, 288, 336
-0.969686, 225, 113, 352, 240
-0.969698, 397, 305, 428, 368
-0.969772, 185, 81, 248, 208
-0.969825, 129, 1, 192, 128
-0.969833, 153, 41, 216, 104
-0.9701, 273, 233, 400, 296
-0.970254, 25, 177, 88, 240
-0.970362, 321, 241, 448, 304
-0.970493, 289, 129, 352, 375
-0.97051, 357, 225, 388, 352
-0.970599, 113, 233, 240, 296
-0.9706, 97, 1, 160, 128
-0.970623, 369, 241, 400, 304
-0.970781, 177, 217, 240, 280
-0.970859, 113, 273, 240, 336
-0.970859, 353, 97, 416, 160
-0.970969, 345, 129, 408, 375
-0.971008, 153, 113, 216, 240
-0.971048, 57, 9, 120, 72
-0.971162, 105, 313, 168, 375
-0.971192, 417, 49, 480, 176
-0.971216, 385, 193, 448, 320
-0.971282, 89, 273, 152, 336
-0.971391, 457, 297, 488, 360
-0.971684, 193, 1, 256, 128
-0.971737, 309, 273, 340, 336
-0.971809, 285, 241, 316, 368
-0.971925, 409, 193, 472, 320
-0.971937, 277, 297, 308, 360
-0.971938, 225, 129, 288, 375
-0.971964, 289, 145, 352, 272
-0.97197, 177, 233, 304, 296
-0.972008, 129, 289, 160, 352
-0.972021, 241, 193, 304, 256
-0.972191, 177, 145, 304, 208
-0.972214, 369, 313, 496, 375
-0.972241, 345, 153, 408, 216
-0.972402, 417, 273, 448, 336
-0.972408, 145, 305, 208, 368
-0.972468, 25, 1, 88, 256
-0.972483, 345, 265, 376, 328
-0.97255, 113, 49, 240, 176
-0.972618, 353, 265, 480, 328
-0.972689, 9, 129, 72, 375
-0.972707, 197, 177, 228, 304
-0.97273, 97, 1, 160, 64
-0.972914, 241, 249, 272, 312
-0.972983, 305, 313, 336, 375
-0.973039, 217, 209, 248, 272
-0.973197, 1, 81, 128, 208
-0.973227, 81, 225, 144, 288
-0.973291, 369, 225, 400, 352
-0.973325, 401, 233, 464, 296
-0.973427, 33, 273, 160, 336
-0.973587, 289, 249, 320, 312
-0.973836, 225, 305, 288, 368
-0.973875, 305, 217, 368, 280
-0.973891, 65, 177, 128, 240
-0.974043, 385, 81, 448, 208
-0.974143, 245, 177, 276, 304
-0.974347, 305, 241, 336, 368
-0.974358, 81, 305, 144, 368
-0.9746, 317, 241, 348, 368
-0.974649, 417, 241, 448, 368
-0.974658, 197, 265, 228, 328
-0.974708, 313, 177, 376, 240
-0.974718, 193, 129, 256, 375
-0.974723, 57, 201, 120, 264
-0.974825, 257, 1, 500, 128
-0.974829, 289, 289, 320, 352
-0.974849, 225, 305, 352, 368
-0.97485, 121, 177, 184, 304
-0.975048, 49, 305, 112, 368
-0.975097, 213, 209, 244, 336
-0.975165, 241, 137, 272, 200
-0.975182, 345, 297, 376, 360
-0.975285, 273, 201, 336, 264
-0.975426, 49, 129, 112, 375
-0.975448, 1, 193, 128, 256
-0.975461, 405, 225, 436, 352
-0.975524, 25, 113, 88, 240
-0.975613, 233, 177, 264, 304
-0.975625, 13, 225, 44, 352
-0.975657, 397, 281, 428, 344
-0.975768, 149, 265, 180, 328
-0.975825, 361, 177, 392, 304
-0.97584, 249, 313, 312, 375
-0.975855, 425, 297, 456, 360
-0.975858, 369, 145, 496, 272
-0.975898, 325, 289, 356, 352
-0.97597, 217, 241, 248, 304
-0.975976, 417, 73, 480, 136
-0.976018, 353, 33, 416, 160
-0.976068, 309, 233, 340, 296
-0.976069, 97, 305, 224, 368
-0.97607, 21, 209, 52, 272
-0.976073, 341, 233, 372, 296
-0.976111, 1, 25, 64, 88
-0.976146, 229, 225, 260, 352
-0.976217, 241, 209, 368, 272
-0.97624, 193, 225, 224, 352
-0.97635, 409, 233, 440, 296
-0.976432, 49, 209, 80, 336
-0.976437, 33, 297, 160, 360
-0.976442, 81, 209, 208, 272
-0.976595, 29, 241, 60, 368
-0.976615, 321, 73, 384, 136
-0.976647, 109, 241, 140, 368
-0.976692, 113, 249, 144, 312
-0.976696, 201, 193, 232, 256
-0.97672, 257, 225, 288, 288
-0.976791, 145, 201, 208, 264
-0.976854, 173, 281, 204, 344
-0.97694, 357, 257, 388, 320
-0.977234, 193, 209, 320, 272
-0.97725, 229, 225, 260, 288
-0.977305, 9, 225, 40, 288
-0.977346, 273, 225, 304, 288
-0.977506, 285, 225, 316, 288
-0.97757, 329, 233, 360, 296
-0.977595, 385, 273, 416, 336
-0.977768, 377, 89, 440, 152
-0.977877, 133, 257, 164, 320
-0.977889, 145, 161, 208, 288
-0.977914, 393, 41, 456, 104
-0.978026, 409, 297, 440, 360
-0.978045, 129, 241, 192, 304
-0.978077, 441, 241, 472, 368
-0.978085, 185, 273, 216, 336
-0.978093, 49, 153, 112, 216
-0.978195, 289, 97, 352, 224
-0.978558, 381, 241, 412, 368
-0.978579, 141, 289, 172, 352
-0.978634, 161, 281, 192, 344
-0.978729, 405, 257, 436, 320
-0.978729, 317, 313, 348, 375
-0.978777, 1, 17, 128, 80
-0.978782, 181, 209, 212, 336
-0.978872, 229, 257, 260, 320
-0.978913, 369, 241, 496, 304
-0.978919, 97, 49, 352, 176
-0.978921, 185, 121, 248, 184
-0.978952, 201, 241, 232, 304
-0.978965, 309, 193, 340, 320
-0.978976, 89, 201, 152, 264
-0.978995, 281, 193, 312, 320
-0.97906, 45, 161, 76, 288
-0.979141, 289, 185, 416, 248
-0.979158, 225, 185, 256, 248
-0.979161, 45, 225, 76, 288
-0.979454, 241, 193, 272, 256
-0.979491, 145, 1, 208, 256
-0.979538, 273, 161, 336, 224
-0.979543, 321, 217, 448, 280
-0.979695, 57, 145, 88, 272
-0.979801, 425, 249, 488, 312
-0.979828, 321, 153, 384, 216
-0.980053, 1, 193, 32, 320
-0.980138, 225, 153, 256, 216
-0.980145, 121, 1, 184, 256
-0.980159, 109, 273, 140, 336
-0.980164, 25, 193, 56, 320
-0.980188, 381, 241, 412, 304
-0.980294, 457, 241, 488, 368
-0.98032, 153, 113, 216, 176
-0.980324, 433, 273, 464, 336
-0.980341, 369, 305, 400, 368
-0.980379, 49, 185, 176, 248
-0.980408, 9, 289, 40, 352
-0.980424, 409, 17, 472, 80
-0.98047, 433, 193, 496, 320
-0.980478, 393, 241, 424, 368
-0.980498, 429, 241, 460, 368
-0.980644, 89, 129, 152, 256
-0.980776, 457, 273, 488, 336
-0.980813, 237, 161, 268, 224
-0.980838, 345, 185, 408, 248
-0.980901, 425, 97, 488, 160
-0.980912, 353, 161, 384, 224
-0.980942, 209, 161, 240, 288
-0.980948, 49, 1, 176, 64
-0.980971, 225, 97, 288, 224
-0.980997, 161, 49, 288, 176
-0.981025, 97, 241, 128, 304
-0.981055, 373, 265, 404, 328
-0.981061, 181, 209, 212, 272
-0.981092, 57, 249, 120, 312
-0.9811, 369, 209, 432, 272
-0.981113, 217, 1, 280, 128
-0.981143, 445, 305, 476, 368
-0.98116, 89, 129, 152, 375
-0.981222, 201, 217, 232, 280
-0.981246, 245, 129, 276, 256
-0.981265, 1, 1, 64, 256
-0.98135, 225, 161, 352, 224
-0.981381, 393, 249, 424, 312
-0.98139, 129, 233, 160, 296
-0.981425, 129, 225, 160, 352
-0.981494, 97, 241, 128, 368
-0.981511, 1, 177, 64, 240
-0.981513, 433, 49, 496, 112
-0.981526, 81, 1, 144, 256
-0.981614, 153, 169, 216, 232
-0.981634, 245, 273, 276, 336
-0.981677, 325, 161, 356, 288
-0.981691, 469, 297, 500, 360
-0.981698, 153, 145, 216, 208
-0.981701, 57, 161, 88, 224
-0.981755, 233, 1, 296, 64
-0.981791, 105, 137, 168, 200
-0.981827, 349, 177, 380, 304
-0.981884, 129, 209, 256, 272
-0.981906, 253, 297, 284, 360
-0.98192, 9, 137, 72, 200
-0.981972, 329, 217, 392, 280
-0.982065, 1, 65, 64, 192
-0.982116, 185, 297, 216, 360
-0.982122, 261, 145, 292, 272
-0.982184, 293, 313, 324, 375
-0.982313, 129, 121, 256, 184
-0.982325, 161, 129, 224, 375
-0.982333, 337, 161, 368, 288
-0.982422, 9, 49, 40, 176
-0.982484, 5, 265, 36, 328
-0.982603, 189, 241, 220, 304
-0.982633, 393, 1, 456, 256
-0.982636, 9, 1, 72, 375
-0.982693, 109, 305, 140, 368
-0.982718, 25, 241, 56, 304
-0.982795, 49, 97, 112, 224
-0.982798, 161, 9, 224, 72
-0.982843, 177, 305, 304, 368
-0.982847, 161, 1, 288, 64
-0.982861, 393, 113, 456, 176
-0.982861, 141, 225, 172, 352
-0.982941, 433, 9, 496, 72
-0.983005, 177, 185, 304, 248
-0.983099, 369, 97, 432, 352
-0.983126, 41, 193, 72, 256
-0.983127, 97, 25, 160, 88
-0.983236, 125, 313, 156, 375
-0.983287, 153, 89, 216, 152
-0.983315, 433, 1, 496, 256
-0.983375, 145, 1, 208, 375
-0.983407, 353, 1, 416, 256
-0.983466, 345, 73, 408, 136
-0.983476, 153, 65, 216, 128
-0.983532, 97, 153, 224, 216
-0.983541, 33, 289, 64, 352
-0.983582, 9, 201, 40, 264
-0.983593, 73, 161, 104, 288
-0.983629, 97, 217, 128, 280
-0.983643, 369, 217, 496, 280
-0.983673, 33, 281, 96, 344
-0.983755, 177, 121, 304, 184
-0.983796, 97, 25, 224, 88
-0.983796, 369, 129, 432, 256
-0.983816, 25, 25, 88, 88
-0.983907, 273, 137, 400, 200
-0.983924, 109, 225, 140, 288
-0.983936, 297, 225, 328, 288
-0.983938, 373, 161, 404, 288
-0.983961, 93, 193, 124, 320
-0.983962, 193, 1, 256, 256
-0.983976, 101, 1, 132, 64
-0.984035, 353, 129, 416, 192
-0.984088, 73, 145, 136, 208
-0.984133, 13, 177, 44, 304
-0.984236, 385, 193, 416, 320
-0.984321, 421, 1, 452, 128
-0.98437, 233, 129, 264, 256
-0.984443, 33, 217, 64, 280
-0.984496, 377, 1, 440, 375
-0.984497, 149, 17, 180, 80
-0.984529, 169, 225, 200, 352
-0.984567, 329, 313, 360, 375
-0.984719, 1, 241, 32, 368
-0.984916, 121, 129, 184, 375
-0.984922, 337, 105, 464, 168
-0.984941, 365, 153, 396, 216
-0.984943, 353, 1, 416, 375
-0.984969, 213, 273, 244, 336
-0.985013, 469, 273, 500, 336
-0.985136, 469, 241, 500, 368
-0.985274, 1, 129, 32, 256
-0.985298, 397, 33, 428, 160
-0.985317, 273, 145, 304, 272
-0.98535, 65, 201, 96, 264
-0.985373, 181, 145, 212, 272
-0.985383, 265, 297, 296, 360
-0.985393, 89, 1, 152, 375
-0.985564, 57, 1, 120, 256
-0.985582, 113, 33, 144, 96
-0.985613, 181, 169, 212, 232
-0.985616, 389, 217, 420, 280
-0.985696, 437, 89, 468, 152
-0.985726, 353, 97, 384, 224
-0.985731, 85, 217, 116, 280
-0.985752, 357, 201, 388, 264
-0.985761, 369, 49, 496, 112
-0.985776, 53, 185, 84, 248
-0.985871, 321, 145, 448, 208
-0.98593, 409, 97, 472, 224
-0.985932, 289, 97, 352, 160
-0.985944, 429, 249, 460, 312
-0.985982, 49, 161, 176, 224
-0.985984, 57, 1, 88, 128
-0.986036, 85, 241, 116, 304
-0.986042, 157, 225, 188, 352
-0.986113, 197, 289, 228, 352
-0.986121, 393, 97, 456, 352
-0.986172, 73, 33, 136, 96
-0.986212, 257, 1, 288, 64
-0.986213, 1, 121, 128, 184
-0.986244, 241, 1, 304, 375
-0.986263, 197, 129, 228, 256
-0.986283, 465, 1, 496, 128
-0.986296, 181, 17, 212, 144
-0.9863, 113, 49, 240, 112
-0.98641, 257, 1, 320, 64
-0.986425, 129, 129, 192, 192
-0.986426, 257, 297, 500, 360
-0.986469, 265, 153, 296, 216
-0.986515, 33, 1, 96, 64
-0.986545, 225, 1, 352, 128
-0.986551, 25, 145, 56, 272
-0.986561, 97, 105, 160, 168
-0.986563, 229, 129, 260, 192
-0.986576, 129, 185, 256, 248
-0.986579, 277, 153, 308, 216
-0.986661, 345, 25, 408, 88
-0.986676, 17, 113, 80, 176
-0.986679, 69, 1, 100, 128
-0.98669, 409, 209, 472, 272
-0.986737, 25, 249, 88, 312
-0.986777, 321, 33, 384, 288
-0.986779, 433, 1, 464, 128
-0.986807, 193, 233, 448, 296
-0.986814, 305, 73, 432, 136
-0.986845, 453, 1, 484, 128
-0.98687, 149, 241, 180, 304
-0.986876, 293, 161, 324, 288
-0.987018, 17, 25, 48, 88
-0.987059, 209, 169, 240, 232
-0.987115, 133, 9, 164, 72
-0.987119, 97, 97, 224, 160
-0.987127, 329, 33, 392, 160
-0.987136, 25, 57, 88, 120
-0.987146, 77, 1, 108, 64
-0.987183, 293, 193, 324, 256
-0.987203, 17, 97, 144, 160
-0.987246, 321, 97, 352, 160
-0.987248, 353, 81, 480, 144
-0.987268, 225, 257, 480, 320
-0.987322, 241, 249, 304, 280
-0.987332, 169, 305, 232, 368
-0.987361, 65, 65, 192, 192
-0.987362, 177, 41, 208, 104
-0.987461, 77, 169, 108, 232
-0.987473, 289, 325, 352, 356
-0.987554, 373, 185, 404, 248
-0.987557, 77, 209, 108, 336
-0.987591, 113, 73, 240, 136
-0.987603, 377, 17, 440, 80
-0.987606, 357, 89, 388, 152
-0.987621, 417, 97, 480, 352
-0.987658, 121, 201, 184, 264
-0.987681, 369, 17, 496, 80
-0.987688, 397, 177, 428, 304
-0.98769, 221, 113, 252, 240
-0.987728, 361, 281, 392, 344
-0.987752, 81, 129, 208, 192
-0.987814, 209, 1, 272, 64
-0.987829, 133, 209, 164, 272
-0.987837, 265, 309, 328, 340
-0.987841, 273, 161, 400, 224
-0.987909, 65, 265, 320, 328
-0.987926, 33, 1, 96, 375
-0.987947, 281, 269, 344, 300
-0.987963, 73, 145, 104, 208
-0.988037, 225, 229, 288, 260
-0.988042, 225, 185, 352, 248
-0.988048, 169, 305, 200, 368
-0.988049, 97, 289, 352, 352
-0.988073, 169, 217, 200, 280
-0.988086, 185, 57, 248, 120
-0.988126, 281, 281, 344, 312
-0.988204, 265, 225, 328, 256
-0.988206, 61, 193, 92, 320
-0.988215, 89, 169, 152, 232
-0.988233, 369, 65, 432, 128
-0.988251, 337, 241, 400, 272
-0.988264, 81, 1, 112, 128
-0.98827, 209, 253, 272, 284
-0.98827, 65, 225, 320, 288
-0.988296, 121, 209, 152, 272
-0.988319, 5, 33, 36, 96
-0.988337, 169, 1, 232, 375
-0.988362, 109, 193, 140, 320
-0.988378, 249, 297, 312, 328
-0.988476, 241, 285, 304, 316
-0.988502, 281, 257, 344, 288
-0.988516, 117, 17, 148, 144
-0.988528, 185, 17, 248, 80
-0.988559, 313, 261, 376, 292
-0.988605, 201, 1, 264, 375
-0.988652, 377, 329, 440, 360
-0.988655, 1, 145, 128, 208
-0.988707, 425, 301, 488, 332
-0.988723, 257, 113, 384, 176
-0.98874, 313, 277, 376, 308
-0.98878, 281, 293, 344, 324
-0.988788, 25, 65, 88, 192
-0.988842, 225, 137, 352, 200
-0.988865, 297, 237, 360, 268
-0.988886, 249, 237, 312, 268
-0.988949, 13, 129, 44, 256
-0.988963, 97, 17, 128, 144
-0.988966, 217, 241, 280, 272
-0.988973, 13, 1, 44, 128
-0.989016, 401, 305, 464, 336
-0.989057, 241, 33, 304, 288
-0.989065, 401, 265, 464, 296
-0.989066, 369, 161, 496, 224
-0.989094, 305, 301, 368, 332
-0.989118, 1, 169, 128, 232
-0.989138, 25, 17, 56, 144
-0.98919, 177, 97, 304, 160
-0.989202, 209, 265, 272, 296
-0.989234, 361, 265, 424, 296
-0.989265, 105, 253, 168, 284
-0.989346, 337, 313, 400, 344
-0.989358, 249, 273, 312, 304
-0.98936, 321, 25, 448, 88
-0.989381, 377, 317, 440, 348
-0.989402, 313, 101, 376, 132
-0.989464, 257, 261, 320, 292
-0.989492, 377, 153, 440, 216
-0.989505, 97, 1, 224, 64
-0.989518, 165, 1, 196, 128
-0.989521, 1, 289, 500, 352
-0.989521, 313, 289, 376, 320
-0.989549, 17, 225, 80, 256
-0.989565, 97, 81, 160, 208
-0.989605, 193, 225, 256, 256
-0.989636, 369, 253, 432, 284
-0.989649, 169, 277, 232, 308
-0.98966, 257, 49, 384, 176
-0.98967, 169, 245, 232, 276
-0.989687, 165, 177, 196, 304
-0.989688, 1, 313, 500, 375
-0.989739, 337, 265, 400, 296
-0.98977, 433, 97, 496, 224
-0.989779, 57, 121, 120, 184
-0.989789, 409, 285, 472, 316
-0.989822, 121, 293, 184, 324
-0.989839, 45, 1, 76, 128
-0.989851, 193, 241, 256, 272
-0.989866, 305, 249, 368, 280
-0.989887, 225, 217, 288, 248
-0.989901, 193, 289, 256, 320
-0.989902, 425, 325, 488, 356
-0.989941, 289, 313, 352, 344
-0.989954, 1, 41, 128, 104
-0.989996, 233, 261, 296, 292
-0.990009, 369, 277, 432, 308
-0.990016, 377, 301, 440, 332
-0.990023, 57, 217, 120, 248
-0.990066, 445, 49, 476, 176
-0.990091, 401, 317, 464, 348
-0.990123, 25, 205, 88, 236
-0.990125, 193, 97, 256, 160
-0.990142, 125, 177, 156, 304
-0.990149, 377, 241, 440, 272
-0.990157, 409, 1, 440, 128
-0.990167, 9, 273, 72, 304
-0.990216, 417, 193, 448, 320
-0.990286, 121, 269, 184, 300
-0.990288, 177, 25, 304, 88
-0.990299, 273, 237, 336, 268
-0.990301, 145, 285, 208, 316
-0.990306, 193, 277, 256, 308
-0.990331, 65, 1, 128, 375
-0.990331, 433, 281, 496, 312
-0.990347, 1, 249, 500, 312
-0.990359, 1, 253, 64, 284
-0.990366, 169, 213, 232, 244
-0.990367, 337, 301, 400, 332
-0.990383, 9, 293, 72, 324
-0.990428, 17, 73, 144, 136
-0.990431, 265, 213, 328, 244
-0.990447, 249, 169, 312, 200
-0.990452, 265, 321, 328, 352
-0.990453, 377, 345, 440, 375
-0.990492, 121, 1, 184, 375
-0.990504, 81, 221, 144, 252
-0.990508, 337, 277, 400, 308
-0.990513, 337, 333, 400, 364
-0.990515, 81, 345, 144, 375
-0.99053, 129, 97, 192, 224
-0.990538, 1, 213, 64, 244
-0.990552, 201, 213, 264, 244
-0.990559, 225, 141, 288, 172
-0.990573, 353, 97, 416, 128
-0.990589, 1, 289, 256, 352
-0.990598, 121, 17, 184, 48
-0.990624, 197, 1, 228, 128
-0.990664, 241, 157, 304, 188
-0.990674, 233, 313, 296, 344
-0.99068, 57, 13, 120, 44
-0.990726, 393, 253, 456, 284
-0.990738, 265, 333, 328, 364
-0.990747, 81, 253, 144, 284
-0.990758, 313, 313, 376, 344
-0.990768, 41, 113, 72, 240
-0.990795, 129, 313, 192, 344
-0.990803, 217, 165, 280, 196
-0.990826, 193, 197, 256, 228
-0.990846, 149, 17, 180, 144
-0.990851, 193, 153, 256, 184
-0.990857, 313, 181, 376, 212
-0.99089, 321, 49, 448, 112
-0.990901, 345, 253, 408, 284
-0.990904, 345, 289, 408, 320
-0.990906, 177, 73, 304, 136
-0.990907, 145, 209, 208, 240
-0.99091, 9, 309, 72, 340
-0.990913, 365, 97, 396, 224
-0.990944, 369, 229, 432, 260
-0.990957, 401, 345, 464, 375
-0.990972, 129, 253, 192, 284
-0.990991, 185, 257, 248, 288
-0.990995, 169, 297, 232, 328
-0.991006, 1, 201, 256, 264
-0.99101, 385, 289, 448, 320
-0.991017, 193, 165, 256, 196
-0.991035, 305, 225, 368, 256
-0.991035, 49, 245, 112, 276
-0.991037, 49, 25, 176, 88
-0.991042, 329, 1, 392, 375
-0.991045, 121, 217, 184, 248
-0.991056, 89, 269, 152, 300
-0.991061, 145, 265, 208, 296
-0.991073, 17, 321, 80, 352
-0.991081, 433, 269, 496, 300
-0.9911, 421, 49, 452, 176
-0.991115, 65, 205, 128, 236
-0.991117, 97, 25, 160, 56
-0.991122, 425, 1, 488, 375
-0.991123, 425, 313, 488, 344
-0.991127, 393, 97, 456, 128
-0.991132, 369, 193, 496, 256
-0.991147, 385, 33, 416, 160
-0.991153, 141, 177, 172, 304
-0.991164, 57, 25, 120, 56
-0.991166, 81, 305, 144, 336
-0.991168, 85, 145, 116, 272
-0.991178, 129, 29, 192, 60
-0.991221, 217, 301, 280, 332
-0.991235, 153, 45, 216, 76
-0.991245, 273, 237, 400, 268
-0.991273, 241, 201, 304, 232
-0.991275, 201, 185, 264, 216
-0.991293, 145, 221, 208, 252
-0.99131, 57, 165, 120, 196
-0.991314, 89, 9, 152, 40
-0.991323, 217, 153, 280, 184
-0.991329, 33, 193, 96, 224
-0.991338, 241, 1, 304, 128
-0.991354, 369, 129, 496, 192
-0.991381, 313, 337, 376, 368
-0.991385, 337, 165, 400, 196
-0.991387, 401, 333, 464, 364
-0.991388, 329, 89, 392, 120
-0.991414, 233, 1, 296, 32
-0.991418, 41, 233, 104, 264
-0.991419, 281, 33, 344, 288
-0.991434, 217, 285, 280, 316
-0.991436, 249, 97, 312, 224
-0.991445, 137, 197, 200, 228
-0.991457, 401, 1, 464, 375
-0.991478, 137, 1, 168, 128
-0.991668, 193, 209, 448, 272
-0.991725, 181, 97, 212, 224
-0.991909, 465, 193, 496, 320
-0.991944, 253, 249, 284, 280
-0.991972, 289, 309, 320, 340
-0.991988, 281, 1, 344, 375
-0.991991, 273, 321, 400, 352
-0.992038, 337, 97, 368, 224
-0.992061, 257, 1, 384, 64
-0.992102, 265, 241, 296, 272
-0.992111, 385, 325, 416, 356
-0.992112, 261, 221, 292, 252
-0.992134, 65, 137, 320, 200
-0.992154, 241, 253, 272, 284
-0.992166, 333, 253, 364, 284
-0.992201, 453, 305, 484, 336
-0.992233, 273, 253, 304, 284
-0.992241, 245, 229, 276, 260
-0.992247, 229, 249, 260, 280
-0.992255, 405, 345, 436, 375
-0.992262, 217, 245, 248, 276
-0.992293, 97, 313, 352, 375
-0.992295, 225, 281, 352, 312
-0.992318, 241, 249, 368, 280
-0.992326, 357, 237, 388, 268
-0.992333, 437, 301, 468, 332
-0.992339, 273, 277, 304, 308
-0.992347, 313, 237, 344, 268
-0.992357, 289, 265, 320, 296
-0.992367, 253, 261, 284, 292
-0.992377, 233, 237, 264, 268
-0.992379, 213, 225, 244, 256
-0.99238, 289, 249, 320, 280
-0.99238, 197, 273, 228, 304
-0.992381, 273, 229, 304, 260
-0.992388, 213, 257, 244, 288
-0.992389, 329, 281, 360, 312
-0.992392, 301, 317, 332, 348
-0.992392, 417, 309, 448, 340
-0.992393, 385, 97, 416, 224
-0.992395, 405, 329, 436, 360
-0.992401, 309, 277, 340, 308
-0.992404, 389, 309, 420, 340
-0.992412, 277, 309, 308, 340
-0.992417, 325, 265, 356, 296
-0.992423, 281, 321, 312, 352
-0.992431, 197, 65, 228, 192
-0.992432, 345, 265, 376, 296
-0.992441, 321, 325, 448, 356
-0.992467, 373, 261, 404, 292
-0.992492, 417, 297, 448, 328
-0.992495, 417, 273, 448, 304
-0.992515, 1, 169, 256, 232
-0.992516, 289, 289, 320, 320
-0.992518, 149, 249, 180, 280
-0.992518, 241, 185, 272, 216
-0.992552, 269, 265, 300, 296
-0.992562, 117, 257, 148, 288
-0.992563, 397, 265, 428, 296
-0.992567, 277, 297, 308, 328
-0.992578, 261, 277, 292, 308
-0.992579, 429, 277, 460, 308
-0.992588, 305, 273, 432, 304
-0.992607, 313, 329, 344, 360
-0.992616, 229, 197, 260, 228
-0.992622, 345, 281, 376, 312
-0.992623, 193, 237, 320, 268
-0.992624, 345, 305, 376, 336
-0.992632, 409, 261, 440, 292
-0.992633, 249, 289, 280, 320
-0.992636, 325, 297, 356, 328
-0.992638, 385, 341, 416, 372
-0.992641, 105, 253, 136, 284
-0.992642, 309, 257, 340, 288
-0.992643, 225, 217, 256, 248
-0.992646, 329, 241, 360, 272
-0.992647, 469, 49, 500, 176
-0.992653, 197, 241, 228, 272
-0.992659, 181, 209, 212, 240
-0.992672, 261, 305, 292, 336
-0.992677, 177, 49, 304, 112
-0.992691, 325, 333, 356, 364
-0.992694, 213, 213, 244, 244
-0.992703, 365, 313, 396, 344
-0.992706, 13, 225, 44, 256
-0.992718, 345, 293, 376, 324
-0.99272, 273, 309, 400, 340
-0.992724, 405, 305, 436, 336
-0.992726, 369, 245, 400, 276
-0.992726, 417, 285, 448, 316
-0.992734, 313, 313, 344, 344
-0.992736, 321, 253, 352, 284
-0.992737, 177, 285, 208, 316
-0.992744, 265, 157, 296, 188
-0.99275, 25, 213, 56, 244
-0.992753, 277, 241, 308, 272
-0.992764, 1, 33, 256, 96
-0.992768, 129, 289, 160, 320
-0.992769, 237, 301, 268, 332
-0.99277, 357, 261, 388, 292
-0.992771, 297, 225, 328, 256
-0.992773, 429, 317, 460, 348
-0.992776, 345, 249, 376, 280
-0.992778, 437, 289, 468, 320
-0.992779, 389, 253, 420, 284
-0.992781, 201, 229, 232, 260
-0.992793, 129, 269, 160, 300
-0.992794, 1, 225, 500, 288
-0.992795, 1, 277, 32, 308
-0.992796, 201, 257, 232, 288
-0.992802, 25, 225, 56, 256
-0.992803, 261, 321, 292, 352
-0.992807, 301, 329, 332, 360
-0.992808, 237, 213, 268, 244
-0.992809, 241, 165, 272, 196
-0.992814, 249, 309, 280, 340
-0.992816, 309, 301, 340, 332
-0.992823, 429, 265, 460, 296
-0.992831, 137, 253, 168, 284
-0.992832, 341, 237, 372, 268
-0.992832, 241, 197, 272, 228
-0.992835, 417, 345, 448, 375
-0.992836, 33, 309, 64, 340
-0.99285, 25, 81, 56, 208
-0.992858, 81, 245, 112, 276
-0.992862, 209, 201, 240, 232
-0.992866, 457, 325, 488, 356
-0.992867, 409, 249, 440, 280
-0.992867, 469, 297, 500, 328
-0.992867, 237, 289, 268, 320
-0.992874, 237, 137, 268, 168
-0.992877, 121, 301, 152, 332
-0.992881, 113, 29, 144, 60
-0.992883, 449, 285, 480, 316
-0.992883, 225, 165, 256, 196
-0.992888, 37, 225, 68, 256
-0.992891, 89, 345, 120, 375
-0.992891, 389, 241, 420, 272
-0.992893, 13, 317, 44, 348
-0.992894, 93, 249, 124, 280
-0.992896, 125, 17, 156, 48
-0.992897, 65, 217, 96, 248
-0.992898, 401, 317, 432, 348
-0.992903, 193, 205, 224, 236
-0.992905, 369, 301, 400, 332
-0.992908, 257, 1, 288, 32
-0.99291, 361, 97, 392, 128
-0.992911, 329, 321, 360, 352
-0.992917, 465, 313, 496, 344
-0.992918, 321, 97, 352, 128
-0.99292, 201, 217, 232, 248
-0.992921, 401, 277, 432, 308
-0.992922, 25, 245, 56, 276
-0.992924, 447, 281, 462, 344
-0.992958, 273, 293, 400, 324
-0.992971, 225, 293, 352, 324
-0.992984, 401, 313, 416, 375
-0.992988, 97, 285, 224, 316
-0.992993, 409, 49, 440, 176
-0.992999, 367, 233, 382, 296
-0.993025, 369, 309, 496, 340
-0.993027, 193, 249, 320, 280
-0.993035, 225, 185, 480, 248
-0.993039, 209, 1, 336, 64
-0.993073, 1, 81, 500, 144
-0.993079, 453, 289, 468, 352
-0.993109, 305, 1, 368, 375
-0.993154, 193, 265, 320, 296
-0.993168, 161, 293, 288, 324
-0.993172, 321, 241, 448, 272
-0.993184, 269, 249, 284, 312
-0.993203, 241, 261, 368, 292
-0.993227, 381, 241, 396, 304
-0.993272, 357, 233, 372, 296
-0.993291, 177, 225, 304, 256
-0.993293, 453, 193, 484, 320
-0.993327, 463, 297, 478, 360
-0.993362, 439, 289, 454, 352
-0.993371, 391, 305, 406, 368
-0.993372, 337, 285, 464, 316
-0.993386, 253, 225, 268, 288
-0.9934, 97, 161, 352, 224
-0.993427, 245, 225, 260, 288
-0.993486, 273, 1, 400, 128
-0.99351, 257, 273, 272, 336
-0.993544, 269, 281, 284, 344
-0.993576, 145, 213, 272, 244
-0.993586, 129, 249, 256, 280
-0.993604, 253, 249, 268, 312
-0.993621, 263, 281, 278, 344
-0.993648, 373, 233, 388, 296
-0.993657, 321, 341, 448, 372
-0.993658, 177, 153, 304, 184
-0.99367, 217, 1, 280, 256
-0.993706, 177, 281, 304, 312
-0.993734, 263, 249, 278, 312
-0.993749, 279, 241, 294, 304
-0.993759, 33, 257, 160, 288
-0.993766, 131, 289, 146, 352
-0.993808, 469, 297, 484, 360
-0.99381, 411, 313, 426, 375
-0.99382, 193, 153, 448, 216
-0.993886, 241, 333, 368, 364
-0.993904, 73, 65, 136, 192
-0.993919, 303, 305, 318, 368
-0.993949, 1, 213, 128, 244
-0.993966, 97, 201, 352, 264
-0.993967, 337, 297, 464, 328
-0.99397, 1, 313, 256, 375
-0.993971, 209, 313, 336, 344
-0.993979, 337, 257, 464, 288
-0.993979, 1, 225, 128, 256
-0.993995, 289, 297, 304, 360
-0.994046, 321, 313, 448, 344
-0.994083, 433, 49, 464, 176
-0.994141, 257, 225, 384, 256
-0.994198, 289, 253, 416, 284
-0.994208, 335, 241, 350, 304
-0.99421, 351, 233, 366, 296
-0.994215, 33, 305, 160, 336
-0.994217, 1, 113, 256, 176
-0.994225, 151, 249, 166, 312
-0.994248, 417, 313, 432, 375
-0.994262, 211, 249, 226, 312
-0.9943, 217, 209, 232, 272
-0.994326, 257, 81, 384, 144
-0.994327, 189, 281, 204, 344
-0.994385, 275, 273, 290, 336
-0.994389, 113, 237, 240, 268
-0.994429, 17, 245, 144, 276
-0.99444, 369, 321, 496, 352
-0.994452, 1, 73, 256, 136
-0.994457, 349, 257, 364, 320
-0.994469, 285, 257, 300, 320
-0.994474, 125, 249, 140, 312
-0.994488, 259, 225, 274, 288
-0.994517, 49, 217, 176, 248
-0.994519, 407, 289, 422, 352
-0.994519, 197, 273, 212, 336
-0.994522, 205, 265, 220, 328
-0.994561, 161, 113, 416, 176
-0.994593, 33, 281, 160, 312
-0.994616, 113, 261, 240, 292
-0.994629, 301, 265, 316, 328
-0.994633, 15, 273, 30, 336
-0.994638, 323, 313, 338, 375
-0.994675, 137, 289, 152, 352
-0.994688, 209, 213, 336, 244
-0.994692, 161, 305, 288, 336
-0.994708, 245, 265, 260, 328
-0.994728, 113, 273, 240, 304
-0.994736, 309, 313, 324, 375
-0.994776, 225, 1, 256, 128
-0.994788, 385, 145, 416, 272
-0.99482, 129, 1, 384, 64
-0.994824, 1, 105, 500, 168
-0.994828, 385, 297, 400, 360
-0.994842, 355, 265, 370, 328
-0.994842, 239, 225, 254, 288
-0.99485, 349, 297, 364, 360
-0.994891, 237, 185, 252, 248
-0.994896, 177, 141, 304, 172
-0.994907, 97, 145, 128, 272
-0.994912, 233, 225, 248, 288
-0.994914, 419, 233, 434, 296
-0.994917, 33, 269, 160, 300
-0.994919, 121, 273, 136, 336
-0.994925, 177, 197, 304, 228
-0.994936, 295, 281, 310, 344
-0.994942, 343, 257, 358, 320
-0.994945, 177, 281, 192, 344
-0.994977, 323, 233, 338, 296
-0.994984, 289, 217, 304, 280
-0.995004, 157, 265, 172, 328
-0.995019, 321, 97, 352, 224
-0.995026, 223, 249, 238, 312
-0.995037, 143, 289, 158, 352
-0.995043, 19, 217, 34, 280
-0.995047, 133, 249, 148, 312
-0.995049, 429, 273, 444, 336
-0.99507, 319, 265, 334, 328
-0.995096, 183, 281, 198, 344
-0.9951, 361, 265, 376, 328
-0.995139, 345, 233, 360, 296
-0.995154, 217, 249, 232, 312
-0.995163, 39, 225, 54, 288
-0.995164, 31, 209, 46, 272
-0.995175, 367, 257, 382, 320
-0.995197, 447, 305, 462, 368
-0.995205, 113, 297, 240, 328
-0.995215, 1, 57, 500, 120
-0.995233, 281, 297, 296, 360
-0.995238, 401, 281, 416, 344
-0.995243, 125, 297, 140, 360
-0.995251, 307, 257, 322, 320
-0.995272, 129, 201, 256, 232
-0.995289, 65, 229, 192, 260
-0.99529, 161, 89, 416, 152
-0.995303, 225, 209, 240, 272
-0.995307, 329, 249, 344, 312
-0.995315, 477, 305, 492, 368
-0.995315, 169, 281, 184, 344
-0.995322, 17, 201, 144, 232
-0.995324, 13, 241, 28, 304
-0.995332, 65, 25, 192, 56
-0.99535, 103, 225, 118, 288
-0.995353, 411, 257, 426, 320
-0.995362, 23, 289, 38, 352
-0.995364, 389, 233, 404, 296
-0.995371, 305, 1, 432, 64
-0.995378, 9, 265, 24, 328
-0.995395, 153, 177, 184, 304
-0.9954, 295, 305, 310, 368
-0.995405, 149, 289, 164, 352
-0.995419, 341, 313, 356, 375
-0.99543, 45, 225, 60, 288
-0.995431, 33, 293, 160, 324
-0.995441, 157, 289, 172, 352
-0.995451, 109, 81, 140, 208
-0.995455, 311, 225, 326, 288
-0.995466, 25, 217, 40, 280
-0.995468, 1, 9, 256, 72
-0.995469, 311, 281, 326, 344
-0.995471, 459, 273, 474, 336
-0.995526, 241, 165, 368, 196
-0.995529, 65, 197, 192, 228
-0.995547, 357, 33, 388, 160
-0.995548, 97, 309, 224, 340
-0.995551, 229, 145, 244, 208
-0.995556, 237, 1, 268, 128
-0.995566, 317, 313, 332, 375
-0.995585, 255, 137, 270, 200
-0.995591, 145, 249, 160, 312
-0.995606, 213, 273, 228, 336
-0.995613, 205, 201, 220, 264
-0.995615, 1, 29, 128, 60
-0.995624, 225, 201, 352, 232
-0.995625, 317, 233, 332, 296
-0.995626, 329, 313, 344, 375
-0.995639, 253, 185, 268, 248
-0.99564, 437, 265, 452, 328
-0.995642, 391, 265, 406, 328
-0.995653, 33, 317, 160, 348
-0.995669, 321, 229, 448, 260
-0.995673, 353, 273, 480, 304
-0.995676, 419, 289, 434, 352
-0.99568, 81, 249, 208, 280
-0.995692, 245, 161, 260, 224
-0.995705, 239, 249, 254, 312
-0.995728, 23, 313, 38, 375
-0.995747, 375, 265, 390, 328
-0.995748, 379, 305, 394, 368
-0.995762, 353, 129, 384, 375
-0.995771, 243, 137, 258, 200
-0.995776, 115, 249, 130, 312
-0.995779, 121, 113, 152, 240
-0.995802, 143, 225, 158, 288
-0.995819, 65, 73, 192, 136
-0.99582, 163, 265, 178, 328
-0.995822, 253, 297, 268, 360
-0.995843, 429, 305, 444, 368
-0.995844, 215, 185, 230, 248
-0.995849, 365, 201, 380, 264
-0.995852, 211, 225, 226, 288
-0.995859, 1, 1, 500, 64
-0.995868, 97, 213, 224, 244
-0.99588, 401, 145, 464, 272
-0.99588, 431, 249, 446, 312
-0.995888, 97, 225, 112, 288
-0.995889, 275, 297, 290, 360
-0.995892, 365, 161, 380, 224
-0.995901, 383, 273, 398, 336
-0.995902, 327, 289, 342, 352
-0.995909, 405, 257, 420, 320
-0.995935, 51, 225, 66, 288
-0.995956, 273, 181, 400, 212
-0.99596, 193, 173, 320, 204
-0.995963, 129, 49, 192, 176
-0.995997, 61, 97, 92, 224
-0.996018, 193, 325, 320, 356
-0.996054, 73, 113, 104, 240
-0.996073, 241, 129, 272, 375
-0.996133, 209, 113, 240, 240
-0.996176, 129, 141, 256, 172
-0.99619, 17, 189, 144, 220
-0.996255, 193, 65, 448, 128
-0.996289, 369, 341, 496, 372
-0.996297, 193, 25, 448, 88
-0.996306, 433, 193, 464, 320
-0.996324, 253, 129, 284, 375
-0.996332, 369, 237, 496, 268
-0.996346, 325, 129, 356, 375
-0.996349, 33, 345, 160, 375
-0.996353, 337, 129, 368, 375
-0.996361, 145, 185, 272, 216
-0.996403, 337, 49, 368, 176
-0.996404, 97, 37, 224, 68
-0.996407, 269, 129, 300, 375
-0.99643, 249, 1, 280, 128
-0.99644, 145, 17, 272, 48
-0.996444, 129, 225, 256, 256
-0.996452, 97, 157, 224, 188
-0.996474, 457, 49, 488, 176
-0.996565, 129, 129, 256, 160
-0.996581, 193, 185, 320, 216
-0.99665, 263, 245, 278, 276
-0.99669, 1, 201, 500, 264
-0.996693, 1, 329, 128, 360
-0.996737, 257, 345, 384, 375
-0.996741, 225, 129, 256, 375
-0.996759, 49, 13, 176, 44
-0.996768, 305, 217, 432, 248
-0.996772, 369, 129, 400, 375
-0.99678, 257, 129, 500, 192
-0.99679, 1, 137, 128, 168
-0.996795, 273, 153, 400, 184
-0.996818, 141, 113, 172, 240
-0.996819, 1, 177, 500, 240
-0.996853, 281, 129, 312, 375
-0.996854, 257, 89, 500, 152
-0.996879, 301, 309, 316, 340
-0.996886, 337, 93, 464, 124
-0.996892, 257, 213, 384, 244
-0.996892, 209, 345, 336, 375
-0.996936, 253, 253, 268, 284
-0.996959, 241, 141, 368, 172
-0.996959, 369, 49, 496, 80
-0.996967, 169, 33, 232, 288
-0.99697, 273, 33, 400, 96
-0.996974, 407, 345, 422, 375
-0.996991, 271, 241, 286, 272
-0.996991, 295, 309, 310, 340
-0.997005, 215, 249, 230, 280
-0.997029, 305, 193, 432, 224
-0.997032, 113, 85, 240, 116
-0.997047, 49, 129, 80, 375
-0.997062, 391, 325, 406, 356
-0.997066, 209, 1, 240, 128
-0.997075, 295, 289, 310, 320
-0.997079, 25, 1, 56, 256
-0.997084, 369, 225, 496, 256
-0.997087, 313, 129, 344, 375
-0.997124, 269, 265, 284, 296
-0.997133, 413, 345, 428, 375
-0.997138, 271, 229, 286, 260
-0.997139, 337, 249, 352, 280
-0.997144, 109, 145, 140, 272
-0.997157, 439, 297, 454, 328
-0.997184, 1, 41, 128, 72
-0.99719, 227, 245, 242, 276
-0.997201, 247, 249, 262, 280
-0.997214, 65, 177, 192, 208
-0.99722, 381, 245, 396, 276
-0.997232, 97, 49, 224, 80
-0.997235, 281, 253, 296, 284
-0.997235, 29, 129, 60, 375
-0.997238, 337, 109, 464, 140
-0.997245, 373, 17, 404, 144
-0.997245, 113, 97, 240, 128
-0.997254, 239, 185, 254, 216
-0.997256, 277, 237, 292, 268
-0.997275, 465, 305, 480, 336
-0.997281, 145, 169, 272, 200
-0.997282, 445, 301, 460, 332
-0.997298, 401, 341, 416, 372
-0.997299, 285, 277, 300, 308
-0.997305, 49, 1, 80, 256
-0.997323, 239, 233, 254, 264
-0.997329, 263, 229, 278, 260
-0.997334, 419, 345, 434, 375
-0.997338, 281, 317, 296, 348
-0.997343, 431, 277, 446, 308
-0.997345, 177, 129, 304, 160
-0.997348, 17, 97, 48, 352
-0.997353, 349, 293, 364, 324
-0.997366, 49, 333, 176, 364
-0.997377, 287, 233, 302, 264
-0.997379, 1, 25, 500, 88
-0.997379, 289, 317, 304, 348
-0.997381, 331, 333, 346, 364
-0.997383, 37, 1, 68, 256
-0.997386, 269, 217, 284, 248
-0.997388, 221, 245, 236, 276
-0.997392, 275, 305, 290, 336
-0.997393, 337, 81, 464, 112
-0.997395, 401, 97, 432, 224
-0.997396, 149, 1, 180, 256
-0.997397, 13, 273, 28, 304
-0.997398, 289, 297, 304, 328
-0.997401, 457, 305, 472, 336
-0.997404, 293, 249, 308, 280
-0.997412, 1, 17, 128, 48
-0.997419, 391, 309, 406, 340
-0.997421, 369, 17, 496, 48
-0.997424, 81, 145, 208, 176
-0.997428, 349, 249, 364, 280
-0.997434, 235, 245, 250, 276
-0.99744, 251, 289, 266, 320
-0.997448, 317, 309, 332, 340
-0.997449, 61, 129, 92, 375
-0.99745, 231, 217, 246, 248
-0.997455, 343, 237, 358, 268
-0.997457, 441, 281, 456, 312
-0.997458, 343, 257, 358, 288
-0.997463, 369, 213, 496, 244
-0.997464, 1, 57, 128, 88
-0.997466, 213, 237, 228, 268
-0.997468, 303, 249, 318, 280
-0.997479, 421, 97, 452, 224
-0.997485, 213, 261, 228, 292
-0.99749, 383, 257, 398, 288
-0.997492, 259, 301, 274, 332
-0.997495, 401, 309, 416, 340
-0.997502, 223, 209, 238, 240
-0.997505, 279, 277, 294, 308
-0.997515, 5, 1, 36, 256
-0.997524, 1, 165, 128, 196
-0.997551, 451, 305, 466, 336
-0.997552, 327, 237, 342, 268
-0.997556, 17, 125, 144, 156
-0.997557, 17, 97, 144, 128
-0.997559, 337, 121, 464, 152
-0.997559, 447, 285, 462, 316
-0.997564, 401, 325, 416, 356
-0.997566, 153, 249, 168, 280
-0.997566, 417, 329, 432, 360
-0.997567, 317, 233, 332, 264
-0.997567, 471, 309, 486, 340
-0.997576, 241, 249, 256, 280
-0.997579, 307, 313, 322, 344
-0.997588, 207, 233, 222, 264
-0.99759, 257, 57, 384, 120
-0.997592, 257, 233, 272, 264
-0.997594, 277, 225, 292, 256
-0.997599, 17, 177, 144, 208
-0.99761, 105, 249, 120, 280
-0.997615, 339, 325, 354, 356
-0.997622, 337, 237, 352, 268
-0.997624, 251, 229, 266, 260
-0.997629, 213, 225, 228, 256
-0.997636, 17, 81, 144, 112
-0.997642, 237, 197, 252, 228
-0.997643, 305, 325, 320, 356
-0.997646, 215, 205, 230, 236
-0.997653, 321, 177, 448, 208
-0.997656, 321, 153, 448, 184
-0.997658, 321, 165, 448, 196
-0.997664, 221, 257, 236, 288
-0.997664, 359, 237, 374, 268
-0.997668, 349, 265, 364, 296
-0.99768, 409, 305, 424, 336
-0.997687, 283, 305, 298, 336
-0.997689, 225, 1, 480, 64
-0.997689, 359, 265, 374, 296
-0.99769, 329, 269, 344, 300
-0.997695, 349, 281, 364, 312
-0.997696, 241, 129, 368, 160
-0.9977, 257, 285, 272, 316
-0.997722, 283, 265, 298, 296
-0.997723, 289, 93, 416, 124
-0.997724, 269, 253, 284, 284
-0.997725, 113, 117, 240, 148
-0.997726, 245, 289, 260, 320
-0.997728, 241, 217, 256, 248
-0.997738, 127, 297, 142, 328
-0.997744, 309, 249, 324, 280
-0.997746, 137, 17, 152, 48
-0.997768, 243, 173, 258, 204
-0.997768, 319, 277, 334, 308
-0.997768, 193, 281, 208, 312
-0.99777, 297, 237, 312, 268
-0.997771, 97, 57, 352, 120
-0.997776, 233, 233, 248, 264
-0.997776, 271, 285, 286, 316
-0.997784, 417, 1, 448, 256
-0.997787, 129, 257, 144, 288
-0.997789, 25, 317, 40, 348
-0.997793, 161, 21, 176, 52
-0.997794, 213, 273, 228, 304
-0.997795, 411, 329, 426, 360
-0.997801, 113, 73, 240, 104
-0.997808, 423, 269, 438, 300
-0.997809, 343, 337, 358, 368
-0.997809, 473, 297, 488, 328
-0.99781, 287, 245, 302, 276
-0.997811, 187, 285, 202, 316
-0.997812, 231, 197, 246, 228
-0.99782, 377, 261, 392, 292
-0.997823, 473, 325, 488, 356
-0.997826, 373, 237, 388, 268
-0.997827, 337, 337, 352, 368
-0.99783, 263, 261, 278, 292
-0.997832, 369, 201, 496, 232
-0.997844, 327, 257, 342, 288
-0.997861, 117, 29, 132, 60
-0.997866, 415, 237, 430, 268
-0.997867, 205, 273, 220, 304
-0.997867, 415, 309, 430, 340
-0.997871, 311, 237, 326, 268
-0.997877, 105, 1, 136, 256
-0.997882, 275, 317, 290, 348
-0.997883, 17, 233, 32, 264
-0.997885, 369, 261, 384, 292
-0.997894, 263, 285, 278, 316
-0.997897, 355, 281, 370, 312
-0.997902, 275, 265, 290, 296
-0.997906, 97, 333, 224, 364
-0.997909, 223, 233, 238, 264
-0.997914, 295, 321, 310, 352
-0.997921, 49, 49, 176, 112
-0.997924, 81, 345, 208, 375
-0.997926, 321, 45, 448, 76
-0.99793, 129, 129, 160, 375
-0.997946, 113, 61, 240, 92
-0.997957, 181, 129, 212, 375
-0.99796, 73, 129, 104, 375
-0.997973, 369, 181, 496, 212
-0.997987, 321, 29, 448, 60
-0.997988, 1, 129, 32, 375
-0.997993, 321, 65, 448, 96
-0.997996, 145, 29, 272, 60
-0.997996, 49, 161, 176, 192
-0.997999, 17, 109, 144, 140
-0.998013, 93, 1, 124, 256
-0.998026, 125, 1, 156, 256
-0.998038, 437, 1, 468, 256
-0.998081, 1, 129, 500, 192
-0.998126, 177, 33, 208, 288
-0.998154, 81, 1, 112, 256
-0.998185, 353, 33, 384, 288
-0.998217, 141, 129, 172, 375
-0.998255, 293, 129, 324, 375
-0.998297, 1, 153, 500, 216
-0.998302, 275, 225, 290, 352
-0.998324, 381, 129, 412, 375
-0.998331, 397, 97, 428, 352
-0.998332, 401, 1, 432, 256
-0.998346, 377, 329, 440, 344
-0.998348, 263, 225, 278, 352
-0.998358, 213, 129, 244, 375
-0.998372, 281, 281, 344, 296
-0.998375, 273, 273, 336, 288
-0.998384, 281, 295, 344, 310
-0.998392, 425, 307, 488, 322
-0.998393, 233, 255, 296, 270
-0.998399, 329, 241, 392, 256
-0.9984, 97, 25, 352, 88
-0.998411, 265, 321, 328, 336
-0.99842, 269, 225, 284, 352
-0.998422, 241, 287, 304, 302
-0.998422, 249, 227, 312, 242
-0.998423, 241, 301, 304, 316
-0.998424, 225, 233, 288, 248
-0.998428, 409, 301, 472, 316
-0.998428, 401, 317, 464, 332
-0.998431, 393, 275, 456, 290
-0.998432, 313, 269, 376, 284
-0.998439, 281, 327, 344, 342
-0.998443, 273, 235, 336, 250
-0.998444, 385, 311, 448, 326
-0.998445, 297, 335, 360, 350
-0.998446, 241, 263, 304, 278
-0.998447, 257, 309, 320, 324
-0.998448, 305, 275, 368, 290
-0.998449, 209, 255, 272, 270
-0.99845, 177, 211, 208, 226
-0.99845, 325, 303, 356, 318
-0.99845, 261, 311, 292, 326
-0.998451, 453, 297, 484, 312
-0.998451, 113, 35, 144, 50
-0.998452, 241, 139, 272, 154
-0.998453, 425, 287, 456, 302
-0.998454, 313, 281, 376, 296
-0.998454, 281, 267, 344, 282
-0.998454, 189, 211, 220, 226
-0.998454, 401, 281, 464, 296
-0.998455, 385, 305, 448, 320
-0.998455, 337, 301, 368, 316
-0.998455, 277, 235, 308, 250
-0.998455, 233, 293, 296, 308
-0.998456, 201, 227, 232, 242
-0.998456, 1, 283, 32, 298
-0.998456, 437, 321, 468, 336
-0.998457, 245, 167, 276, 182
-0.998459, 229, 251, 260, 266
-0.99846, 233, 239, 296, 254
-0.998461, 309, 265, 340, 280
-0.998462, 357, 265, 388, 280
-0.998463, 257, 245, 288, 260
-0.998464, 269, 317, 300, 332
-0.998464, 385, 345, 416, 360
-0.998465, 257, 323, 288, 338
-0.998466, 289, 279, 320, 294
-0.998466, 313, 247, 344, 262
-0.998466, 345, 295, 376, 310
-0.998466, 217, 289, 248, 304
-0.998467, 377, 261, 408, 276
-0.998467, 345, 281, 376, 296
-0.998467, 241, 249, 272, 264
-0.998467, 193, 295, 256, 310
-0.998468, 429, 275, 460, 290
-0.998468, 273, 305, 304, 320
-0.998468, 329, 337, 360, 352
-0.998468, 305, 241, 368, 256
-0.998469, 381, 275, 412, 290
-0.998469, 301, 259, 332, 274
-0.998469, 257, 303, 288, 318
-0.99847, 301, 313, 332, 328
-0.998471, 197, 297, 228, 312
-0.998471, 213, 215, 244, 230
-0.998471, 413, 357, 444, 372
-0.998471, 385, 335, 416, 350
-0.998471, 89, 219, 120, 234
-0.998473, 397, 321, 428, 336
-0.998475, 225, 221, 288, 236
-0.998475, 413, 261, 444, 276
-0.998476, 281, 259, 344, 274
-0.998476, 425, 267, 456, 282
-0.998477, 385, 321, 416, 336
-0.998478, 225, 209, 256, 224
-0.998478, 405, 277, 436, 292
-0.998478, 417, 281, 448, 296
-0.998479, 229, 299, 260, 314
-0.998481, 405, 283, 436, 298
-0.998481, 281, 249, 312, 264
-0.998481, 281, 289, 344, 304
-0.998482, 393, 313, 424, 328
-0.998484, 297, 329, 328, 344
-0.998485, 313, 109, 376, 124
-0.998485, 65, 221, 128, 236
-0.998485, 145, 19, 176, 34
-0.998486, 361, 275, 424, 290
-0.998486, 325, 297, 356, 312
-0.998486, 289, 271, 320, 286
-0.998487, 313, 299, 376, 314
-0.998487, 233, 189, 264, 204
-0.998489, 261, 287, 292, 302
-0.998489, 333, 247, 364, 262
-0.998489, 273, 301, 336, 316
-0.99849, 273, 273, 304, 288
-0.998491, 133, 291, 164, 306
-0.998491, 457, 303, 488, 318
-0.998493, 233, 231, 264, 246
-0.998493, 89, 255, 152, 270
-0.998493, 169, 285, 232, 300
-0.998493, 9, 227, 72, 242
-0.998494, 313, 305, 376, 320
-0.998494, 289, 227, 320, 242
-0.998495, 253, 257, 284, 272
-0.998495, 109, 129, 140, 375
-0.998496, 377, 335, 440, 350
-0.998497, 213, 225, 244, 240
-0.998498, 313, 293, 376, 308
-0.998498, 345, 311, 376, 326
-0.998498, 257, 257, 320, 272
-0.998499, 197, 239, 228, 254
-0.998501, 369, 317, 400, 332
-0.998501, 225, 197, 256, 212
-0.998502, 417, 295, 448, 310
-0.998503, 289, 319, 352, 334
-0.998503, 265, 315, 328, 330
-0.998503, 225, 249, 288, 264
-0.998504, 401, 269, 464, 284
-0.998505, 169, 213, 232, 228
-0.998506, 269, 299, 300, 314
-0.998507, 337, 267, 400, 282
-0.998508, 257, 251, 320, 266
-0.998508, 409, 323, 472, 338
-0.998509, 417, 303, 448, 318
-0.998509, 241, 181, 272, 196
-0.998509, 329, 277, 360, 292
-0.998509, 413, 269, 444, 284
-0.99851, 201, 245, 264, 260
-0.998511, 305, 285, 336, 300
-0.998511, 149, 255, 180, 270
-0.998511, 313, 287, 376, 302
-0.998513, 297, 311, 360, 326
-0.998514, 113, 309, 176, 324
-0.998514, 253, 263, 284, 278
-0.998515, 393, 361, 456, 375
-0.998516, 25, 215, 88, 230
-0.998516, 309, 273, 340, 288
-0.998518, 97, 249, 128, 264
-0.998518, 337, 341, 400, 356
-0.998519, 425, 313, 488, 328
-0.998519, 345, 247, 408, 262
-0.99852, 289, 259, 320, 274
-0.99852, 185, 225, 248, 240
-0.998521, 185, 237, 248, 252
-0.998522, 257, 241, 320, 256
-0.998522, 241, 199, 272, 214
-0.998523, 393, 253, 424, 268
-0.998524, 193, 261, 256, 276
-0.998526, 225, 257, 256, 272
-0.998526, 193, 129, 224, 375
-0.998527, 305, 235, 336, 250
-0.998527, 241, 273, 304, 288
-0.998527, 305, 263, 368, 278
-0.998527, 289, 265, 320, 280
-0.998528, 269, 255, 300, 270
-0.998528, 129, 255, 192, 270
-0.998528, 329, 259, 360, 274
-0.998529, 337, 319, 400, 334
-0.998531, 273, 267, 304, 282
-0.998531, 309, 279, 340, 294
-0.998531, 209, 227, 272, 242
-0.998531, 331, 225, 346, 352
-0.998531, 177, 279, 240, 294
-0.998532, 257, 221, 288, 236
-0.998532, 237, 293, 268, 308
-0.998533, 337, 275, 400, 290
-0.998533, 337, 335, 400, 350
-0.998533, 293, 321, 324, 336
-0.998534, 329, 265, 360, 280
-0.998534, 265, 239, 296, 254
-0.998534, 257, 221, 320, 236
-0.998534, 361, 263, 424, 278
-0.998535, 313, 103, 376, 118
-0.998535, 369, 237, 432, 252
-0.998535, 405, 329, 436, 344
-0.998535, 209, 269, 272, 284
-0.998536, 61, 33, 92, 288
-0.998536, 249, 233, 312, 248
-0.998537, 289, 311, 320, 326
-0.998537, 261, 229, 292, 244
-0.998539, 169, 257, 232, 272
-0.998539, 305, 249, 368, 264
-0.998539, 425, 359, 456, 374
-0.99854, 385, 299, 448, 314
-0.998543, 257, 281, 320, 296
-0.998543, 145, 211, 208, 226
-0.998544, 393, 263, 456, 278
-0.998545, 9, 287, 72, 302
-0.998546, 57, 15, 120, 30
-0.998546, 209, 255, 240, 270
-0.998546, 245, 33, 276, 288
-0.998547, 121, 21, 184, 36
-0.998547, 9, 293, 72, 308
-0.998547, 281, 229, 344, 244
-0.998548, 329, 291, 360, 306
-0.998548, 281, 321, 312, 336
-0.998549, 245, 233, 276, 248
-0.998549, 433, 299, 496, 314
-0.998549, 213, 239, 244, 254
-0.99855, 241, 165, 304, 180
-0.998551, 129, 291, 192, 306
-0.998551, 201, 275, 232, 290
-0.998551, 321, 241, 352, 256
-0.998552, 289, 293, 320, 308
-0.998553, 361, 209, 376, 336
-0.998553, 377, 323, 440, 338
-0.998554, 169, 219, 232, 234
-0.998554, 269, 281, 300, 296
-0.998554, 325, 271, 356, 286
-0.998554, 437, 301, 468, 316
-0.998556, 185, 207, 248, 222
-0.998556, 353, 305, 416, 320
-0.998556, 385, 327, 416, 342
-0.998556, 201, 219, 264, 234
-0.998558, 429, 281, 460, 296
-0.998558, 313, 97, 376, 112
-0.99856, 161, 251, 224, 266
-0.99856, 325, 283, 356, 298
-0.998561, 333, 253, 364, 268
-0.998561, 209, 283, 272, 298
-0.998563, 257, 175, 320, 190
-0.998564, 281, 253, 344, 268
-0.998564, 9, 273, 72, 288
-0.998565, 193, 213, 256, 228
-0.998566, 405, 347, 436, 362
-0.998567, 305, 235, 368, 250
-0.998567, 153, 129, 184, 375
-0.998568, 401, 287, 464, 302
-0.998568, 105, 261, 168, 276
-0.998568, 361, 257, 424, 272
-0.998568, 269, 261, 300, 276
-0.998569, 217, 261, 280, 276
-0.998569, 321, 311, 384, 326
-0.998569, 361, 313, 424, 328
-0.99857, 433, 285, 496, 300
-0.998571, 257, 327, 320, 342
-0.998571, 1, 279, 64, 294
-0.998571, 417, 275, 480, 290
-0.998571, 161, 229, 224, 244
-0.998572, 345, 269, 376, 284
-0.998573, 321, 257, 384, 272
-0.998573, 217, 175, 280, 190
-0.998573, 377, 243, 440, 258
-0.998574, 377, 285, 440, 300
-0.998574, 233, 317, 296, 332
-0.998575, 377, 269, 440, 284
-0.998575, 369, 1, 400, 256
-0.998576, 397, 271, 428, 286
-0.998576, 217, 167, 280, 182
-0.998578, 469, 301, 500, 316
-0.998579, 277, 287, 308, 302
-0.998579, 185, 231, 248, 246
-0.99858, 209, 289, 272, 304
-0.99858, 305, 319, 336, 334
-0.998582, 333, 241, 364, 256
-0.998582, 313, 323, 376, 338
-0.998586, 375, 225, 390, 352
-0.998589, 257, 225, 272, 352
-0.998596, 303, 241, 318, 368
-0.998597, 213, 249, 244, 264
-0.998601, 397, 307, 428, 322
-0.998602, 417, 311, 448, 326
-0.998607, 241, 255, 272, 270
-0.998612, 417, 275, 448, 290
-0.998616, 381, 1, 412, 256
-0.998619, 309, 325, 340, 340
-0.998629, 285, 241, 300, 368
-0.998633, 417, 225, 432, 352
-0.998638, 357, 239, 388, 254
-0.998659, 161, 1, 192, 256
-0.998661, 369, 225, 384, 352
-0.998667, 237, 177, 252, 304
-0.998667, 349, 225, 364, 352
-0.998676, 137, 1, 168, 256
-0.998678, 339, 241, 354, 368
-0.998697, 421, 97, 452, 352
-0.998698, 257, 251, 288, 266
-0.99871, 251, 209, 266, 336
-0.998728, 355, 225, 370, 352
-0.998729, 295, 241, 310, 368
-0.998733, 381, 225, 396, 352
-0.998738, 197, 1, 228, 256
-0.998739, 217, 193, 232, 320
-0.998764, 221, 1, 252, 256
-0.998768, 85, 97, 116, 352
-0.99878, 17, 241, 32, 368
-0.998783, 367, 177, 382, 304
-0.99879, 461, 1, 492, 256
-0.998812, 195, 209, 210, 336
-0.998856, 447, 241, 462, 368
-0.998858, 251, 161, 266, 288
-0.99886, 17, 193, 32, 320
-0.998861, 203, 161, 218, 288
-0.99887, 53, 209, 68, 336
-0.998878, 97, 129, 128, 375
-0.998881, 201, 241, 216, 368
-0.998895, 211, 209, 226, 336
-0.998902, 407, 241, 422, 368
-0.998909, 309, 241, 324, 368
-0.998914, 243, 225, 258, 352
-0.998928, 449, 1, 480, 256
-0.99893, 229, 177, 244, 304
-0.998943, 223, 193, 238, 320
-0.998951, 357, 145, 372, 272
-0.99896, 9, 209, 24, 336
-0.998964, 27, 225, 42, 352
-0.99898, 49, 49, 112, 176
-0.999002, 49, 161, 64, 288
-0.999002, 387, 241, 402, 368
-0.999003, 373, 177, 388, 304
-0.999007, 231, 129, 246, 256
-0.999008, 289, 193, 304, 320
-0.99901, 185, 225, 200, 352
-0.999012, 319, 225, 334, 352
-0.999013, 341, 33, 372, 288
-0.999015, 325, 241, 340, 368
-0.999018, 453, 241, 468, 368
-0.999022, 43, 209, 58, 336
-0.999032, 441, 241, 456, 368
-0.999035, 327, 177, 342, 304
-0.99904, 245, 129, 260, 256
-0.999047, 133, 225, 148, 352
-0.99905, 257, 177, 272, 304
-0.999056, 477, 241, 492, 368
-0.999066, 465, 241, 480, 368
-0.999076, 243, 177, 258, 304
-0.999086, 209, 161, 224, 288
-0.999086, 61, 145, 76, 272
-0.99909, 257, 1, 288, 256
-0.999101, 393, 209, 408, 336
-0.999107, 121, 241, 136, 368
-0.999113, 459, 241, 474, 368
-0.999117, 431, 241, 446, 368
-0.999124, 217, 241, 232, 368
-0.999124, 425, 225, 440, 352
-0.999131, 115, 241, 130, 368
-0.999145, 43, 161, 58, 288
-0.999153, 195, 145, 210, 272
-0.99916, 265, 177, 280, 304
-0.999167, 59, 1, 74, 128
-0.999172, 295, 161, 310, 288
-0.999176, 379, 177, 394, 304
-0.999185, 55, 161, 70, 288
-0.999185, 257, 129, 272, 256
-0.999188, 37, 193, 52, 320
-0.999192, 347, 161, 362, 288
-0.999195, 151, 225, 166, 352
-0.999197, 127, 225, 142, 352
-0.9992, 221, 145, 236, 272
-0.999201, 3, 129, 18, 256
-0.999201, 471, 241, 486, 368
-0.999203, 237, 129, 252, 256
-0.999204, 287, 145, 302, 272
-0.999209, 225, 241, 240, 368
-0.999212, 365, 129, 380, 256
-0.999213, 399, 241, 414, 368
-0.999214, 139, 225, 154, 352
-0.999218, 447, 1, 462, 128
-0.999224, 73, 1, 88, 128
-0.999224, 333, 161, 348, 288
-0.999227, 75, 161, 90, 288
-0.99923, 103, 241, 118, 368
-0.999235, 419, 1, 434, 128
-0.999238, 157, 241, 172, 368
-0.999238, 67, 145, 82, 272
-0.99924, 165, 129, 196, 375
-0.999241, 237, 225, 252, 352
-0.999245, 97, 241, 112, 368
-0.999253, 179, 225, 194, 352
-0.999259, 321, 177, 336, 304
-0.999261, 339, 161, 354, 288
-0.999263, 109, 241, 124, 368
-0.99927, 145, 225, 160, 352
-0.999271, 11, 49, 26, 176
-0.999272, 97, 177, 112, 304
-0.999278, 191, 33, 206, 160
-0.999281, 453, 1, 468, 128
-0.999282, 483, 1, 498, 128
-0.999286, 437, 1, 452, 128
-0.999286, 59, 209, 74, 336
-0.999295, 29, 161, 44, 288
-0.999303, 79, 1, 94, 128
-0.999308, 357, 81, 372, 208
-0.999309, 281, 193, 296, 320
-0.99931, 183, 177, 198, 304
-0.999314, 463, 1, 478, 128
-0.999317, 119, 193, 134, 320
-0.999319, 477, 1, 492, 128
-0.999319, 425, 1, 440, 128
-0.999321, 23, 65, 38, 192
-0.999324, 17, 33, 32, 160
-0.999325, 471, 1, 486, 128
-0.999325, 105, 193, 120, 320
-0.999325, 209, 1, 240, 256
-0.999331, 387, 193, 402, 320
-0.999331, 215, 145, 230, 272
-0.999331, 31, 33, 46, 160
-0.99934, 163, 17, 178, 144
-0.999342, 403, 33, 418, 160
-0.999345, 189, 161, 204, 288
-0.999348, 81, 145, 96, 272
-0.999353, 23, 177, 38, 304
-0.99936, 65, 1, 80, 128
-0.999363, 371, 129, 386, 256
-0.999373, 433, 97, 464, 352
-0.999441, 409, 97, 440, 352
-0.999481, 233, 33, 264, 288
-0.999506, 325, 33, 356, 288
-0.999547, 225, 25, 352, 88
-0.999623, 363, 267, 378, 282
-0.999623, 25, 319, 40, 334
-0.999624, 269, 269, 284, 284
-0.999624, 265, 287, 280, 302
-0.999625, 333, 265, 348, 280
-0.999625, 373, 265, 388, 280
-0.999626, 285, 235, 300, 250
-0.999626, 369, 275, 384, 290
-0.999626, 297, 289, 312, 304
-0.999626, 7, 45, 22, 60
-0.999627, 347, 253, 362, 268
-0.999627, 451, 285, 466, 300
-0.999628, 303, 329, 318, 344
-0.999628, 159, 19, 174, 34
-0.999629, 349, 285, 364, 300
-0.999629, 395, 343, 410, 358
-0.999629, 237, 209, 252, 224
-0.99963, 207, 273, 222, 288
-0.99963, 229, 247, 244, 262
-0.99963, 475, 301, 490, 316
-0.99963, 279, 325, 294, 340
-0.999631, 377, 243, 392, 258
-0.999632, 319, 285, 334, 300
-0.999633, 341, 265, 356, 280
-0.999633, 227, 259, 242, 274
-0.999633, 139, 21, 154, 36
-0.999634, 299, 321, 314, 336
-0.999634, 237, 189, 252, 204
-0.999635, 249, 231, 264, 246
-0.999635, 229, 203, 244, 218
-0.999635, 235, 361, 250, 375
-0.999637, 213, 263, 228, 278
-0.999638, 383, 253, 398, 268
-0.999638, 15, 283, 30, 298
-0.999638, 335, 259, 350, 274
-0.999638, 269, 323, 284, 338
-0.999638, 415, 261, 430, 276
-0.99964, 317, 109, 332, 124
-0.99964, 369, 239, 384, 254
-0.99964, 279, 237, 294, 252
-0.999641, 439, 319, 454, 334
-0.999641, 273, 317, 288, 332
-0.999641, 233, 255, 248, 270
-0.999642, 185, 211, 200, 226
-0.999642, 443, 289, 458, 304
-0.999642, 327, 245, 342, 260
-0.999643, 215, 207, 230, 222
-0.999643, 319, 273, 334, 288
-0.999643, 317, 313, 332, 328
-0.999644, 315, 325, 330, 340
-0.999645, 277, 249, 292, 264
-0.999646, 273, 239, 288, 254
-0.999646, 447, 321, 462, 336
-0.999646, 139, 15, 154, 30
-0.999647, 421, 271, 436, 286
-0.999647, 429, 361, 444, 375
-0.999647, 257, 303, 272, 318
-0.999648, 217, 215, 232, 230
-0.999648, 333, 247, 348, 262
-0.99965, 221, 207, 236, 222
-0.999651, 101, 249, 116, 264
-0.999651, 407, 275, 422, 290
-0.999652, 215, 239, 230, 254
-0.999653, 297, 311, 312, 326
-0.999653, 217, 245, 232, 260
-0.999654, 437, 277, 452, 292
-0.999656, 271, 251, 286, 266
-0.999656, 241, 299, 256, 314
-0.999657, 11, 273, 26, 288
-0.999657, 293, 259, 308, 274
-0.999658, 351, 269, 366, 284
-0.999658, 209, 237, 224, 252
-0.999659, 257, 251, 272, 266
-0.999659, 267, 263, 282, 278
-0.999659, 411, 307, 426, 322
-0.99966, 429, 273, 444, 288
-0.999661, 305, 259, 320, 274
-0.999661, 329, 239, 344, 254
-0.999661, 319, 279, 334, 294
-0.999662, 135, 291, 150, 306
-0.999663, 463, 303, 478, 318
-0.999664, 267, 241, 282, 256
-0.999665, 419, 329, 434, 344
-0.999665, 481, 301, 496, 316
-0.999667, 273, 1, 304, 256
-0.999668, 321, 325, 336, 340
-0.999668, 407, 359, 422, 374
-0.999669, 253, 257, 268, 272
-0.99967, 317, 319, 332, 334
-0.99967, 323, 237, 338, 252
-0.999671, 269, 221, 284, 236
-0.999671, 229, 359, 244, 374
-0.999672, 401, 345, 416, 360
-0.999673, 439, 361, 454, 375
-0.999675, 101, 219, 116, 234
-0.999677, 249, 293, 264, 308
-0.999678, 439, 283, 454, 298
-0.999679, 349, 297, 364, 312
-0.999679, 223, 251, 238, 266
-0.99968, 403, 353, 418, 368
-0.99968, 283, 287, 298, 302
-0.999681, 335, 241, 350, 256
-0.999681, 343, 259, 358, 274
-0.999683, 407, 345, 422, 360
-0.999684, 291, 297, 306, 312
-0.999686, 243, 179, 258, 194
-0.99969, 279, 257, 294, 272
-0.999692, 215, 253, 230, 268
-0.999692, 283, 271, 298, 286
-0.999693, 283, 301, 298, 316
-0.999694, 317, 235, 332, 250
-0.999696, 305, 313, 320, 328
-0.999699, 341, 339, 356, 354
-0.9997, 279, 319, 294, 334
-0.999705, 275, 279, 290, 294
-0.999705, 237, 197, 252, 212
-0.999709, 441, 299, 456, 314
-0.999709, 359, 239, 374, 254
-0.999716, 351, 239, 366, 254
-0.999716, 445, 97, 476, 352
-0.999718, 469, 301, 484, 316
-0.999723, 307, 321, 322, 336
-0.999727, 241, 293, 256, 308
-0.999731, 391, 325, 406, 340
-0.999734, 445, 279, 460, 294
-0.999734, 457, 97, 488, 352
-0.999739, 283, 281, 298, 296
-0.999741, 291, 289, 306, 304
-0.999743, 343, 247, 358, 262
-0.999746, 263, 251, 278, 266
-0.99975, 247, 253, 262, 268
-0.999756, 341, 241, 356, 256
-0.99977, 335, 253, 350, 268
-0.999845, 305, 49, 368, 176
-0.999892, 469, 129, 500, 375
-0.999915, 301, 33, 332, 288
-0.99995, 433, 145, 496, 272
-0.999977, 313, 33, 344, 288
-1.00051, 289, 33, 320, 288
-1.00052, 209, 49, 336, 176
-1.00078, 265, 1, 328, 128
-1.0024, 289, 1, 352, 128
-1.00793, 281, 49, 344, 176
-1.00945, 233, 49, 296, 176
-1.00963, 257, 49, 320, 176
-1.0118, 209, 49, 272, 176
