1875
-0.155169, 1, 1, 500, 333
-0.275723, 161, 1, 416, 333
-0.282086, 1, 65, 500, 320
-0.426622, 161, 33, 416, 288
-0.477883, 65, 1, 320, 333
-0.487252, 257, 1, 500, 333
-0.559466, 65, 65, 320, 320
-0.582989, 257, 65, 500, 320
-0.813583, 209, 33, 336, 288
-0.81747, 193, 1, 320, 333
-0.817641, 273, 65, 400, 320
-0.826459, 161, 65, 288, 320
-0.842916, 241, 1, 368, 333
-0.845432, 1, 145, 500, 272
-0.846074, 1, 97, 500, 224
-0.857643, 145, 1, 272, 333
-0.861545, 113, 65, 240, 320
-0.863971, 1, 65, 128, 320
-0.873817, 321, 65, 448, 320
-0.883151, 161, 81, 416, 208
-0.885012, 289, 1, 416, 333
-0.885857, 1, 193, 500, 320
-0.896328, 17, 1, 144, 333
-0.897266, 49, 65, 176, 320
-0.899774, 257, 145, 500, 272
-0.904675, 1, 129, 256, 256
-0.905616, 337, 1, 464, 333
-0.905674, 161, 33, 416, 160
-0.906452, 81, 1, 208, 333
-0.909952, 161, 129, 416, 256
-0.911198, 1, 49, 500, 176
-0.917879, 369, 65, 496, 320
-0.91871, 177, 49, 304, 176
-0.921241, 305, 161, 432, 288
-0.921656, 241, 65, 368, 192
-0.925165, 185, 49, 248, 176
-0.927013, 33, 81, 288, 208
-0.927497, 161, 193, 416, 320
-0.927653, 257, 193, 500, 320
-0.929578, 273, 145, 336, 272
-0.930516, 257, 145, 384, 272
-0.930933, 257, 97, 500, 224
-0.93133, 177, 113, 304, 240
-0.931741, 265, 65, 328, 192
-0.931818, 257, 193, 384, 320
-0.931935, 305, 209, 432, 333
-0.932217, 385, 161, 448, 288
-0.932259, 225, 33, 288, 160
-0.932422, 1, 193, 256, 320
-0.93362, 129, 113, 256, 240
-0.93468, 17, 129, 144, 256
-0.935433, 177, 97, 240, 224
-0.935485, 209, 81, 272, 208
-0.937274, 145, 113, 208, 240
-0.937358, 289, 193, 352, 320
-0.937981, 249, 193, 312, 320
-0.938998, 361, 145, 424, 272
-0.939874, 369, 161, 496, 288
-0.940246, 297, 65, 360, 192
-0.94053, 249, 113, 312, 240
-0.940833, 81, 129, 208, 256
-0.94211, 321, 161, 384, 288
-0.942484, 193, 193, 320, 320
-0.942522, 305, 97, 432, 224
-0.942698, 73, 129, 136, 256
-0.943237, 1, 113, 64, 240
-0.943524, 305, 113, 368, 240
-0.943568, 257, 17, 320, 144
-0.943958, 177, 89, 240, 152
-0.944431, 41, 129, 104, 256
-0.945703, 225, 17, 352, 144
-0.945845, 105, 129, 168, 256
-0.946194, 193, 145, 256, 272
-0.946295, 169, 145, 232, 272
-0.946594, 17, 177, 144, 304
-0.946881, 145, 137, 208, 200
-0.948772, 193, 57, 256, 120
-0.948953, 257, 49, 500, 176
-0.949285, 129, 65, 256, 192
-0.949738, 1, 193, 64, 320
-0.951073, 289, 233, 352, 296
-0.951601, 177, 121, 240, 184
-0.951802, 361, 161, 424, 224
-0.952047, 337, 97, 400, 224
-0.952763, 297, 65, 360, 128
-0.952775, 145, 193, 272, 320
-0.953228, 217, 145, 280, 272
-0.953789, 249, 41, 312, 104
-0.954678, 73, 193, 136, 320
-0.954791, 201, 81, 264, 144
-0.954938, 353, 193, 416, 320
-0.955831, 425, 177, 488, 304
-0.95614, 369, 233, 432, 296
-0.956716, 33, 33, 288, 160
-0.957192, 73, 209, 136, 272
-0.957385, 177, 193, 240, 320
-0.957623, 281, 17, 344, 144
-0.957783, 289, 145, 352, 208
-0.957812, 97, 177, 224, 304
-0.958046, 225, 1, 288, 256
-0.958264, 313, 161, 376, 224
-0.95832, 377, 209, 440, 333
-0.958327, 153, 65, 216, 192
-0.958329, 209, 193, 272, 320
-0.959256, 81, 137, 144, 200
-0.959468, 217, 105, 280, 168
-0.959478, 385, 177, 448, 240
-0.959655, 233, 129, 296, 192
-0.960153, 169, 65, 232, 320
-0.960222, 265, 1, 328, 256
-0.960235, 289, 49, 416, 176
-0.960456, 33, 201, 96, 264
-0.960853, 265, 137, 328, 200
-0.960981, 345, 249, 408, 312
-0.961077, 257, 1, 500, 128
-0.961163, 177, 145, 240, 208
-0.961213, 225, 33, 288, 96
-0.961607, 41, 177, 104, 304
-0.962007, 313, 97, 376, 160
-0.962081, 345, 129, 408, 192
-0.96223, 73, 185, 136, 248
-0.962903, 281, 41, 344, 104
-0.962939, 201, 33, 264, 96
-0.963291, 393, 201, 456, 264
-0.963634, 25, 121, 88, 184
-0.963705, 233, 185, 296, 248
-0.96373, 425, 185, 488, 248
-0.964119, 249, 241, 312, 304
-0.964249, 197, 57, 228, 120
-0.964453, 417, 129, 480, 256
-0.964499, 193, 41, 320, 104
-0.964836, 57, 137, 120, 200
-0.965013, 353, 209, 480, 333
-0.96506, 105, 145, 168, 208
-0.965191, 257, 89, 320, 152
-0.965226, 209, 129, 272, 192
-0.965519, 313, 209, 376, 333
-0.965569, 265, 209, 328, 272
-0.965695, 289, 33, 352, 288
-0.96582, 177, 1, 304, 128
-0.966063, 169, 65, 232, 128
-0.966318, 405, 161, 436, 288
-0.966555, 313, 121, 376, 184
-0.966689, 225, 65, 288, 128
-0.966981, 289, 121, 352, 184
-0.967032, 217, 153, 280, 216
-0.967111, 177, 201, 240, 264
-0.967147, 221, 33, 252, 160
-0.967328, 313, 233, 376, 296
-0.96739, 321, 65, 384, 320
-0.967583, 153, 193, 216, 320
-0.967814, 1, 121, 64, 184
-0.968261, 417, 161, 480, 224
-0.968334, 273, 257, 336, 320
-0.968508, 81, 65, 208, 192
-0.968523, 161, 105, 288, 168
-0.968789, 193, 65, 256, 320
-0.968815, 265, 113, 328, 176
-0.968911, 1, 201, 64, 264
-0.969086, 145, 113, 208, 176
-0.969144, 337, 169, 464, 232
-0.96915, 209, 113, 240, 240
-0.969249, 361, 97, 424, 224
-0.969306, 213, 49, 244, 112
-0.969325, 185, 81, 216, 208
-0.969343, 289, 193, 352, 256
-0.969575, 33, 161, 96, 224
-0.969879, 201, 1, 264, 128
-0.970278, 105, 177, 168, 304
-0.970474, 369, 113, 496, 240
-0.970596, 353, 185, 416, 248
-0.970865, 401, 209, 464, 333
-0.971103, 273, 65, 336, 128
-0.97111, 241, 81, 368, 144
-0.971317, 289, 113, 416, 176
-0.971373, 209, 201, 272, 264
-0.971399, 273, 233, 400, 296
-0.97156, 9, 169, 72, 232
-0.971646, 337, 153, 400, 216
-0.971783, 241, 137, 368, 200
-0.971848, 249, 33, 280, 160
-0.971853, 289, 1, 416, 128
-0.971963, 337, 97, 400, 160
-0.972004, 273, 33, 304, 160
-0.972034, 337, 153, 368, 216
-0.972036, 73, 161, 136, 224
-0.97204, 297, 145, 328, 272
-0.972042, 385, 153, 448, 216
-0.972086, 189, 81, 220, 144
-0.972115, 353, 161, 384, 288
-0.972237, 225, 41, 256, 104
-0.972423, 385, 145, 416, 272
-0.972778, 313, 145, 344, 272
-0.972781, 177, 65, 304, 128
-0.972807, 97, 137, 224, 200
-0.97282, 317, 233, 348, 296
-0.97301, 345, 209, 408, 272
-0.973047, 257, 113, 288, 240
-0.973078, 321, 209, 384, 272
-0.97312, 241, 57, 368, 120
-0.973762, 177, 241, 240, 304
-0.973781, 129, 161, 192, 288
-0.973805, 325, 65, 356, 192
-0.973842, 385, 193, 416, 320
-0.973888, 397, 161, 428, 224
-0.973893, 77, 185, 108, 248
-0.973897, 297, 41, 328, 104
-0.974005, 321, 49, 384, 176
-0.974059, 137, 225, 200, 288
-0.974067, 369, 209, 432, 272
-0.974102, 177, 129, 304, 192
-0.974254, 437, 177, 468, 240
-0.974333, 333, 145, 364, 272
-0.974374, 309, 193, 340, 320
-0.974405, 393, 233, 456, 296
-0.974442, 289, 65, 320, 192
-0.974475, 297, 193, 328, 320
-0.97466, 165, 137, 196, 200
-0.974801, 269, 193, 300, 320
-0.97484, 469, 177, 500, 240
-0.974861, 197, 33, 228, 160
-0.974874, 281, 129, 312, 256
-0.974901, 209, 49, 240, 176
-0.975022, 17, 81, 144, 208
-0.975041, 1, 193, 128, 256
-0.975111, 305, 209, 432, 272
-0.975165, 373, 137, 404, 200
-0.975191, 281, 193, 312, 320
-0.975273, 121, 121, 184, 184
-0.97544, 153, 201, 216, 264
-0.975462, 177, 177, 240, 240
-0.975532, 93, 129, 124, 256
-0.975628, 349, 97, 380, 224
-0.975638, 289, 89, 352, 152
-0.975652, 257, 209, 384, 272
-0.975656, 201, 81, 232, 144
-0.975657, 197, 145, 228, 272
-0.975713, 321, 241, 448, 304
-0.975721, 417, 177, 448, 240
-0.975807, 381, 217, 412, 280
-0.976028, 281, 249, 312, 312
-0.976075, 9, 113, 40, 240
-0.976207, 301, 129, 332, 192
-0.976247, 49, 137, 176, 200
-0.976315, 265, 161, 328, 224
-0.976332, 149, 129, 180, 192
-0.976334, 233, 65, 264, 192
-0.976344, 269, 113, 300, 240
-0.976377, 1, 1, 500, 128
-0.976418, 177, 265, 240, 328
-0.97643, 237, 113, 268, 240
-0.9765, 309, 65, 340, 192
-0.976553, 277, 33, 308, 96
-0.976554, 321, 257, 384, 320
-0.976575, 17, 233, 80, 296
-0.976667, 209, 201, 336, 264
-0.97678, 369, 113, 400, 240
-0.976842, 97, 81, 160, 208
-0.976872, 97, 193, 160, 256
-0.976878, 289, 169, 352, 232
-0.976891, 325, 73, 356, 136
-0.976901, 289, 177, 416, 240
-0.976903, 145, 249, 208, 312
-0.976923, 105, 129, 136, 256
-0.976945, 313, 65, 344, 128
-0.976966, 249, 17, 312, 80
-0.976971, 281, 1, 344, 333
-0.977133, 357, 161, 388, 224
-0.977245, 97, 193, 128, 256
-0.97725, 393, 225, 424, 288
-0.977255, 249, 65, 312, 128
-0.977299, 377, 265, 440, 328
-0.977313, 241, 105, 368, 168
-0.977481, 321, 193, 352, 320
-0.977482, 237, 41, 268, 104
-0.977578, 273, 257, 400, 320
-0.977597, 45, 129, 76, 256
-0.977664, 297, 257, 360, 320
-0.977694, 293, 249, 324, 312
-0.977699, 65, 201, 96, 264
-0.977714, 177, 233, 304, 296
-0.977746, 81, 129, 112, 256
-0.977809, 221, 113, 252, 240
-0.977883, 61, 129, 92, 256
-0.977906, 185, 105, 216, 168
-0.977972, 97, 169, 160, 232
-0.977992, 165, 129, 196, 256
-0.978005, 1, 177, 32, 304
-0.978041, 289, 137, 416, 200
-0.978076, 321, 145, 352, 208
-0.978082, 17, 65, 80, 320
-0.978153, 257, 1, 320, 333
-0.978154, 329, 185, 392, 248
-0.978159, 345, 65, 408, 320
-0.978207, 385, 113, 448, 240
-0.978214, 81, 209, 112, 272
-0.978262, 213, 89, 244, 152
-0.978287, 225, 9, 288, 72
-0.978312, 1, 65, 64, 192
-0.978371, 1, 121, 32, 184
-0.978389, 229, 81, 260, 144
-0.978396, 25, 121, 56, 184
-0.978406, 305, 233, 336, 296
-0.978408, 145, 65, 208, 320
-0.978561, 17, 169, 144, 232
-0.978592, 257, 161, 288, 288
-0.978592, 45, 121, 76, 184
-0.978776, 421, 177, 452, 304
-0.97894, 265, 185, 328, 248
-0.978968, 321, 73, 384, 136
-0.979037, 225, 233, 352, 296
-0.979137, 365, 177, 396, 304
-0.979155, 209, 113, 240, 176
-0.979192, 261, 17, 292, 144
-0.979257, 337, 81, 368, 144
-0.979293, 101, 137, 132, 200
-0.979354, 377, 65, 440, 320
-0.979359, 117, 129, 148, 256
-0.979592, 25, 81, 88, 208
-0.979627, 129, 145, 160, 208
-0.979633, 65, 137, 96, 200
-0.979655, 249, 25, 280, 88
-0.979766, 65, 233, 128, 296
-0.979865, 237, 17, 268, 144
-0.979883, 225, 1, 288, 333
-0.97997, 337, 233, 368, 296
-0.97998, 385, 153, 416, 216
-0.980033, 145, 129, 176, 256
-0.980181, 337, 145, 464, 208
-0.98021, 209, 177, 272, 240
-0.980293, 261, 65, 292, 192
-0.980359, 401, 185, 432, 248
-0.980366, 373, 241, 404, 304
-0.980435, 229, 193, 260, 256
-0.980439, 209, 137, 240, 200
-0.980492, 233, 209, 296, 272
-0.980537, 57, 81, 120, 208
-0.980551, 33, 113, 64, 240
-0.980571, 277, 209, 308, 272
-0.98059, 225, 233, 288, 296
-0.980618, 449, 185, 480, 248
-0.980621, 309, 153, 340, 216
-0.980819, 229, 161, 260, 288
-0.980838, 129, 65, 256, 128
-0.980841, 113, 113, 240, 176
-0.980849, 177, 153, 304, 216
-0.98091, 417, 225, 480, 288
-0.980985, 365, 113, 396, 176
-0.980996, 285, 17, 316, 144
-0.981038, 181, 137, 212, 200
-0.981045, 321, 121, 352, 184
-0.981082, 241, 33, 368, 96
-0.981102, 41, 65, 104, 320
-0.981138, 201, 1, 264, 333
-0.981155, 97, 193, 128, 320
-0.981189, 97, 193, 224, 256
-0.981264, 397, 209, 428, 333
-0.98132, 81, 65, 144, 320
-0.981344, 81, 137, 112, 200
-0.981417, 433, 161, 464, 288
-0.98144, 241, 153, 304, 216
-0.981638, 129, 209, 192, 333
-0.981656, 337, 81, 368, 208
-0.981661, 217, 161, 248, 288
-0.98173, 469, 177, 500, 304
-0.981732, 81, 169, 208, 232
-0.981756, 337, 113, 368, 176
-0.981763, 197, 97, 228, 224
-0.98177, 17, 233, 144, 296
-0.98178, 297, 1, 328, 128
-0.981927, 65, 113, 128, 176
-0.982007, 1, 145, 64, 208
-0.982028, 113, 137, 144, 200
-0.982103, 249, 105, 280, 168
-0.982103, 385, 129, 448, 192
-0.982141, 41, 233, 104, 296
-0.982153, 345, 177, 376, 240
-0.982249, 353, 137, 384, 200
-0.982427, 129, 161, 192, 224
-0.982485, 273, 17, 336, 80
-0.98249, 129, 129, 160, 256
-0.982505, 237, 153, 268, 216
-0.982523, 217, 161, 248, 224
-0.982526, 281, 57, 312, 120
-0.982558, 145, 201, 272, 264
-0.982603, 249, 49, 280, 112
-0.982619, 241, 193, 272, 320
-0.982643, 49, 201, 176, 264
-0.982664, 293, 65, 324, 128
-0.982687, 153, 161, 216, 224
-0.982694, 353, 193, 480, 256
-0.982744, 405, 209, 436, 272
-0.982757, 241, 161, 368, 224
-0.982846, 381, 185, 412, 248
-0.9829, 165, 113, 196, 176
-0.982988, 197, 137, 228, 200
-0.983044, 169, 1, 232, 333
-0.983112, 185, 241, 216, 304
-0.983158, 233, 273, 296, 333
-0.983161, 265, 41, 296, 104
-0.983189, 353, 97, 384, 160
-0.98321, 177, 129, 208, 256
-0.983337, 225, 265, 352, 328
-0.983349, 337, 193, 368, 320
-0.983352, 289, 137, 320, 200
-0.983366, 185, 193, 216, 320
-0.983484, 293, 209, 324, 272
-0.983555, 289, 89, 416, 152
-0.983555, 265, 233, 296, 296
-0.983599, 129, 193, 192, 256
-0.98362, 1, 137, 128, 200
-0.983629, 221, 121, 252, 184
-0.983735, 177, 1, 240, 128
-0.983794, 93, 217, 124, 280
-0.983869, 369, 225, 496, 288
-0.983879, 177, 177, 304, 240
-0.983887, 1, 97, 64, 160
-0.983899, 5, 209, 36, 272
-0.983928, 357, 257, 388, 320
-0.983999, 13, 161, 44, 288
-0.984009, 21, 113, 52, 240
-0.984033, 53, 209, 84, 272
-0.98413, 185, 57, 216, 120
-0.984153, 305, 1, 368, 128
-0.984236, 333, 193, 364, 256
-0.984323, 129, 65, 192, 192
-0.984366, 105, 65, 168, 320
-0.984369, 313, 41, 344, 104
-0.98444, 289, 65, 416, 128
-0.984503, 417, 65, 480, 320
-0.984576, 193, 17, 320, 80
-0.984609, 57, 161, 88, 224
-0.984621, 153, 89, 216, 152
-0.984676, 145, 273, 208, 333
-0.984769, 305, 89, 336, 152
-0.984797, 305, 1, 368, 333
-0.984872, 417, 129, 448, 256
-0.984905, 421, 145, 452, 208
-0.984967, 385, 257, 416, 320
-0.98501, 241, 81, 272, 144
-0.985053, 257, 185, 288, 248
-0.985161, 97, 217, 160, 280
-0.985244, 261, 129, 292, 192
-0.985329, 369, 161, 400, 224
-0.985333, 457, 177, 488, 304
-0.985345, 197, 105, 228, 168
-0.985438, 345, 73, 408, 136
-0.985512, 61, 193, 92, 320
-0.985532, 285, 113, 316, 176
-0.985632, 25, 193, 56, 320
-0.985716, 261, 17, 292, 80
-0.985727, 409, 249, 440, 312
-0.98576, 197, 193, 228, 320
-0.985789, 217, 201, 248, 264
-0.985795, 97, 249, 224, 312
-0.98594, 1, 113, 128, 176
-0.985974, 237, 129, 268, 192
-0.985976, 201, 225, 264, 288
-0.98608, 129, 161, 256, 224
-0.986164, 317, 177, 348, 240
-0.986237, 329, 257, 360, 320
-0.986246, 397, 113, 428, 240
-0.986259, 309, 201, 340, 264
-0.98629, 357, 201, 388, 264
-0.98633, 85, 177, 116, 304
-0.986338, 369, 217, 400, 280
-0.986376, 341, 257, 372, 320
-0.986379, 237, 105, 268, 168
-0.986447, 145, 41, 272, 104
-0.986473, 313, 41, 376, 104
-0.986485, 161, 57, 416, 120
-0.986502, 97, 217, 224, 280
-0.986522, 277, 153, 308, 216
-0.986568, 101, 169, 132, 232
-0.986587, 45, 193, 76, 320
-0.986688, 337, 17, 464, 144
-0.986775, 41, 201, 72, 264
-0.986777, 325, 41, 356, 104
-0.986794, 249, 129, 280, 192
-0.986871, 353, 209, 384, 333
-0.986982, 1, 185, 32, 248
-0.986996, 161, 273, 288, 333
-0.987015, 49, 113, 176, 176
-0.987082, 269, 89, 300, 152
-0.987121, 233, 17, 264, 80
-0.98718, 1, 65, 32, 192
-0.987204, 97, 113, 160, 176
-0.987226, 169, 25, 232, 88
-0.987245, 297, 185, 328, 248
-0.98726, 113, 1, 240, 128
-0.9873, 409, 209, 440, 333
-0.987332, 81, 161, 112, 224
-0.987352, 329, 1, 392, 333
-0.987367, 73, 177, 104, 304
-0.987385, 161, 89, 416, 152
-0.987416, 161, 81, 192, 208
-0.987631, 321, 209, 352, 272
-0.987673, 449, 161, 480, 224
-0.987774, 421, 201, 452, 264
-0.987934, 177, 201, 208, 264
-0.988041, 421, 233, 452, 296
-0.988054, 289, 33, 416, 96
-0.988137, 349, 233, 380, 296
-0.988159, 273, 141, 336, 172
-0.988199, 273, 129, 304, 192
-0.98823, 209, 209, 240, 333
-0.988231, 293, 17, 324, 80
-0.988239, 177, 97, 240, 128
-0.988245, 265, 209, 296, 272
-0.98825, 129, 129, 384, 192
-0.988279, 145, 17, 208, 144
-0.988312, 437, 153, 468, 216
-0.988362, 165, 225, 196, 288
-0.988379, 137, 137, 200, 168
-0.988467, 173, 209, 204, 333
-0.9885, 337, 121, 464, 184
-0.988503, 185, 161, 216, 224
-0.98855, 317, 97, 348, 160
-0.988564, 17, 273, 80, 333
-0.988571, 401, 257, 464, 320
-0.98858, 289, 69, 352, 100
-0.988636, 177, 85, 240, 116
-0.988658, 377, 169, 440, 200
-0.988672, 321, 161, 384, 192
-0.988715, 321, 17, 352, 144
-0.988746, 13, 161, 44, 224
-0.988757, 5, 249, 36, 312
-0.988789, 289, 237, 352, 268
-0.988858, 177, 113, 240, 144
-0.988875, 177, 149, 240, 180
-0.988897, 409, 137, 472, 200
-0.988967, 209, 109, 272, 140
-0.988996, 249, 141, 312, 172
-0.989008, 173, 81, 204, 208
-0.989067, 385, 1, 448, 333
-0.989155, 313, 149, 376, 180
-0.989159, 201, 49, 264, 80
-0.98916, 217, 133, 280, 164
-0.989167, 57, 193, 120, 224
-0.989207, 217, 97, 280, 128
-0.989305, 345, 157, 408, 188
-0.989475, 177, 133, 240, 164
-0.989477, 113, 145, 176, 176
-0.989478, 65, 205, 128, 236
-0.989521, 1, 137, 500, 200
-0.989554, 145, 1, 208, 333
-0.989568, 417, 185, 480, 216
-0.989583, 361, 253, 424, 284
-0.989619, 445, 177, 476, 304
-0.989622, 193, 61, 256, 92
-0.989637, 81, 1, 144, 333
-0.989692, 297, 81, 360, 112
-0.989699, 257, 169, 500, 232
-0.989713, 161, 209, 192, 333
-0.989727, 309, 17, 340, 144
-0.989735, 241, 41, 304, 72
-0.989748, 81, 141, 144, 172
-0.989788, 25, 201, 88, 232
-0.989789, 257, 253, 320, 284
-0.989791, 385, 193, 448, 224
-0.989806, 273, 57, 336, 88
-0.989872, 145, 65, 208, 128
-0.989882, 369, 237, 432, 268
-0.989895, 201, 145, 264, 176
-0.98992, 109, 193, 140, 320
-0.989932, 1, 193, 64, 224
-0.989947, 257, 89, 320, 120
-0.989957, 385, 181, 448, 212
-0.990049, 201, 249, 264, 312
-0.990113, 369, 249, 496, 312
-0.990113, 273, 45, 336, 76
-0.990118, 297, 137, 360, 168
-0.990144, 353, 177, 416, 208
-0.990162, 385, 205, 448, 236
-0.990207, 81, 169, 144, 200
-0.990212, 1, 209, 500, 272
-0.990217, 201, 81, 264, 112
-0.990232, 305, 253, 368, 284
-0.99028, 289, 153, 352, 184
-0.990299, 329, 109, 392, 140
-0.990333, 17, 125, 80, 156
-0.990336, 33, 137, 96, 168
-0.990345, 105, 273, 168, 333
-0.990354, 409, 1, 472, 333
-0.990362, 137, 149, 200, 180
-0.990398, 321, 89, 384, 120
-0.990406, 233, 189, 296, 220
-0.990445, 297, 101, 360, 132
-0.990447, 305, 225, 368, 256
-0.990451, 417, 197, 480, 228
-0.990478, 385, 225, 448, 256
-0.990481, 241, 57, 304, 88
-0.990521, 113, 89, 240, 152
-0.990526, 97, 273, 224, 333
-0.990526, 177, 73, 240, 104
-0.990528, 345, 145, 408, 176
-0.990539, 265, 241, 328, 272
-0.990542, 65, 217, 128, 248
-0.990578, 57, 141, 120, 172
-0.990588, 105, 1, 168, 333
-0.990664, 289, 197, 352, 228
-0.990672, 265, 221, 328, 252
-0.990692, 209, 121, 272, 152
-0.990695, 177, 193, 240, 224
-0.990697, 329, 237, 392, 268
-0.99073, 257, 109, 320, 140
-0.990735, 229, 209, 260, 333
-0.990757, 153, 125, 216, 156
-0.990825, 337, 121, 400, 152
-0.990847, 417, 173, 480, 204
-0.990852, 225, 145, 288, 176
-0.990853, 369, 157, 432, 188
-0.990877, 265, 185, 328, 216
-0.990889, 25, 97, 88, 160
-0.990931, 25, 1, 88, 333
-0.990942, 65, 105, 320, 168
-0.990948, 257, 193, 500, 256
-0.990953, 129, 153, 384, 216
-0.990955, 449, 129, 480, 256
-0.99098, 33, 137, 288, 200
-0.99098, 353, 97, 480, 160
-0.991033, 353, 189, 416, 220
-0.991037, 233, 201, 296, 232
-0.991044, 1, 1, 64, 333
-0.991046, 257, 209, 288, 333
-0.991051, 257, 129, 320, 160
-0.991064, 329, 173, 392, 204
-0.991084, 281, 265, 344, 296
-0.991099, 177, 205, 240, 236
-0.991134, 1, 113, 500, 176
-0.991169, 97, 209, 352, 272
-0.991176, 345, 225, 408, 256
-0.991184, 113, 165, 176, 196
-0.99121, 57, 1, 120, 333
-0.991262, 265, 201, 328, 232
-0.991266, 289, 181, 352, 212
-0.991331, 225, 145, 480, 208
-0.991334, 361, 297, 424, 328
-0.991336, 353, 1, 416, 333
-0.991338, 177, 269, 240, 300
-0.991339, 89, 201, 152, 232
-0.991347, 401, 157, 464, 188
-0.991354, 337, 249, 400, 280
-0.99136, 113, 129, 176, 160
-0.991372, 81, 189, 144, 220
-0.991396, 25, 153, 88, 184
-0.991398, 233, 121, 296, 152
-0.991408, 217, 177, 280, 208
-0.991422, 265, 153, 328, 184
-0.991433, 289, 209, 352, 240
-0.991458, 177, 237, 240, 268
-0.991458, 13, 65, 44, 192
-0.991465, 273, 9, 400, 72
-0.991471, 329, 185, 392, 216
-0.991476, 81, 157, 144, 188
-0.991483, 353, 201, 416, 232
-0.991554, 257, 77, 320, 108
-0.991561, 41, 125, 104, 156
-0.991565, 217, 229, 280, 260
-0.991602, 217, 37, 280, 68
-0.991618, 297, 57, 360, 88
-0.991622, 225, 85, 288, 116
-0.991628, 201, 193, 264, 224
-0.991638, 177, 161, 240, 192
-0.991649, 241, 29, 304, 60
-0.991669, 73, 229, 136, 260
-0.991672, 89, 213, 152, 244
-0.991685, 361, 121, 424, 152
-0.991715, 1, 237, 64, 268
-0.991718, 145, 113, 208, 144
-0.991727, 297, 125, 360, 156
-0.991739, 337, 49, 400, 112
-0.991741, 41, 213, 104, 244
-0.991747, 217, 69, 280, 100
-0.991763, 153, 201, 216, 232
-0.991774, 1, 173, 64, 204
-0.991811, 1, 169, 500, 232
-0.991814, 193, 225, 448, 288
-0.991825, 401, 265, 464, 296
-0.991828, 1, 145, 64, 176
-0.991833, 177, 257, 240, 288
-0.991851, 153, 65, 216, 96
-0.991865, 257, 249, 500, 312
-0.991873, 217, 157, 280, 188
-0.991878, 297, 17, 360, 80
-0.991922, 337, 133, 400, 164
-0.991927, 61, 81, 92, 208
-0.991932, 289, 169, 352, 200
-0.991936, 201, 57, 216, 120
-0.991952, 341, 33, 372, 160
-0.991957, 49, 153, 112, 184
-0.991968, 337, 301, 400, 332
-0.991973, 41, 173, 104, 204
-0.991978, 1, 109, 64, 140
-0.99198, 233, 109, 296, 140
-0.991986, 25, 65, 56, 192
-0.991991, 281, 253, 344, 284
-0.992018, 301, 141, 332, 172
-0.992058, 321, 265, 448, 328
-0.992103, 209, 145, 240, 176
-0.992127, 165, 137, 196, 168
-0.992137, 353, 65, 480, 192
-0.99214, 397, 161, 428, 192
-0.992168, 121, 177, 152, 304
-0.992183, 189, 97, 220, 128
-0.992187, 325, 149, 356, 180
-0.992198, 149, 81, 180, 208
-0.992234, 113, 241, 176, 304
-0.992236, 197, 77, 228, 108
-0.992237, 297, 49, 328, 80
-0.992239, 337, 153, 368, 184
-0.992243, 305, 61, 336, 92
-0.992254, 1, 169, 256, 232
-0.992257, 281, 141, 312, 172
-0.992274, 357, 161, 388, 192
-0.992294, 405, 173, 436, 204
-0.992304, 313, 229, 344, 260
-0.992305, 297, 241, 328, 272
-0.992321, 469, 185, 500, 216
-0.992356, 381, 221, 412, 252
-0.99236, 385, 161, 416, 192
-0.992362, 153, 133, 184, 164
-0.992363, 269, 141, 300, 172
-0.992369, 257, 97, 500, 160
-0.992383, 397, 197, 428, 228
-0.992384, 201, 53, 232, 84
-0.992404, 197, 145, 228, 176
-0.992419, 429, 181, 460, 212
-0.992426, 341, 249, 372, 280
-0.992427, 333, 85, 364, 116
-0.992431, 161, 33, 416, 96
-0.992436, 341, 165, 372, 196
-0.992437, 257, 241, 384, 272
-0.992448, 313, 145, 344, 176
-0.992452, 85, 213, 116, 244
-0.99246, 277, 241, 308, 272
-0.992472, 221, 141, 252, 172
-0.992473, 57, 201, 88, 232
-0.992475, 197, 65, 228, 96
-0.992508, 357, 177, 388, 208
-0.992509, 225, 141, 352, 172
-0.992511, 81, 189, 112, 220
-0.992514, 97, 213, 128, 244
-0.992516, 209, 45, 336, 76
-0.992519, 257, 141, 288, 172
-0.99252, 1, 209, 256, 272
-0.992522, 213, 113, 244, 144
-0.992524, 217, 89, 248, 120
-0.992541, 209, 133, 240, 164
-0.99255, 217, 49, 248, 80
-0.992565, 341, 177, 372, 208
-0.992571, 369, 293, 400, 324
-0.992586, 377, 241, 408, 272
-0.992589, 97, 201, 128, 232
-0.992595, 229, 49, 260, 80
-0.992603, 417, 177, 448, 208
-0.992604, 161, 97, 288, 128
-0.992625, 249, 113, 280, 144
-0.992627, 345, 97, 376, 128
-0.992627, 389, 237, 420, 268
-0.992628, 29, 121, 60, 152
-0.992629, 209, 1, 240, 128
-0.99263, 237, 141, 268, 172
-0.99263, 181, 145, 212, 176
-0.992635, 45, 133, 76, 164
-0.992636, 313, 241, 344, 272
-0.992652, 229, 97, 260, 128
-0.992655, 133, 145, 164, 176
-0.992655, 1, 125, 32, 156
-0.992659, 381, 97, 412, 224
-0.992663, 77, 201, 108, 232
-0.992669, 369, 165, 400, 196
-0.99267, 289, 253, 320, 284
-0.992687, 365, 113, 396, 144
-0.99269, 349, 149, 380, 180
-0.992706, 317, 73, 348, 104
-0.992707, 97, 233, 352, 296
-0.992709, 277, 41, 308, 72
-0.992719, 221, 65, 252, 96
-0.992719, 205, 93, 236, 124
-0.992719, 145, 145, 176, 176
-0.992737, 329, 253, 360, 284
-0.992748, 181, 241, 212, 272
-0.99275, 161, 149, 192, 180
-0.992752, 417, 189, 448, 220
-0.992763, 185, 85, 216, 116
-0.992775, 129, 133, 256, 164
-0.992778, 337, 189, 368, 220
-0.992785, 357, 253, 388, 284
-0.992786, 13, 189, 44, 220
-0.992787, 333, 225, 364, 256
-0.992787, 185, 33, 216, 160
-0.992787, 101, 169, 132, 200
-0.99279, 249, 93, 280, 124
-0.99279, 225, 121, 480, 184
-0.992797, 253, 129, 284, 160
-0.992807, 317, 57, 348, 88
-0.992808, 337, 177, 464, 208
-0.992822, 357, 101, 388, 132
-0.992822, 325, 161, 356, 192
-0.992829, 277, 57, 308, 88
-0.992829, 317, 217, 348, 248
-0.992829, 277, 253, 308, 284
-0.99284, 321, 133, 352, 164
-0.992845, 65, 141, 96, 172
-0.992849, 65, 213, 96, 244
-0.992849, 217, 101, 248, 132
-0.992852, 101, 189, 132, 220
-0.992856, 329, 73, 360, 104
-0.99286, 229, 197, 260, 228
-0.992862, 449, 185, 480, 216
-0.992862, 417, 165, 448, 196
-0.992864, 229, 153, 260, 184
-0.992866, 373, 125, 404, 156
-0.992867, 357, 301, 388, 332
-0.992869, 117, 141, 148, 172
-0.992869, 181, 157, 212, 188
-0.99287, 393, 173, 424, 204
-0.992871, 405, 185, 436, 216
-0.992875, 265, 241, 296, 272
-0.992885, 165, 125, 196, 156
-0.992888, 373, 149, 404, 180
-0.992891, 381, 285, 412, 316
-0.992895, 337, 237, 368, 268
-0.992899, 209, 157, 240, 188
-0.992901, 229, 85, 260, 116
-0.992901, 89, 165, 120, 196
-0.992901, 149, 209, 180, 333
-0.992902, 261, 41, 292, 72
-0.992907, 433, 193, 464, 224
-0.99291, 301, 253, 332, 284
-0.99291, 393, 225, 424, 256
-0.992918, 377, 177, 408, 208
-0.99292, 405, 265, 436, 296
-0.992929, 93, 137, 124, 168
-0.992932, 45, 201, 76, 232
-0.992938, 1, 197, 32, 228
-0.992942, 385, 209, 416, 240
-0.992946, 397, 209, 428, 240
-0.992951, 249, 45, 280, 76
-0.992952, 341, 109, 372, 140
-0.992954, 189, 269, 220, 300
-0.99296, 97, 41, 224, 104
-0.992961, 289, 37, 320, 68
-0.992962, 301, 129, 332, 160
-0.992973, 385, 189, 416, 220
-0.992977, 41, 273, 104, 333
-0.99298, 313, 157, 344, 188
-0.992988, 285, 129, 316, 160
-0.99299, 241, 81, 272, 112
-0.993027, 433, 1, 496, 333
-0.993073, 161, 109, 288, 140
-0.993138, 1, 241, 256, 304
-0.993166, 321, 165, 448, 196
-0.993177, 377, 105, 440, 168
-0.9932, 429, 113, 460, 240
-0.993206, 209, 89, 336, 120
-0.993222, 137, 81, 168, 208
-0.993225, 207, 57, 222, 120
-0.99323, 45, 81, 76, 208
-0.99329, 161, 257, 416, 320
-0.993326, 89, 241, 152, 304
-0.993452, 215, 49, 230, 112
-0.993474, 125, 81, 156, 208
-0.99349, 177, 129, 304, 160
-0.993506, 73, 81, 104, 208
-0.993576, 201, 273, 264, 333
-0.99359, 121, 97, 184, 160
-0.993621, 1, 201, 128, 232
-0.993657, 161, 185, 416, 248
-0.993681, 345, 273, 408, 333
-0.993727, 339, 73, 354, 136
-0.993816, 177, 141, 304, 172
-0.993823, 145, 41, 208, 104
-0.993876, 257, 253, 384, 284
-0.993888, 195, 73, 210, 136
-0.993888, 129, 17, 256, 80
-0.993891, 1, 233, 500, 296
-0.993912, 193, 57, 320, 88
-0.993945, 17, 265, 144, 328
-0.993968, 305, 145, 432, 176
-0.993971, 221, 49, 236, 112
-0.993982, 201, 9, 264, 72
-0.993985, 257, 41, 500, 104
-0.994039, 305, 201, 432, 232
-0.994092, 345, 161, 360, 224
-0.9941, 1, 81, 256, 144
-0.994142, 353, 73, 480, 136
-0.994145, 257, 65, 500, 128
-0.994176, 293, 249, 308, 312
-0.994183, 369, 273, 496, 333
-0.994192, 241, 61, 368, 92
-0.994193, 309, 137, 324, 200
-0.99422, 101, 81, 132, 208
-0.994225, 241, 41, 256, 104
-0.994248, 365, 65, 396, 192
-0.99429, 65, 273, 128, 333
-0.994323, 193, 77, 320, 108
-0.994326, 305, 221, 432, 252
-0.994335, 81, 141, 208, 172
-0.994341, 347, 81, 362, 144
-0.994356, 395, 161, 410, 224
-0.994373, 241, 73, 368, 104
-0.994377, 241, 153, 368, 184
-0.994427, 421, 177, 436, 240
-0.994454, 205, 81, 220, 144
-0.994487, 73, 201, 88, 264
-0.994493, 1, 81, 500, 144
-0.994517, 233, 1, 264, 256
-0.994554, 331, 137, 346, 200
-0.994559, 81, 177, 96, 240
-0.994598, 321, 241, 448, 272
-0.994641, 289, 129, 416, 160
-0.994643, 215, 81, 230, 144
-0.994649, 257, 229, 384, 260
-0.994652, 241, 109, 368, 140
-0.994693, 251, 41, 266, 104
-0.994697, 411, 161, 426, 224
-0.9947, 397, 225, 412, 288
-0.99471, 177, 137, 192, 200
-0.994714, 381, 225, 396, 288
-0.994732, 1, 57, 500, 120
-0.994759, 69, 137, 84, 200
-0.994775, 3, 177, 18, 240
-0.994776, 337, 153, 352, 216
-0.994785, 299, 41, 314, 104
-0.994817, 427, 177, 442, 240
-0.994818, 231, 41, 246, 104
-0.994821, 357, 89, 372, 152
-0.994823, 257, 85, 384, 116
-0.994833, 385, 137, 400, 200
-0.994836, 403, 161, 418, 224
-0.99485, 367, 113, 382, 176
-0.99486, 129, 149, 256, 180
-0.994861, 7, 201, 22, 264
-0.994907, 305, 189, 432, 220
-0.994909, 85, 137, 100, 200
-0.994917, 129, 137, 144, 200
-0.994922, 17, 189, 144, 220
-0.994925, 433, 209, 464, 333
-0.99493, 253, 1, 284, 256
-0.994937, 441, 177, 456, 240
-0.994946, 285, 1, 316, 256
-0.994971, 79, 201, 94, 264
-0.994984, 337, 1, 400, 128
-0.994985, 1, 257, 500, 320
-0.995009, 333, 73, 348, 136
-0.995028, 331, 241, 346, 304
-0.99503, 355, 153, 370, 216
-0.995037, 169, 33, 200, 160
-0.995046, 331, 161, 346, 224
-0.99505, 75, 145, 90, 208
-0.995054, 377, 113, 392, 176
-0.995059, 225, 201, 352, 232
-0.995066, 323, 65, 338, 128
-0.995074, 257, 189, 384, 220
-0.995083, 321, 257, 448, 288
-0.995094, 129, 121, 256, 152
-0.995106, 433, 177, 448, 240
-0.995107, 103, 193, 118, 256
-0.99511, 313, 241, 328, 304
-0.99511, 65, 57, 320, 120
-0.995162, 213, 121, 228, 184
-0.995165, 273, 97, 400, 128
-0.995169, 1, 173, 128, 204
-0.995224, 17, 137, 144, 168
-0.995234, 289, 41, 304, 104
-0.995237, 163, 129, 178, 192
-0.995249, 229, 121, 244, 184
-0.995257, 193, 229, 320, 260
-0.995259, 177, 153, 304, 184
-0.995262, 97, 193, 112, 256
-0.995269, 183, 121, 198, 184
-0.995283, 59, 121, 74, 184
-0.99529, 1, 265, 256, 328
-0.9953, 243, 65, 258, 128
-0.995301, 117, 137, 132, 200
-0.995303, 89, 81, 120, 208
-0.995336, 455, 185, 470, 248
-0.995341, 285, 241, 300, 304
-0.995342, 367, 169, 382, 232
-0.995347, 319, 153, 334, 216
-0.995357, 341, 241, 356, 304
-0.995359, 399, 201, 414, 264
-0.995366, 333, 65, 364, 320
-0.995369, 3, 113, 18, 176
-0.995373, 389, 209, 404, 272
-0.995377, 265, 1, 296, 256
-0.995382, 257, 169, 384, 200
-0.995387, 153, 129, 168, 192
-0.995412, 289, 109, 416, 140
-0.995412, 31, 121, 46, 184
-0.995419, 143, 145, 158, 208
-0.995448, 383, 113, 398, 176
-0.99545, 1, 89, 128, 152
-0.995451, 449, 185, 464, 248
-0.995466, 305, 113, 320, 176
-0.995474, 257, 213, 384, 244
-0.995477, 191, 97, 206, 160
-0.995478, 329, 49, 344, 112
-0.995496, 325, 233, 340, 296
-0.995499, 265, 25, 280, 88
-0.995527, 299, 241, 314, 304
-0.995529, 233, 185, 248, 248
-0.995532, 483, 177, 498, 240
-0.995544, 221, 33, 252, 288
-0.995577, 317, 49, 332, 112
-0.995577, 113, 81, 144, 208
-0.995609, 471, 177, 486, 240
-0.995636, 97, 201, 224, 232
-0.995639, 375, 161, 390, 224
-0.995646, 81, 169, 208, 200
-0.995651, 297, 1, 328, 256
-0.995654, 177, 189, 304, 220
-0.995658, 461, 185, 476, 248
-0.995663, 391, 233, 406, 296
-0.995669, 135, 145, 150, 208
-0.99567, 235, 73, 250, 136
-0.995678, 221, 121, 236, 184
-0.995683, 257, 17, 500, 80
-0.995688, 337, 209, 352, 272
-0.995693, 185, 33, 216, 288
-0.995705, 319, 129, 334, 192
-0.995707, 39, 121, 54, 184
-0.995723, 201, 65, 232, 320
-0.99573, 241, 121, 368, 152
-0.995736, 257, 41, 272, 104
-0.995747, 433, 265, 496, 328
-0.995749, 369, 193, 496, 224
-0.995754, 347, 233, 362, 296
-0.995755, 177, 201, 304, 232
-0.995756, 387, 177, 402, 240
-0.995767, 187, 241, 202, 304
-0.995778, 91, 185, 106, 248
-0.995782, 277, 33, 292, 96
-0.995793, 309, 49, 324, 112
-0.995805, 307, 249, 322, 312
-0.995805, 129, 81, 256, 112
-0.99581, 105, 137, 120, 200
-0.995814, 235, 121, 250, 184
-0.995826, 319, 225, 334, 288
-0.995834, 207, 137, 222, 200
-0.99585, 49, 201, 176, 232
-0.995857, 111, 193, 126, 256
-0.995858, 369, 165, 496, 196
-0.995866, 345, 49, 408, 176
-0.995878, 469, 129, 500, 256
-0.99588, 287, 201, 302, 264
-0.995891, 123, 137, 138, 200
-0.995892, 229, 161, 244, 224
-0.995907, 249, 65, 264, 128
-0.995911, 81, 189, 208, 220
-0.995912, 299, 113, 314, 176
-0.99592, 345, 65, 376, 320
-0.995928, 1, 209, 16, 272
-0.995962, 301, 153, 316, 216
-0.995964, 325, 153, 340, 216
-0.995976, 95, 137, 110, 200
-0.995983, 369, 241, 496, 272
-0.995985, 17, 121, 32, 184
-0.995988, 257, 17, 272, 80
-0.995993, 247, 89, 262, 152
-0.995994, 369, 205, 496, 236
-0.995998, 177, 241, 304, 272
-0.996005, 361, 161, 376, 224
-0.99601, 91, 209, 106, 272
-0.996058, 9, 177, 24, 240
-0.99606, 67, 209, 82, 272
-0.996062, 229, 65, 244, 128
-0.996067, 45, 121, 60, 184
-0.996094, 271, 25, 286, 88
-0.9961, 273, 265, 400, 296
-0.996105, 75, 169, 90, 232
-0.996106, 229, 97, 244, 160
-0.996113, 283, 33, 298, 96
-0.996123, 353, 49, 384, 176
-0.996132, 13, 209, 44, 333
-0.996148, 295, 201, 310, 264
-0.996163, 189, 73, 204, 136
-0.996179, 309, 33, 340, 288
-0.996184, 357, 65, 388, 320
-0.996185, 199, 145, 214, 208
-0.996193, 223, 89, 238, 152
-0.996194, 209, 33, 336, 64
-0.996196, 111, 137, 126, 200
-0.996224, 355, 177, 370, 240
-0.996233, 17, 233, 144, 264
-0.996288, 9, 65, 40, 320
-0.996292, 113, 69, 240, 100
-0.996324, 193, 257, 320, 288
-0.99635, 321, 33, 352, 288
-0.996362, 161, 45, 288, 76
-0.996407, 81, 157, 208, 188
-0.996445, 1, 125, 128, 156
-0.996519, 81, 293, 208, 324
-0.996538, 225, 269, 352, 300
-0.996541, 49, 213, 176, 244
-0.996605, 1, 213, 128, 244
-0.996649, 97, 221, 224, 252
-0.996718, 65, 129, 192, 160
-0.996733, 213, 145, 228, 176
-0.996759, 385, 65, 448, 192
-0.996794, 65, 89, 192, 152
-0.996814, 289, 49, 416, 80
-0.996814, 323, 145, 338, 176
-0.996841, 309, 141, 324, 172
-0.996912, 341, 153, 356, 184
-0.996915, 129, 57, 256, 88
-0.996951, 337, 77, 352, 108
-0.99698, 219, 141, 234, 172
-0.996997, 411, 161, 426, 192
-0.997028, 207, 145, 222, 176
-0.997033, 175, 137, 190, 168
-0.997037, 161, 129, 176, 160
-0.99705, 161, 273, 288, 304
-0.997054, 331, 149, 346, 180
-0.997054, 337, 9, 464, 72
-0.997056, 369, 217, 496, 248
-0.997059, 379, 117, 394, 148
-0.997078, 295, 141, 310, 172
-0.997086, 213, 133, 228, 164
-0.997092, 173, 65, 204, 320
-0.997094, 397, 161, 412, 192
-0.997097, 399, 217, 414, 248
-0.9971, 289, 69, 416, 100
-0.997111, 369, 65, 400, 320
-0.997143, 197, 77, 212, 108
-0.997147, 199, 65, 214, 96
-0.997152, 1, 161, 128, 192
-0.997173, 81, 117, 208, 148
-0.997184, 359, 157, 374, 188
-0.997193, 229, 141, 244, 172
-0.997197, 317, 145, 332, 176
-0.997198, 399, 189, 414, 220
-0.997207, 349, 157, 364, 188
-0.997211, 129, 161, 256, 192
-0.997214, 65, 25, 320, 88
-0.997243, 289, 141, 304, 172
-0.997255, 257, 273, 500, 333
-0.997259, 223, 93, 238, 124
-0.997268, 283, 141, 298, 172
-0.997279, 71, 201, 86, 232
-0.997288, 193, 89, 208, 120
-0.997295, 219, 113, 234, 144
-0.997298, 369, 137, 496, 168
-0.9973, 373, 117, 388, 148
-0.997301, 355, 97, 370, 128
-0.997306, 319, 57, 334, 88
-0.997318, 81, 261, 208, 292
-0.997326, 275, 141, 290, 172
-0.997329, 441, 177, 456, 208
-0.997336, 303, 137, 318, 168
-0.997354, 153, 137, 168, 168
-0.997354, 403, 161, 418, 192
-0.997371, 357, 177, 372, 208
-0.997372, 367, 109, 382, 140
-0.997379, 431, 185, 446, 216
-0.99738, 369, 149, 496, 180
-0.997382, 419, 177, 434, 208
-0.997386, 161, 285, 288, 316
-0.997395, 313, 53, 328, 84
-0.997399, 217, 93, 232, 124
-0.997412, 399, 201, 414, 232
-0.99742, 321, 97, 448, 128
-0.997423, 161, 65, 192, 320
-0.997426, 219, 129, 234, 160
-0.997426, 349, 89, 364, 120
-0.997438, 129, 189, 256, 220
-0.997457, 113, 101, 240, 132
-0.997465, 177, 177, 304, 208
-0.997467, 89, 65, 120, 320
-0.997477, 331, 73, 346, 104
-0.997483, 367, 165, 382, 196
-0.997489, 269, 141, 284, 172
-0.997497, 209, 81, 224, 112
-0.997499, 369, 253, 496, 284
-0.997513, 427, 197, 442, 228
-0.997517, 301, 241, 316, 272
-0.997524, 317, 233, 332, 264
-0.997531, 325, 69, 340, 100
-0.997539, 203, 77, 218, 108
-0.997557, 383, 129, 398, 160
-0.997558, 293, 245, 308, 276
-0.997563, 337, 301, 464, 332
-0.997576, 405, 177, 420, 208
-0.997576, 181, 137, 196, 168
-0.997594, 289, 37, 416, 68
-0.997599, 379, 293, 394, 324
-0.997602, 389, 213, 404, 244
-0.997613, 5, 177, 20, 208
-0.997623, 301, 45, 316, 76
-0.997623, 411, 265, 426, 296
-0.997625, 7, 201, 22, 232
-0.997627, 103, 205, 118, 236
-0.997629, 305, 81, 432, 112
-0.997631, 61, 65, 92, 320
-0.997636, 205, 57, 220, 88
-0.997639, 213, 53, 228, 84
-0.99764, 321, 273, 448, 304
-0.997643, 391, 237, 406, 268
-0.997646, 323, 229, 338, 260
-0.997646, 1, 125, 16, 156
-0.997648, 325, 157, 340, 188
-0.99765, 291, 257, 306, 288
-0.997652, 169, 137, 184, 168
-0.997655, 225, 129, 240, 160
-0.997662, 225, 49, 240, 80
-0.997672, 233, 185, 248, 216
-0.997679, 405, 197, 420, 228
-0.99768, 473, 181, 488, 212
-0.997685, 425, 181, 440, 212
-0.997692, 337, 245, 352, 276
-0.997693, 83, 209, 98, 240
-0.997695, 377, 165, 392, 196
-0.997698, 185, 245, 200, 276
-0.997702, 25, 65, 56, 320
-0.997704, 227, 113, 242, 144
-0.997718, 145, 145, 160, 176
-0.997718, 369, 177, 384, 208
-0.997723, 313, 245, 328, 276
-0.997727, 391, 165, 406, 196
-0.997735, 97, 233, 224, 264
-0.99774, 451, 185, 466, 216
-0.997744, 97, 249, 224, 280
-0.997747, 395, 177, 410, 208
-0.997747, 201, 145, 216, 176
-0.99775, 333, 165, 348, 196
-0.997756, 387, 149, 402, 180
-0.997767, 249, 109, 264, 140
-0.997769, 307, 57, 322, 88
-0.99777, 373, 293, 388, 324
-0.997772, 231, 89, 246, 120
-0.997772, 387, 177, 402, 208
-0.997772, 113, 165, 128, 196
-0.997772, 41, 121, 56, 152
-0.997792, 333, 221, 348, 252
-0.997794, 343, 85, 358, 116
-0.997803, 67, 137, 82, 168
-0.997817, 239, 141, 254, 172
-0.997817, 233, 49, 248, 80
-0.997818, 219, 49, 234, 80
-0.997822, 349, 253, 364, 284
-0.997824, 241, 73, 256, 104
-0.997827, 349, 105, 364, 136
-0.997838, 465, 185, 480, 216
-0.997842, 421, 253, 436, 284
-0.997844, 77, 201, 92, 232
-0.997846, 223, 153, 238, 184
-0.997846, 205, 97, 220, 128
-0.997849, 397, 237, 412, 268
-0.997849, 285, 241, 300, 272
-0.997853, 187, 145, 202, 176
-0.997859, 291, 41, 306, 72
-0.997859, 413, 253, 428, 284
-0.99786, 209, 217, 336, 248
-0.997861, 319, 157, 334, 188
-0.997868, 93, 209, 108, 240
-0.997868, 261, 133, 276, 164
-0.99787, 321, 213, 336, 244
-0.99787, 77, 65, 108, 320
-0.997873, 279, 241, 294, 272
-0.997874, 337, 121, 464, 152
-0.997887, 355, 109, 370, 140
-0.997889, 113, 65, 144, 320
-0.997892, 113, 193, 128, 224
-0.997894, 337, 233, 352, 264
-0.997895, 65, 201, 80, 232
-0.997896, 95, 189, 110, 220
-0.997923, 49, 65, 80, 320
-0.997991, 17, 149, 144, 180
-0.99802, 149, 65, 180, 320
-0.998028, 353, 109, 480, 140
-0.99803, 369, 229, 496, 260
-0.99803, 389, 65, 420, 320
-0.998042, 101, 65, 132, 320
-0.998053, 37, 65, 68, 320
-0.998094, 17, 245, 144, 276
-0.998097, 145, 229, 272, 260
-0.998181, 353, 289, 480, 320
-0.998224, 161, 217, 288, 248
-0.99825, 289, 301, 416, 332
-0.998271, 417, 65, 448, 320
-0.998275, 177, 165, 304, 196
-0.998287, 161, 25, 288, 56
-0.998308, 81, 65, 208, 128
-0.998321, 133, 177, 164, 304
-0.998322, 137, 65, 168, 320
-0.99834, 429, 65, 460, 320
-0.998355, 273, 145, 336, 160
-0.998396, 417, 81, 448, 208
-0.998398, 361, 163, 424, 178
-0.9984, 249, 143, 312, 158
-0.998405, 257, 25, 384, 56
-0.998406, 297, 147, 360, 162
-0.998406, 177, 109, 240, 124
-0.998414, 217, 145, 280, 160
-0.998415, 177, 149, 240, 164
-0.998417, 313, 159, 376, 174
-0.998427, 65, 207, 128, 222
-0.998428, 81, 281, 208, 312
-0.998431, 273, 151, 336, 166
-0.998431, 305, 153, 368, 168
-0.998435, 137, 149, 200, 164
-0.998439, 345, 169, 408, 184
-0.998448, 361, 307, 392, 322
-0.998449, 429, 175, 460, 190
-0.998449, 45, 317, 76, 332
-0.99845, 341, 179, 372, 194
-0.99845, 1, 125, 32, 140
-0.99845, 189, 89, 220, 104
-0.998451, 369, 251, 400, 266
-0.998451, 449, 201, 480, 216
-0.998452, 177, 129, 240, 144
-0.998453, 333, 233, 364, 248
-0.998453, 177, 99, 240, 114
-0.998453, 177, 121, 240, 136
-0.998456, 281, 151, 312, 166
-0.998456, 357, 157, 388, 172
-0.998457, 141, 141, 172, 156
-0.998458, 89, 165, 120, 180
-0.998458, 25, 151, 56, 166
-0.998461, 345, 157, 408, 172
-0.998461, 193, 75, 224, 90
-0.998461, 353, 169, 384, 184
-0.998462, 329, 317, 360, 332
-0.998462, 333, 247, 364, 262
-0.998463, 57, 315, 88, 330
-0.998464, 249, 99, 280, 114
-0.998464, 389, 171, 420, 186
-0.998466, 317, 71, 348, 86
-0.998467, 49, 135, 80, 150
-0.998468, 209, 53, 240, 68
-0.998468, 177, 89, 240, 104
-0.998469, 229, 203, 260, 218
-0.998469, 373, 297, 404, 312
-0.99847, 289, 71, 352, 86
-0.99847, 289, 79, 352, 94
-0.998471, 377, 291, 408, 306
-0.998471, 165, 127, 196, 142
-0.998474, 309, 63, 340, 78
-0.998475, 413, 269, 444, 284
-0.998475, 209, 113, 272, 128
-0.998475, 305, 237, 368, 252
-0.998476, 401, 275, 432, 290
-0.998476, 265, 243, 328, 258
-0.998478, 197, 59, 228, 74
-0.998478, 209, 129, 240, 144
-0.998479, 381, 245, 412, 260
-0.99848, 189, 95, 220, 110
-0.99848, 337, 259, 368, 274
-0.998482, 209, 109, 240, 124
-0.998482, 165, 157, 196, 172
-0.998483, 29, 125, 60, 140
-0.998483, 429, 189, 460, 204
-0.998484, 129, 147, 160, 162
-0.998485, 297, 243, 328, 258
-0.998486, 209, 129, 272, 144
-0.998487, 249, 151, 280, 166
-0.998488, 389, 177, 420, 192
-0.998488, 281, 63, 344, 78
-0.998488, 65, 213, 96, 228
-0.998488, 277, 253, 308, 268
-0.998489, 177, 115, 240, 130
-0.99849, 321, 165, 384, 180
-0.99849, 73, 171, 136, 186
-0.99849, 321, 145, 336, 272
-0.99849, 229, 69, 260, 84
-0.998491, 289, 247, 352, 262
-0.998491, 177, 155, 240, 170
-0.998491, 81, 141, 144, 156
-0.998491, 85, 205, 116, 220
-0.998492, 265, 251, 296, 266
-0.998492, 277, 241, 308, 256
-0.998492, 185, 69, 248, 84
-0.998495, 449, 191, 480, 206
-0.998495, 153, 155, 216, 170
-0.998495, 337, 253, 368, 268
-0.998495, 397, 195, 428, 210
-0.998495, 197, 67, 228, 82
-0.998496, 205, 97, 236, 112
-0.998496, 193, 155, 224, 170
-0.998496, 297, 57, 328, 72
-0.998499, 209, 119, 240, 134
-0.998499, 401, 201, 464, 216
-0.998499, 321, 159, 352, 174
-0.998499, 241, 113, 272, 128
-0.998499, 313, 241, 344, 256
-0.9985, 229, 153, 260, 168
-0.998501, 369, 171, 432, 186
-0.998502, 1, 125, 64, 140
-0.998502, 209, 95, 272, 110
-0.998503, 385, 181, 448, 196
-0.998504, 81, 165, 144, 180
-0.998505, 385, 163, 448, 178
-0.998505, 397, 203, 428, 218
-0.998505, 333, 93, 364, 108
-0.998506, 353, 177, 416, 192
-0.998506, 229, 119, 260, 134
-0.998508, 145, 143, 208, 158
-0.99851, 209, 107, 272, 122
-0.99851, 65, 213, 128, 228
-0.998512, 369, 125, 400, 140
-0.998512, 377, 237, 408, 252
-0.998512, 233, 151, 296, 166
-0.998512, 297, 85, 360, 100
-0.998513, 397, 183, 428, 198
-0.998514, 229, 93, 260, 108
-0.998514, 337, 49, 464, 112
-0.998515, 361, 257, 424, 272
-0.998515, 325, 79, 356, 94
-0.998518, 157, 133, 188, 148
-0.998519, 289, 255, 320, 270
-0.998519, 341, 317, 372, 332
-0.998519, 101, 171, 132, 186
-0.998519, 145, 133, 208, 148
-0.99852, 113, 149, 176, 164
-0.998522, 365, 165, 396, 180
-0.998522, 217, 121, 280, 136
-0.998523, 385, 221, 416, 236
-0.998523, 297, 141, 360, 156
-0.998523, 41, 211, 104, 226
-0.998524, 193, 63, 256, 78
-0.998524, 317, 227, 348, 242
-0.998524, 289, 253, 352, 268
-0.998524, 221, 127, 252, 142
-0.998524, 265, 249, 328, 264
-0.998525, 377, 247, 440, 262
-0.998527, 121, 167, 152, 182
-0.998527, 353, 179, 384, 194
-0.998529, 305, 227, 368, 242
-0.99853, 249, 41, 312, 56
-0.99853, 409, 179, 440, 194
-0.99853, 209, 139, 272, 154
-0.998531, 201, 153, 264, 168
-0.998532, 345, 105, 376, 120
-0.998532, 85, 171, 116, 186
-0.998532, 65, 201, 128, 216
-0.998532, 257, 89, 320, 104
-0.998533, 49, 127, 80, 142
-0.998533, 333, 87, 364, 102
-0.998533, 399, 193, 414, 320
-0.998535, 113, 167, 176, 182
-0.998535, 113, 143, 176, 158
-0.998535, 293, 149, 324, 164
-0.998536, 369, 171, 400, 186
-0.998539, 377, 229, 408, 244
-0.99854, 353, 111, 384, 126
-0.99854, 401, 187, 464, 202
-0.998541, 337, 121, 400, 136
-0.998542, 381, 163, 412, 178
-0.998542, 273, 57, 336, 72
-0.998542, 177, 83, 240, 98
-0.998542, 365, 119, 396, 134
-0.998544, 401, 173, 432, 188
-0.998545, 313, 143, 344, 158
-0.998545, 417, 193, 480, 208
-0.998546, 329, 181, 392, 196
-0.998546, 33, 205, 96, 220
-0.998546, 353, 163, 384, 178
-0.998547, 93, 213, 124, 228
-0.998547, 265, 229, 328, 244
-0.998548, 177, 203, 240, 218
-0.998549, 297, 267, 360, 282
-0.998549, 141, 147, 172, 162
-0.998549, 33, 141, 96, 156
-0.998549, 1, 201, 64, 216
-0.998549, 177, 209, 240, 224
-0.99855, 189, 101, 220, 116
-0.99855, 417, 179, 480, 194
-0.998551, 161, 151, 192, 166
-0.998551, 201, 53, 264, 68
-0.998552, 309, 155, 340, 170
-0.998552, 281, 235, 344, 250
-0.998554, 213, 113, 228, 240
-0.998555, 177, 143, 240, 158
-0.998556, 337, 251, 400, 266
-0.998556, 97, 207, 128, 222
-0.998556, 329, 317, 392, 332
-0.998557, 369, 195, 432, 210
-0.998557, 181, 155, 212, 170
-0.998558, 305, 91, 368, 106
-0.998558, 249, 61, 312, 76
-0.998558, 361, 183, 424, 198
-0.998558, 257, 255, 320, 270
-0.998559, 177, 197, 240, 212
-0.99856, 233, 197, 296, 212
-0.998561, 209, 153, 240, 168
-0.998561, 209, 101, 272, 116
-0.998561, 77, 211, 108, 226
-0.998565, 177, 135, 240, 150
-0.998566, 321, 97, 384, 112
-0.998566, 433, 185, 496, 200
-0.998566, 273, 139, 336, 154
-0.998568, 173, 149, 204, 164
-0.998569, 429, 181, 460, 196
-0.998569, 1, 113, 16, 240
-0.99857, 217, 95, 248, 110
-0.998571, 273, 145, 304, 160
-0.998572, 385, 241, 448, 256
-0.998573, 385, 229, 448, 244
-0.998573, 257, 111, 320, 126
-0.998575, 237, 145, 268, 160
-0.998575, 385, 209, 448, 224
-0.998576, 61, 205, 92, 220
-0.998576, 1, 195, 64, 210
-0.998578, 277, 247, 308, 262
-0.998578, 197, 149, 228, 164
-0.998579, 321, 103, 384, 118
-0.99858, 385, 221, 448, 236
-0.998582, 209, 147, 240, 162
-0.998582, 89, 209, 152, 224
-0.998582, 329, 243, 392, 258
-0.998582, 305, 69, 336, 84
-0.998583, 433, 199, 496, 214
-0.998583, 129, 155, 192, 170
-0.998583, 329, 113, 392, 128
-0.998583, 197, 81, 228, 96
-0.998584, 217, 191, 280, 206
-0.998584, 201, 89, 264, 104
-0.998586, 217, 47, 280, 62
-0.998588, 393, 193, 456, 208
-0.998588, 393, 175, 456, 190
-0.998589, 273, 217, 336, 232
-0.998592, 377, 203, 440, 218
-0.998592, 125, 65, 156, 320
-0.998592, 177, 275, 240, 290
-0.998594, 121, 135, 184, 150
-0.998594, 233, 33, 248, 160
-0.998595, 145, 289, 208, 304
-0.998597, 289, 249, 320, 264
-0.998597, 321, 175, 384, 190
-0.998598, 385, 215, 448, 230
-0.9986, 273, 271, 336, 286
-0.998601, 265, 193, 328, 208
-0.998602, 261, 145, 292, 160
-0.998603, 345, 157, 376, 172
-0.998604, 57, 141, 120, 156
-0.998605, 345, 235, 408, 250
-0.998605, 433, 205, 496, 220
-0.998605, 249, 145, 280, 160
-0.998605, 177, 161, 240, 176
-0.998605, 289, 199, 352, 214
-0.998606, 217, 203, 280, 218
-0.998606, 201, 75, 264, 90
-0.998606, 393, 65, 424, 192
-0.998607, 221, 33, 236, 160
-0.998607, 305, 261, 368, 276
-0.998608, 41, 135, 104, 150
-0.998611, 469, 185, 500, 200
-0.998613, 301, 141, 332, 156
-0.998614, 313, 235, 344, 250
-0.998616, 409, 145, 424, 272
-0.99862, 329, 153, 360, 168
-0.998626, 221, 147, 252, 162
-0.998637, 397, 163, 428, 178
-0.998641, 285, 143, 316, 158
-0.998644, 1, 33, 128, 160
-0.998645, 317, 149, 348, 164
-0.998649, 333, 159, 364, 174
-0.998662, 3, 161, 18, 288
-0.998663, 227, 33, 242, 160
-0.998665, 129, 261, 256, 292
-0.99867, 185, 149, 216, 164
-0.998679, 305, 149, 336, 164
-0.99868, 297, 63, 328, 78
-0.998687, 273, 285, 400, 316
-0.998689, 113, 41, 240, 72
-0.99869, 17, 257, 144, 288
-0.998697, 343, 65, 358, 192
-0.998699, 399, 145, 414, 272
-0.998706, 271, 113, 286, 240
-0.998709, 305, 145, 320, 272
-0.998709, 421, 161, 436, 288
-0.998726, 225, 113, 240, 240
-0.998732, 295, 113, 310, 240
-0.998732, 107, 129, 122, 256
-0.998735, 129, 177, 256, 208
-0.99876, 367, 113, 382, 240
-0.998769, 319, 193, 334, 320
-0.998771, 265, 113, 280, 240
-0.998774, 333, 161, 348, 288
-0.998793, 327, 145, 342, 272
-0.998796, 191, 65, 206, 192
-0.998797, 287, 33, 302, 160
-0.998797, 389, 145, 404, 272
-0.998805, 209, 21, 336, 52
-0.998806, 247, 33, 262, 160
-0.998816, 341, 129, 356, 256
-0.998822, 415, 161, 430, 288
-0.998827, 241, 33, 256, 160
-0.998827, 233, 113, 248, 240
-0.998829, 327, 65, 342, 192
-0.998833, 33, 297, 160, 328
-0.998833, 359, 97, 374, 224
-0.998834, 215, 49, 230, 176
-0.998835, 337, 65, 352, 192
-0.998836, 293, 33, 308, 160
-0.998838, 301, 193, 316, 320
-0.998842, 113, 129, 128, 256
-0.998843, 275, 33, 290, 160
-0.998847, 269, 17, 284, 144
-0.998849, 13, 113, 28, 240
-0.998849, 311, 193, 326, 320
-0.99885, 321, 49, 336, 176
-0.998854, 219, 113, 234, 240
-0.998863, 207, 113, 222, 240
-0.998864, 359, 161, 374, 288
-0.998867, 7, 113, 22, 240
-0.998869, 311, 145, 326, 272
-0.998873, 281, 145, 296, 272
-0.998876, 353, 113, 368, 240
-0.998878, 259, 17, 274, 144
-0.998879, 97, 1, 352, 64
-0.998887, 373, 113, 388, 240
-0.998895, 273, 193, 288, 320
-0.99891, 79, 129, 94, 256
-0.998914, 371, 177, 386, 304
-0.998919, 67, 129, 82, 256
-0.998919, 299, 49, 314, 176
-0.99892, 281, 33, 296, 160
-0.998923, 365, 161, 380, 288
-0.998925, 383, 113, 398, 240
-0.998939, 289, 129, 304, 256
-0.998941, 101, 129, 116, 256
-0.998942, 429, 177, 444, 304
-0.998944, 347, 113, 362, 240
-0.998947, 201, 145, 216, 272
-0.998948, 291, 193, 306, 320
-0.99895, 45, 113, 60, 240
-0.998957, 283, 193, 298, 320
-0.998958, 233, 161, 248, 288
-0.998958, 91, 129, 106, 256
-0.998961, 393, 193, 408, 320
-0.998963, 253, 17, 268, 144
-0.998975, 251, 113, 266, 240
-0.998975, 145, 129, 160, 256
-0.998979, 277, 81, 292, 208
-0.998985, 205, 49, 220, 176
-0.998986, 179, 129, 194, 256
-0.998989, 369, 265, 496, 296
-0.998995, 379, 161, 394, 288
-0.998999, 9, 177, 24, 304
-0.999003, 327, 193, 342, 320
-0.999004, 289, 81, 304, 208
-0.99901, 51, 129, 66, 256
-0.999012, 57, 113, 72, 240
-0.999012, 209, 281, 336, 312
-0.999017, 283, 81, 298, 208
-0.999017, 333, 113, 348, 240
-0.999019, 239, 113, 254, 240
-0.999024, 353, 161, 368, 288
-0.999026, 119, 129, 134, 256
-0.99903, 109, 177, 124, 304
-0.99903, 261, 161, 276, 288
-0.99903, 305, 97, 320, 224
-0.999035, 161, 113, 176, 240
-0.999037, 199, 49, 214, 176
-0.999044, 173, 129, 188, 256
-0.999044, 257, 113, 272, 240
-0.999055, 185, 97, 200, 224
-0.999062, 407, 193, 422, 320
-0.999062, 33, 281, 160, 312
-0.999064, 263, 65, 278, 192
-0.999069, 245, 145, 260, 272
-0.999072, 25, 113, 40, 240
-0.999072, 445, 65, 476, 320
-0.999085, 17, 269, 144, 300
-0.999088, 39, 113, 54, 240
-0.999091, 269, 65, 284, 192
-0.999093, 81, 89, 208, 120
-0.999096, 341, 177, 356, 304
-0.999097, 311, 65, 326, 192
-0.999102, 369, 277, 496, 308
-0.999108, 125, 129, 140, 256
-0.999112, 267, 193, 282, 320
-0.999121, 473, 177, 488, 304
-0.999122, 239, 193, 254, 320
-0.999126, 201, 97, 216, 224
-0.999129, 379, 209, 394, 333
-0.999135, 73, 129, 88, 256
-0.99914, 33, 113, 48, 240
-0.999141, 483, 177, 498, 304
-0.999145, 199, 193, 214, 320
-0.99915, 1, 109, 128, 140
-0.999163, 227, 161, 242, 288
-0.999165, 405, 65, 436, 320
-0.999172, 19, 113, 34, 240
-0.999178, 351, 65, 366, 192
-0.99918, 439, 161, 454, 288
-0.999182, 85, 113, 100, 240
-0.999182, 131, 129, 146, 256
-0.999191, 81, 57, 208, 88
-0.999194, 15, 193, 30, 320
-0.999195, 1, 209, 16, 333
-0.999196, 161, 301, 288, 332
-0.999197, 167, 129, 182, 256
-0.9992, 101, 177, 116, 304
-0.999209, 321, 97, 336, 224
-0.99921, 333, 209, 348, 333
-0.999212, 245, 81, 260, 208
-0.999223, 139, 129, 154, 256
-0.999237, 115, 193, 130, 320
-0.999241, 47, 193, 62, 320
-0.999245, 299, 1, 314, 128
-0.999335, 337, 69, 464, 100
-0.999471, 469, 65, 500, 320
-0.999497, 353, 81, 480, 112
-0.999538, 241, 297, 368, 328
-0.999547, 257, 13, 384, 44
-0.999628, 361, 1, 424, 128
-0.999629, 457, 65, 488, 320
-0.99965, 113, 205, 128, 220
-0.999651, 221, 127, 236, 142
-0.999652, 337, 241, 352, 256
-0.999653, 393, 173, 408, 188
-0.999653, 245, 125, 260, 140
-0.999653, 315, 155, 330, 170
-0.999653, 389, 245, 404, 260
-0.999653, 387, 165, 402, 180
-0.999653, 131, 145, 146, 160
-0.999653, 239, 153, 254, 168
-0.999654, 415, 269, 430, 284
-0.999654, 379, 165, 394, 180
-0.999654, 351, 315, 366, 330
-0.999655, 199, 91, 214, 106
-0.999655, 423, 203, 438, 218
-0.999655, 215, 99, 230, 114
-0.999655, 215, 109, 230, 124
-0.999656, 317, 233, 332, 248
-0.999656, 403, 163, 418, 178
-0.999656, 339, 249, 354, 264
-0.999657, 221, 109, 236, 124
-0.999657, 223, 93, 238, 108
-0.999657, 181, 157, 196, 172
-0.999657, 241, 69, 256, 84
-0.999657, 1, 127, 16, 142
-0.999657, 369, 111, 384, 126
-0.999658, 187, 243, 202, 258
-0.999658, 215, 127, 230, 142
-0.999658, 385, 175, 400, 190
-0.999658, 303, 245, 318, 260
-0.999658, 153, 149, 168, 164
-0.999658, 399, 193, 414, 208
-0.999659, 83, 215, 98, 230
-0.99966, 399, 213, 414, 228
-0.999661, 193, 155, 208, 170
-0.999662, 335, 77, 350, 92
-0.999662, 195, 83, 210, 98
-0.999662, 219, 153, 234, 168
-0.999663, 277, 243, 292, 258
-0.999664, 199, 155, 214, 170
-0.999665, 321, 227, 336, 242
-0.999667, 347, 87, 362, 102
-0.999667, 451, 191, 466, 206
-0.999668, 347, 163, 362, 178
-0.999668, 315, 63, 330, 78
-0.999668, 201, 61, 216, 76
-0.999668, 371, 161, 386, 176
-0.99967, 285, 249, 300, 264
-0.999671, 353, 155, 368, 170
-0.999672, 383, 135, 398, 150
-0.999672, 85, 171, 100, 186
-0.999672, 229, 129, 244, 144
-0.999674, 125, 167, 140, 182
-0.999675, 1, 33, 500, 96
-0.999676, 1, 179, 16, 194
-0.999676, 473, 185, 488, 200
-0.999676, 327, 71, 342, 86
-0.999677, 321, 67, 336, 82
-0.999678, 341, 147, 356, 162
-0.999678, 91, 169, 106, 184
-0.99968, 229, 95, 244, 110
-0.99968, 89, 215, 104, 230
-0.999681, 143, 147, 158, 162
-0.999681, 365, 179, 380, 194
-0.999685, 421, 179, 436, 194
-0.999685, 369, 93, 496, 124
-0.999686, 93, 209, 108, 224
-0.999686, 193, 149, 208, 164
-0.999686, 399, 221, 414, 236
-0.999689, 317, 143, 332, 158
-0.99969, 365, 159, 380, 174
-0.99969, 441, 183, 456, 198
-0.999691, 165, 151, 180, 166
-0.999692, 67, 205, 82, 220
-0.999694, 181, 151, 196, 166
-0.999695, 347, 93, 362, 108
-0.999696, 335, 151, 350, 166
-0.999702, 293, 143, 308, 158
-0.999703, 73, 205, 88, 220
-0.999703, 115, 171, 130, 186
-0.999703, 323, 233, 338, 248
-0.999704, 347, 155, 362, 170
-0.999706, 329, 77, 344, 92
-0.999706, 365, 169, 380, 184
-0.999709, 229, 153, 244, 168
-0.99971, 367, 121, 382, 136
-0.999712, 359, 179, 374, 194
-0.999713, 411, 163, 426, 178
-0.999714, 283, 145, 298, 160
-0.999716, 363, 111, 378, 126
-0.999723, 309, 61, 324, 76
-0.999723, 151, 143, 166, 158
-0.999724, 251, 145, 266, 160
-0.999725, 355, 161, 370, 176
-0.999725, 221, 147, 236, 162
-0.999726, 359, 101, 374, 116
-0.999726, 191, 95, 206, 110
-0.999727, 305, 141, 320, 156
-0.999728, 215, 147, 230, 162
-0.99973, 259, 145, 274, 160
-0.99973, 375, 117, 390, 132
-0.999731, 197, 75, 212, 90
-0.999732, 329, 151, 344, 166
-0.999736, 103, 205, 118, 220
-0.999738, 209, 9, 336, 40
-0.999741, 229, 147, 244, 162
-0.999741, 161, 131, 176, 146
-0.999741, 277, 145, 292, 160
-0.999744, 397, 163, 412, 178
-0.999744, 79, 209, 94, 224
-0.999746, 383, 129, 398, 144
-0.999746, 237, 147, 252, 162
-0.999746, 373, 123, 388, 138
-0.999746, 243, 147, 258, 162
-0.999747, 293, 249, 308, 264
-0.999748, 265, 145, 280, 160
-0.999749, 331, 157, 346, 172
-0.99975, 341, 155, 356, 170
-0.99975, 341, 161, 356, 176
-0.999752, 209, 149, 224, 164
-0.999752, 199, 149, 214, 164
-0.999754, 353, 99, 368, 114
-0.999755, 187, 151, 202, 166
-0.999756, 321, 155, 336, 170
-0.999758, 335, 83, 350, 98
-0.999758, 299, 143, 314, 158
-0.999759, 271, 145, 286, 160
-0.999782, 311, 141, 326, 156
-0.999791, 321, 149, 336, 164
-0.999808, 309, 147, 324, 162
-0.999808, 353, 105, 368, 120
-0.999815, 379, 123, 394, 138
-0.999828, 315, 149, 330, 164
-0.99983, 145, 13, 272, 44
-0.999868, 337, 13, 464, 44
-1.00065, 381, 49, 412, 176
-1.00075, 1, 57, 128, 120
-1.00115, 1, 1, 128, 64
-1.00149, 1, 1, 256, 64
-1.0019, 49, 9, 176, 72
-1.00208, 1, 9, 500, 72
-1.00262, 353, 1, 384, 128
-1.00269, 381, 1, 412, 128
-1.0028, 33, 33, 160, 96
-1.00316, 369, 1, 400, 128
-1.00333, 25, 33, 88, 160
-1.00362, 441, 81, 472, 208
-1.00414, 397, 1, 428, 128
-1.00435, 9, 17, 40, 144
-1.00494, 393, 1, 456, 128
-1.00518, 425, 81, 488, 208
-1.00524, 469, 17, 500, 144
-1.00527, 37, 33, 68, 160
-1.00542, 409, 1, 440, 128
-1.00564, 425, 1, 456, 128
-1.00642, 117, 1, 148, 128
-1.00646, 105, 1, 136, 128
-1.00656, 61, 33, 92, 160
-1.00662, 425, 1, 488, 128
-1.00682, 65, 17, 192, 144
-1.00747, 89, 1, 152, 128
-1.00818, 113, 1, 176, 128
-1.01083, 49, 33, 112, 160
-1.01223, 1, 17, 64, 144
